{
  "Title": "Recommended update for xorg-x11-server",
  "Tracking": {
    "ID": "SUSE-SU-2015:1025-1",
    "Status": "Final",
    "Version": "1",
    "InitialReleaseDate": "2014-06-27T12:01:01Z",
    "CurrentReleaseDate": "2014-06-27T12:01:01Z",
    "RevisionHistory": [
      {
        "Number": "1",
        "Date": "2014-06-27T12:01:01Z",
        "Description": "current"
      }
    ]
  },
  "Notes": [
    {
      "Text": "Recommended update for xorg-x11-server",
      "Title": "Topic",
      "Type": "Summary"
    },
    {
      "Text": "\nThis collective update for xorg-x11-server provides the following fixes:\n\n    * Fix a segmentation fault that can occur when X11 packets are\n      forwarded between a client and a server with different endianess.\n      (bnc#874903)\n    * Free software cursor backing pixmap when transition between screens.\n      This fixes a crash in multi screen support when an assert gets hit.\n      (bnc#880835)\n    * Ignore numlock in Xvnc. Following keys from VNC client will be\n      already modulated by numlock on client side. (bnc#878446)\n    * Fix crash when Xinerama gets disabled after RanR12 is initialized.\n      (bnc#878433)\n    * Prevent crash at the end of 2nd server generation when number of\n      privates differ between 1st and 2nd. (bnc#883598)\n    * Move Xinerama disable when only one screen is present to main loop.\n      (bnc#883598)\n    * Improve Xinerama command line option handling. (bnc#883598)\n    * Work around a possible crash when object belongs to a client that no\n      longer exists. (bnc#883516)\n    * Try to make keyboard bell ring on all devices attached to master\n      keyboard. (bnc#879019)\n    * Implement DeleteInputDeviceRequest in Xvnc to avoid server crash when\n      the Xserver restarts after a server reset. (bnc#880745).\n\n",
      "Title": "Details",
      "Type": "General"
    },
    {
      "Text": "The CVRF data is provided by SUSE under the Creative Commons License 4.0 with Attribution (CC-BY-4.0).",
      "Title": "Terms of Use",
      "Type": "Legal Disclaimer"
    },
    {
      "Text": "sdksp3-xorg-x11-Xvnc,sledsp3-xorg-x11-Xvnc,slessp3-xorg-x11-Xvnc",
      "Title": "Patchnames",
      "Type": "Details"
    }
  ],
  "ProductTree": {
    "Relationships": [
      {
        "ProductReference": "xorg-x11-Xvnc-7.4-27.97.1",
        "RelatesToProductReference": "SUSE Linux Enterprise Desktop 11 SP3",
        "RelationType": "Default Component Of"
      },
      {
        "ProductReference": "xorg-x11-server-7.4-27.97.1",
        "RelatesToProductReference": "SUSE Linux Enterprise Desktop 11 SP3",
        "RelationType": "Default Component Of"
      },
      {
        "ProductReference": "xorg-x11-server-extra-7.4-27.97.1",
        "RelatesToProductReference": "SUSE Linux Enterprise Desktop 11 SP3",
        "RelationType": "Default Component Of"
      },
      {
        "ProductReference": "xorg-x11-Xvnc-7.4-27.97.1",
        "RelatesToProductReference": "SUSE Linux Enterprise Server 11 SP3",
        "RelationType": "Default Component Of"
      },
      {
        "ProductReference": "xorg-x11-server-7.4-27.97.1",
        "RelatesToProductReference": "SUSE Linux Enterprise Server 11 SP3",
        "RelationType": "Default Component Of"
      },
      {
        "ProductReference": "xorg-x11-server-extra-7.4-27.97.1",
        "RelatesToProductReference": "SUSE Linux Enterprise Server 11 SP3",
        "RelationType": "Default Component Of"
      },
      {
        "ProductReference": "xorg-x11-Xvnc-7.4-27.97.1",
        "RelatesToProductReference": "SUSE Linux Enterprise Server 11 SP3-TERADATA",
        "RelationType": "Default Component Of"
      },
      {
        "ProductReference": "xorg-x11-server-7.4-27.97.1",
        "RelatesToProductReference": "SUSE Linux Enterprise Server 11 SP3-TERADATA",
        "RelationType": "Default Component Of"
      },
      {
        "ProductReference": "xorg-x11-server-extra-7.4-27.97.1",
        "RelatesToProductReference": "SUSE Linux Enterprise Server 11 SP3-TERADATA",
        "RelationType": "Default Component Of"
      },
      {
        "ProductReference": "xorg-x11-Xvnc-7.4-27.97.1",
        "RelatesToProductReference": "SUSE Linux Enterprise Server for SAP Applications 11 SP3",
        "RelationType": "Default Component Of"
      },
      {
        "ProductReference": "xorg-x11-server-7.4-27.97.1",
        "RelatesToProductReference": "SUSE Linux Enterprise Server for SAP Applications 11 SP3",
        "RelationType": "Default Component Of"
      },
      {
        "ProductReference": "xorg-x11-server-extra-7.4-27.97.1",
        "RelatesToProductReference": "SUSE Linux Enterprise Server for SAP Applications 11 SP3",
        "RelationType": "Default Component Of"
      },
      {
        "ProductReference": "xorg-x11-server-sdk-7.4-27.97.1",
        "RelatesToProductReference": "SUSE Linux Enterprise Software Development Kit 11 SP3",
        "RelationType": "Default Component Of"
      }
    ]
  },
  "References": [
    {
      "URL": "https://www.suse.com/support/update/announcement/2015/suse-su-20151025-1/",
      "Description": "Link for SUSE-SU-2015:1025-1"
    },
    {
      "URL": "https://lists.suse.com/pipermail/sle-security-updates/2015-June/001430.html",
      "Description": "E-Mail link for SUSE-SU-2015:1025-1"
    },
    {
      "URL": "https://www.suse.com/support/security/rating/",
      "Description": "SUSE Security Ratings"
    },
    {
      "URL": "https://bugzilla.suse.com/816813",
      "Description": "SUSE Bug 816813"
    },
    {
      "URL": "https://bugzilla.suse.com/843652",
      "Description": "SUSE Bug 843652"
    },
    {
      "URL": "https://bugzilla.suse.com/853846",
      "Description": "SUSE Bug 853846"
    },
    {
      "URL": "https://bugzilla.suse.com/864911",
      "Description": "SUSE Bug 864911"
    },
    {
      "URL": "https://bugzilla.suse.com/874903",
      "Description": "SUSE Bug 874903"
    },
    {
      "URL": "https://bugzilla.suse.com/878433",
      "Description": "SUSE Bug 878433"
    },
    {
      "URL": "https://bugzilla.suse.com/878446",
      "Description": "SUSE Bug 878446"
    },
    {
      "URL": "https://bugzilla.suse.com/879019",
      "Description": "SUSE Bug 879019"
    },
    {
      "URL": "https://bugzilla.suse.com/880745",
      "Description": "SUSE Bug 880745"
    },
    {
      "URL": "https://bugzilla.suse.com/880835",
      "Description": "SUSE Bug 880835"
    },
    {
      "URL": "https://bugzilla.suse.com/883051",
      "Description": "SUSE Bug 883051"
    },
    {
      "URL": "https://bugzilla.suse.com/883516",
      "Description": "SUSE Bug 883516"
    },
    {
      "URL": "https://bugzilla.suse.com/883598",
      "Description": "SUSE Bug 883598"
    },
    {
      "URL": "https://bugzilla.suse.com/886213",
      "Description": "SUSE Bug 886213"
    },
    {
      "URL": "https://bugzilla.suse.com/907268",
      "Description": "SUSE Bug 907268"
    },
    {
      "URL": "https://bugzilla.suse.com/907633",
      "Description": "SUSE Bug 907633"
    },
    {
      "URL": "https://bugzilla.suse.com/915810",
      "Description": "SUSE Bug 915810"
    },
    {
      "URL": "https://bugzilla.suse.com/928520",
      "Description": "SUSE Bug 928520"
    },
    {
      "URL": "https://www.suse.com/security/cve/CVE-2013-4396/",
      "Description": "SUSE CVE CVE-2013-4396 page"
    },
    {
      "URL": "https://www.suse.com/security/cve/CVE-2013-6424/",
      "Description": "SUSE CVE CVE-2013-6424 page"
    },
    {
      "URL": "https://www.suse.com/security/cve/CVE-2014-8091/",
      "Description": "SUSE CVE CVE-2014-8091 page"
    },
    {
      "URL": "https://www.suse.com/security/cve/CVE-2014-8092/",
      "Description": "SUSE CVE CVE-2014-8092 page"
    },
    {
      "URL": "https://www.suse.com/security/cve/CVE-2014-8093/",
      "Description": "SUSE CVE CVE-2014-8093 page"
    },
    {
      "URL": "https://www.suse.com/security/cve/CVE-2014-8094/",
      "Description": "SUSE CVE CVE-2014-8094 page"
    },
    {
      "URL": "https://www.suse.com/security/cve/CVE-2014-8095/",
      "Description": "SUSE CVE CVE-2014-8095 page"
    },
    {
      "URL": "https://www.suse.com/security/cve/CVE-2014-8096/",
      "Description": "SUSE CVE CVE-2014-8096 page"
    },
    {
      "URL": "https://www.suse.com/security/cve/CVE-2014-8097/",
      "Description": "SUSE CVE CVE-2014-8097 page"
    },
    {
      "URL": "https://www.suse.com/security/cve/CVE-2014-8098/",
      "Description": "SUSE CVE CVE-2014-8098 page"
    },
    {
      "URL": "https://www.suse.com/security/cve/CVE-2014-8099/",
      "Description": "SUSE CVE CVE-2014-8099 page"
    },
    {
      "URL": "https://www.suse.com/security/cve/CVE-2014-8100/",
      "Description": "SUSE CVE CVE-2014-8100 page"
    },
    {
      "URL": "https://www.suse.com/security/cve/CVE-2014-8101/",
      "Description": "SUSE CVE CVE-2014-8101 page"
    },
    {
      "URL": "https://www.suse.com/security/cve/CVE-2014-8102/",
      "Description": "SUSE CVE CVE-2014-8102 page"
    },
    {
      "URL": "https://www.suse.com/security/cve/CVE-2015-0255/",
      "Description": "SUSE CVE CVE-2015-0255 page"
    },
    {
      "URL": "https://www.suse.com/security/cve/CVE-2015-3418/",
      "Description": "SUSE CVE CVE-2015-3418 page"
    }
  ],
  "Vulnerabilities": [
    {
      "CVE": "CVE-2013-4396",
      "Description": "Use-after-free vulnerability in the doImageText function in dix/dixfonts.c in the xorg-server module before 1.14.4 in X.Org X11 allows remote authenticated users to cause a denial of service (daemon crash) or possibly execute arbitrary code via a crafted ImageText request that triggers memory-allocation failure.",
      "Threats": [
        {
          "Type": "Impact",
          "Severity": "moderate"
        }
      ],
      "References": [
        {
          "URL": "https://www.suse.com/security/cve/CVE-2013-4396.html",
          "Description": "CVE-2013-4396"
        },
        {
          "URL": "https://bugzilla.suse.com/843652",
          "Description": "SUSE Bug 843652"
        }
      ],
      "ProductStatuses": [
        {
          "Type": "Fixed",
          "ProductID": [
            "SUSE Linux Enterprise Desktop 11 SP3:xorg-x11-Xvnc-7.4-27.97.1",
            "SUSE Linux Enterprise Desktop 11 SP3:xorg-x11-server-7.4-27.97.1",
            "SUSE Linux Enterprise Desktop 11 SP3:xorg-x11-server-extra-7.4-27.97.1",
            "SUSE Linux Enterprise Server 11 SP3-TERADATA:xorg-x11-Xvnc-7.4-27.97.1",
            "SUSE Linux Enterprise Server 11 SP3-TERADATA:xorg-x11-server-7.4-27.97.1",
            "SUSE Linux Enterprise Server 11 SP3-TERADATA:xorg-x11-server-extra-7.4-27.97.1",
            "SUSE Linux Enterprise Server 11 SP3:xorg-x11-Xvnc-7.4-27.97.1",
            "SUSE Linux Enterprise Server 11 SP3:xorg-x11-server-7.4-27.97.1",
            "SUSE Linux Enterprise Server 11 SP3:xorg-x11-server-extra-7.4-27.97.1",
            "SUSE Linux Enterprise Server for SAP Applications 11 SP3:xorg-x11-Xvnc-7.4-27.97.1",
            "SUSE Linux Enterprise Server for SAP Applications 11 SP3:xorg-x11-server-7.4-27.97.1",
            "SUSE Linux Enterprise Server for SAP Applications 11 SP3:xorg-x11-server-extra-7.4-27.97.1",
            "SUSE Linux Enterprise Software Development Kit 11 SP3:xorg-x11-server-sdk-7.4-27.97.1"
          ]
        }
      ],
      "CVSSScoreSets": {}
    },
    {
      "CVE": "CVE-2013-6424",
      "Description": "Integer underflow in the xTrapezoidValid macro in render/picture.h in X.Org allows context-dependent attackers to cause a denial of service (crash) via a negative bottom value.",
      "Threats": [
        {
          "Type": "Impact",
          "Severity": "moderate"
        }
      ],
      "References": [
        {
          "URL": "https://www.suse.com/security/cve/CVE-2013-6424.html",
          "Description": "CVE-2013-6424"
        },
        {
          "URL": "https://bugzilla.suse.com/853846",
          "Description": "SUSE Bug 853846"
        }
      ],
      "ProductStatuses": [
        {
          "Type": "Fixed",
          "ProductID": [
            "SUSE Linux Enterprise Desktop 11 SP3:xorg-x11-Xvnc-7.4-27.97.1",
            "SUSE Linux Enterprise Desktop 11 SP3:xorg-x11-server-7.4-27.97.1",
            "SUSE Linux Enterprise Desktop 11 SP3:xorg-x11-server-extra-7.4-27.97.1",
            "SUSE Linux Enterprise Server 11 SP3-TERADATA:xorg-x11-Xvnc-7.4-27.97.1",
            "SUSE Linux Enterprise Server 11 SP3-TERADATA:xorg-x11-server-7.4-27.97.1",
            "SUSE Linux Enterprise Server 11 SP3-TERADATA:xorg-x11-server-extra-7.4-27.97.1",
            "SUSE Linux Enterprise Server 11 SP3:xorg-x11-Xvnc-7.4-27.97.1",
            "SUSE Linux Enterprise Server 11 SP3:xorg-x11-server-7.4-27.97.1",
            "SUSE Linux Enterprise Server 11 SP3:xorg-x11-server-extra-7.4-27.97.1",
            "SUSE Linux Enterprise Server for SAP Applications 11 SP3:xorg-x11-Xvnc-7.4-27.97.1",
            "SUSE Linux Enterprise Server for SAP Applications 11 SP3:xorg-x11-server-7.4-27.97.1",
            "SUSE Linux Enterprise Server for SAP Applications 11 SP3:xorg-x11-server-extra-7.4-27.97.1",
            "SUSE Linux Enterprise Software Development Kit 11 SP3:xorg-x11-server-sdk-7.4-27.97.1"
          ]
        }
      ],
      "CVSSScoreSets": {}
    },
    {
      "CVE": "CVE-2014-8091",
      "Description": "X.Org X Window System (aka X11 and X) X11R5 and X.Org Server (aka xserver and xorg-server) before 1.16.3, when using SUN-DES-1 (Secure RPC) authentication credentials, does not check the return value of a malloc call, which allows remote attackers to cause a denial of service (NULL pointer dereference and server crash) via a crafted connection request.",
      "Threats": [
        {
          "Type": "Impact",
          "Severity": "moderate"
        }
      ],
      "References": [
        {
          "URL": "https://www.suse.com/security/cve/CVE-2014-8091.html",
          "Description": "CVE-2014-8091"
        },
        {
          "URL": "https://bugzilla.suse.com/1000496",
          "Description": "SUSE Bug 1000496"
        },
        {
          "URL": "https://bugzilla.suse.com/882226",
          "Description": "SUSE Bug 882226"
        },
        {
          "URL": "https://bugzilla.suse.com/907268",
          "Description": "SUSE Bug 907268"
        }
      ],
      "ProductStatuses": [
        {
          "Type": "Fixed",
          "ProductID": [
            "SUSE Linux Enterprise Desktop 11 SP3:xorg-x11-Xvnc-7.4-27.97.1",
            "SUSE Linux Enterprise Desktop 11 SP3:xorg-x11-server-7.4-27.97.1",
            "SUSE Linux Enterprise Desktop 11 SP3:xorg-x11-server-extra-7.4-27.97.1",
            "SUSE Linux Enterprise Server 11 SP3-TERADATA:xorg-x11-Xvnc-7.4-27.97.1",
            "SUSE Linux Enterprise Server 11 SP3-TERADATA:xorg-x11-server-7.4-27.97.1",
            "SUSE Linux Enterprise Server 11 SP3-TERADATA:xorg-x11-server-extra-7.4-27.97.1",
            "SUSE Linux Enterprise Server 11 SP3:xorg-x11-Xvnc-7.4-27.97.1",
            "SUSE Linux Enterprise Server 11 SP3:xorg-x11-server-7.4-27.97.1",
            "SUSE Linux Enterprise Server 11 SP3:xorg-x11-server-extra-7.4-27.97.1",
            "SUSE Linux Enterprise Server for SAP Applications 11 SP3:xorg-x11-Xvnc-7.4-27.97.1",
            "SUSE Linux Enterprise Server for SAP Applications 11 SP3:xorg-x11-server-7.4-27.97.1",
            "SUSE Linux Enterprise Server for SAP Applications 11 SP3:xorg-x11-server-extra-7.4-27.97.1",
            "SUSE Linux Enterprise Software Development Kit 11 SP3:xorg-x11-server-sdk-7.4-27.97.1"
          ]
        }
      ],
      "CVSSScoreSets": {}
    },
    {
      "CVE": "CVE-2014-8092",
      "Description": "Multiple integer overflows in X.Org X Window System (aka X11 or X) X11R1 and X.Org Server (aka xserver and xorg-server) before 1.16.3 allow remote authenticated users to cause a denial of service (crash) or possibly execute arbitrary code via a crafted request to the (1) ProcPutImage, (2) GetHosts, (3) RegionSizeof, or (4) REQUEST_FIXED_SIZE function, which triggers an out-of-bounds read or write.",
      "Threats": [
        {
          "Type": "Impact",
          "Severity": "important"
        }
      ],
      "References": [
        {
          "URL": "https://www.suse.com/security/cve/CVE-2014-8092.html",
          "Description": "CVE-2014-8092"
        },
        {
          "URL": "https://bugzilla.suse.com/1000496",
          "Description": "SUSE Bug 1000496"
        },
        {
          "URL": "https://bugzilla.suse.com/1146596",
          "Description": "SUSE Bug 1146596"
        },
        {
          "URL": "https://bugzilla.suse.com/907268",
          "Description": "SUSE Bug 907268"
        },
        {
          "URL": "https://bugzilla.suse.com/928520",
          "Description": "SUSE Bug 928520"
        }
      ],
      "ProductStatuses": [
        {
          "Type": "Fixed",
          "ProductID": [
            "SUSE Linux Enterprise Desktop 11 SP3:xorg-x11-Xvnc-7.4-27.97.1",
            "SUSE Linux Enterprise Desktop 11 SP3:xorg-x11-server-7.4-27.97.1",
            "SUSE Linux Enterprise Desktop 11 SP3:xorg-x11-server-extra-7.4-27.97.1",
            "SUSE Linux Enterprise Server 11 SP3-TERADATA:xorg-x11-Xvnc-7.4-27.97.1",
            "SUSE Linux Enterprise Server 11 SP3-TERADATA:xorg-x11-server-7.4-27.97.1",
            "SUSE Linux Enterprise Server 11 SP3-TERADATA:xorg-x11-server-extra-7.4-27.97.1",
            "SUSE Linux Enterprise Server 11 SP3:xorg-x11-Xvnc-7.4-27.97.1",
            "SUSE Linux Enterprise Server 11 SP3:xorg-x11-server-7.4-27.97.1",
            "SUSE Linux Enterprise Server 11 SP3:xorg-x11-server-extra-7.4-27.97.1",
            "SUSE Linux Enterprise Server for SAP Applications 11 SP3:xorg-x11-Xvnc-7.4-27.97.1",
            "SUSE Linux Enterprise Server for SAP Applications 11 SP3:xorg-x11-server-7.4-27.97.1",
            "SUSE Linux Enterprise Server for SAP Applications 11 SP3:xorg-x11-server-extra-7.4-27.97.1",
            "SUSE Linux Enterprise Software Development Kit 11 SP3:xorg-x11-server-sdk-7.4-27.97.1"
          ]
        }
      ],
      "CVSSScoreSets": {}
    },
    {
      "CVE": "CVE-2014-8093",
      "Description": "Multiple integer overflows in the GLX extension in XFree86 4.0, X.Org X Window System (aka X11 or X) X11R6.7, and X.Org Server (aka xserver and xorg-server) before 1.16.3 allow remote authenticated users to cause a denial of service (crash) or possibly execute arbitrary code via a crafted request to the (1) __glXDisp_ReadPixels, (2) __glXDispSwap_ReadPixels, (3) __glXDisp_GetTexImage, (4) __glXDispSwap_GetTexImage, (5) GetSeparableFilter, (6) GetConvolutionFilter, (7) GetHistogram, (8) GetMinmax, (9) GetColorTable, (10) __glXGetAnswerBuffer, (11) __GLX_GET_ANSWER_BUFFER, (12) __glXMap1dReqSize, (13) __glXMap1fReqSize, (14) Map2Size, (15) __glXMap2dReqSize, (16) __glXMap2fReqSize, (17) __glXImageSize, or (18) __glXSeparableFilter2DReqSize function, which triggers an out-of-bounds read or write.",
      "Threats": [
        {
          "Type": "Impact",
          "Severity": "moderate"
        }
      ],
      "References": [
        {
          "URL": "https://www.suse.com/security/cve/CVE-2014-8093.html",
          "Description": "CVE-2014-8093"
        },
        {
          "URL": "https://bugzilla.suse.com/1000496",
          "Description": "SUSE Bug 1000496"
        },
        {
          "URL": "https://bugzilla.suse.com/907268",
          "Description": "SUSE Bug 907268"
        }
      ],
      "ProductStatuses": [
        {
          "Type": "Fixed",
          "ProductID": [
            "SUSE Linux Enterprise Desktop 11 SP3:xorg-x11-Xvnc-7.4-27.97.1",
            "SUSE Linux Enterprise Desktop 11 SP3:xorg-x11-server-7.4-27.97.1",
            "SUSE Linux Enterprise Desktop 11 SP3:xorg-x11-server-extra-7.4-27.97.1",
            "SUSE Linux Enterprise Server 11 SP3-TERADATA:xorg-x11-Xvnc-7.4-27.97.1",
            "SUSE Linux Enterprise Server 11 SP3-TERADATA:xorg-x11-server-7.4-27.97.1",
            "SUSE Linux Enterprise Server 11 SP3-TERADATA:xorg-x11-server-extra-7.4-27.97.1",
            "SUSE Linux Enterprise Server 11 SP3:xorg-x11-Xvnc-7.4-27.97.1",
            "SUSE Linux Enterprise Server 11 SP3:xorg-x11-server-7.4-27.97.1",
            "SUSE Linux Enterprise Server 11 SP3:xorg-x11-server-extra-7.4-27.97.1",
            "SUSE Linux Enterprise Server for SAP Applications 11 SP3:xorg-x11-Xvnc-7.4-27.97.1",
            "SUSE Linux Enterprise Server for SAP Applications 11 SP3:xorg-x11-server-7.4-27.97.1",
            "SUSE Linux Enterprise Server for SAP Applications 11 SP3:xorg-x11-server-extra-7.4-27.97.1",
            "SUSE Linux Enterprise Software Development Kit 11 SP3:xorg-x11-server-sdk-7.4-27.97.1"
          ]
        }
      ],
      "CVSSScoreSets": {}
    },
    {
      "CVE": "CVE-2014-8094",
      "Description": "Integer overflow in the ProcDRI2GetBuffers function in the DRI2 extension in X.Org Server (aka xserver and xorg-server) 1.7.0 through 1.16.x before 1.16.3 allows remote authenticated users to cause a denial of service (crash) or possibly execute arbitrary code via a crafted request, which triggers an out-of-bounds read or write.",
      "Threats": [
        {
          "Type": "Impact",
          "Severity": "moderate"
        }
      ],
      "References": [
        {
          "URL": "https://www.suse.com/security/cve/CVE-2014-8094.html",
          "Description": "CVE-2014-8094"
        },
        {
          "URL": "https://bugzilla.suse.com/1000496",
          "Description": "SUSE Bug 1000496"
        },
        {
          "URL": "https://bugzilla.suse.com/907268",
          "Description": "SUSE Bug 907268"
        }
      ],
      "ProductStatuses": [
        {
          "Type": "Fixed",
          "ProductID": [
            "SUSE Linux Enterprise Desktop 11 SP3:xorg-x11-Xvnc-7.4-27.97.1",
            "SUSE Linux Enterprise Desktop 11 SP3:xorg-x11-server-7.4-27.97.1",
            "SUSE Linux Enterprise Desktop 11 SP3:xorg-x11-server-extra-7.4-27.97.1",
            "SUSE Linux Enterprise Server 11 SP3-TERADATA:xorg-x11-Xvnc-7.4-27.97.1",
            "SUSE Linux Enterprise Server 11 SP3-TERADATA:xorg-x11-server-7.4-27.97.1",
            "SUSE Linux Enterprise Server 11 SP3-TERADATA:xorg-x11-server-extra-7.4-27.97.1",
            "SUSE Linux Enterprise Server 11 SP3:xorg-x11-Xvnc-7.4-27.97.1",
            "SUSE Linux Enterprise Server 11 SP3:xorg-x11-server-7.4-27.97.1",
            "SUSE Linux Enterprise Server 11 SP3:xorg-x11-server-extra-7.4-27.97.1",
            "SUSE Linux Enterprise Server for SAP Applications 11 SP3:xorg-x11-Xvnc-7.4-27.97.1",
            "SUSE Linux Enterprise Server for SAP Applications 11 SP3:xorg-x11-server-7.4-27.97.1",
            "SUSE Linux Enterprise Server for SAP Applications 11 SP3:xorg-x11-server-extra-7.4-27.97.1",
            "SUSE Linux Enterprise Software Development Kit 11 SP3:xorg-x11-server-sdk-7.4-27.97.1"
          ]
        }
      ],
      "CVSSScoreSets": {}
    },
    {
      "CVE": "CVE-2014-8095",
      "Description": "The XInput extension in X.Org X Window System (aka X11 or X) X11R4 and X.Org Server (aka xserver and xorg-server) before 1.16.3 allows remote authenticated users to cause a denial of service (out-of-bounds read or write) or possibly execute arbitrary code via a crafted length or index value to the (1) SProcXChangeDeviceControl, (2) ProcXChangeDeviceControl, (3) ProcXChangeFeedbackControl, (4) ProcXSendExtensionEvent, (5) SProcXIAllowEvents, (6) SProcXIChangeCursor, (7) ProcXIChangeHierarchy, (8) SProcXIGetClientPointer, (9) SProcXIGrabDevice, (10) SProcXIUngrabDevice, (11) ProcXIUngrabDevice, (12) SProcXIPassiveGrabDevice, (13) ProcXIPassiveGrabDevice, (14) SProcXIPassiveUngrabDevice, (15) ProcXIPassiveUngrabDevice, (16) SProcXListDeviceProperties, (17) SProcXDeleteDeviceProperty, (18) SProcXIListProperties, (19) SProcXIDeleteProperty, (20) SProcXIGetProperty, (21) SProcXIQueryDevice, (22) SProcXIQueryPointer, (23) SProcXISelectEvents, (24) SProcXISetClientPointer, (25) SProcXISetFocus, (26) SProcXIGetFocus, or (27) SProcXIWarpPointer function.",
      "Threats": [
        {
          "Type": "Impact",
          "Severity": "moderate"
        }
      ],
      "References": [
        {
          "URL": "https://www.suse.com/security/cve/CVE-2014-8095.html",
          "Description": "CVE-2014-8095"
        },
        {
          "URL": "https://bugzilla.suse.com/1000496",
          "Description": "SUSE Bug 1000496"
        },
        {
          "URL": "https://bugzilla.suse.com/907268",
          "Description": "SUSE Bug 907268"
        }
      ],
      "ProductStatuses": [
        {
          "Type": "Fixed",
          "ProductID": [
            "SUSE Linux Enterprise Desktop 11 SP3:xorg-x11-Xvnc-7.4-27.97.1",
            "SUSE Linux Enterprise Desktop 11 SP3:xorg-x11-server-7.4-27.97.1",
            "SUSE Linux Enterprise Desktop 11 SP3:xorg-x11-server-extra-7.4-27.97.1",
            "SUSE Linux Enterprise Server 11 SP3-TERADATA:xorg-x11-Xvnc-7.4-27.97.1",
            "SUSE Linux Enterprise Server 11 SP3-TERADATA:xorg-x11-server-7.4-27.97.1",
            "SUSE Linux Enterprise Server 11 SP3-TERADATA:xorg-x11-server-extra-7.4-27.97.1",
            "SUSE Linux Enterprise Server 11 SP3:xorg-x11-Xvnc-7.4-27.97.1",
            "SUSE Linux Enterprise Server 11 SP3:xorg-x11-server-7.4-27.97.1",
            "SUSE Linux Enterprise Server 11 SP3:xorg-x11-server-extra-7.4-27.97.1",
            "SUSE Linux Enterprise Server for SAP Applications 11 SP3:xorg-x11-Xvnc-7.4-27.97.1",
            "SUSE Linux Enterprise Server for SAP Applications 11 SP3:xorg-x11-server-7.4-27.97.1",
            "SUSE Linux Enterprise Server for SAP Applications 11 SP3:xorg-x11-server-extra-7.4-27.97.1",
            "SUSE Linux Enterprise Software Development Kit 11 SP3:xorg-x11-server-sdk-7.4-27.97.1"
          ]
        }
      ],
      "CVSSScoreSets": {}
    },
    {
      "CVE": "CVE-2014-8096",
      "Description": "The SProcXCMiscGetXIDList function in the XC-MISC extension in X.Org X Window System (aka X11 or X) X11R6.0 and X.Org Server (aka xserver and xorg-server) before 1.16.3 allows remote authenticated users to cause a denial of service (out-of-bounds read or write) or possibly execute arbitrary code via a crafted length or index value.",
      "Threats": [
        {
          "Type": "Impact",
          "Severity": "moderate"
        }
      ],
      "References": [
        {
          "URL": "https://www.suse.com/security/cve/CVE-2014-8096.html",
          "Description": "CVE-2014-8096"
        },
        {
          "URL": "https://bugzilla.suse.com/1000496",
          "Description": "SUSE Bug 1000496"
        },
        {
          "URL": "https://bugzilla.suse.com/907268",
          "Description": "SUSE Bug 907268"
        }
      ],
      "ProductStatuses": [
        {
          "Type": "Fixed",
          "ProductID": [
            "SUSE Linux Enterprise Desktop 11 SP3:xorg-x11-Xvnc-7.4-27.97.1",
            "SUSE Linux Enterprise Desktop 11 SP3:xorg-x11-server-7.4-27.97.1",
            "SUSE Linux Enterprise Desktop 11 SP3:xorg-x11-server-extra-7.4-27.97.1",
            "SUSE Linux Enterprise Server 11 SP3-TERADATA:xorg-x11-Xvnc-7.4-27.97.1",
            "SUSE Linux Enterprise Server 11 SP3-TERADATA:xorg-x11-server-7.4-27.97.1",
            "SUSE Linux Enterprise Server 11 SP3-TERADATA:xorg-x11-server-extra-7.4-27.97.1",
            "SUSE Linux Enterprise Server 11 SP3:xorg-x11-Xvnc-7.4-27.97.1",
            "SUSE Linux Enterprise Server 11 SP3:xorg-x11-server-7.4-27.97.1",
            "SUSE Linux Enterprise Server 11 SP3:xorg-x11-server-extra-7.4-27.97.1",
            "SUSE Linux Enterprise Server for SAP Applications 11 SP3:xorg-x11-Xvnc-7.4-27.97.1",
            "SUSE Linux Enterprise Server for SAP Applications 11 SP3:xorg-x11-server-7.4-27.97.1",
            "SUSE Linux Enterprise Server for SAP Applications 11 SP3:xorg-x11-server-extra-7.4-27.97.1",
            "SUSE Linux Enterprise Software Development Kit 11 SP3:xorg-x11-server-sdk-7.4-27.97.1"
          ]
        }
      ],
      "CVSSScoreSets": {}
    },
    {
      "CVE": "CVE-2014-8097",
      "Description": "The DBE extension in X.Org X Window System (aka X11 or X) X11R6.1 and X.Org Server (aka xserver and xorg-server) before 1.16.3 allows remote authenticated users to cause a denial of service (out-of-bounds read or write) or possibly execute arbitrary code via a crafted length or index value to the (1) ProcDbeSwapBuffers or (2) SProcDbeSwapBuffers function.",
      "Threats": [
        {
          "Type": "Impact",
          "Severity": "moderate"
        }
      ],
      "References": [
        {
          "URL": "https://www.suse.com/security/cve/CVE-2014-8097.html",
          "Description": "CVE-2014-8097"
        },
        {
          "URL": "https://bugzilla.suse.com/1000496",
          "Description": "SUSE Bug 1000496"
        },
        {
          "URL": "https://bugzilla.suse.com/907268",
          "Description": "SUSE Bug 907268"
        }
      ],
      "ProductStatuses": [
        {
          "Type": "Fixed",
          "ProductID": [
            "SUSE Linux Enterprise Desktop 11 SP3:xorg-x11-Xvnc-7.4-27.97.1",
            "SUSE Linux Enterprise Desktop 11 SP3:xorg-x11-server-7.4-27.97.1",
            "SUSE Linux Enterprise Desktop 11 SP3:xorg-x11-server-extra-7.4-27.97.1",
            "SUSE Linux Enterprise Server 11 SP3-TERADATA:xorg-x11-Xvnc-7.4-27.97.1",
            "SUSE Linux Enterprise Server 11 SP3-TERADATA:xorg-x11-server-7.4-27.97.1",
            "SUSE Linux Enterprise Server 11 SP3-TERADATA:xorg-x11-server-extra-7.4-27.97.1",
            "SUSE Linux Enterprise Server 11 SP3:xorg-x11-Xvnc-7.4-27.97.1",
            "SUSE Linux Enterprise Server 11 SP3:xorg-x11-server-7.4-27.97.1",
            "SUSE Linux Enterprise Server 11 SP3:xorg-x11-server-extra-7.4-27.97.1",
            "SUSE Linux Enterprise Server for SAP Applications 11 SP3:xorg-x11-Xvnc-7.4-27.97.1",
            "SUSE Linux Enterprise Server for SAP Applications 11 SP3:xorg-x11-server-7.4-27.97.1",
            "SUSE Linux Enterprise Server for SAP Applications 11 SP3:xorg-x11-server-extra-7.4-27.97.1",
            "SUSE Linux Enterprise Software Development Kit 11 SP3:xorg-x11-server-sdk-7.4-27.97.1"
          ]
        }
      ],
      "CVSSScoreSets": {}
    },
    {
      "CVE": "CVE-2014-8098",
      "Description": "The GLX extension in XFree86 4.0, X.Org X Window System (aka X11 or X) X11R6.7, and X.Org Server (aka xserver and xorg-server) before 1.16.3 allows remote authenticated users to cause a denial of service (out-of-bounds read or write) or possibly execute arbitrary code via a crafted length or index value to the (1) __glXDisp_Render, (2) __glXDisp_RenderLarge, (3) __glXDispSwap_VendorPrivate, (4) __glXDispSwap_VendorPrivateWithReply, (5) set_client_info, (6) __glXDispSwap_SetClientInfoARB, (7) DoSwapInterval, (8) DoGetProgramString, (9) DoGetString, (10) __glXDispSwap_RenderMode, (11) __glXDisp_GetCompressedTexImage, (12) __glXDispSwap_GetCompressedTexImage, (13) __glXDisp_FeedbackBuffer, (14) __glXDispSwap_FeedbackBuffer, (15) __glXDisp_SelectBuffer, (16) __glXDispSwap_SelectBuffer, (17) __glXDisp_Flush, (18) __glXDispSwap_Flush, (19) __glXDisp_Finish, (20) __glXDispSwap_Finish, (21) __glXDisp_ReadPixels, (22) __glXDispSwap_ReadPixels, (23) __glXDisp_GetTexImage, (24) __glXDispSwap_GetTexImage, (25) __glXDisp_GetPolygonStipple, (26) __glXDispSwap_GetPolygonStipple, (27) __glXDisp_GetSeparableFilter, (28) __glXDisp_GetSeparableFilterEXT, (29) __glXDisp_GetConvolutionFilter, (30) __glXDisp_GetConvolutionFilterEXT, (31) __glXDisp_GetHistogram, (32) __glXDisp_GetHistogramEXT, (33) __glXDisp_GetMinmax, (34) __glXDisp_GetMinmaxEXT, (35) __glXDisp_GetColorTable, (36) __glXDisp_GetColorTableSGI, (37) GetSeparableFilter, (38) GetConvolutionFilter, (39) GetHistogram, (40) GetMinmax, or (41) GetColorTable function.",
      "Threats": [
        {
          "Type": "Impact",
          "Severity": "moderate"
        }
      ],
      "References": [
        {
          "URL": "https://www.suse.com/security/cve/CVE-2014-8098.html",
          "Description": "CVE-2014-8098"
        },
        {
          "URL": "https://bugzilla.suse.com/1000496",
          "Description": "SUSE Bug 1000496"
        },
        {
          "URL": "https://bugzilla.suse.com/907268",
          "Description": "SUSE Bug 907268"
        }
      ],
      "ProductStatuses": [
        {
          "Type": "Fixed",
          "ProductID": [
            "SUSE Linux Enterprise Desktop 11 SP3:xorg-x11-Xvnc-7.4-27.97.1",
            "SUSE Linux Enterprise Desktop 11 SP3:xorg-x11-server-7.4-27.97.1",
            "SUSE Linux Enterprise Desktop 11 SP3:xorg-x11-server-extra-7.4-27.97.1",
            "SUSE Linux Enterprise Server 11 SP3-TERADATA:xorg-x11-Xvnc-7.4-27.97.1",
            "SUSE Linux Enterprise Server 11 SP3-TERADATA:xorg-x11-server-7.4-27.97.1",
            "SUSE Linux Enterprise Server 11 SP3-TERADATA:xorg-x11-server-extra-7.4-27.97.1",
            "SUSE Linux Enterprise Server 11 SP3:xorg-x11-Xvnc-7.4-27.97.1",
            "SUSE Linux Enterprise Server 11 SP3:xorg-x11-server-7.4-27.97.1",
            "SUSE Linux Enterprise Server 11 SP3:xorg-x11-server-extra-7.4-27.97.1",
            "SUSE Linux Enterprise Server for SAP Applications 11 SP3:xorg-x11-Xvnc-7.4-27.97.1",
            "SUSE Linux Enterprise Server for SAP Applications 11 SP3:xorg-x11-server-7.4-27.97.1",
            "SUSE Linux Enterprise Server for SAP Applications 11 SP3:xorg-x11-server-extra-7.4-27.97.1",
            "SUSE Linux Enterprise Software Development Kit 11 SP3:xorg-x11-server-sdk-7.4-27.97.1"
          ]
        }
      ],
      "CVSSScoreSets": {}
    },
    {
      "CVE": "CVE-2014-8099",
      "Description": "The XVideo extension in XFree86 4.0.0, X.Org X Window System (aka X11 or X) X11R6.7, and X.Org Server (aka xserver and xorg-server) before 1.16.3 allows remote authenticated users to cause a denial of service (out-of-bounds read or write) or possibly execute arbitrary code via a crafted length or index value to the (1) SProcXvQueryExtension, (2) SProcXvQueryAdaptors, (3) SProcXvQueryEncodings, (4) SProcXvGrabPort, (5) SProcXvUngrabPort, (6) SProcXvPutVideo, (7) SProcXvPutStill, (8) SProcXvGetVideo, (9) SProcXvGetStill, (10) SProcXvPutImage, (11) SProcXvShmPutImage, (12) SProcXvSelectVideoNotify, (13) SProcXvSelectPortNotify, (14) SProcXvStopVideo, (15) SProcXvSetPortAttribute, (16) SProcXvGetPortAttribute, (17) SProcXvQueryBestSize, (18) SProcXvQueryPortAttributes, (19) SProcXvQueryImageAttributes, or (20) SProcXvListImageFormats function.",
      "Threats": [
        {
          "Type": "Impact",
          "Severity": "moderate"
        }
      ],
      "References": [
        {
          "URL": "https://www.suse.com/security/cve/CVE-2014-8099.html",
          "Description": "CVE-2014-8099"
        },
        {
          "URL": "https://bugzilla.suse.com/1000496",
          "Description": "SUSE Bug 1000496"
        },
        {
          "URL": "https://bugzilla.suse.com/907268",
          "Description": "SUSE Bug 907268"
        }
      ],
      "ProductStatuses": [
        {
          "Type": "Fixed",
          "ProductID": [
            "SUSE Linux Enterprise Desktop 11 SP3:xorg-x11-Xvnc-7.4-27.97.1",
            "SUSE Linux Enterprise Desktop 11 SP3:xorg-x11-server-7.4-27.97.1",
            "SUSE Linux Enterprise Desktop 11 SP3:xorg-x11-server-extra-7.4-27.97.1",
            "SUSE Linux Enterprise Server 11 SP3-TERADATA:xorg-x11-Xvnc-7.4-27.97.1",
            "SUSE Linux Enterprise Server 11 SP3-TERADATA:xorg-x11-server-7.4-27.97.1",
            "SUSE Linux Enterprise Server 11 SP3-TERADATA:xorg-x11-server-extra-7.4-27.97.1",
            "SUSE Linux Enterprise Server 11 SP3:xorg-x11-Xvnc-7.4-27.97.1",
            "SUSE Linux Enterprise Server 11 SP3:xorg-x11-server-7.4-27.97.1",
            "SUSE Linux Enterprise Server 11 SP3:xorg-x11-server-extra-7.4-27.97.1",
            "SUSE Linux Enterprise Server for SAP Applications 11 SP3:xorg-x11-Xvnc-7.4-27.97.1",
            "SUSE Linux Enterprise Server for SAP Applications 11 SP3:xorg-x11-server-7.4-27.97.1",
            "SUSE Linux Enterprise Server for SAP Applications 11 SP3:xorg-x11-server-extra-7.4-27.97.1",
            "SUSE Linux Enterprise Software Development Kit 11 SP3:xorg-x11-server-sdk-7.4-27.97.1"
          ]
        }
      ],
      "CVSSScoreSets": {}
    },
    {
      "CVE": "CVE-2014-8100",
      "Description": "The Render extension in XFree86 4.0.1, X.Org X Window System (aka X11 or X) X11R6.7, and X.Org Server (aka xserver and xorg-server) before 1.16.3 allows remote authenticated users to cause a denial of service (out-of-bounds read or write) or possibly execute arbitrary code via a crafted length or index value to the (1) ProcRenderQueryVersion, (2) SProcRenderQueryVersion, (3) SProcRenderQueryPictFormats, (4) SProcRenderQueryPictIndexValues, (5) SProcRenderCreatePicture, (6) SProcRenderChangePicture, (7) SProcRenderSetPictureClipRectangles, (8) SProcRenderFreePicture, (9) SProcRenderComposite, (10) SProcRenderScale, (11) SProcRenderCreateGlyphSet, (12) SProcRenderReferenceGlyphSet, (13) SProcRenderFreeGlyphSet, (14) SProcRenderFreeGlyphs, or (15) SProcRenderCompositeGlyphs function.",
      "Threats": [
        {
          "Type": "Impact",
          "Severity": "moderate"
        }
      ],
      "References": [
        {
          "URL": "https://www.suse.com/security/cve/CVE-2014-8100.html",
          "Description": "CVE-2014-8100"
        },
        {
          "URL": "https://bugzilla.suse.com/1000496",
          "Description": "SUSE Bug 1000496"
        },
        {
          "URL": "https://bugzilla.suse.com/907268",
          "Description": "SUSE Bug 907268"
        }
      ],
      "ProductStatuses": [
        {
          "Type": "Fixed",
          "ProductID": [
            "SUSE Linux Enterprise Desktop 11 SP3:xorg-x11-Xvnc-7.4-27.97.1",
            "SUSE Linux Enterprise Desktop 11 SP3:xorg-x11-server-7.4-27.97.1",
            "SUSE Linux Enterprise Desktop 11 SP3:xorg-x11-server-extra-7.4-27.97.1",
            "SUSE Linux Enterprise Server 11 SP3-TERADATA:xorg-x11-Xvnc-7.4-27.97.1",
            "SUSE Linux Enterprise Server 11 SP3-TERADATA:xorg-x11-server-7.4-27.97.1",
            "SUSE Linux Enterprise Server 11 SP3-TERADATA:xorg-x11-server-extra-7.4-27.97.1",
            "SUSE Linux Enterprise Server 11 SP3:xorg-x11-Xvnc-7.4-27.97.1",
            "SUSE Linux Enterprise Server 11 SP3:xorg-x11-server-7.4-27.97.1",
            "SUSE Linux Enterprise Server 11 SP3:xorg-x11-server-extra-7.4-27.97.1",
            "SUSE Linux Enterprise Server for SAP Applications 11 SP3:xorg-x11-Xvnc-7.4-27.97.1",
            "SUSE Linux Enterprise Server for SAP Applications 11 SP3:xorg-x11-server-7.4-27.97.1",
            "SUSE Linux Enterprise Server for SAP Applications 11 SP3:xorg-x11-server-extra-7.4-27.97.1",
            "SUSE Linux Enterprise Software Development Kit 11 SP3:xorg-x11-server-sdk-7.4-27.97.1"
          ]
        }
      ],
      "CVSSScoreSets": {}
    },
    {
      "CVE": "CVE-2014-8101",
      "Description": "The RandR extension in XFree86 4.2.0, X.Org X Window System (aka X11 or X) X11R6.7, and X.Org Server (aka xserver and xorg-server) before 1.16.3 allows remote authenticated users to cause a denial of service (out-of-bounds read or write) or possibly execute arbitrary code via a crafted length or index value to the (1) SProcRRQueryVersion, (2) SProcRRGetScreenInfo, (3) SProcRRSelectInput, or (4) SProcRRConfigureOutputProperty function.",
      "Threats": [
        {
          "Type": "Impact",
          "Severity": "moderate"
        }
      ],
      "References": [
        {
          "URL": "https://www.suse.com/security/cve/CVE-2014-8101.html",
          "Description": "CVE-2014-8101"
        },
        {
          "URL": "https://bugzilla.suse.com/1000496",
          "Description": "SUSE Bug 1000496"
        },
        {
          "URL": "https://bugzilla.suse.com/907268",
          "Description": "SUSE Bug 907268"
        }
      ],
      "ProductStatuses": [
        {
          "Type": "Fixed",
          "ProductID": [
            "SUSE Linux Enterprise Desktop 11 SP3:xorg-x11-Xvnc-7.4-27.97.1",
            "SUSE Linux Enterprise Desktop 11 SP3:xorg-x11-server-7.4-27.97.1",
            "SUSE Linux Enterprise Desktop 11 SP3:xorg-x11-server-extra-7.4-27.97.1",
            "SUSE Linux Enterprise Server 11 SP3-TERADATA:xorg-x11-Xvnc-7.4-27.97.1",
            "SUSE Linux Enterprise Server 11 SP3-TERADATA:xorg-x11-server-7.4-27.97.1",
            "SUSE Linux Enterprise Server 11 SP3-TERADATA:xorg-x11-server-extra-7.4-27.97.1",
            "SUSE Linux Enterprise Server 11 SP3:xorg-x11-Xvnc-7.4-27.97.1",
            "SUSE Linux Enterprise Server 11 SP3:xorg-x11-server-7.4-27.97.1",
            "SUSE Linux Enterprise Server 11 SP3:xorg-x11-server-extra-7.4-27.97.1",
            "SUSE Linux Enterprise Server for SAP Applications 11 SP3:xorg-x11-Xvnc-7.4-27.97.1",
            "SUSE Linux Enterprise Server for SAP Applications 11 SP3:xorg-x11-server-7.4-27.97.1",
            "SUSE Linux Enterprise Server for SAP Applications 11 SP3:xorg-x11-server-extra-7.4-27.97.1",
            "SUSE Linux Enterprise Software Development Kit 11 SP3:xorg-x11-server-sdk-7.4-27.97.1"
          ]
        }
      ],
      "CVSSScoreSets": {}
    },
    {
      "CVE": "CVE-2014-8102",
      "Description": "The SProcXFixesSelectSelectionInput function in the XFixes extension in X.Org X Window System (aka X11 or X) X11R6.8.0 and X.Org Server (aka xserver and xorg-server) before 1.16.3 allows remote authenticated users to cause a denial of service (out-of-bounds read or write) or possibly execute arbitrary code via a crafted length value.",
      "Threats": [
        {
          "Type": "Impact",
          "Severity": "moderate"
        }
      ],
      "References": [
        {
          "URL": "https://www.suse.com/security/cve/CVE-2014-8102.html",
          "Description": "CVE-2014-8102"
        },
        {
          "URL": "https://bugzilla.suse.com/1000496",
          "Description": "SUSE Bug 1000496"
        },
        {
          "URL": "https://bugzilla.suse.com/907268",
          "Description": "SUSE Bug 907268"
        }
      ],
      "ProductStatuses": [
        {
          "Type": "Fixed",
          "ProductID": [
            "SUSE Linux Enterprise Desktop 11 SP3:xorg-x11-Xvnc-7.4-27.97.1",
            "SUSE Linux Enterprise Desktop 11 SP3:xorg-x11-server-7.4-27.97.1",
            "SUSE Linux Enterprise Desktop 11 SP3:xorg-x11-server-extra-7.4-27.97.1",
            "SUSE Linux Enterprise Server 11 SP3-TERADATA:xorg-x11-Xvnc-7.4-27.97.1",
            "SUSE Linux Enterprise Server 11 SP3-TERADATA:xorg-x11-server-7.4-27.97.1",
            "SUSE Linux Enterprise Server 11 SP3-TERADATA:xorg-x11-server-extra-7.4-27.97.1",
            "SUSE Linux Enterprise Server 11 SP3:xorg-x11-Xvnc-7.4-27.97.1",
            "SUSE Linux Enterprise Server 11 SP3:xorg-x11-server-7.4-27.97.1",
            "SUSE Linux Enterprise Server 11 SP3:xorg-x11-server-extra-7.4-27.97.1",
            "SUSE Linux Enterprise Server for SAP Applications 11 SP3:xorg-x11-Xvnc-7.4-27.97.1",
            "SUSE Linux Enterprise Server for SAP Applications 11 SP3:xorg-x11-server-7.4-27.97.1",
            "SUSE Linux Enterprise Server for SAP Applications 11 SP3:xorg-x11-server-extra-7.4-27.97.1",
            "SUSE Linux Enterprise Software Development Kit 11 SP3:xorg-x11-server-sdk-7.4-27.97.1"
          ]
        }
      ],
      "CVSSScoreSets": {}
    },
    {
      "CVE": "CVE-2015-0255",
      "Description": "X.Org Server (aka xserver and xorg-server) before 1.16.3 and 1.17.x before 1.17.1 allows remote attackers to obtain sensitive information from process memory or cause a denial of service (crash) via a crafted string length value in a XkbSetGeometry request.",
      "Threats": [
        {
          "Type": "Impact",
          "Severity": "moderate"
        }
      ],
      "References": [
        {
          "URL": "https://www.suse.com/security/cve/CVE-2015-0255.html",
          "Description": "CVE-2015-0255"
        },
        {
          "URL": "https://bugzilla.suse.com/915810",
          "Description": "SUSE Bug 915810"
        }
      ],
      "ProductStatuses": [
        {
          "Type": "Fixed",
          "ProductID": [
            "SUSE Linux Enterprise Desktop 11 SP3:xorg-x11-Xvnc-7.4-27.97.1",
            "SUSE Linux Enterprise Desktop 11 SP3:xorg-x11-server-7.4-27.97.1",
            "SUSE Linux Enterprise Desktop 11 SP3:xorg-x11-server-extra-7.4-27.97.1",
            "SUSE Linux Enterprise Server 11 SP3-TERADATA:xorg-x11-Xvnc-7.4-27.97.1",
            "SUSE Linux Enterprise Server 11 SP3-TERADATA:xorg-x11-server-7.4-27.97.1",
            "SUSE Linux Enterprise Server 11 SP3-TERADATA:xorg-x11-server-extra-7.4-27.97.1",
            "SUSE Linux Enterprise Server 11 SP3:xorg-x11-Xvnc-7.4-27.97.1",
            "SUSE Linux Enterprise Server 11 SP3:xorg-x11-server-7.4-27.97.1",
            "SUSE Linux Enterprise Server 11 SP3:xorg-x11-server-extra-7.4-27.97.1",
            "SUSE Linux Enterprise Server for SAP Applications 11 SP3:xorg-x11-Xvnc-7.4-27.97.1",
            "SUSE Linux Enterprise Server for SAP Applications 11 SP3:xorg-x11-server-7.4-27.97.1",
            "SUSE Linux Enterprise Server for SAP Applications 11 SP3:xorg-x11-server-extra-7.4-27.97.1",
            "SUSE Linux Enterprise Software Development Kit 11 SP3:xorg-x11-server-sdk-7.4-27.97.1"
          ]
        }
      ],
      "CVSSScoreSets": {}
    },
    {
      "CVE": "CVE-2015-3418",
      "Description": "The ProcPutImage function in dix/dispatch.c in X.Org Server (aka xserver and xorg-server) before 1.16.4 allows attackers to cause a denial of service (divide-by-zero and crash) via a zero-height PutImage request.",
      "Threats": [
        {
          "Type": "Impact",
          "Severity": "moderate"
        }
      ],
      "References": [
        {
          "URL": "https://www.suse.com/security/cve/CVE-2015-3418.html",
          "Description": "CVE-2015-3418"
        },
        {
          "URL": "https://bugzilla.suse.com/1000496",
          "Description": "SUSE Bug 1000496"
        },
        {
          "URL": "https://bugzilla.suse.com/928520",
          "Description": "SUSE Bug 928520"
        }
      ],
      "ProductStatuses": [
        {
          "Type": "Fixed",
          "ProductID": [
            "SUSE Linux Enterprise Desktop 11 SP3:xorg-x11-Xvnc-7.4-27.97.1",
            "SUSE Linux Enterprise Desktop 11 SP3:xorg-x11-server-7.4-27.97.1",
            "SUSE Linux Enterprise Desktop 11 SP3:xorg-x11-server-extra-7.4-27.97.1",
            "SUSE Linux Enterprise Server 11 SP3-TERADATA:xorg-x11-Xvnc-7.4-27.97.1",
            "SUSE Linux Enterprise Server 11 SP3-TERADATA:xorg-x11-server-7.4-27.97.1",
            "SUSE Linux Enterprise Server 11 SP3-TERADATA:xorg-x11-server-extra-7.4-27.97.1",
            "SUSE Linux Enterprise Server 11 SP3:xorg-x11-Xvnc-7.4-27.97.1",
            "SUSE Linux Enterprise Server 11 SP3:xorg-x11-server-7.4-27.97.1",
            "SUSE Linux Enterprise Server 11 SP3:xorg-x11-server-extra-7.4-27.97.1",
            "SUSE Linux Enterprise Server for SAP Applications 11 SP3:xorg-x11-Xvnc-7.4-27.97.1",
            "SUSE Linux Enterprise Server for SAP Applications 11 SP3:xorg-x11-server-7.4-27.97.1",
            "SUSE Linux Enterprise Server for SAP Applications 11 SP3:xorg-x11-server-extra-7.4-27.97.1",
            "SUSE Linux Enterprise Software Development Kit 11 SP3:xorg-x11-server-sdk-7.4-27.97.1"
          ]
        }
      ],
      "CVSSScoreSets": {}
    }
  ]
}