{
  "Title": "Security update for xorg-x11-libs",
  "Tracking": {
    "ID": "SUSE-SU-2015:0674-1",
    "Status": "Final",
    "Version": "1",
    "InitialReleaseDate": "2014-05-15T16:30:57Z",
    "CurrentReleaseDate": "2014-05-15T16:30:57Z",
    "RevisionHistory": [
      {
        "Number": "1",
        "Date": "2014-05-15T16:30:57Z",
        "Description": "current"
      }
    ]
  },
  "Notes": [
    {
      "Text": "Security update for xorg-x11-libs",
      "Title": "Topic",
      "Type": "Summary"
    },
    {
      "Text": "\nxorg-x11-libs was patched to fix the following security issues:\n\n    * Integer overflow of allocations in font metadata file parsing.\n      (CVE-2014-0209)\n    * libxfont not validating length fields when parsing xfs protocol\n      replies. (CVE-2014-0210)\n    * Integer overflows causing miscalculating memory needs for xfs\n      replies. (CVE-2014-0211)\n\nFurther information is available at \nhttp://lists.x.org/archives/xorg-announce/2014-May/002431.html\n\u003chttp://lists.x.org/archives/xorg-announce/2014-May/002431.html\u003e .\n\nSecurity Issues references:\n\n    * CVE-2014-0209\n      \u003chttp://cve.mitre.org/cgi-bin/cvename.cgi?name=CVE-2014-0209\u003e\n    * CVE-2014-0210\n      \u003chttp://cve.mitre.org/cgi-bin/cvename.cgi?name=CVE-2014-0210\u003e\n    * CVE-2014-0211\n      \u003chttp://cve.mitre.org/cgi-bin/cvename.cgi?name=CVE-2014-0211\u003e\n\n",
      "Title": "Details",
      "Type": "General"
    },
    {
      "Text": "The CVRF data is provided by SUSE under the Creative Commons License 4.0 with Attribution (CC-BY-4.0).",
      "Title": "Terms of Use",
      "Type": "Legal Disclaimer"
    },
    {
      "Text": "sdksp3-xorg-x11-devel,sledsp3-xorg-x11-devel,slessp3-xorg-x11-devel",
      "Title": "Patchnames",
      "Type": "Details"
    }
  ],
  "ProductTree": {
    "Relationships": [
      {
        "ProductReference": "xorg-x11-libs-7.4-8.26.42.1",
        "RelatesToProductReference": "SUSE Linux Enterprise Desktop 11 SP3",
        "RelationType": "Default Component Of"
      },
      {
        "ProductReference": "xorg-x11-libs-32bit-7.4-8.26.42.1",
        "RelatesToProductReference": "SUSE Linux Enterprise Desktop 11 SP3",
        "RelationType": "Default Component Of"
      },
      {
        "ProductReference": "xorg-x11-libs-7.4-8.26.42.1",
        "RelatesToProductReference": "SUSE Linux Enterprise Server 11 SP3",
        "RelationType": "Default Component Of"
      },
      {
        "ProductReference": "xorg-x11-libs-32bit-7.4-8.26.42.1",
        "RelatesToProductReference": "SUSE Linux Enterprise Server 11 SP3",
        "RelationType": "Default Component Of"
      },
      {
        "ProductReference": "xorg-x11-libs-x86-7.4-8.26.42.1",
        "RelatesToProductReference": "SUSE Linux Enterprise Server 11 SP3",
        "RelationType": "Default Component Of"
      },
      {
        "ProductReference": "xorg-x11-libs-7.4-8.26.42.1",
        "RelatesToProductReference": "SUSE Linux Enterprise Server 11 SP3-TERADATA",
        "RelationType": "Default Component Of"
      },
      {
        "ProductReference": "xorg-x11-libs-32bit-7.4-8.26.42.1",
        "RelatesToProductReference": "SUSE Linux Enterprise Server 11 SP3-TERADATA",
        "RelationType": "Default Component Of"
      },
      {
        "ProductReference": "xorg-x11-libs-x86-7.4-8.26.42.1",
        "RelatesToProductReference": "SUSE Linux Enterprise Server 11 SP3-TERADATA",
        "RelationType": "Default Component Of"
      },
      {
        "ProductReference": "xorg-x11-libs-7.4-8.26.42.1",
        "RelatesToProductReference": "SUSE Linux Enterprise Server for SAP Applications 11 SP3",
        "RelationType": "Default Component Of"
      },
      {
        "ProductReference": "xorg-x11-libs-32bit-7.4-8.26.42.1",
        "RelatesToProductReference": "SUSE Linux Enterprise Server for SAP Applications 11 SP3",
        "RelationType": "Default Component Of"
      },
      {
        "ProductReference": "xorg-x11-libs-x86-7.4-8.26.42.1",
        "RelatesToProductReference": "SUSE Linux Enterprise Server for SAP Applications 11 SP3",
        "RelationType": "Default Component Of"
      },
      {
        "ProductReference": "xorg-x11-devel-7.4-8.26.42.1",
        "RelatesToProductReference": "SUSE Linux Enterprise Software Development Kit 11 SP3",
        "RelationType": "Default Component Of"
      },
      {
        "ProductReference": "xorg-x11-devel-32bit-7.4-8.26.42.1",
        "RelatesToProductReference": "SUSE Linux Enterprise Software Development Kit 11 SP3",
        "RelationType": "Default Component Of"
      }
    ]
  },
  "References": [
    {
      "URL": "https://www.suse.com/support/update/announcement/2015/suse-su-20150674-1/",
      "Description": "Link for SUSE-SU-2015:0674-1"
    },
    {
      "URL": "https://lists.suse.com/pipermail/sle-security-updates/2015-April/001332.html",
      "Description": "E-Mail link for SUSE-SU-2015:0674-1"
    },
    {
      "URL": "https://www.suse.com/support/security/rating/",
      "Description": "SUSE Security Ratings"
    },
    {
      "URL": "https://bugzilla.suse.com/815451",
      "Description": "SUSE Bug 815451"
    },
    {
      "URL": "https://bugzilla.suse.com/821663",
      "Description": "SUSE Bug 821663"
    },
    {
      "URL": "https://bugzilla.suse.com/854915",
      "Description": "SUSE Bug 854915"
    },
    {
      "URL": "https://bugzilla.suse.com/857544",
      "Description": "SUSE Bug 857544"
    },
    {
      "URL": "https://bugzilla.suse.com/921978",
      "Description": "SUSE Bug 921978"
    },
    {
      "URL": "https://www.suse.com/security/cve/CVE-2013-1984/",
      "Description": "SUSE CVE CVE-2013-1984 page"
    },
    {
      "URL": "https://www.suse.com/security/cve/CVE-2013-1985/",
      "Description": "SUSE CVE CVE-2013-1985 page"
    },
    {
      "URL": "https://www.suse.com/security/cve/CVE-2013-1986/",
      "Description": "SUSE CVE CVE-2013-1986 page"
    },
    {
      "URL": "https://www.suse.com/security/cve/CVE-2013-1988/",
      "Description": "SUSE CVE CVE-2013-1988 page"
    },
    {
      "URL": "https://www.suse.com/security/cve/CVE-2013-1990/",
      "Description": "SUSE CVE CVE-2013-1990 page"
    },
    {
      "URL": "https://www.suse.com/security/cve/CVE-2013-1991/",
      "Description": "SUSE CVE CVE-2013-1991 page"
    },
    {
      "URL": "https://www.suse.com/security/cve/CVE-2013-1992/",
      "Description": "SUSE CVE CVE-2013-1992 page"
    },
    {
      "URL": "https://www.suse.com/security/cve/CVE-2013-1995/",
      "Description": "SUSE CVE CVE-2013-1995 page"
    },
    {
      "URL": "https://www.suse.com/security/cve/CVE-2013-1996/",
      "Description": "SUSE CVE CVE-2013-1996 page"
    },
    {
      "URL": "https://www.suse.com/security/cve/CVE-2013-1998/",
      "Description": "SUSE CVE CVE-2013-1998 page"
    },
    {
      "URL": "https://www.suse.com/security/cve/CVE-2013-1999/",
      "Description": "SUSE CVE CVE-2013-1999 page"
    },
    {
      "URL": "https://www.suse.com/security/cve/CVE-2013-2000/",
      "Description": "SUSE CVE CVE-2013-2000 page"
    },
    {
      "URL": "https://www.suse.com/security/cve/CVE-2013-2001/",
      "Description": "SUSE CVE CVE-2013-2001 page"
    },
    {
      "URL": "https://www.suse.com/security/cve/CVE-2013-2003/",
      "Description": "SUSE CVE CVE-2013-2003 page"
    },
    {
      "URL": "https://www.suse.com/security/cve/CVE-2013-2063/",
      "Description": "SUSE CVE CVE-2013-2063 page"
    },
    {
      "URL": "https://www.suse.com/security/cve/CVE-2013-6462/",
      "Description": "SUSE CVE CVE-2013-6462 page"
    },
    {
      "URL": "https://www.suse.com/security/cve/CVE-2014-0209/",
      "Description": "SUSE CVE CVE-2014-0209 page"
    },
    {
      "URL": "https://www.suse.com/security/cve/CVE-2014-0210/",
      "Description": "SUSE CVE CVE-2014-0210 page"
    },
    {
      "URL": "https://www.suse.com/security/cve/CVE-2014-0211/",
      "Description": "SUSE CVE CVE-2014-0211 page"
    },
    {
      "URL": "https://www.suse.com/security/cve/CVE-2015-1802/",
      "Description": "SUSE CVE CVE-2015-1802 page"
    },
    {
      "URL": "https://www.suse.com/security/cve/CVE-2015-1803/",
      "Description": "SUSE CVE CVE-2015-1803 page"
    },
    {
      "URL": "https://www.suse.com/security/cve/CVE-2015-1804/",
      "Description": "SUSE CVE CVE-2015-1804 page"
    }
  ],
  "Vulnerabilities": [
    {
      "CVE": "CVE-2013-1984",
      "Description": "Multiple integer overflows in X.org libXi 1.7.1 and earlier allow X servers to trigger allocation of insufficient memory and a buffer overflow via vectors related to the (1) XGetDeviceControl, (2) XGetFeedbackControl, (3) XGetDeviceDontPropagateList, (4) XGetDeviceMotionEvents, (5) XIGetProperty, (6) XIGetSelectedEvents, (7) XGetDeviceProperties, and (8) XListInputDevices functions.",
      "Threats": [
        {
          "Type": "Impact",
          "Severity": "moderate"
        }
      ],
      "References": [
        {
          "URL": "https://www.suse.com/security/cve/CVE-2013-1984.html",
          "Description": "CVE-2013-1984"
        },
        {
          "URL": "https://bugzilla.suse.com/815451",
          "Description": "SUSE Bug 815451"
        },
        {
          "URL": "https://bugzilla.suse.com/821663",
          "Description": "SUSE Bug 821663"
        }
      ],
      "ProductStatuses": [
        {
          "Type": "Fixed",
          "ProductID": [
            "SUSE Linux Enterprise Desktop 11 SP3:xorg-x11-libs-32bit-7.4-8.26.42.1",
            "SUSE Linux Enterprise Desktop 11 SP3:xorg-x11-libs-7.4-8.26.42.1",
            "SUSE Linux Enterprise Server 11 SP3-TERADATA:xorg-x11-libs-32bit-7.4-8.26.42.1",
            "SUSE Linux Enterprise Server 11 SP3-TERADATA:xorg-x11-libs-7.4-8.26.42.1",
            "SUSE Linux Enterprise Server 11 SP3-TERADATA:xorg-x11-libs-x86-7.4-8.26.42.1",
            "SUSE Linux Enterprise Server 11 SP3:xorg-x11-libs-32bit-7.4-8.26.42.1",
            "SUSE Linux Enterprise Server 11 SP3:xorg-x11-libs-7.4-8.26.42.1",
            "SUSE Linux Enterprise Server 11 SP3:xorg-x11-libs-x86-7.4-8.26.42.1",
            "SUSE Linux Enterprise Server for SAP Applications 11 SP3:xorg-x11-libs-32bit-7.4-8.26.42.1",
            "SUSE Linux Enterprise Server for SAP Applications 11 SP3:xorg-x11-libs-7.4-8.26.42.1",
            "SUSE Linux Enterprise Server for SAP Applications 11 SP3:xorg-x11-libs-x86-7.4-8.26.42.1",
            "SUSE Linux Enterprise Software Development Kit 11 SP3:xorg-x11-devel-32bit-7.4-8.26.42.1",
            "SUSE Linux Enterprise Software Development Kit 11 SP3:xorg-x11-devel-7.4-8.26.42.1"
          ]
        }
      ],
      "CVSSScoreSets": {}
    },
    {
      "CVE": "CVE-2013-1985",
      "Description": "Integer overflow in X.org libXinerama 1.1.2 and earlier allows X servers to trigger allocation of insufficient memory and a buffer overflow via vectors related to the XineramaQueryScreens function.",
      "Threats": [
        {
          "Type": "Impact",
          "Severity": "moderate"
        }
      ],
      "References": [
        {
          "URL": "https://www.suse.com/security/cve/CVE-2013-1985.html",
          "Description": "CVE-2013-1985"
        },
        {
          "URL": "https://bugzilla.suse.com/815451",
          "Description": "SUSE Bug 815451"
        },
        {
          "URL": "https://bugzilla.suse.com/821663",
          "Description": "SUSE Bug 821663"
        }
      ],
      "ProductStatuses": [
        {
          "Type": "Fixed",
          "ProductID": [
            "SUSE Linux Enterprise Desktop 11 SP3:xorg-x11-libs-32bit-7.4-8.26.42.1",
            "SUSE Linux Enterprise Desktop 11 SP3:xorg-x11-libs-7.4-8.26.42.1",
            "SUSE Linux Enterprise Server 11 SP3-TERADATA:xorg-x11-libs-32bit-7.4-8.26.42.1",
            "SUSE Linux Enterprise Server 11 SP3-TERADATA:xorg-x11-libs-7.4-8.26.42.1",
            "SUSE Linux Enterprise Server 11 SP3-TERADATA:xorg-x11-libs-x86-7.4-8.26.42.1",
            "SUSE Linux Enterprise Server 11 SP3:xorg-x11-libs-32bit-7.4-8.26.42.1",
            "SUSE Linux Enterprise Server 11 SP3:xorg-x11-libs-7.4-8.26.42.1",
            "SUSE Linux Enterprise Server 11 SP3:xorg-x11-libs-x86-7.4-8.26.42.1",
            "SUSE Linux Enterprise Server for SAP Applications 11 SP3:xorg-x11-libs-32bit-7.4-8.26.42.1",
            "SUSE Linux Enterprise Server for SAP Applications 11 SP3:xorg-x11-libs-7.4-8.26.42.1",
            "SUSE Linux Enterprise Server for SAP Applications 11 SP3:xorg-x11-libs-x86-7.4-8.26.42.1",
            "SUSE Linux Enterprise Software Development Kit 11 SP3:xorg-x11-devel-32bit-7.4-8.26.42.1",
            "SUSE Linux Enterprise Software Development Kit 11 SP3:xorg-x11-devel-7.4-8.26.42.1"
          ]
        }
      ],
      "CVSSScoreSets": {}
    },
    {
      "CVE": "CVE-2013-1986",
      "Description": "Multiple integer overflows in X.org libXrandr 1.4.0 and earlier allow X servers to trigger allocation of insufficient memory and a buffer overflow via vectors related to the (1) XRRQueryOutputProperty and (2) XRRQueryProviderProperty functions.",
      "Threats": [
        {
          "Type": "Impact",
          "Severity": "moderate"
        }
      ],
      "References": [
        {
          "URL": "https://www.suse.com/security/cve/CVE-2013-1986.html",
          "Description": "CVE-2013-1986"
        },
        {
          "URL": "https://bugzilla.suse.com/815451",
          "Description": "SUSE Bug 815451"
        },
        {
          "URL": "https://bugzilla.suse.com/821663",
          "Description": "SUSE Bug 821663"
        }
      ],
      "ProductStatuses": [
        {
          "Type": "Fixed",
          "ProductID": [
            "SUSE Linux Enterprise Desktop 11 SP3:xorg-x11-libs-32bit-7.4-8.26.42.1",
            "SUSE Linux Enterprise Desktop 11 SP3:xorg-x11-libs-7.4-8.26.42.1",
            "SUSE Linux Enterprise Server 11 SP3-TERADATA:xorg-x11-libs-32bit-7.4-8.26.42.1",
            "SUSE Linux Enterprise Server 11 SP3-TERADATA:xorg-x11-libs-7.4-8.26.42.1",
            "SUSE Linux Enterprise Server 11 SP3-TERADATA:xorg-x11-libs-x86-7.4-8.26.42.1",
            "SUSE Linux Enterprise Server 11 SP3:xorg-x11-libs-32bit-7.4-8.26.42.1",
            "SUSE Linux Enterprise Server 11 SP3:xorg-x11-libs-7.4-8.26.42.1",
            "SUSE Linux Enterprise Server 11 SP3:xorg-x11-libs-x86-7.4-8.26.42.1",
            "SUSE Linux Enterprise Server for SAP Applications 11 SP3:xorg-x11-libs-32bit-7.4-8.26.42.1",
            "SUSE Linux Enterprise Server for SAP Applications 11 SP3:xorg-x11-libs-7.4-8.26.42.1",
            "SUSE Linux Enterprise Server for SAP Applications 11 SP3:xorg-x11-libs-x86-7.4-8.26.42.1",
            "SUSE Linux Enterprise Software Development Kit 11 SP3:xorg-x11-devel-32bit-7.4-8.26.42.1",
            "SUSE Linux Enterprise Software Development Kit 11 SP3:xorg-x11-devel-7.4-8.26.42.1"
          ]
        }
      ],
      "CVSSScoreSets": {}
    },
    {
      "CVE": "CVE-2013-1988",
      "Description": "Multiple integer overflows in X.org libXRes 1.0.6 and earlier allow X servers to trigger allocation of insufficient memory and a buffer overflow via vectors related to the (1) XResQueryClients and (2) XResQueryClientResources functions.",
      "Threats": [
        {
          "Type": "Impact",
          "Severity": "moderate"
        }
      ],
      "References": [
        {
          "URL": "https://www.suse.com/security/cve/CVE-2013-1988.html",
          "Description": "CVE-2013-1988"
        },
        {
          "URL": "https://bugzilla.suse.com/815451",
          "Description": "SUSE Bug 815451"
        },
        {
          "URL": "https://bugzilla.suse.com/821663",
          "Description": "SUSE Bug 821663"
        }
      ],
      "ProductStatuses": [
        {
          "Type": "Fixed",
          "ProductID": [
            "SUSE Linux Enterprise Desktop 11 SP3:xorg-x11-libs-32bit-7.4-8.26.42.1",
            "SUSE Linux Enterprise Desktop 11 SP3:xorg-x11-libs-7.4-8.26.42.1",
            "SUSE Linux Enterprise Server 11 SP3-TERADATA:xorg-x11-libs-32bit-7.4-8.26.42.1",
            "SUSE Linux Enterprise Server 11 SP3-TERADATA:xorg-x11-libs-7.4-8.26.42.1",
            "SUSE Linux Enterprise Server 11 SP3-TERADATA:xorg-x11-libs-x86-7.4-8.26.42.1",
            "SUSE Linux Enterprise Server 11 SP3:xorg-x11-libs-32bit-7.4-8.26.42.1",
            "SUSE Linux Enterprise Server 11 SP3:xorg-x11-libs-7.4-8.26.42.1",
            "SUSE Linux Enterprise Server 11 SP3:xorg-x11-libs-x86-7.4-8.26.42.1",
            "SUSE Linux Enterprise Server for SAP Applications 11 SP3:xorg-x11-libs-32bit-7.4-8.26.42.1",
            "SUSE Linux Enterprise Server for SAP Applications 11 SP3:xorg-x11-libs-7.4-8.26.42.1",
            "SUSE Linux Enterprise Server for SAP Applications 11 SP3:xorg-x11-libs-x86-7.4-8.26.42.1",
            "SUSE Linux Enterprise Software Development Kit 11 SP3:xorg-x11-devel-32bit-7.4-8.26.42.1",
            "SUSE Linux Enterprise Software Development Kit 11 SP3:xorg-x11-devel-7.4-8.26.42.1"
          ]
        }
      ],
      "CVSSScoreSets": {}
    },
    {
      "CVE": "CVE-2013-1990",
      "Description": "Multiple integer overflows in X.org libXvMC 1.0.7 and earlier allow X servers to trigger allocation of insufficient memory and a buffer overflow via vectors related to the (1) XvMCListSurfaceTypes and (2) XvMCListSubpictureTypes functions.",
      "Threats": [
        {
          "Type": "Impact",
          "Severity": "moderate"
        }
      ],
      "References": [
        {
          "URL": "https://www.suse.com/security/cve/CVE-2013-1990.html",
          "Description": "CVE-2013-1990"
        },
        {
          "URL": "https://bugzilla.suse.com/815451",
          "Description": "SUSE Bug 815451"
        },
        {
          "URL": "https://bugzilla.suse.com/821663",
          "Description": "SUSE Bug 821663"
        }
      ],
      "ProductStatuses": [
        {
          "Type": "Fixed",
          "ProductID": [
            "SUSE Linux Enterprise Desktop 11 SP3:xorg-x11-libs-32bit-7.4-8.26.42.1",
            "SUSE Linux Enterprise Desktop 11 SP3:xorg-x11-libs-7.4-8.26.42.1",
            "SUSE Linux Enterprise Server 11 SP3-TERADATA:xorg-x11-libs-32bit-7.4-8.26.42.1",
            "SUSE Linux Enterprise Server 11 SP3-TERADATA:xorg-x11-libs-7.4-8.26.42.1",
            "SUSE Linux Enterprise Server 11 SP3-TERADATA:xorg-x11-libs-x86-7.4-8.26.42.1",
            "SUSE Linux Enterprise Server 11 SP3:xorg-x11-libs-32bit-7.4-8.26.42.1",
            "SUSE Linux Enterprise Server 11 SP3:xorg-x11-libs-7.4-8.26.42.1",
            "SUSE Linux Enterprise Server 11 SP3:xorg-x11-libs-x86-7.4-8.26.42.1",
            "SUSE Linux Enterprise Server for SAP Applications 11 SP3:xorg-x11-libs-32bit-7.4-8.26.42.1",
            "SUSE Linux Enterprise Server for SAP Applications 11 SP3:xorg-x11-libs-7.4-8.26.42.1",
            "SUSE Linux Enterprise Server for SAP Applications 11 SP3:xorg-x11-libs-x86-7.4-8.26.42.1",
            "SUSE Linux Enterprise Software Development Kit 11 SP3:xorg-x11-devel-32bit-7.4-8.26.42.1",
            "SUSE Linux Enterprise Software Development Kit 11 SP3:xorg-x11-devel-7.4-8.26.42.1"
          ]
        }
      ],
      "CVSSScoreSets": {}
    },
    {
      "CVE": "CVE-2013-1991",
      "Description": "Multiple integer overflows in X.org libXxf86dga 1.1.3 and earlier allow X servers to trigger allocation of insufficient memory and a buffer overflow via vectors related to the (1) XDGAQueryModes and (2) XDGASetMode functions.",
      "Threats": [
        {
          "Type": "Impact",
          "Severity": "moderate"
        }
      ],
      "References": [
        {
          "URL": "https://www.suse.com/security/cve/CVE-2013-1991.html",
          "Description": "CVE-2013-1991"
        },
        {
          "URL": "https://bugzilla.suse.com/815451",
          "Description": "SUSE Bug 815451"
        },
        {
          "URL": "https://bugzilla.suse.com/821663",
          "Description": "SUSE Bug 821663"
        }
      ],
      "ProductStatuses": [
        {
          "Type": "Fixed",
          "ProductID": [
            "SUSE Linux Enterprise Desktop 11 SP3:xorg-x11-libs-32bit-7.4-8.26.42.1",
            "SUSE Linux Enterprise Desktop 11 SP3:xorg-x11-libs-7.4-8.26.42.1",
            "SUSE Linux Enterprise Server 11 SP3-TERADATA:xorg-x11-libs-32bit-7.4-8.26.42.1",
            "SUSE Linux Enterprise Server 11 SP3-TERADATA:xorg-x11-libs-7.4-8.26.42.1",
            "SUSE Linux Enterprise Server 11 SP3-TERADATA:xorg-x11-libs-x86-7.4-8.26.42.1",
            "SUSE Linux Enterprise Server 11 SP3:xorg-x11-libs-32bit-7.4-8.26.42.1",
            "SUSE Linux Enterprise Server 11 SP3:xorg-x11-libs-7.4-8.26.42.1",
            "SUSE Linux Enterprise Server 11 SP3:xorg-x11-libs-x86-7.4-8.26.42.1",
            "SUSE Linux Enterprise Server for SAP Applications 11 SP3:xorg-x11-libs-32bit-7.4-8.26.42.1",
            "SUSE Linux Enterprise Server for SAP Applications 11 SP3:xorg-x11-libs-7.4-8.26.42.1",
            "SUSE Linux Enterprise Server for SAP Applications 11 SP3:xorg-x11-libs-x86-7.4-8.26.42.1",
            "SUSE Linux Enterprise Software Development Kit 11 SP3:xorg-x11-devel-32bit-7.4-8.26.42.1",
            "SUSE Linux Enterprise Software Development Kit 11 SP3:xorg-x11-devel-7.4-8.26.42.1"
          ]
        }
      ],
      "CVSSScoreSets": {}
    },
    {
      "CVE": "CVE-2013-1992",
      "Description": "Multiple integer overflows in X.org libdmx 1.1.2 and earlier allow X servers to trigger allocation of insufficient memory and a buffer overflow via vectors related to the (1) DMXGetScreenAttributes, (2) DMXGetWindowAttributes, and (3) DMXGetInputAttributes functions.",
      "Threats": [
        {
          "Type": "Impact",
          "Severity": "moderate"
        }
      ],
      "References": [
        {
          "URL": "https://www.suse.com/security/cve/CVE-2013-1992.html",
          "Description": "CVE-2013-1992"
        },
        {
          "URL": "https://bugzilla.suse.com/815451",
          "Description": "SUSE Bug 815451"
        },
        {
          "URL": "https://bugzilla.suse.com/821663",
          "Description": "SUSE Bug 821663"
        }
      ],
      "ProductStatuses": [
        {
          "Type": "Fixed",
          "ProductID": [
            "SUSE Linux Enterprise Desktop 11 SP3:xorg-x11-libs-32bit-7.4-8.26.42.1",
            "SUSE Linux Enterprise Desktop 11 SP3:xorg-x11-libs-7.4-8.26.42.1",
            "SUSE Linux Enterprise Server 11 SP3-TERADATA:xorg-x11-libs-32bit-7.4-8.26.42.1",
            "SUSE Linux Enterprise Server 11 SP3-TERADATA:xorg-x11-libs-7.4-8.26.42.1",
            "SUSE Linux Enterprise Server 11 SP3-TERADATA:xorg-x11-libs-x86-7.4-8.26.42.1",
            "SUSE Linux Enterprise Server 11 SP3:xorg-x11-libs-32bit-7.4-8.26.42.1",
            "SUSE Linux Enterprise Server 11 SP3:xorg-x11-libs-7.4-8.26.42.1",
            "SUSE Linux Enterprise Server 11 SP3:xorg-x11-libs-x86-7.4-8.26.42.1",
            "SUSE Linux Enterprise Server for SAP Applications 11 SP3:xorg-x11-libs-32bit-7.4-8.26.42.1",
            "SUSE Linux Enterprise Server for SAP Applications 11 SP3:xorg-x11-libs-7.4-8.26.42.1",
            "SUSE Linux Enterprise Server for SAP Applications 11 SP3:xorg-x11-libs-x86-7.4-8.26.42.1",
            "SUSE Linux Enterprise Software Development Kit 11 SP3:xorg-x11-devel-32bit-7.4-8.26.42.1",
            "SUSE Linux Enterprise Software Development Kit 11 SP3:xorg-x11-devel-7.4-8.26.42.1"
          ]
        }
      ],
      "CVSSScoreSets": {}
    },
    {
      "CVE": "CVE-2013-1995",
      "Description": "X.org libXi 1.7.1 and earlier allows X servers to trigger allocation of insufficient memory and a buffer overflow via vectors related to an unexpected sign extension in the XListInputDevices function.",
      "Threats": [
        {
          "Type": "Impact",
          "Severity": "moderate"
        }
      ],
      "References": [
        {
          "URL": "https://www.suse.com/security/cve/CVE-2013-1995.html",
          "Description": "CVE-2013-1995"
        },
        {
          "URL": "https://bugzilla.suse.com/815451",
          "Description": "SUSE Bug 815451"
        },
        {
          "URL": "https://bugzilla.suse.com/821663",
          "Description": "SUSE Bug 821663"
        }
      ],
      "ProductStatuses": [
        {
          "Type": "Fixed",
          "ProductID": [
            "SUSE Linux Enterprise Desktop 11 SP3:xorg-x11-libs-32bit-7.4-8.26.42.1",
            "SUSE Linux Enterprise Desktop 11 SP3:xorg-x11-libs-7.4-8.26.42.1",
            "SUSE Linux Enterprise Server 11 SP3-TERADATA:xorg-x11-libs-32bit-7.4-8.26.42.1",
            "SUSE Linux Enterprise Server 11 SP3-TERADATA:xorg-x11-libs-7.4-8.26.42.1",
            "SUSE Linux Enterprise Server 11 SP3-TERADATA:xorg-x11-libs-x86-7.4-8.26.42.1",
            "SUSE Linux Enterprise Server 11 SP3:xorg-x11-libs-32bit-7.4-8.26.42.1",
            "SUSE Linux Enterprise Server 11 SP3:xorg-x11-libs-7.4-8.26.42.1",
            "SUSE Linux Enterprise Server 11 SP3:xorg-x11-libs-x86-7.4-8.26.42.1",
            "SUSE Linux Enterprise Server for SAP Applications 11 SP3:xorg-x11-libs-32bit-7.4-8.26.42.1",
            "SUSE Linux Enterprise Server for SAP Applications 11 SP3:xorg-x11-libs-7.4-8.26.42.1",
            "SUSE Linux Enterprise Server for SAP Applications 11 SP3:xorg-x11-libs-x86-7.4-8.26.42.1",
            "SUSE Linux Enterprise Software Development Kit 11 SP3:xorg-x11-devel-32bit-7.4-8.26.42.1",
            "SUSE Linux Enterprise Software Development Kit 11 SP3:xorg-x11-devel-7.4-8.26.42.1"
          ]
        }
      ],
      "CVSSScoreSets": {}
    },
    {
      "CVE": "CVE-2013-1996",
      "Description": "X.org libFS 1.0.4 and earlier allows X servers to trigger allocation of insufficient memory and a buffer overflow via vectors related to an unexpected sign extension in the FSOpenServer function.",
      "Threats": [
        {
          "Type": "Impact",
          "Severity": "moderate"
        }
      ],
      "References": [
        {
          "URL": "https://www.suse.com/security/cve/CVE-2013-1996.html",
          "Description": "CVE-2013-1996"
        },
        {
          "URL": "https://bugzilla.suse.com/815451",
          "Description": "SUSE Bug 815451"
        },
        {
          "URL": "https://bugzilla.suse.com/821663",
          "Description": "SUSE Bug 821663"
        }
      ],
      "ProductStatuses": [
        {
          "Type": "Fixed",
          "ProductID": [
            "SUSE Linux Enterprise Desktop 11 SP3:xorg-x11-libs-32bit-7.4-8.26.42.1",
            "SUSE Linux Enterprise Desktop 11 SP3:xorg-x11-libs-7.4-8.26.42.1",
            "SUSE Linux Enterprise Server 11 SP3-TERADATA:xorg-x11-libs-32bit-7.4-8.26.42.1",
            "SUSE Linux Enterprise Server 11 SP3-TERADATA:xorg-x11-libs-7.4-8.26.42.1",
            "SUSE Linux Enterprise Server 11 SP3-TERADATA:xorg-x11-libs-x86-7.4-8.26.42.1",
            "SUSE Linux Enterprise Server 11 SP3:xorg-x11-libs-32bit-7.4-8.26.42.1",
            "SUSE Linux Enterprise Server 11 SP3:xorg-x11-libs-7.4-8.26.42.1",
            "SUSE Linux Enterprise Server 11 SP3:xorg-x11-libs-x86-7.4-8.26.42.1",
            "SUSE Linux Enterprise Server for SAP Applications 11 SP3:xorg-x11-libs-32bit-7.4-8.26.42.1",
            "SUSE Linux Enterprise Server for SAP Applications 11 SP3:xorg-x11-libs-7.4-8.26.42.1",
            "SUSE Linux Enterprise Server for SAP Applications 11 SP3:xorg-x11-libs-x86-7.4-8.26.42.1",
            "SUSE Linux Enterprise Software Development Kit 11 SP3:xorg-x11-devel-32bit-7.4-8.26.42.1",
            "SUSE Linux Enterprise Software Development Kit 11 SP3:xorg-x11-devel-7.4-8.26.42.1"
          ]
        }
      ],
      "CVSSScoreSets": {}
    },
    {
      "CVE": "CVE-2013-1998",
      "Description": "Multiple buffer overflows in X.org libXi 1.7.1 and earlier allow X servers to cause a denial of service (crash) and possibly execute arbitrary code via crafted length or index values to the (1) XGetDeviceButtonMapping, (2) XIPassiveGrabDevice, and (3) XQueryDeviceState functions.",
      "Threats": [
        {
          "Type": "Impact",
          "Severity": "moderate"
        }
      ],
      "References": [
        {
          "URL": "https://www.suse.com/security/cve/CVE-2013-1998.html",
          "Description": "CVE-2013-1998"
        },
        {
          "URL": "https://bugzilla.suse.com/815451",
          "Description": "SUSE Bug 815451"
        },
        {
          "URL": "https://bugzilla.suse.com/821663",
          "Description": "SUSE Bug 821663"
        }
      ],
      "ProductStatuses": [
        {
          "Type": "Fixed",
          "ProductID": [
            "SUSE Linux Enterprise Desktop 11 SP3:xorg-x11-libs-32bit-7.4-8.26.42.1",
            "SUSE Linux Enterprise Desktop 11 SP3:xorg-x11-libs-7.4-8.26.42.1",
            "SUSE Linux Enterprise Server 11 SP3-TERADATA:xorg-x11-libs-32bit-7.4-8.26.42.1",
            "SUSE Linux Enterprise Server 11 SP3-TERADATA:xorg-x11-libs-7.4-8.26.42.1",
            "SUSE Linux Enterprise Server 11 SP3-TERADATA:xorg-x11-libs-x86-7.4-8.26.42.1",
            "SUSE Linux Enterprise Server 11 SP3:xorg-x11-libs-32bit-7.4-8.26.42.1",
            "SUSE Linux Enterprise Server 11 SP3:xorg-x11-libs-7.4-8.26.42.1",
            "SUSE Linux Enterprise Server 11 SP3:xorg-x11-libs-x86-7.4-8.26.42.1",
            "SUSE Linux Enterprise Server for SAP Applications 11 SP3:xorg-x11-libs-32bit-7.4-8.26.42.1",
            "SUSE Linux Enterprise Server for SAP Applications 11 SP3:xorg-x11-libs-7.4-8.26.42.1",
            "SUSE Linux Enterprise Server for SAP Applications 11 SP3:xorg-x11-libs-x86-7.4-8.26.42.1",
            "SUSE Linux Enterprise Software Development Kit 11 SP3:xorg-x11-devel-32bit-7.4-8.26.42.1",
            "SUSE Linux Enterprise Software Development Kit 11 SP3:xorg-x11-devel-7.4-8.26.42.1"
          ]
        }
      ],
      "CVSSScoreSets": {}
    },
    {
      "CVE": "CVE-2013-1999",
      "Description": "Buffer overflow in X.org libXvMC 1.0.7 and earlier allows X servers to cause a denial of service (crash) and possibly execute arbitrary code via crafted length or index values to the XvMCGetDRInfo function.",
      "Threats": [
        {
          "Type": "Impact",
          "Severity": "moderate"
        }
      ],
      "References": [
        {
          "URL": "https://www.suse.com/security/cve/CVE-2013-1999.html",
          "Description": "CVE-2013-1999"
        },
        {
          "URL": "https://bugzilla.suse.com/815451",
          "Description": "SUSE Bug 815451"
        },
        {
          "URL": "https://bugzilla.suse.com/821663",
          "Description": "SUSE Bug 821663"
        }
      ],
      "ProductStatuses": [
        {
          "Type": "Fixed",
          "ProductID": [
            "SUSE Linux Enterprise Desktop 11 SP3:xorg-x11-libs-32bit-7.4-8.26.42.1",
            "SUSE Linux Enterprise Desktop 11 SP3:xorg-x11-libs-7.4-8.26.42.1",
            "SUSE Linux Enterprise Server 11 SP3-TERADATA:xorg-x11-libs-32bit-7.4-8.26.42.1",
            "SUSE Linux Enterprise Server 11 SP3-TERADATA:xorg-x11-libs-7.4-8.26.42.1",
            "SUSE Linux Enterprise Server 11 SP3-TERADATA:xorg-x11-libs-x86-7.4-8.26.42.1",
            "SUSE Linux Enterprise Server 11 SP3:xorg-x11-libs-32bit-7.4-8.26.42.1",
            "SUSE Linux Enterprise Server 11 SP3:xorg-x11-libs-7.4-8.26.42.1",
            "SUSE Linux Enterprise Server 11 SP3:xorg-x11-libs-x86-7.4-8.26.42.1",
            "SUSE Linux Enterprise Server for SAP Applications 11 SP3:xorg-x11-libs-32bit-7.4-8.26.42.1",
            "SUSE Linux Enterprise Server for SAP Applications 11 SP3:xorg-x11-libs-7.4-8.26.42.1",
            "SUSE Linux Enterprise Server for SAP Applications 11 SP3:xorg-x11-libs-x86-7.4-8.26.42.1",
            "SUSE Linux Enterprise Software Development Kit 11 SP3:xorg-x11-devel-32bit-7.4-8.26.42.1",
            "SUSE Linux Enterprise Software Development Kit 11 SP3:xorg-x11-devel-7.4-8.26.42.1"
          ]
        }
      ],
      "CVSSScoreSets": {}
    },
    {
      "CVE": "CVE-2013-2000",
      "Description": "Multiple buffer overflows in X.org libXxf86dga 1.1.3 and earlier allow X servers to cause a denial of service (crash) and possibly execute arbitrary code via crafted length or index values to the (1) XDGAQueryModes and (2) XDGASetMode functions.",
      "Threats": [
        {
          "Type": "Impact",
          "Severity": "moderate"
        }
      ],
      "References": [
        {
          "URL": "https://www.suse.com/security/cve/CVE-2013-2000.html",
          "Description": "CVE-2013-2000"
        },
        {
          "URL": "https://bugzilla.suse.com/815451",
          "Description": "SUSE Bug 815451"
        },
        {
          "URL": "https://bugzilla.suse.com/821663",
          "Description": "SUSE Bug 821663"
        }
      ],
      "ProductStatuses": [
        {
          "Type": "Fixed",
          "ProductID": [
            "SUSE Linux Enterprise Desktop 11 SP3:xorg-x11-libs-32bit-7.4-8.26.42.1",
            "SUSE Linux Enterprise Desktop 11 SP3:xorg-x11-libs-7.4-8.26.42.1",
            "SUSE Linux Enterprise Server 11 SP3-TERADATA:xorg-x11-libs-32bit-7.4-8.26.42.1",
            "SUSE Linux Enterprise Server 11 SP3-TERADATA:xorg-x11-libs-7.4-8.26.42.1",
            "SUSE Linux Enterprise Server 11 SP3-TERADATA:xorg-x11-libs-x86-7.4-8.26.42.1",
            "SUSE Linux Enterprise Server 11 SP3:xorg-x11-libs-32bit-7.4-8.26.42.1",
            "SUSE Linux Enterprise Server 11 SP3:xorg-x11-libs-7.4-8.26.42.1",
            "SUSE Linux Enterprise Server 11 SP3:xorg-x11-libs-x86-7.4-8.26.42.1",
            "SUSE Linux Enterprise Server for SAP Applications 11 SP3:xorg-x11-libs-32bit-7.4-8.26.42.1",
            "SUSE Linux Enterprise Server for SAP Applications 11 SP3:xorg-x11-libs-7.4-8.26.42.1",
            "SUSE Linux Enterprise Server for SAP Applications 11 SP3:xorg-x11-libs-x86-7.4-8.26.42.1",
            "SUSE Linux Enterprise Software Development Kit 11 SP3:xorg-x11-devel-32bit-7.4-8.26.42.1",
            "SUSE Linux Enterprise Software Development Kit 11 SP3:xorg-x11-devel-7.4-8.26.42.1"
          ]
        }
      ],
      "CVSSScoreSets": {}
    },
    {
      "CVE": "CVE-2013-2001",
      "Description": "Buffer overflow in X.org libXxf86vm 1.1.2 and earlier allows X servers to cause a denial of service (crash) and possibly execute arbitrary code via crafted length or index values to the XF86VidModeGetGammaRamp function.",
      "Threats": [
        {
          "Type": "Impact",
          "Severity": "moderate"
        }
      ],
      "References": [
        {
          "URL": "https://www.suse.com/security/cve/CVE-2013-2001.html",
          "Description": "CVE-2013-2001"
        },
        {
          "URL": "https://bugzilla.suse.com/815451",
          "Description": "SUSE Bug 815451"
        },
        {
          "URL": "https://bugzilla.suse.com/821663",
          "Description": "SUSE Bug 821663"
        }
      ],
      "ProductStatuses": [
        {
          "Type": "Fixed",
          "ProductID": [
            "SUSE Linux Enterprise Desktop 11 SP3:xorg-x11-libs-32bit-7.4-8.26.42.1",
            "SUSE Linux Enterprise Desktop 11 SP3:xorg-x11-libs-7.4-8.26.42.1",
            "SUSE Linux Enterprise Server 11 SP3-TERADATA:xorg-x11-libs-32bit-7.4-8.26.42.1",
            "SUSE Linux Enterprise Server 11 SP3-TERADATA:xorg-x11-libs-7.4-8.26.42.1",
            "SUSE Linux Enterprise Server 11 SP3-TERADATA:xorg-x11-libs-x86-7.4-8.26.42.1",
            "SUSE Linux Enterprise Server 11 SP3:xorg-x11-libs-32bit-7.4-8.26.42.1",
            "SUSE Linux Enterprise Server 11 SP3:xorg-x11-libs-7.4-8.26.42.1",
            "SUSE Linux Enterprise Server 11 SP3:xorg-x11-libs-x86-7.4-8.26.42.1",
            "SUSE Linux Enterprise Server for SAP Applications 11 SP3:xorg-x11-libs-32bit-7.4-8.26.42.1",
            "SUSE Linux Enterprise Server for SAP Applications 11 SP3:xorg-x11-libs-7.4-8.26.42.1",
            "SUSE Linux Enterprise Server for SAP Applications 11 SP3:xorg-x11-libs-x86-7.4-8.26.42.1",
            "SUSE Linux Enterprise Software Development Kit 11 SP3:xorg-x11-devel-32bit-7.4-8.26.42.1",
            "SUSE Linux Enterprise Software Development Kit 11 SP3:xorg-x11-devel-7.4-8.26.42.1"
          ]
        }
      ],
      "CVSSScoreSets": {}
    },
    {
      "CVE": "CVE-2013-2003",
      "Description": "Integer overflow in X.org libXcursor 1.1.13 and earlier allows X servers to trigger allocation of insufficient memory and a buffer overflow via vectors related to the _XcursorFileHeaderCreate function.",
      "Threats": [
        {
          "Type": "Impact",
          "Severity": "moderate"
        }
      ],
      "References": [
        {
          "URL": "https://www.suse.com/security/cve/CVE-2013-2003.html",
          "Description": "CVE-2013-2003"
        },
        {
          "URL": "https://bugzilla.suse.com/1065386",
          "Description": "SUSE Bug 1065386"
        },
        {
          "URL": "https://bugzilla.suse.com/815451",
          "Description": "SUSE Bug 815451"
        },
        {
          "URL": "https://bugzilla.suse.com/821663",
          "Description": "SUSE Bug 821663"
        }
      ],
      "ProductStatuses": [
        {
          "Type": "Fixed",
          "ProductID": [
            "SUSE Linux Enterprise Desktop 11 SP3:xorg-x11-libs-32bit-7.4-8.26.42.1",
            "SUSE Linux Enterprise Desktop 11 SP3:xorg-x11-libs-7.4-8.26.42.1",
            "SUSE Linux Enterprise Server 11 SP3-TERADATA:xorg-x11-libs-32bit-7.4-8.26.42.1",
            "SUSE Linux Enterprise Server 11 SP3-TERADATA:xorg-x11-libs-7.4-8.26.42.1",
            "SUSE Linux Enterprise Server 11 SP3-TERADATA:xorg-x11-libs-x86-7.4-8.26.42.1",
            "SUSE Linux Enterprise Server 11 SP3:xorg-x11-libs-32bit-7.4-8.26.42.1",
            "SUSE Linux Enterprise Server 11 SP3:xorg-x11-libs-7.4-8.26.42.1",
            "SUSE Linux Enterprise Server 11 SP3:xorg-x11-libs-x86-7.4-8.26.42.1",
            "SUSE Linux Enterprise Server for SAP Applications 11 SP3:xorg-x11-libs-32bit-7.4-8.26.42.1",
            "SUSE Linux Enterprise Server for SAP Applications 11 SP3:xorg-x11-libs-7.4-8.26.42.1",
            "SUSE Linux Enterprise Server for SAP Applications 11 SP3:xorg-x11-libs-x86-7.4-8.26.42.1",
            "SUSE Linux Enterprise Software Development Kit 11 SP3:xorg-x11-devel-32bit-7.4-8.26.42.1",
            "SUSE Linux Enterprise Software Development Kit 11 SP3:xorg-x11-devel-7.4-8.26.42.1"
          ]
        }
      ],
      "CVSSScoreSets": {}
    },
    {
      "CVE": "CVE-2013-2063",
      "Description": "Integer overflow in X.org libXtst 1.2.1 and earlier allows X servers to trigger allocation of insufficient memory and a buffer overflow via vectors related to the XRecordGetContext function.",
      "Threats": [
        {
          "Type": "Impact",
          "Severity": "moderate"
        }
      ],
      "References": [
        {
          "URL": "https://www.suse.com/security/cve/CVE-2013-2063.html",
          "Description": "CVE-2013-2063"
        },
        {
          "URL": "https://bugzilla.suse.com/815451",
          "Description": "SUSE Bug 815451"
        },
        {
          "URL": "https://bugzilla.suse.com/821663",
          "Description": "SUSE Bug 821663"
        }
      ],
      "ProductStatuses": [
        {
          "Type": "Fixed",
          "ProductID": [
            "SUSE Linux Enterprise Desktop 11 SP3:xorg-x11-libs-32bit-7.4-8.26.42.1",
            "SUSE Linux Enterprise Desktop 11 SP3:xorg-x11-libs-7.4-8.26.42.1",
            "SUSE Linux Enterprise Server 11 SP3-TERADATA:xorg-x11-libs-32bit-7.4-8.26.42.1",
            "SUSE Linux Enterprise Server 11 SP3-TERADATA:xorg-x11-libs-7.4-8.26.42.1",
            "SUSE Linux Enterprise Server 11 SP3-TERADATA:xorg-x11-libs-x86-7.4-8.26.42.1",
            "SUSE Linux Enterprise Server 11 SP3:xorg-x11-libs-32bit-7.4-8.26.42.1",
            "SUSE Linux Enterprise Server 11 SP3:xorg-x11-libs-7.4-8.26.42.1",
            "SUSE Linux Enterprise Server 11 SP3:xorg-x11-libs-x86-7.4-8.26.42.1",
            "SUSE Linux Enterprise Server for SAP Applications 11 SP3:xorg-x11-libs-32bit-7.4-8.26.42.1",
            "SUSE Linux Enterprise Server for SAP Applications 11 SP3:xorg-x11-libs-7.4-8.26.42.1",
            "SUSE Linux Enterprise Server for SAP Applications 11 SP3:xorg-x11-libs-x86-7.4-8.26.42.1",
            "SUSE Linux Enterprise Software Development Kit 11 SP3:xorg-x11-devel-32bit-7.4-8.26.42.1",
            "SUSE Linux Enterprise Software Development Kit 11 SP3:xorg-x11-devel-7.4-8.26.42.1"
          ]
        }
      ],
      "CVSSScoreSets": {}
    },
    {
      "CVE": "CVE-2013-6462",
      "Description": "Stack-based buffer overflow in the bdfReadCharacters function in bitmap/bdfread.c in X.Org libXfont 1.1 through 1.4.6 allows remote attackers to cause a denial of service (crash) or possibly execute arbitrary code via a long string in a character name in a BDF font file.",
      "Threats": [
        {
          "Type": "Impact",
          "Severity": "moderate"
        }
      ],
      "References": [
        {
          "URL": "https://www.suse.com/security/cve/CVE-2013-6462.html",
          "Description": "CVE-2013-6462"
        },
        {
          "URL": "https://bugzilla.suse.com/854915",
          "Description": "SUSE Bug 854915"
        },
        {
          "URL": "https://bugzilla.suse.com/882908",
          "Description": "SUSE Bug 882908"
        }
      ],
      "ProductStatuses": [
        {
          "Type": "Fixed",
          "ProductID": [
            "SUSE Linux Enterprise Desktop 11 SP3:xorg-x11-libs-32bit-7.4-8.26.42.1",
            "SUSE Linux Enterprise Desktop 11 SP3:xorg-x11-libs-7.4-8.26.42.1",
            "SUSE Linux Enterprise Server 11 SP3-TERADATA:xorg-x11-libs-32bit-7.4-8.26.42.1",
            "SUSE Linux Enterprise Server 11 SP3-TERADATA:xorg-x11-libs-7.4-8.26.42.1",
            "SUSE Linux Enterprise Server 11 SP3-TERADATA:xorg-x11-libs-x86-7.4-8.26.42.1",
            "SUSE Linux Enterprise Server 11 SP3:xorg-x11-libs-32bit-7.4-8.26.42.1",
            "SUSE Linux Enterprise Server 11 SP3:xorg-x11-libs-7.4-8.26.42.1",
            "SUSE Linux Enterprise Server 11 SP3:xorg-x11-libs-x86-7.4-8.26.42.1",
            "SUSE Linux Enterprise Server for SAP Applications 11 SP3:xorg-x11-libs-32bit-7.4-8.26.42.1",
            "SUSE Linux Enterprise Server for SAP Applications 11 SP3:xorg-x11-libs-7.4-8.26.42.1",
            "SUSE Linux Enterprise Server for SAP Applications 11 SP3:xorg-x11-libs-x86-7.4-8.26.42.1",
            "SUSE Linux Enterprise Software Development Kit 11 SP3:xorg-x11-devel-32bit-7.4-8.26.42.1",
            "SUSE Linux Enterprise Software Development Kit 11 SP3:xorg-x11-devel-7.4-8.26.42.1"
          ]
        }
      ],
      "CVSSScoreSets": {}
    },
    {
      "CVE": "CVE-2014-0209",
      "Description": "Multiple integer overflows in the (1) FontFileAddEntry and (2) lexAlias functions in X.Org libXfont before 1.4.8 and 1.4.9x before 1.4.99.901 might allow local users to gain privileges by adding a directory with a large fonts.dir or fonts.alias file to the font path, which triggers a heap-based buffer overflow, related to metadata.",
      "Threats": [
        {
          "Type": "Impact",
          "Severity": "moderate"
        }
      ],
      "References": [
        {
          "URL": "https://www.suse.com/security/cve/CVE-2014-0209.html",
          "Description": "CVE-2014-0209"
        },
        {
          "URL": "https://bugzilla.suse.com/857544",
          "Description": "SUSE Bug 857544"
        }
      ],
      "ProductStatuses": [
        {
          "Type": "Fixed",
          "ProductID": [
            "SUSE Linux Enterprise Desktop 11 SP3:xorg-x11-libs-32bit-7.4-8.26.42.1",
            "SUSE Linux Enterprise Desktop 11 SP3:xorg-x11-libs-7.4-8.26.42.1",
            "SUSE Linux Enterprise Server 11 SP3-TERADATA:xorg-x11-libs-32bit-7.4-8.26.42.1",
            "SUSE Linux Enterprise Server 11 SP3-TERADATA:xorg-x11-libs-7.4-8.26.42.1",
            "SUSE Linux Enterprise Server 11 SP3-TERADATA:xorg-x11-libs-x86-7.4-8.26.42.1",
            "SUSE Linux Enterprise Server 11 SP3:xorg-x11-libs-32bit-7.4-8.26.42.1",
            "SUSE Linux Enterprise Server 11 SP3:xorg-x11-libs-7.4-8.26.42.1",
            "SUSE Linux Enterprise Server 11 SP3:xorg-x11-libs-x86-7.4-8.26.42.1",
            "SUSE Linux Enterprise Server for SAP Applications 11 SP3:xorg-x11-libs-32bit-7.4-8.26.42.1",
            "SUSE Linux Enterprise Server for SAP Applications 11 SP3:xorg-x11-libs-7.4-8.26.42.1",
            "SUSE Linux Enterprise Server for SAP Applications 11 SP3:xorg-x11-libs-x86-7.4-8.26.42.1",
            "SUSE Linux Enterprise Software Development Kit 11 SP3:xorg-x11-devel-32bit-7.4-8.26.42.1",
            "SUSE Linux Enterprise Software Development Kit 11 SP3:xorg-x11-devel-7.4-8.26.42.1"
          ]
        }
      ],
      "CVSSScoreSets": {}
    },
    {
      "CVE": "CVE-2014-0210",
      "Description": "Multiple buffer overflows in X.Org libXfont before 1.4.8 and 1.4.9x before 1.4.99.901 allow remote font servers to execute arbitrary code via a crafted xfs protocol reply to the (1) _fs_recv_conn_setup, (2) fs_read_open_font, (3) fs_read_query_info, (4) fs_read_extent_info, (5) fs_read_glyphs, (6) fs_read_list, or (7) fs_read_list_info function.",
      "Threats": [
        {
          "Type": "Impact",
          "Severity": "moderate"
        }
      ],
      "References": [
        {
          "URL": "https://www.suse.com/security/cve/CVE-2014-0210.html",
          "Description": "CVE-2014-0210"
        },
        {
          "URL": "https://bugzilla.suse.com/857544",
          "Description": "SUSE Bug 857544"
        }
      ],
      "ProductStatuses": [
        {
          "Type": "Fixed",
          "ProductID": [
            "SUSE Linux Enterprise Desktop 11 SP3:xorg-x11-libs-32bit-7.4-8.26.42.1",
            "SUSE Linux Enterprise Desktop 11 SP3:xorg-x11-libs-7.4-8.26.42.1",
            "SUSE Linux Enterprise Server 11 SP3-TERADATA:xorg-x11-libs-32bit-7.4-8.26.42.1",
            "SUSE Linux Enterprise Server 11 SP3-TERADATA:xorg-x11-libs-7.4-8.26.42.1",
            "SUSE Linux Enterprise Server 11 SP3-TERADATA:xorg-x11-libs-x86-7.4-8.26.42.1",
            "SUSE Linux Enterprise Server 11 SP3:xorg-x11-libs-32bit-7.4-8.26.42.1",
            "SUSE Linux Enterprise Server 11 SP3:xorg-x11-libs-7.4-8.26.42.1",
            "SUSE Linux Enterprise Server 11 SP3:xorg-x11-libs-x86-7.4-8.26.42.1",
            "SUSE Linux Enterprise Server for SAP Applications 11 SP3:xorg-x11-libs-32bit-7.4-8.26.42.1",
            "SUSE Linux Enterprise Server for SAP Applications 11 SP3:xorg-x11-libs-7.4-8.26.42.1",
            "SUSE Linux Enterprise Server for SAP Applications 11 SP3:xorg-x11-libs-x86-7.4-8.26.42.1",
            "SUSE Linux Enterprise Software Development Kit 11 SP3:xorg-x11-devel-32bit-7.4-8.26.42.1",
            "SUSE Linux Enterprise Software Development Kit 11 SP3:xorg-x11-devel-7.4-8.26.42.1"
          ]
        }
      ],
      "CVSSScoreSets": {}
    },
    {
      "CVE": "CVE-2014-0211",
      "Description": "Multiple integer overflows in the (1) fs_get_reply, (2) fs_alloc_glyphs, and (3) fs_read_extent_info functions in X.Org libXfont before 1.4.8 and 1.4.9x before 1.4.99.901 allow remote font servers to execute arbitrary code via a crafted xfs reply, which triggers a buffer overflow.",
      "Threats": [
        {
          "Type": "Impact",
          "Severity": "moderate"
        }
      ],
      "References": [
        {
          "URL": "https://www.suse.com/security/cve/CVE-2014-0211.html",
          "Description": "CVE-2014-0211"
        },
        {
          "URL": "https://bugzilla.suse.com/857544",
          "Description": "SUSE Bug 857544"
        }
      ],
      "ProductStatuses": [
        {
          "Type": "Fixed",
          "ProductID": [
            "SUSE Linux Enterprise Desktop 11 SP3:xorg-x11-libs-32bit-7.4-8.26.42.1",
            "SUSE Linux Enterprise Desktop 11 SP3:xorg-x11-libs-7.4-8.26.42.1",
            "SUSE Linux Enterprise Server 11 SP3-TERADATA:xorg-x11-libs-32bit-7.4-8.26.42.1",
            "SUSE Linux Enterprise Server 11 SP3-TERADATA:xorg-x11-libs-7.4-8.26.42.1",
            "SUSE Linux Enterprise Server 11 SP3-TERADATA:xorg-x11-libs-x86-7.4-8.26.42.1",
            "SUSE Linux Enterprise Server 11 SP3:xorg-x11-libs-32bit-7.4-8.26.42.1",
            "SUSE Linux Enterprise Server 11 SP3:xorg-x11-libs-7.4-8.26.42.1",
            "SUSE Linux Enterprise Server 11 SP3:xorg-x11-libs-x86-7.4-8.26.42.1",
            "SUSE Linux Enterprise Server for SAP Applications 11 SP3:xorg-x11-libs-32bit-7.4-8.26.42.1",
            "SUSE Linux Enterprise Server for SAP Applications 11 SP3:xorg-x11-libs-7.4-8.26.42.1",
            "SUSE Linux Enterprise Server for SAP Applications 11 SP3:xorg-x11-libs-x86-7.4-8.26.42.1",
            "SUSE Linux Enterprise Software Development Kit 11 SP3:xorg-x11-devel-32bit-7.4-8.26.42.1",
            "SUSE Linux Enterprise Software Development Kit 11 SP3:xorg-x11-devel-7.4-8.26.42.1"
          ]
        }
      ],
      "CVSSScoreSets": {}
    },
    {
      "CVE": "CVE-2015-1802",
      "Description": "The bdfReadProperties function in bitmap/bdfread.c in X.Org libXfont before 1.4.9 and 1.5.x before 1.5.1 allows remote authenticated users to cause a denial of service (out-of-bounds write and crash) or possibly execute arbitrary code via a (1) negative or (2) large property count in a BDF font file.",
      "Threats": [
        {
          "Type": "Impact",
          "Severity": "moderate"
        }
      ],
      "References": [
        {
          "URL": "https://www.suse.com/security/cve/CVE-2015-1802.html",
          "Description": "CVE-2015-1802"
        },
        {
          "URL": "https://bugzilla.suse.com/921978",
          "Description": "SUSE Bug 921978"
        }
      ],
      "ProductStatuses": [
        {
          "Type": "Fixed",
          "ProductID": [
            "SUSE Linux Enterprise Desktop 11 SP3:xorg-x11-libs-32bit-7.4-8.26.42.1",
            "SUSE Linux Enterprise Desktop 11 SP3:xorg-x11-libs-7.4-8.26.42.1",
            "SUSE Linux Enterprise Server 11 SP3-TERADATA:xorg-x11-libs-32bit-7.4-8.26.42.1",
            "SUSE Linux Enterprise Server 11 SP3-TERADATA:xorg-x11-libs-7.4-8.26.42.1",
            "SUSE Linux Enterprise Server 11 SP3-TERADATA:xorg-x11-libs-x86-7.4-8.26.42.1",
            "SUSE Linux Enterprise Server 11 SP3:xorg-x11-libs-32bit-7.4-8.26.42.1",
            "SUSE Linux Enterprise Server 11 SP3:xorg-x11-libs-7.4-8.26.42.1",
            "SUSE Linux Enterprise Server 11 SP3:xorg-x11-libs-x86-7.4-8.26.42.1",
            "SUSE Linux Enterprise Server for SAP Applications 11 SP3:xorg-x11-libs-32bit-7.4-8.26.42.1",
            "SUSE Linux Enterprise Server for SAP Applications 11 SP3:xorg-x11-libs-7.4-8.26.42.1",
            "SUSE Linux Enterprise Server for SAP Applications 11 SP3:xorg-x11-libs-x86-7.4-8.26.42.1",
            "SUSE Linux Enterprise Software Development Kit 11 SP3:xorg-x11-devel-32bit-7.4-8.26.42.1",
            "SUSE Linux Enterprise Software Development Kit 11 SP3:xorg-x11-devel-7.4-8.26.42.1"
          ]
        }
      ],
      "CVSSScoreSets": {}
    },
    {
      "CVE": "CVE-2015-1803",
      "Description": "The bdfReadCharacters function in bitmap/bdfread.c in X.Org libXfont before 1.4.9 and 1.5.x before 1.5.1 does not properly handle character bitmaps it cannot read, which allows remote authenticated users to cause a denial of service (NULL pointer dereference and crash) and possibly execute arbitrary code via a crafted BDF font file.",
      "Threats": [
        {
          "Type": "Impact",
          "Severity": "moderate"
        }
      ],
      "References": [
        {
          "URL": "https://www.suse.com/security/cve/CVE-2015-1803.html",
          "Description": "CVE-2015-1803"
        },
        {
          "URL": "https://bugzilla.suse.com/921978",
          "Description": "SUSE Bug 921978"
        }
      ],
      "ProductStatuses": [
        {
          "Type": "Fixed",
          "ProductID": [
            "SUSE Linux Enterprise Desktop 11 SP3:xorg-x11-libs-32bit-7.4-8.26.42.1",
            "SUSE Linux Enterprise Desktop 11 SP3:xorg-x11-libs-7.4-8.26.42.1",
            "SUSE Linux Enterprise Server 11 SP3-TERADATA:xorg-x11-libs-32bit-7.4-8.26.42.1",
            "SUSE Linux Enterprise Server 11 SP3-TERADATA:xorg-x11-libs-7.4-8.26.42.1",
            "SUSE Linux Enterprise Server 11 SP3-TERADATA:xorg-x11-libs-x86-7.4-8.26.42.1",
            "SUSE Linux Enterprise Server 11 SP3:xorg-x11-libs-32bit-7.4-8.26.42.1",
            "SUSE Linux Enterprise Server 11 SP3:xorg-x11-libs-7.4-8.26.42.1",
            "SUSE Linux Enterprise Server 11 SP3:xorg-x11-libs-x86-7.4-8.26.42.1",
            "SUSE Linux Enterprise Server for SAP Applications 11 SP3:xorg-x11-libs-32bit-7.4-8.26.42.1",
            "SUSE Linux Enterprise Server for SAP Applications 11 SP3:xorg-x11-libs-7.4-8.26.42.1",
            "SUSE Linux Enterprise Server for SAP Applications 11 SP3:xorg-x11-libs-x86-7.4-8.26.42.1",
            "SUSE Linux Enterprise Software Development Kit 11 SP3:xorg-x11-devel-32bit-7.4-8.26.42.1",
            "SUSE Linux Enterprise Software Development Kit 11 SP3:xorg-x11-devel-7.4-8.26.42.1"
          ]
        }
      ],
      "CVSSScoreSets": {}
    },
    {
      "CVE": "CVE-2015-1804",
      "Description": "The bdfReadCharacters function in bitmap/bdfread.c in X.Org libXfont before 1.4.9 and 1.5.x before 1.5.1 does not properly perform type conversion for metrics values, which allows remote authenticated users to cause a denial of service (out-of-bounds memory access) and possibly execute arbitrary code via a crafted BDF font file.",
      "Threats": [
        {
          "Type": "Impact",
          "Severity": "important"
        }
      ],
      "References": [
        {
          "URL": "https://www.suse.com/security/cve/CVE-2015-1804.html",
          "Description": "CVE-2015-1804"
        },
        {
          "URL": "https://bugzilla.suse.com/921978",
          "Description": "SUSE Bug 921978"
        }
      ],
      "ProductStatuses": [
        {
          "Type": "Fixed",
          "ProductID": [
            "SUSE Linux Enterprise Desktop 11 SP3:xorg-x11-libs-32bit-7.4-8.26.42.1",
            "SUSE Linux Enterprise Desktop 11 SP3:xorg-x11-libs-7.4-8.26.42.1",
            "SUSE Linux Enterprise Server 11 SP3-TERADATA:xorg-x11-libs-32bit-7.4-8.26.42.1",
            "SUSE Linux Enterprise Server 11 SP3-TERADATA:xorg-x11-libs-7.4-8.26.42.1",
            "SUSE Linux Enterprise Server 11 SP3-TERADATA:xorg-x11-libs-x86-7.4-8.26.42.1",
            "SUSE Linux Enterprise Server 11 SP3:xorg-x11-libs-32bit-7.4-8.26.42.1",
            "SUSE Linux Enterprise Server 11 SP3:xorg-x11-libs-7.4-8.26.42.1",
            "SUSE Linux Enterprise Server 11 SP3:xorg-x11-libs-x86-7.4-8.26.42.1",
            "SUSE Linux Enterprise Server for SAP Applications 11 SP3:xorg-x11-libs-32bit-7.4-8.26.42.1",
            "SUSE Linux Enterprise Server for SAP Applications 11 SP3:xorg-x11-libs-7.4-8.26.42.1",
            "SUSE Linux Enterprise Server for SAP Applications 11 SP3:xorg-x11-libs-x86-7.4-8.26.42.1",
            "SUSE Linux Enterprise Software Development Kit 11 SP3:xorg-x11-devel-32bit-7.4-8.26.42.1",
            "SUSE Linux Enterprise Software Development Kit 11 SP3:xorg-x11-devel-7.4-8.26.42.1"
          ]
        }
      ],
      "CVSSScoreSets": {}
    }
  ]
}