{
  "id": "GO-2024-2566",
  "modified": "2024-06-05T16:43:07.926260Z",
  "published": "2024-06-05T15:10:52Z",
  "aliases": [
    "BIT-mattermost-2024-24776",
    "CVE-2024-24776",
    "GHSA-r833-w756-h5p2"
  ],
  "summary": "Mattermost fails to check the required permissions in github.com/mattermost/mattermost/server/v8",
  "details": "Mattermost fails to check the required permissions in github.com/mattermost/mattermost/server/v8",
  "affected": [
    {
      "package": {
        "ecosystem": "Go",
        "name": "github.com/mattermost/mattermost/server/v8",
        "purl": "pkg:golang/github.com/mattermost/mattermost/server/v8"
      },
      "ranges": [
        {
          "type": "SEMVER",
          "events": [
            {
              "introduced": "0"
            }
          ]
        }
      ],
      "database_specific": {
        "source": "https://vuln.go.dev/ID/GO-2024-2566.json"
      }
    }
  ],
  "references": [
    {
      "type": "ADVISORY",
      "url": "https://github.com/advisories/GHSA-r833-w756-h5p2"
    },
    {
      "type": "ADVISORY",
      "url": "https://nvd.nist.gov/vuln/detail/CVE-2024-24776"
    },
    {
      "type": "WEB",
      "url": "https://mattermost.com/security-updates"
    }
  ]
}