{
  "Title": "Security update for java-11-openjdk",
  "Tracking": {
    "ID": "SUSE-SU-2023:4198-1",
    "Status": "Final",
    "Version": "1",
    "InitialReleaseDate": "2023-10-25T09:59:32Z",
    "CurrentReleaseDate": "2023-10-25T09:59:32Z",
    "RevisionHistory": [
      {
        "Number": "1",
        "Date": "2023-10-25T09:59:32Z",
        "Description": "current"
      }
    ]
  },
  "Notes": [
    {
      "Text": "Security update for java-11-openjdk",
      "Title": "Topic",
      "Type": "Summary"
    },
    {
      "Text": "This update for java-11-openjdk fixes the following issues:\n\n- Upgraded to JDK 11.0.21+9 (October 2023 CPU):\n\n  - CVE-2023-22081: Fixed a partial denial of service issue that\n    could be triggered via HTTPS (bsc#1216374).\n\nPlease visit the Oracle Release Notes page for the full changelog:\n\nhttps://www.oracle.com/java/technologies/javase/11all-relnotes.html\n",
      "Title": "Details",
      "Type": "General"
    },
    {
      "Text": "The CVRF data is provided by SUSE under the Creative Commons License 4.0 with Attribution (CC-BY-4.0).",
      "Title": "Terms of Use",
      "Type": "Legal Disclaimer"
    },
    {
      "Text": "Container bci/openjdk-devel:11-2023-4198,Container bci/openjdk:11-2023-4198,Container suse/manager/5.0/x86_64/server-attestation:latest-2023-4198,Container suse/manager/5.0/x86_64/server:latest-2023-4198,Image SLES15-SP4-Manager-Server-4-3-2023-4198,Image SLES15-SP4-Manager-Server-4-3-Azure-llc-2023-4198,Image SLES15-SP4-Manager-Server-4-3-Azure-ltd-2023-4198,Image SLES15-SP4-Manager-Server-4-3-BYOS-2023-4198,Image SLES15-SP4-Manager-Server-4-3-BYOS-Azure-2023-4198,Image SLES15-SP4-Manager-Server-4-3-BYOS-EC2-2023-4198,Image SLES15-SP4-Manager-Server-4-3-BYOS-GCE-2023-4198,Image SLES15-SP4-Manager-Server-4-3-EC2-llc-2023-4198,Image SLES15-SP4-Manager-Server-4-3-EC2-ltd-2023-4198,SUSE-2023-4198,SUSE-SLE-Module-Basesystem-15-SP4-2023-4198,SUSE-SLE-Module-Basesystem-15-SP5-2023-4198,SUSE-SLE-Module-Packagehub-Subpackages-15-SP4-2023-4198,SUSE-SLE-Module-Packagehub-Subpackages-15-SP5-2023-4198,SUSE-SLE-Product-HPC-15-SP1-LTSS-2023-4198,SUSE-SLE-Product-HPC-15-SP2-LTSS-2023-4198,SUSE-SLE-Product-HPC-15-SP3-ESPOS-2023-4198,SUSE-SLE-Product-HPC-15-SP3-LTSS-2023-4198,SUSE-SLE-Product-SLES-15-SP1-LTSS-2023-4198,SUSE-SLE-Product-SLES-15-SP2-LTSS-2023-4198,SUSE-SLE-Product-SLES-15-SP3-LTSS-2023-4198,SUSE-SLE-Product-SLES_SAP-15-SP1-2023-4198,SUSE-SLE-Product-SLES_SAP-15-SP2-2023-4198,SUSE-SLE-Product-SLES_SAP-15-SP3-2023-4198,SUSE-SLE-Product-SUSE-Manager-Proxy-4.2-2023-4198,SUSE-SLE-Product-SUSE-Manager-Server-4.2-2023-4198,SUSE-Storage-7.1-2023-4198,openSUSE-SLE-15.4-2023-4198,openSUSE-SLE-15.5-2023-4198",
      "Title": "Patchnames",
      "Type": "Details"
    }
  ],
  "ProductTree": {
    "Relationships": [
      {
        "ProductReference": "java-11-openjdk-11.0.21.0-150000.3.107.1",
        "RelatesToProductReference": "Container bci/openjdk-devel:11",
        "RelationType": "Default Component Of"
      },
      {
        "ProductReference": "java-11-openjdk-devel-11.0.21.0-150000.3.107.1",
        "RelatesToProductReference": "Container bci/openjdk-devel:11",
        "RelationType": "Default Component Of"
      },
      {
        "ProductReference": "java-11-openjdk-headless-11.0.21.0-150000.3.107.1",
        "RelatesToProductReference": "Container bci/openjdk-devel:11",
        "RelationType": "Default Component Of"
      },
      {
        "ProductReference": "java-11-openjdk-11.0.21.0-150000.3.107.1",
        "RelatesToProductReference": "Container bci/openjdk:11",
        "RelationType": "Default Component Of"
      },
      {
        "ProductReference": "java-11-openjdk-headless-11.0.21.0-150000.3.107.1",
        "RelatesToProductReference": "Container bci/openjdk:11",
        "RelationType": "Default Component Of"
      },
      {
        "ProductReference": "java-11-openjdk-headless-11.0.21.0-150000.3.107.1",
        "RelatesToProductReference": "Container suse/manager/5.0/x86_64/server-attestation:latest",
        "RelationType": "Default Component Of"
      },
      {
        "ProductReference": "java-11-openjdk-11.0.21.0-150000.3.107.1",
        "RelatesToProductReference": "Container suse/manager/5.0/x86_64/server:latest",
        "RelationType": "Default Component Of"
      },
      {
        "ProductReference": "java-11-openjdk-headless-11.0.21.0-150000.3.107.1",
        "RelatesToProductReference": "Container suse/manager/5.0/x86_64/server:latest",
        "RelationType": "Default Component Of"
      },
      {
        "ProductReference": "java-11-openjdk-11.0.21.0-150000.3.107.1",
        "RelatesToProductReference": "Image SLES15-SP4-Manager-Server-4-3",
        "RelationType": "Default Component Of"
      },
      {
        "ProductReference": "java-11-openjdk-headless-11.0.21.0-150000.3.107.1",
        "RelatesToProductReference": "Image SLES15-SP4-Manager-Server-4-3",
        "RelationType": "Default Component Of"
      },
      {
        "ProductReference": "java-11-openjdk-11.0.21.0-150000.3.107.1",
        "RelatesToProductReference": "Image SLES15-SP4-Manager-Server-4-3-Azure-llc",
        "RelationType": "Default Component Of"
      },
      {
        "ProductReference": "java-11-openjdk-headless-11.0.21.0-150000.3.107.1",
        "RelatesToProductReference": "Image SLES15-SP4-Manager-Server-4-3-Azure-llc",
        "RelationType": "Default Component Of"
      },
      {
        "ProductReference": "java-11-openjdk-11.0.21.0-150000.3.107.1",
        "RelatesToProductReference": "Image SLES15-SP4-Manager-Server-4-3-Azure-ltd",
        "RelationType": "Default Component Of"
      },
      {
        "ProductReference": "java-11-openjdk-headless-11.0.21.0-150000.3.107.1",
        "RelatesToProductReference": "Image SLES15-SP4-Manager-Server-4-3-Azure-ltd",
        "RelationType": "Default Component Of"
      },
      {
        "ProductReference": "java-11-openjdk-11.0.21.0-150000.3.107.1",
        "RelatesToProductReference": "Image SLES15-SP4-Manager-Server-4-3-BYOS",
        "RelationType": "Default Component Of"
      },
      {
        "ProductReference": "java-11-openjdk-headless-11.0.21.0-150000.3.107.1",
        "RelatesToProductReference": "Image SLES15-SP4-Manager-Server-4-3-BYOS",
        "RelationType": "Default Component Of"
      },
      {
        "ProductReference": "java-11-openjdk-11.0.21.0-150000.3.107.1",
        "RelatesToProductReference": "Image SLES15-SP4-Manager-Server-4-3-BYOS-Azure",
        "RelationType": "Default Component Of"
      },
      {
        "ProductReference": "java-11-openjdk-headless-11.0.21.0-150000.3.107.1",
        "RelatesToProductReference": "Image SLES15-SP4-Manager-Server-4-3-BYOS-Azure",
        "RelationType": "Default Component Of"
      },
      {
        "ProductReference": "java-11-openjdk-11.0.21.0-150000.3.107.1",
        "RelatesToProductReference": "Image SLES15-SP4-Manager-Server-4-3-BYOS-EC2",
        "RelationType": "Default Component Of"
      },
      {
        "ProductReference": "java-11-openjdk-headless-11.0.21.0-150000.3.107.1",
        "RelatesToProductReference": "Image SLES15-SP4-Manager-Server-4-3-BYOS-EC2",
        "RelationType": "Default Component Of"
      },
      {
        "ProductReference": "java-11-openjdk-11.0.21.0-150000.3.107.1",
        "RelatesToProductReference": "Image SLES15-SP4-Manager-Server-4-3-BYOS-GCE",
        "RelationType": "Default Component Of"
      },
      {
        "ProductReference": "java-11-openjdk-headless-11.0.21.0-150000.3.107.1",
        "RelatesToProductReference": "Image SLES15-SP4-Manager-Server-4-3-BYOS-GCE",
        "RelationType": "Default Component Of"
      },
      {
        "ProductReference": "java-11-openjdk-11.0.21.0-150000.3.107.1",
        "RelatesToProductReference": "Image SLES15-SP4-Manager-Server-4-3-EC2-llc",
        "RelationType": "Default Component Of"
      },
      {
        "ProductReference": "java-11-openjdk-headless-11.0.21.0-150000.3.107.1",
        "RelatesToProductReference": "Image SLES15-SP4-Manager-Server-4-3-EC2-llc",
        "RelationType": "Default Component Of"
      },
      {
        "ProductReference": "java-11-openjdk-11.0.21.0-150000.3.107.1",
        "RelatesToProductReference": "Image SLES15-SP4-Manager-Server-4-3-EC2-ltd",
        "RelationType": "Default Component Of"
      },
      {
        "ProductReference": "java-11-openjdk-headless-11.0.21.0-150000.3.107.1",
        "RelatesToProductReference": "Image SLES15-SP4-Manager-Server-4-3-EC2-ltd",
        "RelationType": "Default Component Of"
      },
      {
        "ProductReference": "java-11-openjdk-11.0.21.0-150000.3.107.1",
        "RelatesToProductReference": "SUSE Enterprise Storage 7.1",
        "RelationType": "Default Component Of"
      },
      {
        "ProductReference": "java-11-openjdk-demo-11.0.21.0-150000.3.107.1",
        "RelatesToProductReference": "SUSE Enterprise Storage 7.1",
        "RelationType": "Default Component Of"
      },
      {
        "ProductReference": "java-11-openjdk-devel-11.0.21.0-150000.3.107.1",
        "RelatesToProductReference": "SUSE Enterprise Storage 7.1",
        "RelationType": "Default Component Of"
      },
      {
        "ProductReference": "java-11-openjdk-headless-11.0.21.0-150000.3.107.1",
        "RelatesToProductReference": "SUSE Enterprise Storage 7.1",
        "RelationType": "Default Component Of"
      },
      {
        "ProductReference": "java-11-openjdk-11.0.21.0-150000.3.107.1",
        "RelatesToProductReference": "SUSE Linux Enterprise High Performance Computing 15 SP1-LTSS",
        "RelationType": "Default Component Of"
      },
      {
        "ProductReference": "java-11-openjdk-demo-11.0.21.0-150000.3.107.1",
        "RelatesToProductReference": "SUSE Linux Enterprise High Performance Computing 15 SP1-LTSS",
        "RelationType": "Default Component Of"
      },
      {
        "ProductReference": "java-11-openjdk-devel-11.0.21.0-150000.3.107.1",
        "RelatesToProductReference": "SUSE Linux Enterprise High Performance Computing 15 SP1-LTSS",
        "RelationType": "Default Component Of"
      },
      {
        "ProductReference": "java-11-openjdk-headless-11.0.21.0-150000.3.107.1",
        "RelatesToProductReference": "SUSE Linux Enterprise High Performance Computing 15 SP1-LTSS",
        "RelationType": "Default Component Of"
      },
      {
        "ProductReference": "java-11-openjdk-11.0.21.0-150000.3.107.1",
        "RelatesToProductReference": "SUSE Linux Enterprise High Performance Computing 15 SP2-LTSS",
        "RelationType": "Default Component Of"
      },
      {
        "ProductReference": "java-11-openjdk-demo-11.0.21.0-150000.3.107.1",
        "RelatesToProductReference": "SUSE Linux Enterprise High Performance Computing 15 SP2-LTSS",
        "RelationType": "Default Component Of"
      },
      {
        "ProductReference": "java-11-openjdk-devel-11.0.21.0-150000.3.107.1",
        "RelatesToProductReference": "SUSE Linux Enterprise High Performance Computing 15 SP2-LTSS",
        "RelationType": "Default Component Of"
      },
      {
        "ProductReference": "java-11-openjdk-headless-11.0.21.0-150000.3.107.1",
        "RelatesToProductReference": "SUSE Linux Enterprise High Performance Computing 15 SP2-LTSS",
        "RelationType": "Default Component Of"
      },
      {
        "ProductReference": "java-11-openjdk-11.0.21.0-150000.3.107.1",
        "RelatesToProductReference": "SUSE Linux Enterprise High Performance Computing 15 SP3-ESPOS",
        "RelationType": "Default Component Of"
      },
      {
        "ProductReference": "java-11-openjdk-demo-11.0.21.0-150000.3.107.1",
        "RelatesToProductReference": "SUSE Linux Enterprise High Performance Computing 15 SP3-ESPOS",
        "RelationType": "Default Component Of"
      },
      {
        "ProductReference": "java-11-openjdk-devel-11.0.21.0-150000.3.107.1",
        "RelatesToProductReference": "SUSE Linux Enterprise High Performance Computing 15 SP3-ESPOS",
        "RelationType": "Default Component Of"
      },
      {
        "ProductReference": "java-11-openjdk-headless-11.0.21.0-150000.3.107.1",
        "RelatesToProductReference": "SUSE Linux Enterprise High Performance Computing 15 SP3-ESPOS",
        "RelationType": "Default Component Of"
      },
      {
        "ProductReference": "java-11-openjdk-11.0.21.0-150000.3.107.1",
        "RelatesToProductReference": "SUSE Linux Enterprise High Performance Computing 15 SP3-LTSS",
        "RelationType": "Default Component Of"
      },
      {
        "ProductReference": "java-11-openjdk-demo-11.0.21.0-150000.3.107.1",
        "RelatesToProductReference": "SUSE Linux Enterprise High Performance Computing 15 SP3-LTSS",
        "RelationType": "Default Component Of"
      },
      {
        "ProductReference": "java-11-openjdk-devel-11.0.21.0-150000.3.107.1",
        "RelatesToProductReference": "SUSE Linux Enterprise High Performance Computing 15 SP3-LTSS",
        "RelationType": "Default Component Of"
      },
      {
        "ProductReference": "java-11-openjdk-headless-11.0.21.0-150000.3.107.1",
        "RelatesToProductReference": "SUSE Linux Enterprise High Performance Computing 15 SP3-LTSS",
        "RelationType": "Default Component Of"
      },
      {
        "ProductReference": "java-11-openjdk-11.0.21.0-150000.3.107.1",
        "RelatesToProductReference": "SUSE Linux Enterprise Module for Basesystem 15 SP4",
        "RelationType": "Default Component Of"
      },
      {
        "ProductReference": "java-11-openjdk-demo-11.0.21.0-150000.3.107.1",
        "RelatesToProductReference": "SUSE Linux Enterprise Module for Basesystem 15 SP4",
        "RelationType": "Default Component Of"
      },
      {
        "ProductReference": "java-11-openjdk-devel-11.0.21.0-150000.3.107.1",
        "RelatesToProductReference": "SUSE Linux Enterprise Module for Basesystem 15 SP4",
        "RelationType": "Default Component Of"
      },
      {
        "ProductReference": "java-11-openjdk-headless-11.0.21.0-150000.3.107.1",
        "RelatesToProductReference": "SUSE Linux Enterprise Module for Basesystem 15 SP4",
        "RelationType": "Default Component Of"
      },
      {
        "ProductReference": "java-11-openjdk-11.0.21.0-150000.3.107.1",
        "RelatesToProductReference": "SUSE Linux Enterprise Module for Basesystem 15 SP5",
        "RelationType": "Default Component Of"
      },
      {
        "ProductReference": "java-11-openjdk-demo-11.0.21.0-150000.3.107.1",
        "RelatesToProductReference": "SUSE Linux Enterprise Module for Basesystem 15 SP5",
        "RelationType": "Default Component Of"
      },
      {
        "ProductReference": "java-11-openjdk-devel-11.0.21.0-150000.3.107.1",
        "RelatesToProductReference": "SUSE Linux Enterprise Module for Basesystem 15 SP5",
        "RelationType": "Default Component Of"
      },
      {
        "ProductReference": "java-11-openjdk-headless-11.0.21.0-150000.3.107.1",
        "RelatesToProductReference": "SUSE Linux Enterprise Module for Basesystem 15 SP5",
        "RelationType": "Default Component Of"
      },
      {
        "ProductReference": "java-11-openjdk-javadoc-11.0.21.0-150000.3.107.1",
        "RelatesToProductReference": "SUSE Linux Enterprise Module for Package Hub 15 SP4",
        "RelationType": "Default Component Of"
      },
      {
        "ProductReference": "java-11-openjdk-javadoc-11.0.21.0-150000.3.107.1",
        "RelatesToProductReference": "SUSE Linux Enterprise Module for Package Hub 15 SP5",
        "RelationType": "Default Component Of"
      },
      {
        "ProductReference": "java-11-openjdk-11.0.21.0-150000.3.107.1",
        "RelatesToProductReference": "SUSE Linux Enterprise Server 15 SP1-LTSS",
        "RelationType": "Default Component Of"
      },
      {
        "ProductReference": "java-11-openjdk-demo-11.0.21.0-150000.3.107.1",
        "RelatesToProductReference": "SUSE Linux Enterprise Server 15 SP1-LTSS",
        "RelationType": "Default Component Of"
      },
      {
        "ProductReference": "java-11-openjdk-devel-11.0.21.0-150000.3.107.1",
        "RelatesToProductReference": "SUSE Linux Enterprise Server 15 SP1-LTSS",
        "RelationType": "Default Component Of"
      },
      {
        "ProductReference": "java-11-openjdk-headless-11.0.21.0-150000.3.107.1",
        "RelatesToProductReference": "SUSE Linux Enterprise Server 15 SP1-LTSS",
        "RelationType": "Default Component Of"
      },
      {
        "ProductReference": "java-11-openjdk-11.0.21.0-150000.3.107.1",
        "RelatesToProductReference": "SUSE Linux Enterprise Server 15 SP2-LTSS",
        "RelationType": "Default Component Of"
      },
      {
        "ProductReference": "java-11-openjdk-demo-11.0.21.0-150000.3.107.1",
        "RelatesToProductReference": "SUSE Linux Enterprise Server 15 SP2-LTSS",
        "RelationType": "Default Component Of"
      },
      {
        "ProductReference": "java-11-openjdk-devel-11.0.21.0-150000.3.107.1",
        "RelatesToProductReference": "SUSE Linux Enterprise Server 15 SP2-LTSS",
        "RelationType": "Default Component Of"
      },
      {
        "ProductReference": "java-11-openjdk-headless-11.0.21.0-150000.3.107.1",
        "RelatesToProductReference": "SUSE Linux Enterprise Server 15 SP2-LTSS",
        "RelationType": "Default Component Of"
      },
      {
        "ProductReference": "java-11-openjdk-11.0.21.0-150000.3.107.1",
        "RelatesToProductReference": "SUSE Linux Enterprise Server 15 SP3-LTSS",
        "RelationType": "Default Component Of"
      },
      {
        "ProductReference": "java-11-openjdk-demo-11.0.21.0-150000.3.107.1",
        "RelatesToProductReference": "SUSE Linux Enterprise Server 15 SP3-LTSS",
        "RelationType": "Default Component Of"
      },
      {
        "ProductReference": "java-11-openjdk-devel-11.0.21.0-150000.3.107.1",
        "RelatesToProductReference": "SUSE Linux Enterprise Server 15 SP3-LTSS",
        "RelationType": "Default Component Of"
      },
      {
        "ProductReference": "java-11-openjdk-headless-11.0.21.0-150000.3.107.1",
        "RelatesToProductReference": "SUSE Linux Enterprise Server 15 SP3-LTSS",
        "RelationType": "Default Component Of"
      },
      {
        "ProductReference": "java-11-openjdk-11.0.21.0-150000.3.107.1",
        "RelatesToProductReference": "SUSE Linux Enterprise Server for SAP Applications 15 SP1",
        "RelationType": "Default Component Of"
      },
      {
        "ProductReference": "java-11-openjdk-demo-11.0.21.0-150000.3.107.1",
        "RelatesToProductReference": "SUSE Linux Enterprise Server for SAP Applications 15 SP1",
        "RelationType": "Default Component Of"
      },
      {
        "ProductReference": "java-11-openjdk-devel-11.0.21.0-150000.3.107.1",
        "RelatesToProductReference": "SUSE Linux Enterprise Server for SAP Applications 15 SP1",
        "RelationType": "Default Component Of"
      },
      {
        "ProductReference": "java-11-openjdk-headless-11.0.21.0-150000.3.107.1",
        "RelatesToProductReference": "SUSE Linux Enterprise Server for SAP Applications 15 SP1",
        "RelationType": "Default Component Of"
      },
      {
        "ProductReference": "java-11-openjdk-11.0.21.0-150000.3.107.1",
        "RelatesToProductReference": "SUSE Linux Enterprise Server for SAP Applications 15 SP2",
        "RelationType": "Default Component Of"
      },
      {
        "ProductReference": "java-11-openjdk-demo-11.0.21.0-150000.3.107.1",
        "RelatesToProductReference": "SUSE Linux Enterprise Server for SAP Applications 15 SP2",
        "RelationType": "Default Component Of"
      },
      {
        "ProductReference": "java-11-openjdk-devel-11.0.21.0-150000.3.107.1",
        "RelatesToProductReference": "SUSE Linux Enterprise Server for SAP Applications 15 SP2",
        "RelationType": "Default Component Of"
      },
      {
        "ProductReference": "java-11-openjdk-headless-11.0.21.0-150000.3.107.1",
        "RelatesToProductReference": "SUSE Linux Enterprise Server for SAP Applications 15 SP2",
        "RelationType": "Default Component Of"
      },
      {
        "ProductReference": "java-11-openjdk-11.0.21.0-150000.3.107.1",
        "RelatesToProductReference": "SUSE Linux Enterprise Server for SAP Applications 15 SP3",
        "RelationType": "Default Component Of"
      },
      {
        "ProductReference": "java-11-openjdk-demo-11.0.21.0-150000.3.107.1",
        "RelatesToProductReference": "SUSE Linux Enterprise Server for SAP Applications 15 SP3",
        "RelationType": "Default Component Of"
      },
      {
        "ProductReference": "java-11-openjdk-devel-11.0.21.0-150000.3.107.1",
        "RelatesToProductReference": "SUSE Linux Enterprise Server for SAP Applications 15 SP3",
        "RelationType": "Default Component Of"
      },
      {
        "ProductReference": "java-11-openjdk-headless-11.0.21.0-150000.3.107.1",
        "RelatesToProductReference": "SUSE Linux Enterprise Server for SAP Applications 15 SP3",
        "RelationType": "Default Component Of"
      },
      {
        "ProductReference": "java-11-openjdk-11.0.21.0-150000.3.107.1",
        "RelatesToProductReference": "SUSE Manager Proxy 4.2",
        "RelationType": "Default Component Of"
      },
      {
        "ProductReference": "java-11-openjdk-demo-11.0.21.0-150000.3.107.1",
        "RelatesToProductReference": "SUSE Manager Proxy 4.2",
        "RelationType": "Default Component Of"
      },
      {
        "ProductReference": "java-11-openjdk-devel-11.0.21.0-150000.3.107.1",
        "RelatesToProductReference": "SUSE Manager Proxy 4.2",
        "RelationType": "Default Component Of"
      },
      {
        "ProductReference": "java-11-openjdk-headless-11.0.21.0-150000.3.107.1",
        "RelatesToProductReference": "SUSE Manager Proxy 4.2",
        "RelationType": "Default Component Of"
      },
      {
        "ProductReference": "java-11-openjdk-11.0.21.0-150000.3.107.1",
        "RelatesToProductReference": "SUSE Manager Server 4.2",
        "RelationType": "Default Component Of"
      },
      {
        "ProductReference": "java-11-openjdk-demo-11.0.21.0-150000.3.107.1",
        "RelatesToProductReference": "SUSE Manager Server 4.2",
        "RelationType": "Default Component Of"
      },
      {
        "ProductReference": "java-11-openjdk-devel-11.0.21.0-150000.3.107.1",
        "RelatesToProductReference": "SUSE Manager Server 4.2",
        "RelationType": "Default Component Of"
      },
      {
        "ProductReference": "java-11-openjdk-headless-11.0.21.0-150000.3.107.1",
        "RelatesToProductReference": "SUSE Manager Server 4.2",
        "RelationType": "Default Component Of"
      },
      {
        "ProductReference": "java-11-openjdk-11.0.21.0-150000.3.107.1",
        "RelatesToProductReference": "openSUSE Leap 15.4",
        "RelationType": "Default Component Of"
      },
      {
        "ProductReference": "java-11-openjdk-demo-11.0.21.0-150000.3.107.1",
        "RelatesToProductReference": "openSUSE Leap 15.4",
        "RelationType": "Default Component Of"
      },
      {
        "ProductReference": "java-11-openjdk-devel-11.0.21.0-150000.3.107.1",
        "RelatesToProductReference": "openSUSE Leap 15.4",
        "RelationType": "Default Component Of"
      },
      {
        "ProductReference": "java-11-openjdk-headless-11.0.21.0-150000.3.107.1",
        "RelatesToProductReference": "openSUSE Leap 15.4",
        "RelationType": "Default Component Of"
      },
      {
        "ProductReference": "java-11-openjdk-javadoc-11.0.21.0-150000.3.107.1",
        "RelatesToProductReference": "openSUSE Leap 15.4",
        "RelationType": "Default Component Of"
      },
      {
        "ProductReference": "java-11-openjdk-jmods-11.0.21.0-150000.3.107.1",
        "RelatesToProductReference": "openSUSE Leap 15.4",
        "RelationType": "Default Component Of"
      },
      {
        "ProductReference": "java-11-openjdk-src-11.0.21.0-150000.3.107.1",
        "RelatesToProductReference": "openSUSE Leap 15.4",
        "RelationType": "Default Component Of"
      },
      {
        "ProductReference": "java-11-openjdk-11.0.21.0-150000.3.107.1",
        "RelatesToProductReference": "openSUSE Leap 15.5",
        "RelationType": "Default Component Of"
      },
      {
        "ProductReference": "java-11-openjdk-demo-11.0.21.0-150000.3.107.1",
        "RelatesToProductReference": "openSUSE Leap 15.5",
        "RelationType": "Default Component Of"
      },
      {
        "ProductReference": "java-11-openjdk-devel-11.0.21.0-150000.3.107.1",
        "RelatesToProductReference": "openSUSE Leap 15.5",
        "RelationType": "Default Component Of"
      },
      {
        "ProductReference": "java-11-openjdk-headless-11.0.21.0-150000.3.107.1",
        "RelatesToProductReference": "openSUSE Leap 15.5",
        "RelationType": "Default Component Of"
      },
      {
        "ProductReference": "java-11-openjdk-javadoc-11.0.21.0-150000.3.107.1",
        "RelatesToProductReference": "openSUSE Leap 15.5",
        "RelationType": "Default Component Of"
      },
      {
        "ProductReference": "java-11-openjdk-jmods-11.0.21.0-150000.3.107.1",
        "RelatesToProductReference": "openSUSE Leap 15.5",
        "RelationType": "Default Component Of"
      },
      {
        "ProductReference": "java-11-openjdk-src-11.0.21.0-150000.3.107.1",
        "RelatesToProductReference": "openSUSE Leap 15.5",
        "RelationType": "Default Component Of"
      }
    ]
  },
  "References": [
    {
      "URL": "https://www.suse.com/support/update/announcement/2023/suse-su-20234198-1/",
      "Description": "Link for SUSE-SU-2023:4198-1"
    },
    {
      "URL": "https://lists.suse.com/pipermail/sle-security-updates/2023-October/016848.html",
      "Description": "E-Mail link for SUSE-SU-2023:4198-1"
    },
    {
      "URL": "https://www.suse.com/support/security/rating/",
      "Description": "SUSE Security Ratings"
    },
    {
      "URL": "https://bugzilla.suse.com/1214790",
      "Description": "SUSE Bug 1214790"
    },
    {
      "URL": "https://bugzilla.suse.com/1216374",
      "Description": "SUSE Bug 1216374"
    },
    {
      "URL": "https://www.suse.com/security/cve/CVE-2023-22081/",
      "Description": "SUSE CVE CVE-2023-22081 page"
    }
  ],
  "Vulnerabilities": [
    {
      "CVE": "CVE-2023-22081",
      "Description": "Vulnerability in the Oracle Java SE, Oracle GraalVM for JDK, Oracle GraalVM Enterprise Edition product of Oracle Java SE (component: JSSE).  Supported versions that are affected are Oracle Java SE: 8u381, 8u381-perf, 11.0.20, 17.0.8, 21; Oracle GraalVM for JDK: 17.0.8, 21; Oracle GraalVM Enterprise Edition: 20.3.11, 21.3.7 and  22.3.3. Easily exploitable vulnerability allows unauthenticated attacker with network access via HTTPS to compromise Oracle Java SE, Oracle GraalVM for JDK, Oracle GraalVM Enterprise Edition.  Successful attacks of this vulnerability can result in unauthorized ability to cause a partial denial of service (partial DOS) of Oracle Java SE, Oracle GraalVM for JDK, Oracle GraalVM Enterprise Edition. Note: This vulnerability applies to Java deployments, typically in clients running sandboxed Java Web Start applications or sandboxed Java applets, that load and run untrusted code (e.g., code that comes from the internet) and rely on the Java sandbox for security. This vulnerability does not apply to Java deployments, typically in servers, that load and run only trusted code (e.g., code installed by an administrator). CVSS 3.1 Base Score 5.3 (Availability impacts).  CVSS Vector: (CVSS:3.1/AV:N/AC:L/PR:N/UI:N/S:U/C:N/I:N/A:L).",
      "Threats": [
        {
          "Type": "Impact",
          "Severity": "moderate"
        }
      ],
      "References": [
        {
          "URL": "https://www.suse.com/security/cve/CVE-2023-22081.html",
          "Description": "CVE-2023-22081"
        },
        {
          "URL": "https://bugzilla.suse.com/1216374",
          "Description": "SUSE Bug 1216374"
        }
      ],
      "ProductStatuses": [
        {
          "Type": "Fixed",
          "ProductID": [
            "Container bci/openjdk-devel:11:java-11-openjdk-11.0.21.0-150000.3.107.1",
            "Container bci/openjdk-devel:11:java-11-openjdk-devel-11.0.21.0-150000.3.107.1",
            "Container bci/openjdk-devel:11:java-11-openjdk-headless-11.0.21.0-150000.3.107.1",
            "Container bci/openjdk:11:java-11-openjdk-11.0.21.0-150000.3.107.1",
            "Container bci/openjdk:11:java-11-openjdk-headless-11.0.21.0-150000.3.107.1",
            "Container suse/manager/5.0/x86_64/server-attestation:latest:java-11-openjdk-headless-11.0.21.0-150000.3.107.1",
            "Container suse/manager/5.0/x86_64/server:latest:java-11-openjdk-11.0.21.0-150000.3.107.1",
            "Container suse/manager/5.0/x86_64/server:latest:java-11-openjdk-headless-11.0.21.0-150000.3.107.1",
            "Image SLES15-SP4-Manager-Server-4-3-Azure-llc:java-11-openjdk-11.0.21.0-150000.3.107.1",
            "Image SLES15-SP4-Manager-Server-4-3-Azure-llc:java-11-openjdk-headless-11.0.21.0-150000.3.107.1",
            "Image SLES15-SP4-Manager-Server-4-3-Azure-ltd:java-11-openjdk-11.0.21.0-150000.3.107.1",
            "Image SLES15-SP4-Manager-Server-4-3-Azure-ltd:java-11-openjdk-headless-11.0.21.0-150000.3.107.1",
            "Image SLES15-SP4-Manager-Server-4-3-BYOS-Azure:java-11-openjdk-11.0.21.0-150000.3.107.1",
            "Image SLES15-SP4-Manager-Server-4-3-BYOS-Azure:java-11-openjdk-headless-11.0.21.0-150000.3.107.1",
            "Image SLES15-SP4-Manager-Server-4-3-BYOS-EC2:java-11-openjdk-11.0.21.0-150000.3.107.1",
            "Image SLES15-SP4-Manager-Server-4-3-BYOS-EC2:java-11-openjdk-headless-11.0.21.0-150000.3.107.1",
            "Image SLES15-SP4-Manager-Server-4-3-BYOS-GCE:java-11-openjdk-11.0.21.0-150000.3.107.1",
            "Image SLES15-SP4-Manager-Server-4-3-BYOS-GCE:java-11-openjdk-headless-11.0.21.0-150000.3.107.1",
            "Image SLES15-SP4-Manager-Server-4-3-BYOS:java-11-openjdk-11.0.21.0-150000.3.107.1",
            "Image SLES15-SP4-Manager-Server-4-3-BYOS:java-11-openjdk-headless-11.0.21.0-150000.3.107.1",
            "Image SLES15-SP4-Manager-Server-4-3-EC2-llc:java-11-openjdk-11.0.21.0-150000.3.107.1",
            "Image SLES15-SP4-Manager-Server-4-3-EC2-llc:java-11-openjdk-headless-11.0.21.0-150000.3.107.1",
            "Image SLES15-SP4-Manager-Server-4-3-EC2-ltd:java-11-openjdk-11.0.21.0-150000.3.107.1",
            "Image SLES15-SP4-Manager-Server-4-3-EC2-ltd:java-11-openjdk-headless-11.0.21.0-150000.3.107.1",
            "Image SLES15-SP4-Manager-Server-4-3:java-11-openjdk-11.0.21.0-150000.3.107.1",
            "Image SLES15-SP4-Manager-Server-4-3:java-11-openjdk-headless-11.0.21.0-150000.3.107.1",
            "SUSE Enterprise Storage 7.1:java-11-openjdk-11.0.21.0-150000.3.107.1",
            "SUSE Enterprise Storage 7.1:java-11-openjdk-demo-11.0.21.0-150000.3.107.1",
            "SUSE Enterprise Storage 7.1:java-11-openjdk-devel-11.0.21.0-150000.3.107.1",
            "SUSE Enterprise Storage 7.1:java-11-openjdk-headless-11.0.21.0-150000.3.107.1",
            "SUSE Linux Enterprise High Performance Computing 15 SP1-LTSS:java-11-openjdk-11.0.21.0-150000.3.107.1",
            "SUSE Linux Enterprise High Performance Computing 15 SP1-LTSS:java-11-openjdk-demo-11.0.21.0-150000.3.107.1",
            "SUSE Linux Enterprise High Performance Computing 15 SP1-LTSS:java-11-openjdk-devel-11.0.21.0-150000.3.107.1",
            "SUSE Linux Enterprise High Performance Computing 15 SP1-LTSS:java-11-openjdk-headless-11.0.21.0-150000.3.107.1",
            "SUSE Linux Enterprise High Performance Computing 15 SP2-LTSS:java-11-openjdk-11.0.21.0-150000.3.107.1",
            "SUSE Linux Enterprise High Performance Computing 15 SP2-LTSS:java-11-openjdk-demo-11.0.21.0-150000.3.107.1",
            "SUSE Linux Enterprise High Performance Computing 15 SP2-LTSS:java-11-openjdk-devel-11.0.21.0-150000.3.107.1",
            "SUSE Linux Enterprise High Performance Computing 15 SP2-LTSS:java-11-openjdk-headless-11.0.21.0-150000.3.107.1",
            "SUSE Linux Enterprise High Performance Computing 15 SP3-ESPOS:java-11-openjdk-11.0.21.0-150000.3.107.1",
            "SUSE Linux Enterprise High Performance Computing 15 SP3-ESPOS:java-11-openjdk-demo-11.0.21.0-150000.3.107.1",
            "SUSE Linux Enterprise High Performance Computing 15 SP3-ESPOS:java-11-openjdk-devel-11.0.21.0-150000.3.107.1",
            "SUSE Linux Enterprise High Performance Computing 15 SP3-ESPOS:java-11-openjdk-headless-11.0.21.0-150000.3.107.1",
            "SUSE Linux Enterprise High Performance Computing 15 SP3-LTSS:java-11-openjdk-11.0.21.0-150000.3.107.1",
            "SUSE Linux Enterprise High Performance Computing 15 SP3-LTSS:java-11-openjdk-demo-11.0.21.0-150000.3.107.1",
            "SUSE Linux Enterprise High Performance Computing 15 SP3-LTSS:java-11-openjdk-devel-11.0.21.0-150000.3.107.1",
            "SUSE Linux Enterprise High Performance Computing 15 SP3-LTSS:java-11-openjdk-headless-11.0.21.0-150000.3.107.1",
            "SUSE Linux Enterprise Module for Basesystem 15 SP4:java-11-openjdk-11.0.21.0-150000.3.107.1",
            "SUSE Linux Enterprise Module for Basesystem 15 SP4:java-11-openjdk-demo-11.0.21.0-150000.3.107.1",
            "SUSE Linux Enterprise Module for Basesystem 15 SP4:java-11-openjdk-devel-11.0.21.0-150000.3.107.1",
            "SUSE Linux Enterprise Module for Basesystem 15 SP4:java-11-openjdk-headless-11.0.21.0-150000.3.107.1",
            "SUSE Linux Enterprise Module for Basesystem 15 SP5:java-11-openjdk-11.0.21.0-150000.3.107.1",
            "SUSE Linux Enterprise Module for Basesystem 15 SP5:java-11-openjdk-demo-11.0.21.0-150000.3.107.1",
            "SUSE Linux Enterprise Module for Basesystem 15 SP5:java-11-openjdk-devel-11.0.21.0-150000.3.107.1",
            "SUSE Linux Enterprise Module for Basesystem 15 SP5:java-11-openjdk-headless-11.0.21.0-150000.3.107.1",
            "SUSE Linux Enterprise Module for Package Hub 15 SP4:java-11-openjdk-javadoc-11.0.21.0-150000.3.107.1",
            "SUSE Linux Enterprise Module for Package Hub 15 SP5:java-11-openjdk-javadoc-11.0.21.0-150000.3.107.1",
            "SUSE Linux Enterprise Server 15 SP1-LTSS:java-11-openjdk-11.0.21.0-150000.3.107.1",
            "SUSE Linux Enterprise Server 15 SP1-LTSS:java-11-openjdk-demo-11.0.21.0-150000.3.107.1",
            "SUSE Linux Enterprise Server 15 SP1-LTSS:java-11-openjdk-devel-11.0.21.0-150000.3.107.1",
            "SUSE Linux Enterprise Server 15 SP1-LTSS:java-11-openjdk-headless-11.0.21.0-150000.3.107.1",
            "SUSE Linux Enterprise Server 15 SP2-LTSS:java-11-openjdk-11.0.21.0-150000.3.107.1",
            "SUSE Linux Enterprise Server 15 SP2-LTSS:java-11-openjdk-demo-11.0.21.0-150000.3.107.1",
            "SUSE Linux Enterprise Server 15 SP2-LTSS:java-11-openjdk-devel-11.0.21.0-150000.3.107.1",
            "SUSE Linux Enterprise Server 15 SP2-LTSS:java-11-openjdk-headless-11.0.21.0-150000.3.107.1",
            "SUSE Linux Enterprise Server 15 SP3-LTSS:java-11-openjdk-11.0.21.0-150000.3.107.1",
            "SUSE Linux Enterprise Server 15 SP3-LTSS:java-11-openjdk-demo-11.0.21.0-150000.3.107.1",
            "SUSE Linux Enterprise Server 15 SP3-LTSS:java-11-openjdk-devel-11.0.21.0-150000.3.107.1",
            "SUSE Linux Enterprise Server 15 SP3-LTSS:java-11-openjdk-headless-11.0.21.0-150000.3.107.1",
            "SUSE Linux Enterprise Server for SAP Applications 15 SP1:java-11-openjdk-11.0.21.0-150000.3.107.1",
            "SUSE Linux Enterprise Server for SAP Applications 15 SP1:java-11-openjdk-demo-11.0.21.0-150000.3.107.1",
            "SUSE Linux Enterprise Server for SAP Applications 15 SP1:java-11-openjdk-devel-11.0.21.0-150000.3.107.1",
            "SUSE Linux Enterprise Server for SAP Applications 15 SP1:java-11-openjdk-headless-11.0.21.0-150000.3.107.1",
            "SUSE Linux Enterprise Server for SAP Applications 15 SP2:java-11-openjdk-11.0.21.0-150000.3.107.1",
            "SUSE Linux Enterprise Server for SAP Applications 15 SP2:java-11-openjdk-demo-11.0.21.0-150000.3.107.1",
            "SUSE Linux Enterprise Server for SAP Applications 15 SP2:java-11-openjdk-devel-11.0.21.0-150000.3.107.1",
            "SUSE Linux Enterprise Server for SAP Applications 15 SP2:java-11-openjdk-headless-11.0.21.0-150000.3.107.1",
            "SUSE Linux Enterprise Server for SAP Applications 15 SP3:java-11-openjdk-11.0.21.0-150000.3.107.1",
            "SUSE Linux Enterprise Server for SAP Applications 15 SP3:java-11-openjdk-demo-11.0.21.0-150000.3.107.1",
            "SUSE Linux Enterprise Server for SAP Applications 15 SP3:java-11-openjdk-devel-11.0.21.0-150000.3.107.1",
            "SUSE Linux Enterprise Server for SAP Applications 15 SP3:java-11-openjdk-headless-11.0.21.0-150000.3.107.1",
            "SUSE Manager Proxy 4.2:java-11-openjdk-11.0.21.0-150000.3.107.1",
            "SUSE Manager Proxy 4.2:java-11-openjdk-demo-11.0.21.0-150000.3.107.1",
            "SUSE Manager Proxy 4.2:java-11-openjdk-devel-11.0.21.0-150000.3.107.1",
            "SUSE Manager Proxy 4.2:java-11-openjdk-headless-11.0.21.0-150000.3.107.1",
            "SUSE Manager Server 4.2:java-11-openjdk-11.0.21.0-150000.3.107.1",
            "SUSE Manager Server 4.2:java-11-openjdk-demo-11.0.21.0-150000.3.107.1",
            "SUSE Manager Server 4.2:java-11-openjdk-devel-11.0.21.0-150000.3.107.1",
            "SUSE Manager Server 4.2:java-11-openjdk-headless-11.0.21.0-150000.3.107.1",
            "openSUSE Leap 15.4:java-11-openjdk-11.0.21.0-150000.3.107.1",
            "openSUSE Leap 15.4:java-11-openjdk-demo-11.0.21.0-150000.3.107.1",
            "openSUSE Leap 15.4:java-11-openjdk-devel-11.0.21.0-150000.3.107.1",
            "openSUSE Leap 15.4:java-11-openjdk-headless-11.0.21.0-150000.3.107.1",
            "openSUSE Leap 15.4:java-11-openjdk-javadoc-11.0.21.0-150000.3.107.1",
            "openSUSE Leap 15.4:java-11-openjdk-jmods-11.0.21.0-150000.3.107.1",
            "openSUSE Leap 15.4:java-11-openjdk-src-11.0.21.0-150000.3.107.1",
            "openSUSE Leap 15.5:java-11-openjdk-11.0.21.0-150000.3.107.1",
            "openSUSE Leap 15.5:java-11-openjdk-demo-11.0.21.0-150000.3.107.1",
            "openSUSE Leap 15.5:java-11-openjdk-devel-11.0.21.0-150000.3.107.1",
            "openSUSE Leap 15.5:java-11-openjdk-headless-11.0.21.0-150000.3.107.1",
            "openSUSE Leap 15.5:java-11-openjdk-javadoc-11.0.21.0-150000.3.107.1",
            "openSUSE Leap 15.5:java-11-openjdk-jmods-11.0.21.0-150000.3.107.1",
            "openSUSE Leap 15.5:java-11-openjdk-src-11.0.21.0-150000.3.107.1"
          ]
        }
      ],
      "CVSSScoreSets": {}
    }
  ]
}