{
  "Title": "Security update for the Linux Kernel RT (Live Patch 1 for SLE 15 SP4)",
  "Tracking": {
    "ID": "SUSE-SU-2023:2371-1",
    "Status": "Final",
    "Version": "1",
    "InitialReleaseDate": "2023-06-05T07:49:54Z",
    "CurrentReleaseDate": "2023-06-05T07:49:54Z",
    "RevisionHistory": [
      {
        "Number": "1",
        "Date": "2023-06-05T07:49:54Z",
        "Description": "current"
      }
    ]
  },
  "Notes": [
    {
      "Text": "Security update for the Linux Kernel RT (Live Patch 1 for SLE 15 SP4)",
      "Title": "Topic",
      "Type": "Summary"
    },
    {
      "Text": "This update for the Linux Kernel 5.14.21-150400_15_5 fixes several issues.\n\nThe following security issues were fixed:\n\n- CVE-2023-28464: Fixed user-after-free that could lead to privilege escalation in hci_conn_cleanup in net/uetooth/hci_conn.c (bsc#1211111).\n- CVE-2023-1989: Fixed a use after free in btsdio_remove (bsc#1210500).\n- CVE-2023-0386: Fixed privileges escalation for low-privileged users in the OverlayFS subsystem (bsc#1210499).\n- CVE-2023-1281: Fixed use after free that could lead to privilege escalation in tcindex (bsc#1209683).\n- CVE-2023-2162: Fixed an use-after-free flaw in iscsi_sw_tcp_session_create (bsc#1210662).\n- CVE-2023-0461: Fixed use-after-free in icsk_ulp_data (bsc#1208911).\n- CVE-2023-23454: Fixed a type-confusion in the CBQ network scheduler (bsc#1207188).\n",
      "Title": "Details",
      "Type": "General"
    },
    {
      "Text": "The CVRF data is provided by SUSE under the Creative Commons License 4.0 with Attribution (CC-BY-4.0).",
      "Title": "Terms of Use",
      "Type": "Legal Disclaimer"
    },
    {
      "Text": "SUSE-2023-2371,SUSE-SLE-Module-Live-Patching-15-SP4-2023-2371",
      "Title": "Patchnames",
      "Type": "Details"
    }
  ],
  "ProductTree": {
    "Relationships": [
      {
        "ProductReference": "kernel-livepatch-5_14_21-150400_15_5-rt-6-150400.2.2",
        "RelatesToProductReference": "SUSE Linux Enterprise Live Patching 15 SP4",
        "RelationType": "Default Component Of"
      }
    ]
  },
  "References": [
    {
      "URL": "https://www.suse.com/support/update/announcement/2023/suse-su-20232371-1/",
      "Description": "Link for SUSE-SU-2023:2371-1"
    },
    {
      "URL": "https://lists.suse.com/pipermail/sle-updates/2023-June/029710.html",
      "Description": "E-Mail link for SUSE-SU-2023:2371-1"
    },
    {
      "URL": "https://www.suse.com/support/security/rating/",
      "Description": "SUSE Security Ratings"
    },
    {
      "URL": "https://bugzilla.suse.com/1207188",
      "Description": "SUSE Bug 1207188"
    },
    {
      "URL": "https://bugzilla.suse.com/1208911",
      "Description": "SUSE Bug 1208911"
    },
    {
      "URL": "https://bugzilla.suse.com/1209683",
      "Description": "SUSE Bug 1209683"
    },
    {
      "URL": "https://bugzilla.suse.com/1210499",
      "Description": "SUSE Bug 1210499"
    },
    {
      "URL": "https://bugzilla.suse.com/1210500",
      "Description": "SUSE Bug 1210500"
    },
    {
      "URL": "https://bugzilla.suse.com/1210662",
      "Description": "SUSE Bug 1210662"
    },
    {
      "URL": "https://bugzilla.suse.com/1211111",
      "Description": "SUSE Bug 1211111"
    },
    {
      "URL": "https://www.suse.com/security/cve/CVE-2023-0386/",
      "Description": "SUSE CVE CVE-2023-0386 page"
    },
    {
      "URL": "https://www.suse.com/security/cve/CVE-2023-0461/",
      "Description": "SUSE CVE CVE-2023-0461 page"
    },
    {
      "URL": "https://www.suse.com/security/cve/CVE-2023-1281/",
      "Description": "SUSE CVE CVE-2023-1281 page"
    },
    {
      "URL": "https://www.suse.com/security/cve/CVE-2023-1989/",
      "Description": "SUSE CVE CVE-2023-1989 page"
    },
    {
      "URL": "https://www.suse.com/security/cve/CVE-2023-2162/",
      "Description": "SUSE CVE CVE-2023-2162 page"
    },
    {
      "URL": "https://www.suse.com/security/cve/CVE-2023-23454/",
      "Description": "SUSE CVE CVE-2023-23454 page"
    },
    {
      "URL": "https://www.suse.com/security/cve/CVE-2023-28464/",
      "Description": "SUSE CVE CVE-2023-28464 page"
    }
  ],
  "Vulnerabilities": [
    {
      "CVE": "CVE-2023-0386",
      "Description": "A flaw was found in the Linux kernel, where unauthorized access to the execution of the setuid file with capabilities was found in the Linux kernel's OverlayFS subsystem in how a user copies a capable file from a nosuid mount into another mount. This uid mapping bug allows a local user to escalate their privileges on the system.",
      "Threats": [
        {
          "Type": "Impact",
          "Severity": "important"
        }
      ],
      "References": [
        {
          "URL": "https://www.suse.com/security/cve/CVE-2023-0386.html",
          "Description": "CVE-2023-0386"
        },
        {
          "URL": "https://bugzilla.suse.com/1209615",
          "Description": "SUSE Bug 1209615"
        },
        {
          "URL": "https://bugzilla.suse.com/1210499",
          "Description": "SUSE Bug 1210499"
        }
      ],
      "ProductStatuses": [
        {
          "Type": "Fixed",
          "ProductID": [
            "SUSE Linux Enterprise Live Patching 15 SP4:kernel-livepatch-5_14_21-150400_15_5-rt-6-150400.2.2"
          ]
        }
      ],
      "CVSSScoreSets": {}
    },
    {
      "CVE": "CVE-2023-0461",
      "Description": "There is a use-after-free vulnerability in the Linux Kernel which can be exploited to achieve local privilege escalation. To reach the vulnerability kernel configuration flag CONFIG_TLS or CONFIG_XFRM_ESPINTCP has to be configured, but the operation does not require any privilege.\n\nThere is a use-after-free bug of icsk_ulp_data of a struct inet_connection_sock.\n\nWhen CONFIG_TLS is enabled, user can install a tls context (struct tls_context) on a connected tcp socket. The context is not cleared if this socket is disconnected and reused as a listener. If a new socket is created from the listener, the context is inherited and vulnerable.\n\nThe setsockopt TCP_ULP operation does not require any privilege.\n\nWe recommend upgrading past commit 2c02d41d71f90a5168391b6a5f2954112ba2307c",
      "Threats": [
        {
          "Type": "Impact",
          "Severity": "important"
        }
      ],
      "References": [
        {
          "URL": "https://www.suse.com/security/cve/CVE-2023-0461.html",
          "Description": "CVE-2023-0461"
        },
        {
          "URL": "https://bugzilla.suse.com/1208787",
          "Description": "SUSE Bug 1208787"
        },
        {
          "URL": "https://bugzilla.suse.com/1208911",
          "Description": "SUSE Bug 1208911"
        },
        {
          "URL": "https://bugzilla.suse.com/1211833",
          "Description": "SUSE Bug 1211833"
        },
        {
          "URL": "https://bugzilla.suse.com/1217079",
          "Description": "SUSE Bug 1217079"
        },
        {
          "URL": "https://bugzilla.suse.com/1218514",
          "Description": "SUSE Bug 1218514"
        }
      ],
      "ProductStatuses": [
        {
          "Type": "Fixed",
          "ProductID": [
            "SUSE Linux Enterprise Live Patching 15 SP4:kernel-livepatch-5_14_21-150400_15_5-rt-6-150400.2.2"
          ]
        }
      ],
      "CVSSScoreSets": {}
    },
    {
      "CVE": "CVE-2023-1281",
      "Description": "Use After Free vulnerability in Linux kernel traffic control index filter (tcindex) allows Privilege Escalation. The imperfect hash area can be updated while packets are traversing, which will cause a use-after-free when 'tcf_exts_exec()' is called with the destroyed tcf_ext. A local attacker user can use this vulnerability to elevate its privileges to root.\nThis issue affects Linux Kernel: from 4.14 before git commit ee059170b1f7e94e55fa6cadee544e176a6e59c2.\n\n",
      "Threats": [
        {
          "Type": "Impact",
          "Severity": "important"
        }
      ],
      "References": [
        {
          "URL": "https://www.suse.com/security/cve/CVE-2023-1281.html",
          "Description": "CVE-2023-1281"
        },
        {
          "URL": "https://bugzilla.suse.com/1209634",
          "Description": "SUSE Bug 1209634"
        },
        {
          "URL": "https://bugzilla.suse.com/1209683",
          "Description": "SUSE Bug 1209683"
        },
        {
          "URL": "https://bugzilla.suse.com/1210335",
          "Description": "SUSE Bug 1210335"
        },
        {
          "URL": "https://bugzilla.suse.com/1210423",
          "Description": "SUSE Bug 1210423"
        },
        {
          "URL": "https://bugzilla.suse.com/1211833",
          "Description": "SUSE Bug 1211833"
        }
      ],
      "ProductStatuses": [
        {
          "Type": "Fixed",
          "ProductID": [
            "SUSE Linux Enterprise Live Patching 15 SP4:kernel-livepatch-5_14_21-150400_15_5-rt-6-150400.2.2"
          ]
        }
      ],
      "CVSSScoreSets": {}
    },
    {
      "CVE": "CVE-2023-1989",
      "Description": "A use-after-free flaw was found in btsdio_remove in drivers\\bluetooth\\btsdio.c in the Linux Kernel. In this flaw, a call to btsdio_remove with an unfinished job, may cause a race problem leading to a UAF on hdev devices.",
      "Threats": [
        {
          "Type": "Impact",
          "Severity": "important"
        }
      ],
      "References": [
        {
          "URL": "https://www.suse.com/security/cve/CVE-2023-1989.html",
          "Description": "CVE-2023-1989"
        },
        {
          "URL": "https://bugzilla.suse.com/1210336",
          "Description": "SUSE Bug 1210336"
        },
        {
          "URL": "https://bugzilla.suse.com/1210500",
          "Description": "SUSE Bug 1210500"
        },
        {
          "URL": "https://bugzilla.suse.com/1213841",
          "Description": "SUSE Bug 1213841"
        },
        {
          "URL": "https://bugzilla.suse.com/1213842",
          "Description": "SUSE Bug 1213842"
        },
        {
          "URL": "https://bugzilla.suse.com/1214128",
          "Description": "SUSE Bug 1214128"
        }
      ],
      "ProductStatuses": [
        {
          "Type": "Fixed",
          "ProductID": [
            "SUSE Linux Enterprise Live Patching 15 SP4:kernel-livepatch-5_14_21-150400_15_5-rt-6-150400.2.2"
          ]
        }
      ],
      "CVSSScoreSets": {}
    },
    {
      "CVE": "CVE-2023-2162",
      "Description": "A use-after-free vulnerability was found in iscsi_sw_tcp_session_create in drivers/scsi/iscsi_tcp.c in SCSI sub-component in the Linux Kernel. In this flaw an attacker could leak kernel internal information.",
      "Threats": [
        {
          "Type": "Impact",
          "Severity": "moderate"
        }
      ],
      "References": [
        {
          "URL": "https://www.suse.com/security/cve/CVE-2023-2162.html",
          "Description": "CVE-2023-2162"
        },
        {
          "URL": "https://bugzilla.suse.com/1210647",
          "Description": "SUSE Bug 1210647"
        },
        {
          "URL": "https://bugzilla.suse.com/1210662",
          "Description": "SUSE Bug 1210662"
        },
        {
          "URL": "https://bugzilla.suse.com/1213841",
          "Description": "SUSE Bug 1213841"
        },
        {
          "URL": "https://bugzilla.suse.com/1213842",
          "Description": "SUSE Bug 1213842"
        },
        {
          "URL": "https://bugzilla.suse.com/1214128",
          "Description": "SUSE Bug 1214128"
        },
        {
          "URL": "https://bugzilla.suse.com/1222212",
          "Description": "SUSE Bug 1222212"
        }
      ],
      "ProductStatuses": [
        {
          "Type": "Fixed",
          "ProductID": [
            "SUSE Linux Enterprise Live Patching 15 SP4:kernel-livepatch-5_14_21-150400_15_5-rt-6-150400.2.2"
          ]
        }
      ],
      "CVSSScoreSets": {}
    },
    {
      "CVE": "CVE-2023-23454",
      "Description": "cbq_classify in net/sched/sch_cbq.c in the Linux kernel through 6.1.4 allows attackers to cause a denial of service (slab-out-of-bounds read) because of type confusion (non-negative numbers can sometimes indicate a TC_ACT_SHOT condition rather than valid classification results).",
      "Threats": [
        {
          "Type": "Impact",
          "Severity": "important"
        }
      ],
      "References": [
        {
          "URL": "https://www.suse.com/security/cve/CVE-2023-23454.html",
          "Description": "CVE-2023-23454"
        },
        {
          "URL": "https://bugzilla.suse.com/1207036",
          "Description": "SUSE Bug 1207036"
        },
        {
          "URL": "https://bugzilla.suse.com/1207188",
          "Description": "SUSE Bug 1207188"
        },
        {
          "URL": "https://bugzilla.suse.com/1208030",
          "Description": "SUSE Bug 1208030"
        },
        {
          "URL": "https://bugzilla.suse.com/1208044",
          "Description": "SUSE Bug 1208044"
        },
        {
          "URL": "https://bugzilla.suse.com/1208085",
          "Description": "SUSE Bug 1208085"
        },
        {
          "URL": "https://bugzilla.suse.com/1211833",
          "Description": "SUSE Bug 1211833"
        }
      ],
      "ProductStatuses": [
        {
          "Type": "Fixed",
          "ProductID": [
            "SUSE Linux Enterprise Live Patching 15 SP4:kernel-livepatch-5_14_21-150400_15_5-rt-6-150400.2.2"
          ]
        }
      ],
      "CVSSScoreSets": {}
    },
    {
      "CVE": "CVE-2023-28464",
      "Description": "hci_conn_cleanup in net/bluetooth/hci_conn.c in the Linux kernel through 6.2.9 has a use-after-free (observed in hci_conn_hash_flush) because of calls to hci_dev_put and hci_conn_put. There is a double free that may lead to privilege escalation.",
      "Threats": [
        {
          "Type": "Impact",
          "Severity": "important"
        }
      ],
      "References": [
        {
          "URL": "https://www.suse.com/security/cve/CVE-2023-28464.html",
          "Description": "CVE-2023-28464"
        },
        {
          "URL": "https://bugzilla.suse.com/1209052",
          "Description": "SUSE Bug 1209052"
        },
        {
          "URL": "https://bugzilla.suse.com/1211111",
          "Description": "SUSE Bug 1211111"
        },
        {
          "URL": "https://bugzilla.suse.com/1220130",
          "Description": "SUSE Bug 1220130"
        }
      ],
      "ProductStatuses": [
        {
          "Type": "Fixed",
          "ProductID": [
            "SUSE Linux Enterprise Live Patching 15 SP4:kernel-livepatch-5_14_21-150400_15_5-rt-6-150400.2.2"
          ]
        }
      ],
      "CVSSScoreSets": {}
    }
  ]
}