{
  "Title": "Security update for open-vm-tools",
  "Tracking": {
    "ID": "SUSE-SU-2023:3795-1",
    "Status": "Final",
    "Version": "1",
    "InitialReleaseDate": "2023-09-26T16:06:28Z",
    "CurrentReleaseDate": "2023-09-26T16:06:28Z",
    "RevisionHistory": [
      {
        "Number": "1",
        "Date": "2023-09-26T16:06:28Z",
        "Description": "current"
      }
    ]
  },
  "Notes": [
    {
      "Text": "Security update for open-vm-tools",
      "Title": "Topic",
      "Type": "Summary"
    },
    {
      "Text": "This update for open-vm-tools fixes the following issues:\n\nUpdate to 12.3.0 (build 22234872) (bsc#1214850)\n\n- There are no new features in the open-vm-tools 12.3.0 release. This is\n  primarily a maintenance release that addresses a few critical problems,\n  including:\n  - This release integrates CVE-2023-20900 without the need for a patch.\n    For more information on this vulnerability and its impact on VMware\n    products, see\n    https://www.vmware.com/security/advisories/VMSA-2023-0019.html.\n  - A tools.conf configuration setting is available to temporaily direct\n    Linux quiesced snaphots to restore pre open-vm-tools 12.2.0 behavior\n    of ignoring file systems already frozen.\n  - Building of the VMware Guest Authentication Service (VGAuth) using\n    'xml-security-c' and 'xerces-c' is being deprecated.\n  - A number of Coverity reported issues have been addressed.\n  - A number of GitHub issues and pull requests have been handled.\n    Please see the Resolves Issues section of the Release Notes.\n  - For issues resolved in this release, see the Resolved Issues section\n    of the Release Notes.\n- For complete details, see:\n  https://github.com/vmware/open-vm-tools/releases/tag/stable-12.3.0\n- Release Notes are available at\n  https://github.com/vmware/open-vm-tools/blob/stable-12.3.0/ReleaseNotes.md\n- The granular changes that have gone into the 12.3.0 release are in the\n  ChangeLog at\n  https://github.com/vmware/open-vm-tools/blob/stable-12.3.0/open-vm-tools/ChangeLog\n- Fix (bsc#1205927) - hv_vmbus module is loaded unnecessarily in VMware guests\n- jsc#PED-1344 - reinable building containerinfo plugin for SLES 15 SP4.\n",
      "Title": "Details",
      "Type": "General"
    },
    {
      "Text": "The CVRF data is provided by SUSE under the Creative Commons License 4.0 with Attribution (CC-BY-4.0).",
      "Title": "Terms of Use",
      "Type": "Legal Disclaimer"
    },
    {
      "Text": "SUSE-2023-3795,SUSE-SLE-SERVER-12-SP5-2023-3795",
      "Title": "Patchnames",
      "Type": "Details"
    }
  ],
  "ProductTree": {
    "Relationships": [
      {
        "ProductReference": "libvmtools0-12.3.0-4.59.1",
        "RelatesToProductReference": "SUSE Linux Enterprise Server 12 SP5",
        "RelationType": "Default Component Of"
      },
      {
        "ProductReference": "open-vm-tools-12.3.0-4.59.1",
        "RelatesToProductReference": "SUSE Linux Enterprise Server 12 SP5",
        "RelationType": "Default Component Of"
      },
      {
        "ProductReference": "open-vm-tools-desktop-12.3.0-4.59.1",
        "RelatesToProductReference": "SUSE Linux Enterprise Server 12 SP5",
        "RelationType": "Default Component Of"
      },
      {
        "ProductReference": "open-vm-tools-salt-minion-12.3.0-4.59.1",
        "RelatesToProductReference": "SUSE Linux Enterprise Server 12 SP5",
        "RelationType": "Default Component Of"
      },
      {
        "ProductReference": "open-vm-tools-sdmp-12.3.0-4.59.1",
        "RelatesToProductReference": "SUSE Linux Enterprise Server 12 SP5",
        "RelationType": "Default Component Of"
      },
      {
        "ProductReference": "libvmtools0-12.3.0-4.59.1",
        "RelatesToProductReference": "SUSE Linux Enterprise Server for SAP Applications 12 SP5",
        "RelationType": "Default Component Of"
      },
      {
        "ProductReference": "open-vm-tools-12.3.0-4.59.1",
        "RelatesToProductReference": "SUSE Linux Enterprise Server for SAP Applications 12 SP5",
        "RelationType": "Default Component Of"
      },
      {
        "ProductReference": "open-vm-tools-desktop-12.3.0-4.59.1",
        "RelatesToProductReference": "SUSE Linux Enterprise Server for SAP Applications 12 SP5",
        "RelationType": "Default Component Of"
      },
      {
        "ProductReference": "open-vm-tools-salt-minion-12.3.0-4.59.1",
        "RelatesToProductReference": "SUSE Linux Enterprise Server for SAP Applications 12 SP5",
        "RelationType": "Default Component Of"
      },
      {
        "ProductReference": "open-vm-tools-sdmp-12.3.0-4.59.1",
        "RelatesToProductReference": "SUSE Linux Enterprise Server for SAP Applications 12 SP5",
        "RelationType": "Default Component Of"
      }
    ]
  },
  "References": [
    {
      "URL": "https://www.suse.com/support/update/announcement/2023/suse-su-20233795-1/",
      "Description": "Link for SUSE-SU-2023:3795-1"
    },
    {
      "URL": "https://lists.suse.com/pipermail/sle-security-updates/2023-September/016333.html",
      "Description": "E-Mail link for SUSE-SU-2023:3795-1"
    },
    {
      "URL": "https://www.suse.com/support/security/rating/",
      "Description": "SUSE Security Ratings"
    },
    {
      "URL": "https://bugzilla.suse.com/1205927",
      "Description": "SUSE Bug 1205927"
    },
    {
      "URL": "https://bugzilla.suse.com/1214850",
      "Description": "SUSE Bug 1214850"
    },
    {
      "URL": "https://www.suse.com/security/cve/CVE-2023-20900/",
      "Description": "SUSE CVE CVE-2023-20900 page"
    }
  ],
  "Vulnerabilities": [
    {
      "CVE": "CVE-2023-20900",
      "Description": "A malicious actor that has been granted  Guest Operation Privileges https://docs.vmware.com/en/VMware-vSphere/8.0/vsphere-security/GUID-6A952214-0E5E-4CCF-9D2A-90948FF643EC.html  in a target virtual machine may be able to elevate their privileges if that target virtual machine has been assigned a more privileged  Guest Alias https://vdc-download.vmware.com/vmwb-repository/dcr-public/d1902b0e-d479-46bf-8ac9-cee0e31e8ec0/07ce8dbd-db48-4261-9b8f-c6d3ad8ba472/vim.vm.guest.AliasManager.html .",
      "Threats": [
        {
          "Type": "Impact",
          "Severity": "important"
        }
      ],
      "References": [
        {
          "URL": "https://www.suse.com/security/cve/CVE-2023-20900.html",
          "Description": "CVE-2023-20900"
        },
        {
          "URL": "https://bugzilla.suse.com/1214566",
          "Description": "SUSE Bug 1214566"
        },
        {
          "URL": "https://bugzilla.suse.com/1216432",
          "Description": "SUSE Bug 1216432"
        },
        {
          "URL": "https://bugzilla.suse.com/1216433",
          "Description": "SUSE Bug 1216433"
        },
        {
          "URL": "https://bugzilla.suse.com/1225628",
          "Description": "SUSE Bug 1225628"
        }
      ],
      "ProductStatuses": [
        {
          "Type": "Fixed",
          "ProductID": [
            "SUSE Linux Enterprise Server 12 SP5:libvmtools0-12.3.0-4.59.1",
            "SUSE Linux Enterprise Server 12 SP5:open-vm-tools-12.3.0-4.59.1",
            "SUSE Linux Enterprise Server 12 SP5:open-vm-tools-desktop-12.3.0-4.59.1",
            "SUSE Linux Enterprise Server 12 SP5:open-vm-tools-salt-minion-12.3.0-4.59.1",
            "SUSE Linux Enterprise Server 12 SP5:open-vm-tools-sdmp-12.3.0-4.59.1",
            "SUSE Linux Enterprise Server for SAP Applications 12 SP5:libvmtools0-12.3.0-4.59.1",
            "SUSE Linux Enterprise Server for SAP Applications 12 SP5:open-vm-tools-12.3.0-4.59.1",
            "SUSE Linux Enterprise Server for SAP Applications 12 SP5:open-vm-tools-desktop-12.3.0-4.59.1",
            "SUSE Linux Enterprise Server for SAP Applications 12 SP5:open-vm-tools-salt-minion-12.3.0-4.59.1",
            "SUSE Linux Enterprise Server for SAP Applications 12 SP5:open-vm-tools-sdmp-12.3.0-4.59.1"
          ]
        }
      ],
      "CVSSScoreSets": {}
    }
  ]
}