{
  "Title": "Security update for libxml2",
  "Tracking": {
    "ID": "SUSE-SU-2023:3666-2",
    "Status": "Final",
    "Version": "1",
    "InitialReleaseDate": "2023-10-16T19:13:24Z",
    "CurrentReleaseDate": "2023-10-16T19:13:24Z",
    "RevisionHistory": [
      {
        "Number": "1",
        "Date": "2023-10-16T19:13:24Z",
        "Description": "current"
      }
    ]
  },
  "Notes": [
    {
      "Text": "Security update for libxml2",
      "Title": "Topic",
      "Type": "Summary"
    },
    {
      "Text": "This update for libxml2 fixes the following issues:\n\n- CVE-2023-39615: Fixed crafted xml can cause global buffer overflow (bsc#1214768).\n",
      "Title": "Details",
      "Type": "General"
    },
    {
      "Text": "The CVRF data is provided by SUSE under the Creative Commons License 4.0 with Attribution (CC-BY-4.0).",
      "Title": "Terms of Use",
      "Type": "Legal Disclaimer"
    },
    {
      "Text": "Container bci/bci-sle15-kernel-module-devel:15.6-2023-3666,Container bci/bci-sle15-kernel-module-devel:latest-2023-3666,Container bci/php-apache:latest-2023-3666,Container bci/php-fpm:latest-2023-3666,Container bci/php:latest-2023-3666,Container rancher/seedimage-builder:latest-2023-3666,Container suse/hpc/warewulf4-x86_64/sle-hpc-node:latest-2023-3666,Container suse/manager/5.0/x86_64/proxy-httpd:latest-2023-3666,Container suse/manager/5.0/x86_64/proxy-salt-broker:latest-2023-3666,Container suse/manager/5.0/x86_64/proxy-squid:latest-2023-3666,Container suse/manager/5.0/x86_64/server-migration-14-16:latest-2023-3666,Container suse/manager/5.0/x86_64/server:latest-2023-3666,Container suse/nginx:latest-2023-3666,Container suse/pcp:latest-2023-3666,Container suse/postgres:15-2023-3666,Container suse/postgres:latest-2023-3666,Container suse/rmt-mariadb:latest-2023-3666,Container suse/rmt-server:latest-2023-3666,Container suse/sle-micro/5.5/toolbox:latest-2023-3666,Container suse/sle-micro/5.5:latest-2023-3666,Container suse/sle-micro/base-5.5:latest-2023-3666,Container suse/sle-micro/kvm-5.5:latest-2023-3666,Container suse/sle-micro/rt-5.5:latest-2023-3666,Container suse/sle15:15.5-2023-3666,Container suse/sle15:15.6-2023-3666,Container suse/sles/15.6/cdi-importer:1.58.0-2023-3666,Container suse/sles/15.6/cdi-uploadserver:1.58.0-2023-3666,Container suse/sles/15.6/libguestfs-tools:1.1.1-2023-3666,Container suse/sles/15.6/virt-launcher:1.1.1-2023-3666,Image SLES15-SP5-Azure-Basic-2023-3666,Image SLES15-SP5-Azure-Standard-2023-3666,Image SLES15-SP5-BYOS-Azure-2023-3666,Image SLES15-SP5-BYOS-EC2-2023-3666,Image SLES15-SP5-BYOS-GCE-2023-3666,Image SLES15-SP5-CHOST-BYOS-Aliyun-2023-3666,Image SLES15-SP5-CHOST-BYOS-Azure-2023-3666,Image SLES15-SP5-CHOST-BYOS-EC2-2023-3666,Image SLES15-SP5-CHOST-BYOS-GCE-2023-3666,Image SLES15-SP5-CHOST-BYOS-SAP-CCloud-2023-3666,Image SLES15-SP5-EC2-2023-3666,Image SLES15-SP5-GCE-2023-3666,Image SLES15-SP5-HPC-Azure-2023-3666,Image SLES15-SP5-HPC-BYOS-Azure-2023-3666,Image SLES15-SP5-HPC-BYOS-EC2-2023-3666,Image SLES15-SP5-HPC-BYOS-GCE-2023-3666,Image SLES15-SP5-Hardened-BYOS-Azure-2023-3666,Image SLES15-SP5-Hardened-BYOS-EC2-2023-3666,Image SLES15-SP5-Hardened-BYOS-GCE-2023-3666,Image SLES15-SP5-Micro-5-5-2023-3666,Image SLES15-SP5-Micro-5-5-Azure-2023-3666,Image SLES15-SP5-Micro-5-5-BYOS-2023-3666,Image SLES15-SP5-Micro-5-5-BYOS-Azure-2023-3666,Image SLES15-SP5-Micro-5-5-BYOS-EC2-2023-3666,Image SLES15-SP5-Micro-5-5-BYOS-GCE-2023-3666,Image SLES15-SP5-Micro-5-5-EC2-2023-3666,Image SLES15-SP5-Micro-5-5-GCE-2023-3666,Image SLES15-SP5-SAP-Azure-LI-BYOS-2023-3666,Image SLES15-SP5-SAP-Azure-LI-BYOS-Production-2023-3666,Image SLES15-SP5-SAP-Azure-VLI-BYOS-2023-3666,Image SLES15-SP5-SAP-Azure-VLI-BYOS-Production-2023-3666,Image SLES15-SP5-SAP-BYOS-Azure-2023-3666,Image SLES15-SP5-SAP-BYOS-EC2-2023-3666,Image SLES15-SP5-SAP-BYOS-GCE-2023-3666,Image SLES15-SP5-SAP-Hardened-Azure-2023-3666,Image SLES15-SP5-SAP-Hardened-BYOS-Azure-2023-3666,Image SLES15-SP5-SAP-Hardened-BYOS-EC2-2023-3666,Image SLES15-SP5-SAP-Hardened-BYOS-GCE-2023-3666,Image SLES15-SP5-SAP-Hardened-GCE-2023-3666,Image SLES15-SP5-SAPCAL-Azure-2023-3666,Image SLES15-SP5-SAPCAL-EC2-2023-3666,Image SLES15-SP5-SAPCAL-GCE-2023-3666,SUSE-2023-3666,SUSE-SLE-Micro-5.5-2023-3666",
      "Title": "Patchnames",
      "Type": "Details"
    }
  ],
  "ProductTree": {
    "Relationships": [
      {
        "ProductReference": "libxml2-2-2.10.3-150500.5.8.1",
        "RelatesToProductReference": "Container bci/bci-sle15-kernel-module-devel:15.6",
        "RelationType": "Default Component Of"
      },
      {
        "ProductReference": "libxml2-2-2.10.3-150500.5.8.1",
        "RelatesToProductReference": "Container bci/bci-sle15-kernel-module-devel:latest",
        "RelationType": "Default Component Of"
      },
      {
        "ProductReference": "libxml2-2-2.10.3-150500.5.8.1",
        "RelatesToProductReference": "Container bci/php-apache:latest",
        "RelationType": "Default Component Of"
      },
      {
        "ProductReference": "libxml2-2-2.10.3-150500.5.8.1",
        "RelatesToProductReference": "Container bci/php-fpm:latest",
        "RelationType": "Default Component Of"
      },
      {
        "ProductReference": "libxml2-2-2.10.3-150500.5.8.1",
        "RelatesToProductReference": "Container bci/php:latest",
        "RelationType": "Default Component Of"
      },
      {
        "ProductReference": "libxml2-2-2.10.3-150500.5.8.1",
        "RelatesToProductReference": "Container rancher/seedimage-builder:latest",
        "RelationType": "Default Component Of"
      },
      {
        "ProductReference": "libxml2-2-2.10.3-150500.5.8.1",
        "RelatesToProductReference": "Container suse/hpc/warewulf4-x86_64/sle-hpc-node:latest",
        "RelationType": "Default Component Of"
      },
      {
        "ProductReference": "libxml2-2-2.10.3-150500.5.8.1",
        "RelatesToProductReference": "Container suse/manager/5.0/x86_64/proxy-httpd:latest",
        "RelationType": "Default Component Of"
      },
      {
        "ProductReference": "python3-libxml2-2.10.3-150500.5.8.1",
        "RelatesToProductReference": "Container suse/manager/5.0/x86_64/proxy-httpd:latest",
        "RelationType": "Default Component Of"
      },
      {
        "ProductReference": "libxml2-2-2.10.3-150500.5.8.1",
        "RelatesToProductReference": "Container suse/manager/5.0/x86_64/proxy-salt-broker:latest",
        "RelationType": "Default Component Of"
      },
      {
        "ProductReference": "libxml2-2-2.10.3-150500.5.8.1",
        "RelatesToProductReference": "Container suse/manager/5.0/x86_64/proxy-squid:latest",
        "RelationType": "Default Component Of"
      },
      {
        "ProductReference": "libxml2-2-2.10.3-150500.5.8.1",
        "RelatesToProductReference": "Container suse/manager/5.0/x86_64/server-migration-14-16:latest",
        "RelationType": "Default Component Of"
      },
      {
        "ProductReference": "libxml2-2-2.10.3-150500.5.8.1",
        "RelatesToProductReference": "Container suse/manager/5.0/x86_64/server:latest",
        "RelationType": "Default Component Of"
      },
      {
        "ProductReference": "libxml2-tools-2.10.3-150500.5.8.1",
        "RelatesToProductReference": "Container suse/manager/5.0/x86_64/server:latest",
        "RelationType": "Default Component Of"
      },
      {
        "ProductReference": "python3-libxml2-2.10.3-150500.5.8.1",
        "RelatesToProductReference": "Container suse/manager/5.0/x86_64/server:latest",
        "RelationType": "Default Component Of"
      },
      {
        "ProductReference": "libxml2-2-2.10.3-150500.5.8.1",
        "RelatesToProductReference": "Container suse/nginx:latest",
        "RelationType": "Default Component Of"
      },
      {
        "ProductReference": "libxml2-2-2.10.3-150500.5.8.1",
        "RelatesToProductReference": "Container suse/pcp:latest",
        "RelationType": "Default Component Of"
      },
      {
        "ProductReference": "libxml2-2-2.10.3-150500.5.8.1",
        "RelatesToProductReference": "Container suse/postgres:15",
        "RelationType": "Default Component Of"
      },
      {
        "ProductReference": "libxml2-2-2.10.3-150500.5.8.1",
        "RelatesToProductReference": "Container suse/postgres:latest",
        "RelationType": "Default Component Of"
      },
      {
        "ProductReference": "libxml2-2-2.10.3-150500.5.8.1",
        "RelatesToProductReference": "Container suse/rmt-mariadb:latest",
        "RelationType": "Default Component Of"
      },
      {
        "ProductReference": "libxml2-2-2.10.3-150500.5.8.1",
        "RelatesToProductReference": "Container suse/rmt-server:latest",
        "RelationType": "Default Component Of"
      },
      {
        "ProductReference": "libxml2-2-2.10.3-150500.5.8.1",
        "RelatesToProductReference": "Container suse/sle-micro/5.5/toolbox:latest",
        "RelationType": "Default Component Of"
      },
      {
        "ProductReference": "libxml2-2-2.10.3-150500.5.8.1",
        "RelatesToProductReference": "Container suse/sle-micro/5.5:latest",
        "RelationType": "Default Component Of"
      },
      {
        "ProductReference": "libxml2-2-2.10.3-150500.5.8.1",
        "RelatesToProductReference": "Container suse/sle-micro/base-5.5:latest",
        "RelationType": "Default Component Of"
      },
      {
        "ProductReference": "libxml2-2-2.10.3-150500.5.8.1",
        "RelatesToProductReference": "Container suse/sle-micro/kvm-5.5:latest",
        "RelationType": "Default Component Of"
      },
      {
        "ProductReference": "libxml2-2-2.10.3-150500.5.8.1",
        "RelatesToProductReference": "Container suse/sle-micro/rt-5.5:latest",
        "RelationType": "Default Component Of"
      },
      {
        "ProductReference": "libxml2-2-2.10.3-150500.5.8.1",
        "RelatesToProductReference": "Container suse/sle15:15.5",
        "RelationType": "Default Component Of"
      },
      {
        "ProductReference": "libxml2-2-2.10.3-150500.5.8.1",
        "RelatesToProductReference": "Container suse/sle15:15.6",
        "RelationType": "Default Component Of"
      },
      {
        "ProductReference": "libxml2-2-2.10.3-150500.5.8.1",
        "RelatesToProductReference": "Container suse/sles/15.6/cdi-importer:1.58.0",
        "RelationType": "Default Component Of"
      },
      {
        "ProductReference": "libxml2-2-2.10.3-150500.5.8.1",
        "RelatesToProductReference": "Container suse/sles/15.6/cdi-uploadserver:1.58.0",
        "RelationType": "Default Component Of"
      },
      {
        "ProductReference": "libxml2-2-2.10.3-150500.5.8.1",
        "RelatesToProductReference": "Container suse/sles/15.6/libguestfs-tools:1.1.1",
        "RelationType": "Default Component Of"
      },
      {
        "ProductReference": "libxml2-2-2.10.3-150500.5.8.1",
        "RelatesToProductReference": "Container suse/sles/15.6/virt-launcher:1.1.1",
        "RelationType": "Default Component Of"
      },
      {
        "ProductReference": "libxml2-2-2.10.3-150500.5.8.1",
        "RelatesToProductReference": "Image SLES15-SP5-Azure-Basic",
        "RelationType": "Default Component Of"
      },
      {
        "ProductReference": "libxml2-2-2.10.3-150500.5.8.1",
        "RelatesToProductReference": "Image SLES15-SP5-Azure-Standard",
        "RelationType": "Default Component Of"
      },
      {
        "ProductReference": "libxml2-2-2.10.3-150500.5.8.1",
        "RelatesToProductReference": "Image SLES15-SP5-BYOS-Azure",
        "RelationType": "Default Component Of"
      },
      {
        "ProductReference": "libxml2-2-2.10.3-150500.5.8.1",
        "RelatesToProductReference": "Image SLES15-SP5-BYOS-EC2",
        "RelationType": "Default Component Of"
      },
      {
        "ProductReference": "libxml2-2-2.10.3-150500.5.8.1",
        "RelatesToProductReference": "Image SLES15-SP5-BYOS-GCE",
        "RelationType": "Default Component Of"
      },
      {
        "ProductReference": "libxml2-2-2.10.3-150500.5.8.1",
        "RelatesToProductReference": "Image SLES15-SP5-CHOST-BYOS-Aliyun",
        "RelationType": "Default Component Of"
      },
      {
        "ProductReference": "libxml2-2-2.10.3-150500.5.8.1",
        "RelatesToProductReference": "Image SLES15-SP5-CHOST-BYOS-Azure",
        "RelationType": "Default Component Of"
      },
      {
        "ProductReference": "libxml2-2-2.10.3-150500.5.8.1",
        "RelatesToProductReference": "Image SLES15-SP5-CHOST-BYOS-EC2",
        "RelationType": "Default Component Of"
      },
      {
        "ProductReference": "libxml2-2-2.10.3-150500.5.8.1",
        "RelatesToProductReference": "Image SLES15-SP5-CHOST-BYOS-GCE",
        "RelationType": "Default Component Of"
      },
      {
        "ProductReference": "libxml2-2-2.10.3-150500.5.8.1",
        "RelatesToProductReference": "Image SLES15-SP5-CHOST-BYOS-SAP-CCloud",
        "RelationType": "Default Component Of"
      },
      {
        "ProductReference": "libxml2-2-2.10.3-150500.5.8.1",
        "RelatesToProductReference": "Image SLES15-SP5-EC2",
        "RelationType": "Default Component Of"
      },
      {
        "ProductReference": "libxml2-2-2.10.3-150500.5.8.1",
        "RelatesToProductReference": "Image SLES15-SP5-GCE",
        "RelationType": "Default Component Of"
      },
      {
        "ProductReference": "libxml2-2-2.10.3-150500.5.8.1",
        "RelatesToProductReference": "Image SLES15-SP5-HPC-Azure",
        "RelationType": "Default Component Of"
      },
      {
        "ProductReference": "libxml2-2-2.10.3-150500.5.8.1",
        "RelatesToProductReference": "Image SLES15-SP5-HPC-BYOS-Azure",
        "RelationType": "Default Component Of"
      },
      {
        "ProductReference": "libxml2-2-2.10.3-150500.5.8.1",
        "RelatesToProductReference": "Image SLES15-SP5-HPC-BYOS-EC2",
        "RelationType": "Default Component Of"
      },
      {
        "ProductReference": "libxml2-2-2.10.3-150500.5.8.1",
        "RelatesToProductReference": "Image SLES15-SP5-HPC-BYOS-GCE",
        "RelationType": "Default Component Of"
      },
      {
        "ProductReference": "libxml2-2-2.10.3-150500.5.8.1",
        "RelatesToProductReference": "Image SLES15-SP5-Hardened-BYOS-Azure",
        "RelationType": "Default Component Of"
      },
      {
        "ProductReference": "libxml2-2-2.10.3-150500.5.8.1",
        "RelatesToProductReference": "Image SLES15-SP5-Hardened-BYOS-EC2",
        "RelationType": "Default Component Of"
      },
      {
        "ProductReference": "libxml2-2-2.10.3-150500.5.8.1",
        "RelatesToProductReference": "Image SLES15-SP5-Hardened-BYOS-GCE",
        "RelationType": "Default Component Of"
      },
      {
        "ProductReference": "libxml2-2-2.10.3-150500.5.8.1",
        "RelatesToProductReference": "Image SLES15-SP5-Micro-5-5",
        "RelationType": "Default Component Of"
      },
      {
        "ProductReference": "libxml2-2-2.10.3-150500.5.8.1",
        "RelatesToProductReference": "Image SLES15-SP5-Micro-5-5-Azure",
        "RelationType": "Default Component Of"
      },
      {
        "ProductReference": "libxml2-2-2.10.3-150500.5.8.1",
        "RelatesToProductReference": "Image SLES15-SP5-Micro-5-5-BYOS",
        "RelationType": "Default Component Of"
      },
      {
        "ProductReference": "libxml2-2-2.10.3-150500.5.8.1",
        "RelatesToProductReference": "Image SLES15-SP5-Micro-5-5-BYOS-Azure",
        "RelationType": "Default Component Of"
      },
      {
        "ProductReference": "libxml2-2-2.10.3-150500.5.8.1",
        "RelatesToProductReference": "Image SLES15-SP5-Micro-5-5-BYOS-EC2",
        "RelationType": "Default Component Of"
      },
      {
        "ProductReference": "libxml2-2-2.10.3-150500.5.8.1",
        "RelatesToProductReference": "Image SLES15-SP5-Micro-5-5-BYOS-GCE",
        "RelationType": "Default Component Of"
      },
      {
        "ProductReference": "libxml2-2-2.10.3-150500.5.8.1",
        "RelatesToProductReference": "Image SLES15-SP5-Micro-5-5-EC2",
        "RelationType": "Default Component Of"
      },
      {
        "ProductReference": "libxml2-2-2.10.3-150500.5.8.1",
        "RelatesToProductReference": "Image SLES15-SP5-Micro-5-5-GCE",
        "RelationType": "Default Component Of"
      },
      {
        "ProductReference": "libxml2-2-2.10.3-150500.5.8.1",
        "RelatesToProductReference": "Image SLES15-SP5-SAP-Azure-LI-BYOS",
        "RelationType": "Default Component Of"
      },
      {
        "ProductReference": "libxml2-tools-2.10.3-150500.5.8.1",
        "RelatesToProductReference": "Image SLES15-SP5-SAP-Azure-LI-BYOS",
        "RelationType": "Default Component Of"
      },
      {
        "ProductReference": "libxml2-2-2.10.3-150500.5.8.1",
        "RelatesToProductReference": "Image SLES15-SP5-SAP-Azure-LI-BYOS-Production",
        "RelationType": "Default Component Of"
      },
      {
        "ProductReference": "libxml2-tools-2.10.3-150500.5.8.1",
        "RelatesToProductReference": "Image SLES15-SP5-SAP-Azure-LI-BYOS-Production",
        "RelationType": "Default Component Of"
      },
      {
        "ProductReference": "libxml2-2-2.10.3-150500.5.8.1",
        "RelatesToProductReference": "Image SLES15-SP5-SAP-Azure-VLI-BYOS",
        "RelationType": "Default Component Of"
      },
      {
        "ProductReference": "libxml2-tools-2.10.3-150500.5.8.1",
        "RelatesToProductReference": "Image SLES15-SP5-SAP-Azure-VLI-BYOS",
        "RelationType": "Default Component Of"
      },
      {
        "ProductReference": "libxml2-2-2.10.3-150500.5.8.1",
        "RelatesToProductReference": "Image SLES15-SP5-SAP-Azure-VLI-BYOS-Production",
        "RelationType": "Default Component Of"
      },
      {
        "ProductReference": "libxml2-tools-2.10.3-150500.5.8.1",
        "RelatesToProductReference": "Image SLES15-SP5-SAP-Azure-VLI-BYOS-Production",
        "RelationType": "Default Component Of"
      },
      {
        "ProductReference": "libxml2-2-2.10.3-150500.5.8.1",
        "RelatesToProductReference": "Image SLES15-SP5-SAP-BYOS-Azure",
        "RelationType": "Default Component Of"
      },
      {
        "ProductReference": "libxml2-tools-2.10.3-150500.5.8.1",
        "RelatesToProductReference": "Image SLES15-SP5-SAP-BYOS-Azure",
        "RelationType": "Default Component Of"
      },
      {
        "ProductReference": "libxml2-2-2.10.3-150500.5.8.1",
        "RelatesToProductReference": "Image SLES15-SP5-SAP-BYOS-EC2",
        "RelationType": "Default Component Of"
      },
      {
        "ProductReference": "libxml2-tools-2.10.3-150500.5.8.1",
        "RelatesToProductReference": "Image SLES15-SP5-SAP-BYOS-EC2",
        "RelationType": "Default Component Of"
      },
      {
        "ProductReference": "libxml2-2-2.10.3-150500.5.8.1",
        "RelatesToProductReference": "Image SLES15-SP5-SAP-BYOS-GCE",
        "RelationType": "Default Component Of"
      },
      {
        "ProductReference": "libxml2-tools-2.10.3-150500.5.8.1",
        "RelatesToProductReference": "Image SLES15-SP5-SAP-BYOS-GCE",
        "RelationType": "Default Component Of"
      },
      {
        "ProductReference": "libxml2-2-2.10.3-150500.5.8.1",
        "RelatesToProductReference": "Image SLES15-SP5-SAP-Hardened-Azure",
        "RelationType": "Default Component Of"
      },
      {
        "ProductReference": "libxml2-tools-2.10.3-150500.5.8.1",
        "RelatesToProductReference": "Image SLES15-SP5-SAP-Hardened-Azure",
        "RelationType": "Default Component Of"
      },
      {
        "ProductReference": "libxml2-2-2.10.3-150500.5.8.1",
        "RelatesToProductReference": "Image SLES15-SP5-SAP-Hardened-BYOS-Azure",
        "RelationType": "Default Component Of"
      },
      {
        "ProductReference": "libxml2-tools-2.10.3-150500.5.8.1",
        "RelatesToProductReference": "Image SLES15-SP5-SAP-Hardened-BYOS-Azure",
        "RelationType": "Default Component Of"
      },
      {
        "ProductReference": "libxml2-2-2.10.3-150500.5.8.1",
        "RelatesToProductReference": "Image SLES15-SP5-SAP-Hardened-BYOS-EC2",
        "RelationType": "Default Component Of"
      },
      {
        "ProductReference": "libxml2-tools-2.10.3-150500.5.8.1",
        "RelatesToProductReference": "Image SLES15-SP5-SAP-Hardened-BYOS-EC2",
        "RelationType": "Default Component Of"
      },
      {
        "ProductReference": "libxml2-2-2.10.3-150500.5.8.1",
        "RelatesToProductReference": "Image SLES15-SP5-SAP-Hardened-BYOS-GCE",
        "RelationType": "Default Component Of"
      },
      {
        "ProductReference": "libxml2-tools-2.10.3-150500.5.8.1",
        "RelatesToProductReference": "Image SLES15-SP5-SAP-Hardened-BYOS-GCE",
        "RelationType": "Default Component Of"
      },
      {
        "ProductReference": "libxml2-2-2.10.3-150500.5.8.1",
        "RelatesToProductReference": "Image SLES15-SP5-SAP-Hardened-GCE",
        "RelationType": "Default Component Of"
      },
      {
        "ProductReference": "libxml2-tools-2.10.3-150500.5.8.1",
        "RelatesToProductReference": "Image SLES15-SP5-SAP-Hardened-GCE",
        "RelationType": "Default Component Of"
      },
      {
        "ProductReference": "libxml2-2-2.10.3-150500.5.8.1",
        "RelatesToProductReference": "Image SLES15-SP5-SAPCAL-Azure",
        "RelationType": "Default Component Of"
      },
      {
        "ProductReference": "libxml2-devel-2.10.3-150500.5.8.1",
        "RelatesToProductReference": "Image SLES15-SP5-SAPCAL-Azure",
        "RelationType": "Default Component Of"
      },
      {
        "ProductReference": "libxml2-tools-2.10.3-150500.5.8.1",
        "RelatesToProductReference": "Image SLES15-SP5-SAPCAL-Azure",
        "RelationType": "Default Component Of"
      },
      {
        "ProductReference": "libxml2-2-2.10.3-150500.5.8.1",
        "RelatesToProductReference": "Image SLES15-SP5-SAPCAL-EC2",
        "RelationType": "Default Component Of"
      },
      {
        "ProductReference": "libxml2-devel-2.10.3-150500.5.8.1",
        "RelatesToProductReference": "Image SLES15-SP5-SAPCAL-EC2",
        "RelationType": "Default Component Of"
      },
      {
        "ProductReference": "libxml2-tools-2.10.3-150500.5.8.1",
        "RelatesToProductReference": "Image SLES15-SP5-SAPCAL-EC2",
        "RelationType": "Default Component Of"
      },
      {
        "ProductReference": "libxml2-2-2.10.3-150500.5.8.1",
        "RelatesToProductReference": "Image SLES15-SP5-SAPCAL-GCE",
        "RelationType": "Default Component Of"
      },
      {
        "ProductReference": "libxml2-devel-2.10.3-150500.5.8.1",
        "RelatesToProductReference": "Image SLES15-SP5-SAPCAL-GCE",
        "RelationType": "Default Component Of"
      },
      {
        "ProductReference": "libxml2-tools-2.10.3-150500.5.8.1",
        "RelatesToProductReference": "Image SLES15-SP5-SAPCAL-GCE",
        "RelationType": "Default Component Of"
      },
      {
        "ProductReference": "libxml2-2-2.10.3-150500.5.8.1",
        "RelatesToProductReference": "SUSE Linux Enterprise Micro 5.5",
        "RelationType": "Default Component Of"
      },
      {
        "ProductReference": "libxml2-tools-2.10.3-150500.5.8.1",
        "RelatesToProductReference": "SUSE Linux Enterprise Micro 5.5",
        "RelationType": "Default Component Of"
      },
      {
        "ProductReference": "python3-libxml2-2.10.3-150500.5.8.1",
        "RelatesToProductReference": "SUSE Linux Enterprise Micro 5.5",
        "RelationType": "Default Component Of"
      }
    ]
  },
  "References": [
    {
      "URL": "https://www.suse.com/support/update/announcement/2023/suse-su-20233666-2/",
      "Description": "Link for SUSE-SU-2023:3666-2"
    },
    {
      "URL": "https://lists.suse.com/pipermail/sle-security-updates/2023-October/016696.html",
      "Description": "E-Mail link for SUSE-SU-2023:3666-2"
    },
    {
      "URL": "https://www.suse.com/support/security/rating/",
      "Description": "SUSE Security Ratings"
    },
    {
      "URL": "https://bugzilla.suse.com/1214768",
      "Description": "SUSE Bug 1214768"
    },
    {
      "URL": "https://www.suse.com/security/cve/CVE-2023-39615/",
      "Description": "SUSE CVE CVE-2023-39615 page"
    }
  ],
  "Vulnerabilities": [
    {
      "CVE": "CVE-2023-39615",
      "Description": "** DISPUTED ** Xmlsoft Libxml2 v2.11.0 was discovered to contain an out-of-bounds read via the xmlSAX2StartElement() function at /libxml2/SAX2.c. This vulnerability allows attackers to cause a Denial of Service (DoS) via supplying a crafted XML file. NOTE: the vendor's position is that the product does not support the legacy SAX1 interface with custom callbacks; there is a crash even without crafted input.",
      "Threats": [
        {
          "Type": "Impact",
          "Severity": "moderate"
        }
      ],
      "References": [
        {
          "URL": "https://www.suse.com/security/cve/CVE-2023-39615.html",
          "Description": "CVE-2023-39615"
        },
        {
          "URL": "https://bugzilla.suse.com/1214768",
          "Description": "SUSE Bug 1214768"
        }
      ],
      "ProductStatuses": [
        {
          "Type": "Fixed",
          "ProductID": [
            "Container bci/bci-sle15-kernel-module-devel:15.6:libxml2-2-2.10.3-150500.5.8.1",
            "Container bci/bci-sle15-kernel-module-devel:latest:libxml2-2-2.10.3-150500.5.8.1",
            "Container bci/php-apache:latest:libxml2-2-2.10.3-150500.5.8.1",
            "Container bci/php-fpm:latest:libxml2-2-2.10.3-150500.5.8.1",
            "Container bci/php:latest:libxml2-2-2.10.3-150500.5.8.1",
            "Container rancher/seedimage-builder:latest:libxml2-2-2.10.3-150500.5.8.1",
            "Container suse/hpc/warewulf4-x86_64/sle-hpc-node:latest:libxml2-2-2.10.3-150500.5.8.1",
            "Container suse/manager/5.0/x86_64/proxy-httpd:latest:libxml2-2-2.10.3-150500.5.8.1",
            "Container suse/manager/5.0/x86_64/proxy-httpd:latest:python3-libxml2-2.10.3-150500.5.8.1",
            "Container suse/manager/5.0/x86_64/proxy-salt-broker:latest:libxml2-2-2.10.3-150500.5.8.1",
            "Container suse/manager/5.0/x86_64/proxy-squid:latest:libxml2-2-2.10.3-150500.5.8.1",
            "Container suse/manager/5.0/x86_64/server-migration-14-16:latest:libxml2-2-2.10.3-150500.5.8.1",
            "Container suse/manager/5.0/x86_64/server:latest:libxml2-2-2.10.3-150500.5.8.1",
            "Container suse/manager/5.0/x86_64/server:latest:libxml2-tools-2.10.3-150500.5.8.1",
            "Container suse/manager/5.0/x86_64/server:latest:python3-libxml2-2.10.3-150500.5.8.1",
            "Container suse/nginx:latest:libxml2-2-2.10.3-150500.5.8.1",
            "Container suse/pcp:latest:libxml2-2-2.10.3-150500.5.8.1",
            "Container suse/postgres:15:libxml2-2-2.10.3-150500.5.8.1",
            "Container suse/postgres:latest:libxml2-2-2.10.3-150500.5.8.1",
            "Container suse/rmt-mariadb:latest:libxml2-2-2.10.3-150500.5.8.1",
            "Container suse/rmt-server:latest:libxml2-2-2.10.3-150500.5.8.1",
            "Container suse/sle-micro/5.5/toolbox:latest:libxml2-2-2.10.3-150500.5.8.1",
            "Container suse/sle-micro/5.5:latest:libxml2-2-2.10.3-150500.5.8.1",
            "Container suse/sle-micro/base-5.5:latest:libxml2-2-2.10.3-150500.5.8.1",
            "Container suse/sle-micro/kvm-5.5:latest:libxml2-2-2.10.3-150500.5.8.1",
            "Container suse/sle-micro/rt-5.5:latest:libxml2-2-2.10.3-150500.5.8.1",
            "Container suse/sle15:15.5:libxml2-2-2.10.3-150500.5.8.1",
            "Container suse/sle15:15.6:libxml2-2-2.10.3-150500.5.8.1",
            "Container suse/sles/15.6/cdi-importer:1.58.0:libxml2-2-2.10.3-150500.5.8.1",
            "Container suse/sles/15.6/cdi-uploadserver:1.58.0:libxml2-2-2.10.3-150500.5.8.1",
            "Container suse/sles/15.6/libguestfs-tools:1.1.1:libxml2-2-2.10.3-150500.5.8.1",
            "Container suse/sles/15.6/virt-launcher:1.1.1:libxml2-2-2.10.3-150500.5.8.1",
            "Image SLES15-SP5-Azure-Basic:libxml2-2-2.10.3-150500.5.8.1",
            "Image SLES15-SP5-Azure-Standard:libxml2-2-2.10.3-150500.5.8.1",
            "Image SLES15-SP5-BYOS-Azure:libxml2-2-2.10.3-150500.5.8.1",
            "Image SLES15-SP5-BYOS-EC2:libxml2-2-2.10.3-150500.5.8.1",
            "Image SLES15-SP5-BYOS-GCE:libxml2-2-2.10.3-150500.5.8.1",
            "Image SLES15-SP5-CHOST-BYOS-Aliyun:libxml2-2-2.10.3-150500.5.8.1",
            "Image SLES15-SP5-CHOST-BYOS-Azure:libxml2-2-2.10.3-150500.5.8.1",
            "Image SLES15-SP5-CHOST-BYOS-EC2:libxml2-2-2.10.3-150500.5.8.1",
            "Image SLES15-SP5-CHOST-BYOS-GCE:libxml2-2-2.10.3-150500.5.8.1",
            "Image SLES15-SP5-CHOST-BYOS-SAP-CCloud:libxml2-2-2.10.3-150500.5.8.1",
            "Image SLES15-SP5-EC2:libxml2-2-2.10.3-150500.5.8.1",
            "Image SLES15-SP5-GCE:libxml2-2-2.10.3-150500.5.8.1",
            "Image SLES15-SP5-HPC-Azure:libxml2-2-2.10.3-150500.5.8.1",
            "Image SLES15-SP5-HPC-BYOS-Azure:libxml2-2-2.10.3-150500.5.8.1",
            "Image SLES15-SP5-HPC-BYOS-EC2:libxml2-2-2.10.3-150500.5.8.1",
            "Image SLES15-SP5-HPC-BYOS-GCE:libxml2-2-2.10.3-150500.5.8.1",
            "Image SLES15-SP5-Hardened-BYOS-Azure:libxml2-2-2.10.3-150500.5.8.1",
            "Image SLES15-SP5-Hardened-BYOS-EC2:libxml2-2-2.10.3-150500.5.8.1",
            "Image SLES15-SP5-Hardened-BYOS-GCE:libxml2-2-2.10.3-150500.5.8.1",
            "Image SLES15-SP5-Micro-5-5-Azure:libxml2-2-2.10.3-150500.5.8.1",
            "Image SLES15-SP5-Micro-5-5-BYOS-Azure:libxml2-2-2.10.3-150500.5.8.1",
            "Image SLES15-SP5-Micro-5-5-BYOS-EC2:libxml2-2-2.10.3-150500.5.8.1",
            "Image SLES15-SP5-Micro-5-5-BYOS-GCE:libxml2-2-2.10.3-150500.5.8.1",
            "Image SLES15-SP5-Micro-5-5-BYOS:libxml2-2-2.10.3-150500.5.8.1",
            "Image SLES15-SP5-Micro-5-5-EC2:libxml2-2-2.10.3-150500.5.8.1",
            "Image SLES15-SP5-Micro-5-5-GCE:libxml2-2-2.10.3-150500.5.8.1",
            "Image SLES15-SP5-Micro-5-5:libxml2-2-2.10.3-150500.5.8.1",
            "Image SLES15-SP5-SAP-Azure-LI-BYOS-Production:libxml2-2-2.10.3-150500.5.8.1",
            "Image SLES15-SP5-SAP-Azure-LI-BYOS-Production:libxml2-tools-2.10.3-150500.5.8.1",
            "Image SLES15-SP5-SAP-Azure-LI-BYOS:libxml2-2-2.10.3-150500.5.8.1",
            "Image SLES15-SP5-SAP-Azure-LI-BYOS:libxml2-tools-2.10.3-150500.5.8.1",
            "Image SLES15-SP5-SAP-Azure-VLI-BYOS-Production:libxml2-2-2.10.3-150500.5.8.1",
            "Image SLES15-SP5-SAP-Azure-VLI-BYOS-Production:libxml2-tools-2.10.3-150500.5.8.1",
            "Image SLES15-SP5-SAP-Azure-VLI-BYOS:libxml2-2-2.10.3-150500.5.8.1",
            "Image SLES15-SP5-SAP-Azure-VLI-BYOS:libxml2-tools-2.10.3-150500.5.8.1",
            "Image SLES15-SP5-SAP-BYOS-Azure:libxml2-2-2.10.3-150500.5.8.1",
            "Image SLES15-SP5-SAP-BYOS-Azure:libxml2-tools-2.10.3-150500.5.8.1",
            "Image SLES15-SP5-SAP-BYOS-EC2:libxml2-2-2.10.3-150500.5.8.1",
            "Image SLES15-SP5-SAP-BYOS-EC2:libxml2-tools-2.10.3-150500.5.8.1",
            "Image SLES15-SP5-SAP-BYOS-GCE:libxml2-2-2.10.3-150500.5.8.1",
            "Image SLES15-SP5-SAP-BYOS-GCE:libxml2-tools-2.10.3-150500.5.8.1",
            "Image SLES15-SP5-SAP-Hardened-Azure:libxml2-2-2.10.3-150500.5.8.1",
            "Image SLES15-SP5-SAP-Hardened-Azure:libxml2-tools-2.10.3-150500.5.8.1",
            "Image SLES15-SP5-SAP-Hardened-BYOS-Azure:libxml2-2-2.10.3-150500.5.8.1",
            "Image SLES15-SP5-SAP-Hardened-BYOS-Azure:libxml2-tools-2.10.3-150500.5.8.1",
            "Image SLES15-SP5-SAP-Hardened-BYOS-EC2:libxml2-2-2.10.3-150500.5.8.1",
            "Image SLES15-SP5-SAP-Hardened-BYOS-EC2:libxml2-tools-2.10.3-150500.5.8.1",
            "Image SLES15-SP5-SAP-Hardened-BYOS-GCE:libxml2-2-2.10.3-150500.5.8.1",
            "Image SLES15-SP5-SAP-Hardened-BYOS-GCE:libxml2-tools-2.10.3-150500.5.8.1",
            "Image SLES15-SP5-SAP-Hardened-GCE:libxml2-2-2.10.3-150500.5.8.1",
            "Image SLES15-SP5-SAP-Hardened-GCE:libxml2-tools-2.10.3-150500.5.8.1",
            "Image SLES15-SP5-SAPCAL-Azure:libxml2-2-2.10.3-150500.5.8.1",
            "Image SLES15-SP5-SAPCAL-Azure:libxml2-devel-2.10.3-150500.5.8.1",
            "Image SLES15-SP5-SAPCAL-Azure:libxml2-tools-2.10.3-150500.5.8.1",
            "Image SLES15-SP5-SAPCAL-EC2:libxml2-2-2.10.3-150500.5.8.1",
            "Image SLES15-SP5-SAPCAL-EC2:libxml2-devel-2.10.3-150500.5.8.1",
            "Image SLES15-SP5-SAPCAL-EC2:libxml2-tools-2.10.3-150500.5.8.1",
            "Image SLES15-SP5-SAPCAL-GCE:libxml2-2-2.10.3-150500.5.8.1",
            "Image SLES15-SP5-SAPCAL-GCE:libxml2-devel-2.10.3-150500.5.8.1",
            "Image SLES15-SP5-SAPCAL-GCE:libxml2-tools-2.10.3-150500.5.8.1",
            "SUSE Linux Enterprise Micro 5.5:libxml2-2-2.10.3-150500.5.8.1",
            "SUSE Linux Enterprise Micro 5.5:libxml2-tools-2.10.3-150500.5.8.1",
            "SUSE Linux Enterprise Micro 5.5:python3-libxml2-2.10.3-150500.5.8.1"
          ]
        }
      ],
      "CVSSScoreSets": {}
    }
  ]
}