{
  "Title": "Security update for python-cryptography",
  "Tracking": {
    "ID": "SUSE-SU-2023:4921-1",
    "Status": "Final",
    "Version": "1",
    "InitialReleaseDate": "2023-12-20T08:51:42Z",
    "CurrentReleaseDate": "2023-12-20T08:51:42Z",
    "RevisionHistory": [
      {
        "Number": "1",
        "Date": "2023-12-20T08:51:42Z",
        "Description": "current"
      }
    ]
  },
  "Notes": [
    {
      "Text": "Security update for python-cryptography",
      "Title": "Topic",
      "Type": "Summary"
    },
    {
      "Text": "This update for python-cryptography fixes the following issues:\n\n- CVE-2023-49083: Fixed a NULL pointer dereference when loading certificates from a PKCS#7 bundle (bsc#1217592).\n",
      "Title": "Details",
      "Type": "General"
    },
    {
      "Text": "The CVRF data is provided by SUSE under the Creative Commons License 4.0 with Attribution (CC-BY-4.0).",
      "Title": "Terms of Use",
      "Type": "Legal Disclaimer"
    },
    {
      "Text": "Image SLES15-SP2-BYOS-Azure-2023-4921,Image SLES15-SP2-HPC-BYOS-Azure-2023-4921,Image SLES15-SP2-SAP-Azure-2023-4921,Image SLES15-SP2-SAP-Azure-LI-BYOS-Production-2023-4921,Image SLES15-SP2-SAP-Azure-VLI-BYOS-Production-2023-4921,Image SLES15-SP2-SAP-BYOS-Azure-2023-4921,Image SLES15-SP3-BYOS-Azure-2023-4921,Image SLES15-SP3-HPC-BYOS-Azure-2023-4921,Image SLES15-SP3-Micro-5-1-BYOS-Azure-2023-4921,Image SLES15-SP3-Micro-5-1-BYOS-EC2-HVM-2023-4921,Image SLES15-SP3-Micro-5-1-BYOS-GCE-2023-4921,Image SLES15-SP3-Micro-5-2-BYOS-Azure-2023-4921,Image SLES15-SP3-Micro-5-2-BYOS-EC2-HVM-2023-4921,Image SLES15-SP3-Micro-5-2-BYOS-GCE-2023-4921,Image SLES15-SP3-SAP-Azure-LI-BYOS-Production-2023-4921,Image SLES15-SP3-SAP-Azure-VLI-BYOS-Production-2023-4921,Image SLES15-SP3-SAP-BYOS-Azure-2023-4921,Image SLES15-SP3-SAPCAL-Azure-2023-4921,SUSE-2023-4921,SUSE-SUSE-MicroOS-5.1-2023-4921,SUSE-SUSE-MicroOS-5.2-2023-4921",
      "Title": "Patchnames",
      "Type": "Details"
    }
  ],
  "ProductTree": {
    "Relationships": [
      {
        "ProductReference": "python3-cryptography-3.3.2-150200.22.1",
        "RelatesToProductReference": "Image SLES15-SP2-BYOS-Azure",
        "RelationType": "Default Component Of"
      },
      {
        "ProductReference": "python3-cryptography-3.3.2-150200.22.1",
        "RelatesToProductReference": "Image SLES15-SP2-HPC-BYOS-Azure",
        "RelationType": "Default Component Of"
      },
      {
        "ProductReference": "python3-cryptography-3.3.2-150200.22.1",
        "RelatesToProductReference": "Image SLES15-SP2-SAP-Azure",
        "RelationType": "Default Component Of"
      },
      {
        "ProductReference": "python3-cryptography-3.3.2-150200.22.1",
        "RelatesToProductReference": "Image SLES15-SP2-SAP-Azure-LI-BYOS-Production",
        "RelationType": "Default Component Of"
      },
      {
        "ProductReference": "python3-cryptography-3.3.2-150200.22.1",
        "RelatesToProductReference": "Image SLES15-SP2-SAP-Azure-VLI-BYOS-Production",
        "RelationType": "Default Component Of"
      },
      {
        "ProductReference": "python3-cryptography-3.3.2-150200.22.1",
        "RelatesToProductReference": "Image SLES15-SP2-SAP-BYOS-Azure",
        "RelationType": "Default Component Of"
      },
      {
        "ProductReference": "python3-cryptography-3.3.2-150200.22.1",
        "RelatesToProductReference": "Image SLES15-SP3-BYOS-Azure",
        "RelationType": "Default Component Of"
      },
      {
        "ProductReference": "python3-cryptography-3.3.2-150200.22.1",
        "RelatesToProductReference": "Image SLES15-SP3-HPC-BYOS-Azure",
        "RelationType": "Default Component Of"
      },
      {
        "ProductReference": "python3-cryptography-3.3.2-150200.22.1",
        "RelatesToProductReference": "Image SLES15-SP3-Micro-5-1-BYOS-Azure",
        "RelationType": "Default Component Of"
      },
      {
        "ProductReference": "python3-cryptography-3.3.2-150200.22.1",
        "RelatesToProductReference": "Image SLES15-SP3-Micro-5-1-BYOS-EC2-HVM",
        "RelationType": "Default Component Of"
      },
      {
        "ProductReference": "python3-cryptography-3.3.2-150200.22.1",
        "RelatesToProductReference": "Image SLES15-SP3-Micro-5-1-BYOS-GCE",
        "RelationType": "Default Component Of"
      },
      {
        "ProductReference": "python3-cryptography-3.3.2-150200.22.1",
        "RelatesToProductReference": "Image SLES15-SP3-Micro-5-2-BYOS-Azure",
        "RelationType": "Default Component Of"
      },
      {
        "ProductReference": "python3-cryptography-3.3.2-150200.22.1",
        "RelatesToProductReference": "Image SLES15-SP3-Micro-5-2-BYOS-EC2-HVM",
        "RelationType": "Default Component Of"
      },
      {
        "ProductReference": "python3-cryptography-3.3.2-150200.22.1",
        "RelatesToProductReference": "Image SLES15-SP3-Micro-5-2-BYOS-GCE",
        "RelationType": "Default Component Of"
      },
      {
        "ProductReference": "python3-cryptography-3.3.2-150200.22.1",
        "RelatesToProductReference": "Image SLES15-SP3-SAP-Azure-LI-BYOS-Production",
        "RelationType": "Default Component Of"
      },
      {
        "ProductReference": "python3-cryptography-3.3.2-150200.22.1",
        "RelatesToProductReference": "Image SLES15-SP3-SAP-Azure-VLI-BYOS-Production",
        "RelationType": "Default Component Of"
      },
      {
        "ProductReference": "python3-cryptography-3.3.2-150200.22.1",
        "RelatesToProductReference": "Image SLES15-SP3-SAP-BYOS-Azure",
        "RelationType": "Default Component Of"
      },
      {
        "ProductReference": "python2-cryptography-3.3.2-150200.22.1",
        "RelatesToProductReference": "Image SLES15-SP3-SAPCAL-Azure",
        "RelationType": "Default Component Of"
      },
      {
        "ProductReference": "python3-cryptography-3.3.2-150200.22.1",
        "RelatesToProductReference": "Image SLES15-SP3-SAPCAL-Azure",
        "RelationType": "Default Component Of"
      },
      {
        "ProductReference": "python3-cryptography-3.3.2-150200.22.1",
        "RelatesToProductReference": "SUSE Linux Enterprise Micro 5.1",
        "RelationType": "Default Component Of"
      },
      {
        "ProductReference": "python3-cryptography-3.3.2-150200.22.1",
        "RelatesToProductReference": "SUSE Linux Enterprise Micro 5.2",
        "RelationType": "Default Component Of"
      }
    ]
  },
  "References": [
    {
      "URL": "https://www.suse.com/support/update/announcement/2023/suse-su-20234921-1/",
      "Description": "Link for SUSE-SU-2023:4921-1"
    },
    {
      "URL": "https://lists.suse.com/pipermail/sle-security-updates/2023-December/017497.html",
      "Description": "E-Mail link for SUSE-SU-2023:4921-1"
    },
    {
      "URL": "https://www.suse.com/support/security/rating/",
      "Description": "SUSE Security Ratings"
    },
    {
      "URL": "https://bugzilla.suse.com/1217592",
      "Description": "SUSE Bug 1217592"
    },
    {
      "URL": "https://www.suse.com/security/cve/CVE-2023-49083/",
      "Description": "SUSE CVE CVE-2023-49083 page"
    }
  ],
  "Vulnerabilities": [
    {
      "CVE": "CVE-2023-49083",
      "Description": "cryptography is a package designed to expose cryptographic primitives and recipes to Python developers. Calling `load_pem_pkcs7_certificates` or `load_der_pkcs7_certificates` could lead to a NULL-pointer dereference and segfault. Exploitation of this vulnerability poses a serious risk of Denial of Service (DoS) for any application attempting to deserialize a PKCS7 blob/certificate. The consequences extend to potential disruptions in system availability and stability. This vulnerability has been patched in version 41.0.6.",
      "Threats": [
        {
          "Type": "Impact",
          "Severity": "moderate"
        }
      ],
      "References": [
        {
          "URL": "https://www.suse.com/security/cve/CVE-2023-49083.html",
          "Description": "CVE-2023-49083"
        },
        {
          "URL": "https://bugzilla.suse.com/1217592",
          "Description": "SUSE Bug 1217592"
        }
      ],
      "ProductStatuses": [
        {
          "Type": "Fixed",
          "ProductID": [
            "Image SLES15-SP2-BYOS-Azure:python3-cryptography-3.3.2-150200.22.1",
            "Image SLES15-SP2-HPC-BYOS-Azure:python3-cryptography-3.3.2-150200.22.1",
            "Image SLES15-SP2-SAP-Azure-LI-BYOS-Production:python3-cryptography-3.3.2-150200.22.1",
            "Image SLES15-SP2-SAP-Azure-VLI-BYOS-Production:python3-cryptography-3.3.2-150200.22.1",
            "Image SLES15-SP2-SAP-Azure:python3-cryptography-3.3.2-150200.22.1",
            "Image SLES15-SP2-SAP-BYOS-Azure:python3-cryptography-3.3.2-150200.22.1",
            "Image SLES15-SP3-BYOS-Azure:python3-cryptography-3.3.2-150200.22.1",
            "Image SLES15-SP3-HPC-BYOS-Azure:python3-cryptography-3.3.2-150200.22.1",
            "Image SLES15-SP3-Micro-5-1-BYOS-Azure:python3-cryptography-3.3.2-150200.22.1",
            "Image SLES15-SP3-Micro-5-1-BYOS-EC2-HVM:python3-cryptography-3.3.2-150200.22.1",
            "Image SLES15-SP3-Micro-5-1-BYOS-GCE:python3-cryptography-3.3.2-150200.22.1",
            "Image SLES15-SP3-Micro-5-2-BYOS-Azure:python3-cryptography-3.3.2-150200.22.1",
            "Image SLES15-SP3-Micro-5-2-BYOS-EC2-HVM:python3-cryptography-3.3.2-150200.22.1",
            "Image SLES15-SP3-Micro-5-2-BYOS-GCE:python3-cryptography-3.3.2-150200.22.1",
            "Image SLES15-SP3-SAP-Azure-LI-BYOS-Production:python3-cryptography-3.3.2-150200.22.1",
            "Image SLES15-SP3-SAP-Azure-VLI-BYOS-Production:python3-cryptography-3.3.2-150200.22.1",
            "Image SLES15-SP3-SAP-BYOS-Azure:python3-cryptography-3.3.2-150200.22.1",
            "Image SLES15-SP3-SAPCAL-Azure:python2-cryptography-3.3.2-150200.22.1",
            "Image SLES15-SP3-SAPCAL-Azure:python3-cryptography-3.3.2-150200.22.1",
            "SUSE Linux Enterprise Micro 5.1:python3-cryptography-3.3.2-150200.22.1",
            "SUSE Linux Enterprise Micro 5.2:python3-cryptography-3.3.2-150200.22.1"
          ]
        }
      ],
      "CVSSScoreSets": {}
    }
  ]
}