{
  "Title": "Security update for java-1_8_0-ibm",
  "Tracking": {
    "ID": "SUSE-SU-2023:2862-1",
    "Status": "Final",
    "Version": "1",
    "InitialReleaseDate": "2023-07-17T15:02:15Z",
    "CurrentReleaseDate": "2023-07-17T15:02:15Z",
    "RevisionHistory": [
      {
        "Number": "1",
        "Date": "2023-07-17T15:02:15Z",
        "Description": "current"
      }
    ]
  },
  "Notes": [
    {
      "Text": "Security update for java-1_8_0-ibm",
      "Title": "Topic",
      "Type": "Summary"
    },
    {
      "Text": "This update for java-1_8_0-ibm fixes the following issues:\n\n  Updated to Java 8.0 Service Refresh 8 Fix Pack 6 (bsc#1213000):\n\n  - Fixed issue in Java Virtual Machine where outofmemory (OOM) killer terminates the jvm due to failure in control groups detection.\n",
      "Title": "Details",
      "Type": "General"
    },
    {
      "Text": "The CVRF data is provided by SUSE under the Creative Commons License 4.0 with Attribution (CC-BY-4.0).",
      "Title": "Terms of Use",
      "Type": "Legal Disclaimer"
    },
    {
      "Text": "Image SLES15-SP1-SAP-Azure-LI-BYOS-Production-2023-2862,Image SLES15-SP1-SAP-Azure-VLI-BYOS-Production-2023-2862,Image SLES15-SP2-SAP-Azure-2023-2862,Image SLES15-SP2-SAP-Azure-LI-BYOS-Production-2023-2862,Image SLES15-SP2-SAP-Azure-VLI-BYOS-Production-2023-2862,Image SLES15-SP2-SAP-BYOS-Azure-2023-2862,Image SLES15-SP2-SAP-BYOS-EC2-HVM-2023-2862,Image SLES15-SP2-SAP-BYOS-GCE-2023-2862,Image SLES15-SP2-SAP-EC2-HVM-2023-2862,Image SLES15-SP2-SAP-GCE-2023-2862,Image SLES15-SP3-SAP-Azure-LI-BYOS-Production-2023-2862,Image SLES15-SP3-SAP-Azure-VLI-BYOS-Production-2023-2862,Image SLES15-SP3-SAPCAL-Azure-2023-2862,Image SLES15-SP4-SAP-2023-2862,Image SLES15-SP4-SAP-Azure-2023-2862,Image SLES15-SP4-SAP-Azure-LI-BYOS-2023-2862,Image SLES15-SP4-SAP-Azure-LI-BYOS-Production-2023-2862,Image SLES15-SP4-SAP-Azure-VLI-BYOS-2023-2862,Image SLES15-SP4-SAP-Azure-VLI-BYOS-Production-2023-2862,Image SLES15-SP4-SAP-EC2-2023-2862,Image SLES15-SP4-SAP-GCE-2023-2862,Image SLES15-SP4-SAPCAL-2023-2862,Image SLES15-SP4-SAPCAL-Azure-2023-2862,Image SLES15-SP4-SAPCAL-EC2-2023-2862,Image SLES15-SP4-SAPCAL-GCE-2023-2862,Image SLES15-SP5-SAP-Azure-LI-BYOS-2023-2862,Image SLES15-SP5-SAP-Azure-LI-BYOS-Production-2023-2862,Image SLES15-SP5-SAP-Azure-VLI-BYOS-2023-2862,Image SLES15-SP5-SAP-Azure-VLI-BYOS-Production-2023-2862,Image SLES15-SP5-SAPCAL-Azure-2023-2862,Image SLES15-SP5-SAPCAL-EC2-2023-2862,Image SLES15-SP5-SAPCAL-GCE-2023-2862,SUSE-2023-2862,SUSE-SLE-Module-Legacy-15-SP4-2023-2862,SUSE-SLE-Module-Legacy-15-SP5-2023-2862,SUSE-SLE-Product-HPC-15-SP3-ESPOS-2023-2862,SUSE-SLE-Product-HPC-15-SP3-LTSS-2023-2862,SUSE-SLE-Product-SLES-15-SP1-LTSS-2023-2862,SUSE-SLE-Product-SLES-15-SP2-LTSS-2023-2862,SUSE-SLE-Product-SLES-15-SP3-LTSS-2023-2862,SUSE-SLE-Product-SLES_SAP-15-SP1-2023-2862,SUSE-SLE-Product-SLES_SAP-15-SP2-2023-2862,SUSE-SLE-Product-SLES_SAP-15-SP3-2023-2862,SUSE-Storage-7-2023-2862,SUSE-Storage-7.1-2023-2862,openSUSE-SLE-15.4-2023-2862,openSUSE-SLE-15.5-2023-2862",
      "Title": "Patchnames",
      "Type": "Details"
    }
  ],
  "ProductTree": {
    "Relationships": [
      {
        "ProductReference": "java-1_8_0-ibm-1.8.0_sr8.6-150000.3.77.1",
        "RelatesToProductReference": "Image SLES15-SP1-SAP-Azure-LI-BYOS-Production",
        "RelationType": "Default Component Of"
      },
      {
        "ProductReference": "java-1_8_0-ibm-1.8.0_sr8.6-150000.3.77.1",
        "RelatesToProductReference": "Image SLES15-SP1-SAP-Azure-VLI-BYOS-Production",
        "RelationType": "Default Component Of"
      },
      {
        "ProductReference": "java-1_8_0-ibm-1.8.0_sr8.6-150000.3.77.1",
        "RelatesToProductReference": "Image SLES15-SP2-SAP-Azure",
        "RelationType": "Default Component Of"
      },
      {
        "ProductReference": "java-1_8_0-ibm-1.8.0_sr8.6-150000.3.77.1",
        "RelatesToProductReference": "Image SLES15-SP2-SAP-Azure-LI-BYOS-Production",
        "RelationType": "Default Component Of"
      },
      {
        "ProductReference": "java-1_8_0-ibm-1.8.0_sr8.6-150000.3.77.1",
        "RelatesToProductReference": "Image SLES15-SP2-SAP-Azure-VLI-BYOS-Production",
        "RelationType": "Default Component Of"
      },
      {
        "ProductReference": "java-1_8_0-ibm-1.8.0_sr8.6-150000.3.77.1",
        "RelatesToProductReference": "Image SLES15-SP2-SAP-BYOS-Azure",
        "RelationType": "Default Component Of"
      },
      {
        "ProductReference": "java-1_8_0-ibm-1.8.0_sr8.6-150000.3.77.1",
        "RelatesToProductReference": "Image SLES15-SP2-SAP-BYOS-EC2-HVM",
        "RelationType": "Default Component Of"
      },
      {
        "ProductReference": "java-1_8_0-ibm-1.8.0_sr8.6-150000.3.77.1",
        "RelatesToProductReference": "Image SLES15-SP2-SAP-BYOS-GCE",
        "RelationType": "Default Component Of"
      },
      {
        "ProductReference": "java-1_8_0-ibm-1.8.0_sr8.6-150000.3.77.1",
        "RelatesToProductReference": "Image SLES15-SP2-SAP-EC2-HVM",
        "RelationType": "Default Component Of"
      },
      {
        "ProductReference": "java-1_8_0-ibm-1.8.0_sr8.6-150000.3.77.1",
        "RelatesToProductReference": "Image SLES15-SP2-SAP-GCE",
        "RelationType": "Default Component Of"
      },
      {
        "ProductReference": "java-1_8_0-ibm-1.8.0_sr8.6-150000.3.77.1",
        "RelatesToProductReference": "Image SLES15-SP3-SAP-Azure-LI-BYOS-Production",
        "RelationType": "Default Component Of"
      },
      {
        "ProductReference": "java-1_8_0-ibm-1.8.0_sr8.6-150000.3.77.1",
        "RelatesToProductReference": "Image SLES15-SP3-SAP-Azure-VLI-BYOS-Production",
        "RelationType": "Default Component Of"
      },
      {
        "ProductReference": "java-1_8_0-ibm-1.8.0_sr8.6-150000.3.77.1",
        "RelatesToProductReference": "Image SLES15-SP3-SAPCAL-Azure",
        "RelationType": "Default Component Of"
      },
      {
        "ProductReference": "java-1_8_0-ibm-devel-1.8.0_sr8.6-150000.3.77.1",
        "RelatesToProductReference": "Image SLES15-SP3-SAPCAL-Azure",
        "RelationType": "Default Component Of"
      },
      {
        "ProductReference": "java-1_8_0-ibm-plugin-1.8.0_sr8.6-150000.3.77.1",
        "RelatesToProductReference": "Image SLES15-SP3-SAPCAL-Azure",
        "RelationType": "Default Component Of"
      },
      {
        "ProductReference": "java-1_8_0-ibm-1.8.0_sr8.6-150000.3.77.1",
        "RelatesToProductReference": "Image SLES15-SP4-SAP",
        "RelationType": "Default Component Of"
      },
      {
        "ProductReference": "java-1_8_0-ibm-devel-1.8.0_sr8.6-150000.3.77.1",
        "RelatesToProductReference": "Image SLES15-SP4-SAP",
        "RelationType": "Default Component Of"
      },
      {
        "ProductReference": "java-1_8_0-ibm-plugin-1.8.0_sr8.6-150000.3.77.1",
        "RelatesToProductReference": "Image SLES15-SP4-SAP",
        "RelationType": "Default Component Of"
      },
      {
        "ProductReference": "java-1_8_0-ibm-1.8.0_sr8.6-150000.3.77.1",
        "RelatesToProductReference": "Image SLES15-SP4-SAP-Azure",
        "RelationType": "Default Component Of"
      },
      {
        "ProductReference": "java-1_8_0-ibm-devel-1.8.0_sr8.6-150000.3.77.1",
        "RelatesToProductReference": "Image SLES15-SP4-SAP-Azure",
        "RelationType": "Default Component Of"
      },
      {
        "ProductReference": "java-1_8_0-ibm-plugin-1.8.0_sr8.6-150000.3.77.1",
        "RelatesToProductReference": "Image SLES15-SP4-SAP-Azure",
        "RelationType": "Default Component Of"
      },
      {
        "ProductReference": "java-1_8_0-ibm-1.8.0_sr8.6-150000.3.77.1",
        "RelatesToProductReference": "Image SLES15-SP4-SAP-Azure-LI-BYOS",
        "RelationType": "Default Component Of"
      },
      {
        "ProductReference": "java-1_8_0-ibm-1.8.0_sr8.6-150000.3.77.1",
        "RelatesToProductReference": "Image SLES15-SP4-SAP-Azure-LI-BYOS-Production",
        "RelationType": "Default Component Of"
      },
      {
        "ProductReference": "java-1_8_0-ibm-1.8.0_sr8.6-150000.3.77.1",
        "RelatesToProductReference": "Image SLES15-SP4-SAP-Azure-VLI-BYOS",
        "RelationType": "Default Component Of"
      },
      {
        "ProductReference": "java-1_8_0-ibm-1.8.0_sr8.6-150000.3.77.1",
        "RelatesToProductReference": "Image SLES15-SP4-SAP-Azure-VLI-BYOS-Production",
        "RelationType": "Default Component Of"
      },
      {
        "ProductReference": "java-1_8_0-ibm-1.8.0_sr8.6-150000.3.77.1",
        "RelatesToProductReference": "Image SLES15-SP4-SAP-EC2",
        "RelationType": "Default Component Of"
      },
      {
        "ProductReference": "java-1_8_0-ibm-devel-1.8.0_sr8.6-150000.3.77.1",
        "RelatesToProductReference": "Image SLES15-SP4-SAP-EC2",
        "RelationType": "Default Component Of"
      },
      {
        "ProductReference": "java-1_8_0-ibm-plugin-1.8.0_sr8.6-150000.3.77.1",
        "RelatesToProductReference": "Image SLES15-SP4-SAP-EC2",
        "RelationType": "Default Component Of"
      },
      {
        "ProductReference": "java-1_8_0-ibm-1.8.0_sr8.6-150000.3.77.1",
        "RelatesToProductReference": "Image SLES15-SP4-SAP-GCE",
        "RelationType": "Default Component Of"
      },
      {
        "ProductReference": "java-1_8_0-ibm-devel-1.8.0_sr8.6-150000.3.77.1",
        "RelatesToProductReference": "Image SLES15-SP4-SAP-GCE",
        "RelationType": "Default Component Of"
      },
      {
        "ProductReference": "java-1_8_0-ibm-plugin-1.8.0_sr8.6-150000.3.77.1",
        "RelatesToProductReference": "Image SLES15-SP4-SAP-GCE",
        "RelationType": "Default Component Of"
      },
      {
        "ProductReference": "java-1_8_0-ibm-1.8.0_sr8.6-150000.3.77.1",
        "RelatesToProductReference": "Image SLES15-SP4-SAPCAL",
        "RelationType": "Default Component Of"
      },
      {
        "ProductReference": "java-1_8_0-ibm-devel-1.8.0_sr8.6-150000.3.77.1",
        "RelatesToProductReference": "Image SLES15-SP4-SAPCAL",
        "RelationType": "Default Component Of"
      },
      {
        "ProductReference": "java-1_8_0-ibm-plugin-1.8.0_sr8.6-150000.3.77.1",
        "RelatesToProductReference": "Image SLES15-SP4-SAPCAL",
        "RelationType": "Default Component Of"
      },
      {
        "ProductReference": "java-1_8_0-ibm-1.8.0_sr8.6-150000.3.77.1",
        "RelatesToProductReference": "Image SLES15-SP4-SAPCAL-Azure",
        "RelationType": "Default Component Of"
      },
      {
        "ProductReference": "java-1_8_0-ibm-devel-1.8.0_sr8.6-150000.3.77.1",
        "RelatesToProductReference": "Image SLES15-SP4-SAPCAL-Azure",
        "RelationType": "Default Component Of"
      },
      {
        "ProductReference": "java-1_8_0-ibm-plugin-1.8.0_sr8.6-150000.3.77.1",
        "RelatesToProductReference": "Image SLES15-SP4-SAPCAL-Azure",
        "RelationType": "Default Component Of"
      },
      {
        "ProductReference": "java-1_8_0-ibm-1.8.0_sr8.6-150000.3.77.1",
        "RelatesToProductReference": "Image SLES15-SP4-SAPCAL-EC2",
        "RelationType": "Default Component Of"
      },
      {
        "ProductReference": "java-1_8_0-ibm-devel-1.8.0_sr8.6-150000.3.77.1",
        "RelatesToProductReference": "Image SLES15-SP4-SAPCAL-EC2",
        "RelationType": "Default Component Of"
      },
      {
        "ProductReference": "java-1_8_0-ibm-plugin-1.8.0_sr8.6-150000.3.77.1",
        "RelatesToProductReference": "Image SLES15-SP4-SAPCAL-EC2",
        "RelationType": "Default Component Of"
      },
      {
        "ProductReference": "java-1_8_0-ibm-1.8.0_sr8.6-150000.3.77.1",
        "RelatesToProductReference": "Image SLES15-SP4-SAPCAL-GCE",
        "RelationType": "Default Component Of"
      },
      {
        "ProductReference": "java-1_8_0-ibm-devel-1.8.0_sr8.6-150000.3.77.1",
        "RelatesToProductReference": "Image SLES15-SP4-SAPCAL-GCE",
        "RelationType": "Default Component Of"
      },
      {
        "ProductReference": "java-1_8_0-ibm-plugin-1.8.0_sr8.6-150000.3.77.1",
        "RelatesToProductReference": "Image SLES15-SP4-SAPCAL-GCE",
        "RelationType": "Default Component Of"
      },
      {
        "ProductReference": "java-1_8_0-ibm-1.8.0_sr8.6-150000.3.77.1",
        "RelatesToProductReference": "Image SLES15-SP5-SAP-Azure-LI-BYOS",
        "RelationType": "Default Component Of"
      },
      {
        "ProductReference": "java-1_8_0-ibm-1.8.0_sr8.6-150000.3.77.1",
        "RelatesToProductReference": "Image SLES15-SP5-SAP-Azure-LI-BYOS-Production",
        "RelationType": "Default Component Of"
      },
      {
        "ProductReference": "java-1_8_0-ibm-1.8.0_sr8.6-150000.3.77.1",
        "RelatesToProductReference": "Image SLES15-SP5-SAP-Azure-VLI-BYOS",
        "RelationType": "Default Component Of"
      },
      {
        "ProductReference": "java-1_8_0-ibm-1.8.0_sr8.6-150000.3.77.1",
        "RelatesToProductReference": "Image SLES15-SP5-SAP-Azure-VLI-BYOS-Production",
        "RelationType": "Default Component Of"
      },
      {
        "ProductReference": "java-1_8_0-ibm-1.8.0_sr8.6-150000.3.77.1",
        "RelatesToProductReference": "Image SLES15-SP5-SAPCAL-Azure",
        "RelationType": "Default Component Of"
      },
      {
        "ProductReference": "java-1_8_0-ibm-devel-1.8.0_sr8.6-150000.3.77.1",
        "RelatesToProductReference": "Image SLES15-SP5-SAPCAL-Azure",
        "RelationType": "Default Component Of"
      },
      {
        "ProductReference": "java-1_8_0-ibm-plugin-1.8.0_sr8.6-150000.3.77.1",
        "RelatesToProductReference": "Image SLES15-SP5-SAPCAL-Azure",
        "RelationType": "Default Component Of"
      },
      {
        "ProductReference": "java-1_8_0-ibm-1.8.0_sr8.6-150000.3.77.1",
        "RelatesToProductReference": "Image SLES15-SP5-SAPCAL-EC2",
        "RelationType": "Default Component Of"
      },
      {
        "ProductReference": "java-1_8_0-ibm-devel-1.8.0_sr8.6-150000.3.77.1",
        "RelatesToProductReference": "Image SLES15-SP5-SAPCAL-EC2",
        "RelationType": "Default Component Of"
      },
      {
        "ProductReference": "java-1_8_0-ibm-plugin-1.8.0_sr8.6-150000.3.77.1",
        "RelatesToProductReference": "Image SLES15-SP5-SAPCAL-EC2",
        "RelationType": "Default Component Of"
      },
      {
        "ProductReference": "java-1_8_0-ibm-1.8.0_sr8.6-150000.3.77.1",
        "RelatesToProductReference": "Image SLES15-SP5-SAPCAL-GCE",
        "RelationType": "Default Component Of"
      },
      {
        "ProductReference": "java-1_8_0-ibm-devel-1.8.0_sr8.6-150000.3.77.1",
        "RelatesToProductReference": "Image SLES15-SP5-SAPCAL-GCE",
        "RelationType": "Default Component Of"
      },
      {
        "ProductReference": "java-1_8_0-ibm-plugin-1.8.0_sr8.6-150000.3.77.1",
        "RelatesToProductReference": "Image SLES15-SP5-SAPCAL-GCE",
        "RelationType": "Default Component Of"
      },
      {
        "ProductReference": "java-1_8_0-ibm-1.8.0_sr8.6-150000.3.77.1",
        "RelatesToProductReference": "SUSE Enterprise Storage 7",
        "RelationType": "Default Component Of"
      },
      {
        "ProductReference": "java-1_8_0-ibm-alsa-1.8.0_sr8.6-150000.3.77.1",
        "RelatesToProductReference": "SUSE Enterprise Storage 7",
        "RelationType": "Default Component Of"
      },
      {
        "ProductReference": "java-1_8_0-ibm-devel-1.8.0_sr8.6-150000.3.77.1",
        "RelatesToProductReference": "SUSE Enterprise Storage 7",
        "RelationType": "Default Component Of"
      },
      {
        "ProductReference": "java-1_8_0-ibm-plugin-1.8.0_sr8.6-150000.3.77.1",
        "RelatesToProductReference": "SUSE Enterprise Storage 7",
        "RelationType": "Default Component Of"
      },
      {
        "ProductReference": "java-1_8_0-ibm-1.8.0_sr8.6-150000.3.77.1",
        "RelatesToProductReference": "SUSE Enterprise Storage 7.1",
        "RelationType": "Default Component Of"
      },
      {
        "ProductReference": "java-1_8_0-ibm-alsa-1.8.0_sr8.6-150000.3.77.1",
        "RelatesToProductReference": "SUSE Enterprise Storage 7.1",
        "RelationType": "Default Component Of"
      },
      {
        "ProductReference": "java-1_8_0-ibm-devel-1.8.0_sr8.6-150000.3.77.1",
        "RelatesToProductReference": "SUSE Enterprise Storage 7.1",
        "RelationType": "Default Component Of"
      },
      {
        "ProductReference": "java-1_8_0-ibm-plugin-1.8.0_sr8.6-150000.3.77.1",
        "RelatesToProductReference": "SUSE Enterprise Storage 7.1",
        "RelationType": "Default Component Of"
      },
      {
        "ProductReference": "java-1_8_0-ibm-1.8.0_sr8.6-150000.3.77.1",
        "RelatesToProductReference": "SUSE Linux Enterprise High Performance Computing 15 SP3-ESPOS",
        "RelationType": "Default Component Of"
      },
      {
        "ProductReference": "java-1_8_0-ibm-alsa-1.8.0_sr8.6-150000.3.77.1",
        "RelatesToProductReference": "SUSE Linux Enterprise High Performance Computing 15 SP3-ESPOS",
        "RelationType": "Default Component Of"
      },
      {
        "ProductReference": "java-1_8_0-ibm-devel-1.8.0_sr8.6-150000.3.77.1",
        "RelatesToProductReference": "SUSE Linux Enterprise High Performance Computing 15 SP3-ESPOS",
        "RelationType": "Default Component Of"
      },
      {
        "ProductReference": "java-1_8_0-ibm-plugin-1.8.0_sr8.6-150000.3.77.1",
        "RelatesToProductReference": "SUSE Linux Enterprise High Performance Computing 15 SP3-ESPOS",
        "RelationType": "Default Component Of"
      },
      {
        "ProductReference": "java-1_8_0-ibm-1.8.0_sr8.6-150000.3.77.1",
        "RelatesToProductReference": "SUSE Linux Enterprise High Performance Computing 15 SP3-LTSS",
        "RelationType": "Default Component Of"
      },
      {
        "ProductReference": "java-1_8_0-ibm-alsa-1.8.0_sr8.6-150000.3.77.1",
        "RelatesToProductReference": "SUSE Linux Enterprise High Performance Computing 15 SP3-LTSS",
        "RelationType": "Default Component Of"
      },
      {
        "ProductReference": "java-1_8_0-ibm-devel-1.8.0_sr8.6-150000.3.77.1",
        "RelatesToProductReference": "SUSE Linux Enterprise High Performance Computing 15 SP3-LTSS",
        "RelationType": "Default Component Of"
      },
      {
        "ProductReference": "java-1_8_0-ibm-plugin-1.8.0_sr8.6-150000.3.77.1",
        "RelatesToProductReference": "SUSE Linux Enterprise High Performance Computing 15 SP3-LTSS",
        "RelationType": "Default Component Of"
      },
      {
        "ProductReference": "java-1_8_0-ibm-1.8.0_sr8.6-150000.3.77.1",
        "RelatesToProductReference": "SUSE Linux Enterprise Module for Legacy 15 SP4",
        "RelationType": "Default Component Of"
      },
      {
        "ProductReference": "java-1_8_0-ibm-alsa-1.8.0_sr8.6-150000.3.77.1",
        "RelatesToProductReference": "SUSE Linux Enterprise Module for Legacy 15 SP4",
        "RelationType": "Default Component Of"
      },
      {
        "ProductReference": "java-1_8_0-ibm-devel-1.8.0_sr8.6-150000.3.77.1",
        "RelatesToProductReference": "SUSE Linux Enterprise Module for Legacy 15 SP4",
        "RelationType": "Default Component Of"
      },
      {
        "ProductReference": "java-1_8_0-ibm-plugin-1.8.0_sr8.6-150000.3.77.1",
        "RelatesToProductReference": "SUSE Linux Enterprise Module for Legacy 15 SP4",
        "RelationType": "Default Component Of"
      },
      {
        "ProductReference": "java-1_8_0-ibm-1.8.0_sr8.6-150000.3.77.1",
        "RelatesToProductReference": "SUSE Linux Enterprise Module for Legacy 15 SP5",
        "RelationType": "Default Component Of"
      },
      {
        "ProductReference": "java-1_8_0-ibm-alsa-1.8.0_sr8.6-150000.3.77.1",
        "RelatesToProductReference": "SUSE Linux Enterprise Module for Legacy 15 SP5",
        "RelationType": "Default Component Of"
      },
      {
        "ProductReference": "java-1_8_0-ibm-devel-1.8.0_sr8.6-150000.3.77.1",
        "RelatesToProductReference": "SUSE Linux Enterprise Module for Legacy 15 SP5",
        "RelationType": "Default Component Of"
      },
      {
        "ProductReference": "java-1_8_0-ibm-plugin-1.8.0_sr8.6-150000.3.77.1",
        "RelatesToProductReference": "SUSE Linux Enterprise Module for Legacy 15 SP5",
        "RelationType": "Default Component Of"
      },
      {
        "ProductReference": "java-1_8_0-ibm-1.8.0_sr8.6-150000.3.77.1",
        "RelatesToProductReference": "SUSE Linux Enterprise Server 15 SP1-LTSS",
        "RelationType": "Default Component Of"
      },
      {
        "ProductReference": "java-1_8_0-ibm-alsa-1.8.0_sr8.6-150000.3.77.1",
        "RelatesToProductReference": "SUSE Linux Enterprise Server 15 SP1-LTSS",
        "RelationType": "Default Component Of"
      },
      {
        "ProductReference": "java-1_8_0-ibm-devel-1.8.0_sr8.6-150000.3.77.1",
        "RelatesToProductReference": "SUSE Linux Enterprise Server 15 SP1-LTSS",
        "RelationType": "Default Component Of"
      },
      {
        "ProductReference": "java-1_8_0-ibm-plugin-1.8.0_sr8.6-150000.3.77.1",
        "RelatesToProductReference": "SUSE Linux Enterprise Server 15 SP1-LTSS",
        "RelationType": "Default Component Of"
      },
      {
        "ProductReference": "java-1_8_0-ibm-1.8.0_sr8.6-150000.3.77.1",
        "RelatesToProductReference": "SUSE Linux Enterprise Server 15 SP2-LTSS",
        "RelationType": "Default Component Of"
      },
      {
        "ProductReference": "java-1_8_0-ibm-alsa-1.8.0_sr8.6-150000.3.77.1",
        "RelatesToProductReference": "SUSE Linux Enterprise Server 15 SP2-LTSS",
        "RelationType": "Default Component Of"
      },
      {
        "ProductReference": "java-1_8_0-ibm-devel-1.8.0_sr8.6-150000.3.77.1",
        "RelatesToProductReference": "SUSE Linux Enterprise Server 15 SP2-LTSS",
        "RelationType": "Default Component Of"
      },
      {
        "ProductReference": "java-1_8_0-ibm-plugin-1.8.0_sr8.6-150000.3.77.1",
        "RelatesToProductReference": "SUSE Linux Enterprise Server 15 SP2-LTSS",
        "RelationType": "Default Component Of"
      },
      {
        "ProductReference": "java-1_8_0-ibm-1.8.0_sr8.6-150000.3.77.1",
        "RelatesToProductReference": "SUSE Linux Enterprise Server 15 SP3-LTSS",
        "RelationType": "Default Component Of"
      },
      {
        "ProductReference": "java-1_8_0-ibm-alsa-1.8.0_sr8.6-150000.3.77.1",
        "RelatesToProductReference": "SUSE Linux Enterprise Server 15 SP3-LTSS",
        "RelationType": "Default Component Of"
      },
      {
        "ProductReference": "java-1_8_0-ibm-devel-1.8.0_sr8.6-150000.3.77.1",
        "RelatesToProductReference": "SUSE Linux Enterprise Server 15 SP3-LTSS",
        "RelationType": "Default Component Of"
      },
      {
        "ProductReference": "java-1_8_0-ibm-plugin-1.8.0_sr8.6-150000.3.77.1",
        "RelatesToProductReference": "SUSE Linux Enterprise Server 15 SP3-LTSS",
        "RelationType": "Default Component Of"
      },
      {
        "ProductReference": "java-1_8_0-ibm-1.8.0_sr8.6-150000.3.77.1",
        "RelatesToProductReference": "SUSE Linux Enterprise Server for SAP Applications 15 SP1",
        "RelationType": "Default Component Of"
      },
      {
        "ProductReference": "java-1_8_0-ibm-alsa-1.8.0_sr8.6-150000.3.77.1",
        "RelatesToProductReference": "SUSE Linux Enterprise Server for SAP Applications 15 SP1",
        "RelationType": "Default Component Of"
      },
      {
        "ProductReference": "java-1_8_0-ibm-devel-1.8.0_sr8.6-150000.3.77.1",
        "RelatesToProductReference": "SUSE Linux Enterprise Server for SAP Applications 15 SP1",
        "RelationType": "Default Component Of"
      },
      {
        "ProductReference": "java-1_8_0-ibm-plugin-1.8.0_sr8.6-150000.3.77.1",
        "RelatesToProductReference": "SUSE Linux Enterprise Server for SAP Applications 15 SP1",
        "RelationType": "Default Component Of"
      },
      {
        "ProductReference": "java-1_8_0-ibm-1.8.0_sr8.6-150000.3.77.1",
        "RelatesToProductReference": "SUSE Linux Enterprise Server for SAP Applications 15 SP2",
        "RelationType": "Default Component Of"
      },
      {
        "ProductReference": "java-1_8_0-ibm-alsa-1.8.0_sr8.6-150000.3.77.1",
        "RelatesToProductReference": "SUSE Linux Enterprise Server for SAP Applications 15 SP2",
        "RelationType": "Default Component Of"
      },
      {
        "ProductReference": "java-1_8_0-ibm-devel-1.8.0_sr8.6-150000.3.77.1",
        "RelatesToProductReference": "SUSE Linux Enterprise Server for SAP Applications 15 SP2",
        "RelationType": "Default Component Of"
      },
      {
        "ProductReference": "java-1_8_0-ibm-plugin-1.8.0_sr8.6-150000.3.77.1",
        "RelatesToProductReference": "SUSE Linux Enterprise Server for SAP Applications 15 SP2",
        "RelationType": "Default Component Of"
      },
      {
        "ProductReference": "java-1_8_0-ibm-1.8.0_sr8.6-150000.3.77.1",
        "RelatesToProductReference": "SUSE Linux Enterprise Server for SAP Applications 15 SP3",
        "RelationType": "Default Component Of"
      },
      {
        "ProductReference": "java-1_8_0-ibm-alsa-1.8.0_sr8.6-150000.3.77.1",
        "RelatesToProductReference": "SUSE Linux Enterprise Server for SAP Applications 15 SP3",
        "RelationType": "Default Component Of"
      },
      {
        "ProductReference": "java-1_8_0-ibm-devel-1.8.0_sr8.6-150000.3.77.1",
        "RelatesToProductReference": "SUSE Linux Enterprise Server for SAP Applications 15 SP3",
        "RelationType": "Default Component Of"
      },
      {
        "ProductReference": "java-1_8_0-ibm-plugin-1.8.0_sr8.6-150000.3.77.1",
        "RelatesToProductReference": "SUSE Linux Enterprise Server for SAP Applications 15 SP3",
        "RelationType": "Default Component Of"
      },
      {
        "ProductReference": "java-1_8_0-ibm-1.8.0_sr8.6-150000.3.77.1",
        "RelatesToProductReference": "openSUSE Leap 15.4",
        "RelationType": "Default Component Of"
      },
      {
        "ProductReference": "java-1_8_0-ibm-32bit-1.8.0_sr8.6-150000.3.77.1",
        "RelatesToProductReference": "openSUSE Leap 15.4",
        "RelationType": "Default Component Of"
      },
      {
        "ProductReference": "java-1_8_0-ibm-alsa-1.8.0_sr8.6-150000.3.77.1",
        "RelatesToProductReference": "openSUSE Leap 15.4",
        "RelationType": "Default Component Of"
      },
      {
        "ProductReference": "java-1_8_0-ibm-demo-1.8.0_sr8.6-150000.3.77.1",
        "RelatesToProductReference": "openSUSE Leap 15.4",
        "RelationType": "Default Component Of"
      },
      {
        "ProductReference": "java-1_8_0-ibm-devel-1.8.0_sr8.6-150000.3.77.1",
        "RelatesToProductReference": "openSUSE Leap 15.4",
        "RelationType": "Default Component Of"
      },
      {
        "ProductReference": "java-1_8_0-ibm-devel-32bit-1.8.0_sr8.6-150000.3.77.1",
        "RelatesToProductReference": "openSUSE Leap 15.4",
        "RelationType": "Default Component Of"
      },
      {
        "ProductReference": "java-1_8_0-ibm-plugin-1.8.0_sr8.6-150000.3.77.1",
        "RelatesToProductReference": "openSUSE Leap 15.4",
        "RelationType": "Default Component Of"
      },
      {
        "ProductReference": "java-1_8_0-ibm-src-1.8.0_sr8.6-150000.3.77.1",
        "RelatesToProductReference": "openSUSE Leap 15.4",
        "RelationType": "Default Component Of"
      },
      {
        "ProductReference": "java-1_8_0-ibm-1.8.0_sr8.6-150000.3.77.1",
        "RelatesToProductReference": "openSUSE Leap 15.5",
        "RelationType": "Default Component Of"
      },
      {
        "ProductReference": "java-1_8_0-ibm-32bit-1.8.0_sr8.6-150000.3.77.1",
        "RelatesToProductReference": "openSUSE Leap 15.5",
        "RelationType": "Default Component Of"
      },
      {
        "ProductReference": "java-1_8_0-ibm-alsa-1.8.0_sr8.6-150000.3.77.1",
        "RelatesToProductReference": "openSUSE Leap 15.5",
        "RelationType": "Default Component Of"
      },
      {
        "ProductReference": "java-1_8_0-ibm-demo-1.8.0_sr8.6-150000.3.77.1",
        "RelatesToProductReference": "openSUSE Leap 15.5",
        "RelationType": "Default Component Of"
      },
      {
        "ProductReference": "java-1_8_0-ibm-devel-1.8.0_sr8.6-150000.3.77.1",
        "RelatesToProductReference": "openSUSE Leap 15.5",
        "RelationType": "Default Component Of"
      },
      {
        "ProductReference": "java-1_8_0-ibm-devel-32bit-1.8.0_sr8.6-150000.3.77.1",
        "RelatesToProductReference": "openSUSE Leap 15.5",
        "RelationType": "Default Component Of"
      },
      {
        "ProductReference": "java-1_8_0-ibm-plugin-1.8.0_sr8.6-150000.3.77.1",
        "RelatesToProductReference": "openSUSE Leap 15.5",
        "RelationType": "Default Component Of"
      },
      {
        "ProductReference": "java-1_8_0-ibm-src-1.8.0_sr8.6-150000.3.77.1",
        "RelatesToProductReference": "openSUSE Leap 15.5",
        "RelationType": "Default Component Of"
      }
    ]
  },
  "References": [
    {
      "URL": "https://www.suse.com/support/update/announcement/2023/suse-su-20232862-1/",
      "Description": "Link for SUSE-SU-2023:2862-1"
    },
    {
      "URL": "https://lists.suse.com/pipermail/sle-security-updates/2023-July/015509.html",
      "Description": "E-Mail link for SUSE-SU-2023:2862-1"
    },
    {
      "URL": "https://www.suse.com/support/security/rating/",
      "Description": "SUSE Security Ratings"
    },
    {
      "URL": "https://bugzilla.suse.com/1213000",
      "Description": "SUSE Bug 1213000"
    }
  ],
  "Vulnerabilities": null
}