{
  "Title": "Security update for ca-certificates-mozilla",
  "Tracking": {
    "ID": "SUSE-SU-2023:0037-1",
    "Status": "Final",
    "Version": "1",
    "InitialReleaseDate": "2023-01-06T14:36:02Z",
    "CurrentReleaseDate": "2023-01-06T14:36:02Z",
    "RevisionHistory": [
      {
        "Number": "1",
        "Date": "2023-01-06T14:36:02Z",
        "Description": "current"
      }
    ]
  },
  "Notes": [
    {
      "Text": "Security update for ca-certificates-mozilla",
      "Title": "Topic",
      "Type": "Summary"
    },
    {
      "Text": "This update for ca-certificates-mozilla fixes the following issues:\n\n- Updated to 2.60 state of Mozilla SSL root CAs (bsc#1206622)\n  Removed CAs:\n  - Global Chambersign Root\n  - EC-ACC\n  - Network Solutions Certificate Authority\n  - Staat der Nederlanden EV Root CA\n  - SwissSign Platinum CA - G2\n  Added CAs:\n  - DIGITALSIGN GLOBAL ROOT ECDSA CA\n  - DIGITALSIGN GLOBAL ROOT RSA CA\n  - Security Communication ECC RootCA1\n  - Security Communication RootCA3\n  Changed trust:\n  - TrustCor certificates only trusted up to Nov 30 (bsc#1206212)\n- Removed CAs (bsc#1206212) as most code does not handle 'valid before nov 30 2022'\n  and it is not clear how many certs were issued for SSL middleware by TrustCor:\n  - TrustCor RootCert CA-1\n  - TrustCor RootCert CA-2\n  - TrustCor ECA-1\n",
      "Title": "Details",
      "Type": "General"
    },
    {
      "Text": "The CVRF data is provided by SUSE under the Creative Commons License 4.0 with Attribution (CC-BY-4.0).",
      "Title": "Terms of Use",
      "Type": "Legal Disclaimer"
    },
    {
      "Text": "Container bci/bci-busybox:15.4-2023-37,Container bci/bci-busybox:15.6-2023-37,Container bci/bci-busybox:latest-2023-37,Container bci/bci-micro:15.3-2023-37,Container bci/bci-micro:15.4-2023-37,Container bci/bci-micro:15.6-2023-37,Container bci/bci-micro:latest-2023-37,Container rancher/elemental-operator:latest-2023-37,Container rancher/seedimage-builder/5.3:latest-2023-37,Container rancher/seedimage-builder:latest-2023-37,Container ses/7.1/cephcsi/cephcsi:latest-2023-37,Container ses/7.1/rook/ceph:latest-2023-37,Container suse/helm:latest-2023-37,Container suse/hpc/warewulf4-x86_64/sle-hpc-node:latest-2023-37,Container suse/ltss/sle15.3/sle15:15.3-2023-37,Container suse/ltss/sle15.4/sle15:15.4-2023-37,Container suse/manager/4.3/proxy-salt-broker:latest-2023-37,Container suse/manager/4.3/proxy-tftpd:latest-2023-37,Container suse/manager/5.0/x86_64/proxy-salt-broker:latest-2023-37,Container suse/manager/5.0/x86_64/proxy-tftpd:latest-2023-37,Container suse/manager/5.0/x86_64/server:latest-2023-37,Container suse/registry:latest-2023-37,Container suse/sle-micro-rancher/5.2:latest-2023-37,Container suse/sle-micro-rancher/5.3:latest-2023-37,Container suse/sle-micro-rancher/5.4:latest-2023-37,Container suse/sle-micro/5.1/toolbox:latest-2023-37,Container suse/sle-micro/5.2/toolbox:latest-2023-37,Container suse/sle-micro/5.3/toolbox:latest-2023-37,Container suse/sle-micro/5.4/toolbox:latest-2023-37,Container suse/sle-micro/base-5.5:latest-2023-37,Container suse/sle15:15.2-2023-37,Container suse/sle15:15.3-2023-37,Container suse/sle15:15.4-2023-37,Container suse/sle15:15.5-2023-37,Container suse/sle15:15.6-2023-37,Image SLES15-SP2-BYOS-Azure-2023-37,Image SLES15-SP2-HPC-BYOS-Azure-2023-37,Image SLES15-SP2-SAP-Azure-2023-37,Image SLES15-SP2-SAP-Azure-LI-BYOS-Production-2023-37,Image SLES15-SP2-SAP-Azure-VLI-BYOS-Production-2023-37,Image SLES15-SP2-SAP-BYOS-Azure-2023-37,Image SLES15-SP2-SAP-BYOS-EC2-HVM-2023-37,Image SLES15-SP2-SAP-BYOS-GCE-2023-37,Image SLES15-SP2-SAP-EC2-HVM-2023-37,Image SLES15-SP2-SAP-GCE-2023-37,Image SLES15-SP3-BYOS-Azure-2023-37,Image SLES15-SP3-CHOST-BYOS-Aliyun-2023-37,Image SLES15-SP3-CHOST-BYOS-Azure-2023-37,Image SLES15-SP3-CHOST-BYOS-EC2-2023-37,Image SLES15-SP3-CHOST-BYOS-GCE-2023-37,Image SLES15-SP3-CHOST-BYOS-SAP-CCloud-2023-37,Image SLES15-SP3-HPC-BYOS-Azure-2023-37,Image SLES15-SP3-Manager-4-2-Proxy-BYOS-Azure-2023-37,Image SLES15-SP3-Manager-4-2-Proxy-BYOS-EC2-HVM-2023-37,Image SLES15-SP3-Manager-4-2-Proxy-BYOS-GCE-2023-37,Image SLES15-SP3-Manager-4-2-Server-BYOS-Azure-2023-37,Image SLES15-SP3-Manager-4-2-Server-BYOS-EC2-HVM-2023-37,Image SLES15-SP3-Manager-4-2-Server-BYOS-GCE-2023-37,Image SLES15-SP3-Micro-5-1-BYOS-Azure-2023-37,Image SLES15-SP3-Micro-5-1-BYOS-EC2-HVM-2023-37,Image SLES15-SP3-Micro-5-1-BYOS-GCE-2023-37,Image SLES15-SP3-Micro-5-2-BYOS-Azure-2023-37,Image SLES15-SP3-Micro-5-2-BYOS-EC2-HVM-2023-37,Image SLES15-SP3-Micro-5-2-BYOS-GCE-2023-37,Image SLES15-SP3-SAP-Azure-LI-BYOS-Production-2023-37,Image SLES15-SP3-SAP-Azure-VLI-BYOS-Production-2023-37,Image SLES15-SP3-SAP-BYOS-Azure-2023-37,Image SLES15-SP3-SAP-BYOS-EC2-HVM-2023-37,Image SLES15-SP3-SAP-BYOS-GCE-2023-37,Image SLES15-SP3-SAPCAL-Azure-2023-37,Image SLES15-SP4-2023-37,Image SLES15-SP4-Azure-Basic-2023-37,Image SLES15-SP4-Azure-Standard-2023-37,Image SLES15-SP4-BYOS-2023-37,Image SLES15-SP4-BYOS-Azure-2023-37,Image SLES15-SP4-BYOS-EC2-2023-37,Image SLES15-SP4-BYOS-GCE-2023-37,Image SLES15-SP4-CHOST-BYOS-2023-37,Image SLES15-SP4-CHOST-BYOS-Aliyun-2023-37,Image SLES15-SP4-CHOST-BYOS-Azure-2023-37,Image SLES15-SP4-CHOST-BYOS-EC2-2023-37,Image SLES15-SP4-CHOST-BYOS-GCE-2023-37,Image SLES15-SP4-CHOST-BYOS-SAP-CCloud-2023-37,Image SLES15-SP4-EC2-2023-37,Image SLES15-SP4-EC2-ECS-HVM-2023-37,Image SLES15-SP4-GCE-2023-37,Image SLES15-SP4-HPC-2023-37,Image SLES15-SP4-HPC-Azure-2023-37,Image SLES15-SP4-HPC-BYOS-2023-37,Image SLES15-SP4-HPC-BYOS-Azure-2023-37,Image SLES15-SP4-HPC-BYOS-EC2-2023-37,Image SLES15-SP4-HPC-BYOS-GCE-2023-37,Image SLES15-SP4-HPC-EC2-2023-37,Image SLES15-SP4-HPC-GCE-2023-37,Image SLES15-SP4-Hardened-BYOS-2023-37,Image SLES15-SP4-Hardened-BYOS-Azure-2023-37,Image SLES15-SP4-Hardened-BYOS-EC2-2023-37,Image SLES15-SP4-Hardened-BYOS-GCE-2023-37,Image SLES15-SP4-Manager-Proxy-4-3-BYOS-2023-37,Image SLES15-SP4-Manager-Proxy-4-3-BYOS-Azure-2023-37,Image SLES15-SP4-Manager-Proxy-4-3-BYOS-EC2-2023-37,Image SLES15-SP4-Manager-Proxy-4-3-BYOS-GCE-2023-37,Image SLES15-SP4-Manager-Server-4-3-2023-37,Image SLES15-SP4-Manager-Server-4-3-Azure-llc-2023-37,Image SLES15-SP4-Manager-Server-4-3-Azure-ltd-2023-37,Image SLES15-SP4-Manager-Server-4-3-BYOS-2023-37,Image SLES15-SP4-Manager-Server-4-3-BYOS-Azure-2023-37,Image SLES15-SP4-Manager-Server-4-3-BYOS-EC2-2023-37,Image SLES15-SP4-Manager-Server-4-3-BYOS-GCE-2023-37,Image SLES15-SP4-Manager-Server-4-3-EC2-llc-2023-37,Image SLES15-SP4-Manager-Server-4-3-EC2-ltd-2023-37,Image SLES15-SP4-Micro-5-3-2023-37,Image SLES15-SP4-Micro-5-3-Azure-2023-37,Image SLES15-SP4-Micro-5-3-BYOS-2023-37,Image SLES15-SP4-Micro-5-3-BYOS-Azure-2023-37,Image SLES15-SP4-Micro-5-3-BYOS-EC2-2023-37,Image SLES15-SP4-Micro-5-3-BYOS-GCE-2023-37,Image SLES15-SP4-Micro-5-3-EC2-2023-37,Image SLES15-SP4-Micro-5-3-GCE-2023-37,Image SLES15-SP4-Micro-5-4-2023-37,Image SLES15-SP4-Micro-5-4-Azure-2023-37,Image SLES15-SP4-Micro-5-4-BYOS-2023-37,Image SLES15-SP4-Micro-5-4-BYOS-Azure-2023-37,Image SLES15-SP4-Micro-5-4-BYOS-EC2-2023-37,Image SLES15-SP4-Micro-5-4-BYOS-GCE-2023-37,Image SLES15-SP4-Micro-5-4-EC2-2023-37,Image SLES15-SP4-Micro-5-4-GCE-2023-37,Image SLES15-SP4-SAP-2023-37,Image SLES15-SP4-SAP-Azure-2023-37,Image SLES15-SP4-SAP-Azure-LI-BYOS-2023-37,Image SLES15-SP4-SAP-Azure-LI-BYOS-Production-2023-37,Image SLES15-SP4-SAP-Azure-VLI-BYOS-2023-37,Image SLES15-SP4-SAP-Azure-VLI-BYOS-Production-2023-37,Image SLES15-SP4-SAP-BYOS-2023-37,Image SLES15-SP4-SAP-BYOS-Azure-2023-37,Image SLES15-SP4-SAP-BYOS-EC2-2023-37,Image SLES15-SP4-SAP-BYOS-GCE-2023-37,Image SLES15-SP4-SAP-EC2-2023-37,Image SLES15-SP4-SAP-GCE-2023-37,Image SLES15-SP4-SAP-Hardened-2023-37,Image SLES15-SP4-SAP-Hardened-Azure-2023-37,Image SLES15-SP4-SAP-Hardened-BYOS-2023-37,Image SLES15-SP4-SAP-Hardened-BYOS-Azure-2023-37,Image SLES15-SP4-SAP-Hardened-BYOS-EC2-2023-37,Image SLES15-SP4-SAP-Hardened-BYOS-GCE-2023-37,Image SLES15-SP4-SAP-Hardened-EC2-2023-37,Image SLES15-SP4-SAP-Hardened-GCE-2023-37,Image SLES15-SP4-SAPCAL-2023-37,Image SLES15-SP4-SAPCAL-Azure-2023-37,Image SLES15-SP4-SAPCAL-EC2-2023-37,Image SLES15-SP4-SAPCAL-GCE-2023-37,Image SLES15-SP4-SUSE-Rancher-Setup-BYOS-2023-37,Image SLES15-SP4-SUSE-Rancher-Setup-BYOS-EC2-2023-37,Image SLES15-SP5-Azure-Basic-2023-37,Image SLES15-SP5-Azure-Standard-2023-37,Image SLES15-SP5-BYOS-Azure-2023-37,Image SLES15-SP5-BYOS-EC2-2023-37,Image SLES15-SP5-BYOS-GCE-2023-37,Image SLES15-SP5-CHOST-BYOS-Aliyun-2023-37,Image SLES15-SP5-CHOST-BYOS-Azure-2023-37,Image SLES15-SP5-CHOST-BYOS-EC2-2023-37,Image SLES15-SP5-CHOST-BYOS-GCE-2023-37,Image SLES15-SP5-CHOST-BYOS-SAP-CCloud-2023-37,Image SLES15-SP5-EC2-2023-37,Image SLES15-SP5-EC2-ECS-HVM-2023-37,Image SLES15-SP5-GCE-2023-37,Image SLES15-SP5-HPC-Azure-2023-37,Image SLES15-SP5-HPC-BYOS-Azure-2023-37,Image SLES15-SP5-HPC-BYOS-EC2-2023-37,Image SLES15-SP5-HPC-BYOS-GCE-2023-37,Image SLES15-SP5-HPC-EC2-2023-37,Image SLES15-SP5-HPC-GCE-2023-37,Image SLES15-SP5-Hardened-BYOS-Azure-2023-37,Image SLES15-SP5-Hardened-BYOS-EC2-2023-37,Image SLES15-SP5-Hardened-BYOS-GCE-2023-37,Image SLES15-SP5-Micro-5-5-2023-37,Image SLES15-SP5-Micro-5-5-Azure-2023-37,Image SLES15-SP5-Micro-5-5-BYOS-2023-37,Image SLES15-SP5-Micro-5-5-BYOS-Azure-2023-37,Image SLES15-SP5-Micro-5-5-BYOS-EC2-2023-37,Image SLES15-SP5-Micro-5-5-BYOS-GCE-2023-37,Image SLES15-SP5-Micro-5-5-EC2-2023-37,Image SLES15-SP5-Micro-5-5-GCE-2023-37,Image SLES15-SP5-SAP-Azure-2023-37,Image SLES15-SP5-SAP-Azure-LI-BYOS-2023-37,Image SLES15-SP5-SAP-Azure-LI-BYOS-Production-2023-37,Image SLES15-SP5-SAP-Azure-VLI-BYOS-2023-37,Image SLES15-SP5-SAP-Azure-VLI-BYOS-Production-2023-37,Image SLES15-SP5-SAP-BYOS-Azure-2023-37,Image SLES15-SP5-SAP-BYOS-EC2-2023-37,Image SLES15-SP5-SAP-BYOS-GCE-2023-37,Image SLES15-SP5-SAP-EC2-2023-37,Image SLES15-SP5-SAP-GCE-2023-37,Image SLES15-SP5-SAP-Hardened-Azure-2023-37,Image SLES15-SP5-SAP-Hardened-BYOS-Azure-2023-37,Image SLES15-SP5-SAP-Hardened-BYOS-EC2-2023-37,Image SLES15-SP5-SAP-Hardened-BYOS-GCE-2023-37,Image SLES15-SP5-SAP-Hardened-EC2-2023-37,Image SLES15-SP5-SAP-Hardened-GCE-2023-37,Image SLES15-SP5-SAPCAL-Azure-2023-37,Image SLES15-SP5-SAPCAL-EC2-2023-37,Image SLES15-SP5-SAPCAL-GCE-2023-37,SUSE-2023-37,SUSE-SLE-Micro-5.3-2023-37,SUSE-SLE-Module-Basesystem-15-SP3-2023-37,SUSE-SLE-Module-Basesystem-15-SP4-2023-37,SUSE-SLE-Module-Development-Tools-15-SP3-2023-37,SUSE-SLE-Module-Development-Tools-15-SP4-2023-37,SUSE-SLE-Product-HPC-15-SP2-LTSS-2023-37,SUSE-SLE-Product-HPC-15-SP3-ESPOS-2023-37,SUSE-SLE-Product-HPC-15-SP3-LTSS-2023-37,SUSE-SLE-Product-RT-15-SP3-2023-37,SUSE-SLE-Product-SLES-15-SP2-LTSS-2023-37,SUSE-SLE-Product-SLES-15-SP3-LTSS-2023-37,SUSE-SLE-Product-SLES_SAP-15-SP2-2023-37,SUSE-SLE-Product-SLES_SAP-15-SP3-2023-37,SUSE-SLE-Product-SUSE-Manager-Proxy-4.1-2023-37,SUSE-SLE-Product-SUSE-Manager-Proxy-4.2-2023-37,SUSE-SLE-Product-SUSE-Manager-Retail-Branch-Server-4.1-2023-37,SUSE-SLE-Product-SUSE-Manager-Retail-Branch-Server-4.2-2023-37,SUSE-SLE-Product-SUSE-Manager-Server-4.1-2023-37,SUSE-SLE-Product-SUSE-Manager-Server-4.2-2023-37,SUSE-SUSE-MicroOS-5.1-2023-37,SUSE-SUSE-MicroOS-5.2-2023-37,SUSE-Storage-7-2023-37,SUSE-Storage-7.1-2023-37,openSUSE-Leap-Micro-5.2-2023-37,openSUSE-Leap-Micro-5.3-2023-37,openSUSE-SLE-15.4-2023-37",
      "Title": "Patchnames",
      "Type": "Details"
    }
  ],
  "ProductTree": {
    "Relationships": [
      {
        "ProductReference": "ca-certificates-mozilla-prebuilt-2.60-150200.27.1",
        "RelatesToProductReference": "Container bci/bci-busybox:15.4",
        "RelationType": "Default Component Of"
      },
      {
        "ProductReference": "ca-certificates-mozilla-prebuilt-2.60-150200.27.1",
        "RelatesToProductReference": "Container bci/bci-busybox:15.6",
        "RelationType": "Default Component Of"
      },
      {
        "ProductReference": "ca-certificates-mozilla-prebuilt-2.60-150200.27.1",
        "RelatesToProductReference": "Container bci/bci-busybox:latest",
        "RelationType": "Default Component Of"
      },
      {
        "ProductReference": "ca-certificates-mozilla-prebuilt-2.60-150200.27.1",
        "RelatesToProductReference": "Container bci/bci-micro:15.3",
        "RelationType": "Default Component Of"
      },
      {
        "ProductReference": "ca-certificates-mozilla-prebuilt-2.60-150200.27.1",
        "RelatesToProductReference": "Container bci/bci-micro:15.4",
        "RelationType": "Default Component Of"
      },
      {
        "ProductReference": "ca-certificates-mozilla-prebuilt-2.60-150200.27.1",
        "RelatesToProductReference": "Container bci/bci-micro:15.6",
        "RelationType": "Default Component Of"
      },
      {
        "ProductReference": "ca-certificates-mozilla-prebuilt-2.60-150200.27.1",
        "RelatesToProductReference": "Container bci/bci-micro:latest",
        "RelationType": "Default Component Of"
      },
      {
        "ProductReference": "ca-certificates-mozilla-2.60-150200.27.1",
        "RelatesToProductReference": "Container rancher/elemental-operator:latest",
        "RelationType": "Default Component Of"
      },
      {
        "ProductReference": "ca-certificates-mozilla-2.60-150200.27.1",
        "RelatesToProductReference": "Container rancher/seedimage-builder/5.3:latest",
        "RelationType": "Default Component Of"
      },
      {
        "ProductReference": "ca-certificates-mozilla-2.60-150200.27.1",
        "RelatesToProductReference": "Container rancher/seedimage-builder:latest",
        "RelationType": "Default Component Of"
      },
      {
        "ProductReference": "ca-certificates-mozilla-2.60-150200.27.1",
        "RelatesToProductReference": "Container ses/7.1/cephcsi/cephcsi:latest",
        "RelationType": "Default Component Of"
      },
      {
        "ProductReference": "ca-certificates-mozilla-2.60-150200.27.1",
        "RelatesToProductReference": "Container ses/7.1/rook/ceph:latest",
        "RelationType": "Default Component Of"
      },
      {
        "ProductReference": "ca-certificates-mozilla-2.60-150200.27.1",
        "RelatesToProductReference": "Container suse/helm:latest",
        "RelationType": "Default Component Of"
      },
      {
        "ProductReference": "ca-certificates-mozilla-2.60-150200.27.1",
        "RelatesToProductReference": "Container suse/hpc/warewulf4-x86_64/sle-hpc-node:latest",
        "RelationType": "Default Component Of"
      },
      {
        "ProductReference": "ca-certificates-mozilla-2.60-150200.27.1",
        "RelatesToProductReference": "Container suse/ltss/sle15.3/sle15:15.3",
        "RelationType": "Default Component Of"
      },
      {
        "ProductReference": "ca-certificates-mozilla-2.60-150200.27.1",
        "RelatesToProductReference": "Container suse/ltss/sle15.4/sle15:15.4",
        "RelationType": "Default Component Of"
      },
      {
        "ProductReference": "ca-certificates-mozilla-2.60-150200.27.1",
        "RelatesToProductReference": "Container suse/manager/4.3/proxy-salt-broker:latest",
        "RelationType": "Default Component Of"
      },
      {
        "ProductReference": "ca-certificates-mozilla-2.60-150200.27.1",
        "RelatesToProductReference": "Container suse/manager/4.3/proxy-tftpd:latest",
        "RelationType": "Default Component Of"
      },
      {
        "ProductReference": "ca-certificates-mozilla-2.60-150200.27.1",
        "RelatesToProductReference": "Container suse/manager/5.0/x86_64/proxy-salt-broker:latest",
        "RelationType": "Default Component Of"
      },
      {
        "ProductReference": "ca-certificates-mozilla-2.60-150200.27.1",
        "RelatesToProductReference": "Container suse/manager/5.0/x86_64/proxy-tftpd:latest",
        "RelationType": "Default Component Of"
      },
      {
        "ProductReference": "ca-certificates-mozilla-2.60-150200.27.1",
        "RelatesToProductReference": "Container suse/manager/5.0/x86_64/server:latest",
        "RelationType": "Default Component Of"
      },
      {
        "ProductReference": "ca-certificates-mozilla-2.60-150200.27.1",
        "RelatesToProductReference": "Container suse/registry:latest",
        "RelationType": "Default Component Of"
      },
      {
        "ProductReference": "ca-certificates-mozilla-prebuilt-2.60-150200.27.1",
        "RelatesToProductReference": "Container suse/sle-micro-rancher/5.2:latest",
        "RelationType": "Default Component Of"
      },
      {
        "ProductReference": "ca-certificates-mozilla-2.60-150200.27.1",
        "RelatesToProductReference": "Container suse/sle-micro-rancher/5.3:latest",
        "RelationType": "Default Component Of"
      },
      {
        "ProductReference": "ca-certificates-mozilla-2.60-150200.27.1",
        "RelatesToProductReference": "Container suse/sle-micro-rancher/5.4:latest",
        "RelationType": "Default Component Of"
      },
      {
        "ProductReference": "ca-certificates-mozilla-2.60-150200.27.1",
        "RelatesToProductReference": "Container suse/sle-micro/5.1/toolbox:latest",
        "RelationType": "Default Component Of"
      },
      {
        "ProductReference": "ca-certificates-mozilla-2.60-150200.27.1",
        "RelatesToProductReference": "Container suse/sle-micro/5.2/toolbox:latest",
        "RelationType": "Default Component Of"
      },
      {
        "ProductReference": "ca-certificates-mozilla-2.60-150200.27.1",
        "RelatesToProductReference": "Container suse/sle-micro/5.3/toolbox:latest",
        "RelationType": "Default Component Of"
      },
      {
        "ProductReference": "ca-certificates-mozilla-2.60-150200.27.1",
        "RelatesToProductReference": "Container suse/sle-micro/5.4/toolbox:latest",
        "RelationType": "Default Component Of"
      },
      {
        "ProductReference": "ca-certificates-mozilla-2.60-150200.27.1",
        "RelatesToProductReference": "Container suse/sle-micro/base-5.5:latest",
        "RelationType": "Default Component Of"
      },
      {
        "ProductReference": "ca-certificates-mozilla-2.60-150200.27.1",
        "RelatesToProductReference": "Container suse/sle15:15.2",
        "RelationType": "Default Component Of"
      },
      {
        "ProductReference": "ca-certificates-mozilla-2.60-150200.27.1",
        "RelatesToProductReference": "Container suse/sle15:15.3",
        "RelationType": "Default Component Of"
      },
      {
        "ProductReference": "ca-certificates-mozilla-2.60-150200.27.1",
        "RelatesToProductReference": "Container suse/sle15:15.4",
        "RelationType": "Default Component Of"
      },
      {
        "ProductReference": "ca-certificates-mozilla-2.60-150200.27.1",
        "RelatesToProductReference": "Container suse/sle15:15.5",
        "RelationType": "Default Component Of"
      },
      {
        "ProductReference": "ca-certificates-mozilla-2.60-150200.27.1",
        "RelatesToProductReference": "Container suse/sle15:15.6",
        "RelationType": "Default Component Of"
      },
      {
        "ProductReference": "ca-certificates-mozilla-2.60-150200.27.1",
        "RelatesToProductReference": "Image SLES15-SP2-BYOS-Azure",
        "RelationType": "Default Component Of"
      },
      {
        "ProductReference": "ca-certificates-mozilla-2.60-150200.27.1",
        "RelatesToProductReference": "Image SLES15-SP2-HPC-BYOS-Azure",
        "RelationType": "Default Component Of"
      },
      {
        "ProductReference": "ca-certificates-mozilla-2.60-150200.27.1",
        "RelatesToProductReference": "Image SLES15-SP2-SAP-Azure",
        "RelationType": "Default Component Of"
      },
      {
        "ProductReference": "ca-certificates-mozilla-2.60-150200.27.1",
        "RelatesToProductReference": "Image SLES15-SP2-SAP-Azure-LI-BYOS-Production",
        "RelationType": "Default Component Of"
      },
      {
        "ProductReference": "ca-certificates-mozilla-2.60-150200.27.1",
        "RelatesToProductReference": "Image SLES15-SP2-SAP-Azure-VLI-BYOS-Production",
        "RelationType": "Default Component Of"
      },
      {
        "ProductReference": "ca-certificates-mozilla-2.60-150200.27.1",
        "RelatesToProductReference": "Image SLES15-SP2-SAP-BYOS-Azure",
        "RelationType": "Default Component Of"
      },
      {
        "ProductReference": "ca-certificates-mozilla-2.60-150200.27.1",
        "RelatesToProductReference": "Image SLES15-SP2-SAP-BYOS-EC2-HVM",
        "RelationType": "Default Component Of"
      },
      {
        "ProductReference": "ca-certificates-mozilla-2.60-150200.27.1",
        "RelatesToProductReference": "Image SLES15-SP2-SAP-BYOS-GCE",
        "RelationType": "Default Component Of"
      },
      {
        "ProductReference": "ca-certificates-mozilla-2.60-150200.27.1",
        "RelatesToProductReference": "Image SLES15-SP2-SAP-EC2-HVM",
        "RelationType": "Default Component Of"
      },
      {
        "ProductReference": "ca-certificates-mozilla-2.60-150200.27.1",
        "RelatesToProductReference": "Image SLES15-SP2-SAP-GCE",
        "RelationType": "Default Component Of"
      },
      {
        "ProductReference": "ca-certificates-mozilla-2.60-150200.27.1",
        "RelatesToProductReference": "Image SLES15-SP3-BYOS-Azure",
        "RelationType": "Default Component Of"
      },
      {
        "ProductReference": "ca-certificates-mozilla-2.60-150200.27.1",
        "RelatesToProductReference": "Image SLES15-SP3-CHOST-BYOS-Aliyun",
        "RelationType": "Default Component Of"
      },
      {
        "ProductReference": "ca-certificates-mozilla-2.60-150200.27.1",
        "RelatesToProductReference": "Image SLES15-SP3-CHOST-BYOS-Azure",
        "RelationType": "Default Component Of"
      },
      {
        "ProductReference": "ca-certificates-mozilla-2.60-150200.27.1",
        "RelatesToProductReference": "Image SLES15-SP3-CHOST-BYOS-EC2",
        "RelationType": "Default Component Of"
      },
      {
        "ProductReference": "ca-certificates-mozilla-2.60-150200.27.1",
        "RelatesToProductReference": "Image SLES15-SP3-CHOST-BYOS-GCE",
        "RelationType": "Default Component Of"
      },
      {
        "ProductReference": "ca-certificates-mozilla-2.60-150200.27.1",
        "RelatesToProductReference": "Image SLES15-SP3-CHOST-BYOS-SAP-CCloud",
        "RelationType": "Default Component Of"
      },
      {
        "ProductReference": "ca-certificates-mozilla-2.60-150200.27.1",
        "RelatesToProductReference": "Image SLES15-SP3-HPC-BYOS-Azure",
        "RelationType": "Default Component Of"
      },
      {
        "ProductReference": "ca-certificates-mozilla-2.60-150200.27.1",
        "RelatesToProductReference": "Image SLES15-SP3-Manager-4-2-Proxy-BYOS-Azure",
        "RelationType": "Default Component Of"
      },
      {
        "ProductReference": "ca-certificates-mozilla-2.60-150200.27.1",
        "RelatesToProductReference": "Image SLES15-SP3-Manager-4-2-Proxy-BYOS-EC2-HVM",
        "RelationType": "Default Component Of"
      },
      {
        "ProductReference": "ca-certificates-mozilla-2.60-150200.27.1",
        "RelatesToProductReference": "Image SLES15-SP3-Manager-4-2-Proxy-BYOS-GCE",
        "RelationType": "Default Component Of"
      },
      {
        "ProductReference": "ca-certificates-mozilla-2.60-150200.27.1",
        "RelatesToProductReference": "Image SLES15-SP3-Manager-4-2-Server-BYOS-Azure",
        "RelationType": "Default Component Of"
      },
      {
        "ProductReference": "ca-certificates-mozilla-2.60-150200.27.1",
        "RelatesToProductReference": "Image SLES15-SP3-Manager-4-2-Server-BYOS-EC2-HVM",
        "RelationType": "Default Component Of"
      },
      {
        "ProductReference": "ca-certificates-mozilla-2.60-150200.27.1",
        "RelatesToProductReference": "Image SLES15-SP3-Manager-4-2-Server-BYOS-GCE",
        "RelationType": "Default Component Of"
      },
      {
        "ProductReference": "ca-certificates-mozilla-2.60-150200.27.1",
        "RelatesToProductReference": "Image SLES15-SP3-Micro-5-1-BYOS-Azure",
        "RelationType": "Default Component Of"
      },
      {
        "ProductReference": "ca-certificates-mozilla-2.60-150200.27.1",
        "RelatesToProductReference": "Image SLES15-SP3-Micro-5-1-BYOS-EC2-HVM",
        "RelationType": "Default Component Of"
      },
      {
        "ProductReference": "ca-certificates-mozilla-2.60-150200.27.1",
        "RelatesToProductReference": "Image SLES15-SP3-Micro-5-1-BYOS-GCE",
        "RelationType": "Default Component Of"
      },
      {
        "ProductReference": "ca-certificates-mozilla-2.60-150200.27.1",
        "RelatesToProductReference": "Image SLES15-SP3-Micro-5-2-BYOS-Azure",
        "RelationType": "Default Component Of"
      },
      {
        "ProductReference": "ca-certificates-mozilla-2.60-150200.27.1",
        "RelatesToProductReference": "Image SLES15-SP3-Micro-5-2-BYOS-EC2-HVM",
        "RelationType": "Default Component Of"
      },
      {
        "ProductReference": "ca-certificates-mozilla-2.60-150200.27.1",
        "RelatesToProductReference": "Image SLES15-SP3-Micro-5-2-BYOS-GCE",
        "RelationType": "Default Component Of"
      },
      {
        "ProductReference": "ca-certificates-mozilla-2.60-150200.27.1",
        "RelatesToProductReference": "Image SLES15-SP3-SAP-Azure-LI-BYOS-Production",
        "RelationType": "Default Component Of"
      },
      {
        "ProductReference": "ca-certificates-mozilla-2.60-150200.27.1",
        "RelatesToProductReference": "Image SLES15-SP3-SAP-Azure-VLI-BYOS-Production",
        "RelationType": "Default Component Of"
      },
      {
        "ProductReference": "ca-certificates-mozilla-2.60-150200.27.1",
        "RelatesToProductReference": "Image SLES15-SP3-SAP-BYOS-Azure",
        "RelationType": "Default Component Of"
      },
      {
        "ProductReference": "ca-certificates-mozilla-2.60-150200.27.1",
        "RelatesToProductReference": "Image SLES15-SP3-SAP-BYOS-EC2-HVM",
        "RelationType": "Default Component Of"
      },
      {
        "ProductReference": "ca-certificates-mozilla-2.60-150200.27.1",
        "RelatesToProductReference": "Image SLES15-SP3-SAP-BYOS-GCE",
        "RelationType": "Default Component Of"
      },
      {
        "ProductReference": "ca-certificates-mozilla-2.60-150200.27.1",
        "RelatesToProductReference": "Image SLES15-SP3-SAPCAL-Azure",
        "RelationType": "Default Component Of"
      },
      {
        "ProductReference": "ca-certificates-mozilla-2.60-150200.27.1",
        "RelatesToProductReference": "Image SLES15-SP4",
        "RelationType": "Default Component Of"
      },
      {
        "ProductReference": "ca-certificates-mozilla-2.60-150200.27.1",
        "RelatesToProductReference": "Image SLES15-SP4-Azure-Basic",
        "RelationType": "Default Component Of"
      },
      {
        "ProductReference": "ca-certificates-mozilla-2.60-150200.27.1",
        "RelatesToProductReference": "Image SLES15-SP4-Azure-Standard",
        "RelationType": "Default Component Of"
      },
      {
        "ProductReference": "ca-certificates-mozilla-2.60-150200.27.1",
        "RelatesToProductReference": "Image SLES15-SP4-BYOS",
        "RelationType": "Default Component Of"
      },
      {
        "ProductReference": "ca-certificates-mozilla-2.60-150200.27.1",
        "RelatesToProductReference": "Image SLES15-SP4-BYOS-Azure",
        "RelationType": "Default Component Of"
      },
      {
        "ProductReference": "ca-certificates-mozilla-2.60-150200.27.1",
        "RelatesToProductReference": "Image SLES15-SP4-BYOS-EC2",
        "RelationType": "Default Component Of"
      },
      {
        "ProductReference": "ca-certificates-mozilla-2.60-150200.27.1",
        "RelatesToProductReference": "Image SLES15-SP4-BYOS-GCE",
        "RelationType": "Default Component Of"
      },
      {
        "ProductReference": "ca-certificates-mozilla-2.60-150200.27.1",
        "RelatesToProductReference": "Image SLES15-SP4-CHOST-BYOS",
        "RelationType": "Default Component Of"
      },
      {
        "ProductReference": "ca-certificates-mozilla-2.60-150200.27.1",
        "RelatesToProductReference": "Image SLES15-SP4-CHOST-BYOS-Aliyun",
        "RelationType": "Default Component Of"
      },
      {
        "ProductReference": "ca-certificates-mozilla-2.60-150200.27.1",
        "RelatesToProductReference": "Image SLES15-SP4-CHOST-BYOS-Azure",
        "RelationType": "Default Component Of"
      },
      {
        "ProductReference": "ca-certificates-mozilla-2.60-150200.27.1",
        "RelatesToProductReference": "Image SLES15-SP4-CHOST-BYOS-EC2",
        "RelationType": "Default Component Of"
      },
      {
        "ProductReference": "ca-certificates-mozilla-2.60-150200.27.1",
        "RelatesToProductReference": "Image SLES15-SP4-CHOST-BYOS-GCE",
        "RelationType": "Default Component Of"
      },
      {
        "ProductReference": "ca-certificates-mozilla-2.60-150200.27.1",
        "RelatesToProductReference": "Image SLES15-SP4-CHOST-BYOS-SAP-CCloud",
        "RelationType": "Default Component Of"
      },
      {
        "ProductReference": "ca-certificates-mozilla-2.60-150200.27.1",
        "RelatesToProductReference": "Image SLES15-SP4-EC2",
        "RelationType": "Default Component Of"
      },
      {
        "ProductReference": "ca-certificates-mozilla-2.60-150200.27.1",
        "RelatesToProductReference": "Image SLES15-SP4-EC2-ECS-HVM",
        "RelationType": "Default Component Of"
      },
      {
        "ProductReference": "ca-certificates-mozilla-2.60-150200.27.1",
        "RelatesToProductReference": "Image SLES15-SP4-GCE",
        "RelationType": "Default Component Of"
      },
      {
        "ProductReference": "ca-certificates-mozilla-2.60-150200.27.1",
        "RelatesToProductReference": "Image SLES15-SP4-HPC",
        "RelationType": "Default Component Of"
      },
      {
        "ProductReference": "ca-certificates-mozilla-2.60-150200.27.1",
        "RelatesToProductReference": "Image SLES15-SP4-HPC-Azure",
        "RelationType": "Default Component Of"
      },
      {
        "ProductReference": "ca-certificates-mozilla-2.60-150200.27.1",
        "RelatesToProductReference": "Image SLES15-SP4-HPC-BYOS",
        "RelationType": "Default Component Of"
      },
      {
        "ProductReference": "ca-certificates-mozilla-2.60-150200.27.1",
        "RelatesToProductReference": "Image SLES15-SP4-HPC-BYOS-Azure",
        "RelationType": "Default Component Of"
      },
      {
        "ProductReference": "ca-certificates-mozilla-2.60-150200.27.1",
        "RelatesToProductReference": "Image SLES15-SP4-HPC-BYOS-EC2",
        "RelationType": "Default Component Of"
      },
      {
        "ProductReference": "ca-certificates-mozilla-2.60-150200.27.1",
        "RelatesToProductReference": "Image SLES15-SP4-HPC-BYOS-GCE",
        "RelationType": "Default Component Of"
      },
      {
        "ProductReference": "ca-certificates-mozilla-2.60-150200.27.1",
        "RelatesToProductReference": "Image SLES15-SP4-HPC-EC2",
        "RelationType": "Default Component Of"
      },
      {
        "ProductReference": "ca-certificates-mozilla-2.60-150200.27.1",
        "RelatesToProductReference": "Image SLES15-SP4-HPC-GCE",
        "RelationType": "Default Component Of"
      },
      {
        "ProductReference": "ca-certificates-mozilla-2.60-150200.27.1",
        "RelatesToProductReference": "Image SLES15-SP4-Hardened-BYOS",
        "RelationType": "Default Component Of"
      },
      {
        "ProductReference": "ca-certificates-mozilla-2.60-150200.27.1",
        "RelatesToProductReference": "Image SLES15-SP4-Hardened-BYOS-Azure",
        "RelationType": "Default Component Of"
      },
      {
        "ProductReference": "ca-certificates-mozilla-2.60-150200.27.1",
        "RelatesToProductReference": "Image SLES15-SP4-Hardened-BYOS-EC2",
        "RelationType": "Default Component Of"
      },
      {
        "ProductReference": "ca-certificates-mozilla-2.60-150200.27.1",
        "RelatesToProductReference": "Image SLES15-SP4-Hardened-BYOS-GCE",
        "RelationType": "Default Component Of"
      },
      {
        "ProductReference": "ca-certificates-mozilla-2.60-150200.27.1",
        "RelatesToProductReference": "Image SLES15-SP4-Manager-Proxy-4-3-BYOS",
        "RelationType": "Default Component Of"
      },
      {
        "ProductReference": "ca-certificates-mozilla-2.60-150200.27.1",
        "RelatesToProductReference": "Image SLES15-SP4-Manager-Proxy-4-3-BYOS-Azure",
        "RelationType": "Default Component Of"
      },
      {
        "ProductReference": "ca-certificates-mozilla-2.60-150200.27.1",
        "RelatesToProductReference": "Image SLES15-SP4-Manager-Proxy-4-3-BYOS-EC2",
        "RelationType": "Default Component Of"
      },
      {
        "ProductReference": "ca-certificates-mozilla-2.60-150200.27.1",
        "RelatesToProductReference": "Image SLES15-SP4-Manager-Proxy-4-3-BYOS-GCE",
        "RelationType": "Default Component Of"
      },
      {
        "ProductReference": "ca-certificates-mozilla-2.60-150200.27.1",
        "RelatesToProductReference": "Image SLES15-SP4-Manager-Server-4-3",
        "RelationType": "Default Component Of"
      },
      {
        "ProductReference": "ca-certificates-mozilla-2.60-150200.27.1",
        "RelatesToProductReference": "Image SLES15-SP4-Manager-Server-4-3-Azure-llc",
        "RelationType": "Default Component Of"
      },
      {
        "ProductReference": "ca-certificates-mozilla-2.60-150200.27.1",
        "RelatesToProductReference": "Image SLES15-SP4-Manager-Server-4-3-Azure-ltd",
        "RelationType": "Default Component Of"
      },
      {
        "ProductReference": "ca-certificates-mozilla-2.60-150200.27.1",
        "RelatesToProductReference": "Image SLES15-SP4-Manager-Server-4-3-BYOS",
        "RelationType": "Default Component Of"
      },
      {
        "ProductReference": "ca-certificates-mozilla-2.60-150200.27.1",
        "RelatesToProductReference": "Image SLES15-SP4-Manager-Server-4-3-BYOS-Azure",
        "RelationType": "Default Component Of"
      },
      {
        "ProductReference": "ca-certificates-mozilla-2.60-150200.27.1",
        "RelatesToProductReference": "Image SLES15-SP4-Manager-Server-4-3-BYOS-EC2",
        "RelationType": "Default Component Of"
      },
      {
        "ProductReference": "ca-certificates-mozilla-2.60-150200.27.1",
        "RelatesToProductReference": "Image SLES15-SP4-Manager-Server-4-3-BYOS-GCE",
        "RelationType": "Default Component Of"
      },
      {
        "ProductReference": "ca-certificates-mozilla-2.60-150200.27.1",
        "RelatesToProductReference": "Image SLES15-SP4-Manager-Server-4-3-EC2-llc",
        "RelationType": "Default Component Of"
      },
      {
        "ProductReference": "ca-certificates-mozilla-2.60-150200.27.1",
        "RelatesToProductReference": "Image SLES15-SP4-Manager-Server-4-3-EC2-ltd",
        "RelationType": "Default Component Of"
      },
      {
        "ProductReference": "ca-certificates-mozilla-2.60-150200.27.1",
        "RelatesToProductReference": "Image SLES15-SP4-Micro-5-3",
        "RelationType": "Default Component Of"
      },
      {
        "ProductReference": "ca-certificates-mozilla-2.60-150200.27.1",
        "RelatesToProductReference": "Image SLES15-SP4-Micro-5-3-Azure",
        "RelationType": "Default Component Of"
      },
      {
        "ProductReference": "ca-certificates-mozilla-2.60-150200.27.1",
        "RelatesToProductReference": "Image SLES15-SP4-Micro-5-3-BYOS",
        "RelationType": "Default Component Of"
      },
      {
        "ProductReference": "ca-certificates-mozilla-2.60-150200.27.1",
        "RelatesToProductReference": "Image SLES15-SP4-Micro-5-3-BYOS-Azure",
        "RelationType": "Default Component Of"
      },
      {
        "ProductReference": "ca-certificates-mozilla-2.60-150200.27.1",
        "RelatesToProductReference": "Image SLES15-SP4-Micro-5-3-BYOS-EC2",
        "RelationType": "Default Component Of"
      },
      {
        "ProductReference": "ca-certificates-mozilla-2.60-150200.27.1",
        "RelatesToProductReference": "Image SLES15-SP4-Micro-5-3-BYOS-GCE",
        "RelationType": "Default Component Of"
      },
      {
        "ProductReference": "ca-certificates-mozilla-2.60-150200.27.1",
        "RelatesToProductReference": "Image SLES15-SP4-Micro-5-3-EC2",
        "RelationType": "Default Component Of"
      },
      {
        "ProductReference": "ca-certificates-mozilla-2.60-150200.27.1",
        "RelatesToProductReference": "Image SLES15-SP4-Micro-5-3-GCE",
        "RelationType": "Default Component Of"
      },
      {
        "ProductReference": "ca-certificates-mozilla-2.60-150200.27.1",
        "RelatesToProductReference": "Image SLES15-SP4-Micro-5-4",
        "RelationType": "Default Component Of"
      },
      {
        "ProductReference": "ca-certificates-mozilla-2.60-150200.27.1",
        "RelatesToProductReference": "Image SLES15-SP4-Micro-5-4-Azure",
        "RelationType": "Default Component Of"
      },
      {
        "ProductReference": "ca-certificates-mozilla-2.60-150200.27.1",
        "RelatesToProductReference": "Image SLES15-SP4-Micro-5-4-BYOS",
        "RelationType": "Default Component Of"
      },
      {
        "ProductReference": "ca-certificates-mozilla-2.60-150200.27.1",
        "RelatesToProductReference": "Image SLES15-SP4-Micro-5-4-BYOS-Azure",
        "RelationType": "Default Component Of"
      },
      {
        "ProductReference": "ca-certificates-mozilla-2.60-150200.27.1",
        "RelatesToProductReference": "Image SLES15-SP4-Micro-5-4-BYOS-EC2",
        "RelationType": "Default Component Of"
      },
      {
        "ProductReference": "ca-certificates-mozilla-2.60-150200.27.1",
        "RelatesToProductReference": "Image SLES15-SP4-Micro-5-4-BYOS-GCE",
        "RelationType": "Default Component Of"
      },
      {
        "ProductReference": "ca-certificates-mozilla-2.60-150200.27.1",
        "RelatesToProductReference": "Image SLES15-SP4-Micro-5-4-EC2",
        "RelationType": "Default Component Of"
      },
      {
        "ProductReference": "ca-certificates-mozilla-2.60-150200.27.1",
        "RelatesToProductReference": "Image SLES15-SP4-Micro-5-4-GCE",
        "RelationType": "Default Component Of"
      },
      {
        "ProductReference": "ca-certificates-mozilla-2.60-150200.27.1",
        "RelatesToProductReference": "Image SLES15-SP4-SAP",
        "RelationType": "Default Component Of"
      },
      {
        "ProductReference": "ca-certificates-mozilla-2.60-150200.27.1",
        "RelatesToProductReference": "Image SLES15-SP4-SAP-Azure",
        "RelationType": "Default Component Of"
      },
      {
        "ProductReference": "ca-certificates-mozilla-2.60-150200.27.1",
        "RelatesToProductReference": "Image SLES15-SP4-SAP-Azure-LI-BYOS",
        "RelationType": "Default Component Of"
      },
      {
        "ProductReference": "ca-certificates-mozilla-2.60-150200.27.1",
        "RelatesToProductReference": "Image SLES15-SP4-SAP-Azure-LI-BYOS-Production",
        "RelationType": "Default Component Of"
      },
      {
        "ProductReference": "ca-certificates-mozilla-2.60-150200.27.1",
        "RelatesToProductReference": "Image SLES15-SP4-SAP-Azure-VLI-BYOS",
        "RelationType": "Default Component Of"
      },
      {
        "ProductReference": "ca-certificates-mozilla-2.60-150200.27.1",
        "RelatesToProductReference": "Image SLES15-SP4-SAP-Azure-VLI-BYOS-Production",
        "RelationType": "Default Component Of"
      },
      {
        "ProductReference": "ca-certificates-mozilla-2.60-150200.27.1",
        "RelatesToProductReference": "Image SLES15-SP4-SAP-BYOS",
        "RelationType": "Default Component Of"
      },
      {
        "ProductReference": "ca-certificates-mozilla-2.60-150200.27.1",
        "RelatesToProductReference": "Image SLES15-SP4-SAP-BYOS-Azure",
        "RelationType": "Default Component Of"
      },
      {
        "ProductReference": "ca-certificates-mozilla-2.60-150200.27.1",
        "RelatesToProductReference": "Image SLES15-SP4-SAP-BYOS-EC2",
        "RelationType": "Default Component Of"
      },
      {
        "ProductReference": "ca-certificates-mozilla-2.60-150200.27.1",
        "RelatesToProductReference": "Image SLES15-SP4-SAP-BYOS-GCE",
        "RelationType": "Default Component Of"
      },
      {
        "ProductReference": "ca-certificates-mozilla-2.60-150200.27.1",
        "RelatesToProductReference": "Image SLES15-SP4-SAP-EC2",
        "RelationType": "Default Component Of"
      },
      {
        "ProductReference": "ca-certificates-mozilla-2.60-150200.27.1",
        "RelatesToProductReference": "Image SLES15-SP4-SAP-GCE",
        "RelationType": "Default Component Of"
      },
      {
        "ProductReference": "ca-certificates-mozilla-2.60-150200.27.1",
        "RelatesToProductReference": "Image SLES15-SP4-SAP-Hardened",
        "RelationType": "Default Component Of"
      },
      {
        "ProductReference": "ca-certificates-mozilla-2.60-150200.27.1",
        "RelatesToProductReference": "Image SLES15-SP4-SAP-Hardened-Azure",
        "RelationType": "Default Component Of"
      },
      {
        "ProductReference": "ca-certificates-mozilla-2.60-150200.27.1",
        "RelatesToProductReference": "Image SLES15-SP4-SAP-Hardened-BYOS",
        "RelationType": "Default Component Of"
      },
      {
        "ProductReference": "ca-certificates-mozilla-2.60-150200.27.1",
        "RelatesToProductReference": "Image SLES15-SP4-SAP-Hardened-BYOS-Azure",
        "RelationType": "Default Component Of"
      },
      {
        "ProductReference": "ca-certificates-mozilla-2.60-150200.27.1",
        "RelatesToProductReference": "Image SLES15-SP4-SAP-Hardened-BYOS-EC2",
        "RelationType": "Default Component Of"
      },
      {
        "ProductReference": "ca-certificates-mozilla-2.60-150200.27.1",
        "RelatesToProductReference": "Image SLES15-SP4-SAP-Hardened-BYOS-GCE",
        "RelationType": "Default Component Of"
      },
      {
        "ProductReference": "ca-certificates-mozilla-2.60-150200.27.1",
        "RelatesToProductReference": "Image SLES15-SP4-SAP-Hardened-EC2",
        "RelationType": "Default Component Of"
      },
      {
        "ProductReference": "ca-certificates-mozilla-2.60-150200.27.1",
        "RelatesToProductReference": "Image SLES15-SP4-SAP-Hardened-GCE",
        "RelationType": "Default Component Of"
      },
      {
        "ProductReference": "ca-certificates-mozilla-2.60-150200.27.1",
        "RelatesToProductReference": "Image SLES15-SP4-SAPCAL",
        "RelationType": "Default Component Of"
      },
      {
        "ProductReference": "ca-certificates-mozilla-2.60-150200.27.1",
        "RelatesToProductReference": "Image SLES15-SP4-SAPCAL-Azure",
        "RelationType": "Default Component Of"
      },
      {
        "ProductReference": "ca-certificates-mozilla-2.60-150200.27.1",
        "RelatesToProductReference": "Image SLES15-SP4-SAPCAL-EC2",
        "RelationType": "Default Component Of"
      },
      {
        "ProductReference": "ca-certificates-mozilla-2.60-150200.27.1",
        "RelatesToProductReference": "Image SLES15-SP4-SAPCAL-GCE",
        "RelationType": "Default Component Of"
      },
      {
        "ProductReference": "ca-certificates-mozilla-2.60-150200.27.1",
        "RelatesToProductReference": "Image SLES15-SP4-SUSE-Rancher-Setup-BYOS",
        "RelationType": "Default Component Of"
      },
      {
        "ProductReference": "ca-certificates-mozilla-2.60-150200.27.1",
        "RelatesToProductReference": "Image SLES15-SP4-SUSE-Rancher-Setup-BYOS-EC2",
        "RelationType": "Default Component Of"
      },
      {
        "ProductReference": "ca-certificates-mozilla-2.60-150200.27.1",
        "RelatesToProductReference": "Image SLES15-SP5-Azure-Basic",
        "RelationType": "Default Component Of"
      },
      {
        "ProductReference": "ca-certificates-mozilla-2.60-150200.27.1",
        "RelatesToProductReference": "Image SLES15-SP5-Azure-Standard",
        "RelationType": "Default Component Of"
      },
      {
        "ProductReference": "ca-certificates-mozilla-2.60-150200.27.1",
        "RelatesToProductReference": "Image SLES15-SP5-BYOS-Azure",
        "RelationType": "Default Component Of"
      },
      {
        "ProductReference": "ca-certificates-mozilla-2.60-150200.27.1",
        "RelatesToProductReference": "Image SLES15-SP5-BYOS-EC2",
        "RelationType": "Default Component Of"
      },
      {
        "ProductReference": "ca-certificates-mozilla-2.60-150200.27.1",
        "RelatesToProductReference": "Image SLES15-SP5-BYOS-GCE",
        "RelationType": "Default Component Of"
      },
      {
        "ProductReference": "ca-certificates-mozilla-2.60-150200.27.1",
        "RelatesToProductReference": "Image SLES15-SP5-CHOST-BYOS-Aliyun",
        "RelationType": "Default Component Of"
      },
      {
        "ProductReference": "ca-certificates-mozilla-2.60-150200.27.1",
        "RelatesToProductReference": "Image SLES15-SP5-CHOST-BYOS-Azure",
        "RelationType": "Default Component Of"
      },
      {
        "ProductReference": "ca-certificates-mozilla-2.60-150200.27.1",
        "RelatesToProductReference": "Image SLES15-SP5-CHOST-BYOS-EC2",
        "RelationType": "Default Component Of"
      },
      {
        "ProductReference": "ca-certificates-mozilla-2.60-150200.27.1",
        "RelatesToProductReference": "Image SLES15-SP5-CHOST-BYOS-GCE",
        "RelationType": "Default Component Of"
      },
      {
        "ProductReference": "ca-certificates-mozilla-2.60-150200.27.1",
        "RelatesToProductReference": "Image SLES15-SP5-CHOST-BYOS-SAP-CCloud",
        "RelationType": "Default Component Of"
      },
      {
        "ProductReference": "ca-certificates-mozilla-2.60-150200.27.1",
        "RelatesToProductReference": "Image SLES15-SP5-EC2",
        "RelationType": "Default Component Of"
      },
      {
        "ProductReference": "ca-certificates-mozilla-2.60-150200.27.1",
        "RelatesToProductReference": "Image SLES15-SP5-EC2-ECS-HVM",
        "RelationType": "Default Component Of"
      },
      {
        "ProductReference": "ca-certificates-mozilla-2.60-150200.27.1",
        "RelatesToProductReference": "Image SLES15-SP5-GCE",
        "RelationType": "Default Component Of"
      },
      {
        "ProductReference": "ca-certificates-mozilla-2.60-150200.27.1",
        "RelatesToProductReference": "Image SLES15-SP5-HPC-Azure",
        "RelationType": "Default Component Of"
      },
      {
        "ProductReference": "ca-certificates-mozilla-2.60-150200.27.1",
        "RelatesToProductReference": "Image SLES15-SP5-HPC-BYOS-Azure",
        "RelationType": "Default Component Of"
      },
      {
        "ProductReference": "ca-certificates-mozilla-2.60-150200.27.1",
        "RelatesToProductReference": "Image SLES15-SP5-HPC-BYOS-EC2",
        "RelationType": "Default Component Of"
      },
      {
        "ProductReference": "ca-certificates-mozilla-2.60-150200.27.1",
        "RelatesToProductReference": "Image SLES15-SP5-HPC-BYOS-GCE",
        "RelationType": "Default Component Of"
      },
      {
        "ProductReference": "ca-certificates-mozilla-2.60-150200.27.1",
        "RelatesToProductReference": "Image SLES15-SP5-HPC-EC2",
        "RelationType": "Default Component Of"
      },
      {
        "ProductReference": "ca-certificates-mozilla-2.60-150200.27.1",
        "RelatesToProductReference": "Image SLES15-SP5-HPC-GCE",
        "RelationType": "Default Component Of"
      },
      {
        "ProductReference": "ca-certificates-mozilla-2.60-150200.27.1",
        "RelatesToProductReference": "Image SLES15-SP5-Hardened-BYOS-Azure",
        "RelationType": "Default Component Of"
      },
      {
        "ProductReference": "ca-certificates-mozilla-2.60-150200.27.1",
        "RelatesToProductReference": "Image SLES15-SP5-Hardened-BYOS-EC2",
        "RelationType": "Default Component Of"
      },
      {
        "ProductReference": "ca-certificates-mozilla-2.60-150200.27.1",
        "RelatesToProductReference": "Image SLES15-SP5-Hardened-BYOS-GCE",
        "RelationType": "Default Component Of"
      },
      {
        "ProductReference": "ca-certificates-mozilla-2.60-150200.27.1",
        "RelatesToProductReference": "Image SLES15-SP5-Micro-5-5",
        "RelationType": "Default Component Of"
      },
      {
        "ProductReference": "ca-certificates-mozilla-2.60-150200.27.1",
        "RelatesToProductReference": "Image SLES15-SP5-Micro-5-5-Azure",
        "RelationType": "Default Component Of"
      },
      {
        "ProductReference": "ca-certificates-mozilla-2.60-150200.27.1",
        "RelatesToProductReference": "Image SLES15-SP5-Micro-5-5-BYOS",
        "RelationType": "Default Component Of"
      },
      {
        "ProductReference": "ca-certificates-mozilla-2.60-150200.27.1",
        "RelatesToProductReference": "Image SLES15-SP5-Micro-5-5-BYOS-Azure",
        "RelationType": "Default Component Of"
      },
      {
        "ProductReference": "ca-certificates-mozilla-2.60-150200.27.1",
        "RelatesToProductReference": "Image SLES15-SP5-Micro-5-5-BYOS-EC2",
        "RelationType": "Default Component Of"
      },
      {
        "ProductReference": "ca-certificates-mozilla-2.60-150200.27.1",
        "RelatesToProductReference": "Image SLES15-SP5-Micro-5-5-BYOS-GCE",
        "RelationType": "Default Component Of"
      },
      {
        "ProductReference": "ca-certificates-mozilla-2.60-150200.27.1",
        "RelatesToProductReference": "Image SLES15-SP5-Micro-5-5-EC2",
        "RelationType": "Default Component Of"
      },
      {
        "ProductReference": "ca-certificates-mozilla-2.60-150200.27.1",
        "RelatesToProductReference": "Image SLES15-SP5-Micro-5-5-GCE",
        "RelationType": "Default Component Of"
      },
      {
        "ProductReference": "ca-certificates-mozilla-2.60-150200.27.1",
        "RelatesToProductReference": "Image SLES15-SP5-SAP-Azure",
        "RelationType": "Default Component Of"
      },
      {
        "ProductReference": "ca-certificates-mozilla-2.60-150200.27.1",
        "RelatesToProductReference": "Image SLES15-SP5-SAP-Azure-LI-BYOS",
        "RelationType": "Default Component Of"
      },
      {
        "ProductReference": "ca-certificates-mozilla-2.60-150200.27.1",
        "RelatesToProductReference": "Image SLES15-SP5-SAP-Azure-LI-BYOS-Production",
        "RelationType": "Default Component Of"
      },
      {
        "ProductReference": "ca-certificates-mozilla-2.60-150200.27.1",
        "RelatesToProductReference": "Image SLES15-SP5-SAP-Azure-VLI-BYOS",
        "RelationType": "Default Component Of"
      },
      {
        "ProductReference": "ca-certificates-mozilla-2.60-150200.27.1",
        "RelatesToProductReference": "Image SLES15-SP5-SAP-Azure-VLI-BYOS-Production",
        "RelationType": "Default Component Of"
      },
      {
        "ProductReference": "ca-certificates-mozilla-2.60-150200.27.1",
        "RelatesToProductReference": "Image SLES15-SP5-SAP-BYOS-Azure",
        "RelationType": "Default Component Of"
      },
      {
        "ProductReference": "ca-certificates-mozilla-2.60-150200.27.1",
        "RelatesToProductReference": "Image SLES15-SP5-SAP-BYOS-EC2",
        "RelationType": "Default Component Of"
      },
      {
        "ProductReference": "ca-certificates-mozilla-2.60-150200.27.1",
        "RelatesToProductReference": "Image SLES15-SP5-SAP-BYOS-GCE",
        "RelationType": "Default Component Of"
      },
      {
        "ProductReference": "ca-certificates-mozilla-2.60-150200.27.1",
        "RelatesToProductReference": "Image SLES15-SP5-SAP-EC2",
        "RelationType": "Default Component Of"
      },
      {
        "ProductReference": "ca-certificates-mozilla-2.60-150200.27.1",
        "RelatesToProductReference": "Image SLES15-SP5-SAP-GCE",
        "RelationType": "Default Component Of"
      },
      {
        "ProductReference": "ca-certificates-mozilla-2.60-150200.27.1",
        "RelatesToProductReference": "Image SLES15-SP5-SAP-Hardened-Azure",
        "RelationType": "Default Component Of"
      },
      {
        "ProductReference": "ca-certificates-mozilla-2.60-150200.27.1",
        "RelatesToProductReference": "Image SLES15-SP5-SAP-Hardened-BYOS-Azure",
        "RelationType": "Default Component Of"
      },
      {
        "ProductReference": "ca-certificates-mozilla-2.60-150200.27.1",
        "RelatesToProductReference": "Image SLES15-SP5-SAP-Hardened-BYOS-EC2",
        "RelationType": "Default Component Of"
      },
      {
        "ProductReference": "ca-certificates-mozilla-2.60-150200.27.1",
        "RelatesToProductReference": "Image SLES15-SP5-SAP-Hardened-BYOS-GCE",
        "RelationType": "Default Component Of"
      },
      {
        "ProductReference": "ca-certificates-mozilla-2.60-150200.27.1",
        "RelatesToProductReference": "Image SLES15-SP5-SAP-Hardened-EC2",
        "RelationType": "Default Component Of"
      },
      {
        "ProductReference": "ca-certificates-mozilla-2.60-150200.27.1",
        "RelatesToProductReference": "Image SLES15-SP5-SAP-Hardened-GCE",
        "RelationType": "Default Component Of"
      },
      {
        "ProductReference": "ca-certificates-mozilla-2.60-150200.27.1",
        "RelatesToProductReference": "Image SLES15-SP5-SAPCAL-Azure",
        "RelationType": "Default Component Of"
      },
      {
        "ProductReference": "ca-certificates-mozilla-2.60-150200.27.1",
        "RelatesToProductReference": "Image SLES15-SP5-SAPCAL-EC2",
        "RelationType": "Default Component Of"
      },
      {
        "ProductReference": "ca-certificates-mozilla-2.60-150200.27.1",
        "RelatesToProductReference": "Image SLES15-SP5-SAPCAL-GCE",
        "RelationType": "Default Component Of"
      },
      {
        "ProductReference": "ca-certificates-mozilla-2.60-150200.27.1",
        "RelatesToProductReference": "SUSE Enterprise Storage 7",
        "RelationType": "Default Component Of"
      },
      {
        "ProductReference": "ca-certificates-mozilla-prebuilt-2.60-150200.27.1",
        "RelatesToProductReference": "SUSE Enterprise Storage 7",
        "RelationType": "Default Component Of"
      },
      {
        "ProductReference": "ca-certificates-mozilla-2.60-150200.27.1",
        "RelatesToProductReference": "SUSE Enterprise Storage 7.1",
        "RelationType": "Default Component Of"
      },
      {
        "ProductReference": "ca-certificates-mozilla-prebuilt-2.60-150200.27.1",
        "RelatesToProductReference": "SUSE Enterprise Storage 7.1",
        "RelationType": "Default Component Of"
      },
      {
        "ProductReference": "ca-certificates-mozilla-2.60-150200.27.1",
        "RelatesToProductReference": "SUSE Linux Enterprise High Performance Computing 15 SP2-LTSS",
        "RelationType": "Default Component Of"
      },
      {
        "ProductReference": "ca-certificates-mozilla-prebuilt-2.60-150200.27.1",
        "RelatesToProductReference": "SUSE Linux Enterprise High Performance Computing 15 SP2-LTSS",
        "RelationType": "Default Component Of"
      },
      {
        "ProductReference": "ca-certificates-mozilla-2.60-150200.27.1",
        "RelatesToProductReference": "SUSE Linux Enterprise High Performance Computing 15 SP3-ESPOS",
        "RelationType": "Default Component Of"
      },
      {
        "ProductReference": "ca-certificates-mozilla-prebuilt-2.60-150200.27.1",
        "RelatesToProductReference": "SUSE Linux Enterprise High Performance Computing 15 SP3-ESPOS",
        "RelationType": "Default Component Of"
      },
      {
        "ProductReference": "ca-certificates-mozilla-2.60-150200.27.1",
        "RelatesToProductReference": "SUSE Linux Enterprise High Performance Computing 15 SP3-LTSS",
        "RelationType": "Default Component Of"
      },
      {
        "ProductReference": "ca-certificates-mozilla-prebuilt-2.60-150200.27.1",
        "RelatesToProductReference": "SUSE Linux Enterprise High Performance Computing 15 SP3-LTSS",
        "RelationType": "Default Component Of"
      },
      {
        "ProductReference": "ca-certificates-mozilla-2.60-150200.27.1",
        "RelatesToProductReference": "SUSE Linux Enterprise Micro 5.1",
        "RelationType": "Default Component Of"
      },
      {
        "ProductReference": "ca-certificates-mozilla-2.60-150200.27.1",
        "RelatesToProductReference": "SUSE Linux Enterprise Micro 5.2",
        "RelationType": "Default Component Of"
      },
      {
        "ProductReference": "ca-certificates-mozilla-prebuilt-2.60-150200.27.1",
        "RelatesToProductReference": "SUSE Linux Enterprise Micro 5.2",
        "RelationType": "Default Component Of"
      },
      {
        "ProductReference": "ca-certificates-mozilla-2.60-150200.27.1",
        "RelatesToProductReference": "SUSE Linux Enterprise Micro 5.3",
        "RelationType": "Default Component Of"
      },
      {
        "ProductReference": "ca-certificates-mozilla-2.60-150200.27.1",
        "RelatesToProductReference": "SUSE Linux Enterprise Module for Basesystem 15 SP3",
        "RelationType": "Default Component Of"
      },
      {
        "ProductReference": "ca-certificates-mozilla-2.60-150200.27.1",
        "RelatesToProductReference": "SUSE Linux Enterprise Module for Basesystem 15 SP4",
        "RelationType": "Default Component Of"
      },
      {
        "ProductReference": "ca-certificates-mozilla-prebuilt-2.60-150200.27.1",
        "RelatesToProductReference": "SUSE Linux Enterprise Module for Development Tools 15 SP3",
        "RelationType": "Default Component Of"
      },
      {
        "ProductReference": "ca-certificates-mozilla-prebuilt-2.60-150200.27.1",
        "RelatesToProductReference": "SUSE Linux Enterprise Module for Development Tools 15 SP4",
        "RelationType": "Default Component Of"
      },
      {
        "ProductReference": "ca-certificates-mozilla-2.60-150200.27.1",
        "RelatesToProductReference": "SUSE Linux Enterprise Real Time 15 SP3",
        "RelationType": "Default Component Of"
      },
      {
        "ProductReference": "ca-certificates-mozilla-prebuilt-2.60-150200.27.1",
        "RelatesToProductReference": "SUSE Linux Enterprise Real Time 15 SP3",
        "RelationType": "Default Component Of"
      },
      {
        "ProductReference": "ca-certificates-mozilla-2.60-150200.27.1",
        "RelatesToProductReference": "SUSE Linux Enterprise Server 15 SP2-LTSS",
        "RelationType": "Default Component Of"
      },
      {
        "ProductReference": "ca-certificates-mozilla-prebuilt-2.60-150200.27.1",
        "RelatesToProductReference": "SUSE Linux Enterprise Server 15 SP2-LTSS",
        "RelationType": "Default Component Of"
      },
      {
        "ProductReference": "ca-certificates-mozilla-2.60-150200.27.1",
        "RelatesToProductReference": "SUSE Linux Enterprise Server 15 SP3-LTSS",
        "RelationType": "Default Component Of"
      },
      {
        "ProductReference": "ca-certificates-mozilla-prebuilt-2.60-150200.27.1",
        "RelatesToProductReference": "SUSE Linux Enterprise Server 15 SP3-LTSS",
        "RelationType": "Default Component Of"
      },
      {
        "ProductReference": "ca-certificates-mozilla-2.60-150200.27.1",
        "RelatesToProductReference": "SUSE Linux Enterprise Server for SAP Applications 15 SP2",
        "RelationType": "Default Component Of"
      },
      {
        "ProductReference": "ca-certificates-mozilla-prebuilt-2.60-150200.27.1",
        "RelatesToProductReference": "SUSE Linux Enterprise Server for SAP Applications 15 SP2",
        "RelationType": "Default Component Of"
      },
      {
        "ProductReference": "ca-certificates-mozilla-2.60-150200.27.1",
        "RelatesToProductReference": "SUSE Linux Enterprise Server for SAP Applications 15 SP3",
        "RelationType": "Default Component Of"
      },
      {
        "ProductReference": "ca-certificates-mozilla-prebuilt-2.60-150200.27.1",
        "RelatesToProductReference": "SUSE Linux Enterprise Server for SAP Applications 15 SP3",
        "RelationType": "Default Component Of"
      },
      {
        "ProductReference": "ca-certificates-mozilla-2.60-150200.27.1",
        "RelatesToProductReference": "SUSE Manager Proxy 4.1",
        "RelationType": "Default Component Of"
      },
      {
        "ProductReference": "ca-certificates-mozilla-prebuilt-2.60-150200.27.1",
        "RelatesToProductReference": "SUSE Manager Proxy 4.1",
        "RelationType": "Default Component Of"
      },
      {
        "ProductReference": "ca-certificates-mozilla-2.60-150200.27.1",
        "RelatesToProductReference": "SUSE Manager Proxy 4.2",
        "RelationType": "Default Component Of"
      },
      {
        "ProductReference": "ca-certificates-mozilla-2.60-150200.27.1",
        "RelatesToProductReference": "SUSE Manager Retail Branch Server 4.1",
        "RelationType": "Default Component Of"
      },
      {
        "ProductReference": "ca-certificates-mozilla-prebuilt-2.60-150200.27.1",
        "RelatesToProductReference": "SUSE Manager Retail Branch Server 4.1",
        "RelationType": "Default Component Of"
      },
      {
        "ProductReference": "ca-certificates-mozilla-2.60-150200.27.1",
        "RelatesToProductReference": "SUSE Manager Retail Branch Server 4.2",
        "RelationType": "Default Component Of"
      },
      {
        "ProductReference": "ca-certificates-mozilla-2.60-150200.27.1",
        "RelatesToProductReference": "SUSE Manager Server 4.1",
        "RelationType": "Default Component Of"
      },
      {
        "ProductReference": "ca-certificates-mozilla-prebuilt-2.60-150200.27.1",
        "RelatesToProductReference": "SUSE Manager Server 4.1",
        "RelationType": "Default Component Of"
      },
      {
        "ProductReference": "ca-certificates-mozilla-2.60-150200.27.1",
        "RelatesToProductReference": "SUSE Manager Server 4.2",
        "RelationType": "Default Component Of"
      },
      {
        "ProductReference": "ca-certificates-mozilla-2.60-150200.27.1",
        "RelatesToProductReference": "openSUSE Leap 15.4",
        "RelationType": "Default Component Of"
      },
      {
        "ProductReference": "ca-certificates-mozilla-prebuilt-2.60-150200.27.1",
        "RelatesToProductReference": "openSUSE Leap 15.4",
        "RelationType": "Default Component Of"
      },
      {
        "ProductReference": "ca-certificates-mozilla-2.60-150200.27.1",
        "RelatesToProductReference": "openSUSE Leap Micro 5.2",
        "RelationType": "Default Component Of"
      },
      {
        "ProductReference": "ca-certificates-mozilla-prebuilt-2.60-150200.27.1",
        "RelatesToProductReference": "openSUSE Leap Micro 5.2",
        "RelationType": "Default Component Of"
      },
      {
        "ProductReference": "ca-certificates-mozilla-2.60-150200.27.1",
        "RelatesToProductReference": "openSUSE Leap Micro 5.3",
        "RelationType": "Default Component Of"
      }
    ]
  },
  "References": [
    {
      "URL": "https://www.suse.com/support/update/announcement/2023/suse-su-20230037-1/",
      "Description": "Link for SUSE-SU-2023:0037-1"
    },
    {
      "URL": "https://lists.suse.com/pipermail/sle-security-updates/2023-January/013430.html",
      "Description": "E-Mail link for SUSE-SU-2023:0037-1"
    },
    {
      "URL": "https://www.suse.com/support/security/rating/",
      "Description": "SUSE Security Ratings"
    },
    {
      "URL": "https://bugzilla.suse.com/1206212",
      "Description": "SUSE Bug 1206212"
    },
    {
      "URL": "https://bugzilla.suse.com/1206622",
      "Description": "SUSE Bug 1206622"
    }
  ],
  "Vulnerabilities": null
}