{
  "Title": "Security update for containerd, docker, runc",
  "Tracking": {
    "ID": "SUSE-SU-2023:4625-1",
    "Status": "Final",
    "Version": "1",
    "InitialReleaseDate": "2023-12-01T08:26:08Z",
    "CurrentReleaseDate": "2023-12-01T08:26:08Z",
    "RevisionHistory": [
      {
        "Number": "1",
        "Date": "2023-12-01T08:26:08Z",
        "Description": "current"
      }
    ]
  },
  "Notes": [
    {
      "Text": "Security update for containerd, docker, runc",
      "Title": "Topic",
      "Type": "Summary"
    },
    {
      "Text": "This update for containerd, docker, runc fixes the following issues:\n\ncontainerd:\n\n-Update to containerd v1.7.8. Upstream release notes:\n\n  https://github.com/containerd/containerd/releases/tag/v1.7.8\n\ndocker:\n\n- Update to Docker 24.0.7-ce. See upstream changelong online at\n  https://docs.docker.com/engine/release-notes/24.0/#2407 (bsc#1217513)\n  * Deny containers access to /sys/devices/virtual/powercap by default.\n    - CVE-2020-8694 bsc#1170415\n    - CVE-2020-8695 bsc#1170446\n    - CVE-2020-12912 bsc#1178760\n\nrunc:\n\n- Update to runc v1.1.10. Upstream changelog is available from\n  https://github.com/opencontainers/runc/releases/tag/v1.1.10\n",
      "Title": "Details",
      "Type": "General"
    },
    {
      "Text": "The CVRF data is provided by SUSE under the Creative Commons License 4.0 with Attribution (CC-BY-4.0).",
      "Title": "Terms of Use",
      "Type": "Legal Disclaimer"
    },
    {
      "Text": "Image SLES12-SP5-Azure-Basic-On-Demand-2023-4625,Image SLES12-SP5-Azure-Standard-On-Demand-2023-4625,Image SLES12-SP5-EC2-ECS-On-Demand-2023-4625,Image SLES12-SP5-EC2-On-Demand-2023-4625,Image SLES12-SP5-GCE-On-Demand-2023-4625,SUSE-2023-4625,SUSE-SLE-Module-Containers-12-2023-4625",
      "Title": "Patchnames",
      "Type": "Details"
    }
  ],
  "ProductTree": {
    "Relationships": [
      {
        "ProductReference": "containerd-1.7.8-16.88.1",
        "RelatesToProductReference": "Image SLES12-SP5-Azure-Basic-On-Demand",
        "RelationType": "Default Component Of"
      },
      {
        "ProductReference": "docker-24.0.7_ce-98.103.1",
        "RelatesToProductReference": "Image SLES12-SP5-Azure-Basic-On-Demand",
        "RelationType": "Default Component Of"
      },
      {
        "ProductReference": "runc-1.1.10-16.40.1",
        "RelatesToProductReference": "Image SLES12-SP5-Azure-Basic-On-Demand",
        "RelationType": "Default Component Of"
      },
      {
        "ProductReference": "containerd-1.7.8-16.88.1",
        "RelatesToProductReference": "Image SLES12-SP5-Azure-Standard-On-Demand",
        "RelationType": "Default Component Of"
      },
      {
        "ProductReference": "docker-24.0.7_ce-98.103.1",
        "RelatesToProductReference": "Image SLES12-SP5-Azure-Standard-On-Demand",
        "RelationType": "Default Component Of"
      },
      {
        "ProductReference": "runc-1.1.10-16.40.1",
        "RelatesToProductReference": "Image SLES12-SP5-Azure-Standard-On-Demand",
        "RelationType": "Default Component Of"
      },
      {
        "ProductReference": "containerd-1.7.8-16.88.1",
        "RelatesToProductReference": "Image SLES12-SP5-EC2-ECS-On-Demand",
        "RelationType": "Default Component Of"
      },
      {
        "ProductReference": "docker-24.0.7_ce-98.103.1",
        "RelatesToProductReference": "Image SLES12-SP5-EC2-ECS-On-Demand",
        "RelationType": "Default Component Of"
      },
      {
        "ProductReference": "runc-1.1.10-16.40.1",
        "RelatesToProductReference": "Image SLES12-SP5-EC2-ECS-On-Demand",
        "RelationType": "Default Component Of"
      },
      {
        "ProductReference": "containerd-1.7.8-16.88.1",
        "RelatesToProductReference": "Image SLES12-SP5-EC2-On-Demand",
        "RelationType": "Default Component Of"
      },
      {
        "ProductReference": "docker-24.0.7_ce-98.103.1",
        "RelatesToProductReference": "Image SLES12-SP5-EC2-On-Demand",
        "RelationType": "Default Component Of"
      },
      {
        "ProductReference": "runc-1.1.10-16.40.1",
        "RelatesToProductReference": "Image SLES12-SP5-EC2-On-Demand",
        "RelationType": "Default Component Of"
      },
      {
        "ProductReference": "containerd-1.7.8-16.88.1",
        "RelatesToProductReference": "Image SLES12-SP5-GCE-On-Demand",
        "RelationType": "Default Component Of"
      },
      {
        "ProductReference": "docker-24.0.7_ce-98.103.1",
        "RelatesToProductReference": "Image SLES12-SP5-GCE-On-Demand",
        "RelationType": "Default Component Of"
      },
      {
        "ProductReference": "runc-1.1.10-16.40.1",
        "RelatesToProductReference": "Image SLES12-SP5-GCE-On-Demand",
        "RelationType": "Default Component Of"
      },
      {
        "ProductReference": "containerd-1.7.8-16.88.1",
        "RelatesToProductReference": "SUSE Linux Enterprise Module for Containers 12",
        "RelationType": "Default Component Of"
      },
      {
        "ProductReference": "docker-24.0.7_ce-98.103.1",
        "RelatesToProductReference": "SUSE Linux Enterprise Module for Containers 12",
        "RelationType": "Default Component Of"
      },
      {
        "ProductReference": "runc-1.1.10-16.40.1",
        "RelatesToProductReference": "SUSE Linux Enterprise Module for Containers 12",
        "RelationType": "Default Component Of"
      }
    ]
  },
  "References": [
    {
      "URL": "https://www.suse.com/support/update/announcement/2023/suse-su-20234625-1/",
      "Description": "Link for SUSE-SU-2023:4625-1"
    },
    {
      "URL": "https://lists.suse.com/pipermail/sle-security-updates/2023-December/017270.html",
      "Description": "E-Mail link for SUSE-SU-2023:4625-1"
    },
    {
      "URL": "https://www.suse.com/support/security/rating/",
      "Description": "SUSE Security Ratings"
    },
    {
      "URL": "https://bugzilla.suse.com/1170415",
      "Description": "SUSE Bug 1170415"
    },
    {
      "URL": "https://bugzilla.suse.com/1170446",
      "Description": "SUSE Bug 1170446"
    },
    {
      "URL": "https://bugzilla.suse.com/1178760",
      "Description": "SUSE Bug 1178760"
    },
    {
      "URL": "https://bugzilla.suse.com/1217513",
      "Description": "SUSE Bug 1217513"
    },
    {
      "URL": "https://www.suse.com/security/cve/CVE-2020-12912/",
      "Description": "SUSE CVE CVE-2020-12912 page"
    },
    {
      "URL": "https://www.suse.com/security/cve/CVE-2020-8694/",
      "Description": "SUSE CVE CVE-2020-8694 page"
    },
    {
      "URL": "https://www.suse.com/security/cve/CVE-2020-8695/",
      "Description": "SUSE CVE CVE-2020-8695 page"
    }
  ],
  "Vulnerabilities": [
    {
      "CVE": "CVE-2020-12912",
      "Description": "A potential vulnerability in the AMD extension to Linux \"hwmon\" service may allow an attacker to use the Linux-based Running Average Power Limit (RAPL) interface to show various side channel attacks. In line with industry partners, AMD has updated the RAPL interface to require privileged access.",
      "Threats": [
        {
          "Type": "Impact",
          "Severity": "important"
        }
      ],
      "References": [
        {
          "URL": "https://www.suse.com/security/cve/CVE-2020-12912.html",
          "Description": "CVE-2020-12912"
        },
        {
          "URL": "https://bugzilla.suse.com/1178760",
          "Description": "SUSE Bug 1178760"
        }
      ],
      "ProductStatuses": [
        {
          "Type": "Fixed",
          "ProductID": [
            "Image SLES12-SP5-Azure-Basic-On-Demand:containerd-1.7.8-16.88.1",
            "Image SLES12-SP5-Azure-Basic-On-Demand:docker-24.0.7_ce-98.103.1",
            "Image SLES12-SP5-Azure-Basic-On-Demand:runc-1.1.10-16.40.1",
            "Image SLES12-SP5-Azure-Standard-On-Demand:containerd-1.7.8-16.88.1",
            "Image SLES12-SP5-Azure-Standard-On-Demand:docker-24.0.7_ce-98.103.1",
            "Image SLES12-SP5-Azure-Standard-On-Demand:runc-1.1.10-16.40.1",
            "Image SLES12-SP5-EC2-ECS-On-Demand:containerd-1.7.8-16.88.1",
            "Image SLES12-SP5-EC2-ECS-On-Demand:docker-24.0.7_ce-98.103.1",
            "Image SLES12-SP5-EC2-ECS-On-Demand:runc-1.1.10-16.40.1",
            "Image SLES12-SP5-EC2-On-Demand:containerd-1.7.8-16.88.1",
            "Image SLES12-SP5-EC2-On-Demand:docker-24.0.7_ce-98.103.1",
            "Image SLES12-SP5-EC2-On-Demand:runc-1.1.10-16.40.1",
            "Image SLES12-SP5-GCE-On-Demand:containerd-1.7.8-16.88.1",
            "Image SLES12-SP5-GCE-On-Demand:docker-24.0.7_ce-98.103.1",
            "Image SLES12-SP5-GCE-On-Demand:runc-1.1.10-16.40.1",
            "SUSE Linux Enterprise Module for Containers 12:containerd-1.7.8-16.88.1",
            "SUSE Linux Enterprise Module for Containers 12:docker-24.0.7_ce-98.103.1",
            "SUSE Linux Enterprise Module for Containers 12:runc-1.1.10-16.40.1"
          ]
        }
      ],
      "CVSSScoreSets": {}
    },
    {
      "CVE": "CVE-2020-8694",
      "Description": "Insufficient access control in the Linux kernel driver for some Intel(R) Processors may allow an authenticated user to potentially enable information disclosure via local access.",
      "Threats": [
        {
          "Type": "Impact",
          "Severity": "moderate"
        }
      ],
      "References": [
        {
          "URL": "https://www.suse.com/security/cve/CVE-2020-8694.html",
          "Description": "CVE-2020-8694"
        },
        {
          "URL": "https://bugzilla.suse.com/1170415",
          "Description": "SUSE Bug 1170415"
        },
        {
          "URL": "https://bugzilla.suse.com/1170446",
          "Description": "SUSE Bug 1170446"
        },
        {
          "URL": "https://bugzilla.suse.com/1178591",
          "Description": "SUSE Bug 1178591"
        },
        {
          "URL": "https://bugzilla.suse.com/1178700",
          "Description": "SUSE Bug 1178700"
        },
        {
          "URL": "https://bugzilla.suse.com/1179661",
          "Description": "SUSE Bug 1179661"
        }
      ],
      "ProductStatuses": [
        {
          "Type": "Fixed",
          "ProductID": [
            "Image SLES12-SP5-Azure-Basic-On-Demand:containerd-1.7.8-16.88.1",
            "Image SLES12-SP5-Azure-Basic-On-Demand:docker-24.0.7_ce-98.103.1",
            "Image SLES12-SP5-Azure-Basic-On-Demand:runc-1.1.10-16.40.1",
            "Image SLES12-SP5-Azure-Standard-On-Demand:containerd-1.7.8-16.88.1",
            "Image SLES12-SP5-Azure-Standard-On-Demand:docker-24.0.7_ce-98.103.1",
            "Image SLES12-SP5-Azure-Standard-On-Demand:runc-1.1.10-16.40.1",
            "Image SLES12-SP5-EC2-ECS-On-Demand:containerd-1.7.8-16.88.1",
            "Image SLES12-SP5-EC2-ECS-On-Demand:docker-24.0.7_ce-98.103.1",
            "Image SLES12-SP5-EC2-ECS-On-Demand:runc-1.1.10-16.40.1",
            "Image SLES12-SP5-EC2-On-Demand:containerd-1.7.8-16.88.1",
            "Image SLES12-SP5-EC2-On-Demand:docker-24.0.7_ce-98.103.1",
            "Image SLES12-SP5-EC2-On-Demand:runc-1.1.10-16.40.1",
            "Image SLES12-SP5-GCE-On-Demand:containerd-1.7.8-16.88.1",
            "Image SLES12-SP5-GCE-On-Demand:docker-24.0.7_ce-98.103.1",
            "Image SLES12-SP5-GCE-On-Demand:runc-1.1.10-16.40.1",
            "SUSE Linux Enterprise Module for Containers 12:containerd-1.7.8-16.88.1",
            "SUSE Linux Enterprise Module for Containers 12:docker-24.0.7_ce-98.103.1",
            "SUSE Linux Enterprise Module for Containers 12:runc-1.1.10-16.40.1"
          ]
        }
      ],
      "CVSSScoreSets": {}
    },
    {
      "CVE": "CVE-2020-8695",
      "Description": "Observable discrepancy in the RAPL interface for some Intel(R) Processors may allow a privileged user to potentially enable information disclosure via local access.",
      "Threats": [
        {
          "Type": "Impact",
          "Severity": "moderate"
        }
      ],
      "References": [
        {
          "URL": "https://www.suse.com/security/cve/CVE-2020-8695.html",
          "Description": "CVE-2020-8695"
        },
        {
          "URL": "https://bugzilla.suse.com/1170415",
          "Description": "SUSE Bug 1170415"
        },
        {
          "URL": "https://bugzilla.suse.com/1170446",
          "Description": "SUSE Bug 1170446"
        },
        {
          "URL": "https://bugzilla.suse.com/1178591",
          "Description": "SUSE Bug 1178591"
        }
      ],
      "ProductStatuses": [
        {
          "Type": "Fixed",
          "ProductID": [
            "Image SLES12-SP5-Azure-Basic-On-Demand:containerd-1.7.8-16.88.1",
            "Image SLES12-SP5-Azure-Basic-On-Demand:docker-24.0.7_ce-98.103.1",
            "Image SLES12-SP5-Azure-Basic-On-Demand:runc-1.1.10-16.40.1",
            "Image SLES12-SP5-Azure-Standard-On-Demand:containerd-1.7.8-16.88.1",
            "Image SLES12-SP5-Azure-Standard-On-Demand:docker-24.0.7_ce-98.103.1",
            "Image SLES12-SP5-Azure-Standard-On-Demand:runc-1.1.10-16.40.1",
            "Image SLES12-SP5-EC2-ECS-On-Demand:containerd-1.7.8-16.88.1",
            "Image SLES12-SP5-EC2-ECS-On-Demand:docker-24.0.7_ce-98.103.1",
            "Image SLES12-SP5-EC2-ECS-On-Demand:runc-1.1.10-16.40.1",
            "Image SLES12-SP5-EC2-On-Demand:containerd-1.7.8-16.88.1",
            "Image SLES12-SP5-EC2-On-Demand:docker-24.0.7_ce-98.103.1",
            "Image SLES12-SP5-EC2-On-Demand:runc-1.1.10-16.40.1",
            "Image SLES12-SP5-GCE-On-Demand:containerd-1.7.8-16.88.1",
            "Image SLES12-SP5-GCE-On-Demand:docker-24.0.7_ce-98.103.1",
            "Image SLES12-SP5-GCE-On-Demand:runc-1.1.10-16.40.1",
            "SUSE Linux Enterprise Module for Containers 12:containerd-1.7.8-16.88.1",
            "SUSE Linux Enterprise Module for Containers 12:docker-24.0.7_ce-98.103.1",
            "SUSE Linux Enterprise Module for Containers 12:runc-1.1.10-16.40.1"
          ]
        }
      ],
      "CVSSScoreSets": {}
    }
  ]
}