{
  "Title": "Security update for openssl-1_1-livepatches",
  "Tracking": {
    "ID": "SUSE-SU-2023:4918-1",
    "Status": "Final",
    "Version": "1",
    "InitialReleaseDate": "2023-12-20T08:24:08Z",
    "CurrentReleaseDate": "2023-12-20T08:24:08Z",
    "RevisionHistory": [
      {
        "Number": "1",
        "Date": "2023-12-20T08:24:08Z",
        "Description": "current"
      }
    ]
  },
  "Notes": [
    {
      "Text": "Security update for openssl-1_1-livepatches",
      "Title": "Topic",
      "Type": "Summary"
    },
    {
      "Text": "This update for openssl-1_1-livepatches fixes the following issues:\n\n\nSecurity issue fixed:\n\n- CVE-2023-5678: Generating excessively long X9.42 DH keys or checking excessively long X9.42 DH keys or parameters may be very slow  (bsc#1217151).\n\nOther fixes:\n\n- Report livepatch number on OpenSSL_version (jsc#7092).\n- Ensure that livepatches are only installed when fixed version of\n  library is available (bsc#1208755).\n",
      "Title": "Details",
      "Type": "General"
    },
    {
      "Text": "The CVRF data is provided by SUSE under the Creative Commons License 4.0 with Attribution (CC-BY-4.0).",
      "Title": "Terms of Use",
      "Type": "Legal Disclaimer"
    },
    {
      "Text": "SUSE-2023-4918,SUSE-SLE-Module-Live-Patching-15-SP5-2023-4918",
      "Title": "Patchnames",
      "Type": "Details"
    }
  ],
  "ProductTree": {
    "Relationships": [
      {
        "ProductReference": "openssl-1_1-livepatches-0.2-150500.6.3.1",
        "RelatesToProductReference": "SUSE Linux Enterprise Live Patching 15 SP5",
        "RelationType": "Default Component Of"
      }
    ]
  },
  "References": [
    {
      "URL": "https://www.suse.com/support/update/announcement/2023/suse-su-20234918-1/",
      "Description": "Link for SUSE-SU-2023:4918-1"
    },
    {
      "URL": "https://lists.suse.com/pipermail/sle-security-updates/2023-December/017500.html",
      "Description": "E-Mail link for SUSE-SU-2023:4918-1"
    },
    {
      "URL": "https://www.suse.com/support/security/rating/",
      "Description": "SUSE Security Ratings"
    },
    {
      "URL": "https://bugzilla.suse.com/1208755",
      "Description": "SUSE Bug 1208755"
    },
    {
      "URL": "https://bugzilla.suse.com/1217151",
      "Description": "SUSE Bug 1217151"
    },
    {
      "URL": "https://www.suse.com/security/cve/CVE-2023-5678/",
      "Description": "SUSE CVE CVE-2023-5678 page"
    }
  ],
  "Vulnerabilities": [
    {
      "CVE": "CVE-2023-5678",
      "Description": "Issue summary: Generating excessively long X9.42 DH keys or checking\nexcessively long X9.42 DH keys or parameters may be very slow.\n\nImpact summary: Applications that use the functions DH_generate_key() to\ngenerate an X9.42 DH key may experience long delays.  Likewise, applications\nthat use DH_check_pub_key(), DH_check_pub_key_ex() or EVP_PKEY_public_check()\nto check an X9.42 DH key or X9.42 DH parameters may experience long delays.\nWhere the key or parameters that are being checked have been obtained from\nan untrusted source this may lead to a Denial of Service.\n\nWhile DH_check() performs all the necessary checks (as of CVE-2023-3817),\nDH_check_pub_key() doesn't make any of these checks, and is therefore\nvulnerable for excessively large P and Q parameters.\n\nLikewise, while DH_generate_key() performs a check for an excessively large\nP, it doesn't check for an excessively large Q.\n\nAn application that calls DH_generate_key() or DH_check_pub_key() and\nsupplies a key or parameters obtained from an untrusted source could be\nvulnerable to a Denial of Service attack.\n\nDH_generate_key() and DH_check_pub_key() are also called by a number of\nother OpenSSL functions.  An application calling any of those other\nfunctions may similarly be affected.  The other functions affected by this\nare DH_check_pub_key_ex(), EVP_PKEY_public_check(), and EVP_PKEY_generate().\n\nAlso vulnerable are the OpenSSL pkey command line application when using the\n\"-pubcheck\" option, as well as the OpenSSL genpkey command line application.\n\nThe OpenSSL SSL/TLS implementation is not affected by this issue.\n\nThe OpenSSL 3.0 and 3.1 FIPS providers are not affected by this issue.\n\n",
      "Threats": [
        {
          "Type": "Impact",
          "Severity": "moderate"
        }
      ],
      "References": [
        {
          "URL": "https://www.suse.com/security/cve/CVE-2023-5678.html",
          "Description": "CVE-2023-5678"
        },
        {
          "URL": "https://bugzilla.suse.com/1216922",
          "Description": "SUSE Bug 1216922"
        },
        {
          "URL": "https://bugzilla.suse.com/1217151",
          "Description": "SUSE Bug 1217151"
        },
        {
          "URL": "https://bugzilla.suse.com/1219091",
          "Description": "SUSE Bug 1219091"
        },
        {
          "URL": "https://bugzilla.suse.com/1219092",
          "Description": "SUSE Bug 1219092"
        },
        {
          "URL": "https://bugzilla.suse.com/1219415",
          "Description": "SUSE Bug 1219415"
        },
        {
          "URL": "https://bugzilla.suse.com/1219417",
          "Description": "SUSE Bug 1219417"
        },
        {
          "URL": "https://bugzilla.suse.com/1219472",
          "Description": "SUSE Bug 1219472"
        },
        {
          "URL": "https://bugzilla.suse.com/1219712",
          "Description": "SUSE Bug 1219712"
        },
        {
          "URL": "https://bugzilla.suse.com/1220016",
          "Description": "SUSE Bug 1220016"
        }
      ],
      "ProductStatuses": [
        {
          "Type": "Fixed",
          "ProductID": [
            "SUSE Linux Enterprise Live Patching 15 SP5:openssl-1_1-livepatches-0.2-150500.6.3.1"
          ]
        }
      ],
      "CVSSScoreSets": {}
    }
  ]
}