{
  "Title": "Security update for python-pip",
  "Tracking": {
    "ID": "SUSE-SU-2023:4988-1",
    "Status": "Final",
    "Version": "1",
    "InitialReleaseDate": "2023-12-28T15:06:57Z",
    "CurrentReleaseDate": "2023-12-28T15:06:57Z",
    "RevisionHistory": [
      {
        "Number": "1",
        "Date": "2023-12-28T15:06:57Z",
        "Description": "current"
      }
    ]
  },
  "Notes": [
    {
      "Text": "Security update for python-pip",
      "Title": "Topic",
      "Type": "Summary"
    },
    {
      "Text": "This update for python-pip fixes the following issues:\n\n- CVE-2023-5752: Fixed injection of arbitrary configuration through Mercurial parameter (bsc#1217353).\n",
      "Title": "Details",
      "Type": "General"
    },
    {
      "Text": "The CVRF data is provided by SUSE under the Creative Commons License 4.0 with Attribution (CC-BY-4.0).",
      "Title": "Terms of Use",
      "Type": "Legal Disclaimer"
    },
    {
      "Text": "Container bci/python:latest-2023-4988,Image SLES15-SP4-Manager-Server-4-3-BYOS-2023-4988,Image SLES15-SP4-Manager-Server-4-3-BYOS-Azure-2023-4988,SUSE-2023-4988,SUSE-SLE-Module-Python3-15-SP4-2023-4988,SUSE-SLE-Module-Python3-15-SP5-2023-4988,openSUSE-SLE-15.4-2023-4988,openSUSE-SLE-15.5-2023-4988",
      "Title": "Patchnames",
      "Type": "Details"
    }
  ],
  "ProductTree": {
    "Relationships": [
      {
        "ProductReference": "python311-pip-22.3.1-150400.17.12.1",
        "RelatesToProductReference": "Container bci/python:latest",
        "RelationType": "Default Component Of"
      },
      {
        "ProductReference": "python311-pip-22.3.1-150400.17.12.1",
        "RelatesToProductReference": "Image SLES15-SP4-Manager-Server-4-3-BYOS",
        "RelationType": "Default Component Of"
      },
      {
        "ProductReference": "python311-pip-22.3.1-150400.17.12.1",
        "RelatesToProductReference": "Image SLES15-SP4-Manager-Server-4-3-BYOS-Azure",
        "RelationType": "Default Component Of"
      },
      {
        "ProductReference": "python311-pip-22.3.1-150400.17.12.1",
        "RelatesToProductReference": "SUSE Linux Enterprise Module for Python 3 15 SP4",
        "RelationType": "Default Component Of"
      },
      {
        "ProductReference": "python311-pip-22.3.1-150400.17.12.1",
        "RelatesToProductReference": "SUSE Linux Enterprise Module for Python 3 15 SP5",
        "RelationType": "Default Component Of"
      },
      {
        "ProductReference": "python311-pip-22.3.1-150400.17.12.1",
        "RelatesToProductReference": "openSUSE Leap 15.4",
        "RelationType": "Default Component Of"
      },
      {
        "ProductReference": "python311-pip-22.3.1-150400.17.12.1",
        "RelatesToProductReference": "openSUSE Leap 15.5",
        "RelationType": "Default Component Of"
      }
    ]
  },
  "References": [
    {
      "URL": "https://www.suse.com/support/update/announcement/2023/suse-su-20234988-1/",
      "Description": "Link for SUSE-SU-2023:4988-1"
    },
    {
      "URL": "https://lists.suse.com/pipermail/sle-security-updates/2023-December/017567.html",
      "Description": "E-Mail link for SUSE-SU-2023:4988-1"
    },
    {
      "URL": "https://www.suse.com/support/security/rating/",
      "Description": "SUSE Security Ratings"
    },
    {
      "URL": "https://bugzilla.suse.com/1217353",
      "Description": "SUSE Bug 1217353"
    },
    {
      "URL": "https://www.suse.com/security/cve/CVE-2023-5752/",
      "Description": "SUSE CVE CVE-2023-5752 page"
    }
  ],
  "Vulnerabilities": [
    {
      "CVE": "CVE-2023-5752",
      "Description": "When installing a package from a Mercurial VCS URL  (ie \"pip install \nhg+...\") with pip prior to v23.3, the specified Mercurial revision could\n be used to inject arbitrary configuration options to the \"hg clone\" \ncall (ie \"--config\"). Controlling the Mercurial configuration can modify\n how and which repository is installed. This vulnerability does not \naffect users who aren't installing from Mercurial.\n",
      "Threats": [
        {
          "Type": "Impact",
          "Severity": "low"
        }
      ],
      "References": [
        {
          "URL": "https://www.suse.com/security/cve/CVE-2023-5752.html",
          "Description": "CVE-2023-5752"
        },
        {
          "URL": "https://bugzilla.suse.com/1217353",
          "Description": "SUSE Bug 1217353"
        }
      ],
      "ProductStatuses": [
        {
          "Type": "Fixed",
          "ProductID": [
            "Container bci/python:latest:python311-pip-22.3.1-150400.17.12.1",
            "Image SLES15-SP4-Manager-Server-4-3-BYOS-Azure:python311-pip-22.3.1-150400.17.12.1",
            "Image SLES15-SP4-Manager-Server-4-3-BYOS:python311-pip-22.3.1-150400.17.12.1",
            "SUSE Linux Enterprise Module for Python 3 15 SP4:python311-pip-22.3.1-150400.17.12.1",
            "SUSE Linux Enterprise Module for Python 3 15 SP5:python311-pip-22.3.1-150400.17.12.1",
            "openSUSE Leap 15.4:python311-pip-22.3.1-150400.17.12.1",
            "openSUSE Leap 15.5:python311-pip-22.3.1-150400.17.12.1"
          ]
        }
      ],
      "CVSSScoreSets": {}
    }
  ]
}