{
  "Title": "Security update for the Linux Kernel (Live Patch 1 for SLE 15 SP5)",
  "Tracking": {
    "ID": "SUSE-SU-2023:4308-1",
    "Status": "Final",
    "Version": "1",
    "InitialReleaseDate": "2023-10-31T12:33:37Z",
    "CurrentReleaseDate": "2023-10-31T12:33:37Z",
    "RevisionHistory": [
      {
        "Number": "1",
        "Date": "2023-10-31T12:33:37Z",
        "Description": "current"
      }
    ]
  },
  "Notes": [
    {
      "Text": "Security update for the Linux Kernel (Live Patch 1 for SLE 15 SP5)",
      "Title": "Topic",
      "Type": "Summary"
    },
    {
      "Text": "This update for the Linux Kernel 5.14.21-150500_55_7 fixes several issues.\n\nThe following security issues were fixed:\n\n- CVE-2023-4147: Fixed use-after-free in nf_tables_newrule (bsc#1215118).\n- CVE-2023-4623: Fixed a use-after-free issue in the HFSC network scheduler which could be exploited to achieve local privilege escalation (bsc#1215440).\n- CVE-2023-4004: Fixed improper element removal netfilter nft_set_pipapo (bsc#1214812).\n- CVE-2023-3390: Fixed an use-after-free vulnerability in the netfilter subsystem in net/netfilter/nf_tables_api.c that could allow a local attacker with user access to cause a privilege escalation issue (bsc#1212934).\n",
      "Title": "Details",
      "Type": "General"
    },
    {
      "Text": "The CVRF data is provided by SUSE under the Creative Commons License 4.0 with Attribution (CC-BY-4.0).",
      "Title": "Terms of Use",
      "Type": "Legal Disclaimer"
    },
    {
      "Text": "SUSE-2023-4308,SUSE-2023-4311,SUSE-2023-4314,SUSE-2023-4315,SUSE-SLE-Module-Live-Patching-15-SP4-2023-4316,SUSE-SLE-Module-Live-Patching-15-SP5-2023-4308",
      "Title": "Patchnames",
      "Type": "Details"
    }
  ],
  "ProductTree": {
    "Relationships": [
      {
        "ProductReference": "kernel-livepatch-5_14_21-150400_24_66-default-5-150400.2.1",
        "RelatesToProductReference": "SUSE Linux Enterprise Live Patching 15 SP4",
        "RelationType": "Default Component Of"
      },
      {
        "ProductReference": "kernel-livepatch-5_14_21-150500_55_7-default-4-150500.2.1",
        "RelatesToProductReference": "SUSE Linux Enterprise Live Patching 15 SP5",
        "RelationType": "Default Component Of"
      }
    ]
  },
  "References": [
    {
      "URL": "https://www.suse.com/support/update/announcement/2023/suse-su-20234308-1/",
      "Description": "Link for SUSE-SU-2023:4308-1"
    },
    {
      "URL": "https://lists.suse.com/pipermail/sle-security-updates/2023-October/016954.html",
      "Description": "E-Mail link for SUSE-SU-2023:4308-1"
    },
    {
      "URL": "https://www.suse.com/support/security/rating/",
      "Description": "SUSE Security Ratings"
    },
    {
      "URL": "https://bugzilla.suse.com/1212934",
      "Description": "SUSE Bug 1212934"
    },
    {
      "URL": "https://bugzilla.suse.com/1214812",
      "Description": "SUSE Bug 1214812"
    },
    {
      "URL": "https://bugzilla.suse.com/1215118",
      "Description": "SUSE Bug 1215118"
    },
    {
      "URL": "https://bugzilla.suse.com/1215440",
      "Description": "SUSE Bug 1215440"
    },
    {
      "URL": "https://www.suse.com/security/cve/CVE-2023-3390/",
      "Description": "SUSE CVE CVE-2023-3390 page"
    },
    {
      "URL": "https://www.suse.com/security/cve/CVE-2023-4004/",
      "Description": "SUSE CVE CVE-2023-4004 page"
    },
    {
      "URL": "https://www.suse.com/security/cve/CVE-2023-4147/",
      "Description": "SUSE CVE CVE-2023-4147 page"
    },
    {
      "URL": "https://www.suse.com/security/cve/CVE-2023-4623/",
      "Description": "SUSE CVE CVE-2023-4623 page"
    }
  ],
  "Vulnerabilities": [
    {
      "CVE": "CVE-2023-3390",
      "Description": "A use-after-free vulnerability was found in the Linux kernel's netfilter subsystem in net/netfilter/nf_tables_api.c.\n\nMishandled error handling with NFT_MSG_NEWRULE makes it possible to use a dangling pointer in the same transaction causing a use-after-free vulnerability. This flaw allows a local attacker with user access to cause a privilege escalation issue.\n\nWe recommend upgrading past commit 1240eb93f0616b21c675416516ff3d74798fdc97.",
      "Threats": [
        {
          "Type": "Impact",
          "Severity": "important"
        }
      ],
      "References": [
        {
          "URL": "https://www.suse.com/security/cve/CVE-2023-3390.html",
          "Description": "CVE-2023-3390"
        },
        {
          "URL": "https://bugzilla.suse.com/1212846",
          "Description": "SUSE Bug 1212846"
        },
        {
          "URL": "https://bugzilla.suse.com/1212934",
          "Description": "SUSE Bug 1212934"
        },
        {
          "URL": "https://bugzilla.suse.com/1216225",
          "Description": "SUSE Bug 1216225"
        }
      ],
      "ProductStatuses": [
        {
          "Type": "Fixed",
          "ProductID": [
            "SUSE Linux Enterprise Live Patching 15 SP4:kernel-livepatch-5_14_21-150400_24_66-default-5-150400.2.1",
            "SUSE Linux Enterprise Live Patching 15 SP5:kernel-livepatch-5_14_21-150500_55_7-default-4-150500.2.1"
          ]
        }
      ],
      "CVSSScoreSets": {}
    },
    {
      "CVE": "CVE-2023-4004",
      "Description": "A use-after-free flaw was found in the Linux kernel's netfilter in the way a user triggers the nft_pipapo_remove function with the element, without a NFT_SET_EXT_KEY_END. This issue could allow a local user to crash the system or potentially escalate their privileges on the system.",
      "Threats": [
        {
          "Type": "Impact",
          "Severity": "important"
        }
      ],
      "References": [
        {
          "URL": "https://www.suse.com/security/cve/CVE-2023-4004.html",
          "Description": "CVE-2023-4004"
        },
        {
          "URL": "https://bugzilla.suse.com/1213812",
          "Description": "SUSE Bug 1213812"
        },
        {
          "URL": "https://bugzilla.suse.com/1214812",
          "Description": "SUSE Bug 1214812"
        }
      ],
      "ProductStatuses": [
        {
          "Type": "Fixed",
          "ProductID": [
            "SUSE Linux Enterprise Live Patching 15 SP4:kernel-livepatch-5_14_21-150400_24_66-default-5-150400.2.1",
            "SUSE Linux Enterprise Live Patching 15 SP5:kernel-livepatch-5_14_21-150500_55_7-default-4-150500.2.1"
          ]
        }
      ],
      "CVSSScoreSets": {}
    },
    {
      "CVE": "CVE-2023-4147",
      "Description": "A use-after-free flaw was found in the Linux kernel's Netfilter functionality when adding a rule with NFTA_RULE_CHAIN_ID. This flaw allows a local user to crash or escalate their privileges on the system.",
      "Threats": [
        {
          "Type": "Impact",
          "Severity": "important"
        }
      ],
      "References": [
        {
          "URL": "https://www.suse.com/security/cve/CVE-2023-4147.html",
          "Description": "CVE-2023-4147"
        },
        {
          "URL": "https://bugzilla.suse.com/1213968",
          "Description": "SUSE Bug 1213968"
        },
        {
          "URL": "https://bugzilla.suse.com/1215118",
          "Description": "SUSE Bug 1215118"
        }
      ],
      "ProductStatuses": [
        {
          "Type": "Fixed",
          "ProductID": [
            "SUSE Linux Enterprise Live Patching 15 SP4:kernel-livepatch-5_14_21-150400_24_66-default-5-150400.2.1",
            "SUSE Linux Enterprise Live Patching 15 SP5:kernel-livepatch-5_14_21-150500_55_7-default-4-150500.2.1"
          ]
        }
      ],
      "CVSSScoreSets": {}
    },
    {
      "CVE": "CVE-2023-4623",
      "Description": "A use-after-free vulnerability in the Linux kernel's net/sched: sch_hfsc (HFSC qdisc traffic control) component can be exploited to achieve local privilege escalation.\n\nIf a class with a link-sharing curve (i.e. with the HFSC_FSC flag set) has a parent without a link-sharing curve, then init_vf() will call vttree_insert() on the parent, but vttree_remove() will be skipped in update_vf(). This leaves a dangling pointer that can cause a use-after-free.\n\nWe recommend upgrading past commit b3d26c5702c7d6c45456326e56d2ccf3f103e60f.\n\n",
      "Threats": [
        {
          "Type": "Impact",
          "Severity": "important"
        }
      ],
      "References": [
        {
          "URL": "https://www.suse.com/security/cve/CVE-2023-4623.html",
          "Description": "CVE-2023-4623"
        },
        {
          "URL": "https://bugzilla.suse.com/1215115",
          "Description": "SUSE Bug 1215115"
        },
        {
          "URL": "https://bugzilla.suse.com/1215440",
          "Description": "SUSE Bug 1215440"
        },
        {
          "URL": "https://bugzilla.suse.com/1217444",
          "Description": "SUSE Bug 1217444"
        },
        {
          "URL": "https://bugzilla.suse.com/1217531",
          "Description": "SUSE Bug 1217531"
        },
        {
          "URL": "https://bugzilla.suse.com/1219698",
          "Description": "SUSE Bug 1219698"
        },
        {
          "URL": "https://bugzilla.suse.com/1221578",
          "Description": "SUSE Bug 1221578"
        },
        {
          "URL": "https://bugzilla.suse.com/1221598",
          "Description": "SUSE Bug 1221598"
        }
      ],
      "ProductStatuses": [
        {
          "Type": "Fixed",
          "ProductID": [
            "SUSE Linux Enterprise Live Patching 15 SP4:kernel-livepatch-5_14_21-150400_24_66-default-5-150400.2.1",
            "SUSE Linux Enterprise Live Patching 15 SP5:kernel-livepatch-5_14_21-150500_55_7-default-4-150500.2.1"
          ]
        }
      ],
      "CVSSScoreSets": {}
    }
  ]
}