{
  "Title": "Security update for python-py",
  "Tracking": {
    "ID": "SUSE-SU-2023:0161-1",
    "Status": "Final",
    "Version": "1",
    "InitialReleaseDate": "2023-01-26T17:23:37Z",
    "CurrentReleaseDate": "2023-01-26T17:23:37Z",
    "RevisionHistory": [
      {
        "Number": "1",
        "Date": "2023-01-26T17:23:37Z",
        "Description": "current"
      }
    ]
  },
  "Notes": [
    {
      "Text": "Security update for python-py",
      "Title": "Topic",
      "Type": "Summary"
    },
    {
      "Text": "This update for python-py fixes the following issues:\n\n- CVE-2022-42969: Fixed an excessive resource consumption that could\n  be triggered when interacting with a Subversion repository\n  containing crated data (bsc#1204364).\n",
      "Title": "Details",
      "Type": "General"
    },
    {
      "Text": "The CVRF data is provided by SUSE under the Creative Commons License 4.0 with Attribution (CC-BY-4.0).",
      "Title": "Terms of Use",
      "Type": "Legal Disclaimer"
    },
    {
      "Text": "Container ses/7.1/cephcsi/cephcsi:latest-2023-161,Container ses/7.1/rook/ceph:latest-2023-161,Container suse/manager/4.3/proxy-tftpd:latest-2023-161,Container suse/manager/5.0/x86_64/proxy-tftpd:latest-2023-161,Container suse/manager/5.0/x86_64/server:latest-2023-161,Image SLES15-SP1-SAP-Azure-LI-BYOS-Production-2023-161,Image SLES15-SP1-SAP-Azure-VLI-BYOS-Production-2023-161,Image SLES15-SP2-BYOS-Azure-2023-161,Image SLES15-SP2-HPC-BYOS-Azure-2023-161,Image SLES15-SP2-SAP-Azure-2023-161,Image SLES15-SP2-SAP-Azure-LI-BYOS-Production-2023-161,Image SLES15-SP2-SAP-Azure-VLI-BYOS-Production-2023-161,Image SLES15-SP2-SAP-BYOS-Azure-2023-161,Image SLES15-SP2-SAP-BYOS-EC2-HVM-2023-161,Image SLES15-SP2-SAP-BYOS-GCE-2023-161,Image SLES15-SP2-SAP-EC2-HVM-2023-161,Image SLES15-SP2-SAP-GCE-2023-161,Image SLES15-SP3-BYOS-Azure-2023-161,Image SLES15-SP3-CHOST-BYOS-Aliyun-2023-161,Image SLES15-SP3-CHOST-BYOS-Azure-2023-161,Image SLES15-SP3-CHOST-BYOS-EC2-2023-161,Image SLES15-SP3-CHOST-BYOS-SAP-CCloud-2023-161,Image SLES15-SP3-HPC-BYOS-Azure-2023-161,Image SLES15-SP3-Manager-4-2-Proxy-BYOS-Azure-2023-161,Image SLES15-SP3-Manager-4-2-Proxy-BYOS-EC2-HVM-2023-161,Image SLES15-SP3-Manager-4-2-Proxy-BYOS-GCE-2023-161,Image SLES15-SP3-Manager-4-2-Server-BYOS-Azure-2023-161,Image SLES15-SP3-Manager-4-2-Server-BYOS-EC2-HVM-2023-161,Image SLES15-SP3-Manager-4-2-Server-BYOS-GCE-2023-161,Image SLES15-SP3-Micro-5-1-BYOS-Azure-2023-161,Image SLES15-SP3-Micro-5-1-BYOS-EC2-HVM-2023-161,Image SLES15-SP3-Micro-5-1-BYOS-GCE-2023-161,Image SLES15-SP3-Micro-5-2-BYOS-Azure-2023-161,Image SLES15-SP3-Micro-5-2-BYOS-EC2-HVM-2023-161,Image SLES15-SP3-Micro-5-2-BYOS-GCE-2023-161,Image SLES15-SP3-SAP-Azure-LI-BYOS-Production-2023-161,Image SLES15-SP3-SAP-Azure-VLI-BYOS-Production-2023-161,Image SLES15-SP3-SAP-BYOS-Azure-2023-161,Image SLES15-SP3-SAP-BYOS-EC2-HVM-2023-161,Image SLES15-SP3-SAP-BYOS-GCE-2023-161,Image SLES15-SP3-SAPCAL-Azure-2023-161,Image SLES15-SP4-2023-161,Image SLES15-SP4-Azure-Basic-2023-161,Image SLES15-SP4-Azure-Standard-2023-161,Image SLES15-SP4-BYOS-2023-161,Image SLES15-SP4-BYOS-Azure-2023-161,Image SLES15-SP4-BYOS-EC2-2023-161,Image SLES15-SP4-BYOS-GCE-2023-161,Image SLES15-SP4-CHOST-BYOS-2023-161,Image SLES15-SP4-CHOST-BYOS-Aliyun-2023-161,Image SLES15-SP4-CHOST-BYOS-Azure-2023-161,Image SLES15-SP4-CHOST-BYOS-EC2-2023-161,Image SLES15-SP4-CHOST-BYOS-GCE-2023-161,Image SLES15-SP4-CHOST-BYOS-SAP-CCloud-2023-161,Image SLES15-SP4-EC2-2023-161,Image SLES15-SP4-EC2-ECS-HVM-2023-161,Image SLES15-SP4-GCE-2023-161,Image SLES15-SP4-HPC-2023-161,Image SLES15-SP4-HPC-Azure-2023-161,Image SLES15-SP4-HPC-BYOS-2023-161,Image SLES15-SP4-HPC-BYOS-Azure-2023-161,Image SLES15-SP4-HPC-BYOS-EC2-2023-161,Image SLES15-SP4-HPC-BYOS-GCE-2023-161,Image SLES15-SP4-HPC-EC2-2023-161,Image SLES15-SP4-HPC-GCE-2023-161,Image SLES15-SP4-Hardened-BYOS-2023-161,Image SLES15-SP4-Hardened-BYOS-Azure-2023-161,Image SLES15-SP4-Hardened-BYOS-EC2-2023-161,Image SLES15-SP4-Hardened-BYOS-GCE-2023-161,Image SLES15-SP4-Manager-Proxy-4-3-BYOS-2023-161,Image SLES15-SP4-Manager-Proxy-4-3-BYOS-Azure-2023-161,Image SLES15-SP4-Manager-Proxy-4-3-BYOS-EC2-2023-161,Image SLES15-SP4-Manager-Proxy-4-3-BYOS-GCE-2023-161,Image SLES15-SP4-Manager-Server-4-3-2023-161,Image SLES15-SP4-Manager-Server-4-3-Azure-llc-2023-161,Image SLES15-SP4-Manager-Server-4-3-Azure-ltd-2023-161,Image SLES15-SP4-Manager-Server-4-3-BYOS-2023-161,Image SLES15-SP4-Manager-Server-4-3-BYOS-Azure-2023-161,Image SLES15-SP4-Manager-Server-4-3-BYOS-EC2-2023-161,Image SLES15-SP4-Manager-Server-4-3-BYOS-GCE-2023-161,Image SLES15-SP4-Manager-Server-4-3-EC2-llc-2023-161,Image SLES15-SP4-Manager-Server-4-3-EC2-ltd-2023-161,Image SLES15-SP4-Micro-5-3-2023-161,Image SLES15-SP4-Micro-5-3-Azure-2023-161,Image SLES15-SP4-Micro-5-3-BYOS-2023-161,Image SLES15-SP4-Micro-5-3-BYOS-Azure-2023-161,Image SLES15-SP4-Micro-5-3-BYOS-EC2-2023-161,Image SLES15-SP4-Micro-5-3-BYOS-GCE-2023-161,Image SLES15-SP4-Micro-5-3-EC2-2023-161,Image SLES15-SP4-Micro-5-3-GCE-2023-161,Image SLES15-SP4-Micro-5-4-2023-161,Image SLES15-SP4-Micro-5-4-Azure-2023-161,Image SLES15-SP4-Micro-5-4-BYOS-2023-161,Image SLES15-SP4-Micro-5-4-BYOS-Azure-2023-161,Image SLES15-SP4-Micro-5-4-BYOS-EC2-2023-161,Image SLES15-SP4-Micro-5-4-BYOS-GCE-2023-161,Image SLES15-SP4-Micro-5-4-EC2-2023-161,Image SLES15-SP4-Micro-5-4-GCE-2023-161,Image SLES15-SP4-SAP-2023-161,Image SLES15-SP4-SAP-Azure-2023-161,Image SLES15-SP4-SAP-Azure-LI-BYOS-2023-161,Image SLES15-SP4-SAP-Azure-LI-BYOS-Production-2023-161,Image SLES15-SP4-SAP-Azure-VLI-BYOS-2023-161,Image SLES15-SP4-SAP-Azure-VLI-BYOS-Production-2023-161,Image SLES15-SP4-SAP-BYOS-2023-161,Image SLES15-SP4-SAP-BYOS-Azure-2023-161,Image SLES15-SP4-SAP-BYOS-EC2-2023-161,Image SLES15-SP4-SAP-BYOS-GCE-2023-161,Image SLES15-SP4-SAP-EC2-2023-161,Image SLES15-SP4-SAP-GCE-2023-161,Image SLES15-SP4-SAP-Hardened-2023-161,Image SLES15-SP4-SAP-Hardened-Azure-2023-161,Image SLES15-SP4-SAP-Hardened-BYOS-2023-161,Image SLES15-SP4-SAP-Hardened-BYOS-Azure-2023-161,Image SLES15-SP4-SAP-Hardened-BYOS-EC2-2023-161,Image SLES15-SP4-SAP-Hardened-BYOS-GCE-2023-161,Image SLES15-SP4-SAP-Hardened-EC2-2023-161,Image SLES15-SP4-SAP-Hardened-GCE-2023-161,Image SLES15-SP4-SAPCAL-2023-161,Image SLES15-SP4-SAPCAL-Azure-2023-161,Image SLES15-SP4-SAPCAL-EC2-2023-161,Image SLES15-SP4-SAPCAL-GCE-2023-161,Image SLES15-SP4-SUSE-Rancher-Setup-BYOS-2023-161,Image SLES15-SP4-SUSE-Rancher-Setup-BYOS-EC2-2023-161,Image SLES15-SP5-Azure-Basic-2023-161,Image SLES15-SP5-Azure-Standard-2023-161,Image SLES15-SP5-BYOS-Azure-2023-161,Image SLES15-SP5-BYOS-EC2-2023-161,Image SLES15-SP5-BYOS-GCE-2023-161,Image SLES15-SP5-CHOST-BYOS-Aliyun-2023-161,Image SLES15-SP5-CHOST-BYOS-Azure-2023-161,Image SLES15-SP5-CHOST-BYOS-EC2-2023-161,Image SLES15-SP5-CHOST-BYOS-GCE-2023-161,Image SLES15-SP5-CHOST-BYOS-SAP-CCloud-2023-161,Image SLES15-SP5-EC2-2023-161,Image SLES15-SP5-EC2-ECS-HVM-2023-161,Image SLES15-SP5-GCE-2023-161,Image SLES15-SP5-HPC-Azure-2023-161,Image SLES15-SP5-HPC-BYOS-Azure-2023-161,Image SLES15-SP5-HPC-BYOS-EC2-2023-161,Image SLES15-SP5-HPC-BYOS-GCE-2023-161,Image SLES15-SP5-HPC-EC2-2023-161,Image SLES15-SP5-HPC-GCE-2023-161,Image SLES15-SP5-Hardened-BYOS-Azure-2023-161,Image SLES15-SP5-Hardened-BYOS-EC2-2023-161,Image SLES15-SP5-Hardened-BYOS-GCE-2023-161,Image SLES15-SP5-Micro-5-5-2023-161,Image SLES15-SP5-Micro-5-5-Azure-2023-161,Image SLES15-SP5-Micro-5-5-BYOS-2023-161,Image SLES15-SP5-Micro-5-5-BYOS-Azure-2023-161,Image SLES15-SP5-Micro-5-5-BYOS-EC2-2023-161,Image SLES15-SP5-Micro-5-5-BYOS-GCE-2023-161,Image SLES15-SP5-Micro-5-5-EC2-2023-161,Image SLES15-SP5-Micro-5-5-GCE-2023-161,Image SLES15-SP5-SAP-Azure-2023-161,Image SLES15-SP5-SAP-Azure-LI-BYOS-2023-161,Image SLES15-SP5-SAP-Azure-LI-BYOS-Production-2023-161,Image SLES15-SP5-SAP-Azure-VLI-BYOS-2023-161,Image SLES15-SP5-SAP-Azure-VLI-BYOS-Production-2023-161,Image SLES15-SP5-SAP-BYOS-Azure-2023-161,Image SLES15-SP5-SAP-BYOS-EC2-2023-161,Image SLES15-SP5-SAP-BYOS-GCE-2023-161,Image SLES15-SP5-SAP-EC2-2023-161,Image SLES15-SP5-SAP-GCE-2023-161,Image SLES15-SP5-SAP-Hardened-Azure-2023-161,Image SLES15-SP5-SAP-Hardened-BYOS-Azure-2023-161,Image SLES15-SP5-SAP-Hardened-BYOS-EC2-2023-161,Image SLES15-SP5-SAP-Hardened-BYOS-GCE-2023-161,Image SLES15-SP5-SAP-Hardened-EC2-2023-161,Image SLES15-SP5-SAP-Hardened-GCE-2023-161,Image SLES15-SP5-SAPCAL-Azure-2023-161,Image SLES15-SP5-SAPCAL-EC2-2023-161,Image SLES15-SP5-SAPCAL-GCE-2023-161,SUSE-2023-161,SUSE-SLE-Micro-5.3-2023-161,SUSE-SLE-Module-Basesystem-15-SP4-2023-161,SUSE-SLE-Product-RT-15-SP3-2023-161,SUSE-SUSE-MicroOS-5.1-2023-161,SUSE-SUSE-MicroOS-5.2-2023-161,openSUSE-Leap-Micro-5.2-2023-161,openSUSE-Leap-Micro-5.3-2023-161,openSUSE-SLE-15.4-2023-161",
      "Title": "Patchnames",
      "Type": "Details"
    }
  ],
  "ProductTree": {
    "Relationships": [
      {
        "ProductReference": "python3-py-1.10.0-150100.5.12.1",
        "RelatesToProductReference": "Container ses/7.1/cephcsi/cephcsi:latest",
        "RelationType": "Default Component Of"
      },
      {
        "ProductReference": "python3-py-1.10.0-150100.5.12.1",
        "RelatesToProductReference": "Container ses/7.1/rook/ceph:latest",
        "RelationType": "Default Component Of"
      },
      {
        "ProductReference": "python3-py-1.10.0-150100.5.12.1",
        "RelatesToProductReference": "Container suse/manager/4.3/proxy-tftpd:latest",
        "RelationType": "Default Component Of"
      },
      {
        "ProductReference": "python3-py-1.10.0-150100.5.12.1",
        "RelatesToProductReference": "Container suse/manager/5.0/x86_64/proxy-tftpd:latest",
        "RelationType": "Default Component Of"
      },
      {
        "ProductReference": "python3-py-1.10.0-150100.5.12.1",
        "RelatesToProductReference": "Container suse/manager/5.0/x86_64/server:latest",
        "RelationType": "Default Component Of"
      },
      {
        "ProductReference": "python3-py-1.10.0-150100.5.12.1",
        "RelatesToProductReference": "Image SLES15-SP1-SAP-Azure-LI-BYOS-Production",
        "RelationType": "Default Component Of"
      },
      {
        "ProductReference": "python3-py-1.10.0-150100.5.12.1",
        "RelatesToProductReference": "Image SLES15-SP1-SAP-Azure-VLI-BYOS-Production",
        "RelationType": "Default Component Of"
      },
      {
        "ProductReference": "python3-py-1.10.0-150100.5.12.1",
        "RelatesToProductReference": "Image SLES15-SP2-BYOS-Azure",
        "RelationType": "Default Component Of"
      },
      {
        "ProductReference": "python3-py-1.10.0-150100.5.12.1",
        "RelatesToProductReference": "Image SLES15-SP2-HPC-BYOS-Azure",
        "RelationType": "Default Component Of"
      },
      {
        "ProductReference": "python3-py-1.10.0-150100.5.12.1",
        "RelatesToProductReference": "Image SLES15-SP2-SAP-Azure",
        "RelationType": "Default Component Of"
      },
      {
        "ProductReference": "python3-py-1.10.0-150100.5.12.1",
        "RelatesToProductReference": "Image SLES15-SP2-SAP-Azure-LI-BYOS-Production",
        "RelationType": "Default Component Of"
      },
      {
        "ProductReference": "python3-py-1.10.0-150100.5.12.1",
        "RelatesToProductReference": "Image SLES15-SP2-SAP-Azure-VLI-BYOS-Production",
        "RelationType": "Default Component Of"
      },
      {
        "ProductReference": "python3-py-1.10.0-150100.5.12.1",
        "RelatesToProductReference": "Image SLES15-SP2-SAP-BYOS-Azure",
        "RelationType": "Default Component Of"
      },
      {
        "ProductReference": "python3-py-1.10.0-150100.5.12.1",
        "RelatesToProductReference": "Image SLES15-SP2-SAP-BYOS-EC2-HVM",
        "RelationType": "Default Component Of"
      },
      {
        "ProductReference": "python3-py-1.10.0-150100.5.12.1",
        "RelatesToProductReference": "Image SLES15-SP2-SAP-BYOS-GCE",
        "RelationType": "Default Component Of"
      },
      {
        "ProductReference": "python3-py-1.10.0-150100.5.12.1",
        "RelatesToProductReference": "Image SLES15-SP2-SAP-EC2-HVM",
        "RelationType": "Default Component Of"
      },
      {
        "ProductReference": "python3-py-1.10.0-150100.5.12.1",
        "RelatesToProductReference": "Image SLES15-SP2-SAP-GCE",
        "RelationType": "Default Component Of"
      },
      {
        "ProductReference": "python3-py-1.10.0-150100.5.12.1",
        "RelatesToProductReference": "Image SLES15-SP3-BYOS-Azure",
        "RelationType": "Default Component Of"
      },
      {
        "ProductReference": "python3-py-1.10.0-150100.5.12.1",
        "RelatesToProductReference": "Image SLES15-SP3-CHOST-BYOS-Aliyun",
        "RelationType": "Default Component Of"
      },
      {
        "ProductReference": "python3-py-1.10.0-150100.5.12.1",
        "RelatesToProductReference": "Image SLES15-SP3-CHOST-BYOS-Azure",
        "RelationType": "Default Component Of"
      },
      {
        "ProductReference": "python3-py-1.10.0-150100.5.12.1",
        "RelatesToProductReference": "Image SLES15-SP3-CHOST-BYOS-EC2",
        "RelationType": "Default Component Of"
      },
      {
        "ProductReference": "python3-py-1.10.0-150100.5.12.1",
        "RelatesToProductReference": "Image SLES15-SP3-CHOST-BYOS-SAP-CCloud",
        "RelationType": "Default Component Of"
      },
      {
        "ProductReference": "python3-py-1.10.0-150100.5.12.1",
        "RelatesToProductReference": "Image SLES15-SP3-HPC-BYOS-Azure",
        "RelationType": "Default Component Of"
      },
      {
        "ProductReference": "python3-py-1.10.0-150100.5.12.1",
        "RelatesToProductReference": "Image SLES15-SP3-Manager-4-2-Proxy-BYOS-Azure",
        "RelationType": "Default Component Of"
      },
      {
        "ProductReference": "python3-py-1.10.0-150100.5.12.1",
        "RelatesToProductReference": "Image SLES15-SP3-Manager-4-2-Proxy-BYOS-EC2-HVM",
        "RelationType": "Default Component Of"
      },
      {
        "ProductReference": "python3-py-1.10.0-150100.5.12.1",
        "RelatesToProductReference": "Image SLES15-SP3-Manager-4-2-Proxy-BYOS-GCE",
        "RelationType": "Default Component Of"
      },
      {
        "ProductReference": "python2-py-1.10.0-150100.5.12.1",
        "RelatesToProductReference": "Image SLES15-SP3-Manager-4-2-Server-BYOS-Azure",
        "RelationType": "Default Component Of"
      },
      {
        "ProductReference": "python3-py-1.10.0-150100.5.12.1",
        "RelatesToProductReference": "Image SLES15-SP3-Manager-4-2-Server-BYOS-Azure",
        "RelationType": "Default Component Of"
      },
      {
        "ProductReference": "python2-py-1.10.0-150100.5.12.1",
        "RelatesToProductReference": "Image SLES15-SP3-Manager-4-2-Server-BYOS-EC2-HVM",
        "RelationType": "Default Component Of"
      },
      {
        "ProductReference": "python3-py-1.10.0-150100.5.12.1",
        "RelatesToProductReference": "Image SLES15-SP3-Manager-4-2-Server-BYOS-EC2-HVM",
        "RelationType": "Default Component Of"
      },
      {
        "ProductReference": "python2-py-1.10.0-150100.5.12.1",
        "RelatesToProductReference": "Image SLES15-SP3-Manager-4-2-Server-BYOS-GCE",
        "RelationType": "Default Component Of"
      },
      {
        "ProductReference": "python3-py-1.10.0-150100.5.12.1",
        "RelatesToProductReference": "Image SLES15-SP3-Manager-4-2-Server-BYOS-GCE",
        "RelationType": "Default Component Of"
      },
      {
        "ProductReference": "python3-py-1.10.0-150100.5.12.1",
        "RelatesToProductReference": "Image SLES15-SP3-Micro-5-1-BYOS-Azure",
        "RelationType": "Default Component Of"
      },
      {
        "ProductReference": "python3-py-1.10.0-150100.5.12.1",
        "RelatesToProductReference": "Image SLES15-SP3-Micro-5-1-BYOS-EC2-HVM",
        "RelationType": "Default Component Of"
      },
      {
        "ProductReference": "python3-py-1.10.0-150100.5.12.1",
        "RelatesToProductReference": "Image SLES15-SP3-Micro-5-1-BYOS-GCE",
        "RelationType": "Default Component Of"
      },
      {
        "ProductReference": "python3-py-1.10.0-150100.5.12.1",
        "RelatesToProductReference": "Image SLES15-SP3-Micro-5-2-BYOS-Azure",
        "RelationType": "Default Component Of"
      },
      {
        "ProductReference": "python3-py-1.10.0-150100.5.12.1",
        "RelatesToProductReference": "Image SLES15-SP3-Micro-5-2-BYOS-EC2-HVM",
        "RelationType": "Default Component Of"
      },
      {
        "ProductReference": "python3-py-1.10.0-150100.5.12.1",
        "RelatesToProductReference": "Image SLES15-SP3-Micro-5-2-BYOS-GCE",
        "RelationType": "Default Component Of"
      },
      {
        "ProductReference": "python3-py-1.10.0-150100.5.12.1",
        "RelatesToProductReference": "Image SLES15-SP3-SAP-Azure-LI-BYOS-Production",
        "RelationType": "Default Component Of"
      },
      {
        "ProductReference": "python3-py-1.10.0-150100.5.12.1",
        "RelatesToProductReference": "Image SLES15-SP3-SAP-Azure-VLI-BYOS-Production",
        "RelationType": "Default Component Of"
      },
      {
        "ProductReference": "python3-py-1.10.0-150100.5.12.1",
        "RelatesToProductReference": "Image SLES15-SP3-SAP-BYOS-Azure",
        "RelationType": "Default Component Of"
      },
      {
        "ProductReference": "python3-py-1.10.0-150100.5.12.1",
        "RelatesToProductReference": "Image SLES15-SP3-SAP-BYOS-EC2-HVM",
        "RelationType": "Default Component Of"
      },
      {
        "ProductReference": "python3-py-1.10.0-150100.5.12.1",
        "RelatesToProductReference": "Image SLES15-SP3-SAP-BYOS-GCE",
        "RelationType": "Default Component Of"
      },
      {
        "ProductReference": "python3-py-1.10.0-150100.5.12.1",
        "RelatesToProductReference": "Image SLES15-SP3-SAPCAL-Azure",
        "RelationType": "Default Component Of"
      },
      {
        "ProductReference": "python3-py-1.10.0-150100.5.12.1",
        "RelatesToProductReference": "Image SLES15-SP4",
        "RelationType": "Default Component Of"
      },
      {
        "ProductReference": "python3-py-1.10.0-150100.5.12.1",
        "RelatesToProductReference": "Image SLES15-SP4-Azure-Basic",
        "RelationType": "Default Component Of"
      },
      {
        "ProductReference": "python3-py-1.10.0-150100.5.12.1",
        "RelatesToProductReference": "Image SLES15-SP4-Azure-Standard",
        "RelationType": "Default Component Of"
      },
      {
        "ProductReference": "python3-py-1.10.0-150100.5.12.1",
        "RelatesToProductReference": "Image SLES15-SP4-BYOS",
        "RelationType": "Default Component Of"
      },
      {
        "ProductReference": "python3-py-1.10.0-150100.5.12.1",
        "RelatesToProductReference": "Image SLES15-SP4-BYOS-Azure",
        "RelationType": "Default Component Of"
      },
      {
        "ProductReference": "python3-py-1.10.0-150100.5.12.1",
        "RelatesToProductReference": "Image SLES15-SP4-BYOS-EC2",
        "RelationType": "Default Component Of"
      },
      {
        "ProductReference": "python3-py-1.10.0-150100.5.12.1",
        "RelatesToProductReference": "Image SLES15-SP4-BYOS-GCE",
        "RelationType": "Default Component Of"
      },
      {
        "ProductReference": "python3-py-1.10.0-150100.5.12.1",
        "RelatesToProductReference": "Image SLES15-SP4-CHOST-BYOS",
        "RelationType": "Default Component Of"
      },
      {
        "ProductReference": "python3-py-1.10.0-150100.5.12.1",
        "RelatesToProductReference": "Image SLES15-SP4-CHOST-BYOS-Aliyun",
        "RelationType": "Default Component Of"
      },
      {
        "ProductReference": "python3-py-1.10.0-150100.5.12.1",
        "RelatesToProductReference": "Image SLES15-SP4-CHOST-BYOS-Azure",
        "RelationType": "Default Component Of"
      },
      {
        "ProductReference": "python3-py-1.10.0-150100.5.12.1",
        "RelatesToProductReference": "Image SLES15-SP4-CHOST-BYOS-EC2",
        "RelationType": "Default Component Of"
      },
      {
        "ProductReference": "python3-py-1.10.0-150100.5.12.1",
        "RelatesToProductReference": "Image SLES15-SP4-CHOST-BYOS-GCE",
        "RelationType": "Default Component Of"
      },
      {
        "ProductReference": "python3-py-1.10.0-150100.5.12.1",
        "RelatesToProductReference": "Image SLES15-SP4-CHOST-BYOS-SAP-CCloud",
        "RelationType": "Default Component Of"
      },
      {
        "ProductReference": "python3-py-1.10.0-150100.5.12.1",
        "RelatesToProductReference": "Image SLES15-SP4-EC2",
        "RelationType": "Default Component Of"
      },
      {
        "ProductReference": "python3-py-1.10.0-150100.5.12.1",
        "RelatesToProductReference": "Image SLES15-SP4-EC2-ECS-HVM",
        "RelationType": "Default Component Of"
      },
      {
        "ProductReference": "python3-py-1.10.0-150100.5.12.1",
        "RelatesToProductReference": "Image SLES15-SP4-GCE",
        "RelationType": "Default Component Of"
      },
      {
        "ProductReference": "python3-py-1.10.0-150100.5.12.1",
        "RelatesToProductReference": "Image SLES15-SP4-HPC",
        "RelationType": "Default Component Of"
      },
      {
        "ProductReference": "python3-py-1.10.0-150100.5.12.1",
        "RelatesToProductReference": "Image SLES15-SP4-HPC-Azure",
        "RelationType": "Default Component Of"
      },
      {
        "ProductReference": "python3-py-1.10.0-150100.5.12.1",
        "RelatesToProductReference": "Image SLES15-SP4-HPC-BYOS",
        "RelationType": "Default Component Of"
      },
      {
        "ProductReference": "python3-py-1.10.0-150100.5.12.1",
        "RelatesToProductReference": "Image SLES15-SP4-HPC-BYOS-Azure",
        "RelationType": "Default Component Of"
      },
      {
        "ProductReference": "python3-py-1.10.0-150100.5.12.1",
        "RelatesToProductReference": "Image SLES15-SP4-HPC-BYOS-EC2",
        "RelationType": "Default Component Of"
      },
      {
        "ProductReference": "python3-py-1.10.0-150100.5.12.1",
        "RelatesToProductReference": "Image SLES15-SP4-HPC-BYOS-GCE",
        "RelationType": "Default Component Of"
      },
      {
        "ProductReference": "python3-py-1.10.0-150100.5.12.1",
        "RelatesToProductReference": "Image SLES15-SP4-HPC-EC2",
        "RelationType": "Default Component Of"
      },
      {
        "ProductReference": "python3-py-1.10.0-150100.5.12.1",
        "RelatesToProductReference": "Image SLES15-SP4-HPC-GCE",
        "RelationType": "Default Component Of"
      },
      {
        "ProductReference": "python3-py-1.10.0-150100.5.12.1",
        "RelatesToProductReference": "Image SLES15-SP4-Hardened-BYOS",
        "RelationType": "Default Component Of"
      },
      {
        "ProductReference": "python3-py-1.10.0-150100.5.12.1",
        "RelatesToProductReference": "Image SLES15-SP4-Hardened-BYOS-Azure",
        "RelationType": "Default Component Of"
      },
      {
        "ProductReference": "python3-py-1.10.0-150100.5.12.1",
        "RelatesToProductReference": "Image SLES15-SP4-Hardened-BYOS-EC2",
        "RelationType": "Default Component Of"
      },
      {
        "ProductReference": "python3-py-1.10.0-150100.5.12.1",
        "RelatesToProductReference": "Image SLES15-SP4-Hardened-BYOS-GCE",
        "RelationType": "Default Component Of"
      },
      {
        "ProductReference": "python3-py-1.10.0-150100.5.12.1",
        "RelatesToProductReference": "Image SLES15-SP4-Manager-Proxy-4-3-BYOS",
        "RelationType": "Default Component Of"
      },
      {
        "ProductReference": "python3-py-1.10.0-150100.5.12.1",
        "RelatesToProductReference": "Image SLES15-SP4-Manager-Proxy-4-3-BYOS-Azure",
        "RelationType": "Default Component Of"
      },
      {
        "ProductReference": "python3-py-1.10.0-150100.5.12.1",
        "RelatesToProductReference": "Image SLES15-SP4-Manager-Proxy-4-3-BYOS-EC2",
        "RelationType": "Default Component Of"
      },
      {
        "ProductReference": "python3-py-1.10.0-150100.5.12.1",
        "RelatesToProductReference": "Image SLES15-SP4-Manager-Proxy-4-3-BYOS-GCE",
        "RelationType": "Default Component Of"
      },
      {
        "ProductReference": "python3-py-1.10.0-150100.5.12.1",
        "RelatesToProductReference": "Image SLES15-SP4-Manager-Server-4-3",
        "RelationType": "Default Component Of"
      },
      {
        "ProductReference": "python3-py-1.10.0-150100.5.12.1",
        "RelatesToProductReference": "Image SLES15-SP4-Manager-Server-4-3-Azure-llc",
        "RelationType": "Default Component Of"
      },
      {
        "ProductReference": "python3-py-1.10.0-150100.5.12.1",
        "RelatesToProductReference": "Image SLES15-SP4-Manager-Server-4-3-Azure-ltd",
        "RelationType": "Default Component Of"
      },
      {
        "ProductReference": "python3-py-1.10.0-150100.5.12.1",
        "RelatesToProductReference": "Image SLES15-SP4-Manager-Server-4-3-BYOS",
        "RelationType": "Default Component Of"
      },
      {
        "ProductReference": "python3-py-1.10.0-150100.5.12.1",
        "RelatesToProductReference": "Image SLES15-SP4-Manager-Server-4-3-BYOS-Azure",
        "RelationType": "Default Component Of"
      },
      {
        "ProductReference": "python3-py-1.10.0-150100.5.12.1",
        "RelatesToProductReference": "Image SLES15-SP4-Manager-Server-4-3-BYOS-EC2",
        "RelationType": "Default Component Of"
      },
      {
        "ProductReference": "python3-py-1.10.0-150100.5.12.1",
        "RelatesToProductReference": "Image SLES15-SP4-Manager-Server-4-3-BYOS-GCE",
        "RelationType": "Default Component Of"
      },
      {
        "ProductReference": "python3-py-1.10.0-150100.5.12.1",
        "RelatesToProductReference": "Image SLES15-SP4-Manager-Server-4-3-EC2-llc",
        "RelationType": "Default Component Of"
      },
      {
        "ProductReference": "python3-py-1.10.0-150100.5.12.1",
        "RelatesToProductReference": "Image SLES15-SP4-Manager-Server-4-3-EC2-ltd",
        "RelationType": "Default Component Of"
      },
      {
        "ProductReference": "python3-py-1.10.0-150100.5.12.1",
        "RelatesToProductReference": "Image SLES15-SP4-Micro-5-3",
        "RelationType": "Default Component Of"
      },
      {
        "ProductReference": "python3-py-1.10.0-150100.5.12.1",
        "RelatesToProductReference": "Image SLES15-SP4-Micro-5-3-Azure",
        "RelationType": "Default Component Of"
      },
      {
        "ProductReference": "python3-py-1.10.0-150100.5.12.1",
        "RelatesToProductReference": "Image SLES15-SP4-Micro-5-3-BYOS",
        "RelationType": "Default Component Of"
      },
      {
        "ProductReference": "python3-py-1.10.0-150100.5.12.1",
        "RelatesToProductReference": "Image SLES15-SP4-Micro-5-3-BYOS-Azure",
        "RelationType": "Default Component Of"
      },
      {
        "ProductReference": "python3-py-1.10.0-150100.5.12.1",
        "RelatesToProductReference": "Image SLES15-SP4-Micro-5-3-BYOS-EC2",
        "RelationType": "Default Component Of"
      },
      {
        "ProductReference": "python3-py-1.10.0-150100.5.12.1",
        "RelatesToProductReference": "Image SLES15-SP4-Micro-5-3-BYOS-GCE",
        "RelationType": "Default Component Of"
      },
      {
        "ProductReference": "python3-py-1.10.0-150100.5.12.1",
        "RelatesToProductReference": "Image SLES15-SP4-Micro-5-3-EC2",
        "RelationType": "Default Component Of"
      },
      {
        "ProductReference": "python3-py-1.10.0-150100.5.12.1",
        "RelatesToProductReference": "Image SLES15-SP4-Micro-5-3-GCE",
        "RelationType": "Default Component Of"
      },
      {
        "ProductReference": "python3-py-1.10.0-150100.5.12.1",
        "RelatesToProductReference": "Image SLES15-SP4-Micro-5-4",
        "RelationType": "Default Component Of"
      },
      {
        "ProductReference": "python3-py-1.10.0-150100.5.12.1",
        "RelatesToProductReference": "Image SLES15-SP4-Micro-5-4-Azure",
        "RelationType": "Default Component Of"
      },
      {
        "ProductReference": "python3-py-1.10.0-150100.5.12.1",
        "RelatesToProductReference": "Image SLES15-SP4-Micro-5-4-BYOS",
        "RelationType": "Default Component Of"
      },
      {
        "ProductReference": "python3-py-1.10.0-150100.5.12.1",
        "RelatesToProductReference": "Image SLES15-SP4-Micro-5-4-BYOS-Azure",
        "RelationType": "Default Component Of"
      },
      {
        "ProductReference": "python3-py-1.10.0-150100.5.12.1",
        "RelatesToProductReference": "Image SLES15-SP4-Micro-5-4-BYOS-EC2",
        "RelationType": "Default Component Of"
      },
      {
        "ProductReference": "python3-py-1.10.0-150100.5.12.1",
        "RelatesToProductReference": "Image SLES15-SP4-Micro-5-4-BYOS-GCE",
        "RelationType": "Default Component Of"
      },
      {
        "ProductReference": "python3-py-1.10.0-150100.5.12.1",
        "RelatesToProductReference": "Image SLES15-SP4-Micro-5-4-EC2",
        "RelationType": "Default Component Of"
      },
      {
        "ProductReference": "python3-py-1.10.0-150100.5.12.1",
        "RelatesToProductReference": "Image SLES15-SP4-Micro-5-4-GCE",
        "RelationType": "Default Component Of"
      },
      {
        "ProductReference": "python3-py-1.10.0-150100.5.12.1",
        "RelatesToProductReference": "Image SLES15-SP4-SAP",
        "RelationType": "Default Component Of"
      },
      {
        "ProductReference": "python3-py-1.10.0-150100.5.12.1",
        "RelatesToProductReference": "Image SLES15-SP4-SAP-Azure",
        "RelationType": "Default Component Of"
      },
      {
        "ProductReference": "python3-py-1.10.0-150100.5.12.1",
        "RelatesToProductReference": "Image SLES15-SP4-SAP-Azure-LI-BYOS",
        "RelationType": "Default Component Of"
      },
      {
        "ProductReference": "python3-py-1.10.0-150100.5.12.1",
        "RelatesToProductReference": "Image SLES15-SP4-SAP-Azure-LI-BYOS-Production",
        "RelationType": "Default Component Of"
      },
      {
        "ProductReference": "python3-py-1.10.0-150100.5.12.1",
        "RelatesToProductReference": "Image SLES15-SP4-SAP-Azure-VLI-BYOS",
        "RelationType": "Default Component Of"
      },
      {
        "ProductReference": "python3-py-1.10.0-150100.5.12.1",
        "RelatesToProductReference": "Image SLES15-SP4-SAP-Azure-VLI-BYOS-Production",
        "RelationType": "Default Component Of"
      },
      {
        "ProductReference": "python3-py-1.10.0-150100.5.12.1",
        "RelatesToProductReference": "Image SLES15-SP4-SAP-BYOS",
        "RelationType": "Default Component Of"
      },
      {
        "ProductReference": "python3-py-1.10.0-150100.5.12.1",
        "RelatesToProductReference": "Image SLES15-SP4-SAP-BYOS-Azure",
        "RelationType": "Default Component Of"
      },
      {
        "ProductReference": "python3-py-1.10.0-150100.5.12.1",
        "RelatesToProductReference": "Image SLES15-SP4-SAP-BYOS-EC2",
        "RelationType": "Default Component Of"
      },
      {
        "ProductReference": "python3-py-1.10.0-150100.5.12.1",
        "RelatesToProductReference": "Image SLES15-SP4-SAP-BYOS-GCE",
        "RelationType": "Default Component Of"
      },
      {
        "ProductReference": "python3-py-1.10.0-150100.5.12.1",
        "RelatesToProductReference": "Image SLES15-SP4-SAP-EC2",
        "RelationType": "Default Component Of"
      },
      {
        "ProductReference": "python3-py-1.10.0-150100.5.12.1",
        "RelatesToProductReference": "Image SLES15-SP4-SAP-GCE",
        "RelationType": "Default Component Of"
      },
      {
        "ProductReference": "python3-py-1.10.0-150100.5.12.1",
        "RelatesToProductReference": "Image SLES15-SP4-SAP-Hardened",
        "RelationType": "Default Component Of"
      },
      {
        "ProductReference": "python3-py-1.10.0-150100.5.12.1",
        "RelatesToProductReference": "Image SLES15-SP4-SAP-Hardened-Azure",
        "RelationType": "Default Component Of"
      },
      {
        "ProductReference": "python3-py-1.10.0-150100.5.12.1",
        "RelatesToProductReference": "Image SLES15-SP4-SAP-Hardened-BYOS",
        "RelationType": "Default Component Of"
      },
      {
        "ProductReference": "python3-py-1.10.0-150100.5.12.1",
        "RelatesToProductReference": "Image SLES15-SP4-SAP-Hardened-BYOS-Azure",
        "RelationType": "Default Component Of"
      },
      {
        "ProductReference": "python3-py-1.10.0-150100.5.12.1",
        "RelatesToProductReference": "Image SLES15-SP4-SAP-Hardened-BYOS-EC2",
        "RelationType": "Default Component Of"
      },
      {
        "ProductReference": "python3-py-1.10.0-150100.5.12.1",
        "RelatesToProductReference": "Image SLES15-SP4-SAP-Hardened-BYOS-GCE",
        "RelationType": "Default Component Of"
      },
      {
        "ProductReference": "python3-py-1.10.0-150100.5.12.1",
        "RelatesToProductReference": "Image SLES15-SP4-SAP-Hardened-EC2",
        "RelationType": "Default Component Of"
      },
      {
        "ProductReference": "python3-py-1.10.0-150100.5.12.1",
        "RelatesToProductReference": "Image SLES15-SP4-SAP-Hardened-GCE",
        "RelationType": "Default Component Of"
      },
      {
        "ProductReference": "python3-py-1.10.0-150100.5.12.1",
        "RelatesToProductReference": "Image SLES15-SP4-SAPCAL",
        "RelationType": "Default Component Of"
      },
      {
        "ProductReference": "python3-py-1.10.0-150100.5.12.1",
        "RelatesToProductReference": "Image SLES15-SP4-SAPCAL-Azure",
        "RelationType": "Default Component Of"
      },
      {
        "ProductReference": "python3-py-1.10.0-150100.5.12.1",
        "RelatesToProductReference": "Image SLES15-SP4-SAPCAL-EC2",
        "RelationType": "Default Component Of"
      },
      {
        "ProductReference": "python3-py-1.10.0-150100.5.12.1",
        "RelatesToProductReference": "Image SLES15-SP4-SAPCAL-GCE",
        "RelationType": "Default Component Of"
      },
      {
        "ProductReference": "python3-py-1.10.0-150100.5.12.1",
        "RelatesToProductReference": "Image SLES15-SP4-SUSE-Rancher-Setup-BYOS",
        "RelationType": "Default Component Of"
      },
      {
        "ProductReference": "python3-py-1.10.0-150100.5.12.1",
        "RelatesToProductReference": "Image SLES15-SP4-SUSE-Rancher-Setup-BYOS-EC2",
        "RelationType": "Default Component Of"
      },
      {
        "ProductReference": "python3-py-1.10.0-150100.5.12.1",
        "RelatesToProductReference": "Image SLES15-SP5-Azure-Basic",
        "RelationType": "Default Component Of"
      },
      {
        "ProductReference": "python3-py-1.10.0-150100.5.12.1",
        "RelatesToProductReference": "Image SLES15-SP5-Azure-Standard",
        "RelationType": "Default Component Of"
      },
      {
        "ProductReference": "python3-py-1.10.0-150100.5.12.1",
        "RelatesToProductReference": "Image SLES15-SP5-BYOS-Azure",
        "RelationType": "Default Component Of"
      },
      {
        "ProductReference": "python3-py-1.10.0-150100.5.12.1",
        "RelatesToProductReference": "Image SLES15-SP5-BYOS-EC2",
        "RelationType": "Default Component Of"
      },
      {
        "ProductReference": "python3-py-1.10.0-150100.5.12.1",
        "RelatesToProductReference": "Image SLES15-SP5-BYOS-GCE",
        "RelationType": "Default Component Of"
      },
      {
        "ProductReference": "python3-py-1.10.0-150100.5.12.1",
        "RelatesToProductReference": "Image SLES15-SP5-CHOST-BYOS-Aliyun",
        "RelationType": "Default Component Of"
      },
      {
        "ProductReference": "python3-py-1.10.0-150100.5.12.1",
        "RelatesToProductReference": "Image SLES15-SP5-CHOST-BYOS-Azure",
        "RelationType": "Default Component Of"
      },
      {
        "ProductReference": "python3-py-1.10.0-150100.5.12.1",
        "RelatesToProductReference": "Image SLES15-SP5-CHOST-BYOS-EC2",
        "RelationType": "Default Component Of"
      },
      {
        "ProductReference": "python3-py-1.10.0-150100.5.12.1",
        "RelatesToProductReference": "Image SLES15-SP5-CHOST-BYOS-GCE",
        "RelationType": "Default Component Of"
      },
      {
        "ProductReference": "python3-py-1.10.0-150100.5.12.1",
        "RelatesToProductReference": "Image SLES15-SP5-CHOST-BYOS-SAP-CCloud",
        "RelationType": "Default Component Of"
      },
      {
        "ProductReference": "python3-py-1.10.0-150100.5.12.1",
        "RelatesToProductReference": "Image SLES15-SP5-EC2",
        "RelationType": "Default Component Of"
      },
      {
        "ProductReference": "python3-py-1.10.0-150100.5.12.1",
        "RelatesToProductReference": "Image SLES15-SP5-EC2-ECS-HVM",
        "RelationType": "Default Component Of"
      },
      {
        "ProductReference": "python3-py-1.10.0-150100.5.12.1",
        "RelatesToProductReference": "Image SLES15-SP5-GCE",
        "RelationType": "Default Component Of"
      },
      {
        "ProductReference": "python3-py-1.10.0-150100.5.12.1",
        "RelatesToProductReference": "Image SLES15-SP5-HPC-Azure",
        "RelationType": "Default Component Of"
      },
      {
        "ProductReference": "python3-py-1.10.0-150100.5.12.1",
        "RelatesToProductReference": "Image SLES15-SP5-HPC-BYOS-Azure",
        "RelationType": "Default Component Of"
      },
      {
        "ProductReference": "python3-py-1.10.0-150100.5.12.1",
        "RelatesToProductReference": "Image SLES15-SP5-HPC-BYOS-EC2",
        "RelationType": "Default Component Of"
      },
      {
        "ProductReference": "python3-py-1.10.0-150100.5.12.1",
        "RelatesToProductReference": "Image SLES15-SP5-HPC-BYOS-GCE",
        "RelationType": "Default Component Of"
      },
      {
        "ProductReference": "python3-py-1.10.0-150100.5.12.1",
        "RelatesToProductReference": "Image SLES15-SP5-HPC-EC2",
        "RelationType": "Default Component Of"
      },
      {
        "ProductReference": "python3-py-1.10.0-150100.5.12.1",
        "RelatesToProductReference": "Image SLES15-SP5-HPC-GCE",
        "RelationType": "Default Component Of"
      },
      {
        "ProductReference": "python3-py-1.10.0-150100.5.12.1",
        "RelatesToProductReference": "Image SLES15-SP5-Hardened-BYOS-Azure",
        "RelationType": "Default Component Of"
      },
      {
        "ProductReference": "python3-py-1.10.0-150100.5.12.1",
        "RelatesToProductReference": "Image SLES15-SP5-Hardened-BYOS-EC2",
        "RelationType": "Default Component Of"
      },
      {
        "ProductReference": "python3-py-1.10.0-150100.5.12.1",
        "RelatesToProductReference": "Image SLES15-SP5-Hardened-BYOS-GCE",
        "RelationType": "Default Component Of"
      },
      {
        "ProductReference": "python3-py-1.10.0-150100.5.12.1",
        "RelatesToProductReference": "Image SLES15-SP5-Micro-5-5",
        "RelationType": "Default Component Of"
      },
      {
        "ProductReference": "python3-py-1.10.0-150100.5.12.1",
        "RelatesToProductReference": "Image SLES15-SP5-Micro-5-5-Azure",
        "RelationType": "Default Component Of"
      },
      {
        "ProductReference": "python3-py-1.10.0-150100.5.12.1",
        "RelatesToProductReference": "Image SLES15-SP5-Micro-5-5-BYOS",
        "RelationType": "Default Component Of"
      },
      {
        "ProductReference": "python3-py-1.10.0-150100.5.12.1",
        "RelatesToProductReference": "Image SLES15-SP5-Micro-5-5-BYOS-Azure",
        "RelationType": "Default Component Of"
      },
      {
        "ProductReference": "python3-py-1.10.0-150100.5.12.1",
        "RelatesToProductReference": "Image SLES15-SP5-Micro-5-5-BYOS-EC2",
        "RelationType": "Default Component Of"
      },
      {
        "ProductReference": "python3-py-1.10.0-150100.5.12.1",
        "RelatesToProductReference": "Image SLES15-SP5-Micro-5-5-BYOS-GCE",
        "RelationType": "Default Component Of"
      },
      {
        "ProductReference": "python3-py-1.10.0-150100.5.12.1",
        "RelatesToProductReference": "Image SLES15-SP5-Micro-5-5-EC2",
        "RelationType": "Default Component Of"
      },
      {
        "ProductReference": "python3-py-1.10.0-150100.5.12.1",
        "RelatesToProductReference": "Image SLES15-SP5-Micro-5-5-GCE",
        "RelationType": "Default Component Of"
      },
      {
        "ProductReference": "python3-py-1.10.0-150100.5.12.1",
        "RelatesToProductReference": "Image SLES15-SP5-SAP-Azure",
        "RelationType": "Default Component Of"
      },
      {
        "ProductReference": "python3-py-1.10.0-150100.5.12.1",
        "RelatesToProductReference": "Image SLES15-SP5-SAP-Azure-LI-BYOS",
        "RelationType": "Default Component Of"
      },
      {
        "ProductReference": "python3-py-1.10.0-150100.5.12.1",
        "RelatesToProductReference": "Image SLES15-SP5-SAP-Azure-LI-BYOS-Production",
        "RelationType": "Default Component Of"
      },
      {
        "ProductReference": "python3-py-1.10.0-150100.5.12.1",
        "RelatesToProductReference": "Image SLES15-SP5-SAP-Azure-VLI-BYOS",
        "RelationType": "Default Component Of"
      },
      {
        "ProductReference": "python3-py-1.10.0-150100.5.12.1",
        "RelatesToProductReference": "Image SLES15-SP5-SAP-Azure-VLI-BYOS-Production",
        "RelationType": "Default Component Of"
      },
      {
        "ProductReference": "python3-py-1.10.0-150100.5.12.1",
        "RelatesToProductReference": "Image SLES15-SP5-SAP-BYOS-Azure",
        "RelationType": "Default Component Of"
      },
      {
        "ProductReference": "python3-py-1.10.0-150100.5.12.1",
        "RelatesToProductReference": "Image SLES15-SP5-SAP-BYOS-EC2",
        "RelationType": "Default Component Of"
      },
      {
        "ProductReference": "python3-py-1.10.0-150100.5.12.1",
        "RelatesToProductReference": "Image SLES15-SP5-SAP-BYOS-GCE",
        "RelationType": "Default Component Of"
      },
      {
        "ProductReference": "python3-py-1.10.0-150100.5.12.1",
        "RelatesToProductReference": "Image SLES15-SP5-SAP-EC2",
        "RelationType": "Default Component Of"
      },
      {
        "ProductReference": "python3-py-1.10.0-150100.5.12.1",
        "RelatesToProductReference": "Image SLES15-SP5-SAP-GCE",
        "RelationType": "Default Component Of"
      },
      {
        "ProductReference": "python3-py-1.10.0-150100.5.12.1",
        "RelatesToProductReference": "Image SLES15-SP5-SAP-Hardened-Azure",
        "RelationType": "Default Component Of"
      },
      {
        "ProductReference": "python3-py-1.10.0-150100.5.12.1",
        "RelatesToProductReference": "Image SLES15-SP5-SAP-Hardened-BYOS-Azure",
        "RelationType": "Default Component Of"
      },
      {
        "ProductReference": "python3-py-1.10.0-150100.5.12.1",
        "RelatesToProductReference": "Image SLES15-SP5-SAP-Hardened-BYOS-EC2",
        "RelationType": "Default Component Of"
      },
      {
        "ProductReference": "python3-py-1.10.0-150100.5.12.1",
        "RelatesToProductReference": "Image SLES15-SP5-SAP-Hardened-BYOS-GCE",
        "RelationType": "Default Component Of"
      },
      {
        "ProductReference": "python3-py-1.10.0-150100.5.12.1",
        "RelatesToProductReference": "Image SLES15-SP5-SAP-Hardened-EC2",
        "RelationType": "Default Component Of"
      },
      {
        "ProductReference": "python3-py-1.10.0-150100.5.12.1",
        "RelatesToProductReference": "Image SLES15-SP5-SAP-Hardened-GCE",
        "RelationType": "Default Component Of"
      },
      {
        "ProductReference": "python3-py-1.10.0-150100.5.12.1",
        "RelatesToProductReference": "Image SLES15-SP5-SAPCAL-Azure",
        "RelationType": "Default Component Of"
      },
      {
        "ProductReference": "python3-py-1.10.0-150100.5.12.1",
        "RelatesToProductReference": "Image SLES15-SP5-SAPCAL-EC2",
        "RelationType": "Default Component Of"
      },
      {
        "ProductReference": "python3-py-1.10.0-150100.5.12.1",
        "RelatesToProductReference": "Image SLES15-SP5-SAPCAL-GCE",
        "RelationType": "Default Component Of"
      },
      {
        "ProductReference": "python3-py-1.10.0-150100.5.12.1",
        "RelatesToProductReference": "SUSE Linux Enterprise Micro 5.1",
        "RelationType": "Default Component Of"
      },
      {
        "ProductReference": "python3-py-1.10.0-150100.5.12.1",
        "RelatesToProductReference": "SUSE Linux Enterprise Micro 5.2",
        "RelationType": "Default Component Of"
      },
      {
        "ProductReference": "python3-py-1.10.0-150100.5.12.1",
        "RelatesToProductReference": "SUSE Linux Enterprise Micro 5.3",
        "RelationType": "Default Component Of"
      },
      {
        "ProductReference": "python3-py-1.10.0-150100.5.12.1",
        "RelatesToProductReference": "SUSE Linux Enterprise Module for Basesystem 15 SP4",
        "RelationType": "Default Component Of"
      },
      {
        "ProductReference": "python3-py-1.10.0-150100.5.12.1",
        "RelatesToProductReference": "SUSE Linux Enterprise Real Time 15 SP3",
        "RelationType": "Default Component Of"
      },
      {
        "ProductReference": "python3-py-1.10.0-150100.5.12.1",
        "RelatesToProductReference": "openSUSE Leap 15.4",
        "RelationType": "Default Component Of"
      },
      {
        "ProductReference": "python3-py-1.10.0-150100.5.12.1",
        "RelatesToProductReference": "openSUSE Leap Micro 5.2",
        "RelationType": "Default Component Of"
      },
      {
        "ProductReference": "python3-py-1.10.0-150100.5.12.1",
        "RelatesToProductReference": "openSUSE Leap Micro 5.3",
        "RelationType": "Default Component Of"
      }
    ]
  },
  "References": [
    {
      "URL": "https://www.suse.com/support/update/announcement/2023/suse-su-20230161-1/",
      "Description": "Link for SUSE-SU-2023:0161-1"
    },
    {
      "URL": "https://lists.suse.com/pipermail/sle-security-updates/2023-January/013536.html",
      "Description": "E-Mail link for SUSE-SU-2023:0161-1"
    },
    {
      "URL": "https://www.suse.com/support/security/rating/",
      "Description": "SUSE Security Ratings"
    },
    {
      "URL": "https://bugzilla.suse.com/1204364",
      "Description": "SUSE Bug 1204364"
    },
    {
      "URL": "https://www.suse.com/security/cve/CVE-2022-42969/",
      "Description": "SUSE CVE CVE-2022-42969 page"
    }
  ],
  "Vulnerabilities": [
    {
      "CVE": "CVE-2022-42969",
      "Description": "** DISPUTED ** The py library through 1.11.0 for Python allows remote attackers to conduct a ReDoS (Regular expression Denial of Service) attack via a Subversion repository with crafted info data, because the InfoSvnCommand argument is mishandled. Note: This has been disputed by multiple third parties as not being reproduceable and they argue this is not a valid vulnerability.",
      "Threats": [
        {
          "Type": "Impact",
          "Severity": "moderate"
        }
      ],
      "References": [
        {
          "URL": "https://www.suse.com/security/cve/CVE-2022-42969.html",
          "Description": "CVE-2022-42969"
        },
        {
          "URL": "https://bugzilla.suse.com/1204364",
          "Description": "SUSE Bug 1204364"
        }
      ],
      "ProductStatuses": [
        {
          "Type": "Fixed",
          "ProductID": [
            "Container ses/7.1/cephcsi/cephcsi:latest:python3-py-1.10.0-150100.5.12.1",
            "Container ses/7.1/rook/ceph:latest:python3-py-1.10.0-150100.5.12.1",
            "Container suse/manager/4.3/proxy-tftpd:latest:python3-py-1.10.0-150100.5.12.1",
            "Container suse/manager/5.0/x86_64/proxy-tftpd:latest:python3-py-1.10.0-150100.5.12.1",
            "Container suse/manager/5.0/x86_64/server:latest:python3-py-1.10.0-150100.5.12.1",
            "Image SLES15-SP1-SAP-Azure-LI-BYOS-Production:python3-py-1.10.0-150100.5.12.1",
            "Image SLES15-SP1-SAP-Azure-VLI-BYOS-Production:python3-py-1.10.0-150100.5.12.1",
            "Image SLES15-SP2-BYOS-Azure:python3-py-1.10.0-150100.5.12.1",
            "Image SLES15-SP2-HPC-BYOS-Azure:python3-py-1.10.0-150100.5.12.1",
            "Image SLES15-SP2-SAP-Azure-LI-BYOS-Production:python3-py-1.10.0-150100.5.12.1",
            "Image SLES15-SP2-SAP-Azure-VLI-BYOS-Production:python3-py-1.10.0-150100.5.12.1",
            "Image SLES15-SP2-SAP-Azure:python3-py-1.10.0-150100.5.12.1",
            "Image SLES15-SP2-SAP-BYOS-Azure:python3-py-1.10.0-150100.5.12.1",
            "Image SLES15-SP2-SAP-BYOS-EC2-HVM:python3-py-1.10.0-150100.5.12.1",
            "Image SLES15-SP2-SAP-BYOS-GCE:python3-py-1.10.0-150100.5.12.1",
            "Image SLES15-SP2-SAP-EC2-HVM:python3-py-1.10.0-150100.5.12.1",
            "Image SLES15-SP2-SAP-GCE:python3-py-1.10.0-150100.5.12.1",
            "Image SLES15-SP3-BYOS-Azure:python3-py-1.10.0-150100.5.12.1",
            "Image SLES15-SP3-CHOST-BYOS-Aliyun:python3-py-1.10.0-150100.5.12.1",
            "Image SLES15-SP3-CHOST-BYOS-Azure:python3-py-1.10.0-150100.5.12.1",
            "Image SLES15-SP3-CHOST-BYOS-EC2:python3-py-1.10.0-150100.5.12.1",
            "Image SLES15-SP3-CHOST-BYOS-SAP-CCloud:python3-py-1.10.0-150100.5.12.1",
            "Image SLES15-SP3-HPC-BYOS-Azure:python3-py-1.10.0-150100.5.12.1",
            "Image SLES15-SP3-Manager-4-2-Proxy-BYOS-Azure:python3-py-1.10.0-150100.5.12.1",
            "Image SLES15-SP3-Manager-4-2-Proxy-BYOS-EC2-HVM:python3-py-1.10.0-150100.5.12.1",
            "Image SLES15-SP3-Manager-4-2-Proxy-BYOS-GCE:python3-py-1.10.0-150100.5.12.1",
            "Image SLES15-SP3-Manager-4-2-Server-BYOS-Azure:python2-py-1.10.0-150100.5.12.1",
            "Image SLES15-SP3-Manager-4-2-Server-BYOS-Azure:python3-py-1.10.0-150100.5.12.1",
            "Image SLES15-SP3-Manager-4-2-Server-BYOS-EC2-HVM:python2-py-1.10.0-150100.5.12.1",
            "Image SLES15-SP3-Manager-4-2-Server-BYOS-EC2-HVM:python3-py-1.10.0-150100.5.12.1",
            "Image SLES15-SP3-Manager-4-2-Server-BYOS-GCE:python2-py-1.10.0-150100.5.12.1",
            "Image SLES15-SP3-Manager-4-2-Server-BYOS-GCE:python3-py-1.10.0-150100.5.12.1",
            "Image SLES15-SP3-Micro-5-1-BYOS-Azure:python3-py-1.10.0-150100.5.12.1",
            "Image SLES15-SP3-Micro-5-1-BYOS-EC2-HVM:python3-py-1.10.0-150100.5.12.1",
            "Image SLES15-SP3-Micro-5-1-BYOS-GCE:python3-py-1.10.0-150100.5.12.1",
            "Image SLES15-SP3-Micro-5-2-BYOS-Azure:python3-py-1.10.0-150100.5.12.1",
            "Image SLES15-SP3-Micro-5-2-BYOS-EC2-HVM:python3-py-1.10.0-150100.5.12.1",
            "Image SLES15-SP3-Micro-5-2-BYOS-GCE:python3-py-1.10.0-150100.5.12.1",
            "Image SLES15-SP3-SAP-Azure-LI-BYOS-Production:python3-py-1.10.0-150100.5.12.1",
            "Image SLES15-SP3-SAP-Azure-VLI-BYOS-Production:python3-py-1.10.0-150100.5.12.1",
            "Image SLES15-SP3-SAP-BYOS-Azure:python3-py-1.10.0-150100.5.12.1",
            "Image SLES15-SP3-SAP-BYOS-EC2-HVM:python3-py-1.10.0-150100.5.12.1",
            "Image SLES15-SP3-SAP-BYOS-GCE:python3-py-1.10.0-150100.5.12.1",
            "Image SLES15-SP3-SAPCAL-Azure:python3-py-1.10.0-150100.5.12.1",
            "Image SLES15-SP4-Azure-Basic:python3-py-1.10.0-150100.5.12.1",
            "Image SLES15-SP4-Azure-Standard:python3-py-1.10.0-150100.5.12.1",
            "Image SLES15-SP4-BYOS-Azure:python3-py-1.10.0-150100.5.12.1",
            "Image SLES15-SP4-BYOS-EC2:python3-py-1.10.0-150100.5.12.1",
            "Image SLES15-SP4-BYOS-GCE:python3-py-1.10.0-150100.5.12.1",
            "Image SLES15-SP4-BYOS:python3-py-1.10.0-150100.5.12.1",
            "Image SLES15-SP4-CHOST-BYOS-Aliyun:python3-py-1.10.0-150100.5.12.1",
            "Image SLES15-SP4-CHOST-BYOS-Azure:python3-py-1.10.0-150100.5.12.1",
            "Image SLES15-SP4-CHOST-BYOS-EC2:python3-py-1.10.0-150100.5.12.1",
            "Image SLES15-SP4-CHOST-BYOS-GCE:python3-py-1.10.0-150100.5.12.1",
            "Image SLES15-SP4-CHOST-BYOS-SAP-CCloud:python3-py-1.10.0-150100.5.12.1",
            "Image SLES15-SP4-CHOST-BYOS:python3-py-1.10.0-150100.5.12.1",
            "Image SLES15-SP4-EC2-ECS-HVM:python3-py-1.10.0-150100.5.12.1",
            "Image SLES15-SP4-EC2:python3-py-1.10.0-150100.5.12.1",
            "Image SLES15-SP4-GCE:python3-py-1.10.0-150100.5.12.1",
            "Image SLES15-SP4-HPC-Azure:python3-py-1.10.0-150100.5.12.1",
            "Image SLES15-SP4-HPC-BYOS-Azure:python3-py-1.10.0-150100.5.12.1",
            "Image SLES15-SP4-HPC-BYOS-EC2:python3-py-1.10.0-150100.5.12.1",
            "Image SLES15-SP4-HPC-BYOS-GCE:python3-py-1.10.0-150100.5.12.1",
            "Image SLES15-SP4-HPC-BYOS:python3-py-1.10.0-150100.5.12.1",
            "Image SLES15-SP4-HPC-EC2:python3-py-1.10.0-150100.5.12.1",
            "Image SLES15-SP4-HPC-GCE:python3-py-1.10.0-150100.5.12.1",
            "Image SLES15-SP4-HPC:python3-py-1.10.0-150100.5.12.1",
            "Image SLES15-SP4-Hardened-BYOS-Azure:python3-py-1.10.0-150100.5.12.1",
            "Image SLES15-SP4-Hardened-BYOS-EC2:python3-py-1.10.0-150100.5.12.1",
            "Image SLES15-SP4-Hardened-BYOS-GCE:python3-py-1.10.0-150100.5.12.1",
            "Image SLES15-SP4-Hardened-BYOS:python3-py-1.10.0-150100.5.12.1",
            "Image SLES15-SP4-Manager-Proxy-4-3-BYOS-Azure:python3-py-1.10.0-150100.5.12.1",
            "Image SLES15-SP4-Manager-Proxy-4-3-BYOS-EC2:python3-py-1.10.0-150100.5.12.1",
            "Image SLES15-SP4-Manager-Proxy-4-3-BYOS-GCE:python3-py-1.10.0-150100.5.12.1",
            "Image SLES15-SP4-Manager-Proxy-4-3-BYOS:python3-py-1.10.0-150100.5.12.1",
            "Image SLES15-SP4-Manager-Server-4-3-Azure-llc:python3-py-1.10.0-150100.5.12.1",
            "Image SLES15-SP4-Manager-Server-4-3-Azure-ltd:python3-py-1.10.0-150100.5.12.1",
            "Image SLES15-SP4-Manager-Server-4-3-BYOS-Azure:python3-py-1.10.0-150100.5.12.1",
            "Image SLES15-SP4-Manager-Server-4-3-BYOS-EC2:python3-py-1.10.0-150100.5.12.1",
            "Image SLES15-SP4-Manager-Server-4-3-BYOS-GCE:python3-py-1.10.0-150100.5.12.1",
            "Image SLES15-SP4-Manager-Server-4-3-BYOS:python3-py-1.10.0-150100.5.12.1",
            "Image SLES15-SP4-Manager-Server-4-3-EC2-llc:python3-py-1.10.0-150100.5.12.1",
            "Image SLES15-SP4-Manager-Server-4-3-EC2-ltd:python3-py-1.10.0-150100.5.12.1",
            "Image SLES15-SP4-Manager-Server-4-3:python3-py-1.10.0-150100.5.12.1",
            "Image SLES15-SP4-Micro-5-3-Azure:python3-py-1.10.0-150100.5.12.1",
            "Image SLES15-SP4-Micro-5-3-BYOS-Azure:python3-py-1.10.0-150100.5.12.1",
            "Image SLES15-SP4-Micro-5-3-BYOS-EC2:python3-py-1.10.0-150100.5.12.1",
            "Image SLES15-SP4-Micro-5-3-BYOS-GCE:python3-py-1.10.0-150100.5.12.1",
            "Image SLES15-SP4-Micro-5-3-BYOS:python3-py-1.10.0-150100.5.12.1",
            "Image SLES15-SP4-Micro-5-3-EC2:python3-py-1.10.0-150100.5.12.1",
            "Image SLES15-SP4-Micro-5-3-GCE:python3-py-1.10.0-150100.5.12.1",
            "Image SLES15-SP4-Micro-5-3:python3-py-1.10.0-150100.5.12.1",
            "Image SLES15-SP4-Micro-5-4-Azure:python3-py-1.10.0-150100.5.12.1",
            "Image SLES15-SP4-Micro-5-4-BYOS-Azure:python3-py-1.10.0-150100.5.12.1",
            "Image SLES15-SP4-Micro-5-4-BYOS-EC2:python3-py-1.10.0-150100.5.12.1",
            "Image SLES15-SP4-Micro-5-4-BYOS-GCE:python3-py-1.10.0-150100.5.12.1",
            "Image SLES15-SP4-Micro-5-4-BYOS:python3-py-1.10.0-150100.5.12.1",
            "Image SLES15-SP4-Micro-5-4-EC2:python3-py-1.10.0-150100.5.12.1",
            "Image SLES15-SP4-Micro-5-4-GCE:python3-py-1.10.0-150100.5.12.1",
            "Image SLES15-SP4-Micro-5-4:python3-py-1.10.0-150100.5.12.1",
            "Image SLES15-SP4-SAP-Azure-LI-BYOS-Production:python3-py-1.10.0-150100.5.12.1",
            "Image SLES15-SP4-SAP-Azure-LI-BYOS:python3-py-1.10.0-150100.5.12.1",
            "Image SLES15-SP4-SAP-Azure-VLI-BYOS-Production:python3-py-1.10.0-150100.5.12.1",
            "Image SLES15-SP4-SAP-Azure-VLI-BYOS:python3-py-1.10.0-150100.5.12.1",
            "Image SLES15-SP4-SAP-Azure:python3-py-1.10.0-150100.5.12.1",
            "Image SLES15-SP4-SAP-BYOS-Azure:python3-py-1.10.0-150100.5.12.1",
            "Image SLES15-SP4-SAP-BYOS-EC2:python3-py-1.10.0-150100.5.12.1",
            "Image SLES15-SP4-SAP-BYOS-GCE:python3-py-1.10.0-150100.5.12.1",
            "Image SLES15-SP4-SAP-BYOS:python3-py-1.10.0-150100.5.12.1",
            "Image SLES15-SP4-SAP-EC2:python3-py-1.10.0-150100.5.12.1",
            "Image SLES15-SP4-SAP-GCE:python3-py-1.10.0-150100.5.12.1",
            "Image SLES15-SP4-SAP-Hardened-Azure:python3-py-1.10.0-150100.5.12.1",
            "Image SLES15-SP4-SAP-Hardened-BYOS-Azure:python3-py-1.10.0-150100.5.12.1",
            "Image SLES15-SP4-SAP-Hardened-BYOS-EC2:python3-py-1.10.0-150100.5.12.1",
            "Image SLES15-SP4-SAP-Hardened-BYOS-GCE:python3-py-1.10.0-150100.5.12.1",
            "Image SLES15-SP4-SAP-Hardened-BYOS:python3-py-1.10.0-150100.5.12.1",
            "Image SLES15-SP4-SAP-Hardened-EC2:python3-py-1.10.0-150100.5.12.1",
            "Image SLES15-SP4-SAP-Hardened-GCE:python3-py-1.10.0-150100.5.12.1",
            "Image SLES15-SP4-SAP-Hardened:python3-py-1.10.0-150100.5.12.1",
            "Image SLES15-SP4-SAP:python3-py-1.10.0-150100.5.12.1",
            "Image SLES15-SP4-SAPCAL-Azure:python3-py-1.10.0-150100.5.12.1",
            "Image SLES15-SP4-SAPCAL-EC2:python3-py-1.10.0-150100.5.12.1",
            "Image SLES15-SP4-SAPCAL-GCE:python3-py-1.10.0-150100.5.12.1",
            "Image SLES15-SP4-SAPCAL:python3-py-1.10.0-150100.5.12.1",
            "Image SLES15-SP4-SUSE-Rancher-Setup-BYOS-EC2:python3-py-1.10.0-150100.5.12.1",
            "Image SLES15-SP4-SUSE-Rancher-Setup-BYOS:python3-py-1.10.0-150100.5.12.1",
            "Image SLES15-SP4:python3-py-1.10.0-150100.5.12.1",
            "Image SLES15-SP5-Azure-Basic:python3-py-1.10.0-150100.5.12.1",
            "Image SLES15-SP5-Azure-Standard:python3-py-1.10.0-150100.5.12.1",
            "Image SLES15-SP5-BYOS-Azure:python3-py-1.10.0-150100.5.12.1",
            "Image SLES15-SP5-BYOS-EC2:python3-py-1.10.0-150100.5.12.1",
            "Image SLES15-SP5-BYOS-GCE:python3-py-1.10.0-150100.5.12.1",
            "Image SLES15-SP5-CHOST-BYOS-Aliyun:python3-py-1.10.0-150100.5.12.1",
            "Image SLES15-SP5-CHOST-BYOS-Azure:python3-py-1.10.0-150100.5.12.1",
            "Image SLES15-SP5-CHOST-BYOS-EC2:python3-py-1.10.0-150100.5.12.1",
            "Image SLES15-SP5-CHOST-BYOS-GCE:python3-py-1.10.0-150100.5.12.1",
            "Image SLES15-SP5-CHOST-BYOS-SAP-CCloud:python3-py-1.10.0-150100.5.12.1",
            "Image SLES15-SP5-EC2-ECS-HVM:python3-py-1.10.0-150100.5.12.1",
            "Image SLES15-SP5-EC2:python3-py-1.10.0-150100.5.12.1",
            "Image SLES15-SP5-GCE:python3-py-1.10.0-150100.5.12.1",
            "Image SLES15-SP5-HPC-Azure:python3-py-1.10.0-150100.5.12.1",
            "Image SLES15-SP5-HPC-BYOS-Azure:python3-py-1.10.0-150100.5.12.1",
            "Image SLES15-SP5-HPC-BYOS-EC2:python3-py-1.10.0-150100.5.12.1",
            "Image SLES15-SP5-HPC-BYOS-GCE:python3-py-1.10.0-150100.5.12.1",
            "Image SLES15-SP5-HPC-EC2:python3-py-1.10.0-150100.5.12.1",
            "Image SLES15-SP5-HPC-GCE:python3-py-1.10.0-150100.5.12.1",
            "Image SLES15-SP5-Hardened-BYOS-Azure:python3-py-1.10.0-150100.5.12.1",
            "Image SLES15-SP5-Hardened-BYOS-EC2:python3-py-1.10.0-150100.5.12.1",
            "Image SLES15-SP5-Hardened-BYOS-GCE:python3-py-1.10.0-150100.5.12.1",
            "Image SLES15-SP5-Micro-5-5-Azure:python3-py-1.10.0-150100.5.12.1",
            "Image SLES15-SP5-Micro-5-5-BYOS-Azure:python3-py-1.10.0-150100.5.12.1",
            "Image SLES15-SP5-Micro-5-5-BYOS-EC2:python3-py-1.10.0-150100.5.12.1",
            "Image SLES15-SP5-Micro-5-5-BYOS-GCE:python3-py-1.10.0-150100.5.12.1",
            "Image SLES15-SP5-Micro-5-5-BYOS:python3-py-1.10.0-150100.5.12.1",
            "Image SLES15-SP5-Micro-5-5-EC2:python3-py-1.10.0-150100.5.12.1",
            "Image SLES15-SP5-Micro-5-5-GCE:python3-py-1.10.0-150100.5.12.1",
            "Image SLES15-SP5-Micro-5-5:python3-py-1.10.0-150100.5.12.1",
            "Image SLES15-SP5-SAP-Azure-LI-BYOS-Production:python3-py-1.10.0-150100.5.12.1",
            "Image SLES15-SP5-SAP-Azure-LI-BYOS:python3-py-1.10.0-150100.5.12.1",
            "Image SLES15-SP5-SAP-Azure-VLI-BYOS-Production:python3-py-1.10.0-150100.5.12.1",
            "Image SLES15-SP5-SAP-Azure-VLI-BYOS:python3-py-1.10.0-150100.5.12.1",
            "Image SLES15-SP5-SAP-Azure:python3-py-1.10.0-150100.5.12.1",
            "Image SLES15-SP5-SAP-BYOS-Azure:python3-py-1.10.0-150100.5.12.1",
            "Image SLES15-SP5-SAP-BYOS-EC2:python3-py-1.10.0-150100.5.12.1",
            "Image SLES15-SP5-SAP-BYOS-GCE:python3-py-1.10.0-150100.5.12.1",
            "Image SLES15-SP5-SAP-EC2:python3-py-1.10.0-150100.5.12.1",
            "Image SLES15-SP5-SAP-GCE:python3-py-1.10.0-150100.5.12.1",
            "Image SLES15-SP5-SAP-Hardened-Azure:python3-py-1.10.0-150100.5.12.1",
            "Image SLES15-SP5-SAP-Hardened-BYOS-Azure:python3-py-1.10.0-150100.5.12.1",
            "Image SLES15-SP5-SAP-Hardened-BYOS-EC2:python3-py-1.10.0-150100.5.12.1",
            "Image SLES15-SP5-SAP-Hardened-BYOS-GCE:python3-py-1.10.0-150100.5.12.1",
            "Image SLES15-SP5-SAP-Hardened-EC2:python3-py-1.10.0-150100.5.12.1",
            "Image SLES15-SP5-SAP-Hardened-GCE:python3-py-1.10.0-150100.5.12.1",
            "Image SLES15-SP5-SAPCAL-Azure:python3-py-1.10.0-150100.5.12.1",
            "Image SLES15-SP5-SAPCAL-EC2:python3-py-1.10.0-150100.5.12.1",
            "Image SLES15-SP5-SAPCAL-GCE:python3-py-1.10.0-150100.5.12.1",
            "SUSE Linux Enterprise Micro 5.1:python3-py-1.10.0-150100.5.12.1",
            "SUSE Linux Enterprise Micro 5.2:python3-py-1.10.0-150100.5.12.1",
            "SUSE Linux Enterprise Micro 5.3:python3-py-1.10.0-150100.5.12.1",
            "SUSE Linux Enterprise Module for Basesystem 15 SP4:python3-py-1.10.0-150100.5.12.1",
            "SUSE Linux Enterprise Real Time 15 SP3:python3-py-1.10.0-150100.5.12.1",
            "openSUSE Leap 15.4:python3-py-1.10.0-150100.5.12.1",
            "openSUSE Leap Micro 5.2:python3-py-1.10.0-150100.5.12.1",
            "openSUSE Leap Micro 5.3:python3-py-1.10.0-150100.5.12.1"
          ]
        }
      ],
      "CVSSScoreSets": {}
    }
  ]
}