{
  "Title": "Security update for tar",
  "Tracking": {
    "ID": "SUSE-SU-2023:0463-1",
    "Status": "Final",
    "Version": "1",
    "InitialReleaseDate": "2023-02-20T15:33:55Z",
    "CurrentReleaseDate": "2023-02-20T15:33:55Z",
    "RevisionHistory": [
      {
        "Number": "1",
        "Date": "2023-02-20T15:33:55Z",
        "Description": "current"
      }
    ]
  },
  "Notes": [
    {
      "Text": "Security update for tar",
      "Title": "Topic",
      "Type": "Summary"
    },
    {
      "Text": "This update for tar fixes the following issues:\n\n- CVE-2022-48303: Fixed a one-byte out-of-bounds read that resulted in use of uninitialized memory for a conditional jump (bsc#1207753). \n\nBug fixes:\n\n- Fix hang when unpacking test tarball (bsc#1202436).\n",
      "Title": "Details",
      "Type": "General"
    },
    {
      "Text": "The CVRF data is provided by SUSE under the Creative Commons License 4.0 with Attribution (CC-BY-4.0).",
      "Title": "Terms of Use",
      "Type": "Legal Disclaimer"
    },
    {
      "Text": "Container bci/bci-sle15-kernel-module-devel:15.6-2023-463,Container bci/bci-sle15-kernel-module-devel:latest-2023-463,Container bci/node:16-2023-463,Container rancher/elemental-teal-iso/5.4:latest-2023-463,Container rancher/elemental-teal-rt/5.3:latest-2023-463,Container rancher/elemental-teal-rt/5.4:latest-2023-463,Container rancher/elemental-teal/5.3:latest-2023-463,Container rancher/elemental-teal/5.4:latest-2023-463,Container suse/hpc/warewulf4-x86_64/sle-hpc-node:latest-2023-463,Container suse/manager/5.0/x86_64/server:latest-2023-463,Container suse/postgres:14-2023-463,Container suse/sle-micro-rancher/5.2:latest-2023-463,Container suse/sle-micro-rancher/5.3:latest-2023-463,Container suse/sle-micro-rancher/5.4:latest-2023-463,Container suse/sle-micro/5.1/toolbox:latest-2023-463,Container suse/sle-micro/5.2/toolbox:latest-2023-463,Container suse/sle-micro/5.3/toolbox:latest-2023-463,Container suse/sle-micro/5.4/toolbox:latest-2023-463,Container suse/sle-micro/5.5/toolbox:latest-2023-463,Container suse/sle-micro/5.5:latest-2023-463,Container suse/sle-micro/base-5.5:latest-2023-463,Container suse/sle15:15.5-2023-463,Container suse/sle15:15.6-2023-463,Container suse/sles/15.5/cdi-apiserver:1.55.0-2023-463,Container suse/sles/15.5/cdi-cloner:1.55.0-2023-463,Container suse/sles/15.5/cdi-controller:1.55.0-2023-463,Container suse/sles/15.5/cdi-importer:1.55.0-2023-463,Container suse/sles/15.5/cdi-operator:1.55.0-2023-463,Container suse/sles/15.5/cdi-uploadproxy:1.55.0-2023-463,Container suse/sles/15.5/cdi-uploadserver:1.55.0-2023-463,Container suse/sles/15.5/libguestfs-tools:0.58.0-2023-463,Container suse/sles/15.5/virt-api:0.58.0-2023-463,Container suse/sles/15.5/virt-controller:0.58.0-2023-463,Container suse/sles/15.5/virt-exportproxy:0.58.0-2023-463,Container suse/sles/15.5/virt-exportserver:0.58.0-2023-463,Container suse/sles/15.5/virt-handler:0.58.0-2023-463,Container suse/sles/15.5/virt-launcher:0.58.0-2023-463,Container suse/sles/15.5/virt-operator:0.58.0-2023-463,Container suse/sles/15.6/cdi-cloner:1.58.0-2023-463,Container suse/sles/15.6/cdi-importer:1.58.0-2023-463,Container suse/sles/15.6/cdi-uploadserver:1.58.0-2023-463,Container suse/sles/15.6/libguestfs-tools:1.1.1-2023-463,Container suse/sles/15.6/virt-exportserver:1.1.1-2023-463,Container suse/sles/15.6/virt-handler:1.1.1-2023-463,Container suse/sles/15.6/virt-launcher:1.1.1-2023-463,Container trento/trento-web:latest-2023-463,Image SLES15-SP1-SAP-Azure-LI-BYOS-Production-2023-463,Image SLES15-SP1-SAP-Azure-VLI-BYOS-Production-2023-463,Image SLES15-SP2-BYOS-Azure-2023-463,Image SLES15-SP2-HPC-BYOS-Azure-2023-463,Image SLES15-SP2-SAP-Azure-2023-463,Image SLES15-SP2-SAP-Azure-LI-BYOS-Production-2023-463,Image SLES15-SP2-SAP-Azure-VLI-BYOS-Production-2023-463,Image SLES15-SP2-SAP-BYOS-Azure-2023-463,Image SLES15-SP2-SAP-BYOS-EC2-HVM-2023-463,Image SLES15-SP2-SAP-BYOS-GCE-2023-463,Image SLES15-SP2-SAP-EC2-HVM-2023-463,Image SLES15-SP2-SAP-GCE-2023-463,Image SLES15-SP3-BYOS-Azure-2023-463,Image SLES15-SP3-CHOST-BYOS-Aliyun-2023-463,Image SLES15-SP3-CHOST-BYOS-Azure-2023-463,Image SLES15-SP3-CHOST-BYOS-EC2-2023-463,Image SLES15-SP3-CHOST-BYOS-GCE-2023-463,Image SLES15-SP3-CHOST-BYOS-SAP-CCloud-2023-463,Image SLES15-SP3-HPC-BYOS-Azure-2023-463,Image SLES15-SP3-Manager-4-2-Proxy-BYOS-Azure-2023-463,Image SLES15-SP3-Manager-4-2-Proxy-BYOS-EC2-HVM-2023-463,Image SLES15-SP3-Manager-4-2-Proxy-BYOS-GCE-2023-463,Image SLES15-SP3-Manager-4-2-Server-BYOS-Azure-2023-463,Image SLES15-SP3-Manager-4-2-Server-BYOS-EC2-HVM-2023-463,Image SLES15-SP3-Manager-4-2-Server-BYOS-GCE-2023-463,Image SLES15-SP3-Micro-5-1-BYOS-Azure-2023-463,Image SLES15-SP3-Micro-5-1-BYOS-EC2-HVM-2023-463,Image SLES15-SP3-Micro-5-1-BYOS-GCE-2023-463,Image SLES15-SP3-Micro-5-2-BYOS-Azure-2023-463,Image SLES15-SP3-Micro-5-2-BYOS-EC2-HVM-2023-463,Image SLES15-SP3-Micro-5-2-BYOS-GCE-2023-463,Image SLES15-SP3-SAP-Azure-LI-BYOS-Production-2023-463,Image SLES15-SP3-SAP-Azure-VLI-BYOS-Production-2023-463,Image SLES15-SP3-SAP-BYOS-Azure-2023-463,Image SLES15-SP3-SAP-BYOS-EC2-HVM-2023-463,Image SLES15-SP3-SAP-BYOS-GCE-2023-463,Image SLES15-SP3-SAPCAL-Azure-2023-463,Image SLES15-SP4-2023-463,Image SLES15-SP4-Azure-Basic-2023-463,Image SLES15-SP4-Azure-Standard-2023-463,Image SLES15-SP4-BYOS-2023-463,Image SLES15-SP4-BYOS-Azure-2023-463,Image SLES15-SP4-BYOS-EC2-2023-463,Image SLES15-SP4-BYOS-GCE-2023-463,Image SLES15-SP4-CHOST-BYOS-2023-463,Image SLES15-SP4-CHOST-BYOS-Aliyun-2023-463,Image SLES15-SP4-CHOST-BYOS-Azure-2023-463,Image SLES15-SP4-CHOST-BYOS-EC2-2023-463,Image SLES15-SP4-CHOST-BYOS-GCE-2023-463,Image SLES15-SP4-CHOST-BYOS-SAP-CCloud-2023-463,Image SLES15-SP4-EC2-2023-463,Image SLES15-SP4-EC2-ECS-HVM-2023-463,Image SLES15-SP4-GCE-2023-463,Image SLES15-SP4-HPC-2023-463,Image SLES15-SP4-HPC-Azure-2023-463,Image SLES15-SP4-HPC-BYOS-2023-463,Image SLES15-SP4-HPC-BYOS-Azure-2023-463,Image SLES15-SP4-HPC-BYOS-EC2-2023-463,Image SLES15-SP4-HPC-BYOS-GCE-2023-463,Image SLES15-SP4-HPC-EC2-2023-463,Image SLES15-SP4-HPC-GCE-2023-463,Image SLES15-SP4-Hardened-BYOS-2023-463,Image SLES15-SP4-Hardened-BYOS-Azure-2023-463,Image SLES15-SP4-Hardened-BYOS-EC2-2023-463,Image SLES15-SP4-Hardened-BYOS-GCE-2023-463,Image SLES15-SP4-Manager-Proxy-4-3-BYOS-2023-463,Image SLES15-SP4-Manager-Proxy-4-3-BYOS-Azure-2023-463,Image SLES15-SP4-Manager-Proxy-4-3-BYOS-EC2-2023-463,Image SLES15-SP4-Manager-Proxy-4-3-BYOS-GCE-2023-463,Image SLES15-SP4-Manager-Server-4-3-2023-463,Image SLES15-SP4-Manager-Server-4-3-Azure-llc-2023-463,Image SLES15-SP4-Manager-Server-4-3-Azure-ltd-2023-463,Image SLES15-SP4-Manager-Server-4-3-BYOS-2023-463,Image SLES15-SP4-Manager-Server-4-3-BYOS-Azure-2023-463,Image SLES15-SP4-Manager-Server-4-3-BYOS-EC2-2023-463,Image SLES15-SP4-Manager-Server-4-3-BYOS-GCE-2023-463,Image SLES15-SP4-Manager-Server-4-3-EC2-llc-2023-463,Image SLES15-SP4-Manager-Server-4-3-EC2-ltd-2023-463,Image SLES15-SP4-Micro-5-3-2023-463,Image SLES15-SP4-Micro-5-3-Azure-2023-463,Image SLES15-SP4-Micro-5-3-BYOS-2023-463,Image SLES15-SP4-Micro-5-3-BYOS-Azure-2023-463,Image SLES15-SP4-Micro-5-3-BYOS-EC2-2023-463,Image SLES15-SP4-Micro-5-3-BYOS-GCE-2023-463,Image SLES15-SP4-Micro-5-3-EC2-2023-463,Image SLES15-SP4-Micro-5-3-GCE-2023-463,Image SLES15-SP4-Micro-5-4-2023-463,Image SLES15-SP4-Micro-5-4-Azure-2023-463,Image SLES15-SP4-Micro-5-4-BYOS-2023-463,Image SLES15-SP4-Micro-5-4-BYOS-Azure-2023-463,Image SLES15-SP4-Micro-5-4-BYOS-EC2-2023-463,Image SLES15-SP4-Micro-5-4-BYOS-GCE-2023-463,Image SLES15-SP4-Micro-5-4-EC2-2023-463,Image SLES15-SP4-Micro-5-4-GCE-2023-463,Image SLES15-SP4-SAP-2023-463,Image SLES15-SP4-SAP-Azure-2023-463,Image SLES15-SP4-SAP-Azure-LI-BYOS-2023-463,Image SLES15-SP4-SAP-Azure-LI-BYOS-Production-2023-463,Image SLES15-SP4-SAP-Azure-VLI-BYOS-2023-463,Image SLES15-SP4-SAP-Azure-VLI-BYOS-Production-2023-463,Image SLES15-SP4-SAP-BYOS-2023-463,Image SLES15-SP4-SAP-BYOS-Azure-2023-463,Image SLES15-SP4-SAP-BYOS-EC2-2023-463,Image SLES15-SP4-SAP-BYOS-GCE-2023-463,Image SLES15-SP4-SAP-EC2-2023-463,Image SLES15-SP4-SAP-GCE-2023-463,Image SLES15-SP4-SAP-Hardened-2023-463,Image SLES15-SP4-SAP-Hardened-Azure-2023-463,Image SLES15-SP4-SAP-Hardened-BYOS-2023-463,Image SLES15-SP4-SAP-Hardened-BYOS-Azure-2023-463,Image SLES15-SP4-SAP-Hardened-BYOS-EC2-2023-463,Image SLES15-SP4-SAP-Hardened-BYOS-GCE-2023-463,Image SLES15-SP4-SAP-Hardened-EC2-2023-463,Image SLES15-SP4-SAP-Hardened-GCE-2023-463,Image SLES15-SP4-SAPCAL-2023-463,Image SLES15-SP4-SAPCAL-Azure-2023-463,Image SLES15-SP4-SAPCAL-EC2-2023-463,Image SLES15-SP4-SAPCAL-GCE-2023-463,Image SLES15-SP4-SUSE-Rancher-Setup-BYOS-2023-463,Image SLES15-SP4-SUSE-Rancher-Setup-BYOS-EC2-2023-463,Image SLES15-SP5-Azure-Basic-2023-463,Image SLES15-SP5-Azure-Standard-2023-463,Image SLES15-SP5-BYOS-Azure-2023-463,Image SLES15-SP5-BYOS-EC2-2023-463,Image SLES15-SP5-BYOS-GCE-2023-463,Image SLES15-SP5-CHOST-BYOS-Aliyun-2023-463,Image SLES15-SP5-CHOST-BYOS-Azure-2023-463,Image SLES15-SP5-CHOST-BYOS-EC2-2023-463,Image SLES15-SP5-CHOST-BYOS-GCE-2023-463,Image SLES15-SP5-CHOST-BYOS-SAP-CCloud-2023-463,Image SLES15-SP5-EC2-2023-463,Image SLES15-SP5-EC2-ECS-HVM-2023-463,Image SLES15-SP5-GCE-2023-463,Image SLES15-SP5-HPC-Azure-2023-463,Image SLES15-SP5-HPC-BYOS-Azure-2023-463,Image SLES15-SP5-HPC-BYOS-EC2-2023-463,Image SLES15-SP5-HPC-BYOS-GCE-2023-463,Image SLES15-SP5-HPC-EC2-2023-463,Image SLES15-SP5-HPC-GCE-2023-463,Image SLES15-SP5-Hardened-BYOS-Azure-2023-463,Image SLES15-SP5-Hardened-BYOS-EC2-2023-463,Image SLES15-SP5-Hardened-BYOS-GCE-2023-463,Image SLES15-SP5-Micro-5-5-2023-463,Image SLES15-SP5-Micro-5-5-Azure-2023-463,Image SLES15-SP5-Micro-5-5-BYOS-2023-463,Image SLES15-SP5-Micro-5-5-BYOS-Azure-2023-463,Image SLES15-SP5-Micro-5-5-BYOS-EC2-2023-463,Image SLES15-SP5-Micro-5-5-BYOS-GCE-2023-463,Image SLES15-SP5-Micro-5-5-EC2-2023-463,Image SLES15-SP5-Micro-5-5-GCE-2023-463,Image SLES15-SP5-SAP-Azure-2023-463,Image SLES15-SP5-SAP-Azure-LI-BYOS-2023-463,Image SLES15-SP5-SAP-Azure-LI-BYOS-Production-2023-463,Image SLES15-SP5-SAP-Azure-VLI-BYOS-2023-463,Image SLES15-SP5-SAP-Azure-VLI-BYOS-Production-2023-463,Image SLES15-SP5-SAP-BYOS-Azure-2023-463,Image SLES15-SP5-SAP-BYOS-EC2-2023-463,Image SLES15-SP5-SAP-BYOS-GCE-2023-463,Image SLES15-SP5-SAP-EC2-2023-463,Image SLES15-SP5-SAP-GCE-2023-463,Image SLES15-SP5-SAP-Hardened-Azure-2023-463,Image SLES15-SP5-SAP-Hardened-BYOS-Azure-2023-463,Image SLES15-SP5-SAP-Hardened-BYOS-EC2-2023-463,Image SLES15-SP5-SAP-Hardened-BYOS-GCE-2023-463,Image SLES15-SP5-SAP-Hardened-EC2-2023-463,Image SLES15-SP5-SAP-Hardened-GCE-2023-463,Image SLES15-SP5-SAPCAL-Azure-2023-463,Image SLES15-SP5-SAPCAL-EC2-2023-463,Image SLES15-SP5-SAPCAL-GCE-2023-463,SUSE-2023-463,SUSE-SLE-Micro-5.3-2023-463,SUSE-SLE-Module-Basesystem-15-SP4-2023-463,SUSE-SLE-Product-RT-15-SP3-2023-463,SUSE-SUSE-MicroOS-5.1-2023-463,SUSE-SUSE-MicroOS-5.2-2023-463,openSUSE-Leap-Micro-5.2-2023-463,openSUSE-Leap-Micro-5.3-2023-463,openSUSE-SLE-15.4-2023-463",
      "Title": "Patchnames",
      "Type": "Details"
    }
  ],
  "ProductTree": {
    "Relationships": [
      {
        "ProductReference": "tar-1.34-150000.3.31.1",
        "RelatesToProductReference": "Container bci/bci-sle15-kernel-module-devel:15.6",
        "RelationType": "Default Component Of"
      },
      {
        "ProductReference": "tar-1.34-150000.3.31.1",
        "RelatesToProductReference": "Container bci/bci-sle15-kernel-module-devel:latest",
        "RelationType": "Default Component Of"
      },
      {
        "ProductReference": "tar-1.34-150000.3.31.1",
        "RelatesToProductReference": "Container bci/node:16",
        "RelationType": "Default Component Of"
      },
      {
        "ProductReference": "tar-1.34-150000.3.31.1",
        "RelatesToProductReference": "Container rancher/elemental-teal-iso/5.4:latest",
        "RelationType": "Default Component Of"
      },
      {
        "ProductReference": "tar-1.34-150000.3.31.1",
        "RelatesToProductReference": "Container rancher/elemental-teal-rt/5.3:latest",
        "RelationType": "Default Component Of"
      },
      {
        "ProductReference": "tar-1.34-150000.3.31.1",
        "RelatesToProductReference": "Container rancher/elemental-teal-rt/5.4:latest",
        "RelationType": "Default Component Of"
      },
      {
        "ProductReference": "tar-1.34-150000.3.31.1",
        "RelatesToProductReference": "Container rancher/elemental-teal/5.3:latest",
        "RelationType": "Default Component Of"
      },
      {
        "ProductReference": "tar-1.34-150000.3.31.1",
        "RelatesToProductReference": "Container rancher/elemental-teal/5.4:latest",
        "RelationType": "Default Component Of"
      },
      {
        "ProductReference": "tar-1.34-150000.3.31.1",
        "RelatesToProductReference": "Container suse/hpc/warewulf4-x86_64/sle-hpc-node:latest",
        "RelationType": "Default Component Of"
      },
      {
        "ProductReference": "tar-1.34-150000.3.31.1",
        "RelatesToProductReference": "Container suse/manager/5.0/x86_64/server:latest",
        "RelationType": "Default Component Of"
      },
      {
        "ProductReference": "tar-1.34-150000.3.31.1",
        "RelatesToProductReference": "Container suse/postgres:14",
        "RelationType": "Default Component Of"
      },
      {
        "ProductReference": "tar-1.34-150000.3.31.1",
        "RelatesToProductReference": "Container suse/sle-micro-rancher/5.2:latest",
        "RelationType": "Default Component Of"
      },
      {
        "ProductReference": "tar-1.34-150000.3.31.1",
        "RelatesToProductReference": "Container suse/sle-micro-rancher/5.3:latest",
        "RelationType": "Default Component Of"
      },
      {
        "ProductReference": "tar-1.34-150000.3.31.1",
        "RelatesToProductReference": "Container suse/sle-micro-rancher/5.4:latest",
        "RelationType": "Default Component Of"
      },
      {
        "ProductReference": "tar-1.34-150000.3.31.1",
        "RelatesToProductReference": "Container suse/sle-micro/5.1/toolbox:latest",
        "RelationType": "Default Component Of"
      },
      {
        "ProductReference": "tar-1.34-150000.3.31.1",
        "RelatesToProductReference": "Container suse/sle-micro/5.2/toolbox:latest",
        "RelationType": "Default Component Of"
      },
      {
        "ProductReference": "tar-1.34-150000.3.31.1",
        "RelatesToProductReference": "Container suse/sle-micro/5.3/toolbox:latest",
        "RelationType": "Default Component Of"
      },
      {
        "ProductReference": "tar-1.34-150000.3.31.1",
        "RelatesToProductReference": "Container suse/sle-micro/5.4/toolbox:latest",
        "RelationType": "Default Component Of"
      },
      {
        "ProductReference": "tar-1.34-150000.3.31.1",
        "RelatesToProductReference": "Container suse/sle-micro/5.5/toolbox:latest",
        "RelationType": "Default Component Of"
      },
      {
        "ProductReference": "tar-1.34-150000.3.31.1",
        "RelatesToProductReference": "Container suse/sle-micro/5.5:latest",
        "RelationType": "Default Component Of"
      },
      {
        "ProductReference": "tar-1.34-150000.3.31.1",
        "RelatesToProductReference": "Container suse/sle-micro/base-5.5:latest",
        "RelationType": "Default Component Of"
      },
      {
        "ProductReference": "tar-1.34-150000.3.31.1",
        "RelatesToProductReference": "Container suse/sle15:15.5",
        "RelationType": "Default Component Of"
      },
      {
        "ProductReference": "tar-1.34-150000.3.31.1",
        "RelatesToProductReference": "Container suse/sle15:15.6",
        "RelationType": "Default Component Of"
      },
      {
        "ProductReference": "tar-1.34-150000.3.31.1",
        "RelatesToProductReference": "Container suse/sles/15.5/cdi-apiserver:1.55.0",
        "RelationType": "Default Component Of"
      },
      {
        "ProductReference": "tar-1.34-150000.3.31.1",
        "RelatesToProductReference": "Container suse/sles/15.5/cdi-cloner:1.55.0",
        "RelationType": "Default Component Of"
      },
      {
        "ProductReference": "tar-1.34-150000.3.31.1",
        "RelatesToProductReference": "Container suse/sles/15.5/cdi-controller:1.55.0",
        "RelationType": "Default Component Of"
      },
      {
        "ProductReference": "tar-1.34-150000.3.31.1",
        "RelatesToProductReference": "Container suse/sles/15.5/cdi-importer:1.55.0",
        "RelationType": "Default Component Of"
      },
      {
        "ProductReference": "tar-1.34-150000.3.31.1",
        "RelatesToProductReference": "Container suse/sles/15.5/cdi-operator:1.55.0",
        "RelationType": "Default Component Of"
      },
      {
        "ProductReference": "tar-1.34-150000.3.31.1",
        "RelatesToProductReference": "Container suse/sles/15.5/cdi-uploadproxy:1.55.0",
        "RelationType": "Default Component Of"
      },
      {
        "ProductReference": "tar-1.34-150000.3.31.1",
        "RelatesToProductReference": "Container suse/sles/15.5/cdi-uploadserver:1.55.0",
        "RelationType": "Default Component Of"
      },
      {
        "ProductReference": "tar-1.34-150000.3.31.1",
        "RelatesToProductReference": "Container suse/sles/15.5/libguestfs-tools:0.58.0",
        "RelationType": "Default Component Of"
      },
      {
        "ProductReference": "tar-1.34-150000.3.31.1",
        "RelatesToProductReference": "Container suse/sles/15.5/virt-api:0.58.0",
        "RelationType": "Default Component Of"
      },
      {
        "ProductReference": "tar-1.34-150000.3.31.1",
        "RelatesToProductReference": "Container suse/sles/15.5/virt-controller:0.58.0",
        "RelationType": "Default Component Of"
      },
      {
        "ProductReference": "tar-1.34-150000.3.31.1",
        "RelatesToProductReference": "Container suse/sles/15.5/virt-exportproxy:0.58.0",
        "RelationType": "Default Component Of"
      },
      {
        "ProductReference": "tar-1.34-150000.3.31.1",
        "RelatesToProductReference": "Container suse/sles/15.5/virt-exportserver:0.58.0",
        "RelationType": "Default Component Of"
      },
      {
        "ProductReference": "tar-1.34-150000.3.31.1",
        "RelatesToProductReference": "Container suse/sles/15.5/virt-handler:0.58.0",
        "RelationType": "Default Component Of"
      },
      {
        "ProductReference": "tar-1.34-150000.3.31.1",
        "RelatesToProductReference": "Container suse/sles/15.5/virt-launcher:0.58.0",
        "RelationType": "Default Component Of"
      },
      {
        "ProductReference": "tar-1.34-150000.3.31.1",
        "RelatesToProductReference": "Container suse/sles/15.5/virt-operator:0.58.0",
        "RelationType": "Default Component Of"
      },
      {
        "ProductReference": "tar-1.34-150000.3.31.1",
        "RelatesToProductReference": "Container suse/sles/15.6/cdi-cloner:1.58.0",
        "RelationType": "Default Component Of"
      },
      {
        "ProductReference": "tar-1.34-150000.3.31.1",
        "RelatesToProductReference": "Container suse/sles/15.6/cdi-importer:1.58.0",
        "RelationType": "Default Component Of"
      },
      {
        "ProductReference": "tar-1.34-150000.3.31.1",
        "RelatesToProductReference": "Container suse/sles/15.6/cdi-uploadserver:1.58.0",
        "RelationType": "Default Component Of"
      },
      {
        "ProductReference": "tar-1.34-150000.3.31.1",
        "RelatesToProductReference": "Container suse/sles/15.6/libguestfs-tools:1.1.1",
        "RelationType": "Default Component Of"
      },
      {
        "ProductReference": "tar-1.34-150000.3.31.1",
        "RelatesToProductReference": "Container suse/sles/15.6/virt-exportserver:1.1.1",
        "RelationType": "Default Component Of"
      },
      {
        "ProductReference": "tar-1.34-150000.3.31.1",
        "RelatesToProductReference": "Container suse/sles/15.6/virt-handler:1.1.1",
        "RelationType": "Default Component Of"
      },
      {
        "ProductReference": "tar-1.34-150000.3.31.1",
        "RelatesToProductReference": "Container suse/sles/15.6/virt-launcher:1.1.1",
        "RelationType": "Default Component Of"
      },
      {
        "ProductReference": "tar-1.34-150000.3.31.1",
        "RelatesToProductReference": "Container trento/trento-web:latest",
        "RelationType": "Default Component Of"
      },
      {
        "ProductReference": "tar-1.34-150000.3.31.1",
        "RelatesToProductReference": "Image SLES15-SP1-SAP-Azure-LI-BYOS-Production",
        "RelationType": "Default Component Of"
      },
      {
        "ProductReference": "tar-1.34-150000.3.31.1",
        "RelatesToProductReference": "Image SLES15-SP1-SAP-Azure-VLI-BYOS-Production",
        "RelationType": "Default Component Of"
      },
      {
        "ProductReference": "tar-1.34-150000.3.31.1",
        "RelatesToProductReference": "Image SLES15-SP2-BYOS-Azure",
        "RelationType": "Default Component Of"
      },
      {
        "ProductReference": "tar-1.34-150000.3.31.1",
        "RelatesToProductReference": "Image SLES15-SP2-HPC-BYOS-Azure",
        "RelationType": "Default Component Of"
      },
      {
        "ProductReference": "tar-1.34-150000.3.31.1",
        "RelatesToProductReference": "Image SLES15-SP2-SAP-Azure",
        "RelationType": "Default Component Of"
      },
      {
        "ProductReference": "tar-1.34-150000.3.31.1",
        "RelatesToProductReference": "Image SLES15-SP2-SAP-Azure-LI-BYOS-Production",
        "RelationType": "Default Component Of"
      },
      {
        "ProductReference": "tar-1.34-150000.3.31.1",
        "RelatesToProductReference": "Image SLES15-SP2-SAP-Azure-VLI-BYOS-Production",
        "RelationType": "Default Component Of"
      },
      {
        "ProductReference": "tar-1.34-150000.3.31.1",
        "RelatesToProductReference": "Image SLES15-SP2-SAP-BYOS-Azure",
        "RelationType": "Default Component Of"
      },
      {
        "ProductReference": "tar-1.34-150000.3.31.1",
        "RelatesToProductReference": "Image SLES15-SP2-SAP-BYOS-EC2-HVM",
        "RelationType": "Default Component Of"
      },
      {
        "ProductReference": "tar-1.34-150000.3.31.1",
        "RelatesToProductReference": "Image SLES15-SP2-SAP-BYOS-GCE",
        "RelationType": "Default Component Of"
      },
      {
        "ProductReference": "tar-1.34-150000.3.31.1",
        "RelatesToProductReference": "Image SLES15-SP2-SAP-EC2-HVM",
        "RelationType": "Default Component Of"
      },
      {
        "ProductReference": "tar-1.34-150000.3.31.1",
        "RelatesToProductReference": "Image SLES15-SP2-SAP-GCE",
        "RelationType": "Default Component Of"
      },
      {
        "ProductReference": "tar-1.34-150000.3.31.1",
        "RelatesToProductReference": "Image SLES15-SP3-BYOS-Azure",
        "RelationType": "Default Component Of"
      },
      {
        "ProductReference": "tar-1.34-150000.3.31.1",
        "RelatesToProductReference": "Image SLES15-SP3-CHOST-BYOS-Aliyun",
        "RelationType": "Default Component Of"
      },
      {
        "ProductReference": "tar-1.34-150000.3.31.1",
        "RelatesToProductReference": "Image SLES15-SP3-CHOST-BYOS-Azure",
        "RelationType": "Default Component Of"
      },
      {
        "ProductReference": "tar-1.34-150000.3.31.1",
        "RelatesToProductReference": "Image SLES15-SP3-CHOST-BYOS-EC2",
        "RelationType": "Default Component Of"
      },
      {
        "ProductReference": "tar-1.34-150000.3.31.1",
        "RelatesToProductReference": "Image SLES15-SP3-CHOST-BYOS-GCE",
        "RelationType": "Default Component Of"
      },
      {
        "ProductReference": "tar-1.34-150000.3.31.1",
        "RelatesToProductReference": "Image SLES15-SP3-CHOST-BYOS-SAP-CCloud",
        "RelationType": "Default Component Of"
      },
      {
        "ProductReference": "tar-1.34-150000.3.31.1",
        "RelatesToProductReference": "Image SLES15-SP3-HPC-BYOS-Azure",
        "RelationType": "Default Component Of"
      },
      {
        "ProductReference": "tar-1.34-150000.3.31.1",
        "RelatesToProductReference": "Image SLES15-SP3-Manager-4-2-Proxy-BYOS-Azure",
        "RelationType": "Default Component Of"
      },
      {
        "ProductReference": "tar-1.34-150000.3.31.1",
        "RelatesToProductReference": "Image SLES15-SP3-Manager-4-2-Proxy-BYOS-EC2-HVM",
        "RelationType": "Default Component Of"
      },
      {
        "ProductReference": "tar-1.34-150000.3.31.1",
        "RelatesToProductReference": "Image SLES15-SP3-Manager-4-2-Proxy-BYOS-GCE",
        "RelationType": "Default Component Of"
      },
      {
        "ProductReference": "tar-1.34-150000.3.31.1",
        "RelatesToProductReference": "Image SLES15-SP3-Manager-4-2-Server-BYOS-Azure",
        "RelationType": "Default Component Of"
      },
      {
        "ProductReference": "tar-1.34-150000.3.31.1",
        "RelatesToProductReference": "Image SLES15-SP3-Manager-4-2-Server-BYOS-EC2-HVM",
        "RelationType": "Default Component Of"
      },
      {
        "ProductReference": "tar-1.34-150000.3.31.1",
        "RelatesToProductReference": "Image SLES15-SP3-Manager-4-2-Server-BYOS-GCE",
        "RelationType": "Default Component Of"
      },
      {
        "ProductReference": "tar-1.34-150000.3.31.1",
        "RelatesToProductReference": "Image SLES15-SP3-Micro-5-1-BYOS-Azure",
        "RelationType": "Default Component Of"
      },
      {
        "ProductReference": "tar-1.34-150000.3.31.1",
        "RelatesToProductReference": "Image SLES15-SP3-Micro-5-1-BYOS-EC2-HVM",
        "RelationType": "Default Component Of"
      },
      {
        "ProductReference": "tar-1.34-150000.3.31.1",
        "RelatesToProductReference": "Image SLES15-SP3-Micro-5-1-BYOS-GCE",
        "RelationType": "Default Component Of"
      },
      {
        "ProductReference": "tar-1.34-150000.3.31.1",
        "RelatesToProductReference": "Image SLES15-SP3-Micro-5-2-BYOS-Azure",
        "RelationType": "Default Component Of"
      },
      {
        "ProductReference": "tar-1.34-150000.3.31.1",
        "RelatesToProductReference": "Image SLES15-SP3-Micro-5-2-BYOS-EC2-HVM",
        "RelationType": "Default Component Of"
      },
      {
        "ProductReference": "tar-1.34-150000.3.31.1",
        "RelatesToProductReference": "Image SLES15-SP3-Micro-5-2-BYOS-GCE",
        "RelationType": "Default Component Of"
      },
      {
        "ProductReference": "tar-1.34-150000.3.31.1",
        "RelatesToProductReference": "Image SLES15-SP3-SAP-Azure-LI-BYOS-Production",
        "RelationType": "Default Component Of"
      },
      {
        "ProductReference": "tar-1.34-150000.3.31.1",
        "RelatesToProductReference": "Image SLES15-SP3-SAP-Azure-VLI-BYOS-Production",
        "RelationType": "Default Component Of"
      },
      {
        "ProductReference": "tar-1.34-150000.3.31.1",
        "RelatesToProductReference": "Image SLES15-SP3-SAP-BYOS-Azure",
        "RelationType": "Default Component Of"
      },
      {
        "ProductReference": "tar-1.34-150000.3.31.1",
        "RelatesToProductReference": "Image SLES15-SP3-SAP-BYOS-EC2-HVM",
        "RelationType": "Default Component Of"
      },
      {
        "ProductReference": "tar-1.34-150000.3.31.1",
        "RelatesToProductReference": "Image SLES15-SP3-SAP-BYOS-GCE",
        "RelationType": "Default Component Of"
      },
      {
        "ProductReference": "tar-1.34-150000.3.31.1",
        "RelatesToProductReference": "Image SLES15-SP3-SAPCAL-Azure",
        "RelationType": "Default Component Of"
      },
      {
        "ProductReference": "tar-1.34-150000.3.31.1",
        "RelatesToProductReference": "Image SLES15-SP4",
        "RelationType": "Default Component Of"
      },
      {
        "ProductReference": "tar-1.34-150000.3.31.1",
        "RelatesToProductReference": "Image SLES15-SP4-Azure-Basic",
        "RelationType": "Default Component Of"
      },
      {
        "ProductReference": "tar-1.34-150000.3.31.1",
        "RelatesToProductReference": "Image SLES15-SP4-Azure-Standard",
        "RelationType": "Default Component Of"
      },
      {
        "ProductReference": "tar-1.34-150000.3.31.1",
        "RelatesToProductReference": "Image SLES15-SP4-BYOS",
        "RelationType": "Default Component Of"
      },
      {
        "ProductReference": "tar-1.34-150000.3.31.1",
        "RelatesToProductReference": "Image SLES15-SP4-BYOS-Azure",
        "RelationType": "Default Component Of"
      },
      {
        "ProductReference": "tar-1.34-150000.3.31.1",
        "RelatesToProductReference": "Image SLES15-SP4-BYOS-EC2",
        "RelationType": "Default Component Of"
      },
      {
        "ProductReference": "tar-1.34-150000.3.31.1",
        "RelatesToProductReference": "Image SLES15-SP4-BYOS-GCE",
        "RelationType": "Default Component Of"
      },
      {
        "ProductReference": "tar-1.34-150000.3.31.1",
        "RelatesToProductReference": "Image SLES15-SP4-CHOST-BYOS",
        "RelationType": "Default Component Of"
      },
      {
        "ProductReference": "tar-1.34-150000.3.31.1",
        "RelatesToProductReference": "Image SLES15-SP4-CHOST-BYOS-Aliyun",
        "RelationType": "Default Component Of"
      },
      {
        "ProductReference": "tar-1.34-150000.3.31.1",
        "RelatesToProductReference": "Image SLES15-SP4-CHOST-BYOS-Azure",
        "RelationType": "Default Component Of"
      },
      {
        "ProductReference": "tar-1.34-150000.3.31.1",
        "RelatesToProductReference": "Image SLES15-SP4-CHOST-BYOS-EC2",
        "RelationType": "Default Component Of"
      },
      {
        "ProductReference": "tar-1.34-150000.3.31.1",
        "RelatesToProductReference": "Image SLES15-SP4-CHOST-BYOS-GCE",
        "RelationType": "Default Component Of"
      },
      {
        "ProductReference": "tar-1.34-150000.3.31.1",
        "RelatesToProductReference": "Image SLES15-SP4-CHOST-BYOS-SAP-CCloud",
        "RelationType": "Default Component Of"
      },
      {
        "ProductReference": "tar-1.34-150000.3.31.1",
        "RelatesToProductReference": "Image SLES15-SP4-EC2",
        "RelationType": "Default Component Of"
      },
      {
        "ProductReference": "tar-1.34-150000.3.31.1",
        "RelatesToProductReference": "Image SLES15-SP4-EC2-ECS-HVM",
        "RelationType": "Default Component Of"
      },
      {
        "ProductReference": "tar-1.34-150000.3.31.1",
        "RelatesToProductReference": "Image SLES15-SP4-GCE",
        "RelationType": "Default Component Of"
      },
      {
        "ProductReference": "tar-1.34-150000.3.31.1",
        "RelatesToProductReference": "Image SLES15-SP4-HPC",
        "RelationType": "Default Component Of"
      },
      {
        "ProductReference": "tar-1.34-150000.3.31.1",
        "RelatesToProductReference": "Image SLES15-SP4-HPC-Azure",
        "RelationType": "Default Component Of"
      },
      {
        "ProductReference": "tar-1.34-150000.3.31.1",
        "RelatesToProductReference": "Image SLES15-SP4-HPC-BYOS",
        "RelationType": "Default Component Of"
      },
      {
        "ProductReference": "tar-1.34-150000.3.31.1",
        "RelatesToProductReference": "Image SLES15-SP4-HPC-BYOS-Azure",
        "RelationType": "Default Component Of"
      },
      {
        "ProductReference": "tar-1.34-150000.3.31.1",
        "RelatesToProductReference": "Image SLES15-SP4-HPC-BYOS-EC2",
        "RelationType": "Default Component Of"
      },
      {
        "ProductReference": "tar-1.34-150000.3.31.1",
        "RelatesToProductReference": "Image SLES15-SP4-HPC-BYOS-GCE",
        "RelationType": "Default Component Of"
      },
      {
        "ProductReference": "tar-1.34-150000.3.31.1",
        "RelatesToProductReference": "Image SLES15-SP4-HPC-EC2",
        "RelationType": "Default Component Of"
      },
      {
        "ProductReference": "tar-1.34-150000.3.31.1",
        "RelatesToProductReference": "Image SLES15-SP4-HPC-GCE",
        "RelationType": "Default Component Of"
      },
      {
        "ProductReference": "tar-1.34-150000.3.31.1",
        "RelatesToProductReference": "Image SLES15-SP4-Hardened-BYOS",
        "RelationType": "Default Component Of"
      },
      {
        "ProductReference": "tar-1.34-150000.3.31.1",
        "RelatesToProductReference": "Image SLES15-SP4-Hardened-BYOS-Azure",
        "RelationType": "Default Component Of"
      },
      {
        "ProductReference": "tar-1.34-150000.3.31.1",
        "RelatesToProductReference": "Image SLES15-SP4-Hardened-BYOS-EC2",
        "RelationType": "Default Component Of"
      },
      {
        "ProductReference": "tar-1.34-150000.3.31.1",
        "RelatesToProductReference": "Image SLES15-SP4-Hardened-BYOS-GCE",
        "RelationType": "Default Component Of"
      },
      {
        "ProductReference": "tar-1.34-150000.3.31.1",
        "RelatesToProductReference": "Image SLES15-SP4-Manager-Proxy-4-3-BYOS",
        "RelationType": "Default Component Of"
      },
      {
        "ProductReference": "tar-1.34-150000.3.31.1",
        "RelatesToProductReference": "Image SLES15-SP4-Manager-Proxy-4-3-BYOS-Azure",
        "RelationType": "Default Component Of"
      },
      {
        "ProductReference": "tar-1.34-150000.3.31.1",
        "RelatesToProductReference": "Image SLES15-SP4-Manager-Proxy-4-3-BYOS-EC2",
        "RelationType": "Default Component Of"
      },
      {
        "ProductReference": "tar-1.34-150000.3.31.1",
        "RelatesToProductReference": "Image SLES15-SP4-Manager-Proxy-4-3-BYOS-GCE",
        "RelationType": "Default Component Of"
      },
      {
        "ProductReference": "tar-1.34-150000.3.31.1",
        "RelatesToProductReference": "Image SLES15-SP4-Manager-Server-4-3",
        "RelationType": "Default Component Of"
      },
      {
        "ProductReference": "tar-1.34-150000.3.31.1",
        "RelatesToProductReference": "Image SLES15-SP4-Manager-Server-4-3-Azure-llc",
        "RelationType": "Default Component Of"
      },
      {
        "ProductReference": "tar-1.34-150000.3.31.1",
        "RelatesToProductReference": "Image SLES15-SP4-Manager-Server-4-3-Azure-ltd",
        "RelationType": "Default Component Of"
      },
      {
        "ProductReference": "tar-1.34-150000.3.31.1",
        "RelatesToProductReference": "Image SLES15-SP4-Manager-Server-4-3-BYOS",
        "RelationType": "Default Component Of"
      },
      {
        "ProductReference": "tar-1.34-150000.3.31.1",
        "RelatesToProductReference": "Image SLES15-SP4-Manager-Server-4-3-BYOS-Azure",
        "RelationType": "Default Component Of"
      },
      {
        "ProductReference": "tar-1.34-150000.3.31.1",
        "RelatesToProductReference": "Image SLES15-SP4-Manager-Server-4-3-BYOS-EC2",
        "RelationType": "Default Component Of"
      },
      {
        "ProductReference": "tar-1.34-150000.3.31.1",
        "RelatesToProductReference": "Image SLES15-SP4-Manager-Server-4-3-BYOS-GCE",
        "RelationType": "Default Component Of"
      },
      {
        "ProductReference": "tar-1.34-150000.3.31.1",
        "RelatesToProductReference": "Image SLES15-SP4-Manager-Server-4-3-EC2-llc",
        "RelationType": "Default Component Of"
      },
      {
        "ProductReference": "tar-1.34-150000.3.31.1",
        "RelatesToProductReference": "Image SLES15-SP4-Manager-Server-4-3-EC2-ltd",
        "RelationType": "Default Component Of"
      },
      {
        "ProductReference": "tar-1.34-150000.3.31.1",
        "RelatesToProductReference": "Image SLES15-SP4-Micro-5-3",
        "RelationType": "Default Component Of"
      },
      {
        "ProductReference": "tar-1.34-150000.3.31.1",
        "RelatesToProductReference": "Image SLES15-SP4-Micro-5-3-Azure",
        "RelationType": "Default Component Of"
      },
      {
        "ProductReference": "tar-1.34-150000.3.31.1",
        "RelatesToProductReference": "Image SLES15-SP4-Micro-5-3-BYOS",
        "RelationType": "Default Component Of"
      },
      {
        "ProductReference": "tar-1.34-150000.3.31.1",
        "RelatesToProductReference": "Image SLES15-SP4-Micro-5-3-BYOS-Azure",
        "RelationType": "Default Component Of"
      },
      {
        "ProductReference": "tar-1.34-150000.3.31.1",
        "RelatesToProductReference": "Image SLES15-SP4-Micro-5-3-BYOS-EC2",
        "RelationType": "Default Component Of"
      },
      {
        "ProductReference": "tar-1.34-150000.3.31.1",
        "RelatesToProductReference": "Image SLES15-SP4-Micro-5-3-BYOS-GCE",
        "RelationType": "Default Component Of"
      },
      {
        "ProductReference": "tar-1.34-150000.3.31.1",
        "RelatesToProductReference": "Image SLES15-SP4-Micro-5-3-EC2",
        "RelationType": "Default Component Of"
      },
      {
        "ProductReference": "tar-1.34-150000.3.31.1",
        "RelatesToProductReference": "Image SLES15-SP4-Micro-5-3-GCE",
        "RelationType": "Default Component Of"
      },
      {
        "ProductReference": "tar-1.34-150000.3.31.1",
        "RelatesToProductReference": "Image SLES15-SP4-Micro-5-4",
        "RelationType": "Default Component Of"
      },
      {
        "ProductReference": "tar-1.34-150000.3.31.1",
        "RelatesToProductReference": "Image SLES15-SP4-Micro-5-4-Azure",
        "RelationType": "Default Component Of"
      },
      {
        "ProductReference": "tar-1.34-150000.3.31.1",
        "RelatesToProductReference": "Image SLES15-SP4-Micro-5-4-BYOS",
        "RelationType": "Default Component Of"
      },
      {
        "ProductReference": "tar-1.34-150000.3.31.1",
        "RelatesToProductReference": "Image SLES15-SP4-Micro-5-4-BYOS-Azure",
        "RelationType": "Default Component Of"
      },
      {
        "ProductReference": "tar-1.34-150000.3.31.1",
        "RelatesToProductReference": "Image SLES15-SP4-Micro-5-4-BYOS-EC2",
        "RelationType": "Default Component Of"
      },
      {
        "ProductReference": "tar-1.34-150000.3.31.1",
        "RelatesToProductReference": "Image SLES15-SP4-Micro-5-4-BYOS-GCE",
        "RelationType": "Default Component Of"
      },
      {
        "ProductReference": "tar-1.34-150000.3.31.1",
        "RelatesToProductReference": "Image SLES15-SP4-Micro-5-4-EC2",
        "RelationType": "Default Component Of"
      },
      {
        "ProductReference": "tar-1.34-150000.3.31.1",
        "RelatesToProductReference": "Image SLES15-SP4-Micro-5-4-GCE",
        "RelationType": "Default Component Of"
      },
      {
        "ProductReference": "tar-1.34-150000.3.31.1",
        "RelatesToProductReference": "Image SLES15-SP4-SAP",
        "RelationType": "Default Component Of"
      },
      {
        "ProductReference": "tar-1.34-150000.3.31.1",
        "RelatesToProductReference": "Image SLES15-SP4-SAP-Azure",
        "RelationType": "Default Component Of"
      },
      {
        "ProductReference": "tar-1.34-150000.3.31.1",
        "RelatesToProductReference": "Image SLES15-SP4-SAP-Azure-LI-BYOS",
        "RelationType": "Default Component Of"
      },
      {
        "ProductReference": "tar-1.34-150000.3.31.1",
        "RelatesToProductReference": "Image SLES15-SP4-SAP-Azure-LI-BYOS-Production",
        "RelationType": "Default Component Of"
      },
      {
        "ProductReference": "tar-1.34-150000.3.31.1",
        "RelatesToProductReference": "Image SLES15-SP4-SAP-Azure-VLI-BYOS",
        "RelationType": "Default Component Of"
      },
      {
        "ProductReference": "tar-1.34-150000.3.31.1",
        "RelatesToProductReference": "Image SLES15-SP4-SAP-Azure-VLI-BYOS-Production",
        "RelationType": "Default Component Of"
      },
      {
        "ProductReference": "tar-1.34-150000.3.31.1",
        "RelatesToProductReference": "Image SLES15-SP4-SAP-BYOS",
        "RelationType": "Default Component Of"
      },
      {
        "ProductReference": "tar-1.34-150000.3.31.1",
        "RelatesToProductReference": "Image SLES15-SP4-SAP-BYOS-Azure",
        "RelationType": "Default Component Of"
      },
      {
        "ProductReference": "tar-1.34-150000.3.31.1",
        "RelatesToProductReference": "Image SLES15-SP4-SAP-BYOS-EC2",
        "RelationType": "Default Component Of"
      },
      {
        "ProductReference": "tar-1.34-150000.3.31.1",
        "RelatesToProductReference": "Image SLES15-SP4-SAP-BYOS-GCE",
        "RelationType": "Default Component Of"
      },
      {
        "ProductReference": "tar-1.34-150000.3.31.1",
        "RelatesToProductReference": "Image SLES15-SP4-SAP-EC2",
        "RelationType": "Default Component Of"
      },
      {
        "ProductReference": "tar-1.34-150000.3.31.1",
        "RelatesToProductReference": "Image SLES15-SP4-SAP-GCE",
        "RelationType": "Default Component Of"
      },
      {
        "ProductReference": "tar-1.34-150000.3.31.1",
        "RelatesToProductReference": "Image SLES15-SP4-SAP-Hardened",
        "RelationType": "Default Component Of"
      },
      {
        "ProductReference": "tar-1.34-150000.3.31.1",
        "RelatesToProductReference": "Image SLES15-SP4-SAP-Hardened-Azure",
        "RelationType": "Default Component Of"
      },
      {
        "ProductReference": "tar-1.34-150000.3.31.1",
        "RelatesToProductReference": "Image SLES15-SP4-SAP-Hardened-BYOS",
        "RelationType": "Default Component Of"
      },
      {
        "ProductReference": "tar-1.34-150000.3.31.1",
        "RelatesToProductReference": "Image SLES15-SP4-SAP-Hardened-BYOS-Azure",
        "RelationType": "Default Component Of"
      },
      {
        "ProductReference": "tar-1.34-150000.3.31.1",
        "RelatesToProductReference": "Image SLES15-SP4-SAP-Hardened-BYOS-EC2",
        "RelationType": "Default Component Of"
      },
      {
        "ProductReference": "tar-1.34-150000.3.31.1",
        "RelatesToProductReference": "Image SLES15-SP4-SAP-Hardened-BYOS-GCE",
        "RelationType": "Default Component Of"
      },
      {
        "ProductReference": "tar-1.34-150000.3.31.1",
        "RelatesToProductReference": "Image SLES15-SP4-SAP-Hardened-EC2",
        "RelationType": "Default Component Of"
      },
      {
        "ProductReference": "tar-1.34-150000.3.31.1",
        "RelatesToProductReference": "Image SLES15-SP4-SAP-Hardened-GCE",
        "RelationType": "Default Component Of"
      },
      {
        "ProductReference": "tar-1.34-150000.3.31.1",
        "RelatesToProductReference": "Image SLES15-SP4-SAPCAL",
        "RelationType": "Default Component Of"
      },
      {
        "ProductReference": "tar-1.34-150000.3.31.1",
        "RelatesToProductReference": "Image SLES15-SP4-SAPCAL-Azure",
        "RelationType": "Default Component Of"
      },
      {
        "ProductReference": "tar-1.34-150000.3.31.1",
        "RelatesToProductReference": "Image SLES15-SP4-SAPCAL-EC2",
        "RelationType": "Default Component Of"
      },
      {
        "ProductReference": "tar-1.34-150000.3.31.1",
        "RelatesToProductReference": "Image SLES15-SP4-SAPCAL-GCE",
        "RelationType": "Default Component Of"
      },
      {
        "ProductReference": "tar-1.34-150000.3.31.1",
        "RelatesToProductReference": "Image SLES15-SP4-SUSE-Rancher-Setup-BYOS",
        "RelationType": "Default Component Of"
      },
      {
        "ProductReference": "tar-1.34-150000.3.31.1",
        "RelatesToProductReference": "Image SLES15-SP4-SUSE-Rancher-Setup-BYOS-EC2",
        "RelationType": "Default Component Of"
      },
      {
        "ProductReference": "tar-1.34-150000.3.31.1",
        "RelatesToProductReference": "Image SLES15-SP5-Azure-Basic",
        "RelationType": "Default Component Of"
      },
      {
        "ProductReference": "tar-1.34-150000.3.31.1",
        "RelatesToProductReference": "Image SLES15-SP5-Azure-Standard",
        "RelationType": "Default Component Of"
      },
      {
        "ProductReference": "tar-1.34-150000.3.31.1",
        "RelatesToProductReference": "Image SLES15-SP5-BYOS-Azure",
        "RelationType": "Default Component Of"
      },
      {
        "ProductReference": "tar-1.34-150000.3.31.1",
        "RelatesToProductReference": "Image SLES15-SP5-BYOS-EC2",
        "RelationType": "Default Component Of"
      },
      {
        "ProductReference": "tar-1.34-150000.3.31.1",
        "RelatesToProductReference": "Image SLES15-SP5-BYOS-GCE",
        "RelationType": "Default Component Of"
      },
      {
        "ProductReference": "tar-1.34-150000.3.31.1",
        "RelatesToProductReference": "Image SLES15-SP5-CHOST-BYOS-Aliyun",
        "RelationType": "Default Component Of"
      },
      {
        "ProductReference": "tar-1.34-150000.3.31.1",
        "RelatesToProductReference": "Image SLES15-SP5-CHOST-BYOS-Azure",
        "RelationType": "Default Component Of"
      },
      {
        "ProductReference": "tar-1.34-150000.3.31.1",
        "RelatesToProductReference": "Image SLES15-SP5-CHOST-BYOS-EC2",
        "RelationType": "Default Component Of"
      },
      {
        "ProductReference": "tar-1.34-150000.3.31.1",
        "RelatesToProductReference": "Image SLES15-SP5-CHOST-BYOS-GCE",
        "RelationType": "Default Component Of"
      },
      {
        "ProductReference": "tar-1.34-150000.3.31.1",
        "RelatesToProductReference": "Image SLES15-SP5-CHOST-BYOS-SAP-CCloud",
        "RelationType": "Default Component Of"
      },
      {
        "ProductReference": "tar-1.34-150000.3.31.1",
        "RelatesToProductReference": "Image SLES15-SP5-EC2",
        "RelationType": "Default Component Of"
      },
      {
        "ProductReference": "tar-1.34-150000.3.31.1",
        "RelatesToProductReference": "Image SLES15-SP5-EC2-ECS-HVM",
        "RelationType": "Default Component Of"
      },
      {
        "ProductReference": "tar-1.34-150000.3.31.1",
        "RelatesToProductReference": "Image SLES15-SP5-GCE",
        "RelationType": "Default Component Of"
      },
      {
        "ProductReference": "tar-1.34-150000.3.31.1",
        "RelatesToProductReference": "Image SLES15-SP5-HPC-Azure",
        "RelationType": "Default Component Of"
      },
      {
        "ProductReference": "tar-1.34-150000.3.31.1",
        "RelatesToProductReference": "Image SLES15-SP5-HPC-BYOS-Azure",
        "RelationType": "Default Component Of"
      },
      {
        "ProductReference": "tar-1.34-150000.3.31.1",
        "RelatesToProductReference": "Image SLES15-SP5-HPC-BYOS-EC2",
        "RelationType": "Default Component Of"
      },
      {
        "ProductReference": "tar-1.34-150000.3.31.1",
        "RelatesToProductReference": "Image SLES15-SP5-HPC-BYOS-GCE",
        "RelationType": "Default Component Of"
      },
      {
        "ProductReference": "tar-1.34-150000.3.31.1",
        "RelatesToProductReference": "Image SLES15-SP5-HPC-EC2",
        "RelationType": "Default Component Of"
      },
      {
        "ProductReference": "tar-1.34-150000.3.31.1",
        "RelatesToProductReference": "Image SLES15-SP5-HPC-GCE",
        "RelationType": "Default Component Of"
      },
      {
        "ProductReference": "tar-1.34-150000.3.31.1",
        "RelatesToProductReference": "Image SLES15-SP5-Hardened-BYOS-Azure",
        "RelationType": "Default Component Of"
      },
      {
        "ProductReference": "tar-1.34-150000.3.31.1",
        "RelatesToProductReference": "Image SLES15-SP5-Hardened-BYOS-EC2",
        "RelationType": "Default Component Of"
      },
      {
        "ProductReference": "tar-1.34-150000.3.31.1",
        "RelatesToProductReference": "Image SLES15-SP5-Hardened-BYOS-GCE",
        "RelationType": "Default Component Of"
      },
      {
        "ProductReference": "tar-1.34-150000.3.31.1",
        "RelatesToProductReference": "Image SLES15-SP5-Micro-5-5",
        "RelationType": "Default Component Of"
      },
      {
        "ProductReference": "tar-1.34-150000.3.31.1",
        "RelatesToProductReference": "Image SLES15-SP5-Micro-5-5-Azure",
        "RelationType": "Default Component Of"
      },
      {
        "ProductReference": "tar-1.34-150000.3.31.1",
        "RelatesToProductReference": "Image SLES15-SP5-Micro-5-5-BYOS",
        "RelationType": "Default Component Of"
      },
      {
        "ProductReference": "tar-1.34-150000.3.31.1",
        "RelatesToProductReference": "Image SLES15-SP5-Micro-5-5-BYOS-Azure",
        "RelationType": "Default Component Of"
      },
      {
        "ProductReference": "tar-1.34-150000.3.31.1",
        "RelatesToProductReference": "Image SLES15-SP5-Micro-5-5-BYOS-EC2",
        "RelationType": "Default Component Of"
      },
      {
        "ProductReference": "tar-1.34-150000.3.31.1",
        "RelatesToProductReference": "Image SLES15-SP5-Micro-5-5-BYOS-GCE",
        "RelationType": "Default Component Of"
      },
      {
        "ProductReference": "tar-1.34-150000.3.31.1",
        "RelatesToProductReference": "Image SLES15-SP5-Micro-5-5-EC2",
        "RelationType": "Default Component Of"
      },
      {
        "ProductReference": "tar-1.34-150000.3.31.1",
        "RelatesToProductReference": "Image SLES15-SP5-Micro-5-5-GCE",
        "RelationType": "Default Component Of"
      },
      {
        "ProductReference": "tar-1.34-150000.3.31.1",
        "RelatesToProductReference": "Image SLES15-SP5-SAP-Azure",
        "RelationType": "Default Component Of"
      },
      {
        "ProductReference": "tar-1.34-150000.3.31.1",
        "RelatesToProductReference": "Image SLES15-SP5-SAP-Azure-LI-BYOS",
        "RelationType": "Default Component Of"
      },
      {
        "ProductReference": "tar-1.34-150000.3.31.1",
        "RelatesToProductReference": "Image SLES15-SP5-SAP-Azure-LI-BYOS-Production",
        "RelationType": "Default Component Of"
      },
      {
        "ProductReference": "tar-1.34-150000.3.31.1",
        "RelatesToProductReference": "Image SLES15-SP5-SAP-Azure-VLI-BYOS",
        "RelationType": "Default Component Of"
      },
      {
        "ProductReference": "tar-1.34-150000.3.31.1",
        "RelatesToProductReference": "Image SLES15-SP5-SAP-Azure-VLI-BYOS-Production",
        "RelationType": "Default Component Of"
      },
      {
        "ProductReference": "tar-1.34-150000.3.31.1",
        "RelatesToProductReference": "Image SLES15-SP5-SAP-BYOS-Azure",
        "RelationType": "Default Component Of"
      },
      {
        "ProductReference": "tar-1.34-150000.3.31.1",
        "RelatesToProductReference": "Image SLES15-SP5-SAP-BYOS-EC2",
        "RelationType": "Default Component Of"
      },
      {
        "ProductReference": "tar-1.34-150000.3.31.1",
        "RelatesToProductReference": "Image SLES15-SP5-SAP-BYOS-GCE",
        "RelationType": "Default Component Of"
      },
      {
        "ProductReference": "tar-1.34-150000.3.31.1",
        "RelatesToProductReference": "Image SLES15-SP5-SAP-EC2",
        "RelationType": "Default Component Of"
      },
      {
        "ProductReference": "tar-1.34-150000.3.31.1",
        "RelatesToProductReference": "Image SLES15-SP5-SAP-GCE",
        "RelationType": "Default Component Of"
      },
      {
        "ProductReference": "tar-1.34-150000.3.31.1",
        "RelatesToProductReference": "Image SLES15-SP5-SAP-Hardened-Azure",
        "RelationType": "Default Component Of"
      },
      {
        "ProductReference": "tar-1.34-150000.3.31.1",
        "RelatesToProductReference": "Image SLES15-SP5-SAP-Hardened-BYOS-Azure",
        "RelationType": "Default Component Of"
      },
      {
        "ProductReference": "tar-1.34-150000.3.31.1",
        "RelatesToProductReference": "Image SLES15-SP5-SAP-Hardened-BYOS-EC2",
        "RelationType": "Default Component Of"
      },
      {
        "ProductReference": "tar-1.34-150000.3.31.1",
        "RelatesToProductReference": "Image SLES15-SP5-SAP-Hardened-BYOS-GCE",
        "RelationType": "Default Component Of"
      },
      {
        "ProductReference": "tar-1.34-150000.3.31.1",
        "RelatesToProductReference": "Image SLES15-SP5-SAP-Hardened-EC2",
        "RelationType": "Default Component Of"
      },
      {
        "ProductReference": "tar-1.34-150000.3.31.1",
        "RelatesToProductReference": "Image SLES15-SP5-SAP-Hardened-GCE",
        "RelationType": "Default Component Of"
      },
      {
        "ProductReference": "tar-1.34-150000.3.31.1",
        "RelatesToProductReference": "Image SLES15-SP5-SAPCAL-Azure",
        "RelationType": "Default Component Of"
      },
      {
        "ProductReference": "tar-1.34-150000.3.31.1",
        "RelatesToProductReference": "Image SLES15-SP5-SAPCAL-EC2",
        "RelationType": "Default Component Of"
      },
      {
        "ProductReference": "tar-1.34-150000.3.31.1",
        "RelatesToProductReference": "Image SLES15-SP5-SAPCAL-GCE",
        "RelationType": "Default Component Of"
      },
      {
        "ProductReference": "tar-1.34-150000.3.31.1",
        "RelatesToProductReference": "SUSE Linux Enterprise Micro 5.1",
        "RelationType": "Default Component Of"
      },
      {
        "ProductReference": "tar-1.34-150000.3.31.1",
        "RelatesToProductReference": "SUSE Linux Enterprise Micro 5.2",
        "RelationType": "Default Component Of"
      },
      {
        "ProductReference": "tar-1.34-150000.3.31.1",
        "RelatesToProductReference": "SUSE Linux Enterprise Micro 5.3",
        "RelationType": "Default Component Of"
      },
      {
        "ProductReference": "tar-1.34-150000.3.31.1",
        "RelatesToProductReference": "SUSE Linux Enterprise Module for Basesystem 15 SP4",
        "RelationType": "Default Component Of"
      },
      {
        "ProductReference": "tar-lang-1.34-150000.3.31.1",
        "RelatesToProductReference": "SUSE Linux Enterprise Module for Basesystem 15 SP4",
        "RelationType": "Default Component Of"
      },
      {
        "ProductReference": "tar-rmt-1.34-150000.3.31.1",
        "RelatesToProductReference": "SUSE Linux Enterprise Module for Basesystem 15 SP4",
        "RelationType": "Default Component Of"
      },
      {
        "ProductReference": "tar-1.34-150000.3.31.1",
        "RelatesToProductReference": "SUSE Linux Enterprise Real Time 15 SP3",
        "RelationType": "Default Component Of"
      },
      {
        "ProductReference": "tar-lang-1.34-150000.3.31.1",
        "RelatesToProductReference": "SUSE Linux Enterprise Real Time 15 SP3",
        "RelationType": "Default Component Of"
      },
      {
        "ProductReference": "tar-rmt-1.34-150000.3.31.1",
        "RelatesToProductReference": "SUSE Linux Enterprise Real Time 15 SP3",
        "RelationType": "Default Component Of"
      },
      {
        "ProductReference": "tar-1.34-150000.3.31.1",
        "RelatesToProductReference": "openSUSE Leap 15.4",
        "RelationType": "Default Component Of"
      },
      {
        "ProductReference": "tar-backup-scripts-1.34-150000.3.31.1",
        "RelatesToProductReference": "openSUSE Leap 15.4",
        "RelationType": "Default Component Of"
      },
      {
        "ProductReference": "tar-doc-1.34-150000.3.31.1",
        "RelatesToProductReference": "openSUSE Leap 15.4",
        "RelationType": "Default Component Of"
      },
      {
        "ProductReference": "tar-lang-1.34-150000.3.31.1",
        "RelatesToProductReference": "openSUSE Leap 15.4",
        "RelationType": "Default Component Of"
      },
      {
        "ProductReference": "tar-rmt-1.34-150000.3.31.1",
        "RelatesToProductReference": "openSUSE Leap 15.4",
        "RelationType": "Default Component Of"
      },
      {
        "ProductReference": "tar-tests-1.34-150000.3.31.1",
        "RelatesToProductReference": "openSUSE Leap 15.4",
        "RelationType": "Default Component Of"
      },
      {
        "ProductReference": "tar-1.34-150000.3.31.1",
        "RelatesToProductReference": "openSUSE Leap Micro 5.2",
        "RelationType": "Default Component Of"
      },
      {
        "ProductReference": "tar-1.34-150000.3.31.1",
        "RelatesToProductReference": "openSUSE Leap Micro 5.3",
        "RelationType": "Default Component Of"
      }
    ]
  },
  "References": [
    {
      "URL": "https://www.suse.com/support/update/announcement/2023/suse-su-20230463-1/",
      "Description": "Link for SUSE-SU-2023:0463-1"
    },
    {
      "URL": "https://lists.suse.com/pipermail/sle-security-updates/2023-February/013845.html",
      "Description": "E-Mail link for SUSE-SU-2023:0463-1"
    },
    {
      "URL": "https://www.suse.com/support/security/rating/",
      "Description": "SUSE Security Ratings"
    },
    {
      "URL": "https://bugzilla.suse.com/1202436",
      "Description": "SUSE Bug 1202436"
    },
    {
      "URL": "https://bugzilla.suse.com/1207753",
      "Description": "SUSE Bug 1207753"
    },
    {
      "URL": "https://www.suse.com/security/cve/CVE-2022-48303/",
      "Description": "SUSE CVE CVE-2022-48303 page"
    }
  ],
  "Vulnerabilities": [
    {
      "CVE": "CVE-2022-48303",
      "Description": "GNU Tar through 1.34 has a one-byte out-of-bounds read that results in use of uninitialized memory for a conditional jump. Exploitation to change the flow of control has not been demonstrated. The issue occurs in from_header in list.c via a V7 archive in which mtime has approximately 11 whitespace characters.",
      "Threats": [
        {
          "Type": "Impact",
          "Severity": "moderate"
        }
      ],
      "References": [
        {
          "URL": "https://www.suse.com/security/cve/CVE-2022-48303.html",
          "Description": "CVE-2022-48303"
        },
        {
          "URL": "https://bugzilla.suse.com/1207753",
          "Description": "SUSE Bug 1207753"
        }
      ],
      "ProductStatuses": [
        {
          "Type": "Fixed",
          "ProductID": [
            "Container bci/bci-sle15-kernel-module-devel:15.6:tar-1.34-150000.3.31.1",
            "Container bci/bci-sle15-kernel-module-devel:latest:tar-1.34-150000.3.31.1",
            "Container bci/node:16:tar-1.34-150000.3.31.1",
            "Container rancher/elemental-teal-iso/5.4:latest:tar-1.34-150000.3.31.1",
            "Container rancher/elemental-teal-rt/5.3:latest:tar-1.34-150000.3.31.1",
            "Container rancher/elemental-teal-rt/5.4:latest:tar-1.34-150000.3.31.1",
            "Container rancher/elemental-teal/5.3:latest:tar-1.34-150000.3.31.1",
            "Container rancher/elemental-teal/5.4:latest:tar-1.34-150000.3.31.1",
            "Container suse/hpc/warewulf4-x86_64/sle-hpc-node:latest:tar-1.34-150000.3.31.1",
            "Container suse/manager/5.0/x86_64/server:latest:tar-1.34-150000.3.31.1",
            "Container suse/postgres:14:tar-1.34-150000.3.31.1",
            "Container suse/sle-micro-rancher/5.2:latest:tar-1.34-150000.3.31.1",
            "Container suse/sle-micro-rancher/5.3:latest:tar-1.34-150000.3.31.1",
            "Container suse/sle-micro-rancher/5.4:latest:tar-1.34-150000.3.31.1",
            "Container suse/sle-micro/5.1/toolbox:latest:tar-1.34-150000.3.31.1",
            "Container suse/sle-micro/5.2/toolbox:latest:tar-1.34-150000.3.31.1",
            "Container suse/sle-micro/5.3/toolbox:latest:tar-1.34-150000.3.31.1",
            "Container suse/sle-micro/5.4/toolbox:latest:tar-1.34-150000.3.31.1",
            "Container suse/sle-micro/5.5/toolbox:latest:tar-1.34-150000.3.31.1",
            "Container suse/sle-micro/5.5:latest:tar-1.34-150000.3.31.1",
            "Container suse/sle-micro/base-5.5:latest:tar-1.34-150000.3.31.1",
            "Container suse/sle15:15.5:tar-1.34-150000.3.31.1",
            "Container suse/sle15:15.6:tar-1.34-150000.3.31.1",
            "Container suse/sles/15.5/cdi-apiserver:1.55.0:tar-1.34-150000.3.31.1",
            "Container suse/sles/15.5/cdi-cloner:1.55.0:tar-1.34-150000.3.31.1",
            "Container suse/sles/15.5/cdi-controller:1.55.0:tar-1.34-150000.3.31.1",
            "Container suse/sles/15.5/cdi-importer:1.55.0:tar-1.34-150000.3.31.1",
            "Container suse/sles/15.5/cdi-operator:1.55.0:tar-1.34-150000.3.31.1",
            "Container suse/sles/15.5/cdi-uploadproxy:1.55.0:tar-1.34-150000.3.31.1",
            "Container suse/sles/15.5/cdi-uploadserver:1.55.0:tar-1.34-150000.3.31.1",
            "Container suse/sles/15.5/libguestfs-tools:0.58.0:tar-1.34-150000.3.31.1",
            "Container suse/sles/15.5/virt-api:0.58.0:tar-1.34-150000.3.31.1",
            "Container suse/sles/15.5/virt-controller:0.58.0:tar-1.34-150000.3.31.1",
            "Container suse/sles/15.5/virt-exportproxy:0.58.0:tar-1.34-150000.3.31.1",
            "Container suse/sles/15.5/virt-exportserver:0.58.0:tar-1.34-150000.3.31.1",
            "Container suse/sles/15.5/virt-handler:0.58.0:tar-1.34-150000.3.31.1",
            "Container suse/sles/15.5/virt-launcher:0.58.0:tar-1.34-150000.3.31.1",
            "Container suse/sles/15.5/virt-operator:0.58.0:tar-1.34-150000.3.31.1",
            "Container suse/sles/15.6/cdi-cloner:1.58.0:tar-1.34-150000.3.31.1",
            "Container suse/sles/15.6/cdi-importer:1.58.0:tar-1.34-150000.3.31.1",
            "Container suse/sles/15.6/cdi-uploadserver:1.58.0:tar-1.34-150000.3.31.1",
            "Container suse/sles/15.6/libguestfs-tools:1.1.1:tar-1.34-150000.3.31.1",
            "Container suse/sles/15.6/virt-exportserver:1.1.1:tar-1.34-150000.3.31.1",
            "Container suse/sles/15.6/virt-handler:1.1.1:tar-1.34-150000.3.31.1",
            "Container suse/sles/15.6/virt-launcher:1.1.1:tar-1.34-150000.3.31.1",
            "Container trento/trento-web:latest:tar-1.34-150000.3.31.1",
            "Image SLES15-SP1-SAP-Azure-LI-BYOS-Production:tar-1.34-150000.3.31.1",
            "Image SLES15-SP1-SAP-Azure-VLI-BYOS-Production:tar-1.34-150000.3.31.1",
            "Image SLES15-SP2-BYOS-Azure:tar-1.34-150000.3.31.1",
            "Image SLES15-SP2-HPC-BYOS-Azure:tar-1.34-150000.3.31.1",
            "Image SLES15-SP2-SAP-Azure-LI-BYOS-Production:tar-1.34-150000.3.31.1",
            "Image SLES15-SP2-SAP-Azure-VLI-BYOS-Production:tar-1.34-150000.3.31.1",
            "Image SLES15-SP2-SAP-Azure:tar-1.34-150000.3.31.1",
            "Image SLES15-SP2-SAP-BYOS-Azure:tar-1.34-150000.3.31.1",
            "Image SLES15-SP2-SAP-BYOS-EC2-HVM:tar-1.34-150000.3.31.1",
            "Image SLES15-SP2-SAP-BYOS-GCE:tar-1.34-150000.3.31.1",
            "Image SLES15-SP2-SAP-EC2-HVM:tar-1.34-150000.3.31.1",
            "Image SLES15-SP2-SAP-GCE:tar-1.34-150000.3.31.1",
            "Image SLES15-SP3-BYOS-Azure:tar-1.34-150000.3.31.1",
            "Image SLES15-SP3-CHOST-BYOS-Aliyun:tar-1.34-150000.3.31.1",
            "Image SLES15-SP3-CHOST-BYOS-Azure:tar-1.34-150000.3.31.1",
            "Image SLES15-SP3-CHOST-BYOS-EC2:tar-1.34-150000.3.31.1",
            "Image SLES15-SP3-CHOST-BYOS-GCE:tar-1.34-150000.3.31.1",
            "Image SLES15-SP3-CHOST-BYOS-SAP-CCloud:tar-1.34-150000.3.31.1",
            "Image SLES15-SP3-HPC-BYOS-Azure:tar-1.34-150000.3.31.1",
            "Image SLES15-SP3-Manager-4-2-Proxy-BYOS-Azure:tar-1.34-150000.3.31.1",
            "Image SLES15-SP3-Manager-4-2-Proxy-BYOS-EC2-HVM:tar-1.34-150000.3.31.1",
            "Image SLES15-SP3-Manager-4-2-Proxy-BYOS-GCE:tar-1.34-150000.3.31.1",
            "Image SLES15-SP3-Manager-4-2-Server-BYOS-Azure:tar-1.34-150000.3.31.1",
            "Image SLES15-SP3-Manager-4-2-Server-BYOS-EC2-HVM:tar-1.34-150000.3.31.1",
            "Image SLES15-SP3-Manager-4-2-Server-BYOS-GCE:tar-1.34-150000.3.31.1",
            "Image SLES15-SP3-Micro-5-1-BYOS-Azure:tar-1.34-150000.3.31.1",
            "Image SLES15-SP3-Micro-5-1-BYOS-EC2-HVM:tar-1.34-150000.3.31.1",
            "Image SLES15-SP3-Micro-5-1-BYOS-GCE:tar-1.34-150000.3.31.1",
            "Image SLES15-SP3-Micro-5-2-BYOS-Azure:tar-1.34-150000.3.31.1",
            "Image SLES15-SP3-Micro-5-2-BYOS-EC2-HVM:tar-1.34-150000.3.31.1",
            "Image SLES15-SP3-Micro-5-2-BYOS-GCE:tar-1.34-150000.3.31.1",
            "Image SLES15-SP3-SAP-Azure-LI-BYOS-Production:tar-1.34-150000.3.31.1",
            "Image SLES15-SP3-SAP-Azure-VLI-BYOS-Production:tar-1.34-150000.3.31.1",
            "Image SLES15-SP3-SAP-BYOS-Azure:tar-1.34-150000.3.31.1",
            "Image SLES15-SP3-SAP-BYOS-EC2-HVM:tar-1.34-150000.3.31.1",
            "Image SLES15-SP3-SAP-BYOS-GCE:tar-1.34-150000.3.31.1",
            "Image SLES15-SP3-SAPCAL-Azure:tar-1.34-150000.3.31.1",
            "Image SLES15-SP4-Azure-Basic:tar-1.34-150000.3.31.1",
            "Image SLES15-SP4-Azure-Standard:tar-1.34-150000.3.31.1",
            "Image SLES15-SP4-BYOS-Azure:tar-1.34-150000.3.31.1",
            "Image SLES15-SP4-BYOS-EC2:tar-1.34-150000.3.31.1",
            "Image SLES15-SP4-BYOS-GCE:tar-1.34-150000.3.31.1",
            "Image SLES15-SP4-BYOS:tar-1.34-150000.3.31.1",
            "Image SLES15-SP4-CHOST-BYOS-Aliyun:tar-1.34-150000.3.31.1",
            "Image SLES15-SP4-CHOST-BYOS-Azure:tar-1.34-150000.3.31.1",
            "Image SLES15-SP4-CHOST-BYOS-EC2:tar-1.34-150000.3.31.1",
            "Image SLES15-SP4-CHOST-BYOS-GCE:tar-1.34-150000.3.31.1",
            "Image SLES15-SP4-CHOST-BYOS-SAP-CCloud:tar-1.34-150000.3.31.1",
            "Image SLES15-SP4-CHOST-BYOS:tar-1.34-150000.3.31.1",
            "Image SLES15-SP4-EC2-ECS-HVM:tar-1.34-150000.3.31.1",
            "Image SLES15-SP4-EC2:tar-1.34-150000.3.31.1",
            "Image SLES15-SP4-GCE:tar-1.34-150000.3.31.1",
            "Image SLES15-SP4-HPC-Azure:tar-1.34-150000.3.31.1",
            "Image SLES15-SP4-HPC-BYOS-Azure:tar-1.34-150000.3.31.1",
            "Image SLES15-SP4-HPC-BYOS-EC2:tar-1.34-150000.3.31.1",
            "Image SLES15-SP4-HPC-BYOS-GCE:tar-1.34-150000.3.31.1",
            "Image SLES15-SP4-HPC-BYOS:tar-1.34-150000.3.31.1",
            "Image SLES15-SP4-HPC-EC2:tar-1.34-150000.3.31.1",
            "Image SLES15-SP4-HPC-GCE:tar-1.34-150000.3.31.1",
            "Image SLES15-SP4-HPC:tar-1.34-150000.3.31.1",
            "Image SLES15-SP4-Hardened-BYOS-Azure:tar-1.34-150000.3.31.1",
            "Image SLES15-SP4-Hardened-BYOS-EC2:tar-1.34-150000.3.31.1",
            "Image SLES15-SP4-Hardened-BYOS-GCE:tar-1.34-150000.3.31.1",
            "Image SLES15-SP4-Hardened-BYOS:tar-1.34-150000.3.31.1",
            "Image SLES15-SP4-Manager-Proxy-4-3-BYOS-Azure:tar-1.34-150000.3.31.1",
            "Image SLES15-SP4-Manager-Proxy-4-3-BYOS-EC2:tar-1.34-150000.3.31.1",
            "Image SLES15-SP4-Manager-Proxy-4-3-BYOS-GCE:tar-1.34-150000.3.31.1",
            "Image SLES15-SP4-Manager-Proxy-4-3-BYOS:tar-1.34-150000.3.31.1",
            "Image SLES15-SP4-Manager-Server-4-3-Azure-llc:tar-1.34-150000.3.31.1",
            "Image SLES15-SP4-Manager-Server-4-3-Azure-ltd:tar-1.34-150000.3.31.1",
            "Image SLES15-SP4-Manager-Server-4-3-BYOS-Azure:tar-1.34-150000.3.31.1",
            "Image SLES15-SP4-Manager-Server-4-3-BYOS-EC2:tar-1.34-150000.3.31.1",
            "Image SLES15-SP4-Manager-Server-4-3-BYOS-GCE:tar-1.34-150000.3.31.1",
            "Image SLES15-SP4-Manager-Server-4-3-BYOS:tar-1.34-150000.3.31.1",
            "Image SLES15-SP4-Manager-Server-4-3-EC2-llc:tar-1.34-150000.3.31.1",
            "Image SLES15-SP4-Manager-Server-4-3-EC2-ltd:tar-1.34-150000.3.31.1",
            "Image SLES15-SP4-Manager-Server-4-3:tar-1.34-150000.3.31.1",
            "Image SLES15-SP4-Micro-5-3-Azure:tar-1.34-150000.3.31.1",
            "Image SLES15-SP4-Micro-5-3-BYOS-Azure:tar-1.34-150000.3.31.1",
            "Image SLES15-SP4-Micro-5-3-BYOS-EC2:tar-1.34-150000.3.31.1",
            "Image SLES15-SP4-Micro-5-3-BYOS-GCE:tar-1.34-150000.3.31.1",
            "Image SLES15-SP4-Micro-5-3-BYOS:tar-1.34-150000.3.31.1",
            "Image SLES15-SP4-Micro-5-3-EC2:tar-1.34-150000.3.31.1",
            "Image SLES15-SP4-Micro-5-3-GCE:tar-1.34-150000.3.31.1",
            "Image SLES15-SP4-Micro-5-3:tar-1.34-150000.3.31.1",
            "Image SLES15-SP4-Micro-5-4-Azure:tar-1.34-150000.3.31.1",
            "Image SLES15-SP4-Micro-5-4-BYOS-Azure:tar-1.34-150000.3.31.1",
            "Image SLES15-SP4-Micro-5-4-BYOS-EC2:tar-1.34-150000.3.31.1",
            "Image SLES15-SP4-Micro-5-4-BYOS-GCE:tar-1.34-150000.3.31.1",
            "Image SLES15-SP4-Micro-5-4-BYOS:tar-1.34-150000.3.31.1",
            "Image SLES15-SP4-Micro-5-4-EC2:tar-1.34-150000.3.31.1",
            "Image SLES15-SP4-Micro-5-4-GCE:tar-1.34-150000.3.31.1",
            "Image SLES15-SP4-Micro-5-4:tar-1.34-150000.3.31.1",
            "Image SLES15-SP4-SAP-Azure-LI-BYOS-Production:tar-1.34-150000.3.31.1",
            "Image SLES15-SP4-SAP-Azure-LI-BYOS:tar-1.34-150000.3.31.1",
            "Image SLES15-SP4-SAP-Azure-VLI-BYOS-Production:tar-1.34-150000.3.31.1",
            "Image SLES15-SP4-SAP-Azure-VLI-BYOS:tar-1.34-150000.3.31.1",
            "Image SLES15-SP4-SAP-Azure:tar-1.34-150000.3.31.1",
            "Image SLES15-SP4-SAP-BYOS-Azure:tar-1.34-150000.3.31.1",
            "Image SLES15-SP4-SAP-BYOS-EC2:tar-1.34-150000.3.31.1",
            "Image SLES15-SP4-SAP-BYOS-GCE:tar-1.34-150000.3.31.1",
            "Image SLES15-SP4-SAP-BYOS:tar-1.34-150000.3.31.1",
            "Image SLES15-SP4-SAP-EC2:tar-1.34-150000.3.31.1",
            "Image SLES15-SP4-SAP-GCE:tar-1.34-150000.3.31.1",
            "Image SLES15-SP4-SAP-Hardened-Azure:tar-1.34-150000.3.31.1",
            "Image SLES15-SP4-SAP-Hardened-BYOS-Azure:tar-1.34-150000.3.31.1",
            "Image SLES15-SP4-SAP-Hardened-BYOS-EC2:tar-1.34-150000.3.31.1",
            "Image SLES15-SP4-SAP-Hardened-BYOS-GCE:tar-1.34-150000.3.31.1",
            "Image SLES15-SP4-SAP-Hardened-BYOS:tar-1.34-150000.3.31.1",
            "Image SLES15-SP4-SAP-Hardened-EC2:tar-1.34-150000.3.31.1",
            "Image SLES15-SP4-SAP-Hardened-GCE:tar-1.34-150000.3.31.1",
            "Image SLES15-SP4-SAP-Hardened:tar-1.34-150000.3.31.1",
            "Image SLES15-SP4-SAP:tar-1.34-150000.3.31.1",
            "Image SLES15-SP4-SAPCAL-Azure:tar-1.34-150000.3.31.1",
            "Image SLES15-SP4-SAPCAL-EC2:tar-1.34-150000.3.31.1",
            "Image SLES15-SP4-SAPCAL-GCE:tar-1.34-150000.3.31.1",
            "Image SLES15-SP4-SAPCAL:tar-1.34-150000.3.31.1",
            "Image SLES15-SP4-SUSE-Rancher-Setup-BYOS-EC2:tar-1.34-150000.3.31.1",
            "Image SLES15-SP4-SUSE-Rancher-Setup-BYOS:tar-1.34-150000.3.31.1",
            "Image SLES15-SP4:tar-1.34-150000.3.31.1",
            "Image SLES15-SP5-Azure-Basic:tar-1.34-150000.3.31.1",
            "Image SLES15-SP5-Azure-Standard:tar-1.34-150000.3.31.1",
            "Image SLES15-SP5-BYOS-Azure:tar-1.34-150000.3.31.1",
            "Image SLES15-SP5-BYOS-EC2:tar-1.34-150000.3.31.1",
            "Image SLES15-SP5-BYOS-GCE:tar-1.34-150000.3.31.1",
            "Image SLES15-SP5-CHOST-BYOS-Aliyun:tar-1.34-150000.3.31.1",
            "Image SLES15-SP5-CHOST-BYOS-Azure:tar-1.34-150000.3.31.1",
            "Image SLES15-SP5-CHOST-BYOS-EC2:tar-1.34-150000.3.31.1",
            "Image SLES15-SP5-CHOST-BYOS-GCE:tar-1.34-150000.3.31.1",
            "Image SLES15-SP5-CHOST-BYOS-SAP-CCloud:tar-1.34-150000.3.31.1",
            "Image SLES15-SP5-EC2-ECS-HVM:tar-1.34-150000.3.31.1",
            "Image SLES15-SP5-EC2:tar-1.34-150000.3.31.1",
            "Image SLES15-SP5-GCE:tar-1.34-150000.3.31.1",
            "Image SLES15-SP5-HPC-Azure:tar-1.34-150000.3.31.1",
            "Image SLES15-SP5-HPC-BYOS-Azure:tar-1.34-150000.3.31.1",
            "Image SLES15-SP5-HPC-BYOS-EC2:tar-1.34-150000.3.31.1",
            "Image SLES15-SP5-HPC-BYOS-GCE:tar-1.34-150000.3.31.1",
            "Image SLES15-SP5-HPC-EC2:tar-1.34-150000.3.31.1",
            "Image SLES15-SP5-HPC-GCE:tar-1.34-150000.3.31.1",
            "Image SLES15-SP5-Hardened-BYOS-Azure:tar-1.34-150000.3.31.1",
            "Image SLES15-SP5-Hardened-BYOS-EC2:tar-1.34-150000.3.31.1",
            "Image SLES15-SP5-Hardened-BYOS-GCE:tar-1.34-150000.3.31.1",
            "Image SLES15-SP5-Micro-5-5-Azure:tar-1.34-150000.3.31.1",
            "Image SLES15-SP5-Micro-5-5-BYOS-Azure:tar-1.34-150000.3.31.1",
            "Image SLES15-SP5-Micro-5-5-BYOS-EC2:tar-1.34-150000.3.31.1",
            "Image SLES15-SP5-Micro-5-5-BYOS-GCE:tar-1.34-150000.3.31.1",
            "Image SLES15-SP5-Micro-5-5-BYOS:tar-1.34-150000.3.31.1",
            "Image SLES15-SP5-Micro-5-5-EC2:tar-1.34-150000.3.31.1",
            "Image SLES15-SP5-Micro-5-5-GCE:tar-1.34-150000.3.31.1",
            "Image SLES15-SP5-Micro-5-5:tar-1.34-150000.3.31.1",
            "Image SLES15-SP5-SAP-Azure-LI-BYOS-Production:tar-1.34-150000.3.31.1",
            "Image SLES15-SP5-SAP-Azure-LI-BYOS:tar-1.34-150000.3.31.1",
            "Image SLES15-SP5-SAP-Azure-VLI-BYOS-Production:tar-1.34-150000.3.31.1",
            "Image SLES15-SP5-SAP-Azure-VLI-BYOS:tar-1.34-150000.3.31.1",
            "Image SLES15-SP5-SAP-Azure:tar-1.34-150000.3.31.1",
            "Image SLES15-SP5-SAP-BYOS-Azure:tar-1.34-150000.3.31.1",
            "Image SLES15-SP5-SAP-BYOS-EC2:tar-1.34-150000.3.31.1",
            "Image SLES15-SP5-SAP-BYOS-GCE:tar-1.34-150000.3.31.1",
            "Image SLES15-SP5-SAP-EC2:tar-1.34-150000.3.31.1",
            "Image SLES15-SP5-SAP-GCE:tar-1.34-150000.3.31.1",
            "Image SLES15-SP5-SAP-Hardened-Azure:tar-1.34-150000.3.31.1",
            "Image SLES15-SP5-SAP-Hardened-BYOS-Azure:tar-1.34-150000.3.31.1",
            "Image SLES15-SP5-SAP-Hardened-BYOS-EC2:tar-1.34-150000.3.31.1",
            "Image SLES15-SP5-SAP-Hardened-BYOS-GCE:tar-1.34-150000.3.31.1",
            "Image SLES15-SP5-SAP-Hardened-EC2:tar-1.34-150000.3.31.1",
            "Image SLES15-SP5-SAP-Hardened-GCE:tar-1.34-150000.3.31.1",
            "Image SLES15-SP5-SAPCAL-Azure:tar-1.34-150000.3.31.1",
            "Image SLES15-SP5-SAPCAL-EC2:tar-1.34-150000.3.31.1",
            "Image SLES15-SP5-SAPCAL-GCE:tar-1.34-150000.3.31.1",
            "SUSE Linux Enterprise Micro 5.1:tar-1.34-150000.3.31.1",
            "SUSE Linux Enterprise Micro 5.2:tar-1.34-150000.3.31.1",
            "SUSE Linux Enterprise Micro 5.3:tar-1.34-150000.3.31.1",
            "SUSE Linux Enterprise Module for Basesystem 15 SP4:tar-1.34-150000.3.31.1",
            "SUSE Linux Enterprise Module for Basesystem 15 SP4:tar-lang-1.34-150000.3.31.1",
            "SUSE Linux Enterprise Module for Basesystem 15 SP4:tar-rmt-1.34-150000.3.31.1",
            "SUSE Linux Enterprise Real Time 15 SP3:tar-1.34-150000.3.31.1",
            "SUSE Linux Enterprise Real Time 15 SP3:tar-lang-1.34-150000.3.31.1",
            "SUSE Linux Enterprise Real Time 15 SP3:tar-rmt-1.34-150000.3.31.1",
            "openSUSE Leap 15.4:tar-1.34-150000.3.31.1",
            "openSUSE Leap 15.4:tar-backup-scripts-1.34-150000.3.31.1",
            "openSUSE Leap 15.4:tar-doc-1.34-150000.3.31.1",
            "openSUSE Leap 15.4:tar-lang-1.34-150000.3.31.1",
            "openSUSE Leap 15.4:tar-rmt-1.34-150000.3.31.1",
            "openSUSE Leap 15.4:tar-tests-1.34-150000.3.31.1",
            "openSUSE Leap Micro 5.2:tar-1.34-150000.3.31.1",
            "openSUSE Leap Micro 5.3:tar-1.34-150000.3.31.1"
          ]
        }
      ],
      "CVSSScoreSets": {}
    }
  ]
}