{
  "Title": "Security update for the Linux Kernel",
  "Tracking": {
    "ID": "SUSE-SU-2023:4028-1",
    "Status": "Final",
    "Version": "1",
    "InitialReleaseDate": "2023-10-10T12:06:24Z",
    "CurrentReleaseDate": "2023-10-10T12:06:24Z",
    "RevisionHistory": [
      {
        "Number": "1",
        "Date": "2023-10-10T12:06:24Z",
        "Description": "current"
      }
    ]
  },
  "Notes": [
    {
      "Text": "Security update for the Linux Kernel",
      "Title": "Topic",
      "Type": "Summary"
    },
    {
      "Text": "\nThe SUSE Linux Enterprise 11 SP4 kernel was updated to receive various security and bugfixes.\n\nThe following security bugs were fixed:\n\n- CVE-2023-1077: Fixed a type confusion in pick_next_rt_entity() that could cause memory corruption (bsc#1208600).\n- CVE-2023-4623: Fixed a use-after-free issue in the HFSC network scheduler which could be exploited to achieve local privilege escalation (bsc#1215115).\n- CVE-2023-1192: Fixed use-after-free in cifs_demultiplex_thread() (bsc#1208995).\n- CVE-2023-20588: Fixed a potential data leak that could be triggered through a side channel when division by zero occurred on some AMD processors (bsc#1213927).\n- CVE-2023-4459: Fixed a NULL pointer dereference flaw in the vmxnet3 driver that may have allowed a local attacker with user privileges to cause a denial of service (bsc#1214451).\n- CVE-2023-3772: Fixed a flaw in the XFRM subsystem that may have allowed a malicious user with CAP_NET_ADMIN privileges to directly dereference a NULL pointer leading to denial of service (bsc#1213666).\n- CVE-2023-2007: Removed the dpt_i2o driver due to security issues (bsc#1210448, jsc#PED-4579).\n- CVE-2023-4385: Fixed a NULL pointer dereference flaw in dbFree that may have allowed a local attacker to crash the system due to a missing sanity check (bsc#1214348).\n",
      "Title": "Details",
      "Type": "General"
    },
    {
      "Text": "The CVRF data is provided by SUSE under the Creative Commons License 4.0 with Attribution (CC-BY-4.0).",
      "Title": "Terms of Use",
      "Type": "Legal Disclaimer"
    },
    {
      "Text": "SUSE-2023-4028,SUSE-SLE-SERVER-11-SP4-LTSS-EXTREME-CORE-2023-4028",
      "Title": "Patchnames",
      "Type": "Details"
    }
  ],
  "ProductTree": {
    "Relationships": [
      {
        "ProductReference": "kernel-default-3.0.101-108.147.1",
        "RelatesToProductReference": "SUSE Linux Enterprise Server 11 SP4 LTSS EXTREME CORE",
        "RelationType": "Default Component Of"
      },
      {
        "ProductReference": "kernel-default-base-3.0.101-108.147.1",
        "RelatesToProductReference": "SUSE Linux Enterprise Server 11 SP4 LTSS EXTREME CORE",
        "RelationType": "Default Component Of"
      },
      {
        "ProductReference": "kernel-default-devel-3.0.101-108.147.1",
        "RelatesToProductReference": "SUSE Linux Enterprise Server 11 SP4 LTSS EXTREME CORE",
        "RelationType": "Default Component Of"
      },
      {
        "ProductReference": "kernel-ec2-3.0.101-108.147.1",
        "RelatesToProductReference": "SUSE Linux Enterprise Server 11 SP4 LTSS EXTREME CORE",
        "RelationType": "Default Component Of"
      },
      {
        "ProductReference": "kernel-ec2-base-3.0.101-108.147.1",
        "RelatesToProductReference": "SUSE Linux Enterprise Server 11 SP4 LTSS EXTREME CORE",
        "RelationType": "Default Component Of"
      },
      {
        "ProductReference": "kernel-ec2-devel-3.0.101-108.147.1",
        "RelatesToProductReference": "SUSE Linux Enterprise Server 11 SP4 LTSS EXTREME CORE",
        "RelationType": "Default Component Of"
      },
      {
        "ProductReference": "kernel-source-3.0.101-108.147.1",
        "RelatesToProductReference": "SUSE Linux Enterprise Server 11 SP4 LTSS EXTREME CORE",
        "RelationType": "Default Component Of"
      },
      {
        "ProductReference": "kernel-syms-3.0.101-108.147.1",
        "RelatesToProductReference": "SUSE Linux Enterprise Server 11 SP4 LTSS EXTREME CORE",
        "RelationType": "Default Component Of"
      },
      {
        "ProductReference": "kernel-trace-3.0.101-108.147.1",
        "RelatesToProductReference": "SUSE Linux Enterprise Server 11 SP4 LTSS EXTREME CORE",
        "RelationType": "Default Component Of"
      },
      {
        "ProductReference": "kernel-trace-base-3.0.101-108.147.1",
        "RelatesToProductReference": "SUSE Linux Enterprise Server 11 SP4 LTSS EXTREME CORE",
        "RelationType": "Default Component Of"
      },
      {
        "ProductReference": "kernel-trace-devel-3.0.101-108.147.1",
        "RelatesToProductReference": "SUSE Linux Enterprise Server 11 SP4 LTSS EXTREME CORE",
        "RelationType": "Default Component Of"
      },
      {
        "ProductReference": "kernel-xen-3.0.101-108.147.1",
        "RelatesToProductReference": "SUSE Linux Enterprise Server 11 SP4 LTSS EXTREME CORE",
        "RelationType": "Default Component Of"
      },
      {
        "ProductReference": "kernel-xen-base-3.0.101-108.147.1",
        "RelatesToProductReference": "SUSE Linux Enterprise Server 11 SP4 LTSS EXTREME CORE",
        "RelationType": "Default Component Of"
      },
      {
        "ProductReference": "kernel-xen-devel-3.0.101-108.147.1",
        "RelatesToProductReference": "SUSE Linux Enterprise Server 11 SP4 LTSS EXTREME CORE",
        "RelationType": "Default Component Of"
      }
    ]
  },
  "References": [
    {
      "URL": "https://www.suse.com/support/update/announcement/2023/suse-su-20234028-1/",
      "Description": "Link for SUSE-SU-2023:4028-1"
    },
    {
      "URL": "https://lists.suse.com/pipermail/sle-security-updates/2023-October/016622.html",
      "Description": "E-Mail link for SUSE-SU-2023:4028-1"
    },
    {
      "URL": "https://www.suse.com/support/security/rating/",
      "Description": "SUSE Security Ratings"
    },
    {
      "URL": "https://bugzilla.suse.com/1208600",
      "Description": "SUSE Bug 1208600"
    },
    {
      "URL": "https://bugzilla.suse.com/1208995",
      "Description": "SUSE Bug 1208995"
    },
    {
      "URL": "https://bugzilla.suse.com/1210448",
      "Description": "SUSE Bug 1210448"
    },
    {
      "URL": "https://bugzilla.suse.com/1213666",
      "Description": "SUSE Bug 1213666"
    },
    {
      "URL": "https://bugzilla.suse.com/1213927",
      "Description": "SUSE Bug 1213927"
    },
    {
      "URL": "https://bugzilla.suse.com/1214348",
      "Description": "SUSE Bug 1214348"
    },
    {
      "URL": "https://bugzilla.suse.com/1214451",
      "Description": "SUSE Bug 1214451"
    },
    {
      "URL": "https://bugzilla.suse.com/1215115",
      "Description": "SUSE Bug 1215115"
    },
    {
      "URL": "https://www.suse.com/security/cve/CVE-2023-1077/",
      "Description": "SUSE CVE CVE-2023-1077 page"
    },
    {
      "URL": "https://www.suse.com/security/cve/CVE-2023-1192/",
      "Description": "SUSE CVE CVE-2023-1192 page"
    },
    {
      "URL": "https://www.suse.com/security/cve/CVE-2023-2007/",
      "Description": "SUSE CVE CVE-2023-2007 page"
    },
    {
      "URL": "https://www.suse.com/security/cve/CVE-2023-20588/",
      "Description": "SUSE CVE CVE-2023-20588 page"
    },
    {
      "URL": "https://www.suse.com/security/cve/CVE-2023-3772/",
      "Description": "SUSE CVE CVE-2023-3772 page"
    },
    {
      "URL": "https://www.suse.com/security/cve/CVE-2023-4385/",
      "Description": "SUSE CVE CVE-2023-4385 page"
    },
    {
      "URL": "https://www.suse.com/security/cve/CVE-2023-4459/",
      "Description": "SUSE CVE CVE-2023-4459 page"
    },
    {
      "URL": "https://www.suse.com/security/cve/CVE-2023-4623/",
      "Description": "SUSE CVE CVE-2023-4623 page"
    }
  ],
  "Vulnerabilities": [
    {
      "CVE": "CVE-2023-1077",
      "Description": "In the Linux kernel, pick_next_rt_entity() may return a type confused entry, not detected by the BUG_ON condition, as the confused entry will not be NULL, but list_head.The buggy error condition would lead to a type confused entry with the list head,which would then be used as a type confused sched_rt_entity,causing memory corruption.",
      "Threats": [
        {
          "Type": "Impact",
          "Severity": "important"
        }
      ],
      "References": [
        {
          "URL": "https://www.suse.com/security/cve/CVE-2023-1077.html",
          "Description": "CVE-2023-1077"
        },
        {
          "URL": "https://bugzilla.suse.com/1208600",
          "Description": "SUSE Bug 1208600"
        },
        {
          "URL": "https://bugzilla.suse.com/1208839",
          "Description": "SUSE Bug 1208839"
        },
        {
          "URL": "https://bugzilla.suse.com/1213841",
          "Description": "SUSE Bug 1213841"
        },
        {
          "URL": "https://bugzilla.suse.com/1213842",
          "Description": "SUSE Bug 1213842"
        }
      ],
      "ProductStatuses": [
        {
          "Type": "Fixed",
          "ProductID": [
            "SUSE Linux Enterprise Server 11 SP4 LTSS EXTREME CORE:kernel-default-3.0.101-108.147.1",
            "SUSE Linux Enterprise Server 11 SP4 LTSS EXTREME CORE:kernel-default-base-3.0.101-108.147.1",
            "SUSE Linux Enterprise Server 11 SP4 LTSS EXTREME CORE:kernel-default-devel-3.0.101-108.147.1",
            "SUSE Linux Enterprise Server 11 SP4 LTSS EXTREME CORE:kernel-ec2-3.0.101-108.147.1",
            "SUSE Linux Enterprise Server 11 SP4 LTSS EXTREME CORE:kernel-ec2-base-3.0.101-108.147.1",
            "SUSE Linux Enterprise Server 11 SP4 LTSS EXTREME CORE:kernel-ec2-devel-3.0.101-108.147.1",
            "SUSE Linux Enterprise Server 11 SP4 LTSS EXTREME CORE:kernel-source-3.0.101-108.147.1",
            "SUSE Linux Enterprise Server 11 SP4 LTSS EXTREME CORE:kernel-syms-3.0.101-108.147.1",
            "SUSE Linux Enterprise Server 11 SP4 LTSS EXTREME CORE:kernel-trace-3.0.101-108.147.1",
            "SUSE Linux Enterprise Server 11 SP4 LTSS EXTREME CORE:kernel-trace-base-3.0.101-108.147.1",
            "SUSE Linux Enterprise Server 11 SP4 LTSS EXTREME CORE:kernel-trace-devel-3.0.101-108.147.1",
            "SUSE Linux Enterprise Server 11 SP4 LTSS EXTREME CORE:kernel-xen-3.0.101-108.147.1",
            "SUSE Linux Enterprise Server 11 SP4 LTSS EXTREME CORE:kernel-xen-base-3.0.101-108.147.1",
            "SUSE Linux Enterprise Server 11 SP4 LTSS EXTREME CORE:kernel-xen-devel-3.0.101-108.147.1"
          ]
        }
      ],
      "CVSSScoreSets": {}
    },
    {
      "CVE": "CVE-2023-1192",
      "Description": "A use-after-free flaw was found in smb2_is_status_io_timeout() in CIFS in the Linux Kernel. After CIFS transfers response data to a system call, there are still local variable points to the memory region, and if the system call frees it faster than CIFS uses it, CIFS will access a free memory region, leading to a denial of service.",
      "Threats": [
        {
          "Type": "Impact",
          "Severity": "moderate"
        }
      ],
      "References": [
        {
          "URL": "https://www.suse.com/security/cve/CVE-2023-1192.html",
          "Description": "CVE-2023-1192"
        },
        {
          "URL": "https://bugzilla.suse.com/1208995",
          "Description": "SUSE Bug 1208995"
        }
      ],
      "ProductStatuses": [
        {
          "Type": "Fixed",
          "ProductID": [
            "SUSE Linux Enterprise Server 11 SP4 LTSS EXTREME CORE:kernel-default-3.0.101-108.147.1",
            "SUSE Linux Enterprise Server 11 SP4 LTSS EXTREME CORE:kernel-default-base-3.0.101-108.147.1",
            "SUSE Linux Enterprise Server 11 SP4 LTSS EXTREME CORE:kernel-default-devel-3.0.101-108.147.1",
            "SUSE Linux Enterprise Server 11 SP4 LTSS EXTREME CORE:kernel-ec2-3.0.101-108.147.1",
            "SUSE Linux Enterprise Server 11 SP4 LTSS EXTREME CORE:kernel-ec2-base-3.0.101-108.147.1",
            "SUSE Linux Enterprise Server 11 SP4 LTSS EXTREME CORE:kernel-ec2-devel-3.0.101-108.147.1",
            "SUSE Linux Enterprise Server 11 SP4 LTSS EXTREME CORE:kernel-source-3.0.101-108.147.1",
            "SUSE Linux Enterprise Server 11 SP4 LTSS EXTREME CORE:kernel-syms-3.0.101-108.147.1",
            "SUSE Linux Enterprise Server 11 SP4 LTSS EXTREME CORE:kernel-trace-3.0.101-108.147.1",
            "SUSE Linux Enterprise Server 11 SP4 LTSS EXTREME CORE:kernel-trace-base-3.0.101-108.147.1",
            "SUSE Linux Enterprise Server 11 SP4 LTSS EXTREME CORE:kernel-trace-devel-3.0.101-108.147.1",
            "SUSE Linux Enterprise Server 11 SP4 LTSS EXTREME CORE:kernel-xen-3.0.101-108.147.1",
            "SUSE Linux Enterprise Server 11 SP4 LTSS EXTREME CORE:kernel-xen-base-3.0.101-108.147.1",
            "SUSE Linux Enterprise Server 11 SP4 LTSS EXTREME CORE:kernel-xen-devel-3.0.101-108.147.1"
          ]
        }
      ],
      "CVSSScoreSets": {}
    },
    {
      "CVE": "CVE-2023-2007",
      "Description": "The specific flaw exists within the DPT I2O Controller driver. The issue results from the lack of proper locking when performing operations on an object. An attacker can leverage this in conjunction with other vulnerabilities to escalate privileges and execute arbitrary code in the context of the kernel.",
      "Threats": [
        {
          "Type": "Impact",
          "Severity": "moderate"
        }
      ],
      "References": [
        {
          "URL": "https://www.suse.com/security/cve/CVE-2023-2007.html",
          "Description": "CVE-2023-2007"
        },
        {
          "URL": "https://bugzilla.suse.com/1210448",
          "Description": "SUSE Bug 1210448"
        }
      ],
      "ProductStatuses": [
        {
          "Type": "Fixed",
          "ProductID": [
            "SUSE Linux Enterprise Server 11 SP4 LTSS EXTREME CORE:kernel-default-3.0.101-108.147.1",
            "SUSE Linux Enterprise Server 11 SP4 LTSS EXTREME CORE:kernel-default-base-3.0.101-108.147.1",
            "SUSE Linux Enterprise Server 11 SP4 LTSS EXTREME CORE:kernel-default-devel-3.0.101-108.147.1",
            "SUSE Linux Enterprise Server 11 SP4 LTSS EXTREME CORE:kernel-ec2-3.0.101-108.147.1",
            "SUSE Linux Enterprise Server 11 SP4 LTSS EXTREME CORE:kernel-ec2-base-3.0.101-108.147.1",
            "SUSE Linux Enterprise Server 11 SP4 LTSS EXTREME CORE:kernel-ec2-devel-3.0.101-108.147.1",
            "SUSE Linux Enterprise Server 11 SP4 LTSS EXTREME CORE:kernel-source-3.0.101-108.147.1",
            "SUSE Linux Enterprise Server 11 SP4 LTSS EXTREME CORE:kernel-syms-3.0.101-108.147.1",
            "SUSE Linux Enterprise Server 11 SP4 LTSS EXTREME CORE:kernel-trace-3.0.101-108.147.1",
            "SUSE Linux Enterprise Server 11 SP4 LTSS EXTREME CORE:kernel-trace-base-3.0.101-108.147.1",
            "SUSE Linux Enterprise Server 11 SP4 LTSS EXTREME CORE:kernel-trace-devel-3.0.101-108.147.1",
            "SUSE Linux Enterprise Server 11 SP4 LTSS EXTREME CORE:kernel-xen-3.0.101-108.147.1",
            "SUSE Linux Enterprise Server 11 SP4 LTSS EXTREME CORE:kernel-xen-base-3.0.101-108.147.1",
            "SUSE Linux Enterprise Server 11 SP4 LTSS EXTREME CORE:kernel-xen-devel-3.0.101-108.147.1"
          ]
        }
      ],
      "CVSSScoreSets": {}
    },
    {
      "CVE": "CVE-2023-20588",
      "Description": "\nA division-by-zero error on some AMD processors can potentially return speculative data resulting in loss of confidentiality. \n\n\n\n\n\n\n\n",
      "Threats": [
        {
          "Type": "Impact",
          "Severity": "moderate"
        }
      ],
      "References": [
        {
          "URL": "https://www.suse.com/security/cve/CVE-2023-20588.html",
          "Description": "CVE-2023-20588"
        },
        {
          "URL": "https://bugzilla.suse.com/1213927",
          "Description": "SUSE Bug 1213927"
        }
      ],
      "ProductStatuses": [
        {
          "Type": "Fixed",
          "ProductID": [
            "SUSE Linux Enterprise Server 11 SP4 LTSS EXTREME CORE:kernel-default-3.0.101-108.147.1",
            "SUSE Linux Enterprise Server 11 SP4 LTSS EXTREME CORE:kernel-default-base-3.0.101-108.147.1",
            "SUSE Linux Enterprise Server 11 SP4 LTSS EXTREME CORE:kernel-default-devel-3.0.101-108.147.1",
            "SUSE Linux Enterprise Server 11 SP4 LTSS EXTREME CORE:kernel-ec2-3.0.101-108.147.1",
            "SUSE Linux Enterprise Server 11 SP4 LTSS EXTREME CORE:kernel-ec2-base-3.0.101-108.147.1",
            "SUSE Linux Enterprise Server 11 SP4 LTSS EXTREME CORE:kernel-ec2-devel-3.0.101-108.147.1",
            "SUSE Linux Enterprise Server 11 SP4 LTSS EXTREME CORE:kernel-source-3.0.101-108.147.1",
            "SUSE Linux Enterprise Server 11 SP4 LTSS EXTREME CORE:kernel-syms-3.0.101-108.147.1",
            "SUSE Linux Enterprise Server 11 SP4 LTSS EXTREME CORE:kernel-trace-3.0.101-108.147.1",
            "SUSE Linux Enterprise Server 11 SP4 LTSS EXTREME CORE:kernel-trace-base-3.0.101-108.147.1",
            "SUSE Linux Enterprise Server 11 SP4 LTSS EXTREME CORE:kernel-trace-devel-3.0.101-108.147.1",
            "SUSE Linux Enterprise Server 11 SP4 LTSS EXTREME CORE:kernel-xen-3.0.101-108.147.1",
            "SUSE Linux Enterprise Server 11 SP4 LTSS EXTREME CORE:kernel-xen-base-3.0.101-108.147.1",
            "SUSE Linux Enterprise Server 11 SP4 LTSS EXTREME CORE:kernel-xen-devel-3.0.101-108.147.1"
          ]
        }
      ],
      "CVSSScoreSets": {}
    },
    {
      "CVE": "CVE-2023-3772",
      "Description": "A flaw was found in the Linux kernel's IP framework for transforming packets (XFRM subsystem). This issue may allow a malicious user with CAP_NET_ADMIN privileges to directly dereference a NULL pointer in xfrm_update_ae_params(), leading to a possible kernel crash and denial of service.",
      "Threats": [
        {
          "Type": "Impact",
          "Severity": "moderate"
        }
      ],
      "References": [
        {
          "URL": "https://www.suse.com/security/cve/CVE-2023-3772.html",
          "Description": "CVE-2023-3772"
        },
        {
          "URL": "https://bugzilla.suse.com/1213666",
          "Description": "SUSE Bug 1213666"
        }
      ],
      "ProductStatuses": [
        {
          "Type": "Fixed",
          "ProductID": [
            "SUSE Linux Enterprise Server 11 SP4 LTSS EXTREME CORE:kernel-default-3.0.101-108.147.1",
            "SUSE Linux Enterprise Server 11 SP4 LTSS EXTREME CORE:kernel-default-base-3.0.101-108.147.1",
            "SUSE Linux Enterprise Server 11 SP4 LTSS EXTREME CORE:kernel-default-devel-3.0.101-108.147.1",
            "SUSE Linux Enterprise Server 11 SP4 LTSS EXTREME CORE:kernel-ec2-3.0.101-108.147.1",
            "SUSE Linux Enterprise Server 11 SP4 LTSS EXTREME CORE:kernel-ec2-base-3.0.101-108.147.1",
            "SUSE Linux Enterprise Server 11 SP4 LTSS EXTREME CORE:kernel-ec2-devel-3.0.101-108.147.1",
            "SUSE Linux Enterprise Server 11 SP4 LTSS EXTREME CORE:kernel-source-3.0.101-108.147.1",
            "SUSE Linux Enterprise Server 11 SP4 LTSS EXTREME CORE:kernel-syms-3.0.101-108.147.1",
            "SUSE Linux Enterprise Server 11 SP4 LTSS EXTREME CORE:kernel-trace-3.0.101-108.147.1",
            "SUSE Linux Enterprise Server 11 SP4 LTSS EXTREME CORE:kernel-trace-base-3.0.101-108.147.1",
            "SUSE Linux Enterprise Server 11 SP4 LTSS EXTREME CORE:kernel-trace-devel-3.0.101-108.147.1",
            "SUSE Linux Enterprise Server 11 SP4 LTSS EXTREME CORE:kernel-xen-3.0.101-108.147.1",
            "SUSE Linux Enterprise Server 11 SP4 LTSS EXTREME CORE:kernel-xen-base-3.0.101-108.147.1",
            "SUSE Linux Enterprise Server 11 SP4 LTSS EXTREME CORE:kernel-xen-devel-3.0.101-108.147.1"
          ]
        }
      ],
      "CVSSScoreSets": {}
    },
    {
      "CVE": "CVE-2023-4385",
      "Description": "A NULL pointer dereference flaw was found in dbFree in fs/jfs/jfs_dmap.c in the journaling file system (JFS) in the Linux Kernel. This issue may allow a local attacker to crash the system due to a missing sanity check.",
      "Threats": [
        {
          "Type": "Impact",
          "Severity": "moderate"
        }
      ],
      "References": [
        {
          "URL": "https://www.suse.com/security/cve/CVE-2023-4385.html",
          "Description": "CVE-2023-4385"
        },
        {
          "URL": "https://bugzilla.suse.com/1214348",
          "Description": "SUSE Bug 1214348"
        },
        {
          "URL": "https://bugzilla.suse.com/1222212",
          "Description": "SUSE Bug 1222212"
        }
      ],
      "ProductStatuses": [
        {
          "Type": "Fixed",
          "ProductID": [
            "SUSE Linux Enterprise Server 11 SP4 LTSS EXTREME CORE:kernel-default-3.0.101-108.147.1",
            "SUSE Linux Enterprise Server 11 SP4 LTSS EXTREME CORE:kernel-default-base-3.0.101-108.147.1",
            "SUSE Linux Enterprise Server 11 SP4 LTSS EXTREME CORE:kernel-default-devel-3.0.101-108.147.1",
            "SUSE Linux Enterprise Server 11 SP4 LTSS EXTREME CORE:kernel-ec2-3.0.101-108.147.1",
            "SUSE Linux Enterprise Server 11 SP4 LTSS EXTREME CORE:kernel-ec2-base-3.0.101-108.147.1",
            "SUSE Linux Enterprise Server 11 SP4 LTSS EXTREME CORE:kernel-ec2-devel-3.0.101-108.147.1",
            "SUSE Linux Enterprise Server 11 SP4 LTSS EXTREME CORE:kernel-source-3.0.101-108.147.1",
            "SUSE Linux Enterprise Server 11 SP4 LTSS EXTREME CORE:kernel-syms-3.0.101-108.147.1",
            "SUSE Linux Enterprise Server 11 SP4 LTSS EXTREME CORE:kernel-trace-3.0.101-108.147.1",
            "SUSE Linux Enterprise Server 11 SP4 LTSS EXTREME CORE:kernel-trace-base-3.0.101-108.147.1",
            "SUSE Linux Enterprise Server 11 SP4 LTSS EXTREME CORE:kernel-trace-devel-3.0.101-108.147.1",
            "SUSE Linux Enterprise Server 11 SP4 LTSS EXTREME CORE:kernel-xen-3.0.101-108.147.1",
            "SUSE Linux Enterprise Server 11 SP4 LTSS EXTREME CORE:kernel-xen-base-3.0.101-108.147.1",
            "SUSE Linux Enterprise Server 11 SP4 LTSS EXTREME CORE:kernel-xen-devel-3.0.101-108.147.1"
          ]
        }
      ],
      "CVSSScoreSets": {}
    },
    {
      "CVE": "CVE-2023-4459",
      "Description": "A NULL pointer dereference flaw was found in vmxnet3_rq_cleanup in drivers/net/vmxnet3/vmxnet3_drv.c in the networking sub-component in vmxnet3 in the Linux Kernel. This issue may allow a local attacker with normal user privilege to cause a denial of service due to a missing sanity check during cleanup.",
      "Threats": [
        {
          "Type": "Impact",
          "Severity": "moderate"
        }
      ],
      "References": [
        {
          "URL": "https://www.suse.com/security/cve/CVE-2023-4459.html",
          "Description": "CVE-2023-4459"
        },
        {
          "URL": "https://bugzilla.suse.com/1214451",
          "Description": "SUSE Bug 1214451"
        }
      ],
      "ProductStatuses": [
        {
          "Type": "Fixed",
          "ProductID": [
            "SUSE Linux Enterprise Server 11 SP4 LTSS EXTREME CORE:kernel-default-3.0.101-108.147.1",
            "SUSE Linux Enterprise Server 11 SP4 LTSS EXTREME CORE:kernel-default-base-3.0.101-108.147.1",
            "SUSE Linux Enterprise Server 11 SP4 LTSS EXTREME CORE:kernel-default-devel-3.0.101-108.147.1",
            "SUSE Linux Enterprise Server 11 SP4 LTSS EXTREME CORE:kernel-ec2-3.0.101-108.147.1",
            "SUSE Linux Enterprise Server 11 SP4 LTSS EXTREME CORE:kernel-ec2-base-3.0.101-108.147.1",
            "SUSE Linux Enterprise Server 11 SP4 LTSS EXTREME CORE:kernel-ec2-devel-3.0.101-108.147.1",
            "SUSE Linux Enterprise Server 11 SP4 LTSS EXTREME CORE:kernel-source-3.0.101-108.147.1",
            "SUSE Linux Enterprise Server 11 SP4 LTSS EXTREME CORE:kernel-syms-3.0.101-108.147.1",
            "SUSE Linux Enterprise Server 11 SP4 LTSS EXTREME CORE:kernel-trace-3.0.101-108.147.1",
            "SUSE Linux Enterprise Server 11 SP4 LTSS EXTREME CORE:kernel-trace-base-3.0.101-108.147.1",
            "SUSE Linux Enterprise Server 11 SP4 LTSS EXTREME CORE:kernel-trace-devel-3.0.101-108.147.1",
            "SUSE Linux Enterprise Server 11 SP4 LTSS EXTREME CORE:kernel-xen-3.0.101-108.147.1",
            "SUSE Linux Enterprise Server 11 SP4 LTSS EXTREME CORE:kernel-xen-base-3.0.101-108.147.1",
            "SUSE Linux Enterprise Server 11 SP4 LTSS EXTREME CORE:kernel-xen-devel-3.0.101-108.147.1"
          ]
        }
      ],
      "CVSSScoreSets": {}
    },
    {
      "CVE": "CVE-2023-4623",
      "Description": "A use-after-free vulnerability in the Linux kernel's net/sched: sch_hfsc (HFSC qdisc traffic control) component can be exploited to achieve local privilege escalation.\n\nIf a class with a link-sharing curve (i.e. with the HFSC_FSC flag set) has a parent without a link-sharing curve, then init_vf() will call vttree_insert() on the parent, but vttree_remove() will be skipped in update_vf(). This leaves a dangling pointer that can cause a use-after-free.\n\nWe recommend upgrading past commit b3d26c5702c7d6c45456326e56d2ccf3f103e60f.\n\n",
      "Threats": [
        {
          "Type": "Impact",
          "Severity": "important"
        }
      ],
      "References": [
        {
          "URL": "https://www.suse.com/security/cve/CVE-2023-4623.html",
          "Description": "CVE-2023-4623"
        },
        {
          "URL": "https://bugzilla.suse.com/1215115",
          "Description": "SUSE Bug 1215115"
        },
        {
          "URL": "https://bugzilla.suse.com/1215440",
          "Description": "SUSE Bug 1215440"
        },
        {
          "URL": "https://bugzilla.suse.com/1217444",
          "Description": "SUSE Bug 1217444"
        },
        {
          "URL": "https://bugzilla.suse.com/1217531",
          "Description": "SUSE Bug 1217531"
        },
        {
          "URL": "https://bugzilla.suse.com/1219698",
          "Description": "SUSE Bug 1219698"
        },
        {
          "URL": "https://bugzilla.suse.com/1221578",
          "Description": "SUSE Bug 1221578"
        },
        {
          "URL": "https://bugzilla.suse.com/1221598",
          "Description": "SUSE Bug 1221598"
        }
      ],
      "ProductStatuses": [
        {
          "Type": "Fixed",
          "ProductID": [
            "SUSE Linux Enterprise Server 11 SP4 LTSS EXTREME CORE:kernel-default-3.0.101-108.147.1",
            "SUSE Linux Enterprise Server 11 SP4 LTSS EXTREME CORE:kernel-default-base-3.0.101-108.147.1",
            "SUSE Linux Enterprise Server 11 SP4 LTSS EXTREME CORE:kernel-default-devel-3.0.101-108.147.1",
            "SUSE Linux Enterprise Server 11 SP4 LTSS EXTREME CORE:kernel-ec2-3.0.101-108.147.1",
            "SUSE Linux Enterprise Server 11 SP4 LTSS EXTREME CORE:kernel-ec2-base-3.0.101-108.147.1",
            "SUSE Linux Enterprise Server 11 SP4 LTSS EXTREME CORE:kernel-ec2-devel-3.0.101-108.147.1",
            "SUSE Linux Enterprise Server 11 SP4 LTSS EXTREME CORE:kernel-source-3.0.101-108.147.1",
            "SUSE Linux Enterprise Server 11 SP4 LTSS EXTREME CORE:kernel-syms-3.0.101-108.147.1",
            "SUSE Linux Enterprise Server 11 SP4 LTSS EXTREME CORE:kernel-trace-3.0.101-108.147.1",
            "SUSE Linux Enterprise Server 11 SP4 LTSS EXTREME CORE:kernel-trace-base-3.0.101-108.147.1",
            "SUSE Linux Enterprise Server 11 SP4 LTSS EXTREME CORE:kernel-trace-devel-3.0.101-108.147.1",
            "SUSE Linux Enterprise Server 11 SP4 LTSS EXTREME CORE:kernel-xen-3.0.101-108.147.1",
            "SUSE Linux Enterprise Server 11 SP4 LTSS EXTREME CORE:kernel-xen-base-3.0.101-108.147.1",
            "SUSE Linux Enterprise Server 11 SP4 LTSS EXTREME CORE:kernel-xen-devel-3.0.101-108.147.1"
          ]
        }
      ],
      "CVSSScoreSets": {}
    }
  ]
}