{
  "Title": "Security update for amazon-ssm-agent",
  "Tracking": {
    "ID": "SUSE-SU-2023:3537-1",
    "Status": "Final",
    "Version": "1",
    "InitialReleaseDate": "2023-09-05T13:05:33Z",
    "CurrentReleaseDate": "2023-09-05T13:05:33Z",
    "RevisionHistory": [
      {
        "Number": "1",
        "Date": "2023-09-05T13:05:33Z",
        "Description": "current"
      }
    ]
  },
  "Notes": [
    {
      "Text": "Security update for amazon-ssm-agent",
      "Title": "Topic",
      "Type": "Summary"
    },
    {
      "Text": "\nThis update of amazon-ssm-agent fixes the following issues:\n\n- rebuild the package with the go 1.21 security release (bsc#1212475).\n",
      "Title": "Details",
      "Type": "General"
    },
    {
      "Text": "The CVRF data is provided by SUSE under the Creative Commons License 4.0 with Attribution (CC-BY-4.0).",
      "Title": "Terms of Use",
      "Type": "Legal Disclaimer"
    },
    {
      "Text": "Image SLES15-SP2-SAP-BYOS-EC2-HVM-2023-3537,Image SLES15-SP2-SAP-EC2-HVM-2023-3537,Image SLES15-SP3-Manager-4-2-Proxy-BYOS-EC2-HVM-2023-3537,Image SLES15-SP3-Manager-4-2-Server-BYOS-EC2-HVM-2023-3537,Image SLES15-SP3-SAP-BYOS-EC2-HVM-2023-3537,Image SLES15-SP4-BYOS-EC2-2023-3537,Image SLES15-SP4-HPC-BYOS-EC2-2023-3537,Image SLES15-SP4-HPC-EC2-2023-3537,Image SLES15-SP4-Hardened-BYOS-EC2-2023-3537,Image SLES15-SP4-Manager-Proxy-4-3-BYOS-2023-3537,Image SLES15-SP4-Manager-Proxy-4-3-BYOS-EC2-2023-3537,Image SLES15-SP4-Manager-Server-4-3-BYOS-EC2-2023-3537,Image SLES15-SP4-Manager-Server-4-3-EC2-llc-2023-3537,Image SLES15-SP4-Manager-Server-4-3-EC2-ltd-2023-3537,Image SLES15-SP4-SAP-BYOS-EC2-2023-3537,Image SLES15-SP4-SAP-EC2-2023-3537,Image SLES15-SP4-SAP-Hardened-BYOS-EC2-2023-3537,Image SLES15-SP4-SAPCAL-EC2-2023-3537,Image SLES15-SP4-SUSE-Rancher-Setup-BYOS-2023-3537,Image SLES15-SP4-SUSE-Rancher-Setup-BYOS-EC2-2023-3537,Image SLES15-SP5-BYOS-EC2-2023-3537,Image SLES15-SP5-EC2-2023-3537,Image SLES15-SP5-HPC-BYOS-EC2-2023-3537,Image SLES15-SP5-Hardened-BYOS-EC2-2023-3537,Image SLES15-SP5-SAP-BYOS-EC2-2023-3537,Image SLES15-SP5-SAP-Hardened-BYOS-EC2-2023-3537,Image SLES15-SP5-SAPCAL-EC2-2023-3537,SUSE-2023-3537,SUSE-SLE-Module-Public-Cloud-15-SP1-2023-3537,SUSE-SLE-Module-Public-Cloud-15-SP2-2023-3537,SUSE-SLE-Module-Public-Cloud-15-SP3-2023-3537,SUSE-SLE-Module-Public-Cloud-15-SP4-2023-3537,SUSE-SLE-Module-Public-Cloud-15-SP5-2023-3537,openSUSE-SLE-15.4-2023-3537,openSUSE-SLE-15.5-2023-3537",
      "Title": "Patchnames",
      "Type": "Details"
    }
  ],
  "ProductTree": {
    "Relationships": [
      {
        "ProductReference": "amazon-ssm-agent-3.1.1260.0-150000.5.17.1",
        "RelatesToProductReference": "Image SLES15-SP2-SAP-BYOS-EC2-HVM",
        "RelationType": "Default Component Of"
      },
      {
        "ProductReference": "amazon-ssm-agent-3.1.1260.0-150000.5.17.1",
        "RelatesToProductReference": "Image SLES15-SP2-SAP-EC2-HVM",
        "RelationType": "Default Component Of"
      },
      {
        "ProductReference": "amazon-ssm-agent-3.1.1260.0-150000.5.17.1",
        "RelatesToProductReference": "Image SLES15-SP3-Manager-4-2-Proxy-BYOS-EC2-HVM",
        "RelationType": "Default Component Of"
      },
      {
        "ProductReference": "amazon-ssm-agent-3.1.1260.0-150000.5.17.1",
        "RelatesToProductReference": "Image SLES15-SP3-Manager-4-2-Server-BYOS-EC2-HVM",
        "RelationType": "Default Component Of"
      },
      {
        "ProductReference": "amazon-ssm-agent-3.1.1260.0-150000.5.17.1",
        "RelatesToProductReference": "Image SLES15-SP3-SAP-BYOS-EC2-HVM",
        "RelationType": "Default Component Of"
      },
      {
        "ProductReference": "amazon-ssm-agent-3.1.1260.0-150000.5.17.1",
        "RelatesToProductReference": "Image SLES15-SP4-BYOS-EC2",
        "RelationType": "Default Component Of"
      },
      {
        "ProductReference": "amazon-ssm-agent-3.1.1260.0-150000.5.17.1",
        "RelatesToProductReference": "Image SLES15-SP4-HPC-BYOS-EC2",
        "RelationType": "Default Component Of"
      },
      {
        "ProductReference": "amazon-ssm-agent-3.1.1260.0-150000.5.17.1",
        "RelatesToProductReference": "Image SLES15-SP4-HPC-EC2",
        "RelationType": "Default Component Of"
      },
      {
        "ProductReference": "amazon-ssm-agent-3.1.1260.0-150000.5.17.1",
        "RelatesToProductReference": "Image SLES15-SP4-Hardened-BYOS-EC2",
        "RelationType": "Default Component Of"
      },
      {
        "ProductReference": "amazon-ssm-agent-3.1.1260.0-150000.5.17.1",
        "RelatesToProductReference": "Image SLES15-SP4-Manager-Proxy-4-3-BYOS",
        "RelationType": "Default Component Of"
      },
      {
        "ProductReference": "amazon-ssm-agent-3.1.1260.0-150000.5.17.1",
        "RelatesToProductReference": "Image SLES15-SP4-Manager-Proxy-4-3-BYOS-EC2",
        "RelationType": "Default Component Of"
      },
      {
        "ProductReference": "amazon-ssm-agent-3.1.1260.0-150000.5.17.1",
        "RelatesToProductReference": "Image SLES15-SP4-Manager-Server-4-3-BYOS-EC2",
        "RelationType": "Default Component Of"
      },
      {
        "ProductReference": "amazon-ssm-agent-3.1.1260.0-150000.5.17.1",
        "RelatesToProductReference": "Image SLES15-SP4-Manager-Server-4-3-EC2-llc",
        "RelationType": "Default Component Of"
      },
      {
        "ProductReference": "amazon-ssm-agent-3.1.1260.0-150000.5.17.1",
        "RelatesToProductReference": "Image SLES15-SP4-Manager-Server-4-3-EC2-ltd",
        "RelationType": "Default Component Of"
      },
      {
        "ProductReference": "amazon-ssm-agent-3.1.1260.0-150000.5.17.1",
        "RelatesToProductReference": "Image SLES15-SP4-SAP-BYOS-EC2",
        "RelationType": "Default Component Of"
      },
      {
        "ProductReference": "amazon-ssm-agent-3.1.1260.0-150000.5.17.1",
        "RelatesToProductReference": "Image SLES15-SP4-SAP-EC2",
        "RelationType": "Default Component Of"
      },
      {
        "ProductReference": "amazon-ssm-agent-3.1.1260.0-150000.5.17.1",
        "RelatesToProductReference": "Image SLES15-SP4-SAP-Hardened-BYOS-EC2",
        "RelationType": "Default Component Of"
      },
      {
        "ProductReference": "amazon-ssm-agent-3.1.1260.0-150000.5.17.1",
        "RelatesToProductReference": "Image SLES15-SP4-SAPCAL-EC2",
        "RelationType": "Default Component Of"
      },
      {
        "ProductReference": "amazon-ssm-agent-3.1.1260.0-150000.5.17.1",
        "RelatesToProductReference": "Image SLES15-SP4-SUSE-Rancher-Setup-BYOS",
        "RelationType": "Default Component Of"
      },
      {
        "ProductReference": "amazon-ssm-agent-3.1.1260.0-150000.5.17.1",
        "RelatesToProductReference": "Image SLES15-SP4-SUSE-Rancher-Setup-BYOS-EC2",
        "RelationType": "Default Component Of"
      },
      {
        "ProductReference": "amazon-ssm-agent-3.1.1260.0-150000.5.17.1",
        "RelatesToProductReference": "Image SLES15-SP5-BYOS-EC2",
        "RelationType": "Default Component Of"
      },
      {
        "ProductReference": "amazon-ssm-agent-3.1.1260.0-150000.5.17.1",
        "RelatesToProductReference": "Image SLES15-SP5-EC2",
        "RelationType": "Default Component Of"
      },
      {
        "ProductReference": "amazon-ssm-agent-3.1.1260.0-150000.5.17.1",
        "RelatesToProductReference": "Image SLES15-SP5-HPC-BYOS-EC2",
        "RelationType": "Default Component Of"
      },
      {
        "ProductReference": "amazon-ssm-agent-3.1.1260.0-150000.5.17.1",
        "RelatesToProductReference": "Image SLES15-SP5-Hardened-BYOS-EC2",
        "RelationType": "Default Component Of"
      },
      {
        "ProductReference": "amazon-ssm-agent-3.1.1260.0-150000.5.17.1",
        "RelatesToProductReference": "Image SLES15-SP5-SAP-BYOS-EC2",
        "RelationType": "Default Component Of"
      },
      {
        "ProductReference": "amazon-ssm-agent-3.1.1260.0-150000.5.17.1",
        "RelatesToProductReference": "Image SLES15-SP5-SAP-Hardened-BYOS-EC2",
        "RelationType": "Default Component Of"
      },
      {
        "ProductReference": "amazon-ssm-agent-3.1.1260.0-150000.5.17.1",
        "RelatesToProductReference": "Image SLES15-SP5-SAPCAL-EC2",
        "RelationType": "Default Component Of"
      },
      {
        "ProductReference": "amazon-ssm-agent-3.1.1260.0-150000.5.17.1",
        "RelatesToProductReference": "SUSE Linux Enterprise Module for Public Cloud 15 SP1",
        "RelationType": "Default Component Of"
      },
      {
        "ProductReference": "amazon-ssm-agent-3.1.1260.0-150000.5.17.1",
        "RelatesToProductReference": "SUSE Linux Enterprise Module for Public Cloud 15 SP2",
        "RelationType": "Default Component Of"
      },
      {
        "ProductReference": "amazon-ssm-agent-3.1.1260.0-150000.5.17.1",
        "RelatesToProductReference": "SUSE Linux Enterprise Module for Public Cloud 15 SP3",
        "RelationType": "Default Component Of"
      },
      {
        "ProductReference": "amazon-ssm-agent-3.1.1260.0-150000.5.17.1",
        "RelatesToProductReference": "SUSE Linux Enterprise Module for Public Cloud 15 SP4",
        "RelationType": "Default Component Of"
      },
      {
        "ProductReference": "amazon-ssm-agent-3.1.1260.0-150000.5.17.1",
        "RelatesToProductReference": "SUSE Linux Enterprise Module for Public Cloud 15 SP5",
        "RelationType": "Default Component Of"
      },
      {
        "ProductReference": "amazon-ssm-agent-3.1.1260.0-150000.5.17.1",
        "RelatesToProductReference": "openSUSE Leap 15.4",
        "RelationType": "Default Component Of"
      },
      {
        "ProductReference": "amazon-ssm-agent-3.1.1260.0-150000.5.17.1",
        "RelatesToProductReference": "openSUSE Leap 15.5",
        "RelationType": "Default Component Of"
      }
    ]
  },
  "References": [
    {
      "URL": "https://www.suse.com/support/update/announcement/2023/suse-su-20233537-1/",
      "Description": "Link for SUSE-SU-2023:3537-1"
    },
    {
      "URL": "https://lists.suse.com/pipermail/sle-security-updates/2023-September/016099.html",
      "Description": "E-Mail link for SUSE-SU-2023:3537-1"
    },
    {
      "URL": "https://www.suse.com/support/security/rating/",
      "Description": "SUSE Security Ratings"
    },
    {
      "URL": "https://bugzilla.suse.com/1212475",
      "Description": "SUSE Bug 1212475"
    }
  ],
  "Vulnerabilities": null
}