{
  "Title": "Security update for the Linux Kernel (Live Patch 23 for SLE 15 SP3)",
  "Tracking": {
    "ID": "SUSE-SU-2023:3607-1",
    "Status": "Final",
    "Version": "1",
    "InitialReleaseDate": "2023-09-14T21:05:13Z",
    "CurrentReleaseDate": "2023-09-14T21:05:13Z",
    "RevisionHistory": [
      {
        "Number": "1",
        "Date": "2023-09-14T21:05:13Z",
        "Description": "current"
      }
    ]
  },
  "Notes": [
    {
      "Text": "Security update for the Linux Kernel (Live Patch 23 for SLE 15 SP3)",
      "Title": "Topic",
      "Type": "Summary"
    },
    {
      "Text": "This update for the Linux Kernel 5.3.18-150300_59_90 fixes several issues.\n\nThe following security issues were fixed:\n\n- CVE-2023-32233: Fixed a use-after-free in Netfilter nf_tables when processing batch requests (bsc#1211187).\n- CVE-2023-2156: Fixed a flaw in the networking subsystem within the handling of the RPL protocol (bsc#1211395).\n- CVE-2023-3567: Fixed a use-after-free in vcs_read in drivers/tty/vt/vc_screen.c (bsc#1213244).\n- CVE-2023-35001: Fixed an out-of-bounds memory access flaw in nft_byteorder that could allow a local attacker to escalate their privilege (bsc#1213063).\n- CVE-2023-1077: Fixed a type confusion in pick_next_rt_entity(), that could cause memory corruption (bsc#1208839).\n- CVE-2023-2176: Fixed an out-of-boundary read in compare_netdev_and_ip in drivers/infiniband/core/cma.c in RDMA (bsc#1210630).\n- CVE-2023-3090: Fixed a heap out-of-bounds write in the ipvlan network driver (bsc#1212849).\n",
      "Title": "Details",
      "Type": "General"
    },
    {
      "Text": "The CVRF data is provided by SUSE under the Creative Commons License 4.0 with Attribution (CC-BY-4.0).",
      "Title": "Terms of Use",
      "Type": "Legal Disclaimer"
    },
    {
      "Text": "SUSE-2023-3607,SUSE-SLE-Module-Live-Patching-15-SP3-2023-3607",
      "Title": "Patchnames",
      "Type": "Details"
    }
  ],
  "ProductTree": {
    "Relationships": [
      {
        "ProductReference": "kernel-livepatch-5_3_18-150300_59_90-default-14-150300.2.2",
        "RelatesToProductReference": "SUSE Linux Enterprise Live Patching 15 SP3",
        "RelationType": "Default Component Of"
      }
    ]
  },
  "References": [
    {
      "URL": "https://www.suse.com/support/update/announcement/2023/suse-su-20233607-1/",
      "Description": "Link for SUSE-SU-2023:3607-1"
    },
    {
      "URL": "https://lists.suse.com/pipermail/sle-security-updates/2023-September/016155.html",
      "Description": "E-Mail link for SUSE-SU-2023:3607-1"
    },
    {
      "URL": "https://www.suse.com/support/security/rating/",
      "Description": "SUSE Security Ratings"
    },
    {
      "URL": "https://bugzilla.suse.com/1208839",
      "Description": "SUSE Bug 1208839"
    },
    {
      "URL": "https://bugzilla.suse.com/1210630",
      "Description": "SUSE Bug 1210630"
    },
    {
      "URL": "https://bugzilla.suse.com/1211187",
      "Description": "SUSE Bug 1211187"
    },
    {
      "URL": "https://bugzilla.suse.com/1211395",
      "Description": "SUSE Bug 1211395"
    },
    {
      "URL": "https://bugzilla.suse.com/1212849",
      "Description": "SUSE Bug 1212849"
    },
    {
      "URL": "https://bugzilla.suse.com/1213063",
      "Description": "SUSE Bug 1213063"
    },
    {
      "URL": "https://bugzilla.suse.com/1213244",
      "Description": "SUSE Bug 1213244"
    },
    {
      "URL": "https://www.suse.com/security/cve/CVE-2023-1077/",
      "Description": "SUSE CVE CVE-2023-1077 page"
    },
    {
      "URL": "https://www.suse.com/security/cve/CVE-2023-2156/",
      "Description": "SUSE CVE CVE-2023-2156 page"
    },
    {
      "URL": "https://www.suse.com/security/cve/CVE-2023-2176/",
      "Description": "SUSE CVE CVE-2023-2176 page"
    },
    {
      "URL": "https://www.suse.com/security/cve/CVE-2023-3090/",
      "Description": "SUSE CVE CVE-2023-3090 page"
    },
    {
      "URL": "https://www.suse.com/security/cve/CVE-2023-32233/",
      "Description": "SUSE CVE CVE-2023-32233 page"
    },
    {
      "URL": "https://www.suse.com/security/cve/CVE-2023-35001/",
      "Description": "SUSE CVE CVE-2023-35001 page"
    },
    {
      "URL": "https://www.suse.com/security/cve/CVE-2023-3567/",
      "Description": "SUSE CVE CVE-2023-3567 page"
    }
  ],
  "Vulnerabilities": [
    {
      "CVE": "CVE-2023-1077",
      "Description": "In the Linux kernel, pick_next_rt_entity() may return a type confused entry, not detected by the BUG_ON condition, as the confused entry will not be NULL, but list_head.The buggy error condition would lead to a type confused entry with the list head,which would then be used as a type confused sched_rt_entity,causing memory corruption.",
      "Threats": [
        {
          "Type": "Impact",
          "Severity": "important"
        }
      ],
      "References": [
        {
          "URL": "https://www.suse.com/security/cve/CVE-2023-1077.html",
          "Description": "CVE-2023-1077"
        },
        {
          "URL": "https://bugzilla.suse.com/1208600",
          "Description": "SUSE Bug 1208600"
        },
        {
          "URL": "https://bugzilla.suse.com/1208839",
          "Description": "SUSE Bug 1208839"
        },
        {
          "URL": "https://bugzilla.suse.com/1213841",
          "Description": "SUSE Bug 1213841"
        },
        {
          "URL": "https://bugzilla.suse.com/1213842",
          "Description": "SUSE Bug 1213842"
        }
      ],
      "ProductStatuses": [
        {
          "Type": "Fixed",
          "ProductID": [
            "SUSE Linux Enterprise Live Patching 15 SP3:kernel-livepatch-5_3_18-150300_59_90-default-14-150300.2.2"
          ]
        }
      ],
      "CVSSScoreSets": {}
    },
    {
      "CVE": "CVE-2023-2156",
      "Description": "A flaw was found in the networking subsystem of the Linux kernel within the handling of the RPL protocol. This issue results from the lack of proper handling of user-supplied data, which can lead to an assertion failure. This may allow an unauthenticated remote attacker to create a denial of service condition on the system.",
      "Threats": [
        {
          "Type": "Impact",
          "Severity": "important"
        }
      ],
      "References": [
        {
          "URL": "https://www.suse.com/security/cve/CVE-2023-2156.html",
          "Description": "CVE-2023-2156"
        },
        {
          "URL": "https://bugzilla.suse.com/1211131",
          "Description": "SUSE Bug 1211131"
        },
        {
          "URL": "https://bugzilla.suse.com/1211395",
          "Description": "SUSE Bug 1211395"
        }
      ],
      "ProductStatuses": [
        {
          "Type": "Fixed",
          "ProductID": [
            "SUSE Linux Enterprise Live Patching 15 SP3:kernel-livepatch-5_3_18-150300_59_90-default-14-150300.2.2"
          ]
        }
      ],
      "CVSSScoreSets": {}
    },
    {
      "CVE": "CVE-2023-2176",
      "Description": "A vulnerability was found in compare_netdev_and_ip in drivers/infiniband/core/cma.c in RDMA in the Linux Kernel. The improper cleanup results in out-of-boundary read, where a local user can utilize this problem to crash the system or escalation of privilege.",
      "Threats": [
        {
          "Type": "Impact",
          "Severity": "important"
        }
      ],
      "References": [
        {
          "URL": "https://www.suse.com/security/cve/CVE-2023-2176.html",
          "Description": "CVE-2023-2176"
        },
        {
          "URL": "https://bugzilla.suse.com/1210629",
          "Description": "SUSE Bug 1210629"
        },
        {
          "URL": "https://bugzilla.suse.com/1210630",
          "Description": "SUSE Bug 1210630"
        },
        {
          "URL": "https://bugzilla.suse.com/1213842",
          "Description": "SUSE Bug 1213842"
        }
      ],
      "ProductStatuses": [
        {
          "Type": "Fixed",
          "ProductID": [
            "SUSE Linux Enterprise Live Patching 15 SP3:kernel-livepatch-5_3_18-150300_59_90-default-14-150300.2.2"
          ]
        }
      ],
      "CVSSScoreSets": {}
    },
    {
      "CVE": "CVE-2023-3090",
      "Description": "A heap out-of-bounds write vulnerability in the Linux Kernel ipvlan network driver can be exploited to achieve local privilege escalation.\n\nThe out-of-bounds write is caused by missing skb-\u003ecb  initialization in the ipvlan network driver. The vulnerability is reachable if CONFIG_IPVLAN is enabled.\n\n\nWe recommend upgrading past commit 90cbed5247439a966b645b34eb0a2e037836ea8e.\n\n",
      "Threats": [
        {
          "Type": "Impact",
          "Severity": "important"
        }
      ],
      "References": [
        {
          "URL": "https://www.suse.com/security/cve/CVE-2023-3090.html",
          "Description": "CVE-2023-3090"
        },
        {
          "URL": "https://bugzilla.suse.com/1212842",
          "Description": "SUSE Bug 1212842"
        },
        {
          "URL": "https://bugzilla.suse.com/1212849",
          "Description": "SUSE Bug 1212849"
        },
        {
          "URL": "https://bugzilla.suse.com/1214128",
          "Description": "SUSE Bug 1214128"
        },
        {
          "URL": "https://bugzilla.suse.com/1219701",
          "Description": "SUSE Bug 1219701"
        }
      ],
      "ProductStatuses": [
        {
          "Type": "Fixed",
          "ProductID": [
            "SUSE Linux Enterprise Live Patching 15 SP3:kernel-livepatch-5_3_18-150300_59_90-default-14-150300.2.2"
          ]
        }
      ],
      "CVSSScoreSets": {}
    },
    {
      "CVE": "CVE-2023-32233",
      "Description": "In the Linux kernel through 6.3.1, a use-after-free in Netfilter nf_tables when processing batch requests can be abused to perform arbitrary read and write operations on kernel memory. Unprivileged local users can obtain root privileges. This occurs because anonymous sets are mishandled.",
      "Threats": [
        {
          "Type": "Impact",
          "Severity": "important"
        }
      ],
      "References": [
        {
          "URL": "https://www.suse.com/security/cve/CVE-2023-32233.html",
          "Description": "CVE-2023-32233"
        },
        {
          "URL": "https://bugzilla.suse.com/1211043",
          "Description": "SUSE Bug 1211043"
        },
        {
          "URL": "https://bugzilla.suse.com/1211187",
          "Description": "SUSE Bug 1211187"
        }
      ],
      "ProductStatuses": [
        {
          "Type": "Fixed",
          "ProductID": [
            "SUSE Linux Enterprise Live Patching 15 SP3:kernel-livepatch-5_3_18-150300_59_90-default-14-150300.2.2"
          ]
        }
      ],
      "CVSSScoreSets": {}
    },
    {
      "CVE": "CVE-2023-35001",
      "Description": "Linux Kernel nftables Out-Of-Bounds Read/Write Vulnerability; nft_byteorder poorly handled vm register contents when CAP_NET_ADMIN is in any user or network namespace",
      "Threats": [
        {
          "Type": "Impact",
          "Severity": "important"
        }
      ],
      "References": [
        {
          "URL": "https://www.suse.com/security/cve/CVE-2023-35001.html",
          "Description": "CVE-2023-35001"
        },
        {
          "URL": "https://bugzilla.suse.com/1213059",
          "Description": "SUSE Bug 1213059"
        },
        {
          "URL": "https://bugzilla.suse.com/1213063",
          "Description": "SUSE Bug 1213063"
        },
        {
          "URL": "https://bugzilla.suse.com/1217531",
          "Description": "SUSE Bug 1217531"
        }
      ],
      "ProductStatuses": [
        {
          "Type": "Fixed",
          "ProductID": [
            "SUSE Linux Enterprise Live Patching 15 SP3:kernel-livepatch-5_3_18-150300_59_90-default-14-150300.2.2"
          ]
        }
      ],
      "CVSSScoreSets": {}
    },
    {
      "CVE": "CVE-2023-3567",
      "Description": "A use-after-free flaw was found in vcs_read in drivers/tty/vt/vc_screen.c in vc_screen in the Linux Kernel. This issue may allow an attacker with local user access to cause a system crash or leak internal kernel information.",
      "Threats": [
        {
          "Type": "Impact",
          "Severity": "important"
        }
      ],
      "References": [
        {
          "URL": "https://www.suse.com/security/cve/CVE-2023-3567.html",
          "Description": "CVE-2023-3567"
        },
        {
          "URL": "https://bugzilla.suse.com/1213167",
          "Description": "SUSE Bug 1213167"
        },
        {
          "URL": "https://bugzilla.suse.com/1213244",
          "Description": "SUSE Bug 1213244"
        },
        {
          "URL": "https://bugzilla.suse.com/1213842",
          "Description": "SUSE Bug 1213842"
        },
        {
          "URL": "https://bugzilla.suse.com/1215674",
          "Description": "SUSE Bug 1215674"
        },
        {
          "URL": "https://bugzilla.suse.com/1217444",
          "Description": "SUSE Bug 1217444"
        },
        {
          "URL": "https://bugzilla.suse.com/1217531",
          "Description": "SUSE Bug 1217531"
        }
      ],
      "ProductStatuses": [
        {
          "Type": "Fixed",
          "ProductID": [
            "SUSE Linux Enterprise Live Patching 15 SP3:kernel-livepatch-5_3_18-150300_59_90-default-14-150300.2.2"
          ]
        }
      ],
      "CVSSScoreSets": {}
    }
  ]
}