{
  "Title": "Security update for python3-Twisted",
  "Tracking": {
    "ID": "SUSE-SU-2023:4607-1",
    "Status": "Final",
    "Version": "1",
    "InitialReleaseDate": "2023-11-29T08:59:28Z",
    "CurrentReleaseDate": "2023-11-29T08:59:28Z",
    "RevisionHistory": [
      {
        "Number": "1",
        "Date": "2023-11-29T08:59:28Z",
        "Description": "current"
      }
    ]
  },
  "Notes": [
    {
      "Text": "Security update for python3-Twisted",
      "Title": "Topic",
      "Type": "Summary"
    },
    {
      "Text": "This update for python3-Twisted fixes the following issues:\n\n- CVE-2023-46137: Fixed issue inside serializing pipelined HTTP requests. (bsc#1216588)\n",
      "Title": "Details",
      "Type": "General"
    },
    {
      "Text": "The CVRF data is provided by SUSE under the Creative Commons License 4.0 with Attribution (CC-BY-4.0).",
      "Title": "Terms of Use",
      "Type": "Legal Disclaimer"
    },
    {
      "Text": "Image SLES15-SP4-Manager-Proxy-4-3-BYOS-Azure-2023-4607,Image SLES15-SP5-Azure-Basic-2023-4607,Image SLES15-SP5-Azure-Standard-2023-4607,Image SLES15-SP5-BYOS-Azure-2023-4607,Image SLES15-SP5-HPC-Azure-2023-4607,Image SLES15-SP5-HPC-BYOS-Azure-2023-4607,Image SLES15-SP5-Hardened-BYOS-Azure-2023-4607,Image SLES15-SP5-SAP-BYOS-Azure-2023-4607,Image SLES15-SP5-SAP-Hardened-Azure-2023-4607,Image SLES15-SP5-SAP-Hardened-BYOS-Azure-2023-4607,Image SLES15-SP5-SAPCAL-Azure-2023-4607,SUSE-2023-4607,SUSE-SLE-Module-Server-Applications-15-SP4-2023-4607,SUSE-SLE-Module-Server-Applications-15-SP5-2023-4607,openSUSE-SLE-15.4-2023-4607,openSUSE-SLE-15.5-2023-4607",
      "Title": "Patchnames",
      "Type": "Details"
    }
  ],
  "ProductTree": {
    "Relationships": [
      {
        "ProductReference": "python3-Twisted-22.2.0-150400.15.1",
        "RelatesToProductReference": "Image SLES15-SP4-Manager-Proxy-4-3-BYOS-Azure",
        "RelationType": "Default Component Of"
      },
      {
        "ProductReference": "python3-Twisted-22.2.0-150400.15.1",
        "RelatesToProductReference": "Image SLES15-SP5-Azure-Basic",
        "RelationType": "Default Component Of"
      },
      {
        "ProductReference": "python3-Twisted-22.2.0-150400.15.1",
        "RelatesToProductReference": "Image SLES15-SP5-Azure-Standard",
        "RelationType": "Default Component Of"
      },
      {
        "ProductReference": "python3-Twisted-22.2.0-150400.15.1",
        "RelatesToProductReference": "Image SLES15-SP5-BYOS-Azure",
        "RelationType": "Default Component Of"
      },
      {
        "ProductReference": "python3-Twisted-22.2.0-150400.15.1",
        "RelatesToProductReference": "Image SLES15-SP5-HPC-Azure",
        "RelationType": "Default Component Of"
      },
      {
        "ProductReference": "python3-Twisted-22.2.0-150400.15.1",
        "RelatesToProductReference": "Image SLES15-SP5-HPC-BYOS-Azure",
        "RelationType": "Default Component Of"
      },
      {
        "ProductReference": "python3-Twisted-22.2.0-150400.15.1",
        "RelatesToProductReference": "Image SLES15-SP5-Hardened-BYOS-Azure",
        "RelationType": "Default Component Of"
      },
      {
        "ProductReference": "python3-Twisted-22.2.0-150400.15.1",
        "RelatesToProductReference": "Image SLES15-SP5-SAP-BYOS-Azure",
        "RelationType": "Default Component Of"
      },
      {
        "ProductReference": "python3-Twisted-22.2.0-150400.15.1",
        "RelatesToProductReference": "Image SLES15-SP5-SAP-Hardened-Azure",
        "RelationType": "Default Component Of"
      },
      {
        "ProductReference": "python3-Twisted-22.2.0-150400.15.1",
        "RelatesToProductReference": "Image SLES15-SP5-SAP-Hardened-BYOS-Azure",
        "RelationType": "Default Component Of"
      },
      {
        "ProductReference": "python3-Twisted-22.2.0-150400.15.1",
        "RelatesToProductReference": "Image SLES15-SP5-SAPCAL-Azure",
        "RelationType": "Default Component Of"
      },
      {
        "ProductReference": "python3-Twisted-22.2.0-150400.15.1",
        "RelatesToProductReference": "SUSE Linux Enterprise Module for Server Applications 15 SP4",
        "RelationType": "Default Component Of"
      },
      {
        "ProductReference": "python3-Twisted-22.2.0-150400.15.1",
        "RelatesToProductReference": "SUSE Linux Enterprise Module for Server Applications 15 SP5",
        "RelationType": "Default Component Of"
      },
      {
        "ProductReference": "python3-Twisted-22.2.0-150400.15.1",
        "RelatesToProductReference": "openSUSE Leap 15.4",
        "RelationType": "Default Component Of"
      },
      {
        "ProductReference": "python3-Twisted-22.2.0-150400.15.1",
        "RelatesToProductReference": "openSUSE Leap 15.5",
        "RelationType": "Default Component Of"
      }
    ]
  },
  "References": [
    {
      "URL": "https://www.suse.com/support/update/announcement/2023/suse-su-20234607-1/",
      "Description": "Link for SUSE-SU-2023:4607-1"
    },
    {
      "URL": "https://lists.suse.com/pipermail/sle-security-updates/2023-November/017255.html",
      "Description": "E-Mail link for SUSE-SU-2023:4607-1"
    },
    {
      "URL": "https://www.suse.com/support/security/rating/",
      "Description": "SUSE Security Ratings"
    },
    {
      "URL": "https://bugzilla.suse.com/1216588",
      "Description": "SUSE Bug 1216588"
    },
    {
      "URL": "https://www.suse.com/security/cve/CVE-2023-46137/",
      "Description": "SUSE CVE CVE-2023-46137 page"
    }
  ],
  "Vulnerabilities": [
    {
      "CVE": "CVE-2023-46137",
      "Description": "Twisted is an event-based framework for internet applications. Prior to version 23.10.0rc1, when sending multiple HTTP requests in one TCP packet, twisted.web will process the requests asynchronously without guaranteeing the response order. If one of the endpoints is controlled by an attacker, the attacker can delay the response on purpose to manipulate the response of the second request when a victim launched two requests using HTTP pipeline. Version 23.10.0rc1 contains a patch for this issue.",
      "Threats": [
        {
          "Type": "Impact",
          "Severity": "moderate"
        }
      ],
      "References": [
        {
          "URL": "https://www.suse.com/security/cve/CVE-2023-46137.html",
          "Description": "CVE-2023-46137"
        },
        {
          "URL": "https://bugzilla.suse.com/1216588",
          "Description": "SUSE Bug 1216588"
        }
      ],
      "ProductStatuses": [
        {
          "Type": "Fixed",
          "ProductID": [
            "Image SLES15-SP4-Manager-Proxy-4-3-BYOS-Azure:python3-Twisted-22.2.0-150400.15.1",
            "Image SLES15-SP5-Azure-Basic:python3-Twisted-22.2.0-150400.15.1",
            "Image SLES15-SP5-Azure-Standard:python3-Twisted-22.2.0-150400.15.1",
            "Image SLES15-SP5-BYOS-Azure:python3-Twisted-22.2.0-150400.15.1",
            "Image SLES15-SP5-HPC-Azure:python3-Twisted-22.2.0-150400.15.1",
            "Image SLES15-SP5-HPC-BYOS-Azure:python3-Twisted-22.2.0-150400.15.1",
            "Image SLES15-SP5-Hardened-BYOS-Azure:python3-Twisted-22.2.0-150400.15.1",
            "Image SLES15-SP5-SAP-BYOS-Azure:python3-Twisted-22.2.0-150400.15.1",
            "Image SLES15-SP5-SAP-Hardened-Azure:python3-Twisted-22.2.0-150400.15.1",
            "Image SLES15-SP5-SAP-Hardened-BYOS-Azure:python3-Twisted-22.2.0-150400.15.1",
            "Image SLES15-SP5-SAPCAL-Azure:python3-Twisted-22.2.0-150400.15.1",
            "SUSE Linux Enterprise Module for Server Applications 15 SP4:python3-Twisted-22.2.0-150400.15.1",
            "SUSE Linux Enterprise Module for Server Applications 15 SP5:python3-Twisted-22.2.0-150400.15.1",
            "openSUSE Leap 15.4:python3-Twisted-22.2.0-150400.15.1",
            "openSUSE Leap 15.5:python3-Twisted-22.2.0-150400.15.1"
          ]
        }
      ],
      "CVSSScoreSets": {}
    }
  ]
}