{
  "Title": "Security update for bind",
  "Tracking": {
    "ID": "SUSE-SU-2023:0427-1",
    "Status": "Final",
    "Version": "1",
    "InitialReleaseDate": "2023-02-15T16:40:21Z",
    "CurrentReleaseDate": "2023-02-15T16:40:21Z",
    "RevisionHistory": [
      {
        "Number": "1",
        "Date": "2023-02-15T16:40:21Z",
        "Description": "current"
      }
    ]
  },
  "Notes": [
    {
      "Text": "Security update for bind",
      "Title": "Topic",
      "Type": "Summary"
    },
    {
      "Text": "This update for bind fixes the following issues:\n\n  - CVE-2022-3094: Fixed memory exhaustion due to UPDATE message flooding (bsc#1207471).\n",
      "Title": "Details",
      "Type": "General"
    },
    {
      "Text": "The CVRF data is provided by SUSE under the Creative Commons License 4.0 with Attribution (CC-BY-4.0).",
      "Title": "Terms of Use",
      "Type": "Legal Disclaimer"
    },
    {
      "Text": "Image SLES15-SP3-BYOS-Azure-2023-427,Image SLES15-SP3-CHOST-BYOS-Aliyun-2023-427,Image SLES15-SP3-CHOST-BYOS-Azure-2023-427,Image SLES15-SP3-CHOST-BYOS-EC2-2023-427,Image SLES15-SP3-CHOST-BYOS-GCE-2023-427,Image SLES15-SP3-CHOST-BYOS-SAP-CCloud-2023-427,Image SLES15-SP3-HPC-BYOS-Azure-2023-427,Image SLES15-SP3-Manager-4-2-Proxy-BYOS-Azure-2023-427,Image SLES15-SP3-Manager-4-2-Proxy-BYOS-EC2-HVM-2023-427,Image SLES15-SP3-Manager-4-2-Proxy-BYOS-GCE-2023-427,Image SLES15-SP3-Manager-4-2-Server-BYOS-Azure-2023-427,Image SLES15-SP3-Manager-4-2-Server-BYOS-EC2-HVM-2023-427,Image SLES15-SP3-Manager-4-2-Server-BYOS-GCE-2023-427,Image SLES15-SP3-SAP-Azure-LI-BYOS-Production-2023-427,Image SLES15-SP3-SAP-Azure-VLI-BYOS-Production-2023-427,Image SLES15-SP3-SAP-BYOS-Azure-2023-427,Image SLES15-SP3-SAP-BYOS-EC2-HVM-2023-427,Image SLES15-SP3-SAP-BYOS-GCE-2023-427,Image SLES15-SP3-SAPCAL-Azure-2023-427,SUSE-2023-427,SUSE-SLE-Module-Basesystem-15-SP4-2023-427,SUSE-SLE-Product-HPC-15-SP3-ESPOS-2023-427,SUSE-SLE-Product-HPC-15-SP3-LTSS-2023-427,SUSE-SLE-Product-RT-15-SP3-2023-427,SUSE-SLE-Product-SLES-15-SP3-LTSS-2023-427,SUSE-SLE-Product-SLES_SAP-15-SP3-2023-427,SUSE-SLE-Product-SUSE-Manager-Proxy-4.2-2023-427,SUSE-SLE-Product-SUSE-Manager-Retail-Branch-Server-4.2-2023-427,SUSE-SLE-Product-SUSE-Manager-Server-4.2-2023-427,SUSE-Storage-7.1-2023-427,openSUSE-SLE-15.4-2023-427",
      "Title": "Patchnames",
      "Type": "Details"
    }
  ],
  "ProductTree": {
    "Relationships": [
      {
        "ProductReference": "bind-utils-9.16.6-150300.22.27.1",
        "RelatesToProductReference": "Image SLES15-SP3-BYOS-Azure",
        "RelationType": "Default Component Of"
      },
      {
        "ProductReference": "libbind9-1600-9.16.6-150300.22.27.1",
        "RelatesToProductReference": "Image SLES15-SP3-BYOS-Azure",
        "RelationType": "Default Component Of"
      },
      {
        "ProductReference": "libdns1605-9.16.6-150300.22.27.1",
        "RelatesToProductReference": "Image SLES15-SP3-BYOS-Azure",
        "RelationType": "Default Component Of"
      },
      {
        "ProductReference": "libirs1601-9.16.6-150300.22.27.1",
        "RelatesToProductReference": "Image SLES15-SP3-BYOS-Azure",
        "RelationType": "Default Component Of"
      },
      {
        "ProductReference": "libisc1606-9.16.6-150300.22.27.1",
        "RelatesToProductReference": "Image SLES15-SP3-BYOS-Azure",
        "RelationType": "Default Component Of"
      },
      {
        "ProductReference": "libisccc1600-9.16.6-150300.22.27.1",
        "RelatesToProductReference": "Image SLES15-SP3-BYOS-Azure",
        "RelationType": "Default Component Of"
      },
      {
        "ProductReference": "libisccfg1600-9.16.6-150300.22.27.1",
        "RelatesToProductReference": "Image SLES15-SP3-BYOS-Azure",
        "RelationType": "Default Component Of"
      },
      {
        "ProductReference": "libns1604-9.16.6-150300.22.27.1",
        "RelatesToProductReference": "Image SLES15-SP3-BYOS-Azure",
        "RelationType": "Default Component Of"
      },
      {
        "ProductReference": "python3-bind-9.16.6-150300.22.27.1",
        "RelatesToProductReference": "Image SLES15-SP3-BYOS-Azure",
        "RelationType": "Default Component Of"
      },
      {
        "ProductReference": "bind-utils-9.16.6-150300.22.27.1",
        "RelatesToProductReference": "Image SLES15-SP3-CHOST-BYOS-Aliyun",
        "RelationType": "Default Component Of"
      },
      {
        "ProductReference": "libbind9-1600-9.16.6-150300.22.27.1",
        "RelatesToProductReference": "Image SLES15-SP3-CHOST-BYOS-Aliyun",
        "RelationType": "Default Component Of"
      },
      {
        "ProductReference": "libdns1605-9.16.6-150300.22.27.1",
        "RelatesToProductReference": "Image SLES15-SP3-CHOST-BYOS-Aliyun",
        "RelationType": "Default Component Of"
      },
      {
        "ProductReference": "libirs1601-9.16.6-150300.22.27.1",
        "RelatesToProductReference": "Image SLES15-SP3-CHOST-BYOS-Aliyun",
        "RelationType": "Default Component Of"
      },
      {
        "ProductReference": "libisc1606-9.16.6-150300.22.27.1",
        "RelatesToProductReference": "Image SLES15-SP3-CHOST-BYOS-Aliyun",
        "RelationType": "Default Component Of"
      },
      {
        "ProductReference": "libisccc1600-9.16.6-150300.22.27.1",
        "RelatesToProductReference": "Image SLES15-SP3-CHOST-BYOS-Aliyun",
        "RelationType": "Default Component Of"
      },
      {
        "ProductReference": "libisccfg1600-9.16.6-150300.22.27.1",
        "RelatesToProductReference": "Image SLES15-SP3-CHOST-BYOS-Aliyun",
        "RelationType": "Default Component Of"
      },
      {
        "ProductReference": "libns1604-9.16.6-150300.22.27.1",
        "RelatesToProductReference": "Image SLES15-SP3-CHOST-BYOS-Aliyun",
        "RelationType": "Default Component Of"
      },
      {
        "ProductReference": "python3-bind-9.16.6-150300.22.27.1",
        "RelatesToProductReference": "Image SLES15-SP3-CHOST-BYOS-Aliyun",
        "RelationType": "Default Component Of"
      },
      {
        "ProductReference": "bind-utils-9.16.6-150300.22.27.1",
        "RelatesToProductReference": "Image SLES15-SP3-CHOST-BYOS-Azure",
        "RelationType": "Default Component Of"
      },
      {
        "ProductReference": "libbind9-1600-9.16.6-150300.22.27.1",
        "RelatesToProductReference": "Image SLES15-SP3-CHOST-BYOS-Azure",
        "RelationType": "Default Component Of"
      },
      {
        "ProductReference": "libdns1605-9.16.6-150300.22.27.1",
        "RelatesToProductReference": "Image SLES15-SP3-CHOST-BYOS-Azure",
        "RelationType": "Default Component Of"
      },
      {
        "ProductReference": "libirs1601-9.16.6-150300.22.27.1",
        "RelatesToProductReference": "Image SLES15-SP3-CHOST-BYOS-Azure",
        "RelationType": "Default Component Of"
      },
      {
        "ProductReference": "libisc1606-9.16.6-150300.22.27.1",
        "RelatesToProductReference": "Image SLES15-SP3-CHOST-BYOS-Azure",
        "RelationType": "Default Component Of"
      },
      {
        "ProductReference": "libisccc1600-9.16.6-150300.22.27.1",
        "RelatesToProductReference": "Image SLES15-SP3-CHOST-BYOS-Azure",
        "RelationType": "Default Component Of"
      },
      {
        "ProductReference": "libisccfg1600-9.16.6-150300.22.27.1",
        "RelatesToProductReference": "Image SLES15-SP3-CHOST-BYOS-Azure",
        "RelationType": "Default Component Of"
      },
      {
        "ProductReference": "libns1604-9.16.6-150300.22.27.1",
        "RelatesToProductReference": "Image SLES15-SP3-CHOST-BYOS-Azure",
        "RelationType": "Default Component Of"
      },
      {
        "ProductReference": "python3-bind-9.16.6-150300.22.27.1",
        "RelatesToProductReference": "Image SLES15-SP3-CHOST-BYOS-Azure",
        "RelationType": "Default Component Of"
      },
      {
        "ProductReference": "bind-utils-9.16.6-150300.22.27.1",
        "RelatesToProductReference": "Image SLES15-SP3-CHOST-BYOS-EC2",
        "RelationType": "Default Component Of"
      },
      {
        "ProductReference": "libbind9-1600-9.16.6-150300.22.27.1",
        "RelatesToProductReference": "Image SLES15-SP3-CHOST-BYOS-EC2",
        "RelationType": "Default Component Of"
      },
      {
        "ProductReference": "libdns1605-9.16.6-150300.22.27.1",
        "RelatesToProductReference": "Image SLES15-SP3-CHOST-BYOS-EC2",
        "RelationType": "Default Component Of"
      },
      {
        "ProductReference": "libirs1601-9.16.6-150300.22.27.1",
        "RelatesToProductReference": "Image SLES15-SP3-CHOST-BYOS-EC2",
        "RelationType": "Default Component Of"
      },
      {
        "ProductReference": "libisc1606-9.16.6-150300.22.27.1",
        "RelatesToProductReference": "Image SLES15-SP3-CHOST-BYOS-EC2",
        "RelationType": "Default Component Of"
      },
      {
        "ProductReference": "libisccc1600-9.16.6-150300.22.27.1",
        "RelatesToProductReference": "Image SLES15-SP3-CHOST-BYOS-EC2",
        "RelationType": "Default Component Of"
      },
      {
        "ProductReference": "libisccfg1600-9.16.6-150300.22.27.1",
        "RelatesToProductReference": "Image SLES15-SP3-CHOST-BYOS-EC2",
        "RelationType": "Default Component Of"
      },
      {
        "ProductReference": "libns1604-9.16.6-150300.22.27.1",
        "RelatesToProductReference": "Image SLES15-SP3-CHOST-BYOS-EC2",
        "RelationType": "Default Component Of"
      },
      {
        "ProductReference": "python3-bind-9.16.6-150300.22.27.1",
        "RelatesToProductReference": "Image SLES15-SP3-CHOST-BYOS-EC2",
        "RelationType": "Default Component Of"
      },
      {
        "ProductReference": "bind-utils-9.16.6-150300.22.27.1",
        "RelatesToProductReference": "Image SLES15-SP3-CHOST-BYOS-GCE",
        "RelationType": "Default Component Of"
      },
      {
        "ProductReference": "libbind9-1600-9.16.6-150300.22.27.1",
        "RelatesToProductReference": "Image SLES15-SP3-CHOST-BYOS-GCE",
        "RelationType": "Default Component Of"
      },
      {
        "ProductReference": "libdns1605-9.16.6-150300.22.27.1",
        "RelatesToProductReference": "Image SLES15-SP3-CHOST-BYOS-GCE",
        "RelationType": "Default Component Of"
      },
      {
        "ProductReference": "libirs1601-9.16.6-150300.22.27.1",
        "RelatesToProductReference": "Image SLES15-SP3-CHOST-BYOS-GCE",
        "RelationType": "Default Component Of"
      },
      {
        "ProductReference": "libisc1606-9.16.6-150300.22.27.1",
        "RelatesToProductReference": "Image SLES15-SP3-CHOST-BYOS-GCE",
        "RelationType": "Default Component Of"
      },
      {
        "ProductReference": "libisccc1600-9.16.6-150300.22.27.1",
        "RelatesToProductReference": "Image SLES15-SP3-CHOST-BYOS-GCE",
        "RelationType": "Default Component Of"
      },
      {
        "ProductReference": "libisccfg1600-9.16.6-150300.22.27.1",
        "RelatesToProductReference": "Image SLES15-SP3-CHOST-BYOS-GCE",
        "RelationType": "Default Component Of"
      },
      {
        "ProductReference": "libns1604-9.16.6-150300.22.27.1",
        "RelatesToProductReference": "Image SLES15-SP3-CHOST-BYOS-GCE",
        "RelationType": "Default Component Of"
      },
      {
        "ProductReference": "python3-bind-9.16.6-150300.22.27.1",
        "RelatesToProductReference": "Image SLES15-SP3-CHOST-BYOS-GCE",
        "RelationType": "Default Component Of"
      },
      {
        "ProductReference": "bind-utils-9.16.6-150300.22.27.1",
        "RelatesToProductReference": "Image SLES15-SP3-CHOST-BYOS-SAP-CCloud",
        "RelationType": "Default Component Of"
      },
      {
        "ProductReference": "libbind9-1600-9.16.6-150300.22.27.1",
        "RelatesToProductReference": "Image SLES15-SP3-CHOST-BYOS-SAP-CCloud",
        "RelationType": "Default Component Of"
      },
      {
        "ProductReference": "libdns1605-9.16.6-150300.22.27.1",
        "RelatesToProductReference": "Image SLES15-SP3-CHOST-BYOS-SAP-CCloud",
        "RelationType": "Default Component Of"
      },
      {
        "ProductReference": "libirs1601-9.16.6-150300.22.27.1",
        "RelatesToProductReference": "Image SLES15-SP3-CHOST-BYOS-SAP-CCloud",
        "RelationType": "Default Component Of"
      },
      {
        "ProductReference": "libisc1606-9.16.6-150300.22.27.1",
        "RelatesToProductReference": "Image SLES15-SP3-CHOST-BYOS-SAP-CCloud",
        "RelationType": "Default Component Of"
      },
      {
        "ProductReference": "libisccc1600-9.16.6-150300.22.27.1",
        "RelatesToProductReference": "Image SLES15-SP3-CHOST-BYOS-SAP-CCloud",
        "RelationType": "Default Component Of"
      },
      {
        "ProductReference": "libisccfg1600-9.16.6-150300.22.27.1",
        "RelatesToProductReference": "Image SLES15-SP3-CHOST-BYOS-SAP-CCloud",
        "RelationType": "Default Component Of"
      },
      {
        "ProductReference": "libns1604-9.16.6-150300.22.27.1",
        "RelatesToProductReference": "Image SLES15-SP3-CHOST-BYOS-SAP-CCloud",
        "RelationType": "Default Component Of"
      },
      {
        "ProductReference": "python3-bind-9.16.6-150300.22.27.1",
        "RelatesToProductReference": "Image SLES15-SP3-CHOST-BYOS-SAP-CCloud",
        "RelationType": "Default Component Of"
      },
      {
        "ProductReference": "bind-utils-9.16.6-150300.22.27.1",
        "RelatesToProductReference": "Image SLES15-SP3-HPC-BYOS-Azure",
        "RelationType": "Default Component Of"
      },
      {
        "ProductReference": "libbind9-1600-9.16.6-150300.22.27.1",
        "RelatesToProductReference": "Image SLES15-SP3-HPC-BYOS-Azure",
        "RelationType": "Default Component Of"
      },
      {
        "ProductReference": "libdns1605-9.16.6-150300.22.27.1",
        "RelatesToProductReference": "Image SLES15-SP3-HPC-BYOS-Azure",
        "RelationType": "Default Component Of"
      },
      {
        "ProductReference": "libirs1601-9.16.6-150300.22.27.1",
        "RelatesToProductReference": "Image SLES15-SP3-HPC-BYOS-Azure",
        "RelationType": "Default Component Of"
      },
      {
        "ProductReference": "libisc1606-9.16.6-150300.22.27.1",
        "RelatesToProductReference": "Image SLES15-SP3-HPC-BYOS-Azure",
        "RelationType": "Default Component Of"
      },
      {
        "ProductReference": "libisccc1600-9.16.6-150300.22.27.1",
        "RelatesToProductReference": "Image SLES15-SP3-HPC-BYOS-Azure",
        "RelationType": "Default Component Of"
      },
      {
        "ProductReference": "libisccfg1600-9.16.6-150300.22.27.1",
        "RelatesToProductReference": "Image SLES15-SP3-HPC-BYOS-Azure",
        "RelationType": "Default Component Of"
      },
      {
        "ProductReference": "libns1604-9.16.6-150300.22.27.1",
        "RelatesToProductReference": "Image SLES15-SP3-HPC-BYOS-Azure",
        "RelationType": "Default Component Of"
      },
      {
        "ProductReference": "python3-bind-9.16.6-150300.22.27.1",
        "RelatesToProductReference": "Image SLES15-SP3-HPC-BYOS-Azure",
        "RelationType": "Default Component Of"
      },
      {
        "ProductReference": "bind-utils-9.16.6-150300.22.27.1",
        "RelatesToProductReference": "Image SLES15-SP3-Manager-4-2-Proxy-BYOS-Azure",
        "RelationType": "Default Component Of"
      },
      {
        "ProductReference": "libbind9-1600-9.16.6-150300.22.27.1",
        "RelatesToProductReference": "Image SLES15-SP3-Manager-4-2-Proxy-BYOS-Azure",
        "RelationType": "Default Component Of"
      },
      {
        "ProductReference": "libdns1605-9.16.6-150300.22.27.1",
        "RelatesToProductReference": "Image SLES15-SP3-Manager-4-2-Proxy-BYOS-Azure",
        "RelationType": "Default Component Of"
      },
      {
        "ProductReference": "libirs1601-9.16.6-150300.22.27.1",
        "RelatesToProductReference": "Image SLES15-SP3-Manager-4-2-Proxy-BYOS-Azure",
        "RelationType": "Default Component Of"
      },
      {
        "ProductReference": "libisc1606-9.16.6-150300.22.27.1",
        "RelatesToProductReference": "Image SLES15-SP3-Manager-4-2-Proxy-BYOS-Azure",
        "RelationType": "Default Component Of"
      },
      {
        "ProductReference": "libisccc1600-9.16.6-150300.22.27.1",
        "RelatesToProductReference": "Image SLES15-SP3-Manager-4-2-Proxy-BYOS-Azure",
        "RelationType": "Default Component Of"
      },
      {
        "ProductReference": "libisccfg1600-9.16.6-150300.22.27.1",
        "RelatesToProductReference": "Image SLES15-SP3-Manager-4-2-Proxy-BYOS-Azure",
        "RelationType": "Default Component Of"
      },
      {
        "ProductReference": "libns1604-9.16.6-150300.22.27.1",
        "RelatesToProductReference": "Image SLES15-SP3-Manager-4-2-Proxy-BYOS-Azure",
        "RelationType": "Default Component Of"
      },
      {
        "ProductReference": "python3-bind-9.16.6-150300.22.27.1",
        "RelatesToProductReference": "Image SLES15-SP3-Manager-4-2-Proxy-BYOS-Azure",
        "RelationType": "Default Component Of"
      },
      {
        "ProductReference": "bind-utils-9.16.6-150300.22.27.1",
        "RelatesToProductReference": "Image SLES15-SP3-Manager-4-2-Proxy-BYOS-EC2-HVM",
        "RelationType": "Default Component Of"
      },
      {
        "ProductReference": "libbind9-1600-9.16.6-150300.22.27.1",
        "RelatesToProductReference": "Image SLES15-SP3-Manager-4-2-Proxy-BYOS-EC2-HVM",
        "RelationType": "Default Component Of"
      },
      {
        "ProductReference": "libdns1605-9.16.6-150300.22.27.1",
        "RelatesToProductReference": "Image SLES15-SP3-Manager-4-2-Proxy-BYOS-EC2-HVM",
        "RelationType": "Default Component Of"
      },
      {
        "ProductReference": "libirs1601-9.16.6-150300.22.27.1",
        "RelatesToProductReference": "Image SLES15-SP3-Manager-4-2-Proxy-BYOS-EC2-HVM",
        "RelationType": "Default Component Of"
      },
      {
        "ProductReference": "libisc1606-9.16.6-150300.22.27.1",
        "RelatesToProductReference": "Image SLES15-SP3-Manager-4-2-Proxy-BYOS-EC2-HVM",
        "RelationType": "Default Component Of"
      },
      {
        "ProductReference": "libisccc1600-9.16.6-150300.22.27.1",
        "RelatesToProductReference": "Image SLES15-SP3-Manager-4-2-Proxy-BYOS-EC2-HVM",
        "RelationType": "Default Component Of"
      },
      {
        "ProductReference": "libisccfg1600-9.16.6-150300.22.27.1",
        "RelatesToProductReference": "Image SLES15-SP3-Manager-4-2-Proxy-BYOS-EC2-HVM",
        "RelationType": "Default Component Of"
      },
      {
        "ProductReference": "libns1604-9.16.6-150300.22.27.1",
        "RelatesToProductReference": "Image SLES15-SP3-Manager-4-2-Proxy-BYOS-EC2-HVM",
        "RelationType": "Default Component Of"
      },
      {
        "ProductReference": "python3-bind-9.16.6-150300.22.27.1",
        "RelatesToProductReference": "Image SLES15-SP3-Manager-4-2-Proxy-BYOS-EC2-HVM",
        "RelationType": "Default Component Of"
      },
      {
        "ProductReference": "bind-utils-9.16.6-150300.22.27.1",
        "RelatesToProductReference": "Image SLES15-SP3-Manager-4-2-Proxy-BYOS-GCE",
        "RelationType": "Default Component Of"
      },
      {
        "ProductReference": "libbind9-1600-9.16.6-150300.22.27.1",
        "RelatesToProductReference": "Image SLES15-SP3-Manager-4-2-Proxy-BYOS-GCE",
        "RelationType": "Default Component Of"
      },
      {
        "ProductReference": "libdns1605-9.16.6-150300.22.27.1",
        "RelatesToProductReference": "Image SLES15-SP3-Manager-4-2-Proxy-BYOS-GCE",
        "RelationType": "Default Component Of"
      },
      {
        "ProductReference": "libirs1601-9.16.6-150300.22.27.1",
        "RelatesToProductReference": "Image SLES15-SP3-Manager-4-2-Proxy-BYOS-GCE",
        "RelationType": "Default Component Of"
      },
      {
        "ProductReference": "libisc1606-9.16.6-150300.22.27.1",
        "RelatesToProductReference": "Image SLES15-SP3-Manager-4-2-Proxy-BYOS-GCE",
        "RelationType": "Default Component Of"
      },
      {
        "ProductReference": "libisccc1600-9.16.6-150300.22.27.1",
        "RelatesToProductReference": "Image SLES15-SP3-Manager-4-2-Proxy-BYOS-GCE",
        "RelationType": "Default Component Of"
      },
      {
        "ProductReference": "libisccfg1600-9.16.6-150300.22.27.1",
        "RelatesToProductReference": "Image SLES15-SP3-Manager-4-2-Proxy-BYOS-GCE",
        "RelationType": "Default Component Of"
      },
      {
        "ProductReference": "libns1604-9.16.6-150300.22.27.1",
        "RelatesToProductReference": "Image SLES15-SP3-Manager-4-2-Proxy-BYOS-GCE",
        "RelationType": "Default Component Of"
      },
      {
        "ProductReference": "python3-bind-9.16.6-150300.22.27.1",
        "RelatesToProductReference": "Image SLES15-SP3-Manager-4-2-Proxy-BYOS-GCE",
        "RelationType": "Default Component Of"
      },
      {
        "ProductReference": "bind-utils-9.16.6-150300.22.27.1",
        "RelatesToProductReference": "Image SLES15-SP3-Manager-4-2-Server-BYOS-Azure",
        "RelationType": "Default Component Of"
      },
      {
        "ProductReference": "libbind9-1600-9.16.6-150300.22.27.1",
        "RelatesToProductReference": "Image SLES15-SP3-Manager-4-2-Server-BYOS-Azure",
        "RelationType": "Default Component Of"
      },
      {
        "ProductReference": "libdns1605-9.16.6-150300.22.27.1",
        "RelatesToProductReference": "Image SLES15-SP3-Manager-4-2-Server-BYOS-Azure",
        "RelationType": "Default Component Of"
      },
      {
        "ProductReference": "libirs1601-9.16.6-150300.22.27.1",
        "RelatesToProductReference": "Image SLES15-SP3-Manager-4-2-Server-BYOS-Azure",
        "RelationType": "Default Component Of"
      },
      {
        "ProductReference": "libisc1606-9.16.6-150300.22.27.1",
        "RelatesToProductReference": "Image SLES15-SP3-Manager-4-2-Server-BYOS-Azure",
        "RelationType": "Default Component Of"
      },
      {
        "ProductReference": "libisccc1600-9.16.6-150300.22.27.1",
        "RelatesToProductReference": "Image SLES15-SP3-Manager-4-2-Server-BYOS-Azure",
        "RelationType": "Default Component Of"
      },
      {
        "ProductReference": "libisccfg1600-9.16.6-150300.22.27.1",
        "RelatesToProductReference": "Image SLES15-SP3-Manager-4-2-Server-BYOS-Azure",
        "RelationType": "Default Component Of"
      },
      {
        "ProductReference": "libns1604-9.16.6-150300.22.27.1",
        "RelatesToProductReference": "Image SLES15-SP3-Manager-4-2-Server-BYOS-Azure",
        "RelationType": "Default Component Of"
      },
      {
        "ProductReference": "python3-bind-9.16.6-150300.22.27.1",
        "RelatesToProductReference": "Image SLES15-SP3-Manager-4-2-Server-BYOS-Azure",
        "RelationType": "Default Component Of"
      },
      {
        "ProductReference": "bind-utils-9.16.6-150300.22.27.1",
        "RelatesToProductReference": "Image SLES15-SP3-Manager-4-2-Server-BYOS-EC2-HVM",
        "RelationType": "Default Component Of"
      },
      {
        "ProductReference": "libbind9-1600-9.16.6-150300.22.27.1",
        "RelatesToProductReference": "Image SLES15-SP3-Manager-4-2-Server-BYOS-EC2-HVM",
        "RelationType": "Default Component Of"
      },
      {
        "ProductReference": "libdns1605-9.16.6-150300.22.27.1",
        "RelatesToProductReference": "Image SLES15-SP3-Manager-4-2-Server-BYOS-EC2-HVM",
        "RelationType": "Default Component Of"
      },
      {
        "ProductReference": "libirs1601-9.16.6-150300.22.27.1",
        "RelatesToProductReference": "Image SLES15-SP3-Manager-4-2-Server-BYOS-EC2-HVM",
        "RelationType": "Default Component Of"
      },
      {
        "ProductReference": "libisc1606-9.16.6-150300.22.27.1",
        "RelatesToProductReference": "Image SLES15-SP3-Manager-4-2-Server-BYOS-EC2-HVM",
        "RelationType": "Default Component Of"
      },
      {
        "ProductReference": "libisccc1600-9.16.6-150300.22.27.1",
        "RelatesToProductReference": "Image SLES15-SP3-Manager-4-2-Server-BYOS-EC2-HVM",
        "RelationType": "Default Component Of"
      },
      {
        "ProductReference": "libisccfg1600-9.16.6-150300.22.27.1",
        "RelatesToProductReference": "Image SLES15-SP3-Manager-4-2-Server-BYOS-EC2-HVM",
        "RelationType": "Default Component Of"
      },
      {
        "ProductReference": "libns1604-9.16.6-150300.22.27.1",
        "RelatesToProductReference": "Image SLES15-SP3-Manager-4-2-Server-BYOS-EC2-HVM",
        "RelationType": "Default Component Of"
      },
      {
        "ProductReference": "python3-bind-9.16.6-150300.22.27.1",
        "RelatesToProductReference": "Image SLES15-SP3-Manager-4-2-Server-BYOS-EC2-HVM",
        "RelationType": "Default Component Of"
      },
      {
        "ProductReference": "bind-utils-9.16.6-150300.22.27.1",
        "RelatesToProductReference": "Image SLES15-SP3-Manager-4-2-Server-BYOS-GCE",
        "RelationType": "Default Component Of"
      },
      {
        "ProductReference": "libbind9-1600-9.16.6-150300.22.27.1",
        "RelatesToProductReference": "Image SLES15-SP3-Manager-4-2-Server-BYOS-GCE",
        "RelationType": "Default Component Of"
      },
      {
        "ProductReference": "libdns1605-9.16.6-150300.22.27.1",
        "RelatesToProductReference": "Image SLES15-SP3-Manager-4-2-Server-BYOS-GCE",
        "RelationType": "Default Component Of"
      },
      {
        "ProductReference": "libirs1601-9.16.6-150300.22.27.1",
        "RelatesToProductReference": "Image SLES15-SP3-Manager-4-2-Server-BYOS-GCE",
        "RelationType": "Default Component Of"
      },
      {
        "ProductReference": "libisc1606-9.16.6-150300.22.27.1",
        "RelatesToProductReference": "Image SLES15-SP3-Manager-4-2-Server-BYOS-GCE",
        "RelationType": "Default Component Of"
      },
      {
        "ProductReference": "libisccc1600-9.16.6-150300.22.27.1",
        "RelatesToProductReference": "Image SLES15-SP3-Manager-4-2-Server-BYOS-GCE",
        "RelationType": "Default Component Of"
      },
      {
        "ProductReference": "libisccfg1600-9.16.6-150300.22.27.1",
        "RelatesToProductReference": "Image SLES15-SP3-Manager-4-2-Server-BYOS-GCE",
        "RelationType": "Default Component Of"
      },
      {
        "ProductReference": "libns1604-9.16.6-150300.22.27.1",
        "RelatesToProductReference": "Image SLES15-SP3-Manager-4-2-Server-BYOS-GCE",
        "RelationType": "Default Component Of"
      },
      {
        "ProductReference": "python3-bind-9.16.6-150300.22.27.1",
        "RelatesToProductReference": "Image SLES15-SP3-Manager-4-2-Server-BYOS-GCE",
        "RelationType": "Default Component Of"
      },
      {
        "ProductReference": "bind-utils-9.16.6-150300.22.27.1",
        "RelatesToProductReference": "Image SLES15-SP3-SAP-Azure-LI-BYOS-Production",
        "RelationType": "Default Component Of"
      },
      {
        "ProductReference": "libbind9-1600-9.16.6-150300.22.27.1",
        "RelatesToProductReference": "Image SLES15-SP3-SAP-Azure-LI-BYOS-Production",
        "RelationType": "Default Component Of"
      },
      {
        "ProductReference": "libdns1605-9.16.6-150300.22.27.1",
        "RelatesToProductReference": "Image SLES15-SP3-SAP-Azure-LI-BYOS-Production",
        "RelationType": "Default Component Of"
      },
      {
        "ProductReference": "libirs1601-9.16.6-150300.22.27.1",
        "RelatesToProductReference": "Image SLES15-SP3-SAP-Azure-LI-BYOS-Production",
        "RelationType": "Default Component Of"
      },
      {
        "ProductReference": "libisc1606-9.16.6-150300.22.27.1",
        "RelatesToProductReference": "Image SLES15-SP3-SAP-Azure-LI-BYOS-Production",
        "RelationType": "Default Component Of"
      },
      {
        "ProductReference": "libisccc1600-9.16.6-150300.22.27.1",
        "RelatesToProductReference": "Image SLES15-SP3-SAP-Azure-LI-BYOS-Production",
        "RelationType": "Default Component Of"
      },
      {
        "ProductReference": "libisccfg1600-9.16.6-150300.22.27.1",
        "RelatesToProductReference": "Image SLES15-SP3-SAP-Azure-LI-BYOS-Production",
        "RelationType": "Default Component Of"
      },
      {
        "ProductReference": "libns1604-9.16.6-150300.22.27.1",
        "RelatesToProductReference": "Image SLES15-SP3-SAP-Azure-LI-BYOS-Production",
        "RelationType": "Default Component Of"
      },
      {
        "ProductReference": "python3-bind-9.16.6-150300.22.27.1",
        "RelatesToProductReference": "Image SLES15-SP3-SAP-Azure-LI-BYOS-Production",
        "RelationType": "Default Component Of"
      },
      {
        "ProductReference": "bind-utils-9.16.6-150300.22.27.1",
        "RelatesToProductReference": "Image SLES15-SP3-SAP-Azure-VLI-BYOS-Production",
        "RelationType": "Default Component Of"
      },
      {
        "ProductReference": "libbind9-1600-9.16.6-150300.22.27.1",
        "RelatesToProductReference": "Image SLES15-SP3-SAP-Azure-VLI-BYOS-Production",
        "RelationType": "Default Component Of"
      },
      {
        "ProductReference": "libdns1605-9.16.6-150300.22.27.1",
        "RelatesToProductReference": "Image SLES15-SP3-SAP-Azure-VLI-BYOS-Production",
        "RelationType": "Default Component Of"
      },
      {
        "ProductReference": "libirs1601-9.16.6-150300.22.27.1",
        "RelatesToProductReference": "Image SLES15-SP3-SAP-Azure-VLI-BYOS-Production",
        "RelationType": "Default Component Of"
      },
      {
        "ProductReference": "libisc1606-9.16.6-150300.22.27.1",
        "RelatesToProductReference": "Image SLES15-SP3-SAP-Azure-VLI-BYOS-Production",
        "RelationType": "Default Component Of"
      },
      {
        "ProductReference": "libisccc1600-9.16.6-150300.22.27.1",
        "RelatesToProductReference": "Image SLES15-SP3-SAP-Azure-VLI-BYOS-Production",
        "RelationType": "Default Component Of"
      },
      {
        "ProductReference": "libisccfg1600-9.16.6-150300.22.27.1",
        "RelatesToProductReference": "Image SLES15-SP3-SAP-Azure-VLI-BYOS-Production",
        "RelationType": "Default Component Of"
      },
      {
        "ProductReference": "libns1604-9.16.6-150300.22.27.1",
        "RelatesToProductReference": "Image SLES15-SP3-SAP-Azure-VLI-BYOS-Production",
        "RelationType": "Default Component Of"
      },
      {
        "ProductReference": "python3-bind-9.16.6-150300.22.27.1",
        "RelatesToProductReference": "Image SLES15-SP3-SAP-Azure-VLI-BYOS-Production",
        "RelationType": "Default Component Of"
      },
      {
        "ProductReference": "bind-utils-9.16.6-150300.22.27.1",
        "RelatesToProductReference": "Image SLES15-SP3-SAP-BYOS-Azure",
        "RelationType": "Default Component Of"
      },
      {
        "ProductReference": "libbind9-1600-9.16.6-150300.22.27.1",
        "RelatesToProductReference": "Image SLES15-SP3-SAP-BYOS-Azure",
        "RelationType": "Default Component Of"
      },
      {
        "ProductReference": "libdns1605-9.16.6-150300.22.27.1",
        "RelatesToProductReference": "Image SLES15-SP3-SAP-BYOS-Azure",
        "RelationType": "Default Component Of"
      },
      {
        "ProductReference": "libirs1601-9.16.6-150300.22.27.1",
        "RelatesToProductReference": "Image SLES15-SP3-SAP-BYOS-Azure",
        "RelationType": "Default Component Of"
      },
      {
        "ProductReference": "libisc1606-9.16.6-150300.22.27.1",
        "RelatesToProductReference": "Image SLES15-SP3-SAP-BYOS-Azure",
        "RelationType": "Default Component Of"
      },
      {
        "ProductReference": "libisccc1600-9.16.6-150300.22.27.1",
        "RelatesToProductReference": "Image SLES15-SP3-SAP-BYOS-Azure",
        "RelationType": "Default Component Of"
      },
      {
        "ProductReference": "libisccfg1600-9.16.6-150300.22.27.1",
        "RelatesToProductReference": "Image SLES15-SP3-SAP-BYOS-Azure",
        "RelationType": "Default Component Of"
      },
      {
        "ProductReference": "libns1604-9.16.6-150300.22.27.1",
        "RelatesToProductReference": "Image SLES15-SP3-SAP-BYOS-Azure",
        "RelationType": "Default Component Of"
      },
      {
        "ProductReference": "python3-bind-9.16.6-150300.22.27.1",
        "RelatesToProductReference": "Image SLES15-SP3-SAP-BYOS-Azure",
        "RelationType": "Default Component Of"
      },
      {
        "ProductReference": "bind-utils-9.16.6-150300.22.27.1",
        "RelatesToProductReference": "Image SLES15-SP3-SAP-BYOS-EC2-HVM",
        "RelationType": "Default Component Of"
      },
      {
        "ProductReference": "libbind9-1600-9.16.6-150300.22.27.1",
        "RelatesToProductReference": "Image SLES15-SP3-SAP-BYOS-EC2-HVM",
        "RelationType": "Default Component Of"
      },
      {
        "ProductReference": "libdns1605-9.16.6-150300.22.27.1",
        "RelatesToProductReference": "Image SLES15-SP3-SAP-BYOS-EC2-HVM",
        "RelationType": "Default Component Of"
      },
      {
        "ProductReference": "libirs1601-9.16.6-150300.22.27.1",
        "RelatesToProductReference": "Image SLES15-SP3-SAP-BYOS-EC2-HVM",
        "RelationType": "Default Component Of"
      },
      {
        "ProductReference": "libisc1606-9.16.6-150300.22.27.1",
        "RelatesToProductReference": "Image SLES15-SP3-SAP-BYOS-EC2-HVM",
        "RelationType": "Default Component Of"
      },
      {
        "ProductReference": "libisccc1600-9.16.6-150300.22.27.1",
        "RelatesToProductReference": "Image SLES15-SP3-SAP-BYOS-EC2-HVM",
        "RelationType": "Default Component Of"
      },
      {
        "ProductReference": "libisccfg1600-9.16.6-150300.22.27.1",
        "RelatesToProductReference": "Image SLES15-SP3-SAP-BYOS-EC2-HVM",
        "RelationType": "Default Component Of"
      },
      {
        "ProductReference": "libns1604-9.16.6-150300.22.27.1",
        "RelatesToProductReference": "Image SLES15-SP3-SAP-BYOS-EC2-HVM",
        "RelationType": "Default Component Of"
      },
      {
        "ProductReference": "python3-bind-9.16.6-150300.22.27.1",
        "RelatesToProductReference": "Image SLES15-SP3-SAP-BYOS-EC2-HVM",
        "RelationType": "Default Component Of"
      },
      {
        "ProductReference": "bind-utils-9.16.6-150300.22.27.1",
        "RelatesToProductReference": "Image SLES15-SP3-SAP-BYOS-GCE",
        "RelationType": "Default Component Of"
      },
      {
        "ProductReference": "libbind9-1600-9.16.6-150300.22.27.1",
        "RelatesToProductReference": "Image SLES15-SP3-SAP-BYOS-GCE",
        "RelationType": "Default Component Of"
      },
      {
        "ProductReference": "libdns1605-9.16.6-150300.22.27.1",
        "RelatesToProductReference": "Image SLES15-SP3-SAP-BYOS-GCE",
        "RelationType": "Default Component Of"
      },
      {
        "ProductReference": "libirs1601-9.16.6-150300.22.27.1",
        "RelatesToProductReference": "Image SLES15-SP3-SAP-BYOS-GCE",
        "RelationType": "Default Component Of"
      },
      {
        "ProductReference": "libisc1606-9.16.6-150300.22.27.1",
        "RelatesToProductReference": "Image SLES15-SP3-SAP-BYOS-GCE",
        "RelationType": "Default Component Of"
      },
      {
        "ProductReference": "libisccc1600-9.16.6-150300.22.27.1",
        "RelatesToProductReference": "Image SLES15-SP3-SAP-BYOS-GCE",
        "RelationType": "Default Component Of"
      },
      {
        "ProductReference": "libisccfg1600-9.16.6-150300.22.27.1",
        "RelatesToProductReference": "Image SLES15-SP3-SAP-BYOS-GCE",
        "RelationType": "Default Component Of"
      },
      {
        "ProductReference": "libns1604-9.16.6-150300.22.27.1",
        "RelatesToProductReference": "Image SLES15-SP3-SAP-BYOS-GCE",
        "RelationType": "Default Component Of"
      },
      {
        "ProductReference": "python3-bind-9.16.6-150300.22.27.1",
        "RelatesToProductReference": "Image SLES15-SP3-SAP-BYOS-GCE",
        "RelationType": "Default Component Of"
      },
      {
        "ProductReference": "bind-utils-9.16.6-150300.22.27.1",
        "RelatesToProductReference": "Image SLES15-SP3-SAPCAL-Azure",
        "RelationType": "Default Component Of"
      },
      {
        "ProductReference": "libbind9-1600-9.16.6-150300.22.27.1",
        "RelatesToProductReference": "Image SLES15-SP3-SAPCAL-Azure",
        "RelationType": "Default Component Of"
      },
      {
        "ProductReference": "libdns1605-9.16.6-150300.22.27.1",
        "RelatesToProductReference": "Image SLES15-SP3-SAPCAL-Azure",
        "RelationType": "Default Component Of"
      },
      {
        "ProductReference": "libirs1601-9.16.6-150300.22.27.1",
        "RelatesToProductReference": "Image SLES15-SP3-SAPCAL-Azure",
        "RelationType": "Default Component Of"
      },
      {
        "ProductReference": "libisc1606-9.16.6-150300.22.27.1",
        "RelatesToProductReference": "Image SLES15-SP3-SAPCAL-Azure",
        "RelationType": "Default Component Of"
      },
      {
        "ProductReference": "libisccc1600-9.16.6-150300.22.27.1",
        "RelatesToProductReference": "Image SLES15-SP3-SAPCAL-Azure",
        "RelationType": "Default Component Of"
      },
      {
        "ProductReference": "libisccfg1600-9.16.6-150300.22.27.1",
        "RelatesToProductReference": "Image SLES15-SP3-SAPCAL-Azure",
        "RelationType": "Default Component Of"
      },
      {
        "ProductReference": "libns1604-9.16.6-150300.22.27.1",
        "RelatesToProductReference": "Image SLES15-SP3-SAPCAL-Azure",
        "RelationType": "Default Component Of"
      },
      {
        "ProductReference": "python3-bind-9.16.6-150300.22.27.1",
        "RelatesToProductReference": "Image SLES15-SP3-SAPCAL-Azure",
        "RelationType": "Default Component Of"
      },
      {
        "ProductReference": "bind-9.16.6-150300.22.27.1",
        "RelatesToProductReference": "SUSE Enterprise Storage 7.1",
        "RelationType": "Default Component Of"
      },
      {
        "ProductReference": "bind-chrootenv-9.16.6-150300.22.27.1",
        "RelatesToProductReference": "SUSE Enterprise Storage 7.1",
        "RelationType": "Default Component Of"
      },
      {
        "ProductReference": "bind-devel-9.16.6-150300.22.27.1",
        "RelatesToProductReference": "SUSE Enterprise Storage 7.1",
        "RelationType": "Default Component Of"
      },
      {
        "ProductReference": "bind-doc-9.16.6-150300.22.27.1",
        "RelatesToProductReference": "SUSE Enterprise Storage 7.1",
        "RelationType": "Default Component Of"
      },
      {
        "ProductReference": "bind-utils-9.16.6-150300.22.27.1",
        "RelatesToProductReference": "SUSE Enterprise Storage 7.1",
        "RelationType": "Default Component Of"
      },
      {
        "ProductReference": "libbind9-1600-9.16.6-150300.22.27.1",
        "RelatesToProductReference": "SUSE Enterprise Storage 7.1",
        "RelationType": "Default Component Of"
      },
      {
        "ProductReference": "libdns1605-9.16.6-150300.22.27.1",
        "RelatesToProductReference": "SUSE Enterprise Storage 7.1",
        "RelationType": "Default Component Of"
      },
      {
        "ProductReference": "libirs-devel-9.16.6-150300.22.27.1",
        "RelatesToProductReference": "SUSE Enterprise Storage 7.1",
        "RelationType": "Default Component Of"
      },
      {
        "ProductReference": "libirs1601-9.16.6-150300.22.27.1",
        "RelatesToProductReference": "SUSE Enterprise Storage 7.1",
        "RelationType": "Default Component Of"
      },
      {
        "ProductReference": "libisc1606-9.16.6-150300.22.27.1",
        "RelatesToProductReference": "SUSE Enterprise Storage 7.1",
        "RelationType": "Default Component Of"
      },
      {
        "ProductReference": "libisccc1600-9.16.6-150300.22.27.1",
        "RelatesToProductReference": "SUSE Enterprise Storage 7.1",
        "RelationType": "Default Component Of"
      },
      {
        "ProductReference": "libisccfg1600-9.16.6-150300.22.27.1",
        "RelatesToProductReference": "SUSE Enterprise Storage 7.1",
        "RelationType": "Default Component Of"
      },
      {
        "ProductReference": "libns1604-9.16.6-150300.22.27.1",
        "RelatesToProductReference": "SUSE Enterprise Storage 7.1",
        "RelationType": "Default Component Of"
      },
      {
        "ProductReference": "python3-bind-9.16.6-150300.22.27.1",
        "RelatesToProductReference": "SUSE Enterprise Storage 7.1",
        "RelationType": "Default Component Of"
      },
      {
        "ProductReference": "bind-9.16.6-150300.22.27.1",
        "RelatesToProductReference": "SUSE Linux Enterprise High Performance Computing 15 SP3-ESPOS",
        "RelationType": "Default Component Of"
      },
      {
        "ProductReference": "bind-chrootenv-9.16.6-150300.22.27.1",
        "RelatesToProductReference": "SUSE Linux Enterprise High Performance Computing 15 SP3-ESPOS",
        "RelationType": "Default Component Of"
      },
      {
        "ProductReference": "bind-devel-9.16.6-150300.22.27.1",
        "RelatesToProductReference": "SUSE Linux Enterprise High Performance Computing 15 SP3-ESPOS",
        "RelationType": "Default Component Of"
      },
      {
        "ProductReference": "bind-doc-9.16.6-150300.22.27.1",
        "RelatesToProductReference": "SUSE Linux Enterprise High Performance Computing 15 SP3-ESPOS",
        "RelationType": "Default Component Of"
      },
      {
        "ProductReference": "bind-utils-9.16.6-150300.22.27.1",
        "RelatesToProductReference": "SUSE Linux Enterprise High Performance Computing 15 SP3-ESPOS",
        "RelationType": "Default Component Of"
      },
      {
        "ProductReference": "libbind9-1600-9.16.6-150300.22.27.1",
        "RelatesToProductReference": "SUSE Linux Enterprise High Performance Computing 15 SP3-ESPOS",
        "RelationType": "Default Component Of"
      },
      {
        "ProductReference": "libdns1605-9.16.6-150300.22.27.1",
        "RelatesToProductReference": "SUSE Linux Enterprise High Performance Computing 15 SP3-ESPOS",
        "RelationType": "Default Component Of"
      },
      {
        "ProductReference": "libirs-devel-9.16.6-150300.22.27.1",
        "RelatesToProductReference": "SUSE Linux Enterprise High Performance Computing 15 SP3-ESPOS",
        "RelationType": "Default Component Of"
      },
      {
        "ProductReference": "libirs1601-9.16.6-150300.22.27.1",
        "RelatesToProductReference": "SUSE Linux Enterprise High Performance Computing 15 SP3-ESPOS",
        "RelationType": "Default Component Of"
      },
      {
        "ProductReference": "libisc1606-9.16.6-150300.22.27.1",
        "RelatesToProductReference": "SUSE Linux Enterprise High Performance Computing 15 SP3-ESPOS",
        "RelationType": "Default Component Of"
      },
      {
        "ProductReference": "libisccc1600-9.16.6-150300.22.27.1",
        "RelatesToProductReference": "SUSE Linux Enterprise High Performance Computing 15 SP3-ESPOS",
        "RelationType": "Default Component Of"
      },
      {
        "ProductReference": "libisccfg1600-9.16.6-150300.22.27.1",
        "RelatesToProductReference": "SUSE Linux Enterprise High Performance Computing 15 SP3-ESPOS",
        "RelationType": "Default Component Of"
      },
      {
        "ProductReference": "libns1604-9.16.6-150300.22.27.1",
        "RelatesToProductReference": "SUSE Linux Enterprise High Performance Computing 15 SP3-ESPOS",
        "RelationType": "Default Component Of"
      },
      {
        "ProductReference": "python3-bind-9.16.6-150300.22.27.1",
        "RelatesToProductReference": "SUSE Linux Enterprise High Performance Computing 15 SP3-ESPOS",
        "RelationType": "Default Component Of"
      },
      {
        "ProductReference": "bind-9.16.6-150300.22.27.1",
        "RelatesToProductReference": "SUSE Linux Enterprise High Performance Computing 15 SP3-LTSS",
        "RelationType": "Default Component Of"
      },
      {
        "ProductReference": "bind-chrootenv-9.16.6-150300.22.27.1",
        "RelatesToProductReference": "SUSE Linux Enterprise High Performance Computing 15 SP3-LTSS",
        "RelationType": "Default Component Of"
      },
      {
        "ProductReference": "bind-devel-9.16.6-150300.22.27.1",
        "RelatesToProductReference": "SUSE Linux Enterprise High Performance Computing 15 SP3-LTSS",
        "RelationType": "Default Component Of"
      },
      {
        "ProductReference": "bind-doc-9.16.6-150300.22.27.1",
        "RelatesToProductReference": "SUSE Linux Enterprise High Performance Computing 15 SP3-LTSS",
        "RelationType": "Default Component Of"
      },
      {
        "ProductReference": "bind-utils-9.16.6-150300.22.27.1",
        "RelatesToProductReference": "SUSE Linux Enterprise High Performance Computing 15 SP3-LTSS",
        "RelationType": "Default Component Of"
      },
      {
        "ProductReference": "libbind9-1600-9.16.6-150300.22.27.1",
        "RelatesToProductReference": "SUSE Linux Enterprise High Performance Computing 15 SP3-LTSS",
        "RelationType": "Default Component Of"
      },
      {
        "ProductReference": "libdns1605-9.16.6-150300.22.27.1",
        "RelatesToProductReference": "SUSE Linux Enterprise High Performance Computing 15 SP3-LTSS",
        "RelationType": "Default Component Of"
      },
      {
        "ProductReference": "libirs-devel-9.16.6-150300.22.27.1",
        "RelatesToProductReference": "SUSE Linux Enterprise High Performance Computing 15 SP3-LTSS",
        "RelationType": "Default Component Of"
      },
      {
        "ProductReference": "libirs1601-9.16.6-150300.22.27.1",
        "RelatesToProductReference": "SUSE Linux Enterprise High Performance Computing 15 SP3-LTSS",
        "RelationType": "Default Component Of"
      },
      {
        "ProductReference": "libisc1606-9.16.6-150300.22.27.1",
        "RelatesToProductReference": "SUSE Linux Enterprise High Performance Computing 15 SP3-LTSS",
        "RelationType": "Default Component Of"
      },
      {
        "ProductReference": "libisccc1600-9.16.6-150300.22.27.1",
        "RelatesToProductReference": "SUSE Linux Enterprise High Performance Computing 15 SP3-LTSS",
        "RelationType": "Default Component Of"
      },
      {
        "ProductReference": "libisccfg1600-9.16.6-150300.22.27.1",
        "RelatesToProductReference": "SUSE Linux Enterprise High Performance Computing 15 SP3-LTSS",
        "RelationType": "Default Component Of"
      },
      {
        "ProductReference": "libns1604-9.16.6-150300.22.27.1",
        "RelatesToProductReference": "SUSE Linux Enterprise High Performance Computing 15 SP3-LTSS",
        "RelationType": "Default Component Of"
      },
      {
        "ProductReference": "python3-bind-9.16.6-150300.22.27.1",
        "RelatesToProductReference": "SUSE Linux Enterprise High Performance Computing 15 SP3-LTSS",
        "RelationType": "Default Component Of"
      },
      {
        "ProductReference": "libbind9-1600-9.16.6-150300.22.27.1",
        "RelatesToProductReference": "SUSE Linux Enterprise Module for Basesystem 15 SP4",
        "RelationType": "Default Component Of"
      },
      {
        "ProductReference": "libdns1605-9.16.6-150300.22.27.1",
        "RelatesToProductReference": "SUSE Linux Enterprise Module for Basesystem 15 SP4",
        "RelationType": "Default Component Of"
      },
      {
        "ProductReference": "libirs1601-9.16.6-150300.22.27.1",
        "RelatesToProductReference": "SUSE Linux Enterprise Module for Basesystem 15 SP4",
        "RelationType": "Default Component Of"
      },
      {
        "ProductReference": "libisc1606-9.16.6-150300.22.27.1",
        "RelatesToProductReference": "SUSE Linux Enterprise Module for Basesystem 15 SP4",
        "RelationType": "Default Component Of"
      },
      {
        "ProductReference": "libisccc1600-9.16.6-150300.22.27.1",
        "RelatesToProductReference": "SUSE Linux Enterprise Module for Basesystem 15 SP4",
        "RelationType": "Default Component Of"
      },
      {
        "ProductReference": "libisccfg1600-9.16.6-150300.22.27.1",
        "RelatesToProductReference": "SUSE Linux Enterprise Module for Basesystem 15 SP4",
        "RelationType": "Default Component Of"
      },
      {
        "ProductReference": "libns1604-9.16.6-150300.22.27.1",
        "RelatesToProductReference": "SUSE Linux Enterprise Module for Basesystem 15 SP4",
        "RelationType": "Default Component Of"
      },
      {
        "ProductReference": "bind-9.16.6-150300.22.27.1",
        "RelatesToProductReference": "SUSE Linux Enterprise Real Time 15 SP3",
        "RelationType": "Default Component Of"
      },
      {
        "ProductReference": "bind-chrootenv-9.16.6-150300.22.27.1",
        "RelatesToProductReference": "SUSE Linux Enterprise Real Time 15 SP3",
        "RelationType": "Default Component Of"
      },
      {
        "ProductReference": "bind-devel-9.16.6-150300.22.27.1",
        "RelatesToProductReference": "SUSE Linux Enterprise Real Time 15 SP3",
        "RelationType": "Default Component Of"
      },
      {
        "ProductReference": "bind-doc-9.16.6-150300.22.27.1",
        "RelatesToProductReference": "SUSE Linux Enterprise Real Time 15 SP3",
        "RelationType": "Default Component Of"
      },
      {
        "ProductReference": "bind-utils-9.16.6-150300.22.27.1",
        "RelatesToProductReference": "SUSE Linux Enterprise Real Time 15 SP3",
        "RelationType": "Default Component Of"
      },
      {
        "ProductReference": "libbind9-1600-9.16.6-150300.22.27.1",
        "RelatesToProductReference": "SUSE Linux Enterprise Real Time 15 SP3",
        "RelationType": "Default Component Of"
      },
      {
        "ProductReference": "libdns1605-9.16.6-150300.22.27.1",
        "RelatesToProductReference": "SUSE Linux Enterprise Real Time 15 SP3",
        "RelationType": "Default Component Of"
      },
      {
        "ProductReference": "libirs-devel-9.16.6-150300.22.27.1",
        "RelatesToProductReference": "SUSE Linux Enterprise Real Time 15 SP3",
        "RelationType": "Default Component Of"
      },
      {
        "ProductReference": "libirs1601-9.16.6-150300.22.27.1",
        "RelatesToProductReference": "SUSE Linux Enterprise Real Time 15 SP3",
        "RelationType": "Default Component Of"
      },
      {
        "ProductReference": "libisc1606-9.16.6-150300.22.27.1",
        "RelatesToProductReference": "SUSE Linux Enterprise Real Time 15 SP3",
        "RelationType": "Default Component Of"
      },
      {
        "ProductReference": "libisccc1600-9.16.6-150300.22.27.1",
        "RelatesToProductReference": "SUSE Linux Enterprise Real Time 15 SP3",
        "RelationType": "Default Component Of"
      },
      {
        "ProductReference": "libisccfg1600-9.16.6-150300.22.27.1",
        "RelatesToProductReference": "SUSE Linux Enterprise Real Time 15 SP3",
        "RelationType": "Default Component Of"
      },
      {
        "ProductReference": "libns1604-9.16.6-150300.22.27.1",
        "RelatesToProductReference": "SUSE Linux Enterprise Real Time 15 SP3",
        "RelationType": "Default Component Of"
      },
      {
        "ProductReference": "python3-bind-9.16.6-150300.22.27.1",
        "RelatesToProductReference": "SUSE Linux Enterprise Real Time 15 SP3",
        "RelationType": "Default Component Of"
      },
      {
        "ProductReference": "bind-9.16.6-150300.22.27.1",
        "RelatesToProductReference": "SUSE Linux Enterprise Server 15 SP3-LTSS",
        "RelationType": "Default Component Of"
      },
      {
        "ProductReference": "bind-chrootenv-9.16.6-150300.22.27.1",
        "RelatesToProductReference": "SUSE Linux Enterprise Server 15 SP3-LTSS",
        "RelationType": "Default Component Of"
      },
      {
        "ProductReference": "bind-devel-9.16.6-150300.22.27.1",
        "RelatesToProductReference": "SUSE Linux Enterprise Server 15 SP3-LTSS",
        "RelationType": "Default Component Of"
      },
      {
        "ProductReference": "bind-doc-9.16.6-150300.22.27.1",
        "RelatesToProductReference": "SUSE Linux Enterprise Server 15 SP3-LTSS",
        "RelationType": "Default Component Of"
      },
      {
        "ProductReference": "bind-utils-9.16.6-150300.22.27.1",
        "RelatesToProductReference": "SUSE Linux Enterprise Server 15 SP3-LTSS",
        "RelationType": "Default Component Of"
      },
      {
        "ProductReference": "libbind9-1600-9.16.6-150300.22.27.1",
        "RelatesToProductReference": "SUSE Linux Enterprise Server 15 SP3-LTSS",
        "RelationType": "Default Component Of"
      },
      {
        "ProductReference": "libdns1605-9.16.6-150300.22.27.1",
        "RelatesToProductReference": "SUSE Linux Enterprise Server 15 SP3-LTSS",
        "RelationType": "Default Component Of"
      },
      {
        "ProductReference": "libirs-devel-9.16.6-150300.22.27.1",
        "RelatesToProductReference": "SUSE Linux Enterprise Server 15 SP3-LTSS",
        "RelationType": "Default Component Of"
      },
      {
        "ProductReference": "libirs1601-9.16.6-150300.22.27.1",
        "RelatesToProductReference": "SUSE Linux Enterprise Server 15 SP3-LTSS",
        "RelationType": "Default Component Of"
      },
      {
        "ProductReference": "libisc1606-9.16.6-150300.22.27.1",
        "RelatesToProductReference": "SUSE Linux Enterprise Server 15 SP3-LTSS",
        "RelationType": "Default Component Of"
      },
      {
        "ProductReference": "libisccc1600-9.16.6-150300.22.27.1",
        "RelatesToProductReference": "SUSE Linux Enterprise Server 15 SP3-LTSS",
        "RelationType": "Default Component Of"
      },
      {
        "ProductReference": "libisccfg1600-9.16.6-150300.22.27.1",
        "RelatesToProductReference": "SUSE Linux Enterprise Server 15 SP3-LTSS",
        "RelationType": "Default Component Of"
      },
      {
        "ProductReference": "libns1604-9.16.6-150300.22.27.1",
        "RelatesToProductReference": "SUSE Linux Enterprise Server 15 SP3-LTSS",
        "RelationType": "Default Component Of"
      },
      {
        "ProductReference": "python3-bind-9.16.6-150300.22.27.1",
        "RelatesToProductReference": "SUSE Linux Enterprise Server 15 SP3-LTSS",
        "RelationType": "Default Component Of"
      },
      {
        "ProductReference": "bind-9.16.6-150300.22.27.1",
        "RelatesToProductReference": "SUSE Linux Enterprise Server for SAP Applications 15 SP3",
        "RelationType": "Default Component Of"
      },
      {
        "ProductReference": "bind-chrootenv-9.16.6-150300.22.27.1",
        "RelatesToProductReference": "SUSE Linux Enterprise Server for SAP Applications 15 SP3",
        "RelationType": "Default Component Of"
      },
      {
        "ProductReference": "bind-devel-9.16.6-150300.22.27.1",
        "RelatesToProductReference": "SUSE Linux Enterprise Server for SAP Applications 15 SP3",
        "RelationType": "Default Component Of"
      },
      {
        "ProductReference": "bind-doc-9.16.6-150300.22.27.1",
        "RelatesToProductReference": "SUSE Linux Enterprise Server for SAP Applications 15 SP3",
        "RelationType": "Default Component Of"
      },
      {
        "ProductReference": "bind-utils-9.16.6-150300.22.27.1",
        "RelatesToProductReference": "SUSE Linux Enterprise Server for SAP Applications 15 SP3",
        "RelationType": "Default Component Of"
      },
      {
        "ProductReference": "libbind9-1600-9.16.6-150300.22.27.1",
        "RelatesToProductReference": "SUSE Linux Enterprise Server for SAP Applications 15 SP3",
        "RelationType": "Default Component Of"
      },
      {
        "ProductReference": "libdns1605-9.16.6-150300.22.27.1",
        "RelatesToProductReference": "SUSE Linux Enterprise Server for SAP Applications 15 SP3",
        "RelationType": "Default Component Of"
      },
      {
        "ProductReference": "libirs-devel-9.16.6-150300.22.27.1",
        "RelatesToProductReference": "SUSE Linux Enterprise Server for SAP Applications 15 SP3",
        "RelationType": "Default Component Of"
      },
      {
        "ProductReference": "libirs1601-9.16.6-150300.22.27.1",
        "RelatesToProductReference": "SUSE Linux Enterprise Server for SAP Applications 15 SP3",
        "RelationType": "Default Component Of"
      },
      {
        "ProductReference": "libisc1606-9.16.6-150300.22.27.1",
        "RelatesToProductReference": "SUSE Linux Enterprise Server for SAP Applications 15 SP3",
        "RelationType": "Default Component Of"
      },
      {
        "ProductReference": "libisccc1600-9.16.6-150300.22.27.1",
        "RelatesToProductReference": "SUSE Linux Enterprise Server for SAP Applications 15 SP3",
        "RelationType": "Default Component Of"
      },
      {
        "ProductReference": "libisccfg1600-9.16.6-150300.22.27.1",
        "RelatesToProductReference": "SUSE Linux Enterprise Server for SAP Applications 15 SP3",
        "RelationType": "Default Component Of"
      },
      {
        "ProductReference": "libns1604-9.16.6-150300.22.27.1",
        "RelatesToProductReference": "SUSE Linux Enterprise Server for SAP Applications 15 SP3",
        "RelationType": "Default Component Of"
      },
      {
        "ProductReference": "python3-bind-9.16.6-150300.22.27.1",
        "RelatesToProductReference": "SUSE Linux Enterprise Server for SAP Applications 15 SP3",
        "RelationType": "Default Component Of"
      },
      {
        "ProductReference": "bind-9.16.6-150300.22.27.1",
        "RelatesToProductReference": "SUSE Manager Proxy 4.2",
        "RelationType": "Default Component Of"
      },
      {
        "ProductReference": "bind-chrootenv-9.16.6-150300.22.27.1",
        "RelatesToProductReference": "SUSE Manager Proxy 4.2",
        "RelationType": "Default Component Of"
      },
      {
        "ProductReference": "bind-devel-9.16.6-150300.22.27.1",
        "RelatesToProductReference": "SUSE Manager Proxy 4.2",
        "RelationType": "Default Component Of"
      },
      {
        "ProductReference": "bind-doc-9.16.6-150300.22.27.1",
        "RelatesToProductReference": "SUSE Manager Proxy 4.2",
        "RelationType": "Default Component Of"
      },
      {
        "ProductReference": "bind-utils-9.16.6-150300.22.27.1",
        "RelatesToProductReference": "SUSE Manager Proxy 4.2",
        "RelationType": "Default Component Of"
      },
      {
        "ProductReference": "libbind9-1600-9.16.6-150300.22.27.1",
        "RelatesToProductReference": "SUSE Manager Proxy 4.2",
        "RelationType": "Default Component Of"
      },
      {
        "ProductReference": "libdns1605-9.16.6-150300.22.27.1",
        "RelatesToProductReference": "SUSE Manager Proxy 4.2",
        "RelationType": "Default Component Of"
      },
      {
        "ProductReference": "libirs-devel-9.16.6-150300.22.27.1",
        "RelatesToProductReference": "SUSE Manager Proxy 4.2",
        "RelationType": "Default Component Of"
      },
      {
        "ProductReference": "libirs1601-9.16.6-150300.22.27.1",
        "RelatesToProductReference": "SUSE Manager Proxy 4.2",
        "RelationType": "Default Component Of"
      },
      {
        "ProductReference": "libisc1606-9.16.6-150300.22.27.1",
        "RelatesToProductReference": "SUSE Manager Proxy 4.2",
        "RelationType": "Default Component Of"
      },
      {
        "ProductReference": "libisccc1600-9.16.6-150300.22.27.1",
        "RelatesToProductReference": "SUSE Manager Proxy 4.2",
        "RelationType": "Default Component Of"
      },
      {
        "ProductReference": "libisccfg1600-9.16.6-150300.22.27.1",
        "RelatesToProductReference": "SUSE Manager Proxy 4.2",
        "RelationType": "Default Component Of"
      },
      {
        "ProductReference": "libns1604-9.16.6-150300.22.27.1",
        "RelatesToProductReference": "SUSE Manager Proxy 4.2",
        "RelationType": "Default Component Of"
      },
      {
        "ProductReference": "python3-bind-9.16.6-150300.22.27.1",
        "RelatesToProductReference": "SUSE Manager Proxy 4.2",
        "RelationType": "Default Component Of"
      },
      {
        "ProductReference": "bind-9.16.6-150300.22.27.1",
        "RelatesToProductReference": "SUSE Manager Retail Branch Server 4.2",
        "RelationType": "Default Component Of"
      },
      {
        "ProductReference": "bind-chrootenv-9.16.6-150300.22.27.1",
        "RelatesToProductReference": "SUSE Manager Retail Branch Server 4.2",
        "RelationType": "Default Component Of"
      },
      {
        "ProductReference": "bind-devel-9.16.6-150300.22.27.1",
        "RelatesToProductReference": "SUSE Manager Retail Branch Server 4.2",
        "RelationType": "Default Component Of"
      },
      {
        "ProductReference": "bind-doc-9.16.6-150300.22.27.1",
        "RelatesToProductReference": "SUSE Manager Retail Branch Server 4.2",
        "RelationType": "Default Component Of"
      },
      {
        "ProductReference": "bind-utils-9.16.6-150300.22.27.1",
        "RelatesToProductReference": "SUSE Manager Retail Branch Server 4.2",
        "RelationType": "Default Component Of"
      },
      {
        "ProductReference": "libbind9-1600-9.16.6-150300.22.27.1",
        "RelatesToProductReference": "SUSE Manager Retail Branch Server 4.2",
        "RelationType": "Default Component Of"
      },
      {
        "ProductReference": "libdns1605-9.16.6-150300.22.27.1",
        "RelatesToProductReference": "SUSE Manager Retail Branch Server 4.2",
        "RelationType": "Default Component Of"
      },
      {
        "ProductReference": "libirs-devel-9.16.6-150300.22.27.1",
        "RelatesToProductReference": "SUSE Manager Retail Branch Server 4.2",
        "RelationType": "Default Component Of"
      },
      {
        "ProductReference": "libirs1601-9.16.6-150300.22.27.1",
        "RelatesToProductReference": "SUSE Manager Retail Branch Server 4.2",
        "RelationType": "Default Component Of"
      },
      {
        "ProductReference": "libisc1606-9.16.6-150300.22.27.1",
        "RelatesToProductReference": "SUSE Manager Retail Branch Server 4.2",
        "RelationType": "Default Component Of"
      },
      {
        "ProductReference": "libisccc1600-9.16.6-150300.22.27.1",
        "RelatesToProductReference": "SUSE Manager Retail Branch Server 4.2",
        "RelationType": "Default Component Of"
      },
      {
        "ProductReference": "libisccfg1600-9.16.6-150300.22.27.1",
        "RelatesToProductReference": "SUSE Manager Retail Branch Server 4.2",
        "RelationType": "Default Component Of"
      },
      {
        "ProductReference": "libns1604-9.16.6-150300.22.27.1",
        "RelatesToProductReference": "SUSE Manager Retail Branch Server 4.2",
        "RelationType": "Default Component Of"
      },
      {
        "ProductReference": "python3-bind-9.16.6-150300.22.27.1",
        "RelatesToProductReference": "SUSE Manager Retail Branch Server 4.2",
        "RelationType": "Default Component Of"
      },
      {
        "ProductReference": "bind-9.16.6-150300.22.27.1",
        "RelatesToProductReference": "SUSE Manager Server 4.2",
        "RelationType": "Default Component Of"
      },
      {
        "ProductReference": "bind-chrootenv-9.16.6-150300.22.27.1",
        "RelatesToProductReference": "SUSE Manager Server 4.2",
        "RelationType": "Default Component Of"
      },
      {
        "ProductReference": "bind-devel-9.16.6-150300.22.27.1",
        "RelatesToProductReference": "SUSE Manager Server 4.2",
        "RelationType": "Default Component Of"
      },
      {
        "ProductReference": "bind-doc-9.16.6-150300.22.27.1",
        "RelatesToProductReference": "SUSE Manager Server 4.2",
        "RelationType": "Default Component Of"
      },
      {
        "ProductReference": "bind-utils-9.16.6-150300.22.27.1",
        "RelatesToProductReference": "SUSE Manager Server 4.2",
        "RelationType": "Default Component Of"
      },
      {
        "ProductReference": "libbind9-1600-9.16.6-150300.22.27.1",
        "RelatesToProductReference": "SUSE Manager Server 4.2",
        "RelationType": "Default Component Of"
      },
      {
        "ProductReference": "libdns1605-9.16.6-150300.22.27.1",
        "RelatesToProductReference": "SUSE Manager Server 4.2",
        "RelationType": "Default Component Of"
      },
      {
        "ProductReference": "libirs-devel-9.16.6-150300.22.27.1",
        "RelatesToProductReference": "SUSE Manager Server 4.2",
        "RelationType": "Default Component Of"
      },
      {
        "ProductReference": "libirs1601-9.16.6-150300.22.27.1",
        "RelatesToProductReference": "SUSE Manager Server 4.2",
        "RelationType": "Default Component Of"
      },
      {
        "ProductReference": "libisc1606-9.16.6-150300.22.27.1",
        "RelatesToProductReference": "SUSE Manager Server 4.2",
        "RelationType": "Default Component Of"
      },
      {
        "ProductReference": "libisccc1600-9.16.6-150300.22.27.1",
        "RelatesToProductReference": "SUSE Manager Server 4.2",
        "RelationType": "Default Component Of"
      },
      {
        "ProductReference": "libisccfg1600-9.16.6-150300.22.27.1",
        "RelatesToProductReference": "SUSE Manager Server 4.2",
        "RelationType": "Default Component Of"
      },
      {
        "ProductReference": "libns1604-9.16.6-150300.22.27.1",
        "RelatesToProductReference": "SUSE Manager Server 4.2",
        "RelationType": "Default Component Of"
      },
      {
        "ProductReference": "python3-bind-9.16.6-150300.22.27.1",
        "RelatesToProductReference": "SUSE Manager Server 4.2",
        "RelationType": "Default Component Of"
      },
      {
        "ProductReference": "bind-chrootenv-9.16.6-150300.22.27.1",
        "RelatesToProductReference": "openSUSE Leap 15.4",
        "RelationType": "Default Component Of"
      },
      {
        "ProductReference": "bind-devel-9.16.6-150300.22.27.1",
        "RelatesToProductReference": "openSUSE Leap 15.4",
        "RelationType": "Default Component Of"
      },
      {
        "ProductReference": "libbind9-1600-9.16.6-150300.22.27.1",
        "RelatesToProductReference": "openSUSE Leap 15.4",
        "RelationType": "Default Component Of"
      },
      {
        "ProductReference": "libdns1605-9.16.6-150300.22.27.1",
        "RelatesToProductReference": "openSUSE Leap 15.4",
        "RelationType": "Default Component Of"
      },
      {
        "ProductReference": "libirs-devel-9.16.6-150300.22.27.1",
        "RelatesToProductReference": "openSUSE Leap 15.4",
        "RelationType": "Default Component Of"
      },
      {
        "ProductReference": "libirs1601-9.16.6-150300.22.27.1",
        "RelatesToProductReference": "openSUSE Leap 15.4",
        "RelationType": "Default Component Of"
      },
      {
        "ProductReference": "libisc1606-9.16.6-150300.22.27.1",
        "RelatesToProductReference": "openSUSE Leap 15.4",
        "RelationType": "Default Component Of"
      },
      {
        "ProductReference": "libisccc1600-9.16.6-150300.22.27.1",
        "RelatesToProductReference": "openSUSE Leap 15.4",
        "RelationType": "Default Component Of"
      },
      {
        "ProductReference": "libisccfg1600-9.16.6-150300.22.27.1",
        "RelatesToProductReference": "openSUSE Leap 15.4",
        "RelationType": "Default Component Of"
      },
      {
        "ProductReference": "libns1604-9.16.6-150300.22.27.1",
        "RelatesToProductReference": "openSUSE Leap 15.4",
        "RelationType": "Default Component Of"
      }
    ]
  },
  "References": [
    {
      "URL": "https://www.suse.com/support/update/announcement/2023/suse-su-20230427-1/",
      "Description": "Link for SUSE-SU-2023:0427-1"
    },
    {
      "URL": "https://lists.suse.com/pipermail/sle-security-updates/2023-February/013774.html",
      "Description": "E-Mail link for SUSE-SU-2023:0427-1"
    },
    {
      "URL": "https://www.suse.com/support/security/rating/",
      "Description": "SUSE Security Ratings"
    },
    {
      "URL": "https://bugzilla.suse.com/1207471",
      "Description": "SUSE Bug 1207471"
    },
    {
      "URL": "https://www.suse.com/security/cve/CVE-2022-3094/",
      "Description": "SUSE CVE CVE-2022-3094 page"
    }
  ],
  "Vulnerabilities": [
    {
      "CVE": "CVE-2022-3094",
      "Description": "Sending a flood of dynamic DNS updates may cause `named` to allocate large amounts of memory. This, in turn, may cause `named` to exit due to a lack of free memory. We are not aware of any cases where this has been exploited. Memory is allocated prior to the checking of access permissions (ACLs) and is retained during the processing of a dynamic update from a client whose access credentials are accepted. Memory allocated to clients that are not permitted to send updates is released immediately upon rejection. The scope of this vulnerability is limited therefore to trusted clients who are permitted to make dynamic zone changes. If a dynamic update is REFUSED, memory will be released again very quickly. Therefore it is only likely to be possible to degrade or stop `named` by sending a flood of unaccepted dynamic updates comparable in magnitude to a query flood intended to achieve the same detrimental outcome. BIND 9.11 and earlier branches are also affected, but through exhaustion of internal resources rather than memory constraints. This may reduce performance but should not be a significant problem for most servers. Therefore we don't intend to address this for BIND versions prior to BIND 9.16. This issue affects BIND 9 versions 9.16.0 through 9.16.36, 9.18.0 through 9.18.10, 9.19.0 through 9.19.8, and 9.16.8-S1 through 9.16.36-S1.",
      "Threats": [
        {
          "Type": "Impact",
          "Severity": "moderate"
        }
      ],
      "References": [
        {
          "URL": "https://www.suse.com/security/cve/CVE-2022-3094.html",
          "Description": "CVE-2022-3094"
        },
        {
          "URL": "https://bugzilla.suse.com/1207471",
          "Description": "SUSE Bug 1207471"
        }
      ],
      "ProductStatuses": [
        {
          "Type": "Fixed",
          "ProductID": [
            "Image SLES15-SP3-BYOS-Azure:bind-utils-9.16.6-150300.22.27.1",
            "Image SLES15-SP3-BYOS-Azure:libbind9-1600-9.16.6-150300.22.27.1",
            "Image SLES15-SP3-BYOS-Azure:libdns1605-9.16.6-150300.22.27.1",
            "Image SLES15-SP3-BYOS-Azure:libirs1601-9.16.6-150300.22.27.1",
            "Image SLES15-SP3-BYOS-Azure:libisc1606-9.16.6-150300.22.27.1",
            "Image SLES15-SP3-BYOS-Azure:libisccc1600-9.16.6-150300.22.27.1",
            "Image SLES15-SP3-BYOS-Azure:libisccfg1600-9.16.6-150300.22.27.1",
            "Image SLES15-SP3-BYOS-Azure:libns1604-9.16.6-150300.22.27.1",
            "Image SLES15-SP3-BYOS-Azure:python3-bind-9.16.6-150300.22.27.1",
            "Image SLES15-SP3-CHOST-BYOS-Aliyun:bind-utils-9.16.6-150300.22.27.1",
            "Image SLES15-SP3-CHOST-BYOS-Aliyun:libbind9-1600-9.16.6-150300.22.27.1",
            "Image SLES15-SP3-CHOST-BYOS-Aliyun:libdns1605-9.16.6-150300.22.27.1",
            "Image SLES15-SP3-CHOST-BYOS-Aliyun:libirs1601-9.16.6-150300.22.27.1",
            "Image SLES15-SP3-CHOST-BYOS-Aliyun:libisc1606-9.16.6-150300.22.27.1",
            "Image SLES15-SP3-CHOST-BYOS-Aliyun:libisccc1600-9.16.6-150300.22.27.1",
            "Image SLES15-SP3-CHOST-BYOS-Aliyun:libisccfg1600-9.16.6-150300.22.27.1",
            "Image SLES15-SP3-CHOST-BYOS-Aliyun:libns1604-9.16.6-150300.22.27.1",
            "Image SLES15-SP3-CHOST-BYOS-Aliyun:python3-bind-9.16.6-150300.22.27.1",
            "Image SLES15-SP3-CHOST-BYOS-Azure:bind-utils-9.16.6-150300.22.27.1",
            "Image SLES15-SP3-CHOST-BYOS-Azure:libbind9-1600-9.16.6-150300.22.27.1",
            "Image SLES15-SP3-CHOST-BYOS-Azure:libdns1605-9.16.6-150300.22.27.1",
            "Image SLES15-SP3-CHOST-BYOS-Azure:libirs1601-9.16.6-150300.22.27.1",
            "Image SLES15-SP3-CHOST-BYOS-Azure:libisc1606-9.16.6-150300.22.27.1",
            "Image SLES15-SP3-CHOST-BYOS-Azure:libisccc1600-9.16.6-150300.22.27.1",
            "Image SLES15-SP3-CHOST-BYOS-Azure:libisccfg1600-9.16.6-150300.22.27.1",
            "Image SLES15-SP3-CHOST-BYOS-Azure:libns1604-9.16.6-150300.22.27.1",
            "Image SLES15-SP3-CHOST-BYOS-Azure:python3-bind-9.16.6-150300.22.27.1",
            "Image SLES15-SP3-CHOST-BYOS-EC2:bind-utils-9.16.6-150300.22.27.1",
            "Image SLES15-SP3-CHOST-BYOS-EC2:libbind9-1600-9.16.6-150300.22.27.1",
            "Image SLES15-SP3-CHOST-BYOS-EC2:libdns1605-9.16.6-150300.22.27.1",
            "Image SLES15-SP3-CHOST-BYOS-EC2:libirs1601-9.16.6-150300.22.27.1",
            "Image SLES15-SP3-CHOST-BYOS-EC2:libisc1606-9.16.6-150300.22.27.1",
            "Image SLES15-SP3-CHOST-BYOS-EC2:libisccc1600-9.16.6-150300.22.27.1",
            "Image SLES15-SP3-CHOST-BYOS-EC2:libisccfg1600-9.16.6-150300.22.27.1",
            "Image SLES15-SP3-CHOST-BYOS-EC2:libns1604-9.16.6-150300.22.27.1",
            "Image SLES15-SP3-CHOST-BYOS-EC2:python3-bind-9.16.6-150300.22.27.1",
            "Image SLES15-SP3-CHOST-BYOS-GCE:bind-utils-9.16.6-150300.22.27.1",
            "Image SLES15-SP3-CHOST-BYOS-GCE:libbind9-1600-9.16.6-150300.22.27.1",
            "Image SLES15-SP3-CHOST-BYOS-GCE:libdns1605-9.16.6-150300.22.27.1",
            "Image SLES15-SP3-CHOST-BYOS-GCE:libirs1601-9.16.6-150300.22.27.1",
            "Image SLES15-SP3-CHOST-BYOS-GCE:libisc1606-9.16.6-150300.22.27.1",
            "Image SLES15-SP3-CHOST-BYOS-GCE:libisccc1600-9.16.6-150300.22.27.1",
            "Image SLES15-SP3-CHOST-BYOS-GCE:libisccfg1600-9.16.6-150300.22.27.1",
            "Image SLES15-SP3-CHOST-BYOS-GCE:libns1604-9.16.6-150300.22.27.1",
            "Image SLES15-SP3-CHOST-BYOS-GCE:python3-bind-9.16.6-150300.22.27.1",
            "Image SLES15-SP3-CHOST-BYOS-SAP-CCloud:bind-utils-9.16.6-150300.22.27.1",
            "Image SLES15-SP3-CHOST-BYOS-SAP-CCloud:libbind9-1600-9.16.6-150300.22.27.1",
            "Image SLES15-SP3-CHOST-BYOS-SAP-CCloud:libdns1605-9.16.6-150300.22.27.1",
            "Image SLES15-SP3-CHOST-BYOS-SAP-CCloud:libirs1601-9.16.6-150300.22.27.1",
            "Image SLES15-SP3-CHOST-BYOS-SAP-CCloud:libisc1606-9.16.6-150300.22.27.1",
            "Image SLES15-SP3-CHOST-BYOS-SAP-CCloud:libisccc1600-9.16.6-150300.22.27.1",
            "Image SLES15-SP3-CHOST-BYOS-SAP-CCloud:libisccfg1600-9.16.6-150300.22.27.1",
            "Image SLES15-SP3-CHOST-BYOS-SAP-CCloud:libns1604-9.16.6-150300.22.27.1",
            "Image SLES15-SP3-CHOST-BYOS-SAP-CCloud:python3-bind-9.16.6-150300.22.27.1",
            "Image SLES15-SP3-HPC-BYOS-Azure:bind-utils-9.16.6-150300.22.27.1",
            "Image SLES15-SP3-HPC-BYOS-Azure:libbind9-1600-9.16.6-150300.22.27.1",
            "Image SLES15-SP3-HPC-BYOS-Azure:libdns1605-9.16.6-150300.22.27.1",
            "Image SLES15-SP3-HPC-BYOS-Azure:libirs1601-9.16.6-150300.22.27.1",
            "Image SLES15-SP3-HPC-BYOS-Azure:libisc1606-9.16.6-150300.22.27.1",
            "Image SLES15-SP3-HPC-BYOS-Azure:libisccc1600-9.16.6-150300.22.27.1",
            "Image SLES15-SP3-HPC-BYOS-Azure:libisccfg1600-9.16.6-150300.22.27.1",
            "Image SLES15-SP3-HPC-BYOS-Azure:libns1604-9.16.6-150300.22.27.1",
            "Image SLES15-SP3-HPC-BYOS-Azure:python3-bind-9.16.6-150300.22.27.1",
            "Image SLES15-SP3-Manager-4-2-Proxy-BYOS-Azure:bind-utils-9.16.6-150300.22.27.1",
            "Image SLES15-SP3-Manager-4-2-Proxy-BYOS-Azure:libbind9-1600-9.16.6-150300.22.27.1",
            "Image SLES15-SP3-Manager-4-2-Proxy-BYOS-Azure:libdns1605-9.16.6-150300.22.27.1",
            "Image SLES15-SP3-Manager-4-2-Proxy-BYOS-Azure:libirs1601-9.16.6-150300.22.27.1",
            "Image SLES15-SP3-Manager-4-2-Proxy-BYOS-Azure:libisc1606-9.16.6-150300.22.27.1",
            "Image SLES15-SP3-Manager-4-2-Proxy-BYOS-Azure:libisccc1600-9.16.6-150300.22.27.1",
            "Image SLES15-SP3-Manager-4-2-Proxy-BYOS-Azure:libisccfg1600-9.16.6-150300.22.27.1",
            "Image SLES15-SP3-Manager-4-2-Proxy-BYOS-Azure:libns1604-9.16.6-150300.22.27.1",
            "Image SLES15-SP3-Manager-4-2-Proxy-BYOS-Azure:python3-bind-9.16.6-150300.22.27.1",
            "Image SLES15-SP3-Manager-4-2-Proxy-BYOS-EC2-HVM:bind-utils-9.16.6-150300.22.27.1",
            "Image SLES15-SP3-Manager-4-2-Proxy-BYOS-EC2-HVM:libbind9-1600-9.16.6-150300.22.27.1",
            "Image SLES15-SP3-Manager-4-2-Proxy-BYOS-EC2-HVM:libdns1605-9.16.6-150300.22.27.1",
            "Image SLES15-SP3-Manager-4-2-Proxy-BYOS-EC2-HVM:libirs1601-9.16.6-150300.22.27.1",
            "Image SLES15-SP3-Manager-4-2-Proxy-BYOS-EC2-HVM:libisc1606-9.16.6-150300.22.27.1",
            "Image SLES15-SP3-Manager-4-2-Proxy-BYOS-EC2-HVM:libisccc1600-9.16.6-150300.22.27.1",
            "Image SLES15-SP3-Manager-4-2-Proxy-BYOS-EC2-HVM:libisccfg1600-9.16.6-150300.22.27.1",
            "Image SLES15-SP3-Manager-4-2-Proxy-BYOS-EC2-HVM:libns1604-9.16.6-150300.22.27.1",
            "Image SLES15-SP3-Manager-4-2-Proxy-BYOS-EC2-HVM:python3-bind-9.16.6-150300.22.27.1",
            "Image SLES15-SP3-Manager-4-2-Proxy-BYOS-GCE:bind-utils-9.16.6-150300.22.27.1",
            "Image SLES15-SP3-Manager-4-2-Proxy-BYOS-GCE:libbind9-1600-9.16.6-150300.22.27.1",
            "Image SLES15-SP3-Manager-4-2-Proxy-BYOS-GCE:libdns1605-9.16.6-150300.22.27.1",
            "Image SLES15-SP3-Manager-4-2-Proxy-BYOS-GCE:libirs1601-9.16.6-150300.22.27.1",
            "Image SLES15-SP3-Manager-4-2-Proxy-BYOS-GCE:libisc1606-9.16.6-150300.22.27.1",
            "Image SLES15-SP3-Manager-4-2-Proxy-BYOS-GCE:libisccc1600-9.16.6-150300.22.27.1",
            "Image SLES15-SP3-Manager-4-2-Proxy-BYOS-GCE:libisccfg1600-9.16.6-150300.22.27.1",
            "Image SLES15-SP3-Manager-4-2-Proxy-BYOS-GCE:libns1604-9.16.6-150300.22.27.1",
            "Image SLES15-SP3-Manager-4-2-Proxy-BYOS-GCE:python3-bind-9.16.6-150300.22.27.1",
            "Image SLES15-SP3-Manager-4-2-Server-BYOS-Azure:bind-utils-9.16.6-150300.22.27.1",
            "Image SLES15-SP3-Manager-4-2-Server-BYOS-Azure:libbind9-1600-9.16.6-150300.22.27.1",
            "Image SLES15-SP3-Manager-4-2-Server-BYOS-Azure:libdns1605-9.16.6-150300.22.27.1",
            "Image SLES15-SP3-Manager-4-2-Server-BYOS-Azure:libirs1601-9.16.6-150300.22.27.1",
            "Image SLES15-SP3-Manager-4-2-Server-BYOS-Azure:libisc1606-9.16.6-150300.22.27.1",
            "Image SLES15-SP3-Manager-4-2-Server-BYOS-Azure:libisccc1600-9.16.6-150300.22.27.1",
            "Image SLES15-SP3-Manager-4-2-Server-BYOS-Azure:libisccfg1600-9.16.6-150300.22.27.1",
            "Image SLES15-SP3-Manager-4-2-Server-BYOS-Azure:libns1604-9.16.6-150300.22.27.1",
            "Image SLES15-SP3-Manager-4-2-Server-BYOS-Azure:python3-bind-9.16.6-150300.22.27.1",
            "Image SLES15-SP3-Manager-4-2-Server-BYOS-EC2-HVM:bind-utils-9.16.6-150300.22.27.1",
            "Image SLES15-SP3-Manager-4-2-Server-BYOS-EC2-HVM:libbind9-1600-9.16.6-150300.22.27.1",
            "Image SLES15-SP3-Manager-4-2-Server-BYOS-EC2-HVM:libdns1605-9.16.6-150300.22.27.1",
            "Image SLES15-SP3-Manager-4-2-Server-BYOS-EC2-HVM:libirs1601-9.16.6-150300.22.27.1",
            "Image SLES15-SP3-Manager-4-2-Server-BYOS-EC2-HVM:libisc1606-9.16.6-150300.22.27.1",
            "Image SLES15-SP3-Manager-4-2-Server-BYOS-EC2-HVM:libisccc1600-9.16.6-150300.22.27.1",
            "Image SLES15-SP3-Manager-4-2-Server-BYOS-EC2-HVM:libisccfg1600-9.16.6-150300.22.27.1",
            "Image SLES15-SP3-Manager-4-2-Server-BYOS-EC2-HVM:libns1604-9.16.6-150300.22.27.1",
            "Image SLES15-SP3-Manager-4-2-Server-BYOS-EC2-HVM:python3-bind-9.16.6-150300.22.27.1",
            "Image SLES15-SP3-Manager-4-2-Server-BYOS-GCE:bind-utils-9.16.6-150300.22.27.1",
            "Image SLES15-SP3-Manager-4-2-Server-BYOS-GCE:libbind9-1600-9.16.6-150300.22.27.1",
            "Image SLES15-SP3-Manager-4-2-Server-BYOS-GCE:libdns1605-9.16.6-150300.22.27.1",
            "Image SLES15-SP3-Manager-4-2-Server-BYOS-GCE:libirs1601-9.16.6-150300.22.27.1",
            "Image SLES15-SP3-Manager-4-2-Server-BYOS-GCE:libisc1606-9.16.6-150300.22.27.1",
            "Image SLES15-SP3-Manager-4-2-Server-BYOS-GCE:libisccc1600-9.16.6-150300.22.27.1",
            "Image SLES15-SP3-Manager-4-2-Server-BYOS-GCE:libisccfg1600-9.16.6-150300.22.27.1",
            "Image SLES15-SP3-Manager-4-2-Server-BYOS-GCE:libns1604-9.16.6-150300.22.27.1",
            "Image SLES15-SP3-Manager-4-2-Server-BYOS-GCE:python3-bind-9.16.6-150300.22.27.1",
            "Image SLES15-SP3-SAP-Azure-LI-BYOS-Production:bind-utils-9.16.6-150300.22.27.1",
            "Image SLES15-SP3-SAP-Azure-LI-BYOS-Production:libbind9-1600-9.16.6-150300.22.27.1",
            "Image SLES15-SP3-SAP-Azure-LI-BYOS-Production:libdns1605-9.16.6-150300.22.27.1",
            "Image SLES15-SP3-SAP-Azure-LI-BYOS-Production:libirs1601-9.16.6-150300.22.27.1",
            "Image SLES15-SP3-SAP-Azure-LI-BYOS-Production:libisc1606-9.16.6-150300.22.27.1",
            "Image SLES15-SP3-SAP-Azure-LI-BYOS-Production:libisccc1600-9.16.6-150300.22.27.1",
            "Image SLES15-SP3-SAP-Azure-LI-BYOS-Production:libisccfg1600-9.16.6-150300.22.27.1",
            "Image SLES15-SP3-SAP-Azure-LI-BYOS-Production:libns1604-9.16.6-150300.22.27.1",
            "Image SLES15-SP3-SAP-Azure-LI-BYOS-Production:python3-bind-9.16.6-150300.22.27.1",
            "Image SLES15-SP3-SAP-Azure-VLI-BYOS-Production:bind-utils-9.16.6-150300.22.27.1",
            "Image SLES15-SP3-SAP-Azure-VLI-BYOS-Production:libbind9-1600-9.16.6-150300.22.27.1",
            "Image SLES15-SP3-SAP-Azure-VLI-BYOS-Production:libdns1605-9.16.6-150300.22.27.1",
            "Image SLES15-SP3-SAP-Azure-VLI-BYOS-Production:libirs1601-9.16.6-150300.22.27.1",
            "Image SLES15-SP3-SAP-Azure-VLI-BYOS-Production:libisc1606-9.16.6-150300.22.27.1",
            "Image SLES15-SP3-SAP-Azure-VLI-BYOS-Production:libisccc1600-9.16.6-150300.22.27.1",
            "Image SLES15-SP3-SAP-Azure-VLI-BYOS-Production:libisccfg1600-9.16.6-150300.22.27.1",
            "Image SLES15-SP3-SAP-Azure-VLI-BYOS-Production:libns1604-9.16.6-150300.22.27.1",
            "Image SLES15-SP3-SAP-Azure-VLI-BYOS-Production:python3-bind-9.16.6-150300.22.27.1",
            "Image SLES15-SP3-SAP-BYOS-Azure:bind-utils-9.16.6-150300.22.27.1",
            "Image SLES15-SP3-SAP-BYOS-Azure:libbind9-1600-9.16.6-150300.22.27.1",
            "Image SLES15-SP3-SAP-BYOS-Azure:libdns1605-9.16.6-150300.22.27.1",
            "Image SLES15-SP3-SAP-BYOS-Azure:libirs1601-9.16.6-150300.22.27.1",
            "Image SLES15-SP3-SAP-BYOS-Azure:libisc1606-9.16.6-150300.22.27.1",
            "Image SLES15-SP3-SAP-BYOS-Azure:libisccc1600-9.16.6-150300.22.27.1",
            "Image SLES15-SP3-SAP-BYOS-Azure:libisccfg1600-9.16.6-150300.22.27.1",
            "Image SLES15-SP3-SAP-BYOS-Azure:libns1604-9.16.6-150300.22.27.1",
            "Image SLES15-SP3-SAP-BYOS-Azure:python3-bind-9.16.6-150300.22.27.1",
            "Image SLES15-SP3-SAP-BYOS-EC2-HVM:bind-utils-9.16.6-150300.22.27.1",
            "Image SLES15-SP3-SAP-BYOS-EC2-HVM:libbind9-1600-9.16.6-150300.22.27.1",
            "Image SLES15-SP3-SAP-BYOS-EC2-HVM:libdns1605-9.16.6-150300.22.27.1",
            "Image SLES15-SP3-SAP-BYOS-EC2-HVM:libirs1601-9.16.6-150300.22.27.1",
            "Image SLES15-SP3-SAP-BYOS-EC2-HVM:libisc1606-9.16.6-150300.22.27.1",
            "Image SLES15-SP3-SAP-BYOS-EC2-HVM:libisccc1600-9.16.6-150300.22.27.1",
            "Image SLES15-SP3-SAP-BYOS-EC2-HVM:libisccfg1600-9.16.6-150300.22.27.1",
            "Image SLES15-SP3-SAP-BYOS-EC2-HVM:libns1604-9.16.6-150300.22.27.1",
            "Image SLES15-SP3-SAP-BYOS-EC2-HVM:python3-bind-9.16.6-150300.22.27.1",
            "Image SLES15-SP3-SAP-BYOS-GCE:bind-utils-9.16.6-150300.22.27.1",
            "Image SLES15-SP3-SAP-BYOS-GCE:libbind9-1600-9.16.6-150300.22.27.1",
            "Image SLES15-SP3-SAP-BYOS-GCE:libdns1605-9.16.6-150300.22.27.1",
            "Image SLES15-SP3-SAP-BYOS-GCE:libirs1601-9.16.6-150300.22.27.1",
            "Image SLES15-SP3-SAP-BYOS-GCE:libisc1606-9.16.6-150300.22.27.1",
            "Image SLES15-SP3-SAP-BYOS-GCE:libisccc1600-9.16.6-150300.22.27.1",
            "Image SLES15-SP3-SAP-BYOS-GCE:libisccfg1600-9.16.6-150300.22.27.1",
            "Image SLES15-SP3-SAP-BYOS-GCE:libns1604-9.16.6-150300.22.27.1",
            "Image SLES15-SP3-SAP-BYOS-GCE:python3-bind-9.16.6-150300.22.27.1",
            "Image SLES15-SP3-SAPCAL-Azure:bind-utils-9.16.6-150300.22.27.1",
            "Image SLES15-SP3-SAPCAL-Azure:libbind9-1600-9.16.6-150300.22.27.1",
            "Image SLES15-SP3-SAPCAL-Azure:libdns1605-9.16.6-150300.22.27.1",
            "Image SLES15-SP3-SAPCAL-Azure:libirs1601-9.16.6-150300.22.27.1",
            "Image SLES15-SP3-SAPCAL-Azure:libisc1606-9.16.6-150300.22.27.1",
            "Image SLES15-SP3-SAPCAL-Azure:libisccc1600-9.16.6-150300.22.27.1",
            "Image SLES15-SP3-SAPCAL-Azure:libisccfg1600-9.16.6-150300.22.27.1",
            "Image SLES15-SP3-SAPCAL-Azure:libns1604-9.16.6-150300.22.27.1",
            "Image SLES15-SP3-SAPCAL-Azure:python3-bind-9.16.6-150300.22.27.1",
            "SUSE Enterprise Storage 7.1:bind-9.16.6-150300.22.27.1",
            "SUSE Enterprise Storage 7.1:bind-chrootenv-9.16.6-150300.22.27.1",
            "SUSE Enterprise Storage 7.1:bind-devel-9.16.6-150300.22.27.1",
            "SUSE Enterprise Storage 7.1:bind-doc-9.16.6-150300.22.27.1",
            "SUSE Enterprise Storage 7.1:bind-utils-9.16.6-150300.22.27.1",
            "SUSE Enterprise Storage 7.1:libbind9-1600-9.16.6-150300.22.27.1",
            "SUSE Enterprise Storage 7.1:libdns1605-9.16.6-150300.22.27.1",
            "SUSE Enterprise Storage 7.1:libirs-devel-9.16.6-150300.22.27.1",
            "SUSE Enterprise Storage 7.1:libirs1601-9.16.6-150300.22.27.1",
            "SUSE Enterprise Storage 7.1:libisc1606-9.16.6-150300.22.27.1",
            "SUSE Enterprise Storage 7.1:libisccc1600-9.16.6-150300.22.27.1",
            "SUSE Enterprise Storage 7.1:libisccfg1600-9.16.6-150300.22.27.1",
            "SUSE Enterprise Storage 7.1:libns1604-9.16.6-150300.22.27.1",
            "SUSE Enterprise Storage 7.1:python3-bind-9.16.6-150300.22.27.1",
            "SUSE Linux Enterprise High Performance Computing 15 SP3-ESPOS:bind-9.16.6-150300.22.27.1",
            "SUSE Linux Enterprise High Performance Computing 15 SP3-ESPOS:bind-chrootenv-9.16.6-150300.22.27.1",
            "SUSE Linux Enterprise High Performance Computing 15 SP3-ESPOS:bind-devel-9.16.6-150300.22.27.1",
            "SUSE Linux Enterprise High Performance Computing 15 SP3-ESPOS:bind-doc-9.16.6-150300.22.27.1",
            "SUSE Linux Enterprise High Performance Computing 15 SP3-ESPOS:bind-utils-9.16.6-150300.22.27.1",
            "SUSE Linux Enterprise High Performance Computing 15 SP3-ESPOS:libbind9-1600-9.16.6-150300.22.27.1",
            "SUSE Linux Enterprise High Performance Computing 15 SP3-ESPOS:libdns1605-9.16.6-150300.22.27.1",
            "SUSE Linux Enterprise High Performance Computing 15 SP3-ESPOS:libirs-devel-9.16.6-150300.22.27.1",
            "SUSE Linux Enterprise High Performance Computing 15 SP3-ESPOS:libirs1601-9.16.6-150300.22.27.1",
            "SUSE Linux Enterprise High Performance Computing 15 SP3-ESPOS:libisc1606-9.16.6-150300.22.27.1",
            "SUSE Linux Enterprise High Performance Computing 15 SP3-ESPOS:libisccc1600-9.16.6-150300.22.27.1",
            "SUSE Linux Enterprise High Performance Computing 15 SP3-ESPOS:libisccfg1600-9.16.6-150300.22.27.1",
            "SUSE Linux Enterprise High Performance Computing 15 SP3-ESPOS:libns1604-9.16.6-150300.22.27.1",
            "SUSE Linux Enterprise High Performance Computing 15 SP3-ESPOS:python3-bind-9.16.6-150300.22.27.1",
            "SUSE Linux Enterprise High Performance Computing 15 SP3-LTSS:bind-9.16.6-150300.22.27.1",
            "SUSE Linux Enterprise High Performance Computing 15 SP3-LTSS:bind-chrootenv-9.16.6-150300.22.27.1",
            "SUSE Linux Enterprise High Performance Computing 15 SP3-LTSS:bind-devel-9.16.6-150300.22.27.1",
            "SUSE Linux Enterprise High Performance Computing 15 SP3-LTSS:bind-doc-9.16.6-150300.22.27.1",
            "SUSE Linux Enterprise High Performance Computing 15 SP3-LTSS:bind-utils-9.16.6-150300.22.27.1",
            "SUSE Linux Enterprise High Performance Computing 15 SP3-LTSS:libbind9-1600-9.16.6-150300.22.27.1",
            "SUSE Linux Enterprise High Performance Computing 15 SP3-LTSS:libdns1605-9.16.6-150300.22.27.1",
            "SUSE Linux Enterprise High Performance Computing 15 SP3-LTSS:libirs-devel-9.16.6-150300.22.27.1",
            "SUSE Linux Enterprise High Performance Computing 15 SP3-LTSS:libirs1601-9.16.6-150300.22.27.1",
            "SUSE Linux Enterprise High Performance Computing 15 SP3-LTSS:libisc1606-9.16.6-150300.22.27.1",
            "SUSE Linux Enterprise High Performance Computing 15 SP3-LTSS:libisccc1600-9.16.6-150300.22.27.1",
            "SUSE Linux Enterprise High Performance Computing 15 SP3-LTSS:libisccfg1600-9.16.6-150300.22.27.1",
            "SUSE Linux Enterprise High Performance Computing 15 SP3-LTSS:libns1604-9.16.6-150300.22.27.1",
            "SUSE Linux Enterprise High Performance Computing 15 SP3-LTSS:python3-bind-9.16.6-150300.22.27.1",
            "SUSE Linux Enterprise Module for Basesystem 15 SP4:libbind9-1600-9.16.6-150300.22.27.1",
            "SUSE Linux Enterprise Module for Basesystem 15 SP4:libdns1605-9.16.6-150300.22.27.1",
            "SUSE Linux Enterprise Module for Basesystem 15 SP4:libirs1601-9.16.6-150300.22.27.1",
            "SUSE Linux Enterprise Module for Basesystem 15 SP4:libisc1606-9.16.6-150300.22.27.1",
            "SUSE Linux Enterprise Module for Basesystem 15 SP4:libisccc1600-9.16.6-150300.22.27.1",
            "SUSE Linux Enterprise Module for Basesystem 15 SP4:libisccfg1600-9.16.6-150300.22.27.1",
            "SUSE Linux Enterprise Module for Basesystem 15 SP4:libns1604-9.16.6-150300.22.27.1",
            "SUSE Linux Enterprise Real Time 15 SP3:bind-9.16.6-150300.22.27.1",
            "SUSE Linux Enterprise Real Time 15 SP3:bind-chrootenv-9.16.6-150300.22.27.1",
            "SUSE Linux Enterprise Real Time 15 SP3:bind-devel-9.16.6-150300.22.27.1",
            "SUSE Linux Enterprise Real Time 15 SP3:bind-doc-9.16.6-150300.22.27.1",
            "SUSE Linux Enterprise Real Time 15 SP3:bind-utils-9.16.6-150300.22.27.1",
            "SUSE Linux Enterprise Real Time 15 SP3:libbind9-1600-9.16.6-150300.22.27.1",
            "SUSE Linux Enterprise Real Time 15 SP3:libdns1605-9.16.6-150300.22.27.1",
            "SUSE Linux Enterprise Real Time 15 SP3:libirs-devel-9.16.6-150300.22.27.1",
            "SUSE Linux Enterprise Real Time 15 SP3:libirs1601-9.16.6-150300.22.27.1",
            "SUSE Linux Enterprise Real Time 15 SP3:libisc1606-9.16.6-150300.22.27.1",
            "SUSE Linux Enterprise Real Time 15 SP3:libisccc1600-9.16.6-150300.22.27.1",
            "SUSE Linux Enterprise Real Time 15 SP3:libisccfg1600-9.16.6-150300.22.27.1",
            "SUSE Linux Enterprise Real Time 15 SP3:libns1604-9.16.6-150300.22.27.1",
            "SUSE Linux Enterprise Real Time 15 SP3:python3-bind-9.16.6-150300.22.27.1",
            "SUSE Linux Enterprise Server 15 SP3-LTSS:bind-9.16.6-150300.22.27.1",
            "SUSE Linux Enterprise Server 15 SP3-LTSS:bind-chrootenv-9.16.6-150300.22.27.1",
            "SUSE Linux Enterprise Server 15 SP3-LTSS:bind-devel-9.16.6-150300.22.27.1",
            "SUSE Linux Enterprise Server 15 SP3-LTSS:bind-doc-9.16.6-150300.22.27.1",
            "SUSE Linux Enterprise Server 15 SP3-LTSS:bind-utils-9.16.6-150300.22.27.1",
            "SUSE Linux Enterprise Server 15 SP3-LTSS:libbind9-1600-9.16.6-150300.22.27.1",
            "SUSE Linux Enterprise Server 15 SP3-LTSS:libdns1605-9.16.6-150300.22.27.1",
            "SUSE Linux Enterprise Server 15 SP3-LTSS:libirs-devel-9.16.6-150300.22.27.1",
            "SUSE Linux Enterprise Server 15 SP3-LTSS:libirs1601-9.16.6-150300.22.27.1",
            "SUSE Linux Enterprise Server 15 SP3-LTSS:libisc1606-9.16.6-150300.22.27.1",
            "SUSE Linux Enterprise Server 15 SP3-LTSS:libisccc1600-9.16.6-150300.22.27.1",
            "SUSE Linux Enterprise Server 15 SP3-LTSS:libisccfg1600-9.16.6-150300.22.27.1",
            "SUSE Linux Enterprise Server 15 SP3-LTSS:libns1604-9.16.6-150300.22.27.1",
            "SUSE Linux Enterprise Server 15 SP3-LTSS:python3-bind-9.16.6-150300.22.27.1",
            "SUSE Linux Enterprise Server for SAP Applications 15 SP3:bind-9.16.6-150300.22.27.1",
            "SUSE Linux Enterprise Server for SAP Applications 15 SP3:bind-chrootenv-9.16.6-150300.22.27.1",
            "SUSE Linux Enterprise Server for SAP Applications 15 SP3:bind-devel-9.16.6-150300.22.27.1",
            "SUSE Linux Enterprise Server for SAP Applications 15 SP3:bind-doc-9.16.6-150300.22.27.1",
            "SUSE Linux Enterprise Server for SAP Applications 15 SP3:bind-utils-9.16.6-150300.22.27.1",
            "SUSE Linux Enterprise Server for SAP Applications 15 SP3:libbind9-1600-9.16.6-150300.22.27.1",
            "SUSE Linux Enterprise Server for SAP Applications 15 SP3:libdns1605-9.16.6-150300.22.27.1",
            "SUSE Linux Enterprise Server for SAP Applications 15 SP3:libirs-devel-9.16.6-150300.22.27.1",
            "SUSE Linux Enterprise Server for SAP Applications 15 SP3:libirs1601-9.16.6-150300.22.27.1",
            "SUSE Linux Enterprise Server for SAP Applications 15 SP3:libisc1606-9.16.6-150300.22.27.1",
            "SUSE Linux Enterprise Server for SAP Applications 15 SP3:libisccc1600-9.16.6-150300.22.27.1",
            "SUSE Linux Enterprise Server for SAP Applications 15 SP3:libisccfg1600-9.16.6-150300.22.27.1",
            "SUSE Linux Enterprise Server for SAP Applications 15 SP3:libns1604-9.16.6-150300.22.27.1",
            "SUSE Linux Enterprise Server for SAP Applications 15 SP3:python3-bind-9.16.6-150300.22.27.1",
            "SUSE Manager Proxy 4.2:bind-9.16.6-150300.22.27.1",
            "SUSE Manager Proxy 4.2:bind-chrootenv-9.16.6-150300.22.27.1",
            "SUSE Manager Proxy 4.2:bind-devel-9.16.6-150300.22.27.1",
            "SUSE Manager Proxy 4.2:bind-doc-9.16.6-150300.22.27.1",
            "SUSE Manager Proxy 4.2:bind-utils-9.16.6-150300.22.27.1",
            "SUSE Manager Proxy 4.2:libbind9-1600-9.16.6-150300.22.27.1",
            "SUSE Manager Proxy 4.2:libdns1605-9.16.6-150300.22.27.1",
            "SUSE Manager Proxy 4.2:libirs-devel-9.16.6-150300.22.27.1",
            "SUSE Manager Proxy 4.2:libirs1601-9.16.6-150300.22.27.1",
            "SUSE Manager Proxy 4.2:libisc1606-9.16.6-150300.22.27.1",
            "SUSE Manager Proxy 4.2:libisccc1600-9.16.6-150300.22.27.1",
            "SUSE Manager Proxy 4.2:libisccfg1600-9.16.6-150300.22.27.1",
            "SUSE Manager Proxy 4.2:libns1604-9.16.6-150300.22.27.1",
            "SUSE Manager Proxy 4.2:python3-bind-9.16.6-150300.22.27.1",
            "SUSE Manager Retail Branch Server 4.2:bind-9.16.6-150300.22.27.1",
            "SUSE Manager Retail Branch Server 4.2:bind-chrootenv-9.16.6-150300.22.27.1",
            "SUSE Manager Retail Branch Server 4.2:bind-devel-9.16.6-150300.22.27.1",
            "SUSE Manager Retail Branch Server 4.2:bind-doc-9.16.6-150300.22.27.1",
            "SUSE Manager Retail Branch Server 4.2:bind-utils-9.16.6-150300.22.27.1",
            "SUSE Manager Retail Branch Server 4.2:libbind9-1600-9.16.6-150300.22.27.1",
            "SUSE Manager Retail Branch Server 4.2:libdns1605-9.16.6-150300.22.27.1",
            "SUSE Manager Retail Branch Server 4.2:libirs-devel-9.16.6-150300.22.27.1",
            "SUSE Manager Retail Branch Server 4.2:libirs1601-9.16.6-150300.22.27.1",
            "SUSE Manager Retail Branch Server 4.2:libisc1606-9.16.6-150300.22.27.1",
            "SUSE Manager Retail Branch Server 4.2:libisccc1600-9.16.6-150300.22.27.1",
            "SUSE Manager Retail Branch Server 4.2:libisccfg1600-9.16.6-150300.22.27.1",
            "SUSE Manager Retail Branch Server 4.2:libns1604-9.16.6-150300.22.27.1",
            "SUSE Manager Retail Branch Server 4.2:python3-bind-9.16.6-150300.22.27.1",
            "SUSE Manager Server 4.2:bind-9.16.6-150300.22.27.1",
            "SUSE Manager Server 4.2:bind-chrootenv-9.16.6-150300.22.27.1",
            "SUSE Manager Server 4.2:bind-devel-9.16.6-150300.22.27.1",
            "SUSE Manager Server 4.2:bind-doc-9.16.6-150300.22.27.1",
            "SUSE Manager Server 4.2:bind-utils-9.16.6-150300.22.27.1",
            "SUSE Manager Server 4.2:libbind9-1600-9.16.6-150300.22.27.1",
            "SUSE Manager Server 4.2:libdns1605-9.16.6-150300.22.27.1",
            "SUSE Manager Server 4.2:libirs-devel-9.16.6-150300.22.27.1",
            "SUSE Manager Server 4.2:libirs1601-9.16.6-150300.22.27.1",
            "SUSE Manager Server 4.2:libisc1606-9.16.6-150300.22.27.1",
            "SUSE Manager Server 4.2:libisccc1600-9.16.6-150300.22.27.1",
            "SUSE Manager Server 4.2:libisccfg1600-9.16.6-150300.22.27.1",
            "SUSE Manager Server 4.2:libns1604-9.16.6-150300.22.27.1",
            "SUSE Manager Server 4.2:python3-bind-9.16.6-150300.22.27.1",
            "openSUSE Leap 15.4:bind-chrootenv-9.16.6-150300.22.27.1",
            "openSUSE Leap 15.4:bind-devel-9.16.6-150300.22.27.1",
            "openSUSE Leap 15.4:libbind9-1600-9.16.6-150300.22.27.1",
            "openSUSE Leap 15.4:libdns1605-9.16.6-150300.22.27.1",
            "openSUSE Leap 15.4:libirs-devel-9.16.6-150300.22.27.1",
            "openSUSE Leap 15.4:libirs1601-9.16.6-150300.22.27.1",
            "openSUSE Leap 15.4:libisc1606-9.16.6-150300.22.27.1",
            "openSUSE Leap 15.4:libisccc1600-9.16.6-150300.22.27.1",
            "openSUSE Leap 15.4:libisccfg1600-9.16.6-150300.22.27.1",
            "openSUSE Leap 15.4:libns1604-9.16.6-150300.22.27.1"
          ]
        }
      ],
      "CVSSScoreSets": {}
    }
  ]
}