{
  "Title": "Security update for shim",
  "Tracking": {
    "ID": "SUSE-SU-2023:1702-1",
    "Status": "Final",
    "Version": "1",
    "InitialReleaseDate": "2023-03-30T13:23:29Z",
    "CurrentReleaseDate": "2023-03-30T13:23:29Z",
    "RevisionHistory": [
      {
        "Number": "1",
        "Date": "2023-03-30T13:23:29Z",
        "Description": "current"
      }
    ]
  },
  "Notes": [
    {
      "Text": "Security update for shim",
      "Title": "Topic",
      "Type": "Summary"
    },
    {
      "Text": "This update for shim fixes the following issues:\n\n- Updated shim signature after shim 15.7 be signed back:\n  signature-sles.x86_64.asc, signature-sles.aarch64.asc (bsc#1198458)\n\n- Add POST_PROCESS_PE_FLAGS=-N to the build command in shim.spec to\n  disable the NX compatibility flag when using post-process-pe because\n  grub2 is not ready. (bsc#1205588)\n\n- Enable the NX compatibility flag by default. (jsc#PED-127) \n\nUpdate to 15.7 (bsc#1198458) (jsc#PED-127):\n\n- Make SBAT variable payload introspectable\n- Reference MokListRT instead of MokList\n- Add a link to the test plan in the readme.\n- [V3] Enable TDX measurement to RTMR register\n- Discard load-options that start with a NUL\n- Fixed load_cert_file bugs\n- Add -malign-double to IA32 compiler flags\n- pe: Fix image section entry-point validation\n- make-archive: Build reproducible tarball\n- mok: remove MokListTrusted from PCR 7\n\nOther fixes:\n\n- Support enhance shim measurement to TD RTMR. (jsc#PED-1273) \n\n- shim-install: ensure grub.cfg created is not overwritten after installing grub related files\n- Add logic to shim.spec to only set sbat policy when efivarfs is writeable.  (bsc#1201066)\n- Add logic to shim.spec for detecting --set-sbat-policy option before using mokutil to set sbat policy. (bsc#1202120)\n- Change the URL in SBAT section to mail:security@suse.de. (bsc#1193282)\n\nUpdate to 15.6 (bsc#1198458):\n\n- MokManager: removed Locate graphic output protocol fail error message\n- shim: implement SBAT verification for the shim_lock protocol\n- post-process-pe: Fix a missing return code check\n- Update github actions matrix to be more useful\n- post-process-pe: Fix format string warnings on 32-bit platforms\n- Allow MokListTrusted to be enabled by default\n- Re-add ARM AArch64 support\n- Use ASCII as fallback if Unicode Box Drawing characters fail\n- make: don't treat cert.S specially\n- shim: use SHIM_DEVEL_VERBOSE when built in devel mode\n- Break out of the inner sbat loop if we find the entry.\n- Support loading additional certificates\n- Add support for NX (W^X) mitigations.\n- Fix preserve_sbat_uefi_variable() logic\n- SBAT Policy latest should be a one-shot\n- pe: Fix a buffer overflow when SizeOfRawData \u003e VirtualSize\n- pe: Perform image verification earlier when loading grub\n- Update advertised sbat generation number for shim\n- Update SBAT generation requirements for 05/24/22\n- Also avoid CVE-2022-28737 in verify_image() by @vathpela\n\nUpdate to 15.5 (bsc#1198458):\n\n- Broken ia32 relocs and an unimportant submodule change.\n- mok: allocate MOK config table as BootServicesData\n- Don't call QueryVariableInfo() on EFI 1.10 machines (bsc#1187260)\n- Relax the check for import_mok_state()  (bsc#1185261)\n- SBAT.md: trivial changes\n- shim: another attempt to fix load options handling\n- Add tests for our load options parsing.\n- arm/aa64: fix the size of .rela* sections\n- mok: fix potential buffer overrun in import_mok_state\n- mok: relax the maximum variable size check\n- Don't unhook ExitBootServices when EBS protection is disabled\n- fallback: find_boot_option() needs to return the index for the boot entry in optnum\n- httpboot: Ignore case when checking HTTP headers\n- Fallback allocation errors\n- shim: avoid BOOTx64.EFI in message on other architectures\n- str: remove duplicate parameter check\n- fallback: add compile option FALLBACK_NONINTERACTIVE\n- Test mok mirror\n- Modify sbat.md to help with readability.\n- csv: detect end of csv file correctly\n- Specify that the .sbat section is ASCII not UTF-8\n- tests: add 'include-fixed' GCC directory to include directories\n- pe: simplify generate_hash()\n- Don't make shim abort when TPM log event fails (RHBZ #2002265)\n- Fallback to default loader if parsed one does not exist\n- fallback: Fix for BootOrder crash when index returned\n- Better console checks\n- docs: update SBAT UEFI variable name\n- Don't parse load options if invoked from removable media path\n- fallback: fix fallback not passing arguments of the first boot option\n- shim: Don't stop forever at 'Secure Boot not enabled' notification\n- Allocate mokvar table in runtime memory.\n- Remove post-process-pe on 'make clean'\n- pe: missing perror argument\n\n\n- CVE-2022-28737: Fixed a buffer overflow when SizeOfRawData \u003e VirtualSize (bsc#1198458)\n\n- Add mokutil command to post script for setting sbat policy to latest mode\n  when the SbatPolicy-605dab50-e046-4300-abb6-3dd810dd8b23 is not created.\n  (bsc#1198458)\n\n- Updated vendor dbx binary and script (bsc#1198458)\n\n  - Updated dbx-cert.tar.xz and vendor-dbx-sles.bin for adding\n    SLES-UEFI-SIGN-Certificate-2021-05.crt to vendor dbx list.\n  - Updated dbx-cert.tar.xz and vendor-dbx-opensuse.bin for adding\n    openSUSE-UEFI-SIGN-Certificate-2021-05.crt to vendor dbx list.\n  - Updated vendor-dbx.bin for adding SLES-UEFI-SIGN-Certificate-2021-05.crt\n    and openSUSE-UEFI-SIGN-Certificate-2021-05.crt for testing environment.\n  - Updated generate-vendor-dbx.sh script for generating a vendor-dbx.bin\n    file which includes all .der for testing environment.\n\n- avoid buffer overflow when copying data to the MOK config table (bsc#1185232)\n- Disable exporting vendor-dbx to MokListXRT since writing a large RT variable could crash some machines (bsc#1185261)\n- ignore the odd LoadOptions length (bsc#1185232)\n- shim-install: reset def_shim_efi to 'shim.efi' if the given file doesn't exist\n- relax the maximum variable size check for u-boot (bsc#1185621)\n- handle ignore_db and user_insecure_mode correctly (bsc#1185441, bsc#1187071)\n\n- Split the keys in vendor-dbx.bin to vendor-dbx-sles and\n  vendor-dbx-opensuse for shim-sles and shim-opensuse to reduce\n  the size of MokListXRT (bsc#1185261) \n  + Also update generate-vendor-dbx.sh in dbx-cert.tar.xz\n",
      "Title": "Details",
      "Type": "General"
    },
    {
      "Text": "The CVRF data is provided by SUSE under the Creative Commons License 4.0 with Attribution (CC-BY-4.0).",
      "Title": "Terms of Use",
      "Type": "Legal Disclaimer"
    },
    {
      "Text": "Container suse/hpc/warewulf4-x86_64/sle-hpc-node:latest-2023-1702,Container suse/manager/5.0/x86_64/server:latest-2023-1702,Container suse/sle-micro-rancher/5.3:latest-2023-1702,Container suse/sle-micro-rancher/5.4:latest-2023-1702,Image SLES15-SP3-BYOS-Azure-2023-1702,Image SLES15-SP3-CHOST-BYOS-Azure-2023-1702,Image SLES15-SP3-CHOST-BYOS-EC2-2023-1702,Image SLES15-SP3-CHOST-BYOS-GCE-2023-1702,Image SLES15-SP3-CHOST-BYOS-SAP-CCloud-2023-1702,Image SLES15-SP3-HPC-BYOS-Azure-2023-1702,Image SLES15-SP3-Manager-4-2-Proxy-BYOS-Azure-2023-1702,Image SLES15-SP3-Manager-4-2-Proxy-BYOS-EC2-HVM-2023-1702,Image SLES15-SP3-Manager-4-2-Proxy-BYOS-GCE-2023-1702,Image SLES15-SP3-Manager-4-2-Server-BYOS-Azure-2023-1702,Image SLES15-SP3-Manager-4-2-Server-BYOS-EC2-HVM-2023-1702,Image SLES15-SP3-Manager-4-2-Server-BYOS-GCE-2023-1702,Image SLES15-SP3-Micro-5-1-BYOS-Azure-2023-1702,Image SLES15-SP3-Micro-5-1-BYOS-EC2-HVM-2023-1702,Image SLES15-SP3-Micro-5-1-BYOS-GCE-2023-1702,Image SLES15-SP3-Micro-5-2-BYOS-Azure-2023-1702,Image SLES15-SP3-Micro-5-2-BYOS-EC2-HVM-2023-1702,Image SLES15-SP3-Micro-5-2-BYOS-GCE-2023-1702,Image SLES15-SP3-SAP-Azure-LI-BYOS-Production-2023-1702,Image SLES15-SP3-SAP-Azure-VLI-BYOS-Production-2023-1702,Image SLES15-SP3-SAP-BYOS-Azure-2023-1702,Image SLES15-SP3-SAP-BYOS-EC2-HVM-2023-1702,Image SLES15-SP3-SAP-BYOS-GCE-2023-1702,Image SLES15-SP3-SAPCAL-Azure-2023-1702,Image SLES15-SP4-2023-1702,Image SLES15-SP4-Azure-Basic-2023-1702,Image SLES15-SP4-Azure-Standard-2023-1702,Image SLES15-SP4-BYOS-2023-1702,Image SLES15-SP4-BYOS-Azure-2023-1702,Image SLES15-SP4-BYOS-EC2-2023-1702,Image SLES15-SP4-BYOS-GCE-2023-1702,Image SLES15-SP4-CHOST-BYOS-2023-1702,Image SLES15-SP4-CHOST-BYOS-Azure-2023-1702,Image SLES15-SP4-CHOST-BYOS-EC2-2023-1702,Image SLES15-SP4-CHOST-BYOS-GCE-2023-1702,Image SLES15-SP4-CHOST-BYOS-SAP-CCloud-2023-1702,Image SLES15-SP4-EC2-2023-1702,Image SLES15-SP4-GCE-2023-1702,Image SLES15-SP4-HPC-2023-1702,Image SLES15-SP4-HPC-Azure-2023-1702,Image SLES15-SP4-HPC-BYOS-2023-1702,Image SLES15-SP4-HPC-BYOS-Azure-2023-1702,Image SLES15-SP4-HPC-BYOS-EC2-2023-1702,Image SLES15-SP4-HPC-BYOS-GCE-2023-1702,Image SLES15-SP4-HPC-EC2-2023-1702,Image SLES15-SP4-HPC-GCE-2023-1702,Image SLES15-SP4-Hardened-BYOS-2023-1702,Image SLES15-SP4-Hardened-BYOS-Azure-2023-1702,Image SLES15-SP4-Hardened-BYOS-EC2-2023-1702,Image SLES15-SP4-Hardened-BYOS-GCE-2023-1702,Image SLES15-SP4-Manager-Proxy-4-3-BYOS-2023-1702,Image SLES15-SP4-Manager-Proxy-4-3-BYOS-Azure-2023-1702,Image SLES15-SP4-Manager-Proxy-4-3-BYOS-EC2-2023-1702,Image SLES15-SP4-Manager-Proxy-4-3-BYOS-GCE-2023-1702,Image SLES15-SP4-Manager-Server-4-3-2023-1702,Image SLES15-SP4-Manager-Server-4-3-Azure-llc-2023-1702,Image SLES15-SP4-Manager-Server-4-3-Azure-ltd-2023-1702,Image SLES15-SP4-Manager-Server-4-3-BYOS-2023-1702,Image SLES15-SP4-Manager-Server-4-3-BYOS-Azure-2023-1702,Image SLES15-SP4-Manager-Server-4-3-BYOS-EC2-2023-1702,Image SLES15-SP4-Manager-Server-4-3-BYOS-GCE-2023-1702,Image SLES15-SP4-Manager-Server-4-3-EC2-llc-2023-1702,Image SLES15-SP4-Manager-Server-4-3-EC2-ltd-2023-1702,Image SLES15-SP4-Micro-5-3-2023-1702,Image SLES15-SP4-Micro-5-3-Azure-2023-1702,Image SLES15-SP4-Micro-5-3-BYOS-2023-1702,Image SLES15-SP4-Micro-5-3-BYOS-Azure-2023-1702,Image SLES15-SP4-Micro-5-3-BYOS-EC2-2023-1702,Image SLES15-SP4-Micro-5-3-BYOS-GCE-2023-1702,Image SLES15-SP4-Micro-5-3-EC2-2023-1702,Image SLES15-SP4-Micro-5-3-GCE-2023-1702,Image SLES15-SP4-Micro-5-4-2023-1702,Image SLES15-SP4-Micro-5-4-Azure-2023-1702,Image SLES15-SP4-Micro-5-4-BYOS-2023-1702,Image SLES15-SP4-Micro-5-4-BYOS-Azure-2023-1702,Image SLES15-SP4-Micro-5-4-BYOS-EC2-2023-1702,Image SLES15-SP4-Micro-5-4-BYOS-GCE-2023-1702,Image SLES15-SP4-Micro-5-4-EC2-2023-1702,Image SLES15-SP4-Micro-5-4-GCE-2023-1702,Image SLES15-SP4-SAP-2023-1702,Image SLES15-SP4-SAP-Azure-2023-1702,Image SLES15-SP4-SAP-Azure-LI-BYOS-2023-1702,Image SLES15-SP4-SAP-Azure-LI-BYOS-Production-2023-1702,Image SLES15-SP4-SAP-Azure-VLI-BYOS-2023-1702,Image SLES15-SP4-SAP-Azure-VLI-BYOS-Production-2023-1702,Image SLES15-SP4-SAP-BYOS-2023-1702,Image SLES15-SP4-SAP-BYOS-Azure-2023-1702,Image SLES15-SP4-SAP-BYOS-EC2-2023-1702,Image SLES15-SP4-SAP-BYOS-GCE-2023-1702,Image SLES15-SP4-SAP-EC2-2023-1702,Image SLES15-SP4-SAP-GCE-2023-1702,Image SLES15-SP4-SAP-Hardened-2023-1702,Image SLES15-SP4-SAP-Hardened-Azure-2023-1702,Image SLES15-SP4-SAP-Hardened-BYOS-2023-1702,Image SLES15-SP4-SAP-Hardened-BYOS-Azure-2023-1702,Image SLES15-SP4-SAP-Hardened-BYOS-EC2-2023-1702,Image SLES15-SP4-SAP-Hardened-BYOS-GCE-2023-1702,Image SLES15-SP4-SAP-Hardened-EC2-2023-1702,Image SLES15-SP4-SAP-Hardened-GCE-2023-1702,Image SLES15-SP4-SAPCAL-2023-1702,Image SLES15-SP4-SAPCAL-Azure-2023-1702,Image SLES15-SP4-SAPCAL-EC2-2023-1702,Image SLES15-SP4-SAPCAL-GCE-2023-1702,Image SLES15-SP4-SUSE-Rancher-Setup-BYOS-2023-1702,Image SLES15-SP4-SUSE-Rancher-Setup-BYOS-EC2-2023-1702,Image SLES15-SP5-Azure-Basic-2023-1702,Image SLES15-SP5-Azure-Standard-2023-1702,Image SLES15-SP5-BYOS-Azure-2023-1702,Image SLES15-SP5-BYOS-EC2-2023-1702,Image SLES15-SP5-BYOS-GCE-2023-1702,Image SLES15-SP5-CHOST-BYOS-Azure-2023-1702,Image SLES15-SP5-CHOST-BYOS-EC2-2023-1702,Image SLES15-SP5-CHOST-BYOS-GCE-2023-1702,Image SLES15-SP5-CHOST-BYOS-SAP-CCloud-2023-1702,Image SLES15-SP5-EC2-2023-1702,Image SLES15-SP5-GCE-2023-1702,Image SLES15-SP5-HPC-Azure-2023-1702,Image SLES15-SP5-HPC-BYOS-Azure-2023-1702,Image SLES15-SP5-HPC-BYOS-EC2-2023-1702,Image SLES15-SP5-HPC-BYOS-GCE-2023-1702,Image SLES15-SP5-HPC-EC2-2023-1702,Image SLES15-SP5-HPC-GCE-2023-1702,Image SLES15-SP5-Hardened-BYOS-Azure-2023-1702,Image SLES15-SP5-Hardened-BYOS-EC2-2023-1702,Image SLES15-SP5-Hardened-BYOS-GCE-2023-1702,Image SLES15-SP5-Micro-5-5-2023-1702,Image SLES15-SP5-Micro-5-5-Azure-2023-1702,Image SLES15-SP5-Micro-5-5-BYOS-2023-1702,Image SLES15-SP5-Micro-5-5-BYOS-Azure-2023-1702,Image SLES15-SP5-Micro-5-5-BYOS-EC2-2023-1702,Image SLES15-SP5-Micro-5-5-BYOS-GCE-2023-1702,Image SLES15-SP5-Micro-5-5-EC2-2023-1702,Image SLES15-SP5-Micro-5-5-GCE-2023-1702,Image SLES15-SP5-SAP-Azure-2023-1702,Image SLES15-SP5-SAP-Azure-LI-BYOS-2023-1702,Image SLES15-SP5-SAP-Azure-LI-BYOS-Production-2023-1702,Image SLES15-SP5-SAP-Azure-VLI-BYOS-2023-1702,Image SLES15-SP5-SAP-Azure-VLI-BYOS-Production-2023-1702,Image SLES15-SP5-SAP-BYOS-Azure-2023-1702,Image SLES15-SP5-SAP-BYOS-EC2-2023-1702,Image SLES15-SP5-SAP-BYOS-GCE-2023-1702,Image SLES15-SP5-SAP-EC2-2023-1702,Image SLES15-SP5-SAP-GCE-2023-1702,Image SLES15-SP5-SAP-Hardened-Azure-2023-1702,Image SLES15-SP5-SAP-Hardened-BYOS-Azure-2023-1702,Image SLES15-SP5-SAP-Hardened-BYOS-EC2-2023-1702,Image SLES15-SP5-SAP-Hardened-BYOS-GCE-2023-1702,Image SLES15-SP5-SAP-Hardened-EC2-2023-1702,Image SLES15-SP5-SAP-Hardened-GCE-2023-1702,Image SLES15-SP5-SAPCAL-Azure-2023-1702,Image SLES15-SP5-SAPCAL-EC2-2023-1702,Image SLES15-SP5-SAPCAL-GCE-2023-1702,SUSE-2023-1702,SUSE-SLE-Micro-5.3-2023-1702,SUSE-SLE-Micro-5.4-2023-1702,SUSE-SLE-Module-Basesystem-15-SP4-2023-1702,SUSE-SLE-Product-HPC-15-SP3-ESPOS-2023-1702,SUSE-SLE-Product-HPC-15-SP3-LTSS-2023-1702,SUSE-SLE-Product-RT-15-SP3-2023-1702,SUSE-SLE-Product-SLES-15-SP3-LTSS-2023-1702,SUSE-SLE-Product-SLES_SAP-15-SP3-2023-1702,SUSE-SLE-Product-SUSE-Manager-Proxy-4.2-2023-1702,SUSE-SLE-Product-SUSE-Manager-Server-4.2-2023-1702,SUSE-SUSE-MicroOS-5.1-2023-1702,SUSE-SUSE-MicroOS-5.2-2023-1702,SUSE-Storage-7.1-2023-1702,openSUSE-Leap-Micro-5.3-2023-1702,openSUSE-SLE-15.4-2023-1702",
      "Title": "Patchnames",
      "Type": "Details"
    }
  ],
  "ProductTree": {
    "Relationships": [
      {
        "ProductReference": "shim-15.7-150300.4.11.1",
        "RelatesToProductReference": "Container suse/hpc/warewulf4-x86_64/sle-hpc-node:latest",
        "RelationType": "Default Component Of"
      },
      {
        "ProductReference": "shim-15.7-150300.4.11.1",
        "RelatesToProductReference": "Container suse/manager/5.0/x86_64/server:latest",
        "RelationType": "Default Component Of"
      },
      {
        "ProductReference": "shim-15.7-150300.4.11.1",
        "RelatesToProductReference": "Container suse/sle-micro-rancher/5.3:latest",
        "RelationType": "Default Component Of"
      },
      {
        "ProductReference": "shim-15.7-150300.4.11.1",
        "RelatesToProductReference": "Container suse/sle-micro-rancher/5.4:latest",
        "RelationType": "Default Component Of"
      },
      {
        "ProductReference": "shim-15.7-150300.4.11.1",
        "RelatesToProductReference": "Image SLES15-SP3-BYOS-Azure",
        "RelationType": "Default Component Of"
      },
      {
        "ProductReference": "shim-15.7-150300.4.11.1",
        "RelatesToProductReference": "Image SLES15-SP3-CHOST-BYOS-Azure",
        "RelationType": "Default Component Of"
      },
      {
        "ProductReference": "shim-15.7-150300.4.11.1",
        "RelatesToProductReference": "Image SLES15-SP3-CHOST-BYOS-EC2",
        "RelationType": "Default Component Of"
      },
      {
        "ProductReference": "shim-15.7-150300.4.11.1",
        "RelatesToProductReference": "Image SLES15-SP3-CHOST-BYOS-GCE",
        "RelationType": "Default Component Of"
      },
      {
        "ProductReference": "shim-15.7-150300.4.11.1",
        "RelatesToProductReference": "Image SLES15-SP3-CHOST-BYOS-SAP-CCloud",
        "RelationType": "Default Component Of"
      },
      {
        "ProductReference": "shim-15.7-150300.4.11.1",
        "RelatesToProductReference": "Image SLES15-SP3-HPC-BYOS-Azure",
        "RelationType": "Default Component Of"
      },
      {
        "ProductReference": "shim-15.7-150300.4.11.1",
        "RelatesToProductReference": "Image SLES15-SP3-Manager-4-2-Proxy-BYOS-Azure",
        "RelationType": "Default Component Of"
      },
      {
        "ProductReference": "shim-15.7-150300.4.11.1",
        "RelatesToProductReference": "Image SLES15-SP3-Manager-4-2-Proxy-BYOS-EC2-HVM",
        "RelationType": "Default Component Of"
      },
      {
        "ProductReference": "shim-15.7-150300.4.11.1",
        "RelatesToProductReference": "Image SLES15-SP3-Manager-4-2-Proxy-BYOS-GCE",
        "RelationType": "Default Component Of"
      },
      {
        "ProductReference": "shim-15.7-150300.4.11.1",
        "RelatesToProductReference": "Image SLES15-SP3-Manager-4-2-Server-BYOS-Azure",
        "RelationType": "Default Component Of"
      },
      {
        "ProductReference": "shim-15.7-150300.4.11.1",
        "RelatesToProductReference": "Image SLES15-SP3-Manager-4-2-Server-BYOS-EC2-HVM",
        "RelationType": "Default Component Of"
      },
      {
        "ProductReference": "shim-15.7-150300.4.11.1",
        "RelatesToProductReference": "Image SLES15-SP3-Manager-4-2-Server-BYOS-GCE",
        "RelationType": "Default Component Of"
      },
      {
        "ProductReference": "shim-15.7-150300.4.11.1",
        "RelatesToProductReference": "Image SLES15-SP3-Micro-5-1-BYOS-Azure",
        "RelationType": "Default Component Of"
      },
      {
        "ProductReference": "shim-15.7-150300.4.11.1",
        "RelatesToProductReference": "Image SLES15-SP3-Micro-5-1-BYOS-EC2-HVM",
        "RelationType": "Default Component Of"
      },
      {
        "ProductReference": "shim-15.7-150300.4.11.1",
        "RelatesToProductReference": "Image SLES15-SP3-Micro-5-1-BYOS-GCE",
        "RelationType": "Default Component Of"
      },
      {
        "ProductReference": "shim-15.7-150300.4.11.1",
        "RelatesToProductReference": "Image SLES15-SP3-Micro-5-2-BYOS-Azure",
        "RelationType": "Default Component Of"
      },
      {
        "ProductReference": "shim-15.7-150300.4.11.1",
        "RelatesToProductReference": "Image SLES15-SP3-Micro-5-2-BYOS-EC2-HVM",
        "RelationType": "Default Component Of"
      },
      {
        "ProductReference": "shim-15.7-150300.4.11.1",
        "RelatesToProductReference": "Image SLES15-SP3-Micro-5-2-BYOS-GCE",
        "RelationType": "Default Component Of"
      },
      {
        "ProductReference": "shim-15.7-150300.4.11.1",
        "RelatesToProductReference": "Image SLES15-SP3-SAP-Azure-LI-BYOS-Production",
        "RelationType": "Default Component Of"
      },
      {
        "ProductReference": "shim-15.7-150300.4.11.1",
        "RelatesToProductReference": "Image SLES15-SP3-SAP-Azure-VLI-BYOS-Production",
        "RelationType": "Default Component Of"
      },
      {
        "ProductReference": "shim-15.7-150300.4.11.1",
        "RelatesToProductReference": "Image SLES15-SP3-SAP-BYOS-Azure",
        "RelationType": "Default Component Of"
      },
      {
        "ProductReference": "shim-15.7-150300.4.11.1",
        "RelatesToProductReference": "Image SLES15-SP3-SAP-BYOS-EC2-HVM",
        "RelationType": "Default Component Of"
      },
      {
        "ProductReference": "shim-15.7-150300.4.11.1",
        "RelatesToProductReference": "Image SLES15-SP3-SAP-BYOS-GCE",
        "RelationType": "Default Component Of"
      },
      {
        "ProductReference": "shim-15.7-150300.4.11.1",
        "RelatesToProductReference": "Image SLES15-SP3-SAPCAL-Azure",
        "RelationType": "Default Component Of"
      },
      {
        "ProductReference": "shim-15.7-150300.4.11.1",
        "RelatesToProductReference": "Image SLES15-SP4",
        "RelationType": "Default Component Of"
      },
      {
        "ProductReference": "shim-15.7-150300.4.11.1",
        "RelatesToProductReference": "Image SLES15-SP4-Azure-Basic",
        "RelationType": "Default Component Of"
      },
      {
        "ProductReference": "shim-15.7-150300.4.11.1",
        "RelatesToProductReference": "Image SLES15-SP4-Azure-Standard",
        "RelationType": "Default Component Of"
      },
      {
        "ProductReference": "shim-15.7-150300.4.11.1",
        "RelatesToProductReference": "Image SLES15-SP4-BYOS",
        "RelationType": "Default Component Of"
      },
      {
        "ProductReference": "shim-15.7-150300.4.11.1",
        "RelatesToProductReference": "Image SLES15-SP4-BYOS-Azure",
        "RelationType": "Default Component Of"
      },
      {
        "ProductReference": "shim-15.7-150300.4.11.1",
        "RelatesToProductReference": "Image SLES15-SP4-BYOS-EC2",
        "RelationType": "Default Component Of"
      },
      {
        "ProductReference": "shim-15.7-150300.4.11.1",
        "RelatesToProductReference": "Image SLES15-SP4-BYOS-GCE",
        "RelationType": "Default Component Of"
      },
      {
        "ProductReference": "shim-15.7-150300.4.11.1",
        "RelatesToProductReference": "Image SLES15-SP4-CHOST-BYOS",
        "RelationType": "Default Component Of"
      },
      {
        "ProductReference": "shim-15.7-150300.4.11.1",
        "RelatesToProductReference": "Image SLES15-SP4-CHOST-BYOS-Azure",
        "RelationType": "Default Component Of"
      },
      {
        "ProductReference": "shim-15.7-150300.4.11.1",
        "RelatesToProductReference": "Image SLES15-SP4-CHOST-BYOS-EC2",
        "RelationType": "Default Component Of"
      },
      {
        "ProductReference": "shim-15.7-150300.4.11.1",
        "RelatesToProductReference": "Image SLES15-SP4-CHOST-BYOS-GCE",
        "RelationType": "Default Component Of"
      },
      {
        "ProductReference": "shim-15.7-150300.4.11.1",
        "RelatesToProductReference": "Image SLES15-SP4-CHOST-BYOS-SAP-CCloud",
        "RelationType": "Default Component Of"
      },
      {
        "ProductReference": "shim-15.7-150300.4.11.1",
        "RelatesToProductReference": "Image SLES15-SP4-EC2",
        "RelationType": "Default Component Of"
      },
      {
        "ProductReference": "shim-15.7-150300.4.11.1",
        "RelatesToProductReference": "Image SLES15-SP4-GCE",
        "RelationType": "Default Component Of"
      },
      {
        "ProductReference": "shim-15.7-150300.4.11.1",
        "RelatesToProductReference": "Image SLES15-SP4-HPC",
        "RelationType": "Default Component Of"
      },
      {
        "ProductReference": "shim-15.7-150300.4.11.1",
        "RelatesToProductReference": "Image SLES15-SP4-HPC-Azure",
        "RelationType": "Default Component Of"
      },
      {
        "ProductReference": "shim-15.7-150300.4.11.1",
        "RelatesToProductReference": "Image SLES15-SP4-HPC-BYOS",
        "RelationType": "Default Component Of"
      },
      {
        "ProductReference": "shim-15.7-150300.4.11.1",
        "RelatesToProductReference": "Image SLES15-SP4-HPC-BYOS-Azure",
        "RelationType": "Default Component Of"
      },
      {
        "ProductReference": "shim-15.7-150300.4.11.1",
        "RelatesToProductReference": "Image SLES15-SP4-HPC-BYOS-EC2",
        "RelationType": "Default Component Of"
      },
      {
        "ProductReference": "shim-15.7-150300.4.11.1",
        "RelatesToProductReference": "Image SLES15-SP4-HPC-BYOS-GCE",
        "RelationType": "Default Component Of"
      },
      {
        "ProductReference": "shim-15.7-150300.4.11.1",
        "RelatesToProductReference": "Image SLES15-SP4-HPC-EC2",
        "RelationType": "Default Component Of"
      },
      {
        "ProductReference": "shim-15.7-150300.4.11.1",
        "RelatesToProductReference": "Image SLES15-SP4-HPC-GCE",
        "RelationType": "Default Component Of"
      },
      {
        "ProductReference": "shim-15.7-150300.4.11.1",
        "RelatesToProductReference": "Image SLES15-SP4-Hardened-BYOS",
        "RelationType": "Default Component Of"
      },
      {
        "ProductReference": "shim-15.7-150300.4.11.1",
        "RelatesToProductReference": "Image SLES15-SP4-Hardened-BYOS-Azure",
        "RelationType": "Default Component Of"
      },
      {
        "ProductReference": "shim-15.7-150300.4.11.1",
        "RelatesToProductReference": "Image SLES15-SP4-Hardened-BYOS-EC2",
        "RelationType": "Default Component Of"
      },
      {
        "ProductReference": "shim-15.7-150300.4.11.1",
        "RelatesToProductReference": "Image SLES15-SP4-Hardened-BYOS-GCE",
        "RelationType": "Default Component Of"
      },
      {
        "ProductReference": "shim-15.7-150300.4.11.1",
        "RelatesToProductReference": "Image SLES15-SP4-Manager-Proxy-4-3-BYOS",
        "RelationType": "Default Component Of"
      },
      {
        "ProductReference": "shim-15.7-150300.4.11.1",
        "RelatesToProductReference": "Image SLES15-SP4-Manager-Proxy-4-3-BYOS-Azure",
        "RelationType": "Default Component Of"
      },
      {
        "ProductReference": "shim-15.7-150300.4.11.1",
        "RelatesToProductReference": "Image SLES15-SP4-Manager-Proxy-4-3-BYOS-EC2",
        "RelationType": "Default Component Of"
      },
      {
        "ProductReference": "shim-15.7-150300.4.11.1",
        "RelatesToProductReference": "Image SLES15-SP4-Manager-Proxy-4-3-BYOS-GCE",
        "RelationType": "Default Component Of"
      },
      {
        "ProductReference": "shim-15.7-150300.4.11.1",
        "RelatesToProductReference": "Image SLES15-SP4-Manager-Server-4-3",
        "RelationType": "Default Component Of"
      },
      {
        "ProductReference": "shim-15.7-150300.4.11.1",
        "RelatesToProductReference": "Image SLES15-SP4-Manager-Server-4-3-Azure-llc",
        "RelationType": "Default Component Of"
      },
      {
        "ProductReference": "shim-15.7-150300.4.11.1",
        "RelatesToProductReference": "Image SLES15-SP4-Manager-Server-4-3-Azure-ltd",
        "RelationType": "Default Component Of"
      },
      {
        "ProductReference": "shim-15.7-150300.4.11.1",
        "RelatesToProductReference": "Image SLES15-SP4-Manager-Server-4-3-BYOS",
        "RelationType": "Default Component Of"
      },
      {
        "ProductReference": "shim-15.7-150300.4.11.1",
        "RelatesToProductReference": "Image SLES15-SP4-Manager-Server-4-3-BYOS-Azure",
        "RelationType": "Default Component Of"
      },
      {
        "ProductReference": "shim-15.7-150300.4.11.1",
        "RelatesToProductReference": "Image SLES15-SP4-Manager-Server-4-3-BYOS-EC2",
        "RelationType": "Default Component Of"
      },
      {
        "ProductReference": "shim-15.7-150300.4.11.1",
        "RelatesToProductReference": "Image SLES15-SP4-Manager-Server-4-3-BYOS-GCE",
        "RelationType": "Default Component Of"
      },
      {
        "ProductReference": "shim-15.7-150300.4.11.1",
        "RelatesToProductReference": "Image SLES15-SP4-Manager-Server-4-3-EC2-llc",
        "RelationType": "Default Component Of"
      },
      {
        "ProductReference": "shim-15.7-150300.4.11.1",
        "RelatesToProductReference": "Image SLES15-SP4-Manager-Server-4-3-EC2-ltd",
        "RelationType": "Default Component Of"
      },
      {
        "ProductReference": "shim-15.7-150300.4.11.1",
        "RelatesToProductReference": "Image SLES15-SP4-Micro-5-3",
        "RelationType": "Default Component Of"
      },
      {
        "ProductReference": "shim-15.7-150300.4.11.1",
        "RelatesToProductReference": "Image SLES15-SP4-Micro-5-3-Azure",
        "RelationType": "Default Component Of"
      },
      {
        "ProductReference": "shim-15.7-150300.4.11.1",
        "RelatesToProductReference": "Image SLES15-SP4-Micro-5-3-BYOS",
        "RelationType": "Default Component Of"
      },
      {
        "ProductReference": "shim-15.7-150300.4.11.1",
        "RelatesToProductReference": "Image SLES15-SP4-Micro-5-3-BYOS-Azure",
        "RelationType": "Default Component Of"
      },
      {
        "ProductReference": "shim-15.7-150300.4.11.1",
        "RelatesToProductReference": "Image SLES15-SP4-Micro-5-3-BYOS-EC2",
        "RelationType": "Default Component Of"
      },
      {
        "ProductReference": "shim-15.7-150300.4.11.1",
        "RelatesToProductReference": "Image SLES15-SP4-Micro-5-3-BYOS-GCE",
        "RelationType": "Default Component Of"
      },
      {
        "ProductReference": "shim-15.7-150300.4.11.1",
        "RelatesToProductReference": "Image SLES15-SP4-Micro-5-3-EC2",
        "RelationType": "Default Component Of"
      },
      {
        "ProductReference": "shim-15.7-150300.4.11.1",
        "RelatesToProductReference": "Image SLES15-SP4-Micro-5-3-GCE",
        "RelationType": "Default Component Of"
      },
      {
        "ProductReference": "shim-15.7-150300.4.11.1",
        "RelatesToProductReference": "Image SLES15-SP4-Micro-5-4",
        "RelationType": "Default Component Of"
      },
      {
        "ProductReference": "shim-15.7-150300.4.11.1",
        "RelatesToProductReference": "Image SLES15-SP4-Micro-5-4-Azure",
        "RelationType": "Default Component Of"
      },
      {
        "ProductReference": "shim-15.7-150300.4.11.1",
        "RelatesToProductReference": "Image SLES15-SP4-Micro-5-4-BYOS",
        "RelationType": "Default Component Of"
      },
      {
        "ProductReference": "shim-15.7-150300.4.11.1",
        "RelatesToProductReference": "Image SLES15-SP4-Micro-5-4-BYOS-Azure",
        "RelationType": "Default Component Of"
      },
      {
        "ProductReference": "shim-15.7-150300.4.11.1",
        "RelatesToProductReference": "Image SLES15-SP4-Micro-5-4-BYOS-EC2",
        "RelationType": "Default Component Of"
      },
      {
        "ProductReference": "shim-15.7-150300.4.11.1",
        "RelatesToProductReference": "Image SLES15-SP4-Micro-5-4-BYOS-GCE",
        "RelationType": "Default Component Of"
      },
      {
        "ProductReference": "shim-15.7-150300.4.11.1",
        "RelatesToProductReference": "Image SLES15-SP4-Micro-5-4-EC2",
        "RelationType": "Default Component Of"
      },
      {
        "ProductReference": "shim-15.7-150300.4.11.1",
        "RelatesToProductReference": "Image SLES15-SP4-Micro-5-4-GCE",
        "RelationType": "Default Component Of"
      },
      {
        "ProductReference": "shim-15.7-150300.4.11.1",
        "RelatesToProductReference": "Image SLES15-SP4-SAP",
        "RelationType": "Default Component Of"
      },
      {
        "ProductReference": "shim-15.7-150300.4.11.1",
        "RelatesToProductReference": "Image SLES15-SP4-SAP-Azure",
        "RelationType": "Default Component Of"
      },
      {
        "ProductReference": "shim-15.7-150300.4.11.1",
        "RelatesToProductReference": "Image SLES15-SP4-SAP-Azure-LI-BYOS",
        "RelationType": "Default Component Of"
      },
      {
        "ProductReference": "shim-15.7-150300.4.11.1",
        "RelatesToProductReference": "Image SLES15-SP4-SAP-Azure-LI-BYOS-Production",
        "RelationType": "Default Component Of"
      },
      {
        "ProductReference": "shim-15.7-150300.4.11.1",
        "RelatesToProductReference": "Image SLES15-SP4-SAP-Azure-VLI-BYOS",
        "RelationType": "Default Component Of"
      },
      {
        "ProductReference": "shim-15.7-150300.4.11.1",
        "RelatesToProductReference": "Image SLES15-SP4-SAP-Azure-VLI-BYOS-Production",
        "RelationType": "Default Component Of"
      },
      {
        "ProductReference": "shim-15.7-150300.4.11.1",
        "RelatesToProductReference": "Image SLES15-SP4-SAP-BYOS",
        "RelationType": "Default Component Of"
      },
      {
        "ProductReference": "shim-15.7-150300.4.11.1",
        "RelatesToProductReference": "Image SLES15-SP4-SAP-BYOS-Azure",
        "RelationType": "Default Component Of"
      },
      {
        "ProductReference": "shim-15.7-150300.4.11.1",
        "RelatesToProductReference": "Image SLES15-SP4-SAP-BYOS-EC2",
        "RelationType": "Default Component Of"
      },
      {
        "ProductReference": "shim-15.7-150300.4.11.1",
        "RelatesToProductReference": "Image SLES15-SP4-SAP-BYOS-GCE",
        "RelationType": "Default Component Of"
      },
      {
        "ProductReference": "shim-15.7-150300.4.11.1",
        "RelatesToProductReference": "Image SLES15-SP4-SAP-EC2",
        "RelationType": "Default Component Of"
      },
      {
        "ProductReference": "shim-15.7-150300.4.11.1",
        "RelatesToProductReference": "Image SLES15-SP4-SAP-GCE",
        "RelationType": "Default Component Of"
      },
      {
        "ProductReference": "shim-15.7-150300.4.11.1",
        "RelatesToProductReference": "Image SLES15-SP4-SAP-Hardened",
        "RelationType": "Default Component Of"
      },
      {
        "ProductReference": "shim-15.7-150300.4.11.1",
        "RelatesToProductReference": "Image SLES15-SP4-SAP-Hardened-Azure",
        "RelationType": "Default Component Of"
      },
      {
        "ProductReference": "shim-15.7-150300.4.11.1",
        "RelatesToProductReference": "Image SLES15-SP4-SAP-Hardened-BYOS",
        "RelationType": "Default Component Of"
      },
      {
        "ProductReference": "shim-15.7-150300.4.11.1",
        "RelatesToProductReference": "Image SLES15-SP4-SAP-Hardened-BYOS-Azure",
        "RelationType": "Default Component Of"
      },
      {
        "ProductReference": "shim-15.7-150300.4.11.1",
        "RelatesToProductReference": "Image SLES15-SP4-SAP-Hardened-BYOS-EC2",
        "RelationType": "Default Component Of"
      },
      {
        "ProductReference": "shim-15.7-150300.4.11.1",
        "RelatesToProductReference": "Image SLES15-SP4-SAP-Hardened-BYOS-GCE",
        "RelationType": "Default Component Of"
      },
      {
        "ProductReference": "shim-15.7-150300.4.11.1",
        "RelatesToProductReference": "Image SLES15-SP4-SAP-Hardened-EC2",
        "RelationType": "Default Component Of"
      },
      {
        "ProductReference": "shim-15.7-150300.4.11.1",
        "RelatesToProductReference": "Image SLES15-SP4-SAP-Hardened-GCE",
        "RelationType": "Default Component Of"
      },
      {
        "ProductReference": "shim-15.7-150300.4.11.1",
        "RelatesToProductReference": "Image SLES15-SP4-SAPCAL",
        "RelationType": "Default Component Of"
      },
      {
        "ProductReference": "shim-15.7-150300.4.11.1",
        "RelatesToProductReference": "Image SLES15-SP4-SAPCAL-Azure",
        "RelationType": "Default Component Of"
      },
      {
        "ProductReference": "shim-15.7-150300.4.11.1",
        "RelatesToProductReference": "Image SLES15-SP4-SAPCAL-EC2",
        "RelationType": "Default Component Of"
      },
      {
        "ProductReference": "shim-15.7-150300.4.11.1",
        "RelatesToProductReference": "Image SLES15-SP4-SAPCAL-GCE",
        "RelationType": "Default Component Of"
      },
      {
        "ProductReference": "shim-15.7-150300.4.11.1",
        "RelatesToProductReference": "Image SLES15-SP4-SUSE-Rancher-Setup-BYOS",
        "RelationType": "Default Component Of"
      },
      {
        "ProductReference": "shim-15.7-150300.4.11.1",
        "RelatesToProductReference": "Image SLES15-SP4-SUSE-Rancher-Setup-BYOS-EC2",
        "RelationType": "Default Component Of"
      },
      {
        "ProductReference": "shim-15.7-150300.4.11.1",
        "RelatesToProductReference": "Image SLES15-SP5-Azure-Basic",
        "RelationType": "Default Component Of"
      },
      {
        "ProductReference": "shim-15.7-150300.4.11.1",
        "RelatesToProductReference": "Image SLES15-SP5-Azure-Standard",
        "RelationType": "Default Component Of"
      },
      {
        "ProductReference": "shim-15.7-150300.4.11.1",
        "RelatesToProductReference": "Image SLES15-SP5-BYOS-Azure",
        "RelationType": "Default Component Of"
      },
      {
        "ProductReference": "shim-15.7-150300.4.11.1",
        "RelatesToProductReference": "Image SLES15-SP5-BYOS-EC2",
        "RelationType": "Default Component Of"
      },
      {
        "ProductReference": "shim-15.7-150300.4.11.1",
        "RelatesToProductReference": "Image SLES15-SP5-BYOS-GCE",
        "RelationType": "Default Component Of"
      },
      {
        "ProductReference": "shim-15.7-150300.4.11.1",
        "RelatesToProductReference": "Image SLES15-SP5-CHOST-BYOS-Azure",
        "RelationType": "Default Component Of"
      },
      {
        "ProductReference": "shim-15.7-150300.4.11.1",
        "RelatesToProductReference": "Image SLES15-SP5-CHOST-BYOS-EC2",
        "RelationType": "Default Component Of"
      },
      {
        "ProductReference": "shim-15.7-150300.4.11.1",
        "RelatesToProductReference": "Image SLES15-SP5-CHOST-BYOS-GCE",
        "RelationType": "Default Component Of"
      },
      {
        "ProductReference": "shim-15.7-150300.4.11.1",
        "RelatesToProductReference": "Image SLES15-SP5-CHOST-BYOS-SAP-CCloud",
        "RelationType": "Default Component Of"
      },
      {
        "ProductReference": "shim-15.7-150300.4.11.1",
        "RelatesToProductReference": "Image SLES15-SP5-EC2",
        "RelationType": "Default Component Of"
      },
      {
        "ProductReference": "shim-15.7-150300.4.11.1",
        "RelatesToProductReference": "Image SLES15-SP5-GCE",
        "RelationType": "Default Component Of"
      },
      {
        "ProductReference": "shim-15.7-150300.4.11.1",
        "RelatesToProductReference": "Image SLES15-SP5-HPC-Azure",
        "RelationType": "Default Component Of"
      },
      {
        "ProductReference": "shim-15.7-150300.4.11.1",
        "RelatesToProductReference": "Image SLES15-SP5-HPC-BYOS-Azure",
        "RelationType": "Default Component Of"
      },
      {
        "ProductReference": "shim-15.7-150300.4.11.1",
        "RelatesToProductReference": "Image SLES15-SP5-HPC-BYOS-EC2",
        "RelationType": "Default Component Of"
      },
      {
        "ProductReference": "shim-15.7-150300.4.11.1",
        "RelatesToProductReference": "Image SLES15-SP5-HPC-BYOS-GCE",
        "RelationType": "Default Component Of"
      },
      {
        "ProductReference": "shim-15.7-150300.4.11.1",
        "RelatesToProductReference": "Image SLES15-SP5-HPC-EC2",
        "RelationType": "Default Component Of"
      },
      {
        "ProductReference": "shim-15.7-150300.4.11.1",
        "RelatesToProductReference": "Image SLES15-SP5-HPC-GCE",
        "RelationType": "Default Component Of"
      },
      {
        "ProductReference": "shim-15.7-150300.4.11.1",
        "RelatesToProductReference": "Image SLES15-SP5-Hardened-BYOS-Azure",
        "RelationType": "Default Component Of"
      },
      {
        "ProductReference": "shim-15.7-150300.4.11.1",
        "RelatesToProductReference": "Image SLES15-SP5-Hardened-BYOS-EC2",
        "RelationType": "Default Component Of"
      },
      {
        "ProductReference": "shim-15.7-150300.4.11.1",
        "RelatesToProductReference": "Image SLES15-SP5-Hardened-BYOS-GCE",
        "RelationType": "Default Component Of"
      },
      {
        "ProductReference": "shim-15.7-150300.4.11.1",
        "RelatesToProductReference": "Image SLES15-SP5-Micro-5-5",
        "RelationType": "Default Component Of"
      },
      {
        "ProductReference": "shim-15.7-150300.4.11.1",
        "RelatesToProductReference": "Image SLES15-SP5-Micro-5-5-Azure",
        "RelationType": "Default Component Of"
      },
      {
        "ProductReference": "shim-15.7-150300.4.11.1",
        "RelatesToProductReference": "Image SLES15-SP5-Micro-5-5-BYOS",
        "RelationType": "Default Component Of"
      },
      {
        "ProductReference": "shim-15.7-150300.4.11.1",
        "RelatesToProductReference": "Image SLES15-SP5-Micro-5-5-BYOS-Azure",
        "RelationType": "Default Component Of"
      },
      {
        "ProductReference": "shim-15.7-150300.4.11.1",
        "RelatesToProductReference": "Image SLES15-SP5-Micro-5-5-BYOS-EC2",
        "RelationType": "Default Component Of"
      },
      {
        "ProductReference": "shim-15.7-150300.4.11.1",
        "RelatesToProductReference": "Image SLES15-SP5-Micro-5-5-BYOS-GCE",
        "RelationType": "Default Component Of"
      },
      {
        "ProductReference": "shim-15.7-150300.4.11.1",
        "RelatesToProductReference": "Image SLES15-SP5-Micro-5-5-EC2",
        "RelationType": "Default Component Of"
      },
      {
        "ProductReference": "shim-15.7-150300.4.11.1",
        "RelatesToProductReference": "Image SLES15-SP5-Micro-5-5-GCE",
        "RelationType": "Default Component Of"
      },
      {
        "ProductReference": "shim-15.7-150300.4.11.1",
        "RelatesToProductReference": "Image SLES15-SP5-SAP-Azure",
        "RelationType": "Default Component Of"
      },
      {
        "ProductReference": "shim-15.7-150300.4.11.1",
        "RelatesToProductReference": "Image SLES15-SP5-SAP-Azure-LI-BYOS",
        "RelationType": "Default Component Of"
      },
      {
        "ProductReference": "shim-15.7-150300.4.11.1",
        "RelatesToProductReference": "Image SLES15-SP5-SAP-Azure-LI-BYOS-Production",
        "RelationType": "Default Component Of"
      },
      {
        "ProductReference": "shim-15.7-150300.4.11.1",
        "RelatesToProductReference": "Image SLES15-SP5-SAP-Azure-VLI-BYOS",
        "RelationType": "Default Component Of"
      },
      {
        "ProductReference": "shim-15.7-150300.4.11.1",
        "RelatesToProductReference": "Image SLES15-SP5-SAP-Azure-VLI-BYOS-Production",
        "RelationType": "Default Component Of"
      },
      {
        "ProductReference": "shim-15.7-150300.4.11.1",
        "RelatesToProductReference": "Image SLES15-SP5-SAP-BYOS-Azure",
        "RelationType": "Default Component Of"
      },
      {
        "ProductReference": "shim-15.7-150300.4.11.1",
        "RelatesToProductReference": "Image SLES15-SP5-SAP-BYOS-EC2",
        "RelationType": "Default Component Of"
      },
      {
        "ProductReference": "shim-15.7-150300.4.11.1",
        "RelatesToProductReference": "Image SLES15-SP5-SAP-BYOS-GCE",
        "RelationType": "Default Component Of"
      },
      {
        "ProductReference": "shim-15.7-150300.4.11.1",
        "RelatesToProductReference": "Image SLES15-SP5-SAP-EC2",
        "RelationType": "Default Component Of"
      },
      {
        "ProductReference": "shim-15.7-150300.4.11.1",
        "RelatesToProductReference": "Image SLES15-SP5-SAP-GCE",
        "RelationType": "Default Component Of"
      },
      {
        "ProductReference": "shim-15.7-150300.4.11.1",
        "RelatesToProductReference": "Image SLES15-SP5-SAP-Hardened-Azure",
        "RelationType": "Default Component Of"
      },
      {
        "ProductReference": "shim-15.7-150300.4.11.1",
        "RelatesToProductReference": "Image SLES15-SP5-SAP-Hardened-BYOS-Azure",
        "RelationType": "Default Component Of"
      },
      {
        "ProductReference": "shim-15.7-150300.4.11.1",
        "RelatesToProductReference": "Image SLES15-SP5-SAP-Hardened-BYOS-EC2",
        "RelationType": "Default Component Of"
      },
      {
        "ProductReference": "shim-15.7-150300.4.11.1",
        "RelatesToProductReference": "Image SLES15-SP5-SAP-Hardened-BYOS-GCE",
        "RelationType": "Default Component Of"
      },
      {
        "ProductReference": "shim-15.7-150300.4.11.1",
        "RelatesToProductReference": "Image SLES15-SP5-SAP-Hardened-EC2",
        "RelationType": "Default Component Of"
      },
      {
        "ProductReference": "shim-15.7-150300.4.11.1",
        "RelatesToProductReference": "Image SLES15-SP5-SAP-Hardened-GCE",
        "RelationType": "Default Component Of"
      },
      {
        "ProductReference": "shim-15.7-150300.4.11.1",
        "RelatesToProductReference": "Image SLES15-SP5-SAPCAL-Azure",
        "RelationType": "Default Component Of"
      },
      {
        "ProductReference": "shim-15.7-150300.4.11.1",
        "RelatesToProductReference": "Image SLES15-SP5-SAPCAL-EC2",
        "RelationType": "Default Component Of"
      },
      {
        "ProductReference": "shim-15.7-150300.4.11.1",
        "RelatesToProductReference": "Image SLES15-SP5-SAPCAL-GCE",
        "RelationType": "Default Component Of"
      },
      {
        "ProductReference": "shim-15.7-150300.4.11.1",
        "RelatesToProductReference": "SUSE Enterprise Storage 7.1",
        "RelationType": "Default Component Of"
      },
      {
        "ProductReference": "shim-15.7-150300.4.11.1",
        "RelatesToProductReference": "SUSE Linux Enterprise High Performance Computing 15 SP3-ESPOS",
        "RelationType": "Default Component Of"
      },
      {
        "ProductReference": "shim-15.7-150300.4.11.1",
        "RelatesToProductReference": "SUSE Linux Enterprise High Performance Computing 15 SP3-LTSS",
        "RelationType": "Default Component Of"
      },
      {
        "ProductReference": "shim-15.7-150300.4.11.1",
        "RelatesToProductReference": "SUSE Linux Enterprise Micro 5.1",
        "RelationType": "Default Component Of"
      },
      {
        "ProductReference": "shim-15.7-150300.4.11.1",
        "RelatesToProductReference": "SUSE Linux Enterprise Micro 5.2",
        "RelationType": "Default Component Of"
      },
      {
        "ProductReference": "shim-15.7-150300.4.11.1",
        "RelatesToProductReference": "SUSE Linux Enterprise Micro 5.3",
        "RelationType": "Default Component Of"
      },
      {
        "ProductReference": "shim-15.7-150300.4.11.1",
        "RelatesToProductReference": "SUSE Linux Enterprise Micro 5.4",
        "RelationType": "Default Component Of"
      },
      {
        "ProductReference": "shim-15.7-150300.4.11.1",
        "RelatesToProductReference": "SUSE Linux Enterprise Module for Basesystem 15 SP4",
        "RelationType": "Default Component Of"
      },
      {
        "ProductReference": "shim-15.7-150300.4.11.1",
        "RelatesToProductReference": "SUSE Linux Enterprise Real Time 15 SP3",
        "RelationType": "Default Component Of"
      },
      {
        "ProductReference": "shim-15.7-150300.4.11.1",
        "RelatesToProductReference": "SUSE Linux Enterprise Server 15 SP3-LTSS",
        "RelationType": "Default Component Of"
      },
      {
        "ProductReference": "shim-15.7-150300.4.11.1",
        "RelatesToProductReference": "SUSE Linux Enterprise Server for SAP Applications 15 SP3",
        "RelationType": "Default Component Of"
      },
      {
        "ProductReference": "shim-15.7-150300.4.11.1",
        "RelatesToProductReference": "SUSE Manager Proxy 4.2",
        "RelationType": "Default Component Of"
      },
      {
        "ProductReference": "shim-15.7-150300.4.11.1",
        "RelatesToProductReference": "SUSE Manager Server 4.2",
        "RelationType": "Default Component Of"
      },
      {
        "ProductReference": "shim-15.7-150300.4.11.1",
        "RelatesToProductReference": "openSUSE Leap 15.4",
        "RelationType": "Default Component Of"
      },
      {
        "ProductReference": "shim-15.7-150300.4.11.1",
        "RelatesToProductReference": "openSUSE Leap Micro 5.3",
        "RelationType": "Default Component Of"
      }
    ]
  },
  "References": [
    {
      "URL": "https://www.suse.com/support/update/announcement/2023/suse-su-20231702-1/",
      "Description": "Link for SUSE-SU-2023:1702-1"
    },
    {
      "URL": "https://lists.suse.com/pipermail/sle-updates/2023-March/028509.html",
      "Description": "E-Mail link for SUSE-SU-2023:1702-1"
    },
    {
      "URL": "https://www.suse.com/support/security/rating/",
      "Description": "SUSE Security Ratings"
    },
    {
      "URL": "https://bugzilla.suse.com/1185232",
      "Description": "SUSE Bug 1185232"
    },
    {
      "URL": "https://bugzilla.suse.com/1185261",
      "Description": "SUSE Bug 1185261"
    },
    {
      "URL": "https://bugzilla.suse.com/1185441",
      "Description": "SUSE Bug 1185441"
    },
    {
      "URL": "https://bugzilla.suse.com/1185621",
      "Description": "SUSE Bug 1185621"
    },
    {
      "URL": "https://bugzilla.suse.com/1187071",
      "Description": "SUSE Bug 1187071"
    },
    {
      "URL": "https://bugzilla.suse.com/1187260",
      "Description": "SUSE Bug 1187260"
    },
    {
      "URL": "https://bugzilla.suse.com/1193282",
      "Description": "SUSE Bug 1193282"
    },
    {
      "URL": "https://bugzilla.suse.com/1198458",
      "Description": "SUSE Bug 1198458"
    },
    {
      "URL": "https://bugzilla.suse.com/1201066",
      "Description": "SUSE Bug 1201066"
    },
    {
      "URL": "https://bugzilla.suse.com/1202120",
      "Description": "SUSE Bug 1202120"
    },
    {
      "URL": "https://bugzilla.suse.com/1205588",
      "Description": "SUSE Bug 1205588"
    },
    {
      "URL": "https://www.suse.com/security/cve/CVE-2022-28737/",
      "Description": "SUSE CVE CVE-2022-28737 page"
    }
  ],
  "Vulnerabilities": [
    {
      "CVE": "CVE-2022-28737",
      "Description": "There's a possible overflow in handle_image() when shim tries to load and execute crafted EFI executables; The handle_image() function takes into account the SizeOfRawData field from each section to be loaded. An attacker can leverage this to perform out-of-bound writes into memory. Arbitrary code execution is not discarded in such scenario.",
      "Threats": [
        {
          "Type": "Impact",
          "Severity": "important"
        }
      ],
      "References": [
        {
          "URL": "https://www.suse.com/security/cve/CVE-2022-28737.html",
          "Description": "CVE-2022-28737"
        },
        {
          "URL": "https://bugzilla.suse.com/1198458",
          "Description": "SUSE Bug 1198458"
        },
        {
          "URL": "https://bugzilla.suse.com/1205065",
          "Description": "SUSE Bug 1205065"
        },
        {
          "URL": "https://bugzilla.suse.com/1205066",
          "Description": "SUSE Bug 1205066"
        },
        {
          "URL": "https://bugzilla.suse.com/1205831",
          "Description": "SUSE Bug 1205831"
        }
      ],
      "ProductStatuses": [
        {
          "Type": "Fixed",
          "ProductID": [
            "Container suse/hpc/warewulf4-x86_64/sle-hpc-node:latest:shim-15.7-150300.4.11.1",
            "Container suse/manager/5.0/x86_64/server:latest:shim-15.7-150300.4.11.1",
            "Container suse/sle-micro-rancher/5.3:latest:shim-15.7-150300.4.11.1",
            "Container suse/sle-micro-rancher/5.4:latest:shim-15.7-150300.4.11.1",
            "Image SLES15-SP3-BYOS-Azure:shim-15.7-150300.4.11.1",
            "Image SLES15-SP3-CHOST-BYOS-Azure:shim-15.7-150300.4.11.1",
            "Image SLES15-SP3-CHOST-BYOS-EC2:shim-15.7-150300.4.11.1",
            "Image SLES15-SP3-CHOST-BYOS-GCE:shim-15.7-150300.4.11.1",
            "Image SLES15-SP3-CHOST-BYOS-SAP-CCloud:shim-15.7-150300.4.11.1",
            "Image SLES15-SP3-HPC-BYOS-Azure:shim-15.7-150300.4.11.1",
            "Image SLES15-SP3-Manager-4-2-Proxy-BYOS-Azure:shim-15.7-150300.4.11.1",
            "Image SLES15-SP3-Manager-4-2-Proxy-BYOS-EC2-HVM:shim-15.7-150300.4.11.1",
            "Image SLES15-SP3-Manager-4-2-Proxy-BYOS-GCE:shim-15.7-150300.4.11.1",
            "Image SLES15-SP3-Manager-4-2-Server-BYOS-Azure:shim-15.7-150300.4.11.1",
            "Image SLES15-SP3-Manager-4-2-Server-BYOS-EC2-HVM:shim-15.7-150300.4.11.1",
            "Image SLES15-SP3-Manager-4-2-Server-BYOS-GCE:shim-15.7-150300.4.11.1",
            "Image SLES15-SP3-Micro-5-1-BYOS-Azure:shim-15.7-150300.4.11.1",
            "Image SLES15-SP3-Micro-5-1-BYOS-EC2-HVM:shim-15.7-150300.4.11.1",
            "Image SLES15-SP3-Micro-5-1-BYOS-GCE:shim-15.7-150300.4.11.1",
            "Image SLES15-SP3-Micro-5-2-BYOS-Azure:shim-15.7-150300.4.11.1",
            "Image SLES15-SP3-Micro-5-2-BYOS-EC2-HVM:shim-15.7-150300.4.11.1",
            "Image SLES15-SP3-Micro-5-2-BYOS-GCE:shim-15.7-150300.4.11.1",
            "Image SLES15-SP3-SAP-Azure-LI-BYOS-Production:shim-15.7-150300.4.11.1",
            "Image SLES15-SP3-SAP-Azure-VLI-BYOS-Production:shim-15.7-150300.4.11.1",
            "Image SLES15-SP3-SAP-BYOS-Azure:shim-15.7-150300.4.11.1",
            "Image SLES15-SP3-SAP-BYOS-EC2-HVM:shim-15.7-150300.4.11.1",
            "Image SLES15-SP3-SAP-BYOS-GCE:shim-15.7-150300.4.11.1",
            "Image SLES15-SP3-SAPCAL-Azure:shim-15.7-150300.4.11.1",
            "Image SLES15-SP4-Azure-Basic:shim-15.7-150300.4.11.1",
            "Image SLES15-SP4-Azure-Standard:shim-15.7-150300.4.11.1",
            "Image SLES15-SP4-BYOS-Azure:shim-15.7-150300.4.11.1",
            "Image SLES15-SP4-BYOS-EC2:shim-15.7-150300.4.11.1",
            "Image SLES15-SP4-BYOS-GCE:shim-15.7-150300.4.11.1",
            "Image SLES15-SP4-BYOS:shim-15.7-150300.4.11.1",
            "Image SLES15-SP4-CHOST-BYOS-Azure:shim-15.7-150300.4.11.1",
            "Image SLES15-SP4-CHOST-BYOS-EC2:shim-15.7-150300.4.11.1",
            "Image SLES15-SP4-CHOST-BYOS-GCE:shim-15.7-150300.4.11.1",
            "Image SLES15-SP4-CHOST-BYOS-SAP-CCloud:shim-15.7-150300.4.11.1",
            "Image SLES15-SP4-CHOST-BYOS:shim-15.7-150300.4.11.1",
            "Image SLES15-SP4-EC2:shim-15.7-150300.4.11.1",
            "Image SLES15-SP4-GCE:shim-15.7-150300.4.11.1",
            "Image SLES15-SP4-HPC-Azure:shim-15.7-150300.4.11.1",
            "Image SLES15-SP4-HPC-BYOS-Azure:shim-15.7-150300.4.11.1",
            "Image SLES15-SP4-HPC-BYOS-EC2:shim-15.7-150300.4.11.1",
            "Image SLES15-SP4-HPC-BYOS-GCE:shim-15.7-150300.4.11.1",
            "Image SLES15-SP4-HPC-BYOS:shim-15.7-150300.4.11.1",
            "Image SLES15-SP4-HPC-EC2:shim-15.7-150300.4.11.1",
            "Image SLES15-SP4-HPC-GCE:shim-15.7-150300.4.11.1",
            "Image SLES15-SP4-HPC:shim-15.7-150300.4.11.1",
            "Image SLES15-SP4-Hardened-BYOS-Azure:shim-15.7-150300.4.11.1",
            "Image SLES15-SP4-Hardened-BYOS-EC2:shim-15.7-150300.4.11.1",
            "Image SLES15-SP4-Hardened-BYOS-GCE:shim-15.7-150300.4.11.1",
            "Image SLES15-SP4-Hardened-BYOS:shim-15.7-150300.4.11.1",
            "Image SLES15-SP4-Manager-Proxy-4-3-BYOS-Azure:shim-15.7-150300.4.11.1",
            "Image SLES15-SP4-Manager-Proxy-4-3-BYOS-EC2:shim-15.7-150300.4.11.1",
            "Image SLES15-SP4-Manager-Proxy-4-3-BYOS-GCE:shim-15.7-150300.4.11.1",
            "Image SLES15-SP4-Manager-Proxy-4-3-BYOS:shim-15.7-150300.4.11.1",
            "Image SLES15-SP4-Manager-Server-4-3-Azure-llc:shim-15.7-150300.4.11.1",
            "Image SLES15-SP4-Manager-Server-4-3-Azure-ltd:shim-15.7-150300.4.11.1",
            "Image SLES15-SP4-Manager-Server-4-3-BYOS-Azure:shim-15.7-150300.4.11.1",
            "Image SLES15-SP4-Manager-Server-4-3-BYOS-EC2:shim-15.7-150300.4.11.1",
            "Image SLES15-SP4-Manager-Server-4-3-BYOS-GCE:shim-15.7-150300.4.11.1",
            "Image SLES15-SP4-Manager-Server-4-3-BYOS:shim-15.7-150300.4.11.1",
            "Image SLES15-SP4-Manager-Server-4-3-EC2-llc:shim-15.7-150300.4.11.1",
            "Image SLES15-SP4-Manager-Server-4-3-EC2-ltd:shim-15.7-150300.4.11.1",
            "Image SLES15-SP4-Manager-Server-4-3:shim-15.7-150300.4.11.1",
            "Image SLES15-SP4-Micro-5-3-Azure:shim-15.7-150300.4.11.1",
            "Image SLES15-SP4-Micro-5-3-BYOS-Azure:shim-15.7-150300.4.11.1",
            "Image SLES15-SP4-Micro-5-3-BYOS-EC2:shim-15.7-150300.4.11.1",
            "Image SLES15-SP4-Micro-5-3-BYOS-GCE:shim-15.7-150300.4.11.1",
            "Image SLES15-SP4-Micro-5-3-BYOS:shim-15.7-150300.4.11.1",
            "Image SLES15-SP4-Micro-5-3-EC2:shim-15.7-150300.4.11.1",
            "Image SLES15-SP4-Micro-5-3-GCE:shim-15.7-150300.4.11.1",
            "Image SLES15-SP4-Micro-5-3:shim-15.7-150300.4.11.1",
            "Image SLES15-SP4-Micro-5-4-Azure:shim-15.7-150300.4.11.1",
            "Image SLES15-SP4-Micro-5-4-BYOS-Azure:shim-15.7-150300.4.11.1",
            "Image SLES15-SP4-Micro-5-4-BYOS-EC2:shim-15.7-150300.4.11.1",
            "Image SLES15-SP4-Micro-5-4-BYOS-GCE:shim-15.7-150300.4.11.1",
            "Image SLES15-SP4-Micro-5-4-BYOS:shim-15.7-150300.4.11.1",
            "Image SLES15-SP4-Micro-5-4-EC2:shim-15.7-150300.4.11.1",
            "Image SLES15-SP4-Micro-5-4-GCE:shim-15.7-150300.4.11.1",
            "Image SLES15-SP4-Micro-5-4:shim-15.7-150300.4.11.1",
            "Image SLES15-SP4-SAP-Azure-LI-BYOS-Production:shim-15.7-150300.4.11.1",
            "Image SLES15-SP4-SAP-Azure-LI-BYOS:shim-15.7-150300.4.11.1",
            "Image SLES15-SP4-SAP-Azure-VLI-BYOS-Production:shim-15.7-150300.4.11.1",
            "Image SLES15-SP4-SAP-Azure-VLI-BYOS:shim-15.7-150300.4.11.1",
            "Image SLES15-SP4-SAP-Azure:shim-15.7-150300.4.11.1",
            "Image SLES15-SP4-SAP-BYOS-Azure:shim-15.7-150300.4.11.1",
            "Image SLES15-SP4-SAP-BYOS-EC2:shim-15.7-150300.4.11.1",
            "Image SLES15-SP4-SAP-BYOS-GCE:shim-15.7-150300.4.11.1",
            "Image SLES15-SP4-SAP-BYOS:shim-15.7-150300.4.11.1",
            "Image SLES15-SP4-SAP-EC2:shim-15.7-150300.4.11.1",
            "Image SLES15-SP4-SAP-GCE:shim-15.7-150300.4.11.1",
            "Image SLES15-SP4-SAP-Hardened-Azure:shim-15.7-150300.4.11.1",
            "Image SLES15-SP4-SAP-Hardened-BYOS-Azure:shim-15.7-150300.4.11.1",
            "Image SLES15-SP4-SAP-Hardened-BYOS-EC2:shim-15.7-150300.4.11.1",
            "Image SLES15-SP4-SAP-Hardened-BYOS-GCE:shim-15.7-150300.4.11.1",
            "Image SLES15-SP4-SAP-Hardened-BYOS:shim-15.7-150300.4.11.1",
            "Image SLES15-SP4-SAP-Hardened-EC2:shim-15.7-150300.4.11.1",
            "Image SLES15-SP4-SAP-Hardened-GCE:shim-15.7-150300.4.11.1",
            "Image SLES15-SP4-SAP-Hardened:shim-15.7-150300.4.11.1",
            "Image SLES15-SP4-SAP:shim-15.7-150300.4.11.1",
            "Image SLES15-SP4-SAPCAL-Azure:shim-15.7-150300.4.11.1",
            "Image SLES15-SP4-SAPCAL-EC2:shim-15.7-150300.4.11.1",
            "Image SLES15-SP4-SAPCAL-GCE:shim-15.7-150300.4.11.1",
            "Image SLES15-SP4-SAPCAL:shim-15.7-150300.4.11.1",
            "Image SLES15-SP4-SUSE-Rancher-Setup-BYOS-EC2:shim-15.7-150300.4.11.1",
            "Image SLES15-SP4-SUSE-Rancher-Setup-BYOS:shim-15.7-150300.4.11.1",
            "Image SLES15-SP4:shim-15.7-150300.4.11.1",
            "Image SLES15-SP5-Azure-Basic:shim-15.7-150300.4.11.1",
            "Image SLES15-SP5-Azure-Standard:shim-15.7-150300.4.11.1",
            "Image SLES15-SP5-BYOS-Azure:shim-15.7-150300.4.11.1",
            "Image SLES15-SP5-BYOS-EC2:shim-15.7-150300.4.11.1",
            "Image SLES15-SP5-BYOS-GCE:shim-15.7-150300.4.11.1",
            "Image SLES15-SP5-CHOST-BYOS-Azure:shim-15.7-150300.4.11.1",
            "Image SLES15-SP5-CHOST-BYOS-EC2:shim-15.7-150300.4.11.1",
            "Image SLES15-SP5-CHOST-BYOS-GCE:shim-15.7-150300.4.11.1",
            "Image SLES15-SP5-CHOST-BYOS-SAP-CCloud:shim-15.7-150300.4.11.1",
            "Image SLES15-SP5-EC2:shim-15.7-150300.4.11.1",
            "Image SLES15-SP5-GCE:shim-15.7-150300.4.11.1",
            "Image SLES15-SP5-HPC-Azure:shim-15.7-150300.4.11.1",
            "Image SLES15-SP5-HPC-BYOS-Azure:shim-15.7-150300.4.11.1",
            "Image SLES15-SP5-HPC-BYOS-EC2:shim-15.7-150300.4.11.1",
            "Image SLES15-SP5-HPC-BYOS-GCE:shim-15.7-150300.4.11.1",
            "Image SLES15-SP5-HPC-EC2:shim-15.7-150300.4.11.1",
            "Image SLES15-SP5-HPC-GCE:shim-15.7-150300.4.11.1",
            "Image SLES15-SP5-Hardened-BYOS-Azure:shim-15.7-150300.4.11.1",
            "Image SLES15-SP5-Hardened-BYOS-EC2:shim-15.7-150300.4.11.1",
            "Image SLES15-SP5-Hardened-BYOS-GCE:shim-15.7-150300.4.11.1",
            "Image SLES15-SP5-Micro-5-5-Azure:shim-15.7-150300.4.11.1",
            "Image SLES15-SP5-Micro-5-5-BYOS-Azure:shim-15.7-150300.4.11.1",
            "Image SLES15-SP5-Micro-5-5-BYOS-EC2:shim-15.7-150300.4.11.1",
            "Image SLES15-SP5-Micro-5-5-BYOS-GCE:shim-15.7-150300.4.11.1",
            "Image SLES15-SP5-Micro-5-5-BYOS:shim-15.7-150300.4.11.1",
            "Image SLES15-SP5-Micro-5-5-EC2:shim-15.7-150300.4.11.1",
            "Image SLES15-SP5-Micro-5-5-GCE:shim-15.7-150300.4.11.1",
            "Image SLES15-SP5-Micro-5-5:shim-15.7-150300.4.11.1",
            "Image SLES15-SP5-SAP-Azure-LI-BYOS-Production:shim-15.7-150300.4.11.1",
            "Image SLES15-SP5-SAP-Azure-LI-BYOS:shim-15.7-150300.4.11.1",
            "Image SLES15-SP5-SAP-Azure-VLI-BYOS-Production:shim-15.7-150300.4.11.1",
            "Image SLES15-SP5-SAP-Azure-VLI-BYOS:shim-15.7-150300.4.11.1",
            "Image SLES15-SP5-SAP-Azure:shim-15.7-150300.4.11.1",
            "Image SLES15-SP5-SAP-BYOS-Azure:shim-15.7-150300.4.11.1",
            "Image SLES15-SP5-SAP-BYOS-EC2:shim-15.7-150300.4.11.1",
            "Image SLES15-SP5-SAP-BYOS-GCE:shim-15.7-150300.4.11.1",
            "Image SLES15-SP5-SAP-EC2:shim-15.7-150300.4.11.1",
            "Image SLES15-SP5-SAP-GCE:shim-15.7-150300.4.11.1",
            "Image SLES15-SP5-SAP-Hardened-Azure:shim-15.7-150300.4.11.1",
            "Image SLES15-SP5-SAP-Hardened-BYOS-Azure:shim-15.7-150300.4.11.1",
            "Image SLES15-SP5-SAP-Hardened-BYOS-EC2:shim-15.7-150300.4.11.1",
            "Image SLES15-SP5-SAP-Hardened-BYOS-GCE:shim-15.7-150300.4.11.1",
            "Image SLES15-SP5-SAP-Hardened-EC2:shim-15.7-150300.4.11.1",
            "Image SLES15-SP5-SAP-Hardened-GCE:shim-15.7-150300.4.11.1",
            "Image SLES15-SP5-SAPCAL-Azure:shim-15.7-150300.4.11.1",
            "Image SLES15-SP5-SAPCAL-EC2:shim-15.7-150300.4.11.1",
            "Image SLES15-SP5-SAPCAL-GCE:shim-15.7-150300.4.11.1",
            "SUSE Enterprise Storage 7.1:shim-15.7-150300.4.11.1",
            "SUSE Linux Enterprise High Performance Computing 15 SP3-ESPOS:shim-15.7-150300.4.11.1",
            "SUSE Linux Enterprise High Performance Computing 15 SP3-LTSS:shim-15.7-150300.4.11.1",
            "SUSE Linux Enterprise Micro 5.1:shim-15.7-150300.4.11.1",
            "SUSE Linux Enterprise Micro 5.2:shim-15.7-150300.4.11.1",
            "SUSE Linux Enterprise Micro 5.3:shim-15.7-150300.4.11.1",
            "SUSE Linux Enterprise Micro 5.4:shim-15.7-150300.4.11.1",
            "SUSE Linux Enterprise Module for Basesystem 15 SP4:shim-15.7-150300.4.11.1",
            "SUSE Linux Enterprise Real Time 15 SP3:shim-15.7-150300.4.11.1",
            "SUSE Linux Enterprise Server 15 SP3-LTSS:shim-15.7-150300.4.11.1",
            "SUSE Linux Enterprise Server for SAP Applications 15 SP3:shim-15.7-150300.4.11.1",
            "SUSE Manager Proxy 4.2:shim-15.7-150300.4.11.1",
            "SUSE Manager Server 4.2:shim-15.7-150300.4.11.1",
            "openSUSE Leap 15.4:shim-15.7-150300.4.11.1",
            "openSUSE Leap Micro 5.3:shim-15.7-150300.4.11.1"
          ]
        }
      ],
      "CVSSScoreSets": {}
    }
  ]
}