{
  "Title": "Security update for the Linux Kernel (Live Patch 13 for SLE 15 SP4)",
  "Tracking": {
    "ID": "SUSE-SU-2023:3657-1",
    "Status": "Final",
    "Version": "1",
    "InitialReleaseDate": "2023-09-18T16:04:50Z",
    "CurrentReleaseDate": "2023-09-18T16:04:50Z",
    "RevisionHistory": [
      {
        "Number": "1",
        "Date": "2023-09-18T16:04:50Z",
        "Description": "current"
      }
    ]
  },
  "Notes": [
    {
      "Text": "Security update for the Linux Kernel (Live Patch 13 for SLE 15 SP4)",
      "Title": "Topic",
      "Type": "Summary"
    },
    {
      "Text": "This update for the Linux Kernel 5.14.21-150400_24_66 fixes several issues.\n\nThe following security issues were fixed:\n\n- CVE-2023-2156: Fixed a flaw in the networking subsystem within the handling of the RPL protocol (bsc#1211395).\n- CVE-2023-35001: Fixed an out-of-bounds memory access flaw in nft_byteorder that could allow a local attacker to escalate their privilege (bsc#1213063).\n- CVE-2023-1077: Fixed a type confusion in pick_next_rt_entity(), that could cause memory corruption (bsc#1208839).\n- CVE-2023-3090: Fixed a heap out-of-bounds write in the ipvlan network driver (bsc#1212849).\n",
      "Title": "Details",
      "Type": "General"
    },
    {
      "Text": "The CVRF data is provided by SUSE under the Creative Commons License 4.0 with Attribution (CC-BY-4.0).",
      "Title": "Terms of Use",
      "Type": "Legal Disclaimer"
    },
    {
      "Text": "SUSE-2023-3657,SUSE-SLE-Module-Live-Patching-15-SP4-2023-3657",
      "Title": "Patchnames",
      "Type": "Details"
    }
  ],
  "ProductTree": {
    "Relationships": [
      {
        "ProductReference": "kernel-livepatch-5_14_21-150400_24_66-default-3-150400.2.1",
        "RelatesToProductReference": "SUSE Linux Enterprise Live Patching 15 SP4",
        "RelationType": "Default Component Of"
      }
    ]
  },
  "References": [
    {
      "URL": "https://www.suse.com/support/update/announcement/2023/suse-su-20233657-1/",
      "Description": "Link for SUSE-SU-2023:3657-1"
    },
    {
      "URL": "https://lists.suse.com/pipermail/sle-security-updates/2023-September/016185.html",
      "Description": "E-Mail link for SUSE-SU-2023:3657-1"
    },
    {
      "URL": "https://www.suse.com/support/security/rating/",
      "Description": "SUSE Security Ratings"
    },
    {
      "URL": "https://bugzilla.suse.com/1208839",
      "Description": "SUSE Bug 1208839"
    },
    {
      "URL": "https://bugzilla.suse.com/1211395",
      "Description": "SUSE Bug 1211395"
    },
    {
      "URL": "https://bugzilla.suse.com/1212849",
      "Description": "SUSE Bug 1212849"
    },
    {
      "URL": "https://bugzilla.suse.com/1213063",
      "Description": "SUSE Bug 1213063"
    },
    {
      "URL": "https://www.suse.com/security/cve/CVE-2023-1077/",
      "Description": "SUSE CVE CVE-2023-1077 page"
    },
    {
      "URL": "https://www.suse.com/security/cve/CVE-2023-2156/",
      "Description": "SUSE CVE CVE-2023-2156 page"
    },
    {
      "URL": "https://www.suse.com/security/cve/CVE-2023-3090/",
      "Description": "SUSE CVE CVE-2023-3090 page"
    },
    {
      "URL": "https://www.suse.com/security/cve/CVE-2023-35001/",
      "Description": "SUSE CVE CVE-2023-35001 page"
    }
  ],
  "Vulnerabilities": [
    {
      "CVE": "CVE-2023-1077",
      "Description": "In the Linux kernel, pick_next_rt_entity() may return a type confused entry, not detected by the BUG_ON condition, as the confused entry will not be NULL, but list_head.The buggy error condition would lead to a type confused entry with the list head,which would then be used as a type confused sched_rt_entity,causing memory corruption.",
      "Threats": [
        {
          "Type": "Impact",
          "Severity": "important"
        }
      ],
      "References": [
        {
          "URL": "https://www.suse.com/security/cve/CVE-2023-1077.html",
          "Description": "CVE-2023-1077"
        },
        {
          "URL": "https://bugzilla.suse.com/1208600",
          "Description": "SUSE Bug 1208600"
        },
        {
          "URL": "https://bugzilla.suse.com/1208839",
          "Description": "SUSE Bug 1208839"
        },
        {
          "URL": "https://bugzilla.suse.com/1213841",
          "Description": "SUSE Bug 1213841"
        },
        {
          "URL": "https://bugzilla.suse.com/1213842",
          "Description": "SUSE Bug 1213842"
        }
      ],
      "ProductStatuses": [
        {
          "Type": "Fixed",
          "ProductID": [
            "SUSE Linux Enterprise Live Patching 15 SP4:kernel-livepatch-5_14_21-150400_24_66-default-3-150400.2.1"
          ]
        }
      ],
      "CVSSScoreSets": {}
    },
    {
      "CVE": "CVE-2023-2156",
      "Description": "A flaw was found in the networking subsystem of the Linux kernel within the handling of the RPL protocol. This issue results from the lack of proper handling of user-supplied data, which can lead to an assertion failure. This may allow an unauthenticated remote attacker to create a denial of service condition on the system.",
      "Threats": [
        {
          "Type": "Impact",
          "Severity": "important"
        }
      ],
      "References": [
        {
          "URL": "https://www.suse.com/security/cve/CVE-2023-2156.html",
          "Description": "CVE-2023-2156"
        },
        {
          "URL": "https://bugzilla.suse.com/1211131",
          "Description": "SUSE Bug 1211131"
        },
        {
          "URL": "https://bugzilla.suse.com/1211395",
          "Description": "SUSE Bug 1211395"
        }
      ],
      "ProductStatuses": [
        {
          "Type": "Fixed",
          "ProductID": [
            "SUSE Linux Enterprise Live Patching 15 SP4:kernel-livepatch-5_14_21-150400_24_66-default-3-150400.2.1"
          ]
        }
      ],
      "CVSSScoreSets": {}
    },
    {
      "CVE": "CVE-2023-3090",
      "Description": "A heap out-of-bounds write vulnerability in the Linux Kernel ipvlan network driver can be exploited to achieve local privilege escalation.\n\nThe out-of-bounds write is caused by missing skb-\u003ecb  initialization in the ipvlan network driver. The vulnerability is reachable if CONFIG_IPVLAN is enabled.\n\n\nWe recommend upgrading past commit 90cbed5247439a966b645b34eb0a2e037836ea8e.\n\n",
      "Threats": [
        {
          "Type": "Impact",
          "Severity": "important"
        }
      ],
      "References": [
        {
          "URL": "https://www.suse.com/security/cve/CVE-2023-3090.html",
          "Description": "CVE-2023-3090"
        },
        {
          "URL": "https://bugzilla.suse.com/1212842",
          "Description": "SUSE Bug 1212842"
        },
        {
          "URL": "https://bugzilla.suse.com/1212849",
          "Description": "SUSE Bug 1212849"
        },
        {
          "URL": "https://bugzilla.suse.com/1214128",
          "Description": "SUSE Bug 1214128"
        },
        {
          "URL": "https://bugzilla.suse.com/1219701",
          "Description": "SUSE Bug 1219701"
        }
      ],
      "ProductStatuses": [
        {
          "Type": "Fixed",
          "ProductID": [
            "SUSE Linux Enterprise Live Patching 15 SP4:kernel-livepatch-5_14_21-150400_24_66-default-3-150400.2.1"
          ]
        }
      ],
      "CVSSScoreSets": {}
    },
    {
      "CVE": "CVE-2023-35001",
      "Description": "Linux Kernel nftables Out-Of-Bounds Read/Write Vulnerability; nft_byteorder poorly handled vm register contents when CAP_NET_ADMIN is in any user or network namespace",
      "Threats": [
        {
          "Type": "Impact",
          "Severity": "important"
        }
      ],
      "References": [
        {
          "URL": "https://www.suse.com/security/cve/CVE-2023-35001.html",
          "Description": "CVE-2023-35001"
        },
        {
          "URL": "https://bugzilla.suse.com/1213059",
          "Description": "SUSE Bug 1213059"
        },
        {
          "URL": "https://bugzilla.suse.com/1213063",
          "Description": "SUSE Bug 1213063"
        },
        {
          "URL": "https://bugzilla.suse.com/1217531",
          "Description": "SUSE Bug 1217531"
        }
      ],
      "ProductStatuses": [
        {
          "Type": "Fixed",
          "ProductID": [
            "SUSE Linux Enterprise Live Patching 15 SP4:kernel-livepatch-5_14_21-150400_24_66-default-3-150400.2.1"
          ]
        }
      ],
      "CVSSScoreSets": {}
    }
  ]
}