{
  "Title": "Security update for nghttp2",
  "Tracking": {
    "ID": "SUSE-SU-2023:4200-1",
    "Status": "Final",
    "Version": "1",
    "InitialReleaseDate": "2023-10-25T10:07:49Z",
    "CurrentReleaseDate": "2023-10-25T10:07:49Z",
    "RevisionHistory": [
      {
        "Number": "1",
        "Date": "2023-10-25T10:07:49Z",
        "Description": "current"
      }
    ]
  },
  "Notes": [
    {
      "Text": "Security update for nghttp2",
      "Title": "Topic",
      "Type": "Summary"
    },
    {
      "Text": "This update for nghttp2 fixes the following issues:\n\n- CVE-2023-44487: Fixed HTTP/2 Rapid Reset attack. (bsc#1216174)\n",
      "Title": "Details",
      "Type": "General"
    },
    {
      "Text": "The CVRF data is provided by SUSE under the Creative Commons License 4.0 with Attribution (CC-BY-4.0).",
      "Title": "Terms of Use",
      "Type": "Legal Disclaimer"
    },
    {
      "Text": "Container bci/bci-init:15.4-2023-4200,Container bci/golang:1.20-openssl-2023-4200,Container bci/golang:1.21-2023-4200,Container bci/golang:latest-2023-4200,Container bci/node:16-2023-4200,Container bci/node:18-2023-4200,Container bci/nodejs:latest-2023-4200,Container bci/openjdk-devel:11-2023-4200,Container bci/openjdk-devel:latest-2023-4200,Container bci/php-apache:latest-2023-4200,Container bci/php-fpm:latest-2023-4200,Container bci/php:latest-2023-4200,Container bci/python:3-2023-4200,Container bci/python:latest-2023-4200,Container bci/ruby:latest-2023-4200,Container bci/rust:1.77-2023-4200,Container bci/rust:latest-2023-4200,Container rancher/elemental-teal-rt/5.4:latest-2023-4200,Container rancher/elemental-teal/5.4:latest-2023-4200,Container rancher/seedimage-builder:latest-2023-4200,Container suse/git:latest-2023-4200,Container suse/hpc/warewulf4-x86_64/sle-hpc-node:latest-2023-4200,Container suse/ltss/sle15.3/sle15:15.3-2023-4200,Container suse/ltss/sle15.4/sle15:15.4-2023-4200,Container suse/manager/4.3/proxy-httpd:latest-2023-4200,Container suse/manager/4.3/proxy-salt-broker:latest-2023-4200,Container suse/pcp:5-2023-4200,Container suse/postgres:14-2023-4200,Container suse/sle-micro-rancher/5.2:latest-2023-4200,Container suse/sle-micro-rancher/5.3:latest-2023-4200,Container suse/sle-micro-rancher/5.4:latest-2023-4200,Container suse/sle-micro/5.1/toolbox:latest-2023-4200,Container suse/sle-micro/5.2/toolbox:latest-2023-4200,Container suse/sle-micro/5.3/toolbox:latest-2023-4200,Container suse/sle-micro/5.4/toolbox:latest-2023-4200,Container suse/sle-micro/5.5/toolbox:latest-2023-4200,Container suse/sle-micro/5.5:latest-2023-4200,Container suse/sle-micro/base-5.5:latest-2023-4200,Container suse/sle-micro/kvm-5.5:latest-2023-4200,Container suse/sle-micro/rt-5.5:latest-2023-4200,Container suse/sle15:15.2-2023-4200,Container suse/sle15:15.3-2023-4200,Container suse/sle15:15.4-2023-4200,Container suse/sle15:15.5-2023-4200,Container trento/trento-web:latest-2023-4200,Image SLES15-SP2-BYOS-Azure-2023-4200,Image SLES15-SP2-HPC-BYOS-Azure-2023-4200,Image SLES15-SP2-SAP-Azure-2023-4200,Image SLES15-SP2-SAP-Azure-LI-BYOS-Production-2023-4200,Image SLES15-SP2-SAP-Azure-VLI-BYOS-Production-2023-4200,Image SLES15-SP2-SAP-BYOS-Azure-2023-4200,Image SLES15-SP2-SAP-BYOS-EC2-HVM-2023-4200,Image SLES15-SP2-SAP-BYOS-GCE-2023-4200,Image SLES15-SP2-SAP-EC2-HVM-2023-4200,Image SLES15-SP2-SAP-GCE-2023-4200,Image SLES15-SP3-BYOS-Azure-2023-4200,Image SLES15-SP3-HPC-BYOS-Azure-2023-4200,Image SLES15-SP3-Micro-5-1-BYOS-Azure-2023-4200,Image SLES15-SP3-Micro-5-1-BYOS-EC2-HVM-2023-4200,Image SLES15-SP3-Micro-5-1-BYOS-GCE-2023-4200,Image SLES15-SP3-Micro-5-2-BYOS-Azure-2023-4200,Image SLES15-SP3-Micro-5-2-BYOS-EC2-HVM-2023-4200,Image SLES15-SP3-Micro-5-2-BYOS-GCE-2023-4200,Image SLES15-SP3-SAP-Azure-LI-BYOS-Production-2023-4200,Image SLES15-SP3-SAP-Azure-VLI-BYOS-Production-2023-4200,Image SLES15-SP3-SAP-BYOS-Azure-2023-4200,Image SLES15-SP3-SAP-BYOS-EC2-HVM-2023-4200,Image SLES15-SP3-SAP-BYOS-GCE-2023-4200,Image SLES15-SP3-SAPCAL-Azure-2023-4200,Image SLES15-SP4-BYOS-2023-4200,Image SLES15-SP4-BYOS-Azure-2023-4200,Image SLES15-SP4-BYOS-EC2-2023-4200,Image SLES15-SP4-BYOS-GCE-2023-4200,Image SLES15-SP4-CHOST-BYOS-2023-4200,Image SLES15-SP4-CHOST-BYOS-Aliyun-2023-4200,Image SLES15-SP4-CHOST-BYOS-Azure-2023-4200,Image SLES15-SP4-CHOST-BYOS-EC2-2023-4200,Image SLES15-SP4-CHOST-BYOS-GCE-2023-4200,Image SLES15-SP4-CHOST-BYOS-SAP-CCloud-2023-4200,Image SLES15-SP4-HPC-BYOS-2023-4200,Image SLES15-SP4-HPC-BYOS-Azure-2023-4200,Image SLES15-SP4-HPC-BYOS-EC2-2023-4200,Image SLES15-SP4-HPC-BYOS-GCE-2023-4200,Image SLES15-SP4-HPC-EC2-2023-4200,Image SLES15-SP4-HPC-GCE-2023-4200,Image SLES15-SP4-Hardened-BYOS-2023-4200,Image SLES15-SP4-Hardened-BYOS-Azure-2023-4200,Image SLES15-SP4-Hardened-BYOS-EC2-2023-4200,Image SLES15-SP4-Hardened-BYOS-GCE-2023-4200,Image SLES15-SP4-Manager-Proxy-4-3-BYOS-2023-4200,Image SLES15-SP4-Manager-Proxy-4-3-BYOS-Azure-2023-4200,Image SLES15-SP4-Manager-Proxy-4-3-BYOS-EC2-2023-4200,Image SLES15-SP4-Manager-Proxy-4-3-BYOS-GCE-2023-4200,Image SLES15-SP4-Manager-Server-4-3-2023-4200,Image SLES15-SP4-Manager-Server-4-3-Azure-llc-2023-4200,Image SLES15-SP4-Manager-Server-4-3-Azure-ltd-2023-4200,Image SLES15-SP4-Manager-Server-4-3-BYOS-2023-4200,Image SLES15-SP4-Manager-Server-4-3-BYOS-Azure-2023-4200,Image SLES15-SP4-Manager-Server-4-3-BYOS-EC2-2023-4200,Image SLES15-SP4-Manager-Server-4-3-BYOS-GCE-2023-4200,Image SLES15-SP4-Manager-Server-4-3-EC2-llc-2023-4200,Image SLES15-SP4-Manager-Server-4-3-EC2-ltd-2023-4200,Image SLES15-SP4-Micro-5-3-2023-4200,Image SLES15-SP4-Micro-5-3-BYOS-2023-4200,Image SLES15-SP4-Micro-5-3-BYOS-Azure-2023-4200,Image SLES15-SP4-Micro-5-3-BYOS-EC2-2023-4200,Image SLES15-SP4-Micro-5-3-BYOS-GCE-2023-4200,Image SLES15-SP4-Micro-5-3-EC2-2023-4200,Image SLES15-SP4-Micro-5-4-2023-4200,Image SLES15-SP4-Micro-5-4-BYOS-2023-4200,Image SLES15-SP4-Micro-5-4-BYOS-Azure-2023-4200,Image SLES15-SP4-Micro-5-4-BYOS-EC2-2023-4200,Image SLES15-SP4-Micro-5-4-BYOS-GCE-2023-4200,Image SLES15-SP4-Micro-5-4-EC2-2023-4200,Image SLES15-SP4-Micro-5-4-GCE-2023-4200,Image SLES15-SP4-SAP-2023-4200,Image SLES15-SP4-SAP-Azure-2023-4200,Image SLES15-SP4-SAP-Azure-LI-BYOS-2023-4200,Image SLES15-SP4-SAP-Azure-LI-BYOS-Production-2023-4200,Image SLES15-SP4-SAP-Azure-VLI-BYOS-2023-4200,Image SLES15-SP4-SAP-Azure-VLI-BYOS-Production-2023-4200,Image SLES15-SP4-SAP-BYOS-2023-4200,Image SLES15-SP4-SAP-BYOS-Azure-2023-4200,Image SLES15-SP4-SAP-BYOS-EC2-2023-4200,Image SLES15-SP4-SAP-BYOS-GCE-2023-4200,Image SLES15-SP4-SAP-EC2-2023-4200,Image SLES15-SP4-SAP-GCE-2023-4200,Image SLES15-SP4-SAP-Hardened-2023-4200,Image SLES15-SP4-SAP-Hardened-Azure-2023-4200,Image SLES15-SP4-SAP-Hardened-BYOS-2023-4200,Image SLES15-SP4-SAP-Hardened-BYOS-Azure-2023-4200,Image SLES15-SP4-SAP-Hardened-BYOS-EC2-2023-4200,Image SLES15-SP4-SAP-Hardened-BYOS-GCE-2023-4200,Image SLES15-SP4-SAP-Hardened-GCE-2023-4200,Image SLES15-SP4-SAPCAL-2023-4200,Image SLES15-SP4-SAPCAL-Azure-2023-4200,Image SLES15-SP4-SAPCAL-EC2-2023-4200,Image SLES15-SP4-SAPCAL-GCE-2023-4200,Image SLES15-SP4-SUSE-Rancher-Setup-BYOS-2023-4200,Image SLES15-SP4-SUSE-Rancher-Setup-BYOS-EC2-2023-4200,Image SLES15-SP5-Azure-Basic-2023-4200,Image SLES15-SP5-Azure-Standard-2023-4200,Image SLES15-SP5-BYOS-Azure-2023-4200,Image SLES15-SP5-BYOS-EC2-2023-4200,Image SLES15-SP5-BYOS-GCE-2023-4200,Image SLES15-SP5-CHOST-BYOS-Aliyun-2023-4200,Image SLES15-SP5-CHOST-BYOS-Azure-2023-4200,Image SLES15-SP5-CHOST-BYOS-EC2-2023-4200,Image SLES15-SP5-CHOST-BYOS-GCE-2023-4200,Image SLES15-SP5-CHOST-BYOS-SAP-CCloud-2023-4200,Image SLES15-SP5-EC2-2023-4200,Image SLES15-SP5-GCE-2023-4200,Image SLES15-SP5-HPC-Azure-2023-4200,Image SLES15-SP5-HPC-BYOS-Azure-2023-4200,Image SLES15-SP5-HPC-BYOS-EC2-2023-4200,Image SLES15-SP5-HPC-BYOS-GCE-2023-4200,Image SLES15-SP5-Hardened-BYOS-Azure-2023-4200,Image SLES15-SP5-Hardened-BYOS-EC2-2023-4200,Image SLES15-SP5-Hardened-BYOS-GCE-2023-4200,Image SLES15-SP5-Micro-5-5-2023-4200,Image SLES15-SP5-Micro-5-5-Azure-2023-4200,Image SLES15-SP5-Micro-5-5-BYOS-2023-4200,Image SLES15-SP5-Micro-5-5-BYOS-Azure-2023-4200,Image SLES15-SP5-Micro-5-5-BYOS-EC2-2023-4200,Image SLES15-SP5-Micro-5-5-BYOS-GCE-2023-4200,Image SLES15-SP5-Micro-5-5-EC2-2023-4200,Image SLES15-SP5-Micro-5-5-GCE-2023-4200,Image SLES15-SP5-SAP-Azure-LI-BYOS-2023-4200,Image SLES15-SP5-SAP-Azure-LI-BYOS-Production-2023-4200,Image SLES15-SP5-SAP-Azure-VLI-BYOS-2023-4200,Image SLES15-SP5-SAP-Azure-VLI-BYOS-Production-2023-4200,Image SLES15-SP5-SAP-BYOS-Azure-2023-4200,Image SLES15-SP5-SAP-BYOS-EC2-2023-4200,Image SLES15-SP5-SAP-BYOS-GCE-2023-4200,Image SLES15-SP5-SAP-Hardened-Azure-2023-4200,Image SLES15-SP5-SAP-Hardened-BYOS-Azure-2023-4200,Image SLES15-SP5-SAP-Hardened-BYOS-EC2-2023-4200,Image SLES15-SP5-SAP-Hardened-BYOS-GCE-2023-4200,Image SLES15-SP5-SAP-Hardened-GCE-2023-4200,Image SLES15-SP5-SAPCAL-Azure-2023-4200,Image SLES15-SP5-SAPCAL-EC2-2023-4200,Image SLES15-SP5-SAPCAL-GCE-2023-4200,SUSE-2023-4200,SUSE-SLE-Micro-5.3-2023-4200,SUSE-SLE-Micro-5.4-2023-4200,SUSE-SLE-Micro-5.5-2023-4200,SUSE-SLE-Module-Basesystem-15-SP4-2023-4200,SUSE-SLE-Module-Basesystem-15-SP5-2023-4200,SUSE-SLE-Product-HPC-15-SP2-LTSS-2023-4200,SUSE-SLE-Product-HPC-15-SP3-ESPOS-2023-4200,SUSE-SLE-Product-HPC-15-SP3-LTSS-2023-4200,SUSE-SLE-Product-SLES-15-SP2-LTSS-2023-4200,SUSE-SLE-Product-SLES-15-SP3-LTSS-2023-4200,SUSE-SLE-Product-SLES_SAP-15-SP2-2023-4200,SUSE-SLE-Product-SLES_SAP-15-SP3-2023-4200,SUSE-SLE-Product-SUSE-Manager-Proxy-4.2-2023-4200,SUSE-SLE-Product-SUSE-Manager-Server-4.2-2023-4200,SUSE-SUSE-MicroOS-5.1-2023-4200,SUSE-SUSE-MicroOS-5.2-2023-4200,SUSE-Storage-7.1-2023-4200,openSUSE-Leap-Micro-5.3-2023-4200,openSUSE-Leap-Micro-5.4-2023-4200,openSUSE-SLE-15.4-2023-4200,openSUSE-SLE-15.5-2023-4200",
      "Title": "Patchnames",
      "Type": "Details"
    }
  ],
  "ProductTree": {
    "Relationships": [
      {
        "ProductReference": "libnghttp2-14-1.40.0-150200.12.1",
        "RelatesToProductReference": "Container bci/bci-init:15.4",
        "RelationType": "Default Component Of"
      },
      {
        "ProductReference": "libnghttp2-14-1.40.0-150200.12.1",
        "RelatesToProductReference": "Container bci/golang:1.20-openssl",
        "RelationType": "Default Component Of"
      },
      {
        "ProductReference": "libnghttp2-14-1.40.0-150200.12.1",
        "RelatesToProductReference": "Container bci/golang:1.21",
        "RelationType": "Default Component Of"
      },
      {
        "ProductReference": "libnghttp2-14-1.40.0-150200.12.1",
        "RelatesToProductReference": "Container bci/golang:latest",
        "RelationType": "Default Component Of"
      },
      {
        "ProductReference": "libnghttp2-14-1.40.0-150200.12.1",
        "RelatesToProductReference": "Container bci/node:16",
        "RelationType": "Default Component Of"
      },
      {
        "ProductReference": "libnghttp2-14-1.40.0-150200.12.1",
        "RelatesToProductReference": "Container bci/node:18",
        "RelationType": "Default Component Of"
      },
      {
        "ProductReference": "libnghttp2-14-1.40.0-150200.12.1",
        "RelatesToProductReference": "Container bci/nodejs:latest",
        "RelationType": "Default Component Of"
      },
      {
        "ProductReference": "libnghttp2-14-1.40.0-150200.12.1",
        "RelatesToProductReference": "Container bci/openjdk-devel:11",
        "RelationType": "Default Component Of"
      },
      {
        "ProductReference": "libnghttp2-14-1.40.0-150200.12.1",
        "RelatesToProductReference": "Container bci/openjdk-devel:latest",
        "RelationType": "Default Component Of"
      },
      {
        "ProductReference": "libnghttp2-14-1.40.0-150200.12.1",
        "RelatesToProductReference": "Container bci/php-apache:latest",
        "RelationType": "Default Component Of"
      },
      {
        "ProductReference": "libnghttp2-14-1.40.0-150200.12.1",
        "RelatesToProductReference": "Container bci/php-fpm:latest",
        "RelationType": "Default Component Of"
      },
      {
        "ProductReference": "libnghttp2-14-1.40.0-150200.12.1",
        "RelatesToProductReference": "Container bci/php:latest",
        "RelationType": "Default Component Of"
      },
      {
        "ProductReference": "libnghttp2-14-1.40.0-150200.12.1",
        "RelatesToProductReference": "Container bci/python:3",
        "RelationType": "Default Component Of"
      },
      {
        "ProductReference": "libnghttp2-14-1.40.0-150200.12.1",
        "RelatesToProductReference": "Container bci/python:latest",
        "RelationType": "Default Component Of"
      },
      {
        "ProductReference": "libnghttp2-14-1.40.0-150200.12.1",
        "RelatesToProductReference": "Container bci/ruby:latest",
        "RelationType": "Default Component Of"
      },
      {
        "ProductReference": "libnghttp2-14-1.40.0-150200.12.1",
        "RelatesToProductReference": "Container bci/rust:1.77",
        "RelationType": "Default Component Of"
      },
      {
        "ProductReference": "libnghttp2-14-1.40.0-150200.12.1",
        "RelatesToProductReference": "Container bci/rust:latest",
        "RelationType": "Default Component Of"
      },
      {
        "ProductReference": "libnghttp2-14-1.40.0-150200.12.1",
        "RelatesToProductReference": "Container rancher/elemental-teal-rt/5.4:latest",
        "RelationType": "Default Component Of"
      },
      {
        "ProductReference": "libnghttp2-14-1.40.0-150200.12.1",
        "RelatesToProductReference": "Container rancher/elemental-teal/5.4:latest",
        "RelationType": "Default Component Of"
      },
      {
        "ProductReference": "libnghttp2-14-1.40.0-150200.12.1",
        "RelatesToProductReference": "Container rancher/seedimage-builder:latest",
        "RelationType": "Default Component Of"
      },
      {
        "ProductReference": "libnghttp2-14-1.40.0-150200.12.1",
        "RelatesToProductReference": "Container suse/git:latest",
        "RelationType": "Default Component Of"
      },
      {
        "ProductReference": "libnghttp2-14-1.40.0-150200.12.1",
        "RelatesToProductReference": "Container suse/hpc/warewulf4-x86_64/sle-hpc-node:latest",
        "RelationType": "Default Component Of"
      },
      {
        "ProductReference": "libnghttp2-14-1.40.0-150200.12.1",
        "RelatesToProductReference": "Container suse/ltss/sle15.3/sle15:15.3",
        "RelationType": "Default Component Of"
      },
      {
        "ProductReference": "libnghttp2-14-1.40.0-150200.12.1",
        "RelatesToProductReference": "Container suse/ltss/sle15.4/sle15:15.4",
        "RelationType": "Default Component Of"
      },
      {
        "ProductReference": "libnghttp2-14-1.40.0-150200.12.1",
        "RelatesToProductReference": "Container suse/manager/4.3/proxy-httpd:latest",
        "RelationType": "Default Component Of"
      },
      {
        "ProductReference": "libnghttp2-14-1.40.0-150200.12.1",
        "RelatesToProductReference": "Container suse/manager/4.3/proxy-salt-broker:latest",
        "RelationType": "Default Component Of"
      },
      {
        "ProductReference": "libnghttp2-14-1.40.0-150200.12.1",
        "RelatesToProductReference": "Container suse/pcp:5",
        "RelationType": "Default Component Of"
      },
      {
        "ProductReference": "libnghttp2-14-1.40.0-150200.12.1",
        "RelatesToProductReference": "Container suse/postgres:14",
        "RelationType": "Default Component Of"
      },
      {
        "ProductReference": "libnghttp2-14-1.40.0-150200.12.1",
        "RelatesToProductReference": "Container suse/sle-micro-rancher/5.2:latest",
        "RelationType": "Default Component Of"
      },
      {
        "ProductReference": "libnghttp2-14-1.40.0-150200.12.1",
        "RelatesToProductReference": "Container suse/sle-micro-rancher/5.3:latest",
        "RelationType": "Default Component Of"
      },
      {
        "ProductReference": "libnghttp2-14-1.40.0-150200.12.1",
        "RelatesToProductReference": "Container suse/sle-micro-rancher/5.4:latest",
        "RelationType": "Default Component Of"
      },
      {
        "ProductReference": "libnghttp2-14-1.40.0-150200.12.1",
        "RelatesToProductReference": "Container suse/sle-micro/5.1/toolbox:latest",
        "RelationType": "Default Component Of"
      },
      {
        "ProductReference": "libnghttp2-14-1.40.0-150200.12.1",
        "RelatesToProductReference": "Container suse/sle-micro/5.2/toolbox:latest",
        "RelationType": "Default Component Of"
      },
      {
        "ProductReference": "libnghttp2-14-1.40.0-150200.12.1",
        "RelatesToProductReference": "Container suse/sle-micro/5.3/toolbox:latest",
        "RelationType": "Default Component Of"
      },
      {
        "ProductReference": "libnghttp2-14-1.40.0-150200.12.1",
        "RelatesToProductReference": "Container suse/sle-micro/5.4/toolbox:latest",
        "RelationType": "Default Component Of"
      },
      {
        "ProductReference": "libnghttp2-14-1.40.0-150200.12.1",
        "RelatesToProductReference": "Container suse/sle-micro/5.5/toolbox:latest",
        "RelationType": "Default Component Of"
      },
      {
        "ProductReference": "libnghttp2-14-1.40.0-150200.12.1",
        "RelatesToProductReference": "Container suse/sle-micro/5.5:latest",
        "RelationType": "Default Component Of"
      },
      {
        "ProductReference": "libnghttp2-14-1.40.0-150200.12.1",
        "RelatesToProductReference": "Container suse/sle-micro/base-5.5:latest",
        "RelationType": "Default Component Of"
      },
      {
        "ProductReference": "libnghttp2-14-1.40.0-150200.12.1",
        "RelatesToProductReference": "Container suse/sle-micro/kvm-5.5:latest",
        "RelationType": "Default Component Of"
      },
      {
        "ProductReference": "libnghttp2-14-1.40.0-150200.12.1",
        "RelatesToProductReference": "Container suse/sle-micro/rt-5.5:latest",
        "RelationType": "Default Component Of"
      },
      {
        "ProductReference": "libnghttp2-14-1.40.0-150200.12.1",
        "RelatesToProductReference": "Container suse/sle15:15.2",
        "RelationType": "Default Component Of"
      },
      {
        "ProductReference": "libnghttp2-14-1.40.0-150200.12.1",
        "RelatesToProductReference": "Container suse/sle15:15.3",
        "RelationType": "Default Component Of"
      },
      {
        "ProductReference": "libnghttp2-14-1.40.0-150200.12.1",
        "RelatesToProductReference": "Container suse/sle15:15.4",
        "RelationType": "Default Component Of"
      },
      {
        "ProductReference": "libnghttp2-14-1.40.0-150200.12.1",
        "RelatesToProductReference": "Container suse/sle15:15.5",
        "RelationType": "Default Component Of"
      },
      {
        "ProductReference": "libnghttp2-14-1.40.0-150200.12.1",
        "RelatesToProductReference": "Container trento/trento-web:latest",
        "RelationType": "Default Component Of"
      },
      {
        "ProductReference": "libnghttp2-14-1.40.0-150200.12.1",
        "RelatesToProductReference": "Image SLES15-SP2-BYOS-Azure",
        "RelationType": "Default Component Of"
      },
      {
        "ProductReference": "libnghttp2-14-1.40.0-150200.12.1",
        "RelatesToProductReference": "Image SLES15-SP2-HPC-BYOS-Azure",
        "RelationType": "Default Component Of"
      },
      {
        "ProductReference": "libnghttp2-14-1.40.0-150200.12.1",
        "RelatesToProductReference": "Image SLES15-SP2-SAP-Azure",
        "RelationType": "Default Component Of"
      },
      {
        "ProductReference": "libnghttp2-14-1.40.0-150200.12.1",
        "RelatesToProductReference": "Image SLES15-SP2-SAP-Azure-LI-BYOS-Production",
        "RelationType": "Default Component Of"
      },
      {
        "ProductReference": "libnghttp2-14-1.40.0-150200.12.1",
        "RelatesToProductReference": "Image SLES15-SP2-SAP-Azure-VLI-BYOS-Production",
        "RelationType": "Default Component Of"
      },
      {
        "ProductReference": "libnghttp2-14-1.40.0-150200.12.1",
        "RelatesToProductReference": "Image SLES15-SP2-SAP-BYOS-Azure",
        "RelationType": "Default Component Of"
      },
      {
        "ProductReference": "libnghttp2-14-1.40.0-150200.12.1",
        "RelatesToProductReference": "Image SLES15-SP2-SAP-BYOS-EC2-HVM",
        "RelationType": "Default Component Of"
      },
      {
        "ProductReference": "libnghttp2-14-1.40.0-150200.12.1",
        "RelatesToProductReference": "Image SLES15-SP2-SAP-BYOS-GCE",
        "RelationType": "Default Component Of"
      },
      {
        "ProductReference": "libnghttp2-14-1.40.0-150200.12.1",
        "RelatesToProductReference": "Image SLES15-SP2-SAP-EC2-HVM",
        "RelationType": "Default Component Of"
      },
      {
        "ProductReference": "libnghttp2-14-1.40.0-150200.12.1",
        "RelatesToProductReference": "Image SLES15-SP2-SAP-GCE",
        "RelationType": "Default Component Of"
      },
      {
        "ProductReference": "libnghttp2-14-1.40.0-150200.12.1",
        "RelatesToProductReference": "Image SLES15-SP3-BYOS-Azure",
        "RelationType": "Default Component Of"
      },
      {
        "ProductReference": "libnghttp2-14-1.40.0-150200.12.1",
        "RelatesToProductReference": "Image SLES15-SP3-HPC-BYOS-Azure",
        "RelationType": "Default Component Of"
      },
      {
        "ProductReference": "libnghttp2-14-1.40.0-150200.12.1",
        "RelatesToProductReference": "Image SLES15-SP3-Micro-5-1-BYOS-Azure",
        "RelationType": "Default Component Of"
      },
      {
        "ProductReference": "libnghttp2-14-1.40.0-150200.12.1",
        "RelatesToProductReference": "Image SLES15-SP3-Micro-5-1-BYOS-EC2-HVM",
        "RelationType": "Default Component Of"
      },
      {
        "ProductReference": "libnghttp2-14-1.40.0-150200.12.1",
        "RelatesToProductReference": "Image SLES15-SP3-Micro-5-1-BYOS-GCE",
        "RelationType": "Default Component Of"
      },
      {
        "ProductReference": "libnghttp2-14-1.40.0-150200.12.1",
        "RelatesToProductReference": "Image SLES15-SP3-Micro-5-2-BYOS-Azure",
        "RelationType": "Default Component Of"
      },
      {
        "ProductReference": "libnghttp2-14-1.40.0-150200.12.1",
        "RelatesToProductReference": "Image SLES15-SP3-Micro-5-2-BYOS-EC2-HVM",
        "RelationType": "Default Component Of"
      },
      {
        "ProductReference": "libnghttp2-14-1.40.0-150200.12.1",
        "RelatesToProductReference": "Image SLES15-SP3-Micro-5-2-BYOS-GCE",
        "RelationType": "Default Component Of"
      },
      {
        "ProductReference": "libnghttp2-14-1.40.0-150200.12.1",
        "RelatesToProductReference": "Image SLES15-SP3-SAP-Azure-LI-BYOS-Production",
        "RelationType": "Default Component Of"
      },
      {
        "ProductReference": "libnghttp2-14-1.40.0-150200.12.1",
        "RelatesToProductReference": "Image SLES15-SP3-SAP-Azure-VLI-BYOS-Production",
        "RelationType": "Default Component Of"
      },
      {
        "ProductReference": "libnghttp2-14-1.40.0-150200.12.1",
        "RelatesToProductReference": "Image SLES15-SP3-SAP-BYOS-Azure",
        "RelationType": "Default Component Of"
      },
      {
        "ProductReference": "libnghttp2-14-1.40.0-150200.12.1",
        "RelatesToProductReference": "Image SLES15-SP3-SAP-BYOS-EC2-HVM",
        "RelationType": "Default Component Of"
      },
      {
        "ProductReference": "libnghttp2-14-1.40.0-150200.12.1",
        "RelatesToProductReference": "Image SLES15-SP3-SAP-BYOS-GCE",
        "RelationType": "Default Component Of"
      },
      {
        "ProductReference": "libnghttp2-14-1.40.0-150200.12.1",
        "RelatesToProductReference": "Image SLES15-SP3-SAPCAL-Azure",
        "RelationType": "Default Component Of"
      },
      {
        "ProductReference": "libnghttp2-14-32bit-1.40.0-150200.12.1",
        "RelatesToProductReference": "Image SLES15-SP3-SAPCAL-Azure",
        "RelationType": "Default Component Of"
      },
      {
        "ProductReference": "libnghttp2-14-1.40.0-150200.12.1",
        "RelatesToProductReference": "Image SLES15-SP4-BYOS",
        "RelationType": "Default Component Of"
      },
      {
        "ProductReference": "libnghttp2-14-1.40.0-150200.12.1",
        "RelatesToProductReference": "Image SLES15-SP4-BYOS-Azure",
        "RelationType": "Default Component Of"
      },
      {
        "ProductReference": "libnghttp2-14-1.40.0-150200.12.1",
        "RelatesToProductReference": "Image SLES15-SP4-BYOS-EC2",
        "RelationType": "Default Component Of"
      },
      {
        "ProductReference": "libnghttp2-14-1.40.0-150200.12.1",
        "RelatesToProductReference": "Image SLES15-SP4-BYOS-GCE",
        "RelationType": "Default Component Of"
      },
      {
        "ProductReference": "libnghttp2-14-1.40.0-150200.12.1",
        "RelatesToProductReference": "Image SLES15-SP4-CHOST-BYOS",
        "RelationType": "Default Component Of"
      },
      {
        "ProductReference": "libnghttp2-14-1.40.0-150200.12.1",
        "RelatesToProductReference": "Image SLES15-SP4-CHOST-BYOS-Aliyun",
        "RelationType": "Default Component Of"
      },
      {
        "ProductReference": "libnghttp2-14-1.40.0-150200.12.1",
        "RelatesToProductReference": "Image SLES15-SP4-CHOST-BYOS-Azure",
        "RelationType": "Default Component Of"
      },
      {
        "ProductReference": "libnghttp2-14-1.40.0-150200.12.1",
        "RelatesToProductReference": "Image SLES15-SP4-CHOST-BYOS-EC2",
        "RelationType": "Default Component Of"
      },
      {
        "ProductReference": "libnghttp2-14-1.40.0-150200.12.1",
        "RelatesToProductReference": "Image SLES15-SP4-CHOST-BYOS-GCE",
        "RelationType": "Default Component Of"
      },
      {
        "ProductReference": "libnghttp2-14-1.40.0-150200.12.1",
        "RelatesToProductReference": "Image SLES15-SP4-CHOST-BYOS-SAP-CCloud",
        "RelationType": "Default Component Of"
      },
      {
        "ProductReference": "libnghttp2-14-1.40.0-150200.12.1",
        "RelatesToProductReference": "Image SLES15-SP4-HPC-BYOS",
        "RelationType": "Default Component Of"
      },
      {
        "ProductReference": "libnghttp2-14-1.40.0-150200.12.1",
        "RelatesToProductReference": "Image SLES15-SP4-HPC-BYOS-Azure",
        "RelationType": "Default Component Of"
      },
      {
        "ProductReference": "libnghttp2-14-1.40.0-150200.12.1",
        "RelatesToProductReference": "Image SLES15-SP4-HPC-BYOS-EC2",
        "RelationType": "Default Component Of"
      },
      {
        "ProductReference": "libnghttp2-14-1.40.0-150200.12.1",
        "RelatesToProductReference": "Image SLES15-SP4-HPC-BYOS-GCE",
        "RelationType": "Default Component Of"
      },
      {
        "ProductReference": "libnghttp2-14-1.40.0-150200.12.1",
        "RelatesToProductReference": "Image SLES15-SP4-HPC-EC2",
        "RelationType": "Default Component Of"
      },
      {
        "ProductReference": "libnghttp2-14-1.40.0-150200.12.1",
        "RelatesToProductReference": "Image SLES15-SP4-HPC-GCE",
        "RelationType": "Default Component Of"
      },
      {
        "ProductReference": "libnghttp2-14-1.40.0-150200.12.1",
        "RelatesToProductReference": "Image SLES15-SP4-Hardened-BYOS",
        "RelationType": "Default Component Of"
      },
      {
        "ProductReference": "libnghttp2-14-1.40.0-150200.12.1",
        "RelatesToProductReference": "Image SLES15-SP4-Hardened-BYOS-Azure",
        "RelationType": "Default Component Of"
      },
      {
        "ProductReference": "libnghttp2-14-1.40.0-150200.12.1",
        "RelatesToProductReference": "Image SLES15-SP4-Hardened-BYOS-EC2",
        "RelationType": "Default Component Of"
      },
      {
        "ProductReference": "libnghttp2-14-1.40.0-150200.12.1",
        "RelatesToProductReference": "Image SLES15-SP4-Hardened-BYOS-GCE",
        "RelationType": "Default Component Of"
      },
      {
        "ProductReference": "libnghttp2-14-1.40.0-150200.12.1",
        "RelatesToProductReference": "Image SLES15-SP4-Manager-Proxy-4-3-BYOS",
        "RelationType": "Default Component Of"
      },
      {
        "ProductReference": "libnghttp2-14-1.40.0-150200.12.1",
        "RelatesToProductReference": "Image SLES15-SP4-Manager-Proxy-4-3-BYOS-Azure",
        "RelationType": "Default Component Of"
      },
      {
        "ProductReference": "libnghttp2-14-1.40.0-150200.12.1",
        "RelatesToProductReference": "Image SLES15-SP4-Manager-Proxy-4-3-BYOS-EC2",
        "RelationType": "Default Component Of"
      },
      {
        "ProductReference": "libnghttp2-14-1.40.0-150200.12.1",
        "RelatesToProductReference": "Image SLES15-SP4-Manager-Proxy-4-3-BYOS-GCE",
        "RelationType": "Default Component Of"
      },
      {
        "ProductReference": "libnghttp2-14-1.40.0-150200.12.1",
        "RelatesToProductReference": "Image SLES15-SP4-Manager-Server-4-3",
        "RelationType": "Default Component Of"
      },
      {
        "ProductReference": "libnghttp2-14-1.40.0-150200.12.1",
        "RelatesToProductReference": "Image SLES15-SP4-Manager-Server-4-3-Azure-llc",
        "RelationType": "Default Component Of"
      },
      {
        "ProductReference": "libnghttp2-14-1.40.0-150200.12.1",
        "RelatesToProductReference": "Image SLES15-SP4-Manager-Server-4-3-Azure-ltd",
        "RelationType": "Default Component Of"
      },
      {
        "ProductReference": "libnghttp2-14-1.40.0-150200.12.1",
        "RelatesToProductReference": "Image SLES15-SP4-Manager-Server-4-3-BYOS",
        "RelationType": "Default Component Of"
      },
      {
        "ProductReference": "libnghttp2-14-1.40.0-150200.12.1",
        "RelatesToProductReference": "Image SLES15-SP4-Manager-Server-4-3-BYOS-Azure",
        "RelationType": "Default Component Of"
      },
      {
        "ProductReference": "libnghttp2-14-1.40.0-150200.12.1",
        "RelatesToProductReference": "Image SLES15-SP4-Manager-Server-4-3-BYOS-EC2",
        "RelationType": "Default Component Of"
      },
      {
        "ProductReference": "libnghttp2-14-1.40.0-150200.12.1",
        "RelatesToProductReference": "Image SLES15-SP4-Manager-Server-4-3-BYOS-GCE",
        "RelationType": "Default Component Of"
      },
      {
        "ProductReference": "libnghttp2-14-1.40.0-150200.12.1",
        "RelatesToProductReference": "Image SLES15-SP4-Manager-Server-4-3-EC2-llc",
        "RelationType": "Default Component Of"
      },
      {
        "ProductReference": "libnghttp2-14-1.40.0-150200.12.1",
        "RelatesToProductReference": "Image SLES15-SP4-Manager-Server-4-3-EC2-ltd",
        "RelationType": "Default Component Of"
      },
      {
        "ProductReference": "libnghttp2-14-1.40.0-150200.12.1",
        "RelatesToProductReference": "Image SLES15-SP4-Micro-5-3",
        "RelationType": "Default Component Of"
      },
      {
        "ProductReference": "libnghttp2-14-1.40.0-150200.12.1",
        "RelatesToProductReference": "Image SLES15-SP4-Micro-5-3-BYOS",
        "RelationType": "Default Component Of"
      },
      {
        "ProductReference": "libnghttp2-14-1.40.0-150200.12.1",
        "RelatesToProductReference": "Image SLES15-SP4-Micro-5-3-BYOS-Azure",
        "RelationType": "Default Component Of"
      },
      {
        "ProductReference": "libnghttp2-14-1.40.0-150200.12.1",
        "RelatesToProductReference": "Image SLES15-SP4-Micro-5-3-BYOS-EC2",
        "RelationType": "Default Component Of"
      },
      {
        "ProductReference": "libnghttp2-14-1.40.0-150200.12.1",
        "RelatesToProductReference": "Image SLES15-SP4-Micro-5-3-BYOS-GCE",
        "RelationType": "Default Component Of"
      },
      {
        "ProductReference": "libnghttp2-14-1.40.0-150200.12.1",
        "RelatesToProductReference": "Image SLES15-SP4-Micro-5-3-EC2",
        "RelationType": "Default Component Of"
      },
      {
        "ProductReference": "libnghttp2-14-1.40.0-150200.12.1",
        "RelatesToProductReference": "Image SLES15-SP4-Micro-5-4",
        "RelationType": "Default Component Of"
      },
      {
        "ProductReference": "libnghttp2-14-1.40.0-150200.12.1",
        "RelatesToProductReference": "Image SLES15-SP4-Micro-5-4-BYOS",
        "RelationType": "Default Component Of"
      },
      {
        "ProductReference": "libnghttp2-14-1.40.0-150200.12.1",
        "RelatesToProductReference": "Image SLES15-SP4-Micro-5-4-BYOS-Azure",
        "RelationType": "Default Component Of"
      },
      {
        "ProductReference": "libnghttp2-14-1.40.0-150200.12.1",
        "RelatesToProductReference": "Image SLES15-SP4-Micro-5-4-BYOS-EC2",
        "RelationType": "Default Component Of"
      },
      {
        "ProductReference": "libnghttp2-14-1.40.0-150200.12.1",
        "RelatesToProductReference": "Image SLES15-SP4-Micro-5-4-BYOS-GCE",
        "RelationType": "Default Component Of"
      },
      {
        "ProductReference": "libnghttp2-14-1.40.0-150200.12.1",
        "RelatesToProductReference": "Image SLES15-SP4-Micro-5-4-EC2",
        "RelationType": "Default Component Of"
      },
      {
        "ProductReference": "libnghttp2-14-1.40.0-150200.12.1",
        "RelatesToProductReference": "Image SLES15-SP4-Micro-5-4-GCE",
        "RelationType": "Default Component Of"
      },
      {
        "ProductReference": "libnghttp2-14-1.40.0-150200.12.1",
        "RelatesToProductReference": "Image SLES15-SP4-SAP",
        "RelationType": "Default Component Of"
      },
      {
        "ProductReference": "libnghttp2-14-32bit-1.40.0-150200.12.1",
        "RelatesToProductReference": "Image SLES15-SP4-SAP",
        "RelationType": "Default Component Of"
      },
      {
        "ProductReference": "libnghttp2-14-1.40.0-150200.12.1",
        "RelatesToProductReference": "Image SLES15-SP4-SAP-Azure",
        "RelationType": "Default Component Of"
      },
      {
        "ProductReference": "libnghttp2-14-32bit-1.40.0-150200.12.1",
        "RelatesToProductReference": "Image SLES15-SP4-SAP-Azure",
        "RelationType": "Default Component Of"
      },
      {
        "ProductReference": "libnghttp2-14-1.40.0-150200.12.1",
        "RelatesToProductReference": "Image SLES15-SP4-SAP-Azure-LI-BYOS",
        "RelationType": "Default Component Of"
      },
      {
        "ProductReference": "libnghttp2-14-1.40.0-150200.12.1",
        "RelatesToProductReference": "Image SLES15-SP4-SAP-Azure-LI-BYOS-Production",
        "RelationType": "Default Component Of"
      },
      {
        "ProductReference": "libnghttp2-14-1.40.0-150200.12.1",
        "RelatesToProductReference": "Image SLES15-SP4-SAP-Azure-VLI-BYOS",
        "RelationType": "Default Component Of"
      },
      {
        "ProductReference": "libnghttp2-14-1.40.0-150200.12.1",
        "RelatesToProductReference": "Image SLES15-SP4-SAP-Azure-VLI-BYOS-Production",
        "RelationType": "Default Component Of"
      },
      {
        "ProductReference": "libnghttp2-14-1.40.0-150200.12.1",
        "RelatesToProductReference": "Image SLES15-SP4-SAP-BYOS",
        "RelationType": "Default Component Of"
      },
      {
        "ProductReference": "libnghttp2-14-1.40.0-150200.12.1",
        "RelatesToProductReference": "Image SLES15-SP4-SAP-BYOS-Azure",
        "RelationType": "Default Component Of"
      },
      {
        "ProductReference": "libnghttp2-14-1.40.0-150200.12.1",
        "RelatesToProductReference": "Image SLES15-SP4-SAP-BYOS-EC2",
        "RelationType": "Default Component Of"
      },
      {
        "ProductReference": "libnghttp2-14-1.40.0-150200.12.1",
        "RelatesToProductReference": "Image SLES15-SP4-SAP-BYOS-GCE",
        "RelationType": "Default Component Of"
      },
      {
        "ProductReference": "libnghttp2-14-1.40.0-150200.12.1",
        "RelatesToProductReference": "Image SLES15-SP4-SAP-EC2",
        "RelationType": "Default Component Of"
      },
      {
        "ProductReference": "libnghttp2-14-32bit-1.40.0-150200.12.1",
        "RelatesToProductReference": "Image SLES15-SP4-SAP-EC2",
        "RelationType": "Default Component Of"
      },
      {
        "ProductReference": "libnghttp2-14-1.40.0-150200.12.1",
        "RelatesToProductReference": "Image SLES15-SP4-SAP-GCE",
        "RelationType": "Default Component Of"
      },
      {
        "ProductReference": "libnghttp2-14-32bit-1.40.0-150200.12.1",
        "RelatesToProductReference": "Image SLES15-SP4-SAP-GCE",
        "RelationType": "Default Component Of"
      },
      {
        "ProductReference": "libnghttp2-14-1.40.0-150200.12.1",
        "RelatesToProductReference": "Image SLES15-SP4-SAP-Hardened",
        "RelationType": "Default Component Of"
      },
      {
        "ProductReference": "libnghttp2-14-1.40.0-150200.12.1",
        "RelatesToProductReference": "Image SLES15-SP4-SAP-Hardened-Azure",
        "RelationType": "Default Component Of"
      },
      {
        "ProductReference": "libnghttp2-14-1.40.0-150200.12.1",
        "RelatesToProductReference": "Image SLES15-SP4-SAP-Hardened-BYOS",
        "RelationType": "Default Component Of"
      },
      {
        "ProductReference": "libnghttp2-14-1.40.0-150200.12.1",
        "RelatesToProductReference": "Image SLES15-SP4-SAP-Hardened-BYOS-Azure",
        "RelationType": "Default Component Of"
      },
      {
        "ProductReference": "libnghttp2-14-1.40.0-150200.12.1",
        "RelatesToProductReference": "Image SLES15-SP4-SAP-Hardened-BYOS-EC2",
        "RelationType": "Default Component Of"
      },
      {
        "ProductReference": "libnghttp2-14-1.40.0-150200.12.1",
        "RelatesToProductReference": "Image SLES15-SP4-SAP-Hardened-BYOS-GCE",
        "RelationType": "Default Component Of"
      },
      {
        "ProductReference": "libnghttp2-14-1.40.0-150200.12.1",
        "RelatesToProductReference": "Image SLES15-SP4-SAP-Hardened-GCE",
        "RelationType": "Default Component Of"
      },
      {
        "ProductReference": "libnghttp2-14-1.40.0-150200.12.1",
        "RelatesToProductReference": "Image SLES15-SP4-SAPCAL",
        "RelationType": "Default Component Of"
      },
      {
        "ProductReference": "libnghttp2-14-32bit-1.40.0-150200.12.1",
        "RelatesToProductReference": "Image SLES15-SP4-SAPCAL",
        "RelationType": "Default Component Of"
      },
      {
        "ProductReference": "libnghttp2-14-1.40.0-150200.12.1",
        "RelatesToProductReference": "Image SLES15-SP4-SAPCAL-Azure",
        "RelationType": "Default Component Of"
      },
      {
        "ProductReference": "libnghttp2-14-32bit-1.40.0-150200.12.1",
        "RelatesToProductReference": "Image SLES15-SP4-SAPCAL-Azure",
        "RelationType": "Default Component Of"
      },
      {
        "ProductReference": "libnghttp2-14-1.40.0-150200.12.1",
        "RelatesToProductReference": "Image SLES15-SP4-SAPCAL-EC2",
        "RelationType": "Default Component Of"
      },
      {
        "ProductReference": "libnghttp2-14-32bit-1.40.0-150200.12.1",
        "RelatesToProductReference": "Image SLES15-SP4-SAPCAL-EC2",
        "RelationType": "Default Component Of"
      },
      {
        "ProductReference": "libnghttp2-14-1.40.0-150200.12.1",
        "RelatesToProductReference": "Image SLES15-SP4-SAPCAL-GCE",
        "RelationType": "Default Component Of"
      },
      {
        "ProductReference": "libnghttp2-14-32bit-1.40.0-150200.12.1",
        "RelatesToProductReference": "Image SLES15-SP4-SAPCAL-GCE",
        "RelationType": "Default Component Of"
      },
      {
        "ProductReference": "libnghttp2-14-1.40.0-150200.12.1",
        "RelatesToProductReference": "Image SLES15-SP4-SUSE-Rancher-Setup-BYOS",
        "RelationType": "Default Component Of"
      },
      {
        "ProductReference": "libnghttp2-14-1.40.0-150200.12.1",
        "RelatesToProductReference": "Image SLES15-SP4-SUSE-Rancher-Setup-BYOS-EC2",
        "RelationType": "Default Component Of"
      },
      {
        "ProductReference": "libnghttp2-14-1.40.0-150200.12.1",
        "RelatesToProductReference": "Image SLES15-SP5-Azure-Basic",
        "RelationType": "Default Component Of"
      },
      {
        "ProductReference": "libnghttp2-14-1.40.0-150200.12.1",
        "RelatesToProductReference": "Image SLES15-SP5-Azure-Standard",
        "RelationType": "Default Component Of"
      },
      {
        "ProductReference": "libnghttp2-14-1.40.0-150200.12.1",
        "RelatesToProductReference": "Image SLES15-SP5-BYOS-Azure",
        "RelationType": "Default Component Of"
      },
      {
        "ProductReference": "libnghttp2-14-1.40.0-150200.12.1",
        "RelatesToProductReference": "Image SLES15-SP5-BYOS-EC2",
        "RelationType": "Default Component Of"
      },
      {
        "ProductReference": "libnghttp2-14-1.40.0-150200.12.1",
        "RelatesToProductReference": "Image SLES15-SP5-BYOS-GCE",
        "RelationType": "Default Component Of"
      },
      {
        "ProductReference": "libnghttp2-14-1.40.0-150200.12.1",
        "RelatesToProductReference": "Image SLES15-SP5-CHOST-BYOS-Aliyun",
        "RelationType": "Default Component Of"
      },
      {
        "ProductReference": "libnghttp2-14-1.40.0-150200.12.1",
        "RelatesToProductReference": "Image SLES15-SP5-CHOST-BYOS-Azure",
        "RelationType": "Default Component Of"
      },
      {
        "ProductReference": "libnghttp2-14-1.40.0-150200.12.1",
        "RelatesToProductReference": "Image SLES15-SP5-CHOST-BYOS-EC2",
        "RelationType": "Default Component Of"
      },
      {
        "ProductReference": "libnghttp2-14-1.40.0-150200.12.1",
        "RelatesToProductReference": "Image SLES15-SP5-CHOST-BYOS-GCE",
        "RelationType": "Default Component Of"
      },
      {
        "ProductReference": "libnghttp2-14-1.40.0-150200.12.1",
        "RelatesToProductReference": "Image SLES15-SP5-CHOST-BYOS-SAP-CCloud",
        "RelationType": "Default Component Of"
      },
      {
        "ProductReference": "libnghttp2-14-1.40.0-150200.12.1",
        "RelatesToProductReference": "Image SLES15-SP5-EC2",
        "RelationType": "Default Component Of"
      },
      {
        "ProductReference": "libnghttp2-14-1.40.0-150200.12.1",
        "RelatesToProductReference": "Image SLES15-SP5-GCE",
        "RelationType": "Default Component Of"
      },
      {
        "ProductReference": "libnghttp2-14-1.40.0-150200.12.1",
        "RelatesToProductReference": "Image SLES15-SP5-HPC-Azure",
        "RelationType": "Default Component Of"
      },
      {
        "ProductReference": "libnghttp2-14-1.40.0-150200.12.1",
        "RelatesToProductReference": "Image SLES15-SP5-HPC-BYOS-Azure",
        "RelationType": "Default Component Of"
      },
      {
        "ProductReference": "libnghttp2-14-1.40.0-150200.12.1",
        "RelatesToProductReference": "Image SLES15-SP5-HPC-BYOS-EC2",
        "RelationType": "Default Component Of"
      },
      {
        "ProductReference": "libnghttp2-14-1.40.0-150200.12.1",
        "RelatesToProductReference": "Image SLES15-SP5-HPC-BYOS-GCE",
        "RelationType": "Default Component Of"
      },
      {
        "ProductReference": "libnghttp2-14-1.40.0-150200.12.1",
        "RelatesToProductReference": "Image SLES15-SP5-Hardened-BYOS-Azure",
        "RelationType": "Default Component Of"
      },
      {
        "ProductReference": "libnghttp2-14-1.40.0-150200.12.1",
        "RelatesToProductReference": "Image SLES15-SP5-Hardened-BYOS-EC2",
        "RelationType": "Default Component Of"
      },
      {
        "ProductReference": "libnghttp2-14-1.40.0-150200.12.1",
        "RelatesToProductReference": "Image SLES15-SP5-Hardened-BYOS-GCE",
        "RelationType": "Default Component Of"
      },
      {
        "ProductReference": "libnghttp2-14-1.40.0-150200.12.1",
        "RelatesToProductReference": "Image SLES15-SP5-Micro-5-5",
        "RelationType": "Default Component Of"
      },
      {
        "ProductReference": "libnghttp2-14-1.40.0-150200.12.1",
        "RelatesToProductReference": "Image SLES15-SP5-Micro-5-5-Azure",
        "RelationType": "Default Component Of"
      },
      {
        "ProductReference": "libnghttp2-14-1.40.0-150200.12.1",
        "RelatesToProductReference": "Image SLES15-SP5-Micro-5-5-BYOS",
        "RelationType": "Default Component Of"
      },
      {
        "ProductReference": "libnghttp2-14-1.40.0-150200.12.1",
        "RelatesToProductReference": "Image SLES15-SP5-Micro-5-5-BYOS-Azure",
        "RelationType": "Default Component Of"
      },
      {
        "ProductReference": "libnghttp2-14-1.40.0-150200.12.1",
        "RelatesToProductReference": "Image SLES15-SP5-Micro-5-5-BYOS-EC2",
        "RelationType": "Default Component Of"
      },
      {
        "ProductReference": "libnghttp2-14-1.40.0-150200.12.1",
        "RelatesToProductReference": "Image SLES15-SP5-Micro-5-5-BYOS-GCE",
        "RelationType": "Default Component Of"
      },
      {
        "ProductReference": "libnghttp2-14-1.40.0-150200.12.1",
        "RelatesToProductReference": "Image SLES15-SP5-Micro-5-5-EC2",
        "RelationType": "Default Component Of"
      },
      {
        "ProductReference": "libnghttp2-14-1.40.0-150200.12.1",
        "RelatesToProductReference": "Image SLES15-SP5-Micro-5-5-GCE",
        "RelationType": "Default Component Of"
      },
      {
        "ProductReference": "libnghttp2-14-1.40.0-150200.12.1",
        "RelatesToProductReference": "Image SLES15-SP5-SAP-Azure-LI-BYOS",
        "RelationType": "Default Component Of"
      },
      {
        "ProductReference": "libnghttp2-14-1.40.0-150200.12.1",
        "RelatesToProductReference": "Image SLES15-SP5-SAP-Azure-LI-BYOS-Production",
        "RelationType": "Default Component Of"
      },
      {
        "ProductReference": "libnghttp2-14-1.40.0-150200.12.1",
        "RelatesToProductReference": "Image SLES15-SP5-SAP-Azure-VLI-BYOS",
        "RelationType": "Default Component Of"
      },
      {
        "ProductReference": "libnghttp2-14-1.40.0-150200.12.1",
        "RelatesToProductReference": "Image SLES15-SP5-SAP-Azure-VLI-BYOS-Production",
        "RelationType": "Default Component Of"
      },
      {
        "ProductReference": "libnghttp2-14-1.40.0-150200.12.1",
        "RelatesToProductReference": "Image SLES15-SP5-SAP-BYOS-Azure",
        "RelationType": "Default Component Of"
      },
      {
        "ProductReference": "libnghttp2-14-1.40.0-150200.12.1",
        "RelatesToProductReference": "Image SLES15-SP5-SAP-BYOS-EC2",
        "RelationType": "Default Component Of"
      },
      {
        "ProductReference": "libnghttp2-14-1.40.0-150200.12.1",
        "RelatesToProductReference": "Image SLES15-SP5-SAP-BYOS-GCE",
        "RelationType": "Default Component Of"
      },
      {
        "ProductReference": "libnghttp2-14-1.40.0-150200.12.1",
        "RelatesToProductReference": "Image SLES15-SP5-SAP-Hardened-Azure",
        "RelationType": "Default Component Of"
      },
      {
        "ProductReference": "libnghttp2-14-1.40.0-150200.12.1",
        "RelatesToProductReference": "Image SLES15-SP5-SAP-Hardened-BYOS-Azure",
        "RelationType": "Default Component Of"
      },
      {
        "ProductReference": "libnghttp2-14-1.40.0-150200.12.1",
        "RelatesToProductReference": "Image SLES15-SP5-SAP-Hardened-BYOS-EC2",
        "RelationType": "Default Component Of"
      },
      {
        "ProductReference": "libnghttp2-14-1.40.0-150200.12.1",
        "RelatesToProductReference": "Image SLES15-SP5-SAP-Hardened-BYOS-GCE",
        "RelationType": "Default Component Of"
      },
      {
        "ProductReference": "libnghttp2-14-1.40.0-150200.12.1",
        "RelatesToProductReference": "Image SLES15-SP5-SAP-Hardened-GCE",
        "RelationType": "Default Component Of"
      },
      {
        "ProductReference": "libnghttp2-14-1.40.0-150200.12.1",
        "RelatesToProductReference": "Image SLES15-SP5-SAPCAL-Azure",
        "RelationType": "Default Component Of"
      },
      {
        "ProductReference": "libnghttp2-14-32bit-1.40.0-150200.12.1",
        "RelatesToProductReference": "Image SLES15-SP5-SAPCAL-Azure",
        "RelationType": "Default Component Of"
      },
      {
        "ProductReference": "libnghttp2-14-1.40.0-150200.12.1",
        "RelatesToProductReference": "Image SLES15-SP5-SAPCAL-EC2",
        "RelationType": "Default Component Of"
      },
      {
        "ProductReference": "libnghttp2-14-32bit-1.40.0-150200.12.1",
        "RelatesToProductReference": "Image SLES15-SP5-SAPCAL-EC2",
        "RelationType": "Default Component Of"
      },
      {
        "ProductReference": "libnghttp2-14-1.40.0-150200.12.1",
        "RelatesToProductReference": "Image SLES15-SP5-SAPCAL-GCE",
        "RelationType": "Default Component Of"
      },
      {
        "ProductReference": "libnghttp2-14-32bit-1.40.0-150200.12.1",
        "RelatesToProductReference": "Image SLES15-SP5-SAPCAL-GCE",
        "RelationType": "Default Component Of"
      },
      {
        "ProductReference": "libnghttp2-14-1.40.0-150200.12.1",
        "RelatesToProductReference": "SUSE Enterprise Storage 7.1",
        "RelationType": "Default Component Of"
      },
      {
        "ProductReference": "libnghttp2-14-32bit-1.40.0-150200.12.1",
        "RelatesToProductReference": "SUSE Enterprise Storage 7.1",
        "RelationType": "Default Component Of"
      },
      {
        "ProductReference": "libnghttp2-devel-1.40.0-150200.12.1",
        "RelatesToProductReference": "SUSE Enterprise Storage 7.1",
        "RelationType": "Default Component Of"
      },
      {
        "ProductReference": "libnghttp2_asio-devel-1.40.0-150200.12.1",
        "RelatesToProductReference": "SUSE Enterprise Storage 7.1",
        "RelationType": "Default Component Of"
      },
      {
        "ProductReference": "libnghttp2_asio1-1.40.0-150200.12.1",
        "RelatesToProductReference": "SUSE Enterprise Storage 7.1",
        "RelationType": "Default Component Of"
      },
      {
        "ProductReference": "libnghttp2-14-1.40.0-150200.12.1",
        "RelatesToProductReference": "SUSE Linux Enterprise High Performance Computing 15 SP2-LTSS",
        "RelationType": "Default Component Of"
      },
      {
        "ProductReference": "libnghttp2-14-32bit-1.40.0-150200.12.1",
        "RelatesToProductReference": "SUSE Linux Enterprise High Performance Computing 15 SP2-LTSS",
        "RelationType": "Default Component Of"
      },
      {
        "ProductReference": "libnghttp2-devel-1.40.0-150200.12.1",
        "RelatesToProductReference": "SUSE Linux Enterprise High Performance Computing 15 SP2-LTSS",
        "RelationType": "Default Component Of"
      },
      {
        "ProductReference": "libnghttp2_asio-devel-1.40.0-150200.12.1",
        "RelatesToProductReference": "SUSE Linux Enterprise High Performance Computing 15 SP2-LTSS",
        "RelationType": "Default Component Of"
      },
      {
        "ProductReference": "libnghttp2_asio1-1.40.0-150200.12.1",
        "RelatesToProductReference": "SUSE Linux Enterprise High Performance Computing 15 SP2-LTSS",
        "RelationType": "Default Component Of"
      },
      {
        "ProductReference": "libnghttp2-14-1.40.0-150200.12.1",
        "RelatesToProductReference": "SUSE Linux Enterprise High Performance Computing 15 SP3-ESPOS",
        "RelationType": "Default Component Of"
      },
      {
        "ProductReference": "libnghttp2-14-32bit-1.40.0-150200.12.1",
        "RelatesToProductReference": "SUSE Linux Enterprise High Performance Computing 15 SP3-ESPOS",
        "RelationType": "Default Component Of"
      },
      {
        "ProductReference": "libnghttp2-devel-1.40.0-150200.12.1",
        "RelatesToProductReference": "SUSE Linux Enterprise High Performance Computing 15 SP3-ESPOS",
        "RelationType": "Default Component Of"
      },
      {
        "ProductReference": "libnghttp2_asio-devel-1.40.0-150200.12.1",
        "RelatesToProductReference": "SUSE Linux Enterprise High Performance Computing 15 SP3-ESPOS",
        "RelationType": "Default Component Of"
      },
      {
        "ProductReference": "libnghttp2_asio1-1.40.0-150200.12.1",
        "RelatesToProductReference": "SUSE Linux Enterprise High Performance Computing 15 SP3-ESPOS",
        "RelationType": "Default Component Of"
      },
      {
        "ProductReference": "libnghttp2-14-1.40.0-150200.12.1",
        "RelatesToProductReference": "SUSE Linux Enterprise High Performance Computing 15 SP3-LTSS",
        "RelationType": "Default Component Of"
      },
      {
        "ProductReference": "libnghttp2-14-32bit-1.40.0-150200.12.1",
        "RelatesToProductReference": "SUSE Linux Enterprise High Performance Computing 15 SP3-LTSS",
        "RelationType": "Default Component Of"
      },
      {
        "ProductReference": "libnghttp2-devel-1.40.0-150200.12.1",
        "RelatesToProductReference": "SUSE Linux Enterprise High Performance Computing 15 SP3-LTSS",
        "RelationType": "Default Component Of"
      },
      {
        "ProductReference": "libnghttp2_asio-devel-1.40.0-150200.12.1",
        "RelatesToProductReference": "SUSE Linux Enterprise High Performance Computing 15 SP3-LTSS",
        "RelationType": "Default Component Of"
      },
      {
        "ProductReference": "libnghttp2_asio1-1.40.0-150200.12.1",
        "RelatesToProductReference": "SUSE Linux Enterprise High Performance Computing 15 SP3-LTSS",
        "RelationType": "Default Component Of"
      },
      {
        "ProductReference": "libnghttp2-14-1.40.0-150200.12.1",
        "RelatesToProductReference": "SUSE Linux Enterprise Micro 5.1",
        "RelationType": "Default Component Of"
      },
      {
        "ProductReference": "libnghttp2-14-1.40.0-150200.12.1",
        "RelatesToProductReference": "SUSE Linux Enterprise Micro 5.2",
        "RelationType": "Default Component Of"
      },
      {
        "ProductReference": "libnghttp2-14-1.40.0-150200.12.1",
        "RelatesToProductReference": "SUSE Linux Enterprise Micro 5.3",
        "RelationType": "Default Component Of"
      },
      {
        "ProductReference": "libnghttp2-14-1.40.0-150200.12.1",
        "RelatesToProductReference": "SUSE Linux Enterprise Micro 5.4",
        "RelationType": "Default Component Of"
      },
      {
        "ProductReference": "libnghttp2-14-1.40.0-150200.12.1",
        "RelatesToProductReference": "SUSE Linux Enterprise Micro 5.5",
        "RelationType": "Default Component Of"
      },
      {
        "ProductReference": "libnghttp2-14-1.40.0-150200.12.1",
        "RelatesToProductReference": "SUSE Linux Enterprise Module for Basesystem 15 SP4",
        "RelationType": "Default Component Of"
      },
      {
        "ProductReference": "libnghttp2-14-32bit-1.40.0-150200.12.1",
        "RelatesToProductReference": "SUSE Linux Enterprise Module for Basesystem 15 SP4",
        "RelationType": "Default Component Of"
      },
      {
        "ProductReference": "libnghttp2-devel-1.40.0-150200.12.1",
        "RelatesToProductReference": "SUSE Linux Enterprise Module for Basesystem 15 SP4",
        "RelationType": "Default Component Of"
      },
      {
        "ProductReference": "libnghttp2_asio-devel-1.40.0-150200.12.1",
        "RelatesToProductReference": "SUSE Linux Enterprise Module for Basesystem 15 SP4",
        "RelationType": "Default Component Of"
      },
      {
        "ProductReference": "libnghttp2_asio1-1.40.0-150200.12.1",
        "RelatesToProductReference": "SUSE Linux Enterprise Module for Basesystem 15 SP4",
        "RelationType": "Default Component Of"
      },
      {
        "ProductReference": "libnghttp2-14-1.40.0-150200.12.1",
        "RelatesToProductReference": "SUSE Linux Enterprise Module for Basesystem 15 SP5",
        "RelationType": "Default Component Of"
      },
      {
        "ProductReference": "libnghttp2-14-32bit-1.40.0-150200.12.1",
        "RelatesToProductReference": "SUSE Linux Enterprise Module for Basesystem 15 SP5",
        "RelationType": "Default Component Of"
      },
      {
        "ProductReference": "libnghttp2-devel-1.40.0-150200.12.1",
        "RelatesToProductReference": "SUSE Linux Enterprise Module for Basesystem 15 SP5",
        "RelationType": "Default Component Of"
      },
      {
        "ProductReference": "libnghttp2_asio-devel-1.40.0-150200.12.1",
        "RelatesToProductReference": "SUSE Linux Enterprise Module for Basesystem 15 SP5",
        "RelationType": "Default Component Of"
      },
      {
        "ProductReference": "libnghttp2_asio1-1.40.0-150200.12.1",
        "RelatesToProductReference": "SUSE Linux Enterprise Module for Basesystem 15 SP5",
        "RelationType": "Default Component Of"
      },
      {
        "ProductReference": "libnghttp2-14-1.40.0-150200.12.1",
        "RelatesToProductReference": "SUSE Linux Enterprise Server 15 SP2-LTSS",
        "RelationType": "Default Component Of"
      },
      {
        "ProductReference": "libnghttp2-14-32bit-1.40.0-150200.12.1",
        "RelatesToProductReference": "SUSE Linux Enterprise Server 15 SP2-LTSS",
        "RelationType": "Default Component Of"
      },
      {
        "ProductReference": "libnghttp2-devel-1.40.0-150200.12.1",
        "RelatesToProductReference": "SUSE Linux Enterprise Server 15 SP2-LTSS",
        "RelationType": "Default Component Of"
      },
      {
        "ProductReference": "libnghttp2_asio-devel-1.40.0-150200.12.1",
        "RelatesToProductReference": "SUSE Linux Enterprise Server 15 SP2-LTSS",
        "RelationType": "Default Component Of"
      },
      {
        "ProductReference": "libnghttp2_asio1-1.40.0-150200.12.1",
        "RelatesToProductReference": "SUSE Linux Enterprise Server 15 SP2-LTSS",
        "RelationType": "Default Component Of"
      },
      {
        "ProductReference": "libnghttp2-14-1.40.0-150200.12.1",
        "RelatesToProductReference": "SUSE Linux Enterprise Server 15 SP3-LTSS",
        "RelationType": "Default Component Of"
      },
      {
        "ProductReference": "libnghttp2-14-32bit-1.40.0-150200.12.1",
        "RelatesToProductReference": "SUSE Linux Enterprise Server 15 SP3-LTSS",
        "RelationType": "Default Component Of"
      },
      {
        "ProductReference": "libnghttp2-devel-1.40.0-150200.12.1",
        "RelatesToProductReference": "SUSE Linux Enterprise Server 15 SP3-LTSS",
        "RelationType": "Default Component Of"
      },
      {
        "ProductReference": "libnghttp2_asio-devel-1.40.0-150200.12.1",
        "RelatesToProductReference": "SUSE Linux Enterprise Server 15 SP3-LTSS",
        "RelationType": "Default Component Of"
      },
      {
        "ProductReference": "libnghttp2_asio1-1.40.0-150200.12.1",
        "RelatesToProductReference": "SUSE Linux Enterprise Server 15 SP3-LTSS",
        "RelationType": "Default Component Of"
      },
      {
        "ProductReference": "libnghttp2-14-1.40.0-150200.12.1",
        "RelatesToProductReference": "SUSE Linux Enterprise Server for SAP Applications 15 SP2",
        "RelationType": "Default Component Of"
      },
      {
        "ProductReference": "libnghttp2-14-32bit-1.40.0-150200.12.1",
        "RelatesToProductReference": "SUSE Linux Enterprise Server for SAP Applications 15 SP2",
        "RelationType": "Default Component Of"
      },
      {
        "ProductReference": "libnghttp2-devel-1.40.0-150200.12.1",
        "RelatesToProductReference": "SUSE Linux Enterprise Server for SAP Applications 15 SP2",
        "RelationType": "Default Component Of"
      },
      {
        "ProductReference": "libnghttp2_asio-devel-1.40.0-150200.12.1",
        "RelatesToProductReference": "SUSE Linux Enterprise Server for SAP Applications 15 SP2",
        "RelationType": "Default Component Of"
      },
      {
        "ProductReference": "libnghttp2_asio1-1.40.0-150200.12.1",
        "RelatesToProductReference": "SUSE Linux Enterprise Server for SAP Applications 15 SP2",
        "RelationType": "Default Component Of"
      },
      {
        "ProductReference": "libnghttp2-14-1.40.0-150200.12.1",
        "RelatesToProductReference": "SUSE Linux Enterprise Server for SAP Applications 15 SP3",
        "RelationType": "Default Component Of"
      },
      {
        "ProductReference": "libnghttp2-14-32bit-1.40.0-150200.12.1",
        "RelatesToProductReference": "SUSE Linux Enterprise Server for SAP Applications 15 SP3",
        "RelationType": "Default Component Of"
      },
      {
        "ProductReference": "libnghttp2-devel-1.40.0-150200.12.1",
        "RelatesToProductReference": "SUSE Linux Enterprise Server for SAP Applications 15 SP3",
        "RelationType": "Default Component Of"
      },
      {
        "ProductReference": "libnghttp2_asio-devel-1.40.0-150200.12.1",
        "RelatesToProductReference": "SUSE Linux Enterprise Server for SAP Applications 15 SP3",
        "RelationType": "Default Component Of"
      },
      {
        "ProductReference": "libnghttp2_asio1-1.40.0-150200.12.1",
        "RelatesToProductReference": "SUSE Linux Enterprise Server for SAP Applications 15 SP3",
        "RelationType": "Default Component Of"
      },
      {
        "ProductReference": "libnghttp2-14-1.40.0-150200.12.1",
        "RelatesToProductReference": "SUSE Manager Proxy 4.2",
        "RelationType": "Default Component Of"
      },
      {
        "ProductReference": "libnghttp2-14-32bit-1.40.0-150200.12.1",
        "RelatesToProductReference": "SUSE Manager Proxy 4.2",
        "RelationType": "Default Component Of"
      },
      {
        "ProductReference": "libnghttp2-devel-1.40.0-150200.12.1",
        "RelatesToProductReference": "SUSE Manager Proxy 4.2",
        "RelationType": "Default Component Of"
      },
      {
        "ProductReference": "libnghttp2_asio-devel-1.40.0-150200.12.1",
        "RelatesToProductReference": "SUSE Manager Proxy 4.2",
        "RelationType": "Default Component Of"
      },
      {
        "ProductReference": "libnghttp2_asio1-1.40.0-150200.12.1",
        "RelatesToProductReference": "SUSE Manager Proxy 4.2",
        "RelationType": "Default Component Of"
      },
      {
        "ProductReference": "libnghttp2-14-1.40.0-150200.12.1",
        "RelatesToProductReference": "SUSE Manager Server 4.2",
        "RelationType": "Default Component Of"
      },
      {
        "ProductReference": "libnghttp2-14-32bit-1.40.0-150200.12.1",
        "RelatesToProductReference": "SUSE Manager Server 4.2",
        "RelationType": "Default Component Of"
      },
      {
        "ProductReference": "libnghttp2-devel-1.40.0-150200.12.1",
        "RelatesToProductReference": "SUSE Manager Server 4.2",
        "RelationType": "Default Component Of"
      },
      {
        "ProductReference": "libnghttp2_asio-devel-1.40.0-150200.12.1",
        "RelatesToProductReference": "SUSE Manager Server 4.2",
        "RelationType": "Default Component Of"
      },
      {
        "ProductReference": "libnghttp2_asio1-1.40.0-150200.12.1",
        "RelatesToProductReference": "SUSE Manager Server 4.2",
        "RelationType": "Default Component Of"
      },
      {
        "ProductReference": "libnghttp2-14-1.40.0-150200.12.1",
        "RelatesToProductReference": "openSUSE Leap 15.4",
        "RelationType": "Default Component Of"
      },
      {
        "ProductReference": "libnghttp2-14-32bit-1.40.0-150200.12.1",
        "RelatesToProductReference": "openSUSE Leap 15.4",
        "RelationType": "Default Component Of"
      },
      {
        "ProductReference": "libnghttp2-devel-1.40.0-150200.12.1",
        "RelatesToProductReference": "openSUSE Leap 15.4",
        "RelationType": "Default Component Of"
      },
      {
        "ProductReference": "libnghttp2_asio-devel-1.40.0-150200.12.1",
        "RelatesToProductReference": "openSUSE Leap 15.4",
        "RelationType": "Default Component Of"
      },
      {
        "ProductReference": "libnghttp2_asio1-1.40.0-150200.12.1",
        "RelatesToProductReference": "openSUSE Leap 15.4",
        "RelationType": "Default Component Of"
      },
      {
        "ProductReference": "libnghttp2_asio1-32bit-1.40.0-150200.12.1",
        "RelatesToProductReference": "openSUSE Leap 15.4",
        "RelationType": "Default Component Of"
      },
      {
        "ProductReference": "nghttp2-1.40.0-150200.12.1",
        "RelatesToProductReference": "openSUSE Leap 15.4",
        "RelationType": "Default Component Of"
      },
      {
        "ProductReference": "python3-nghttp2-1.40.0-150200.12.1",
        "RelatesToProductReference": "openSUSE Leap 15.4",
        "RelationType": "Default Component Of"
      },
      {
        "ProductReference": "libnghttp2-14-1.40.0-150200.12.1",
        "RelatesToProductReference": "openSUSE Leap 15.5",
        "RelationType": "Default Component Of"
      },
      {
        "ProductReference": "libnghttp2-14-32bit-1.40.0-150200.12.1",
        "RelatesToProductReference": "openSUSE Leap 15.5",
        "RelationType": "Default Component Of"
      },
      {
        "ProductReference": "libnghttp2-devel-1.40.0-150200.12.1",
        "RelatesToProductReference": "openSUSE Leap 15.5",
        "RelationType": "Default Component Of"
      },
      {
        "ProductReference": "libnghttp2_asio-devel-1.40.0-150200.12.1",
        "RelatesToProductReference": "openSUSE Leap 15.5",
        "RelationType": "Default Component Of"
      },
      {
        "ProductReference": "libnghttp2_asio1-1.40.0-150200.12.1",
        "RelatesToProductReference": "openSUSE Leap 15.5",
        "RelationType": "Default Component Of"
      },
      {
        "ProductReference": "libnghttp2_asio1-32bit-1.40.0-150200.12.1",
        "RelatesToProductReference": "openSUSE Leap 15.5",
        "RelationType": "Default Component Of"
      },
      {
        "ProductReference": "nghttp2-1.40.0-150200.12.1",
        "RelatesToProductReference": "openSUSE Leap 15.5",
        "RelationType": "Default Component Of"
      },
      {
        "ProductReference": "python3-nghttp2-1.40.0-150200.12.1",
        "RelatesToProductReference": "openSUSE Leap 15.5",
        "RelationType": "Default Component Of"
      },
      {
        "ProductReference": "libnghttp2-14-1.40.0-150200.12.1",
        "RelatesToProductReference": "openSUSE Leap Micro 5.3",
        "RelationType": "Default Component Of"
      },
      {
        "ProductReference": "libnghttp2-14-1.40.0-150200.12.1",
        "RelatesToProductReference": "openSUSE Leap Micro 5.4",
        "RelationType": "Default Component Of"
      }
    ]
  },
  "References": [
    {
      "URL": "https://www.suse.com/support/update/announcement/2023/suse-su-20234200-1/",
      "Description": "Link for SUSE-SU-2023:4200-1"
    },
    {
      "URL": "https://lists.suse.com/pipermail/sle-security-updates/2023-October/016846.html",
      "Description": "E-Mail link for SUSE-SU-2023:4200-1"
    },
    {
      "URL": "https://www.suse.com/support/security/rating/",
      "Description": "SUSE Security Ratings"
    },
    {
      "URL": "https://bugzilla.suse.com/1216123",
      "Description": "SUSE Bug 1216123"
    },
    {
      "URL": "https://bugzilla.suse.com/1216174",
      "Description": "SUSE Bug 1216174"
    },
    {
      "URL": "https://www.suse.com/security/cve/CVE-2023-44487/",
      "Description": "SUSE CVE CVE-2023-44487 page"
    }
  ],
  "Vulnerabilities": [
    {
      "CVE": "CVE-2023-44487",
      "Description": "The HTTP/2 protocol allows a denial of service (server resource consumption) because request cancellation can reset many streams quickly, as exploited in the wild in August through October 2023.",
      "Threats": [
        {
          "Type": "Impact",
          "Severity": "important"
        }
      ],
      "References": [
        {
          "URL": "https://www.suse.com/security/cve/CVE-2023-44487.html",
          "Description": "CVE-2023-44487"
        },
        {
          "URL": "https://bugzilla.suse.com/1216109",
          "Description": "SUSE Bug 1216109"
        },
        {
          "URL": "https://bugzilla.suse.com/1216123",
          "Description": "SUSE Bug 1216123"
        },
        {
          "URL": "https://bugzilla.suse.com/1216169",
          "Description": "SUSE Bug 1216169"
        },
        {
          "URL": "https://bugzilla.suse.com/1216171",
          "Description": "SUSE Bug 1216171"
        },
        {
          "URL": "https://bugzilla.suse.com/1216174",
          "Description": "SUSE Bug 1216174"
        },
        {
          "URL": "https://bugzilla.suse.com/1216176",
          "Description": "SUSE Bug 1216176"
        },
        {
          "URL": "https://bugzilla.suse.com/1216181",
          "Description": "SUSE Bug 1216181"
        },
        {
          "URL": "https://bugzilla.suse.com/1216182",
          "Description": "SUSE Bug 1216182"
        },
        {
          "URL": "https://bugzilla.suse.com/1216190",
          "Description": "SUSE Bug 1216190"
        }
      ],
      "ProductStatuses": [
        {
          "Type": "Fixed",
          "ProductID": [
            "Container bci/bci-init:15.4:libnghttp2-14-1.40.0-150200.12.1",
            "Container bci/golang:1.20-openssl:libnghttp2-14-1.40.0-150200.12.1",
            "Container bci/golang:1.21:libnghttp2-14-1.40.0-150200.12.1",
            "Container bci/golang:latest:libnghttp2-14-1.40.0-150200.12.1",
            "Container bci/node:16:libnghttp2-14-1.40.0-150200.12.1",
            "Container bci/node:18:libnghttp2-14-1.40.0-150200.12.1",
            "Container bci/nodejs:latest:libnghttp2-14-1.40.0-150200.12.1",
            "Container bci/openjdk-devel:11:libnghttp2-14-1.40.0-150200.12.1",
            "Container bci/openjdk-devel:latest:libnghttp2-14-1.40.0-150200.12.1",
            "Container bci/php-apache:latest:libnghttp2-14-1.40.0-150200.12.1",
            "Container bci/php-fpm:latest:libnghttp2-14-1.40.0-150200.12.1",
            "Container bci/php:latest:libnghttp2-14-1.40.0-150200.12.1",
            "Container bci/python:3:libnghttp2-14-1.40.0-150200.12.1",
            "Container bci/python:latest:libnghttp2-14-1.40.0-150200.12.1",
            "Container bci/ruby:latest:libnghttp2-14-1.40.0-150200.12.1",
            "Container bci/rust:1.77:libnghttp2-14-1.40.0-150200.12.1",
            "Container bci/rust:latest:libnghttp2-14-1.40.0-150200.12.1",
            "Container rancher/elemental-teal-rt/5.4:latest:libnghttp2-14-1.40.0-150200.12.1",
            "Container rancher/elemental-teal/5.4:latest:libnghttp2-14-1.40.0-150200.12.1",
            "Container rancher/seedimage-builder:latest:libnghttp2-14-1.40.0-150200.12.1",
            "Container suse/git:latest:libnghttp2-14-1.40.0-150200.12.1",
            "Container suse/hpc/warewulf4-x86_64/sle-hpc-node:latest:libnghttp2-14-1.40.0-150200.12.1",
            "Container suse/ltss/sle15.3/sle15:15.3:libnghttp2-14-1.40.0-150200.12.1",
            "Container suse/ltss/sle15.4/sle15:15.4:libnghttp2-14-1.40.0-150200.12.1",
            "Container suse/manager/4.3/proxy-httpd:latest:libnghttp2-14-1.40.0-150200.12.1",
            "Container suse/manager/4.3/proxy-salt-broker:latest:libnghttp2-14-1.40.0-150200.12.1",
            "Container suse/pcp:5:libnghttp2-14-1.40.0-150200.12.1",
            "Container suse/postgres:14:libnghttp2-14-1.40.0-150200.12.1",
            "Container suse/sle-micro-rancher/5.2:latest:libnghttp2-14-1.40.0-150200.12.1",
            "Container suse/sle-micro-rancher/5.3:latest:libnghttp2-14-1.40.0-150200.12.1",
            "Container suse/sle-micro-rancher/5.4:latest:libnghttp2-14-1.40.0-150200.12.1",
            "Container suse/sle-micro/5.1/toolbox:latest:libnghttp2-14-1.40.0-150200.12.1",
            "Container suse/sle-micro/5.2/toolbox:latest:libnghttp2-14-1.40.0-150200.12.1",
            "Container suse/sle-micro/5.3/toolbox:latest:libnghttp2-14-1.40.0-150200.12.1",
            "Container suse/sle-micro/5.4/toolbox:latest:libnghttp2-14-1.40.0-150200.12.1",
            "Container suse/sle-micro/5.5/toolbox:latest:libnghttp2-14-1.40.0-150200.12.1",
            "Container suse/sle-micro/5.5:latest:libnghttp2-14-1.40.0-150200.12.1",
            "Container suse/sle-micro/base-5.5:latest:libnghttp2-14-1.40.0-150200.12.1",
            "Container suse/sle-micro/kvm-5.5:latest:libnghttp2-14-1.40.0-150200.12.1",
            "Container suse/sle-micro/rt-5.5:latest:libnghttp2-14-1.40.0-150200.12.1",
            "Container suse/sle15:15.2:libnghttp2-14-1.40.0-150200.12.1",
            "Container suse/sle15:15.3:libnghttp2-14-1.40.0-150200.12.1",
            "Container suse/sle15:15.4:libnghttp2-14-1.40.0-150200.12.1",
            "Container suse/sle15:15.5:libnghttp2-14-1.40.0-150200.12.1",
            "Container trento/trento-web:latest:libnghttp2-14-1.40.0-150200.12.1",
            "Image SLES15-SP2-BYOS-Azure:libnghttp2-14-1.40.0-150200.12.1",
            "Image SLES15-SP2-HPC-BYOS-Azure:libnghttp2-14-1.40.0-150200.12.1",
            "Image SLES15-SP2-SAP-Azure-LI-BYOS-Production:libnghttp2-14-1.40.0-150200.12.1",
            "Image SLES15-SP2-SAP-Azure-VLI-BYOS-Production:libnghttp2-14-1.40.0-150200.12.1",
            "Image SLES15-SP2-SAP-Azure:libnghttp2-14-1.40.0-150200.12.1",
            "Image SLES15-SP2-SAP-BYOS-Azure:libnghttp2-14-1.40.0-150200.12.1",
            "Image SLES15-SP2-SAP-BYOS-EC2-HVM:libnghttp2-14-1.40.0-150200.12.1",
            "Image SLES15-SP2-SAP-BYOS-GCE:libnghttp2-14-1.40.0-150200.12.1",
            "Image SLES15-SP2-SAP-EC2-HVM:libnghttp2-14-1.40.0-150200.12.1",
            "Image SLES15-SP2-SAP-GCE:libnghttp2-14-1.40.0-150200.12.1",
            "Image SLES15-SP3-BYOS-Azure:libnghttp2-14-1.40.0-150200.12.1",
            "Image SLES15-SP3-HPC-BYOS-Azure:libnghttp2-14-1.40.0-150200.12.1",
            "Image SLES15-SP3-Micro-5-1-BYOS-Azure:libnghttp2-14-1.40.0-150200.12.1",
            "Image SLES15-SP3-Micro-5-1-BYOS-EC2-HVM:libnghttp2-14-1.40.0-150200.12.1",
            "Image SLES15-SP3-Micro-5-1-BYOS-GCE:libnghttp2-14-1.40.0-150200.12.1",
            "Image SLES15-SP3-Micro-5-2-BYOS-Azure:libnghttp2-14-1.40.0-150200.12.1",
            "Image SLES15-SP3-Micro-5-2-BYOS-EC2-HVM:libnghttp2-14-1.40.0-150200.12.1",
            "Image SLES15-SP3-Micro-5-2-BYOS-GCE:libnghttp2-14-1.40.0-150200.12.1",
            "Image SLES15-SP3-SAP-Azure-LI-BYOS-Production:libnghttp2-14-1.40.0-150200.12.1",
            "Image SLES15-SP3-SAP-Azure-VLI-BYOS-Production:libnghttp2-14-1.40.0-150200.12.1",
            "Image SLES15-SP3-SAP-BYOS-Azure:libnghttp2-14-1.40.0-150200.12.1",
            "Image SLES15-SP3-SAP-BYOS-EC2-HVM:libnghttp2-14-1.40.0-150200.12.1",
            "Image SLES15-SP3-SAP-BYOS-GCE:libnghttp2-14-1.40.0-150200.12.1",
            "Image SLES15-SP3-SAPCAL-Azure:libnghttp2-14-1.40.0-150200.12.1",
            "Image SLES15-SP3-SAPCAL-Azure:libnghttp2-14-32bit-1.40.0-150200.12.1",
            "Image SLES15-SP4-BYOS-Azure:libnghttp2-14-1.40.0-150200.12.1",
            "Image SLES15-SP4-BYOS-EC2:libnghttp2-14-1.40.0-150200.12.1",
            "Image SLES15-SP4-BYOS-GCE:libnghttp2-14-1.40.0-150200.12.1",
            "Image SLES15-SP4-BYOS:libnghttp2-14-1.40.0-150200.12.1",
            "Image SLES15-SP4-CHOST-BYOS-Aliyun:libnghttp2-14-1.40.0-150200.12.1",
            "Image SLES15-SP4-CHOST-BYOS-Azure:libnghttp2-14-1.40.0-150200.12.1",
            "Image SLES15-SP4-CHOST-BYOS-EC2:libnghttp2-14-1.40.0-150200.12.1",
            "Image SLES15-SP4-CHOST-BYOS-GCE:libnghttp2-14-1.40.0-150200.12.1",
            "Image SLES15-SP4-CHOST-BYOS-SAP-CCloud:libnghttp2-14-1.40.0-150200.12.1",
            "Image SLES15-SP4-CHOST-BYOS:libnghttp2-14-1.40.0-150200.12.1",
            "Image SLES15-SP4-HPC-BYOS-Azure:libnghttp2-14-1.40.0-150200.12.1",
            "Image SLES15-SP4-HPC-BYOS-EC2:libnghttp2-14-1.40.0-150200.12.1",
            "Image SLES15-SP4-HPC-BYOS-GCE:libnghttp2-14-1.40.0-150200.12.1",
            "Image SLES15-SP4-HPC-BYOS:libnghttp2-14-1.40.0-150200.12.1",
            "Image SLES15-SP4-HPC-EC2:libnghttp2-14-1.40.0-150200.12.1",
            "Image SLES15-SP4-HPC-GCE:libnghttp2-14-1.40.0-150200.12.1",
            "Image SLES15-SP4-Hardened-BYOS-Azure:libnghttp2-14-1.40.0-150200.12.1",
            "Image SLES15-SP4-Hardened-BYOS-EC2:libnghttp2-14-1.40.0-150200.12.1",
            "Image SLES15-SP4-Hardened-BYOS-GCE:libnghttp2-14-1.40.0-150200.12.1",
            "Image SLES15-SP4-Hardened-BYOS:libnghttp2-14-1.40.0-150200.12.1",
            "Image SLES15-SP4-Manager-Proxy-4-3-BYOS-Azure:libnghttp2-14-1.40.0-150200.12.1",
            "Image SLES15-SP4-Manager-Proxy-4-3-BYOS-EC2:libnghttp2-14-1.40.0-150200.12.1",
            "Image SLES15-SP4-Manager-Proxy-4-3-BYOS-GCE:libnghttp2-14-1.40.0-150200.12.1",
            "Image SLES15-SP4-Manager-Proxy-4-3-BYOS:libnghttp2-14-1.40.0-150200.12.1",
            "Image SLES15-SP4-Manager-Server-4-3-Azure-llc:libnghttp2-14-1.40.0-150200.12.1",
            "Image SLES15-SP4-Manager-Server-4-3-Azure-ltd:libnghttp2-14-1.40.0-150200.12.1",
            "Image SLES15-SP4-Manager-Server-4-3-BYOS-Azure:libnghttp2-14-1.40.0-150200.12.1",
            "Image SLES15-SP4-Manager-Server-4-3-BYOS-EC2:libnghttp2-14-1.40.0-150200.12.1",
            "Image SLES15-SP4-Manager-Server-4-3-BYOS-GCE:libnghttp2-14-1.40.0-150200.12.1",
            "Image SLES15-SP4-Manager-Server-4-3-BYOS:libnghttp2-14-1.40.0-150200.12.1",
            "Image SLES15-SP4-Manager-Server-4-3-EC2-llc:libnghttp2-14-1.40.0-150200.12.1",
            "Image SLES15-SP4-Manager-Server-4-3-EC2-ltd:libnghttp2-14-1.40.0-150200.12.1",
            "Image SLES15-SP4-Manager-Server-4-3:libnghttp2-14-1.40.0-150200.12.1",
            "Image SLES15-SP4-Micro-5-3-BYOS-Azure:libnghttp2-14-1.40.0-150200.12.1",
            "Image SLES15-SP4-Micro-5-3-BYOS-EC2:libnghttp2-14-1.40.0-150200.12.1",
            "Image SLES15-SP4-Micro-5-3-BYOS-GCE:libnghttp2-14-1.40.0-150200.12.1",
            "Image SLES15-SP4-Micro-5-3-BYOS:libnghttp2-14-1.40.0-150200.12.1",
            "Image SLES15-SP4-Micro-5-3-EC2:libnghttp2-14-1.40.0-150200.12.1",
            "Image SLES15-SP4-Micro-5-3:libnghttp2-14-1.40.0-150200.12.1",
            "Image SLES15-SP4-Micro-5-4-BYOS-Azure:libnghttp2-14-1.40.0-150200.12.1",
            "Image SLES15-SP4-Micro-5-4-BYOS-EC2:libnghttp2-14-1.40.0-150200.12.1",
            "Image SLES15-SP4-Micro-5-4-BYOS-GCE:libnghttp2-14-1.40.0-150200.12.1",
            "Image SLES15-SP4-Micro-5-4-BYOS:libnghttp2-14-1.40.0-150200.12.1",
            "Image SLES15-SP4-Micro-5-4-EC2:libnghttp2-14-1.40.0-150200.12.1",
            "Image SLES15-SP4-Micro-5-4-GCE:libnghttp2-14-1.40.0-150200.12.1",
            "Image SLES15-SP4-Micro-5-4:libnghttp2-14-1.40.0-150200.12.1",
            "Image SLES15-SP4-SAP-Azure-LI-BYOS-Production:libnghttp2-14-1.40.0-150200.12.1",
            "Image SLES15-SP4-SAP-Azure-LI-BYOS:libnghttp2-14-1.40.0-150200.12.1",
            "Image SLES15-SP4-SAP-Azure-VLI-BYOS-Production:libnghttp2-14-1.40.0-150200.12.1",
            "Image SLES15-SP4-SAP-Azure-VLI-BYOS:libnghttp2-14-1.40.0-150200.12.1",
            "Image SLES15-SP4-SAP-Azure:libnghttp2-14-1.40.0-150200.12.1",
            "Image SLES15-SP4-SAP-Azure:libnghttp2-14-32bit-1.40.0-150200.12.1",
            "Image SLES15-SP4-SAP-BYOS-Azure:libnghttp2-14-1.40.0-150200.12.1",
            "Image SLES15-SP4-SAP-BYOS-EC2:libnghttp2-14-1.40.0-150200.12.1",
            "Image SLES15-SP4-SAP-BYOS-GCE:libnghttp2-14-1.40.0-150200.12.1",
            "Image SLES15-SP4-SAP-BYOS:libnghttp2-14-1.40.0-150200.12.1",
            "Image SLES15-SP4-SAP-EC2:libnghttp2-14-1.40.0-150200.12.1",
            "Image SLES15-SP4-SAP-EC2:libnghttp2-14-32bit-1.40.0-150200.12.1",
            "Image SLES15-SP4-SAP-GCE:libnghttp2-14-1.40.0-150200.12.1",
            "Image SLES15-SP4-SAP-GCE:libnghttp2-14-32bit-1.40.0-150200.12.1",
            "Image SLES15-SP4-SAP-Hardened-Azure:libnghttp2-14-1.40.0-150200.12.1",
            "Image SLES15-SP4-SAP-Hardened-BYOS-Azure:libnghttp2-14-1.40.0-150200.12.1",
            "Image SLES15-SP4-SAP-Hardened-BYOS-EC2:libnghttp2-14-1.40.0-150200.12.1",
            "Image SLES15-SP4-SAP-Hardened-BYOS-GCE:libnghttp2-14-1.40.0-150200.12.1",
            "Image SLES15-SP4-SAP-Hardened-BYOS:libnghttp2-14-1.40.0-150200.12.1",
            "Image SLES15-SP4-SAP-Hardened-GCE:libnghttp2-14-1.40.0-150200.12.1",
            "Image SLES15-SP4-SAP-Hardened:libnghttp2-14-1.40.0-150200.12.1",
            "Image SLES15-SP4-SAP:libnghttp2-14-1.40.0-150200.12.1",
            "Image SLES15-SP4-SAP:libnghttp2-14-32bit-1.40.0-150200.12.1",
            "Image SLES15-SP4-SAPCAL-Azure:libnghttp2-14-1.40.0-150200.12.1",
            "Image SLES15-SP4-SAPCAL-Azure:libnghttp2-14-32bit-1.40.0-150200.12.1",
            "Image SLES15-SP4-SAPCAL-EC2:libnghttp2-14-1.40.0-150200.12.1",
            "Image SLES15-SP4-SAPCAL-EC2:libnghttp2-14-32bit-1.40.0-150200.12.1",
            "Image SLES15-SP4-SAPCAL-GCE:libnghttp2-14-1.40.0-150200.12.1",
            "Image SLES15-SP4-SAPCAL-GCE:libnghttp2-14-32bit-1.40.0-150200.12.1",
            "Image SLES15-SP4-SAPCAL:libnghttp2-14-1.40.0-150200.12.1",
            "Image SLES15-SP4-SAPCAL:libnghttp2-14-32bit-1.40.0-150200.12.1",
            "Image SLES15-SP4-SUSE-Rancher-Setup-BYOS-EC2:libnghttp2-14-1.40.0-150200.12.1",
            "Image SLES15-SP4-SUSE-Rancher-Setup-BYOS:libnghttp2-14-1.40.0-150200.12.1",
            "Image SLES15-SP5-Azure-Basic:libnghttp2-14-1.40.0-150200.12.1",
            "Image SLES15-SP5-Azure-Standard:libnghttp2-14-1.40.0-150200.12.1",
            "Image SLES15-SP5-BYOS-Azure:libnghttp2-14-1.40.0-150200.12.1",
            "Image SLES15-SP5-BYOS-EC2:libnghttp2-14-1.40.0-150200.12.1",
            "Image SLES15-SP5-BYOS-GCE:libnghttp2-14-1.40.0-150200.12.1",
            "Image SLES15-SP5-CHOST-BYOS-Aliyun:libnghttp2-14-1.40.0-150200.12.1",
            "Image SLES15-SP5-CHOST-BYOS-Azure:libnghttp2-14-1.40.0-150200.12.1",
            "Image SLES15-SP5-CHOST-BYOS-EC2:libnghttp2-14-1.40.0-150200.12.1",
            "Image SLES15-SP5-CHOST-BYOS-GCE:libnghttp2-14-1.40.0-150200.12.1",
            "Image SLES15-SP5-CHOST-BYOS-SAP-CCloud:libnghttp2-14-1.40.0-150200.12.1",
            "Image SLES15-SP5-EC2:libnghttp2-14-1.40.0-150200.12.1",
            "Image SLES15-SP5-GCE:libnghttp2-14-1.40.0-150200.12.1",
            "Image SLES15-SP5-HPC-Azure:libnghttp2-14-1.40.0-150200.12.1",
            "Image SLES15-SP5-HPC-BYOS-Azure:libnghttp2-14-1.40.0-150200.12.1",
            "Image SLES15-SP5-HPC-BYOS-EC2:libnghttp2-14-1.40.0-150200.12.1",
            "Image SLES15-SP5-HPC-BYOS-GCE:libnghttp2-14-1.40.0-150200.12.1",
            "Image SLES15-SP5-Hardened-BYOS-Azure:libnghttp2-14-1.40.0-150200.12.1",
            "Image SLES15-SP5-Hardened-BYOS-EC2:libnghttp2-14-1.40.0-150200.12.1",
            "Image SLES15-SP5-Hardened-BYOS-GCE:libnghttp2-14-1.40.0-150200.12.1",
            "Image SLES15-SP5-Micro-5-5-Azure:libnghttp2-14-1.40.0-150200.12.1",
            "Image SLES15-SP5-Micro-5-5-BYOS-Azure:libnghttp2-14-1.40.0-150200.12.1",
            "Image SLES15-SP5-Micro-5-5-BYOS-EC2:libnghttp2-14-1.40.0-150200.12.1",
            "Image SLES15-SP5-Micro-5-5-BYOS-GCE:libnghttp2-14-1.40.0-150200.12.1",
            "Image SLES15-SP5-Micro-5-5-BYOS:libnghttp2-14-1.40.0-150200.12.1",
            "Image SLES15-SP5-Micro-5-5-EC2:libnghttp2-14-1.40.0-150200.12.1",
            "Image SLES15-SP5-Micro-5-5-GCE:libnghttp2-14-1.40.0-150200.12.1",
            "Image SLES15-SP5-Micro-5-5:libnghttp2-14-1.40.0-150200.12.1",
            "Image SLES15-SP5-SAP-Azure-LI-BYOS-Production:libnghttp2-14-1.40.0-150200.12.1",
            "Image SLES15-SP5-SAP-Azure-LI-BYOS:libnghttp2-14-1.40.0-150200.12.1",
            "Image SLES15-SP5-SAP-Azure-VLI-BYOS-Production:libnghttp2-14-1.40.0-150200.12.1",
            "Image SLES15-SP5-SAP-Azure-VLI-BYOS:libnghttp2-14-1.40.0-150200.12.1",
            "Image SLES15-SP5-SAP-BYOS-Azure:libnghttp2-14-1.40.0-150200.12.1",
            "Image SLES15-SP5-SAP-BYOS-EC2:libnghttp2-14-1.40.0-150200.12.1",
            "Image SLES15-SP5-SAP-BYOS-GCE:libnghttp2-14-1.40.0-150200.12.1",
            "Image SLES15-SP5-SAP-Hardened-Azure:libnghttp2-14-1.40.0-150200.12.1",
            "Image SLES15-SP5-SAP-Hardened-BYOS-Azure:libnghttp2-14-1.40.0-150200.12.1",
            "Image SLES15-SP5-SAP-Hardened-BYOS-EC2:libnghttp2-14-1.40.0-150200.12.1",
            "Image SLES15-SP5-SAP-Hardened-BYOS-GCE:libnghttp2-14-1.40.0-150200.12.1",
            "Image SLES15-SP5-SAP-Hardened-GCE:libnghttp2-14-1.40.0-150200.12.1",
            "Image SLES15-SP5-SAPCAL-Azure:libnghttp2-14-1.40.0-150200.12.1",
            "Image SLES15-SP5-SAPCAL-Azure:libnghttp2-14-32bit-1.40.0-150200.12.1",
            "Image SLES15-SP5-SAPCAL-EC2:libnghttp2-14-1.40.0-150200.12.1",
            "Image SLES15-SP5-SAPCAL-EC2:libnghttp2-14-32bit-1.40.0-150200.12.1",
            "Image SLES15-SP5-SAPCAL-GCE:libnghttp2-14-1.40.0-150200.12.1",
            "Image SLES15-SP5-SAPCAL-GCE:libnghttp2-14-32bit-1.40.0-150200.12.1",
            "SUSE Enterprise Storage 7.1:libnghttp2-14-1.40.0-150200.12.1",
            "SUSE Enterprise Storage 7.1:libnghttp2-14-32bit-1.40.0-150200.12.1",
            "SUSE Enterprise Storage 7.1:libnghttp2-devel-1.40.0-150200.12.1",
            "SUSE Enterprise Storage 7.1:libnghttp2_asio-devel-1.40.0-150200.12.1",
            "SUSE Enterprise Storage 7.1:libnghttp2_asio1-1.40.0-150200.12.1",
            "SUSE Linux Enterprise High Performance Computing 15 SP2-LTSS:libnghttp2-14-1.40.0-150200.12.1",
            "SUSE Linux Enterprise High Performance Computing 15 SP2-LTSS:libnghttp2-14-32bit-1.40.0-150200.12.1",
            "SUSE Linux Enterprise High Performance Computing 15 SP2-LTSS:libnghttp2-devel-1.40.0-150200.12.1",
            "SUSE Linux Enterprise High Performance Computing 15 SP2-LTSS:libnghttp2_asio-devel-1.40.0-150200.12.1",
            "SUSE Linux Enterprise High Performance Computing 15 SP2-LTSS:libnghttp2_asio1-1.40.0-150200.12.1",
            "SUSE Linux Enterprise High Performance Computing 15 SP3-ESPOS:libnghttp2-14-1.40.0-150200.12.1",
            "SUSE Linux Enterprise High Performance Computing 15 SP3-ESPOS:libnghttp2-14-32bit-1.40.0-150200.12.1",
            "SUSE Linux Enterprise High Performance Computing 15 SP3-ESPOS:libnghttp2-devel-1.40.0-150200.12.1",
            "SUSE Linux Enterprise High Performance Computing 15 SP3-ESPOS:libnghttp2_asio-devel-1.40.0-150200.12.1",
            "SUSE Linux Enterprise High Performance Computing 15 SP3-ESPOS:libnghttp2_asio1-1.40.0-150200.12.1",
            "SUSE Linux Enterprise High Performance Computing 15 SP3-LTSS:libnghttp2-14-1.40.0-150200.12.1",
            "SUSE Linux Enterprise High Performance Computing 15 SP3-LTSS:libnghttp2-14-32bit-1.40.0-150200.12.1",
            "SUSE Linux Enterprise High Performance Computing 15 SP3-LTSS:libnghttp2-devel-1.40.0-150200.12.1",
            "SUSE Linux Enterprise High Performance Computing 15 SP3-LTSS:libnghttp2_asio-devel-1.40.0-150200.12.1",
            "SUSE Linux Enterprise High Performance Computing 15 SP3-LTSS:libnghttp2_asio1-1.40.0-150200.12.1",
            "SUSE Linux Enterprise Micro 5.1:libnghttp2-14-1.40.0-150200.12.1",
            "SUSE Linux Enterprise Micro 5.2:libnghttp2-14-1.40.0-150200.12.1",
            "SUSE Linux Enterprise Micro 5.3:libnghttp2-14-1.40.0-150200.12.1",
            "SUSE Linux Enterprise Micro 5.4:libnghttp2-14-1.40.0-150200.12.1",
            "SUSE Linux Enterprise Micro 5.5:libnghttp2-14-1.40.0-150200.12.1",
            "SUSE Linux Enterprise Module for Basesystem 15 SP4:libnghttp2-14-1.40.0-150200.12.1",
            "SUSE Linux Enterprise Module for Basesystem 15 SP4:libnghttp2-14-32bit-1.40.0-150200.12.1",
            "SUSE Linux Enterprise Module for Basesystem 15 SP4:libnghttp2-devel-1.40.0-150200.12.1",
            "SUSE Linux Enterprise Module for Basesystem 15 SP4:libnghttp2_asio-devel-1.40.0-150200.12.1",
            "SUSE Linux Enterprise Module for Basesystem 15 SP4:libnghttp2_asio1-1.40.0-150200.12.1",
            "SUSE Linux Enterprise Module for Basesystem 15 SP5:libnghttp2-14-1.40.0-150200.12.1",
            "SUSE Linux Enterprise Module for Basesystem 15 SP5:libnghttp2-14-32bit-1.40.0-150200.12.1",
            "SUSE Linux Enterprise Module for Basesystem 15 SP5:libnghttp2-devel-1.40.0-150200.12.1",
            "SUSE Linux Enterprise Module for Basesystem 15 SP5:libnghttp2_asio-devel-1.40.0-150200.12.1",
            "SUSE Linux Enterprise Module for Basesystem 15 SP5:libnghttp2_asio1-1.40.0-150200.12.1",
            "SUSE Linux Enterprise Server 15 SP2-LTSS:libnghttp2-14-1.40.0-150200.12.1",
            "SUSE Linux Enterprise Server 15 SP2-LTSS:libnghttp2-14-32bit-1.40.0-150200.12.1",
            "SUSE Linux Enterprise Server 15 SP2-LTSS:libnghttp2-devel-1.40.0-150200.12.1",
            "SUSE Linux Enterprise Server 15 SP2-LTSS:libnghttp2_asio-devel-1.40.0-150200.12.1",
            "SUSE Linux Enterprise Server 15 SP2-LTSS:libnghttp2_asio1-1.40.0-150200.12.1",
            "SUSE Linux Enterprise Server 15 SP3-LTSS:libnghttp2-14-1.40.0-150200.12.1",
            "SUSE Linux Enterprise Server 15 SP3-LTSS:libnghttp2-14-32bit-1.40.0-150200.12.1",
            "SUSE Linux Enterprise Server 15 SP3-LTSS:libnghttp2-devel-1.40.0-150200.12.1",
            "SUSE Linux Enterprise Server 15 SP3-LTSS:libnghttp2_asio-devel-1.40.0-150200.12.1",
            "SUSE Linux Enterprise Server 15 SP3-LTSS:libnghttp2_asio1-1.40.0-150200.12.1",
            "SUSE Linux Enterprise Server for SAP Applications 15 SP2:libnghttp2-14-1.40.0-150200.12.1",
            "SUSE Linux Enterprise Server for SAP Applications 15 SP2:libnghttp2-14-32bit-1.40.0-150200.12.1",
            "SUSE Linux Enterprise Server for SAP Applications 15 SP2:libnghttp2-devel-1.40.0-150200.12.1",
            "SUSE Linux Enterprise Server for SAP Applications 15 SP2:libnghttp2_asio-devel-1.40.0-150200.12.1",
            "SUSE Linux Enterprise Server for SAP Applications 15 SP2:libnghttp2_asio1-1.40.0-150200.12.1",
            "SUSE Linux Enterprise Server for SAP Applications 15 SP3:libnghttp2-14-1.40.0-150200.12.1",
            "SUSE Linux Enterprise Server for SAP Applications 15 SP3:libnghttp2-14-32bit-1.40.0-150200.12.1",
            "SUSE Linux Enterprise Server for SAP Applications 15 SP3:libnghttp2-devel-1.40.0-150200.12.1",
            "SUSE Linux Enterprise Server for SAP Applications 15 SP3:libnghttp2_asio-devel-1.40.0-150200.12.1",
            "SUSE Linux Enterprise Server for SAP Applications 15 SP3:libnghttp2_asio1-1.40.0-150200.12.1",
            "SUSE Manager Proxy 4.2:libnghttp2-14-1.40.0-150200.12.1",
            "SUSE Manager Proxy 4.2:libnghttp2-14-32bit-1.40.0-150200.12.1",
            "SUSE Manager Proxy 4.2:libnghttp2-devel-1.40.0-150200.12.1",
            "SUSE Manager Proxy 4.2:libnghttp2_asio-devel-1.40.0-150200.12.1",
            "SUSE Manager Proxy 4.2:libnghttp2_asio1-1.40.0-150200.12.1",
            "SUSE Manager Server 4.2:libnghttp2-14-1.40.0-150200.12.1",
            "SUSE Manager Server 4.2:libnghttp2-14-32bit-1.40.0-150200.12.1",
            "SUSE Manager Server 4.2:libnghttp2-devel-1.40.0-150200.12.1",
            "SUSE Manager Server 4.2:libnghttp2_asio-devel-1.40.0-150200.12.1",
            "SUSE Manager Server 4.2:libnghttp2_asio1-1.40.0-150200.12.1",
            "openSUSE Leap 15.4:libnghttp2-14-1.40.0-150200.12.1",
            "openSUSE Leap 15.4:libnghttp2-14-32bit-1.40.0-150200.12.1",
            "openSUSE Leap 15.4:libnghttp2-devel-1.40.0-150200.12.1",
            "openSUSE Leap 15.4:libnghttp2_asio-devel-1.40.0-150200.12.1",
            "openSUSE Leap 15.4:libnghttp2_asio1-1.40.0-150200.12.1",
            "openSUSE Leap 15.4:libnghttp2_asio1-32bit-1.40.0-150200.12.1",
            "openSUSE Leap 15.4:nghttp2-1.40.0-150200.12.1",
            "openSUSE Leap 15.4:python3-nghttp2-1.40.0-150200.12.1",
            "openSUSE Leap 15.5:libnghttp2-14-1.40.0-150200.12.1",
            "openSUSE Leap 15.5:libnghttp2-14-32bit-1.40.0-150200.12.1",
            "openSUSE Leap 15.5:libnghttp2-devel-1.40.0-150200.12.1",
            "openSUSE Leap 15.5:libnghttp2_asio-devel-1.40.0-150200.12.1",
            "openSUSE Leap 15.5:libnghttp2_asio1-1.40.0-150200.12.1",
            "openSUSE Leap 15.5:libnghttp2_asio1-32bit-1.40.0-150200.12.1",
            "openSUSE Leap 15.5:nghttp2-1.40.0-150200.12.1",
            "openSUSE Leap 15.5:python3-nghttp2-1.40.0-150200.12.1",
            "openSUSE Leap Micro 5.3:libnghttp2-14-1.40.0-150200.12.1",
            "openSUSE Leap Micro 5.4:libnghttp2-14-1.40.0-150200.12.1"
          ]
        }
      ],
      "CVSSScoreSets": {}
    }
  ]
}