{
  "Title": "Security update for xen",
  "Tracking": {
    "ID": "SUSE-SU-2023:3831-1",
    "Status": "Final",
    "Version": "1",
    "InitialReleaseDate": "2023-09-27T17:15:27Z",
    "CurrentReleaseDate": "2023-09-27T17:15:27Z",
    "RevisionHistory": [
      {
        "Number": "1",
        "Date": "2023-09-27T17:15:27Z",
        "Description": "current"
      }
    ]
  },
  "Notes": [
    {
      "Text": "Security update for xen",
      "Title": "Topic",
      "Type": "Summary"
    },
    {
      "Text": "This update for xen fixes the following issues:\n\n- CVE-2023-20588: Fixed AMD CPU transitional execution leak via division by zero (XSA-439) (bsc#1215474).\n- CVE-2023-34322: Fixed top-level shadow reference dropped too early for 64-bit PV guests (XSA-438) (bsc#1215145).\n",
      "Title": "Details",
      "Type": "General"
    },
    {
      "Text": "The CVRF data is provided by SUSE under the Creative Commons License 4.0 with Attribution (CC-BY-4.0).",
      "Title": "Terms of Use",
      "Type": "Legal Disclaimer"
    },
    {
      "Text": "Image SLES15-SP5-Azure-Basic-2023-3831,Image SLES15-SP5-Azure-Standard-2023-3831,Image SLES15-SP5-BYOS-Azure-2023-3831,Image SLES15-SP5-BYOS-EC2-2023-3831,Image SLES15-SP5-BYOS-GCE-2023-3831,Image SLES15-SP5-CHOST-BYOS-Aliyun-2023-3831,Image SLES15-SP5-CHOST-BYOS-Azure-2023-3831,Image SLES15-SP5-CHOST-BYOS-EC2-2023-3831,Image SLES15-SP5-CHOST-BYOS-GCE-2023-3831,Image SLES15-SP5-CHOST-BYOS-SAP-CCloud-2023-3831,Image SLES15-SP5-EC2-2023-3831,Image SLES15-SP5-GCE-2023-3831,Image SLES15-SP5-HPC-Azure-2023-3831,Image SLES15-SP5-HPC-BYOS-Azure-2023-3831,Image SLES15-SP5-HPC-BYOS-EC2-2023-3831,Image SLES15-SP5-HPC-BYOS-GCE-2023-3831,Image SLES15-SP5-Hardened-BYOS-Azure-2023-3831,Image SLES15-SP5-Hardened-BYOS-EC2-2023-3831,Image SLES15-SP5-Hardened-BYOS-GCE-2023-3831,Image SLES15-SP5-Micro-5-5-2023-3831,Image SLES15-SP5-Micro-5-5-Azure-2023-3831,Image SLES15-SP5-Micro-5-5-BYOS-2023-3831,Image SLES15-SP5-Micro-5-5-BYOS-Azure-2023-3831,Image SLES15-SP5-Micro-5-5-BYOS-EC2-2023-3831,Image SLES15-SP5-Micro-5-5-BYOS-GCE-2023-3831,Image SLES15-SP5-Micro-5-5-EC2-2023-3831,Image SLES15-SP5-Micro-5-5-GCE-2023-3831,Image SLES15-SP5-SAP-Azure-LI-BYOS-2023-3831,Image SLES15-SP5-SAP-Azure-LI-BYOS-Production-2023-3831,Image SLES15-SP5-SAP-Azure-VLI-BYOS-2023-3831,Image SLES15-SP5-SAP-Azure-VLI-BYOS-Production-2023-3831,Image SLES15-SP5-SAP-BYOS-Azure-2023-3831,Image SLES15-SP5-SAP-BYOS-EC2-2023-3831,Image SLES15-SP5-SAP-BYOS-GCE-2023-3831,Image SLES15-SP5-SAP-Hardened-Azure-2023-3831,Image SLES15-SP5-SAP-Hardened-BYOS-Azure-2023-3831,Image SLES15-SP5-SAP-Hardened-BYOS-EC2-2023-3831,Image SLES15-SP5-SAP-Hardened-BYOS-GCE-2023-3831,Image SLES15-SP5-SAP-Hardened-GCE-2023-3831,Image SLES15-SP5-SAPCAL-Azure-2023-3831,Image SLES15-SP5-SAPCAL-EC2-2023-3831,Image SLES15-SP5-SAPCAL-GCE-2023-3831,SUSE-2023-3831,SUSE-SLE-Module-Basesystem-15-SP5-2023-3831,SUSE-SLE-Module-Server-Applications-15-SP5-2023-3831,openSUSE-SLE-15.5-2023-3831",
      "Title": "Patchnames",
      "Type": "Details"
    }
  ],
  "ProductTree": {
    "Relationships": [
      {
        "ProductReference": "xen-libs-4.17.2_04-150500.3.9.1",
        "RelatesToProductReference": "Image SLES15-SP5-Azure-Basic",
        "RelationType": "Default Component Of"
      },
      {
        "ProductReference": "xen-libs-4.17.2_04-150500.3.9.1",
        "RelatesToProductReference": "Image SLES15-SP5-Azure-Standard",
        "RelationType": "Default Component Of"
      },
      {
        "ProductReference": "xen-libs-4.17.2_04-150500.3.9.1",
        "RelatesToProductReference": "Image SLES15-SP5-BYOS-Azure",
        "RelationType": "Default Component Of"
      },
      {
        "ProductReference": "xen-libs-4.17.2_04-150500.3.9.1",
        "RelatesToProductReference": "Image SLES15-SP5-BYOS-EC2",
        "RelationType": "Default Component Of"
      },
      {
        "ProductReference": "xen-tools-domU-4.17.2_04-150500.3.9.1",
        "RelatesToProductReference": "Image SLES15-SP5-BYOS-EC2",
        "RelationType": "Default Component Of"
      },
      {
        "ProductReference": "xen-libs-4.17.2_04-150500.3.9.1",
        "RelatesToProductReference": "Image SLES15-SP5-BYOS-GCE",
        "RelationType": "Default Component Of"
      },
      {
        "ProductReference": "xen-libs-4.17.2_04-150500.3.9.1",
        "RelatesToProductReference": "Image SLES15-SP5-CHOST-BYOS-Aliyun",
        "RelationType": "Default Component Of"
      },
      {
        "ProductReference": "xen-libs-4.17.2_04-150500.3.9.1",
        "RelatesToProductReference": "Image SLES15-SP5-CHOST-BYOS-Azure",
        "RelationType": "Default Component Of"
      },
      {
        "ProductReference": "xen-libs-4.17.2_04-150500.3.9.1",
        "RelatesToProductReference": "Image SLES15-SP5-CHOST-BYOS-EC2",
        "RelationType": "Default Component Of"
      },
      {
        "ProductReference": "xen-tools-domU-4.17.2_04-150500.3.9.1",
        "RelatesToProductReference": "Image SLES15-SP5-CHOST-BYOS-EC2",
        "RelationType": "Default Component Of"
      },
      {
        "ProductReference": "xen-libs-4.17.2_04-150500.3.9.1",
        "RelatesToProductReference": "Image SLES15-SP5-CHOST-BYOS-GCE",
        "RelationType": "Default Component Of"
      },
      {
        "ProductReference": "xen-libs-4.17.2_04-150500.3.9.1",
        "RelatesToProductReference": "Image SLES15-SP5-CHOST-BYOS-SAP-CCloud",
        "RelationType": "Default Component Of"
      },
      {
        "ProductReference": "xen-libs-4.17.2_04-150500.3.9.1",
        "RelatesToProductReference": "Image SLES15-SP5-EC2",
        "RelationType": "Default Component Of"
      },
      {
        "ProductReference": "xen-tools-domU-4.17.2_04-150500.3.9.1",
        "RelatesToProductReference": "Image SLES15-SP5-EC2",
        "RelationType": "Default Component Of"
      },
      {
        "ProductReference": "xen-libs-4.17.2_04-150500.3.9.1",
        "RelatesToProductReference": "Image SLES15-SP5-GCE",
        "RelationType": "Default Component Of"
      },
      {
        "ProductReference": "xen-libs-4.17.2_04-150500.3.9.1",
        "RelatesToProductReference": "Image SLES15-SP5-HPC-Azure",
        "RelationType": "Default Component Of"
      },
      {
        "ProductReference": "xen-libs-4.17.2_04-150500.3.9.1",
        "RelatesToProductReference": "Image SLES15-SP5-HPC-BYOS-Azure",
        "RelationType": "Default Component Of"
      },
      {
        "ProductReference": "xen-libs-4.17.2_04-150500.3.9.1",
        "RelatesToProductReference": "Image SLES15-SP5-HPC-BYOS-EC2",
        "RelationType": "Default Component Of"
      },
      {
        "ProductReference": "xen-tools-domU-4.17.2_04-150500.3.9.1",
        "RelatesToProductReference": "Image SLES15-SP5-HPC-BYOS-EC2",
        "RelationType": "Default Component Of"
      },
      {
        "ProductReference": "xen-libs-4.17.2_04-150500.3.9.1",
        "RelatesToProductReference": "Image SLES15-SP5-HPC-BYOS-GCE",
        "RelationType": "Default Component Of"
      },
      {
        "ProductReference": "xen-libs-4.17.2_04-150500.3.9.1",
        "RelatesToProductReference": "Image SLES15-SP5-Hardened-BYOS-Azure",
        "RelationType": "Default Component Of"
      },
      {
        "ProductReference": "xen-libs-4.17.2_04-150500.3.9.1",
        "RelatesToProductReference": "Image SLES15-SP5-Hardened-BYOS-EC2",
        "RelationType": "Default Component Of"
      },
      {
        "ProductReference": "xen-tools-domU-4.17.2_04-150500.3.9.1",
        "RelatesToProductReference": "Image SLES15-SP5-Hardened-BYOS-EC2",
        "RelationType": "Default Component Of"
      },
      {
        "ProductReference": "xen-libs-4.17.2_04-150500.3.9.1",
        "RelatesToProductReference": "Image SLES15-SP5-Hardened-BYOS-GCE",
        "RelationType": "Default Component Of"
      },
      {
        "ProductReference": "xen-libs-4.17.2_04-150500.3.9.1",
        "RelatesToProductReference": "Image SLES15-SP5-Micro-5-5",
        "RelationType": "Default Component Of"
      },
      {
        "ProductReference": "xen-libs-4.17.2_04-150500.3.9.1",
        "RelatesToProductReference": "Image SLES15-SP5-Micro-5-5-Azure",
        "RelationType": "Default Component Of"
      },
      {
        "ProductReference": "xen-libs-4.17.2_04-150500.3.9.1",
        "RelatesToProductReference": "Image SLES15-SP5-Micro-5-5-BYOS",
        "RelationType": "Default Component Of"
      },
      {
        "ProductReference": "xen-tools-domU-4.17.2_04-150500.3.9.1",
        "RelatesToProductReference": "Image SLES15-SP5-Micro-5-5-BYOS",
        "RelationType": "Default Component Of"
      },
      {
        "ProductReference": "xen-libs-4.17.2_04-150500.3.9.1",
        "RelatesToProductReference": "Image SLES15-SP5-Micro-5-5-BYOS-Azure",
        "RelationType": "Default Component Of"
      },
      {
        "ProductReference": "xen-libs-4.17.2_04-150500.3.9.1",
        "RelatesToProductReference": "Image SLES15-SP5-Micro-5-5-BYOS-EC2",
        "RelationType": "Default Component Of"
      },
      {
        "ProductReference": "xen-tools-domU-4.17.2_04-150500.3.9.1",
        "RelatesToProductReference": "Image SLES15-SP5-Micro-5-5-BYOS-EC2",
        "RelationType": "Default Component Of"
      },
      {
        "ProductReference": "xen-libs-4.17.2_04-150500.3.9.1",
        "RelatesToProductReference": "Image SLES15-SP5-Micro-5-5-BYOS-GCE",
        "RelationType": "Default Component Of"
      },
      {
        "ProductReference": "xen-libs-4.17.2_04-150500.3.9.1",
        "RelatesToProductReference": "Image SLES15-SP5-Micro-5-5-EC2",
        "RelationType": "Default Component Of"
      },
      {
        "ProductReference": "xen-tools-domU-4.17.2_04-150500.3.9.1",
        "RelatesToProductReference": "Image SLES15-SP5-Micro-5-5-EC2",
        "RelationType": "Default Component Of"
      },
      {
        "ProductReference": "xen-libs-4.17.2_04-150500.3.9.1",
        "RelatesToProductReference": "Image SLES15-SP5-Micro-5-5-GCE",
        "RelationType": "Default Component Of"
      },
      {
        "ProductReference": "xen-libs-4.17.2_04-150500.3.9.1",
        "RelatesToProductReference": "Image SLES15-SP5-SAP-Azure-LI-BYOS",
        "RelationType": "Default Component Of"
      },
      {
        "ProductReference": "xen-libs-4.17.2_04-150500.3.9.1",
        "RelatesToProductReference": "Image SLES15-SP5-SAP-Azure-LI-BYOS-Production",
        "RelationType": "Default Component Of"
      },
      {
        "ProductReference": "xen-libs-4.17.2_04-150500.3.9.1",
        "RelatesToProductReference": "Image SLES15-SP5-SAP-Azure-VLI-BYOS",
        "RelationType": "Default Component Of"
      },
      {
        "ProductReference": "xen-libs-4.17.2_04-150500.3.9.1",
        "RelatesToProductReference": "Image SLES15-SP5-SAP-Azure-VLI-BYOS-Production",
        "RelationType": "Default Component Of"
      },
      {
        "ProductReference": "xen-libs-4.17.2_04-150500.3.9.1",
        "RelatesToProductReference": "Image SLES15-SP5-SAP-BYOS-Azure",
        "RelationType": "Default Component Of"
      },
      {
        "ProductReference": "xen-libs-4.17.2_04-150500.3.9.1",
        "RelatesToProductReference": "Image SLES15-SP5-SAP-BYOS-EC2",
        "RelationType": "Default Component Of"
      },
      {
        "ProductReference": "xen-tools-domU-4.17.2_04-150500.3.9.1",
        "RelatesToProductReference": "Image SLES15-SP5-SAP-BYOS-EC2",
        "RelationType": "Default Component Of"
      },
      {
        "ProductReference": "xen-libs-4.17.2_04-150500.3.9.1",
        "RelatesToProductReference": "Image SLES15-SP5-SAP-BYOS-GCE",
        "RelationType": "Default Component Of"
      },
      {
        "ProductReference": "xen-libs-4.17.2_04-150500.3.9.1",
        "RelatesToProductReference": "Image SLES15-SP5-SAP-Hardened-Azure",
        "RelationType": "Default Component Of"
      },
      {
        "ProductReference": "xen-libs-4.17.2_04-150500.3.9.1",
        "RelatesToProductReference": "Image SLES15-SP5-SAP-Hardened-BYOS-Azure",
        "RelationType": "Default Component Of"
      },
      {
        "ProductReference": "xen-libs-4.17.2_04-150500.3.9.1",
        "RelatesToProductReference": "Image SLES15-SP5-SAP-Hardened-BYOS-EC2",
        "RelationType": "Default Component Of"
      },
      {
        "ProductReference": "xen-tools-domU-4.17.2_04-150500.3.9.1",
        "RelatesToProductReference": "Image SLES15-SP5-SAP-Hardened-BYOS-EC2",
        "RelationType": "Default Component Of"
      },
      {
        "ProductReference": "xen-libs-4.17.2_04-150500.3.9.1",
        "RelatesToProductReference": "Image SLES15-SP5-SAP-Hardened-BYOS-GCE",
        "RelationType": "Default Component Of"
      },
      {
        "ProductReference": "xen-libs-4.17.2_04-150500.3.9.1",
        "RelatesToProductReference": "Image SLES15-SP5-SAP-Hardened-GCE",
        "RelationType": "Default Component Of"
      },
      {
        "ProductReference": "xen-libs-4.17.2_04-150500.3.9.1",
        "RelatesToProductReference": "Image SLES15-SP5-SAPCAL-Azure",
        "RelationType": "Default Component Of"
      },
      {
        "ProductReference": "xen-libs-4.17.2_04-150500.3.9.1",
        "RelatesToProductReference": "Image SLES15-SP5-SAPCAL-EC2",
        "RelationType": "Default Component Of"
      },
      {
        "ProductReference": "xen-tools-domU-4.17.2_04-150500.3.9.1",
        "RelatesToProductReference": "Image SLES15-SP5-SAPCAL-EC2",
        "RelationType": "Default Component Of"
      },
      {
        "ProductReference": "xen-libs-4.17.2_04-150500.3.9.1",
        "RelatesToProductReference": "Image SLES15-SP5-SAPCAL-GCE",
        "RelationType": "Default Component Of"
      },
      {
        "ProductReference": "xen-libs-4.17.2_04-150500.3.9.1",
        "RelatesToProductReference": "SUSE Linux Enterprise Module for Basesystem 15 SP5",
        "RelationType": "Default Component Of"
      },
      {
        "ProductReference": "xen-tools-domU-4.17.2_04-150500.3.9.1",
        "RelatesToProductReference": "SUSE Linux Enterprise Module for Basesystem 15 SP5",
        "RelationType": "Default Component Of"
      },
      {
        "ProductReference": "xen-4.17.2_04-150500.3.9.1",
        "RelatesToProductReference": "SUSE Linux Enterprise Module for Server Applications 15 SP5",
        "RelationType": "Default Component Of"
      },
      {
        "ProductReference": "xen-devel-4.17.2_04-150500.3.9.1",
        "RelatesToProductReference": "SUSE Linux Enterprise Module for Server Applications 15 SP5",
        "RelationType": "Default Component Of"
      },
      {
        "ProductReference": "xen-tools-4.17.2_04-150500.3.9.1",
        "RelatesToProductReference": "SUSE Linux Enterprise Module for Server Applications 15 SP5",
        "RelationType": "Default Component Of"
      },
      {
        "ProductReference": "xen-tools-xendomains-wait-disk-4.17.2_04-150500.3.9.1",
        "RelatesToProductReference": "SUSE Linux Enterprise Module for Server Applications 15 SP5",
        "RelationType": "Default Component Of"
      },
      {
        "ProductReference": "xen-4.17.2_04-150500.3.9.1",
        "RelatesToProductReference": "openSUSE Leap 15.5",
        "RelationType": "Default Component Of"
      },
      {
        "ProductReference": "xen-devel-4.17.2_04-150500.3.9.1",
        "RelatesToProductReference": "openSUSE Leap 15.5",
        "RelationType": "Default Component Of"
      },
      {
        "ProductReference": "xen-doc-html-4.17.2_04-150500.3.9.1",
        "RelatesToProductReference": "openSUSE Leap 15.5",
        "RelationType": "Default Component Of"
      },
      {
        "ProductReference": "xen-libs-4.17.2_04-150500.3.9.1",
        "RelatesToProductReference": "openSUSE Leap 15.5",
        "RelationType": "Default Component Of"
      },
      {
        "ProductReference": "xen-libs-32bit-4.17.2_04-150500.3.9.1",
        "RelatesToProductReference": "openSUSE Leap 15.5",
        "RelationType": "Default Component Of"
      },
      {
        "ProductReference": "xen-tools-4.17.2_04-150500.3.9.1",
        "RelatesToProductReference": "openSUSE Leap 15.5",
        "RelationType": "Default Component Of"
      },
      {
        "ProductReference": "xen-tools-domU-4.17.2_04-150500.3.9.1",
        "RelatesToProductReference": "openSUSE Leap 15.5",
        "RelationType": "Default Component Of"
      },
      {
        "ProductReference": "xen-tools-xendomains-wait-disk-4.17.2_04-150500.3.9.1",
        "RelatesToProductReference": "openSUSE Leap 15.5",
        "RelationType": "Default Component Of"
      }
    ]
  },
  "References": [
    {
      "URL": "https://www.suse.com/support/update/announcement/2023/suse-su-20233831-1/",
      "Description": "Link for SUSE-SU-2023:3831-1"
    },
    {
      "URL": "https://lists.suse.com/pipermail/sle-updates/2023-September/031734.html",
      "Description": "E-Mail link for SUSE-SU-2023:3831-1"
    },
    {
      "URL": "https://www.suse.com/support/security/rating/",
      "Description": "SUSE Security Ratings"
    },
    {
      "URL": "https://bugzilla.suse.com/1215145",
      "Description": "SUSE Bug 1215145"
    },
    {
      "URL": "https://bugzilla.suse.com/1215474",
      "Description": "SUSE Bug 1215474"
    },
    {
      "URL": "https://www.suse.com/security/cve/CVE-2023-20588/",
      "Description": "SUSE CVE CVE-2023-20588 page"
    },
    {
      "URL": "https://www.suse.com/security/cve/CVE-2023-34322/",
      "Description": "SUSE CVE CVE-2023-34322 page"
    }
  ],
  "Vulnerabilities": [
    {
      "CVE": "CVE-2023-20588",
      "Description": "\nA division-by-zero error on some AMD processors can potentially return speculative data resulting in loss of confidentiality. \n\n\n\n\n\n\n\n",
      "Threats": [
        {
          "Type": "Impact",
          "Severity": "moderate"
        }
      ],
      "References": [
        {
          "URL": "https://www.suse.com/security/cve/CVE-2023-20588.html",
          "Description": "CVE-2023-20588"
        },
        {
          "URL": "https://bugzilla.suse.com/1213927",
          "Description": "SUSE Bug 1213927"
        }
      ],
      "ProductStatuses": [
        {
          "Type": "Fixed",
          "ProductID": [
            "Image SLES15-SP5-Azure-Basic:xen-libs-4.17.2_04-150500.3.9.1",
            "Image SLES15-SP5-Azure-Standard:xen-libs-4.17.2_04-150500.3.9.1",
            "Image SLES15-SP5-BYOS-Azure:xen-libs-4.17.2_04-150500.3.9.1",
            "Image SLES15-SP5-BYOS-EC2:xen-libs-4.17.2_04-150500.3.9.1",
            "Image SLES15-SP5-BYOS-EC2:xen-tools-domU-4.17.2_04-150500.3.9.1",
            "Image SLES15-SP5-BYOS-GCE:xen-libs-4.17.2_04-150500.3.9.1",
            "Image SLES15-SP5-CHOST-BYOS-Aliyun:xen-libs-4.17.2_04-150500.3.9.1",
            "Image SLES15-SP5-CHOST-BYOS-Azure:xen-libs-4.17.2_04-150500.3.9.1",
            "Image SLES15-SP5-CHOST-BYOS-EC2:xen-libs-4.17.2_04-150500.3.9.1",
            "Image SLES15-SP5-CHOST-BYOS-EC2:xen-tools-domU-4.17.2_04-150500.3.9.1",
            "Image SLES15-SP5-CHOST-BYOS-GCE:xen-libs-4.17.2_04-150500.3.9.1",
            "Image SLES15-SP5-CHOST-BYOS-SAP-CCloud:xen-libs-4.17.2_04-150500.3.9.1",
            "Image SLES15-SP5-EC2:xen-libs-4.17.2_04-150500.3.9.1",
            "Image SLES15-SP5-EC2:xen-tools-domU-4.17.2_04-150500.3.9.1",
            "Image SLES15-SP5-GCE:xen-libs-4.17.2_04-150500.3.9.1",
            "Image SLES15-SP5-HPC-Azure:xen-libs-4.17.2_04-150500.3.9.1",
            "Image SLES15-SP5-HPC-BYOS-Azure:xen-libs-4.17.2_04-150500.3.9.1",
            "Image SLES15-SP5-HPC-BYOS-EC2:xen-libs-4.17.2_04-150500.3.9.1",
            "Image SLES15-SP5-HPC-BYOS-EC2:xen-tools-domU-4.17.2_04-150500.3.9.1",
            "Image SLES15-SP5-HPC-BYOS-GCE:xen-libs-4.17.2_04-150500.3.9.1",
            "Image SLES15-SP5-Hardened-BYOS-Azure:xen-libs-4.17.2_04-150500.3.9.1",
            "Image SLES15-SP5-Hardened-BYOS-EC2:xen-libs-4.17.2_04-150500.3.9.1",
            "Image SLES15-SP5-Hardened-BYOS-EC2:xen-tools-domU-4.17.2_04-150500.3.9.1",
            "Image SLES15-SP5-Hardened-BYOS-GCE:xen-libs-4.17.2_04-150500.3.9.1",
            "Image SLES15-SP5-Micro-5-5-Azure:xen-libs-4.17.2_04-150500.3.9.1",
            "Image SLES15-SP5-Micro-5-5-BYOS-Azure:xen-libs-4.17.2_04-150500.3.9.1",
            "Image SLES15-SP5-Micro-5-5-BYOS-EC2:xen-libs-4.17.2_04-150500.3.9.1",
            "Image SLES15-SP5-Micro-5-5-BYOS-EC2:xen-tools-domU-4.17.2_04-150500.3.9.1",
            "Image SLES15-SP5-Micro-5-5-BYOS-GCE:xen-libs-4.17.2_04-150500.3.9.1",
            "Image SLES15-SP5-Micro-5-5-BYOS:xen-libs-4.17.2_04-150500.3.9.1",
            "Image SLES15-SP5-Micro-5-5-BYOS:xen-tools-domU-4.17.2_04-150500.3.9.1",
            "Image SLES15-SP5-Micro-5-5-EC2:xen-libs-4.17.2_04-150500.3.9.1",
            "Image SLES15-SP5-Micro-5-5-EC2:xen-tools-domU-4.17.2_04-150500.3.9.1",
            "Image SLES15-SP5-Micro-5-5-GCE:xen-libs-4.17.2_04-150500.3.9.1",
            "Image SLES15-SP5-Micro-5-5:xen-libs-4.17.2_04-150500.3.9.1",
            "Image SLES15-SP5-SAP-Azure-LI-BYOS-Production:xen-libs-4.17.2_04-150500.3.9.1",
            "Image SLES15-SP5-SAP-Azure-LI-BYOS:xen-libs-4.17.2_04-150500.3.9.1",
            "Image SLES15-SP5-SAP-Azure-VLI-BYOS-Production:xen-libs-4.17.2_04-150500.3.9.1",
            "Image SLES15-SP5-SAP-Azure-VLI-BYOS:xen-libs-4.17.2_04-150500.3.9.1",
            "Image SLES15-SP5-SAP-BYOS-Azure:xen-libs-4.17.2_04-150500.3.9.1",
            "Image SLES15-SP5-SAP-BYOS-EC2:xen-libs-4.17.2_04-150500.3.9.1",
            "Image SLES15-SP5-SAP-BYOS-EC2:xen-tools-domU-4.17.2_04-150500.3.9.1",
            "Image SLES15-SP5-SAP-BYOS-GCE:xen-libs-4.17.2_04-150500.3.9.1",
            "Image SLES15-SP5-SAP-Hardened-Azure:xen-libs-4.17.2_04-150500.3.9.1",
            "Image SLES15-SP5-SAP-Hardened-BYOS-Azure:xen-libs-4.17.2_04-150500.3.9.1",
            "Image SLES15-SP5-SAP-Hardened-BYOS-EC2:xen-libs-4.17.2_04-150500.3.9.1",
            "Image SLES15-SP5-SAP-Hardened-BYOS-EC2:xen-tools-domU-4.17.2_04-150500.3.9.1",
            "Image SLES15-SP5-SAP-Hardened-BYOS-GCE:xen-libs-4.17.2_04-150500.3.9.1",
            "Image SLES15-SP5-SAP-Hardened-GCE:xen-libs-4.17.2_04-150500.3.9.1",
            "Image SLES15-SP5-SAPCAL-Azure:xen-libs-4.17.2_04-150500.3.9.1",
            "Image SLES15-SP5-SAPCAL-EC2:xen-libs-4.17.2_04-150500.3.9.1",
            "Image SLES15-SP5-SAPCAL-EC2:xen-tools-domU-4.17.2_04-150500.3.9.1",
            "Image SLES15-SP5-SAPCAL-GCE:xen-libs-4.17.2_04-150500.3.9.1",
            "SUSE Linux Enterprise Module for Basesystem 15 SP5:xen-libs-4.17.2_04-150500.3.9.1",
            "SUSE Linux Enterprise Module for Basesystem 15 SP5:xen-tools-domU-4.17.2_04-150500.3.9.1",
            "SUSE Linux Enterprise Module for Server Applications 15 SP5:xen-4.17.2_04-150500.3.9.1",
            "SUSE Linux Enterprise Module for Server Applications 15 SP5:xen-devel-4.17.2_04-150500.3.9.1",
            "SUSE Linux Enterprise Module for Server Applications 15 SP5:xen-tools-4.17.2_04-150500.3.9.1",
            "SUSE Linux Enterprise Module for Server Applications 15 SP5:xen-tools-xendomains-wait-disk-4.17.2_04-150500.3.9.1",
            "openSUSE Leap 15.5:xen-4.17.2_04-150500.3.9.1",
            "openSUSE Leap 15.5:xen-devel-4.17.2_04-150500.3.9.1",
            "openSUSE Leap 15.5:xen-doc-html-4.17.2_04-150500.3.9.1",
            "openSUSE Leap 15.5:xen-libs-32bit-4.17.2_04-150500.3.9.1",
            "openSUSE Leap 15.5:xen-libs-4.17.2_04-150500.3.9.1",
            "openSUSE Leap 15.5:xen-tools-4.17.2_04-150500.3.9.1",
            "openSUSE Leap 15.5:xen-tools-domU-4.17.2_04-150500.3.9.1",
            "openSUSE Leap 15.5:xen-tools-xendomains-wait-disk-4.17.2_04-150500.3.9.1"
          ]
        }
      ],
      "CVSSScoreSets": {}
    },
    {
      "CVE": "CVE-2023-34322",
      "Description": "For migration as well as to work around kernels unaware of L1TF (see\nXSA-273), PV guests may be run in shadow paging mode.  Since Xen itself\nneeds to be mapped when PV guests run, Xen and shadowed PV guests run\ndirectly the respective shadow page tables.  For 64-bit PV guests this\nmeans running on the shadow of the guest root page table.\n\nIn the course of dealing with shortage of memory in the shadow pool\nassociated with a domain, shadows of page tables may be torn down.  This\ntearing down may include the shadow root page table that the CPU in\nquestion is presently running on.  While a precaution exists to\nsupposedly prevent the tearing down of the underlying live page table,\nthe time window covered by that precaution isn't large enough.\n",
      "Threats": [
        {
          "Type": "Impact",
          "Severity": "important"
        }
      ],
      "References": [
        {
          "URL": "https://www.suse.com/security/cve/CVE-2023-34322.html",
          "Description": "CVE-2023-34322"
        },
        {
          "URL": "https://bugzilla.suse.com/1215145",
          "Description": "SUSE Bug 1215145"
        }
      ],
      "ProductStatuses": [
        {
          "Type": "Fixed",
          "ProductID": [
            "Image SLES15-SP5-Azure-Basic:xen-libs-4.17.2_04-150500.3.9.1",
            "Image SLES15-SP5-Azure-Standard:xen-libs-4.17.2_04-150500.3.9.1",
            "Image SLES15-SP5-BYOS-Azure:xen-libs-4.17.2_04-150500.3.9.1",
            "Image SLES15-SP5-BYOS-EC2:xen-libs-4.17.2_04-150500.3.9.1",
            "Image SLES15-SP5-BYOS-EC2:xen-tools-domU-4.17.2_04-150500.3.9.1",
            "Image SLES15-SP5-BYOS-GCE:xen-libs-4.17.2_04-150500.3.9.1",
            "Image SLES15-SP5-CHOST-BYOS-Aliyun:xen-libs-4.17.2_04-150500.3.9.1",
            "Image SLES15-SP5-CHOST-BYOS-Azure:xen-libs-4.17.2_04-150500.3.9.1",
            "Image SLES15-SP5-CHOST-BYOS-EC2:xen-libs-4.17.2_04-150500.3.9.1",
            "Image SLES15-SP5-CHOST-BYOS-EC2:xen-tools-domU-4.17.2_04-150500.3.9.1",
            "Image SLES15-SP5-CHOST-BYOS-GCE:xen-libs-4.17.2_04-150500.3.9.1",
            "Image SLES15-SP5-CHOST-BYOS-SAP-CCloud:xen-libs-4.17.2_04-150500.3.9.1",
            "Image SLES15-SP5-EC2:xen-libs-4.17.2_04-150500.3.9.1",
            "Image SLES15-SP5-EC2:xen-tools-domU-4.17.2_04-150500.3.9.1",
            "Image SLES15-SP5-GCE:xen-libs-4.17.2_04-150500.3.9.1",
            "Image SLES15-SP5-HPC-Azure:xen-libs-4.17.2_04-150500.3.9.1",
            "Image SLES15-SP5-HPC-BYOS-Azure:xen-libs-4.17.2_04-150500.3.9.1",
            "Image SLES15-SP5-HPC-BYOS-EC2:xen-libs-4.17.2_04-150500.3.9.1",
            "Image SLES15-SP5-HPC-BYOS-EC2:xen-tools-domU-4.17.2_04-150500.3.9.1",
            "Image SLES15-SP5-HPC-BYOS-GCE:xen-libs-4.17.2_04-150500.3.9.1",
            "Image SLES15-SP5-Hardened-BYOS-Azure:xen-libs-4.17.2_04-150500.3.9.1",
            "Image SLES15-SP5-Hardened-BYOS-EC2:xen-libs-4.17.2_04-150500.3.9.1",
            "Image SLES15-SP5-Hardened-BYOS-EC2:xen-tools-domU-4.17.2_04-150500.3.9.1",
            "Image SLES15-SP5-Hardened-BYOS-GCE:xen-libs-4.17.2_04-150500.3.9.1",
            "Image SLES15-SP5-Micro-5-5-Azure:xen-libs-4.17.2_04-150500.3.9.1",
            "Image SLES15-SP5-Micro-5-5-BYOS-Azure:xen-libs-4.17.2_04-150500.3.9.1",
            "Image SLES15-SP5-Micro-5-5-BYOS-EC2:xen-libs-4.17.2_04-150500.3.9.1",
            "Image SLES15-SP5-Micro-5-5-BYOS-EC2:xen-tools-domU-4.17.2_04-150500.3.9.1",
            "Image SLES15-SP5-Micro-5-5-BYOS-GCE:xen-libs-4.17.2_04-150500.3.9.1",
            "Image SLES15-SP5-Micro-5-5-BYOS:xen-libs-4.17.2_04-150500.3.9.1",
            "Image SLES15-SP5-Micro-5-5-BYOS:xen-tools-domU-4.17.2_04-150500.3.9.1",
            "Image SLES15-SP5-Micro-5-5-EC2:xen-libs-4.17.2_04-150500.3.9.1",
            "Image SLES15-SP5-Micro-5-5-EC2:xen-tools-domU-4.17.2_04-150500.3.9.1",
            "Image SLES15-SP5-Micro-5-5-GCE:xen-libs-4.17.2_04-150500.3.9.1",
            "Image SLES15-SP5-Micro-5-5:xen-libs-4.17.2_04-150500.3.9.1",
            "Image SLES15-SP5-SAP-Azure-LI-BYOS-Production:xen-libs-4.17.2_04-150500.3.9.1",
            "Image SLES15-SP5-SAP-Azure-LI-BYOS:xen-libs-4.17.2_04-150500.3.9.1",
            "Image SLES15-SP5-SAP-Azure-VLI-BYOS-Production:xen-libs-4.17.2_04-150500.3.9.1",
            "Image SLES15-SP5-SAP-Azure-VLI-BYOS:xen-libs-4.17.2_04-150500.3.9.1",
            "Image SLES15-SP5-SAP-BYOS-Azure:xen-libs-4.17.2_04-150500.3.9.1",
            "Image SLES15-SP5-SAP-BYOS-EC2:xen-libs-4.17.2_04-150500.3.9.1",
            "Image SLES15-SP5-SAP-BYOS-EC2:xen-tools-domU-4.17.2_04-150500.3.9.1",
            "Image SLES15-SP5-SAP-BYOS-GCE:xen-libs-4.17.2_04-150500.3.9.1",
            "Image SLES15-SP5-SAP-Hardened-Azure:xen-libs-4.17.2_04-150500.3.9.1",
            "Image SLES15-SP5-SAP-Hardened-BYOS-Azure:xen-libs-4.17.2_04-150500.3.9.1",
            "Image SLES15-SP5-SAP-Hardened-BYOS-EC2:xen-libs-4.17.2_04-150500.3.9.1",
            "Image SLES15-SP5-SAP-Hardened-BYOS-EC2:xen-tools-domU-4.17.2_04-150500.3.9.1",
            "Image SLES15-SP5-SAP-Hardened-BYOS-GCE:xen-libs-4.17.2_04-150500.3.9.1",
            "Image SLES15-SP5-SAP-Hardened-GCE:xen-libs-4.17.2_04-150500.3.9.1",
            "Image SLES15-SP5-SAPCAL-Azure:xen-libs-4.17.2_04-150500.3.9.1",
            "Image SLES15-SP5-SAPCAL-EC2:xen-libs-4.17.2_04-150500.3.9.1",
            "Image SLES15-SP5-SAPCAL-EC2:xen-tools-domU-4.17.2_04-150500.3.9.1",
            "Image SLES15-SP5-SAPCAL-GCE:xen-libs-4.17.2_04-150500.3.9.1",
            "SUSE Linux Enterprise Module for Basesystem 15 SP5:xen-libs-4.17.2_04-150500.3.9.1",
            "SUSE Linux Enterprise Module for Basesystem 15 SP5:xen-tools-domU-4.17.2_04-150500.3.9.1",
            "SUSE Linux Enterprise Module for Server Applications 15 SP5:xen-4.17.2_04-150500.3.9.1",
            "SUSE Linux Enterprise Module for Server Applications 15 SP5:xen-devel-4.17.2_04-150500.3.9.1",
            "SUSE Linux Enterprise Module for Server Applications 15 SP5:xen-tools-4.17.2_04-150500.3.9.1",
            "SUSE Linux Enterprise Module for Server Applications 15 SP5:xen-tools-xendomains-wait-disk-4.17.2_04-150500.3.9.1",
            "openSUSE Leap 15.5:xen-4.17.2_04-150500.3.9.1",
            "openSUSE Leap 15.5:xen-devel-4.17.2_04-150500.3.9.1",
            "openSUSE Leap 15.5:xen-doc-html-4.17.2_04-150500.3.9.1",
            "openSUSE Leap 15.5:xen-libs-32bit-4.17.2_04-150500.3.9.1",
            "openSUSE Leap 15.5:xen-libs-4.17.2_04-150500.3.9.1",
            "openSUSE Leap 15.5:xen-tools-4.17.2_04-150500.3.9.1",
            "openSUSE Leap 15.5:xen-tools-domU-4.17.2_04-150500.3.9.1",
            "openSUSE Leap 15.5:xen-tools-xendomains-wait-disk-4.17.2_04-150500.3.9.1"
          ]
        }
      ],
      "CVSSScoreSets": {}
    }
  ]
}