{
  "id": "GHSA-5phf-pp7p-vc2r",
  "modified": "2024-06-21T22:33:03.766567Z",
  "published": "2021-03-19T19:42:11Z",
  "aliases": [
    "CVE-2021-28363",
    "PYSEC-2021-59"
  ],
  "summary": "Using default SSLContext for HTTPS requests in an HTTPS proxy doesn't verify certificate hostname for proxy connection",
  "details": "### Impact\n\nUsers who are using an HTTPS proxy to issue HTTPS requests and haven't configured their own SSLContext via `proxy_config`.\nOnly the default SSLContext is impacted.\n\n### Patches\n\n[urllib3 \u003e=1.26.4 has the issue resolved](https://github.com/urllib3/urllib3/releases/tag/1.26.4). urllib3\u003c1.26 is not impacted due to not supporting HTTPS requests via HTTPS proxies.\n\n### Workarounds\n\nUpgrading is recommended as this is a minor release and not likely to break current usage.\n\nConfiguring an `SSLContext` with `check_hostname=True` and passing via `proxy_config` instead of relying on the default `SSLContext`\n\n### For more information\nIf you have any questions or comments about this advisory:\n* Email us at [sethmichaellarson@gmail.com](mailto:sethmichaellarson@gmail.com)",
  "affected": [
    {
      "package": {
        "ecosystem": "PyPI",
        "name": "urllib3",
        "purl": "pkg:pypi/urllib3"
      },
      "ranges": [
        {
          "type": "ECOSYSTEM",
          "events": [
            {
              "introduced": "1.26.0"
            },
            {
              "fixed": "1.26.4"
            }
          ]
        }
      ],
      "versions": [
        "1.26.0",
        "1.26.1",
        "1.26.2",
        "1.26.3"
      ],
      "database_specific": {
        "source": "https://github.com/github/advisory-database/blob/main/advisories/github-reviewed/2021/03/GHSA-5phf-pp7p-vc2r/GHSA-5phf-pp7p-vc2r.json"
      }
    }
  ],
  "references": [
    {
      "type": "WEB",
      "url": "https://github.com/urllib3/urllib3/security/advisories/GHSA-5phf-pp7p-vc2r"
    },
    {
      "type": "ADVISORY",
      "url": "https://nvd.nist.gov/vuln/detail/CVE-2021-28363"
    },
    {
      "type": "WEB",
      "url": "https://github.com/urllib3/urllib3/commit/8d65ea1ecf6e2cdc27d42124e587c1b83a3118b0"
    },
    {
      "type": "WEB",
      "url": "https://github.com/pypa/advisory-db/tree/main/vulns/urllib3/PYSEC-2021-59.yaml"
    },
    {
      "type": "PACKAGE",
      "url": "https://github.com/urllib3/urllib3"
    },
    {
      "type": "WEB",
      "url": "https://github.com/urllib3/urllib3/blob/main/CHANGES.rst#1264-2021-03-15"
    },
    {
      "type": "WEB",
      "url": "https://github.com/urllib3/urllib3/commits/main"
    },
    {
      "type": "WEB",
      "url": "https://github.com/urllib3/urllib3/releases/tag/1.26.4"
    },
    {
      "type": "WEB",
      "url": "https://lists.fedoraproject.org/archives/list/package-announce%40lists.fedoraproject.org/message/4S65ZQVZ2ODGB52IC7VJDBUK4M5INCXL"
    },
    {
      "type": "WEB",
      "url": "https://lists.fedoraproject.org/archives/list/package-announce@lists.fedoraproject.org/message/4S65ZQVZ2ODGB52IC7VJDBUK4M5INCXL"
    },
    {
      "type": "WEB",
      "url": "https://pypi.org/project/urllib3/1.26.4"
    },
    {
      "type": "WEB",
      "url": "https://security.gentoo.org/glsa/202107-36"
    },
    {
      "type": "WEB",
      "url": "https://security.gentoo.org/glsa/202305-02"
    },
    {
      "type": "WEB",
      "url": "https://security.netapp.com/advisory/ntap-20240621-0007"
    },
    {
      "type": "WEB",
      "url": "https://www.oracle.com/security-alerts/cpuoct2021.html"
    }
  ]
}