{
  "Severity": "MODERATE",
  "UpdatedAt": "2024-04-30T08:25:50Z",
  "Package": {
    "Ecosystem": "COMPOSER",
    "Name": "lavalite/cms"
  },
  "Advisory": {
    "DatabaseId": 243087,
    "Id": "GSA_kwCzR0hTQS01aGNyLWczMnAtaDc0Y84AA7WP",
    "GhsaId": "GHSA-5hcr-g32p-h74c",
    "References": [
      {
        "Url": "https://nvd.nist.gov/vuln/detail/CVE-2024-31828"
      },
      {
        "Url": "https://jinmu1108.github.io/uncategorized/CVE-2024-31828"
      },
      {
        "Url": "https://github.com/advisories/GHSA-5hcr-g32p-h74c"
      }
    ],
    "Identifiers": [
      {
        "Type": "GHSA",
        "Value": "GHSA-5hcr-g32p-h74c"
      },
      {
        "Type": "CVE",
        "Value": "CVE-2024-31828"
      }
    ],
    "Description": "Cross Site Scripting vulnerability in Lavalite CMS v.10.1.0 allows attackers to execute arbitrary code and obtain sensitive information via a crafted payload to the URL.",
    "Origin": "UNSPECIFIED",
    "PublishedAt": "2024-04-27T00:30:37Z",
    "Severity": "MODERATE",
    "Summary": "Lavalite CMS Cross Site Scripting vulnerability",
    "UpdatedAt": "2024-04-30T08:25:50Z",
    "WithdrawnAt": "",
    "CVSS": {
      "Score": 0,
      "VectorString": ""
    }
  },
  "Versions": [
    {
      "FirstPatchedVersion": {
        "Identifier": ""
      },
      "VulnerableVersionRange": "= 10.1.0"
    }
  ]
}