{
  "Class": "vulnerability",
  "ID": "oval:com.microsoft.cbl-mariner:def:6933",
  "Version": "1",
  "Metadata": {
    "Title": "CVE-2014-8139 affecting package unzip for versions less than 6.0-19",
    "Affected": {
      "Family": "unix",
      "Platform": "CBL-Mariner"
    },
    "Reference": {
      "RefID": "CVE-2014-8139",
      "RefURL": "https://nvd.nist.gov/vuln/detail/CVE-2014-8139",
      "Source": "CVE"
    },
    "Patchable": "true",
    "AdvisoryDate": "2022-04-09T06:51:51Z",
    "AdvisoryID": "6933-1",
    "Severity": "High",
    "Description": "CVE-2014-8139 affecting package unzip for versions less than 6.0-19. A patched version of the package is available."
  },
  "Criteria": {
    "Operator": "AND",
    "Criterion": {
      "Comment": "Package unzip is earlier than 6.0-19, affected by CVE-2014-8139",
      "TestRef": "oval:com.microsoft.cbl-mariner:tst:6933000"
    }
  }
}