{
  "Title": "Security update for openssh",
  "Tracking": {
    "ID": "SUSE-SU-2016:2388-1",
    "Status": "Final",
    "Version": "1",
    "InitialReleaseDate": "2016-09-26T15:11:06Z",
    "CurrentReleaseDate": "2016-09-26T15:11:06Z",
    "RevisionHistory": [
      {
        "Number": "1",
        "Date": "2016-09-26T15:11:06Z",
        "Description": "current"
      }
    ]
  },
  "Notes": [
    {
      "Text": "Security update for openssh",
      "Title": "Topic",
      "Type": "Summary"
    },
    {
      "Text": "\nThis update for OpenSSH fixes the following issues:\n\n- Prevent user enumeration through the timing of password processing.\n  (bsc#989363, CVE-2016-6210)\n- Allow lowering the DH groups parameter limit in server as well as when GSSAPI\n  key exchange is used. (bsc#948902)\n- Sanitize input for xauth(1). (bsc#970632, CVE-2016-3115)\n- Prevent X11 SECURITY circumvention when forwarding X11 connections.\n  (bsc#962313, CVE-2016-1908)\n- Disable DH parameters under 2048 bits by default and allow lowering the limit back\n  to the RFC 4419 specified minimum through an option. (bsc#932483, bsc#948902)\n- Ignore PAM environment when using login. (bsc#975865, CVE-2015-8325)\n- Limit the accepted password length (prevents a possible denial of service).\n  (bsc#992533, CVE-2016-6515)\n- Relax version requires for the openssh-askpass sub-package. (bsc#962794)\n- Avoid complaining about unset DISPLAY variable. (bsc#981654)\n- Initialize message id to prevent connection breakups in some cases. (bsc#959096)\n",
      "Title": "Details",
      "Type": "General"
    },
    {
      "Text": "The CVRF data is provided by SUSE under the Creative Commons License 4.0 with Attribution (CC-BY-4.0).",
      "Title": "Terms of Use",
      "Type": "Legal Disclaimer"
    },
    {
      "Text": "sleclo50sp3-openssh-12759,sleman21-openssh-12759,slemap21-openssh-12759,sleposp3-openssh-12759,slessp3-openssh-12759",
      "Title": "Patchnames",
      "Type": "Details"
    }
  ],
  "ProductTree": {
    "Relationships": [
      {
        "ProductReference": "openssh-6.2p2-0.33.2",
        "RelatesToProductReference": "SUSE Linux Enterprise Point of Sale 11 SP3",
        "RelationType": "Default Component Of"
      },
      {
        "ProductReference": "openssh-askpass-6.2p2-0.33.2",
        "RelatesToProductReference": "SUSE Linux Enterprise Point of Sale 11 SP3",
        "RelationType": "Default Component Of"
      },
      {
        "ProductReference": "openssh-askpass-gnome-6.2p2-0.33.5",
        "RelatesToProductReference": "SUSE Linux Enterprise Point of Sale 11 SP3",
        "RelationType": "Default Component Of"
      },
      {
        "ProductReference": "openssh-6.2p2-0.33.2",
        "RelatesToProductReference": "SUSE Linux Enterprise Server 11 SP3-LTSS",
        "RelationType": "Default Component Of"
      },
      {
        "ProductReference": "openssh-askpass-6.2p2-0.33.2",
        "RelatesToProductReference": "SUSE Linux Enterprise Server 11 SP3-LTSS",
        "RelationType": "Default Component Of"
      },
      {
        "ProductReference": "openssh-askpass-gnome-6.2p2-0.33.5",
        "RelatesToProductReference": "SUSE Linux Enterprise Server 11 SP3-LTSS",
        "RelationType": "Default Component Of"
      },
      {
        "ProductReference": "openssh-6.2p2-0.33.2",
        "RelatesToProductReference": "SUSE Linux Enterprise Server 11 SP3-TERADATA",
        "RelationType": "Default Component Of"
      },
      {
        "ProductReference": "openssh-askpass-6.2p2-0.33.2",
        "RelatesToProductReference": "SUSE Linux Enterprise Server 11 SP3-TERADATA",
        "RelationType": "Default Component Of"
      },
      {
        "ProductReference": "openssh-askpass-gnome-6.2p2-0.33.5",
        "RelatesToProductReference": "SUSE Linux Enterprise Server 11 SP3-TERADATA",
        "RelationType": "Default Component Of"
      },
      {
        "ProductReference": "openssh-6.2p2-0.33.2",
        "RelatesToProductReference": "SUSE Manager 2.1",
        "RelationType": "Default Component Of"
      },
      {
        "ProductReference": "openssh-askpass-6.2p2-0.33.2",
        "RelatesToProductReference": "SUSE Manager 2.1",
        "RelationType": "Default Component Of"
      },
      {
        "ProductReference": "openssh-askpass-gnome-6.2p2-0.33.5",
        "RelatesToProductReference": "SUSE Manager 2.1",
        "RelationType": "Default Component Of"
      },
      {
        "ProductReference": "openssh-6.2p2-0.33.2",
        "RelatesToProductReference": "SUSE Manager Proxy 2.1",
        "RelationType": "Default Component Of"
      },
      {
        "ProductReference": "openssh-askpass-6.2p2-0.33.2",
        "RelatesToProductReference": "SUSE Manager Proxy 2.1",
        "RelationType": "Default Component Of"
      },
      {
        "ProductReference": "openssh-askpass-gnome-6.2p2-0.33.5",
        "RelatesToProductReference": "SUSE Manager Proxy 2.1",
        "RelationType": "Default Component Of"
      },
      {
        "ProductReference": "openssh-6.2p2-0.33.2",
        "RelatesToProductReference": "SUSE OpenStack Cloud 5",
        "RelationType": "Default Component Of"
      },
      {
        "ProductReference": "openssh-askpass-6.2p2-0.33.2",
        "RelatesToProductReference": "SUSE OpenStack Cloud 5",
        "RelationType": "Default Component Of"
      },
      {
        "ProductReference": "openssh-askpass-gnome-6.2p2-0.33.5",
        "RelatesToProductReference": "SUSE OpenStack Cloud 5",
        "RelationType": "Default Component Of"
      }
    ]
  },
  "References": [
    {
      "URL": "https://www.suse.com/support/update/announcement/2016/suse-su-20162388-1/",
      "Description": "Link for SUSE-SU-2016:2388-1"
    },
    {
      "URL": "https://lists.suse.com/pipermail/sle-security-updates/2016-September/002289.html",
      "Description": "E-Mail link for SUSE-SU-2016:2388-1"
    },
    {
      "URL": "https://www.suse.com/support/security/rating/",
      "Description": "SUSE Security Ratings"
    },
    {
      "URL": "https://bugzilla.suse.com/932483",
      "Description": "SUSE Bug 932483"
    },
    {
      "URL": "https://bugzilla.suse.com/948902",
      "Description": "SUSE Bug 948902"
    },
    {
      "URL": "https://bugzilla.suse.com/959096",
      "Description": "SUSE Bug 959096"
    },
    {
      "URL": "https://bugzilla.suse.com/962313",
      "Description": "SUSE Bug 962313"
    },
    {
      "URL": "https://bugzilla.suse.com/962794",
      "Description": "SUSE Bug 962794"
    },
    {
      "URL": "https://bugzilla.suse.com/970632",
      "Description": "SUSE Bug 970632"
    },
    {
      "URL": "https://bugzilla.suse.com/975865",
      "Description": "SUSE Bug 975865"
    },
    {
      "URL": "https://bugzilla.suse.com/981654",
      "Description": "SUSE Bug 981654"
    },
    {
      "URL": "https://bugzilla.suse.com/989363",
      "Description": "SUSE Bug 989363"
    },
    {
      "URL": "https://bugzilla.suse.com/992533",
      "Description": "SUSE Bug 992533"
    },
    {
      "URL": "https://www.suse.com/security/cve/CVE-2015-8325/",
      "Description": "SUSE CVE CVE-2015-8325 page"
    },
    {
      "URL": "https://www.suse.com/security/cve/CVE-2016-1908/",
      "Description": "SUSE CVE CVE-2016-1908 page"
    },
    {
      "URL": "https://www.suse.com/security/cve/CVE-2016-3115/",
      "Description": "SUSE CVE CVE-2016-3115 page"
    },
    {
      "URL": "https://www.suse.com/security/cve/CVE-2016-6210/",
      "Description": "SUSE CVE CVE-2016-6210 page"
    },
    {
      "URL": "https://www.suse.com/security/cve/CVE-2016-6515/",
      "Description": "SUSE CVE CVE-2016-6515 page"
    }
  ],
  "Vulnerabilities": [
    {
      "CVE": "CVE-2015-8325",
      "Description": "The do_setup_env function in session.c in sshd in OpenSSH through 7.2p2, when the UseLogin feature is enabled and PAM is configured to read .pam_environment files in user home directories, allows local users to gain privileges by triggering a crafted environment for the /bin/login program, as demonstrated by an LD_PRELOAD environment variable.",
      "Threats": [
        {
          "Type": "Impact",
          "Severity": "moderate"
        }
      ],
      "References": [
        {
          "URL": "https://www.suse.com/security/cve/CVE-2015-8325.html",
          "Description": "CVE-2015-8325"
        },
        {
          "URL": "https://bugzilla.suse.com/1138392",
          "Description": "SUSE Bug 1138392"
        },
        {
          "URL": "https://bugzilla.suse.com/975865",
          "Description": "SUSE Bug 975865"
        },
        {
          "URL": "https://bugzilla.suse.com/996040",
          "Description": "SUSE Bug 996040"
        }
      ],
      "ProductStatuses": [
        {
          "Type": "Fixed",
          "ProductID": [
            "SUSE Linux Enterprise Point of Sale 11 SP3:openssh-6.2p2-0.33.2",
            "SUSE Linux Enterprise Point of Sale 11 SP3:openssh-askpass-6.2p2-0.33.2",
            "SUSE Linux Enterprise Point of Sale 11 SP3:openssh-askpass-gnome-6.2p2-0.33.5",
            "SUSE Linux Enterprise Server 11 SP3-LTSS:openssh-6.2p2-0.33.2",
            "SUSE Linux Enterprise Server 11 SP3-LTSS:openssh-askpass-6.2p2-0.33.2",
            "SUSE Linux Enterprise Server 11 SP3-LTSS:openssh-askpass-gnome-6.2p2-0.33.5",
            "SUSE Linux Enterprise Server 11 SP3-TERADATA:openssh-6.2p2-0.33.2",
            "SUSE Linux Enterprise Server 11 SP3-TERADATA:openssh-askpass-6.2p2-0.33.2",
            "SUSE Linux Enterprise Server 11 SP3-TERADATA:openssh-askpass-gnome-6.2p2-0.33.5",
            "SUSE Manager 2.1:openssh-6.2p2-0.33.2",
            "SUSE Manager 2.1:openssh-askpass-6.2p2-0.33.2",
            "SUSE Manager 2.1:openssh-askpass-gnome-6.2p2-0.33.5",
            "SUSE Manager Proxy 2.1:openssh-6.2p2-0.33.2",
            "SUSE Manager Proxy 2.1:openssh-askpass-6.2p2-0.33.2",
            "SUSE Manager Proxy 2.1:openssh-askpass-gnome-6.2p2-0.33.5",
            "SUSE OpenStack Cloud 5:openssh-6.2p2-0.33.2",
            "SUSE OpenStack Cloud 5:openssh-askpass-6.2p2-0.33.2",
            "SUSE OpenStack Cloud 5:openssh-askpass-gnome-6.2p2-0.33.5"
          ]
        }
      ],
      "CVSSScoreSets": {
        "BaseScore": "6.6",
        "Vector": "AV:L/AC:M/Au:S/C:C/I:C/A:C"
      }
    },
    {
      "CVE": "CVE-2016-1908",
      "Description": "The client in OpenSSH before 7.2 mishandles failed cookie generation for untrusted X11 forwarding and relies on the local X11 server for access-control decisions, which allows remote X11 clients to trigger a fallback and obtain trusted X11 forwarding privileges by leveraging configuration issues on this X11 server, as demonstrated by lack of the SECURITY extension on this X11 server.",
      "Threats": [
        {
          "Type": "Impact",
          "Severity": "low"
        }
      ],
      "References": [
        {
          "URL": "https://www.suse.com/security/cve/CVE-2016-1908.html",
          "Description": "CVE-2016-1908"
        },
        {
          "URL": "https://bugzilla.suse.com/1001712",
          "Description": "SUSE Bug 1001712"
        },
        {
          "URL": "https://bugzilla.suse.com/1005738",
          "Description": "SUSE Bug 1005738"
        },
        {
          "URL": "https://bugzilla.suse.com/1010950",
          "Description": "SUSE Bug 1010950"
        },
        {
          "URL": "https://bugzilla.suse.com/1138392",
          "Description": "SUSE Bug 1138392"
        },
        {
          "URL": "https://bugzilla.suse.com/962313",
          "Description": "SUSE Bug 962313"
        },
        {
          "URL": "https://bugzilla.suse.com/996040",
          "Description": "SUSE Bug 996040"
        }
      ],
      "ProductStatuses": [
        {
          "Type": "Fixed",
          "ProductID": [
            "SUSE Linux Enterprise Point of Sale 11 SP3:openssh-6.2p2-0.33.2",
            "SUSE Linux Enterprise Point of Sale 11 SP3:openssh-askpass-6.2p2-0.33.2",
            "SUSE Linux Enterprise Point of Sale 11 SP3:openssh-askpass-gnome-6.2p2-0.33.5",
            "SUSE Linux Enterprise Server 11 SP3-LTSS:openssh-6.2p2-0.33.2",
            "SUSE Linux Enterprise Server 11 SP3-LTSS:openssh-askpass-6.2p2-0.33.2",
            "SUSE Linux Enterprise Server 11 SP3-LTSS:openssh-askpass-gnome-6.2p2-0.33.5",
            "SUSE Linux Enterprise Server 11 SP3-TERADATA:openssh-6.2p2-0.33.2",
            "SUSE Linux Enterprise Server 11 SP3-TERADATA:openssh-askpass-6.2p2-0.33.2",
            "SUSE Linux Enterprise Server 11 SP3-TERADATA:openssh-askpass-gnome-6.2p2-0.33.5",
            "SUSE Manager 2.1:openssh-6.2p2-0.33.2",
            "SUSE Manager 2.1:openssh-askpass-6.2p2-0.33.2",
            "SUSE Manager 2.1:openssh-askpass-gnome-6.2p2-0.33.5",
            "SUSE Manager Proxy 2.1:openssh-6.2p2-0.33.2",
            "SUSE Manager Proxy 2.1:openssh-askpass-6.2p2-0.33.2",
            "SUSE Manager Proxy 2.1:openssh-askpass-gnome-6.2p2-0.33.5",
            "SUSE OpenStack Cloud 5:openssh-6.2p2-0.33.2",
            "SUSE OpenStack Cloud 5:openssh-askpass-6.2p2-0.33.2",
            "SUSE OpenStack Cloud 5:openssh-askpass-gnome-6.2p2-0.33.5"
          ]
        }
      ],
      "CVSSScoreSets": {
        "BaseScore": "4.9",
        "Vector": "AV:N/AC:M/Au:S/C:P/I:P/A:N"
      }
    },
    {
      "CVE": "CVE-2016-3115",
      "Description": "Multiple CRLF injection vulnerabilities in session.c in sshd in OpenSSH before 7.2p2 allow remote authenticated users to bypass intended shell-command restrictions via crafted X11 forwarding data, related to the (1) do_authenticated1 and (2) session_x11_req functions.",
      "Threats": [
        {
          "Type": "Impact",
          "Severity": "moderate"
        }
      ],
      "References": [
        {
          "URL": "https://www.suse.com/security/cve/CVE-2016-3115.html",
          "Description": "CVE-2016-3115"
        },
        {
          "URL": "https://bugzilla.suse.com/1005738",
          "Description": "SUSE Bug 1005738"
        },
        {
          "URL": "https://bugzilla.suse.com/1010950",
          "Description": "SUSE Bug 1010950"
        },
        {
          "URL": "https://bugzilla.suse.com/1059233",
          "Description": "SUSE Bug 1059233"
        },
        {
          "URL": "https://bugzilla.suse.com/1138392",
          "Description": "SUSE Bug 1138392"
        },
        {
          "URL": "https://bugzilla.suse.com/970632",
          "Description": "SUSE Bug 970632"
        },
        {
          "URL": "https://bugzilla.suse.com/992296",
          "Description": "SUSE Bug 992296"
        },
        {
          "URL": "https://bugzilla.suse.com/992991",
          "Description": "SUSE Bug 992991"
        },
        {
          "URL": "https://bugzilla.suse.com/996040",
          "Description": "SUSE Bug 996040"
        }
      ],
      "ProductStatuses": [
        {
          "Type": "Fixed",
          "ProductID": [
            "SUSE Linux Enterprise Point of Sale 11 SP3:openssh-6.2p2-0.33.2",
            "SUSE Linux Enterprise Point of Sale 11 SP3:openssh-askpass-6.2p2-0.33.2",
            "SUSE Linux Enterprise Point of Sale 11 SP3:openssh-askpass-gnome-6.2p2-0.33.5",
            "SUSE Linux Enterprise Server 11 SP3-LTSS:openssh-6.2p2-0.33.2",
            "SUSE Linux Enterprise Server 11 SP3-LTSS:openssh-askpass-6.2p2-0.33.2",
            "SUSE Linux Enterprise Server 11 SP3-LTSS:openssh-askpass-gnome-6.2p2-0.33.5",
            "SUSE Linux Enterprise Server 11 SP3-TERADATA:openssh-6.2p2-0.33.2",
            "SUSE Linux Enterprise Server 11 SP3-TERADATA:openssh-askpass-6.2p2-0.33.2",
            "SUSE Linux Enterprise Server 11 SP3-TERADATA:openssh-askpass-gnome-6.2p2-0.33.5",
            "SUSE Manager 2.1:openssh-6.2p2-0.33.2",
            "SUSE Manager 2.1:openssh-askpass-6.2p2-0.33.2",
            "SUSE Manager 2.1:openssh-askpass-gnome-6.2p2-0.33.5",
            "SUSE Manager Proxy 2.1:openssh-6.2p2-0.33.2",
            "SUSE Manager Proxy 2.1:openssh-askpass-6.2p2-0.33.2",
            "SUSE Manager Proxy 2.1:openssh-askpass-gnome-6.2p2-0.33.5",
            "SUSE OpenStack Cloud 5:openssh-6.2p2-0.33.2",
            "SUSE OpenStack Cloud 5:openssh-askpass-6.2p2-0.33.2",
            "SUSE OpenStack Cloud 5:openssh-askpass-gnome-6.2p2-0.33.5"
          ]
        }
      ],
      "CVSSScoreSets": {
        "BaseScore": "4.9",
        "Vector": "AV:N/AC:M/Au:S/C:P/I:P/A:N"
      }
    },
    {
      "CVE": "CVE-2016-6210",
      "Description": "sshd in OpenSSH before 7.3, when SHA256 or SHA512 are used for user password hashing, uses BLOWFISH hashing on a static password when the username does not exist, which allows remote attackers to enumerate users by leveraging the timing difference between responses when a large password is provided.",
      "Threats": [
        {
          "Type": "Impact",
          "Severity": "moderate"
        }
      ],
      "References": [
        {
          "URL": "https://www.suse.com/security/cve/CVE-2016-6210.html",
          "Description": "CVE-2016-6210"
        },
        {
          "URL": "https://bugzilla.suse.com/1001712",
          "Description": "SUSE Bug 1001712"
        },
        {
          "URL": "https://bugzilla.suse.com/1010950",
          "Description": "SUSE Bug 1010950"
        },
        {
          "URL": "https://bugzilla.suse.com/1105010",
          "Description": "SUSE Bug 1105010"
        },
        {
          "URL": "https://bugzilla.suse.com/1138392",
          "Description": "SUSE Bug 1138392"
        },
        {
          "URL": "https://bugzilla.suse.com/989363",
          "Description": "SUSE Bug 989363"
        }
      ],
      "ProductStatuses": [
        {
          "Type": "Fixed",
          "ProductID": [
            "SUSE Linux Enterprise Point of Sale 11 SP3:openssh-6.2p2-0.33.2",
            "SUSE Linux Enterprise Point of Sale 11 SP3:openssh-askpass-6.2p2-0.33.2",
            "SUSE Linux Enterprise Point of Sale 11 SP3:openssh-askpass-gnome-6.2p2-0.33.5",
            "SUSE Linux Enterprise Server 11 SP3-LTSS:openssh-6.2p2-0.33.2",
            "SUSE Linux Enterprise Server 11 SP3-LTSS:openssh-askpass-6.2p2-0.33.2",
            "SUSE Linux Enterprise Server 11 SP3-LTSS:openssh-askpass-gnome-6.2p2-0.33.5",
            "SUSE Linux Enterprise Server 11 SP3-TERADATA:openssh-6.2p2-0.33.2",
            "SUSE Linux Enterprise Server 11 SP3-TERADATA:openssh-askpass-6.2p2-0.33.2",
            "SUSE Linux Enterprise Server 11 SP3-TERADATA:openssh-askpass-gnome-6.2p2-0.33.5",
            "SUSE Manager 2.1:openssh-6.2p2-0.33.2",
            "SUSE Manager 2.1:openssh-askpass-6.2p2-0.33.2",
            "SUSE Manager 2.1:openssh-askpass-gnome-6.2p2-0.33.5",
            "SUSE Manager Proxy 2.1:openssh-6.2p2-0.33.2",
            "SUSE Manager Proxy 2.1:openssh-askpass-6.2p2-0.33.2",
            "SUSE Manager Proxy 2.1:openssh-askpass-gnome-6.2p2-0.33.5",
            "SUSE OpenStack Cloud 5:openssh-6.2p2-0.33.2",
            "SUSE OpenStack Cloud 5:openssh-askpass-6.2p2-0.33.2",
            "SUSE OpenStack Cloud 5:openssh-askpass-gnome-6.2p2-0.33.5"
          ]
        }
      ],
      "CVSSScoreSets": {
        "BaseScore": "5",
        "Vector": "AV:N/AC:L/Au:N/C:P/I:N/A:N"
      }
    },
    {
      "CVE": "CVE-2016-6515",
      "Description": "The auth_password function in auth-passwd.c in sshd in OpenSSH before 7.3 does not limit password lengths for password authentication, which allows remote attackers to cause a denial of service (crypt CPU consumption) via a long string.",
      "Threats": [
        {
          "Type": "Impact",
          "Severity": "moderate"
        }
      ],
      "References": [
        {
          "URL": "https://www.suse.com/security/cve/CVE-2016-6515.html",
          "Description": "CVE-2016-6515"
        },
        {
          "URL": "https://bugzilla.suse.com/1010950",
          "Description": "SUSE Bug 1010950"
        },
        {
          "URL": "https://bugzilla.suse.com/1115893",
          "Description": "SUSE Bug 1115893"
        },
        {
          "URL": "https://bugzilla.suse.com/992533",
          "Description": "SUSE Bug 992533"
        }
      ],
      "ProductStatuses": [
        {
          "Type": "Fixed",
          "ProductID": [
            "SUSE Linux Enterprise Point of Sale 11 SP3:openssh-6.2p2-0.33.2",
            "SUSE Linux Enterprise Point of Sale 11 SP3:openssh-askpass-6.2p2-0.33.2",
            "SUSE Linux Enterprise Point of Sale 11 SP3:openssh-askpass-gnome-6.2p2-0.33.5",
            "SUSE Linux Enterprise Server 11 SP3-LTSS:openssh-6.2p2-0.33.2",
            "SUSE Linux Enterprise Server 11 SP3-LTSS:openssh-askpass-6.2p2-0.33.2",
            "SUSE Linux Enterprise Server 11 SP3-LTSS:openssh-askpass-gnome-6.2p2-0.33.5",
            "SUSE Linux Enterprise Server 11 SP3-TERADATA:openssh-6.2p2-0.33.2",
            "SUSE Linux Enterprise Server 11 SP3-TERADATA:openssh-askpass-6.2p2-0.33.2",
            "SUSE Linux Enterprise Server 11 SP3-TERADATA:openssh-askpass-gnome-6.2p2-0.33.5",
            "SUSE Manager 2.1:openssh-6.2p2-0.33.2",
            "SUSE Manager 2.1:openssh-askpass-6.2p2-0.33.2",
            "SUSE Manager 2.1:openssh-askpass-gnome-6.2p2-0.33.5",
            "SUSE Manager Proxy 2.1:openssh-6.2p2-0.33.2",
            "SUSE Manager Proxy 2.1:openssh-askpass-6.2p2-0.33.2",
            "SUSE Manager Proxy 2.1:openssh-askpass-gnome-6.2p2-0.33.5",
            "SUSE OpenStack Cloud 5:openssh-6.2p2-0.33.2",
            "SUSE OpenStack Cloud 5:openssh-askpass-6.2p2-0.33.2",
            "SUSE OpenStack Cloud 5:openssh-askpass-gnome-6.2p2-0.33.5"
          ]
        }
      ],
      "CVSSScoreSets": {
        "BaseScore": "5",
        "Vector": "AV:N/AC:L/Au:N/C:N/I:N/A:P"
      }
    }
  ]
}