{
  "id": "GHSA-x67g-47p3-rc7f",
  "modified": "2024-03-01T14:56:39.730935Z",
  "published": "2023-05-30T06:30:26Z",
  "aliases": [
    "CVE-2023-2970",
    "PYSEC-2023-81"
  ],
  "summary": "MindSpore vulnerable to memory corruption",
  "details": "A vulnerability classified as problematic was found in MindSpore 2.0.0-alpha/2.0.0-rc1. This vulnerability affects the function `JsonHelper::UpdateArray` of the file `mindspore/ccsrc/minddata/dataset/util/json_helper.cc`. The manipulation leads to memory corruption. The name of the patch is 30f4729ea2c01e1ed437ba92a81e2fc098d608a9. It is recommended to apply a patch to fix this issue. The identifier of this vulnerability is VDB-230176.",
  "affected": [
    {
      "package": {
        "ecosystem": "PyPI",
        "name": "mindspore",
        "purl": "pkg:pypi/mindspore"
      },
      "ranges": [
        {
          "type": "ECOSYSTEM",
          "events": [
            {
              "introduced": "0"
            },
            {
              "last_affected": "2.0.0-rc1"
            }
          ]
        }
      ],
      "versions": [
        "0.2.0",
        "0.3.1",
        "0.7.0",
        "1.0.0",
        "1.0.1",
        "1.1.0",
        "1.1.1",
        "1.10.0",
        "1.2.0",
        "1.2.1",
        "1.3.0",
        "1.5.2",
        "1.6.2",
        "1.7.0",
        "1.8.0",
        "1.8.1",
        "1.9.0",
        "2.0.0a0",
        "2.0.0rc1"
      ],
      "database_specific": {
        "source": "https://github.com/github/advisory-database/blob/main/advisories/github-reviewed/2023/05/GHSA-x67g-47p3-rc7f/GHSA-x67g-47p3-rc7f.json"
      }
    }
  ],
  "references": [
    {
      "type": "ADVISORY",
      "url": "https://nvd.nist.gov/vuln/detail/CVE-2023-2970"
    },
    {
      "type": "PACKAGE",
      "url": "https://gitee.com/mindspore/mindspore"
    },
    {
      "type": "WEB",
      "url": "https://gitee.com/mindspore/mindspore/commit/30f4729ea2c01e1ed437ba92a81e2fc098d608a9"
    },
    {
      "type": "WEB",
      "url": "https://gitee.com/mindspore/mindspore/issues/I73DOS"
    },
    {
      "type": "WEB",
      "url": "https://github.com/pypa/advisory-database/tree/main/vulns/mindspore/PYSEC-2023-81.yaml"
    },
    {
      "type": "WEB",
      "url": "https://vuldb.com/?ctiid.230176"
    },
    {
      "type": "WEB",
      "url": "https://vuldb.com/?id.230176"
    }
  ]
}