{
  "Title": "Security update for the Linux Kernel (Live Patch 41 for SLE 15 SP2)",
  "Tracking": {
    "ID": "SUSE-SU-2024:0662-1",
    "Status": "Final",
    "Version": "1",
    "InitialReleaseDate": "2024-02-28T19:03:39Z",
    "CurrentReleaseDate": "2024-02-28T19:03:39Z",
    "RevisionHistory": [
      {
        "Number": "1",
        "Date": "2024-02-28T19:03:39Z",
        "Description": "current"
      }
    ]
  },
  "Notes": [
    {
      "Text": "Security update for the Linux Kernel (Live Patch 41 for SLE 15 SP2)",
      "Title": "Topic",
      "Type": "Summary"
    },
    {
      "Text": "This update for the Linux Kernel 5.3.18-150200_24_166 fixes several issues.\n\nThe following security issues were fixed:\n\n- CVE-2023-39198: Fixed a race condition leading to a use-after-free in qxl_mode_dumb_create() (bsc#1217116).\n- CVE-2023-51780: Fixed a use-after-free in do_vcc_ioctl in net/atm/ioctl.c, because of a vcc_recvmsg race condition (bsc#1218733).\n",
      "Title": "Details",
      "Type": "General"
    },
    {
      "Text": "The CVRF data is provided by SUSE under the Creative Commons License 4.0 with Attribution (CC-BY-4.0).",
      "Title": "Terms of Use",
      "Type": "Legal Disclaimer"
    },
    {
      "Text": "SUSE-2024-662,SUSE-SLE-Live-Patching-12-SP5-2024-662,SUSE-SLE-Module-Live-Patching-15-SP2-2024-678",
      "Title": "Patchnames",
      "Type": "Details"
    }
  ],
  "ProductTree": {
    "Relationships": [
      {
        "ProductReference": "kgraft-patch-4_12_14-122_179-default-4-2.1",
        "RelatesToProductReference": "SUSE Linux Enterprise Live Patching 12 SP5",
        "RelationType": "Default Component Of"
      },
      {
        "ProductReference": "kernel-livepatch-5_3_18-150200_24_166-default-5-150200.2.1",
        "RelatesToProductReference": "SUSE Linux Enterprise Live Patching 15 SP2",
        "RelationType": "Default Component Of"
      }
    ]
  },
  "References": [
    {
      "URL": "https://www.suse.com/support/update/announcement/2024/suse-su-20240662-1/",
      "Description": "Link for SUSE-SU-2024:0662-1"
    },
    {
      "URL": "https://lists.suse.com/pipermail/sle-security-updates/2024-February/018065.html",
      "Description": "E-Mail link for SUSE-SU-2024:0662-1"
    },
    {
      "URL": "https://www.suse.com/support/security/rating/",
      "Description": "SUSE Security Ratings"
    },
    {
      "URL": "https://bugzilla.suse.com/1217116",
      "Description": "SUSE Bug 1217116"
    },
    {
      "URL": "https://bugzilla.suse.com/1218733",
      "Description": "SUSE Bug 1218733"
    },
    {
      "URL": "https://www.suse.com/security/cve/CVE-2023-39198/",
      "Description": "SUSE CVE CVE-2023-39198 page"
    },
    {
      "URL": "https://www.suse.com/security/cve/CVE-2023-51780/",
      "Description": "SUSE CVE CVE-2023-51780 page"
    }
  ],
  "Vulnerabilities": [
    {
      "CVE": "CVE-2023-39198",
      "Description": "A race condition was found in the QXL driver in the Linux kernel. The qxl_mode_dumb_create() function dereferences the qobj returned by the qxl_gem_object_create_with_handle(), but the handle is the only one holding a reference to it. This flaw allows an attacker to guess the returned handle value and trigger a use-after-free issue, potentially leading to a denial of service or privilege escalation.",
      "Threats": [
        {
          "Type": "Impact",
          "Severity": "important"
        }
      ],
      "References": [
        {
          "URL": "https://www.suse.com/security/cve/CVE-2023-39198.html",
          "Description": "CVE-2023-39198"
        },
        {
          "URL": "https://bugzilla.suse.com/1216965",
          "Description": "SUSE Bug 1216965"
        },
        {
          "URL": "https://bugzilla.suse.com/1217116",
          "Description": "SUSE Bug 1217116"
        },
        {
          "URL": "https://bugzilla.suse.com/1219703",
          "Description": "SUSE Bug 1219703"
        }
      ],
      "ProductStatuses": [
        {
          "Type": "Fixed",
          "ProductID": [
            "SUSE Linux Enterprise Live Patching 12 SP5:kgraft-patch-4_12_14-122_179-default-4-2.1",
            "SUSE Linux Enterprise Live Patching 15 SP2:kernel-livepatch-5_3_18-150200_24_166-default-5-150200.2.1"
          ]
        }
      ],
      "CVSSScoreSets": {}
    },
    {
      "CVE": "CVE-2023-51780",
      "Description": "An issue was discovered in the Linux kernel before 6.6.8. do_vcc_ioctl in net/atm/ioctl.c has a use-after-free because of a vcc_recvmsg race condition.",
      "Threats": [
        {
          "Type": "Impact",
          "Severity": "important"
        }
      ],
      "References": [
        {
          "URL": "https://www.suse.com/security/cve/CVE-2023-51780.html",
          "Description": "CVE-2023-51780"
        },
        {
          "URL": "https://bugzilla.suse.com/1218730",
          "Description": "SUSE Bug 1218730"
        },
        {
          "URL": "https://bugzilla.suse.com/1218733",
          "Description": "SUSE Bug 1218733"
        },
        {
          "URL": "https://bugzilla.suse.com/1220191",
          "Description": "SUSE Bug 1220191"
        },
        {
          "URL": "https://bugzilla.suse.com/1221578",
          "Description": "SUSE Bug 1221578"
        },
        {
          "URL": "https://bugzilla.suse.com/1221598",
          "Description": "SUSE Bug 1221598"
        },
        {
          "URL": "https://bugzilla.suse.com/1224878",
          "Description": "SUSE Bug 1224878"
        }
      ],
      "ProductStatuses": [
        {
          "Type": "Fixed",
          "ProductID": [
            "SUSE Linux Enterprise Live Patching 12 SP5:kgraft-patch-4_12_14-122_179-default-4-2.1",
            "SUSE Linux Enterprise Live Patching 15 SP2:kernel-livepatch-5_3_18-150200_24_166-default-5-150200.2.1"
          ]
        }
      ],
      "CVSSScoreSets": {}
    }
  ]
}