{
  "Title": "Security update for hawk2",
  "Tracking": {
    "ID": "SUSE-SU-2024:0076-1",
    "Status": "Final",
    "Version": "1",
    "InitialReleaseDate": "2024-01-10T11:57:11Z",
    "CurrentReleaseDate": "2024-01-10T11:57:11Z",
    "RevisionHistory": [
      {
        "Number": "1",
        "Date": "2024-01-10T11:57:11Z",
        "Description": "current"
      }
    ]
  },
  "Notes": [
    {
      "Text": "Security update for hawk2",
      "Title": "Topic",
      "Type": "Summary"
    },
    {
      "Text": "This update for hawk2 fixes the following issues:\n\n- Fixed HttpOnly secure flag by default (bsc#1216508).\n- Fixed CSRF in errors_controller.rb protection (bsc#1216571).\n\nUpdate to version 2.6.4+git.1702030539.5fb7d91b:\n\n- Fix mime type issue in MS windows (bsc#1215438)\n- Parametrize CORS Access-Control-Allow-Origin header (bsc#1213454)\n- Tests: upgrate tests for ruby3.2 (tumbleweed) (bsc#1215976)\n- Upgrade for ruby3.2 (tumbleweed) (bsc#1215976)\n- Forbid special symbols in the category (bsc#1206217)\n- Fix the sass-rails version on ~5.0 (bsc#1208533)\n- Don't delete the private key if the public key is missing (bsc#1207930)\n- make-sle155-compatible.patch . No bsc, it's for backwards compatibility.\n",
      "Title": "Details",
      "Type": "General"
    },
    {
      "Text": "The CVRF data is provided by SUSE under the Creative Commons License 4.0 with Attribution (CC-BY-4.0).",
      "Title": "Terms of Use",
      "Type": "Legal Disclaimer"
    },
    {
      "Text": "Image SLES15-SP2-SAP-Azure-2024-76,Image SLES15-SP2-SAP-Azure-LI-BYOS-Production-2024-76,Image SLES15-SP2-SAP-Azure-VLI-BYOS-Production-2024-76,Image SLES15-SP2-SAP-BYOS-Azure-2024-76,Image SLES15-SP3-SAP-Azure-LI-BYOS-Production-2024-76,Image SLES15-SP3-SAP-Azure-VLI-BYOS-Production-2024-76,Image SLES15-SP3-SAP-BYOS-Azure-2024-76,Image SLES15-SP4-SAP-Azure-LI-BYOS-2024-76,Image SLES15-SP4-SAP-Azure-LI-BYOS-Production-2024-76,Image SLES15-SP4-SAP-Azure-VLI-BYOS-2024-76,Image SLES15-SP4-SAP-Azure-VLI-BYOS-Production-2024-76,Image SLES15-SP4-SAP-BYOS-2024-76,Image SLES15-SP4-SAP-BYOS-Azure-2024-76,Image SLES15-SP4-SAP-BYOS-EC2-2024-76,Image SLES15-SP4-SAP-BYOS-GCE-2024-76,Image SLES15-SP4-SAP-Hardened-2024-76,Image SLES15-SP4-SAP-Hardened-Azure-2024-76,Image SLES15-SP4-SAP-Hardened-BYOS-2024-76,Image SLES15-SP4-SAP-Hardened-BYOS-Azure-2024-76,Image SLES15-SP4-SAP-Hardened-BYOS-EC2-2024-76,Image SLES15-SP4-SAP-Hardened-BYOS-GCE-2024-76,Image SLES15-SP4-SAP-Hardened-GCE-2024-76,Image SLES15-SP5-SAP-Azure-LI-BYOS-2024-76,Image SLES15-SP5-SAP-Azure-LI-BYOS-Production-2024-76,Image SLES15-SP5-SAP-Azure-VLI-BYOS-2024-76,Image SLES15-SP5-SAP-Azure-VLI-BYOS-Production-2024-76,Image SLES15-SP5-SAP-BYOS-Azure-2024-76,Image SLES15-SP5-SAP-BYOS-EC2-2024-76,Image SLES15-SP5-SAP-BYOS-GCE-2024-76,Image SLES15-SP5-SAP-Hardened-Azure-2024-76,Image SLES15-SP5-SAP-Hardened-BYOS-Azure-2024-76,Image SLES15-SP5-SAP-Hardened-BYOS-EC2-2024-76,Image SLES15-SP5-SAP-Hardened-BYOS-GCE-2024-76,Image SLES15-SP5-SAP-Hardened-GCE-2024-76,SUSE-2024-76,SUSE-SLE-Product-HA-15-SP1-2024-76,SUSE-SLE-Product-HA-15-SP2-2024-76,SUSE-SLE-Product-HA-15-SP3-2024-76,SUSE-SLE-Product-HA-15-SP4-2024-76,SUSE-SLE-Product-HA-15-SP5-2024-76,openSUSE-SLE-15.4-2024-76,openSUSE-SLE-15.5-2024-76",
      "Title": "Patchnames",
      "Type": "Details"
    }
  ],
  "ProductTree": {
    "Relationships": [
      {
        "ProductReference": "hawk2-2.6.4+git.1702030539.5fb7d91b-150000.3.39.1",
        "RelatesToProductReference": "Image SLES15-SP2-SAP-Azure",
        "RelationType": "Default Component Of"
      },
      {
        "ProductReference": "hawk2-2.6.4+git.1702030539.5fb7d91b-150000.3.39.1",
        "RelatesToProductReference": "Image SLES15-SP2-SAP-Azure-LI-BYOS-Production",
        "RelationType": "Default Component Of"
      },
      {
        "ProductReference": "hawk2-2.6.4+git.1702030539.5fb7d91b-150000.3.39.1",
        "RelatesToProductReference": "Image SLES15-SP2-SAP-Azure-VLI-BYOS-Production",
        "RelationType": "Default Component Of"
      },
      {
        "ProductReference": "hawk2-2.6.4+git.1702030539.5fb7d91b-150000.3.39.1",
        "RelatesToProductReference": "Image SLES15-SP2-SAP-BYOS-Azure",
        "RelationType": "Default Component Of"
      },
      {
        "ProductReference": "hawk2-2.6.4+git.1702030539.5fb7d91b-150000.3.39.1",
        "RelatesToProductReference": "Image SLES15-SP3-SAP-Azure-LI-BYOS-Production",
        "RelationType": "Default Component Of"
      },
      {
        "ProductReference": "hawk2-2.6.4+git.1702030539.5fb7d91b-150000.3.39.1",
        "RelatesToProductReference": "Image SLES15-SP3-SAP-Azure-VLI-BYOS-Production",
        "RelationType": "Default Component Of"
      },
      {
        "ProductReference": "hawk2-2.6.4+git.1702030539.5fb7d91b-150000.3.39.1",
        "RelatesToProductReference": "Image SLES15-SP3-SAP-BYOS-Azure",
        "RelationType": "Default Component Of"
      },
      {
        "ProductReference": "hawk2-2.6.4+git.1702030539.5fb7d91b-150000.3.39.1",
        "RelatesToProductReference": "Image SLES15-SP4-SAP-Azure-LI-BYOS",
        "RelationType": "Default Component Of"
      },
      {
        "ProductReference": "hawk2-2.6.4+git.1702030539.5fb7d91b-150000.3.39.1",
        "RelatesToProductReference": "Image SLES15-SP4-SAP-Azure-LI-BYOS-Production",
        "RelationType": "Default Component Of"
      },
      {
        "ProductReference": "hawk2-2.6.4+git.1702030539.5fb7d91b-150000.3.39.1",
        "RelatesToProductReference": "Image SLES15-SP4-SAP-Azure-VLI-BYOS",
        "RelationType": "Default Component Of"
      },
      {
        "ProductReference": "hawk2-2.6.4+git.1702030539.5fb7d91b-150000.3.39.1",
        "RelatesToProductReference": "Image SLES15-SP4-SAP-Azure-VLI-BYOS-Production",
        "RelationType": "Default Component Of"
      },
      {
        "ProductReference": "hawk2-2.6.4+git.1702030539.5fb7d91b-150000.3.39.1",
        "RelatesToProductReference": "Image SLES15-SP4-SAP-BYOS",
        "RelationType": "Default Component Of"
      },
      {
        "ProductReference": "hawk2-2.6.4+git.1702030539.5fb7d91b-150000.3.39.1",
        "RelatesToProductReference": "Image SLES15-SP4-SAP-BYOS-Azure",
        "RelationType": "Default Component Of"
      },
      {
        "ProductReference": "hawk2-2.6.4+git.1702030539.5fb7d91b-150000.3.39.1",
        "RelatesToProductReference": "Image SLES15-SP4-SAP-BYOS-EC2",
        "RelationType": "Default Component Of"
      },
      {
        "ProductReference": "hawk2-2.6.4+git.1702030539.5fb7d91b-150000.3.39.1",
        "RelatesToProductReference": "Image SLES15-SP4-SAP-BYOS-GCE",
        "RelationType": "Default Component Of"
      },
      {
        "ProductReference": "hawk2-2.6.4+git.1702030539.5fb7d91b-150000.3.39.1",
        "RelatesToProductReference": "Image SLES15-SP4-SAP-Hardened",
        "RelationType": "Default Component Of"
      },
      {
        "ProductReference": "hawk2-2.6.4+git.1702030539.5fb7d91b-150000.3.39.1",
        "RelatesToProductReference": "Image SLES15-SP4-SAP-Hardened-Azure",
        "RelationType": "Default Component Of"
      },
      {
        "ProductReference": "hawk2-2.6.4+git.1702030539.5fb7d91b-150000.3.39.1",
        "RelatesToProductReference": "Image SLES15-SP4-SAP-Hardened-BYOS",
        "RelationType": "Default Component Of"
      },
      {
        "ProductReference": "hawk2-2.6.4+git.1702030539.5fb7d91b-150000.3.39.1",
        "RelatesToProductReference": "Image SLES15-SP4-SAP-Hardened-BYOS-Azure",
        "RelationType": "Default Component Of"
      },
      {
        "ProductReference": "hawk2-2.6.4+git.1702030539.5fb7d91b-150000.3.39.1",
        "RelatesToProductReference": "Image SLES15-SP4-SAP-Hardened-BYOS-EC2",
        "RelationType": "Default Component Of"
      },
      {
        "ProductReference": "hawk2-2.6.4+git.1702030539.5fb7d91b-150000.3.39.1",
        "RelatesToProductReference": "Image SLES15-SP4-SAP-Hardened-BYOS-GCE",
        "RelationType": "Default Component Of"
      },
      {
        "ProductReference": "hawk2-2.6.4+git.1702030539.5fb7d91b-150000.3.39.1",
        "RelatesToProductReference": "Image SLES15-SP4-SAP-Hardened-GCE",
        "RelationType": "Default Component Of"
      },
      {
        "ProductReference": "hawk2-2.6.4+git.1702030539.5fb7d91b-150000.3.39.1",
        "RelatesToProductReference": "Image SLES15-SP5-SAP-Azure-LI-BYOS",
        "RelationType": "Default Component Of"
      },
      {
        "ProductReference": "hawk2-2.6.4+git.1702030539.5fb7d91b-150000.3.39.1",
        "RelatesToProductReference": "Image SLES15-SP5-SAP-Azure-LI-BYOS-Production",
        "RelationType": "Default Component Of"
      },
      {
        "ProductReference": "hawk2-2.6.4+git.1702030539.5fb7d91b-150000.3.39.1",
        "RelatesToProductReference": "Image SLES15-SP5-SAP-Azure-VLI-BYOS",
        "RelationType": "Default Component Of"
      },
      {
        "ProductReference": "hawk2-2.6.4+git.1702030539.5fb7d91b-150000.3.39.1",
        "RelatesToProductReference": "Image SLES15-SP5-SAP-Azure-VLI-BYOS-Production",
        "RelationType": "Default Component Of"
      },
      {
        "ProductReference": "hawk2-2.6.4+git.1702030539.5fb7d91b-150000.3.39.1",
        "RelatesToProductReference": "Image SLES15-SP5-SAP-BYOS-Azure",
        "RelationType": "Default Component Of"
      },
      {
        "ProductReference": "hawk2-2.6.4+git.1702030539.5fb7d91b-150000.3.39.1",
        "RelatesToProductReference": "Image SLES15-SP5-SAP-BYOS-EC2",
        "RelationType": "Default Component Of"
      },
      {
        "ProductReference": "hawk2-2.6.4+git.1702030539.5fb7d91b-150000.3.39.1",
        "RelatesToProductReference": "Image SLES15-SP5-SAP-BYOS-GCE",
        "RelationType": "Default Component Of"
      },
      {
        "ProductReference": "hawk2-2.6.4+git.1702030539.5fb7d91b-150000.3.39.1",
        "RelatesToProductReference": "Image SLES15-SP5-SAP-Hardened-Azure",
        "RelationType": "Default Component Of"
      },
      {
        "ProductReference": "hawk2-2.6.4+git.1702030539.5fb7d91b-150000.3.39.1",
        "RelatesToProductReference": "Image SLES15-SP5-SAP-Hardened-BYOS-Azure",
        "RelationType": "Default Component Of"
      },
      {
        "ProductReference": "hawk2-2.6.4+git.1702030539.5fb7d91b-150000.3.39.1",
        "RelatesToProductReference": "Image SLES15-SP5-SAP-Hardened-BYOS-EC2",
        "RelationType": "Default Component Of"
      },
      {
        "ProductReference": "hawk2-2.6.4+git.1702030539.5fb7d91b-150000.3.39.1",
        "RelatesToProductReference": "Image SLES15-SP5-SAP-Hardened-BYOS-GCE",
        "RelationType": "Default Component Of"
      },
      {
        "ProductReference": "hawk2-2.6.4+git.1702030539.5fb7d91b-150000.3.39.1",
        "RelatesToProductReference": "Image SLES15-SP5-SAP-Hardened-GCE",
        "RelationType": "Default Component Of"
      },
      {
        "ProductReference": "hawk2-2.6.4+git.1702030539.5fb7d91b-150000.3.39.1",
        "RelatesToProductReference": "SUSE Linux Enterprise High Availability Extension 15 SP1",
        "RelationType": "Default Component Of"
      },
      {
        "ProductReference": "hawk2-2.6.4+git.1702030539.5fb7d91b-150000.3.39.1",
        "RelatesToProductReference": "SUSE Linux Enterprise High Availability Extension 15 SP2",
        "RelationType": "Default Component Of"
      },
      {
        "ProductReference": "hawk2-2.6.4+git.1702030539.5fb7d91b-150000.3.39.1",
        "RelatesToProductReference": "SUSE Linux Enterprise High Availability Extension 15 SP3",
        "RelationType": "Default Component Of"
      },
      {
        "ProductReference": "hawk2-2.6.4+git.1702030539.5fb7d91b-150000.3.39.1",
        "RelatesToProductReference": "SUSE Linux Enterprise High Availability Extension 15 SP4",
        "RelationType": "Default Component Of"
      },
      {
        "ProductReference": "hawk2-2.6.4+git.1702030539.5fb7d91b-150000.3.39.1",
        "RelatesToProductReference": "SUSE Linux Enterprise High Availability Extension 15 SP5",
        "RelationType": "Default Component Of"
      },
      {
        "ProductReference": "hawk2-2.6.4+git.1702030539.5fb7d91b-150000.3.39.1",
        "RelatesToProductReference": "openSUSE Leap 15.4",
        "RelationType": "Default Component Of"
      },
      {
        "ProductReference": "hawk2-2.6.4+git.1702030539.5fb7d91b-150000.3.39.1",
        "RelatesToProductReference": "openSUSE Leap 15.5",
        "RelationType": "Default Component Of"
      }
    ]
  },
  "References": [
    {
      "URL": "https://www.suse.com/support/update/announcement/2024/suse-su-20240076-1/",
      "Description": "Link for SUSE-SU-2024:0076-1"
    },
    {
      "URL": "https://lists.suse.com/pipermail/sle-security-updates/2024-January/017613.html",
      "Description": "E-Mail link for SUSE-SU-2024:0076-1"
    },
    {
      "URL": "https://www.suse.com/support/security/rating/",
      "Description": "SUSE Security Ratings"
    },
    {
      "URL": "https://bugzilla.suse.com/1206217",
      "Description": "SUSE Bug 1206217"
    },
    {
      "URL": "https://bugzilla.suse.com/1207930",
      "Description": "SUSE Bug 1207930"
    },
    {
      "URL": "https://bugzilla.suse.com/1208533",
      "Description": "SUSE Bug 1208533"
    },
    {
      "URL": "https://bugzilla.suse.com/1213454",
      "Description": "SUSE Bug 1213454"
    },
    {
      "URL": "https://bugzilla.suse.com/1215438",
      "Description": "SUSE Bug 1215438"
    },
    {
      "URL": "https://bugzilla.suse.com/1215976",
      "Description": "SUSE Bug 1215976"
    },
    {
      "URL": "https://bugzilla.suse.com/1216508",
      "Description": "SUSE Bug 1216508"
    },
    {
      "URL": "https://bugzilla.suse.com/1216571",
      "Description": "SUSE Bug 1216571"
    }
  ],
  "Vulnerabilities": null
}