{
  "Title": "Security update for krb5",
  "Tracking": {
    "ID": "SUSE-SU-2024:1148-1",
    "Status": "Final",
    "Version": "1",
    "InitialReleaseDate": "2024-04-08T09:35:32Z",
    "CurrentReleaseDate": "2024-04-08T09:35:32Z",
    "RevisionHistory": [
      {
        "Number": "1",
        "Date": "2024-04-08T09:35:32Z",
        "Description": "current"
      }
    ]
  },
  "Notes": [
    {
      "Text": "Security update for krb5",
      "Title": "Topic",
      "Type": "Summary"
    },
    {
      "Text": "This update for krb5 fixes the following issues:\n\n- CVE-2024-26458: Fixed a memory leak in pmap_rmt.c (bsc#1220770)\n- CVE-2024-26461: Fixed a memory leak in k5sealv3.c (bsc#1220771)\n",
      "Title": "Details",
      "Type": "General"
    },
    {
      "Text": "The CVRF data is provided by SUSE under the Creative Commons License 4.0 with Attribution (CC-BY-4.0).",
      "Title": "Terms of Use",
      "Type": "Legal Disclaimer"
    },
    {
      "Text": "Container suse/sles12sp5:latest-2024-1148,Image SLES12-SP5-Azure-BYOS-2024-1148,Image SLES12-SP5-Azure-Basic-On-Demand-2024-1148,Image SLES12-SP5-Azure-HPC-BYOS-2024-1148,Image SLES12-SP5-Azure-HPC-On-Demand-2024-1148,Image SLES12-SP5-Azure-SAP-BYOS-2024-1148,Image SLES12-SP5-Azure-SAP-On-Demand-2024-1148,Image SLES12-SP5-Azure-Standard-On-Demand-2024-1148,Image SLES12-SP5-EC2-BYOS-2024-1148,Image SLES12-SP5-EC2-On-Demand-2024-1148,Image SLES12-SP5-EC2-SAP-BYOS-2024-1148,Image SLES12-SP5-EC2-SAP-On-Demand-2024-1148,Image SLES12-SP5-GCE-BYOS-2024-1148,Image SLES12-SP5-GCE-On-Demand-2024-1148,Image SLES12-SP5-GCE-SAP-BYOS-2024-1148,Image SLES12-SP5-GCE-SAP-On-Demand-2024-1148,Image SLES12-SP5-SAP-Azure-LI-BYOS-Production-2024-1148,Image SLES12-SP5-SAP-Azure-VLI-BYOS-Production-2024-1148,SUSE-2024-1148,SUSE-SLE-SDK-12-SP5-2024-1148,SUSE-SLE-SERVER-12-SP5-2024-1148",
      "Title": "Patchnames",
      "Type": "Details"
    }
  ],
  "ProductTree": {
    "Relationships": [
      {
        "ProductReference": "krb5-1.16.3-46.6.1",
        "RelatesToProductReference": "Container suse/sles12sp5:latest",
        "RelationType": "Default Component Of"
      },
      {
        "ProductReference": "krb5-1.16.3-46.6.1",
        "RelatesToProductReference": "Image SLES12-SP5-Azure-BYOS",
        "RelationType": "Default Component Of"
      },
      {
        "ProductReference": "krb5-client-1.16.3-46.6.1",
        "RelatesToProductReference": "Image SLES12-SP5-Azure-BYOS",
        "RelationType": "Default Component Of"
      },
      {
        "ProductReference": "krb5-1.16.3-46.6.1",
        "RelatesToProductReference": "Image SLES12-SP5-Azure-Basic-On-Demand",
        "RelationType": "Default Component Of"
      },
      {
        "ProductReference": "krb5-client-1.16.3-46.6.1",
        "RelatesToProductReference": "Image SLES12-SP5-Azure-Basic-On-Demand",
        "RelationType": "Default Component Of"
      },
      {
        "ProductReference": "krb5-1.16.3-46.6.1",
        "RelatesToProductReference": "Image SLES12-SP5-Azure-HPC-BYOS",
        "RelationType": "Default Component Of"
      },
      {
        "ProductReference": "krb5-client-1.16.3-46.6.1",
        "RelatesToProductReference": "Image SLES12-SP5-Azure-HPC-BYOS",
        "RelationType": "Default Component Of"
      },
      {
        "ProductReference": "krb5-1.16.3-46.6.1",
        "RelatesToProductReference": "Image SLES12-SP5-Azure-HPC-On-Demand",
        "RelationType": "Default Component Of"
      },
      {
        "ProductReference": "krb5-client-1.16.3-46.6.1",
        "RelatesToProductReference": "Image SLES12-SP5-Azure-HPC-On-Demand",
        "RelationType": "Default Component Of"
      },
      {
        "ProductReference": "krb5-1.16.3-46.6.1",
        "RelatesToProductReference": "Image SLES12-SP5-Azure-SAP-BYOS",
        "RelationType": "Default Component Of"
      },
      {
        "ProductReference": "krb5-client-1.16.3-46.6.1",
        "RelatesToProductReference": "Image SLES12-SP5-Azure-SAP-BYOS",
        "RelationType": "Default Component Of"
      },
      {
        "ProductReference": "krb5-1.16.3-46.6.1",
        "RelatesToProductReference": "Image SLES12-SP5-Azure-SAP-On-Demand",
        "RelationType": "Default Component Of"
      },
      {
        "ProductReference": "krb5-client-1.16.3-46.6.1",
        "RelatesToProductReference": "Image SLES12-SP5-Azure-SAP-On-Demand",
        "RelationType": "Default Component Of"
      },
      {
        "ProductReference": "krb5-1.16.3-46.6.1",
        "RelatesToProductReference": "Image SLES12-SP5-Azure-Standard-On-Demand",
        "RelationType": "Default Component Of"
      },
      {
        "ProductReference": "krb5-client-1.16.3-46.6.1",
        "RelatesToProductReference": "Image SLES12-SP5-Azure-Standard-On-Demand",
        "RelationType": "Default Component Of"
      },
      {
        "ProductReference": "krb5-1.16.3-46.6.1",
        "RelatesToProductReference": "Image SLES12-SP5-EC2-BYOS",
        "RelationType": "Default Component Of"
      },
      {
        "ProductReference": "krb5-client-1.16.3-46.6.1",
        "RelatesToProductReference": "Image SLES12-SP5-EC2-BYOS",
        "RelationType": "Default Component Of"
      },
      {
        "ProductReference": "krb5-1.16.3-46.6.1",
        "RelatesToProductReference": "Image SLES12-SP5-EC2-On-Demand",
        "RelationType": "Default Component Of"
      },
      {
        "ProductReference": "krb5-client-1.16.3-46.6.1",
        "RelatesToProductReference": "Image SLES12-SP5-EC2-On-Demand",
        "RelationType": "Default Component Of"
      },
      {
        "ProductReference": "krb5-1.16.3-46.6.1",
        "RelatesToProductReference": "Image SLES12-SP5-EC2-SAP-BYOS",
        "RelationType": "Default Component Of"
      },
      {
        "ProductReference": "krb5-client-1.16.3-46.6.1",
        "RelatesToProductReference": "Image SLES12-SP5-EC2-SAP-BYOS",
        "RelationType": "Default Component Of"
      },
      {
        "ProductReference": "krb5-1.16.3-46.6.1",
        "RelatesToProductReference": "Image SLES12-SP5-EC2-SAP-On-Demand",
        "RelationType": "Default Component Of"
      },
      {
        "ProductReference": "krb5-client-1.16.3-46.6.1",
        "RelatesToProductReference": "Image SLES12-SP5-EC2-SAP-On-Demand",
        "RelationType": "Default Component Of"
      },
      {
        "ProductReference": "krb5-1.16.3-46.6.1",
        "RelatesToProductReference": "Image SLES12-SP5-GCE-BYOS",
        "RelationType": "Default Component Of"
      },
      {
        "ProductReference": "krb5-client-1.16.3-46.6.1",
        "RelatesToProductReference": "Image SLES12-SP5-GCE-BYOS",
        "RelationType": "Default Component Of"
      },
      {
        "ProductReference": "krb5-1.16.3-46.6.1",
        "RelatesToProductReference": "Image SLES12-SP5-GCE-On-Demand",
        "RelationType": "Default Component Of"
      },
      {
        "ProductReference": "krb5-client-1.16.3-46.6.1",
        "RelatesToProductReference": "Image SLES12-SP5-GCE-On-Demand",
        "RelationType": "Default Component Of"
      },
      {
        "ProductReference": "krb5-1.16.3-46.6.1",
        "RelatesToProductReference": "Image SLES12-SP5-GCE-SAP-BYOS",
        "RelationType": "Default Component Of"
      },
      {
        "ProductReference": "krb5-client-1.16.3-46.6.1",
        "RelatesToProductReference": "Image SLES12-SP5-GCE-SAP-BYOS",
        "RelationType": "Default Component Of"
      },
      {
        "ProductReference": "krb5-1.16.3-46.6.1",
        "RelatesToProductReference": "Image SLES12-SP5-GCE-SAP-On-Demand",
        "RelationType": "Default Component Of"
      },
      {
        "ProductReference": "krb5-client-1.16.3-46.6.1",
        "RelatesToProductReference": "Image SLES12-SP5-GCE-SAP-On-Demand",
        "RelationType": "Default Component Of"
      },
      {
        "ProductReference": "krb5-1.16.3-46.6.1",
        "RelatesToProductReference": "Image SLES12-SP5-SAP-Azure-LI-BYOS-Production",
        "RelationType": "Default Component Of"
      },
      {
        "ProductReference": "krb5-32bit-1.16.3-46.6.1",
        "RelatesToProductReference": "Image SLES12-SP5-SAP-Azure-LI-BYOS-Production",
        "RelationType": "Default Component Of"
      },
      {
        "ProductReference": "krb5-client-1.16.3-46.6.1",
        "RelatesToProductReference": "Image SLES12-SP5-SAP-Azure-LI-BYOS-Production",
        "RelationType": "Default Component Of"
      },
      {
        "ProductReference": "krb5-1.16.3-46.6.1",
        "RelatesToProductReference": "Image SLES12-SP5-SAP-Azure-VLI-BYOS-Production",
        "RelationType": "Default Component Of"
      },
      {
        "ProductReference": "krb5-32bit-1.16.3-46.6.1",
        "RelatesToProductReference": "Image SLES12-SP5-SAP-Azure-VLI-BYOS-Production",
        "RelationType": "Default Component Of"
      },
      {
        "ProductReference": "krb5-client-1.16.3-46.6.1",
        "RelatesToProductReference": "Image SLES12-SP5-SAP-Azure-VLI-BYOS-Production",
        "RelationType": "Default Component Of"
      },
      {
        "ProductReference": "krb5-1.16.3-46.6.1",
        "RelatesToProductReference": "SUSE Linux Enterprise Server 12 SP5",
        "RelationType": "Default Component Of"
      },
      {
        "ProductReference": "krb5-32bit-1.16.3-46.6.1",
        "RelatesToProductReference": "SUSE Linux Enterprise Server 12 SP5",
        "RelationType": "Default Component Of"
      },
      {
        "ProductReference": "krb5-client-1.16.3-46.6.1",
        "RelatesToProductReference": "SUSE Linux Enterprise Server 12 SP5",
        "RelationType": "Default Component Of"
      },
      {
        "ProductReference": "krb5-doc-1.16.3-46.6.1",
        "RelatesToProductReference": "SUSE Linux Enterprise Server 12 SP5",
        "RelationType": "Default Component Of"
      },
      {
        "ProductReference": "krb5-plugin-kdb-ldap-1.16.3-46.6.1",
        "RelatesToProductReference": "SUSE Linux Enterprise Server 12 SP5",
        "RelationType": "Default Component Of"
      },
      {
        "ProductReference": "krb5-plugin-preauth-otp-1.16.3-46.6.1",
        "RelatesToProductReference": "SUSE Linux Enterprise Server 12 SP5",
        "RelationType": "Default Component Of"
      },
      {
        "ProductReference": "krb5-plugin-preauth-pkinit-1.16.3-46.6.1",
        "RelatesToProductReference": "SUSE Linux Enterprise Server 12 SP5",
        "RelationType": "Default Component Of"
      },
      {
        "ProductReference": "krb5-server-1.16.3-46.6.1",
        "RelatesToProductReference": "SUSE Linux Enterprise Server 12 SP5",
        "RelationType": "Default Component Of"
      },
      {
        "ProductReference": "krb5-1.16.3-46.6.1",
        "RelatesToProductReference": "SUSE Linux Enterprise Server for SAP Applications 12 SP5",
        "RelationType": "Default Component Of"
      },
      {
        "ProductReference": "krb5-32bit-1.16.3-46.6.1",
        "RelatesToProductReference": "SUSE Linux Enterprise Server for SAP Applications 12 SP5",
        "RelationType": "Default Component Of"
      },
      {
        "ProductReference": "krb5-client-1.16.3-46.6.1",
        "RelatesToProductReference": "SUSE Linux Enterprise Server for SAP Applications 12 SP5",
        "RelationType": "Default Component Of"
      },
      {
        "ProductReference": "krb5-doc-1.16.3-46.6.1",
        "RelatesToProductReference": "SUSE Linux Enterprise Server for SAP Applications 12 SP5",
        "RelationType": "Default Component Of"
      },
      {
        "ProductReference": "krb5-plugin-kdb-ldap-1.16.3-46.6.1",
        "RelatesToProductReference": "SUSE Linux Enterprise Server for SAP Applications 12 SP5",
        "RelationType": "Default Component Of"
      },
      {
        "ProductReference": "krb5-plugin-preauth-otp-1.16.3-46.6.1",
        "RelatesToProductReference": "SUSE Linux Enterprise Server for SAP Applications 12 SP5",
        "RelationType": "Default Component Of"
      },
      {
        "ProductReference": "krb5-plugin-preauth-pkinit-1.16.3-46.6.1",
        "RelatesToProductReference": "SUSE Linux Enterprise Server for SAP Applications 12 SP5",
        "RelationType": "Default Component Of"
      },
      {
        "ProductReference": "krb5-server-1.16.3-46.6.1",
        "RelatesToProductReference": "SUSE Linux Enterprise Server for SAP Applications 12 SP5",
        "RelationType": "Default Component Of"
      },
      {
        "ProductReference": "krb5-devel-1.16.3-46.6.1",
        "RelatesToProductReference": "SUSE Linux Enterprise Software Development Kit 12 SP5",
        "RelationType": "Default Component Of"
      }
    ]
  },
  "References": [
    {
      "URL": "https://www.suse.com/support/update/announcement/2024/suse-su-20241148-1/",
      "Description": "Link for SUSE-SU-2024:1148-1"
    },
    {
      "URL": "https://lists.suse.com/pipermail/sle-updates/2024-April/034874.html",
      "Description": "E-Mail link for SUSE-SU-2024:1148-1"
    },
    {
      "URL": "https://www.suse.com/support/security/rating/",
      "Description": "SUSE Security Ratings"
    },
    {
      "URL": "https://bugzilla.suse.com/1220770",
      "Description": "SUSE Bug 1220770"
    },
    {
      "URL": "https://bugzilla.suse.com/1220771",
      "Description": "SUSE Bug 1220771"
    },
    {
      "URL": "https://www.suse.com/security/cve/CVE-2024-26458/",
      "Description": "SUSE CVE CVE-2024-26458 page"
    },
    {
      "URL": "https://www.suse.com/security/cve/CVE-2024-26461/",
      "Description": "SUSE CVE CVE-2024-26461 page"
    }
  ],
  "Vulnerabilities": [
    {
      "CVE": "CVE-2024-26458",
      "Description": "Kerberos 5 (aka krb5) 1.21.2 contains a memory leak in /krb5/src/lib/rpc/pmap_rmt.c.",
      "Threats": [
        {
          "Type": "Impact",
          "Severity": "important"
        }
      ],
      "References": [
        {
          "URL": "https://www.suse.com/security/cve/CVE-2024-26458.html",
          "Description": "CVE-2024-26458"
        },
        {
          "URL": "https://bugzilla.suse.com/1220770",
          "Description": "SUSE Bug 1220770"
        }
      ],
      "ProductStatuses": [
        {
          "Type": "Fixed",
          "ProductID": [
            "Container suse/sles12sp5:latest:krb5-1.16.3-46.6.1",
            "Image SLES12-SP5-Azure-BYOS:krb5-1.16.3-46.6.1",
            "Image SLES12-SP5-Azure-BYOS:krb5-client-1.16.3-46.6.1",
            "Image SLES12-SP5-Azure-Basic-On-Demand:krb5-1.16.3-46.6.1",
            "Image SLES12-SP5-Azure-Basic-On-Demand:krb5-client-1.16.3-46.6.1",
            "Image SLES12-SP5-Azure-HPC-BYOS:krb5-1.16.3-46.6.1",
            "Image SLES12-SP5-Azure-HPC-BYOS:krb5-client-1.16.3-46.6.1",
            "Image SLES12-SP5-Azure-HPC-On-Demand:krb5-1.16.3-46.6.1",
            "Image SLES12-SP5-Azure-HPC-On-Demand:krb5-client-1.16.3-46.6.1",
            "Image SLES12-SP5-Azure-SAP-BYOS:krb5-1.16.3-46.6.1",
            "Image SLES12-SP5-Azure-SAP-BYOS:krb5-client-1.16.3-46.6.1",
            "Image SLES12-SP5-Azure-SAP-On-Demand:krb5-1.16.3-46.6.1",
            "Image SLES12-SP5-Azure-SAP-On-Demand:krb5-client-1.16.3-46.6.1",
            "Image SLES12-SP5-Azure-Standard-On-Demand:krb5-1.16.3-46.6.1",
            "Image SLES12-SP5-Azure-Standard-On-Demand:krb5-client-1.16.3-46.6.1",
            "Image SLES12-SP5-EC2-BYOS:krb5-1.16.3-46.6.1",
            "Image SLES12-SP5-EC2-BYOS:krb5-client-1.16.3-46.6.1",
            "Image SLES12-SP5-EC2-On-Demand:krb5-1.16.3-46.6.1",
            "Image SLES12-SP5-EC2-On-Demand:krb5-client-1.16.3-46.6.1",
            "Image SLES12-SP5-EC2-SAP-BYOS:krb5-1.16.3-46.6.1",
            "Image SLES12-SP5-EC2-SAP-BYOS:krb5-client-1.16.3-46.6.1",
            "Image SLES12-SP5-EC2-SAP-On-Demand:krb5-1.16.3-46.6.1",
            "Image SLES12-SP5-EC2-SAP-On-Demand:krb5-client-1.16.3-46.6.1",
            "Image SLES12-SP5-GCE-BYOS:krb5-1.16.3-46.6.1",
            "Image SLES12-SP5-GCE-BYOS:krb5-client-1.16.3-46.6.1",
            "Image SLES12-SP5-GCE-On-Demand:krb5-1.16.3-46.6.1",
            "Image SLES12-SP5-GCE-On-Demand:krb5-client-1.16.3-46.6.1",
            "Image SLES12-SP5-GCE-SAP-BYOS:krb5-1.16.3-46.6.1",
            "Image SLES12-SP5-GCE-SAP-BYOS:krb5-client-1.16.3-46.6.1",
            "Image SLES12-SP5-GCE-SAP-On-Demand:krb5-1.16.3-46.6.1",
            "Image SLES12-SP5-GCE-SAP-On-Demand:krb5-client-1.16.3-46.6.1",
            "Image SLES12-SP5-SAP-Azure-LI-BYOS-Production:krb5-1.16.3-46.6.1",
            "Image SLES12-SP5-SAP-Azure-LI-BYOS-Production:krb5-32bit-1.16.3-46.6.1",
            "Image SLES12-SP5-SAP-Azure-LI-BYOS-Production:krb5-client-1.16.3-46.6.1",
            "Image SLES12-SP5-SAP-Azure-VLI-BYOS-Production:krb5-1.16.3-46.6.1",
            "Image SLES12-SP5-SAP-Azure-VLI-BYOS-Production:krb5-32bit-1.16.3-46.6.1",
            "Image SLES12-SP5-SAP-Azure-VLI-BYOS-Production:krb5-client-1.16.3-46.6.1",
            "SUSE Linux Enterprise Server 12 SP5:krb5-1.16.3-46.6.1",
            "SUSE Linux Enterprise Server 12 SP5:krb5-32bit-1.16.3-46.6.1",
            "SUSE Linux Enterprise Server 12 SP5:krb5-client-1.16.3-46.6.1",
            "SUSE Linux Enterprise Server 12 SP5:krb5-doc-1.16.3-46.6.1",
            "SUSE Linux Enterprise Server 12 SP5:krb5-plugin-kdb-ldap-1.16.3-46.6.1",
            "SUSE Linux Enterprise Server 12 SP5:krb5-plugin-preauth-otp-1.16.3-46.6.1",
            "SUSE Linux Enterprise Server 12 SP5:krb5-plugin-preauth-pkinit-1.16.3-46.6.1",
            "SUSE Linux Enterprise Server 12 SP5:krb5-server-1.16.3-46.6.1",
            "SUSE Linux Enterprise Server for SAP Applications 12 SP5:krb5-1.16.3-46.6.1",
            "SUSE Linux Enterprise Server for SAP Applications 12 SP5:krb5-32bit-1.16.3-46.6.1",
            "SUSE Linux Enterprise Server for SAP Applications 12 SP5:krb5-client-1.16.3-46.6.1",
            "SUSE Linux Enterprise Server for SAP Applications 12 SP5:krb5-doc-1.16.3-46.6.1",
            "SUSE Linux Enterprise Server for SAP Applications 12 SP5:krb5-plugin-kdb-ldap-1.16.3-46.6.1",
            "SUSE Linux Enterprise Server for SAP Applications 12 SP5:krb5-plugin-preauth-otp-1.16.3-46.6.1",
            "SUSE Linux Enterprise Server for SAP Applications 12 SP5:krb5-plugin-preauth-pkinit-1.16.3-46.6.1",
            "SUSE Linux Enterprise Server for SAP Applications 12 SP5:krb5-server-1.16.3-46.6.1",
            "SUSE Linux Enterprise Software Development Kit 12 SP5:krb5-devel-1.16.3-46.6.1"
          ]
        }
      ],
      "CVSSScoreSets": {}
    },
    {
      "CVE": "CVE-2024-26461",
      "Description": "Kerberos 5 (aka krb5) 1.21.2 contains a memory leak vulnerability in /krb5/src/lib/gssapi/krb5/k5sealv3.c.",
      "Threats": [
        {
          "Type": "Impact",
          "Severity": "important"
        }
      ],
      "References": [
        {
          "URL": "https://www.suse.com/security/cve/CVE-2024-26461.html",
          "Description": "CVE-2024-26461"
        },
        {
          "URL": "https://bugzilla.suse.com/1220771",
          "Description": "SUSE Bug 1220771"
        }
      ],
      "ProductStatuses": [
        {
          "Type": "Fixed",
          "ProductID": [
            "Container suse/sles12sp5:latest:krb5-1.16.3-46.6.1",
            "Image SLES12-SP5-Azure-BYOS:krb5-1.16.3-46.6.1",
            "Image SLES12-SP5-Azure-BYOS:krb5-client-1.16.3-46.6.1",
            "Image SLES12-SP5-Azure-Basic-On-Demand:krb5-1.16.3-46.6.1",
            "Image SLES12-SP5-Azure-Basic-On-Demand:krb5-client-1.16.3-46.6.1",
            "Image SLES12-SP5-Azure-HPC-BYOS:krb5-1.16.3-46.6.1",
            "Image SLES12-SP5-Azure-HPC-BYOS:krb5-client-1.16.3-46.6.1",
            "Image SLES12-SP5-Azure-HPC-On-Demand:krb5-1.16.3-46.6.1",
            "Image SLES12-SP5-Azure-HPC-On-Demand:krb5-client-1.16.3-46.6.1",
            "Image SLES12-SP5-Azure-SAP-BYOS:krb5-1.16.3-46.6.1",
            "Image SLES12-SP5-Azure-SAP-BYOS:krb5-client-1.16.3-46.6.1",
            "Image SLES12-SP5-Azure-SAP-On-Demand:krb5-1.16.3-46.6.1",
            "Image SLES12-SP5-Azure-SAP-On-Demand:krb5-client-1.16.3-46.6.1",
            "Image SLES12-SP5-Azure-Standard-On-Demand:krb5-1.16.3-46.6.1",
            "Image SLES12-SP5-Azure-Standard-On-Demand:krb5-client-1.16.3-46.6.1",
            "Image SLES12-SP5-EC2-BYOS:krb5-1.16.3-46.6.1",
            "Image SLES12-SP5-EC2-BYOS:krb5-client-1.16.3-46.6.1",
            "Image SLES12-SP5-EC2-On-Demand:krb5-1.16.3-46.6.1",
            "Image SLES12-SP5-EC2-On-Demand:krb5-client-1.16.3-46.6.1",
            "Image SLES12-SP5-EC2-SAP-BYOS:krb5-1.16.3-46.6.1",
            "Image SLES12-SP5-EC2-SAP-BYOS:krb5-client-1.16.3-46.6.1",
            "Image SLES12-SP5-EC2-SAP-On-Demand:krb5-1.16.3-46.6.1",
            "Image SLES12-SP5-EC2-SAP-On-Demand:krb5-client-1.16.3-46.6.1",
            "Image SLES12-SP5-GCE-BYOS:krb5-1.16.3-46.6.1",
            "Image SLES12-SP5-GCE-BYOS:krb5-client-1.16.3-46.6.1",
            "Image SLES12-SP5-GCE-On-Demand:krb5-1.16.3-46.6.1",
            "Image SLES12-SP5-GCE-On-Demand:krb5-client-1.16.3-46.6.1",
            "Image SLES12-SP5-GCE-SAP-BYOS:krb5-1.16.3-46.6.1",
            "Image SLES12-SP5-GCE-SAP-BYOS:krb5-client-1.16.3-46.6.1",
            "Image SLES12-SP5-GCE-SAP-On-Demand:krb5-1.16.3-46.6.1",
            "Image SLES12-SP5-GCE-SAP-On-Demand:krb5-client-1.16.3-46.6.1",
            "Image SLES12-SP5-SAP-Azure-LI-BYOS-Production:krb5-1.16.3-46.6.1",
            "Image SLES12-SP5-SAP-Azure-LI-BYOS-Production:krb5-32bit-1.16.3-46.6.1",
            "Image SLES12-SP5-SAP-Azure-LI-BYOS-Production:krb5-client-1.16.3-46.6.1",
            "Image SLES12-SP5-SAP-Azure-VLI-BYOS-Production:krb5-1.16.3-46.6.1",
            "Image SLES12-SP5-SAP-Azure-VLI-BYOS-Production:krb5-32bit-1.16.3-46.6.1",
            "Image SLES12-SP5-SAP-Azure-VLI-BYOS-Production:krb5-client-1.16.3-46.6.1",
            "SUSE Linux Enterprise Server 12 SP5:krb5-1.16.3-46.6.1",
            "SUSE Linux Enterprise Server 12 SP5:krb5-32bit-1.16.3-46.6.1",
            "SUSE Linux Enterprise Server 12 SP5:krb5-client-1.16.3-46.6.1",
            "SUSE Linux Enterprise Server 12 SP5:krb5-doc-1.16.3-46.6.1",
            "SUSE Linux Enterprise Server 12 SP5:krb5-plugin-kdb-ldap-1.16.3-46.6.1",
            "SUSE Linux Enterprise Server 12 SP5:krb5-plugin-preauth-otp-1.16.3-46.6.1",
            "SUSE Linux Enterprise Server 12 SP5:krb5-plugin-preauth-pkinit-1.16.3-46.6.1",
            "SUSE Linux Enterprise Server 12 SP5:krb5-server-1.16.3-46.6.1",
            "SUSE Linux Enterprise Server for SAP Applications 12 SP5:krb5-1.16.3-46.6.1",
            "SUSE Linux Enterprise Server for SAP Applications 12 SP5:krb5-32bit-1.16.3-46.6.1",
            "SUSE Linux Enterprise Server for SAP Applications 12 SP5:krb5-client-1.16.3-46.6.1",
            "SUSE Linux Enterprise Server for SAP Applications 12 SP5:krb5-doc-1.16.3-46.6.1",
            "SUSE Linux Enterprise Server for SAP Applications 12 SP5:krb5-plugin-kdb-ldap-1.16.3-46.6.1",
            "SUSE Linux Enterprise Server for SAP Applications 12 SP5:krb5-plugin-preauth-otp-1.16.3-46.6.1",
            "SUSE Linux Enterprise Server for SAP Applications 12 SP5:krb5-plugin-preauth-pkinit-1.16.3-46.6.1",
            "SUSE Linux Enterprise Server for SAP Applications 12 SP5:krb5-server-1.16.3-46.6.1",
            "SUSE Linux Enterprise Software Development Kit 12 SP5:krb5-devel-1.16.3-46.6.1"
          ]
        }
      ],
      "CVSSScoreSets": {}
    }
  ]
}