{
  "Title": "Security update for the Linux Kernel RT (Live Patch 5 for SLE 15 SP5)",
  "Tracking": {
    "ID": "SUSE-SU-2024:1695-1",
    "Status": "Final",
    "Version": "1",
    "InitialReleaseDate": "2024-05-20T15:34:41Z",
    "CurrentReleaseDate": "2024-05-20T15:34:41Z",
    "RevisionHistory": [
      {
        "Number": "1",
        "Date": "2024-05-20T15:34:41Z",
        "Description": "current"
      }
    ]
  },
  "Notes": [
    {
      "Text": "Security update for the Linux Kernel RT (Live Patch 5 for SLE 15 SP5)",
      "Title": "Topic",
      "Type": "Summary"
    },
    {
      "Text": "This update for the Linux Kernel 5.14.21-150500_13_18 fixes several issues.\n\nThe following security issues were fixed:\n\n- CVE-2023-6931: Fixed a heap out-of-bounds write vulnerability in perf_read_group() (bsc#1216644). \n- CVE-2024-26610: Fixed memory corruption in wifi/iwlwifi (bsc#1221302).\n- CVE-2022-48651: Fixed an out-of-bound bug in ipvlan caused by unset skb-\u003emac_header (bsc#1223514).\n- CVE-2024-26766: Fixed SDMA off-by-one error in _pad_sdma_tx_descs() (bsc#1222882).\n- CVE-2023-52502: Fixed a race condition in nfc_llcp_sock_get() and nfc_llcp_sock_get_sn() (bsc#1220832).\n- CVE-2024-26585: Fixed race between tx work scheduling and socket close for tls (bsc#1220211).\n- CVE-2023-6546: Fixed a race condition that could lead to a use-after-free in the GSM 0710 tty multiplexor (bsc#1222685).\n",
      "Title": "Details",
      "Type": "General"
    },
    {
      "Text": "The CVRF data is provided by SUSE under the Creative Commons License 4.0 with Attribution (CC-BY-4.0).",
      "Title": "Terms of Use",
      "Type": "Legal Disclaimer"
    },
    {
      "Text": "SUSE-2024-1695,SUSE-SLE-Module-Live-Patching-15-SP5-2024-1695",
      "Title": "Patchnames",
      "Type": "Details"
    }
  ],
  "ProductTree": {
    "Relationships": [
      {
        "ProductReference": "kernel-livepatch-5_14_21-150500_13_18-rt-9-150500.2.1",
        "RelatesToProductReference": "SUSE Linux Enterprise Live Patching 15 SP5",
        "RelationType": "Default Component Of"
      }
    ]
  },
  "References": [
    {
      "URL": "https://www.suse.com/support/update/announcement/2024/suse-su-20241695-1/",
      "Description": "Link for SUSE-SU-2024:1695-1"
    },
    {
      "URL": "https://lists.suse.com/pipermail/sle-security-updates/2024-May/018549.html",
      "Description": "E-Mail link for SUSE-SU-2024:1695-1"
    },
    {
      "URL": "https://www.suse.com/support/security/rating/",
      "Description": "SUSE Security Ratings"
    },
    {
      "URL": "https://bugzilla.suse.com/1216644",
      "Description": "SUSE Bug 1216644"
    },
    {
      "URL": "https://bugzilla.suse.com/1218259",
      "Description": "SUSE Bug 1218259"
    },
    {
      "URL": "https://bugzilla.suse.com/1220211",
      "Description": "SUSE Bug 1220211"
    },
    {
      "URL": "https://bugzilla.suse.com/1220832",
      "Description": "SUSE Bug 1220832"
    },
    {
      "URL": "https://bugzilla.suse.com/1221302",
      "Description": "SUSE Bug 1221302"
    },
    {
      "URL": "https://bugzilla.suse.com/1222685",
      "Description": "SUSE Bug 1222685"
    },
    {
      "URL": "https://bugzilla.suse.com/1222882",
      "Description": "SUSE Bug 1222882"
    },
    {
      "URL": "https://bugzilla.suse.com/1223514",
      "Description": "SUSE Bug 1223514"
    },
    {
      "URL": "https://www.suse.com/security/cve/CVE-2022-48651/",
      "Description": "SUSE CVE CVE-2022-48651 page"
    },
    {
      "URL": "https://www.suse.com/security/cve/CVE-2023-52502/",
      "Description": "SUSE CVE CVE-2023-52502 page"
    },
    {
      "URL": "https://www.suse.com/security/cve/CVE-2023-6546/",
      "Description": "SUSE CVE CVE-2023-6546 page"
    },
    {
      "URL": "https://www.suse.com/security/cve/CVE-2023-6931/",
      "Description": "SUSE CVE CVE-2023-6931 page"
    },
    {
      "URL": "https://www.suse.com/security/cve/CVE-2024-26585/",
      "Description": "SUSE CVE CVE-2024-26585 page"
    },
    {
      "URL": "https://www.suse.com/security/cve/CVE-2024-26610/",
      "Description": "SUSE CVE CVE-2024-26610 page"
    },
    {
      "URL": "https://www.suse.com/security/cve/CVE-2024-26766/",
      "Description": "SUSE CVE CVE-2024-26766 page"
    }
  ],
  "Vulnerabilities": [
    {
      "CVE": "CVE-2022-48651",
      "Description": "In the Linux kernel, the following vulnerability has been resolved:\n\nipvlan: Fix out-of-bound bugs caused by unset skb-\u003emac_header\n\nIf an AF_PACKET socket is used to send packets through ipvlan and the\ndefault xmit function of the AF_PACKET socket is changed from\ndev_queue_xmit() to packet_direct_xmit() via setsockopt() with the option\nname of PACKET_QDISC_BYPASS, the skb-\u003emac_header may not be reset and\nremains as the initial value of 65535, this may trigger slab-out-of-bounds\nbugs as following:\n\n=================================================================\nUG: KASAN: slab-out-of-bounds in ipvlan_xmit_mode_l2+0xdb/0x330 [ipvlan]\nPU: 2 PID: 1768 Comm: raw_send Kdump: loaded Not tainted 6.0.0-rc4+ #6\nardware name: QEMU Standard PC (i440FX + PIIX, 1996), BIOS 1.14.0-1.fc33\nall Trace:\nprint_address_description.constprop.0+0x1d/0x160\nprint_report.cold+0x4f/0x112\nkasan_report+0xa3/0x130\nipvlan_xmit_mode_l2+0xdb/0x330 [ipvlan]\nipvlan_start_xmit+0x29/0xa0 [ipvlan]\n__dev_direct_xmit+0x2e2/0x380\npacket_direct_xmit+0x22/0x60\npacket_snd+0x7c9/0xc40\nsock_sendmsg+0x9a/0xa0\n__sys_sendto+0x18a/0x230\n__x64_sys_sendto+0x74/0x90\ndo_syscall_64+0x3b/0x90\nentry_SYSCALL_64_after_hwframe+0x63/0xcd\n\nThe root cause is:\n  1. packet_snd() only reset skb-\u003emac_header when sock-\u003etype is SOCK_RAW\n     and skb-\u003eprotocol is not specified as in packet_parse_headers()\n\n  2. packet_direct_xmit() doesn't reset skb-\u003emac_header as dev_queue_xmit()\n\nIn this case, skb-\u003emac_header is 65535 when ipvlan_xmit_mode_l2() is\ncalled. So when ipvlan_xmit_mode_l2() gets mac header with eth_hdr() which\nuse \"skb-\u003ehead + skb-\u003emac_header\", out-of-bound access occurs.\n\nThis patch replaces eth_hdr() with skb_eth_hdr() in ipvlan_xmit_mode_l2()\nand reset mac header in multicast to solve this out-of-bound bug.",
      "Threats": [
        {
          "Type": "Impact",
          "Severity": "important"
        }
      ],
      "References": [
        {
          "URL": "https://www.suse.com/security/cve/CVE-2022-48651.html",
          "Description": "CVE-2022-48651"
        },
        {
          "URL": "https://bugzilla.suse.com/1223513",
          "Description": "SUSE Bug 1223513"
        },
        {
          "URL": "https://bugzilla.suse.com/1223514",
          "Description": "SUSE Bug 1223514"
        }
      ],
      "ProductStatuses": [
        {
          "Type": "Fixed",
          "ProductID": [
            "SUSE Linux Enterprise Live Patching 15 SP5:kernel-livepatch-5_14_21-150500_13_18-rt-9-150500.2.1"
          ]
        }
      ],
      "CVSSScoreSets": {}
    },
    {
      "CVE": "CVE-2023-52502",
      "Description": "In the Linux kernel, the following vulnerability has been resolved:\n\nnet: nfc: fix races in nfc_llcp_sock_get() and nfc_llcp_sock_get_sn()\n\nSili Luo reported a race in nfc_llcp_sock_get(), leading to UAF.\n\nGetting a reference on the socket found in a lookup while\nholding a lock should happen before releasing the lock.\n\nnfc_llcp_sock_get_sn() has a similar problem.\n\nFinally nfc_llcp_recv_snl() needs to make sure the socket\nfound by nfc_llcp_sock_from_sn() does not disappear.",
      "Threats": [
        {
          "Type": "Impact",
          "Severity": "moderate"
        }
      ],
      "References": [
        {
          "URL": "https://www.suse.com/security/cve/CVE-2023-52502.html",
          "Description": "CVE-2023-52502"
        },
        {
          "URL": "https://bugzilla.suse.com/1220831",
          "Description": "SUSE Bug 1220831"
        },
        {
          "URL": "https://bugzilla.suse.com/1220832",
          "Description": "SUSE Bug 1220832"
        },
        {
          "URL": "https://bugzilla.suse.com/1224878",
          "Description": "SUSE Bug 1224878"
        }
      ],
      "ProductStatuses": [
        {
          "Type": "Fixed",
          "ProductID": [
            "SUSE Linux Enterprise Live Patching 15 SP5:kernel-livepatch-5_14_21-150500_13_18-rt-9-150500.2.1"
          ]
        }
      ],
      "CVSSScoreSets": {}
    },
    {
      "CVE": "CVE-2023-6546",
      "Description": "A race condition was found in the GSM 0710 tty multiplexor in the Linux kernel. This issue occurs when two threads execute the GSMIOC_SETCONF ioctl on the same tty file descriptor with the gsm line discipline enabled, and can lead to a use-after-free problem on a struct gsm_dlci while restarting the gsm mux. This could allow a local unprivileged user to escalate their privileges on the system.",
      "Threats": [
        {
          "Type": "Impact",
          "Severity": "important"
        }
      ],
      "References": [
        {
          "URL": "https://www.suse.com/security/cve/CVE-2023-6546.html",
          "Description": "CVE-2023-6546"
        },
        {
          "URL": "https://bugzilla.suse.com/1218335",
          "Description": "SUSE Bug 1218335"
        },
        {
          "URL": "https://bugzilla.suse.com/1222685",
          "Description": "SUSE Bug 1222685"
        }
      ],
      "ProductStatuses": [
        {
          "Type": "Fixed",
          "ProductID": [
            "SUSE Linux Enterprise Live Patching 15 SP5:kernel-livepatch-5_14_21-150500_13_18-rt-9-150500.2.1"
          ]
        }
      ],
      "CVSSScoreSets": {}
    },
    {
      "CVE": "CVE-2023-6931",
      "Description": "A heap out-of-bounds write vulnerability in the Linux kernel's Performance Events system component can be exploited to achieve local privilege escalation.\n\nA perf_event's read_size can overflow, leading to an heap out-of-bounds increment or write in perf_read_group().\n\nWe recommend upgrading past commit 382c27f4ed28f803b1f1473ac2d8db0afc795a1b.\n\n",
      "Threats": [
        {
          "Type": "Impact",
          "Severity": "moderate"
        }
      ],
      "References": [
        {
          "URL": "https://www.suse.com/security/cve/CVE-2023-6931.html",
          "Description": "CVE-2023-6931"
        },
        {
          "URL": "https://bugzilla.suse.com/1214158",
          "Description": "SUSE Bug 1214158"
        },
        {
          "URL": "https://bugzilla.suse.com/1218258",
          "Description": "SUSE Bug 1218258"
        },
        {
          "URL": "https://bugzilla.suse.com/1220191",
          "Description": "SUSE Bug 1220191"
        }
      ],
      "ProductStatuses": [
        {
          "Type": "Fixed",
          "ProductID": [
            "SUSE Linux Enterprise Live Patching 15 SP5:kernel-livepatch-5_14_21-150500_13_18-rt-9-150500.2.1"
          ]
        }
      ],
      "CVSSScoreSets": {}
    },
    {
      "CVE": "CVE-2024-26585",
      "Description": "In the Linux kernel, the following vulnerability has been resolved:\n\ntls: fix race between tx work scheduling and socket close\n\nSimilarly to previous commit, the submitting thread (recvmsg/sendmsg)\nmay exit as soon as the async crypto handler calls complete().\nReorder scheduling the work before calling complete().\nThis seems more logical in the first place, as it's\nthe inverse order of what the submitting thread will do.",
      "Threats": [
        {
          "Type": "Impact",
          "Severity": "moderate"
        }
      ],
      "References": [
        {
          "URL": "https://www.suse.com/security/cve/CVE-2024-26585.html",
          "Description": "CVE-2024-26585"
        },
        {
          "URL": "https://bugzilla.suse.com/1220187",
          "Description": "SUSE Bug 1220187"
        },
        {
          "URL": "https://bugzilla.suse.com/1220211",
          "Description": "SUSE Bug 1220211"
        },
        {
          "URL": "https://bugzilla.suse.com/1224878",
          "Description": "SUSE Bug 1224878"
        }
      ],
      "ProductStatuses": [
        {
          "Type": "Fixed",
          "ProductID": [
            "SUSE Linux Enterprise Live Patching 15 SP5:kernel-livepatch-5_14_21-150500_13_18-rt-9-150500.2.1"
          ]
        }
      ],
      "CVSSScoreSets": {}
    },
    {
      "CVE": "CVE-2024-26610",
      "Description": "In the Linux kernel, the following vulnerability has been resolved:\n\nwifi: iwlwifi: fix a memory corruption\n\niwl_fw_ini_trigger_tlv::data is a pointer to a __le32, which means that\nif we copy to iwl_fw_ini_trigger_tlv::data + offset while offset is in\nbytes, we'll write past the buffer.",
      "Threats": [
        {
          "Type": "Impact",
          "Severity": "important"
        }
      ],
      "References": [
        {
          "URL": "https://www.suse.com/security/cve/CVE-2024-26610.html",
          "Description": "CVE-2024-26610"
        },
        {
          "URL": "https://bugzilla.suse.com/1221299",
          "Description": "SUSE Bug 1221299"
        },
        {
          "URL": "https://bugzilla.suse.com/1221302",
          "Description": "SUSE Bug 1221302"
        }
      ],
      "ProductStatuses": [
        {
          "Type": "Fixed",
          "ProductID": [
            "SUSE Linux Enterprise Live Patching 15 SP5:kernel-livepatch-5_14_21-150500_13_18-rt-9-150500.2.1"
          ]
        }
      ],
      "CVSSScoreSets": {}
    },
    {
      "CVE": "CVE-2024-26766",
      "Description": "In the Linux kernel, the following vulnerability has been resolved:\n\nIB/hfi1: Fix sdma.h tx-\u003enum_descs off-by-one error\n\nUnfortunately the commit `fd8958efe877` introduced another error\ncausing the `descs` array to overflow. This reults in further crashes\neasily reproducible by `sendmsg` system call.\n\n[ 1080.836473] general protection fault, probably for non-canonical address 0x400300015528b00a: 0000 [#1] PREEMPT SMP PTI\n[ 1080.869326] RIP: 0010:hfi1_ipoib_build_ib_tx_headers.constprop.0+0xe1/0x2b0 [hfi1]\n--\n[ 1080.974535] Call Trace:\n[ 1080.976990]  \u003cTASK\u003e\n[ 1081.021929]  hfi1_ipoib_send_dma_common+0x7a/0x2e0 [hfi1]\n[ 1081.027364]  hfi1_ipoib_send_dma_list+0x62/0x270 [hfi1]\n[ 1081.032633]  hfi1_ipoib_send+0x112/0x300 [hfi1]\n[ 1081.042001]  ipoib_start_xmit+0x2a9/0x2d0 [ib_ipoib]\n[ 1081.046978]  dev_hard_start_xmit+0xc4/0x210\n--\n[ 1081.148347]  __sys_sendmsg+0x59/0xa0\n\ncrash\u003e ipoib_txreq 0xffff9cfeba229f00\nstruct ipoib_txreq {\n  txreq = {\n    list = {\n      next = 0xffff9cfeba229f00,\n      prev = 0xffff9cfeba229f00\n    },\n    descp = 0xffff9cfeba229f40,\n    coalesce_buf = 0x0,\n    wait = 0xffff9cfea4e69a48,\n    complete = 0xffffffffc0fe0760 \u003chfi1_ipoib_sdma_complete\u003e,\n    packet_len = 0x46d,\n    tlen = 0x0,\n    num_desc = 0x0,\n    desc_limit = 0x6,\n    next_descq_idx = 0x45c,\n    coalesce_idx = 0x0,\n    flags = 0x0,\n    descs = {{\n        qw = {0x8024000120dffb00, 0x4}  # SDMA_DESC0_FIRST_DESC_FLAG (bit 63)\n      }, {\n        qw = {  0x3800014231b108, 0x4}\n      }, {\n        qw = { 0x310000e4ee0fcf0, 0x8}\n      }, {\n        qw = {  0x3000012e9f8000, 0x8}\n      }, {\n        qw = {  0x59000dfb9d0000, 0x8}\n      }, {\n        qw = {  0x78000e02e40000, 0x8}\n      }}\n  },\n  sdma_hdr =  0x400300015528b000,  \u003c\u003c\u003c invalid pointer in the tx request structure\n  sdma_status = 0x0,                   SDMA_DESC0_LAST_DESC_FLAG (bit 62)\n  complete = 0x0,\n  priv = 0x0,\n  txq = 0xffff9cfea4e69880,\n  skb = 0xffff9d099809f400\n}\n\nIf an SDMA send consists of exactly 6 descriptors and requires dword\npadding (in the 7th descriptor), the sdma_txreq descriptor array is not\nproperly expanded and the packet will overflow into the container\nstructure. This results in a panic when the send completion runs. The\nexact panic varies depending on what elements of the container structure\nget corrupted. The fix is to use the correct expression in\n_pad_sdma_tx_descs() to test the need to expand the descriptor array.\n\nWith this patch the crashes are no longer reproducible and the machine is\nstable.",
      "Threats": [
        {
          "Type": "Impact",
          "Severity": "important"
        }
      ],
      "References": [
        {
          "URL": "https://www.suse.com/security/cve/CVE-2024-26766.html",
          "Description": "CVE-2024-26766"
        },
        {
          "URL": "https://bugzilla.suse.com/1222726",
          "Description": "SUSE Bug 1222726"
        },
        {
          "URL": "https://bugzilla.suse.com/1222882",
          "Description": "SUSE Bug 1222882"
        }
      ],
      "ProductStatuses": [
        {
          "Type": "Fixed",
          "ProductID": [
            "SUSE Linux Enterprise Live Patching 15 SP5:kernel-livepatch-5_14_21-150500_13_18-rt-9-150500.2.1"
          ]
        }
      ],
      "CVSSScoreSets": {}
    }
  ]
}