{
  "Title": "Security update for the Linux Kernel RT (Live Patch 11 for SLE 15 SP5)",
  "Tracking": {
    "ID": "SUSE-SU-2024:2100-1",
    "Status": "Final",
    "Version": "1",
    "InitialReleaseDate": "2024-06-19T14:34:06Z",
    "CurrentReleaseDate": "2024-06-19T14:34:06Z",
    "RevisionHistory": [
      {
        "Number": "1",
        "Date": "2024-06-19T14:34:06Z",
        "Description": "current"
      }
    ]
  },
  "Notes": [
    {
      "Text": "Security update for the Linux Kernel RT (Live Patch 11 for SLE 15 SP5)",
      "Title": "Topic",
      "Type": "Summary"
    },
    {
      "Text": "This update for the Linux Kernel 5.14.21-150500_13_38 fixes several issues.\n\nThe following security issues were fixed:\n\n- CVE-2024-26852: Fixed use-after-free in ip6_route_mpath_notify() (bsc#1223059).\n- CVE-2024-26610: Fixed memory corruption in wifi/iwlwifi (bsc#1221302).\n- CVE-2022-48651: Fixed an out-of-bound bug in ipvlan caused by unset skb-\u003emac_header (bsc#1223514).\n- CVE-2023-52502: Fixed a race condition in nfc_llcp_sock_get() and nfc_llcp_sock_get_sn() (bsc#1220832).\n- CVE-2023-6546: Fixed a race condition in the GSM 0710 tty multiplexor via the GSMIOC_SETCONF ioctl that could lead to local privilege escalation (bsc#1222685).\n",
      "Title": "Details",
      "Type": "General"
    },
    {
      "Text": "The CVRF data is provided by SUSE under the Creative Commons License 4.0 with Attribution (CC-BY-4.0).",
      "Title": "Terms of Use",
      "Type": "Legal Disclaimer"
    },
    {
      "Text": "SUSE-2024-2100,SUSE-SLE-Module-Live-Patching-15-SP5-2024-2100",
      "Title": "Patchnames",
      "Type": "Details"
    }
  ],
  "ProductTree": {
    "Relationships": [
      {
        "ProductReference": "kernel-livepatch-5_14_21-150500_13_38-rt-3-150500.11.6.1",
        "RelatesToProductReference": "SUSE Linux Enterprise Live Patching 15 SP5",
        "RelationType": "Default Component Of"
      }
    ]
  },
  "References": [
    {
      "URL": "https://www.suse.com/support/update/announcement/2024/suse-su-20242100-1/",
      "Description": "Link for SUSE-SU-2024:2100-1"
    },
    {
      "URL": "https://lists.suse.com/pipermail/sle-updates/2024-June/035655.html",
      "Description": "E-Mail link for SUSE-SU-2024:2100-1"
    },
    {
      "URL": "https://www.suse.com/support/security/rating/",
      "Description": "SUSE Security Ratings"
    },
    {
      "URL": "https://bugzilla.suse.com/1220832",
      "Description": "SUSE Bug 1220832"
    },
    {
      "URL": "https://bugzilla.suse.com/1221302",
      "Description": "SUSE Bug 1221302"
    },
    {
      "URL": "https://bugzilla.suse.com/1222685",
      "Description": "SUSE Bug 1222685"
    },
    {
      "URL": "https://bugzilla.suse.com/1223059",
      "Description": "SUSE Bug 1223059"
    },
    {
      "URL": "https://bugzilla.suse.com/1223514",
      "Description": "SUSE Bug 1223514"
    },
    {
      "URL": "https://www.suse.com/security/cve/CVE-2022-48651/",
      "Description": "SUSE CVE CVE-2022-48651 page"
    },
    {
      "URL": "https://www.suse.com/security/cve/CVE-2023-52502/",
      "Description": "SUSE CVE CVE-2023-52502 page"
    },
    {
      "URL": "https://www.suse.com/security/cve/CVE-2023-6546/",
      "Description": "SUSE CVE CVE-2023-6546 page"
    },
    {
      "URL": "https://www.suse.com/security/cve/CVE-2024-26610/",
      "Description": "SUSE CVE CVE-2024-26610 page"
    },
    {
      "URL": "https://www.suse.com/security/cve/CVE-2024-26852/",
      "Description": "SUSE CVE CVE-2024-26852 page"
    }
  ],
  "Vulnerabilities": [
    {
      "CVE": "CVE-2022-48651",
      "Description": "In the Linux kernel, the following vulnerability has been resolved:\n\nipvlan: Fix out-of-bound bugs caused by unset skb-\u003emac_header\n\nIf an AF_PACKET socket is used to send packets through ipvlan and the\ndefault xmit function of the AF_PACKET socket is changed from\ndev_queue_xmit() to packet_direct_xmit() via setsockopt() with the option\nname of PACKET_QDISC_BYPASS, the skb-\u003emac_header may not be reset and\nremains as the initial value of 65535, this may trigger slab-out-of-bounds\nbugs as following:\n\n=================================================================\nUG: KASAN: slab-out-of-bounds in ipvlan_xmit_mode_l2+0xdb/0x330 [ipvlan]\nPU: 2 PID: 1768 Comm: raw_send Kdump: loaded Not tainted 6.0.0-rc4+ #6\nardware name: QEMU Standard PC (i440FX + PIIX, 1996), BIOS 1.14.0-1.fc33\nall Trace:\nprint_address_description.constprop.0+0x1d/0x160\nprint_report.cold+0x4f/0x112\nkasan_report+0xa3/0x130\nipvlan_xmit_mode_l2+0xdb/0x330 [ipvlan]\nipvlan_start_xmit+0x29/0xa0 [ipvlan]\n__dev_direct_xmit+0x2e2/0x380\npacket_direct_xmit+0x22/0x60\npacket_snd+0x7c9/0xc40\nsock_sendmsg+0x9a/0xa0\n__sys_sendto+0x18a/0x230\n__x64_sys_sendto+0x74/0x90\ndo_syscall_64+0x3b/0x90\nentry_SYSCALL_64_after_hwframe+0x63/0xcd\n\nThe root cause is:\n  1. packet_snd() only reset skb-\u003emac_header when sock-\u003etype is SOCK_RAW\n     and skb-\u003eprotocol is not specified as in packet_parse_headers()\n\n  2. packet_direct_xmit() doesn't reset skb-\u003emac_header as dev_queue_xmit()\n\nIn this case, skb-\u003emac_header is 65535 when ipvlan_xmit_mode_l2() is\ncalled. So when ipvlan_xmit_mode_l2() gets mac header with eth_hdr() which\nuse \"skb-\u003ehead + skb-\u003emac_header\", out-of-bound access occurs.\n\nThis patch replaces eth_hdr() with skb_eth_hdr() in ipvlan_xmit_mode_l2()\nand reset mac header in multicast to solve this out-of-bound bug.",
      "Threats": [
        {
          "Type": "Impact",
          "Severity": "important"
        }
      ],
      "References": [
        {
          "URL": "https://www.suse.com/security/cve/CVE-2022-48651.html",
          "Description": "CVE-2022-48651"
        },
        {
          "URL": "https://bugzilla.suse.com/1223513",
          "Description": "SUSE Bug 1223513"
        },
        {
          "URL": "https://bugzilla.suse.com/1223514",
          "Description": "SUSE Bug 1223514"
        }
      ],
      "ProductStatuses": [
        {
          "Type": "Fixed",
          "ProductID": [
            "SUSE Linux Enterprise Live Patching 15 SP5:kernel-livepatch-5_14_21-150500_13_38-rt-3-150500.11.6.1"
          ]
        }
      ],
      "CVSSScoreSets": {}
    },
    {
      "CVE": "CVE-2023-52502",
      "Description": "In the Linux kernel, the following vulnerability has been resolved:\n\nnet: nfc: fix races in nfc_llcp_sock_get() and nfc_llcp_sock_get_sn()\n\nSili Luo reported a race in nfc_llcp_sock_get(), leading to UAF.\n\nGetting a reference on the socket found in a lookup while\nholding a lock should happen before releasing the lock.\n\nnfc_llcp_sock_get_sn() has a similar problem.\n\nFinally nfc_llcp_recv_snl() needs to make sure the socket\nfound by nfc_llcp_sock_from_sn() does not disappear.",
      "Threats": [
        {
          "Type": "Impact",
          "Severity": "moderate"
        }
      ],
      "References": [
        {
          "URL": "https://www.suse.com/security/cve/CVE-2023-52502.html",
          "Description": "CVE-2023-52502"
        },
        {
          "URL": "https://bugzilla.suse.com/1220831",
          "Description": "SUSE Bug 1220831"
        },
        {
          "URL": "https://bugzilla.suse.com/1220832",
          "Description": "SUSE Bug 1220832"
        },
        {
          "URL": "https://bugzilla.suse.com/1224878",
          "Description": "SUSE Bug 1224878"
        }
      ],
      "ProductStatuses": [
        {
          "Type": "Fixed",
          "ProductID": [
            "SUSE Linux Enterprise Live Patching 15 SP5:kernel-livepatch-5_14_21-150500_13_38-rt-3-150500.11.6.1"
          ]
        }
      ],
      "CVSSScoreSets": {}
    },
    {
      "CVE": "CVE-2023-6546",
      "Description": "A race condition was found in the GSM 0710 tty multiplexor in the Linux kernel. This issue occurs when two threads execute the GSMIOC_SETCONF ioctl on the same tty file descriptor with the gsm line discipline enabled, and can lead to a use-after-free problem on a struct gsm_dlci while restarting the gsm mux. This could allow a local unprivileged user to escalate their privileges on the system.",
      "Threats": [
        {
          "Type": "Impact",
          "Severity": "important"
        }
      ],
      "References": [
        {
          "URL": "https://www.suse.com/security/cve/CVE-2023-6546.html",
          "Description": "CVE-2023-6546"
        },
        {
          "URL": "https://bugzilla.suse.com/1218335",
          "Description": "SUSE Bug 1218335"
        },
        {
          "URL": "https://bugzilla.suse.com/1222685",
          "Description": "SUSE Bug 1222685"
        }
      ],
      "ProductStatuses": [
        {
          "Type": "Fixed",
          "ProductID": [
            "SUSE Linux Enterprise Live Patching 15 SP5:kernel-livepatch-5_14_21-150500_13_38-rt-3-150500.11.6.1"
          ]
        }
      ],
      "CVSSScoreSets": {}
    },
    {
      "CVE": "CVE-2024-26610",
      "Description": "In the Linux kernel, the following vulnerability has been resolved:\n\nwifi: iwlwifi: fix a memory corruption\n\niwl_fw_ini_trigger_tlv::data is a pointer to a __le32, which means that\nif we copy to iwl_fw_ini_trigger_tlv::data + offset while offset is in\nbytes, we'll write past the buffer.",
      "Threats": [
        {
          "Type": "Impact",
          "Severity": "important"
        }
      ],
      "References": [
        {
          "URL": "https://www.suse.com/security/cve/CVE-2024-26610.html",
          "Description": "CVE-2024-26610"
        },
        {
          "URL": "https://bugzilla.suse.com/1221299",
          "Description": "SUSE Bug 1221299"
        },
        {
          "URL": "https://bugzilla.suse.com/1221302",
          "Description": "SUSE Bug 1221302"
        }
      ],
      "ProductStatuses": [
        {
          "Type": "Fixed",
          "ProductID": [
            "SUSE Linux Enterprise Live Patching 15 SP5:kernel-livepatch-5_14_21-150500_13_38-rt-3-150500.11.6.1"
          ]
        }
      ],
      "CVSSScoreSets": {}
    },
    {
      "CVE": "CVE-2024-26852",
      "Description": "In the Linux kernel, the following vulnerability has been resolved:\n\nnet/ipv6: avoid possible UAF in ip6_route_mpath_notify()\n\nsyzbot found another use-after-free in ip6_route_mpath_notify() [1]\n\nCommit f7225172f25a (\"net/ipv6: prevent use after free in\nip6_route_mpath_notify\") was not able to fix the root cause.\n\nWe need to defer the fib6_info_release() calls after\nip6_route_mpath_notify(), in the cleanup phase.\n\n[1]\nBUG: KASAN: slab-use-after-free in rt6_fill_node+0x1460/0x1ac0\nRead of size 4 at addr ffff88809a07fc64 by task syz-executor.2/23037\n\nCPU: 0 PID: 23037 Comm: syz-executor.2 Not tainted 6.8.0-rc4-syzkaller-01035-gea7f3cfaa588 #0\nHardware name: Google Google Compute Engine/Google Compute Engine, BIOS Google 01/25/2024\nCall Trace:\n \u003cTASK\u003e\n  __dump_stack lib/dump_stack.c:88 [inline]\n  dump_stack_lvl+0x1e7/0x2e0 lib/dump_stack.c:106\n  print_address_description mm/kasan/report.c:377 [inline]\n  print_report+0x167/0x540 mm/kasan/report.c:488\n  kasan_report+0x142/0x180 mm/kasan/report.c:601\n rt6_fill_node+0x1460/0x1ac0\n  inet6_rt_notify+0x13b/0x290 net/ipv6/route.c:6184\n  ip6_route_mpath_notify net/ipv6/route.c:5198 [inline]\n  ip6_route_multipath_add net/ipv6/route.c:5404 [inline]\n  inet6_rtm_newroute+0x1d0f/0x2300 net/ipv6/route.c:5517\n  rtnetlink_rcv_msg+0x885/0x1040 net/core/rtnetlink.c:6597\n  netlink_rcv_skb+0x1e3/0x430 net/netlink/af_netlink.c:2543\n  netlink_unicast_kernel net/netlink/af_netlink.c:1341 [inline]\n  netlink_unicast+0x7ea/0x980 net/netlink/af_netlink.c:1367\n  netlink_sendmsg+0xa3b/0xd70 net/netlink/af_netlink.c:1908\n  sock_sendmsg_nosec net/socket.c:730 [inline]\n  __sock_sendmsg+0x221/0x270 net/socket.c:745\n  ____sys_sendmsg+0x525/0x7d0 net/socket.c:2584\n  ___sys_sendmsg net/socket.c:2638 [inline]\n  __sys_sendmsg+0x2b0/0x3a0 net/socket.c:2667\n do_syscall_64+0xf9/0x240\n entry_SYSCALL_64_after_hwframe+0x6f/0x77\nRIP: 0033:0x7f73dd87dda9\nCode: 28 00 00 00 75 05 48 83 c4 28 c3 e8 e1 20 00 00 90 48 89 f8 48 89 f7 48 89 d6 48 89 ca 4d 89 c2 4d 89 c8 4c 8b 4c 24 08 0f 05 \u003c48\u003e 3d 01 f0 ff ff 73 01 c3 48 c7 c1 b0 ff ff ff f7 d8 64 89 01 48\nRSP: 002b:00007f73de6550c8 EFLAGS: 00000246 ORIG_RAX: 000000000000002e\nRAX: ffffffffffffffda RBX: 00007f73dd9ac050 RCX: 00007f73dd87dda9\nRDX: 0000000000000000 RSI: 0000000020000140 RDI: 0000000000000005\nRBP: 00007f73dd8ca47a R08: 0000000000000000 R09: 0000000000000000\nR10: 0000000000000000 R11: 0000000000000246 R12: 0000000000000000\nR13: 000000000000006e R14: 00007f73dd9ac050 R15: 00007ffdbdeb7858\n \u003c/TASK\u003e\n\nAllocated by task 23037:\n  kasan_save_stack mm/kasan/common.c:47 [inline]\n  kasan_save_track+0x3f/0x80 mm/kasan/common.c:68\n  poison_kmalloc_redzone mm/kasan/common.c:372 [inline]\n  __kasan_kmalloc+0x98/0xb0 mm/kasan/common.c:389\n  kasan_kmalloc include/linux/kasan.h:211 [inline]\n  __do_kmalloc_node mm/slub.c:3981 [inline]\n  __kmalloc+0x22e/0x490 mm/slub.c:3994\n  kmalloc include/linux/slab.h:594 [inline]\n  kzalloc include/linux/slab.h:711 [inline]\n  fib6_info_alloc+0x2e/0xf0 net/ipv6/ip6_fib.c:155\n  ip6_route_info_create+0x445/0x12b0 net/ipv6/route.c:3758\n  ip6_route_multipath_add net/ipv6/route.c:5298 [inline]\n  inet6_rtm_newroute+0x744/0x2300 net/ipv6/route.c:5517\n  rtnetlink_rcv_msg+0x885/0x1040 net/core/rtnetlink.c:6597\n  netlink_rcv_skb+0x1e3/0x430 net/netlink/af_netlink.c:2543\n  netlink_unicast_kernel net/netlink/af_netlink.c:1341 [inline]\n  netlink_unicast+0x7ea/0x980 net/netlink/af_netlink.c:1367\n  netlink_sendmsg+0xa3b/0xd70 net/netlink/af_netlink.c:1908\n  sock_sendmsg_nosec net/socket.c:730 [inline]\n  __sock_sendmsg+0x221/0x270 net/socket.c:745\n  ____sys_sendmsg+0x525/0x7d0 net/socket.c:2584\n  ___sys_sendmsg net/socket.c:2638 [inline]\n  __sys_sendmsg+0x2b0/0x3a0 net/socket.c:2667\n do_syscall_64+0xf9/0x240\n entry_SYSCALL_64_after_hwframe+0x6f/0x77\n\nFreed by task 16:\n  kasan_save_stack mm/kasan/common.c:47 [inline]\n  kasan_save_track+0x3f/0x80 mm/kasan/common.c:68\n  kasan_save_free_info+0x4e/0x60 mm/kasan/generic.c:640\n  poison_slab_object+0xa6/0xe0 m\n---truncated---",
      "Threats": [
        {
          "Type": "Impact",
          "Severity": "important"
        }
      ],
      "References": [
        {
          "URL": "https://www.suse.com/security/cve/CVE-2024-26852.html",
          "Description": "CVE-2024-26852"
        },
        {
          "URL": "https://bugzilla.suse.com/1223057",
          "Description": "SUSE Bug 1223057"
        },
        {
          "URL": "https://bugzilla.suse.com/1223059",
          "Description": "SUSE Bug 1223059"
        }
      ],
      "ProductStatuses": [
        {
          "Type": "Fixed",
          "ProductID": [
            "SUSE Linux Enterprise Live Patching 15 SP5:kernel-livepatch-5_14_21-150500_13_38-rt-3-150500.11.6.1"
          ]
        }
      ],
      "CVSSScoreSets": {}
    }
  ]
}