{
  "Title": "Security update for less",
  "Tracking": {
    "ID": "SUSE-SU-2024:1550-1",
    "Status": "Final",
    "Version": "1",
    "InitialReleaseDate": "2024-05-07T14:23:51Z",
    "CurrentReleaseDate": "2024-05-07T14:23:51Z",
    "RevisionHistory": [
      {
        "Number": "1",
        "Date": "2024-05-07T14:23:51Z",
        "Description": "current"
      }
    ]
  },
  "Notes": [
    {
      "Text": "Security update for less",
      "Title": "Topic",
      "Type": "Summary"
    },
    {
      "Text": "This update for less fixes the following issues:\n\n- CVE-2024-32487: Fixed mishandling of \\n character in paths when LESSOPEN is set leads to OS command execution. (bsc#1222849)\n",
      "Title": "Details",
      "Type": "General"
    },
    {
      "Text": "The CVRF data is provided by SUSE under the Creative Commons License 4.0 with Attribution (CC-BY-4.0).",
      "Title": "Terms of Use",
      "Type": "Legal Disclaimer"
    },
    {
      "Text": "Image SLES12-SP5-Azure-BYOS-2024-1550,Image SLES12-SP5-Azure-Basic-On-Demand-2024-1550,Image SLES12-SP5-Azure-SAP-BYOS-2024-1550,Image SLES12-SP5-Azure-Standard-On-Demand-2024-1550,Image SLES12-SP5-EC2-BYOS-2024-1550,Image SLES12-SP5-EC2-On-Demand-2024-1550,Image SLES12-SP5-EC2-SAP-BYOS-2024-1550,Image SLES12-SP5-GCE-On-Demand-2024-1550,Image SLES12-SP5-SAP-Azure-LI-BYOS-Production-2024-1550,Image SLES12-SP5-SAP-Azure-VLI-BYOS-Production-2024-1550,SUSE-2024-1550,SUSE-SLE-SERVER-12-SP5-2024-1550",
      "Title": "Patchnames",
      "Type": "Details"
    }
  ],
  "ProductTree": {
    "Relationships": [
      {
        "ProductReference": "less-458-7.15.1",
        "RelatesToProductReference": "Image SLES12-SP5-Azure-BYOS",
        "RelationType": "Default Component Of"
      },
      {
        "ProductReference": "less-458-7.15.1",
        "RelatesToProductReference": "Image SLES12-SP5-Azure-Basic-On-Demand",
        "RelationType": "Default Component Of"
      },
      {
        "ProductReference": "less-458-7.15.1",
        "RelatesToProductReference": "Image SLES12-SP5-Azure-SAP-BYOS",
        "RelationType": "Default Component Of"
      },
      {
        "ProductReference": "less-458-7.15.1",
        "RelatesToProductReference": "Image SLES12-SP5-Azure-Standard-On-Demand",
        "RelationType": "Default Component Of"
      },
      {
        "ProductReference": "less-458-7.15.1",
        "RelatesToProductReference": "Image SLES12-SP5-EC2-BYOS",
        "RelationType": "Default Component Of"
      },
      {
        "ProductReference": "less-458-7.15.1",
        "RelatesToProductReference": "Image SLES12-SP5-EC2-On-Demand",
        "RelationType": "Default Component Of"
      },
      {
        "ProductReference": "less-458-7.15.1",
        "RelatesToProductReference": "Image SLES12-SP5-EC2-SAP-BYOS",
        "RelationType": "Default Component Of"
      },
      {
        "ProductReference": "less-458-7.15.1",
        "RelatesToProductReference": "Image SLES12-SP5-GCE-On-Demand",
        "RelationType": "Default Component Of"
      },
      {
        "ProductReference": "less-458-7.15.1",
        "RelatesToProductReference": "Image SLES12-SP5-SAP-Azure-LI-BYOS-Production",
        "RelationType": "Default Component Of"
      },
      {
        "ProductReference": "less-458-7.15.1",
        "RelatesToProductReference": "Image SLES12-SP5-SAP-Azure-VLI-BYOS-Production",
        "RelationType": "Default Component Of"
      },
      {
        "ProductReference": "less-458-7.15.1",
        "RelatesToProductReference": "SUSE Linux Enterprise Server 12 SP5",
        "RelationType": "Default Component Of"
      },
      {
        "ProductReference": "less-458-7.15.1",
        "RelatesToProductReference": "SUSE Linux Enterprise Server for SAP Applications 12 SP5",
        "RelationType": "Default Component Of"
      }
    ]
  },
  "References": [
    {
      "URL": "https://www.suse.com/support/update/announcement/2024/suse-su-20241550-1/",
      "Description": "Link for SUSE-SU-2024:1550-1"
    },
    {
      "URL": "https://lists.suse.com/pipermail/sle-security-updates/2024-May/018476.html",
      "Description": "E-Mail link for SUSE-SU-2024:1550-1"
    },
    {
      "URL": "https://www.suse.com/support/security/rating/",
      "Description": "SUSE Security Ratings"
    },
    {
      "URL": "https://bugzilla.suse.com/1222849",
      "Description": "SUSE Bug 1222849"
    },
    {
      "URL": "https://www.suse.com/security/cve/CVE-2024-32487/",
      "Description": "SUSE CVE CVE-2024-32487 page"
    }
  ],
  "Vulnerabilities": [
    {
      "CVE": "CVE-2024-32487",
      "Description": "less through 653 allows OS command execution via a newline character in the name of a file, because quoting is mishandled in filename.c. Exploitation typically requires use with attacker-controlled file names, such as the files extracted from an untrusted archive. Exploitation also requires the LESSOPEN environment variable, but this is set by default in many common cases.",
      "Threats": [
        {
          "Type": "Impact",
          "Severity": "important"
        }
      ],
      "References": [
        {
          "URL": "https://www.suse.com/security/cve/CVE-2024-32487.html",
          "Description": "CVE-2024-32487"
        },
        {
          "URL": "https://bugzilla.suse.com/1222849",
          "Description": "SUSE Bug 1222849"
        }
      ],
      "ProductStatuses": [
        {
          "Type": "Fixed",
          "ProductID": [
            "Image SLES12-SP5-Azure-BYOS:less-458-7.15.1",
            "Image SLES12-SP5-Azure-Basic-On-Demand:less-458-7.15.1",
            "Image SLES12-SP5-Azure-SAP-BYOS:less-458-7.15.1",
            "Image SLES12-SP5-Azure-Standard-On-Demand:less-458-7.15.1",
            "Image SLES12-SP5-EC2-BYOS:less-458-7.15.1",
            "Image SLES12-SP5-EC2-On-Demand:less-458-7.15.1",
            "Image SLES12-SP5-EC2-SAP-BYOS:less-458-7.15.1",
            "Image SLES12-SP5-GCE-On-Demand:less-458-7.15.1",
            "Image SLES12-SP5-SAP-Azure-LI-BYOS-Production:less-458-7.15.1",
            "Image SLES12-SP5-SAP-Azure-VLI-BYOS-Production:less-458-7.15.1",
            "SUSE Linux Enterprise Server 12 SP5:less-458-7.15.1",
            "SUSE Linux Enterprise Server for SAP Applications 12 SP5:less-458-7.15.1"
          ]
        }
      ],
      "CVSSScoreSets": {}
    }
  ]
}