{
  "Title": "Security update for python-uamqp",
  "Tracking": {
    "ID": "SUSE-SU-2024:0323-1",
    "Status": "Final",
    "Version": "1",
    "InitialReleaseDate": "2024-02-05T08:16:05Z",
    "CurrentReleaseDate": "2024-02-05T08:16:05Z",
    "RevisionHistory": [
      {
        "Number": "1",
        "Date": "2024-02-05T08:16:05Z",
        "Description": "current"
      }
    ]
  },
  "Notes": [
    {
      "Text": "Security update for python-uamqp",
      "Title": "Topic",
      "Type": "Summary"
    },
    {
      "Text": "This update for python-uamqp fixes the following issues:\n\n- CVE-2024-21646: Fix integer overflow which may cause remote code execution (bsc#1219409).\n",
      "Title": "Details",
      "Type": "General"
    },
    {
      "Text": "The CVRF data is provided by SUSE under the Creative Commons License 4.0 with Attribution (CC-BY-4.0).",
      "Title": "Terms of Use",
      "Type": "Legal Disclaimer"
    },
    {
      "Text": "Image SLES15-SP2-BYOS-Azure-2024-323,Image SLES15-SP2-HPC-BYOS-Azure-2024-323,Image SLES15-SP2-SAP-Azure-2024-323,Image SLES15-SP2-SAP-BYOS-Azure-2024-323,Image SLES15-SP3-BYOS-Azure-2024-323,Image SLES15-SP3-HPC-BYOS-Azure-2024-323,Image SLES15-SP3-SAP-BYOS-Azure-2024-323,Image SLES15-SP3-SAPCAL-Azure-2024-323,Image SLES15-SP4-BYOS-Azure-2024-323,Image SLES15-SP4-HPC-BYOS-2024-323,Image SLES15-SP4-HPC-BYOS-Azure-2024-323,Image SLES15-SP4-Hardened-BYOS-Azure-2024-323,Image SLES15-SP4-Manager-Proxy-4-3-BYOS-Azure-2024-323,Image SLES15-SP4-SAP-2024-323,Image SLES15-SP4-SAP-Azure-2024-323,Image SLES15-SP4-SAP-BYOS-Azure-2024-323,Image SLES15-SP4-SAP-Hardened-Azure-2024-323,Image SLES15-SP4-SAP-Hardened-BYOS-Azure-2024-323,Image SLES15-SP4-SAPCAL-2024-323,Image SLES15-SP4-SAPCAL-Azure-2024-323,Image SLES15-SP5-Azure-Basic-2024-323,Image SLES15-SP5-Azure-Standard-2024-323,Image SLES15-SP5-BYOS-Azure-2024-323,Image SLES15-SP5-HPC-Azure-2024-323,Image SLES15-SP5-HPC-BYOS-Azure-2024-323,Image SLES15-SP5-Hardened-BYOS-Azure-2024-323,Image SLES15-SP5-SAP-BYOS-Azure-2024-323,Image SLES15-SP5-SAP-Hardened-Azure-2024-323,Image SLES15-SP5-SAP-Hardened-BYOS-Azure-2024-323,Image SLES15-SP5-SAPCAL-Azure-2024-323,SUSE-2024-323,SUSE-SLE-Module-Public-Cloud-15-SP2-2024-323,SUSE-SLE-Module-Public-Cloud-15-SP3-2024-323,SUSE-SLE-Module-Public-Cloud-15-SP4-2024-323,SUSE-SLE-Module-Public-Cloud-15-SP5-2024-323,openSUSE-SLE-15.5-2024-323",
      "Title": "Patchnames",
      "Type": "Details"
    }
  ],
  "ProductTree": {
    "Relationships": [
      {
        "ProductReference": "python3-uamqp-1.5.3-150100.4.10.1",
        "RelatesToProductReference": "Image SLES15-SP2-BYOS-Azure",
        "RelationType": "Default Component Of"
      },
      {
        "ProductReference": "python3-uamqp-1.5.3-150100.4.10.1",
        "RelatesToProductReference": "Image SLES15-SP2-HPC-BYOS-Azure",
        "RelationType": "Default Component Of"
      },
      {
        "ProductReference": "python3-uamqp-1.5.3-150100.4.10.1",
        "RelatesToProductReference": "Image SLES15-SP2-SAP-Azure",
        "RelationType": "Default Component Of"
      },
      {
        "ProductReference": "python3-uamqp-1.5.3-150100.4.10.1",
        "RelatesToProductReference": "Image SLES15-SP2-SAP-BYOS-Azure",
        "RelationType": "Default Component Of"
      },
      {
        "ProductReference": "python3-uamqp-1.5.3-150100.4.10.1",
        "RelatesToProductReference": "Image SLES15-SP3-BYOS-Azure",
        "RelationType": "Default Component Of"
      },
      {
        "ProductReference": "python3-uamqp-1.5.3-150100.4.10.1",
        "RelatesToProductReference": "Image SLES15-SP3-HPC-BYOS-Azure",
        "RelationType": "Default Component Of"
      },
      {
        "ProductReference": "python3-uamqp-1.5.3-150100.4.10.1",
        "RelatesToProductReference": "Image SLES15-SP3-SAP-BYOS-Azure",
        "RelationType": "Default Component Of"
      },
      {
        "ProductReference": "python3-uamqp-1.5.3-150100.4.10.1",
        "RelatesToProductReference": "Image SLES15-SP3-SAPCAL-Azure",
        "RelationType": "Default Component Of"
      },
      {
        "ProductReference": "python3-uamqp-1.5.3-150100.4.10.1",
        "RelatesToProductReference": "Image SLES15-SP4-BYOS-Azure",
        "RelationType": "Default Component Of"
      },
      {
        "ProductReference": "python3-uamqp-1.5.3-150100.4.10.1",
        "RelatesToProductReference": "Image SLES15-SP4-HPC-BYOS",
        "RelationType": "Default Component Of"
      },
      {
        "ProductReference": "python3-uamqp-1.5.3-150100.4.10.1",
        "RelatesToProductReference": "Image SLES15-SP4-HPC-BYOS-Azure",
        "RelationType": "Default Component Of"
      },
      {
        "ProductReference": "python3-uamqp-1.5.3-150100.4.10.1",
        "RelatesToProductReference": "Image SLES15-SP4-Hardened-BYOS-Azure",
        "RelationType": "Default Component Of"
      },
      {
        "ProductReference": "python3-uamqp-1.5.3-150100.4.10.1",
        "RelatesToProductReference": "Image SLES15-SP4-Manager-Proxy-4-3-BYOS-Azure",
        "RelationType": "Default Component Of"
      },
      {
        "ProductReference": "python3-uamqp-1.5.3-150100.4.10.1",
        "RelatesToProductReference": "Image SLES15-SP4-SAP",
        "RelationType": "Default Component Of"
      },
      {
        "ProductReference": "python3-uamqp-1.5.3-150100.4.10.1",
        "RelatesToProductReference": "Image SLES15-SP4-SAP-Azure",
        "RelationType": "Default Component Of"
      },
      {
        "ProductReference": "python3-uamqp-1.5.3-150100.4.10.1",
        "RelatesToProductReference": "Image SLES15-SP4-SAP-BYOS-Azure",
        "RelationType": "Default Component Of"
      },
      {
        "ProductReference": "python3-uamqp-1.5.3-150100.4.10.1",
        "RelatesToProductReference": "Image SLES15-SP4-SAP-Hardened-Azure",
        "RelationType": "Default Component Of"
      },
      {
        "ProductReference": "python3-uamqp-1.5.3-150100.4.10.1",
        "RelatesToProductReference": "Image SLES15-SP4-SAP-Hardened-BYOS-Azure",
        "RelationType": "Default Component Of"
      },
      {
        "ProductReference": "python3-uamqp-1.5.3-150100.4.10.1",
        "RelatesToProductReference": "Image SLES15-SP4-SAPCAL",
        "RelationType": "Default Component Of"
      },
      {
        "ProductReference": "python3-uamqp-1.5.3-150100.4.10.1",
        "RelatesToProductReference": "Image SLES15-SP4-SAPCAL-Azure",
        "RelationType": "Default Component Of"
      },
      {
        "ProductReference": "python3-uamqp-1.5.3-150100.4.10.1",
        "RelatesToProductReference": "Image SLES15-SP5-Azure-Basic",
        "RelationType": "Default Component Of"
      },
      {
        "ProductReference": "python3-uamqp-1.5.3-150100.4.10.1",
        "RelatesToProductReference": "Image SLES15-SP5-Azure-Standard",
        "RelationType": "Default Component Of"
      },
      {
        "ProductReference": "python3-uamqp-1.5.3-150100.4.10.1",
        "RelatesToProductReference": "Image SLES15-SP5-BYOS-Azure",
        "RelationType": "Default Component Of"
      },
      {
        "ProductReference": "python3-uamqp-1.5.3-150100.4.10.1",
        "RelatesToProductReference": "Image SLES15-SP5-HPC-Azure",
        "RelationType": "Default Component Of"
      },
      {
        "ProductReference": "python3-uamqp-1.5.3-150100.4.10.1",
        "RelatesToProductReference": "Image SLES15-SP5-HPC-BYOS-Azure",
        "RelationType": "Default Component Of"
      },
      {
        "ProductReference": "python3-uamqp-1.5.3-150100.4.10.1",
        "RelatesToProductReference": "Image SLES15-SP5-Hardened-BYOS-Azure",
        "RelationType": "Default Component Of"
      },
      {
        "ProductReference": "python3-uamqp-1.5.3-150100.4.10.1",
        "RelatesToProductReference": "Image SLES15-SP5-SAP-BYOS-Azure",
        "RelationType": "Default Component Of"
      },
      {
        "ProductReference": "python3-uamqp-1.5.3-150100.4.10.1",
        "RelatesToProductReference": "Image SLES15-SP5-SAP-Hardened-Azure",
        "RelationType": "Default Component Of"
      },
      {
        "ProductReference": "python3-uamqp-1.5.3-150100.4.10.1",
        "RelatesToProductReference": "Image SLES15-SP5-SAP-Hardened-BYOS-Azure",
        "RelationType": "Default Component Of"
      },
      {
        "ProductReference": "python3-uamqp-1.5.3-150100.4.10.1",
        "RelatesToProductReference": "Image SLES15-SP5-SAPCAL-Azure",
        "RelationType": "Default Component Of"
      },
      {
        "ProductReference": "python3-uamqp-1.5.3-150100.4.10.1",
        "RelatesToProductReference": "SUSE Linux Enterprise Module for Public Cloud 15 SP2",
        "RelationType": "Default Component Of"
      },
      {
        "ProductReference": "python3-uamqp-1.5.3-150100.4.10.1",
        "RelatesToProductReference": "SUSE Linux Enterprise Module for Public Cloud 15 SP3",
        "RelationType": "Default Component Of"
      },
      {
        "ProductReference": "python3-uamqp-1.5.3-150100.4.10.1",
        "RelatesToProductReference": "SUSE Linux Enterprise Module for Public Cloud 15 SP4",
        "RelationType": "Default Component Of"
      },
      {
        "ProductReference": "python3-uamqp-1.5.3-150100.4.10.1",
        "RelatesToProductReference": "SUSE Linux Enterprise Module for Public Cloud 15 SP5",
        "RelationType": "Default Component Of"
      },
      {
        "ProductReference": "python3-uamqp-1.5.3-150100.4.10.1",
        "RelatesToProductReference": "openSUSE Leap 15.5",
        "RelationType": "Default Component Of"
      }
    ]
  },
  "References": [
    {
      "URL": "https://www.suse.com/support/update/announcement/2024/suse-su-20240323-1/",
      "Description": "Link for SUSE-SU-2024:0323-1"
    },
    {
      "URL": "https://lists.suse.com/pipermail/sle-security-updates/2024-February/017859.html",
      "Description": "E-Mail link for SUSE-SU-2024:0323-1"
    },
    {
      "URL": "https://www.suse.com/support/security/rating/",
      "Description": "SUSE Security Ratings"
    },
    {
      "URL": "https://bugzilla.suse.com/1219409",
      "Description": "SUSE Bug 1219409"
    },
    {
      "URL": "https://www.suse.com/security/cve/CVE-2024-21646/",
      "Description": "SUSE CVE CVE-2024-21646 page"
    }
  ],
  "Vulnerabilities": [
    {
      "CVE": "CVE-2024-21646",
      "Description": "Azure uAMQP is a general purpose C library for AMQP 1.0. The UAMQP library is used by several clients to implement AMQP protocol communication.  When clients using this library receive a crafted binary type data, an integer overflow or wraparound or memory safety issue can occur and may cause remote code execution.  This vulnerability has been patched in release 2024-01-01.",
      "Threats": [
        {
          "Type": "Impact",
          "Severity": "critical"
        }
      ],
      "References": [
        {
          "URL": "https://www.suse.com/security/cve/CVE-2024-21646.html",
          "Description": "CVE-2024-21646"
        },
        {
          "URL": "https://bugzilla.suse.com/1219409",
          "Description": "SUSE Bug 1219409"
        }
      ],
      "ProductStatuses": [
        {
          "Type": "Fixed",
          "ProductID": [
            "Image SLES15-SP2-BYOS-Azure:python3-uamqp-1.5.3-150100.4.10.1",
            "Image SLES15-SP2-HPC-BYOS-Azure:python3-uamqp-1.5.3-150100.4.10.1",
            "Image SLES15-SP2-SAP-Azure:python3-uamqp-1.5.3-150100.4.10.1",
            "Image SLES15-SP2-SAP-BYOS-Azure:python3-uamqp-1.5.3-150100.4.10.1",
            "Image SLES15-SP3-BYOS-Azure:python3-uamqp-1.5.3-150100.4.10.1",
            "Image SLES15-SP3-HPC-BYOS-Azure:python3-uamqp-1.5.3-150100.4.10.1",
            "Image SLES15-SP3-SAP-BYOS-Azure:python3-uamqp-1.5.3-150100.4.10.1",
            "Image SLES15-SP3-SAPCAL-Azure:python3-uamqp-1.5.3-150100.4.10.1",
            "Image SLES15-SP4-BYOS-Azure:python3-uamqp-1.5.3-150100.4.10.1",
            "Image SLES15-SP4-HPC-BYOS-Azure:python3-uamqp-1.5.3-150100.4.10.1",
            "Image SLES15-SP4-HPC-BYOS:python3-uamqp-1.5.3-150100.4.10.1",
            "Image SLES15-SP4-Hardened-BYOS-Azure:python3-uamqp-1.5.3-150100.4.10.1",
            "Image SLES15-SP4-Manager-Proxy-4-3-BYOS-Azure:python3-uamqp-1.5.3-150100.4.10.1",
            "Image SLES15-SP4-SAP-Azure:python3-uamqp-1.5.3-150100.4.10.1",
            "Image SLES15-SP4-SAP-BYOS-Azure:python3-uamqp-1.5.3-150100.4.10.1",
            "Image SLES15-SP4-SAP-Hardened-Azure:python3-uamqp-1.5.3-150100.4.10.1",
            "Image SLES15-SP4-SAP-Hardened-BYOS-Azure:python3-uamqp-1.5.3-150100.4.10.1",
            "Image SLES15-SP4-SAP:python3-uamqp-1.5.3-150100.4.10.1",
            "Image SLES15-SP4-SAPCAL-Azure:python3-uamqp-1.5.3-150100.4.10.1",
            "Image SLES15-SP4-SAPCAL:python3-uamqp-1.5.3-150100.4.10.1",
            "Image SLES15-SP5-Azure-Basic:python3-uamqp-1.5.3-150100.4.10.1",
            "Image SLES15-SP5-Azure-Standard:python3-uamqp-1.5.3-150100.4.10.1",
            "Image SLES15-SP5-BYOS-Azure:python3-uamqp-1.5.3-150100.4.10.1",
            "Image SLES15-SP5-HPC-Azure:python3-uamqp-1.5.3-150100.4.10.1",
            "Image SLES15-SP5-HPC-BYOS-Azure:python3-uamqp-1.5.3-150100.4.10.1",
            "Image SLES15-SP5-Hardened-BYOS-Azure:python3-uamqp-1.5.3-150100.4.10.1",
            "Image SLES15-SP5-SAP-BYOS-Azure:python3-uamqp-1.5.3-150100.4.10.1",
            "Image SLES15-SP5-SAP-Hardened-Azure:python3-uamqp-1.5.3-150100.4.10.1",
            "Image SLES15-SP5-SAP-Hardened-BYOS-Azure:python3-uamqp-1.5.3-150100.4.10.1",
            "Image SLES15-SP5-SAPCAL-Azure:python3-uamqp-1.5.3-150100.4.10.1",
            "SUSE Linux Enterprise Module for Public Cloud 15 SP2:python3-uamqp-1.5.3-150100.4.10.1",
            "SUSE Linux Enterprise Module for Public Cloud 15 SP3:python3-uamqp-1.5.3-150100.4.10.1",
            "SUSE Linux Enterprise Module for Public Cloud 15 SP4:python3-uamqp-1.5.3-150100.4.10.1",
            "SUSE Linux Enterprise Module for Public Cloud 15 SP5:python3-uamqp-1.5.3-150100.4.10.1",
            "openSUSE Leap 15.5:python3-uamqp-1.5.3-150100.4.10.1"
          ]
        }
      ],
      "CVSSScoreSets": {}
    }
  ]
}