{
  "Title": "Security update for cups",
  "Tracking": {
    "ID": "SUSE-SU-2024:2003-1",
    "Status": "Final",
    "Version": "1",
    "InitialReleaseDate": "2024-06-12T05:31:00Z",
    "CurrentReleaseDate": "2024-06-12T05:31:00Z",
    "RevisionHistory": [
      {
        "Number": "1",
        "Date": "2024-06-12T05:31:00Z",
        "Description": "current"
      }
    ]
  },
  "Notes": [
    {
      "Text": "Security update for cups",
      "Title": "Topic",
      "Type": "Summary"
    },
    {
      "Text": "This update for cups fixes the following issues:\n\n- CVE-2024-35235: Fixed a bug in cupsd that could allow an attacker to change the permissions of other files in the system. (bsc#1225365)\n- Handle local 'Negotiate' authentication response for cli clients (bsc#1223179)\n",
      "Title": "Details",
      "Type": "General"
    },
    {
      "Text": "The CVRF data is provided by SUSE under the Creative Commons License 4.0 with Attribution (CC-BY-4.0).",
      "Title": "Terms of Use",
      "Type": "Legal Disclaimer"
    },
    {
      "Text": "Image SLES15-SP4-CHOST-BYOS-2024-2003,Image SLES15-SP4-CHOST-BYOS-Aliyun-2024-2003,Image SLES15-SP4-CHOST-BYOS-Azure-2024-2003,Image SLES15-SP4-CHOST-BYOS-EC2-2024-2003,Image SLES15-SP4-CHOST-BYOS-GCE-2024-2003,Image SLES15-SP4-CHOST-BYOS-SAP-CCloud-2024-2003,Image SLES15-SP4-Manager-Proxy-4-3-BYOS-2024-2003,Image SLES15-SP4-Manager-Proxy-4-3-BYOS-EC2-2024-2003,Image SLES15-SP4-Manager-Proxy-4-3-BYOS-GCE-2024-2003,Image SLES15-SP4-Manager-Server-4-3-BYOS-2024-2003,Image SLES15-SP4-Manager-Server-4-3-BYOS-Azure-2024-2003,SUSE-2024-2003,SUSE-SLE-Micro-5.3-2024-2003,SUSE-SLE-Micro-5.4-2024-2003,SUSE-SLE-Micro-5.5-2024-2003,SUSE-SLE-Module-Basesystem-15-SP5-2024-2003,SUSE-SLE-Module-Basesystem-15-SP6-2024-2003,SUSE-SLE-Module-Desktop-Applications-15-SP5-2024-2003,SUSE-SLE-Module-Desktop-Applications-15-SP6-2024-2003,SUSE-SLE-Module-Development-Tools-15-SP5-2024-2003,SUSE-SLE-Module-Development-Tools-15-SP6-2024-2003,SUSE-SLE-Product-HPC-15-SP2-LTSS-2024-2003,SUSE-SLE-Product-HPC-15-SP3-LTSS-2024-2003,SUSE-SLE-Product-HPC-15-SP4-ESPOS-2024-2003,SUSE-SLE-Product-HPC-15-SP4-LTSS-2024-2003,SUSE-SLE-Product-SLED-15-SP4-LTSS-2024-2003,SUSE-SLE-Product-SLES-15-SP2-LTSS-2024-2003,SUSE-SLE-Product-SLES-15-SP3-LTSS-2024-2003,SUSE-SLE-Product-SLES-15-SP4-LTSS-2024-2003,SUSE-SLE-Product-SLES_SAP-15-SP2-2024-2003,SUSE-SLE-Product-SLES_SAP-15-SP3-2024-2003,SUSE-SLE-Product-SLES_SAP-15-SP4-2024-2003,SUSE-SLE-Product-SUSE-Manager-Proxy-4.3-2024-2003,SUSE-SLE-Product-SUSE-Manager-Server-4.3-2024-2003,SUSE-SUSE-MicroOS-5.2-2024-2003,SUSE-Storage-7.1-2024-2003,openSUSE-Leap-Micro-5.3-2024-2003,openSUSE-Leap-Micro-5.4-2024-2003,openSUSE-SLE-15.5-2024-2003,openSUSE-SLE-15.6-2024-2003",
      "Title": "Patchnames",
      "Type": "Details"
    }
  ],
  "ProductTree": {
    "Relationships": [
      {
        "ProductReference": "cups-config-2.2.7-150000.3.59.1",
        "RelatesToProductReference": "Image SLES15-SP4-CHOST-BYOS",
        "RelationType": "Default Component Of"
      },
      {
        "ProductReference": "libcups2-2.2.7-150000.3.59.1",
        "RelatesToProductReference": "Image SLES15-SP4-CHOST-BYOS",
        "RelationType": "Default Component Of"
      },
      {
        "ProductReference": "cups-config-2.2.7-150000.3.59.1",
        "RelatesToProductReference": "Image SLES15-SP4-CHOST-BYOS-Aliyun",
        "RelationType": "Default Component Of"
      },
      {
        "ProductReference": "libcups2-2.2.7-150000.3.59.1",
        "RelatesToProductReference": "Image SLES15-SP4-CHOST-BYOS-Aliyun",
        "RelationType": "Default Component Of"
      },
      {
        "ProductReference": "cups-config-2.2.7-150000.3.59.1",
        "RelatesToProductReference": "Image SLES15-SP4-CHOST-BYOS-Azure",
        "RelationType": "Default Component Of"
      },
      {
        "ProductReference": "libcups2-2.2.7-150000.3.59.1",
        "RelatesToProductReference": "Image SLES15-SP4-CHOST-BYOS-Azure",
        "RelationType": "Default Component Of"
      },
      {
        "ProductReference": "cups-config-2.2.7-150000.3.59.1",
        "RelatesToProductReference": "Image SLES15-SP4-CHOST-BYOS-EC2",
        "RelationType": "Default Component Of"
      },
      {
        "ProductReference": "libcups2-2.2.7-150000.3.59.1",
        "RelatesToProductReference": "Image SLES15-SP4-CHOST-BYOS-EC2",
        "RelationType": "Default Component Of"
      },
      {
        "ProductReference": "cups-config-2.2.7-150000.3.59.1",
        "RelatesToProductReference": "Image SLES15-SP4-CHOST-BYOS-GCE",
        "RelationType": "Default Component Of"
      },
      {
        "ProductReference": "libcups2-2.2.7-150000.3.59.1",
        "RelatesToProductReference": "Image SLES15-SP4-CHOST-BYOS-GCE",
        "RelationType": "Default Component Of"
      },
      {
        "ProductReference": "cups-config-2.2.7-150000.3.59.1",
        "RelatesToProductReference": "Image SLES15-SP4-CHOST-BYOS-SAP-CCloud",
        "RelationType": "Default Component Of"
      },
      {
        "ProductReference": "libcups2-2.2.7-150000.3.59.1",
        "RelatesToProductReference": "Image SLES15-SP4-CHOST-BYOS-SAP-CCloud",
        "RelationType": "Default Component Of"
      },
      {
        "ProductReference": "cups-config-2.2.7-150000.3.59.1",
        "RelatesToProductReference": "Image SLES15-SP4-Manager-Proxy-4-3-BYOS",
        "RelationType": "Default Component Of"
      },
      {
        "ProductReference": "libcups2-2.2.7-150000.3.59.1",
        "RelatesToProductReference": "Image SLES15-SP4-Manager-Proxy-4-3-BYOS",
        "RelationType": "Default Component Of"
      },
      {
        "ProductReference": "cups-config-2.2.7-150000.3.59.1",
        "RelatesToProductReference": "Image SLES15-SP4-Manager-Proxy-4-3-BYOS-EC2",
        "RelationType": "Default Component Of"
      },
      {
        "ProductReference": "libcups2-2.2.7-150000.3.59.1",
        "RelatesToProductReference": "Image SLES15-SP4-Manager-Proxy-4-3-BYOS-EC2",
        "RelationType": "Default Component Of"
      },
      {
        "ProductReference": "cups-config-2.2.7-150000.3.59.1",
        "RelatesToProductReference": "Image SLES15-SP4-Manager-Proxy-4-3-BYOS-GCE",
        "RelationType": "Default Component Of"
      },
      {
        "ProductReference": "libcups2-2.2.7-150000.3.59.1",
        "RelatesToProductReference": "Image SLES15-SP4-Manager-Proxy-4-3-BYOS-GCE",
        "RelationType": "Default Component Of"
      },
      {
        "ProductReference": "cups-config-2.2.7-150000.3.59.1",
        "RelatesToProductReference": "Image SLES15-SP4-Manager-Server-4-3-BYOS",
        "RelationType": "Default Component Of"
      },
      {
        "ProductReference": "libcups2-2.2.7-150000.3.59.1",
        "RelatesToProductReference": "Image SLES15-SP4-Manager-Server-4-3-BYOS",
        "RelationType": "Default Component Of"
      },
      {
        "ProductReference": "cups-config-2.2.7-150000.3.59.1",
        "RelatesToProductReference": "Image SLES15-SP4-Manager-Server-4-3-BYOS-Azure",
        "RelationType": "Default Component Of"
      },
      {
        "ProductReference": "libcups2-2.2.7-150000.3.59.1",
        "RelatesToProductReference": "Image SLES15-SP4-Manager-Server-4-3-BYOS-Azure",
        "RelationType": "Default Component Of"
      },
      {
        "ProductReference": "cups-2.2.7-150000.3.59.1",
        "RelatesToProductReference": "SUSE Enterprise Storage 7.1",
        "RelationType": "Default Component Of"
      },
      {
        "ProductReference": "cups-client-2.2.7-150000.3.59.1",
        "RelatesToProductReference": "SUSE Enterprise Storage 7.1",
        "RelationType": "Default Component Of"
      },
      {
        "ProductReference": "cups-config-2.2.7-150000.3.59.1",
        "RelatesToProductReference": "SUSE Enterprise Storage 7.1",
        "RelationType": "Default Component Of"
      },
      {
        "ProductReference": "cups-ddk-2.2.7-150000.3.59.1",
        "RelatesToProductReference": "SUSE Enterprise Storage 7.1",
        "RelationType": "Default Component Of"
      },
      {
        "ProductReference": "cups-devel-2.2.7-150000.3.59.1",
        "RelatesToProductReference": "SUSE Enterprise Storage 7.1",
        "RelationType": "Default Component Of"
      },
      {
        "ProductReference": "libcups2-2.2.7-150000.3.59.1",
        "RelatesToProductReference": "SUSE Enterprise Storage 7.1",
        "RelationType": "Default Component Of"
      },
      {
        "ProductReference": "libcups2-32bit-2.2.7-150000.3.59.1",
        "RelatesToProductReference": "SUSE Enterprise Storage 7.1",
        "RelationType": "Default Component Of"
      },
      {
        "ProductReference": "libcupscgi1-2.2.7-150000.3.59.1",
        "RelatesToProductReference": "SUSE Enterprise Storage 7.1",
        "RelationType": "Default Component Of"
      },
      {
        "ProductReference": "libcupsimage2-2.2.7-150000.3.59.1",
        "RelatesToProductReference": "SUSE Enterprise Storage 7.1",
        "RelationType": "Default Component Of"
      },
      {
        "ProductReference": "libcupsmime1-2.2.7-150000.3.59.1",
        "RelatesToProductReference": "SUSE Enterprise Storage 7.1",
        "RelationType": "Default Component Of"
      },
      {
        "ProductReference": "libcupsppdc1-2.2.7-150000.3.59.1",
        "RelatesToProductReference": "SUSE Enterprise Storage 7.1",
        "RelationType": "Default Component Of"
      },
      {
        "ProductReference": "cups-2.2.7-150000.3.59.1",
        "RelatesToProductReference": "SUSE Linux Enterprise High Performance Computing 15 SP2-LTSS",
        "RelationType": "Default Component Of"
      },
      {
        "ProductReference": "cups-client-2.2.7-150000.3.59.1",
        "RelatesToProductReference": "SUSE Linux Enterprise High Performance Computing 15 SP2-LTSS",
        "RelationType": "Default Component Of"
      },
      {
        "ProductReference": "cups-config-2.2.7-150000.3.59.1",
        "RelatesToProductReference": "SUSE Linux Enterprise High Performance Computing 15 SP2-LTSS",
        "RelationType": "Default Component Of"
      },
      {
        "ProductReference": "cups-ddk-2.2.7-150000.3.59.1",
        "RelatesToProductReference": "SUSE Linux Enterprise High Performance Computing 15 SP2-LTSS",
        "RelationType": "Default Component Of"
      },
      {
        "ProductReference": "cups-devel-2.2.7-150000.3.59.1",
        "RelatesToProductReference": "SUSE Linux Enterprise High Performance Computing 15 SP2-LTSS",
        "RelationType": "Default Component Of"
      },
      {
        "ProductReference": "libcups2-2.2.7-150000.3.59.1",
        "RelatesToProductReference": "SUSE Linux Enterprise High Performance Computing 15 SP2-LTSS",
        "RelationType": "Default Component Of"
      },
      {
        "ProductReference": "libcups2-32bit-2.2.7-150000.3.59.1",
        "RelatesToProductReference": "SUSE Linux Enterprise High Performance Computing 15 SP2-LTSS",
        "RelationType": "Default Component Of"
      },
      {
        "ProductReference": "libcupscgi1-2.2.7-150000.3.59.1",
        "RelatesToProductReference": "SUSE Linux Enterprise High Performance Computing 15 SP2-LTSS",
        "RelationType": "Default Component Of"
      },
      {
        "ProductReference": "libcupsimage2-2.2.7-150000.3.59.1",
        "RelatesToProductReference": "SUSE Linux Enterprise High Performance Computing 15 SP2-LTSS",
        "RelationType": "Default Component Of"
      },
      {
        "ProductReference": "libcupsmime1-2.2.7-150000.3.59.1",
        "RelatesToProductReference": "SUSE Linux Enterprise High Performance Computing 15 SP2-LTSS",
        "RelationType": "Default Component Of"
      },
      {
        "ProductReference": "libcupsppdc1-2.2.7-150000.3.59.1",
        "RelatesToProductReference": "SUSE Linux Enterprise High Performance Computing 15 SP2-LTSS",
        "RelationType": "Default Component Of"
      },
      {
        "ProductReference": "cups-2.2.7-150000.3.59.1",
        "RelatesToProductReference": "SUSE Linux Enterprise High Performance Computing 15 SP3-LTSS",
        "RelationType": "Default Component Of"
      },
      {
        "ProductReference": "cups-client-2.2.7-150000.3.59.1",
        "RelatesToProductReference": "SUSE Linux Enterprise High Performance Computing 15 SP3-LTSS",
        "RelationType": "Default Component Of"
      },
      {
        "ProductReference": "cups-config-2.2.7-150000.3.59.1",
        "RelatesToProductReference": "SUSE Linux Enterprise High Performance Computing 15 SP3-LTSS",
        "RelationType": "Default Component Of"
      },
      {
        "ProductReference": "cups-ddk-2.2.7-150000.3.59.1",
        "RelatesToProductReference": "SUSE Linux Enterprise High Performance Computing 15 SP3-LTSS",
        "RelationType": "Default Component Of"
      },
      {
        "ProductReference": "cups-devel-2.2.7-150000.3.59.1",
        "RelatesToProductReference": "SUSE Linux Enterprise High Performance Computing 15 SP3-LTSS",
        "RelationType": "Default Component Of"
      },
      {
        "ProductReference": "libcups2-2.2.7-150000.3.59.1",
        "RelatesToProductReference": "SUSE Linux Enterprise High Performance Computing 15 SP3-LTSS",
        "RelationType": "Default Component Of"
      },
      {
        "ProductReference": "libcups2-32bit-2.2.7-150000.3.59.1",
        "RelatesToProductReference": "SUSE Linux Enterprise High Performance Computing 15 SP3-LTSS",
        "RelationType": "Default Component Of"
      },
      {
        "ProductReference": "libcupscgi1-2.2.7-150000.3.59.1",
        "RelatesToProductReference": "SUSE Linux Enterprise High Performance Computing 15 SP3-LTSS",
        "RelationType": "Default Component Of"
      },
      {
        "ProductReference": "libcupsimage2-2.2.7-150000.3.59.1",
        "RelatesToProductReference": "SUSE Linux Enterprise High Performance Computing 15 SP3-LTSS",
        "RelationType": "Default Component Of"
      },
      {
        "ProductReference": "libcupsmime1-2.2.7-150000.3.59.1",
        "RelatesToProductReference": "SUSE Linux Enterprise High Performance Computing 15 SP3-LTSS",
        "RelationType": "Default Component Of"
      },
      {
        "ProductReference": "libcupsppdc1-2.2.7-150000.3.59.1",
        "RelatesToProductReference": "SUSE Linux Enterprise High Performance Computing 15 SP3-LTSS",
        "RelationType": "Default Component Of"
      },
      {
        "ProductReference": "cups-2.2.7-150000.3.59.1",
        "RelatesToProductReference": "SUSE Linux Enterprise High Performance Computing 15 SP4-ESPOS",
        "RelationType": "Default Component Of"
      },
      {
        "ProductReference": "cups-client-2.2.7-150000.3.59.1",
        "RelatesToProductReference": "SUSE Linux Enterprise High Performance Computing 15 SP4-ESPOS",
        "RelationType": "Default Component Of"
      },
      {
        "ProductReference": "cups-config-2.2.7-150000.3.59.1",
        "RelatesToProductReference": "SUSE Linux Enterprise High Performance Computing 15 SP4-ESPOS",
        "RelationType": "Default Component Of"
      },
      {
        "ProductReference": "cups-ddk-2.2.7-150000.3.59.1",
        "RelatesToProductReference": "SUSE Linux Enterprise High Performance Computing 15 SP4-ESPOS",
        "RelationType": "Default Component Of"
      },
      {
        "ProductReference": "cups-devel-2.2.7-150000.3.59.1",
        "RelatesToProductReference": "SUSE Linux Enterprise High Performance Computing 15 SP4-ESPOS",
        "RelationType": "Default Component Of"
      },
      {
        "ProductReference": "libcups2-2.2.7-150000.3.59.1",
        "RelatesToProductReference": "SUSE Linux Enterprise High Performance Computing 15 SP4-ESPOS",
        "RelationType": "Default Component Of"
      },
      {
        "ProductReference": "libcups2-32bit-2.2.7-150000.3.59.1",
        "RelatesToProductReference": "SUSE Linux Enterprise High Performance Computing 15 SP4-ESPOS",
        "RelationType": "Default Component Of"
      },
      {
        "ProductReference": "libcupscgi1-2.2.7-150000.3.59.1",
        "RelatesToProductReference": "SUSE Linux Enterprise High Performance Computing 15 SP4-ESPOS",
        "RelationType": "Default Component Of"
      },
      {
        "ProductReference": "libcupsimage2-2.2.7-150000.3.59.1",
        "RelatesToProductReference": "SUSE Linux Enterprise High Performance Computing 15 SP4-ESPOS",
        "RelationType": "Default Component Of"
      },
      {
        "ProductReference": "libcupsmime1-2.2.7-150000.3.59.1",
        "RelatesToProductReference": "SUSE Linux Enterprise High Performance Computing 15 SP4-ESPOS",
        "RelationType": "Default Component Of"
      },
      {
        "ProductReference": "libcupsppdc1-2.2.7-150000.3.59.1",
        "RelatesToProductReference": "SUSE Linux Enterprise High Performance Computing 15 SP4-ESPOS",
        "RelationType": "Default Component Of"
      },
      {
        "ProductReference": "cups-2.2.7-150000.3.59.1",
        "RelatesToProductReference": "SUSE Linux Enterprise High Performance Computing 15 SP4-LTSS",
        "RelationType": "Default Component Of"
      },
      {
        "ProductReference": "cups-client-2.2.7-150000.3.59.1",
        "RelatesToProductReference": "SUSE Linux Enterprise High Performance Computing 15 SP4-LTSS",
        "RelationType": "Default Component Of"
      },
      {
        "ProductReference": "cups-config-2.2.7-150000.3.59.1",
        "RelatesToProductReference": "SUSE Linux Enterprise High Performance Computing 15 SP4-LTSS",
        "RelationType": "Default Component Of"
      },
      {
        "ProductReference": "cups-ddk-2.2.7-150000.3.59.1",
        "RelatesToProductReference": "SUSE Linux Enterprise High Performance Computing 15 SP4-LTSS",
        "RelationType": "Default Component Of"
      },
      {
        "ProductReference": "cups-devel-2.2.7-150000.3.59.1",
        "RelatesToProductReference": "SUSE Linux Enterprise High Performance Computing 15 SP4-LTSS",
        "RelationType": "Default Component Of"
      },
      {
        "ProductReference": "libcups2-2.2.7-150000.3.59.1",
        "RelatesToProductReference": "SUSE Linux Enterprise High Performance Computing 15 SP4-LTSS",
        "RelationType": "Default Component Of"
      },
      {
        "ProductReference": "libcups2-32bit-2.2.7-150000.3.59.1",
        "RelatesToProductReference": "SUSE Linux Enterprise High Performance Computing 15 SP4-LTSS",
        "RelationType": "Default Component Of"
      },
      {
        "ProductReference": "libcupscgi1-2.2.7-150000.3.59.1",
        "RelatesToProductReference": "SUSE Linux Enterprise High Performance Computing 15 SP4-LTSS",
        "RelationType": "Default Component Of"
      },
      {
        "ProductReference": "libcupsimage2-2.2.7-150000.3.59.1",
        "RelatesToProductReference": "SUSE Linux Enterprise High Performance Computing 15 SP4-LTSS",
        "RelationType": "Default Component Of"
      },
      {
        "ProductReference": "libcupsmime1-2.2.7-150000.3.59.1",
        "RelatesToProductReference": "SUSE Linux Enterprise High Performance Computing 15 SP4-LTSS",
        "RelationType": "Default Component Of"
      },
      {
        "ProductReference": "libcupsppdc1-2.2.7-150000.3.59.1",
        "RelatesToProductReference": "SUSE Linux Enterprise High Performance Computing 15 SP4-LTSS",
        "RelationType": "Default Component Of"
      },
      {
        "ProductReference": "cups-config-2.2.7-150000.3.59.1",
        "RelatesToProductReference": "SUSE Linux Enterprise Micro 5.2",
        "RelationType": "Default Component Of"
      },
      {
        "ProductReference": "libcups2-2.2.7-150000.3.59.1",
        "RelatesToProductReference": "SUSE Linux Enterprise Micro 5.2",
        "RelationType": "Default Component Of"
      },
      {
        "ProductReference": "cups-config-2.2.7-150000.3.59.1",
        "RelatesToProductReference": "SUSE Linux Enterprise Micro 5.3",
        "RelationType": "Default Component Of"
      },
      {
        "ProductReference": "libcups2-2.2.7-150000.3.59.1",
        "RelatesToProductReference": "SUSE Linux Enterprise Micro 5.3",
        "RelationType": "Default Component Of"
      },
      {
        "ProductReference": "cups-config-2.2.7-150000.3.59.1",
        "RelatesToProductReference": "SUSE Linux Enterprise Micro 5.4",
        "RelationType": "Default Component Of"
      },
      {
        "ProductReference": "libcups2-2.2.7-150000.3.59.1",
        "RelatesToProductReference": "SUSE Linux Enterprise Micro 5.4",
        "RelationType": "Default Component Of"
      },
      {
        "ProductReference": "cups-config-2.2.7-150000.3.59.1",
        "RelatesToProductReference": "SUSE Linux Enterprise Micro 5.5",
        "RelationType": "Default Component Of"
      },
      {
        "ProductReference": "libcups2-2.2.7-150000.3.59.1",
        "RelatesToProductReference": "SUSE Linux Enterprise Micro 5.5",
        "RelationType": "Default Component Of"
      },
      {
        "ProductReference": "cups-2.2.7-150000.3.59.1",
        "RelatesToProductReference": "SUSE Linux Enterprise Module for Basesystem 15 SP5",
        "RelationType": "Default Component Of"
      },
      {
        "ProductReference": "cups-client-2.2.7-150000.3.59.1",
        "RelatesToProductReference": "SUSE Linux Enterprise Module for Basesystem 15 SP5",
        "RelationType": "Default Component Of"
      },
      {
        "ProductReference": "cups-config-2.2.7-150000.3.59.1",
        "RelatesToProductReference": "SUSE Linux Enterprise Module for Basesystem 15 SP5",
        "RelationType": "Default Component Of"
      },
      {
        "ProductReference": "cups-devel-2.2.7-150000.3.59.1",
        "RelatesToProductReference": "SUSE Linux Enterprise Module for Basesystem 15 SP5",
        "RelationType": "Default Component Of"
      },
      {
        "ProductReference": "libcups2-2.2.7-150000.3.59.1",
        "RelatesToProductReference": "SUSE Linux Enterprise Module for Basesystem 15 SP5",
        "RelationType": "Default Component Of"
      },
      {
        "ProductReference": "libcupscgi1-2.2.7-150000.3.59.1",
        "RelatesToProductReference": "SUSE Linux Enterprise Module for Basesystem 15 SP5",
        "RelationType": "Default Component Of"
      },
      {
        "ProductReference": "libcupsimage2-2.2.7-150000.3.59.1",
        "RelatesToProductReference": "SUSE Linux Enterprise Module for Basesystem 15 SP5",
        "RelationType": "Default Component Of"
      },
      {
        "ProductReference": "libcupsmime1-2.2.7-150000.3.59.1",
        "RelatesToProductReference": "SUSE Linux Enterprise Module for Basesystem 15 SP5",
        "RelationType": "Default Component Of"
      },
      {
        "ProductReference": "libcupsppdc1-2.2.7-150000.3.59.1",
        "RelatesToProductReference": "SUSE Linux Enterprise Module for Basesystem 15 SP5",
        "RelationType": "Default Component Of"
      },
      {
        "ProductReference": "cups-2.2.7-150000.3.59.1",
        "RelatesToProductReference": "SUSE Linux Enterprise Module for Basesystem 15 SP6",
        "RelationType": "Default Component Of"
      },
      {
        "ProductReference": "cups-client-2.2.7-150000.3.59.1",
        "RelatesToProductReference": "SUSE Linux Enterprise Module for Basesystem 15 SP6",
        "RelationType": "Default Component Of"
      },
      {
        "ProductReference": "cups-config-2.2.7-150000.3.59.1",
        "RelatesToProductReference": "SUSE Linux Enterprise Module for Basesystem 15 SP6",
        "RelationType": "Default Component Of"
      },
      {
        "ProductReference": "cups-devel-2.2.7-150000.3.59.1",
        "RelatesToProductReference": "SUSE Linux Enterprise Module for Basesystem 15 SP6",
        "RelationType": "Default Component Of"
      },
      {
        "ProductReference": "libcups2-2.2.7-150000.3.59.1",
        "RelatesToProductReference": "SUSE Linux Enterprise Module for Basesystem 15 SP6",
        "RelationType": "Default Component Of"
      },
      {
        "ProductReference": "libcupscgi1-2.2.7-150000.3.59.1",
        "RelatesToProductReference": "SUSE Linux Enterprise Module for Basesystem 15 SP6",
        "RelationType": "Default Component Of"
      },
      {
        "ProductReference": "libcupsimage2-2.2.7-150000.3.59.1",
        "RelatesToProductReference": "SUSE Linux Enterprise Module for Basesystem 15 SP6",
        "RelationType": "Default Component Of"
      },
      {
        "ProductReference": "libcupsmime1-2.2.7-150000.3.59.1",
        "RelatesToProductReference": "SUSE Linux Enterprise Module for Basesystem 15 SP6",
        "RelationType": "Default Component Of"
      },
      {
        "ProductReference": "libcupsppdc1-2.2.7-150000.3.59.1",
        "RelatesToProductReference": "SUSE Linux Enterprise Module for Basesystem 15 SP6",
        "RelationType": "Default Component Of"
      },
      {
        "ProductReference": "libcups2-32bit-2.2.7-150000.3.59.1",
        "RelatesToProductReference": "SUSE Linux Enterprise Module for Desktop Applications 15 SP5",
        "RelationType": "Default Component Of"
      },
      {
        "ProductReference": "libcups2-32bit-2.2.7-150000.3.59.1",
        "RelatesToProductReference": "SUSE Linux Enterprise Module for Desktop Applications 15 SP6",
        "RelationType": "Default Component Of"
      },
      {
        "ProductReference": "cups-ddk-2.2.7-150000.3.59.1",
        "RelatesToProductReference": "SUSE Linux Enterprise Module for Development Tools 15 SP5",
        "RelationType": "Default Component Of"
      },
      {
        "ProductReference": "cups-ddk-2.2.7-150000.3.59.1",
        "RelatesToProductReference": "SUSE Linux Enterprise Module for Development Tools 15 SP6",
        "RelationType": "Default Component Of"
      },
      {
        "ProductReference": "cups-2.2.7-150000.3.59.1",
        "RelatesToProductReference": "SUSE Linux Enterprise Server 15 SP2-LTSS",
        "RelationType": "Default Component Of"
      },
      {
        "ProductReference": "cups-client-2.2.7-150000.3.59.1",
        "RelatesToProductReference": "SUSE Linux Enterprise Server 15 SP2-LTSS",
        "RelationType": "Default Component Of"
      },
      {
        "ProductReference": "cups-config-2.2.7-150000.3.59.1",
        "RelatesToProductReference": "SUSE Linux Enterprise Server 15 SP2-LTSS",
        "RelationType": "Default Component Of"
      },
      {
        "ProductReference": "cups-ddk-2.2.7-150000.3.59.1",
        "RelatesToProductReference": "SUSE Linux Enterprise Server 15 SP2-LTSS",
        "RelationType": "Default Component Of"
      },
      {
        "ProductReference": "cups-devel-2.2.7-150000.3.59.1",
        "RelatesToProductReference": "SUSE Linux Enterprise Server 15 SP2-LTSS",
        "RelationType": "Default Component Of"
      },
      {
        "ProductReference": "libcups2-2.2.7-150000.3.59.1",
        "RelatesToProductReference": "SUSE Linux Enterprise Server 15 SP2-LTSS",
        "RelationType": "Default Component Of"
      },
      {
        "ProductReference": "libcups2-32bit-2.2.7-150000.3.59.1",
        "RelatesToProductReference": "SUSE Linux Enterprise Server 15 SP2-LTSS",
        "RelationType": "Default Component Of"
      },
      {
        "ProductReference": "libcupscgi1-2.2.7-150000.3.59.1",
        "RelatesToProductReference": "SUSE Linux Enterprise Server 15 SP2-LTSS",
        "RelationType": "Default Component Of"
      },
      {
        "ProductReference": "libcupsimage2-2.2.7-150000.3.59.1",
        "RelatesToProductReference": "SUSE Linux Enterprise Server 15 SP2-LTSS",
        "RelationType": "Default Component Of"
      },
      {
        "ProductReference": "libcupsmime1-2.2.7-150000.3.59.1",
        "RelatesToProductReference": "SUSE Linux Enterprise Server 15 SP2-LTSS",
        "RelationType": "Default Component Of"
      },
      {
        "ProductReference": "libcupsppdc1-2.2.7-150000.3.59.1",
        "RelatesToProductReference": "SUSE Linux Enterprise Server 15 SP2-LTSS",
        "RelationType": "Default Component Of"
      },
      {
        "ProductReference": "cups-2.2.7-150000.3.59.1",
        "RelatesToProductReference": "SUSE Linux Enterprise Server 15 SP3-LTSS",
        "RelationType": "Default Component Of"
      },
      {
        "ProductReference": "cups-client-2.2.7-150000.3.59.1",
        "RelatesToProductReference": "SUSE Linux Enterprise Server 15 SP3-LTSS",
        "RelationType": "Default Component Of"
      },
      {
        "ProductReference": "cups-config-2.2.7-150000.3.59.1",
        "RelatesToProductReference": "SUSE Linux Enterprise Server 15 SP3-LTSS",
        "RelationType": "Default Component Of"
      },
      {
        "ProductReference": "cups-ddk-2.2.7-150000.3.59.1",
        "RelatesToProductReference": "SUSE Linux Enterprise Server 15 SP3-LTSS",
        "RelationType": "Default Component Of"
      },
      {
        "ProductReference": "cups-devel-2.2.7-150000.3.59.1",
        "RelatesToProductReference": "SUSE Linux Enterprise Server 15 SP3-LTSS",
        "RelationType": "Default Component Of"
      },
      {
        "ProductReference": "libcups2-2.2.7-150000.3.59.1",
        "RelatesToProductReference": "SUSE Linux Enterprise Server 15 SP3-LTSS",
        "RelationType": "Default Component Of"
      },
      {
        "ProductReference": "libcups2-32bit-2.2.7-150000.3.59.1",
        "RelatesToProductReference": "SUSE Linux Enterprise Server 15 SP3-LTSS",
        "RelationType": "Default Component Of"
      },
      {
        "ProductReference": "libcupscgi1-2.2.7-150000.3.59.1",
        "RelatesToProductReference": "SUSE Linux Enterprise Server 15 SP3-LTSS",
        "RelationType": "Default Component Of"
      },
      {
        "ProductReference": "libcupsimage2-2.2.7-150000.3.59.1",
        "RelatesToProductReference": "SUSE Linux Enterprise Server 15 SP3-LTSS",
        "RelationType": "Default Component Of"
      },
      {
        "ProductReference": "libcupsmime1-2.2.7-150000.3.59.1",
        "RelatesToProductReference": "SUSE Linux Enterprise Server 15 SP3-LTSS",
        "RelationType": "Default Component Of"
      },
      {
        "ProductReference": "libcupsppdc1-2.2.7-150000.3.59.1",
        "RelatesToProductReference": "SUSE Linux Enterprise Server 15 SP3-LTSS",
        "RelationType": "Default Component Of"
      },
      {
        "ProductReference": "cups-2.2.7-150000.3.59.1",
        "RelatesToProductReference": "SUSE Linux Enterprise Server 15 SP4-LTSS",
        "RelationType": "Default Component Of"
      },
      {
        "ProductReference": "cups-client-2.2.7-150000.3.59.1",
        "RelatesToProductReference": "SUSE Linux Enterprise Server 15 SP4-LTSS",
        "RelationType": "Default Component Of"
      },
      {
        "ProductReference": "cups-config-2.2.7-150000.3.59.1",
        "RelatesToProductReference": "SUSE Linux Enterprise Server 15 SP4-LTSS",
        "RelationType": "Default Component Of"
      },
      {
        "ProductReference": "cups-ddk-2.2.7-150000.3.59.1",
        "RelatesToProductReference": "SUSE Linux Enterprise Server 15 SP4-LTSS",
        "RelationType": "Default Component Of"
      },
      {
        "ProductReference": "cups-devel-2.2.7-150000.3.59.1",
        "RelatesToProductReference": "SUSE Linux Enterprise Server 15 SP4-LTSS",
        "RelationType": "Default Component Of"
      },
      {
        "ProductReference": "libcups2-2.2.7-150000.3.59.1",
        "RelatesToProductReference": "SUSE Linux Enterprise Server 15 SP4-LTSS",
        "RelationType": "Default Component Of"
      },
      {
        "ProductReference": "libcups2-32bit-2.2.7-150000.3.59.1",
        "RelatesToProductReference": "SUSE Linux Enterprise Server 15 SP4-LTSS",
        "RelationType": "Default Component Of"
      },
      {
        "ProductReference": "libcupscgi1-2.2.7-150000.3.59.1",
        "RelatesToProductReference": "SUSE Linux Enterprise Server 15 SP4-LTSS",
        "RelationType": "Default Component Of"
      },
      {
        "ProductReference": "libcupsimage2-2.2.7-150000.3.59.1",
        "RelatesToProductReference": "SUSE Linux Enterprise Server 15 SP4-LTSS",
        "RelationType": "Default Component Of"
      },
      {
        "ProductReference": "libcupsmime1-2.2.7-150000.3.59.1",
        "RelatesToProductReference": "SUSE Linux Enterprise Server 15 SP4-LTSS",
        "RelationType": "Default Component Of"
      },
      {
        "ProductReference": "libcupsppdc1-2.2.7-150000.3.59.1",
        "RelatesToProductReference": "SUSE Linux Enterprise Server 15 SP4-LTSS",
        "RelationType": "Default Component Of"
      },
      {
        "ProductReference": "cups-2.2.7-150000.3.59.1",
        "RelatesToProductReference": "SUSE Linux Enterprise Server for SAP Applications 15 SP2",
        "RelationType": "Default Component Of"
      },
      {
        "ProductReference": "cups-client-2.2.7-150000.3.59.1",
        "RelatesToProductReference": "SUSE Linux Enterprise Server for SAP Applications 15 SP2",
        "RelationType": "Default Component Of"
      },
      {
        "ProductReference": "cups-config-2.2.7-150000.3.59.1",
        "RelatesToProductReference": "SUSE Linux Enterprise Server for SAP Applications 15 SP2",
        "RelationType": "Default Component Of"
      },
      {
        "ProductReference": "cups-ddk-2.2.7-150000.3.59.1",
        "RelatesToProductReference": "SUSE Linux Enterprise Server for SAP Applications 15 SP2",
        "RelationType": "Default Component Of"
      },
      {
        "ProductReference": "cups-devel-2.2.7-150000.3.59.1",
        "RelatesToProductReference": "SUSE Linux Enterprise Server for SAP Applications 15 SP2",
        "RelationType": "Default Component Of"
      },
      {
        "ProductReference": "libcups2-2.2.7-150000.3.59.1",
        "RelatesToProductReference": "SUSE Linux Enterprise Server for SAP Applications 15 SP2",
        "RelationType": "Default Component Of"
      },
      {
        "ProductReference": "libcups2-32bit-2.2.7-150000.3.59.1",
        "RelatesToProductReference": "SUSE Linux Enterprise Server for SAP Applications 15 SP2",
        "RelationType": "Default Component Of"
      },
      {
        "ProductReference": "libcupscgi1-2.2.7-150000.3.59.1",
        "RelatesToProductReference": "SUSE Linux Enterprise Server for SAP Applications 15 SP2",
        "RelationType": "Default Component Of"
      },
      {
        "ProductReference": "libcupsimage2-2.2.7-150000.3.59.1",
        "RelatesToProductReference": "SUSE Linux Enterprise Server for SAP Applications 15 SP2",
        "RelationType": "Default Component Of"
      },
      {
        "ProductReference": "libcupsmime1-2.2.7-150000.3.59.1",
        "RelatesToProductReference": "SUSE Linux Enterprise Server for SAP Applications 15 SP2",
        "RelationType": "Default Component Of"
      },
      {
        "ProductReference": "libcupsppdc1-2.2.7-150000.3.59.1",
        "RelatesToProductReference": "SUSE Linux Enterprise Server for SAP Applications 15 SP2",
        "RelationType": "Default Component Of"
      },
      {
        "ProductReference": "cups-2.2.7-150000.3.59.1",
        "RelatesToProductReference": "SUSE Linux Enterprise Server for SAP Applications 15 SP3",
        "RelationType": "Default Component Of"
      },
      {
        "ProductReference": "cups-client-2.2.7-150000.3.59.1",
        "RelatesToProductReference": "SUSE Linux Enterprise Server for SAP Applications 15 SP3",
        "RelationType": "Default Component Of"
      },
      {
        "ProductReference": "cups-config-2.2.7-150000.3.59.1",
        "RelatesToProductReference": "SUSE Linux Enterprise Server for SAP Applications 15 SP3",
        "RelationType": "Default Component Of"
      },
      {
        "ProductReference": "cups-ddk-2.2.7-150000.3.59.1",
        "RelatesToProductReference": "SUSE Linux Enterprise Server for SAP Applications 15 SP3",
        "RelationType": "Default Component Of"
      },
      {
        "ProductReference": "cups-devel-2.2.7-150000.3.59.1",
        "RelatesToProductReference": "SUSE Linux Enterprise Server for SAP Applications 15 SP3",
        "RelationType": "Default Component Of"
      },
      {
        "ProductReference": "libcups2-2.2.7-150000.3.59.1",
        "RelatesToProductReference": "SUSE Linux Enterprise Server for SAP Applications 15 SP3",
        "RelationType": "Default Component Of"
      },
      {
        "ProductReference": "libcups2-32bit-2.2.7-150000.3.59.1",
        "RelatesToProductReference": "SUSE Linux Enterprise Server for SAP Applications 15 SP3",
        "RelationType": "Default Component Of"
      },
      {
        "ProductReference": "libcupscgi1-2.2.7-150000.3.59.1",
        "RelatesToProductReference": "SUSE Linux Enterprise Server for SAP Applications 15 SP3",
        "RelationType": "Default Component Of"
      },
      {
        "ProductReference": "libcupsimage2-2.2.7-150000.3.59.1",
        "RelatesToProductReference": "SUSE Linux Enterprise Server for SAP Applications 15 SP3",
        "RelationType": "Default Component Of"
      },
      {
        "ProductReference": "libcupsmime1-2.2.7-150000.3.59.1",
        "RelatesToProductReference": "SUSE Linux Enterprise Server for SAP Applications 15 SP3",
        "RelationType": "Default Component Of"
      },
      {
        "ProductReference": "libcupsppdc1-2.2.7-150000.3.59.1",
        "RelatesToProductReference": "SUSE Linux Enterprise Server for SAP Applications 15 SP3",
        "RelationType": "Default Component Of"
      },
      {
        "ProductReference": "cups-2.2.7-150000.3.59.1",
        "RelatesToProductReference": "SUSE Linux Enterprise Server for SAP Applications 15 SP4",
        "RelationType": "Default Component Of"
      },
      {
        "ProductReference": "cups-client-2.2.7-150000.3.59.1",
        "RelatesToProductReference": "SUSE Linux Enterprise Server for SAP Applications 15 SP4",
        "RelationType": "Default Component Of"
      },
      {
        "ProductReference": "cups-config-2.2.7-150000.3.59.1",
        "RelatesToProductReference": "SUSE Linux Enterprise Server for SAP Applications 15 SP4",
        "RelationType": "Default Component Of"
      },
      {
        "ProductReference": "cups-ddk-2.2.7-150000.3.59.1",
        "RelatesToProductReference": "SUSE Linux Enterprise Server for SAP Applications 15 SP4",
        "RelationType": "Default Component Of"
      },
      {
        "ProductReference": "cups-devel-2.2.7-150000.3.59.1",
        "RelatesToProductReference": "SUSE Linux Enterprise Server for SAP Applications 15 SP4",
        "RelationType": "Default Component Of"
      },
      {
        "ProductReference": "libcups2-2.2.7-150000.3.59.1",
        "RelatesToProductReference": "SUSE Linux Enterprise Server for SAP Applications 15 SP4",
        "RelationType": "Default Component Of"
      },
      {
        "ProductReference": "libcups2-32bit-2.2.7-150000.3.59.1",
        "RelatesToProductReference": "SUSE Linux Enterprise Server for SAP Applications 15 SP4",
        "RelationType": "Default Component Of"
      },
      {
        "ProductReference": "libcupscgi1-2.2.7-150000.3.59.1",
        "RelatesToProductReference": "SUSE Linux Enterprise Server for SAP Applications 15 SP4",
        "RelationType": "Default Component Of"
      },
      {
        "ProductReference": "libcupsimage2-2.2.7-150000.3.59.1",
        "RelatesToProductReference": "SUSE Linux Enterprise Server for SAP Applications 15 SP4",
        "RelationType": "Default Component Of"
      },
      {
        "ProductReference": "libcupsmime1-2.2.7-150000.3.59.1",
        "RelatesToProductReference": "SUSE Linux Enterprise Server for SAP Applications 15 SP4",
        "RelationType": "Default Component Of"
      },
      {
        "ProductReference": "libcupsppdc1-2.2.7-150000.3.59.1",
        "RelatesToProductReference": "SUSE Linux Enterprise Server for SAP Applications 15 SP4",
        "RelationType": "Default Component Of"
      },
      {
        "ProductReference": "cups-2.2.7-150000.3.59.1",
        "RelatesToProductReference": "SUSE Manager Proxy 4.3",
        "RelationType": "Default Component Of"
      },
      {
        "ProductReference": "cups-client-2.2.7-150000.3.59.1",
        "RelatesToProductReference": "SUSE Manager Proxy 4.3",
        "RelationType": "Default Component Of"
      },
      {
        "ProductReference": "cups-config-2.2.7-150000.3.59.1",
        "RelatesToProductReference": "SUSE Manager Proxy 4.3",
        "RelationType": "Default Component Of"
      },
      {
        "ProductReference": "cups-devel-2.2.7-150000.3.59.1",
        "RelatesToProductReference": "SUSE Manager Proxy 4.3",
        "RelationType": "Default Component Of"
      },
      {
        "ProductReference": "libcups2-2.2.7-150000.3.59.1",
        "RelatesToProductReference": "SUSE Manager Proxy 4.3",
        "RelationType": "Default Component Of"
      },
      {
        "ProductReference": "libcups2-32bit-2.2.7-150000.3.59.1",
        "RelatesToProductReference": "SUSE Manager Proxy 4.3",
        "RelationType": "Default Component Of"
      },
      {
        "ProductReference": "libcupscgi1-2.2.7-150000.3.59.1",
        "RelatesToProductReference": "SUSE Manager Proxy 4.3",
        "RelationType": "Default Component Of"
      },
      {
        "ProductReference": "libcupsimage2-2.2.7-150000.3.59.1",
        "RelatesToProductReference": "SUSE Manager Proxy 4.3",
        "RelationType": "Default Component Of"
      },
      {
        "ProductReference": "libcupsmime1-2.2.7-150000.3.59.1",
        "RelatesToProductReference": "SUSE Manager Proxy 4.3",
        "RelationType": "Default Component Of"
      },
      {
        "ProductReference": "libcupsppdc1-2.2.7-150000.3.59.1",
        "RelatesToProductReference": "SUSE Manager Proxy 4.3",
        "RelationType": "Default Component Of"
      },
      {
        "ProductReference": "cups-2.2.7-150000.3.59.1",
        "RelatesToProductReference": "SUSE Manager Server 4.3",
        "RelationType": "Default Component Of"
      },
      {
        "ProductReference": "cups-client-2.2.7-150000.3.59.1",
        "RelatesToProductReference": "SUSE Manager Server 4.3",
        "RelationType": "Default Component Of"
      },
      {
        "ProductReference": "cups-config-2.2.7-150000.3.59.1",
        "RelatesToProductReference": "SUSE Manager Server 4.3",
        "RelationType": "Default Component Of"
      },
      {
        "ProductReference": "cups-devel-2.2.7-150000.3.59.1",
        "RelatesToProductReference": "SUSE Manager Server 4.3",
        "RelationType": "Default Component Of"
      },
      {
        "ProductReference": "libcups2-2.2.7-150000.3.59.1",
        "RelatesToProductReference": "SUSE Manager Server 4.3",
        "RelationType": "Default Component Of"
      },
      {
        "ProductReference": "libcups2-32bit-2.2.7-150000.3.59.1",
        "RelatesToProductReference": "SUSE Manager Server 4.3",
        "RelationType": "Default Component Of"
      },
      {
        "ProductReference": "libcupscgi1-2.2.7-150000.3.59.1",
        "RelatesToProductReference": "SUSE Manager Server 4.3",
        "RelationType": "Default Component Of"
      },
      {
        "ProductReference": "libcupsimage2-2.2.7-150000.3.59.1",
        "RelatesToProductReference": "SUSE Manager Server 4.3",
        "RelationType": "Default Component Of"
      },
      {
        "ProductReference": "libcupsmime1-2.2.7-150000.3.59.1",
        "RelatesToProductReference": "SUSE Manager Server 4.3",
        "RelationType": "Default Component Of"
      },
      {
        "ProductReference": "libcupsppdc1-2.2.7-150000.3.59.1",
        "RelatesToProductReference": "SUSE Manager Server 4.3",
        "RelationType": "Default Component Of"
      },
      {
        "ProductReference": "cups-2.2.7-150000.3.59.1",
        "RelatesToProductReference": "openSUSE Leap 15.5",
        "RelationType": "Default Component Of"
      },
      {
        "ProductReference": "cups-client-2.2.7-150000.3.59.1",
        "RelatesToProductReference": "openSUSE Leap 15.5",
        "RelationType": "Default Component Of"
      },
      {
        "ProductReference": "cups-config-2.2.7-150000.3.59.1",
        "RelatesToProductReference": "openSUSE Leap 15.5",
        "RelationType": "Default Component Of"
      },
      {
        "ProductReference": "cups-ddk-2.2.7-150000.3.59.1",
        "RelatesToProductReference": "openSUSE Leap 15.5",
        "RelationType": "Default Component Of"
      },
      {
        "ProductReference": "cups-devel-2.2.7-150000.3.59.1",
        "RelatesToProductReference": "openSUSE Leap 15.5",
        "RelationType": "Default Component Of"
      },
      {
        "ProductReference": "cups-devel-32bit-2.2.7-150000.3.59.1",
        "RelatesToProductReference": "openSUSE Leap 15.5",
        "RelationType": "Default Component Of"
      },
      {
        "ProductReference": "libcups2-2.2.7-150000.3.59.1",
        "RelatesToProductReference": "openSUSE Leap 15.5",
        "RelationType": "Default Component Of"
      },
      {
        "ProductReference": "libcups2-32bit-2.2.7-150000.3.59.1",
        "RelatesToProductReference": "openSUSE Leap 15.5",
        "RelationType": "Default Component Of"
      },
      {
        "ProductReference": "libcupscgi1-2.2.7-150000.3.59.1",
        "RelatesToProductReference": "openSUSE Leap 15.5",
        "RelationType": "Default Component Of"
      },
      {
        "ProductReference": "libcupscgi1-32bit-2.2.7-150000.3.59.1",
        "RelatesToProductReference": "openSUSE Leap 15.5",
        "RelationType": "Default Component Of"
      },
      {
        "ProductReference": "libcupsimage2-2.2.7-150000.3.59.1",
        "RelatesToProductReference": "openSUSE Leap 15.5",
        "RelationType": "Default Component Of"
      },
      {
        "ProductReference": "libcupsimage2-32bit-2.2.7-150000.3.59.1",
        "RelatesToProductReference": "openSUSE Leap 15.5",
        "RelationType": "Default Component Of"
      },
      {
        "ProductReference": "libcupsmime1-2.2.7-150000.3.59.1",
        "RelatesToProductReference": "openSUSE Leap 15.5",
        "RelationType": "Default Component Of"
      },
      {
        "ProductReference": "libcupsmime1-32bit-2.2.7-150000.3.59.1",
        "RelatesToProductReference": "openSUSE Leap 15.5",
        "RelationType": "Default Component Of"
      },
      {
        "ProductReference": "libcupsppdc1-2.2.7-150000.3.59.1",
        "RelatesToProductReference": "openSUSE Leap 15.5",
        "RelationType": "Default Component Of"
      },
      {
        "ProductReference": "libcupsppdc1-32bit-2.2.7-150000.3.59.1",
        "RelatesToProductReference": "openSUSE Leap 15.5",
        "RelationType": "Default Component Of"
      },
      {
        "ProductReference": "cups-2.2.7-150000.3.59.1",
        "RelatesToProductReference": "openSUSE Leap 15.6",
        "RelationType": "Default Component Of"
      },
      {
        "ProductReference": "cups-client-2.2.7-150000.3.59.1",
        "RelatesToProductReference": "openSUSE Leap 15.6",
        "RelationType": "Default Component Of"
      },
      {
        "ProductReference": "cups-config-2.2.7-150000.3.59.1",
        "RelatesToProductReference": "openSUSE Leap 15.6",
        "RelationType": "Default Component Of"
      },
      {
        "ProductReference": "cups-ddk-2.2.7-150000.3.59.1",
        "RelatesToProductReference": "openSUSE Leap 15.6",
        "RelationType": "Default Component Of"
      },
      {
        "ProductReference": "cups-devel-2.2.7-150000.3.59.1",
        "RelatesToProductReference": "openSUSE Leap 15.6",
        "RelationType": "Default Component Of"
      },
      {
        "ProductReference": "cups-devel-32bit-2.2.7-150000.3.59.1",
        "RelatesToProductReference": "openSUSE Leap 15.6",
        "RelationType": "Default Component Of"
      },
      {
        "ProductReference": "libcups2-2.2.7-150000.3.59.1",
        "RelatesToProductReference": "openSUSE Leap 15.6",
        "RelationType": "Default Component Of"
      },
      {
        "ProductReference": "libcups2-32bit-2.2.7-150000.3.59.1",
        "RelatesToProductReference": "openSUSE Leap 15.6",
        "RelationType": "Default Component Of"
      },
      {
        "ProductReference": "libcupscgi1-2.2.7-150000.3.59.1",
        "RelatesToProductReference": "openSUSE Leap 15.6",
        "RelationType": "Default Component Of"
      },
      {
        "ProductReference": "libcupscgi1-32bit-2.2.7-150000.3.59.1",
        "RelatesToProductReference": "openSUSE Leap 15.6",
        "RelationType": "Default Component Of"
      },
      {
        "ProductReference": "libcupsimage2-2.2.7-150000.3.59.1",
        "RelatesToProductReference": "openSUSE Leap 15.6",
        "RelationType": "Default Component Of"
      },
      {
        "ProductReference": "libcupsimage2-32bit-2.2.7-150000.3.59.1",
        "RelatesToProductReference": "openSUSE Leap 15.6",
        "RelationType": "Default Component Of"
      },
      {
        "ProductReference": "libcupsmime1-2.2.7-150000.3.59.1",
        "RelatesToProductReference": "openSUSE Leap 15.6",
        "RelationType": "Default Component Of"
      },
      {
        "ProductReference": "libcupsmime1-32bit-2.2.7-150000.3.59.1",
        "RelatesToProductReference": "openSUSE Leap 15.6",
        "RelationType": "Default Component Of"
      },
      {
        "ProductReference": "libcupsppdc1-2.2.7-150000.3.59.1",
        "RelatesToProductReference": "openSUSE Leap 15.6",
        "RelationType": "Default Component Of"
      },
      {
        "ProductReference": "libcupsppdc1-32bit-2.2.7-150000.3.59.1",
        "RelatesToProductReference": "openSUSE Leap 15.6",
        "RelationType": "Default Component Of"
      },
      {
        "ProductReference": "cups-config-2.2.7-150000.3.59.1",
        "RelatesToProductReference": "openSUSE Leap Micro 5.3",
        "RelationType": "Default Component Of"
      },
      {
        "ProductReference": "libcups2-2.2.7-150000.3.59.1",
        "RelatesToProductReference": "openSUSE Leap Micro 5.3",
        "RelationType": "Default Component Of"
      },
      {
        "ProductReference": "cups-config-2.2.7-150000.3.59.1",
        "RelatesToProductReference": "openSUSE Leap Micro 5.4",
        "RelationType": "Default Component Of"
      },
      {
        "ProductReference": "libcups2-2.2.7-150000.3.59.1",
        "RelatesToProductReference": "openSUSE Leap Micro 5.4",
        "RelationType": "Default Component Of"
      }
    ]
  },
  "References": [
    {
      "URL": "https://www.suse.com/support/update/announcement/2024/suse-su-20242003-1/",
      "Description": "Link for SUSE-SU-2024:2003-1"
    },
    {
      "URL": "https://lists.suse.com/pipermail/sle-security-updates/2024-June/018704.html",
      "Description": "E-Mail link for SUSE-SU-2024:2003-1"
    },
    {
      "URL": "https://www.suse.com/support/security/rating/",
      "Description": "SUSE Security Ratings"
    },
    {
      "URL": "https://bugzilla.suse.com/1223179",
      "Description": "SUSE Bug 1223179"
    },
    {
      "URL": "https://bugzilla.suse.com/1225365",
      "Description": "SUSE Bug 1225365"
    },
    {
      "URL": "https://www.suse.com/security/cve/CVE-2024-35235/",
      "Description": "SUSE CVE CVE-2024-35235 page"
    }
  ],
  "Vulnerabilities": [
    {
      "CVE": "CVE-2024-35235",
      "Description": "OpenPrinting CUPS is an open source printing system for Linux and other Unix-like operating systems. In versions 2.4.8 and earlier, when starting the cupsd server with a Listen configuration item pointing to a symbolic link, the cupsd process can be caused to perform an arbitrary chmod of the provided argument, providing world-writable access to the target. Given that cupsd is often running as root, this can result in the change of permission of any user or system files to be world writable. Given the aforementioned Ubuntu AppArmor context, on such systems this vulnerability is limited to those files modifiable by the cupsd process. In that specific case it was found to be possible to turn the configuration of the Listen argument into full control over the cupsd.conf and cups-files.conf configuration files. By later setting the User and Group arguments in cups-files.conf, and printing with a printer configured by PPD with a `FoomaticRIPCommandLine` argument, arbitrary user and group (not root) command execution could be achieved, which can further be used on Ubuntu systems to achieve full root command execution. Commit ff1f8a623e090dee8a8aadf12a6a4b25efac143d contains a patch for the issue.\n",
      "Threats": [
        {
          "Type": "Impact",
          "Severity": "important"
        }
      ],
      "References": [
        {
          "URL": "https://www.suse.com/security/cve/CVE-2024-35235.html",
          "Description": "CVE-2024-35235"
        },
        {
          "URL": "https://bugzilla.suse.com/1225365",
          "Description": "SUSE Bug 1225365"
        }
      ],
      "ProductStatuses": [
        {
          "Type": "Fixed",
          "ProductID": [
            "Image SLES15-SP4-CHOST-BYOS-Aliyun:cups-config-2.2.7-150000.3.59.1",
            "Image SLES15-SP4-CHOST-BYOS-Aliyun:libcups2-2.2.7-150000.3.59.1",
            "Image SLES15-SP4-CHOST-BYOS-Azure:cups-config-2.2.7-150000.3.59.1",
            "Image SLES15-SP4-CHOST-BYOS-Azure:libcups2-2.2.7-150000.3.59.1",
            "Image SLES15-SP4-CHOST-BYOS-EC2:cups-config-2.2.7-150000.3.59.1",
            "Image SLES15-SP4-CHOST-BYOS-EC2:libcups2-2.2.7-150000.3.59.1",
            "Image SLES15-SP4-CHOST-BYOS-GCE:cups-config-2.2.7-150000.3.59.1",
            "Image SLES15-SP4-CHOST-BYOS-GCE:libcups2-2.2.7-150000.3.59.1",
            "Image SLES15-SP4-CHOST-BYOS-SAP-CCloud:cups-config-2.2.7-150000.3.59.1",
            "Image SLES15-SP4-CHOST-BYOS-SAP-CCloud:libcups2-2.2.7-150000.3.59.1",
            "Image SLES15-SP4-CHOST-BYOS:cups-config-2.2.7-150000.3.59.1",
            "Image SLES15-SP4-CHOST-BYOS:libcups2-2.2.7-150000.3.59.1",
            "Image SLES15-SP4-Manager-Proxy-4-3-BYOS-EC2:cups-config-2.2.7-150000.3.59.1",
            "Image SLES15-SP4-Manager-Proxy-4-3-BYOS-EC2:libcups2-2.2.7-150000.3.59.1",
            "Image SLES15-SP4-Manager-Proxy-4-3-BYOS-GCE:cups-config-2.2.7-150000.3.59.1",
            "Image SLES15-SP4-Manager-Proxy-4-3-BYOS-GCE:libcups2-2.2.7-150000.3.59.1",
            "Image SLES15-SP4-Manager-Proxy-4-3-BYOS:cups-config-2.2.7-150000.3.59.1",
            "Image SLES15-SP4-Manager-Proxy-4-3-BYOS:libcups2-2.2.7-150000.3.59.1",
            "Image SLES15-SP4-Manager-Server-4-3-BYOS-Azure:cups-config-2.2.7-150000.3.59.1",
            "Image SLES15-SP4-Manager-Server-4-3-BYOS-Azure:libcups2-2.2.7-150000.3.59.1",
            "Image SLES15-SP4-Manager-Server-4-3-BYOS:cups-config-2.2.7-150000.3.59.1",
            "Image SLES15-SP4-Manager-Server-4-3-BYOS:libcups2-2.2.7-150000.3.59.1",
            "SUSE Enterprise Storage 7.1:cups-2.2.7-150000.3.59.1",
            "SUSE Enterprise Storage 7.1:cups-client-2.2.7-150000.3.59.1",
            "SUSE Enterprise Storage 7.1:cups-config-2.2.7-150000.3.59.1",
            "SUSE Enterprise Storage 7.1:cups-ddk-2.2.7-150000.3.59.1",
            "SUSE Enterprise Storage 7.1:cups-devel-2.2.7-150000.3.59.1",
            "SUSE Enterprise Storage 7.1:libcups2-2.2.7-150000.3.59.1",
            "SUSE Enterprise Storage 7.1:libcups2-32bit-2.2.7-150000.3.59.1",
            "SUSE Enterprise Storage 7.1:libcupscgi1-2.2.7-150000.3.59.1",
            "SUSE Enterprise Storage 7.1:libcupsimage2-2.2.7-150000.3.59.1",
            "SUSE Enterprise Storage 7.1:libcupsmime1-2.2.7-150000.3.59.1",
            "SUSE Enterprise Storage 7.1:libcupsppdc1-2.2.7-150000.3.59.1",
            "SUSE Linux Enterprise High Performance Computing 15 SP2-LTSS:cups-2.2.7-150000.3.59.1",
            "SUSE Linux Enterprise High Performance Computing 15 SP2-LTSS:cups-client-2.2.7-150000.3.59.1",
            "SUSE Linux Enterprise High Performance Computing 15 SP2-LTSS:cups-config-2.2.7-150000.3.59.1",
            "SUSE Linux Enterprise High Performance Computing 15 SP2-LTSS:cups-ddk-2.2.7-150000.3.59.1",
            "SUSE Linux Enterprise High Performance Computing 15 SP2-LTSS:cups-devel-2.2.7-150000.3.59.1",
            "SUSE Linux Enterprise High Performance Computing 15 SP2-LTSS:libcups2-2.2.7-150000.3.59.1",
            "SUSE Linux Enterprise High Performance Computing 15 SP2-LTSS:libcups2-32bit-2.2.7-150000.3.59.1",
            "SUSE Linux Enterprise High Performance Computing 15 SP2-LTSS:libcupscgi1-2.2.7-150000.3.59.1",
            "SUSE Linux Enterprise High Performance Computing 15 SP2-LTSS:libcupsimage2-2.2.7-150000.3.59.1",
            "SUSE Linux Enterprise High Performance Computing 15 SP2-LTSS:libcupsmime1-2.2.7-150000.3.59.1",
            "SUSE Linux Enterprise High Performance Computing 15 SP2-LTSS:libcupsppdc1-2.2.7-150000.3.59.1",
            "SUSE Linux Enterprise High Performance Computing 15 SP3-LTSS:cups-2.2.7-150000.3.59.1",
            "SUSE Linux Enterprise High Performance Computing 15 SP3-LTSS:cups-client-2.2.7-150000.3.59.1",
            "SUSE Linux Enterprise High Performance Computing 15 SP3-LTSS:cups-config-2.2.7-150000.3.59.1",
            "SUSE Linux Enterprise High Performance Computing 15 SP3-LTSS:cups-ddk-2.2.7-150000.3.59.1",
            "SUSE Linux Enterprise High Performance Computing 15 SP3-LTSS:cups-devel-2.2.7-150000.3.59.1",
            "SUSE Linux Enterprise High Performance Computing 15 SP3-LTSS:libcups2-2.2.7-150000.3.59.1",
            "SUSE Linux Enterprise High Performance Computing 15 SP3-LTSS:libcups2-32bit-2.2.7-150000.3.59.1",
            "SUSE Linux Enterprise High Performance Computing 15 SP3-LTSS:libcupscgi1-2.2.7-150000.3.59.1",
            "SUSE Linux Enterprise High Performance Computing 15 SP3-LTSS:libcupsimage2-2.2.7-150000.3.59.1",
            "SUSE Linux Enterprise High Performance Computing 15 SP3-LTSS:libcupsmime1-2.2.7-150000.3.59.1",
            "SUSE Linux Enterprise High Performance Computing 15 SP3-LTSS:libcupsppdc1-2.2.7-150000.3.59.1",
            "SUSE Linux Enterprise High Performance Computing 15 SP4-ESPOS:cups-2.2.7-150000.3.59.1",
            "SUSE Linux Enterprise High Performance Computing 15 SP4-ESPOS:cups-client-2.2.7-150000.3.59.1",
            "SUSE Linux Enterprise High Performance Computing 15 SP4-ESPOS:cups-config-2.2.7-150000.3.59.1",
            "SUSE Linux Enterprise High Performance Computing 15 SP4-ESPOS:cups-ddk-2.2.7-150000.3.59.1",
            "SUSE Linux Enterprise High Performance Computing 15 SP4-ESPOS:cups-devel-2.2.7-150000.3.59.1",
            "SUSE Linux Enterprise High Performance Computing 15 SP4-ESPOS:libcups2-2.2.7-150000.3.59.1",
            "SUSE Linux Enterprise High Performance Computing 15 SP4-ESPOS:libcups2-32bit-2.2.7-150000.3.59.1",
            "SUSE Linux Enterprise High Performance Computing 15 SP4-ESPOS:libcupscgi1-2.2.7-150000.3.59.1",
            "SUSE Linux Enterprise High Performance Computing 15 SP4-ESPOS:libcupsimage2-2.2.7-150000.3.59.1",
            "SUSE Linux Enterprise High Performance Computing 15 SP4-ESPOS:libcupsmime1-2.2.7-150000.3.59.1",
            "SUSE Linux Enterprise High Performance Computing 15 SP4-ESPOS:libcupsppdc1-2.2.7-150000.3.59.1",
            "SUSE Linux Enterprise High Performance Computing 15 SP4-LTSS:cups-2.2.7-150000.3.59.1",
            "SUSE Linux Enterprise High Performance Computing 15 SP4-LTSS:cups-client-2.2.7-150000.3.59.1",
            "SUSE Linux Enterprise High Performance Computing 15 SP4-LTSS:cups-config-2.2.7-150000.3.59.1",
            "SUSE Linux Enterprise High Performance Computing 15 SP4-LTSS:cups-ddk-2.2.7-150000.3.59.1",
            "SUSE Linux Enterprise High Performance Computing 15 SP4-LTSS:cups-devel-2.2.7-150000.3.59.1",
            "SUSE Linux Enterprise High Performance Computing 15 SP4-LTSS:libcups2-2.2.7-150000.3.59.1",
            "SUSE Linux Enterprise High Performance Computing 15 SP4-LTSS:libcups2-32bit-2.2.7-150000.3.59.1",
            "SUSE Linux Enterprise High Performance Computing 15 SP4-LTSS:libcupscgi1-2.2.7-150000.3.59.1",
            "SUSE Linux Enterprise High Performance Computing 15 SP4-LTSS:libcupsimage2-2.2.7-150000.3.59.1",
            "SUSE Linux Enterprise High Performance Computing 15 SP4-LTSS:libcupsmime1-2.2.7-150000.3.59.1",
            "SUSE Linux Enterprise High Performance Computing 15 SP4-LTSS:libcupsppdc1-2.2.7-150000.3.59.1",
            "SUSE Linux Enterprise Micro 5.2:cups-config-2.2.7-150000.3.59.1",
            "SUSE Linux Enterprise Micro 5.2:libcups2-2.2.7-150000.3.59.1",
            "SUSE Linux Enterprise Micro 5.3:cups-config-2.2.7-150000.3.59.1",
            "SUSE Linux Enterprise Micro 5.3:libcups2-2.2.7-150000.3.59.1",
            "SUSE Linux Enterprise Micro 5.4:cups-config-2.2.7-150000.3.59.1",
            "SUSE Linux Enterprise Micro 5.4:libcups2-2.2.7-150000.3.59.1",
            "SUSE Linux Enterprise Micro 5.5:cups-config-2.2.7-150000.3.59.1",
            "SUSE Linux Enterprise Micro 5.5:libcups2-2.2.7-150000.3.59.1",
            "SUSE Linux Enterprise Module for Basesystem 15 SP5:cups-2.2.7-150000.3.59.1",
            "SUSE Linux Enterprise Module for Basesystem 15 SP5:cups-client-2.2.7-150000.3.59.1",
            "SUSE Linux Enterprise Module for Basesystem 15 SP5:cups-config-2.2.7-150000.3.59.1",
            "SUSE Linux Enterprise Module for Basesystem 15 SP5:cups-devel-2.2.7-150000.3.59.1",
            "SUSE Linux Enterprise Module for Basesystem 15 SP5:libcups2-2.2.7-150000.3.59.1",
            "SUSE Linux Enterprise Module for Basesystem 15 SP5:libcupscgi1-2.2.7-150000.3.59.1",
            "SUSE Linux Enterprise Module for Basesystem 15 SP5:libcupsimage2-2.2.7-150000.3.59.1",
            "SUSE Linux Enterprise Module for Basesystem 15 SP5:libcupsmime1-2.2.7-150000.3.59.1",
            "SUSE Linux Enterprise Module for Basesystem 15 SP5:libcupsppdc1-2.2.7-150000.3.59.1",
            "SUSE Linux Enterprise Module for Basesystem 15 SP6:cups-2.2.7-150000.3.59.1",
            "SUSE Linux Enterprise Module for Basesystem 15 SP6:cups-client-2.2.7-150000.3.59.1",
            "SUSE Linux Enterprise Module for Basesystem 15 SP6:cups-config-2.2.7-150000.3.59.1",
            "SUSE Linux Enterprise Module for Basesystem 15 SP6:cups-devel-2.2.7-150000.3.59.1",
            "SUSE Linux Enterprise Module for Basesystem 15 SP6:libcups2-2.2.7-150000.3.59.1",
            "SUSE Linux Enterprise Module for Basesystem 15 SP6:libcupscgi1-2.2.7-150000.3.59.1",
            "SUSE Linux Enterprise Module for Basesystem 15 SP6:libcupsimage2-2.2.7-150000.3.59.1",
            "SUSE Linux Enterprise Module for Basesystem 15 SP6:libcupsmime1-2.2.7-150000.3.59.1",
            "SUSE Linux Enterprise Module for Basesystem 15 SP6:libcupsppdc1-2.2.7-150000.3.59.1",
            "SUSE Linux Enterprise Module for Desktop Applications 15 SP5:libcups2-32bit-2.2.7-150000.3.59.1",
            "SUSE Linux Enterprise Module for Desktop Applications 15 SP6:libcups2-32bit-2.2.7-150000.3.59.1",
            "SUSE Linux Enterprise Module for Development Tools 15 SP5:cups-ddk-2.2.7-150000.3.59.1",
            "SUSE Linux Enterprise Module for Development Tools 15 SP6:cups-ddk-2.2.7-150000.3.59.1",
            "SUSE Linux Enterprise Server 15 SP2-LTSS:cups-2.2.7-150000.3.59.1",
            "SUSE Linux Enterprise Server 15 SP2-LTSS:cups-client-2.2.7-150000.3.59.1",
            "SUSE Linux Enterprise Server 15 SP2-LTSS:cups-config-2.2.7-150000.3.59.1",
            "SUSE Linux Enterprise Server 15 SP2-LTSS:cups-ddk-2.2.7-150000.3.59.1",
            "SUSE Linux Enterprise Server 15 SP2-LTSS:cups-devel-2.2.7-150000.3.59.1",
            "SUSE Linux Enterprise Server 15 SP2-LTSS:libcups2-2.2.7-150000.3.59.1",
            "SUSE Linux Enterprise Server 15 SP2-LTSS:libcups2-32bit-2.2.7-150000.3.59.1",
            "SUSE Linux Enterprise Server 15 SP2-LTSS:libcupscgi1-2.2.7-150000.3.59.1",
            "SUSE Linux Enterprise Server 15 SP2-LTSS:libcupsimage2-2.2.7-150000.3.59.1",
            "SUSE Linux Enterprise Server 15 SP2-LTSS:libcupsmime1-2.2.7-150000.3.59.1",
            "SUSE Linux Enterprise Server 15 SP2-LTSS:libcupsppdc1-2.2.7-150000.3.59.1",
            "SUSE Linux Enterprise Server 15 SP3-LTSS:cups-2.2.7-150000.3.59.1",
            "SUSE Linux Enterprise Server 15 SP3-LTSS:cups-client-2.2.7-150000.3.59.1",
            "SUSE Linux Enterprise Server 15 SP3-LTSS:cups-config-2.2.7-150000.3.59.1",
            "SUSE Linux Enterprise Server 15 SP3-LTSS:cups-ddk-2.2.7-150000.3.59.1",
            "SUSE Linux Enterprise Server 15 SP3-LTSS:cups-devel-2.2.7-150000.3.59.1",
            "SUSE Linux Enterprise Server 15 SP3-LTSS:libcups2-2.2.7-150000.3.59.1",
            "SUSE Linux Enterprise Server 15 SP3-LTSS:libcups2-32bit-2.2.7-150000.3.59.1",
            "SUSE Linux Enterprise Server 15 SP3-LTSS:libcupscgi1-2.2.7-150000.3.59.1",
            "SUSE Linux Enterprise Server 15 SP3-LTSS:libcupsimage2-2.2.7-150000.3.59.1",
            "SUSE Linux Enterprise Server 15 SP3-LTSS:libcupsmime1-2.2.7-150000.3.59.1",
            "SUSE Linux Enterprise Server 15 SP3-LTSS:libcupsppdc1-2.2.7-150000.3.59.1",
            "SUSE Linux Enterprise Server 15 SP4-LTSS:cups-2.2.7-150000.3.59.1",
            "SUSE Linux Enterprise Server 15 SP4-LTSS:cups-client-2.2.7-150000.3.59.1",
            "SUSE Linux Enterprise Server 15 SP4-LTSS:cups-config-2.2.7-150000.3.59.1",
            "SUSE Linux Enterprise Server 15 SP4-LTSS:cups-ddk-2.2.7-150000.3.59.1",
            "SUSE Linux Enterprise Server 15 SP4-LTSS:cups-devel-2.2.7-150000.3.59.1",
            "SUSE Linux Enterprise Server 15 SP4-LTSS:libcups2-2.2.7-150000.3.59.1",
            "SUSE Linux Enterprise Server 15 SP4-LTSS:libcups2-32bit-2.2.7-150000.3.59.1",
            "SUSE Linux Enterprise Server 15 SP4-LTSS:libcupscgi1-2.2.7-150000.3.59.1",
            "SUSE Linux Enterprise Server 15 SP4-LTSS:libcupsimage2-2.2.7-150000.3.59.1",
            "SUSE Linux Enterprise Server 15 SP4-LTSS:libcupsmime1-2.2.7-150000.3.59.1",
            "SUSE Linux Enterprise Server 15 SP4-LTSS:libcupsppdc1-2.2.7-150000.3.59.1",
            "SUSE Linux Enterprise Server for SAP Applications 15 SP2:cups-2.2.7-150000.3.59.1",
            "SUSE Linux Enterprise Server for SAP Applications 15 SP2:cups-client-2.2.7-150000.3.59.1",
            "SUSE Linux Enterprise Server for SAP Applications 15 SP2:cups-config-2.2.7-150000.3.59.1",
            "SUSE Linux Enterprise Server for SAP Applications 15 SP2:cups-ddk-2.2.7-150000.3.59.1",
            "SUSE Linux Enterprise Server for SAP Applications 15 SP2:cups-devel-2.2.7-150000.3.59.1",
            "SUSE Linux Enterprise Server for SAP Applications 15 SP2:libcups2-2.2.7-150000.3.59.1",
            "SUSE Linux Enterprise Server for SAP Applications 15 SP2:libcups2-32bit-2.2.7-150000.3.59.1",
            "SUSE Linux Enterprise Server for SAP Applications 15 SP2:libcupscgi1-2.2.7-150000.3.59.1",
            "SUSE Linux Enterprise Server for SAP Applications 15 SP2:libcupsimage2-2.2.7-150000.3.59.1",
            "SUSE Linux Enterprise Server for SAP Applications 15 SP2:libcupsmime1-2.2.7-150000.3.59.1",
            "SUSE Linux Enterprise Server for SAP Applications 15 SP2:libcupsppdc1-2.2.7-150000.3.59.1",
            "SUSE Linux Enterprise Server for SAP Applications 15 SP3:cups-2.2.7-150000.3.59.1",
            "SUSE Linux Enterprise Server for SAP Applications 15 SP3:cups-client-2.2.7-150000.3.59.1",
            "SUSE Linux Enterprise Server for SAP Applications 15 SP3:cups-config-2.2.7-150000.3.59.1",
            "SUSE Linux Enterprise Server for SAP Applications 15 SP3:cups-ddk-2.2.7-150000.3.59.1",
            "SUSE Linux Enterprise Server for SAP Applications 15 SP3:cups-devel-2.2.7-150000.3.59.1",
            "SUSE Linux Enterprise Server for SAP Applications 15 SP3:libcups2-2.2.7-150000.3.59.1",
            "SUSE Linux Enterprise Server for SAP Applications 15 SP3:libcups2-32bit-2.2.7-150000.3.59.1",
            "SUSE Linux Enterprise Server for SAP Applications 15 SP3:libcupscgi1-2.2.7-150000.3.59.1",
            "SUSE Linux Enterprise Server for SAP Applications 15 SP3:libcupsimage2-2.2.7-150000.3.59.1",
            "SUSE Linux Enterprise Server for SAP Applications 15 SP3:libcupsmime1-2.2.7-150000.3.59.1",
            "SUSE Linux Enterprise Server for SAP Applications 15 SP3:libcupsppdc1-2.2.7-150000.3.59.1",
            "SUSE Linux Enterprise Server for SAP Applications 15 SP4:cups-2.2.7-150000.3.59.1",
            "SUSE Linux Enterprise Server for SAP Applications 15 SP4:cups-client-2.2.7-150000.3.59.1",
            "SUSE Linux Enterprise Server for SAP Applications 15 SP4:cups-config-2.2.7-150000.3.59.1",
            "SUSE Linux Enterprise Server for SAP Applications 15 SP4:cups-ddk-2.2.7-150000.3.59.1",
            "SUSE Linux Enterprise Server for SAP Applications 15 SP4:cups-devel-2.2.7-150000.3.59.1",
            "SUSE Linux Enterprise Server for SAP Applications 15 SP4:libcups2-2.2.7-150000.3.59.1",
            "SUSE Linux Enterprise Server for SAP Applications 15 SP4:libcups2-32bit-2.2.7-150000.3.59.1",
            "SUSE Linux Enterprise Server for SAP Applications 15 SP4:libcupscgi1-2.2.7-150000.3.59.1",
            "SUSE Linux Enterprise Server for SAP Applications 15 SP4:libcupsimage2-2.2.7-150000.3.59.1",
            "SUSE Linux Enterprise Server for SAP Applications 15 SP4:libcupsmime1-2.2.7-150000.3.59.1",
            "SUSE Linux Enterprise Server for SAP Applications 15 SP4:libcupsppdc1-2.2.7-150000.3.59.1",
            "SUSE Manager Proxy 4.3:cups-2.2.7-150000.3.59.1",
            "SUSE Manager Proxy 4.3:cups-client-2.2.7-150000.3.59.1",
            "SUSE Manager Proxy 4.3:cups-config-2.2.7-150000.3.59.1",
            "SUSE Manager Proxy 4.3:cups-devel-2.2.7-150000.3.59.1",
            "SUSE Manager Proxy 4.3:libcups2-2.2.7-150000.3.59.1",
            "SUSE Manager Proxy 4.3:libcups2-32bit-2.2.7-150000.3.59.1",
            "SUSE Manager Proxy 4.3:libcupscgi1-2.2.7-150000.3.59.1",
            "SUSE Manager Proxy 4.3:libcupsimage2-2.2.7-150000.3.59.1",
            "SUSE Manager Proxy 4.3:libcupsmime1-2.2.7-150000.3.59.1",
            "SUSE Manager Proxy 4.3:libcupsppdc1-2.2.7-150000.3.59.1",
            "SUSE Manager Server 4.3:cups-2.2.7-150000.3.59.1",
            "SUSE Manager Server 4.3:cups-client-2.2.7-150000.3.59.1",
            "SUSE Manager Server 4.3:cups-config-2.2.7-150000.3.59.1",
            "SUSE Manager Server 4.3:cups-devel-2.2.7-150000.3.59.1",
            "SUSE Manager Server 4.3:libcups2-2.2.7-150000.3.59.1",
            "SUSE Manager Server 4.3:libcups2-32bit-2.2.7-150000.3.59.1",
            "SUSE Manager Server 4.3:libcupscgi1-2.2.7-150000.3.59.1",
            "SUSE Manager Server 4.3:libcupsimage2-2.2.7-150000.3.59.1",
            "SUSE Manager Server 4.3:libcupsmime1-2.2.7-150000.3.59.1",
            "SUSE Manager Server 4.3:libcupsppdc1-2.2.7-150000.3.59.1",
            "openSUSE Leap 15.5:cups-2.2.7-150000.3.59.1",
            "openSUSE Leap 15.5:cups-client-2.2.7-150000.3.59.1",
            "openSUSE Leap 15.5:cups-config-2.2.7-150000.3.59.1",
            "openSUSE Leap 15.5:cups-ddk-2.2.7-150000.3.59.1",
            "openSUSE Leap 15.5:cups-devel-2.2.7-150000.3.59.1",
            "openSUSE Leap 15.5:cups-devel-32bit-2.2.7-150000.3.59.1",
            "openSUSE Leap 15.5:libcups2-2.2.7-150000.3.59.1",
            "openSUSE Leap 15.5:libcups2-32bit-2.2.7-150000.3.59.1",
            "openSUSE Leap 15.5:libcupscgi1-2.2.7-150000.3.59.1",
            "openSUSE Leap 15.5:libcupscgi1-32bit-2.2.7-150000.3.59.1",
            "openSUSE Leap 15.5:libcupsimage2-2.2.7-150000.3.59.1",
            "openSUSE Leap 15.5:libcupsimage2-32bit-2.2.7-150000.3.59.1",
            "openSUSE Leap 15.5:libcupsmime1-2.2.7-150000.3.59.1",
            "openSUSE Leap 15.5:libcupsmime1-32bit-2.2.7-150000.3.59.1",
            "openSUSE Leap 15.5:libcupsppdc1-2.2.7-150000.3.59.1",
            "openSUSE Leap 15.5:libcupsppdc1-32bit-2.2.7-150000.3.59.1",
            "openSUSE Leap 15.6:cups-2.2.7-150000.3.59.1",
            "openSUSE Leap 15.6:cups-client-2.2.7-150000.3.59.1",
            "openSUSE Leap 15.6:cups-config-2.2.7-150000.3.59.1",
            "openSUSE Leap 15.6:cups-ddk-2.2.7-150000.3.59.1",
            "openSUSE Leap 15.6:cups-devel-2.2.7-150000.3.59.1",
            "openSUSE Leap 15.6:cups-devel-32bit-2.2.7-150000.3.59.1",
            "openSUSE Leap 15.6:libcups2-2.2.7-150000.3.59.1",
            "openSUSE Leap 15.6:libcups2-32bit-2.2.7-150000.3.59.1",
            "openSUSE Leap 15.6:libcupscgi1-2.2.7-150000.3.59.1",
            "openSUSE Leap 15.6:libcupscgi1-32bit-2.2.7-150000.3.59.1",
            "openSUSE Leap 15.6:libcupsimage2-2.2.7-150000.3.59.1",
            "openSUSE Leap 15.6:libcupsimage2-32bit-2.2.7-150000.3.59.1",
            "openSUSE Leap 15.6:libcupsmime1-2.2.7-150000.3.59.1",
            "openSUSE Leap 15.6:libcupsmime1-32bit-2.2.7-150000.3.59.1",
            "openSUSE Leap 15.6:libcupsppdc1-2.2.7-150000.3.59.1",
            "openSUSE Leap 15.6:libcupsppdc1-32bit-2.2.7-150000.3.59.1",
            "openSUSE Leap Micro 5.3:cups-config-2.2.7-150000.3.59.1",
            "openSUSE Leap Micro 5.3:libcups2-2.2.7-150000.3.59.1",
            "openSUSE Leap Micro 5.4:cups-config-2.2.7-150000.3.59.1",
            "openSUSE Leap Micro 5.4:libcups2-2.2.7-150000.3.59.1"
          ]
        }
      ],
      "CVSSScoreSets": {}
    }
  ]
}