{
  "Title": "Security update for cpio",
  "Tracking": {
    "ID": "SUSE-SU-2024:0305-2",
    "Status": "Final",
    "Version": "1",
    "InitialReleaseDate": "2024-05-13T11:51:13Z",
    "CurrentReleaseDate": "2024-05-13T11:51:13Z",
    "RevisionHistory": [
      {
        "Number": "1",
        "Date": "2024-05-13T11:51:13Z",
        "Description": "current"
      }
    ]
  },
  "Notes": [
    {
      "Text": "Security update for cpio",
      "Title": "Topic",
      "Type": "Summary"
    },
    {
      "Text": "This update for cpio fixes the following issues:\n\n- Fixed cpio not extracting correctly when using --no-absolute-filenames option the security fix for CVE-2023-7207 (bsc#1218571, bsc#1219238)\n",
      "Title": "Details",
      "Type": "General"
    },
    {
      "Text": "The CVRF data is provided by SUSE under the Creative Commons License 4.0 with Attribution (CC-BY-4.0).",
      "Title": "Terms of Use",
      "Type": "Legal Disclaimer"
    },
    {
      "Text": "Container bci/bci-init:15.6-2024-305,Container bci/bci-init:latest-2024-305,Container bci/bci-sle15-kernel-module-devel:15.6-2024-305,Container bci/bci-sle15-kernel-module-devel:latest-2024-305,Container bci/openjdk-devel:11-2024-305,Container bci/openjdk-devel:21-2024-305,Container bci/openjdk-devel:latest-2024-305,Container rancher/elemental-teal-rt/5.4:latest-2024-305,Container rancher/elemental-teal/5.4:latest-2024-305,Container rancher/seedimage-builder:latest-2024-305,Container suse/hpc/warewulf4-x86_64/sle-hpc-node:latest-2024-305,Container suse/ltss/sle15.4/sle15:15.4-2024-305,Container suse/manager/4.3/proxy-httpd:latest-2024-305,Container suse/manager/4.3/proxy-salt-broker:latest-2024-305,Container suse/manager/5.0/x86_64/proxy-httpd:latest-2024-305,Container suse/manager/5.0/x86_64/proxy-salt-broker:latest-2024-305,Container suse/manager/5.0/x86_64/server-hub-xmlrpc-api:latest-2024-305,Container suse/manager/5.0/x86_64/server:latest-2024-305,Container suse/pcp:latest-2024-305,Container suse/sle-micro-rancher/5.3:latest-2024-305,Container suse/sle-micro-rancher/5.4:latest-2024-305,Container suse/sle-micro/5.3/toolbox:latest-2024-305,Container suse/sle-micro/5.4/toolbox:latest-2024-305,Container suse/sle-micro/5.5/toolbox:latest-2024-305,Container suse/sle-micro/5.5:latest-2024-305,Container suse/sle-micro/base-5.5:latest-2024-305,Container suse/sle-micro/kvm-5.5:latest-2024-305,Container suse/sle-micro/rt-5.5:latest-2024-305,Container suse/sle15:15.5-2024-305,Container suse/sle15:15.6-2024-305,Container suse/sles/15.6/libguestfs-tools:1.1.1-2024-305,Container suse/sles/15.6/virt-handler:1.1.1-2024-305,Container suse/sles/15.6/virt-launcher:1.1.1-2024-305,Image SLES15-SP4-BYOS-2024-305,Image SLES15-SP4-BYOS-Azure-2024-305,Image SLES15-SP4-BYOS-EC2-2024-305,Image SLES15-SP4-BYOS-GCE-2024-305,Image SLES15-SP4-CHOST-BYOS-2024-305,Image SLES15-SP4-CHOST-BYOS-Aliyun-2024-305,Image SLES15-SP4-CHOST-BYOS-Azure-2024-305,Image SLES15-SP4-CHOST-BYOS-EC2-2024-305,Image SLES15-SP4-CHOST-BYOS-GCE-2024-305,Image SLES15-SP4-CHOST-BYOS-SAP-CCloud-2024-305,Image SLES15-SP4-HPC-BYOS-2024-305,Image SLES15-SP4-HPC-BYOS-Azure-2024-305,Image SLES15-SP4-Hardened-BYOS-2024-305,Image SLES15-SP4-Hardened-BYOS-Azure-2024-305,Image SLES15-SP4-Hardened-BYOS-EC2-2024-305,Image SLES15-SP4-Hardened-BYOS-GCE-2024-305,Image SLES15-SP4-Manager-Proxy-4-3-BYOS-2024-305,Image SLES15-SP4-Manager-Proxy-4-3-BYOS-Azure-2024-305,Image SLES15-SP4-Manager-Proxy-4-3-BYOS-EC2-2024-305,Image SLES15-SP4-Manager-Proxy-4-3-BYOS-GCE-2024-305,Image SLES15-SP4-Manager-Server-4-3-2024-305,Image SLES15-SP4-Manager-Server-4-3-Azure-llc-2024-305,Image SLES15-SP4-Manager-Server-4-3-Azure-ltd-2024-305,Image SLES15-SP4-Manager-Server-4-3-BYOS-2024-305,Image SLES15-SP4-Manager-Server-4-3-BYOS-Azure-2024-305,Image SLES15-SP4-Manager-Server-4-3-BYOS-EC2-2024-305,Image SLES15-SP4-Manager-Server-4-3-BYOS-GCE-2024-305,Image SLES15-SP4-Manager-Server-4-3-EC2-llc-2024-305,Image SLES15-SP4-Manager-Server-4-3-EC2-ltd-2024-305,Image SLES15-SP4-Micro-5-3-2024-305,Image SLES15-SP4-Micro-5-3-EC2-2024-305,Image SLES15-SP4-Micro-5-4-2024-305,Image SLES15-SP4-Micro-5-4-BYOS-2024-305,Image SLES15-SP4-Micro-5-4-BYOS-EC2-2024-305,Image SLES15-SP4-Micro-5-4-BYOS-GCE-2024-305,Image SLES15-SP4-Micro-5-4-EC2-2024-305,Image SLES15-SP4-Micro-5-4-GCE-2024-305,Image SLES15-SP4-SAP-2024-305,Image SLES15-SP4-SAP-Azure-2024-305,Image SLES15-SP4-SAP-Azure-LI-BYOS-2024-305,Image SLES15-SP4-SAP-Azure-LI-BYOS-Production-2024-305,Image SLES15-SP4-SAP-Azure-VLI-BYOS-2024-305,Image SLES15-SP4-SAP-Azure-VLI-BYOS-Production-2024-305,Image SLES15-SP4-SAP-BYOS-2024-305,Image SLES15-SP4-SAP-BYOS-Azure-2024-305,Image SLES15-SP4-SAP-BYOS-GCE-2024-305,Image SLES15-SP4-SAP-Hardened-2024-305,Image SLES15-SP4-SAP-Hardened-Azure-2024-305,Image SLES15-SP4-SAP-Hardened-BYOS-2024-305,Image SLES15-SP4-SAP-Hardened-BYOS-Azure-2024-305,Image SLES15-SP4-SAP-Hardened-BYOS-GCE-2024-305,Image SLES15-SP4-SAP-Hardened-GCE-2024-305,Image SLES15-SP4-SAPCAL-2024-305,Image SLES15-SP4-SAPCAL-Azure-2024-305,Image SLES15-SP4-SUSE-Rancher-Setup-BYOS-2024-305,Image SLES15-SP4-SUSE-Rancher-Setup-BYOS-EC2-2024-305,Image SLES15-SP5-Azure-Basic-2024-305,Image SLES15-SP5-Azure-Standard-2024-305,Image SLES15-SP5-BYOS-Azure-2024-305,Image SLES15-SP5-BYOS-EC2-2024-305,Image SLES15-SP5-BYOS-GCE-2024-305,Image SLES15-SP5-CHOST-BYOS-Aliyun-2024-305,Image SLES15-SP5-CHOST-BYOS-Azure-2024-305,Image SLES15-SP5-CHOST-BYOS-EC2-2024-305,Image SLES15-SP5-CHOST-BYOS-GCE-2024-305,Image SLES15-SP5-CHOST-BYOS-SAP-CCloud-2024-305,Image SLES15-SP5-EC2-2024-305,Image SLES15-SP5-GCE-2024-305,Image SLES15-SP5-HPC-Azure-2024-305,Image SLES15-SP5-HPC-BYOS-Azure-2024-305,Image SLES15-SP5-HPC-BYOS-EC2-2024-305,Image SLES15-SP5-HPC-BYOS-GCE-2024-305,Image SLES15-SP5-Hardened-BYOS-Azure-2024-305,Image SLES15-SP5-Hardened-BYOS-EC2-2024-305,Image SLES15-SP5-Hardened-BYOS-GCE-2024-305,Image SLES15-SP5-SAP-Azure-LI-BYOS-2024-305,Image SLES15-SP5-SAP-Azure-LI-BYOS-Production-2024-305,Image SLES15-SP5-SAP-Azure-VLI-BYOS-2024-305,Image SLES15-SP5-SAP-Azure-VLI-BYOS-Production-2024-305,Image SLES15-SP5-SAP-BYOS-Azure-2024-305,Image SLES15-SP5-SAP-BYOS-EC2-2024-305,Image SLES15-SP5-SAP-BYOS-GCE-2024-305,Image SLES15-SP5-SAP-Hardened-Azure-2024-305,Image SLES15-SP5-SAP-Hardened-BYOS-Azure-2024-305,Image SLES15-SP5-SAP-Hardened-BYOS-EC2-2024-305,Image SLES15-SP5-SAP-Hardened-BYOS-GCE-2024-305,Image SLES15-SP5-SAP-Hardened-GCE-2024-305,Image SLES15-SP5-SAPCAL-Azure-2024-305,Image SLES15-SP5-SAPCAL-EC2-2024-305,Image SLES15-SP5-SAPCAL-GCE-2024-305,SUSE-2024-305,SUSE-SLE-Product-HPC-15-SP4-ESPOS-2024-305,SUSE-SLE-Product-HPC-15-SP4-LTSS-2024-305,SUSE-SLE-Product-SLED-15-SP4-LTSS-2024-305,SUSE-SLE-Product-SLES-15-SP4-LTSS-2024-305,SUSE-SLE-Product-SLES_SAP-15-SP4-2024-305,SUSE-SLE-Product-SUSE-Manager-Proxy-4.3-2024-305,SUSE-SLE-Product-SUSE-Manager-Server-4.3-2024-305",
      "Title": "Patchnames",
      "Type": "Details"
    }
  ],
  "ProductTree": {
    "Relationships": [
      {
        "ProductReference": "cpio-2.13-150400.3.6.1",
        "RelatesToProductReference": "Container bci/bci-init:15.6",
        "RelationType": "Default Component Of"
      },
      {
        "ProductReference": "cpio-2.13-150400.3.6.1",
        "RelatesToProductReference": "Container bci/bci-init:latest",
        "RelationType": "Default Component Of"
      },
      {
        "ProductReference": "cpio-2.13-150400.3.6.1",
        "RelatesToProductReference": "Container bci/bci-sle15-kernel-module-devel:15.6",
        "RelationType": "Default Component Of"
      },
      {
        "ProductReference": "cpio-2.13-150400.3.6.1",
        "RelatesToProductReference": "Container bci/bci-sle15-kernel-module-devel:latest",
        "RelationType": "Default Component Of"
      },
      {
        "ProductReference": "cpio-2.13-150400.3.6.1",
        "RelatesToProductReference": "Container bci/openjdk-devel:11",
        "RelationType": "Default Component Of"
      },
      {
        "ProductReference": "cpio-2.13-150400.3.6.1",
        "RelatesToProductReference": "Container bci/openjdk-devel:21",
        "RelationType": "Default Component Of"
      },
      {
        "ProductReference": "cpio-2.13-150400.3.6.1",
        "RelatesToProductReference": "Container bci/openjdk-devel:latest",
        "RelationType": "Default Component Of"
      },
      {
        "ProductReference": "cpio-2.13-150400.3.6.1",
        "RelatesToProductReference": "Container rancher/elemental-teal-rt/5.4:latest",
        "RelationType": "Default Component Of"
      },
      {
        "ProductReference": "cpio-2.13-150400.3.6.1",
        "RelatesToProductReference": "Container rancher/elemental-teal/5.4:latest",
        "RelationType": "Default Component Of"
      },
      {
        "ProductReference": "cpio-2.13-150400.3.6.1",
        "RelatesToProductReference": "Container rancher/seedimage-builder:latest",
        "RelationType": "Default Component Of"
      },
      {
        "ProductReference": "cpio-2.13-150400.3.6.1",
        "RelatesToProductReference": "Container suse/hpc/warewulf4-x86_64/sle-hpc-node:latest",
        "RelationType": "Default Component Of"
      },
      {
        "ProductReference": "cpio-2.13-150400.3.6.1",
        "RelatesToProductReference": "Container suse/ltss/sle15.4/sle15:15.4",
        "RelationType": "Default Component Of"
      },
      {
        "ProductReference": "cpio-2.13-150400.3.6.1",
        "RelatesToProductReference": "Container suse/manager/4.3/proxy-httpd:latest",
        "RelationType": "Default Component Of"
      },
      {
        "ProductReference": "cpio-2.13-150400.3.6.1",
        "RelatesToProductReference": "Container suse/manager/4.3/proxy-salt-broker:latest",
        "RelationType": "Default Component Of"
      },
      {
        "ProductReference": "cpio-2.13-150400.3.6.1",
        "RelatesToProductReference": "Container suse/manager/5.0/x86_64/proxy-httpd:latest",
        "RelationType": "Default Component Of"
      },
      {
        "ProductReference": "cpio-2.13-150400.3.6.1",
        "RelatesToProductReference": "Container suse/manager/5.0/x86_64/proxy-salt-broker:latest",
        "RelationType": "Default Component Of"
      },
      {
        "ProductReference": "cpio-2.13-150400.3.6.1",
        "RelatesToProductReference": "Container suse/manager/5.0/x86_64/server-hub-xmlrpc-api:latest",
        "RelationType": "Default Component Of"
      },
      {
        "ProductReference": "cpio-2.13-150400.3.6.1",
        "RelatesToProductReference": "Container suse/manager/5.0/x86_64/server:latest",
        "RelationType": "Default Component Of"
      },
      {
        "ProductReference": "cpio-2.13-150400.3.6.1",
        "RelatesToProductReference": "Container suse/pcp:latest",
        "RelationType": "Default Component Of"
      },
      {
        "ProductReference": "cpio-2.13-150400.3.6.1",
        "RelatesToProductReference": "Container suse/sle-micro-rancher/5.3:latest",
        "RelationType": "Default Component Of"
      },
      {
        "ProductReference": "cpio-2.13-150400.3.6.1",
        "RelatesToProductReference": "Container suse/sle-micro-rancher/5.4:latest",
        "RelationType": "Default Component Of"
      },
      {
        "ProductReference": "cpio-2.13-150400.3.6.1",
        "RelatesToProductReference": "Container suse/sle-micro/5.3/toolbox:latest",
        "RelationType": "Default Component Of"
      },
      {
        "ProductReference": "cpio-2.13-150400.3.6.1",
        "RelatesToProductReference": "Container suse/sle-micro/5.4/toolbox:latest",
        "RelationType": "Default Component Of"
      },
      {
        "ProductReference": "cpio-2.13-150400.3.6.1",
        "RelatesToProductReference": "Container suse/sle-micro/5.5/toolbox:latest",
        "RelationType": "Default Component Of"
      },
      {
        "ProductReference": "cpio-2.13-150400.3.6.1",
        "RelatesToProductReference": "Container suse/sle-micro/5.5:latest",
        "RelationType": "Default Component Of"
      },
      {
        "ProductReference": "cpio-2.13-150400.3.6.1",
        "RelatesToProductReference": "Container suse/sle-micro/base-5.5:latest",
        "RelationType": "Default Component Of"
      },
      {
        "ProductReference": "cpio-2.13-150400.3.6.1",
        "RelatesToProductReference": "Container suse/sle-micro/kvm-5.5:latest",
        "RelationType": "Default Component Of"
      },
      {
        "ProductReference": "cpio-2.13-150400.3.6.1",
        "RelatesToProductReference": "Container suse/sle-micro/rt-5.5:latest",
        "RelationType": "Default Component Of"
      },
      {
        "ProductReference": "cpio-2.13-150400.3.6.1",
        "RelatesToProductReference": "Container suse/sle15:15.5",
        "RelationType": "Default Component Of"
      },
      {
        "ProductReference": "cpio-2.13-150400.3.6.1",
        "RelatesToProductReference": "Container suse/sle15:15.6",
        "RelationType": "Default Component Of"
      },
      {
        "ProductReference": "cpio-2.13-150400.3.6.1",
        "RelatesToProductReference": "Container suse/sles/15.6/libguestfs-tools:1.1.1",
        "RelationType": "Default Component Of"
      },
      {
        "ProductReference": "cpio-2.13-150400.3.6.1",
        "RelatesToProductReference": "Container suse/sles/15.6/virt-handler:1.1.1",
        "RelationType": "Default Component Of"
      },
      {
        "ProductReference": "cpio-2.13-150400.3.6.1",
        "RelatesToProductReference": "Container suse/sles/15.6/virt-launcher:1.1.1",
        "RelationType": "Default Component Of"
      },
      {
        "ProductReference": "cpio-2.13-150400.3.6.1",
        "RelatesToProductReference": "Image SLES15-SP4-BYOS",
        "RelationType": "Default Component Of"
      },
      {
        "ProductReference": "cpio-2.13-150400.3.6.1",
        "RelatesToProductReference": "Image SLES15-SP4-BYOS-Azure",
        "RelationType": "Default Component Of"
      },
      {
        "ProductReference": "cpio-2.13-150400.3.6.1",
        "RelatesToProductReference": "Image SLES15-SP4-BYOS-EC2",
        "RelationType": "Default Component Of"
      },
      {
        "ProductReference": "cpio-2.13-150400.3.6.1",
        "RelatesToProductReference": "Image SLES15-SP4-BYOS-GCE",
        "RelationType": "Default Component Of"
      },
      {
        "ProductReference": "cpio-2.13-150400.3.6.1",
        "RelatesToProductReference": "Image SLES15-SP4-CHOST-BYOS",
        "RelationType": "Default Component Of"
      },
      {
        "ProductReference": "cpio-2.13-150400.3.6.1",
        "RelatesToProductReference": "Image SLES15-SP4-CHOST-BYOS-Aliyun",
        "RelationType": "Default Component Of"
      },
      {
        "ProductReference": "cpio-2.13-150400.3.6.1",
        "RelatesToProductReference": "Image SLES15-SP4-CHOST-BYOS-Azure",
        "RelationType": "Default Component Of"
      },
      {
        "ProductReference": "cpio-2.13-150400.3.6.1",
        "RelatesToProductReference": "Image SLES15-SP4-CHOST-BYOS-EC2",
        "RelationType": "Default Component Of"
      },
      {
        "ProductReference": "cpio-2.13-150400.3.6.1",
        "RelatesToProductReference": "Image SLES15-SP4-CHOST-BYOS-GCE",
        "RelationType": "Default Component Of"
      },
      {
        "ProductReference": "cpio-2.13-150400.3.6.1",
        "RelatesToProductReference": "Image SLES15-SP4-CHOST-BYOS-SAP-CCloud",
        "RelationType": "Default Component Of"
      },
      {
        "ProductReference": "cpio-2.13-150400.3.6.1",
        "RelatesToProductReference": "Image SLES15-SP4-HPC-BYOS",
        "RelationType": "Default Component Of"
      },
      {
        "ProductReference": "cpio-2.13-150400.3.6.1",
        "RelatesToProductReference": "Image SLES15-SP4-HPC-BYOS-Azure",
        "RelationType": "Default Component Of"
      },
      {
        "ProductReference": "cpio-2.13-150400.3.6.1",
        "RelatesToProductReference": "Image SLES15-SP4-Hardened-BYOS",
        "RelationType": "Default Component Of"
      },
      {
        "ProductReference": "cpio-2.13-150400.3.6.1",
        "RelatesToProductReference": "Image SLES15-SP4-Hardened-BYOS-Azure",
        "RelationType": "Default Component Of"
      },
      {
        "ProductReference": "cpio-2.13-150400.3.6.1",
        "RelatesToProductReference": "Image SLES15-SP4-Hardened-BYOS-EC2",
        "RelationType": "Default Component Of"
      },
      {
        "ProductReference": "cpio-2.13-150400.3.6.1",
        "RelatesToProductReference": "Image SLES15-SP4-Hardened-BYOS-GCE",
        "RelationType": "Default Component Of"
      },
      {
        "ProductReference": "cpio-2.13-150400.3.6.1",
        "RelatesToProductReference": "Image SLES15-SP4-Manager-Proxy-4-3-BYOS",
        "RelationType": "Default Component Of"
      },
      {
        "ProductReference": "cpio-2.13-150400.3.6.1",
        "RelatesToProductReference": "Image SLES15-SP4-Manager-Proxy-4-3-BYOS-Azure",
        "RelationType": "Default Component Of"
      },
      {
        "ProductReference": "cpio-2.13-150400.3.6.1",
        "RelatesToProductReference": "Image SLES15-SP4-Manager-Proxy-4-3-BYOS-EC2",
        "RelationType": "Default Component Of"
      },
      {
        "ProductReference": "cpio-2.13-150400.3.6.1",
        "RelatesToProductReference": "Image SLES15-SP4-Manager-Proxy-4-3-BYOS-GCE",
        "RelationType": "Default Component Of"
      },
      {
        "ProductReference": "cpio-2.13-150400.3.6.1",
        "RelatesToProductReference": "Image SLES15-SP4-Manager-Server-4-3",
        "RelationType": "Default Component Of"
      },
      {
        "ProductReference": "cpio-2.13-150400.3.6.1",
        "RelatesToProductReference": "Image SLES15-SP4-Manager-Server-4-3-Azure-llc",
        "RelationType": "Default Component Of"
      },
      {
        "ProductReference": "cpio-2.13-150400.3.6.1",
        "RelatesToProductReference": "Image SLES15-SP4-Manager-Server-4-3-Azure-ltd",
        "RelationType": "Default Component Of"
      },
      {
        "ProductReference": "cpio-2.13-150400.3.6.1",
        "RelatesToProductReference": "Image SLES15-SP4-Manager-Server-4-3-BYOS",
        "RelationType": "Default Component Of"
      },
      {
        "ProductReference": "cpio-2.13-150400.3.6.1",
        "RelatesToProductReference": "Image SLES15-SP4-Manager-Server-4-3-BYOS-Azure",
        "RelationType": "Default Component Of"
      },
      {
        "ProductReference": "cpio-2.13-150400.3.6.1",
        "RelatesToProductReference": "Image SLES15-SP4-Manager-Server-4-3-BYOS-EC2",
        "RelationType": "Default Component Of"
      },
      {
        "ProductReference": "cpio-2.13-150400.3.6.1",
        "RelatesToProductReference": "Image SLES15-SP4-Manager-Server-4-3-BYOS-GCE",
        "RelationType": "Default Component Of"
      },
      {
        "ProductReference": "cpio-2.13-150400.3.6.1",
        "RelatesToProductReference": "Image SLES15-SP4-Manager-Server-4-3-EC2-llc",
        "RelationType": "Default Component Of"
      },
      {
        "ProductReference": "cpio-2.13-150400.3.6.1",
        "RelatesToProductReference": "Image SLES15-SP4-Manager-Server-4-3-EC2-ltd",
        "RelationType": "Default Component Of"
      },
      {
        "ProductReference": "cpio-2.13-150400.3.6.1",
        "RelatesToProductReference": "Image SLES15-SP4-Micro-5-3",
        "RelationType": "Default Component Of"
      },
      {
        "ProductReference": "cpio-2.13-150400.3.6.1",
        "RelatesToProductReference": "Image SLES15-SP4-Micro-5-3-EC2",
        "RelationType": "Default Component Of"
      },
      {
        "ProductReference": "cpio-2.13-150400.3.6.1",
        "RelatesToProductReference": "Image SLES15-SP4-Micro-5-4",
        "RelationType": "Default Component Of"
      },
      {
        "ProductReference": "cpio-2.13-150400.3.6.1",
        "RelatesToProductReference": "Image SLES15-SP4-Micro-5-4-BYOS",
        "RelationType": "Default Component Of"
      },
      {
        "ProductReference": "cpio-2.13-150400.3.6.1",
        "RelatesToProductReference": "Image SLES15-SP4-Micro-5-4-BYOS-EC2",
        "RelationType": "Default Component Of"
      },
      {
        "ProductReference": "cpio-2.13-150400.3.6.1",
        "RelatesToProductReference": "Image SLES15-SP4-Micro-5-4-BYOS-GCE",
        "RelationType": "Default Component Of"
      },
      {
        "ProductReference": "cpio-2.13-150400.3.6.1",
        "RelatesToProductReference": "Image SLES15-SP4-Micro-5-4-EC2",
        "RelationType": "Default Component Of"
      },
      {
        "ProductReference": "cpio-2.13-150400.3.6.1",
        "RelatesToProductReference": "Image SLES15-SP4-Micro-5-4-GCE",
        "RelationType": "Default Component Of"
      },
      {
        "ProductReference": "cpio-2.13-150400.3.6.1",
        "RelatesToProductReference": "Image SLES15-SP4-SAP",
        "RelationType": "Default Component Of"
      },
      {
        "ProductReference": "cpio-2.13-150400.3.6.1",
        "RelatesToProductReference": "Image SLES15-SP4-SAP-Azure",
        "RelationType": "Default Component Of"
      },
      {
        "ProductReference": "cpio-2.13-150400.3.6.1",
        "RelatesToProductReference": "Image SLES15-SP4-SAP-Azure-LI-BYOS",
        "RelationType": "Default Component Of"
      },
      {
        "ProductReference": "cpio-2.13-150400.3.6.1",
        "RelatesToProductReference": "Image SLES15-SP4-SAP-Azure-LI-BYOS-Production",
        "RelationType": "Default Component Of"
      },
      {
        "ProductReference": "cpio-2.13-150400.3.6.1",
        "RelatesToProductReference": "Image SLES15-SP4-SAP-Azure-VLI-BYOS",
        "RelationType": "Default Component Of"
      },
      {
        "ProductReference": "cpio-2.13-150400.3.6.1",
        "RelatesToProductReference": "Image SLES15-SP4-SAP-Azure-VLI-BYOS-Production",
        "RelationType": "Default Component Of"
      },
      {
        "ProductReference": "cpio-2.13-150400.3.6.1",
        "RelatesToProductReference": "Image SLES15-SP4-SAP-BYOS",
        "RelationType": "Default Component Of"
      },
      {
        "ProductReference": "cpio-2.13-150400.3.6.1",
        "RelatesToProductReference": "Image SLES15-SP4-SAP-BYOS-Azure",
        "RelationType": "Default Component Of"
      },
      {
        "ProductReference": "cpio-2.13-150400.3.6.1",
        "RelatesToProductReference": "Image SLES15-SP4-SAP-BYOS-GCE",
        "RelationType": "Default Component Of"
      },
      {
        "ProductReference": "cpio-2.13-150400.3.6.1",
        "RelatesToProductReference": "Image SLES15-SP4-SAP-Hardened",
        "RelationType": "Default Component Of"
      },
      {
        "ProductReference": "cpio-2.13-150400.3.6.1",
        "RelatesToProductReference": "Image SLES15-SP4-SAP-Hardened-Azure",
        "RelationType": "Default Component Of"
      },
      {
        "ProductReference": "cpio-2.13-150400.3.6.1",
        "RelatesToProductReference": "Image SLES15-SP4-SAP-Hardened-BYOS",
        "RelationType": "Default Component Of"
      },
      {
        "ProductReference": "cpio-2.13-150400.3.6.1",
        "RelatesToProductReference": "Image SLES15-SP4-SAP-Hardened-BYOS-Azure",
        "RelationType": "Default Component Of"
      },
      {
        "ProductReference": "cpio-2.13-150400.3.6.1",
        "RelatesToProductReference": "Image SLES15-SP4-SAP-Hardened-BYOS-GCE",
        "RelationType": "Default Component Of"
      },
      {
        "ProductReference": "cpio-2.13-150400.3.6.1",
        "RelatesToProductReference": "Image SLES15-SP4-SAP-Hardened-GCE",
        "RelationType": "Default Component Of"
      },
      {
        "ProductReference": "cpio-2.13-150400.3.6.1",
        "RelatesToProductReference": "Image SLES15-SP4-SAPCAL",
        "RelationType": "Default Component Of"
      },
      {
        "ProductReference": "cpio-2.13-150400.3.6.1",
        "RelatesToProductReference": "Image SLES15-SP4-SAPCAL-Azure",
        "RelationType": "Default Component Of"
      },
      {
        "ProductReference": "cpio-2.13-150400.3.6.1",
        "RelatesToProductReference": "Image SLES15-SP4-SUSE-Rancher-Setup-BYOS",
        "RelationType": "Default Component Of"
      },
      {
        "ProductReference": "cpio-2.13-150400.3.6.1",
        "RelatesToProductReference": "Image SLES15-SP4-SUSE-Rancher-Setup-BYOS-EC2",
        "RelationType": "Default Component Of"
      },
      {
        "ProductReference": "cpio-2.13-150400.3.6.1",
        "RelatesToProductReference": "Image SLES15-SP5-Azure-Basic",
        "RelationType": "Default Component Of"
      },
      {
        "ProductReference": "cpio-2.13-150400.3.6.1",
        "RelatesToProductReference": "Image SLES15-SP5-Azure-Standard",
        "RelationType": "Default Component Of"
      },
      {
        "ProductReference": "cpio-2.13-150400.3.6.1",
        "RelatesToProductReference": "Image SLES15-SP5-BYOS-Azure",
        "RelationType": "Default Component Of"
      },
      {
        "ProductReference": "cpio-2.13-150400.3.6.1",
        "RelatesToProductReference": "Image SLES15-SP5-BYOS-EC2",
        "RelationType": "Default Component Of"
      },
      {
        "ProductReference": "cpio-2.13-150400.3.6.1",
        "RelatesToProductReference": "Image SLES15-SP5-BYOS-GCE",
        "RelationType": "Default Component Of"
      },
      {
        "ProductReference": "cpio-2.13-150400.3.6.1",
        "RelatesToProductReference": "Image SLES15-SP5-CHOST-BYOS-Aliyun",
        "RelationType": "Default Component Of"
      },
      {
        "ProductReference": "cpio-2.13-150400.3.6.1",
        "RelatesToProductReference": "Image SLES15-SP5-CHOST-BYOS-Azure",
        "RelationType": "Default Component Of"
      },
      {
        "ProductReference": "cpio-2.13-150400.3.6.1",
        "RelatesToProductReference": "Image SLES15-SP5-CHOST-BYOS-EC2",
        "RelationType": "Default Component Of"
      },
      {
        "ProductReference": "cpio-2.13-150400.3.6.1",
        "RelatesToProductReference": "Image SLES15-SP5-CHOST-BYOS-GCE",
        "RelationType": "Default Component Of"
      },
      {
        "ProductReference": "cpio-2.13-150400.3.6.1",
        "RelatesToProductReference": "Image SLES15-SP5-CHOST-BYOS-SAP-CCloud",
        "RelationType": "Default Component Of"
      },
      {
        "ProductReference": "cpio-2.13-150400.3.6.1",
        "RelatesToProductReference": "Image SLES15-SP5-EC2",
        "RelationType": "Default Component Of"
      },
      {
        "ProductReference": "cpio-2.13-150400.3.6.1",
        "RelatesToProductReference": "Image SLES15-SP5-GCE",
        "RelationType": "Default Component Of"
      },
      {
        "ProductReference": "cpio-2.13-150400.3.6.1",
        "RelatesToProductReference": "Image SLES15-SP5-HPC-Azure",
        "RelationType": "Default Component Of"
      },
      {
        "ProductReference": "cpio-2.13-150400.3.6.1",
        "RelatesToProductReference": "Image SLES15-SP5-HPC-BYOS-Azure",
        "RelationType": "Default Component Of"
      },
      {
        "ProductReference": "cpio-2.13-150400.3.6.1",
        "RelatesToProductReference": "Image SLES15-SP5-HPC-BYOS-EC2",
        "RelationType": "Default Component Of"
      },
      {
        "ProductReference": "cpio-2.13-150400.3.6.1",
        "RelatesToProductReference": "Image SLES15-SP5-HPC-BYOS-GCE",
        "RelationType": "Default Component Of"
      },
      {
        "ProductReference": "cpio-2.13-150400.3.6.1",
        "RelatesToProductReference": "Image SLES15-SP5-Hardened-BYOS-Azure",
        "RelationType": "Default Component Of"
      },
      {
        "ProductReference": "cpio-2.13-150400.3.6.1",
        "RelatesToProductReference": "Image SLES15-SP5-Hardened-BYOS-EC2",
        "RelationType": "Default Component Of"
      },
      {
        "ProductReference": "cpio-2.13-150400.3.6.1",
        "RelatesToProductReference": "Image SLES15-SP5-Hardened-BYOS-GCE",
        "RelationType": "Default Component Of"
      },
      {
        "ProductReference": "cpio-2.13-150400.3.6.1",
        "RelatesToProductReference": "Image SLES15-SP5-SAP-Azure-LI-BYOS",
        "RelationType": "Default Component Of"
      },
      {
        "ProductReference": "cpio-2.13-150400.3.6.1",
        "RelatesToProductReference": "Image SLES15-SP5-SAP-Azure-LI-BYOS-Production",
        "RelationType": "Default Component Of"
      },
      {
        "ProductReference": "cpio-2.13-150400.3.6.1",
        "RelatesToProductReference": "Image SLES15-SP5-SAP-Azure-VLI-BYOS",
        "RelationType": "Default Component Of"
      },
      {
        "ProductReference": "cpio-2.13-150400.3.6.1",
        "RelatesToProductReference": "Image SLES15-SP5-SAP-Azure-VLI-BYOS-Production",
        "RelationType": "Default Component Of"
      },
      {
        "ProductReference": "cpio-2.13-150400.3.6.1",
        "RelatesToProductReference": "Image SLES15-SP5-SAP-BYOS-Azure",
        "RelationType": "Default Component Of"
      },
      {
        "ProductReference": "cpio-2.13-150400.3.6.1",
        "RelatesToProductReference": "Image SLES15-SP5-SAP-BYOS-EC2",
        "RelationType": "Default Component Of"
      },
      {
        "ProductReference": "cpio-2.13-150400.3.6.1",
        "RelatesToProductReference": "Image SLES15-SP5-SAP-BYOS-GCE",
        "RelationType": "Default Component Of"
      },
      {
        "ProductReference": "cpio-2.13-150400.3.6.1",
        "RelatesToProductReference": "Image SLES15-SP5-SAP-Hardened-Azure",
        "RelationType": "Default Component Of"
      },
      {
        "ProductReference": "cpio-2.13-150400.3.6.1",
        "RelatesToProductReference": "Image SLES15-SP5-SAP-Hardened-BYOS-Azure",
        "RelationType": "Default Component Of"
      },
      {
        "ProductReference": "cpio-2.13-150400.3.6.1",
        "RelatesToProductReference": "Image SLES15-SP5-SAP-Hardened-BYOS-EC2",
        "RelationType": "Default Component Of"
      },
      {
        "ProductReference": "cpio-2.13-150400.3.6.1",
        "RelatesToProductReference": "Image SLES15-SP5-SAP-Hardened-BYOS-GCE",
        "RelationType": "Default Component Of"
      },
      {
        "ProductReference": "cpio-2.13-150400.3.6.1",
        "RelatesToProductReference": "Image SLES15-SP5-SAP-Hardened-GCE",
        "RelationType": "Default Component Of"
      },
      {
        "ProductReference": "cpio-2.13-150400.3.6.1",
        "RelatesToProductReference": "Image SLES15-SP5-SAPCAL-Azure",
        "RelationType": "Default Component Of"
      },
      {
        "ProductReference": "cpio-2.13-150400.3.6.1",
        "RelatesToProductReference": "Image SLES15-SP5-SAPCAL-EC2",
        "RelationType": "Default Component Of"
      },
      {
        "ProductReference": "cpio-2.13-150400.3.6.1",
        "RelatesToProductReference": "Image SLES15-SP5-SAPCAL-GCE",
        "RelationType": "Default Component Of"
      },
      {
        "ProductReference": "cpio-2.13-150400.3.6.1",
        "RelatesToProductReference": "SUSE Linux Enterprise High Performance Computing 15 SP4-ESPOS",
        "RelationType": "Default Component Of"
      },
      {
        "ProductReference": "cpio-lang-2.13-150400.3.6.1",
        "RelatesToProductReference": "SUSE Linux Enterprise High Performance Computing 15 SP4-ESPOS",
        "RelationType": "Default Component Of"
      },
      {
        "ProductReference": "cpio-mt-2.13-150400.3.6.1",
        "RelatesToProductReference": "SUSE Linux Enterprise High Performance Computing 15 SP4-ESPOS",
        "RelationType": "Default Component Of"
      },
      {
        "ProductReference": "cpio-2.13-150400.3.6.1",
        "RelatesToProductReference": "SUSE Linux Enterprise High Performance Computing 15 SP4-LTSS",
        "RelationType": "Default Component Of"
      },
      {
        "ProductReference": "cpio-lang-2.13-150400.3.6.1",
        "RelatesToProductReference": "SUSE Linux Enterprise High Performance Computing 15 SP4-LTSS",
        "RelationType": "Default Component Of"
      },
      {
        "ProductReference": "cpio-mt-2.13-150400.3.6.1",
        "RelatesToProductReference": "SUSE Linux Enterprise High Performance Computing 15 SP4-LTSS",
        "RelationType": "Default Component Of"
      },
      {
        "ProductReference": "cpio-2.13-150400.3.6.1",
        "RelatesToProductReference": "SUSE Linux Enterprise Server 15 SP4-LTSS",
        "RelationType": "Default Component Of"
      },
      {
        "ProductReference": "cpio-lang-2.13-150400.3.6.1",
        "RelatesToProductReference": "SUSE Linux Enterprise Server 15 SP4-LTSS",
        "RelationType": "Default Component Of"
      },
      {
        "ProductReference": "cpio-mt-2.13-150400.3.6.1",
        "RelatesToProductReference": "SUSE Linux Enterprise Server 15 SP4-LTSS",
        "RelationType": "Default Component Of"
      },
      {
        "ProductReference": "cpio-2.13-150400.3.6.1",
        "RelatesToProductReference": "SUSE Linux Enterprise Server for SAP Applications 15 SP4",
        "RelationType": "Default Component Of"
      },
      {
        "ProductReference": "cpio-lang-2.13-150400.3.6.1",
        "RelatesToProductReference": "SUSE Linux Enterprise Server for SAP Applications 15 SP4",
        "RelationType": "Default Component Of"
      },
      {
        "ProductReference": "cpio-mt-2.13-150400.3.6.1",
        "RelatesToProductReference": "SUSE Linux Enterprise Server for SAP Applications 15 SP4",
        "RelationType": "Default Component Of"
      },
      {
        "ProductReference": "cpio-2.13-150400.3.6.1",
        "RelatesToProductReference": "SUSE Manager Proxy 4.3",
        "RelationType": "Default Component Of"
      },
      {
        "ProductReference": "cpio-lang-2.13-150400.3.6.1",
        "RelatesToProductReference": "SUSE Manager Proxy 4.3",
        "RelationType": "Default Component Of"
      },
      {
        "ProductReference": "cpio-mt-2.13-150400.3.6.1",
        "RelatesToProductReference": "SUSE Manager Proxy 4.3",
        "RelationType": "Default Component Of"
      },
      {
        "ProductReference": "cpio-2.13-150400.3.6.1",
        "RelatesToProductReference": "SUSE Manager Server 4.3",
        "RelationType": "Default Component Of"
      },
      {
        "ProductReference": "cpio-lang-2.13-150400.3.6.1",
        "RelatesToProductReference": "SUSE Manager Server 4.3",
        "RelationType": "Default Component Of"
      },
      {
        "ProductReference": "cpio-mt-2.13-150400.3.6.1",
        "RelatesToProductReference": "SUSE Manager Server 4.3",
        "RelationType": "Default Component Of"
      }
    ]
  },
  "References": [
    {
      "URL": "https://www.suse.com/support/update/announcement/2024/suse-su-20240305-2/",
      "Description": "Link for SUSE-SU-2024:0305-2"
    },
    {
      "URL": "https://lists.suse.com/pipermail/sle-updates/2024-May/035243.html",
      "Description": "E-Mail link for SUSE-SU-2024:0305-2"
    },
    {
      "URL": "https://www.suse.com/support/security/rating/",
      "Description": "SUSE Security Ratings"
    },
    {
      "URL": "https://bugzilla.suse.com/1218571",
      "Description": "SUSE Bug 1218571"
    },
    {
      "URL": "https://bugzilla.suse.com/1219238",
      "Description": "SUSE Bug 1219238"
    },
    {
      "URL": "https://www.suse.com/security/cve/CVE-2023-7207/",
      "Description": "SUSE CVE CVE-2023-7207 page"
    }
  ],
  "Vulnerabilities": [
    {
      "CVE": "CVE-2023-7207",
      "Description": "Debian's cpio contains a path traversal vulnerability. This issue was introduced by reverting CVE-2015-1197 patches which had caused a regression in --no-absolute-filenames. Upstream has since provided a proper fix to --no-absolute-filenames.",
      "Threats": [
        {
          "Type": "Impact",
          "Severity": "low"
        }
      ],
      "References": [
        {
          "URL": "https://www.suse.com/security/cve/CVE-2023-7207.html",
          "Description": "CVE-2023-7207"
        },
        {
          "URL": "https://bugzilla.suse.com/1218571",
          "Description": "SUSE Bug 1218571"
        }
      ],
      "ProductStatuses": [
        {
          "Type": "Fixed",
          "ProductID": [
            "Container bci/bci-init:15.6:cpio-2.13-150400.3.6.1",
            "Container bci/bci-init:latest:cpio-2.13-150400.3.6.1",
            "Container bci/bci-sle15-kernel-module-devel:15.6:cpio-2.13-150400.3.6.1",
            "Container bci/bci-sle15-kernel-module-devel:latest:cpio-2.13-150400.3.6.1",
            "Container bci/openjdk-devel:11:cpio-2.13-150400.3.6.1",
            "Container bci/openjdk-devel:21:cpio-2.13-150400.3.6.1",
            "Container bci/openjdk-devel:latest:cpio-2.13-150400.3.6.1",
            "Container rancher/elemental-teal-rt/5.4:latest:cpio-2.13-150400.3.6.1",
            "Container rancher/elemental-teal/5.4:latest:cpio-2.13-150400.3.6.1",
            "Container rancher/seedimage-builder:latest:cpio-2.13-150400.3.6.1",
            "Container suse/hpc/warewulf4-x86_64/sle-hpc-node:latest:cpio-2.13-150400.3.6.1",
            "Container suse/ltss/sle15.4/sle15:15.4:cpio-2.13-150400.3.6.1",
            "Container suse/manager/4.3/proxy-httpd:latest:cpio-2.13-150400.3.6.1",
            "Container suse/manager/4.3/proxy-salt-broker:latest:cpio-2.13-150400.3.6.1",
            "Container suse/manager/5.0/x86_64/proxy-httpd:latest:cpio-2.13-150400.3.6.1",
            "Container suse/manager/5.0/x86_64/proxy-salt-broker:latest:cpio-2.13-150400.3.6.1",
            "Container suse/manager/5.0/x86_64/server-hub-xmlrpc-api:latest:cpio-2.13-150400.3.6.1",
            "Container suse/manager/5.0/x86_64/server:latest:cpio-2.13-150400.3.6.1",
            "Container suse/pcp:latest:cpio-2.13-150400.3.6.1",
            "Container suse/sle-micro-rancher/5.3:latest:cpio-2.13-150400.3.6.1",
            "Container suse/sle-micro-rancher/5.4:latest:cpio-2.13-150400.3.6.1",
            "Container suse/sle-micro/5.3/toolbox:latest:cpio-2.13-150400.3.6.1",
            "Container suse/sle-micro/5.4/toolbox:latest:cpio-2.13-150400.3.6.1",
            "Container suse/sle-micro/5.5/toolbox:latest:cpio-2.13-150400.3.6.1",
            "Container suse/sle-micro/5.5:latest:cpio-2.13-150400.3.6.1",
            "Container suse/sle-micro/base-5.5:latest:cpio-2.13-150400.3.6.1",
            "Container suse/sle-micro/kvm-5.5:latest:cpio-2.13-150400.3.6.1",
            "Container suse/sle-micro/rt-5.5:latest:cpio-2.13-150400.3.6.1",
            "Container suse/sle15:15.5:cpio-2.13-150400.3.6.1",
            "Container suse/sle15:15.6:cpio-2.13-150400.3.6.1",
            "Container suse/sles/15.6/libguestfs-tools:1.1.1:cpio-2.13-150400.3.6.1",
            "Container suse/sles/15.6/virt-handler:1.1.1:cpio-2.13-150400.3.6.1",
            "Container suse/sles/15.6/virt-launcher:1.1.1:cpio-2.13-150400.3.6.1",
            "Image SLES15-SP4-BYOS-Azure:cpio-2.13-150400.3.6.1",
            "Image SLES15-SP4-BYOS-EC2:cpio-2.13-150400.3.6.1",
            "Image SLES15-SP4-BYOS-GCE:cpio-2.13-150400.3.6.1",
            "Image SLES15-SP4-BYOS:cpio-2.13-150400.3.6.1",
            "Image SLES15-SP4-CHOST-BYOS-Aliyun:cpio-2.13-150400.3.6.1",
            "Image SLES15-SP4-CHOST-BYOS-Azure:cpio-2.13-150400.3.6.1",
            "Image SLES15-SP4-CHOST-BYOS-EC2:cpio-2.13-150400.3.6.1",
            "Image SLES15-SP4-CHOST-BYOS-GCE:cpio-2.13-150400.3.6.1",
            "Image SLES15-SP4-CHOST-BYOS-SAP-CCloud:cpio-2.13-150400.3.6.1",
            "Image SLES15-SP4-CHOST-BYOS:cpio-2.13-150400.3.6.1",
            "Image SLES15-SP4-HPC-BYOS-Azure:cpio-2.13-150400.3.6.1",
            "Image SLES15-SP4-HPC-BYOS:cpio-2.13-150400.3.6.1",
            "Image SLES15-SP4-Hardened-BYOS-Azure:cpio-2.13-150400.3.6.1",
            "Image SLES15-SP4-Hardened-BYOS-EC2:cpio-2.13-150400.3.6.1",
            "Image SLES15-SP4-Hardened-BYOS-GCE:cpio-2.13-150400.3.6.1",
            "Image SLES15-SP4-Hardened-BYOS:cpio-2.13-150400.3.6.1",
            "Image SLES15-SP4-Manager-Proxy-4-3-BYOS-Azure:cpio-2.13-150400.3.6.1",
            "Image SLES15-SP4-Manager-Proxy-4-3-BYOS-EC2:cpio-2.13-150400.3.6.1",
            "Image SLES15-SP4-Manager-Proxy-4-3-BYOS-GCE:cpio-2.13-150400.3.6.1",
            "Image SLES15-SP4-Manager-Proxy-4-3-BYOS:cpio-2.13-150400.3.6.1",
            "Image SLES15-SP4-Manager-Server-4-3-Azure-llc:cpio-2.13-150400.3.6.1",
            "Image SLES15-SP4-Manager-Server-4-3-Azure-ltd:cpio-2.13-150400.3.6.1",
            "Image SLES15-SP4-Manager-Server-4-3-BYOS-Azure:cpio-2.13-150400.3.6.1",
            "Image SLES15-SP4-Manager-Server-4-3-BYOS-EC2:cpio-2.13-150400.3.6.1",
            "Image SLES15-SP4-Manager-Server-4-3-BYOS-GCE:cpio-2.13-150400.3.6.1",
            "Image SLES15-SP4-Manager-Server-4-3-BYOS:cpio-2.13-150400.3.6.1",
            "Image SLES15-SP4-Manager-Server-4-3-EC2-llc:cpio-2.13-150400.3.6.1",
            "Image SLES15-SP4-Manager-Server-4-3-EC2-ltd:cpio-2.13-150400.3.6.1",
            "Image SLES15-SP4-Manager-Server-4-3:cpio-2.13-150400.3.6.1",
            "Image SLES15-SP4-Micro-5-3-EC2:cpio-2.13-150400.3.6.1",
            "Image SLES15-SP4-Micro-5-3:cpio-2.13-150400.3.6.1",
            "Image SLES15-SP4-Micro-5-4-BYOS-EC2:cpio-2.13-150400.3.6.1",
            "Image SLES15-SP4-Micro-5-4-BYOS-GCE:cpio-2.13-150400.3.6.1",
            "Image SLES15-SP4-Micro-5-4-BYOS:cpio-2.13-150400.3.6.1",
            "Image SLES15-SP4-Micro-5-4-EC2:cpio-2.13-150400.3.6.1",
            "Image SLES15-SP4-Micro-5-4-GCE:cpio-2.13-150400.3.6.1",
            "Image SLES15-SP4-Micro-5-4:cpio-2.13-150400.3.6.1",
            "Image SLES15-SP4-SAP-Azure-LI-BYOS-Production:cpio-2.13-150400.3.6.1",
            "Image SLES15-SP4-SAP-Azure-LI-BYOS:cpio-2.13-150400.3.6.1",
            "Image SLES15-SP4-SAP-Azure-VLI-BYOS-Production:cpio-2.13-150400.3.6.1",
            "Image SLES15-SP4-SAP-Azure-VLI-BYOS:cpio-2.13-150400.3.6.1",
            "Image SLES15-SP4-SAP-Azure:cpio-2.13-150400.3.6.1",
            "Image SLES15-SP4-SAP-BYOS-Azure:cpio-2.13-150400.3.6.1",
            "Image SLES15-SP4-SAP-BYOS-GCE:cpio-2.13-150400.3.6.1",
            "Image SLES15-SP4-SAP-BYOS:cpio-2.13-150400.3.6.1",
            "Image SLES15-SP4-SAP-Hardened-Azure:cpio-2.13-150400.3.6.1",
            "Image SLES15-SP4-SAP-Hardened-BYOS-Azure:cpio-2.13-150400.3.6.1",
            "Image SLES15-SP4-SAP-Hardened-BYOS-GCE:cpio-2.13-150400.3.6.1",
            "Image SLES15-SP4-SAP-Hardened-BYOS:cpio-2.13-150400.3.6.1",
            "Image SLES15-SP4-SAP-Hardened-GCE:cpio-2.13-150400.3.6.1",
            "Image SLES15-SP4-SAP-Hardened:cpio-2.13-150400.3.6.1",
            "Image SLES15-SP4-SAP:cpio-2.13-150400.3.6.1",
            "Image SLES15-SP4-SAPCAL-Azure:cpio-2.13-150400.3.6.1",
            "Image SLES15-SP4-SAPCAL:cpio-2.13-150400.3.6.1",
            "Image SLES15-SP4-SUSE-Rancher-Setup-BYOS-EC2:cpio-2.13-150400.3.6.1",
            "Image SLES15-SP4-SUSE-Rancher-Setup-BYOS:cpio-2.13-150400.3.6.1",
            "Image SLES15-SP5-Azure-Basic:cpio-2.13-150400.3.6.1",
            "Image SLES15-SP5-Azure-Standard:cpio-2.13-150400.3.6.1",
            "Image SLES15-SP5-BYOS-Azure:cpio-2.13-150400.3.6.1",
            "Image SLES15-SP5-BYOS-EC2:cpio-2.13-150400.3.6.1",
            "Image SLES15-SP5-BYOS-GCE:cpio-2.13-150400.3.6.1",
            "Image SLES15-SP5-CHOST-BYOS-Aliyun:cpio-2.13-150400.3.6.1",
            "Image SLES15-SP5-CHOST-BYOS-Azure:cpio-2.13-150400.3.6.1",
            "Image SLES15-SP5-CHOST-BYOS-EC2:cpio-2.13-150400.3.6.1",
            "Image SLES15-SP5-CHOST-BYOS-GCE:cpio-2.13-150400.3.6.1",
            "Image SLES15-SP5-CHOST-BYOS-SAP-CCloud:cpio-2.13-150400.3.6.1",
            "Image SLES15-SP5-EC2:cpio-2.13-150400.3.6.1",
            "Image SLES15-SP5-GCE:cpio-2.13-150400.3.6.1",
            "Image SLES15-SP5-HPC-Azure:cpio-2.13-150400.3.6.1",
            "Image SLES15-SP5-HPC-BYOS-Azure:cpio-2.13-150400.3.6.1",
            "Image SLES15-SP5-HPC-BYOS-EC2:cpio-2.13-150400.3.6.1",
            "Image SLES15-SP5-HPC-BYOS-GCE:cpio-2.13-150400.3.6.1",
            "Image SLES15-SP5-Hardened-BYOS-Azure:cpio-2.13-150400.3.6.1",
            "Image SLES15-SP5-Hardened-BYOS-EC2:cpio-2.13-150400.3.6.1",
            "Image SLES15-SP5-Hardened-BYOS-GCE:cpio-2.13-150400.3.6.1",
            "Image SLES15-SP5-SAP-Azure-LI-BYOS-Production:cpio-2.13-150400.3.6.1",
            "Image SLES15-SP5-SAP-Azure-LI-BYOS:cpio-2.13-150400.3.6.1",
            "Image SLES15-SP5-SAP-Azure-VLI-BYOS-Production:cpio-2.13-150400.3.6.1",
            "Image SLES15-SP5-SAP-Azure-VLI-BYOS:cpio-2.13-150400.3.6.1",
            "Image SLES15-SP5-SAP-BYOS-Azure:cpio-2.13-150400.3.6.1",
            "Image SLES15-SP5-SAP-BYOS-EC2:cpio-2.13-150400.3.6.1",
            "Image SLES15-SP5-SAP-BYOS-GCE:cpio-2.13-150400.3.6.1",
            "Image SLES15-SP5-SAP-Hardened-Azure:cpio-2.13-150400.3.6.1",
            "Image SLES15-SP5-SAP-Hardened-BYOS-Azure:cpio-2.13-150400.3.6.1",
            "Image SLES15-SP5-SAP-Hardened-BYOS-EC2:cpio-2.13-150400.3.6.1",
            "Image SLES15-SP5-SAP-Hardened-BYOS-GCE:cpio-2.13-150400.3.6.1",
            "Image SLES15-SP5-SAP-Hardened-GCE:cpio-2.13-150400.3.6.1",
            "Image SLES15-SP5-SAPCAL-Azure:cpio-2.13-150400.3.6.1",
            "Image SLES15-SP5-SAPCAL-EC2:cpio-2.13-150400.3.6.1",
            "Image SLES15-SP5-SAPCAL-GCE:cpio-2.13-150400.3.6.1",
            "SUSE Linux Enterprise High Performance Computing 15 SP4-ESPOS:cpio-2.13-150400.3.6.1",
            "SUSE Linux Enterprise High Performance Computing 15 SP4-ESPOS:cpio-lang-2.13-150400.3.6.1",
            "SUSE Linux Enterprise High Performance Computing 15 SP4-ESPOS:cpio-mt-2.13-150400.3.6.1",
            "SUSE Linux Enterprise High Performance Computing 15 SP4-LTSS:cpio-2.13-150400.3.6.1",
            "SUSE Linux Enterprise High Performance Computing 15 SP4-LTSS:cpio-lang-2.13-150400.3.6.1",
            "SUSE Linux Enterprise High Performance Computing 15 SP4-LTSS:cpio-mt-2.13-150400.3.6.1",
            "SUSE Linux Enterprise Server 15 SP4-LTSS:cpio-2.13-150400.3.6.1",
            "SUSE Linux Enterprise Server 15 SP4-LTSS:cpio-lang-2.13-150400.3.6.1",
            "SUSE Linux Enterprise Server 15 SP4-LTSS:cpio-mt-2.13-150400.3.6.1",
            "SUSE Linux Enterprise Server for SAP Applications 15 SP4:cpio-2.13-150400.3.6.1",
            "SUSE Linux Enterprise Server for SAP Applications 15 SP4:cpio-lang-2.13-150400.3.6.1",
            "SUSE Linux Enterprise Server for SAP Applications 15 SP4:cpio-mt-2.13-150400.3.6.1",
            "SUSE Manager Proxy 4.3:cpio-2.13-150400.3.6.1",
            "SUSE Manager Proxy 4.3:cpio-lang-2.13-150400.3.6.1",
            "SUSE Manager Proxy 4.3:cpio-mt-2.13-150400.3.6.1",
            "SUSE Manager Server 4.3:cpio-2.13-150400.3.6.1",
            "SUSE Manager Server 4.3:cpio-lang-2.13-150400.3.6.1",
            "SUSE Manager Server 4.3:cpio-mt-2.13-150400.3.6.1"
          ]
        }
      ],
      "CVSSScoreSets": {}
    }
  ]
}