{
  "Title": "Feature update for python-M2Crypto",
  "Tracking": {
    "ID": "SUSE-FU-2024:1448-1",
    "Status": "Final",
    "Version": "1",
    "InitialReleaseDate": "2024-04-26T09:45:59Z",
    "CurrentReleaseDate": "2024-04-26T09:45:59Z",
    "RevisionHistory": [
      {
        "Number": "1",
        "Date": "2024-04-26T09:45:59Z",
        "Description": "current"
      }
    ]
  },
  "Notes": [
    {
      "Text": "Feature update for python-M2Crypto",
      "Title": "Topic",
      "Type": "Summary"
    },
    {
      "Text": "This update for python-M2Crypto fixes the following issue:\n\n- Build for modern python stack\n- Adds python311-M2Crypto\n",
      "Title": "Details",
      "Type": "General"
    },
    {
      "Text": "The CVRF data is provided by SUSE under the Creative Commons License 4.0 with Attribution (CC-BY-4.0).",
      "Title": "Terms of Use",
      "Type": "Legal Disclaimer"
    },
    {
      "Text": "SUSE-2024-1448,SUSE-SLE-Module-Python3-15-SP5-2024-1448,SUSE-SLE-Product-HPC-15-SP4-ESPOS-2024-1448,SUSE-SLE-Product-HPC-15-SP4-LTSS-2024-1448,SUSE-SLE-Product-SLED-15-SP4-LTSS-2024-1448,SUSE-SLE-Product-SLES-15-SP4-LTSS-2024-1448,SUSE-SLE-Product-SLES_SAP-15-SP4-2024-1448,openSUSE-SLE-15.5-2024-1448",
      "Title": "Patchnames",
      "Type": "Details"
    }
  ],
  "ProductTree": {
    "Relationships": [
      {
        "ProductReference": "python-M2Crypto-doc-0.40.0-150400.3.9.1",
        "RelatesToProductReference": "SUSE Linux Enterprise High Performance Computing 15 SP4-ESPOS",
        "RelationType": "Default Component Of"
      },
      {
        "ProductReference": "python311-M2Crypto-0.40.0-150400.3.9.1",
        "RelatesToProductReference": "SUSE Linux Enterprise High Performance Computing 15 SP4-ESPOS",
        "RelationType": "Default Component Of"
      },
      {
        "ProductReference": "python-M2Crypto-doc-0.40.0-150400.3.9.1",
        "RelatesToProductReference": "SUSE Linux Enterprise High Performance Computing 15 SP4-LTSS",
        "RelationType": "Default Component Of"
      },
      {
        "ProductReference": "python311-M2Crypto-0.40.0-150400.3.9.1",
        "RelatesToProductReference": "SUSE Linux Enterprise High Performance Computing 15 SP4-LTSS",
        "RelationType": "Default Component Of"
      },
      {
        "ProductReference": "python-M2Crypto-doc-0.40.0-150400.3.9.1",
        "RelatesToProductReference": "SUSE Linux Enterprise Module for Python 3 15 SP5",
        "RelationType": "Default Component Of"
      },
      {
        "ProductReference": "python311-M2Crypto-0.40.0-150400.3.9.1",
        "RelatesToProductReference": "SUSE Linux Enterprise Module for Python 3 15 SP5",
        "RelationType": "Default Component Of"
      },
      {
        "ProductReference": "python-M2Crypto-doc-0.40.0-150400.3.9.1",
        "RelatesToProductReference": "SUSE Linux Enterprise Server 15 SP4-LTSS",
        "RelationType": "Default Component Of"
      },
      {
        "ProductReference": "python311-M2Crypto-0.40.0-150400.3.9.1",
        "RelatesToProductReference": "SUSE Linux Enterprise Server 15 SP4-LTSS",
        "RelationType": "Default Component Of"
      },
      {
        "ProductReference": "python-M2Crypto-doc-0.40.0-150400.3.9.1",
        "RelatesToProductReference": "SUSE Linux Enterprise Server for SAP Applications 15 SP4",
        "RelationType": "Default Component Of"
      },
      {
        "ProductReference": "python311-M2Crypto-0.40.0-150400.3.9.1",
        "RelatesToProductReference": "SUSE Linux Enterprise Server for SAP Applications 15 SP4",
        "RelationType": "Default Component Of"
      },
      {
        "ProductReference": "python-M2Crypto-doc-0.40.0-150400.3.9.1",
        "RelatesToProductReference": "openSUSE Leap 15.5",
        "RelationType": "Default Component Of"
      },
      {
        "ProductReference": "python311-M2Crypto-0.40.0-150400.3.9.1",
        "RelatesToProductReference": "openSUSE Leap 15.5",
        "RelationType": "Default Component Of"
      }
    ]
  },
  "References": [
    {
      "URL": "https://www.suse.com/support/update/announcement/-2024-1448/suse-fu-20241448-1/",
      "Description": "Link for SUSE-FU-2024:1448-1"
    },
    {
      "URL": "https://lists.suse.com/pipermail/sle-updates/2024-April/035107.html",
      "Description": "E-Mail link for SUSE-FU-2024:1448-1"
    },
    {
      "URL": "https://www.suse.com/support/security/rating/",
      "Description": "SUSE Security Ratings"
    },
    {
      "URL": "https://bugzilla.suse.com/1205042",
      "Description": "SUSE Bug 1205042"
    },
    {
      "URL": "https://bugzilla.suse.com/1212757",
      "Description": "SUSE Bug 1212757"
    },
    {
      "URL": "https://bugzilla.suse.com/1217782",
      "Description": "SUSE Bug 1217782"
    },
    {
      "URL": "https://www.suse.com/security/cve/CVE-2020-25657/",
      "Description": "SUSE CVE CVE-2020-25657 page"
    }
  ],
  "Vulnerabilities": [
    {
      "CVE": "CVE-2020-25657",
      "Description": "A flaw was found in all released versions of m2crypto, where they are vulnerable to Bleichenbacher timing attacks in the RSA decryption API via the timed processing of valid PKCS#1 v1.5 Ciphertext. The highest threat from this vulnerability is to confidentiality.",
      "Threats": [
        {
          "Type": "Impact",
          "Severity": "low"
        }
      ],
      "References": [
        {
          "URL": "https://www.suse.com/security/cve/CVE-2020-25657.html",
          "Description": "CVE-2020-25657"
        },
        {
          "URL": "https://bugzilla.suse.com/1178829",
          "Description": "SUSE Bug 1178829"
        },
        {
          "URL": "https://bugzilla.suse.com/1218044",
          "Description": "SUSE Bug 1218044"
        }
      ],
      "ProductStatuses": [
        {
          "Type": "Fixed",
          "ProductID": [
            "SUSE Linux Enterprise High Performance Computing 15 SP4-ESPOS:python-M2Crypto-doc-0.40.0-150400.3.9.1",
            "SUSE Linux Enterprise High Performance Computing 15 SP4-ESPOS:python311-M2Crypto-0.40.0-150400.3.9.1",
            "SUSE Linux Enterprise High Performance Computing 15 SP4-LTSS:python-M2Crypto-doc-0.40.0-150400.3.9.1",
            "SUSE Linux Enterprise High Performance Computing 15 SP4-LTSS:python311-M2Crypto-0.40.0-150400.3.9.1",
            "SUSE Linux Enterprise Module for Python 3 15 SP5:python-M2Crypto-doc-0.40.0-150400.3.9.1",
            "SUSE Linux Enterprise Module for Python 3 15 SP5:python311-M2Crypto-0.40.0-150400.3.9.1",
            "SUSE Linux Enterprise Server 15 SP4-LTSS:python-M2Crypto-doc-0.40.0-150400.3.9.1",
            "SUSE Linux Enterprise Server 15 SP4-LTSS:python311-M2Crypto-0.40.0-150400.3.9.1",
            "SUSE Linux Enterprise Server for SAP Applications 15 SP4:python-M2Crypto-doc-0.40.0-150400.3.9.1",
            "SUSE Linux Enterprise Server for SAP Applications 15 SP4:python311-M2Crypto-0.40.0-150400.3.9.1",
            "openSUSE Leap 15.5:python-M2Crypto-doc-0.40.0-150400.3.9.1",
            "openSUSE Leap 15.5:python311-M2Crypto-0.40.0-150400.3.9.1"
          ]
        }
      ],
      "CVSSScoreSets": {}
    }
  ]
}