{
  "Title": "Security update for curl",
  "Tracking": {
    "ID": "SUSE-SU-2024:1151-2",
    "Status": "Final",
    "Version": "1",
    "InitialReleaseDate": "2024-05-06T15:40:42Z",
    "CurrentReleaseDate": "2024-05-06T15:40:42Z",
    "RevisionHistory": [
      {
        "Number": "1",
        "Date": "2024-05-06T15:40:42Z",
        "Description": "current"
      }
    ]
  },
  "Notes": [
    {
      "Text": "Security update for curl",
      "Title": "Topic",
      "Type": "Summary"
    },
    {
      "Text": "This update for curl fixes the following issues:\n\n- CVE-2024-2004: Fix the uUsage of disabled protocol logic. (bsc#1221665)\n- CVE-2024-2398: Fix HTTP/2 push headers memory-leak. (bsc#1221667)\n",
      "Title": "Details",
      "Type": "General"
    },
    {
      "Text": "The CVRF data is provided by SUSE under the Creative Commons License 4.0 with Attribution (CC-BY-4.0).",
      "Title": "Terms of Use",
      "Type": "Legal Disclaimer"
    },
    {
      "Text": "Container bci/golang:1.20-openssl-2024-1151,Container bci/golang:1.21-2024-1151,Container bci/golang:latest-2024-1151,Container bci/node:18-2024-1151,Container bci/nodejs:latest-2024-1151,Container bci/openjdk-devel:11-2024-1151,Container bci/openjdk-devel:latest-2024-1151,Container bci/php-apache:latest-2024-1151,Container bci/php-fpm:latest-2024-1151,Container bci/php:latest-2024-1151,Container bci/python:3-2024-1151,Container bci/python:latest-2024-1151,Container bci/ruby:latest-2024-1151,Container bci/rust:1.77-2024-1151,Container bci/rust:latest-2024-1151,Container rancher/elemental-teal-rt/5.4:latest-2024-1151,Container rancher/elemental-teal/5.4:latest-2024-1151,Container rancher/seedimage-builder:latest-2024-1151,Container suse/git:latest-2024-1151,Container suse/ltss/sle15.4/sle15:15.4-2024-1151,Container suse/manager/4.3/proxy-httpd:latest-2024-1151,Container suse/manager/4.3/proxy-salt-broker:latest-2024-1151,Container suse/sle-micro-rancher/5.3:latest-2024-1151,Container suse/sle-micro-rancher/5.4:latest-2024-1151,Container suse/sle-micro/5.3/toolbox:latest-2024-1151,Container suse/sle-micro/5.4/toolbox:latest-2024-1151,Container suse/sle-micro/5.5/toolbox:latest-2024-1151,Container suse/sle-micro/5.5:latest-2024-1151,Container suse/sle-micro/base-5.5:latest-2024-1151,Container suse/sle-micro/kvm-5.5:latest-2024-1151,Container suse/sle-micro/rt-5.5:latest-2024-1151,Container suse/sle15:15.5-2024-1151,Image SLES15-SP4-CHOST-BYOS-2024-1151,Image SLES15-SP4-CHOST-BYOS-Aliyun-2024-1151,Image SLES15-SP4-CHOST-BYOS-Azure-2024-1151,Image SLES15-SP4-CHOST-BYOS-EC2-2024-1151,Image SLES15-SP4-CHOST-BYOS-GCE-2024-1151,Image SLES15-SP4-CHOST-BYOS-SAP-CCloud-2024-1151,Image SLES15-SP4-Manager-Proxy-4-3-BYOS-2024-1151,Image SLES15-SP4-Manager-Proxy-4-3-BYOS-Azure-2024-1151,Image SLES15-SP4-Manager-Proxy-4-3-BYOS-EC2-2024-1151,Image SLES15-SP4-Manager-Proxy-4-3-BYOS-GCE-2024-1151,Image SLES15-SP4-Manager-Server-4-3-2024-1151,Image SLES15-SP4-Manager-Server-4-3-Azure-llc-2024-1151,Image SLES15-SP4-Manager-Server-4-3-Azure-ltd-2024-1151,Image SLES15-SP4-Manager-Server-4-3-BYOS-2024-1151,Image SLES15-SP4-Manager-Server-4-3-BYOS-Azure-2024-1151,Image SLES15-SP4-Manager-Server-4-3-BYOS-EC2-2024-1151,Image SLES15-SP4-Manager-Server-4-3-BYOS-GCE-2024-1151,Image SLES15-SP4-Manager-Server-4-3-EC2-llc-2024-1151,Image SLES15-SP4-Manager-Server-4-3-EC2-ltd-2024-1151,Image SLES15-SP4-Micro-5-4-BYOS-2024-1151,Image SLES15-SP4-Micro-5-4-BYOS-EC2-2024-1151,Image SLES15-SP4-Micro-5-4-BYOS-GCE-2024-1151,Image SLES15-SP4-Micro-5-4-GCE-2024-1151,Image SLES15-SP4-SAP-Azure-LI-BYOS-2024-1151,Image SLES15-SP4-SAP-Azure-LI-BYOS-Production-2024-1151,Image SLES15-SP4-SAP-Azure-VLI-BYOS-2024-1151,Image SLES15-SP4-SAP-Azure-VLI-BYOS-Production-2024-1151,Image SLES15-SP5-Azure-Basic-2024-1151,Image SLES15-SP5-Azure-Standard-2024-1151,Image SLES15-SP5-BYOS-Azure-2024-1151,Image SLES15-SP5-BYOS-EC2-2024-1151,Image SLES15-SP5-BYOS-GCE-2024-1151,Image SLES15-SP5-CHOST-BYOS-Aliyun-2024-1151,Image SLES15-SP5-CHOST-BYOS-Azure-2024-1151,Image SLES15-SP5-CHOST-BYOS-EC2-2024-1151,Image SLES15-SP5-CHOST-BYOS-GCE-2024-1151,Image SLES15-SP5-CHOST-BYOS-SAP-CCloud-2024-1151,Image SLES15-SP5-EC2-2024-1151,Image SLES15-SP5-GCE-2024-1151,Image SLES15-SP5-HPC-Azure-2024-1151,Image SLES15-SP5-HPC-BYOS-Azure-2024-1151,Image SLES15-SP5-HPC-BYOS-EC2-2024-1151,Image SLES15-SP5-HPC-BYOS-GCE-2024-1151,Image SLES15-SP5-Hardened-BYOS-Azure-2024-1151,Image SLES15-SP5-Hardened-BYOS-EC2-2024-1151,Image SLES15-SP5-Hardened-BYOS-GCE-2024-1151,Image SLES15-SP5-SAP-BYOS-Azure-2024-1151,Image SLES15-SP5-SAP-BYOS-EC2-2024-1151,Image SLES15-SP5-SAP-BYOS-GCE-2024-1151,Image SLES15-SP5-SAP-Hardened-Azure-2024-1151,Image SLES15-SP5-SAP-Hardened-BYOS-Azure-2024-1151,Image SLES15-SP5-SAP-Hardened-BYOS-EC2-2024-1151,Image SLES15-SP5-SAP-Hardened-BYOS-GCE-2024-1151,Image SLES15-SP5-SAP-Hardened-GCE-2024-1151,Image SLES15-SP5-SAPCAL-Azure-2024-1151,Image SLES15-SP5-SAPCAL-EC2-2024-1151,Image SLES15-SP5-SAPCAL-GCE-2024-1151,SUSE-2024-1151,SUSE-SLE-Product-HPC-15-SP4-ESPOS-2024-1151,SUSE-SLE-Product-HPC-15-SP4-LTSS-2024-1151,SUSE-SLE-Product-SLED-15-SP4-LTSS-2024-1151,SUSE-SLE-Product-SLES-15-SP4-LTSS-2024-1151,SUSE-SLE-Product-SLES_SAP-15-SP4-2024-1151,SUSE-SLE-Product-SUSE-Manager-Proxy-4.3-2024-1151,SUSE-SLE-Product-SUSE-Manager-Server-4.3-2024-1151",
      "Title": "Patchnames",
      "Type": "Details"
    }
  ],
  "ProductTree": {
    "Relationships": [
      {
        "ProductReference": "libcurl4-8.0.1-150400.5.44.1",
        "RelatesToProductReference": "Container bci/golang:1.20-openssl",
        "RelationType": "Default Component Of"
      },
      {
        "ProductReference": "libcurl4-8.0.1-150400.5.44.1",
        "RelatesToProductReference": "Container bci/golang:1.21",
        "RelationType": "Default Component Of"
      },
      {
        "ProductReference": "libcurl4-8.0.1-150400.5.44.1",
        "RelatesToProductReference": "Container bci/golang:latest",
        "RelationType": "Default Component Of"
      },
      {
        "ProductReference": "libcurl4-8.0.1-150400.5.44.1",
        "RelatesToProductReference": "Container bci/node:18",
        "RelationType": "Default Component Of"
      },
      {
        "ProductReference": "libcurl4-8.0.1-150400.5.44.1",
        "RelatesToProductReference": "Container bci/nodejs:latest",
        "RelationType": "Default Component Of"
      },
      {
        "ProductReference": "libcurl4-8.0.1-150400.5.44.1",
        "RelatesToProductReference": "Container bci/openjdk-devel:11",
        "RelationType": "Default Component Of"
      },
      {
        "ProductReference": "libcurl4-8.0.1-150400.5.44.1",
        "RelatesToProductReference": "Container bci/openjdk-devel:latest",
        "RelationType": "Default Component Of"
      },
      {
        "ProductReference": "libcurl4-8.0.1-150400.5.44.1",
        "RelatesToProductReference": "Container bci/php-apache:latest",
        "RelationType": "Default Component Of"
      },
      {
        "ProductReference": "libcurl4-8.0.1-150400.5.44.1",
        "RelatesToProductReference": "Container bci/php-fpm:latest",
        "RelationType": "Default Component Of"
      },
      {
        "ProductReference": "libcurl4-8.0.1-150400.5.44.1",
        "RelatesToProductReference": "Container bci/php:latest",
        "RelationType": "Default Component Of"
      },
      {
        "ProductReference": "curl-8.0.1-150400.5.44.1",
        "RelatesToProductReference": "Container bci/python:3",
        "RelationType": "Default Component Of"
      },
      {
        "ProductReference": "libcurl4-8.0.1-150400.5.44.1",
        "RelatesToProductReference": "Container bci/python:3",
        "RelationType": "Default Component Of"
      },
      {
        "ProductReference": "curl-8.0.1-150400.5.44.1",
        "RelatesToProductReference": "Container bci/python:latest",
        "RelationType": "Default Component Of"
      },
      {
        "ProductReference": "libcurl4-8.0.1-150400.5.44.1",
        "RelatesToProductReference": "Container bci/python:latest",
        "RelationType": "Default Component Of"
      },
      {
        "ProductReference": "curl-8.0.1-150400.5.44.1",
        "RelatesToProductReference": "Container bci/ruby:latest",
        "RelationType": "Default Component Of"
      },
      {
        "ProductReference": "libcurl4-8.0.1-150400.5.44.1",
        "RelatesToProductReference": "Container bci/ruby:latest",
        "RelationType": "Default Component Of"
      },
      {
        "ProductReference": "libcurl4-8.0.1-150400.5.44.1",
        "RelatesToProductReference": "Container bci/rust:1.77",
        "RelationType": "Default Component Of"
      },
      {
        "ProductReference": "libcurl4-8.0.1-150400.5.44.1",
        "RelatesToProductReference": "Container bci/rust:latest",
        "RelationType": "Default Component Of"
      },
      {
        "ProductReference": "libcurl4-8.0.1-150400.5.44.1",
        "RelatesToProductReference": "Container rancher/elemental-teal-rt/5.4:latest",
        "RelationType": "Default Component Of"
      },
      {
        "ProductReference": "libcurl4-8.0.1-150400.5.44.1",
        "RelatesToProductReference": "Container rancher/elemental-teal/5.4:latest",
        "RelationType": "Default Component Of"
      },
      {
        "ProductReference": "curl-8.0.1-150400.5.44.1",
        "RelatesToProductReference": "Container rancher/seedimage-builder:latest",
        "RelationType": "Default Component Of"
      },
      {
        "ProductReference": "libcurl4-8.0.1-150400.5.44.1",
        "RelatesToProductReference": "Container rancher/seedimage-builder:latest",
        "RelationType": "Default Component Of"
      },
      {
        "ProductReference": "libcurl4-8.0.1-150400.5.44.1",
        "RelatesToProductReference": "Container suse/git:latest",
        "RelationType": "Default Component Of"
      },
      {
        "ProductReference": "curl-8.0.1-150400.5.44.1",
        "RelatesToProductReference": "Container suse/ltss/sle15.4/sle15:15.4",
        "RelationType": "Default Component Of"
      },
      {
        "ProductReference": "libcurl4-8.0.1-150400.5.44.1",
        "RelatesToProductReference": "Container suse/ltss/sle15.4/sle15:15.4",
        "RelationType": "Default Component Of"
      },
      {
        "ProductReference": "curl-8.0.1-150400.5.44.1",
        "RelatesToProductReference": "Container suse/manager/4.3/proxy-httpd:latest",
        "RelationType": "Default Component Of"
      },
      {
        "ProductReference": "libcurl4-8.0.1-150400.5.44.1",
        "RelatesToProductReference": "Container suse/manager/4.3/proxy-httpd:latest",
        "RelationType": "Default Component Of"
      },
      {
        "ProductReference": "curl-8.0.1-150400.5.44.1",
        "RelatesToProductReference": "Container suse/manager/4.3/proxy-salt-broker:latest",
        "RelationType": "Default Component Of"
      },
      {
        "ProductReference": "libcurl4-8.0.1-150400.5.44.1",
        "RelatesToProductReference": "Container suse/manager/4.3/proxy-salt-broker:latest",
        "RelationType": "Default Component Of"
      },
      {
        "ProductReference": "curl-8.0.1-150400.5.44.1",
        "RelatesToProductReference": "Container suse/sle-micro-rancher/5.3:latest",
        "RelationType": "Default Component Of"
      },
      {
        "ProductReference": "libcurl4-8.0.1-150400.5.44.1",
        "RelatesToProductReference": "Container suse/sle-micro-rancher/5.3:latest",
        "RelationType": "Default Component Of"
      },
      {
        "ProductReference": "curl-8.0.1-150400.5.44.1",
        "RelatesToProductReference": "Container suse/sle-micro-rancher/5.4:latest",
        "RelationType": "Default Component Of"
      },
      {
        "ProductReference": "libcurl4-8.0.1-150400.5.44.1",
        "RelatesToProductReference": "Container suse/sle-micro-rancher/5.4:latest",
        "RelationType": "Default Component Of"
      },
      {
        "ProductReference": "curl-8.0.1-150400.5.44.1",
        "RelatesToProductReference": "Container suse/sle-micro/5.3/toolbox:latest",
        "RelationType": "Default Component Of"
      },
      {
        "ProductReference": "libcurl4-8.0.1-150400.5.44.1",
        "RelatesToProductReference": "Container suse/sle-micro/5.3/toolbox:latest",
        "RelationType": "Default Component Of"
      },
      {
        "ProductReference": "curl-8.0.1-150400.5.44.1",
        "RelatesToProductReference": "Container suse/sle-micro/5.4/toolbox:latest",
        "RelationType": "Default Component Of"
      },
      {
        "ProductReference": "libcurl4-8.0.1-150400.5.44.1",
        "RelatesToProductReference": "Container suse/sle-micro/5.4/toolbox:latest",
        "RelationType": "Default Component Of"
      },
      {
        "ProductReference": "libcurl4-8.0.1-150400.5.44.1",
        "RelatesToProductReference": "Container suse/sle-micro/5.5/toolbox:latest",
        "RelationType": "Default Component Of"
      },
      {
        "ProductReference": "libcurl4-8.0.1-150400.5.44.1",
        "RelatesToProductReference": "Container suse/sle-micro/5.5:latest",
        "RelationType": "Default Component Of"
      },
      {
        "ProductReference": "curl-8.0.1-150400.5.44.1",
        "RelatesToProductReference": "Container suse/sle-micro/base-5.5:latest",
        "RelationType": "Default Component Of"
      },
      {
        "ProductReference": "libcurl4-8.0.1-150400.5.44.1",
        "RelatesToProductReference": "Container suse/sle-micro/base-5.5:latest",
        "RelationType": "Default Component Of"
      },
      {
        "ProductReference": "libcurl4-8.0.1-150400.5.44.1",
        "RelatesToProductReference": "Container suse/sle-micro/kvm-5.5:latest",
        "RelationType": "Default Component Of"
      },
      {
        "ProductReference": "libcurl4-8.0.1-150400.5.44.1",
        "RelatesToProductReference": "Container suse/sle-micro/rt-5.5:latest",
        "RelationType": "Default Component Of"
      },
      {
        "ProductReference": "curl-8.0.1-150400.5.44.1",
        "RelatesToProductReference": "Container suse/sle15:15.5",
        "RelationType": "Default Component Of"
      },
      {
        "ProductReference": "libcurl4-8.0.1-150400.5.44.1",
        "RelatesToProductReference": "Container suse/sle15:15.5",
        "RelationType": "Default Component Of"
      },
      {
        "ProductReference": "curl-8.0.1-150400.5.44.1",
        "RelatesToProductReference": "Image SLES15-SP4-CHOST-BYOS",
        "RelationType": "Default Component Of"
      },
      {
        "ProductReference": "libcurl4-8.0.1-150400.5.44.1",
        "RelatesToProductReference": "Image SLES15-SP4-CHOST-BYOS",
        "RelationType": "Default Component Of"
      },
      {
        "ProductReference": "curl-8.0.1-150400.5.44.1",
        "RelatesToProductReference": "Image SLES15-SP4-CHOST-BYOS-Aliyun",
        "RelationType": "Default Component Of"
      },
      {
        "ProductReference": "libcurl4-8.0.1-150400.5.44.1",
        "RelatesToProductReference": "Image SLES15-SP4-CHOST-BYOS-Aliyun",
        "RelationType": "Default Component Of"
      },
      {
        "ProductReference": "curl-8.0.1-150400.5.44.1",
        "RelatesToProductReference": "Image SLES15-SP4-CHOST-BYOS-Azure",
        "RelationType": "Default Component Of"
      },
      {
        "ProductReference": "libcurl4-8.0.1-150400.5.44.1",
        "RelatesToProductReference": "Image SLES15-SP4-CHOST-BYOS-Azure",
        "RelationType": "Default Component Of"
      },
      {
        "ProductReference": "curl-8.0.1-150400.5.44.1",
        "RelatesToProductReference": "Image SLES15-SP4-CHOST-BYOS-EC2",
        "RelationType": "Default Component Of"
      },
      {
        "ProductReference": "libcurl4-8.0.1-150400.5.44.1",
        "RelatesToProductReference": "Image SLES15-SP4-CHOST-BYOS-EC2",
        "RelationType": "Default Component Of"
      },
      {
        "ProductReference": "curl-8.0.1-150400.5.44.1",
        "RelatesToProductReference": "Image SLES15-SP4-CHOST-BYOS-GCE",
        "RelationType": "Default Component Of"
      },
      {
        "ProductReference": "libcurl4-8.0.1-150400.5.44.1",
        "RelatesToProductReference": "Image SLES15-SP4-CHOST-BYOS-GCE",
        "RelationType": "Default Component Of"
      },
      {
        "ProductReference": "curl-8.0.1-150400.5.44.1",
        "RelatesToProductReference": "Image SLES15-SP4-CHOST-BYOS-SAP-CCloud",
        "RelationType": "Default Component Of"
      },
      {
        "ProductReference": "libcurl4-8.0.1-150400.5.44.1",
        "RelatesToProductReference": "Image SLES15-SP4-CHOST-BYOS-SAP-CCloud",
        "RelationType": "Default Component Of"
      },
      {
        "ProductReference": "curl-8.0.1-150400.5.44.1",
        "RelatesToProductReference": "Image SLES15-SP4-Manager-Proxy-4-3-BYOS",
        "RelationType": "Default Component Of"
      },
      {
        "ProductReference": "libcurl4-8.0.1-150400.5.44.1",
        "RelatesToProductReference": "Image SLES15-SP4-Manager-Proxy-4-3-BYOS",
        "RelationType": "Default Component Of"
      },
      {
        "ProductReference": "curl-8.0.1-150400.5.44.1",
        "RelatesToProductReference": "Image SLES15-SP4-Manager-Proxy-4-3-BYOS-Azure",
        "RelationType": "Default Component Of"
      },
      {
        "ProductReference": "libcurl4-8.0.1-150400.5.44.1",
        "RelatesToProductReference": "Image SLES15-SP4-Manager-Proxy-4-3-BYOS-Azure",
        "RelationType": "Default Component Of"
      },
      {
        "ProductReference": "curl-8.0.1-150400.5.44.1",
        "RelatesToProductReference": "Image SLES15-SP4-Manager-Proxy-4-3-BYOS-EC2",
        "RelationType": "Default Component Of"
      },
      {
        "ProductReference": "libcurl4-8.0.1-150400.5.44.1",
        "RelatesToProductReference": "Image SLES15-SP4-Manager-Proxy-4-3-BYOS-EC2",
        "RelationType": "Default Component Of"
      },
      {
        "ProductReference": "curl-8.0.1-150400.5.44.1",
        "RelatesToProductReference": "Image SLES15-SP4-Manager-Proxy-4-3-BYOS-GCE",
        "RelationType": "Default Component Of"
      },
      {
        "ProductReference": "libcurl4-8.0.1-150400.5.44.1",
        "RelatesToProductReference": "Image SLES15-SP4-Manager-Proxy-4-3-BYOS-GCE",
        "RelationType": "Default Component Of"
      },
      {
        "ProductReference": "curl-8.0.1-150400.5.44.1",
        "RelatesToProductReference": "Image SLES15-SP4-Manager-Server-4-3",
        "RelationType": "Default Component Of"
      },
      {
        "ProductReference": "libcurl4-8.0.1-150400.5.44.1",
        "RelatesToProductReference": "Image SLES15-SP4-Manager-Server-4-3",
        "RelationType": "Default Component Of"
      },
      {
        "ProductReference": "curl-8.0.1-150400.5.44.1",
        "RelatesToProductReference": "Image SLES15-SP4-Manager-Server-4-3-Azure-llc",
        "RelationType": "Default Component Of"
      },
      {
        "ProductReference": "libcurl4-8.0.1-150400.5.44.1",
        "RelatesToProductReference": "Image SLES15-SP4-Manager-Server-4-3-Azure-llc",
        "RelationType": "Default Component Of"
      },
      {
        "ProductReference": "curl-8.0.1-150400.5.44.1",
        "RelatesToProductReference": "Image SLES15-SP4-Manager-Server-4-3-Azure-ltd",
        "RelationType": "Default Component Of"
      },
      {
        "ProductReference": "libcurl4-8.0.1-150400.5.44.1",
        "RelatesToProductReference": "Image SLES15-SP4-Manager-Server-4-3-Azure-ltd",
        "RelationType": "Default Component Of"
      },
      {
        "ProductReference": "curl-8.0.1-150400.5.44.1",
        "RelatesToProductReference": "Image SLES15-SP4-Manager-Server-4-3-BYOS",
        "RelationType": "Default Component Of"
      },
      {
        "ProductReference": "libcurl4-8.0.1-150400.5.44.1",
        "RelatesToProductReference": "Image SLES15-SP4-Manager-Server-4-3-BYOS",
        "RelationType": "Default Component Of"
      },
      {
        "ProductReference": "curl-8.0.1-150400.5.44.1",
        "RelatesToProductReference": "Image SLES15-SP4-Manager-Server-4-3-BYOS-Azure",
        "RelationType": "Default Component Of"
      },
      {
        "ProductReference": "libcurl4-8.0.1-150400.5.44.1",
        "RelatesToProductReference": "Image SLES15-SP4-Manager-Server-4-3-BYOS-Azure",
        "RelationType": "Default Component Of"
      },
      {
        "ProductReference": "curl-8.0.1-150400.5.44.1",
        "RelatesToProductReference": "Image SLES15-SP4-Manager-Server-4-3-BYOS-EC2",
        "RelationType": "Default Component Of"
      },
      {
        "ProductReference": "libcurl4-8.0.1-150400.5.44.1",
        "RelatesToProductReference": "Image SLES15-SP4-Manager-Server-4-3-BYOS-EC2",
        "RelationType": "Default Component Of"
      },
      {
        "ProductReference": "curl-8.0.1-150400.5.44.1",
        "RelatesToProductReference": "Image SLES15-SP4-Manager-Server-4-3-BYOS-GCE",
        "RelationType": "Default Component Of"
      },
      {
        "ProductReference": "libcurl4-8.0.1-150400.5.44.1",
        "RelatesToProductReference": "Image SLES15-SP4-Manager-Server-4-3-BYOS-GCE",
        "RelationType": "Default Component Of"
      },
      {
        "ProductReference": "curl-8.0.1-150400.5.44.1",
        "RelatesToProductReference": "Image SLES15-SP4-Manager-Server-4-3-EC2-llc",
        "RelationType": "Default Component Of"
      },
      {
        "ProductReference": "libcurl4-8.0.1-150400.5.44.1",
        "RelatesToProductReference": "Image SLES15-SP4-Manager-Server-4-3-EC2-llc",
        "RelationType": "Default Component Of"
      },
      {
        "ProductReference": "curl-8.0.1-150400.5.44.1",
        "RelatesToProductReference": "Image SLES15-SP4-Manager-Server-4-3-EC2-ltd",
        "RelationType": "Default Component Of"
      },
      {
        "ProductReference": "libcurl4-8.0.1-150400.5.44.1",
        "RelatesToProductReference": "Image SLES15-SP4-Manager-Server-4-3-EC2-ltd",
        "RelationType": "Default Component Of"
      },
      {
        "ProductReference": "curl-8.0.1-150400.5.44.1",
        "RelatesToProductReference": "Image SLES15-SP4-Micro-5-4-BYOS",
        "RelationType": "Default Component Of"
      },
      {
        "ProductReference": "libcurl4-8.0.1-150400.5.44.1",
        "RelatesToProductReference": "Image SLES15-SP4-Micro-5-4-BYOS",
        "RelationType": "Default Component Of"
      },
      {
        "ProductReference": "curl-8.0.1-150400.5.44.1",
        "RelatesToProductReference": "Image SLES15-SP4-Micro-5-4-BYOS-EC2",
        "RelationType": "Default Component Of"
      },
      {
        "ProductReference": "libcurl4-8.0.1-150400.5.44.1",
        "RelatesToProductReference": "Image SLES15-SP4-Micro-5-4-BYOS-EC2",
        "RelationType": "Default Component Of"
      },
      {
        "ProductReference": "curl-8.0.1-150400.5.44.1",
        "RelatesToProductReference": "Image SLES15-SP4-Micro-5-4-BYOS-GCE",
        "RelationType": "Default Component Of"
      },
      {
        "ProductReference": "libcurl4-8.0.1-150400.5.44.1",
        "RelatesToProductReference": "Image SLES15-SP4-Micro-5-4-BYOS-GCE",
        "RelationType": "Default Component Of"
      },
      {
        "ProductReference": "curl-8.0.1-150400.5.44.1",
        "RelatesToProductReference": "Image SLES15-SP4-Micro-5-4-GCE",
        "RelationType": "Default Component Of"
      },
      {
        "ProductReference": "libcurl4-8.0.1-150400.5.44.1",
        "RelatesToProductReference": "Image SLES15-SP4-Micro-5-4-GCE",
        "RelationType": "Default Component Of"
      },
      {
        "ProductReference": "curl-8.0.1-150400.5.44.1",
        "RelatesToProductReference": "Image SLES15-SP4-SAP-Azure-LI-BYOS",
        "RelationType": "Default Component Of"
      },
      {
        "ProductReference": "libcurl4-8.0.1-150400.5.44.1",
        "RelatesToProductReference": "Image SLES15-SP4-SAP-Azure-LI-BYOS",
        "RelationType": "Default Component Of"
      },
      {
        "ProductReference": "curl-8.0.1-150400.5.44.1",
        "RelatesToProductReference": "Image SLES15-SP4-SAP-Azure-LI-BYOS-Production",
        "RelationType": "Default Component Of"
      },
      {
        "ProductReference": "libcurl4-8.0.1-150400.5.44.1",
        "RelatesToProductReference": "Image SLES15-SP4-SAP-Azure-LI-BYOS-Production",
        "RelationType": "Default Component Of"
      },
      {
        "ProductReference": "curl-8.0.1-150400.5.44.1",
        "RelatesToProductReference": "Image SLES15-SP4-SAP-Azure-VLI-BYOS",
        "RelationType": "Default Component Of"
      },
      {
        "ProductReference": "libcurl4-8.0.1-150400.5.44.1",
        "RelatesToProductReference": "Image SLES15-SP4-SAP-Azure-VLI-BYOS",
        "RelationType": "Default Component Of"
      },
      {
        "ProductReference": "curl-8.0.1-150400.5.44.1",
        "RelatesToProductReference": "Image SLES15-SP4-SAP-Azure-VLI-BYOS-Production",
        "RelationType": "Default Component Of"
      },
      {
        "ProductReference": "libcurl4-8.0.1-150400.5.44.1",
        "RelatesToProductReference": "Image SLES15-SP4-SAP-Azure-VLI-BYOS-Production",
        "RelationType": "Default Component Of"
      },
      {
        "ProductReference": "curl-8.0.1-150400.5.44.1",
        "RelatesToProductReference": "Image SLES15-SP5-Azure-Basic",
        "RelationType": "Default Component Of"
      },
      {
        "ProductReference": "libcurl4-8.0.1-150400.5.44.1",
        "RelatesToProductReference": "Image SLES15-SP5-Azure-Basic",
        "RelationType": "Default Component Of"
      },
      {
        "ProductReference": "curl-8.0.1-150400.5.44.1",
        "RelatesToProductReference": "Image SLES15-SP5-Azure-Standard",
        "RelationType": "Default Component Of"
      },
      {
        "ProductReference": "libcurl4-8.0.1-150400.5.44.1",
        "RelatesToProductReference": "Image SLES15-SP5-Azure-Standard",
        "RelationType": "Default Component Of"
      },
      {
        "ProductReference": "curl-8.0.1-150400.5.44.1",
        "RelatesToProductReference": "Image SLES15-SP5-BYOS-Azure",
        "RelationType": "Default Component Of"
      },
      {
        "ProductReference": "libcurl4-8.0.1-150400.5.44.1",
        "RelatesToProductReference": "Image SLES15-SP5-BYOS-Azure",
        "RelationType": "Default Component Of"
      },
      {
        "ProductReference": "curl-8.0.1-150400.5.44.1",
        "RelatesToProductReference": "Image SLES15-SP5-BYOS-EC2",
        "RelationType": "Default Component Of"
      },
      {
        "ProductReference": "libcurl4-8.0.1-150400.5.44.1",
        "RelatesToProductReference": "Image SLES15-SP5-BYOS-EC2",
        "RelationType": "Default Component Of"
      },
      {
        "ProductReference": "curl-8.0.1-150400.5.44.1",
        "RelatesToProductReference": "Image SLES15-SP5-BYOS-GCE",
        "RelationType": "Default Component Of"
      },
      {
        "ProductReference": "libcurl4-8.0.1-150400.5.44.1",
        "RelatesToProductReference": "Image SLES15-SP5-BYOS-GCE",
        "RelationType": "Default Component Of"
      },
      {
        "ProductReference": "curl-8.0.1-150400.5.44.1",
        "RelatesToProductReference": "Image SLES15-SP5-CHOST-BYOS-Aliyun",
        "RelationType": "Default Component Of"
      },
      {
        "ProductReference": "libcurl4-8.0.1-150400.5.44.1",
        "RelatesToProductReference": "Image SLES15-SP5-CHOST-BYOS-Aliyun",
        "RelationType": "Default Component Of"
      },
      {
        "ProductReference": "curl-8.0.1-150400.5.44.1",
        "RelatesToProductReference": "Image SLES15-SP5-CHOST-BYOS-Azure",
        "RelationType": "Default Component Of"
      },
      {
        "ProductReference": "libcurl4-8.0.1-150400.5.44.1",
        "RelatesToProductReference": "Image SLES15-SP5-CHOST-BYOS-Azure",
        "RelationType": "Default Component Of"
      },
      {
        "ProductReference": "curl-8.0.1-150400.5.44.1",
        "RelatesToProductReference": "Image SLES15-SP5-CHOST-BYOS-EC2",
        "RelationType": "Default Component Of"
      },
      {
        "ProductReference": "libcurl4-8.0.1-150400.5.44.1",
        "RelatesToProductReference": "Image SLES15-SP5-CHOST-BYOS-EC2",
        "RelationType": "Default Component Of"
      },
      {
        "ProductReference": "curl-8.0.1-150400.5.44.1",
        "RelatesToProductReference": "Image SLES15-SP5-CHOST-BYOS-GCE",
        "RelationType": "Default Component Of"
      },
      {
        "ProductReference": "libcurl4-8.0.1-150400.5.44.1",
        "RelatesToProductReference": "Image SLES15-SP5-CHOST-BYOS-GCE",
        "RelationType": "Default Component Of"
      },
      {
        "ProductReference": "curl-8.0.1-150400.5.44.1",
        "RelatesToProductReference": "Image SLES15-SP5-CHOST-BYOS-SAP-CCloud",
        "RelationType": "Default Component Of"
      },
      {
        "ProductReference": "libcurl4-8.0.1-150400.5.44.1",
        "RelatesToProductReference": "Image SLES15-SP5-CHOST-BYOS-SAP-CCloud",
        "RelationType": "Default Component Of"
      },
      {
        "ProductReference": "curl-8.0.1-150400.5.44.1",
        "RelatesToProductReference": "Image SLES15-SP5-EC2",
        "RelationType": "Default Component Of"
      },
      {
        "ProductReference": "libcurl4-8.0.1-150400.5.44.1",
        "RelatesToProductReference": "Image SLES15-SP5-EC2",
        "RelationType": "Default Component Of"
      },
      {
        "ProductReference": "curl-8.0.1-150400.5.44.1",
        "RelatesToProductReference": "Image SLES15-SP5-GCE",
        "RelationType": "Default Component Of"
      },
      {
        "ProductReference": "libcurl4-8.0.1-150400.5.44.1",
        "RelatesToProductReference": "Image SLES15-SP5-GCE",
        "RelationType": "Default Component Of"
      },
      {
        "ProductReference": "curl-8.0.1-150400.5.44.1",
        "RelatesToProductReference": "Image SLES15-SP5-HPC-Azure",
        "RelationType": "Default Component Of"
      },
      {
        "ProductReference": "libcurl4-8.0.1-150400.5.44.1",
        "RelatesToProductReference": "Image SLES15-SP5-HPC-Azure",
        "RelationType": "Default Component Of"
      },
      {
        "ProductReference": "curl-8.0.1-150400.5.44.1",
        "RelatesToProductReference": "Image SLES15-SP5-HPC-BYOS-Azure",
        "RelationType": "Default Component Of"
      },
      {
        "ProductReference": "libcurl4-8.0.1-150400.5.44.1",
        "RelatesToProductReference": "Image SLES15-SP5-HPC-BYOS-Azure",
        "RelationType": "Default Component Of"
      },
      {
        "ProductReference": "curl-8.0.1-150400.5.44.1",
        "RelatesToProductReference": "Image SLES15-SP5-HPC-BYOS-EC2",
        "RelationType": "Default Component Of"
      },
      {
        "ProductReference": "libcurl4-8.0.1-150400.5.44.1",
        "RelatesToProductReference": "Image SLES15-SP5-HPC-BYOS-EC2",
        "RelationType": "Default Component Of"
      },
      {
        "ProductReference": "curl-8.0.1-150400.5.44.1",
        "RelatesToProductReference": "Image SLES15-SP5-HPC-BYOS-GCE",
        "RelationType": "Default Component Of"
      },
      {
        "ProductReference": "libcurl4-8.0.1-150400.5.44.1",
        "RelatesToProductReference": "Image SLES15-SP5-HPC-BYOS-GCE",
        "RelationType": "Default Component Of"
      },
      {
        "ProductReference": "curl-8.0.1-150400.5.44.1",
        "RelatesToProductReference": "Image SLES15-SP5-Hardened-BYOS-Azure",
        "RelationType": "Default Component Of"
      },
      {
        "ProductReference": "libcurl4-8.0.1-150400.5.44.1",
        "RelatesToProductReference": "Image SLES15-SP5-Hardened-BYOS-Azure",
        "RelationType": "Default Component Of"
      },
      {
        "ProductReference": "curl-8.0.1-150400.5.44.1",
        "RelatesToProductReference": "Image SLES15-SP5-Hardened-BYOS-EC2",
        "RelationType": "Default Component Of"
      },
      {
        "ProductReference": "libcurl4-8.0.1-150400.5.44.1",
        "RelatesToProductReference": "Image SLES15-SP5-Hardened-BYOS-EC2",
        "RelationType": "Default Component Of"
      },
      {
        "ProductReference": "curl-8.0.1-150400.5.44.1",
        "RelatesToProductReference": "Image SLES15-SP5-Hardened-BYOS-GCE",
        "RelationType": "Default Component Of"
      },
      {
        "ProductReference": "libcurl4-8.0.1-150400.5.44.1",
        "RelatesToProductReference": "Image SLES15-SP5-Hardened-BYOS-GCE",
        "RelationType": "Default Component Of"
      },
      {
        "ProductReference": "curl-8.0.1-150400.5.44.1",
        "RelatesToProductReference": "Image SLES15-SP5-SAP-BYOS-Azure",
        "RelationType": "Default Component Of"
      },
      {
        "ProductReference": "libcurl4-8.0.1-150400.5.44.1",
        "RelatesToProductReference": "Image SLES15-SP5-SAP-BYOS-Azure",
        "RelationType": "Default Component Of"
      },
      {
        "ProductReference": "curl-8.0.1-150400.5.44.1",
        "RelatesToProductReference": "Image SLES15-SP5-SAP-BYOS-EC2",
        "RelationType": "Default Component Of"
      },
      {
        "ProductReference": "libcurl4-8.0.1-150400.5.44.1",
        "RelatesToProductReference": "Image SLES15-SP5-SAP-BYOS-EC2",
        "RelationType": "Default Component Of"
      },
      {
        "ProductReference": "curl-8.0.1-150400.5.44.1",
        "RelatesToProductReference": "Image SLES15-SP5-SAP-BYOS-GCE",
        "RelationType": "Default Component Of"
      },
      {
        "ProductReference": "libcurl4-8.0.1-150400.5.44.1",
        "RelatesToProductReference": "Image SLES15-SP5-SAP-BYOS-GCE",
        "RelationType": "Default Component Of"
      },
      {
        "ProductReference": "curl-8.0.1-150400.5.44.1",
        "RelatesToProductReference": "Image SLES15-SP5-SAP-Hardened-Azure",
        "RelationType": "Default Component Of"
      },
      {
        "ProductReference": "libcurl4-8.0.1-150400.5.44.1",
        "RelatesToProductReference": "Image SLES15-SP5-SAP-Hardened-Azure",
        "RelationType": "Default Component Of"
      },
      {
        "ProductReference": "curl-8.0.1-150400.5.44.1",
        "RelatesToProductReference": "Image SLES15-SP5-SAP-Hardened-BYOS-Azure",
        "RelationType": "Default Component Of"
      },
      {
        "ProductReference": "libcurl4-8.0.1-150400.5.44.1",
        "RelatesToProductReference": "Image SLES15-SP5-SAP-Hardened-BYOS-Azure",
        "RelationType": "Default Component Of"
      },
      {
        "ProductReference": "curl-8.0.1-150400.5.44.1",
        "RelatesToProductReference": "Image SLES15-SP5-SAP-Hardened-BYOS-EC2",
        "RelationType": "Default Component Of"
      },
      {
        "ProductReference": "libcurl4-8.0.1-150400.5.44.1",
        "RelatesToProductReference": "Image SLES15-SP5-SAP-Hardened-BYOS-EC2",
        "RelationType": "Default Component Of"
      },
      {
        "ProductReference": "curl-8.0.1-150400.5.44.1",
        "RelatesToProductReference": "Image SLES15-SP5-SAP-Hardened-BYOS-GCE",
        "RelationType": "Default Component Of"
      },
      {
        "ProductReference": "libcurl4-8.0.1-150400.5.44.1",
        "RelatesToProductReference": "Image SLES15-SP5-SAP-Hardened-BYOS-GCE",
        "RelationType": "Default Component Of"
      },
      {
        "ProductReference": "curl-8.0.1-150400.5.44.1",
        "RelatesToProductReference": "Image SLES15-SP5-SAP-Hardened-GCE",
        "RelationType": "Default Component Of"
      },
      {
        "ProductReference": "libcurl4-8.0.1-150400.5.44.1",
        "RelatesToProductReference": "Image SLES15-SP5-SAP-Hardened-GCE",
        "RelationType": "Default Component Of"
      },
      {
        "ProductReference": "curl-8.0.1-150400.5.44.1",
        "RelatesToProductReference": "Image SLES15-SP5-SAPCAL-Azure",
        "RelationType": "Default Component Of"
      },
      {
        "ProductReference": "libcurl-devel-8.0.1-150400.5.44.1",
        "RelatesToProductReference": "Image SLES15-SP5-SAPCAL-Azure",
        "RelationType": "Default Component Of"
      },
      {
        "ProductReference": "libcurl4-8.0.1-150400.5.44.1",
        "RelatesToProductReference": "Image SLES15-SP5-SAPCAL-Azure",
        "RelationType": "Default Component Of"
      },
      {
        "ProductReference": "libcurl4-32bit-8.0.1-150400.5.44.1",
        "RelatesToProductReference": "Image SLES15-SP5-SAPCAL-Azure",
        "RelationType": "Default Component Of"
      },
      {
        "ProductReference": "curl-8.0.1-150400.5.44.1",
        "RelatesToProductReference": "Image SLES15-SP5-SAPCAL-EC2",
        "RelationType": "Default Component Of"
      },
      {
        "ProductReference": "libcurl-devel-8.0.1-150400.5.44.1",
        "RelatesToProductReference": "Image SLES15-SP5-SAPCAL-EC2",
        "RelationType": "Default Component Of"
      },
      {
        "ProductReference": "libcurl4-8.0.1-150400.5.44.1",
        "RelatesToProductReference": "Image SLES15-SP5-SAPCAL-EC2",
        "RelationType": "Default Component Of"
      },
      {
        "ProductReference": "libcurl4-32bit-8.0.1-150400.5.44.1",
        "RelatesToProductReference": "Image SLES15-SP5-SAPCAL-EC2",
        "RelationType": "Default Component Of"
      },
      {
        "ProductReference": "curl-8.0.1-150400.5.44.1",
        "RelatesToProductReference": "Image SLES15-SP5-SAPCAL-GCE",
        "RelationType": "Default Component Of"
      },
      {
        "ProductReference": "libcurl-devel-8.0.1-150400.5.44.1",
        "RelatesToProductReference": "Image SLES15-SP5-SAPCAL-GCE",
        "RelationType": "Default Component Of"
      },
      {
        "ProductReference": "libcurl4-8.0.1-150400.5.44.1",
        "RelatesToProductReference": "Image SLES15-SP5-SAPCAL-GCE",
        "RelationType": "Default Component Of"
      },
      {
        "ProductReference": "libcurl4-32bit-8.0.1-150400.5.44.1",
        "RelatesToProductReference": "Image SLES15-SP5-SAPCAL-GCE",
        "RelationType": "Default Component Of"
      },
      {
        "ProductReference": "curl-8.0.1-150400.5.44.1",
        "RelatesToProductReference": "SUSE Linux Enterprise High Performance Computing 15 SP4-ESPOS",
        "RelationType": "Default Component Of"
      },
      {
        "ProductReference": "libcurl-devel-8.0.1-150400.5.44.1",
        "RelatesToProductReference": "SUSE Linux Enterprise High Performance Computing 15 SP4-ESPOS",
        "RelationType": "Default Component Of"
      },
      {
        "ProductReference": "libcurl4-8.0.1-150400.5.44.1",
        "RelatesToProductReference": "SUSE Linux Enterprise High Performance Computing 15 SP4-ESPOS",
        "RelationType": "Default Component Of"
      },
      {
        "ProductReference": "libcurl4-32bit-8.0.1-150400.5.44.1",
        "RelatesToProductReference": "SUSE Linux Enterprise High Performance Computing 15 SP4-ESPOS",
        "RelationType": "Default Component Of"
      },
      {
        "ProductReference": "curl-8.0.1-150400.5.44.1",
        "RelatesToProductReference": "SUSE Linux Enterprise High Performance Computing 15 SP4-LTSS",
        "RelationType": "Default Component Of"
      },
      {
        "ProductReference": "libcurl-devel-8.0.1-150400.5.44.1",
        "RelatesToProductReference": "SUSE Linux Enterprise High Performance Computing 15 SP4-LTSS",
        "RelationType": "Default Component Of"
      },
      {
        "ProductReference": "libcurl4-8.0.1-150400.5.44.1",
        "RelatesToProductReference": "SUSE Linux Enterprise High Performance Computing 15 SP4-LTSS",
        "RelationType": "Default Component Of"
      },
      {
        "ProductReference": "libcurl4-32bit-8.0.1-150400.5.44.1",
        "RelatesToProductReference": "SUSE Linux Enterprise High Performance Computing 15 SP4-LTSS",
        "RelationType": "Default Component Of"
      },
      {
        "ProductReference": "curl-8.0.1-150400.5.44.1",
        "RelatesToProductReference": "SUSE Linux Enterprise Server 15 SP4-LTSS",
        "RelationType": "Default Component Of"
      },
      {
        "ProductReference": "libcurl-devel-8.0.1-150400.5.44.1",
        "RelatesToProductReference": "SUSE Linux Enterprise Server 15 SP4-LTSS",
        "RelationType": "Default Component Of"
      },
      {
        "ProductReference": "libcurl4-8.0.1-150400.5.44.1",
        "RelatesToProductReference": "SUSE Linux Enterprise Server 15 SP4-LTSS",
        "RelationType": "Default Component Of"
      },
      {
        "ProductReference": "libcurl4-32bit-8.0.1-150400.5.44.1",
        "RelatesToProductReference": "SUSE Linux Enterprise Server 15 SP4-LTSS",
        "RelationType": "Default Component Of"
      },
      {
        "ProductReference": "curl-8.0.1-150400.5.44.1",
        "RelatesToProductReference": "SUSE Linux Enterprise Server for SAP Applications 15 SP4",
        "RelationType": "Default Component Of"
      },
      {
        "ProductReference": "libcurl-devel-8.0.1-150400.5.44.1",
        "RelatesToProductReference": "SUSE Linux Enterprise Server for SAP Applications 15 SP4",
        "RelationType": "Default Component Of"
      },
      {
        "ProductReference": "libcurl4-8.0.1-150400.5.44.1",
        "RelatesToProductReference": "SUSE Linux Enterprise Server for SAP Applications 15 SP4",
        "RelationType": "Default Component Of"
      },
      {
        "ProductReference": "libcurl4-32bit-8.0.1-150400.5.44.1",
        "RelatesToProductReference": "SUSE Linux Enterprise Server for SAP Applications 15 SP4",
        "RelationType": "Default Component Of"
      },
      {
        "ProductReference": "curl-8.0.1-150400.5.44.1",
        "RelatesToProductReference": "SUSE Manager Proxy 4.3",
        "RelationType": "Default Component Of"
      },
      {
        "ProductReference": "libcurl-devel-8.0.1-150400.5.44.1",
        "RelatesToProductReference": "SUSE Manager Proxy 4.3",
        "RelationType": "Default Component Of"
      },
      {
        "ProductReference": "libcurl4-8.0.1-150400.5.44.1",
        "RelatesToProductReference": "SUSE Manager Proxy 4.3",
        "RelationType": "Default Component Of"
      },
      {
        "ProductReference": "libcurl4-32bit-8.0.1-150400.5.44.1",
        "RelatesToProductReference": "SUSE Manager Proxy 4.3",
        "RelationType": "Default Component Of"
      },
      {
        "ProductReference": "curl-8.0.1-150400.5.44.1",
        "RelatesToProductReference": "SUSE Manager Server 4.3",
        "RelationType": "Default Component Of"
      },
      {
        "ProductReference": "libcurl-devel-8.0.1-150400.5.44.1",
        "RelatesToProductReference": "SUSE Manager Server 4.3",
        "RelationType": "Default Component Of"
      },
      {
        "ProductReference": "libcurl4-8.0.1-150400.5.44.1",
        "RelatesToProductReference": "SUSE Manager Server 4.3",
        "RelationType": "Default Component Of"
      },
      {
        "ProductReference": "libcurl4-32bit-8.0.1-150400.5.44.1",
        "RelatesToProductReference": "SUSE Manager Server 4.3",
        "RelationType": "Default Component Of"
      }
    ]
  },
  "References": [
    {
      "URL": "https://www.suse.com/support/update/announcement/2024/suse-su-20241151-2/",
      "Description": "Link for SUSE-SU-2024:1151-2"
    },
    {
      "URL": "https://lists.suse.com/pipermail/sle-security-updates/2024-May/018467.html",
      "Description": "E-Mail link for SUSE-SU-2024:1151-2"
    },
    {
      "URL": "https://www.suse.com/support/security/rating/",
      "Description": "SUSE Security Ratings"
    },
    {
      "URL": "https://bugzilla.suse.com/1221665",
      "Description": "SUSE Bug 1221665"
    },
    {
      "URL": "https://bugzilla.suse.com/1221667",
      "Description": "SUSE Bug 1221667"
    },
    {
      "URL": "https://www.suse.com/security/cve/CVE-2024-2004/",
      "Description": "SUSE CVE CVE-2024-2004 page"
    },
    {
      "URL": "https://www.suse.com/security/cve/CVE-2024-2398/",
      "Description": "SUSE CVE CVE-2024-2398 page"
    }
  ],
  "Vulnerabilities": [
    {
      "CVE": "CVE-2024-2004",
      "Description": "When a protocol selection parameter option disables all protocols without adding any then the default set of protocols would remain in the allowed set due to an error in the logic for removing protocols. The below command would perform a request to curl.se with a plaintext protocol which has been explicitly disabled.      curl --proto -all,-http http://curl.se  The flaw is only present if the set of selected protocols disables the entire set of available protocols, in itself a command with no practical use and therefore unlikely to be encountered in real situations. The curl security team has thus assessed this to be low severity bug.",
      "Threats": [
        {
          "Type": "Impact",
          "Severity": "low"
        }
      ],
      "References": [
        {
          "URL": "https://www.suse.com/security/cve/CVE-2024-2004.html",
          "Description": "CVE-2024-2004"
        },
        {
          "URL": "https://bugzilla.suse.com/1221665",
          "Description": "SUSE Bug 1221665"
        }
      ],
      "ProductStatuses": [
        {
          "Type": "Fixed",
          "ProductID": [
            "Container bci/golang:1.20-openssl:libcurl4-8.0.1-150400.5.44.1",
            "Container bci/golang:1.21:libcurl4-8.0.1-150400.5.44.1",
            "Container bci/golang:latest:libcurl4-8.0.1-150400.5.44.1",
            "Container bci/node:18:libcurl4-8.0.1-150400.5.44.1",
            "Container bci/nodejs:latest:libcurl4-8.0.1-150400.5.44.1",
            "Container bci/openjdk-devel:11:libcurl4-8.0.1-150400.5.44.1",
            "Container bci/openjdk-devel:latest:libcurl4-8.0.1-150400.5.44.1",
            "Container bci/php-apache:latest:libcurl4-8.0.1-150400.5.44.1",
            "Container bci/php-fpm:latest:libcurl4-8.0.1-150400.5.44.1",
            "Container bci/php:latest:libcurl4-8.0.1-150400.5.44.1",
            "Container bci/python:3:curl-8.0.1-150400.5.44.1",
            "Container bci/python:3:libcurl4-8.0.1-150400.5.44.1",
            "Container bci/python:latest:curl-8.0.1-150400.5.44.1",
            "Container bci/python:latest:libcurl4-8.0.1-150400.5.44.1",
            "Container bci/ruby:latest:curl-8.0.1-150400.5.44.1",
            "Container bci/ruby:latest:libcurl4-8.0.1-150400.5.44.1",
            "Container bci/rust:1.77:libcurl4-8.0.1-150400.5.44.1",
            "Container bci/rust:latest:libcurl4-8.0.1-150400.5.44.1",
            "Container rancher/elemental-teal-rt/5.4:latest:libcurl4-8.0.1-150400.5.44.1",
            "Container rancher/elemental-teal/5.4:latest:libcurl4-8.0.1-150400.5.44.1",
            "Container rancher/seedimage-builder:latest:curl-8.0.1-150400.5.44.1",
            "Container rancher/seedimage-builder:latest:libcurl4-8.0.1-150400.5.44.1",
            "Container suse/git:latest:libcurl4-8.0.1-150400.5.44.1",
            "Container suse/ltss/sle15.4/sle15:15.4:curl-8.0.1-150400.5.44.1",
            "Container suse/ltss/sle15.4/sle15:15.4:libcurl4-8.0.1-150400.5.44.1",
            "Container suse/manager/4.3/proxy-httpd:latest:curl-8.0.1-150400.5.44.1",
            "Container suse/manager/4.3/proxy-httpd:latest:libcurl4-8.0.1-150400.5.44.1",
            "Container suse/manager/4.3/proxy-salt-broker:latest:curl-8.0.1-150400.5.44.1",
            "Container suse/manager/4.3/proxy-salt-broker:latest:libcurl4-8.0.1-150400.5.44.1",
            "Container suse/sle-micro-rancher/5.3:latest:curl-8.0.1-150400.5.44.1",
            "Container suse/sle-micro-rancher/5.3:latest:libcurl4-8.0.1-150400.5.44.1",
            "Container suse/sle-micro-rancher/5.4:latest:curl-8.0.1-150400.5.44.1",
            "Container suse/sle-micro-rancher/5.4:latest:libcurl4-8.0.1-150400.5.44.1",
            "Container suse/sle-micro/5.3/toolbox:latest:curl-8.0.1-150400.5.44.1",
            "Container suse/sle-micro/5.3/toolbox:latest:libcurl4-8.0.1-150400.5.44.1",
            "Container suse/sle-micro/5.4/toolbox:latest:curl-8.0.1-150400.5.44.1",
            "Container suse/sle-micro/5.4/toolbox:latest:libcurl4-8.0.1-150400.5.44.1",
            "Container suse/sle-micro/5.5/toolbox:latest:libcurl4-8.0.1-150400.5.44.1",
            "Container suse/sle-micro/5.5:latest:libcurl4-8.0.1-150400.5.44.1",
            "Container suse/sle-micro/base-5.5:latest:curl-8.0.1-150400.5.44.1",
            "Container suse/sle-micro/base-5.5:latest:libcurl4-8.0.1-150400.5.44.1",
            "Container suse/sle-micro/kvm-5.5:latest:libcurl4-8.0.1-150400.5.44.1",
            "Container suse/sle-micro/rt-5.5:latest:libcurl4-8.0.1-150400.5.44.1",
            "Container suse/sle15:15.5:curl-8.0.1-150400.5.44.1",
            "Container suse/sle15:15.5:libcurl4-8.0.1-150400.5.44.1",
            "Image SLES15-SP4-CHOST-BYOS-Aliyun:curl-8.0.1-150400.5.44.1",
            "Image SLES15-SP4-CHOST-BYOS-Aliyun:libcurl4-8.0.1-150400.5.44.1",
            "Image SLES15-SP4-CHOST-BYOS-Azure:curl-8.0.1-150400.5.44.1",
            "Image SLES15-SP4-CHOST-BYOS-Azure:libcurl4-8.0.1-150400.5.44.1",
            "Image SLES15-SP4-CHOST-BYOS-EC2:curl-8.0.1-150400.5.44.1",
            "Image SLES15-SP4-CHOST-BYOS-EC2:libcurl4-8.0.1-150400.5.44.1",
            "Image SLES15-SP4-CHOST-BYOS-GCE:curl-8.0.1-150400.5.44.1",
            "Image SLES15-SP4-CHOST-BYOS-GCE:libcurl4-8.0.1-150400.5.44.1",
            "Image SLES15-SP4-CHOST-BYOS-SAP-CCloud:curl-8.0.1-150400.5.44.1",
            "Image SLES15-SP4-CHOST-BYOS-SAP-CCloud:libcurl4-8.0.1-150400.5.44.1",
            "Image SLES15-SP4-CHOST-BYOS:curl-8.0.1-150400.5.44.1",
            "Image SLES15-SP4-CHOST-BYOS:libcurl4-8.0.1-150400.5.44.1",
            "Image SLES15-SP4-Manager-Proxy-4-3-BYOS-Azure:curl-8.0.1-150400.5.44.1",
            "Image SLES15-SP4-Manager-Proxy-4-3-BYOS-Azure:libcurl4-8.0.1-150400.5.44.1",
            "Image SLES15-SP4-Manager-Proxy-4-3-BYOS-EC2:curl-8.0.1-150400.5.44.1",
            "Image SLES15-SP4-Manager-Proxy-4-3-BYOS-EC2:libcurl4-8.0.1-150400.5.44.1",
            "Image SLES15-SP4-Manager-Proxy-4-3-BYOS-GCE:curl-8.0.1-150400.5.44.1",
            "Image SLES15-SP4-Manager-Proxy-4-3-BYOS-GCE:libcurl4-8.0.1-150400.5.44.1",
            "Image SLES15-SP4-Manager-Proxy-4-3-BYOS:curl-8.0.1-150400.5.44.1",
            "Image SLES15-SP4-Manager-Proxy-4-3-BYOS:libcurl4-8.0.1-150400.5.44.1",
            "Image SLES15-SP4-Manager-Server-4-3-Azure-llc:curl-8.0.1-150400.5.44.1",
            "Image SLES15-SP4-Manager-Server-4-3-Azure-llc:libcurl4-8.0.1-150400.5.44.1",
            "Image SLES15-SP4-Manager-Server-4-3-Azure-ltd:curl-8.0.1-150400.5.44.1",
            "Image SLES15-SP4-Manager-Server-4-3-Azure-ltd:libcurl4-8.0.1-150400.5.44.1",
            "Image SLES15-SP4-Manager-Server-4-3-BYOS-Azure:curl-8.0.1-150400.5.44.1",
            "Image SLES15-SP4-Manager-Server-4-3-BYOS-Azure:libcurl4-8.0.1-150400.5.44.1",
            "Image SLES15-SP4-Manager-Server-4-3-BYOS-EC2:curl-8.0.1-150400.5.44.1",
            "Image SLES15-SP4-Manager-Server-4-3-BYOS-EC2:libcurl4-8.0.1-150400.5.44.1",
            "Image SLES15-SP4-Manager-Server-4-3-BYOS-GCE:curl-8.0.1-150400.5.44.1",
            "Image SLES15-SP4-Manager-Server-4-3-BYOS-GCE:libcurl4-8.0.1-150400.5.44.1",
            "Image SLES15-SP4-Manager-Server-4-3-BYOS:curl-8.0.1-150400.5.44.1",
            "Image SLES15-SP4-Manager-Server-4-3-BYOS:libcurl4-8.0.1-150400.5.44.1",
            "Image SLES15-SP4-Manager-Server-4-3-EC2-llc:curl-8.0.1-150400.5.44.1",
            "Image SLES15-SP4-Manager-Server-4-3-EC2-llc:libcurl4-8.0.1-150400.5.44.1",
            "Image SLES15-SP4-Manager-Server-4-3-EC2-ltd:curl-8.0.1-150400.5.44.1",
            "Image SLES15-SP4-Manager-Server-4-3-EC2-ltd:libcurl4-8.0.1-150400.5.44.1",
            "Image SLES15-SP4-Manager-Server-4-3:curl-8.0.1-150400.5.44.1",
            "Image SLES15-SP4-Manager-Server-4-3:libcurl4-8.0.1-150400.5.44.1",
            "Image SLES15-SP4-Micro-5-4-BYOS-EC2:curl-8.0.1-150400.5.44.1",
            "Image SLES15-SP4-Micro-5-4-BYOS-EC2:libcurl4-8.0.1-150400.5.44.1",
            "Image SLES15-SP4-Micro-5-4-BYOS-GCE:curl-8.0.1-150400.5.44.1",
            "Image SLES15-SP4-Micro-5-4-BYOS-GCE:libcurl4-8.0.1-150400.5.44.1",
            "Image SLES15-SP4-Micro-5-4-BYOS:curl-8.0.1-150400.5.44.1",
            "Image SLES15-SP4-Micro-5-4-BYOS:libcurl4-8.0.1-150400.5.44.1",
            "Image SLES15-SP4-Micro-5-4-GCE:curl-8.0.1-150400.5.44.1",
            "Image SLES15-SP4-Micro-5-4-GCE:libcurl4-8.0.1-150400.5.44.1",
            "Image SLES15-SP4-SAP-Azure-LI-BYOS-Production:curl-8.0.1-150400.5.44.1",
            "Image SLES15-SP4-SAP-Azure-LI-BYOS-Production:libcurl4-8.0.1-150400.5.44.1",
            "Image SLES15-SP4-SAP-Azure-LI-BYOS:curl-8.0.1-150400.5.44.1",
            "Image SLES15-SP4-SAP-Azure-LI-BYOS:libcurl4-8.0.1-150400.5.44.1",
            "Image SLES15-SP4-SAP-Azure-VLI-BYOS-Production:curl-8.0.1-150400.5.44.1",
            "Image SLES15-SP4-SAP-Azure-VLI-BYOS-Production:libcurl4-8.0.1-150400.5.44.1",
            "Image SLES15-SP4-SAP-Azure-VLI-BYOS:curl-8.0.1-150400.5.44.1",
            "Image SLES15-SP4-SAP-Azure-VLI-BYOS:libcurl4-8.0.1-150400.5.44.1",
            "Image SLES15-SP5-Azure-Basic:curl-8.0.1-150400.5.44.1",
            "Image SLES15-SP5-Azure-Basic:libcurl4-8.0.1-150400.5.44.1",
            "Image SLES15-SP5-Azure-Standard:curl-8.0.1-150400.5.44.1",
            "Image SLES15-SP5-Azure-Standard:libcurl4-8.0.1-150400.5.44.1",
            "Image SLES15-SP5-BYOS-Azure:curl-8.0.1-150400.5.44.1",
            "Image SLES15-SP5-BYOS-Azure:libcurl4-8.0.1-150400.5.44.1",
            "Image SLES15-SP5-BYOS-EC2:curl-8.0.1-150400.5.44.1",
            "Image SLES15-SP5-BYOS-EC2:libcurl4-8.0.1-150400.5.44.1",
            "Image SLES15-SP5-BYOS-GCE:curl-8.0.1-150400.5.44.1",
            "Image SLES15-SP5-BYOS-GCE:libcurl4-8.0.1-150400.5.44.1",
            "Image SLES15-SP5-CHOST-BYOS-Aliyun:curl-8.0.1-150400.5.44.1",
            "Image SLES15-SP5-CHOST-BYOS-Aliyun:libcurl4-8.0.1-150400.5.44.1",
            "Image SLES15-SP5-CHOST-BYOS-Azure:curl-8.0.1-150400.5.44.1",
            "Image SLES15-SP5-CHOST-BYOS-Azure:libcurl4-8.0.1-150400.5.44.1",
            "Image SLES15-SP5-CHOST-BYOS-EC2:curl-8.0.1-150400.5.44.1",
            "Image SLES15-SP5-CHOST-BYOS-EC2:libcurl4-8.0.1-150400.5.44.1",
            "Image SLES15-SP5-CHOST-BYOS-GCE:curl-8.0.1-150400.5.44.1",
            "Image SLES15-SP5-CHOST-BYOS-GCE:libcurl4-8.0.1-150400.5.44.1",
            "Image SLES15-SP5-CHOST-BYOS-SAP-CCloud:curl-8.0.1-150400.5.44.1",
            "Image SLES15-SP5-CHOST-BYOS-SAP-CCloud:libcurl4-8.0.1-150400.5.44.1",
            "Image SLES15-SP5-EC2:curl-8.0.1-150400.5.44.1",
            "Image SLES15-SP5-EC2:libcurl4-8.0.1-150400.5.44.1",
            "Image SLES15-SP5-GCE:curl-8.0.1-150400.5.44.1",
            "Image SLES15-SP5-GCE:libcurl4-8.0.1-150400.5.44.1",
            "Image SLES15-SP5-HPC-Azure:curl-8.0.1-150400.5.44.1",
            "Image SLES15-SP5-HPC-Azure:libcurl4-8.0.1-150400.5.44.1",
            "Image SLES15-SP5-HPC-BYOS-Azure:curl-8.0.1-150400.5.44.1",
            "Image SLES15-SP5-HPC-BYOS-Azure:libcurl4-8.0.1-150400.5.44.1",
            "Image SLES15-SP5-HPC-BYOS-EC2:curl-8.0.1-150400.5.44.1",
            "Image SLES15-SP5-HPC-BYOS-EC2:libcurl4-8.0.1-150400.5.44.1",
            "Image SLES15-SP5-HPC-BYOS-GCE:curl-8.0.1-150400.5.44.1",
            "Image SLES15-SP5-HPC-BYOS-GCE:libcurl4-8.0.1-150400.5.44.1",
            "Image SLES15-SP5-Hardened-BYOS-Azure:curl-8.0.1-150400.5.44.1",
            "Image SLES15-SP5-Hardened-BYOS-Azure:libcurl4-8.0.1-150400.5.44.1",
            "Image SLES15-SP5-Hardened-BYOS-EC2:curl-8.0.1-150400.5.44.1",
            "Image SLES15-SP5-Hardened-BYOS-EC2:libcurl4-8.0.1-150400.5.44.1",
            "Image SLES15-SP5-Hardened-BYOS-GCE:curl-8.0.1-150400.5.44.1",
            "Image SLES15-SP5-Hardened-BYOS-GCE:libcurl4-8.0.1-150400.5.44.1",
            "Image SLES15-SP5-SAP-BYOS-Azure:curl-8.0.1-150400.5.44.1",
            "Image SLES15-SP5-SAP-BYOS-Azure:libcurl4-8.0.1-150400.5.44.1",
            "Image SLES15-SP5-SAP-BYOS-EC2:curl-8.0.1-150400.5.44.1",
            "Image SLES15-SP5-SAP-BYOS-EC2:libcurl4-8.0.1-150400.5.44.1",
            "Image SLES15-SP5-SAP-BYOS-GCE:curl-8.0.1-150400.5.44.1",
            "Image SLES15-SP5-SAP-BYOS-GCE:libcurl4-8.0.1-150400.5.44.1",
            "Image SLES15-SP5-SAP-Hardened-Azure:curl-8.0.1-150400.5.44.1",
            "Image SLES15-SP5-SAP-Hardened-Azure:libcurl4-8.0.1-150400.5.44.1",
            "Image SLES15-SP5-SAP-Hardened-BYOS-Azure:curl-8.0.1-150400.5.44.1",
            "Image SLES15-SP5-SAP-Hardened-BYOS-Azure:libcurl4-8.0.1-150400.5.44.1",
            "Image SLES15-SP5-SAP-Hardened-BYOS-EC2:curl-8.0.1-150400.5.44.1",
            "Image SLES15-SP5-SAP-Hardened-BYOS-EC2:libcurl4-8.0.1-150400.5.44.1",
            "Image SLES15-SP5-SAP-Hardened-BYOS-GCE:curl-8.0.1-150400.5.44.1",
            "Image SLES15-SP5-SAP-Hardened-BYOS-GCE:libcurl4-8.0.1-150400.5.44.1",
            "Image SLES15-SP5-SAP-Hardened-GCE:curl-8.0.1-150400.5.44.1",
            "Image SLES15-SP5-SAP-Hardened-GCE:libcurl4-8.0.1-150400.5.44.1",
            "Image SLES15-SP5-SAPCAL-Azure:curl-8.0.1-150400.5.44.1",
            "Image SLES15-SP5-SAPCAL-Azure:libcurl-devel-8.0.1-150400.5.44.1",
            "Image SLES15-SP5-SAPCAL-Azure:libcurl4-32bit-8.0.1-150400.5.44.1",
            "Image SLES15-SP5-SAPCAL-Azure:libcurl4-8.0.1-150400.5.44.1",
            "Image SLES15-SP5-SAPCAL-EC2:curl-8.0.1-150400.5.44.1",
            "Image SLES15-SP5-SAPCAL-EC2:libcurl-devel-8.0.1-150400.5.44.1",
            "Image SLES15-SP5-SAPCAL-EC2:libcurl4-32bit-8.0.1-150400.5.44.1",
            "Image SLES15-SP5-SAPCAL-EC2:libcurl4-8.0.1-150400.5.44.1",
            "Image SLES15-SP5-SAPCAL-GCE:curl-8.0.1-150400.5.44.1",
            "Image SLES15-SP5-SAPCAL-GCE:libcurl-devel-8.0.1-150400.5.44.1",
            "Image SLES15-SP5-SAPCAL-GCE:libcurl4-32bit-8.0.1-150400.5.44.1",
            "Image SLES15-SP5-SAPCAL-GCE:libcurl4-8.0.1-150400.5.44.1",
            "SUSE Linux Enterprise High Performance Computing 15 SP4-ESPOS:curl-8.0.1-150400.5.44.1",
            "SUSE Linux Enterprise High Performance Computing 15 SP4-ESPOS:libcurl-devel-8.0.1-150400.5.44.1",
            "SUSE Linux Enterprise High Performance Computing 15 SP4-ESPOS:libcurl4-32bit-8.0.1-150400.5.44.1",
            "SUSE Linux Enterprise High Performance Computing 15 SP4-ESPOS:libcurl4-8.0.1-150400.5.44.1",
            "SUSE Linux Enterprise High Performance Computing 15 SP4-LTSS:curl-8.0.1-150400.5.44.1",
            "SUSE Linux Enterprise High Performance Computing 15 SP4-LTSS:libcurl-devel-8.0.1-150400.5.44.1",
            "SUSE Linux Enterprise High Performance Computing 15 SP4-LTSS:libcurl4-32bit-8.0.1-150400.5.44.1",
            "SUSE Linux Enterprise High Performance Computing 15 SP4-LTSS:libcurl4-8.0.1-150400.5.44.1",
            "SUSE Linux Enterprise Server 15 SP4-LTSS:curl-8.0.1-150400.5.44.1",
            "SUSE Linux Enterprise Server 15 SP4-LTSS:libcurl-devel-8.0.1-150400.5.44.1",
            "SUSE Linux Enterprise Server 15 SP4-LTSS:libcurl4-32bit-8.0.1-150400.5.44.1",
            "SUSE Linux Enterprise Server 15 SP4-LTSS:libcurl4-8.0.1-150400.5.44.1",
            "SUSE Linux Enterprise Server for SAP Applications 15 SP4:curl-8.0.1-150400.5.44.1",
            "SUSE Linux Enterprise Server for SAP Applications 15 SP4:libcurl-devel-8.0.1-150400.5.44.1",
            "SUSE Linux Enterprise Server for SAP Applications 15 SP4:libcurl4-32bit-8.0.1-150400.5.44.1",
            "SUSE Linux Enterprise Server for SAP Applications 15 SP4:libcurl4-8.0.1-150400.5.44.1",
            "SUSE Manager Proxy 4.3:curl-8.0.1-150400.5.44.1",
            "SUSE Manager Proxy 4.3:libcurl-devel-8.0.1-150400.5.44.1",
            "SUSE Manager Proxy 4.3:libcurl4-32bit-8.0.1-150400.5.44.1",
            "SUSE Manager Proxy 4.3:libcurl4-8.0.1-150400.5.44.1",
            "SUSE Manager Server 4.3:curl-8.0.1-150400.5.44.1",
            "SUSE Manager Server 4.3:libcurl-devel-8.0.1-150400.5.44.1",
            "SUSE Manager Server 4.3:libcurl4-32bit-8.0.1-150400.5.44.1",
            "SUSE Manager Server 4.3:libcurl4-8.0.1-150400.5.44.1"
          ]
        }
      ],
      "CVSSScoreSets": {}
    },
    {
      "CVE": "CVE-2024-2398",
      "Description": "When an application tells libcurl it wants to allow HTTP/2 server push, and the amount of received headers for the push surpasses the maximum allowed limit (1000), libcurl aborts the server push. When aborting, libcurl inadvertently does not free all the previously allocated headers and instead leaks the memory.  Further, this error condition fails silently and is therefore not easily detected by an application.",
      "Threats": [
        {
          "Type": "Impact",
          "Severity": "moderate"
        }
      ],
      "References": [
        {
          "URL": "https://www.suse.com/security/cve/CVE-2024-2398.html",
          "Description": "CVE-2024-2398"
        },
        {
          "URL": "https://bugzilla.suse.com/1221667",
          "Description": "SUSE Bug 1221667"
        }
      ],
      "ProductStatuses": [
        {
          "Type": "Fixed",
          "ProductID": [
            "Container bci/golang:1.20-openssl:libcurl4-8.0.1-150400.5.44.1",
            "Container bci/golang:1.21:libcurl4-8.0.1-150400.5.44.1",
            "Container bci/golang:latest:libcurl4-8.0.1-150400.5.44.1",
            "Container bci/node:18:libcurl4-8.0.1-150400.5.44.1",
            "Container bci/nodejs:latest:libcurl4-8.0.1-150400.5.44.1",
            "Container bci/openjdk-devel:11:libcurl4-8.0.1-150400.5.44.1",
            "Container bci/openjdk-devel:latest:libcurl4-8.0.1-150400.5.44.1",
            "Container bci/php-apache:latest:libcurl4-8.0.1-150400.5.44.1",
            "Container bci/php-fpm:latest:libcurl4-8.0.1-150400.5.44.1",
            "Container bci/php:latest:libcurl4-8.0.1-150400.5.44.1",
            "Container bci/python:3:curl-8.0.1-150400.5.44.1",
            "Container bci/python:3:libcurl4-8.0.1-150400.5.44.1",
            "Container bci/python:latest:curl-8.0.1-150400.5.44.1",
            "Container bci/python:latest:libcurl4-8.0.1-150400.5.44.1",
            "Container bci/ruby:latest:curl-8.0.1-150400.5.44.1",
            "Container bci/ruby:latest:libcurl4-8.0.1-150400.5.44.1",
            "Container bci/rust:1.77:libcurl4-8.0.1-150400.5.44.1",
            "Container bci/rust:latest:libcurl4-8.0.1-150400.5.44.1",
            "Container rancher/elemental-teal-rt/5.4:latest:libcurl4-8.0.1-150400.5.44.1",
            "Container rancher/elemental-teal/5.4:latest:libcurl4-8.0.1-150400.5.44.1",
            "Container rancher/seedimage-builder:latest:curl-8.0.1-150400.5.44.1",
            "Container rancher/seedimage-builder:latest:libcurl4-8.0.1-150400.5.44.1",
            "Container suse/git:latest:libcurl4-8.0.1-150400.5.44.1",
            "Container suse/ltss/sle15.4/sle15:15.4:curl-8.0.1-150400.5.44.1",
            "Container suse/ltss/sle15.4/sle15:15.4:libcurl4-8.0.1-150400.5.44.1",
            "Container suse/manager/4.3/proxy-httpd:latest:curl-8.0.1-150400.5.44.1",
            "Container suse/manager/4.3/proxy-httpd:latest:libcurl4-8.0.1-150400.5.44.1",
            "Container suse/manager/4.3/proxy-salt-broker:latest:curl-8.0.1-150400.5.44.1",
            "Container suse/manager/4.3/proxy-salt-broker:latest:libcurl4-8.0.1-150400.5.44.1",
            "Container suse/sle-micro-rancher/5.3:latest:curl-8.0.1-150400.5.44.1",
            "Container suse/sle-micro-rancher/5.3:latest:libcurl4-8.0.1-150400.5.44.1",
            "Container suse/sle-micro-rancher/5.4:latest:curl-8.0.1-150400.5.44.1",
            "Container suse/sle-micro-rancher/5.4:latest:libcurl4-8.0.1-150400.5.44.1",
            "Container suse/sle-micro/5.3/toolbox:latest:curl-8.0.1-150400.5.44.1",
            "Container suse/sle-micro/5.3/toolbox:latest:libcurl4-8.0.1-150400.5.44.1",
            "Container suse/sle-micro/5.4/toolbox:latest:curl-8.0.1-150400.5.44.1",
            "Container suse/sle-micro/5.4/toolbox:latest:libcurl4-8.0.1-150400.5.44.1",
            "Container suse/sle-micro/5.5/toolbox:latest:libcurl4-8.0.1-150400.5.44.1",
            "Container suse/sle-micro/5.5:latest:libcurl4-8.0.1-150400.5.44.1",
            "Container suse/sle-micro/base-5.5:latest:curl-8.0.1-150400.5.44.1",
            "Container suse/sle-micro/base-5.5:latest:libcurl4-8.0.1-150400.5.44.1",
            "Container suse/sle-micro/kvm-5.5:latest:libcurl4-8.0.1-150400.5.44.1",
            "Container suse/sle-micro/rt-5.5:latest:libcurl4-8.0.1-150400.5.44.1",
            "Container suse/sle15:15.5:curl-8.0.1-150400.5.44.1",
            "Container suse/sle15:15.5:libcurl4-8.0.1-150400.5.44.1",
            "Image SLES15-SP4-CHOST-BYOS-Aliyun:curl-8.0.1-150400.5.44.1",
            "Image SLES15-SP4-CHOST-BYOS-Aliyun:libcurl4-8.0.1-150400.5.44.1",
            "Image SLES15-SP4-CHOST-BYOS-Azure:curl-8.0.1-150400.5.44.1",
            "Image SLES15-SP4-CHOST-BYOS-Azure:libcurl4-8.0.1-150400.5.44.1",
            "Image SLES15-SP4-CHOST-BYOS-EC2:curl-8.0.1-150400.5.44.1",
            "Image SLES15-SP4-CHOST-BYOS-EC2:libcurl4-8.0.1-150400.5.44.1",
            "Image SLES15-SP4-CHOST-BYOS-GCE:curl-8.0.1-150400.5.44.1",
            "Image SLES15-SP4-CHOST-BYOS-GCE:libcurl4-8.0.1-150400.5.44.1",
            "Image SLES15-SP4-CHOST-BYOS-SAP-CCloud:curl-8.0.1-150400.5.44.1",
            "Image SLES15-SP4-CHOST-BYOS-SAP-CCloud:libcurl4-8.0.1-150400.5.44.1",
            "Image SLES15-SP4-CHOST-BYOS:curl-8.0.1-150400.5.44.1",
            "Image SLES15-SP4-CHOST-BYOS:libcurl4-8.0.1-150400.5.44.1",
            "Image SLES15-SP4-Manager-Proxy-4-3-BYOS-Azure:curl-8.0.1-150400.5.44.1",
            "Image SLES15-SP4-Manager-Proxy-4-3-BYOS-Azure:libcurl4-8.0.1-150400.5.44.1",
            "Image SLES15-SP4-Manager-Proxy-4-3-BYOS-EC2:curl-8.0.1-150400.5.44.1",
            "Image SLES15-SP4-Manager-Proxy-4-3-BYOS-EC2:libcurl4-8.0.1-150400.5.44.1",
            "Image SLES15-SP4-Manager-Proxy-4-3-BYOS-GCE:curl-8.0.1-150400.5.44.1",
            "Image SLES15-SP4-Manager-Proxy-4-3-BYOS-GCE:libcurl4-8.0.1-150400.5.44.1",
            "Image SLES15-SP4-Manager-Proxy-4-3-BYOS:curl-8.0.1-150400.5.44.1",
            "Image SLES15-SP4-Manager-Proxy-4-3-BYOS:libcurl4-8.0.1-150400.5.44.1",
            "Image SLES15-SP4-Manager-Server-4-3-Azure-llc:curl-8.0.1-150400.5.44.1",
            "Image SLES15-SP4-Manager-Server-4-3-Azure-llc:libcurl4-8.0.1-150400.5.44.1",
            "Image SLES15-SP4-Manager-Server-4-3-Azure-ltd:curl-8.0.1-150400.5.44.1",
            "Image SLES15-SP4-Manager-Server-4-3-Azure-ltd:libcurl4-8.0.1-150400.5.44.1",
            "Image SLES15-SP4-Manager-Server-4-3-BYOS-Azure:curl-8.0.1-150400.5.44.1",
            "Image SLES15-SP4-Manager-Server-4-3-BYOS-Azure:libcurl4-8.0.1-150400.5.44.1",
            "Image SLES15-SP4-Manager-Server-4-3-BYOS-EC2:curl-8.0.1-150400.5.44.1",
            "Image SLES15-SP4-Manager-Server-4-3-BYOS-EC2:libcurl4-8.0.1-150400.5.44.1",
            "Image SLES15-SP4-Manager-Server-4-3-BYOS-GCE:curl-8.0.1-150400.5.44.1",
            "Image SLES15-SP4-Manager-Server-4-3-BYOS-GCE:libcurl4-8.0.1-150400.5.44.1",
            "Image SLES15-SP4-Manager-Server-4-3-BYOS:curl-8.0.1-150400.5.44.1",
            "Image SLES15-SP4-Manager-Server-4-3-BYOS:libcurl4-8.0.1-150400.5.44.1",
            "Image SLES15-SP4-Manager-Server-4-3-EC2-llc:curl-8.0.1-150400.5.44.1",
            "Image SLES15-SP4-Manager-Server-4-3-EC2-llc:libcurl4-8.0.1-150400.5.44.1",
            "Image SLES15-SP4-Manager-Server-4-3-EC2-ltd:curl-8.0.1-150400.5.44.1",
            "Image SLES15-SP4-Manager-Server-4-3-EC2-ltd:libcurl4-8.0.1-150400.5.44.1",
            "Image SLES15-SP4-Manager-Server-4-3:curl-8.0.1-150400.5.44.1",
            "Image SLES15-SP4-Manager-Server-4-3:libcurl4-8.0.1-150400.5.44.1",
            "Image SLES15-SP4-Micro-5-4-BYOS-EC2:curl-8.0.1-150400.5.44.1",
            "Image SLES15-SP4-Micro-5-4-BYOS-EC2:libcurl4-8.0.1-150400.5.44.1",
            "Image SLES15-SP4-Micro-5-4-BYOS-GCE:curl-8.0.1-150400.5.44.1",
            "Image SLES15-SP4-Micro-5-4-BYOS-GCE:libcurl4-8.0.1-150400.5.44.1",
            "Image SLES15-SP4-Micro-5-4-BYOS:curl-8.0.1-150400.5.44.1",
            "Image SLES15-SP4-Micro-5-4-BYOS:libcurl4-8.0.1-150400.5.44.1",
            "Image SLES15-SP4-Micro-5-4-GCE:curl-8.0.1-150400.5.44.1",
            "Image SLES15-SP4-Micro-5-4-GCE:libcurl4-8.0.1-150400.5.44.1",
            "Image SLES15-SP4-SAP-Azure-LI-BYOS-Production:curl-8.0.1-150400.5.44.1",
            "Image SLES15-SP4-SAP-Azure-LI-BYOS-Production:libcurl4-8.0.1-150400.5.44.1",
            "Image SLES15-SP4-SAP-Azure-LI-BYOS:curl-8.0.1-150400.5.44.1",
            "Image SLES15-SP4-SAP-Azure-LI-BYOS:libcurl4-8.0.1-150400.5.44.1",
            "Image SLES15-SP4-SAP-Azure-VLI-BYOS-Production:curl-8.0.1-150400.5.44.1",
            "Image SLES15-SP4-SAP-Azure-VLI-BYOS-Production:libcurl4-8.0.1-150400.5.44.1",
            "Image SLES15-SP4-SAP-Azure-VLI-BYOS:curl-8.0.1-150400.5.44.1",
            "Image SLES15-SP4-SAP-Azure-VLI-BYOS:libcurl4-8.0.1-150400.5.44.1",
            "Image SLES15-SP5-Azure-Basic:curl-8.0.1-150400.5.44.1",
            "Image SLES15-SP5-Azure-Basic:libcurl4-8.0.1-150400.5.44.1",
            "Image SLES15-SP5-Azure-Standard:curl-8.0.1-150400.5.44.1",
            "Image SLES15-SP5-Azure-Standard:libcurl4-8.0.1-150400.5.44.1",
            "Image SLES15-SP5-BYOS-Azure:curl-8.0.1-150400.5.44.1",
            "Image SLES15-SP5-BYOS-Azure:libcurl4-8.0.1-150400.5.44.1",
            "Image SLES15-SP5-BYOS-EC2:curl-8.0.1-150400.5.44.1",
            "Image SLES15-SP5-BYOS-EC2:libcurl4-8.0.1-150400.5.44.1",
            "Image SLES15-SP5-BYOS-GCE:curl-8.0.1-150400.5.44.1",
            "Image SLES15-SP5-BYOS-GCE:libcurl4-8.0.1-150400.5.44.1",
            "Image SLES15-SP5-CHOST-BYOS-Aliyun:curl-8.0.1-150400.5.44.1",
            "Image SLES15-SP5-CHOST-BYOS-Aliyun:libcurl4-8.0.1-150400.5.44.1",
            "Image SLES15-SP5-CHOST-BYOS-Azure:curl-8.0.1-150400.5.44.1",
            "Image SLES15-SP5-CHOST-BYOS-Azure:libcurl4-8.0.1-150400.5.44.1",
            "Image SLES15-SP5-CHOST-BYOS-EC2:curl-8.0.1-150400.5.44.1",
            "Image SLES15-SP5-CHOST-BYOS-EC2:libcurl4-8.0.1-150400.5.44.1",
            "Image SLES15-SP5-CHOST-BYOS-GCE:curl-8.0.1-150400.5.44.1",
            "Image SLES15-SP5-CHOST-BYOS-GCE:libcurl4-8.0.1-150400.5.44.1",
            "Image SLES15-SP5-CHOST-BYOS-SAP-CCloud:curl-8.0.1-150400.5.44.1",
            "Image SLES15-SP5-CHOST-BYOS-SAP-CCloud:libcurl4-8.0.1-150400.5.44.1",
            "Image SLES15-SP5-EC2:curl-8.0.1-150400.5.44.1",
            "Image SLES15-SP5-EC2:libcurl4-8.0.1-150400.5.44.1",
            "Image SLES15-SP5-GCE:curl-8.0.1-150400.5.44.1",
            "Image SLES15-SP5-GCE:libcurl4-8.0.1-150400.5.44.1",
            "Image SLES15-SP5-HPC-Azure:curl-8.0.1-150400.5.44.1",
            "Image SLES15-SP5-HPC-Azure:libcurl4-8.0.1-150400.5.44.1",
            "Image SLES15-SP5-HPC-BYOS-Azure:curl-8.0.1-150400.5.44.1",
            "Image SLES15-SP5-HPC-BYOS-Azure:libcurl4-8.0.1-150400.5.44.1",
            "Image SLES15-SP5-HPC-BYOS-EC2:curl-8.0.1-150400.5.44.1",
            "Image SLES15-SP5-HPC-BYOS-EC2:libcurl4-8.0.1-150400.5.44.1",
            "Image SLES15-SP5-HPC-BYOS-GCE:curl-8.0.1-150400.5.44.1",
            "Image SLES15-SP5-HPC-BYOS-GCE:libcurl4-8.0.1-150400.5.44.1",
            "Image SLES15-SP5-Hardened-BYOS-Azure:curl-8.0.1-150400.5.44.1",
            "Image SLES15-SP5-Hardened-BYOS-Azure:libcurl4-8.0.1-150400.5.44.1",
            "Image SLES15-SP5-Hardened-BYOS-EC2:curl-8.0.1-150400.5.44.1",
            "Image SLES15-SP5-Hardened-BYOS-EC2:libcurl4-8.0.1-150400.5.44.1",
            "Image SLES15-SP5-Hardened-BYOS-GCE:curl-8.0.1-150400.5.44.1",
            "Image SLES15-SP5-Hardened-BYOS-GCE:libcurl4-8.0.1-150400.5.44.1",
            "Image SLES15-SP5-SAP-BYOS-Azure:curl-8.0.1-150400.5.44.1",
            "Image SLES15-SP5-SAP-BYOS-Azure:libcurl4-8.0.1-150400.5.44.1",
            "Image SLES15-SP5-SAP-BYOS-EC2:curl-8.0.1-150400.5.44.1",
            "Image SLES15-SP5-SAP-BYOS-EC2:libcurl4-8.0.1-150400.5.44.1",
            "Image SLES15-SP5-SAP-BYOS-GCE:curl-8.0.1-150400.5.44.1",
            "Image SLES15-SP5-SAP-BYOS-GCE:libcurl4-8.0.1-150400.5.44.1",
            "Image SLES15-SP5-SAP-Hardened-Azure:curl-8.0.1-150400.5.44.1",
            "Image SLES15-SP5-SAP-Hardened-Azure:libcurl4-8.0.1-150400.5.44.1",
            "Image SLES15-SP5-SAP-Hardened-BYOS-Azure:curl-8.0.1-150400.5.44.1",
            "Image SLES15-SP5-SAP-Hardened-BYOS-Azure:libcurl4-8.0.1-150400.5.44.1",
            "Image SLES15-SP5-SAP-Hardened-BYOS-EC2:curl-8.0.1-150400.5.44.1",
            "Image SLES15-SP5-SAP-Hardened-BYOS-EC2:libcurl4-8.0.1-150400.5.44.1",
            "Image SLES15-SP5-SAP-Hardened-BYOS-GCE:curl-8.0.1-150400.5.44.1",
            "Image SLES15-SP5-SAP-Hardened-BYOS-GCE:libcurl4-8.0.1-150400.5.44.1",
            "Image SLES15-SP5-SAP-Hardened-GCE:curl-8.0.1-150400.5.44.1",
            "Image SLES15-SP5-SAP-Hardened-GCE:libcurl4-8.0.1-150400.5.44.1",
            "Image SLES15-SP5-SAPCAL-Azure:curl-8.0.1-150400.5.44.1",
            "Image SLES15-SP5-SAPCAL-Azure:libcurl-devel-8.0.1-150400.5.44.1",
            "Image SLES15-SP5-SAPCAL-Azure:libcurl4-32bit-8.0.1-150400.5.44.1",
            "Image SLES15-SP5-SAPCAL-Azure:libcurl4-8.0.1-150400.5.44.1",
            "Image SLES15-SP5-SAPCAL-EC2:curl-8.0.1-150400.5.44.1",
            "Image SLES15-SP5-SAPCAL-EC2:libcurl-devel-8.0.1-150400.5.44.1",
            "Image SLES15-SP5-SAPCAL-EC2:libcurl4-32bit-8.0.1-150400.5.44.1",
            "Image SLES15-SP5-SAPCAL-EC2:libcurl4-8.0.1-150400.5.44.1",
            "Image SLES15-SP5-SAPCAL-GCE:curl-8.0.1-150400.5.44.1",
            "Image SLES15-SP5-SAPCAL-GCE:libcurl-devel-8.0.1-150400.5.44.1",
            "Image SLES15-SP5-SAPCAL-GCE:libcurl4-32bit-8.0.1-150400.5.44.1",
            "Image SLES15-SP5-SAPCAL-GCE:libcurl4-8.0.1-150400.5.44.1",
            "SUSE Linux Enterprise High Performance Computing 15 SP4-ESPOS:curl-8.0.1-150400.5.44.1",
            "SUSE Linux Enterprise High Performance Computing 15 SP4-ESPOS:libcurl-devel-8.0.1-150400.5.44.1",
            "SUSE Linux Enterprise High Performance Computing 15 SP4-ESPOS:libcurl4-32bit-8.0.1-150400.5.44.1",
            "SUSE Linux Enterprise High Performance Computing 15 SP4-ESPOS:libcurl4-8.0.1-150400.5.44.1",
            "SUSE Linux Enterprise High Performance Computing 15 SP4-LTSS:curl-8.0.1-150400.5.44.1",
            "SUSE Linux Enterprise High Performance Computing 15 SP4-LTSS:libcurl-devel-8.0.1-150400.5.44.1",
            "SUSE Linux Enterprise High Performance Computing 15 SP4-LTSS:libcurl4-32bit-8.0.1-150400.5.44.1",
            "SUSE Linux Enterprise High Performance Computing 15 SP4-LTSS:libcurl4-8.0.1-150400.5.44.1",
            "SUSE Linux Enterprise Server 15 SP4-LTSS:curl-8.0.1-150400.5.44.1",
            "SUSE Linux Enterprise Server 15 SP4-LTSS:libcurl-devel-8.0.1-150400.5.44.1",
            "SUSE Linux Enterprise Server 15 SP4-LTSS:libcurl4-32bit-8.0.1-150400.5.44.1",
            "SUSE Linux Enterprise Server 15 SP4-LTSS:libcurl4-8.0.1-150400.5.44.1",
            "SUSE Linux Enterprise Server for SAP Applications 15 SP4:curl-8.0.1-150400.5.44.1",
            "SUSE Linux Enterprise Server for SAP Applications 15 SP4:libcurl-devel-8.0.1-150400.5.44.1",
            "SUSE Linux Enterprise Server for SAP Applications 15 SP4:libcurl4-32bit-8.0.1-150400.5.44.1",
            "SUSE Linux Enterprise Server for SAP Applications 15 SP4:libcurl4-8.0.1-150400.5.44.1",
            "SUSE Manager Proxy 4.3:curl-8.0.1-150400.5.44.1",
            "SUSE Manager Proxy 4.3:libcurl-devel-8.0.1-150400.5.44.1",
            "SUSE Manager Proxy 4.3:libcurl4-32bit-8.0.1-150400.5.44.1",
            "SUSE Manager Proxy 4.3:libcurl4-8.0.1-150400.5.44.1",
            "SUSE Manager Server 4.3:curl-8.0.1-150400.5.44.1",
            "SUSE Manager Server 4.3:libcurl-devel-8.0.1-150400.5.44.1",
            "SUSE Manager Server 4.3:libcurl4-32bit-8.0.1-150400.5.44.1",
            "SUSE Manager Server 4.3:libcurl4-8.0.1-150400.5.44.1"
          ]
        }
      ],
      "CVSSScoreSets": {}
    }
  ]
}