{
  "Title": "Security update for the Linux Kernel (Live Patch 41 for SLE 15 SP2)",
  "Tracking": {
    "ID": "SUSE-SU-2024:1537-1",
    "Status": "Final",
    "Version": "1",
    "InitialReleaseDate": "2024-05-07T00:03:32Z",
    "CurrentReleaseDate": "2024-05-07T00:03:32Z",
    "RevisionHistory": [
      {
        "Number": "1",
        "Date": "2024-05-07T00:03:32Z",
        "Description": "current"
      }
    ]
  },
  "Notes": [
    {
      "Text": "Security update for the Linux Kernel (Live Patch 41 for SLE 15 SP2)",
      "Title": "Topic",
      "Type": "Summary"
    },
    {
      "Text": "This update for the Linux Kernel 5.3.18-150200_24_166 fixes several issues.\n\nThe following security issues were fixed:\n\n- CVE-2024-0775: Fixed a use-after-free flaw was found in the __ext4_remount in fs/ext4/super.c in ext4 (bsc#1219079).\n- CVE-2023-5717: Fixed a heap out-of-bounds write vulnerability perf component (bsc#1216644).\n- CVE-2024-1086: Fixed a use-after-free vulnerability related to nft_verdict_init() (bsc#1219435).\n",
      "Title": "Details",
      "Type": "General"
    },
    {
      "Text": "The CVRF data is provided by SUSE under the Creative Commons License 4.0 with Attribution (CC-BY-4.0).",
      "Title": "Terms of Use",
      "Type": "Legal Disclaimer"
    },
    {
      "Text": "SUSE-2024-1537,SUSE-SLE-Module-Live-Patching-15-SP2-2024-1537",
      "Title": "Patchnames",
      "Type": "Details"
    }
  ],
  "ProductTree": {
    "Relationships": [
      {
        "ProductReference": "kernel-livepatch-5_3_18-150200_24_166-default-8-150200.2.1",
        "RelatesToProductReference": "SUSE Linux Enterprise Live Patching 15 SP2",
        "RelationType": "Default Component Of"
      }
    ]
  },
  "References": [
    {
      "URL": "https://www.suse.com/support/update/announcement/2024/suse-su-20241537-1/",
      "Description": "Link for SUSE-SU-2024:1537-1"
    },
    {
      "URL": "https://lists.suse.com/pipermail/sle-security-updates/2024-May/018471.html",
      "Description": "E-Mail link for SUSE-SU-2024:1537-1"
    },
    {
      "URL": "https://www.suse.com/support/security/rating/",
      "Description": "SUSE Security Ratings"
    },
    {
      "URL": "https://bugzilla.suse.com/1216644",
      "Description": "SUSE Bug 1216644"
    },
    {
      "URL": "https://bugzilla.suse.com/1219079",
      "Description": "SUSE Bug 1219079"
    },
    {
      "URL": "https://bugzilla.suse.com/1219435",
      "Description": "SUSE Bug 1219435"
    },
    {
      "URL": "https://www.suse.com/security/cve/CVE-2023-5717/",
      "Description": "SUSE CVE CVE-2023-5717 page"
    },
    {
      "URL": "https://www.suse.com/security/cve/CVE-2024-0775/",
      "Description": "SUSE CVE CVE-2024-0775 page"
    },
    {
      "URL": "https://www.suse.com/security/cve/CVE-2024-1086/",
      "Description": "SUSE CVE CVE-2024-1086 page"
    }
  ],
  "Vulnerabilities": [
    {
      "CVE": "CVE-2023-5717",
      "Description": "A heap out-of-bounds write vulnerability in the Linux kernel's Linux Kernel Performance Events (perf) component can be exploited to achieve local privilege escalation.\n\nIf perf_read_group() is called while an event's sibling_list is smaller than its child's sibling_list, it can increment or write to memory locations outside of the allocated buffer.\n\nWe recommend upgrading past commit 32671e3799ca2e4590773fd0e63aaa4229e50c06.\n\n",
      "Threats": [
        {
          "Type": "Impact",
          "Severity": "important"
        }
      ],
      "References": [
        {
          "URL": "https://www.suse.com/security/cve/CVE-2023-5717.html",
          "Description": "CVE-2023-5717"
        },
        {
          "URL": "https://bugzilla.suse.com/1216584",
          "Description": "SUSE Bug 1216584"
        },
        {
          "URL": "https://bugzilla.suse.com/1216644",
          "Description": "SUSE Bug 1216644"
        },
        {
          "URL": "https://bugzilla.suse.com/1217557",
          "Description": "SUSE Bug 1217557"
        },
        {
          "URL": "https://bugzilla.suse.com/1219697",
          "Description": "SUSE Bug 1219697"
        },
        {
          "URL": "https://bugzilla.suse.com/1220191",
          "Description": "SUSE Bug 1220191"
        }
      ],
      "ProductStatuses": [
        {
          "Type": "Fixed",
          "ProductID": [
            "SUSE Linux Enterprise Live Patching 15 SP2:kernel-livepatch-5_3_18-150200_24_166-default-8-150200.2.1"
          ]
        }
      ],
      "CVSSScoreSets": {}
    },
    {
      "CVE": "CVE-2024-0775",
      "Description": "A use-after-free flaw was found in the __ext4_remount in fs/ext4/super.c in ext4 in the Linux kernel. This flaw allows a local user to cause an information leak problem while freeing the old quota file names before a potential failure, leading to a use-after-free.",
      "Threats": [
        {
          "Type": "Impact",
          "Severity": "important"
        }
      ],
      "References": [
        {
          "URL": "https://www.suse.com/security/cve/CVE-2024-0775.html",
          "Description": "CVE-2024-0775"
        },
        {
          "URL": "https://bugzilla.suse.com/1219053",
          "Description": "SUSE Bug 1219053"
        },
        {
          "URL": "https://bugzilla.suse.com/1219082",
          "Description": "SUSE Bug 1219082"
        },
        {
          "URL": "https://bugzilla.suse.com/1224878",
          "Description": "SUSE Bug 1224878"
        }
      ],
      "ProductStatuses": [
        {
          "Type": "Fixed",
          "ProductID": [
            "SUSE Linux Enterprise Live Patching 15 SP2:kernel-livepatch-5_3_18-150200_24_166-default-8-150200.2.1"
          ]
        }
      ],
      "CVSSScoreSets": {}
    },
    {
      "CVE": "CVE-2024-1086",
      "Description": "A use-after-free vulnerability in the Linux kernel's netfilter: nf_tables component can be exploited to achieve local privilege escalation.\n\nThe nft_verdict_init() function allows positive values as drop error within the hook verdict, and hence the nf_hook_slow() function can cause a double free vulnerability when NF_DROP is issued with a drop error which resembles NF_ACCEPT.\n\nWe recommend upgrading past commit f342de4e2f33e0e39165d8639387aa6c19dff660.\n\n",
      "Threats": [
        {
          "Type": "Impact",
          "Severity": "important"
        }
      ],
      "References": [
        {
          "URL": "https://www.suse.com/security/cve/CVE-2024-1086.html",
          "Description": "CVE-2024-1086"
        },
        {
          "URL": "https://bugzilla.suse.com/1219434",
          "Description": "SUSE Bug 1219434"
        },
        {
          "URL": "https://bugzilla.suse.com/1219435",
          "Description": "SUSE Bug 1219435"
        },
        {
          "URL": "https://bugzilla.suse.com/1224878",
          "Description": "SUSE Bug 1224878"
        },
        {
          "URL": "https://bugzilla.suse.com/1226066",
          "Description": "SUSE Bug 1226066"
        }
      ],
      "ProductStatuses": [
        {
          "Type": "Fixed",
          "ProductID": [
            "SUSE Linux Enterprise Live Patching 15 SP2:kernel-livepatch-5_3_18-150200_24_166-default-8-150200.2.1"
          ]
        }
      ],
      "CVSSScoreSets": {}
    }
  ]
}