{
  "Title": "Security update for the Linux Kernel (Live Patch 40 for SLE 15 SP3)",
  "Tracking": {
    "ID": "SUSE-SU-2024:0394-1",
    "Status": "Final",
    "Version": "1",
    "InitialReleaseDate": "2024-02-07T00:03:31Z",
    "CurrentReleaseDate": "2024-02-07T00:03:31Z",
    "RevisionHistory": [
      {
        "Number": "1",
        "Date": "2024-02-07T00:03:31Z",
        "Description": "current"
      }
    ]
  },
  "Notes": [
    {
      "Text": "Security update for the Linux Kernel (Live Patch 40 for SLE 15 SP3)",
      "Title": "Topic",
      "Type": "Summary"
    },
    {
      "Text": "This update for the Linux Kernel 5.3.18-150300_59_147 fixes one issue.\n\nThe following security issue was fixed:\n\n- CVE-2023-1829: Fixed a use-after-free vulnerability in the control index filter (tcindex) (bsc#1210619).\n",
      "Title": "Details",
      "Type": "General"
    },
    {
      "Text": "The CVRF data is provided by SUSE under the Creative Commons License 4.0 with Attribution (CC-BY-4.0).",
      "Title": "Terms of Use",
      "Type": "Legal Disclaimer"
    },
    {
      "Text": "SUSE-2024-394,SUSE-SLE-Module-Live-Patching-15-SP3-2024-394",
      "Title": "Patchnames",
      "Type": "Details"
    }
  ],
  "ProductTree": {
    "Relationships": [
      {
        "ProductReference": "kernel-livepatch-5_3_18-150300_59_147-default-2-150300.2.1",
        "RelatesToProductReference": "SUSE Linux Enterprise Live Patching 15 SP3",
        "RelationType": "Default Component Of"
      }
    ]
  },
  "References": [
    {
      "URL": "https://www.suse.com/support/update/announcement/2024/suse-su-20240394-1/",
      "Description": "Link for SUSE-SU-2024:0394-1"
    },
    {
      "URL": "https://lists.suse.com/pipermail/sle-security-updates/2024-February/017878.html",
      "Description": "E-Mail link for SUSE-SU-2024:0394-1"
    },
    {
      "URL": "https://www.suse.com/support/security/rating/",
      "Description": "SUSE Security Ratings"
    },
    {
      "URL": "https://bugzilla.suse.com/1210619",
      "Description": "SUSE Bug 1210619"
    },
    {
      "URL": "https://www.suse.com/security/cve/CVE-2023-1829/",
      "Description": "SUSE CVE CVE-2023-1829 page"
    }
  ],
  "Vulnerabilities": [
    {
      "CVE": "CVE-2023-1829",
      "Description": "A use-after-free vulnerability in the Linux Kernel traffic control index filter (tcindex) can be exploited to achieve local privilege escalation. The tcindex_delete function which does not properly deactivate filters in case of a perfect hashes while deleting the underlying structure which can later lead to double freeing the structure. A local attacker user can use this vulnerability to elevate its privileges to root.\nWe recommend upgrading past commit 8c710f75256bb3cf05ac7b1672c82b92c43f3d28.\n\n",
      "Threats": [
        {
          "Type": "Impact",
          "Severity": "important"
        }
      ],
      "References": [
        {
          "URL": "https://www.suse.com/security/cve/CVE-2023-1829.html",
          "Description": "CVE-2023-1829"
        },
        {
          "URL": "https://bugzilla.suse.com/1210335",
          "Description": "SUSE Bug 1210335"
        },
        {
          "URL": "https://bugzilla.suse.com/1210619",
          "Description": "SUSE Bug 1210619"
        },
        {
          "URL": "https://bugzilla.suse.com/1217444",
          "Description": "SUSE Bug 1217444"
        },
        {
          "URL": "https://bugzilla.suse.com/1217531",
          "Description": "SUSE Bug 1217531"
        },
        {
          "URL": "https://bugzilla.suse.com/1220886",
          "Description": "SUSE Bug 1220886"
        }
      ],
      "ProductStatuses": [
        {
          "Type": "Fixed",
          "ProductID": [
            "SUSE Linux Enterprise Live Patching 15 SP3:kernel-livepatch-5_3_18-150300_59_147-default-2-150300.2.1"
          ]
        }
      ],
      "CVSSScoreSets": {}
    }
  ]
}