{
  "Title": "Security update for MozillaFirefox",
  "Tracking": {
    "ID": "SUSE-SU-2024:1350-1",
    "Status": "Final",
    "Version": "1",
    "InitialReleaseDate": "2024-04-19T11:20:10Z",
    "CurrentReleaseDate": "2024-04-19T11:20:10Z",
    "RevisionHistory": [
      {
        "Number": "1",
        "Date": "2024-04-19T11:20:10Z",
        "Description": "current"
      }
    ]
  },
  "Notes": [
    {
      "Text": "Security update for MozillaFirefox",
      "Title": "Topic",
      "Type": "Summary"
    },
    {
      "Text": "This update for MozillaFirefox fixes the following issues:\n\nUpdate to Firefox Extended Support Release 115.10.0 ESR (MSFA 2024-19) (bsc#1222535):\n\n  - CVE-2024-3852: GetBoundName in the JIT returned the wrong object\n  - CVE-2024-3854: Out-of-bounds-read after mis-optimized switch statement\n  - CVE-2024-3857: Incorrect JITting of arguments led to use-after-free during garbage collection\n  - CVE-2024-2609: Permission prompt input delay could expire when not in focus\n  - CVE-2024-3859: Integer-overflow led to out-of-bounds-read in the OpenType sanitizer\n  - CVE-2024-3861: Potential use-after-free due to AlignedBuffer self-move\n  - CVE-2024-3863: Download Protections were bypassed by .xrm-ms files on Windows\n  - CVE-2024-3302: Denial of Service using HTTP/2 CONTINUATION frames\n  - CVE-2024-3864: Memory safety bug fixed in Firefox 125, Firefox ESR 115.10, and Thunderbird 115.10\n",
      "Title": "Details",
      "Type": "General"
    },
    {
      "Text": "The CVRF data is provided by SUSE under the Creative Commons License 4.0 with Attribution (CC-BY-4.0).",
      "Title": "Terms of Use",
      "Type": "Legal Disclaimer"
    },
    {
      "Text": "Image SLES15-SP2-SAP-Azure-LI-BYOS-Production-2024-1350,Image SLES15-SP2-SAP-Azure-VLI-BYOS-Production-2024-1350,Image SLES15-SP3-SAP-Azure-LI-BYOS-Production-2024-1350,Image SLES15-SP3-SAP-Azure-VLI-BYOS-Production-2024-1350,SUSE-2024-1350,SUSE-SLE-Module-Desktop-Applications-15-SP5-2024-1350,SUSE-SLE-Product-HPC-15-SP2-LTSS-2024-1350,SUSE-SLE-Product-HPC-15-SP3-LTSS-2024-1350,SUSE-SLE-Product-HPC-15-SP4-ESPOS-2024-1350,SUSE-SLE-Product-HPC-15-SP4-LTSS-2024-1350,SUSE-SLE-Product-SLED-15-SP4-LTSS-2024-1350,SUSE-SLE-Product-SLES-15-SP2-LTSS-2024-1350,SUSE-SLE-Product-SLES-15-SP3-LTSS-2024-1350,SUSE-SLE-Product-SLES-15-SP4-LTSS-2024-1350,SUSE-SLE-Product-SLES_SAP-15-SP2-2024-1350,SUSE-SLE-Product-SLES_SAP-15-SP3-2024-1350,SUSE-SLE-Product-SLES_SAP-15-SP4-2024-1350,SUSE-Storage-7.1-2024-1350,openSUSE-SLE-15.5-2024-1350",
      "Title": "Patchnames",
      "Type": "Details"
    }
  ],
  "ProductTree": {
    "Relationships": [
      {
        "ProductReference": "MozillaFirefox-115.10.0-150200.152.134.1",
        "RelatesToProductReference": "Image SLES15-SP2-SAP-Azure-LI-BYOS-Production",
        "RelationType": "Default Component Of"
      },
      {
        "ProductReference": "MozillaFirefox-115.10.0-150200.152.134.1",
        "RelatesToProductReference": "Image SLES15-SP2-SAP-Azure-VLI-BYOS-Production",
        "RelationType": "Default Component Of"
      },
      {
        "ProductReference": "MozillaFirefox-115.10.0-150200.152.134.1",
        "RelatesToProductReference": "Image SLES15-SP3-SAP-Azure-LI-BYOS-Production",
        "RelationType": "Default Component Of"
      },
      {
        "ProductReference": "MozillaFirefox-115.10.0-150200.152.134.1",
        "RelatesToProductReference": "Image SLES15-SP3-SAP-Azure-VLI-BYOS-Production",
        "RelationType": "Default Component Of"
      },
      {
        "ProductReference": "MozillaFirefox-115.10.0-150200.152.134.1",
        "RelatesToProductReference": "SUSE Enterprise Storage 7.1",
        "RelationType": "Default Component Of"
      },
      {
        "ProductReference": "MozillaFirefox-devel-115.10.0-150200.152.134.1",
        "RelatesToProductReference": "SUSE Enterprise Storage 7.1",
        "RelationType": "Default Component Of"
      },
      {
        "ProductReference": "MozillaFirefox-translations-common-115.10.0-150200.152.134.1",
        "RelatesToProductReference": "SUSE Enterprise Storage 7.1",
        "RelationType": "Default Component Of"
      },
      {
        "ProductReference": "MozillaFirefox-translations-other-115.10.0-150200.152.134.1",
        "RelatesToProductReference": "SUSE Enterprise Storage 7.1",
        "RelationType": "Default Component Of"
      },
      {
        "ProductReference": "MozillaFirefox-115.10.0-150200.152.134.1",
        "RelatesToProductReference": "SUSE Linux Enterprise High Performance Computing 15 SP2-LTSS",
        "RelationType": "Default Component Of"
      },
      {
        "ProductReference": "MozillaFirefox-devel-115.10.0-150200.152.134.1",
        "RelatesToProductReference": "SUSE Linux Enterprise High Performance Computing 15 SP2-LTSS",
        "RelationType": "Default Component Of"
      },
      {
        "ProductReference": "MozillaFirefox-translations-common-115.10.0-150200.152.134.1",
        "RelatesToProductReference": "SUSE Linux Enterprise High Performance Computing 15 SP2-LTSS",
        "RelationType": "Default Component Of"
      },
      {
        "ProductReference": "MozillaFirefox-translations-other-115.10.0-150200.152.134.1",
        "RelatesToProductReference": "SUSE Linux Enterprise High Performance Computing 15 SP2-LTSS",
        "RelationType": "Default Component Of"
      },
      {
        "ProductReference": "MozillaFirefox-115.10.0-150200.152.134.1",
        "RelatesToProductReference": "SUSE Linux Enterprise High Performance Computing 15 SP3-LTSS",
        "RelationType": "Default Component Of"
      },
      {
        "ProductReference": "MozillaFirefox-devel-115.10.0-150200.152.134.1",
        "RelatesToProductReference": "SUSE Linux Enterprise High Performance Computing 15 SP3-LTSS",
        "RelationType": "Default Component Of"
      },
      {
        "ProductReference": "MozillaFirefox-translations-common-115.10.0-150200.152.134.1",
        "RelatesToProductReference": "SUSE Linux Enterprise High Performance Computing 15 SP3-LTSS",
        "RelationType": "Default Component Of"
      },
      {
        "ProductReference": "MozillaFirefox-translations-other-115.10.0-150200.152.134.1",
        "RelatesToProductReference": "SUSE Linux Enterprise High Performance Computing 15 SP3-LTSS",
        "RelationType": "Default Component Of"
      },
      {
        "ProductReference": "MozillaFirefox-115.10.0-150200.152.134.1",
        "RelatesToProductReference": "SUSE Linux Enterprise High Performance Computing 15 SP4-ESPOS",
        "RelationType": "Default Component Of"
      },
      {
        "ProductReference": "MozillaFirefox-devel-115.10.0-150200.152.134.1",
        "RelatesToProductReference": "SUSE Linux Enterprise High Performance Computing 15 SP4-ESPOS",
        "RelationType": "Default Component Of"
      },
      {
        "ProductReference": "MozillaFirefox-translations-common-115.10.0-150200.152.134.1",
        "RelatesToProductReference": "SUSE Linux Enterprise High Performance Computing 15 SP4-ESPOS",
        "RelationType": "Default Component Of"
      },
      {
        "ProductReference": "MozillaFirefox-translations-other-115.10.0-150200.152.134.1",
        "RelatesToProductReference": "SUSE Linux Enterprise High Performance Computing 15 SP4-ESPOS",
        "RelationType": "Default Component Of"
      },
      {
        "ProductReference": "MozillaFirefox-115.10.0-150200.152.134.1",
        "RelatesToProductReference": "SUSE Linux Enterprise High Performance Computing 15 SP4-LTSS",
        "RelationType": "Default Component Of"
      },
      {
        "ProductReference": "MozillaFirefox-devel-115.10.0-150200.152.134.1",
        "RelatesToProductReference": "SUSE Linux Enterprise High Performance Computing 15 SP4-LTSS",
        "RelationType": "Default Component Of"
      },
      {
        "ProductReference": "MozillaFirefox-translations-common-115.10.0-150200.152.134.1",
        "RelatesToProductReference": "SUSE Linux Enterprise High Performance Computing 15 SP4-LTSS",
        "RelationType": "Default Component Of"
      },
      {
        "ProductReference": "MozillaFirefox-translations-other-115.10.0-150200.152.134.1",
        "RelatesToProductReference": "SUSE Linux Enterprise High Performance Computing 15 SP4-LTSS",
        "RelationType": "Default Component Of"
      },
      {
        "ProductReference": "MozillaFirefox-115.10.0-150200.152.134.1",
        "RelatesToProductReference": "SUSE Linux Enterprise Module for Desktop Applications 15 SP5",
        "RelationType": "Default Component Of"
      },
      {
        "ProductReference": "MozillaFirefox-devel-115.10.0-150200.152.134.1",
        "RelatesToProductReference": "SUSE Linux Enterprise Module for Desktop Applications 15 SP5",
        "RelationType": "Default Component Of"
      },
      {
        "ProductReference": "MozillaFirefox-translations-common-115.10.0-150200.152.134.1",
        "RelatesToProductReference": "SUSE Linux Enterprise Module for Desktop Applications 15 SP5",
        "RelationType": "Default Component Of"
      },
      {
        "ProductReference": "MozillaFirefox-translations-other-115.10.0-150200.152.134.1",
        "RelatesToProductReference": "SUSE Linux Enterprise Module for Desktop Applications 15 SP5",
        "RelationType": "Default Component Of"
      },
      {
        "ProductReference": "MozillaFirefox-115.10.0-150200.152.134.1",
        "RelatesToProductReference": "SUSE Linux Enterprise Server 15 SP2-LTSS",
        "RelationType": "Default Component Of"
      },
      {
        "ProductReference": "MozillaFirefox-devel-115.10.0-150200.152.134.1",
        "RelatesToProductReference": "SUSE Linux Enterprise Server 15 SP2-LTSS",
        "RelationType": "Default Component Of"
      },
      {
        "ProductReference": "MozillaFirefox-translations-common-115.10.0-150200.152.134.1",
        "RelatesToProductReference": "SUSE Linux Enterprise Server 15 SP2-LTSS",
        "RelationType": "Default Component Of"
      },
      {
        "ProductReference": "MozillaFirefox-translations-other-115.10.0-150200.152.134.1",
        "RelatesToProductReference": "SUSE Linux Enterprise Server 15 SP2-LTSS",
        "RelationType": "Default Component Of"
      },
      {
        "ProductReference": "MozillaFirefox-115.10.0-150200.152.134.1",
        "RelatesToProductReference": "SUSE Linux Enterprise Server 15 SP3-LTSS",
        "RelationType": "Default Component Of"
      },
      {
        "ProductReference": "MozillaFirefox-devel-115.10.0-150200.152.134.1",
        "RelatesToProductReference": "SUSE Linux Enterprise Server 15 SP3-LTSS",
        "RelationType": "Default Component Of"
      },
      {
        "ProductReference": "MozillaFirefox-translations-common-115.10.0-150200.152.134.1",
        "RelatesToProductReference": "SUSE Linux Enterprise Server 15 SP3-LTSS",
        "RelationType": "Default Component Of"
      },
      {
        "ProductReference": "MozillaFirefox-translations-other-115.10.0-150200.152.134.1",
        "RelatesToProductReference": "SUSE Linux Enterprise Server 15 SP3-LTSS",
        "RelationType": "Default Component Of"
      },
      {
        "ProductReference": "MozillaFirefox-115.10.0-150200.152.134.1",
        "RelatesToProductReference": "SUSE Linux Enterprise Server 15 SP4-LTSS",
        "RelationType": "Default Component Of"
      },
      {
        "ProductReference": "MozillaFirefox-devel-115.10.0-150200.152.134.1",
        "RelatesToProductReference": "SUSE Linux Enterprise Server 15 SP4-LTSS",
        "RelationType": "Default Component Of"
      },
      {
        "ProductReference": "MozillaFirefox-translations-common-115.10.0-150200.152.134.1",
        "RelatesToProductReference": "SUSE Linux Enterprise Server 15 SP4-LTSS",
        "RelationType": "Default Component Of"
      },
      {
        "ProductReference": "MozillaFirefox-translations-other-115.10.0-150200.152.134.1",
        "RelatesToProductReference": "SUSE Linux Enterprise Server 15 SP4-LTSS",
        "RelationType": "Default Component Of"
      },
      {
        "ProductReference": "MozillaFirefox-115.10.0-150200.152.134.1",
        "RelatesToProductReference": "SUSE Linux Enterprise Server for SAP Applications 15 SP2",
        "RelationType": "Default Component Of"
      },
      {
        "ProductReference": "MozillaFirefox-devel-115.10.0-150200.152.134.1",
        "RelatesToProductReference": "SUSE Linux Enterprise Server for SAP Applications 15 SP2",
        "RelationType": "Default Component Of"
      },
      {
        "ProductReference": "MozillaFirefox-translations-common-115.10.0-150200.152.134.1",
        "RelatesToProductReference": "SUSE Linux Enterprise Server for SAP Applications 15 SP2",
        "RelationType": "Default Component Of"
      },
      {
        "ProductReference": "MozillaFirefox-translations-other-115.10.0-150200.152.134.1",
        "RelatesToProductReference": "SUSE Linux Enterprise Server for SAP Applications 15 SP2",
        "RelationType": "Default Component Of"
      },
      {
        "ProductReference": "MozillaFirefox-115.10.0-150200.152.134.1",
        "RelatesToProductReference": "SUSE Linux Enterprise Server for SAP Applications 15 SP3",
        "RelationType": "Default Component Of"
      },
      {
        "ProductReference": "MozillaFirefox-devel-115.10.0-150200.152.134.1",
        "RelatesToProductReference": "SUSE Linux Enterprise Server for SAP Applications 15 SP3",
        "RelationType": "Default Component Of"
      },
      {
        "ProductReference": "MozillaFirefox-translations-common-115.10.0-150200.152.134.1",
        "RelatesToProductReference": "SUSE Linux Enterprise Server for SAP Applications 15 SP3",
        "RelationType": "Default Component Of"
      },
      {
        "ProductReference": "MozillaFirefox-translations-other-115.10.0-150200.152.134.1",
        "RelatesToProductReference": "SUSE Linux Enterprise Server for SAP Applications 15 SP3",
        "RelationType": "Default Component Of"
      },
      {
        "ProductReference": "MozillaFirefox-115.10.0-150200.152.134.1",
        "RelatesToProductReference": "SUSE Linux Enterprise Server for SAP Applications 15 SP4",
        "RelationType": "Default Component Of"
      },
      {
        "ProductReference": "MozillaFirefox-devel-115.10.0-150200.152.134.1",
        "RelatesToProductReference": "SUSE Linux Enterprise Server for SAP Applications 15 SP4",
        "RelationType": "Default Component Of"
      },
      {
        "ProductReference": "MozillaFirefox-translations-common-115.10.0-150200.152.134.1",
        "RelatesToProductReference": "SUSE Linux Enterprise Server for SAP Applications 15 SP4",
        "RelationType": "Default Component Of"
      },
      {
        "ProductReference": "MozillaFirefox-translations-other-115.10.0-150200.152.134.1",
        "RelatesToProductReference": "SUSE Linux Enterprise Server for SAP Applications 15 SP4",
        "RelationType": "Default Component Of"
      },
      {
        "ProductReference": "MozillaFirefox-115.10.0-150200.152.134.1",
        "RelatesToProductReference": "openSUSE Leap 15.5",
        "RelationType": "Default Component Of"
      },
      {
        "ProductReference": "MozillaFirefox-branding-upstream-115.10.0-150200.152.134.1",
        "RelatesToProductReference": "openSUSE Leap 15.5",
        "RelationType": "Default Component Of"
      },
      {
        "ProductReference": "MozillaFirefox-devel-115.10.0-150200.152.134.1",
        "RelatesToProductReference": "openSUSE Leap 15.5",
        "RelationType": "Default Component Of"
      },
      {
        "ProductReference": "MozillaFirefox-translations-common-115.10.0-150200.152.134.1",
        "RelatesToProductReference": "openSUSE Leap 15.5",
        "RelationType": "Default Component Of"
      },
      {
        "ProductReference": "MozillaFirefox-translations-other-115.10.0-150200.152.134.1",
        "RelatesToProductReference": "openSUSE Leap 15.5",
        "RelationType": "Default Component Of"
      }
    ]
  },
  "References": [
    {
      "URL": "https://www.suse.com/support/update/announcement/2024/suse-su-20241350-1/",
      "Description": "Link for SUSE-SU-2024:1350-1"
    },
    {
      "URL": "https://lists.suse.com/pipermail/sle-security-updates/2024-April/018382.html",
      "Description": "E-Mail link for SUSE-SU-2024:1350-1"
    },
    {
      "URL": "https://www.suse.com/support/security/rating/",
      "Description": "SUSE Security Ratings"
    },
    {
      "URL": "https://bugzilla.suse.com/1222535",
      "Description": "SUSE Bug 1222535"
    },
    {
      "URL": "https://www.suse.com/security/cve/CVE-2024-2609/",
      "Description": "SUSE CVE CVE-2024-2609 page"
    },
    {
      "URL": "https://www.suse.com/security/cve/CVE-2024-3302/",
      "Description": "SUSE CVE CVE-2024-3302 page"
    },
    {
      "URL": "https://www.suse.com/security/cve/CVE-2024-3852/",
      "Description": "SUSE CVE CVE-2024-3852 page"
    },
    {
      "URL": "https://www.suse.com/security/cve/CVE-2024-3854/",
      "Description": "SUSE CVE CVE-2024-3854 page"
    },
    {
      "URL": "https://www.suse.com/security/cve/CVE-2024-3857/",
      "Description": "SUSE CVE CVE-2024-3857 page"
    },
    {
      "URL": "https://www.suse.com/security/cve/CVE-2024-3859/",
      "Description": "SUSE CVE CVE-2024-3859 page"
    },
    {
      "URL": "https://www.suse.com/security/cve/CVE-2024-3861/",
      "Description": "SUSE CVE CVE-2024-3861 page"
    },
    {
      "URL": "https://www.suse.com/security/cve/CVE-2024-3863/",
      "Description": "SUSE CVE CVE-2024-3863 page"
    },
    {
      "URL": "https://www.suse.com/security/cve/CVE-2024-3864/",
      "Description": "SUSE CVE CVE-2024-3864 page"
    }
  ],
  "Vulnerabilities": [
    {
      "CVE": "CVE-2024-2609",
      "Description": "The permission prompt input delay could expire while the window is not in focus. This makes it vulnerable to clickjacking by malicious websites. This vulnerability affects Firefox \u003c 124, Firefox ESR \u003c 115.10, and Thunderbird \u003c 115.10.",
      "Threats": [
        {
          "Type": "Impact",
          "Severity": "important"
        }
      ],
      "References": [
        {
          "URL": "https://www.suse.com/security/cve/CVE-2024-2609.html",
          "Description": "CVE-2024-2609"
        }
      ],
      "ProductStatuses": [
        {
          "Type": "Fixed",
          "ProductID": [
            "Image SLES15-SP2-SAP-Azure-LI-BYOS-Production:MozillaFirefox-115.10.0-150200.152.134.1",
            "Image SLES15-SP2-SAP-Azure-VLI-BYOS-Production:MozillaFirefox-115.10.0-150200.152.134.1",
            "Image SLES15-SP3-SAP-Azure-LI-BYOS-Production:MozillaFirefox-115.10.0-150200.152.134.1",
            "Image SLES15-SP3-SAP-Azure-VLI-BYOS-Production:MozillaFirefox-115.10.0-150200.152.134.1",
            "SUSE Enterprise Storage 7.1:MozillaFirefox-115.10.0-150200.152.134.1",
            "SUSE Enterprise Storage 7.1:MozillaFirefox-devel-115.10.0-150200.152.134.1",
            "SUSE Enterprise Storage 7.1:MozillaFirefox-translations-common-115.10.0-150200.152.134.1",
            "SUSE Enterprise Storage 7.1:MozillaFirefox-translations-other-115.10.0-150200.152.134.1",
            "SUSE Linux Enterprise High Performance Computing 15 SP2-LTSS:MozillaFirefox-115.10.0-150200.152.134.1",
            "SUSE Linux Enterprise High Performance Computing 15 SP2-LTSS:MozillaFirefox-devel-115.10.0-150200.152.134.1",
            "SUSE Linux Enterprise High Performance Computing 15 SP2-LTSS:MozillaFirefox-translations-common-115.10.0-150200.152.134.1",
            "SUSE Linux Enterprise High Performance Computing 15 SP2-LTSS:MozillaFirefox-translations-other-115.10.0-150200.152.134.1",
            "SUSE Linux Enterprise High Performance Computing 15 SP3-LTSS:MozillaFirefox-115.10.0-150200.152.134.1",
            "SUSE Linux Enterprise High Performance Computing 15 SP3-LTSS:MozillaFirefox-devel-115.10.0-150200.152.134.1",
            "SUSE Linux Enterprise High Performance Computing 15 SP3-LTSS:MozillaFirefox-translations-common-115.10.0-150200.152.134.1",
            "SUSE Linux Enterprise High Performance Computing 15 SP3-LTSS:MozillaFirefox-translations-other-115.10.0-150200.152.134.1",
            "SUSE Linux Enterprise High Performance Computing 15 SP4-ESPOS:MozillaFirefox-115.10.0-150200.152.134.1",
            "SUSE Linux Enterprise High Performance Computing 15 SP4-ESPOS:MozillaFirefox-devel-115.10.0-150200.152.134.1",
            "SUSE Linux Enterprise High Performance Computing 15 SP4-ESPOS:MozillaFirefox-translations-common-115.10.0-150200.152.134.1",
            "SUSE Linux Enterprise High Performance Computing 15 SP4-ESPOS:MozillaFirefox-translations-other-115.10.0-150200.152.134.1",
            "SUSE Linux Enterprise High Performance Computing 15 SP4-LTSS:MozillaFirefox-115.10.0-150200.152.134.1",
            "SUSE Linux Enterprise High Performance Computing 15 SP4-LTSS:MozillaFirefox-devel-115.10.0-150200.152.134.1",
            "SUSE Linux Enterprise High Performance Computing 15 SP4-LTSS:MozillaFirefox-translations-common-115.10.0-150200.152.134.1",
            "SUSE Linux Enterprise High Performance Computing 15 SP4-LTSS:MozillaFirefox-translations-other-115.10.0-150200.152.134.1",
            "SUSE Linux Enterprise Module for Desktop Applications 15 SP5:MozillaFirefox-115.10.0-150200.152.134.1",
            "SUSE Linux Enterprise Module for Desktop Applications 15 SP5:MozillaFirefox-devel-115.10.0-150200.152.134.1",
            "SUSE Linux Enterprise Module for Desktop Applications 15 SP5:MozillaFirefox-translations-common-115.10.0-150200.152.134.1",
            "SUSE Linux Enterprise Module for Desktop Applications 15 SP5:MozillaFirefox-translations-other-115.10.0-150200.152.134.1",
            "SUSE Linux Enterprise Server 15 SP2-LTSS:MozillaFirefox-115.10.0-150200.152.134.1",
            "SUSE Linux Enterprise Server 15 SP2-LTSS:MozillaFirefox-devel-115.10.0-150200.152.134.1",
            "SUSE Linux Enterprise Server 15 SP2-LTSS:MozillaFirefox-translations-common-115.10.0-150200.152.134.1",
            "SUSE Linux Enterprise Server 15 SP2-LTSS:MozillaFirefox-translations-other-115.10.0-150200.152.134.1",
            "SUSE Linux Enterprise Server 15 SP3-LTSS:MozillaFirefox-115.10.0-150200.152.134.1",
            "SUSE Linux Enterprise Server 15 SP3-LTSS:MozillaFirefox-devel-115.10.0-150200.152.134.1",
            "SUSE Linux Enterprise Server 15 SP3-LTSS:MozillaFirefox-translations-common-115.10.0-150200.152.134.1",
            "SUSE Linux Enterprise Server 15 SP3-LTSS:MozillaFirefox-translations-other-115.10.0-150200.152.134.1",
            "SUSE Linux Enterprise Server 15 SP4-LTSS:MozillaFirefox-115.10.0-150200.152.134.1",
            "SUSE Linux Enterprise Server 15 SP4-LTSS:MozillaFirefox-devel-115.10.0-150200.152.134.1",
            "SUSE Linux Enterprise Server 15 SP4-LTSS:MozillaFirefox-translations-common-115.10.0-150200.152.134.1",
            "SUSE Linux Enterprise Server 15 SP4-LTSS:MozillaFirefox-translations-other-115.10.0-150200.152.134.1",
            "SUSE Linux Enterprise Server for SAP Applications 15 SP2:MozillaFirefox-115.10.0-150200.152.134.1",
            "SUSE Linux Enterprise Server for SAP Applications 15 SP2:MozillaFirefox-devel-115.10.0-150200.152.134.1",
            "SUSE Linux Enterprise Server for SAP Applications 15 SP2:MozillaFirefox-translations-common-115.10.0-150200.152.134.1",
            "SUSE Linux Enterprise Server for SAP Applications 15 SP2:MozillaFirefox-translations-other-115.10.0-150200.152.134.1",
            "SUSE Linux Enterprise Server for SAP Applications 15 SP3:MozillaFirefox-115.10.0-150200.152.134.1",
            "SUSE Linux Enterprise Server for SAP Applications 15 SP3:MozillaFirefox-devel-115.10.0-150200.152.134.1",
            "SUSE Linux Enterprise Server for SAP Applications 15 SP3:MozillaFirefox-translations-common-115.10.0-150200.152.134.1",
            "SUSE Linux Enterprise Server for SAP Applications 15 SP3:MozillaFirefox-translations-other-115.10.0-150200.152.134.1",
            "SUSE Linux Enterprise Server for SAP Applications 15 SP4:MozillaFirefox-115.10.0-150200.152.134.1",
            "SUSE Linux Enterprise Server for SAP Applications 15 SP4:MozillaFirefox-devel-115.10.0-150200.152.134.1",
            "SUSE Linux Enterprise Server for SAP Applications 15 SP4:MozillaFirefox-translations-common-115.10.0-150200.152.134.1",
            "SUSE Linux Enterprise Server for SAP Applications 15 SP4:MozillaFirefox-translations-other-115.10.0-150200.152.134.1",
            "openSUSE Leap 15.5:MozillaFirefox-115.10.0-150200.152.134.1",
            "openSUSE Leap 15.5:MozillaFirefox-branding-upstream-115.10.0-150200.152.134.1",
            "openSUSE Leap 15.5:MozillaFirefox-devel-115.10.0-150200.152.134.1",
            "openSUSE Leap 15.5:MozillaFirefox-translations-common-115.10.0-150200.152.134.1",
            "openSUSE Leap 15.5:MozillaFirefox-translations-other-115.10.0-150200.152.134.1"
          ]
        }
      ],
      "CVSSScoreSets": {}
    },
    {
      "CVE": "CVE-2024-3302",
      "Description": "There was no limit to the number of HTTP/2 CONTINUATION frames that would be processed. A server could abuse this to create an Out of Memory condition in the browser. This vulnerability affects Firefox \u003c 125, Firefox ESR \u003c 115.10, and Thunderbird \u003c 115.10.",
      "Threats": [
        {
          "Type": "Impact",
          "Severity": "important"
        }
      ],
      "References": [
        {
          "URL": "https://www.suse.com/security/cve/CVE-2024-3302.html",
          "Description": "CVE-2024-3302"
        }
      ],
      "ProductStatuses": [
        {
          "Type": "Fixed",
          "ProductID": [
            "Image SLES15-SP2-SAP-Azure-LI-BYOS-Production:MozillaFirefox-115.10.0-150200.152.134.1",
            "Image SLES15-SP2-SAP-Azure-VLI-BYOS-Production:MozillaFirefox-115.10.0-150200.152.134.1",
            "Image SLES15-SP3-SAP-Azure-LI-BYOS-Production:MozillaFirefox-115.10.0-150200.152.134.1",
            "Image SLES15-SP3-SAP-Azure-VLI-BYOS-Production:MozillaFirefox-115.10.0-150200.152.134.1",
            "SUSE Enterprise Storage 7.1:MozillaFirefox-115.10.0-150200.152.134.1",
            "SUSE Enterprise Storage 7.1:MozillaFirefox-devel-115.10.0-150200.152.134.1",
            "SUSE Enterprise Storage 7.1:MozillaFirefox-translations-common-115.10.0-150200.152.134.1",
            "SUSE Enterprise Storage 7.1:MozillaFirefox-translations-other-115.10.0-150200.152.134.1",
            "SUSE Linux Enterprise High Performance Computing 15 SP2-LTSS:MozillaFirefox-115.10.0-150200.152.134.1",
            "SUSE Linux Enterprise High Performance Computing 15 SP2-LTSS:MozillaFirefox-devel-115.10.0-150200.152.134.1",
            "SUSE Linux Enterprise High Performance Computing 15 SP2-LTSS:MozillaFirefox-translations-common-115.10.0-150200.152.134.1",
            "SUSE Linux Enterprise High Performance Computing 15 SP2-LTSS:MozillaFirefox-translations-other-115.10.0-150200.152.134.1",
            "SUSE Linux Enterprise High Performance Computing 15 SP3-LTSS:MozillaFirefox-115.10.0-150200.152.134.1",
            "SUSE Linux Enterprise High Performance Computing 15 SP3-LTSS:MozillaFirefox-devel-115.10.0-150200.152.134.1",
            "SUSE Linux Enterprise High Performance Computing 15 SP3-LTSS:MozillaFirefox-translations-common-115.10.0-150200.152.134.1",
            "SUSE Linux Enterprise High Performance Computing 15 SP3-LTSS:MozillaFirefox-translations-other-115.10.0-150200.152.134.1",
            "SUSE Linux Enterprise High Performance Computing 15 SP4-ESPOS:MozillaFirefox-115.10.0-150200.152.134.1",
            "SUSE Linux Enterprise High Performance Computing 15 SP4-ESPOS:MozillaFirefox-devel-115.10.0-150200.152.134.1",
            "SUSE Linux Enterprise High Performance Computing 15 SP4-ESPOS:MozillaFirefox-translations-common-115.10.0-150200.152.134.1",
            "SUSE Linux Enterprise High Performance Computing 15 SP4-ESPOS:MozillaFirefox-translations-other-115.10.0-150200.152.134.1",
            "SUSE Linux Enterprise High Performance Computing 15 SP4-LTSS:MozillaFirefox-115.10.0-150200.152.134.1",
            "SUSE Linux Enterprise High Performance Computing 15 SP4-LTSS:MozillaFirefox-devel-115.10.0-150200.152.134.1",
            "SUSE Linux Enterprise High Performance Computing 15 SP4-LTSS:MozillaFirefox-translations-common-115.10.0-150200.152.134.1",
            "SUSE Linux Enterprise High Performance Computing 15 SP4-LTSS:MozillaFirefox-translations-other-115.10.0-150200.152.134.1",
            "SUSE Linux Enterprise Module for Desktop Applications 15 SP5:MozillaFirefox-115.10.0-150200.152.134.1",
            "SUSE Linux Enterprise Module for Desktop Applications 15 SP5:MozillaFirefox-devel-115.10.0-150200.152.134.1",
            "SUSE Linux Enterprise Module for Desktop Applications 15 SP5:MozillaFirefox-translations-common-115.10.0-150200.152.134.1",
            "SUSE Linux Enterprise Module for Desktop Applications 15 SP5:MozillaFirefox-translations-other-115.10.0-150200.152.134.1",
            "SUSE Linux Enterprise Server 15 SP2-LTSS:MozillaFirefox-115.10.0-150200.152.134.1",
            "SUSE Linux Enterprise Server 15 SP2-LTSS:MozillaFirefox-devel-115.10.0-150200.152.134.1",
            "SUSE Linux Enterprise Server 15 SP2-LTSS:MozillaFirefox-translations-common-115.10.0-150200.152.134.1",
            "SUSE Linux Enterprise Server 15 SP2-LTSS:MozillaFirefox-translations-other-115.10.0-150200.152.134.1",
            "SUSE Linux Enterprise Server 15 SP3-LTSS:MozillaFirefox-115.10.0-150200.152.134.1",
            "SUSE Linux Enterprise Server 15 SP3-LTSS:MozillaFirefox-devel-115.10.0-150200.152.134.1",
            "SUSE Linux Enterprise Server 15 SP3-LTSS:MozillaFirefox-translations-common-115.10.0-150200.152.134.1",
            "SUSE Linux Enterprise Server 15 SP3-LTSS:MozillaFirefox-translations-other-115.10.0-150200.152.134.1",
            "SUSE Linux Enterprise Server 15 SP4-LTSS:MozillaFirefox-115.10.0-150200.152.134.1",
            "SUSE Linux Enterprise Server 15 SP4-LTSS:MozillaFirefox-devel-115.10.0-150200.152.134.1",
            "SUSE Linux Enterprise Server 15 SP4-LTSS:MozillaFirefox-translations-common-115.10.0-150200.152.134.1",
            "SUSE Linux Enterprise Server 15 SP4-LTSS:MozillaFirefox-translations-other-115.10.0-150200.152.134.1",
            "SUSE Linux Enterprise Server for SAP Applications 15 SP2:MozillaFirefox-115.10.0-150200.152.134.1",
            "SUSE Linux Enterprise Server for SAP Applications 15 SP2:MozillaFirefox-devel-115.10.0-150200.152.134.1",
            "SUSE Linux Enterprise Server for SAP Applications 15 SP2:MozillaFirefox-translations-common-115.10.0-150200.152.134.1",
            "SUSE Linux Enterprise Server for SAP Applications 15 SP2:MozillaFirefox-translations-other-115.10.0-150200.152.134.1",
            "SUSE Linux Enterprise Server for SAP Applications 15 SP3:MozillaFirefox-115.10.0-150200.152.134.1",
            "SUSE Linux Enterprise Server for SAP Applications 15 SP3:MozillaFirefox-devel-115.10.0-150200.152.134.1",
            "SUSE Linux Enterprise Server for SAP Applications 15 SP3:MozillaFirefox-translations-common-115.10.0-150200.152.134.1",
            "SUSE Linux Enterprise Server for SAP Applications 15 SP3:MozillaFirefox-translations-other-115.10.0-150200.152.134.1",
            "SUSE Linux Enterprise Server for SAP Applications 15 SP4:MozillaFirefox-115.10.0-150200.152.134.1",
            "SUSE Linux Enterprise Server for SAP Applications 15 SP4:MozillaFirefox-devel-115.10.0-150200.152.134.1",
            "SUSE Linux Enterprise Server for SAP Applications 15 SP4:MozillaFirefox-translations-common-115.10.0-150200.152.134.1",
            "SUSE Linux Enterprise Server for SAP Applications 15 SP4:MozillaFirefox-translations-other-115.10.0-150200.152.134.1",
            "openSUSE Leap 15.5:MozillaFirefox-115.10.0-150200.152.134.1",
            "openSUSE Leap 15.5:MozillaFirefox-branding-upstream-115.10.0-150200.152.134.1",
            "openSUSE Leap 15.5:MozillaFirefox-devel-115.10.0-150200.152.134.1",
            "openSUSE Leap 15.5:MozillaFirefox-translations-common-115.10.0-150200.152.134.1",
            "openSUSE Leap 15.5:MozillaFirefox-translations-other-115.10.0-150200.152.134.1"
          ]
        }
      ],
      "CVSSScoreSets": {}
    },
    {
      "CVE": "CVE-2024-3852",
      "Description": "GetBoundName could return the wrong version of an object when JIT optimizations were applied. This vulnerability affects Firefox \u003c 125, Firefox ESR \u003c 115.10, and Thunderbird \u003c 115.10.",
      "Threats": [
        {
          "Type": "Impact",
          "Severity": "important"
        }
      ],
      "References": [
        {
          "URL": "https://www.suse.com/security/cve/CVE-2024-3852.html",
          "Description": "CVE-2024-3852"
        }
      ],
      "ProductStatuses": [
        {
          "Type": "Fixed",
          "ProductID": [
            "Image SLES15-SP2-SAP-Azure-LI-BYOS-Production:MozillaFirefox-115.10.0-150200.152.134.1",
            "Image SLES15-SP2-SAP-Azure-VLI-BYOS-Production:MozillaFirefox-115.10.0-150200.152.134.1",
            "Image SLES15-SP3-SAP-Azure-LI-BYOS-Production:MozillaFirefox-115.10.0-150200.152.134.1",
            "Image SLES15-SP3-SAP-Azure-VLI-BYOS-Production:MozillaFirefox-115.10.0-150200.152.134.1",
            "SUSE Enterprise Storage 7.1:MozillaFirefox-115.10.0-150200.152.134.1",
            "SUSE Enterprise Storage 7.1:MozillaFirefox-devel-115.10.0-150200.152.134.1",
            "SUSE Enterprise Storage 7.1:MozillaFirefox-translations-common-115.10.0-150200.152.134.1",
            "SUSE Enterprise Storage 7.1:MozillaFirefox-translations-other-115.10.0-150200.152.134.1",
            "SUSE Linux Enterprise High Performance Computing 15 SP2-LTSS:MozillaFirefox-115.10.0-150200.152.134.1",
            "SUSE Linux Enterprise High Performance Computing 15 SP2-LTSS:MozillaFirefox-devel-115.10.0-150200.152.134.1",
            "SUSE Linux Enterprise High Performance Computing 15 SP2-LTSS:MozillaFirefox-translations-common-115.10.0-150200.152.134.1",
            "SUSE Linux Enterprise High Performance Computing 15 SP2-LTSS:MozillaFirefox-translations-other-115.10.0-150200.152.134.1",
            "SUSE Linux Enterprise High Performance Computing 15 SP3-LTSS:MozillaFirefox-115.10.0-150200.152.134.1",
            "SUSE Linux Enterprise High Performance Computing 15 SP3-LTSS:MozillaFirefox-devel-115.10.0-150200.152.134.1",
            "SUSE Linux Enterprise High Performance Computing 15 SP3-LTSS:MozillaFirefox-translations-common-115.10.0-150200.152.134.1",
            "SUSE Linux Enterprise High Performance Computing 15 SP3-LTSS:MozillaFirefox-translations-other-115.10.0-150200.152.134.1",
            "SUSE Linux Enterprise High Performance Computing 15 SP4-ESPOS:MozillaFirefox-115.10.0-150200.152.134.1",
            "SUSE Linux Enterprise High Performance Computing 15 SP4-ESPOS:MozillaFirefox-devel-115.10.0-150200.152.134.1",
            "SUSE Linux Enterprise High Performance Computing 15 SP4-ESPOS:MozillaFirefox-translations-common-115.10.0-150200.152.134.1",
            "SUSE Linux Enterprise High Performance Computing 15 SP4-ESPOS:MozillaFirefox-translations-other-115.10.0-150200.152.134.1",
            "SUSE Linux Enterprise High Performance Computing 15 SP4-LTSS:MozillaFirefox-115.10.0-150200.152.134.1",
            "SUSE Linux Enterprise High Performance Computing 15 SP4-LTSS:MozillaFirefox-devel-115.10.0-150200.152.134.1",
            "SUSE Linux Enterprise High Performance Computing 15 SP4-LTSS:MozillaFirefox-translations-common-115.10.0-150200.152.134.1",
            "SUSE Linux Enterprise High Performance Computing 15 SP4-LTSS:MozillaFirefox-translations-other-115.10.0-150200.152.134.1",
            "SUSE Linux Enterprise Module for Desktop Applications 15 SP5:MozillaFirefox-115.10.0-150200.152.134.1",
            "SUSE Linux Enterprise Module for Desktop Applications 15 SP5:MozillaFirefox-devel-115.10.0-150200.152.134.1",
            "SUSE Linux Enterprise Module for Desktop Applications 15 SP5:MozillaFirefox-translations-common-115.10.0-150200.152.134.1",
            "SUSE Linux Enterprise Module for Desktop Applications 15 SP5:MozillaFirefox-translations-other-115.10.0-150200.152.134.1",
            "SUSE Linux Enterprise Server 15 SP2-LTSS:MozillaFirefox-115.10.0-150200.152.134.1",
            "SUSE Linux Enterprise Server 15 SP2-LTSS:MozillaFirefox-devel-115.10.0-150200.152.134.1",
            "SUSE Linux Enterprise Server 15 SP2-LTSS:MozillaFirefox-translations-common-115.10.0-150200.152.134.1",
            "SUSE Linux Enterprise Server 15 SP2-LTSS:MozillaFirefox-translations-other-115.10.0-150200.152.134.1",
            "SUSE Linux Enterprise Server 15 SP3-LTSS:MozillaFirefox-115.10.0-150200.152.134.1",
            "SUSE Linux Enterprise Server 15 SP3-LTSS:MozillaFirefox-devel-115.10.0-150200.152.134.1",
            "SUSE Linux Enterprise Server 15 SP3-LTSS:MozillaFirefox-translations-common-115.10.0-150200.152.134.1",
            "SUSE Linux Enterprise Server 15 SP3-LTSS:MozillaFirefox-translations-other-115.10.0-150200.152.134.1",
            "SUSE Linux Enterprise Server 15 SP4-LTSS:MozillaFirefox-115.10.0-150200.152.134.1",
            "SUSE Linux Enterprise Server 15 SP4-LTSS:MozillaFirefox-devel-115.10.0-150200.152.134.1",
            "SUSE Linux Enterprise Server 15 SP4-LTSS:MozillaFirefox-translations-common-115.10.0-150200.152.134.1",
            "SUSE Linux Enterprise Server 15 SP4-LTSS:MozillaFirefox-translations-other-115.10.0-150200.152.134.1",
            "SUSE Linux Enterprise Server for SAP Applications 15 SP2:MozillaFirefox-115.10.0-150200.152.134.1",
            "SUSE Linux Enterprise Server for SAP Applications 15 SP2:MozillaFirefox-devel-115.10.0-150200.152.134.1",
            "SUSE Linux Enterprise Server for SAP Applications 15 SP2:MozillaFirefox-translations-common-115.10.0-150200.152.134.1",
            "SUSE Linux Enterprise Server for SAP Applications 15 SP2:MozillaFirefox-translations-other-115.10.0-150200.152.134.1",
            "SUSE Linux Enterprise Server for SAP Applications 15 SP3:MozillaFirefox-115.10.0-150200.152.134.1",
            "SUSE Linux Enterprise Server for SAP Applications 15 SP3:MozillaFirefox-devel-115.10.0-150200.152.134.1",
            "SUSE Linux Enterprise Server for SAP Applications 15 SP3:MozillaFirefox-translations-common-115.10.0-150200.152.134.1",
            "SUSE Linux Enterprise Server for SAP Applications 15 SP3:MozillaFirefox-translations-other-115.10.0-150200.152.134.1",
            "SUSE Linux Enterprise Server for SAP Applications 15 SP4:MozillaFirefox-115.10.0-150200.152.134.1",
            "SUSE Linux Enterprise Server for SAP Applications 15 SP4:MozillaFirefox-devel-115.10.0-150200.152.134.1",
            "SUSE Linux Enterprise Server for SAP Applications 15 SP4:MozillaFirefox-translations-common-115.10.0-150200.152.134.1",
            "SUSE Linux Enterprise Server for SAP Applications 15 SP4:MozillaFirefox-translations-other-115.10.0-150200.152.134.1",
            "openSUSE Leap 15.5:MozillaFirefox-115.10.0-150200.152.134.1",
            "openSUSE Leap 15.5:MozillaFirefox-branding-upstream-115.10.0-150200.152.134.1",
            "openSUSE Leap 15.5:MozillaFirefox-devel-115.10.0-150200.152.134.1",
            "openSUSE Leap 15.5:MozillaFirefox-translations-common-115.10.0-150200.152.134.1",
            "openSUSE Leap 15.5:MozillaFirefox-translations-other-115.10.0-150200.152.134.1"
          ]
        }
      ],
      "CVSSScoreSets": {}
    },
    {
      "CVE": "CVE-2024-3854",
      "Description": "In some code patterns the JIT incorrectly optimized switch statements and generated code with out-of-bounds-reads. This vulnerability affects Firefox \u003c 125, Firefox ESR \u003c 115.10, and Thunderbird \u003c 115.10.",
      "Threats": [
        {
          "Type": "Impact",
          "Severity": "important"
        }
      ],
      "References": [
        {
          "URL": "https://www.suse.com/security/cve/CVE-2024-3854.html",
          "Description": "CVE-2024-3854"
        }
      ],
      "ProductStatuses": [
        {
          "Type": "Fixed",
          "ProductID": [
            "Image SLES15-SP2-SAP-Azure-LI-BYOS-Production:MozillaFirefox-115.10.0-150200.152.134.1",
            "Image SLES15-SP2-SAP-Azure-VLI-BYOS-Production:MozillaFirefox-115.10.0-150200.152.134.1",
            "Image SLES15-SP3-SAP-Azure-LI-BYOS-Production:MozillaFirefox-115.10.0-150200.152.134.1",
            "Image SLES15-SP3-SAP-Azure-VLI-BYOS-Production:MozillaFirefox-115.10.0-150200.152.134.1",
            "SUSE Enterprise Storage 7.1:MozillaFirefox-115.10.0-150200.152.134.1",
            "SUSE Enterprise Storage 7.1:MozillaFirefox-devel-115.10.0-150200.152.134.1",
            "SUSE Enterprise Storage 7.1:MozillaFirefox-translations-common-115.10.0-150200.152.134.1",
            "SUSE Enterprise Storage 7.1:MozillaFirefox-translations-other-115.10.0-150200.152.134.1",
            "SUSE Linux Enterprise High Performance Computing 15 SP2-LTSS:MozillaFirefox-115.10.0-150200.152.134.1",
            "SUSE Linux Enterprise High Performance Computing 15 SP2-LTSS:MozillaFirefox-devel-115.10.0-150200.152.134.1",
            "SUSE Linux Enterprise High Performance Computing 15 SP2-LTSS:MozillaFirefox-translations-common-115.10.0-150200.152.134.1",
            "SUSE Linux Enterprise High Performance Computing 15 SP2-LTSS:MozillaFirefox-translations-other-115.10.0-150200.152.134.1",
            "SUSE Linux Enterprise High Performance Computing 15 SP3-LTSS:MozillaFirefox-115.10.0-150200.152.134.1",
            "SUSE Linux Enterprise High Performance Computing 15 SP3-LTSS:MozillaFirefox-devel-115.10.0-150200.152.134.1",
            "SUSE Linux Enterprise High Performance Computing 15 SP3-LTSS:MozillaFirefox-translations-common-115.10.0-150200.152.134.1",
            "SUSE Linux Enterprise High Performance Computing 15 SP3-LTSS:MozillaFirefox-translations-other-115.10.0-150200.152.134.1",
            "SUSE Linux Enterprise High Performance Computing 15 SP4-ESPOS:MozillaFirefox-115.10.0-150200.152.134.1",
            "SUSE Linux Enterprise High Performance Computing 15 SP4-ESPOS:MozillaFirefox-devel-115.10.0-150200.152.134.1",
            "SUSE Linux Enterprise High Performance Computing 15 SP4-ESPOS:MozillaFirefox-translations-common-115.10.0-150200.152.134.1",
            "SUSE Linux Enterprise High Performance Computing 15 SP4-ESPOS:MozillaFirefox-translations-other-115.10.0-150200.152.134.1",
            "SUSE Linux Enterprise High Performance Computing 15 SP4-LTSS:MozillaFirefox-115.10.0-150200.152.134.1",
            "SUSE Linux Enterprise High Performance Computing 15 SP4-LTSS:MozillaFirefox-devel-115.10.0-150200.152.134.1",
            "SUSE Linux Enterprise High Performance Computing 15 SP4-LTSS:MozillaFirefox-translations-common-115.10.0-150200.152.134.1",
            "SUSE Linux Enterprise High Performance Computing 15 SP4-LTSS:MozillaFirefox-translations-other-115.10.0-150200.152.134.1",
            "SUSE Linux Enterprise Module for Desktop Applications 15 SP5:MozillaFirefox-115.10.0-150200.152.134.1",
            "SUSE Linux Enterprise Module for Desktop Applications 15 SP5:MozillaFirefox-devel-115.10.0-150200.152.134.1",
            "SUSE Linux Enterprise Module for Desktop Applications 15 SP5:MozillaFirefox-translations-common-115.10.0-150200.152.134.1",
            "SUSE Linux Enterprise Module for Desktop Applications 15 SP5:MozillaFirefox-translations-other-115.10.0-150200.152.134.1",
            "SUSE Linux Enterprise Server 15 SP2-LTSS:MozillaFirefox-115.10.0-150200.152.134.1",
            "SUSE Linux Enterprise Server 15 SP2-LTSS:MozillaFirefox-devel-115.10.0-150200.152.134.1",
            "SUSE Linux Enterprise Server 15 SP2-LTSS:MozillaFirefox-translations-common-115.10.0-150200.152.134.1",
            "SUSE Linux Enterprise Server 15 SP2-LTSS:MozillaFirefox-translations-other-115.10.0-150200.152.134.1",
            "SUSE Linux Enterprise Server 15 SP3-LTSS:MozillaFirefox-115.10.0-150200.152.134.1",
            "SUSE Linux Enterprise Server 15 SP3-LTSS:MozillaFirefox-devel-115.10.0-150200.152.134.1",
            "SUSE Linux Enterprise Server 15 SP3-LTSS:MozillaFirefox-translations-common-115.10.0-150200.152.134.1",
            "SUSE Linux Enterprise Server 15 SP3-LTSS:MozillaFirefox-translations-other-115.10.0-150200.152.134.1",
            "SUSE Linux Enterprise Server 15 SP4-LTSS:MozillaFirefox-115.10.0-150200.152.134.1",
            "SUSE Linux Enterprise Server 15 SP4-LTSS:MozillaFirefox-devel-115.10.0-150200.152.134.1",
            "SUSE Linux Enterprise Server 15 SP4-LTSS:MozillaFirefox-translations-common-115.10.0-150200.152.134.1",
            "SUSE Linux Enterprise Server 15 SP4-LTSS:MozillaFirefox-translations-other-115.10.0-150200.152.134.1",
            "SUSE Linux Enterprise Server for SAP Applications 15 SP2:MozillaFirefox-115.10.0-150200.152.134.1",
            "SUSE Linux Enterprise Server for SAP Applications 15 SP2:MozillaFirefox-devel-115.10.0-150200.152.134.1",
            "SUSE Linux Enterprise Server for SAP Applications 15 SP2:MozillaFirefox-translations-common-115.10.0-150200.152.134.1",
            "SUSE Linux Enterprise Server for SAP Applications 15 SP2:MozillaFirefox-translations-other-115.10.0-150200.152.134.1",
            "SUSE Linux Enterprise Server for SAP Applications 15 SP3:MozillaFirefox-115.10.0-150200.152.134.1",
            "SUSE Linux Enterprise Server for SAP Applications 15 SP3:MozillaFirefox-devel-115.10.0-150200.152.134.1",
            "SUSE Linux Enterprise Server for SAP Applications 15 SP3:MozillaFirefox-translations-common-115.10.0-150200.152.134.1",
            "SUSE Linux Enterprise Server for SAP Applications 15 SP3:MozillaFirefox-translations-other-115.10.0-150200.152.134.1",
            "SUSE Linux Enterprise Server for SAP Applications 15 SP4:MozillaFirefox-115.10.0-150200.152.134.1",
            "SUSE Linux Enterprise Server for SAP Applications 15 SP4:MozillaFirefox-devel-115.10.0-150200.152.134.1",
            "SUSE Linux Enterprise Server for SAP Applications 15 SP4:MozillaFirefox-translations-common-115.10.0-150200.152.134.1",
            "SUSE Linux Enterprise Server for SAP Applications 15 SP4:MozillaFirefox-translations-other-115.10.0-150200.152.134.1",
            "openSUSE Leap 15.5:MozillaFirefox-115.10.0-150200.152.134.1",
            "openSUSE Leap 15.5:MozillaFirefox-branding-upstream-115.10.0-150200.152.134.1",
            "openSUSE Leap 15.5:MozillaFirefox-devel-115.10.0-150200.152.134.1",
            "openSUSE Leap 15.5:MozillaFirefox-translations-common-115.10.0-150200.152.134.1",
            "openSUSE Leap 15.5:MozillaFirefox-translations-other-115.10.0-150200.152.134.1"
          ]
        }
      ],
      "CVSSScoreSets": {}
    },
    {
      "CVE": "CVE-2024-3857",
      "Description": "The JIT created incorrect code for arguments in certain cases. This led to potential use-after-free crashes during garbage collection. This vulnerability affects Firefox \u003c 125, Firefox ESR \u003c 115.10, and Thunderbird \u003c 115.10.",
      "Threats": [
        {
          "Type": "Impact",
          "Severity": "important"
        }
      ],
      "References": [
        {
          "URL": "https://www.suse.com/security/cve/CVE-2024-3857.html",
          "Description": "CVE-2024-3857"
        }
      ],
      "ProductStatuses": [
        {
          "Type": "Fixed",
          "ProductID": [
            "Image SLES15-SP2-SAP-Azure-LI-BYOS-Production:MozillaFirefox-115.10.0-150200.152.134.1",
            "Image SLES15-SP2-SAP-Azure-VLI-BYOS-Production:MozillaFirefox-115.10.0-150200.152.134.1",
            "Image SLES15-SP3-SAP-Azure-LI-BYOS-Production:MozillaFirefox-115.10.0-150200.152.134.1",
            "Image SLES15-SP3-SAP-Azure-VLI-BYOS-Production:MozillaFirefox-115.10.0-150200.152.134.1",
            "SUSE Enterprise Storage 7.1:MozillaFirefox-115.10.0-150200.152.134.1",
            "SUSE Enterprise Storage 7.1:MozillaFirefox-devel-115.10.0-150200.152.134.1",
            "SUSE Enterprise Storage 7.1:MozillaFirefox-translations-common-115.10.0-150200.152.134.1",
            "SUSE Enterprise Storage 7.1:MozillaFirefox-translations-other-115.10.0-150200.152.134.1",
            "SUSE Linux Enterprise High Performance Computing 15 SP2-LTSS:MozillaFirefox-115.10.0-150200.152.134.1",
            "SUSE Linux Enterprise High Performance Computing 15 SP2-LTSS:MozillaFirefox-devel-115.10.0-150200.152.134.1",
            "SUSE Linux Enterprise High Performance Computing 15 SP2-LTSS:MozillaFirefox-translations-common-115.10.0-150200.152.134.1",
            "SUSE Linux Enterprise High Performance Computing 15 SP2-LTSS:MozillaFirefox-translations-other-115.10.0-150200.152.134.1",
            "SUSE Linux Enterprise High Performance Computing 15 SP3-LTSS:MozillaFirefox-115.10.0-150200.152.134.1",
            "SUSE Linux Enterprise High Performance Computing 15 SP3-LTSS:MozillaFirefox-devel-115.10.0-150200.152.134.1",
            "SUSE Linux Enterprise High Performance Computing 15 SP3-LTSS:MozillaFirefox-translations-common-115.10.0-150200.152.134.1",
            "SUSE Linux Enterprise High Performance Computing 15 SP3-LTSS:MozillaFirefox-translations-other-115.10.0-150200.152.134.1",
            "SUSE Linux Enterprise High Performance Computing 15 SP4-ESPOS:MozillaFirefox-115.10.0-150200.152.134.1",
            "SUSE Linux Enterprise High Performance Computing 15 SP4-ESPOS:MozillaFirefox-devel-115.10.0-150200.152.134.1",
            "SUSE Linux Enterprise High Performance Computing 15 SP4-ESPOS:MozillaFirefox-translations-common-115.10.0-150200.152.134.1",
            "SUSE Linux Enterprise High Performance Computing 15 SP4-ESPOS:MozillaFirefox-translations-other-115.10.0-150200.152.134.1",
            "SUSE Linux Enterprise High Performance Computing 15 SP4-LTSS:MozillaFirefox-115.10.0-150200.152.134.1",
            "SUSE Linux Enterprise High Performance Computing 15 SP4-LTSS:MozillaFirefox-devel-115.10.0-150200.152.134.1",
            "SUSE Linux Enterprise High Performance Computing 15 SP4-LTSS:MozillaFirefox-translations-common-115.10.0-150200.152.134.1",
            "SUSE Linux Enterprise High Performance Computing 15 SP4-LTSS:MozillaFirefox-translations-other-115.10.0-150200.152.134.1",
            "SUSE Linux Enterprise Module for Desktop Applications 15 SP5:MozillaFirefox-115.10.0-150200.152.134.1",
            "SUSE Linux Enterprise Module for Desktop Applications 15 SP5:MozillaFirefox-devel-115.10.0-150200.152.134.1",
            "SUSE Linux Enterprise Module for Desktop Applications 15 SP5:MozillaFirefox-translations-common-115.10.0-150200.152.134.1",
            "SUSE Linux Enterprise Module for Desktop Applications 15 SP5:MozillaFirefox-translations-other-115.10.0-150200.152.134.1",
            "SUSE Linux Enterprise Server 15 SP2-LTSS:MozillaFirefox-115.10.0-150200.152.134.1",
            "SUSE Linux Enterprise Server 15 SP2-LTSS:MozillaFirefox-devel-115.10.0-150200.152.134.1",
            "SUSE Linux Enterprise Server 15 SP2-LTSS:MozillaFirefox-translations-common-115.10.0-150200.152.134.1",
            "SUSE Linux Enterprise Server 15 SP2-LTSS:MozillaFirefox-translations-other-115.10.0-150200.152.134.1",
            "SUSE Linux Enterprise Server 15 SP3-LTSS:MozillaFirefox-115.10.0-150200.152.134.1",
            "SUSE Linux Enterprise Server 15 SP3-LTSS:MozillaFirefox-devel-115.10.0-150200.152.134.1",
            "SUSE Linux Enterprise Server 15 SP3-LTSS:MozillaFirefox-translations-common-115.10.0-150200.152.134.1",
            "SUSE Linux Enterprise Server 15 SP3-LTSS:MozillaFirefox-translations-other-115.10.0-150200.152.134.1",
            "SUSE Linux Enterprise Server 15 SP4-LTSS:MozillaFirefox-115.10.0-150200.152.134.1",
            "SUSE Linux Enterprise Server 15 SP4-LTSS:MozillaFirefox-devel-115.10.0-150200.152.134.1",
            "SUSE Linux Enterprise Server 15 SP4-LTSS:MozillaFirefox-translations-common-115.10.0-150200.152.134.1",
            "SUSE Linux Enterprise Server 15 SP4-LTSS:MozillaFirefox-translations-other-115.10.0-150200.152.134.1",
            "SUSE Linux Enterprise Server for SAP Applications 15 SP2:MozillaFirefox-115.10.0-150200.152.134.1",
            "SUSE Linux Enterprise Server for SAP Applications 15 SP2:MozillaFirefox-devel-115.10.0-150200.152.134.1",
            "SUSE Linux Enterprise Server for SAP Applications 15 SP2:MozillaFirefox-translations-common-115.10.0-150200.152.134.1",
            "SUSE Linux Enterprise Server for SAP Applications 15 SP2:MozillaFirefox-translations-other-115.10.0-150200.152.134.1",
            "SUSE Linux Enterprise Server for SAP Applications 15 SP3:MozillaFirefox-115.10.0-150200.152.134.1",
            "SUSE Linux Enterprise Server for SAP Applications 15 SP3:MozillaFirefox-devel-115.10.0-150200.152.134.1",
            "SUSE Linux Enterprise Server for SAP Applications 15 SP3:MozillaFirefox-translations-common-115.10.0-150200.152.134.1",
            "SUSE Linux Enterprise Server for SAP Applications 15 SP3:MozillaFirefox-translations-other-115.10.0-150200.152.134.1",
            "SUSE Linux Enterprise Server for SAP Applications 15 SP4:MozillaFirefox-115.10.0-150200.152.134.1",
            "SUSE Linux Enterprise Server for SAP Applications 15 SP4:MozillaFirefox-devel-115.10.0-150200.152.134.1",
            "SUSE Linux Enterprise Server for SAP Applications 15 SP4:MozillaFirefox-translations-common-115.10.0-150200.152.134.1",
            "SUSE Linux Enterprise Server for SAP Applications 15 SP4:MozillaFirefox-translations-other-115.10.0-150200.152.134.1",
            "openSUSE Leap 15.5:MozillaFirefox-115.10.0-150200.152.134.1",
            "openSUSE Leap 15.5:MozillaFirefox-branding-upstream-115.10.0-150200.152.134.1",
            "openSUSE Leap 15.5:MozillaFirefox-devel-115.10.0-150200.152.134.1",
            "openSUSE Leap 15.5:MozillaFirefox-translations-common-115.10.0-150200.152.134.1",
            "openSUSE Leap 15.5:MozillaFirefox-translations-other-115.10.0-150200.152.134.1"
          ]
        }
      ],
      "CVSSScoreSets": {}
    },
    {
      "CVE": "CVE-2024-3859",
      "Description": "On 32-bit versions there were integer-overflows that led to an out-of-bounds-read that potentially could be triggered by a malformed OpenType font. This vulnerability affects Firefox \u003c 125, Firefox ESR \u003c 115.10, and Thunderbird \u003c 115.10.",
      "Threats": [
        {
          "Type": "Impact",
          "Severity": "important"
        }
      ],
      "References": [
        {
          "URL": "https://www.suse.com/security/cve/CVE-2024-3859.html",
          "Description": "CVE-2024-3859"
        }
      ],
      "ProductStatuses": [
        {
          "Type": "Fixed",
          "ProductID": [
            "Image SLES15-SP2-SAP-Azure-LI-BYOS-Production:MozillaFirefox-115.10.0-150200.152.134.1",
            "Image SLES15-SP2-SAP-Azure-VLI-BYOS-Production:MozillaFirefox-115.10.0-150200.152.134.1",
            "Image SLES15-SP3-SAP-Azure-LI-BYOS-Production:MozillaFirefox-115.10.0-150200.152.134.1",
            "Image SLES15-SP3-SAP-Azure-VLI-BYOS-Production:MozillaFirefox-115.10.0-150200.152.134.1",
            "SUSE Enterprise Storage 7.1:MozillaFirefox-115.10.0-150200.152.134.1",
            "SUSE Enterprise Storage 7.1:MozillaFirefox-devel-115.10.0-150200.152.134.1",
            "SUSE Enterprise Storage 7.1:MozillaFirefox-translations-common-115.10.0-150200.152.134.1",
            "SUSE Enterprise Storage 7.1:MozillaFirefox-translations-other-115.10.0-150200.152.134.1",
            "SUSE Linux Enterprise High Performance Computing 15 SP2-LTSS:MozillaFirefox-115.10.0-150200.152.134.1",
            "SUSE Linux Enterprise High Performance Computing 15 SP2-LTSS:MozillaFirefox-devel-115.10.0-150200.152.134.1",
            "SUSE Linux Enterprise High Performance Computing 15 SP2-LTSS:MozillaFirefox-translations-common-115.10.0-150200.152.134.1",
            "SUSE Linux Enterprise High Performance Computing 15 SP2-LTSS:MozillaFirefox-translations-other-115.10.0-150200.152.134.1",
            "SUSE Linux Enterprise High Performance Computing 15 SP3-LTSS:MozillaFirefox-115.10.0-150200.152.134.1",
            "SUSE Linux Enterprise High Performance Computing 15 SP3-LTSS:MozillaFirefox-devel-115.10.0-150200.152.134.1",
            "SUSE Linux Enterprise High Performance Computing 15 SP3-LTSS:MozillaFirefox-translations-common-115.10.0-150200.152.134.1",
            "SUSE Linux Enterprise High Performance Computing 15 SP3-LTSS:MozillaFirefox-translations-other-115.10.0-150200.152.134.1",
            "SUSE Linux Enterprise High Performance Computing 15 SP4-ESPOS:MozillaFirefox-115.10.0-150200.152.134.1",
            "SUSE Linux Enterprise High Performance Computing 15 SP4-ESPOS:MozillaFirefox-devel-115.10.0-150200.152.134.1",
            "SUSE Linux Enterprise High Performance Computing 15 SP4-ESPOS:MozillaFirefox-translations-common-115.10.0-150200.152.134.1",
            "SUSE Linux Enterprise High Performance Computing 15 SP4-ESPOS:MozillaFirefox-translations-other-115.10.0-150200.152.134.1",
            "SUSE Linux Enterprise High Performance Computing 15 SP4-LTSS:MozillaFirefox-115.10.0-150200.152.134.1",
            "SUSE Linux Enterprise High Performance Computing 15 SP4-LTSS:MozillaFirefox-devel-115.10.0-150200.152.134.1",
            "SUSE Linux Enterprise High Performance Computing 15 SP4-LTSS:MozillaFirefox-translations-common-115.10.0-150200.152.134.1",
            "SUSE Linux Enterprise High Performance Computing 15 SP4-LTSS:MozillaFirefox-translations-other-115.10.0-150200.152.134.1",
            "SUSE Linux Enterprise Module for Desktop Applications 15 SP5:MozillaFirefox-115.10.0-150200.152.134.1",
            "SUSE Linux Enterprise Module for Desktop Applications 15 SP5:MozillaFirefox-devel-115.10.0-150200.152.134.1",
            "SUSE Linux Enterprise Module for Desktop Applications 15 SP5:MozillaFirefox-translations-common-115.10.0-150200.152.134.1",
            "SUSE Linux Enterprise Module for Desktop Applications 15 SP5:MozillaFirefox-translations-other-115.10.0-150200.152.134.1",
            "SUSE Linux Enterprise Server 15 SP2-LTSS:MozillaFirefox-115.10.0-150200.152.134.1",
            "SUSE Linux Enterprise Server 15 SP2-LTSS:MozillaFirefox-devel-115.10.0-150200.152.134.1",
            "SUSE Linux Enterprise Server 15 SP2-LTSS:MozillaFirefox-translations-common-115.10.0-150200.152.134.1",
            "SUSE Linux Enterprise Server 15 SP2-LTSS:MozillaFirefox-translations-other-115.10.0-150200.152.134.1",
            "SUSE Linux Enterprise Server 15 SP3-LTSS:MozillaFirefox-115.10.0-150200.152.134.1",
            "SUSE Linux Enterprise Server 15 SP3-LTSS:MozillaFirefox-devel-115.10.0-150200.152.134.1",
            "SUSE Linux Enterprise Server 15 SP3-LTSS:MozillaFirefox-translations-common-115.10.0-150200.152.134.1",
            "SUSE Linux Enterprise Server 15 SP3-LTSS:MozillaFirefox-translations-other-115.10.0-150200.152.134.1",
            "SUSE Linux Enterprise Server 15 SP4-LTSS:MozillaFirefox-115.10.0-150200.152.134.1",
            "SUSE Linux Enterprise Server 15 SP4-LTSS:MozillaFirefox-devel-115.10.0-150200.152.134.1",
            "SUSE Linux Enterprise Server 15 SP4-LTSS:MozillaFirefox-translations-common-115.10.0-150200.152.134.1",
            "SUSE Linux Enterprise Server 15 SP4-LTSS:MozillaFirefox-translations-other-115.10.0-150200.152.134.1",
            "SUSE Linux Enterprise Server for SAP Applications 15 SP2:MozillaFirefox-115.10.0-150200.152.134.1",
            "SUSE Linux Enterprise Server for SAP Applications 15 SP2:MozillaFirefox-devel-115.10.0-150200.152.134.1",
            "SUSE Linux Enterprise Server for SAP Applications 15 SP2:MozillaFirefox-translations-common-115.10.0-150200.152.134.1",
            "SUSE Linux Enterprise Server for SAP Applications 15 SP2:MozillaFirefox-translations-other-115.10.0-150200.152.134.1",
            "SUSE Linux Enterprise Server for SAP Applications 15 SP3:MozillaFirefox-115.10.0-150200.152.134.1",
            "SUSE Linux Enterprise Server for SAP Applications 15 SP3:MozillaFirefox-devel-115.10.0-150200.152.134.1",
            "SUSE Linux Enterprise Server for SAP Applications 15 SP3:MozillaFirefox-translations-common-115.10.0-150200.152.134.1",
            "SUSE Linux Enterprise Server for SAP Applications 15 SP3:MozillaFirefox-translations-other-115.10.0-150200.152.134.1",
            "SUSE Linux Enterprise Server for SAP Applications 15 SP4:MozillaFirefox-115.10.0-150200.152.134.1",
            "SUSE Linux Enterprise Server for SAP Applications 15 SP4:MozillaFirefox-devel-115.10.0-150200.152.134.1",
            "SUSE Linux Enterprise Server for SAP Applications 15 SP4:MozillaFirefox-translations-common-115.10.0-150200.152.134.1",
            "SUSE Linux Enterprise Server for SAP Applications 15 SP4:MozillaFirefox-translations-other-115.10.0-150200.152.134.1",
            "openSUSE Leap 15.5:MozillaFirefox-115.10.0-150200.152.134.1",
            "openSUSE Leap 15.5:MozillaFirefox-branding-upstream-115.10.0-150200.152.134.1",
            "openSUSE Leap 15.5:MozillaFirefox-devel-115.10.0-150200.152.134.1",
            "openSUSE Leap 15.5:MozillaFirefox-translations-common-115.10.0-150200.152.134.1",
            "openSUSE Leap 15.5:MozillaFirefox-translations-other-115.10.0-150200.152.134.1"
          ]
        }
      ],
      "CVSSScoreSets": {}
    },
    {
      "CVE": "CVE-2024-3861",
      "Description": "If an AlignedBuffer were assigned to itself, the subsequent self-move could result in an incorrect reference count and later use-after-free. This vulnerability affects Firefox \u003c 125, Firefox ESR \u003c 115.10, and Thunderbird \u003c 115.10.",
      "Threats": [
        {
          "Type": "Impact",
          "Severity": "important"
        }
      ],
      "References": [
        {
          "URL": "https://www.suse.com/security/cve/CVE-2024-3861.html",
          "Description": "CVE-2024-3861"
        }
      ],
      "ProductStatuses": [
        {
          "Type": "Fixed",
          "ProductID": [
            "Image SLES15-SP2-SAP-Azure-LI-BYOS-Production:MozillaFirefox-115.10.0-150200.152.134.1",
            "Image SLES15-SP2-SAP-Azure-VLI-BYOS-Production:MozillaFirefox-115.10.0-150200.152.134.1",
            "Image SLES15-SP3-SAP-Azure-LI-BYOS-Production:MozillaFirefox-115.10.0-150200.152.134.1",
            "Image SLES15-SP3-SAP-Azure-VLI-BYOS-Production:MozillaFirefox-115.10.0-150200.152.134.1",
            "SUSE Enterprise Storage 7.1:MozillaFirefox-115.10.0-150200.152.134.1",
            "SUSE Enterprise Storage 7.1:MozillaFirefox-devel-115.10.0-150200.152.134.1",
            "SUSE Enterprise Storage 7.1:MozillaFirefox-translations-common-115.10.0-150200.152.134.1",
            "SUSE Enterprise Storage 7.1:MozillaFirefox-translations-other-115.10.0-150200.152.134.1",
            "SUSE Linux Enterprise High Performance Computing 15 SP2-LTSS:MozillaFirefox-115.10.0-150200.152.134.1",
            "SUSE Linux Enterprise High Performance Computing 15 SP2-LTSS:MozillaFirefox-devel-115.10.0-150200.152.134.1",
            "SUSE Linux Enterprise High Performance Computing 15 SP2-LTSS:MozillaFirefox-translations-common-115.10.0-150200.152.134.1",
            "SUSE Linux Enterprise High Performance Computing 15 SP2-LTSS:MozillaFirefox-translations-other-115.10.0-150200.152.134.1",
            "SUSE Linux Enterprise High Performance Computing 15 SP3-LTSS:MozillaFirefox-115.10.0-150200.152.134.1",
            "SUSE Linux Enterprise High Performance Computing 15 SP3-LTSS:MozillaFirefox-devel-115.10.0-150200.152.134.1",
            "SUSE Linux Enterprise High Performance Computing 15 SP3-LTSS:MozillaFirefox-translations-common-115.10.0-150200.152.134.1",
            "SUSE Linux Enterprise High Performance Computing 15 SP3-LTSS:MozillaFirefox-translations-other-115.10.0-150200.152.134.1",
            "SUSE Linux Enterprise High Performance Computing 15 SP4-ESPOS:MozillaFirefox-115.10.0-150200.152.134.1",
            "SUSE Linux Enterprise High Performance Computing 15 SP4-ESPOS:MozillaFirefox-devel-115.10.0-150200.152.134.1",
            "SUSE Linux Enterprise High Performance Computing 15 SP4-ESPOS:MozillaFirefox-translations-common-115.10.0-150200.152.134.1",
            "SUSE Linux Enterprise High Performance Computing 15 SP4-ESPOS:MozillaFirefox-translations-other-115.10.0-150200.152.134.1",
            "SUSE Linux Enterprise High Performance Computing 15 SP4-LTSS:MozillaFirefox-115.10.0-150200.152.134.1",
            "SUSE Linux Enterprise High Performance Computing 15 SP4-LTSS:MozillaFirefox-devel-115.10.0-150200.152.134.1",
            "SUSE Linux Enterprise High Performance Computing 15 SP4-LTSS:MozillaFirefox-translations-common-115.10.0-150200.152.134.1",
            "SUSE Linux Enterprise High Performance Computing 15 SP4-LTSS:MozillaFirefox-translations-other-115.10.0-150200.152.134.1",
            "SUSE Linux Enterprise Module for Desktop Applications 15 SP5:MozillaFirefox-115.10.0-150200.152.134.1",
            "SUSE Linux Enterprise Module for Desktop Applications 15 SP5:MozillaFirefox-devel-115.10.0-150200.152.134.1",
            "SUSE Linux Enterprise Module for Desktop Applications 15 SP5:MozillaFirefox-translations-common-115.10.0-150200.152.134.1",
            "SUSE Linux Enterprise Module for Desktop Applications 15 SP5:MozillaFirefox-translations-other-115.10.0-150200.152.134.1",
            "SUSE Linux Enterprise Server 15 SP2-LTSS:MozillaFirefox-115.10.0-150200.152.134.1",
            "SUSE Linux Enterprise Server 15 SP2-LTSS:MozillaFirefox-devel-115.10.0-150200.152.134.1",
            "SUSE Linux Enterprise Server 15 SP2-LTSS:MozillaFirefox-translations-common-115.10.0-150200.152.134.1",
            "SUSE Linux Enterprise Server 15 SP2-LTSS:MozillaFirefox-translations-other-115.10.0-150200.152.134.1",
            "SUSE Linux Enterprise Server 15 SP3-LTSS:MozillaFirefox-115.10.0-150200.152.134.1",
            "SUSE Linux Enterprise Server 15 SP3-LTSS:MozillaFirefox-devel-115.10.0-150200.152.134.1",
            "SUSE Linux Enterprise Server 15 SP3-LTSS:MozillaFirefox-translations-common-115.10.0-150200.152.134.1",
            "SUSE Linux Enterprise Server 15 SP3-LTSS:MozillaFirefox-translations-other-115.10.0-150200.152.134.1",
            "SUSE Linux Enterprise Server 15 SP4-LTSS:MozillaFirefox-115.10.0-150200.152.134.1",
            "SUSE Linux Enterprise Server 15 SP4-LTSS:MozillaFirefox-devel-115.10.0-150200.152.134.1",
            "SUSE Linux Enterprise Server 15 SP4-LTSS:MozillaFirefox-translations-common-115.10.0-150200.152.134.1",
            "SUSE Linux Enterprise Server 15 SP4-LTSS:MozillaFirefox-translations-other-115.10.0-150200.152.134.1",
            "SUSE Linux Enterprise Server for SAP Applications 15 SP2:MozillaFirefox-115.10.0-150200.152.134.1",
            "SUSE Linux Enterprise Server for SAP Applications 15 SP2:MozillaFirefox-devel-115.10.0-150200.152.134.1",
            "SUSE Linux Enterprise Server for SAP Applications 15 SP2:MozillaFirefox-translations-common-115.10.0-150200.152.134.1",
            "SUSE Linux Enterprise Server for SAP Applications 15 SP2:MozillaFirefox-translations-other-115.10.0-150200.152.134.1",
            "SUSE Linux Enterprise Server for SAP Applications 15 SP3:MozillaFirefox-115.10.0-150200.152.134.1",
            "SUSE Linux Enterprise Server for SAP Applications 15 SP3:MozillaFirefox-devel-115.10.0-150200.152.134.1",
            "SUSE Linux Enterprise Server for SAP Applications 15 SP3:MozillaFirefox-translations-common-115.10.0-150200.152.134.1",
            "SUSE Linux Enterprise Server for SAP Applications 15 SP3:MozillaFirefox-translations-other-115.10.0-150200.152.134.1",
            "SUSE Linux Enterprise Server for SAP Applications 15 SP4:MozillaFirefox-115.10.0-150200.152.134.1",
            "SUSE Linux Enterprise Server for SAP Applications 15 SP4:MozillaFirefox-devel-115.10.0-150200.152.134.1",
            "SUSE Linux Enterprise Server for SAP Applications 15 SP4:MozillaFirefox-translations-common-115.10.0-150200.152.134.1",
            "SUSE Linux Enterprise Server for SAP Applications 15 SP4:MozillaFirefox-translations-other-115.10.0-150200.152.134.1",
            "openSUSE Leap 15.5:MozillaFirefox-115.10.0-150200.152.134.1",
            "openSUSE Leap 15.5:MozillaFirefox-branding-upstream-115.10.0-150200.152.134.1",
            "openSUSE Leap 15.5:MozillaFirefox-devel-115.10.0-150200.152.134.1",
            "openSUSE Leap 15.5:MozillaFirefox-translations-common-115.10.0-150200.152.134.1",
            "openSUSE Leap 15.5:MozillaFirefox-translations-other-115.10.0-150200.152.134.1"
          ]
        }
      ],
      "CVSSScoreSets": {}
    },
    {
      "CVE": "CVE-2024-3863",
      "Description": "The executable file warning was not presented when downloading .xrm-ms files.  \n*Note: This issue only affected Windows operating systems. Other operating systems are unaffected.* This vulnerability affects Firefox \u003c 125, Firefox ESR \u003c 115.10, and Thunderbird \u003c 115.10.",
      "Threats": [
        {
          "Type": "Impact",
          "Severity": "important"
        }
      ],
      "References": [
        {
          "URL": "https://www.suse.com/security/cve/CVE-2024-3863.html",
          "Description": "CVE-2024-3863"
        }
      ],
      "ProductStatuses": [
        {
          "Type": "Fixed",
          "ProductID": [
            "Image SLES15-SP2-SAP-Azure-LI-BYOS-Production:MozillaFirefox-115.10.0-150200.152.134.1",
            "Image SLES15-SP2-SAP-Azure-VLI-BYOS-Production:MozillaFirefox-115.10.0-150200.152.134.1",
            "Image SLES15-SP3-SAP-Azure-LI-BYOS-Production:MozillaFirefox-115.10.0-150200.152.134.1",
            "Image SLES15-SP3-SAP-Azure-VLI-BYOS-Production:MozillaFirefox-115.10.0-150200.152.134.1",
            "SUSE Enterprise Storage 7.1:MozillaFirefox-115.10.0-150200.152.134.1",
            "SUSE Enterprise Storage 7.1:MozillaFirefox-devel-115.10.0-150200.152.134.1",
            "SUSE Enterprise Storage 7.1:MozillaFirefox-translations-common-115.10.0-150200.152.134.1",
            "SUSE Enterprise Storage 7.1:MozillaFirefox-translations-other-115.10.0-150200.152.134.1",
            "SUSE Linux Enterprise High Performance Computing 15 SP2-LTSS:MozillaFirefox-115.10.0-150200.152.134.1",
            "SUSE Linux Enterprise High Performance Computing 15 SP2-LTSS:MozillaFirefox-devel-115.10.0-150200.152.134.1",
            "SUSE Linux Enterprise High Performance Computing 15 SP2-LTSS:MozillaFirefox-translations-common-115.10.0-150200.152.134.1",
            "SUSE Linux Enterprise High Performance Computing 15 SP2-LTSS:MozillaFirefox-translations-other-115.10.0-150200.152.134.1",
            "SUSE Linux Enterprise High Performance Computing 15 SP3-LTSS:MozillaFirefox-115.10.0-150200.152.134.1",
            "SUSE Linux Enterprise High Performance Computing 15 SP3-LTSS:MozillaFirefox-devel-115.10.0-150200.152.134.1",
            "SUSE Linux Enterprise High Performance Computing 15 SP3-LTSS:MozillaFirefox-translations-common-115.10.0-150200.152.134.1",
            "SUSE Linux Enterprise High Performance Computing 15 SP3-LTSS:MozillaFirefox-translations-other-115.10.0-150200.152.134.1",
            "SUSE Linux Enterprise High Performance Computing 15 SP4-ESPOS:MozillaFirefox-115.10.0-150200.152.134.1",
            "SUSE Linux Enterprise High Performance Computing 15 SP4-ESPOS:MozillaFirefox-devel-115.10.0-150200.152.134.1",
            "SUSE Linux Enterprise High Performance Computing 15 SP4-ESPOS:MozillaFirefox-translations-common-115.10.0-150200.152.134.1",
            "SUSE Linux Enterprise High Performance Computing 15 SP4-ESPOS:MozillaFirefox-translations-other-115.10.0-150200.152.134.1",
            "SUSE Linux Enterprise High Performance Computing 15 SP4-LTSS:MozillaFirefox-115.10.0-150200.152.134.1",
            "SUSE Linux Enterprise High Performance Computing 15 SP4-LTSS:MozillaFirefox-devel-115.10.0-150200.152.134.1",
            "SUSE Linux Enterprise High Performance Computing 15 SP4-LTSS:MozillaFirefox-translations-common-115.10.0-150200.152.134.1",
            "SUSE Linux Enterprise High Performance Computing 15 SP4-LTSS:MozillaFirefox-translations-other-115.10.0-150200.152.134.1",
            "SUSE Linux Enterprise Module for Desktop Applications 15 SP5:MozillaFirefox-115.10.0-150200.152.134.1",
            "SUSE Linux Enterprise Module for Desktop Applications 15 SP5:MozillaFirefox-devel-115.10.0-150200.152.134.1",
            "SUSE Linux Enterprise Module for Desktop Applications 15 SP5:MozillaFirefox-translations-common-115.10.0-150200.152.134.1",
            "SUSE Linux Enterprise Module for Desktop Applications 15 SP5:MozillaFirefox-translations-other-115.10.0-150200.152.134.1",
            "SUSE Linux Enterprise Server 15 SP2-LTSS:MozillaFirefox-115.10.0-150200.152.134.1",
            "SUSE Linux Enterprise Server 15 SP2-LTSS:MozillaFirefox-devel-115.10.0-150200.152.134.1",
            "SUSE Linux Enterprise Server 15 SP2-LTSS:MozillaFirefox-translations-common-115.10.0-150200.152.134.1",
            "SUSE Linux Enterprise Server 15 SP2-LTSS:MozillaFirefox-translations-other-115.10.0-150200.152.134.1",
            "SUSE Linux Enterprise Server 15 SP3-LTSS:MozillaFirefox-115.10.0-150200.152.134.1",
            "SUSE Linux Enterprise Server 15 SP3-LTSS:MozillaFirefox-devel-115.10.0-150200.152.134.1",
            "SUSE Linux Enterprise Server 15 SP3-LTSS:MozillaFirefox-translations-common-115.10.0-150200.152.134.1",
            "SUSE Linux Enterprise Server 15 SP3-LTSS:MozillaFirefox-translations-other-115.10.0-150200.152.134.1",
            "SUSE Linux Enterprise Server 15 SP4-LTSS:MozillaFirefox-115.10.0-150200.152.134.1",
            "SUSE Linux Enterprise Server 15 SP4-LTSS:MozillaFirefox-devel-115.10.0-150200.152.134.1",
            "SUSE Linux Enterprise Server 15 SP4-LTSS:MozillaFirefox-translations-common-115.10.0-150200.152.134.1",
            "SUSE Linux Enterprise Server 15 SP4-LTSS:MozillaFirefox-translations-other-115.10.0-150200.152.134.1",
            "SUSE Linux Enterprise Server for SAP Applications 15 SP2:MozillaFirefox-115.10.0-150200.152.134.1",
            "SUSE Linux Enterprise Server for SAP Applications 15 SP2:MozillaFirefox-devel-115.10.0-150200.152.134.1",
            "SUSE Linux Enterprise Server for SAP Applications 15 SP2:MozillaFirefox-translations-common-115.10.0-150200.152.134.1",
            "SUSE Linux Enterprise Server for SAP Applications 15 SP2:MozillaFirefox-translations-other-115.10.0-150200.152.134.1",
            "SUSE Linux Enterprise Server for SAP Applications 15 SP3:MozillaFirefox-115.10.0-150200.152.134.1",
            "SUSE Linux Enterprise Server for SAP Applications 15 SP3:MozillaFirefox-devel-115.10.0-150200.152.134.1",
            "SUSE Linux Enterprise Server for SAP Applications 15 SP3:MozillaFirefox-translations-common-115.10.0-150200.152.134.1",
            "SUSE Linux Enterprise Server for SAP Applications 15 SP3:MozillaFirefox-translations-other-115.10.0-150200.152.134.1",
            "SUSE Linux Enterprise Server for SAP Applications 15 SP4:MozillaFirefox-115.10.0-150200.152.134.1",
            "SUSE Linux Enterprise Server for SAP Applications 15 SP4:MozillaFirefox-devel-115.10.0-150200.152.134.1",
            "SUSE Linux Enterprise Server for SAP Applications 15 SP4:MozillaFirefox-translations-common-115.10.0-150200.152.134.1",
            "SUSE Linux Enterprise Server for SAP Applications 15 SP4:MozillaFirefox-translations-other-115.10.0-150200.152.134.1",
            "openSUSE Leap 15.5:MozillaFirefox-115.10.0-150200.152.134.1",
            "openSUSE Leap 15.5:MozillaFirefox-branding-upstream-115.10.0-150200.152.134.1",
            "openSUSE Leap 15.5:MozillaFirefox-devel-115.10.0-150200.152.134.1",
            "openSUSE Leap 15.5:MozillaFirefox-translations-common-115.10.0-150200.152.134.1",
            "openSUSE Leap 15.5:MozillaFirefox-translations-other-115.10.0-150200.152.134.1"
          ]
        }
      ],
      "CVSSScoreSets": {}
    },
    {
      "CVE": "CVE-2024-3864",
      "Description": "Memory safety bug present in Firefox 124, Firefox ESR 115.9, and Thunderbird 115.9. This bug showed evidence of memory corruption and we presume that with enough effort this could have been exploited to run arbitrary code. This vulnerability affects Firefox \u003c 125, Firefox ESR \u003c 115.10, and Thunderbird \u003c 115.10.",
      "Threats": [
        {
          "Type": "Impact",
          "Severity": "important"
        }
      ],
      "References": [
        {
          "URL": "https://www.suse.com/security/cve/CVE-2024-3864.html",
          "Description": "CVE-2024-3864"
        }
      ],
      "ProductStatuses": [
        {
          "Type": "Fixed",
          "ProductID": [
            "Image SLES15-SP2-SAP-Azure-LI-BYOS-Production:MozillaFirefox-115.10.0-150200.152.134.1",
            "Image SLES15-SP2-SAP-Azure-VLI-BYOS-Production:MozillaFirefox-115.10.0-150200.152.134.1",
            "Image SLES15-SP3-SAP-Azure-LI-BYOS-Production:MozillaFirefox-115.10.0-150200.152.134.1",
            "Image SLES15-SP3-SAP-Azure-VLI-BYOS-Production:MozillaFirefox-115.10.0-150200.152.134.1",
            "SUSE Enterprise Storage 7.1:MozillaFirefox-115.10.0-150200.152.134.1",
            "SUSE Enterprise Storage 7.1:MozillaFirefox-devel-115.10.0-150200.152.134.1",
            "SUSE Enterprise Storage 7.1:MozillaFirefox-translations-common-115.10.0-150200.152.134.1",
            "SUSE Enterprise Storage 7.1:MozillaFirefox-translations-other-115.10.0-150200.152.134.1",
            "SUSE Linux Enterprise High Performance Computing 15 SP2-LTSS:MozillaFirefox-115.10.0-150200.152.134.1",
            "SUSE Linux Enterprise High Performance Computing 15 SP2-LTSS:MozillaFirefox-devel-115.10.0-150200.152.134.1",
            "SUSE Linux Enterprise High Performance Computing 15 SP2-LTSS:MozillaFirefox-translations-common-115.10.0-150200.152.134.1",
            "SUSE Linux Enterprise High Performance Computing 15 SP2-LTSS:MozillaFirefox-translations-other-115.10.0-150200.152.134.1",
            "SUSE Linux Enterprise High Performance Computing 15 SP3-LTSS:MozillaFirefox-115.10.0-150200.152.134.1",
            "SUSE Linux Enterprise High Performance Computing 15 SP3-LTSS:MozillaFirefox-devel-115.10.0-150200.152.134.1",
            "SUSE Linux Enterprise High Performance Computing 15 SP3-LTSS:MozillaFirefox-translations-common-115.10.0-150200.152.134.1",
            "SUSE Linux Enterprise High Performance Computing 15 SP3-LTSS:MozillaFirefox-translations-other-115.10.0-150200.152.134.1",
            "SUSE Linux Enterprise High Performance Computing 15 SP4-ESPOS:MozillaFirefox-115.10.0-150200.152.134.1",
            "SUSE Linux Enterprise High Performance Computing 15 SP4-ESPOS:MozillaFirefox-devel-115.10.0-150200.152.134.1",
            "SUSE Linux Enterprise High Performance Computing 15 SP4-ESPOS:MozillaFirefox-translations-common-115.10.0-150200.152.134.1",
            "SUSE Linux Enterprise High Performance Computing 15 SP4-ESPOS:MozillaFirefox-translations-other-115.10.0-150200.152.134.1",
            "SUSE Linux Enterprise High Performance Computing 15 SP4-LTSS:MozillaFirefox-115.10.0-150200.152.134.1",
            "SUSE Linux Enterprise High Performance Computing 15 SP4-LTSS:MozillaFirefox-devel-115.10.0-150200.152.134.1",
            "SUSE Linux Enterprise High Performance Computing 15 SP4-LTSS:MozillaFirefox-translations-common-115.10.0-150200.152.134.1",
            "SUSE Linux Enterprise High Performance Computing 15 SP4-LTSS:MozillaFirefox-translations-other-115.10.0-150200.152.134.1",
            "SUSE Linux Enterprise Module for Desktop Applications 15 SP5:MozillaFirefox-115.10.0-150200.152.134.1",
            "SUSE Linux Enterprise Module for Desktop Applications 15 SP5:MozillaFirefox-devel-115.10.0-150200.152.134.1",
            "SUSE Linux Enterprise Module for Desktop Applications 15 SP5:MozillaFirefox-translations-common-115.10.0-150200.152.134.1",
            "SUSE Linux Enterprise Module for Desktop Applications 15 SP5:MozillaFirefox-translations-other-115.10.0-150200.152.134.1",
            "SUSE Linux Enterprise Server 15 SP2-LTSS:MozillaFirefox-115.10.0-150200.152.134.1",
            "SUSE Linux Enterprise Server 15 SP2-LTSS:MozillaFirefox-devel-115.10.0-150200.152.134.1",
            "SUSE Linux Enterprise Server 15 SP2-LTSS:MozillaFirefox-translations-common-115.10.0-150200.152.134.1",
            "SUSE Linux Enterprise Server 15 SP2-LTSS:MozillaFirefox-translations-other-115.10.0-150200.152.134.1",
            "SUSE Linux Enterprise Server 15 SP3-LTSS:MozillaFirefox-115.10.0-150200.152.134.1",
            "SUSE Linux Enterprise Server 15 SP3-LTSS:MozillaFirefox-devel-115.10.0-150200.152.134.1",
            "SUSE Linux Enterprise Server 15 SP3-LTSS:MozillaFirefox-translations-common-115.10.0-150200.152.134.1",
            "SUSE Linux Enterprise Server 15 SP3-LTSS:MozillaFirefox-translations-other-115.10.0-150200.152.134.1",
            "SUSE Linux Enterprise Server 15 SP4-LTSS:MozillaFirefox-115.10.0-150200.152.134.1",
            "SUSE Linux Enterprise Server 15 SP4-LTSS:MozillaFirefox-devel-115.10.0-150200.152.134.1",
            "SUSE Linux Enterprise Server 15 SP4-LTSS:MozillaFirefox-translations-common-115.10.0-150200.152.134.1",
            "SUSE Linux Enterprise Server 15 SP4-LTSS:MozillaFirefox-translations-other-115.10.0-150200.152.134.1",
            "SUSE Linux Enterprise Server for SAP Applications 15 SP2:MozillaFirefox-115.10.0-150200.152.134.1",
            "SUSE Linux Enterprise Server for SAP Applications 15 SP2:MozillaFirefox-devel-115.10.0-150200.152.134.1",
            "SUSE Linux Enterprise Server for SAP Applications 15 SP2:MozillaFirefox-translations-common-115.10.0-150200.152.134.1",
            "SUSE Linux Enterprise Server for SAP Applications 15 SP2:MozillaFirefox-translations-other-115.10.0-150200.152.134.1",
            "SUSE Linux Enterprise Server for SAP Applications 15 SP3:MozillaFirefox-115.10.0-150200.152.134.1",
            "SUSE Linux Enterprise Server for SAP Applications 15 SP3:MozillaFirefox-devel-115.10.0-150200.152.134.1",
            "SUSE Linux Enterprise Server for SAP Applications 15 SP3:MozillaFirefox-translations-common-115.10.0-150200.152.134.1",
            "SUSE Linux Enterprise Server for SAP Applications 15 SP3:MozillaFirefox-translations-other-115.10.0-150200.152.134.1",
            "SUSE Linux Enterprise Server for SAP Applications 15 SP4:MozillaFirefox-115.10.0-150200.152.134.1",
            "SUSE Linux Enterprise Server for SAP Applications 15 SP4:MozillaFirefox-devel-115.10.0-150200.152.134.1",
            "SUSE Linux Enterprise Server for SAP Applications 15 SP4:MozillaFirefox-translations-common-115.10.0-150200.152.134.1",
            "SUSE Linux Enterprise Server for SAP Applications 15 SP4:MozillaFirefox-translations-other-115.10.0-150200.152.134.1",
            "openSUSE Leap 15.5:MozillaFirefox-115.10.0-150200.152.134.1",
            "openSUSE Leap 15.5:MozillaFirefox-branding-upstream-115.10.0-150200.152.134.1",
            "openSUSE Leap 15.5:MozillaFirefox-devel-115.10.0-150200.152.134.1",
            "openSUSE Leap 15.5:MozillaFirefox-translations-common-115.10.0-150200.152.134.1",
            "openSUSE Leap 15.5:MozillaFirefox-translations-other-115.10.0-150200.152.134.1"
          ]
        }
      ],
      "CVSSScoreSets": {}
    }
  ]
}