{
  "Title": "Security update for openssl-3",
  "Tracking": {
    "ID": "SUSE-SU-2024:1789-1",
    "Status": "Final",
    "Version": "1",
    "InitialReleaseDate": "2024-05-27T13:27:28Z",
    "CurrentReleaseDate": "2024-05-27T13:27:28Z",
    "RevisionHistory": [
      {
        "Number": "1",
        "Date": "2024-05-27T13:27:28Z",
        "Description": "current"
      }
    ]
  },
  "Notes": [
    {
      "Text": "Security update for openssl-3",
      "Title": "Topic",
      "Type": "Summary"
    },
    {
      "Text": "This update for openssl-3 fixes the following issues:\n\n- CVE-2024-4603: Fixed DSA parameter checks for excessive sizes before validating (bsc#1224388).\n",
      "Title": "Details",
      "Type": "General"
    },
    {
      "Text": "The CVRF data is provided by SUSE under the Creative Commons License 4.0 with Attribution (CC-BY-4.0).",
      "Title": "Terms of Use",
      "Type": "Legal Disclaimer"
    },
    {
      "Text": "SUSE-2024-1789,SUSE-SLE-Module-Basesystem-15-SP5-2024-1789,openSUSE-SLE-15.5-2024-1789",
      "Title": "Patchnames",
      "Type": "Details"
    }
  ],
  "ProductTree": {
    "Relationships": [
      {
        "ProductReference": "libopenssl-3-devel-3.0.8-150500.5.33.1",
        "RelatesToProductReference": "SUSE Linux Enterprise Module for Basesystem 15 SP5",
        "RelationType": "Default Component Of"
      },
      {
        "ProductReference": "libopenssl3-3.0.8-150500.5.33.1",
        "RelatesToProductReference": "SUSE Linux Enterprise Module for Basesystem 15 SP5",
        "RelationType": "Default Component Of"
      },
      {
        "ProductReference": "openssl-3-3.0.8-150500.5.33.1",
        "RelatesToProductReference": "SUSE Linux Enterprise Module for Basesystem 15 SP5",
        "RelationType": "Default Component Of"
      },
      {
        "ProductReference": "libopenssl-3-devel-3.0.8-150500.5.33.1",
        "RelatesToProductReference": "openSUSE Leap 15.5",
        "RelationType": "Default Component Of"
      },
      {
        "ProductReference": "libopenssl-3-devel-32bit-3.0.8-150500.5.33.1",
        "RelatesToProductReference": "openSUSE Leap 15.5",
        "RelationType": "Default Component Of"
      },
      {
        "ProductReference": "libopenssl3-3.0.8-150500.5.33.1",
        "RelatesToProductReference": "openSUSE Leap 15.5",
        "RelationType": "Default Component Of"
      },
      {
        "ProductReference": "libopenssl3-32bit-3.0.8-150500.5.33.1",
        "RelatesToProductReference": "openSUSE Leap 15.5",
        "RelationType": "Default Component Of"
      },
      {
        "ProductReference": "openssl-3-3.0.8-150500.5.33.1",
        "RelatesToProductReference": "openSUSE Leap 15.5",
        "RelationType": "Default Component Of"
      },
      {
        "ProductReference": "openssl-3-doc-3.0.8-150500.5.33.1",
        "RelatesToProductReference": "openSUSE Leap 15.5",
        "RelationType": "Default Component Of"
      }
    ]
  },
  "References": [
    {
      "URL": "https://www.suse.com/support/update/announcement/2024/suse-su-20241789-1/",
      "Description": "Link for SUSE-SU-2024:1789-1"
    },
    {
      "URL": "https://lists.suse.com/pipermail/sle-updates/2024-May/035365.html",
      "Description": "E-Mail link for SUSE-SU-2024:1789-1"
    },
    {
      "URL": "https://www.suse.com/support/security/rating/",
      "Description": "SUSE Security Ratings"
    },
    {
      "URL": "https://bugzilla.suse.com/1224388",
      "Description": "SUSE Bug 1224388"
    },
    {
      "URL": "https://www.suse.com/security/cve/CVE-2024-4603/",
      "Description": "SUSE CVE CVE-2024-4603 page"
    }
  ],
  "Vulnerabilities": [
    {
      "CVE": "CVE-2024-4603",
      "Description": "Issue summary: Checking excessively long DSA keys or parameters may be very\nslow.\n\nImpact summary: Applications that use the functions EVP_PKEY_param_check()\nor EVP_PKEY_public_check() to check a DSA public key or DSA parameters may\nexperience long delays. Where the key or parameters that are being checked\nhave been obtained from an untrusted source this may lead to a Denial of\nService.\n\nThe functions EVP_PKEY_param_check() or EVP_PKEY_public_check() perform\nvarious checks on DSA parameters. Some of those computations take a long time\nif the modulus (`p` parameter) is too large.\n\nTrying to use a very large modulus is slow and OpenSSL will not allow using\npublic keys with a modulus which is over 10,000 bits in length for signature\nverification. However the key and parameter check functions do not limit\nthe modulus size when performing the checks.\n\nAn application that calls EVP_PKEY_param_check() or EVP_PKEY_public_check()\nand supplies a key or parameters obtained from an untrusted source could be\nvulnerable to a Denial of Service attack.\n\nThese functions are not called by OpenSSL itself on untrusted DSA keys so\nonly applications that directly call these functions may be vulnerable.\n\nAlso vulnerable are the OpenSSL pkey and pkeyparam command line applications\nwhen using the `-check` option.\n\nThe OpenSSL SSL/TLS implementation is not affected by this issue.\n\nThe OpenSSL 3.0 and 3.1 FIPS providers are affected by this issue.",
      "Threats": [
        {
          "Type": "Impact",
          "Severity": "moderate"
        }
      ],
      "References": [
        {
          "URL": "https://www.suse.com/security/cve/CVE-2024-4603.html",
          "Description": "CVE-2024-4603"
        },
        {
          "URL": "https://bugzilla.suse.com/1224388",
          "Description": "SUSE Bug 1224388"
        }
      ],
      "ProductStatuses": [
        {
          "Type": "Fixed",
          "ProductID": [
            "SUSE Linux Enterprise Module for Basesystem 15 SP5:libopenssl-3-devel-3.0.8-150500.5.33.1",
            "SUSE Linux Enterprise Module for Basesystem 15 SP5:libopenssl3-3.0.8-150500.5.33.1",
            "SUSE Linux Enterprise Module for Basesystem 15 SP5:openssl-3-3.0.8-150500.5.33.1",
            "openSUSE Leap 15.5:libopenssl-3-devel-3.0.8-150500.5.33.1",
            "openSUSE Leap 15.5:libopenssl-3-devel-32bit-3.0.8-150500.5.33.1",
            "openSUSE Leap 15.5:libopenssl3-3.0.8-150500.5.33.1",
            "openSUSE Leap 15.5:libopenssl3-32bit-3.0.8-150500.5.33.1",
            "openSUSE Leap 15.5:openssl-3-3.0.8-150500.5.33.1",
            "openSUSE Leap 15.5:openssl-3-doc-3.0.8-150500.5.33.1"
          ]
        }
      ],
      "CVSSScoreSets": {}
    }
  ]
}