{
  "Title": "Security update for rubygem-rack-1_4",
  "Tracking": {
    "ID": "SUSE-SU-2024:0946-1",
    "Status": "Final",
    "Version": "1",
    "InitialReleaseDate": "2024-03-20T09:27:07Z",
    "CurrentReleaseDate": "2024-03-20T09:27:07Z",
    "RevisionHistory": [
      {
        "Number": "1",
        "Date": "2024-03-20T09:27:07Z",
        "Description": "current"
      }
    ]
  },
  "Notes": [
    {
      "Text": "Security update for rubygem-rack-1_4",
      "Title": "Topic",
      "Type": "Summary"
    },
    {
      "Text": "This update for rubygem-rack-1_4 fixes the following issues:\n\n- CVE-2024-25126: Fixed a Denial of Service Vulnerability in Rack Content-Type Parsing (bsc#1220239)\n- CVE-2024-26141: Fixed a Denial of Service Vulnerability in Range request header parsing (bsc#1220242)\n- CVE-2024-26146: Fixed a Denial of Service vulnerability in Rack headers parsing routine (bsc#1220248)\n",
      "Title": "Details",
      "Type": "General"
    },
    {
      "Text": "The CVRF data is provided by SUSE under the Creative Commons License 4.0 with Attribution (CC-BY-4.0).",
      "Title": "Terms of Use",
      "Type": "Legal Disclaimer"
    },
    {
      "Text": "SUSE-2024-946,SUSE-SLE-Module-Containers-12-2024-946",
      "Title": "Patchnames",
      "Type": "Details"
    }
  ],
  "ProductTree": {
    "Relationships": [
      {
        "ProductReference": "ruby2.1-rubygem-rack-1_4-1.4.5-9.3.1",
        "RelatesToProductReference": "SUSE Linux Enterprise Module for Containers 12",
        "RelationType": "Default Component Of"
      }
    ]
  },
  "References": [
    {
      "URL": "https://www.suse.com/support/update/announcement/2024/suse-su-20240946-1/",
      "Description": "Link for SUSE-SU-2024:0946-1"
    },
    {
      "URL": "https://lists.suse.com/pipermail/sle-security-updates/2024-March/018198.html",
      "Description": "E-Mail link for SUSE-SU-2024:0946-1"
    },
    {
      "URL": "https://www.suse.com/support/security/rating/",
      "Description": "SUSE Security Ratings"
    },
    {
      "URL": "https://bugzilla.suse.com/1220239",
      "Description": "SUSE Bug 1220239"
    },
    {
      "URL": "https://bugzilla.suse.com/1220242",
      "Description": "SUSE Bug 1220242"
    },
    {
      "URL": "https://bugzilla.suse.com/1220248",
      "Description": "SUSE Bug 1220248"
    },
    {
      "URL": "https://www.suse.com/security/cve/CVE-2024-25126/",
      "Description": "SUSE CVE CVE-2024-25126 page"
    },
    {
      "URL": "https://www.suse.com/security/cve/CVE-2024-26141/",
      "Description": "SUSE CVE CVE-2024-26141 page"
    },
    {
      "URL": "https://www.suse.com/security/cve/CVE-2024-26146/",
      "Description": "SUSE CVE CVE-2024-26146 page"
    }
  ],
  "Vulnerabilities": [
    {
      "CVE": "CVE-2024-25126",
      "Description": "Rack is a modular Ruby web server interface. Carefully crafted content type headers can cause Rack's media type parser to take much longer than expected, leading to a possible denial of service vulnerability (ReDos 2nd degree polynomial). This vulnerability is patched in 3.0.9.1 and 2.2.8.1.",
      "Threats": [
        {
          "Type": "Impact",
          "Severity": "important"
        }
      ],
      "References": [
        {
          "URL": "https://www.suse.com/security/cve/CVE-2024-25126.html",
          "Description": "CVE-2024-25126"
        },
        {
          "URL": "https://bugzilla.suse.com/1220239",
          "Description": "SUSE Bug 1220239"
        }
      ],
      "ProductStatuses": [
        {
          "Type": "Fixed",
          "ProductID": [
            "SUSE Linux Enterprise Module for Containers 12:ruby2.1-rubygem-rack-1_4-1.4.5-9.3.1"
          ]
        }
      ],
      "CVSSScoreSets": {}
    },
    {
      "CVE": "CVE-2024-26141",
      "Description": "Rack is a modular Ruby web server interface. Carefully crafted Range headers can cause a server to respond with an unexpectedly large response. Responding with such large responses could lead to a denial of service issue. Vulnerable applications will use the `Rack::File` middleware or the `Rack::Utils.byte_ranges` methods (this includes Rails applications). The vulnerability is fixed in 3.0.9.1 and 2.2.8.1.",
      "Threats": [
        {
          "Type": "Impact",
          "Severity": "important"
        }
      ],
      "References": [
        {
          "URL": "https://www.suse.com/security/cve/CVE-2024-26141.html",
          "Description": "CVE-2024-26141"
        },
        {
          "URL": "https://bugzilla.suse.com/1220242",
          "Description": "SUSE Bug 1220242"
        }
      ],
      "ProductStatuses": [
        {
          "Type": "Fixed",
          "ProductID": [
            "SUSE Linux Enterprise Module for Containers 12:ruby2.1-rubygem-rack-1_4-1.4.5-9.3.1"
          ]
        }
      ],
      "CVSSScoreSets": {}
    },
    {
      "CVE": "CVE-2024-26146",
      "Description": "Rack is a modular Ruby web server interface. Carefully crafted headers can cause header parsing in Rack to take longer than expected resulting in a possible denial of service issue. Accept and Forwarded headers are impacted. Ruby 3.2 has mitigations for this problem, so Rack applications using Ruby 3.2 or newer are unaffected. This vulnerability is fixed in 2.0.9.4, 2.1.4.4, 2.2.8.1, and 3.0.9.1.\n",
      "Threats": [
        {
          "Type": "Impact",
          "Severity": "moderate"
        }
      ],
      "References": [
        {
          "URL": "https://www.suse.com/security/cve/CVE-2024-26146.html",
          "Description": "CVE-2024-26146"
        },
        {
          "URL": "https://bugzilla.suse.com/1220248",
          "Description": "SUSE Bug 1220248"
        }
      ],
      "ProductStatuses": [
        {
          "Type": "Fixed",
          "ProductID": [
            "SUSE Linux Enterprise Module for Containers 12:ruby2.1-rubygem-rack-1_4-1.4.5-9.3.1"
          ]
        }
      ],
      "CVSSScoreSets": {}
    }
  ]
}