{
  "Title": "Security update for rpm",
  "Tracking": {
    "ID": "SUSE-SU-2024:1557-1",
    "Status": "Final",
    "Version": "1",
    "InitialReleaseDate": "2024-05-08T09:42:44Z",
    "CurrentReleaseDate": "2024-05-08T09:42:44Z",
    "RevisionHistory": [
      {
        "Number": "1",
        "Date": "2024-05-08T09:42:44Z",
        "Description": "current"
      }
    ]
  },
  "Notes": [
    {
      "Text": "Security update for rpm",
      "Title": "Topic",
      "Type": "Summary"
    },
    {
      "Text": "This update for rpm fixes the following issues:\n\nSecurity fixes:\n- CVE-2021-3521: Fixed missing subkey binding signature checking (bsc#1191175)\n\nOther fixes:\n\n- accept more signature subpackets marked as critical (bsc#1218686)\n- backport limit support for the autopatch macro (bsc#1189495)\n",
      "Title": "Details",
      "Type": "General"
    },
    {
      "Text": "The CVRF data is provided by SUSE under the Creative Commons License 4.0 with Attribution (CC-BY-4.0).",
      "Title": "Terms of Use",
      "Type": "Legal Disclaimer"
    },
    {
      "Text": "Container bci/bci-minimal:15.6-2024-1557,Container bci/bci-minimal:latest-2024-1557,Container bci/bci-sle15-kernel-module-devel:15.6-2024-1557,Container bci/bci-sle15-kernel-module-devel:latest-2024-1557,Container suse/ltss/sle15.4/sle15:15.4-2024-1557,Container suse/manager/4.3/proxy-httpd:latest-2024-1557,Container suse/manager/5.0/x86_64/proxy-httpd:latest-2024-1557,Container suse/manager/5.0/x86_64/server:latest-2024-1557,Container suse/sle-micro-rancher/5.3:latest-2024-1557,Container suse/sle-micro-rancher/5.4:latest-2024-1557,Container suse/sle-micro/5.3/toolbox:latest-2024-1557,Container suse/sle-micro/5.4/toolbox:latest-2024-1557,Container suse/sle-micro/5.5:latest-2024-1557,Container suse/sle-micro/kvm-5.5:latest-2024-1557,Container suse/sle-micro/rt-5.5:latest-2024-1557,Container suse/sle15:15.5-2024-1557,Container suse/sle15:15.6-2024-1557,Image SLES15-SP4-CHOST-BYOS-2024-1557,Image SLES15-SP4-CHOST-BYOS-Aliyun-2024-1557,Image SLES15-SP4-CHOST-BYOS-Azure-2024-1557,Image SLES15-SP4-CHOST-BYOS-EC2-2024-1557,Image SLES15-SP4-CHOST-BYOS-GCE-2024-1557,Image SLES15-SP4-CHOST-BYOS-SAP-CCloud-2024-1557,Image SLES15-SP4-Manager-Proxy-4-3-BYOS-2024-1557,Image SLES15-SP4-Manager-Proxy-4-3-BYOS-EC2-2024-1557,Image SLES15-SP4-Manager-Proxy-4-3-BYOS-GCE-2024-1557,Image SLES15-SP4-Manager-Server-4-3-2024-1557,Image SLES15-SP4-Manager-Server-4-3-Azure-llc-2024-1557,Image SLES15-SP4-Manager-Server-4-3-Azure-ltd-2024-1557,Image SLES15-SP4-Manager-Server-4-3-BYOS-2024-1557,Image SLES15-SP4-Manager-Server-4-3-BYOS-Azure-2024-1557,Image SLES15-SP4-Manager-Server-4-3-BYOS-EC2-2024-1557,Image SLES15-SP4-Manager-Server-4-3-BYOS-GCE-2024-1557,Image SLES15-SP4-Manager-Server-4-3-EC2-llc-2024-1557,Image SLES15-SP4-Manager-Server-4-3-EC2-ltd-2024-1557,Image SLES15-SP5-BYOS-EC2-2024-1557,Image SLES15-SP5-BYOS-GCE-2024-1557,Image SLES15-SP5-CHOST-BYOS-Aliyun-2024-1557,Image SLES15-SP5-CHOST-BYOS-Azure-2024-1557,Image SLES15-SP5-CHOST-BYOS-EC2-2024-1557,Image SLES15-SP5-CHOST-BYOS-GCE-2024-1557,Image SLES15-SP5-CHOST-BYOS-SAP-CCloud-2024-1557,Image SLES15-SP5-EC2-2024-1557,Image SLES15-SP5-GCE-2024-1557,Image SLES15-SP5-HPC-BYOS-EC2-2024-1557,Image SLES15-SP5-HPC-BYOS-GCE-2024-1557,Image SLES15-SP5-Hardened-BYOS-GCE-2024-1557,Image SLES15-SP5-SAP-BYOS-EC2-2024-1557,Image SLES15-SP5-SAP-BYOS-GCE-2024-1557,Image SLES15-SP5-SAP-Hardened-BYOS-GCE-2024-1557,Image SLES15-SP5-SAP-Hardened-GCE-2024-1557,Image SLES15-SP5-SAPCAL-EC2-2024-1557,Image SLES15-SP5-SAPCAL-GCE-2024-1557,SUSE-2024-1557,SUSE-SLE-Micro-5.4-2024-1557,SUSE-SLE-Micro-5.5-2024-1557,SUSE-SLE-Module-Basesystem-15-SP5-2024-1557,SUSE-SLE-Module-Development-Tools-15-SP5-2024-1557,SUSE-SLE-Module-Public-Cloud-15-SP4-2024-1557,SUSE-SLE-Module-Public-Cloud-15-SP5-2024-1557,SUSE-SLE-Module-Python3-15-SP5-2024-1557,SUSE-SLE-Module-SUSE-Manager-Proxy-4.3-2024-1557,SUSE-SLE-Module-SUSE-Manager-Server-4.3-2024-1557,SUSE-SLE-Product-HPC-15-SP4-ESPOS-2024-1557,SUSE-SLE-Product-HPC-15-SP4-LTSS-2024-1557,SUSE-SLE-Product-SLED-15-SP4-LTSS-2024-1557,SUSE-SLE-Product-SLES-15-SP4-LTSS-2024-1557,SUSE-SLE-Product-SLES_SAP-15-SP4-2024-1557,SUSE-SLE-Product-SUSE-Manager-Proxy-4.3-2024-1557,SUSE-SLE-Product-SUSE-Manager-Server-4.3-2024-1557,openSUSE-Leap-Micro-5.4-2024-1557,openSUSE-SLE-15.5-2024-1557",
      "Title": "Patchnames",
      "Type": "Details"
    }
  ],
  "ProductTree": {
    "Relationships": [
      {
        "ProductReference": "rpm-ndb-4.14.3-150400.59.16.1",
        "RelatesToProductReference": "Container bci/bci-minimal:15.6",
        "RelationType": "Default Component Of"
      },
      {
        "ProductReference": "rpm-ndb-4.14.3-150400.59.16.1",
        "RelatesToProductReference": "Container bci/bci-minimal:latest",
        "RelationType": "Default Component Of"
      },
      {
        "ProductReference": "rpm-build-4.14.3-150400.59.16.1",
        "RelatesToProductReference": "Container bci/bci-sle15-kernel-module-devel:15.6",
        "RelationType": "Default Component Of"
      },
      {
        "ProductReference": "rpm-build-4.14.3-150400.59.16.1",
        "RelatesToProductReference": "Container bci/bci-sle15-kernel-module-devel:latest",
        "RelationType": "Default Component Of"
      },
      {
        "ProductReference": "rpm-ndb-4.14.3-150400.59.16.1",
        "RelatesToProductReference": "Container suse/ltss/sle15.4/sle15:15.4",
        "RelationType": "Default Component Of"
      },
      {
        "ProductReference": "python3-rpm-4.14.3-150400.59.16.1",
        "RelatesToProductReference": "Container suse/manager/4.3/proxy-httpd:latest",
        "RelationType": "Default Component Of"
      },
      {
        "ProductReference": "python3-rpm-4.14.3-150400.59.16.1",
        "RelatesToProductReference": "Container suse/manager/5.0/x86_64/proxy-httpd:latest",
        "RelationType": "Default Component Of"
      },
      {
        "ProductReference": "python3-rpm-4.14.3-150400.59.16.1",
        "RelatesToProductReference": "Container suse/manager/5.0/x86_64/server:latest",
        "RelationType": "Default Component Of"
      },
      {
        "ProductReference": "rpm-build-4.14.3-150400.59.16.1",
        "RelatesToProductReference": "Container suse/manager/5.0/x86_64/server:latest",
        "RelationType": "Default Component Of"
      },
      {
        "ProductReference": "rpm-ndb-4.14.3-150400.59.16.1",
        "RelatesToProductReference": "Container suse/sle-micro-rancher/5.3:latest",
        "RelationType": "Default Component Of"
      },
      {
        "ProductReference": "rpm-ndb-4.14.3-150400.59.16.1",
        "RelatesToProductReference": "Container suse/sle-micro-rancher/5.4:latest",
        "RelationType": "Default Component Of"
      },
      {
        "ProductReference": "rpm-ndb-4.14.3-150400.59.16.1",
        "RelatesToProductReference": "Container suse/sle-micro/5.3/toolbox:latest",
        "RelationType": "Default Component Of"
      },
      {
        "ProductReference": "rpm-ndb-4.14.3-150400.59.16.1",
        "RelatesToProductReference": "Container suse/sle-micro/5.4/toolbox:latest",
        "RelationType": "Default Component Of"
      },
      {
        "ProductReference": "rpm-4.14.3-150400.59.16.1",
        "RelatesToProductReference": "Container suse/sle-micro/5.5:latest",
        "RelationType": "Default Component Of"
      },
      {
        "ProductReference": "rpm-4.14.3-150400.59.16.1",
        "RelatesToProductReference": "Container suse/sle-micro/kvm-5.5:latest",
        "RelationType": "Default Component Of"
      },
      {
        "ProductReference": "rpm-4.14.3-150400.59.16.1",
        "RelatesToProductReference": "Container suse/sle-micro/rt-5.5:latest",
        "RelationType": "Default Component Of"
      },
      {
        "ProductReference": "rpm-ndb-4.14.3-150400.59.16.1",
        "RelatesToProductReference": "Container suse/sle15:15.5",
        "RelationType": "Default Component Of"
      },
      {
        "ProductReference": "rpm-ndb-4.14.3-150400.59.16.1",
        "RelatesToProductReference": "Container suse/sle15:15.6",
        "RelationType": "Default Component Of"
      },
      {
        "ProductReference": "rpm-ndb-4.14.3-150400.59.16.1",
        "RelatesToProductReference": "Image SLES15-SP4-CHOST-BYOS",
        "RelationType": "Default Component Of"
      },
      {
        "ProductReference": "rpm-ndb-4.14.3-150400.59.16.1",
        "RelatesToProductReference": "Image SLES15-SP4-CHOST-BYOS-Aliyun",
        "RelationType": "Default Component Of"
      },
      {
        "ProductReference": "rpm-ndb-4.14.3-150400.59.16.1",
        "RelatesToProductReference": "Image SLES15-SP4-CHOST-BYOS-Azure",
        "RelationType": "Default Component Of"
      },
      {
        "ProductReference": "rpm-ndb-4.14.3-150400.59.16.1",
        "RelatesToProductReference": "Image SLES15-SP4-CHOST-BYOS-EC2",
        "RelationType": "Default Component Of"
      },
      {
        "ProductReference": "rpm-ndb-4.14.3-150400.59.16.1",
        "RelatesToProductReference": "Image SLES15-SP4-CHOST-BYOS-GCE",
        "RelationType": "Default Component Of"
      },
      {
        "ProductReference": "rpm-ndb-4.14.3-150400.59.16.1",
        "RelatesToProductReference": "Image SLES15-SP4-CHOST-BYOS-SAP-CCloud",
        "RelationType": "Default Component Of"
      },
      {
        "ProductReference": "python3-rpm-4.14.3-150400.59.16.1",
        "RelatesToProductReference": "Image SLES15-SP4-Manager-Proxy-4-3-BYOS",
        "RelationType": "Default Component Of"
      },
      {
        "ProductReference": "rpm-build-4.14.3-150400.59.16.1",
        "RelatesToProductReference": "Image SLES15-SP4-Manager-Proxy-4-3-BYOS",
        "RelationType": "Default Component Of"
      },
      {
        "ProductReference": "rpm-ndb-4.14.3-150400.59.16.1",
        "RelatesToProductReference": "Image SLES15-SP4-Manager-Proxy-4-3-BYOS",
        "RelationType": "Default Component Of"
      },
      {
        "ProductReference": "python3-rpm-4.14.3-150400.59.16.1",
        "RelatesToProductReference": "Image SLES15-SP4-Manager-Proxy-4-3-BYOS-EC2",
        "RelationType": "Default Component Of"
      },
      {
        "ProductReference": "rpm-build-4.14.3-150400.59.16.1",
        "RelatesToProductReference": "Image SLES15-SP4-Manager-Proxy-4-3-BYOS-EC2",
        "RelationType": "Default Component Of"
      },
      {
        "ProductReference": "rpm-ndb-4.14.3-150400.59.16.1",
        "RelatesToProductReference": "Image SLES15-SP4-Manager-Proxy-4-3-BYOS-EC2",
        "RelationType": "Default Component Of"
      },
      {
        "ProductReference": "python3-rpm-4.14.3-150400.59.16.1",
        "RelatesToProductReference": "Image SLES15-SP4-Manager-Proxy-4-3-BYOS-GCE",
        "RelationType": "Default Component Of"
      },
      {
        "ProductReference": "rpm-build-4.14.3-150400.59.16.1",
        "RelatesToProductReference": "Image SLES15-SP4-Manager-Proxy-4-3-BYOS-GCE",
        "RelationType": "Default Component Of"
      },
      {
        "ProductReference": "rpm-ndb-4.14.3-150400.59.16.1",
        "RelatesToProductReference": "Image SLES15-SP4-Manager-Proxy-4-3-BYOS-GCE",
        "RelationType": "Default Component Of"
      },
      {
        "ProductReference": "python3-rpm-4.14.3-150400.59.16.1",
        "RelatesToProductReference": "Image SLES15-SP4-Manager-Server-4-3",
        "RelationType": "Default Component Of"
      },
      {
        "ProductReference": "rpm-build-4.14.3-150400.59.16.1",
        "RelatesToProductReference": "Image SLES15-SP4-Manager-Server-4-3",
        "RelationType": "Default Component Of"
      },
      {
        "ProductReference": "rpm-ndb-4.14.3-150400.59.16.1",
        "RelatesToProductReference": "Image SLES15-SP4-Manager-Server-4-3",
        "RelationType": "Default Component Of"
      },
      {
        "ProductReference": "python3-rpm-4.14.3-150400.59.16.1",
        "RelatesToProductReference": "Image SLES15-SP4-Manager-Server-4-3-Azure-llc",
        "RelationType": "Default Component Of"
      },
      {
        "ProductReference": "rpm-build-4.14.3-150400.59.16.1",
        "RelatesToProductReference": "Image SLES15-SP4-Manager-Server-4-3-Azure-llc",
        "RelationType": "Default Component Of"
      },
      {
        "ProductReference": "rpm-ndb-4.14.3-150400.59.16.1",
        "RelatesToProductReference": "Image SLES15-SP4-Manager-Server-4-3-Azure-llc",
        "RelationType": "Default Component Of"
      },
      {
        "ProductReference": "python3-rpm-4.14.3-150400.59.16.1",
        "RelatesToProductReference": "Image SLES15-SP4-Manager-Server-4-3-Azure-ltd",
        "RelationType": "Default Component Of"
      },
      {
        "ProductReference": "rpm-build-4.14.3-150400.59.16.1",
        "RelatesToProductReference": "Image SLES15-SP4-Manager-Server-4-3-Azure-ltd",
        "RelationType": "Default Component Of"
      },
      {
        "ProductReference": "rpm-ndb-4.14.3-150400.59.16.1",
        "RelatesToProductReference": "Image SLES15-SP4-Manager-Server-4-3-Azure-ltd",
        "RelationType": "Default Component Of"
      },
      {
        "ProductReference": "python3-rpm-4.14.3-150400.59.16.1",
        "RelatesToProductReference": "Image SLES15-SP4-Manager-Server-4-3-BYOS",
        "RelationType": "Default Component Of"
      },
      {
        "ProductReference": "rpm-build-4.14.3-150400.59.16.1",
        "RelatesToProductReference": "Image SLES15-SP4-Manager-Server-4-3-BYOS",
        "RelationType": "Default Component Of"
      },
      {
        "ProductReference": "rpm-ndb-4.14.3-150400.59.16.1",
        "RelatesToProductReference": "Image SLES15-SP4-Manager-Server-4-3-BYOS",
        "RelationType": "Default Component Of"
      },
      {
        "ProductReference": "python3-rpm-4.14.3-150400.59.16.1",
        "RelatesToProductReference": "Image SLES15-SP4-Manager-Server-4-3-BYOS-Azure",
        "RelationType": "Default Component Of"
      },
      {
        "ProductReference": "rpm-build-4.14.3-150400.59.16.1",
        "RelatesToProductReference": "Image SLES15-SP4-Manager-Server-4-3-BYOS-Azure",
        "RelationType": "Default Component Of"
      },
      {
        "ProductReference": "rpm-ndb-4.14.3-150400.59.16.1",
        "RelatesToProductReference": "Image SLES15-SP4-Manager-Server-4-3-BYOS-Azure",
        "RelationType": "Default Component Of"
      },
      {
        "ProductReference": "python3-rpm-4.14.3-150400.59.16.1",
        "RelatesToProductReference": "Image SLES15-SP4-Manager-Server-4-3-BYOS-EC2",
        "RelationType": "Default Component Of"
      },
      {
        "ProductReference": "rpm-build-4.14.3-150400.59.16.1",
        "RelatesToProductReference": "Image SLES15-SP4-Manager-Server-4-3-BYOS-EC2",
        "RelationType": "Default Component Of"
      },
      {
        "ProductReference": "rpm-ndb-4.14.3-150400.59.16.1",
        "RelatesToProductReference": "Image SLES15-SP4-Manager-Server-4-3-BYOS-EC2",
        "RelationType": "Default Component Of"
      },
      {
        "ProductReference": "python3-rpm-4.14.3-150400.59.16.1",
        "RelatesToProductReference": "Image SLES15-SP4-Manager-Server-4-3-BYOS-GCE",
        "RelationType": "Default Component Of"
      },
      {
        "ProductReference": "rpm-build-4.14.3-150400.59.16.1",
        "RelatesToProductReference": "Image SLES15-SP4-Manager-Server-4-3-BYOS-GCE",
        "RelationType": "Default Component Of"
      },
      {
        "ProductReference": "rpm-ndb-4.14.3-150400.59.16.1",
        "RelatesToProductReference": "Image SLES15-SP4-Manager-Server-4-3-BYOS-GCE",
        "RelationType": "Default Component Of"
      },
      {
        "ProductReference": "python3-rpm-4.14.3-150400.59.16.1",
        "RelatesToProductReference": "Image SLES15-SP4-Manager-Server-4-3-EC2-llc",
        "RelationType": "Default Component Of"
      },
      {
        "ProductReference": "rpm-build-4.14.3-150400.59.16.1",
        "RelatesToProductReference": "Image SLES15-SP4-Manager-Server-4-3-EC2-llc",
        "RelationType": "Default Component Of"
      },
      {
        "ProductReference": "rpm-ndb-4.14.3-150400.59.16.1",
        "RelatesToProductReference": "Image SLES15-SP4-Manager-Server-4-3-EC2-llc",
        "RelationType": "Default Component Of"
      },
      {
        "ProductReference": "python3-rpm-4.14.3-150400.59.16.1",
        "RelatesToProductReference": "Image SLES15-SP4-Manager-Server-4-3-EC2-ltd",
        "RelationType": "Default Component Of"
      },
      {
        "ProductReference": "rpm-build-4.14.3-150400.59.16.1",
        "RelatesToProductReference": "Image SLES15-SP4-Manager-Server-4-3-EC2-ltd",
        "RelationType": "Default Component Of"
      },
      {
        "ProductReference": "rpm-ndb-4.14.3-150400.59.16.1",
        "RelatesToProductReference": "Image SLES15-SP4-Manager-Server-4-3-EC2-ltd",
        "RelationType": "Default Component Of"
      },
      {
        "ProductReference": "python3-rpm-4.14.3-150400.59.16.1",
        "RelatesToProductReference": "Image SLES15-SP5-BYOS-EC2",
        "RelationType": "Default Component Of"
      },
      {
        "ProductReference": "rpm-ndb-4.14.3-150400.59.16.1",
        "RelatesToProductReference": "Image SLES15-SP5-BYOS-EC2",
        "RelationType": "Default Component Of"
      },
      {
        "ProductReference": "python3-rpm-4.14.3-150400.59.16.1",
        "RelatesToProductReference": "Image SLES15-SP5-BYOS-GCE",
        "RelationType": "Default Component Of"
      },
      {
        "ProductReference": "rpm-ndb-4.14.3-150400.59.16.1",
        "RelatesToProductReference": "Image SLES15-SP5-BYOS-GCE",
        "RelationType": "Default Component Of"
      },
      {
        "ProductReference": "rpm-ndb-4.14.3-150400.59.16.1",
        "RelatesToProductReference": "Image SLES15-SP5-CHOST-BYOS-Aliyun",
        "RelationType": "Default Component Of"
      },
      {
        "ProductReference": "rpm-ndb-4.14.3-150400.59.16.1",
        "RelatesToProductReference": "Image SLES15-SP5-CHOST-BYOS-Azure",
        "RelationType": "Default Component Of"
      },
      {
        "ProductReference": "rpm-ndb-4.14.3-150400.59.16.1",
        "RelatesToProductReference": "Image SLES15-SP5-CHOST-BYOS-EC2",
        "RelationType": "Default Component Of"
      },
      {
        "ProductReference": "rpm-ndb-4.14.3-150400.59.16.1",
        "RelatesToProductReference": "Image SLES15-SP5-CHOST-BYOS-GCE",
        "RelationType": "Default Component Of"
      },
      {
        "ProductReference": "rpm-ndb-4.14.3-150400.59.16.1",
        "RelatesToProductReference": "Image SLES15-SP5-CHOST-BYOS-SAP-CCloud",
        "RelationType": "Default Component Of"
      },
      {
        "ProductReference": "python3-rpm-4.14.3-150400.59.16.1",
        "RelatesToProductReference": "Image SLES15-SP5-EC2",
        "RelationType": "Default Component Of"
      },
      {
        "ProductReference": "rpm-ndb-4.14.3-150400.59.16.1",
        "RelatesToProductReference": "Image SLES15-SP5-EC2",
        "RelationType": "Default Component Of"
      },
      {
        "ProductReference": "python3-rpm-4.14.3-150400.59.16.1",
        "RelatesToProductReference": "Image SLES15-SP5-GCE",
        "RelationType": "Default Component Of"
      },
      {
        "ProductReference": "rpm-ndb-4.14.3-150400.59.16.1",
        "RelatesToProductReference": "Image SLES15-SP5-GCE",
        "RelationType": "Default Component Of"
      },
      {
        "ProductReference": "python3-rpm-4.14.3-150400.59.16.1",
        "RelatesToProductReference": "Image SLES15-SP5-HPC-BYOS-EC2",
        "RelationType": "Default Component Of"
      },
      {
        "ProductReference": "rpm-ndb-4.14.3-150400.59.16.1",
        "RelatesToProductReference": "Image SLES15-SP5-HPC-BYOS-EC2",
        "RelationType": "Default Component Of"
      },
      {
        "ProductReference": "python3-rpm-4.14.3-150400.59.16.1",
        "RelatesToProductReference": "Image SLES15-SP5-HPC-BYOS-GCE",
        "RelationType": "Default Component Of"
      },
      {
        "ProductReference": "rpm-ndb-4.14.3-150400.59.16.1",
        "RelatesToProductReference": "Image SLES15-SP5-HPC-BYOS-GCE",
        "RelationType": "Default Component Of"
      },
      {
        "ProductReference": "python3-rpm-4.14.3-150400.59.16.1",
        "RelatesToProductReference": "Image SLES15-SP5-Hardened-BYOS-GCE",
        "RelationType": "Default Component Of"
      },
      {
        "ProductReference": "rpm-ndb-4.14.3-150400.59.16.1",
        "RelatesToProductReference": "Image SLES15-SP5-Hardened-BYOS-GCE",
        "RelationType": "Default Component Of"
      },
      {
        "ProductReference": "python3-rpm-4.14.3-150400.59.16.1",
        "RelatesToProductReference": "Image SLES15-SP5-SAP-BYOS-EC2",
        "RelationType": "Default Component Of"
      },
      {
        "ProductReference": "rpm-ndb-4.14.3-150400.59.16.1",
        "RelatesToProductReference": "Image SLES15-SP5-SAP-BYOS-EC2",
        "RelationType": "Default Component Of"
      },
      {
        "ProductReference": "python3-rpm-4.14.3-150400.59.16.1",
        "RelatesToProductReference": "Image SLES15-SP5-SAP-BYOS-GCE",
        "RelationType": "Default Component Of"
      },
      {
        "ProductReference": "rpm-ndb-4.14.3-150400.59.16.1",
        "RelatesToProductReference": "Image SLES15-SP5-SAP-BYOS-GCE",
        "RelationType": "Default Component Of"
      },
      {
        "ProductReference": "python3-rpm-4.14.3-150400.59.16.1",
        "RelatesToProductReference": "Image SLES15-SP5-SAP-Hardened-BYOS-GCE",
        "RelationType": "Default Component Of"
      },
      {
        "ProductReference": "rpm-ndb-4.14.3-150400.59.16.1",
        "RelatesToProductReference": "Image SLES15-SP5-SAP-Hardened-BYOS-GCE",
        "RelationType": "Default Component Of"
      },
      {
        "ProductReference": "python3-rpm-4.14.3-150400.59.16.1",
        "RelatesToProductReference": "Image SLES15-SP5-SAP-Hardened-GCE",
        "RelationType": "Default Component Of"
      },
      {
        "ProductReference": "rpm-ndb-4.14.3-150400.59.16.1",
        "RelatesToProductReference": "Image SLES15-SP5-SAP-Hardened-GCE",
        "RelationType": "Default Component Of"
      },
      {
        "ProductReference": "python3-rpm-4.14.3-150400.59.16.1",
        "RelatesToProductReference": "Image SLES15-SP5-SAPCAL-EC2",
        "RelationType": "Default Component Of"
      },
      {
        "ProductReference": "rpm-build-4.14.3-150400.59.16.1",
        "RelatesToProductReference": "Image SLES15-SP5-SAPCAL-EC2",
        "RelationType": "Default Component Of"
      },
      {
        "ProductReference": "rpm-ndb-4.14.3-150400.59.16.1",
        "RelatesToProductReference": "Image SLES15-SP5-SAPCAL-EC2",
        "RelationType": "Default Component Of"
      },
      {
        "ProductReference": "python3-rpm-4.14.3-150400.59.16.1",
        "RelatesToProductReference": "Image SLES15-SP5-SAPCAL-GCE",
        "RelationType": "Default Component Of"
      },
      {
        "ProductReference": "rpm-build-4.14.3-150400.59.16.1",
        "RelatesToProductReference": "Image SLES15-SP5-SAPCAL-GCE",
        "RelationType": "Default Component Of"
      },
      {
        "ProductReference": "rpm-ndb-4.14.3-150400.59.16.1",
        "RelatesToProductReference": "Image SLES15-SP5-SAPCAL-GCE",
        "RelationType": "Default Component Of"
      },
      {
        "ProductReference": "python3-rpm-4.14.3-150400.59.16.1",
        "RelatesToProductReference": "SUSE Linux Enterprise High Performance Computing 15 SP4-ESPOS",
        "RelationType": "Default Component Of"
      },
      {
        "ProductReference": "python311-rpm-4.14.3-150400.59.16.1",
        "RelatesToProductReference": "SUSE Linux Enterprise High Performance Computing 15 SP4-ESPOS",
        "RelationType": "Default Component Of"
      },
      {
        "ProductReference": "rpm-4.14.3-150400.59.16.1",
        "RelatesToProductReference": "SUSE Linux Enterprise High Performance Computing 15 SP4-ESPOS",
        "RelationType": "Default Component Of"
      },
      {
        "ProductReference": "rpm-32bit-4.14.3-150400.59.16.1",
        "RelatesToProductReference": "SUSE Linux Enterprise High Performance Computing 15 SP4-ESPOS",
        "RelationType": "Default Component Of"
      },
      {
        "ProductReference": "rpm-build-4.14.3-150400.59.16.1",
        "RelatesToProductReference": "SUSE Linux Enterprise High Performance Computing 15 SP4-ESPOS",
        "RelationType": "Default Component Of"
      },
      {
        "ProductReference": "rpm-devel-4.14.3-150400.59.16.1",
        "RelatesToProductReference": "SUSE Linux Enterprise High Performance Computing 15 SP4-ESPOS",
        "RelationType": "Default Component Of"
      },
      {
        "ProductReference": "python3-rpm-4.14.3-150400.59.16.1",
        "RelatesToProductReference": "SUSE Linux Enterprise High Performance Computing 15 SP4-LTSS",
        "RelationType": "Default Component Of"
      },
      {
        "ProductReference": "python311-rpm-4.14.3-150400.59.16.1",
        "RelatesToProductReference": "SUSE Linux Enterprise High Performance Computing 15 SP4-LTSS",
        "RelationType": "Default Component Of"
      },
      {
        "ProductReference": "rpm-4.14.3-150400.59.16.1",
        "RelatesToProductReference": "SUSE Linux Enterprise High Performance Computing 15 SP4-LTSS",
        "RelationType": "Default Component Of"
      },
      {
        "ProductReference": "rpm-32bit-4.14.3-150400.59.16.1",
        "RelatesToProductReference": "SUSE Linux Enterprise High Performance Computing 15 SP4-LTSS",
        "RelationType": "Default Component Of"
      },
      {
        "ProductReference": "rpm-build-4.14.3-150400.59.16.1",
        "RelatesToProductReference": "SUSE Linux Enterprise High Performance Computing 15 SP4-LTSS",
        "RelationType": "Default Component Of"
      },
      {
        "ProductReference": "rpm-devel-4.14.3-150400.59.16.1",
        "RelatesToProductReference": "SUSE Linux Enterprise High Performance Computing 15 SP4-LTSS",
        "RelationType": "Default Component Of"
      },
      {
        "ProductReference": "python3-rpm-4.14.3-150400.59.16.1",
        "RelatesToProductReference": "SUSE Linux Enterprise Micro 5.4",
        "RelationType": "Default Component Of"
      },
      {
        "ProductReference": "rpm-4.14.3-150400.59.16.1",
        "RelatesToProductReference": "SUSE Linux Enterprise Micro 5.4",
        "RelationType": "Default Component Of"
      },
      {
        "ProductReference": "rpm-ndb-4.14.3-150400.59.16.1",
        "RelatesToProductReference": "SUSE Linux Enterprise Micro 5.4",
        "RelationType": "Default Component Of"
      },
      {
        "ProductReference": "python3-rpm-4.14.3-150400.59.16.1",
        "RelatesToProductReference": "SUSE Linux Enterprise Micro 5.5",
        "RelationType": "Default Component Of"
      },
      {
        "ProductReference": "rpm-4.14.3-150400.59.16.1",
        "RelatesToProductReference": "SUSE Linux Enterprise Micro 5.5",
        "RelationType": "Default Component Of"
      },
      {
        "ProductReference": "rpm-ndb-4.14.3-150400.59.16.1",
        "RelatesToProductReference": "SUSE Linux Enterprise Micro 5.5",
        "RelationType": "Default Component Of"
      },
      {
        "ProductReference": "python3-rpm-4.14.3-150400.59.16.1",
        "RelatesToProductReference": "SUSE Linux Enterprise Module for Basesystem 15 SP5",
        "RelationType": "Default Component Of"
      },
      {
        "ProductReference": "rpm-4.14.3-150400.59.16.1",
        "RelatesToProductReference": "SUSE Linux Enterprise Module for Basesystem 15 SP5",
        "RelationType": "Default Component Of"
      },
      {
        "ProductReference": "rpm-32bit-4.14.3-150400.59.16.1",
        "RelatesToProductReference": "SUSE Linux Enterprise Module for Basesystem 15 SP5",
        "RelationType": "Default Component Of"
      },
      {
        "ProductReference": "rpm-devel-4.14.3-150400.59.16.1",
        "RelatesToProductReference": "SUSE Linux Enterprise Module for Basesystem 15 SP5",
        "RelationType": "Default Component Of"
      },
      {
        "ProductReference": "rpm-build-4.14.3-150400.59.16.1",
        "RelatesToProductReference": "SUSE Linux Enterprise Module for Development Tools 15 SP5",
        "RelationType": "Default Component Of"
      },
      {
        "ProductReference": "rpm-ndb-4.14.3-150400.59.16.1",
        "RelatesToProductReference": "SUSE Linux Enterprise Module for Public Cloud 15 SP4",
        "RelationType": "Default Component Of"
      },
      {
        "ProductReference": "rpm-ndb-4.14.3-150400.59.16.1",
        "RelatesToProductReference": "SUSE Linux Enterprise Module for Public Cloud 15 SP5",
        "RelationType": "Default Component Of"
      },
      {
        "ProductReference": "python311-rpm-4.14.3-150400.59.16.1",
        "RelatesToProductReference": "SUSE Linux Enterprise Module for Python 3 15 SP5",
        "RelationType": "Default Component Of"
      },
      {
        "ProductReference": "python3-rpm-4.14.3-150400.59.16.1",
        "RelatesToProductReference": "SUSE Linux Enterprise Server 15 SP4-LTSS",
        "RelationType": "Default Component Of"
      },
      {
        "ProductReference": "python311-rpm-4.14.3-150400.59.16.1",
        "RelatesToProductReference": "SUSE Linux Enterprise Server 15 SP4-LTSS",
        "RelationType": "Default Component Of"
      },
      {
        "ProductReference": "rpm-4.14.3-150400.59.16.1",
        "RelatesToProductReference": "SUSE Linux Enterprise Server 15 SP4-LTSS",
        "RelationType": "Default Component Of"
      },
      {
        "ProductReference": "rpm-32bit-4.14.3-150400.59.16.1",
        "RelatesToProductReference": "SUSE Linux Enterprise Server 15 SP4-LTSS",
        "RelationType": "Default Component Of"
      },
      {
        "ProductReference": "rpm-build-4.14.3-150400.59.16.1",
        "RelatesToProductReference": "SUSE Linux Enterprise Server 15 SP4-LTSS",
        "RelationType": "Default Component Of"
      },
      {
        "ProductReference": "rpm-devel-4.14.3-150400.59.16.1",
        "RelatesToProductReference": "SUSE Linux Enterprise Server 15 SP4-LTSS",
        "RelationType": "Default Component Of"
      },
      {
        "ProductReference": "python3-rpm-4.14.3-150400.59.16.1",
        "RelatesToProductReference": "SUSE Linux Enterprise Server for SAP Applications 15 SP4",
        "RelationType": "Default Component Of"
      },
      {
        "ProductReference": "python311-rpm-4.14.3-150400.59.16.1",
        "RelatesToProductReference": "SUSE Linux Enterprise Server for SAP Applications 15 SP4",
        "RelationType": "Default Component Of"
      },
      {
        "ProductReference": "rpm-4.14.3-150400.59.16.1",
        "RelatesToProductReference": "SUSE Linux Enterprise Server for SAP Applications 15 SP4",
        "RelationType": "Default Component Of"
      },
      {
        "ProductReference": "rpm-32bit-4.14.3-150400.59.16.1",
        "RelatesToProductReference": "SUSE Linux Enterprise Server for SAP Applications 15 SP4",
        "RelationType": "Default Component Of"
      },
      {
        "ProductReference": "rpm-build-4.14.3-150400.59.16.1",
        "RelatesToProductReference": "SUSE Linux Enterprise Server for SAP Applications 15 SP4",
        "RelationType": "Default Component Of"
      },
      {
        "ProductReference": "rpm-devel-4.14.3-150400.59.16.1",
        "RelatesToProductReference": "SUSE Linux Enterprise Server for SAP Applications 15 SP4",
        "RelationType": "Default Component Of"
      },
      {
        "ProductReference": "python3-rpm-4.14.3-150400.59.16.1",
        "RelatesToProductReference": "SUSE Manager Proxy 4.3",
        "RelationType": "Default Component Of"
      },
      {
        "ProductReference": "rpm-4.14.3-150400.59.16.1",
        "RelatesToProductReference": "SUSE Manager Proxy 4.3",
        "RelationType": "Default Component Of"
      },
      {
        "ProductReference": "rpm-32bit-4.14.3-150400.59.16.1",
        "RelatesToProductReference": "SUSE Manager Proxy 4.3",
        "RelationType": "Default Component Of"
      },
      {
        "ProductReference": "rpm-devel-4.14.3-150400.59.16.1",
        "RelatesToProductReference": "SUSE Manager Proxy 4.3",
        "RelationType": "Default Component Of"
      },
      {
        "ProductReference": "rpm-build-4.14.3-150400.59.16.1",
        "RelatesToProductReference": "SUSE Manager Proxy Module 4.3",
        "RelationType": "Default Component Of"
      },
      {
        "ProductReference": "python3-rpm-4.14.3-150400.59.16.1",
        "RelatesToProductReference": "SUSE Manager Server 4.3",
        "RelationType": "Default Component Of"
      },
      {
        "ProductReference": "rpm-4.14.3-150400.59.16.1",
        "RelatesToProductReference": "SUSE Manager Server 4.3",
        "RelationType": "Default Component Of"
      },
      {
        "ProductReference": "rpm-32bit-4.14.3-150400.59.16.1",
        "RelatesToProductReference": "SUSE Manager Server 4.3",
        "RelationType": "Default Component Of"
      },
      {
        "ProductReference": "rpm-devel-4.14.3-150400.59.16.1",
        "RelatesToProductReference": "SUSE Manager Server 4.3",
        "RelationType": "Default Component Of"
      },
      {
        "ProductReference": "rpm-build-4.14.3-150400.59.16.1",
        "RelatesToProductReference": "SUSE Manager Server Module 4.3",
        "RelationType": "Default Component Of"
      },
      {
        "ProductReference": "python3-rpm-4.14.3-150400.59.16.1",
        "RelatesToProductReference": "openSUSE Leap 15.5",
        "RelationType": "Default Component Of"
      },
      {
        "ProductReference": "python311-rpm-4.14.3-150400.59.16.1",
        "RelatesToProductReference": "openSUSE Leap 15.5",
        "RelationType": "Default Component Of"
      },
      {
        "ProductReference": "rpm-4.14.3-150400.59.16.1",
        "RelatesToProductReference": "openSUSE Leap 15.5",
        "RelationType": "Default Component Of"
      },
      {
        "ProductReference": "rpm-32bit-4.14.3-150400.59.16.1",
        "RelatesToProductReference": "openSUSE Leap 15.5",
        "RelationType": "Default Component Of"
      },
      {
        "ProductReference": "rpm-build-4.14.3-150400.59.16.1",
        "RelatesToProductReference": "openSUSE Leap 15.5",
        "RelationType": "Default Component Of"
      },
      {
        "ProductReference": "rpm-devel-4.14.3-150400.59.16.1",
        "RelatesToProductReference": "openSUSE Leap 15.5",
        "RelationType": "Default Component Of"
      },
      {
        "ProductReference": "rpm-ndb-4.14.3-150400.59.16.1",
        "RelatesToProductReference": "openSUSE Leap 15.5",
        "RelationType": "Default Component Of"
      },
      {
        "ProductReference": "rpm-ndb-32bit-4.14.3-150400.59.16.1",
        "RelatesToProductReference": "openSUSE Leap 15.5",
        "RelationType": "Default Component Of"
      },
      {
        "ProductReference": "python3-rpm-4.14.3-150400.59.16.1",
        "RelatesToProductReference": "openSUSE Leap Micro 5.4",
        "RelationType": "Default Component Of"
      },
      {
        "ProductReference": "rpm-4.14.3-150400.59.16.1",
        "RelatesToProductReference": "openSUSE Leap Micro 5.4",
        "RelationType": "Default Component Of"
      },
      {
        "ProductReference": "rpm-ndb-4.14.3-150400.59.16.1",
        "RelatesToProductReference": "openSUSE Leap Micro 5.4",
        "RelationType": "Default Component Of"
      }
    ]
  },
  "References": [
    {
      "URL": "https://www.suse.com/support/update/announcement/2024/suse-su-20241557-1/",
      "Description": "Link for SUSE-SU-2024:1557-1"
    },
    {
      "URL": "https://lists.suse.com/pipermail/sle-security-updates/2024-May/018482.html",
      "Description": "E-Mail link for SUSE-SU-2024:1557-1"
    },
    {
      "URL": "https://www.suse.com/support/security/rating/",
      "Description": "SUSE Security Ratings"
    },
    {
      "URL": "https://bugzilla.suse.com/1189495",
      "Description": "SUSE Bug 1189495"
    },
    {
      "URL": "https://bugzilla.suse.com/1191175",
      "Description": "SUSE Bug 1191175"
    },
    {
      "URL": "https://bugzilla.suse.com/1218686",
      "Description": "SUSE Bug 1218686"
    },
    {
      "URL": "https://www.suse.com/security/cve/CVE-2021-3521/",
      "Description": "SUSE CVE CVE-2021-3521 page"
    }
  ],
  "Vulnerabilities": [
    {
      "CVE": "CVE-2021-3521",
      "Description": "There is a flaw in RPM's signature functionality. OpenPGP subkeys are associated with a primary key via a \"binding signature.\" RPM does not check the binding signature of subkeys prior to importing them. If an attacker is able to add or socially engineer another party to add a malicious subkey to a legitimate public key, RPM could wrongly trust a malicious signature. The greatest impact of this flaw is to data integrity. To exploit this flaw, an attacker must either compromise an RPM repository or convince an administrator to install an untrusted RPM or public key. It is strongly recommended to only use RPMs and public keys from trusted sources.",
      "Threats": [
        {
          "Type": "Impact",
          "Severity": "moderate"
        }
      ],
      "References": [
        {
          "URL": "https://www.suse.com/security/cve/CVE-2021-3521.html",
          "Description": "CVE-2021-3521"
        },
        {
          "URL": "https://bugzilla.suse.com/1191175",
          "Description": "SUSE Bug 1191175"
        }
      ],
      "ProductStatuses": [
        {
          "Type": "Fixed",
          "ProductID": [
            "Container bci/bci-minimal:15.6:rpm-ndb-4.14.3-150400.59.16.1",
            "Container bci/bci-minimal:latest:rpm-ndb-4.14.3-150400.59.16.1",
            "Container bci/bci-sle15-kernel-module-devel:15.6:rpm-build-4.14.3-150400.59.16.1",
            "Container bci/bci-sle15-kernel-module-devel:latest:rpm-build-4.14.3-150400.59.16.1",
            "Container suse/ltss/sle15.4/sle15:15.4:rpm-ndb-4.14.3-150400.59.16.1",
            "Container suse/manager/4.3/proxy-httpd:latest:python3-rpm-4.14.3-150400.59.16.1",
            "Container suse/manager/5.0/x86_64/proxy-httpd:latest:python3-rpm-4.14.3-150400.59.16.1",
            "Container suse/manager/5.0/x86_64/server:latest:python3-rpm-4.14.3-150400.59.16.1",
            "Container suse/manager/5.0/x86_64/server:latest:rpm-build-4.14.3-150400.59.16.1",
            "Container suse/sle-micro-rancher/5.3:latest:rpm-ndb-4.14.3-150400.59.16.1",
            "Container suse/sle-micro-rancher/5.4:latest:rpm-ndb-4.14.3-150400.59.16.1",
            "Container suse/sle-micro/5.3/toolbox:latest:rpm-ndb-4.14.3-150400.59.16.1",
            "Container suse/sle-micro/5.4/toolbox:latest:rpm-ndb-4.14.3-150400.59.16.1",
            "Container suse/sle-micro/5.5:latest:rpm-4.14.3-150400.59.16.1",
            "Container suse/sle-micro/kvm-5.5:latest:rpm-4.14.3-150400.59.16.1",
            "Container suse/sle-micro/rt-5.5:latest:rpm-4.14.3-150400.59.16.1",
            "Container suse/sle15:15.5:rpm-ndb-4.14.3-150400.59.16.1",
            "Container suse/sle15:15.6:rpm-ndb-4.14.3-150400.59.16.1",
            "Image SLES15-SP4-CHOST-BYOS-Aliyun:rpm-ndb-4.14.3-150400.59.16.1",
            "Image SLES15-SP4-CHOST-BYOS-Azure:rpm-ndb-4.14.3-150400.59.16.1",
            "Image SLES15-SP4-CHOST-BYOS-EC2:rpm-ndb-4.14.3-150400.59.16.1",
            "Image SLES15-SP4-CHOST-BYOS-GCE:rpm-ndb-4.14.3-150400.59.16.1",
            "Image SLES15-SP4-CHOST-BYOS-SAP-CCloud:rpm-ndb-4.14.3-150400.59.16.1",
            "Image SLES15-SP4-CHOST-BYOS:rpm-ndb-4.14.3-150400.59.16.1",
            "Image SLES15-SP4-Manager-Proxy-4-3-BYOS-EC2:python3-rpm-4.14.3-150400.59.16.1",
            "Image SLES15-SP4-Manager-Proxy-4-3-BYOS-EC2:rpm-build-4.14.3-150400.59.16.1",
            "Image SLES15-SP4-Manager-Proxy-4-3-BYOS-EC2:rpm-ndb-4.14.3-150400.59.16.1",
            "Image SLES15-SP4-Manager-Proxy-4-3-BYOS-GCE:python3-rpm-4.14.3-150400.59.16.1",
            "Image SLES15-SP4-Manager-Proxy-4-3-BYOS-GCE:rpm-build-4.14.3-150400.59.16.1",
            "Image SLES15-SP4-Manager-Proxy-4-3-BYOS-GCE:rpm-ndb-4.14.3-150400.59.16.1",
            "Image SLES15-SP4-Manager-Proxy-4-3-BYOS:python3-rpm-4.14.3-150400.59.16.1",
            "Image SLES15-SP4-Manager-Proxy-4-3-BYOS:rpm-build-4.14.3-150400.59.16.1",
            "Image SLES15-SP4-Manager-Proxy-4-3-BYOS:rpm-ndb-4.14.3-150400.59.16.1",
            "Image SLES15-SP4-Manager-Server-4-3-Azure-llc:python3-rpm-4.14.3-150400.59.16.1",
            "Image SLES15-SP4-Manager-Server-4-3-Azure-llc:rpm-build-4.14.3-150400.59.16.1",
            "Image SLES15-SP4-Manager-Server-4-3-Azure-llc:rpm-ndb-4.14.3-150400.59.16.1",
            "Image SLES15-SP4-Manager-Server-4-3-Azure-ltd:python3-rpm-4.14.3-150400.59.16.1",
            "Image SLES15-SP4-Manager-Server-4-3-Azure-ltd:rpm-build-4.14.3-150400.59.16.1",
            "Image SLES15-SP4-Manager-Server-4-3-Azure-ltd:rpm-ndb-4.14.3-150400.59.16.1",
            "Image SLES15-SP4-Manager-Server-4-3-BYOS-Azure:python3-rpm-4.14.3-150400.59.16.1",
            "Image SLES15-SP4-Manager-Server-4-3-BYOS-Azure:rpm-build-4.14.3-150400.59.16.1",
            "Image SLES15-SP4-Manager-Server-4-3-BYOS-Azure:rpm-ndb-4.14.3-150400.59.16.1",
            "Image SLES15-SP4-Manager-Server-4-3-BYOS-EC2:python3-rpm-4.14.3-150400.59.16.1",
            "Image SLES15-SP4-Manager-Server-4-3-BYOS-EC2:rpm-build-4.14.3-150400.59.16.1",
            "Image SLES15-SP4-Manager-Server-4-3-BYOS-EC2:rpm-ndb-4.14.3-150400.59.16.1",
            "Image SLES15-SP4-Manager-Server-4-3-BYOS-GCE:python3-rpm-4.14.3-150400.59.16.1",
            "Image SLES15-SP4-Manager-Server-4-3-BYOS-GCE:rpm-build-4.14.3-150400.59.16.1",
            "Image SLES15-SP4-Manager-Server-4-3-BYOS-GCE:rpm-ndb-4.14.3-150400.59.16.1",
            "Image SLES15-SP4-Manager-Server-4-3-BYOS:python3-rpm-4.14.3-150400.59.16.1",
            "Image SLES15-SP4-Manager-Server-4-3-BYOS:rpm-build-4.14.3-150400.59.16.1",
            "Image SLES15-SP4-Manager-Server-4-3-BYOS:rpm-ndb-4.14.3-150400.59.16.1",
            "Image SLES15-SP4-Manager-Server-4-3-EC2-llc:python3-rpm-4.14.3-150400.59.16.1",
            "Image SLES15-SP4-Manager-Server-4-3-EC2-llc:rpm-build-4.14.3-150400.59.16.1",
            "Image SLES15-SP4-Manager-Server-4-3-EC2-llc:rpm-ndb-4.14.3-150400.59.16.1",
            "Image SLES15-SP4-Manager-Server-4-3-EC2-ltd:python3-rpm-4.14.3-150400.59.16.1",
            "Image SLES15-SP4-Manager-Server-4-3-EC2-ltd:rpm-build-4.14.3-150400.59.16.1",
            "Image SLES15-SP4-Manager-Server-4-3-EC2-ltd:rpm-ndb-4.14.3-150400.59.16.1",
            "Image SLES15-SP4-Manager-Server-4-3:python3-rpm-4.14.3-150400.59.16.1",
            "Image SLES15-SP4-Manager-Server-4-3:rpm-build-4.14.3-150400.59.16.1",
            "Image SLES15-SP4-Manager-Server-4-3:rpm-ndb-4.14.3-150400.59.16.1",
            "Image SLES15-SP5-BYOS-EC2:python3-rpm-4.14.3-150400.59.16.1",
            "Image SLES15-SP5-BYOS-EC2:rpm-ndb-4.14.3-150400.59.16.1",
            "Image SLES15-SP5-BYOS-GCE:python3-rpm-4.14.3-150400.59.16.1",
            "Image SLES15-SP5-BYOS-GCE:rpm-ndb-4.14.3-150400.59.16.1",
            "Image SLES15-SP5-CHOST-BYOS-Aliyun:rpm-ndb-4.14.3-150400.59.16.1",
            "Image SLES15-SP5-CHOST-BYOS-Azure:rpm-ndb-4.14.3-150400.59.16.1",
            "Image SLES15-SP5-CHOST-BYOS-EC2:rpm-ndb-4.14.3-150400.59.16.1",
            "Image SLES15-SP5-CHOST-BYOS-GCE:rpm-ndb-4.14.3-150400.59.16.1",
            "Image SLES15-SP5-CHOST-BYOS-SAP-CCloud:rpm-ndb-4.14.3-150400.59.16.1",
            "Image SLES15-SP5-EC2:python3-rpm-4.14.3-150400.59.16.1",
            "Image SLES15-SP5-EC2:rpm-ndb-4.14.3-150400.59.16.1",
            "Image SLES15-SP5-GCE:python3-rpm-4.14.3-150400.59.16.1",
            "Image SLES15-SP5-GCE:rpm-ndb-4.14.3-150400.59.16.1",
            "Image SLES15-SP5-HPC-BYOS-EC2:python3-rpm-4.14.3-150400.59.16.1",
            "Image SLES15-SP5-HPC-BYOS-EC2:rpm-ndb-4.14.3-150400.59.16.1",
            "Image SLES15-SP5-HPC-BYOS-GCE:python3-rpm-4.14.3-150400.59.16.1",
            "Image SLES15-SP5-HPC-BYOS-GCE:rpm-ndb-4.14.3-150400.59.16.1",
            "Image SLES15-SP5-Hardened-BYOS-GCE:python3-rpm-4.14.3-150400.59.16.1",
            "Image SLES15-SP5-Hardened-BYOS-GCE:rpm-ndb-4.14.3-150400.59.16.1",
            "Image SLES15-SP5-SAP-BYOS-EC2:python3-rpm-4.14.3-150400.59.16.1",
            "Image SLES15-SP5-SAP-BYOS-EC2:rpm-ndb-4.14.3-150400.59.16.1",
            "Image SLES15-SP5-SAP-BYOS-GCE:python3-rpm-4.14.3-150400.59.16.1",
            "Image SLES15-SP5-SAP-BYOS-GCE:rpm-ndb-4.14.3-150400.59.16.1",
            "Image SLES15-SP5-SAP-Hardened-BYOS-GCE:python3-rpm-4.14.3-150400.59.16.1",
            "Image SLES15-SP5-SAP-Hardened-BYOS-GCE:rpm-ndb-4.14.3-150400.59.16.1",
            "Image SLES15-SP5-SAP-Hardened-GCE:python3-rpm-4.14.3-150400.59.16.1",
            "Image SLES15-SP5-SAP-Hardened-GCE:rpm-ndb-4.14.3-150400.59.16.1",
            "Image SLES15-SP5-SAPCAL-EC2:python3-rpm-4.14.3-150400.59.16.1",
            "Image SLES15-SP5-SAPCAL-EC2:rpm-build-4.14.3-150400.59.16.1",
            "Image SLES15-SP5-SAPCAL-EC2:rpm-ndb-4.14.3-150400.59.16.1",
            "Image SLES15-SP5-SAPCAL-GCE:python3-rpm-4.14.3-150400.59.16.1",
            "Image SLES15-SP5-SAPCAL-GCE:rpm-build-4.14.3-150400.59.16.1",
            "Image SLES15-SP5-SAPCAL-GCE:rpm-ndb-4.14.3-150400.59.16.1",
            "SUSE Linux Enterprise High Performance Computing 15 SP4-ESPOS:python3-rpm-4.14.3-150400.59.16.1",
            "SUSE Linux Enterprise High Performance Computing 15 SP4-ESPOS:python311-rpm-4.14.3-150400.59.16.1",
            "SUSE Linux Enterprise High Performance Computing 15 SP4-ESPOS:rpm-32bit-4.14.3-150400.59.16.1",
            "SUSE Linux Enterprise High Performance Computing 15 SP4-ESPOS:rpm-4.14.3-150400.59.16.1",
            "SUSE Linux Enterprise High Performance Computing 15 SP4-ESPOS:rpm-build-4.14.3-150400.59.16.1",
            "SUSE Linux Enterprise High Performance Computing 15 SP4-ESPOS:rpm-devel-4.14.3-150400.59.16.1",
            "SUSE Linux Enterprise High Performance Computing 15 SP4-LTSS:python3-rpm-4.14.3-150400.59.16.1",
            "SUSE Linux Enterprise High Performance Computing 15 SP4-LTSS:python311-rpm-4.14.3-150400.59.16.1",
            "SUSE Linux Enterprise High Performance Computing 15 SP4-LTSS:rpm-32bit-4.14.3-150400.59.16.1",
            "SUSE Linux Enterprise High Performance Computing 15 SP4-LTSS:rpm-4.14.3-150400.59.16.1",
            "SUSE Linux Enterprise High Performance Computing 15 SP4-LTSS:rpm-build-4.14.3-150400.59.16.1",
            "SUSE Linux Enterprise High Performance Computing 15 SP4-LTSS:rpm-devel-4.14.3-150400.59.16.1",
            "SUSE Linux Enterprise Micro 5.4:python3-rpm-4.14.3-150400.59.16.1",
            "SUSE Linux Enterprise Micro 5.4:rpm-4.14.3-150400.59.16.1",
            "SUSE Linux Enterprise Micro 5.4:rpm-ndb-4.14.3-150400.59.16.1",
            "SUSE Linux Enterprise Micro 5.5:python3-rpm-4.14.3-150400.59.16.1",
            "SUSE Linux Enterprise Micro 5.5:rpm-4.14.3-150400.59.16.1",
            "SUSE Linux Enterprise Micro 5.5:rpm-ndb-4.14.3-150400.59.16.1",
            "SUSE Linux Enterprise Module for Basesystem 15 SP5:python3-rpm-4.14.3-150400.59.16.1",
            "SUSE Linux Enterprise Module for Basesystem 15 SP5:rpm-32bit-4.14.3-150400.59.16.1",
            "SUSE Linux Enterprise Module for Basesystem 15 SP5:rpm-4.14.3-150400.59.16.1",
            "SUSE Linux Enterprise Module for Basesystem 15 SP5:rpm-devel-4.14.3-150400.59.16.1",
            "SUSE Linux Enterprise Module for Development Tools 15 SP5:rpm-build-4.14.3-150400.59.16.1",
            "SUSE Linux Enterprise Module for Public Cloud 15 SP4:rpm-ndb-4.14.3-150400.59.16.1",
            "SUSE Linux Enterprise Module for Public Cloud 15 SP5:rpm-ndb-4.14.3-150400.59.16.1",
            "SUSE Linux Enterprise Module for Python 3 15 SP5:python311-rpm-4.14.3-150400.59.16.1",
            "SUSE Linux Enterprise Server 15 SP4-LTSS:python3-rpm-4.14.3-150400.59.16.1",
            "SUSE Linux Enterprise Server 15 SP4-LTSS:python311-rpm-4.14.3-150400.59.16.1",
            "SUSE Linux Enterprise Server 15 SP4-LTSS:rpm-32bit-4.14.3-150400.59.16.1",
            "SUSE Linux Enterprise Server 15 SP4-LTSS:rpm-4.14.3-150400.59.16.1",
            "SUSE Linux Enterprise Server 15 SP4-LTSS:rpm-build-4.14.3-150400.59.16.1",
            "SUSE Linux Enterprise Server 15 SP4-LTSS:rpm-devel-4.14.3-150400.59.16.1",
            "SUSE Linux Enterprise Server for SAP Applications 15 SP4:python3-rpm-4.14.3-150400.59.16.1",
            "SUSE Linux Enterprise Server for SAP Applications 15 SP4:python311-rpm-4.14.3-150400.59.16.1",
            "SUSE Linux Enterprise Server for SAP Applications 15 SP4:rpm-32bit-4.14.3-150400.59.16.1",
            "SUSE Linux Enterprise Server for SAP Applications 15 SP4:rpm-4.14.3-150400.59.16.1",
            "SUSE Linux Enterprise Server for SAP Applications 15 SP4:rpm-build-4.14.3-150400.59.16.1",
            "SUSE Linux Enterprise Server for SAP Applications 15 SP4:rpm-devel-4.14.3-150400.59.16.1",
            "SUSE Manager Proxy 4.3:python3-rpm-4.14.3-150400.59.16.1",
            "SUSE Manager Proxy 4.3:rpm-32bit-4.14.3-150400.59.16.1",
            "SUSE Manager Proxy 4.3:rpm-4.14.3-150400.59.16.1",
            "SUSE Manager Proxy 4.3:rpm-devel-4.14.3-150400.59.16.1",
            "SUSE Manager Proxy Module 4.3:rpm-build-4.14.3-150400.59.16.1",
            "SUSE Manager Server 4.3:python3-rpm-4.14.3-150400.59.16.1",
            "SUSE Manager Server 4.3:rpm-32bit-4.14.3-150400.59.16.1",
            "SUSE Manager Server 4.3:rpm-4.14.3-150400.59.16.1",
            "SUSE Manager Server 4.3:rpm-devel-4.14.3-150400.59.16.1",
            "SUSE Manager Server Module 4.3:rpm-build-4.14.3-150400.59.16.1",
            "openSUSE Leap 15.5:python3-rpm-4.14.3-150400.59.16.1",
            "openSUSE Leap 15.5:python311-rpm-4.14.3-150400.59.16.1",
            "openSUSE Leap 15.5:rpm-32bit-4.14.3-150400.59.16.1",
            "openSUSE Leap 15.5:rpm-4.14.3-150400.59.16.1",
            "openSUSE Leap 15.5:rpm-build-4.14.3-150400.59.16.1",
            "openSUSE Leap 15.5:rpm-devel-4.14.3-150400.59.16.1",
            "openSUSE Leap 15.5:rpm-ndb-32bit-4.14.3-150400.59.16.1",
            "openSUSE Leap 15.5:rpm-ndb-4.14.3-150400.59.16.1",
            "openSUSE Leap Micro 5.4:python3-rpm-4.14.3-150400.59.16.1",
            "openSUSE Leap Micro 5.4:rpm-4.14.3-150400.59.16.1",
            "openSUSE Leap Micro 5.4:rpm-ndb-4.14.3-150400.59.16.1"
          ]
        }
      ],
      "CVSSScoreSets": {}
    }
  ]
}