{
  "Title": "Security update for runc",
  "Tracking": {
    "ID": "SUSE-SU-2024:0459-1",
    "Status": "Final",
    "Version": "1",
    "InitialReleaseDate": "2024-02-13T14:29:10Z",
    "CurrentReleaseDate": "2024-02-13T14:29:10Z",
    "RevisionHistory": [
      {
        "Number": "1",
        "Date": "2024-02-13T14:29:10Z",
        "Description": "current"
      }
    ]
  },
  "Notes": [
    {
      "Text": "Security update for runc",
      "Title": "Topic",
      "Type": "Summary"
    },
    {
      "Text": "This update for runc fixes the following issues:\n\n- Update to runc v1.1.12 (bsc#1218894)                                                         \n                                                                                               \nThe following CVE was already fixed with the previous release.                                 \n                                                                                               \n- CVE-2024-21626: Fixed container breakout.                                                                                                                                                    \n",
      "Title": "Details",
      "Type": "General"
    },
    {
      "Text": "The CVRF data is provided by SUSE under the Creative Commons License 4.0 with Attribution (CC-BY-4.0).",
      "Title": "Terms of Use",
      "Type": "Legal Disclaimer"
    },
    {
      "Text": "Container rancher/elemental-teal-rt/5.4:latest-2024-459,Container rancher/elemental-teal/5.4:latest-2024-459,Container suse/sle-micro/5.5:latest-2024-459,Image SLES15-SP3-Micro-5-1-BYOS-Azure-2024-459,Image SLES15-SP3-Micro-5-1-BYOS-EC2-HVM-2024-459,Image SLES15-SP3-Micro-5-1-BYOS-GCE-2024-459,Image SLES15-SP3-Micro-5-2-BYOS-Azure-2024-459,Image SLES15-SP3-Micro-5-2-BYOS-EC2-HVM-2024-459,Image SLES15-SP3-Micro-5-2-BYOS-GCE-2024-459,Image SLES15-SP4-CHOST-BYOS-2024-459,Image SLES15-SP4-CHOST-BYOS-Aliyun-2024-459,Image SLES15-SP4-CHOST-BYOS-Azure-2024-459,Image SLES15-SP4-CHOST-BYOS-EC2-2024-459,Image SLES15-SP4-CHOST-BYOS-GCE-2024-459,Image SLES15-SP4-CHOST-BYOS-SAP-CCloud-2024-459,Image SLES15-SP4-Manager-Proxy-4-3-BYOS-2024-459,Image SLES15-SP4-Manager-Proxy-4-3-BYOS-Azure-2024-459,Image SLES15-SP4-Manager-Proxy-4-3-BYOS-EC2-2024-459,Image SLES15-SP4-Manager-Proxy-4-3-BYOS-GCE-2024-459,Image SLES15-SP4-Manager-Server-4-3-2024-459,Image SLES15-SP4-Manager-Server-4-3-Azure-llc-2024-459,Image SLES15-SP4-Manager-Server-4-3-Azure-ltd-2024-459,Image SLES15-SP4-Manager-Server-4-3-BYOS-2024-459,Image SLES15-SP4-Manager-Server-4-3-BYOS-Azure-2024-459,Image SLES15-SP4-Manager-Server-4-3-BYOS-EC2-2024-459,Image SLES15-SP4-Manager-Server-4-3-BYOS-GCE-2024-459,Image SLES15-SP4-Manager-Server-4-3-EC2-llc-2024-459,Image SLES15-SP4-Manager-Server-4-3-EC2-ltd-2024-459,Image SLES15-SP4-Micro-5-3-2024-459,Image SLES15-SP4-Micro-5-3-EC2-2024-459,Image SLES15-SP4-Micro-5-4-BYOS-2024-459,Image SLES15-SP4-Micro-5-4-BYOS-EC2-2024-459,Image SLES15-SP4-Micro-5-4-BYOS-GCE-2024-459,Image SLES15-SP4-Micro-5-4-GCE-2024-459,Image SLES15-SP5-Azure-Basic-2024-459,Image SLES15-SP5-Azure-Standard-2024-459,Image SLES15-SP5-BYOS-Azure-2024-459,Image SLES15-SP5-BYOS-EC2-2024-459,Image SLES15-SP5-BYOS-GCE-2024-459,Image SLES15-SP5-CHOST-BYOS-Aliyun-2024-459,Image SLES15-SP5-CHOST-BYOS-Azure-2024-459,Image SLES15-SP5-CHOST-BYOS-EC2-2024-459,Image SLES15-SP5-CHOST-BYOS-GCE-2024-459,Image SLES15-SP5-CHOST-BYOS-SAP-CCloud-2024-459,Image SLES15-SP5-EC2-2024-459,Image SLES15-SP5-GCE-2024-459,Image SLES15-SP5-HPC-Azure-2024-459,Image SLES15-SP5-HPC-BYOS-Azure-2024-459,Image SLES15-SP5-HPC-BYOS-EC2-2024-459,Image SLES15-SP5-HPC-BYOS-GCE-2024-459,Image SLES15-SP5-Hardened-BYOS-Azure-2024-459,Image SLES15-SP5-Hardened-BYOS-EC2-2024-459,Image SLES15-SP5-Hardened-BYOS-GCE-2024-459,Image SLES15-SP5-SAP-BYOS-Azure-2024-459,Image SLES15-SP5-SAP-BYOS-EC2-2024-459,Image SLES15-SP5-SAP-BYOS-GCE-2024-459,Image SLES15-SP5-SAP-Hardened-Azure-2024-459,Image SLES15-SP5-SAP-Hardened-BYOS-Azure-2024-459,Image SLES15-SP5-SAP-Hardened-BYOS-EC2-2024-459,Image SLES15-SP5-SAP-Hardened-BYOS-GCE-2024-459,Image SLES15-SP5-SAP-Hardened-GCE-2024-459,Image SLES15-SP5-SAPCAL-Azure-2024-459,Image SLES15-SP5-SAPCAL-EC2-2024-459,Image SLES15-SP5-SAPCAL-GCE-2024-459,SUSE-2024-459,SUSE-SLE-Micro-5.3-2024-459,SUSE-SLE-Micro-5.4-2024-459,SUSE-SLE-Micro-5.5-2024-459,SUSE-SLE-Module-Containers-15-SP4-2024-459,SUSE-SLE-Module-Containers-15-SP5-2024-459,SUSE-SLE-Product-HPC-15-SP2-LTSS-2024-459,SUSE-SLE-Product-HPC-15-SP3-LTSS-2024-459,SUSE-SLE-Product-HPC-15-SP4-ESPOS-2024-459,SUSE-SLE-Product-HPC-15-SP4-LTSS-2024-459,SUSE-SLE-Product-SLES-15-SP2-LTSS-2024-459,SUSE-SLE-Product-SLES-15-SP3-LTSS-2024-459,SUSE-SLE-Product-SLES-15-SP4-LTSS-2024-459,SUSE-SLE-Product-SLES_SAP-15-SP2-2024-459,SUSE-SLE-Product-SLES_SAP-15-SP3-2024-459,SUSE-SLE-Product-SLES_SAP-15-SP4-2024-459,SUSE-SUSE-MicroOS-5.1-2024-459,SUSE-SUSE-MicroOS-5.2-2024-459,SUSE-Storage-7.1-2024-459,openSUSE-Leap-Micro-5.3-2024-459,openSUSE-Leap-Micro-5.4-2024-459,openSUSE-SLE-15.5-2024-459",
      "Title": "Patchnames",
      "Type": "Details"
    }
  ],
  "ProductTree": {
    "Relationships": [
      {
        "ProductReference": "runc-1.1.12-150000.61.2",
        "RelatesToProductReference": "Container rancher/elemental-teal-rt/5.4:latest",
        "RelationType": "Default Component Of"
      },
      {
        "ProductReference": "runc-1.1.12-150000.61.2",
        "RelatesToProductReference": "Container rancher/elemental-teal/5.4:latest",
        "RelationType": "Default Component Of"
      },
      {
        "ProductReference": "runc-1.1.12-150000.61.2",
        "RelatesToProductReference": "Container suse/sle-micro/5.5:latest",
        "RelationType": "Default Component Of"
      },
      {
        "ProductReference": "runc-1.1.12-150000.61.2",
        "RelatesToProductReference": "Image SLES15-SP3-Micro-5-1-BYOS-Azure",
        "RelationType": "Default Component Of"
      },
      {
        "ProductReference": "runc-1.1.12-150000.61.2",
        "RelatesToProductReference": "Image SLES15-SP3-Micro-5-1-BYOS-EC2-HVM",
        "RelationType": "Default Component Of"
      },
      {
        "ProductReference": "runc-1.1.12-150000.61.2",
        "RelatesToProductReference": "Image SLES15-SP3-Micro-5-1-BYOS-GCE",
        "RelationType": "Default Component Of"
      },
      {
        "ProductReference": "runc-1.1.12-150000.61.2",
        "RelatesToProductReference": "Image SLES15-SP3-Micro-5-2-BYOS-Azure",
        "RelationType": "Default Component Of"
      },
      {
        "ProductReference": "runc-1.1.12-150000.61.2",
        "RelatesToProductReference": "Image SLES15-SP3-Micro-5-2-BYOS-EC2-HVM",
        "RelationType": "Default Component Of"
      },
      {
        "ProductReference": "runc-1.1.12-150000.61.2",
        "RelatesToProductReference": "Image SLES15-SP3-Micro-5-2-BYOS-GCE",
        "RelationType": "Default Component Of"
      },
      {
        "ProductReference": "runc-1.1.12-150000.61.2",
        "RelatesToProductReference": "Image SLES15-SP4-CHOST-BYOS",
        "RelationType": "Default Component Of"
      },
      {
        "ProductReference": "runc-1.1.12-150000.61.2",
        "RelatesToProductReference": "Image SLES15-SP4-CHOST-BYOS-Aliyun",
        "RelationType": "Default Component Of"
      },
      {
        "ProductReference": "runc-1.1.12-150000.61.2",
        "RelatesToProductReference": "Image SLES15-SP4-CHOST-BYOS-Azure",
        "RelationType": "Default Component Of"
      },
      {
        "ProductReference": "runc-1.1.12-150000.61.2",
        "RelatesToProductReference": "Image SLES15-SP4-CHOST-BYOS-EC2",
        "RelationType": "Default Component Of"
      },
      {
        "ProductReference": "runc-1.1.12-150000.61.2",
        "RelatesToProductReference": "Image SLES15-SP4-CHOST-BYOS-GCE",
        "RelationType": "Default Component Of"
      },
      {
        "ProductReference": "runc-1.1.12-150000.61.2",
        "RelatesToProductReference": "Image SLES15-SP4-CHOST-BYOS-SAP-CCloud",
        "RelationType": "Default Component Of"
      },
      {
        "ProductReference": "runc-1.1.12-150000.61.2",
        "RelatesToProductReference": "Image SLES15-SP4-Manager-Proxy-4-3-BYOS",
        "RelationType": "Default Component Of"
      },
      {
        "ProductReference": "runc-1.1.12-150000.61.2",
        "RelatesToProductReference": "Image SLES15-SP4-Manager-Proxy-4-3-BYOS-Azure",
        "RelationType": "Default Component Of"
      },
      {
        "ProductReference": "runc-1.1.12-150000.61.2",
        "RelatesToProductReference": "Image SLES15-SP4-Manager-Proxy-4-3-BYOS-EC2",
        "RelationType": "Default Component Of"
      },
      {
        "ProductReference": "runc-1.1.12-150000.61.2",
        "RelatesToProductReference": "Image SLES15-SP4-Manager-Proxy-4-3-BYOS-GCE",
        "RelationType": "Default Component Of"
      },
      {
        "ProductReference": "runc-1.1.12-150000.61.2",
        "RelatesToProductReference": "Image SLES15-SP4-Manager-Server-4-3",
        "RelationType": "Default Component Of"
      },
      {
        "ProductReference": "runc-1.1.12-150000.61.2",
        "RelatesToProductReference": "Image SLES15-SP4-Manager-Server-4-3-Azure-llc",
        "RelationType": "Default Component Of"
      },
      {
        "ProductReference": "runc-1.1.12-150000.61.2",
        "RelatesToProductReference": "Image SLES15-SP4-Manager-Server-4-3-Azure-ltd",
        "RelationType": "Default Component Of"
      },
      {
        "ProductReference": "runc-1.1.12-150000.61.2",
        "RelatesToProductReference": "Image SLES15-SP4-Manager-Server-4-3-BYOS",
        "RelationType": "Default Component Of"
      },
      {
        "ProductReference": "runc-1.1.12-150000.61.2",
        "RelatesToProductReference": "Image SLES15-SP4-Manager-Server-4-3-BYOS-Azure",
        "RelationType": "Default Component Of"
      },
      {
        "ProductReference": "runc-1.1.12-150000.61.2",
        "RelatesToProductReference": "Image SLES15-SP4-Manager-Server-4-3-BYOS-EC2",
        "RelationType": "Default Component Of"
      },
      {
        "ProductReference": "runc-1.1.12-150000.61.2",
        "RelatesToProductReference": "Image SLES15-SP4-Manager-Server-4-3-BYOS-GCE",
        "RelationType": "Default Component Of"
      },
      {
        "ProductReference": "runc-1.1.12-150000.61.2",
        "RelatesToProductReference": "Image SLES15-SP4-Manager-Server-4-3-EC2-llc",
        "RelationType": "Default Component Of"
      },
      {
        "ProductReference": "runc-1.1.12-150000.61.2",
        "RelatesToProductReference": "Image SLES15-SP4-Manager-Server-4-3-EC2-ltd",
        "RelationType": "Default Component Of"
      },
      {
        "ProductReference": "runc-1.1.12-150000.61.2",
        "RelatesToProductReference": "Image SLES15-SP4-Micro-5-3",
        "RelationType": "Default Component Of"
      },
      {
        "ProductReference": "runc-1.1.12-150000.61.2",
        "RelatesToProductReference": "Image SLES15-SP4-Micro-5-3-EC2",
        "RelationType": "Default Component Of"
      },
      {
        "ProductReference": "runc-1.1.12-150000.61.2",
        "RelatesToProductReference": "Image SLES15-SP4-Micro-5-4-BYOS",
        "RelationType": "Default Component Of"
      },
      {
        "ProductReference": "runc-1.1.12-150000.61.2",
        "RelatesToProductReference": "Image SLES15-SP4-Micro-5-4-BYOS-EC2",
        "RelationType": "Default Component Of"
      },
      {
        "ProductReference": "runc-1.1.12-150000.61.2",
        "RelatesToProductReference": "Image SLES15-SP4-Micro-5-4-BYOS-GCE",
        "RelationType": "Default Component Of"
      },
      {
        "ProductReference": "runc-1.1.12-150000.61.2",
        "RelatesToProductReference": "Image SLES15-SP4-Micro-5-4-GCE",
        "RelationType": "Default Component Of"
      },
      {
        "ProductReference": "runc-1.1.12-150000.61.2",
        "RelatesToProductReference": "Image SLES15-SP5-Azure-Basic",
        "RelationType": "Default Component Of"
      },
      {
        "ProductReference": "runc-1.1.12-150000.61.2",
        "RelatesToProductReference": "Image SLES15-SP5-Azure-Standard",
        "RelationType": "Default Component Of"
      },
      {
        "ProductReference": "runc-1.1.12-150000.61.2",
        "RelatesToProductReference": "Image SLES15-SP5-BYOS-Azure",
        "RelationType": "Default Component Of"
      },
      {
        "ProductReference": "runc-1.1.12-150000.61.2",
        "RelatesToProductReference": "Image SLES15-SP5-BYOS-EC2",
        "RelationType": "Default Component Of"
      },
      {
        "ProductReference": "runc-1.1.12-150000.61.2",
        "RelatesToProductReference": "Image SLES15-SP5-BYOS-GCE",
        "RelationType": "Default Component Of"
      },
      {
        "ProductReference": "runc-1.1.12-150000.61.2",
        "RelatesToProductReference": "Image SLES15-SP5-CHOST-BYOS-Aliyun",
        "RelationType": "Default Component Of"
      },
      {
        "ProductReference": "runc-1.1.12-150000.61.2",
        "RelatesToProductReference": "Image SLES15-SP5-CHOST-BYOS-Azure",
        "RelationType": "Default Component Of"
      },
      {
        "ProductReference": "runc-1.1.12-150000.61.2",
        "RelatesToProductReference": "Image SLES15-SP5-CHOST-BYOS-EC2",
        "RelationType": "Default Component Of"
      },
      {
        "ProductReference": "runc-1.1.12-150000.61.2",
        "RelatesToProductReference": "Image SLES15-SP5-CHOST-BYOS-GCE",
        "RelationType": "Default Component Of"
      },
      {
        "ProductReference": "runc-1.1.12-150000.61.2",
        "RelatesToProductReference": "Image SLES15-SP5-CHOST-BYOS-SAP-CCloud",
        "RelationType": "Default Component Of"
      },
      {
        "ProductReference": "runc-1.1.12-150000.61.2",
        "RelatesToProductReference": "Image SLES15-SP5-EC2",
        "RelationType": "Default Component Of"
      },
      {
        "ProductReference": "runc-1.1.12-150000.61.2",
        "RelatesToProductReference": "Image SLES15-SP5-GCE",
        "RelationType": "Default Component Of"
      },
      {
        "ProductReference": "runc-1.1.12-150000.61.2",
        "RelatesToProductReference": "Image SLES15-SP5-HPC-Azure",
        "RelationType": "Default Component Of"
      },
      {
        "ProductReference": "runc-1.1.12-150000.61.2",
        "RelatesToProductReference": "Image SLES15-SP5-HPC-BYOS-Azure",
        "RelationType": "Default Component Of"
      },
      {
        "ProductReference": "runc-1.1.12-150000.61.2",
        "RelatesToProductReference": "Image SLES15-SP5-HPC-BYOS-EC2",
        "RelationType": "Default Component Of"
      },
      {
        "ProductReference": "runc-1.1.12-150000.61.2",
        "RelatesToProductReference": "Image SLES15-SP5-HPC-BYOS-GCE",
        "RelationType": "Default Component Of"
      },
      {
        "ProductReference": "runc-1.1.12-150000.61.2",
        "RelatesToProductReference": "Image SLES15-SP5-Hardened-BYOS-Azure",
        "RelationType": "Default Component Of"
      },
      {
        "ProductReference": "runc-1.1.12-150000.61.2",
        "RelatesToProductReference": "Image SLES15-SP5-Hardened-BYOS-EC2",
        "RelationType": "Default Component Of"
      },
      {
        "ProductReference": "runc-1.1.12-150000.61.2",
        "RelatesToProductReference": "Image SLES15-SP5-Hardened-BYOS-GCE",
        "RelationType": "Default Component Of"
      },
      {
        "ProductReference": "runc-1.1.12-150000.61.2",
        "RelatesToProductReference": "Image SLES15-SP5-SAP-BYOS-Azure",
        "RelationType": "Default Component Of"
      },
      {
        "ProductReference": "runc-1.1.12-150000.61.2",
        "RelatesToProductReference": "Image SLES15-SP5-SAP-BYOS-EC2",
        "RelationType": "Default Component Of"
      },
      {
        "ProductReference": "runc-1.1.12-150000.61.2",
        "RelatesToProductReference": "Image SLES15-SP5-SAP-BYOS-GCE",
        "RelationType": "Default Component Of"
      },
      {
        "ProductReference": "runc-1.1.12-150000.61.2",
        "RelatesToProductReference": "Image SLES15-SP5-SAP-Hardened-Azure",
        "RelationType": "Default Component Of"
      },
      {
        "ProductReference": "runc-1.1.12-150000.61.2",
        "RelatesToProductReference": "Image SLES15-SP5-SAP-Hardened-BYOS-Azure",
        "RelationType": "Default Component Of"
      },
      {
        "ProductReference": "runc-1.1.12-150000.61.2",
        "RelatesToProductReference": "Image SLES15-SP5-SAP-Hardened-BYOS-EC2",
        "RelationType": "Default Component Of"
      },
      {
        "ProductReference": "runc-1.1.12-150000.61.2",
        "RelatesToProductReference": "Image SLES15-SP5-SAP-Hardened-BYOS-GCE",
        "RelationType": "Default Component Of"
      },
      {
        "ProductReference": "runc-1.1.12-150000.61.2",
        "RelatesToProductReference": "Image SLES15-SP5-SAP-Hardened-GCE",
        "RelationType": "Default Component Of"
      },
      {
        "ProductReference": "runc-1.1.12-150000.61.2",
        "RelatesToProductReference": "Image SLES15-SP5-SAPCAL-Azure",
        "RelationType": "Default Component Of"
      },
      {
        "ProductReference": "runc-1.1.12-150000.61.2",
        "RelatesToProductReference": "Image SLES15-SP5-SAPCAL-EC2",
        "RelationType": "Default Component Of"
      },
      {
        "ProductReference": "runc-1.1.12-150000.61.2",
        "RelatesToProductReference": "Image SLES15-SP5-SAPCAL-GCE",
        "RelationType": "Default Component Of"
      },
      {
        "ProductReference": "runc-1.1.12-150000.61.2",
        "RelatesToProductReference": "SUSE Enterprise Storage 7.1",
        "RelationType": "Default Component Of"
      },
      {
        "ProductReference": "runc-1.1.12-150000.61.2",
        "RelatesToProductReference": "SUSE Linux Enterprise High Performance Computing 15 SP2-LTSS",
        "RelationType": "Default Component Of"
      },
      {
        "ProductReference": "runc-1.1.12-150000.61.2",
        "RelatesToProductReference": "SUSE Linux Enterprise High Performance Computing 15 SP3-LTSS",
        "RelationType": "Default Component Of"
      },
      {
        "ProductReference": "runc-1.1.12-150000.61.2",
        "RelatesToProductReference": "SUSE Linux Enterprise High Performance Computing 15 SP4-ESPOS",
        "RelationType": "Default Component Of"
      },
      {
        "ProductReference": "runc-1.1.12-150000.61.2",
        "RelatesToProductReference": "SUSE Linux Enterprise High Performance Computing 15 SP4-LTSS",
        "RelationType": "Default Component Of"
      },
      {
        "ProductReference": "runc-1.1.12-150000.61.2",
        "RelatesToProductReference": "SUSE Linux Enterprise Micro 5.1",
        "RelationType": "Default Component Of"
      },
      {
        "ProductReference": "runc-1.1.12-150000.61.2",
        "RelatesToProductReference": "SUSE Linux Enterprise Micro 5.2",
        "RelationType": "Default Component Of"
      },
      {
        "ProductReference": "runc-1.1.12-150000.61.2",
        "RelatesToProductReference": "SUSE Linux Enterprise Micro 5.3",
        "RelationType": "Default Component Of"
      },
      {
        "ProductReference": "runc-1.1.12-150000.61.2",
        "RelatesToProductReference": "SUSE Linux Enterprise Micro 5.4",
        "RelationType": "Default Component Of"
      },
      {
        "ProductReference": "runc-1.1.12-150000.61.2",
        "RelatesToProductReference": "SUSE Linux Enterprise Micro 5.5",
        "RelationType": "Default Component Of"
      },
      {
        "ProductReference": "runc-1.1.12-150000.61.2",
        "RelatesToProductReference": "SUSE Linux Enterprise Module for Containers 15 SP4",
        "RelationType": "Default Component Of"
      },
      {
        "ProductReference": "runc-1.1.12-150000.61.2",
        "RelatesToProductReference": "SUSE Linux Enterprise Module for Containers 15 SP5",
        "RelationType": "Default Component Of"
      },
      {
        "ProductReference": "runc-1.1.12-150000.61.2",
        "RelatesToProductReference": "SUSE Linux Enterprise Server 15 SP2-LTSS",
        "RelationType": "Default Component Of"
      },
      {
        "ProductReference": "runc-1.1.12-150000.61.2",
        "RelatesToProductReference": "SUSE Linux Enterprise Server 15 SP3-LTSS",
        "RelationType": "Default Component Of"
      },
      {
        "ProductReference": "runc-1.1.12-150000.61.2",
        "RelatesToProductReference": "SUSE Linux Enterprise Server 15 SP4-LTSS",
        "RelationType": "Default Component Of"
      },
      {
        "ProductReference": "runc-1.1.12-150000.61.2",
        "RelatesToProductReference": "SUSE Linux Enterprise Server for SAP Applications 15 SP2",
        "RelationType": "Default Component Of"
      },
      {
        "ProductReference": "runc-1.1.12-150000.61.2",
        "RelatesToProductReference": "SUSE Linux Enterprise Server for SAP Applications 15 SP3",
        "RelationType": "Default Component Of"
      },
      {
        "ProductReference": "runc-1.1.12-150000.61.2",
        "RelatesToProductReference": "SUSE Linux Enterprise Server for SAP Applications 15 SP4",
        "RelationType": "Default Component Of"
      },
      {
        "ProductReference": "runc-1.1.12-150000.61.2",
        "RelatesToProductReference": "openSUSE Leap 15.5",
        "RelationType": "Default Component Of"
      },
      {
        "ProductReference": "runc-1.1.12-150000.61.2",
        "RelatesToProductReference": "openSUSE Leap Micro 5.3",
        "RelationType": "Default Component Of"
      },
      {
        "ProductReference": "runc-1.1.12-150000.61.2",
        "RelatesToProductReference": "openSUSE Leap Micro 5.4",
        "RelationType": "Default Component Of"
      }
    ]
  },
  "References": [
    {
      "URL": "https://www.suse.com/support/update/announcement/2024/suse-su-20240459-1/",
      "Description": "Link for SUSE-SU-2024:0459-1"
    },
    {
      "URL": "https://lists.suse.com/pipermail/sle-security-updates/2024-February/017910.html",
      "Description": "E-Mail link for SUSE-SU-2024:0459-1"
    },
    {
      "URL": "https://www.suse.com/support/security/rating/",
      "Description": "SUSE Security Ratings"
    },
    {
      "URL": "https://bugzilla.suse.com/1218894",
      "Description": "SUSE Bug 1218894"
    },
    {
      "URL": "https://www.suse.com/security/cve/CVE-2024-21626/",
      "Description": "SUSE CVE CVE-2024-21626 page"
    }
  ],
  "Vulnerabilities": [
    {
      "CVE": "CVE-2024-21626",
      "Description": "runc is a CLI tool for spawning and running containers on Linux according to the OCI specification. In runc 1.1.11 and earlier, due to an internal file descriptor leak, an attacker could cause a newly-spawned container process (from runc exec) to have a working directory in the host filesystem namespace, allowing for a container escape by giving access to the host filesystem (\"attack 2\"). The same attack could be used by a malicious image to allow a container process to gain access to the host filesystem through runc run (\"attack 1\"). Variants of attacks 1 and 2 could be also be used to overwrite semi-arbitrary host binaries, allowing for complete container escapes (\"attack 3a\" and \"attack 3b\"). runc 1.1.12 includes patches for this issue. ",
      "Threats": [
        {
          "Type": "Impact",
          "Severity": "important"
        }
      ],
      "References": [
        {
          "URL": "https://www.suse.com/security/cve/CVE-2024-21626.html",
          "Description": "CVE-2024-21626"
        },
        {
          "URL": "https://bugzilla.suse.com/1218894",
          "Description": "SUSE Bug 1218894"
        }
      ],
      "ProductStatuses": [
        {
          "Type": "Fixed",
          "ProductID": [
            "Container rancher/elemental-teal-rt/5.4:latest:runc-1.1.12-150000.61.2",
            "Container rancher/elemental-teal/5.4:latest:runc-1.1.12-150000.61.2",
            "Container suse/sle-micro/5.5:latest:runc-1.1.12-150000.61.2",
            "Image SLES15-SP3-Micro-5-1-BYOS-Azure:runc-1.1.12-150000.61.2",
            "Image SLES15-SP3-Micro-5-1-BYOS-EC2-HVM:runc-1.1.12-150000.61.2",
            "Image SLES15-SP3-Micro-5-1-BYOS-GCE:runc-1.1.12-150000.61.2",
            "Image SLES15-SP3-Micro-5-2-BYOS-Azure:runc-1.1.12-150000.61.2",
            "Image SLES15-SP3-Micro-5-2-BYOS-EC2-HVM:runc-1.1.12-150000.61.2",
            "Image SLES15-SP3-Micro-5-2-BYOS-GCE:runc-1.1.12-150000.61.2",
            "Image SLES15-SP4-CHOST-BYOS-Aliyun:runc-1.1.12-150000.61.2",
            "Image SLES15-SP4-CHOST-BYOS-Azure:runc-1.1.12-150000.61.2",
            "Image SLES15-SP4-CHOST-BYOS-EC2:runc-1.1.12-150000.61.2",
            "Image SLES15-SP4-CHOST-BYOS-GCE:runc-1.1.12-150000.61.2",
            "Image SLES15-SP4-CHOST-BYOS-SAP-CCloud:runc-1.1.12-150000.61.2",
            "Image SLES15-SP4-CHOST-BYOS:runc-1.1.12-150000.61.2",
            "Image SLES15-SP4-Manager-Proxy-4-3-BYOS-Azure:runc-1.1.12-150000.61.2",
            "Image SLES15-SP4-Manager-Proxy-4-3-BYOS-EC2:runc-1.1.12-150000.61.2",
            "Image SLES15-SP4-Manager-Proxy-4-3-BYOS-GCE:runc-1.1.12-150000.61.2",
            "Image SLES15-SP4-Manager-Proxy-4-3-BYOS:runc-1.1.12-150000.61.2",
            "Image SLES15-SP4-Manager-Server-4-3-Azure-llc:runc-1.1.12-150000.61.2",
            "Image SLES15-SP4-Manager-Server-4-3-Azure-ltd:runc-1.1.12-150000.61.2",
            "Image SLES15-SP4-Manager-Server-4-3-BYOS-Azure:runc-1.1.12-150000.61.2",
            "Image SLES15-SP4-Manager-Server-4-3-BYOS-EC2:runc-1.1.12-150000.61.2",
            "Image SLES15-SP4-Manager-Server-4-3-BYOS-GCE:runc-1.1.12-150000.61.2",
            "Image SLES15-SP4-Manager-Server-4-3-BYOS:runc-1.1.12-150000.61.2",
            "Image SLES15-SP4-Manager-Server-4-3-EC2-llc:runc-1.1.12-150000.61.2",
            "Image SLES15-SP4-Manager-Server-4-3-EC2-ltd:runc-1.1.12-150000.61.2",
            "Image SLES15-SP4-Manager-Server-4-3:runc-1.1.12-150000.61.2",
            "Image SLES15-SP4-Micro-5-3-EC2:runc-1.1.12-150000.61.2",
            "Image SLES15-SP4-Micro-5-3:runc-1.1.12-150000.61.2",
            "Image SLES15-SP4-Micro-5-4-BYOS-EC2:runc-1.1.12-150000.61.2",
            "Image SLES15-SP4-Micro-5-4-BYOS-GCE:runc-1.1.12-150000.61.2",
            "Image SLES15-SP4-Micro-5-4-BYOS:runc-1.1.12-150000.61.2",
            "Image SLES15-SP4-Micro-5-4-GCE:runc-1.1.12-150000.61.2",
            "Image SLES15-SP5-Azure-Basic:runc-1.1.12-150000.61.2",
            "Image SLES15-SP5-Azure-Standard:runc-1.1.12-150000.61.2",
            "Image SLES15-SP5-BYOS-Azure:runc-1.1.12-150000.61.2",
            "Image SLES15-SP5-BYOS-EC2:runc-1.1.12-150000.61.2",
            "Image SLES15-SP5-BYOS-GCE:runc-1.1.12-150000.61.2",
            "Image SLES15-SP5-CHOST-BYOS-Aliyun:runc-1.1.12-150000.61.2",
            "Image SLES15-SP5-CHOST-BYOS-Azure:runc-1.1.12-150000.61.2",
            "Image SLES15-SP5-CHOST-BYOS-EC2:runc-1.1.12-150000.61.2",
            "Image SLES15-SP5-CHOST-BYOS-GCE:runc-1.1.12-150000.61.2",
            "Image SLES15-SP5-CHOST-BYOS-SAP-CCloud:runc-1.1.12-150000.61.2",
            "Image SLES15-SP5-EC2:runc-1.1.12-150000.61.2",
            "Image SLES15-SP5-GCE:runc-1.1.12-150000.61.2",
            "Image SLES15-SP5-HPC-Azure:runc-1.1.12-150000.61.2",
            "Image SLES15-SP5-HPC-BYOS-Azure:runc-1.1.12-150000.61.2",
            "Image SLES15-SP5-HPC-BYOS-EC2:runc-1.1.12-150000.61.2",
            "Image SLES15-SP5-HPC-BYOS-GCE:runc-1.1.12-150000.61.2",
            "Image SLES15-SP5-Hardened-BYOS-Azure:runc-1.1.12-150000.61.2",
            "Image SLES15-SP5-Hardened-BYOS-EC2:runc-1.1.12-150000.61.2",
            "Image SLES15-SP5-Hardened-BYOS-GCE:runc-1.1.12-150000.61.2",
            "Image SLES15-SP5-SAP-BYOS-Azure:runc-1.1.12-150000.61.2",
            "Image SLES15-SP5-SAP-BYOS-EC2:runc-1.1.12-150000.61.2",
            "Image SLES15-SP5-SAP-BYOS-GCE:runc-1.1.12-150000.61.2",
            "Image SLES15-SP5-SAP-Hardened-Azure:runc-1.1.12-150000.61.2",
            "Image SLES15-SP5-SAP-Hardened-BYOS-Azure:runc-1.1.12-150000.61.2",
            "Image SLES15-SP5-SAP-Hardened-BYOS-EC2:runc-1.1.12-150000.61.2",
            "Image SLES15-SP5-SAP-Hardened-BYOS-GCE:runc-1.1.12-150000.61.2",
            "Image SLES15-SP5-SAP-Hardened-GCE:runc-1.1.12-150000.61.2",
            "Image SLES15-SP5-SAPCAL-Azure:runc-1.1.12-150000.61.2",
            "Image SLES15-SP5-SAPCAL-EC2:runc-1.1.12-150000.61.2",
            "Image SLES15-SP5-SAPCAL-GCE:runc-1.1.12-150000.61.2",
            "SUSE Enterprise Storage 7.1:runc-1.1.12-150000.61.2",
            "SUSE Linux Enterprise High Performance Computing 15 SP2-LTSS:runc-1.1.12-150000.61.2",
            "SUSE Linux Enterprise High Performance Computing 15 SP3-LTSS:runc-1.1.12-150000.61.2",
            "SUSE Linux Enterprise High Performance Computing 15 SP4-ESPOS:runc-1.1.12-150000.61.2",
            "SUSE Linux Enterprise High Performance Computing 15 SP4-LTSS:runc-1.1.12-150000.61.2",
            "SUSE Linux Enterprise Micro 5.1:runc-1.1.12-150000.61.2",
            "SUSE Linux Enterprise Micro 5.2:runc-1.1.12-150000.61.2",
            "SUSE Linux Enterprise Micro 5.3:runc-1.1.12-150000.61.2",
            "SUSE Linux Enterprise Micro 5.4:runc-1.1.12-150000.61.2",
            "SUSE Linux Enterprise Micro 5.5:runc-1.1.12-150000.61.2",
            "SUSE Linux Enterprise Module for Containers 15 SP4:runc-1.1.12-150000.61.2",
            "SUSE Linux Enterprise Module for Containers 15 SP5:runc-1.1.12-150000.61.2",
            "SUSE Linux Enterprise Server 15 SP2-LTSS:runc-1.1.12-150000.61.2",
            "SUSE Linux Enterprise Server 15 SP3-LTSS:runc-1.1.12-150000.61.2",
            "SUSE Linux Enterprise Server 15 SP4-LTSS:runc-1.1.12-150000.61.2",
            "SUSE Linux Enterprise Server for SAP Applications 15 SP2:runc-1.1.12-150000.61.2",
            "SUSE Linux Enterprise Server for SAP Applications 15 SP3:runc-1.1.12-150000.61.2",
            "SUSE Linux Enterprise Server for SAP Applications 15 SP4:runc-1.1.12-150000.61.2",
            "openSUSE Leap 15.5:runc-1.1.12-150000.61.2",
            "openSUSE Leap Micro 5.3:runc-1.1.12-150000.61.2",
            "openSUSE Leap Micro 5.4:runc-1.1.12-150000.61.2"
          ]
        }
      ],
      "CVSSScoreSets": {}
    }
  ]
}