{
  "Title": "Security update for cups",
  "Tracking": {
    "ID": "SUSE-SU-2024:2002-1",
    "Status": "Final",
    "Version": "1",
    "InitialReleaseDate": "2024-06-12T05:27:54Z",
    "CurrentReleaseDate": "2024-06-12T05:27:54Z",
    "RevisionHistory": [
      {
        "Number": "1",
        "Date": "2024-06-12T05:27:54Z",
        "Description": "current"
      }
    ]
  },
  "Notes": [
    {
      "Text": "Security update for cups",
      "Title": "Topic",
      "Type": "Summary"
    },
    {
      "Text": "This update for cups fixes the following issues:\n\n- CVE-2024-35235: Fixed a bug in cupsd that could allow an attacker to change the permissions of other files in the system. (bsc#1225365)\n",
      "Title": "Details",
      "Type": "General"
    },
    {
      "Text": "The CVRF data is provided by SUSE under the Creative Commons License 4.0 with Attribution (CC-BY-4.0).",
      "Title": "Terms of Use",
      "Type": "Legal Disclaimer"
    },
    {
      "Text": "Image SLES12-SP5-Azure-SAP-BYOS-2024-2002,SUSE-2024-2002,SUSE-SLE-SDK-12-SP5-2024-2002,SUSE-SLE-SERVER-12-SP5-2024-2002",
      "Title": "Patchnames",
      "Type": "Details"
    }
  ],
  "ProductTree": {
    "Relationships": [
      {
        "ProductReference": "cups-libs-1.7.5-20.49.1",
        "RelatesToProductReference": "Image SLES12-SP5-Azure-SAP-BYOS",
        "RelationType": "Default Component Of"
      },
      {
        "ProductReference": "cups-1.7.5-20.49.1",
        "RelatesToProductReference": "SUSE Linux Enterprise Server 12 SP5",
        "RelationType": "Default Component Of"
      },
      {
        "ProductReference": "cups-client-1.7.5-20.49.1",
        "RelatesToProductReference": "SUSE Linux Enterprise Server 12 SP5",
        "RelationType": "Default Component Of"
      },
      {
        "ProductReference": "cups-libs-1.7.5-20.49.1",
        "RelatesToProductReference": "SUSE Linux Enterprise Server 12 SP5",
        "RelationType": "Default Component Of"
      },
      {
        "ProductReference": "cups-libs-32bit-1.7.5-20.49.1",
        "RelatesToProductReference": "SUSE Linux Enterprise Server 12 SP5",
        "RelationType": "Default Component Of"
      },
      {
        "ProductReference": "cups-1.7.5-20.49.1",
        "RelatesToProductReference": "SUSE Linux Enterprise Server for SAP Applications 12 SP5",
        "RelationType": "Default Component Of"
      },
      {
        "ProductReference": "cups-client-1.7.5-20.49.1",
        "RelatesToProductReference": "SUSE Linux Enterprise Server for SAP Applications 12 SP5",
        "RelationType": "Default Component Of"
      },
      {
        "ProductReference": "cups-libs-1.7.5-20.49.1",
        "RelatesToProductReference": "SUSE Linux Enterprise Server for SAP Applications 12 SP5",
        "RelationType": "Default Component Of"
      },
      {
        "ProductReference": "cups-libs-32bit-1.7.5-20.49.1",
        "RelatesToProductReference": "SUSE Linux Enterprise Server for SAP Applications 12 SP5",
        "RelationType": "Default Component Of"
      },
      {
        "ProductReference": "cups-ddk-1.7.5-20.49.1",
        "RelatesToProductReference": "SUSE Linux Enterprise Software Development Kit 12 SP5",
        "RelationType": "Default Component Of"
      },
      {
        "ProductReference": "cups-devel-1.7.5-20.49.1",
        "RelatesToProductReference": "SUSE Linux Enterprise Software Development Kit 12 SP5",
        "RelationType": "Default Component Of"
      }
    ]
  },
  "References": [
    {
      "URL": "https://www.suse.com/support/update/announcement/2024/suse-su-20242002-1/",
      "Description": "Link for SUSE-SU-2024:2002-1"
    },
    {
      "URL": "https://lists.suse.com/pipermail/sle-security-updates/2024-June/018705.html",
      "Description": "E-Mail link for SUSE-SU-2024:2002-1"
    },
    {
      "URL": "https://www.suse.com/support/security/rating/",
      "Description": "SUSE Security Ratings"
    },
    {
      "URL": "https://bugzilla.suse.com/1225365",
      "Description": "SUSE Bug 1225365"
    },
    {
      "URL": "https://www.suse.com/security/cve/CVE-2024-35235/",
      "Description": "SUSE CVE CVE-2024-35235 page"
    }
  ],
  "Vulnerabilities": [
    {
      "CVE": "CVE-2024-35235",
      "Description": "OpenPrinting CUPS is an open source printing system for Linux and other Unix-like operating systems. In versions 2.4.8 and earlier, when starting the cupsd server with a Listen configuration item pointing to a symbolic link, the cupsd process can be caused to perform an arbitrary chmod of the provided argument, providing world-writable access to the target. Given that cupsd is often running as root, this can result in the change of permission of any user or system files to be world writable. Given the aforementioned Ubuntu AppArmor context, on such systems this vulnerability is limited to those files modifiable by the cupsd process. In that specific case it was found to be possible to turn the configuration of the Listen argument into full control over the cupsd.conf and cups-files.conf configuration files. By later setting the User and Group arguments in cups-files.conf, and printing with a printer configured by PPD with a `FoomaticRIPCommandLine` argument, arbitrary user and group (not root) command execution could be achieved, which can further be used on Ubuntu systems to achieve full root command execution. Commit ff1f8a623e090dee8a8aadf12a6a4b25efac143d contains a patch for the issue.\n",
      "Threats": [
        {
          "Type": "Impact",
          "Severity": "important"
        }
      ],
      "References": [
        {
          "URL": "https://www.suse.com/security/cve/CVE-2024-35235.html",
          "Description": "CVE-2024-35235"
        },
        {
          "URL": "https://bugzilla.suse.com/1225365",
          "Description": "SUSE Bug 1225365"
        }
      ],
      "ProductStatuses": [
        {
          "Type": "Fixed",
          "ProductID": [
            "Image SLES12-SP5-Azure-SAP-BYOS:cups-libs-1.7.5-20.49.1",
            "SUSE Linux Enterprise Server 12 SP5:cups-1.7.5-20.49.1",
            "SUSE Linux Enterprise Server 12 SP5:cups-client-1.7.5-20.49.1",
            "SUSE Linux Enterprise Server 12 SP5:cups-libs-1.7.5-20.49.1",
            "SUSE Linux Enterprise Server 12 SP5:cups-libs-32bit-1.7.5-20.49.1",
            "SUSE Linux Enterprise Server for SAP Applications 12 SP5:cups-1.7.5-20.49.1",
            "SUSE Linux Enterprise Server for SAP Applications 12 SP5:cups-client-1.7.5-20.49.1",
            "SUSE Linux Enterprise Server for SAP Applications 12 SP5:cups-libs-1.7.5-20.49.1",
            "SUSE Linux Enterprise Server for SAP Applications 12 SP5:cups-libs-32bit-1.7.5-20.49.1",
            "SUSE Linux Enterprise Software Development Kit 12 SP5:cups-ddk-1.7.5-20.49.1",
            "SUSE Linux Enterprise Software Development Kit 12 SP5:cups-devel-1.7.5-20.49.1"
          ]
        }
      ],
      "CVSSScoreSets": {}
    }
  ]
}