{
  "Title": "Security update for salt",
  "Tracking": {
    "ID": "SUSE-SU-2024:0510-1",
    "Status": "Final",
    "Version": "1",
    "InitialReleaseDate": "2024-02-15T13:42:26Z",
    "CurrentReleaseDate": "2024-02-15T13:42:26Z",
    "RevisionHistory": [
      {
        "Number": "1",
        "Date": "2024-02-15T13:42:26Z",
        "Description": "current"
      }
    ]
  },
  "Notes": [
    {
      "Text": "Security update for salt",
      "Title": "Topic",
      "Type": "Summary"
    },
    {
      "Text": "This update for salt fixes the following issues:\n\nSecurity issues fixed:\n\n- CVE-2024-22231: Prevent directory traversal when creating syndic cache directory\n  on the master (bsc#1219430)\n- CVE-2024-22232: Prevent directory traversal attacks in the master's serve_file\n  method (bsc#1219431)\n\nBugs fixed:\n\n- Ensure that pillar refresh loads beacons from pillar without restart\n- Fix the aptpkg.py unit test failure\n- Prefer unittest.mock to python-mock in test suite\n- Enable 'KeepAlive' probes for Salt SSH executions (bsc#1211649)\n- Revert changes to set Salt configured user early in the stack (bsc#1216284)\n- Align behavior of some modules when using salt-call via symlink (bsc#1215963)\n- Fix gitfs '__env__' and improve cache cleaning (bsc#1193948)\n- Remove python-boto dependency for the python3-salt-testsuite package for Tumbleweed\n",
      "Title": "Details",
      "Type": "General"
    },
    {
      "Text": "The CVRF data is provided by SUSE under the Creative Commons License 4.0 with Attribution (CC-BY-4.0).",
      "Title": "Terms of Use",
      "Type": "Legal Disclaimer"
    },
    {
      "Text": "Container suse/manager/5.0/x86_64/server:latest-2024-510,Image SLES15-SP5-BYOS-Azure-2024-510,Image SLES15-SP5-BYOS-EC2-2024-510,Image SLES15-SP5-BYOS-GCE-2024-510,Image SLES15-SP5-HPC-BYOS-Azure-2024-510,Image SLES15-SP5-HPC-BYOS-EC2-2024-510,Image SLES15-SP5-HPC-BYOS-GCE-2024-510,Image SLES15-SP5-Hardened-BYOS-Azure-2024-510,Image SLES15-SP5-Hardened-BYOS-EC2-2024-510,Image SLES15-SP5-Hardened-BYOS-GCE-2024-510,Image SLES15-SP5-SAP-BYOS-Azure-2024-510,Image SLES15-SP5-SAP-BYOS-EC2-2024-510,Image SLES15-SP5-SAP-BYOS-GCE-2024-510,Image SLES15-SP5-SAP-Hardened-BYOS-Azure-2024-510,Image SLES15-SP5-SAP-Hardened-BYOS-EC2-2024-510,Image SLES15-SP5-SAP-Hardened-BYOS-GCE-2024-510,SUSE-2024-510,SUSE-SLE-Micro-5.5-2024-510,SUSE-SLE-Module-Basesystem-15-SP5-2024-510,SUSE-SLE-Module-Server-Applications-15-SP5-2024-510,SUSE-SLE-Module-Transactional-Server-15-SP5-2024-510,openSUSE-SLE-15.5-2024-510",
      "Title": "Patchnames",
      "Type": "Details"
    }
  ],
  "ProductTree": {
    "Relationships": [
      {
        "ProductReference": "python3-salt-3006.0-150500.4.29.1",
        "RelatesToProductReference": "Container suse/manager/5.0/x86_64/server:latest",
        "RelationType": "Default Component Of"
      },
      {
        "ProductReference": "salt-3006.0-150500.4.29.1",
        "RelatesToProductReference": "Container suse/manager/5.0/x86_64/server:latest",
        "RelationType": "Default Component Of"
      },
      {
        "ProductReference": "salt-api-3006.0-150500.4.29.1",
        "RelatesToProductReference": "Container suse/manager/5.0/x86_64/server:latest",
        "RelationType": "Default Component Of"
      },
      {
        "ProductReference": "salt-master-3006.0-150500.4.29.1",
        "RelatesToProductReference": "Container suse/manager/5.0/x86_64/server:latest",
        "RelationType": "Default Component Of"
      },
      {
        "ProductReference": "python3-salt-3006.0-150500.4.29.1",
        "RelatesToProductReference": "Image SLES15-SP5-BYOS-Azure",
        "RelationType": "Default Component Of"
      },
      {
        "ProductReference": "salt-3006.0-150500.4.29.1",
        "RelatesToProductReference": "Image SLES15-SP5-BYOS-Azure",
        "RelationType": "Default Component Of"
      },
      {
        "ProductReference": "salt-minion-3006.0-150500.4.29.1",
        "RelatesToProductReference": "Image SLES15-SP5-BYOS-Azure",
        "RelationType": "Default Component Of"
      },
      {
        "ProductReference": "python3-salt-3006.0-150500.4.29.1",
        "RelatesToProductReference": "Image SLES15-SP5-BYOS-EC2",
        "RelationType": "Default Component Of"
      },
      {
        "ProductReference": "salt-3006.0-150500.4.29.1",
        "RelatesToProductReference": "Image SLES15-SP5-BYOS-EC2",
        "RelationType": "Default Component Of"
      },
      {
        "ProductReference": "salt-minion-3006.0-150500.4.29.1",
        "RelatesToProductReference": "Image SLES15-SP5-BYOS-EC2",
        "RelationType": "Default Component Of"
      },
      {
        "ProductReference": "python3-salt-3006.0-150500.4.29.1",
        "RelatesToProductReference": "Image SLES15-SP5-BYOS-GCE",
        "RelationType": "Default Component Of"
      },
      {
        "ProductReference": "salt-3006.0-150500.4.29.1",
        "RelatesToProductReference": "Image SLES15-SP5-BYOS-GCE",
        "RelationType": "Default Component Of"
      },
      {
        "ProductReference": "salt-minion-3006.0-150500.4.29.1",
        "RelatesToProductReference": "Image SLES15-SP5-BYOS-GCE",
        "RelationType": "Default Component Of"
      },
      {
        "ProductReference": "python3-salt-3006.0-150500.4.29.1",
        "RelatesToProductReference": "Image SLES15-SP5-HPC-BYOS-Azure",
        "RelationType": "Default Component Of"
      },
      {
        "ProductReference": "salt-3006.0-150500.4.29.1",
        "RelatesToProductReference": "Image SLES15-SP5-HPC-BYOS-Azure",
        "RelationType": "Default Component Of"
      },
      {
        "ProductReference": "salt-minion-3006.0-150500.4.29.1",
        "RelatesToProductReference": "Image SLES15-SP5-HPC-BYOS-Azure",
        "RelationType": "Default Component Of"
      },
      {
        "ProductReference": "python3-salt-3006.0-150500.4.29.1",
        "RelatesToProductReference": "Image SLES15-SP5-HPC-BYOS-EC2",
        "RelationType": "Default Component Of"
      },
      {
        "ProductReference": "salt-3006.0-150500.4.29.1",
        "RelatesToProductReference": "Image SLES15-SP5-HPC-BYOS-EC2",
        "RelationType": "Default Component Of"
      },
      {
        "ProductReference": "salt-minion-3006.0-150500.4.29.1",
        "RelatesToProductReference": "Image SLES15-SP5-HPC-BYOS-EC2",
        "RelationType": "Default Component Of"
      },
      {
        "ProductReference": "python3-salt-3006.0-150500.4.29.1",
        "RelatesToProductReference": "Image SLES15-SP5-HPC-BYOS-GCE",
        "RelationType": "Default Component Of"
      },
      {
        "ProductReference": "salt-3006.0-150500.4.29.1",
        "RelatesToProductReference": "Image SLES15-SP5-HPC-BYOS-GCE",
        "RelationType": "Default Component Of"
      },
      {
        "ProductReference": "salt-minion-3006.0-150500.4.29.1",
        "RelatesToProductReference": "Image SLES15-SP5-HPC-BYOS-GCE",
        "RelationType": "Default Component Of"
      },
      {
        "ProductReference": "python3-salt-3006.0-150500.4.29.1",
        "RelatesToProductReference": "Image SLES15-SP5-Hardened-BYOS-Azure",
        "RelationType": "Default Component Of"
      },
      {
        "ProductReference": "salt-3006.0-150500.4.29.1",
        "RelatesToProductReference": "Image SLES15-SP5-Hardened-BYOS-Azure",
        "RelationType": "Default Component Of"
      },
      {
        "ProductReference": "salt-minion-3006.0-150500.4.29.1",
        "RelatesToProductReference": "Image SLES15-SP5-Hardened-BYOS-Azure",
        "RelationType": "Default Component Of"
      },
      {
        "ProductReference": "python3-salt-3006.0-150500.4.29.1",
        "RelatesToProductReference": "Image SLES15-SP5-Hardened-BYOS-EC2",
        "RelationType": "Default Component Of"
      },
      {
        "ProductReference": "salt-3006.0-150500.4.29.1",
        "RelatesToProductReference": "Image SLES15-SP5-Hardened-BYOS-EC2",
        "RelationType": "Default Component Of"
      },
      {
        "ProductReference": "salt-minion-3006.0-150500.4.29.1",
        "RelatesToProductReference": "Image SLES15-SP5-Hardened-BYOS-EC2",
        "RelationType": "Default Component Of"
      },
      {
        "ProductReference": "python3-salt-3006.0-150500.4.29.1",
        "RelatesToProductReference": "Image SLES15-SP5-Hardened-BYOS-GCE",
        "RelationType": "Default Component Of"
      },
      {
        "ProductReference": "salt-3006.0-150500.4.29.1",
        "RelatesToProductReference": "Image SLES15-SP5-Hardened-BYOS-GCE",
        "RelationType": "Default Component Of"
      },
      {
        "ProductReference": "salt-minion-3006.0-150500.4.29.1",
        "RelatesToProductReference": "Image SLES15-SP5-Hardened-BYOS-GCE",
        "RelationType": "Default Component Of"
      },
      {
        "ProductReference": "python3-salt-3006.0-150500.4.29.1",
        "RelatesToProductReference": "Image SLES15-SP5-SAP-BYOS-Azure",
        "RelationType": "Default Component Of"
      },
      {
        "ProductReference": "salt-3006.0-150500.4.29.1",
        "RelatesToProductReference": "Image SLES15-SP5-SAP-BYOS-Azure",
        "RelationType": "Default Component Of"
      },
      {
        "ProductReference": "salt-minion-3006.0-150500.4.29.1",
        "RelatesToProductReference": "Image SLES15-SP5-SAP-BYOS-Azure",
        "RelationType": "Default Component Of"
      },
      {
        "ProductReference": "salt-standalone-formulas-configuration-3006.0-150500.4.29.1",
        "RelatesToProductReference": "Image SLES15-SP5-SAP-BYOS-Azure",
        "RelationType": "Default Component Of"
      },
      {
        "ProductReference": "python3-salt-3006.0-150500.4.29.1",
        "RelatesToProductReference": "Image SLES15-SP5-SAP-BYOS-EC2",
        "RelationType": "Default Component Of"
      },
      {
        "ProductReference": "salt-3006.0-150500.4.29.1",
        "RelatesToProductReference": "Image SLES15-SP5-SAP-BYOS-EC2",
        "RelationType": "Default Component Of"
      },
      {
        "ProductReference": "salt-minion-3006.0-150500.4.29.1",
        "RelatesToProductReference": "Image SLES15-SP5-SAP-BYOS-EC2",
        "RelationType": "Default Component Of"
      },
      {
        "ProductReference": "salt-standalone-formulas-configuration-3006.0-150500.4.29.1",
        "RelatesToProductReference": "Image SLES15-SP5-SAP-BYOS-EC2",
        "RelationType": "Default Component Of"
      },
      {
        "ProductReference": "python3-salt-3006.0-150500.4.29.1",
        "RelatesToProductReference": "Image SLES15-SP5-SAP-BYOS-GCE",
        "RelationType": "Default Component Of"
      },
      {
        "ProductReference": "salt-3006.0-150500.4.29.1",
        "RelatesToProductReference": "Image SLES15-SP5-SAP-BYOS-GCE",
        "RelationType": "Default Component Of"
      },
      {
        "ProductReference": "salt-minion-3006.0-150500.4.29.1",
        "RelatesToProductReference": "Image SLES15-SP5-SAP-BYOS-GCE",
        "RelationType": "Default Component Of"
      },
      {
        "ProductReference": "salt-standalone-formulas-configuration-3006.0-150500.4.29.1",
        "RelatesToProductReference": "Image SLES15-SP5-SAP-BYOS-GCE",
        "RelationType": "Default Component Of"
      },
      {
        "ProductReference": "python3-salt-3006.0-150500.4.29.1",
        "RelatesToProductReference": "Image SLES15-SP5-SAP-Hardened-BYOS-Azure",
        "RelationType": "Default Component Of"
      },
      {
        "ProductReference": "salt-3006.0-150500.4.29.1",
        "RelatesToProductReference": "Image SLES15-SP5-SAP-Hardened-BYOS-Azure",
        "RelationType": "Default Component Of"
      },
      {
        "ProductReference": "salt-minion-3006.0-150500.4.29.1",
        "RelatesToProductReference": "Image SLES15-SP5-SAP-Hardened-BYOS-Azure",
        "RelationType": "Default Component Of"
      },
      {
        "ProductReference": "salt-standalone-formulas-configuration-3006.0-150500.4.29.1",
        "RelatesToProductReference": "Image SLES15-SP5-SAP-Hardened-BYOS-Azure",
        "RelationType": "Default Component Of"
      },
      {
        "ProductReference": "python3-salt-3006.0-150500.4.29.1",
        "RelatesToProductReference": "Image SLES15-SP5-SAP-Hardened-BYOS-EC2",
        "RelationType": "Default Component Of"
      },
      {
        "ProductReference": "salt-3006.0-150500.4.29.1",
        "RelatesToProductReference": "Image SLES15-SP5-SAP-Hardened-BYOS-EC2",
        "RelationType": "Default Component Of"
      },
      {
        "ProductReference": "salt-minion-3006.0-150500.4.29.1",
        "RelatesToProductReference": "Image SLES15-SP5-SAP-Hardened-BYOS-EC2",
        "RelationType": "Default Component Of"
      },
      {
        "ProductReference": "salt-standalone-formulas-configuration-3006.0-150500.4.29.1",
        "RelatesToProductReference": "Image SLES15-SP5-SAP-Hardened-BYOS-EC2",
        "RelationType": "Default Component Of"
      },
      {
        "ProductReference": "python3-salt-3006.0-150500.4.29.1",
        "RelatesToProductReference": "Image SLES15-SP5-SAP-Hardened-BYOS-GCE",
        "RelationType": "Default Component Of"
      },
      {
        "ProductReference": "salt-3006.0-150500.4.29.1",
        "RelatesToProductReference": "Image SLES15-SP5-SAP-Hardened-BYOS-GCE",
        "RelationType": "Default Component Of"
      },
      {
        "ProductReference": "salt-minion-3006.0-150500.4.29.1",
        "RelatesToProductReference": "Image SLES15-SP5-SAP-Hardened-BYOS-GCE",
        "RelationType": "Default Component Of"
      },
      {
        "ProductReference": "salt-standalone-formulas-configuration-3006.0-150500.4.29.1",
        "RelatesToProductReference": "Image SLES15-SP5-SAP-Hardened-BYOS-GCE",
        "RelationType": "Default Component Of"
      },
      {
        "ProductReference": "python3-salt-3006.0-150500.4.29.1",
        "RelatesToProductReference": "SUSE Linux Enterprise Micro 5.5",
        "RelationType": "Default Component Of"
      },
      {
        "ProductReference": "salt-3006.0-150500.4.29.1",
        "RelatesToProductReference": "SUSE Linux Enterprise Micro 5.5",
        "RelationType": "Default Component Of"
      },
      {
        "ProductReference": "salt-minion-3006.0-150500.4.29.1",
        "RelatesToProductReference": "SUSE Linux Enterprise Micro 5.5",
        "RelationType": "Default Component Of"
      },
      {
        "ProductReference": "salt-transactional-update-3006.0-150500.4.29.1",
        "RelatesToProductReference": "SUSE Linux Enterprise Micro 5.5",
        "RelationType": "Default Component Of"
      },
      {
        "ProductReference": "python3-salt-3006.0-150500.4.29.1",
        "RelatesToProductReference": "SUSE Linux Enterprise Module for Basesystem 15 SP5",
        "RelationType": "Default Component Of"
      },
      {
        "ProductReference": "salt-3006.0-150500.4.29.1",
        "RelatesToProductReference": "SUSE Linux Enterprise Module for Basesystem 15 SP5",
        "RelationType": "Default Component Of"
      },
      {
        "ProductReference": "salt-bash-completion-3006.0-150500.4.29.1",
        "RelatesToProductReference": "SUSE Linux Enterprise Module for Basesystem 15 SP5",
        "RelationType": "Default Component Of"
      },
      {
        "ProductReference": "salt-doc-3006.0-150500.4.29.1",
        "RelatesToProductReference": "SUSE Linux Enterprise Module for Basesystem 15 SP5",
        "RelationType": "Default Component Of"
      },
      {
        "ProductReference": "salt-minion-3006.0-150500.4.29.1",
        "RelatesToProductReference": "SUSE Linux Enterprise Module for Basesystem 15 SP5",
        "RelationType": "Default Component Of"
      },
      {
        "ProductReference": "salt-zsh-completion-3006.0-150500.4.29.1",
        "RelatesToProductReference": "SUSE Linux Enterprise Module for Basesystem 15 SP5",
        "RelationType": "Default Component Of"
      },
      {
        "ProductReference": "salt-api-3006.0-150500.4.29.1",
        "RelatesToProductReference": "SUSE Linux Enterprise Module for Server Applications 15 SP5",
        "RelationType": "Default Component Of"
      },
      {
        "ProductReference": "salt-cloud-3006.0-150500.4.29.1",
        "RelatesToProductReference": "SUSE Linux Enterprise Module for Server Applications 15 SP5",
        "RelationType": "Default Component Of"
      },
      {
        "ProductReference": "salt-fish-completion-3006.0-150500.4.29.1",
        "RelatesToProductReference": "SUSE Linux Enterprise Module for Server Applications 15 SP5",
        "RelationType": "Default Component Of"
      },
      {
        "ProductReference": "salt-master-3006.0-150500.4.29.1",
        "RelatesToProductReference": "SUSE Linux Enterprise Module for Server Applications 15 SP5",
        "RelationType": "Default Component Of"
      },
      {
        "ProductReference": "salt-proxy-3006.0-150500.4.29.1",
        "RelatesToProductReference": "SUSE Linux Enterprise Module for Server Applications 15 SP5",
        "RelationType": "Default Component Of"
      },
      {
        "ProductReference": "salt-ssh-3006.0-150500.4.29.1",
        "RelatesToProductReference": "SUSE Linux Enterprise Module for Server Applications 15 SP5",
        "RelationType": "Default Component Of"
      },
      {
        "ProductReference": "salt-standalone-formulas-configuration-3006.0-150500.4.29.1",
        "RelatesToProductReference": "SUSE Linux Enterprise Module for Server Applications 15 SP5",
        "RelationType": "Default Component Of"
      },
      {
        "ProductReference": "salt-syndic-3006.0-150500.4.29.1",
        "RelatesToProductReference": "SUSE Linux Enterprise Module for Server Applications 15 SP5",
        "RelationType": "Default Component Of"
      },
      {
        "ProductReference": "salt-transactional-update-3006.0-150500.4.29.1",
        "RelatesToProductReference": "SUSE Linux Enterprise Module for Transactional Server 15 SP5",
        "RelationType": "Default Component Of"
      },
      {
        "ProductReference": "python3-salt-3006.0-150500.4.29.1",
        "RelatesToProductReference": "openSUSE Leap 15.5",
        "RelationType": "Default Component Of"
      },
      {
        "ProductReference": "salt-3006.0-150500.4.29.1",
        "RelatesToProductReference": "openSUSE Leap 15.5",
        "RelationType": "Default Component Of"
      },
      {
        "ProductReference": "salt-api-3006.0-150500.4.29.1",
        "RelatesToProductReference": "openSUSE Leap 15.5",
        "RelationType": "Default Component Of"
      },
      {
        "ProductReference": "salt-bash-completion-3006.0-150500.4.29.1",
        "RelatesToProductReference": "openSUSE Leap 15.5",
        "RelationType": "Default Component Of"
      },
      {
        "ProductReference": "salt-cloud-3006.0-150500.4.29.1",
        "RelatesToProductReference": "openSUSE Leap 15.5",
        "RelationType": "Default Component Of"
      },
      {
        "ProductReference": "salt-doc-3006.0-150500.4.29.1",
        "RelatesToProductReference": "openSUSE Leap 15.5",
        "RelationType": "Default Component Of"
      },
      {
        "ProductReference": "salt-fish-completion-3006.0-150500.4.29.1",
        "RelatesToProductReference": "openSUSE Leap 15.5",
        "RelationType": "Default Component Of"
      },
      {
        "ProductReference": "salt-master-3006.0-150500.4.29.1",
        "RelatesToProductReference": "openSUSE Leap 15.5",
        "RelationType": "Default Component Of"
      },
      {
        "ProductReference": "salt-minion-3006.0-150500.4.29.1",
        "RelatesToProductReference": "openSUSE Leap 15.5",
        "RelationType": "Default Component Of"
      },
      {
        "ProductReference": "salt-proxy-3006.0-150500.4.29.1",
        "RelatesToProductReference": "openSUSE Leap 15.5",
        "RelationType": "Default Component Of"
      },
      {
        "ProductReference": "salt-ssh-3006.0-150500.4.29.1",
        "RelatesToProductReference": "openSUSE Leap 15.5",
        "RelationType": "Default Component Of"
      },
      {
        "ProductReference": "salt-standalone-formulas-configuration-3006.0-150500.4.29.1",
        "RelatesToProductReference": "openSUSE Leap 15.5",
        "RelationType": "Default Component Of"
      },
      {
        "ProductReference": "salt-syndic-3006.0-150500.4.29.1",
        "RelatesToProductReference": "openSUSE Leap 15.5",
        "RelationType": "Default Component Of"
      },
      {
        "ProductReference": "salt-transactional-update-3006.0-150500.4.29.1",
        "RelatesToProductReference": "openSUSE Leap 15.5",
        "RelationType": "Default Component Of"
      },
      {
        "ProductReference": "salt-zsh-completion-3006.0-150500.4.29.1",
        "RelatesToProductReference": "openSUSE Leap 15.5",
        "RelationType": "Default Component Of"
      }
    ]
  },
  "References": [
    {
      "URL": "https://www.suse.com/support/update/announcement/2024/suse-su-20240510-1/",
      "Description": "Link for SUSE-SU-2024:0510-1"
    },
    {
      "URL": "https://lists.suse.com/pipermail/sle-security-updates/2024-February/017926.html",
      "Description": "E-Mail link for SUSE-SU-2024:0510-1"
    },
    {
      "URL": "https://www.suse.com/support/security/rating/",
      "Description": "SUSE Security Ratings"
    },
    {
      "URL": "https://bugzilla.suse.com/1193948",
      "Description": "SUSE Bug 1193948"
    },
    {
      "URL": "https://bugzilla.suse.com/1211649",
      "Description": "SUSE Bug 1211649"
    },
    {
      "URL": "https://bugzilla.suse.com/1215963",
      "Description": "SUSE Bug 1215963"
    },
    {
      "URL": "https://bugzilla.suse.com/1216284",
      "Description": "SUSE Bug 1216284"
    },
    {
      "URL": "https://bugzilla.suse.com/1219430",
      "Description": "SUSE Bug 1219430"
    },
    {
      "URL": "https://bugzilla.suse.com/1219431",
      "Description": "SUSE Bug 1219431"
    },
    {
      "URL": "https://www.suse.com/security/cve/CVE-2024-22231/",
      "Description": "SUSE CVE CVE-2024-22231 page"
    },
    {
      "URL": "https://www.suse.com/security/cve/CVE-2024-22232/",
      "Description": "SUSE CVE CVE-2024-22232 page"
    }
  ],
  "Vulnerabilities": [
    {
      "CVE": "CVE-2024-22231",
      "Description": "** RESERVED ** This candidate has been reserved by an organization or individual that will use it when announcing a new security problem. When the candidate has been publicized, the details for this candidate will be provided.",
      "Threats": [
        {
          "Type": "Impact",
          "Severity": "moderate"
        }
      ],
      "References": [
        {
          "URL": "https://www.suse.com/security/cve/CVE-2024-22231.html",
          "Description": "CVE-2024-22231"
        },
        {
          "URL": "https://bugzilla.suse.com/1219430",
          "Description": "SUSE Bug 1219430"
        }
      ],
      "ProductStatuses": [
        {
          "Type": "Fixed",
          "ProductID": [
            "Container suse/manager/5.0/x86_64/server:latest:python3-salt-3006.0-150500.4.29.1",
            "Container suse/manager/5.0/x86_64/server:latest:salt-3006.0-150500.4.29.1",
            "Container suse/manager/5.0/x86_64/server:latest:salt-api-3006.0-150500.4.29.1",
            "Container suse/manager/5.0/x86_64/server:latest:salt-master-3006.0-150500.4.29.1",
            "Image SLES15-SP5-BYOS-Azure:python3-salt-3006.0-150500.4.29.1",
            "Image SLES15-SP5-BYOS-Azure:salt-3006.0-150500.4.29.1",
            "Image SLES15-SP5-BYOS-Azure:salt-minion-3006.0-150500.4.29.1",
            "Image SLES15-SP5-BYOS-EC2:python3-salt-3006.0-150500.4.29.1",
            "Image SLES15-SP5-BYOS-EC2:salt-3006.0-150500.4.29.1",
            "Image SLES15-SP5-BYOS-EC2:salt-minion-3006.0-150500.4.29.1",
            "Image SLES15-SP5-BYOS-GCE:python3-salt-3006.0-150500.4.29.1",
            "Image SLES15-SP5-BYOS-GCE:salt-3006.0-150500.4.29.1",
            "Image SLES15-SP5-BYOS-GCE:salt-minion-3006.0-150500.4.29.1",
            "Image SLES15-SP5-HPC-BYOS-Azure:python3-salt-3006.0-150500.4.29.1",
            "Image SLES15-SP5-HPC-BYOS-Azure:salt-3006.0-150500.4.29.1",
            "Image SLES15-SP5-HPC-BYOS-Azure:salt-minion-3006.0-150500.4.29.1",
            "Image SLES15-SP5-HPC-BYOS-EC2:python3-salt-3006.0-150500.4.29.1",
            "Image SLES15-SP5-HPC-BYOS-EC2:salt-3006.0-150500.4.29.1",
            "Image SLES15-SP5-HPC-BYOS-EC2:salt-minion-3006.0-150500.4.29.1",
            "Image SLES15-SP5-HPC-BYOS-GCE:python3-salt-3006.0-150500.4.29.1",
            "Image SLES15-SP5-HPC-BYOS-GCE:salt-3006.0-150500.4.29.1",
            "Image SLES15-SP5-HPC-BYOS-GCE:salt-minion-3006.0-150500.4.29.1",
            "Image SLES15-SP5-Hardened-BYOS-Azure:python3-salt-3006.0-150500.4.29.1",
            "Image SLES15-SP5-Hardened-BYOS-Azure:salt-3006.0-150500.4.29.1",
            "Image SLES15-SP5-Hardened-BYOS-Azure:salt-minion-3006.0-150500.4.29.1",
            "Image SLES15-SP5-Hardened-BYOS-EC2:python3-salt-3006.0-150500.4.29.1",
            "Image SLES15-SP5-Hardened-BYOS-EC2:salt-3006.0-150500.4.29.1",
            "Image SLES15-SP5-Hardened-BYOS-EC2:salt-minion-3006.0-150500.4.29.1",
            "Image SLES15-SP5-Hardened-BYOS-GCE:python3-salt-3006.0-150500.4.29.1",
            "Image SLES15-SP5-Hardened-BYOS-GCE:salt-3006.0-150500.4.29.1",
            "Image SLES15-SP5-Hardened-BYOS-GCE:salt-minion-3006.0-150500.4.29.1",
            "Image SLES15-SP5-SAP-BYOS-Azure:python3-salt-3006.0-150500.4.29.1",
            "Image SLES15-SP5-SAP-BYOS-Azure:salt-3006.0-150500.4.29.1",
            "Image SLES15-SP5-SAP-BYOS-Azure:salt-minion-3006.0-150500.4.29.1",
            "Image SLES15-SP5-SAP-BYOS-Azure:salt-standalone-formulas-configuration-3006.0-150500.4.29.1",
            "Image SLES15-SP5-SAP-BYOS-EC2:python3-salt-3006.0-150500.4.29.1",
            "Image SLES15-SP5-SAP-BYOS-EC2:salt-3006.0-150500.4.29.1",
            "Image SLES15-SP5-SAP-BYOS-EC2:salt-minion-3006.0-150500.4.29.1",
            "Image SLES15-SP5-SAP-BYOS-EC2:salt-standalone-formulas-configuration-3006.0-150500.4.29.1",
            "Image SLES15-SP5-SAP-BYOS-GCE:python3-salt-3006.0-150500.4.29.1",
            "Image SLES15-SP5-SAP-BYOS-GCE:salt-3006.0-150500.4.29.1",
            "Image SLES15-SP5-SAP-BYOS-GCE:salt-minion-3006.0-150500.4.29.1",
            "Image SLES15-SP5-SAP-BYOS-GCE:salt-standalone-formulas-configuration-3006.0-150500.4.29.1",
            "Image SLES15-SP5-SAP-Hardened-BYOS-Azure:python3-salt-3006.0-150500.4.29.1",
            "Image SLES15-SP5-SAP-Hardened-BYOS-Azure:salt-3006.0-150500.4.29.1",
            "Image SLES15-SP5-SAP-Hardened-BYOS-Azure:salt-minion-3006.0-150500.4.29.1",
            "Image SLES15-SP5-SAP-Hardened-BYOS-Azure:salt-standalone-formulas-configuration-3006.0-150500.4.29.1",
            "Image SLES15-SP5-SAP-Hardened-BYOS-EC2:python3-salt-3006.0-150500.4.29.1",
            "Image SLES15-SP5-SAP-Hardened-BYOS-EC2:salt-3006.0-150500.4.29.1",
            "Image SLES15-SP5-SAP-Hardened-BYOS-EC2:salt-minion-3006.0-150500.4.29.1",
            "Image SLES15-SP5-SAP-Hardened-BYOS-EC2:salt-standalone-formulas-configuration-3006.0-150500.4.29.1",
            "Image SLES15-SP5-SAP-Hardened-BYOS-GCE:python3-salt-3006.0-150500.4.29.1",
            "Image SLES15-SP5-SAP-Hardened-BYOS-GCE:salt-3006.0-150500.4.29.1",
            "Image SLES15-SP5-SAP-Hardened-BYOS-GCE:salt-minion-3006.0-150500.4.29.1",
            "Image SLES15-SP5-SAP-Hardened-BYOS-GCE:salt-standalone-formulas-configuration-3006.0-150500.4.29.1",
            "SUSE Linux Enterprise Micro 5.5:python3-salt-3006.0-150500.4.29.1",
            "SUSE Linux Enterprise Micro 5.5:salt-3006.0-150500.4.29.1",
            "SUSE Linux Enterprise Micro 5.5:salt-minion-3006.0-150500.4.29.1",
            "SUSE Linux Enterprise Micro 5.5:salt-transactional-update-3006.0-150500.4.29.1",
            "SUSE Linux Enterprise Module for Basesystem 15 SP5:python3-salt-3006.0-150500.4.29.1",
            "SUSE Linux Enterprise Module for Basesystem 15 SP5:salt-3006.0-150500.4.29.1",
            "SUSE Linux Enterprise Module for Basesystem 15 SP5:salt-bash-completion-3006.0-150500.4.29.1",
            "SUSE Linux Enterprise Module for Basesystem 15 SP5:salt-doc-3006.0-150500.4.29.1",
            "SUSE Linux Enterprise Module for Basesystem 15 SP5:salt-minion-3006.0-150500.4.29.1",
            "SUSE Linux Enterprise Module for Basesystem 15 SP5:salt-zsh-completion-3006.0-150500.4.29.1",
            "SUSE Linux Enterprise Module for Server Applications 15 SP5:salt-api-3006.0-150500.4.29.1",
            "SUSE Linux Enterprise Module for Server Applications 15 SP5:salt-cloud-3006.0-150500.4.29.1",
            "SUSE Linux Enterprise Module for Server Applications 15 SP5:salt-fish-completion-3006.0-150500.4.29.1",
            "SUSE Linux Enterprise Module for Server Applications 15 SP5:salt-master-3006.0-150500.4.29.1",
            "SUSE Linux Enterprise Module for Server Applications 15 SP5:salt-proxy-3006.0-150500.4.29.1",
            "SUSE Linux Enterprise Module for Server Applications 15 SP5:salt-ssh-3006.0-150500.4.29.1",
            "SUSE Linux Enterprise Module for Server Applications 15 SP5:salt-standalone-formulas-configuration-3006.0-150500.4.29.1",
            "SUSE Linux Enterprise Module for Server Applications 15 SP5:salt-syndic-3006.0-150500.4.29.1",
            "SUSE Linux Enterprise Module for Transactional Server 15 SP5:salt-transactional-update-3006.0-150500.4.29.1",
            "openSUSE Leap 15.5:python3-salt-3006.0-150500.4.29.1",
            "openSUSE Leap 15.5:salt-3006.0-150500.4.29.1",
            "openSUSE Leap 15.5:salt-api-3006.0-150500.4.29.1",
            "openSUSE Leap 15.5:salt-bash-completion-3006.0-150500.4.29.1",
            "openSUSE Leap 15.5:salt-cloud-3006.0-150500.4.29.1",
            "openSUSE Leap 15.5:salt-doc-3006.0-150500.4.29.1",
            "openSUSE Leap 15.5:salt-fish-completion-3006.0-150500.4.29.1",
            "openSUSE Leap 15.5:salt-master-3006.0-150500.4.29.1",
            "openSUSE Leap 15.5:salt-minion-3006.0-150500.4.29.1",
            "openSUSE Leap 15.5:salt-proxy-3006.0-150500.4.29.1",
            "openSUSE Leap 15.5:salt-ssh-3006.0-150500.4.29.1",
            "openSUSE Leap 15.5:salt-standalone-formulas-configuration-3006.0-150500.4.29.1",
            "openSUSE Leap 15.5:salt-syndic-3006.0-150500.4.29.1",
            "openSUSE Leap 15.5:salt-transactional-update-3006.0-150500.4.29.1",
            "openSUSE Leap 15.5:salt-zsh-completion-3006.0-150500.4.29.1"
          ]
        }
      ],
      "CVSSScoreSets": {}
    },
    {
      "CVE": "CVE-2024-22232",
      "Description": "** RESERVED ** This candidate has been reserved by an organization or individual that will use it when announcing a new security problem. When the candidate has been publicized, the details for this candidate will be provided.",
      "Threats": [
        {
          "Type": "Impact",
          "Severity": "important"
        }
      ],
      "References": [
        {
          "URL": "https://www.suse.com/security/cve/CVE-2024-22232.html",
          "Description": "CVE-2024-22232"
        },
        {
          "URL": "https://bugzilla.suse.com/1219431",
          "Description": "SUSE Bug 1219431"
        }
      ],
      "ProductStatuses": [
        {
          "Type": "Fixed",
          "ProductID": [
            "Container suse/manager/5.0/x86_64/server:latest:python3-salt-3006.0-150500.4.29.1",
            "Container suse/manager/5.0/x86_64/server:latest:salt-3006.0-150500.4.29.1",
            "Container suse/manager/5.0/x86_64/server:latest:salt-api-3006.0-150500.4.29.1",
            "Container suse/manager/5.0/x86_64/server:latest:salt-master-3006.0-150500.4.29.1",
            "Image SLES15-SP5-BYOS-Azure:python3-salt-3006.0-150500.4.29.1",
            "Image SLES15-SP5-BYOS-Azure:salt-3006.0-150500.4.29.1",
            "Image SLES15-SP5-BYOS-Azure:salt-minion-3006.0-150500.4.29.1",
            "Image SLES15-SP5-BYOS-EC2:python3-salt-3006.0-150500.4.29.1",
            "Image SLES15-SP5-BYOS-EC2:salt-3006.0-150500.4.29.1",
            "Image SLES15-SP5-BYOS-EC2:salt-minion-3006.0-150500.4.29.1",
            "Image SLES15-SP5-BYOS-GCE:python3-salt-3006.0-150500.4.29.1",
            "Image SLES15-SP5-BYOS-GCE:salt-3006.0-150500.4.29.1",
            "Image SLES15-SP5-BYOS-GCE:salt-minion-3006.0-150500.4.29.1",
            "Image SLES15-SP5-HPC-BYOS-Azure:python3-salt-3006.0-150500.4.29.1",
            "Image SLES15-SP5-HPC-BYOS-Azure:salt-3006.0-150500.4.29.1",
            "Image SLES15-SP5-HPC-BYOS-Azure:salt-minion-3006.0-150500.4.29.1",
            "Image SLES15-SP5-HPC-BYOS-EC2:python3-salt-3006.0-150500.4.29.1",
            "Image SLES15-SP5-HPC-BYOS-EC2:salt-3006.0-150500.4.29.1",
            "Image SLES15-SP5-HPC-BYOS-EC2:salt-minion-3006.0-150500.4.29.1",
            "Image SLES15-SP5-HPC-BYOS-GCE:python3-salt-3006.0-150500.4.29.1",
            "Image SLES15-SP5-HPC-BYOS-GCE:salt-3006.0-150500.4.29.1",
            "Image SLES15-SP5-HPC-BYOS-GCE:salt-minion-3006.0-150500.4.29.1",
            "Image SLES15-SP5-Hardened-BYOS-Azure:python3-salt-3006.0-150500.4.29.1",
            "Image SLES15-SP5-Hardened-BYOS-Azure:salt-3006.0-150500.4.29.1",
            "Image SLES15-SP5-Hardened-BYOS-Azure:salt-minion-3006.0-150500.4.29.1",
            "Image SLES15-SP5-Hardened-BYOS-EC2:python3-salt-3006.0-150500.4.29.1",
            "Image SLES15-SP5-Hardened-BYOS-EC2:salt-3006.0-150500.4.29.1",
            "Image SLES15-SP5-Hardened-BYOS-EC2:salt-minion-3006.0-150500.4.29.1",
            "Image SLES15-SP5-Hardened-BYOS-GCE:python3-salt-3006.0-150500.4.29.1",
            "Image SLES15-SP5-Hardened-BYOS-GCE:salt-3006.0-150500.4.29.1",
            "Image SLES15-SP5-Hardened-BYOS-GCE:salt-minion-3006.0-150500.4.29.1",
            "Image SLES15-SP5-SAP-BYOS-Azure:python3-salt-3006.0-150500.4.29.1",
            "Image SLES15-SP5-SAP-BYOS-Azure:salt-3006.0-150500.4.29.1",
            "Image SLES15-SP5-SAP-BYOS-Azure:salt-minion-3006.0-150500.4.29.1",
            "Image SLES15-SP5-SAP-BYOS-Azure:salt-standalone-formulas-configuration-3006.0-150500.4.29.1",
            "Image SLES15-SP5-SAP-BYOS-EC2:python3-salt-3006.0-150500.4.29.1",
            "Image SLES15-SP5-SAP-BYOS-EC2:salt-3006.0-150500.4.29.1",
            "Image SLES15-SP5-SAP-BYOS-EC2:salt-minion-3006.0-150500.4.29.1",
            "Image SLES15-SP5-SAP-BYOS-EC2:salt-standalone-formulas-configuration-3006.0-150500.4.29.1",
            "Image SLES15-SP5-SAP-BYOS-GCE:python3-salt-3006.0-150500.4.29.1",
            "Image SLES15-SP5-SAP-BYOS-GCE:salt-3006.0-150500.4.29.1",
            "Image SLES15-SP5-SAP-BYOS-GCE:salt-minion-3006.0-150500.4.29.1",
            "Image SLES15-SP5-SAP-BYOS-GCE:salt-standalone-formulas-configuration-3006.0-150500.4.29.1",
            "Image SLES15-SP5-SAP-Hardened-BYOS-Azure:python3-salt-3006.0-150500.4.29.1",
            "Image SLES15-SP5-SAP-Hardened-BYOS-Azure:salt-3006.0-150500.4.29.1",
            "Image SLES15-SP5-SAP-Hardened-BYOS-Azure:salt-minion-3006.0-150500.4.29.1",
            "Image SLES15-SP5-SAP-Hardened-BYOS-Azure:salt-standalone-formulas-configuration-3006.0-150500.4.29.1",
            "Image SLES15-SP5-SAP-Hardened-BYOS-EC2:python3-salt-3006.0-150500.4.29.1",
            "Image SLES15-SP5-SAP-Hardened-BYOS-EC2:salt-3006.0-150500.4.29.1",
            "Image SLES15-SP5-SAP-Hardened-BYOS-EC2:salt-minion-3006.0-150500.4.29.1",
            "Image SLES15-SP5-SAP-Hardened-BYOS-EC2:salt-standalone-formulas-configuration-3006.0-150500.4.29.1",
            "Image SLES15-SP5-SAP-Hardened-BYOS-GCE:python3-salt-3006.0-150500.4.29.1",
            "Image SLES15-SP5-SAP-Hardened-BYOS-GCE:salt-3006.0-150500.4.29.1",
            "Image SLES15-SP5-SAP-Hardened-BYOS-GCE:salt-minion-3006.0-150500.4.29.1",
            "Image SLES15-SP5-SAP-Hardened-BYOS-GCE:salt-standalone-formulas-configuration-3006.0-150500.4.29.1",
            "SUSE Linux Enterprise Micro 5.5:python3-salt-3006.0-150500.4.29.1",
            "SUSE Linux Enterprise Micro 5.5:salt-3006.0-150500.4.29.1",
            "SUSE Linux Enterprise Micro 5.5:salt-minion-3006.0-150500.4.29.1",
            "SUSE Linux Enterprise Micro 5.5:salt-transactional-update-3006.0-150500.4.29.1",
            "SUSE Linux Enterprise Module for Basesystem 15 SP5:python3-salt-3006.0-150500.4.29.1",
            "SUSE Linux Enterprise Module for Basesystem 15 SP5:salt-3006.0-150500.4.29.1",
            "SUSE Linux Enterprise Module for Basesystem 15 SP5:salt-bash-completion-3006.0-150500.4.29.1",
            "SUSE Linux Enterprise Module for Basesystem 15 SP5:salt-doc-3006.0-150500.4.29.1",
            "SUSE Linux Enterprise Module for Basesystem 15 SP5:salt-minion-3006.0-150500.4.29.1",
            "SUSE Linux Enterprise Module for Basesystem 15 SP5:salt-zsh-completion-3006.0-150500.4.29.1",
            "SUSE Linux Enterprise Module for Server Applications 15 SP5:salt-api-3006.0-150500.4.29.1",
            "SUSE Linux Enterprise Module for Server Applications 15 SP5:salt-cloud-3006.0-150500.4.29.1",
            "SUSE Linux Enterprise Module for Server Applications 15 SP5:salt-fish-completion-3006.0-150500.4.29.1",
            "SUSE Linux Enterprise Module for Server Applications 15 SP5:salt-master-3006.0-150500.4.29.1",
            "SUSE Linux Enterprise Module for Server Applications 15 SP5:salt-proxy-3006.0-150500.4.29.1",
            "SUSE Linux Enterprise Module for Server Applications 15 SP5:salt-ssh-3006.0-150500.4.29.1",
            "SUSE Linux Enterprise Module for Server Applications 15 SP5:salt-standalone-formulas-configuration-3006.0-150500.4.29.1",
            "SUSE Linux Enterprise Module for Server Applications 15 SP5:salt-syndic-3006.0-150500.4.29.1",
            "SUSE Linux Enterprise Module for Transactional Server 15 SP5:salt-transactional-update-3006.0-150500.4.29.1",
            "openSUSE Leap 15.5:python3-salt-3006.0-150500.4.29.1",
            "openSUSE Leap 15.5:salt-3006.0-150500.4.29.1",
            "openSUSE Leap 15.5:salt-api-3006.0-150500.4.29.1",
            "openSUSE Leap 15.5:salt-bash-completion-3006.0-150500.4.29.1",
            "openSUSE Leap 15.5:salt-cloud-3006.0-150500.4.29.1",
            "openSUSE Leap 15.5:salt-doc-3006.0-150500.4.29.1",
            "openSUSE Leap 15.5:salt-fish-completion-3006.0-150500.4.29.1",
            "openSUSE Leap 15.5:salt-master-3006.0-150500.4.29.1",
            "openSUSE Leap 15.5:salt-minion-3006.0-150500.4.29.1",
            "openSUSE Leap 15.5:salt-proxy-3006.0-150500.4.29.1",
            "openSUSE Leap 15.5:salt-ssh-3006.0-150500.4.29.1",
            "openSUSE Leap 15.5:salt-standalone-formulas-configuration-3006.0-150500.4.29.1",
            "openSUSE Leap 15.5:salt-syndic-3006.0-150500.4.29.1",
            "openSUSE Leap 15.5:salt-transactional-update-3006.0-150500.4.29.1",
            "openSUSE Leap 15.5:salt-zsh-completion-3006.0-150500.4.29.1"
          ]
        }
      ],
      "CVSSScoreSets": {}
    }
  ]
}