{
  "Title": "Security update for skopeo",
  "Tracking": {
    "ID": "SUSE-SU-2024:1987-1",
    "Status": "Final",
    "Version": "1",
    "InitialReleaseDate": "2024-06-11T11:48:30Z",
    "CurrentReleaseDate": "2024-06-11T11:48:30Z",
    "RevisionHistory": [
      {
        "Number": "1",
        "Date": "2024-06-11T11:48:30Z",
        "Description": "current"
      }
    ]
  },
  "Notes": [
    {
      "Text": "Security update for skopeo",
      "Title": "Topic",
      "Type": "Summary"
    },
    {
      "Text": "This update for skopeo fixes the following issues:\n\n- Update to version 1.14.4:\n- CVE-2024-3727: Fixed a vulnerability that allows attackers to trigger unexpected authenticated registry accesses on behalf of a victim user, resource exhaustion, local path traversal and other attacks. (bsc#1224123)\n",
      "Title": "Details",
      "Type": "General"
    },
    {
      "Text": "The CVRF data is provided by SUSE under the Creative Commons License 4.0 with Attribution (CC-BY-4.0).",
      "Title": "Terms of Use",
      "Type": "Legal Disclaimer"
    },
    {
      "Text": "SUSE-2024-1987,SUSE-SLE-Micro-5.5-2024-1987,SUSE-SLE-Module-Basesystem-15-SP5-2024-1987,SUSE-SLE-Module-Basesystem-15-SP6-2024-1987,SUSE-SLE-Product-HPC-15-SP3-LTSS-2024-1987,SUSE-SLE-Product-HPC-15-SP4-ESPOS-2024-1987,SUSE-SLE-Product-HPC-15-SP4-LTSS-2024-1987,SUSE-SLE-Product-SLED-15-SP4-LTSS-2024-1987,SUSE-SLE-Product-SLES-15-SP3-LTSS-2024-1987,SUSE-SLE-Product-SLES-15-SP4-LTSS-2024-1987,SUSE-SLE-Product-SLES_SAP-15-SP3-2024-1987,SUSE-SLE-Product-SLES_SAP-15-SP4-2024-1987,SUSE-SLE-Product-SUSE-Manager-Proxy-4.3-2024-1987,SUSE-SLE-Product-SUSE-Manager-Server-4.3-2024-1987,SUSE-Storage-7.1-2024-1987,openSUSE-SLE-15.5-2024-1987,openSUSE-SLE-15.6-2024-1987",
      "Title": "Patchnames",
      "Type": "Details"
    }
  ],
  "ProductTree": {
    "Relationships": [
      {
        "ProductReference": "skopeo-1.14.4-150300.11.11.1",
        "RelatesToProductReference": "SUSE Enterprise Storage 7.1",
        "RelationType": "Default Component Of"
      },
      {
        "ProductReference": "skopeo-1.14.4-150300.11.11.1",
        "RelatesToProductReference": "SUSE Linux Enterprise High Performance Computing 15 SP3-LTSS",
        "RelationType": "Default Component Of"
      },
      {
        "ProductReference": "skopeo-1.14.4-150300.11.11.1",
        "RelatesToProductReference": "SUSE Linux Enterprise High Performance Computing 15 SP4-ESPOS",
        "RelationType": "Default Component Of"
      },
      {
        "ProductReference": "skopeo-1.14.4-150300.11.11.1",
        "RelatesToProductReference": "SUSE Linux Enterprise High Performance Computing 15 SP4-LTSS",
        "RelationType": "Default Component Of"
      },
      {
        "ProductReference": "skopeo-1.14.4-150300.11.11.1",
        "RelatesToProductReference": "SUSE Linux Enterprise Micro 5.5",
        "RelationType": "Default Component Of"
      },
      {
        "ProductReference": "skopeo-1.14.4-150300.11.11.1",
        "RelatesToProductReference": "SUSE Linux Enterprise Module for Basesystem 15 SP5",
        "RelationType": "Default Component Of"
      },
      {
        "ProductReference": "skopeo-1.14.4-150300.11.11.1",
        "RelatesToProductReference": "SUSE Linux Enterprise Module for Basesystem 15 SP6",
        "RelationType": "Default Component Of"
      },
      {
        "ProductReference": "skopeo-bash-completion-1.14.4-150300.11.11.1",
        "RelatesToProductReference": "SUSE Linux Enterprise Module for Basesystem 15 SP6",
        "RelationType": "Default Component Of"
      },
      {
        "ProductReference": "skopeo-zsh-completion-1.14.4-150300.11.11.1",
        "RelatesToProductReference": "SUSE Linux Enterprise Module for Basesystem 15 SP6",
        "RelationType": "Default Component Of"
      },
      {
        "ProductReference": "skopeo-1.14.4-150300.11.11.1",
        "RelatesToProductReference": "SUSE Linux Enterprise Server 15 SP3-LTSS",
        "RelationType": "Default Component Of"
      },
      {
        "ProductReference": "skopeo-1.14.4-150300.11.11.1",
        "RelatesToProductReference": "SUSE Linux Enterprise Server 15 SP4-LTSS",
        "RelationType": "Default Component Of"
      },
      {
        "ProductReference": "skopeo-1.14.4-150300.11.11.1",
        "RelatesToProductReference": "SUSE Linux Enterprise Server for SAP Applications 15 SP3",
        "RelationType": "Default Component Of"
      },
      {
        "ProductReference": "skopeo-1.14.4-150300.11.11.1",
        "RelatesToProductReference": "SUSE Linux Enterprise Server for SAP Applications 15 SP4",
        "RelationType": "Default Component Of"
      },
      {
        "ProductReference": "skopeo-1.14.4-150300.11.11.1",
        "RelatesToProductReference": "SUSE Manager Proxy 4.3",
        "RelationType": "Default Component Of"
      },
      {
        "ProductReference": "skopeo-1.14.4-150300.11.11.1",
        "RelatesToProductReference": "SUSE Manager Server 4.3",
        "RelationType": "Default Component Of"
      },
      {
        "ProductReference": "skopeo-1.14.4-150300.11.11.1",
        "RelatesToProductReference": "openSUSE Leap 15.5",
        "RelationType": "Default Component Of"
      },
      {
        "ProductReference": "skopeo-1.14.4-150300.11.11.1",
        "RelatesToProductReference": "openSUSE Leap 15.6",
        "RelationType": "Default Component Of"
      },
      {
        "ProductReference": "skopeo-bash-completion-1.14.4-150300.11.11.1",
        "RelatesToProductReference": "openSUSE Leap 15.6",
        "RelationType": "Default Component Of"
      },
      {
        "ProductReference": "skopeo-fish-completion-1.14.4-150300.11.11.1",
        "RelatesToProductReference": "openSUSE Leap 15.6",
        "RelationType": "Default Component Of"
      },
      {
        "ProductReference": "skopeo-zsh-completion-1.14.4-150300.11.11.1",
        "RelatesToProductReference": "openSUSE Leap 15.6",
        "RelationType": "Default Component Of"
      }
    ]
  },
  "References": [
    {
      "URL": "https://www.suse.com/support/update/announcement/2024/suse-su-20241987-1/",
      "Description": "Link for SUSE-SU-2024:1987-1"
    },
    {
      "URL": "https://lists.suse.com/pipermail/sle-updates/2024-June/035548.html",
      "Description": "E-Mail link for SUSE-SU-2024:1987-1"
    },
    {
      "URL": "https://www.suse.com/support/security/rating/",
      "Description": "SUSE Security Ratings"
    },
    {
      "URL": "https://bugzilla.suse.com/1224123",
      "Description": "SUSE Bug 1224123"
    },
    {
      "URL": "https://www.suse.com/security/cve/CVE-2024-28180/",
      "Description": "SUSE CVE CVE-2024-28180 page"
    },
    {
      "URL": "https://www.suse.com/security/cve/CVE-2024-3727/",
      "Description": "SUSE CVE CVE-2024-3727 page"
    }
  ],
  "Vulnerabilities": [
    {
      "CVE": "CVE-2024-28180",
      "Description": "Package jose aims to provide an implementation of the Javascript Object Signing and Encryption set of standards. An attacker could send a JWE containing compressed data that used large amounts of memory and CPU when decompressed by Decrypt or DecryptMulti. Those functions now return an error if the decompressed data would exceed 250kB or 10x the compressed size (whichever is larger). This vulnerability has been patched in versions 4.0.1, 3.0.3 and 2.6.3.\n",
      "Threats": [
        {
          "Type": "Impact",
          "Severity": "important"
        }
      ],
      "References": [
        {
          "URL": "https://www.suse.com/security/cve/CVE-2024-28180.html",
          "Description": "CVE-2024-28180"
        }
      ],
      "ProductStatuses": [
        {
          "Type": "Fixed",
          "ProductID": [
            "SUSE Enterprise Storage 7.1:skopeo-1.14.4-150300.11.11.1",
            "SUSE Linux Enterprise High Performance Computing 15 SP3-LTSS:skopeo-1.14.4-150300.11.11.1",
            "SUSE Linux Enterprise High Performance Computing 15 SP4-ESPOS:skopeo-1.14.4-150300.11.11.1",
            "SUSE Linux Enterprise High Performance Computing 15 SP4-LTSS:skopeo-1.14.4-150300.11.11.1",
            "SUSE Linux Enterprise Micro 5.5:skopeo-1.14.4-150300.11.11.1",
            "SUSE Linux Enterprise Module for Basesystem 15 SP5:skopeo-1.14.4-150300.11.11.1",
            "SUSE Linux Enterprise Module for Basesystem 15 SP6:skopeo-1.14.4-150300.11.11.1",
            "SUSE Linux Enterprise Module for Basesystem 15 SP6:skopeo-bash-completion-1.14.4-150300.11.11.1",
            "SUSE Linux Enterprise Module for Basesystem 15 SP6:skopeo-zsh-completion-1.14.4-150300.11.11.1",
            "SUSE Linux Enterprise Server 15 SP3-LTSS:skopeo-1.14.4-150300.11.11.1",
            "SUSE Linux Enterprise Server 15 SP4-LTSS:skopeo-1.14.4-150300.11.11.1",
            "SUSE Linux Enterprise Server for SAP Applications 15 SP3:skopeo-1.14.4-150300.11.11.1",
            "SUSE Linux Enterprise Server for SAP Applications 15 SP4:skopeo-1.14.4-150300.11.11.1",
            "SUSE Manager Proxy 4.3:skopeo-1.14.4-150300.11.11.1",
            "SUSE Manager Server 4.3:skopeo-1.14.4-150300.11.11.1",
            "openSUSE Leap 15.5:skopeo-1.14.4-150300.11.11.1",
            "openSUSE Leap 15.6:skopeo-1.14.4-150300.11.11.1",
            "openSUSE Leap 15.6:skopeo-bash-completion-1.14.4-150300.11.11.1",
            "openSUSE Leap 15.6:skopeo-fish-completion-1.14.4-150300.11.11.1",
            "openSUSE Leap 15.6:skopeo-zsh-completion-1.14.4-150300.11.11.1"
          ]
        }
      ],
      "CVSSScoreSets": {}
    },
    {
      "CVE": "CVE-2024-3727",
      "Description": "A flaw was found in the github.com/containers/image library. This flaw allows attackers to trigger unexpected authenticated registry accesses on behalf of a victim user, causing resource exhaustion, local path traversal, and other attacks.",
      "Threats": [
        {
          "Type": "Impact",
          "Severity": "important"
        }
      ],
      "References": [
        {
          "URL": "https://www.suse.com/security/cve/CVE-2024-3727.html",
          "Description": "CVE-2024-3727"
        },
        {
          "URL": "https://bugzilla.suse.com/1224112",
          "Description": "SUSE Bug 1224112"
        }
      ],
      "ProductStatuses": [
        {
          "Type": "Fixed",
          "ProductID": [
            "SUSE Enterprise Storage 7.1:skopeo-1.14.4-150300.11.11.1",
            "SUSE Linux Enterprise High Performance Computing 15 SP3-LTSS:skopeo-1.14.4-150300.11.11.1",
            "SUSE Linux Enterprise High Performance Computing 15 SP4-ESPOS:skopeo-1.14.4-150300.11.11.1",
            "SUSE Linux Enterprise High Performance Computing 15 SP4-LTSS:skopeo-1.14.4-150300.11.11.1",
            "SUSE Linux Enterprise Micro 5.5:skopeo-1.14.4-150300.11.11.1",
            "SUSE Linux Enterprise Module for Basesystem 15 SP5:skopeo-1.14.4-150300.11.11.1",
            "SUSE Linux Enterprise Module for Basesystem 15 SP6:skopeo-1.14.4-150300.11.11.1",
            "SUSE Linux Enterprise Module for Basesystem 15 SP6:skopeo-bash-completion-1.14.4-150300.11.11.1",
            "SUSE Linux Enterprise Module for Basesystem 15 SP6:skopeo-zsh-completion-1.14.4-150300.11.11.1",
            "SUSE Linux Enterprise Server 15 SP3-LTSS:skopeo-1.14.4-150300.11.11.1",
            "SUSE Linux Enterprise Server 15 SP4-LTSS:skopeo-1.14.4-150300.11.11.1",
            "SUSE Linux Enterprise Server for SAP Applications 15 SP3:skopeo-1.14.4-150300.11.11.1",
            "SUSE Linux Enterprise Server for SAP Applications 15 SP4:skopeo-1.14.4-150300.11.11.1",
            "SUSE Manager Proxy 4.3:skopeo-1.14.4-150300.11.11.1",
            "SUSE Manager Server 4.3:skopeo-1.14.4-150300.11.11.1",
            "openSUSE Leap 15.5:skopeo-1.14.4-150300.11.11.1",
            "openSUSE Leap 15.6:skopeo-1.14.4-150300.11.11.1",
            "openSUSE Leap 15.6:skopeo-bash-completion-1.14.4-150300.11.11.1",
            "openSUSE Leap 15.6:skopeo-fish-completion-1.14.4-150300.11.11.1",
            "openSUSE Leap 15.6:skopeo-zsh-completion-1.14.4-150300.11.11.1"
          ]
        }
      ],
      "CVSSScoreSets": {}
    }
  ]
}