{
  "Title": "Security update for nghttp2",
  "Tracking": {
    "ID": "SUSE-SU-2024:1156-1",
    "Status": "Final",
    "Version": "1",
    "InitialReleaseDate": "2024-04-08T11:21:55Z",
    "CurrentReleaseDate": "2024-04-08T11:21:55Z",
    "RevisionHistory": [
      {
        "Number": "1",
        "Date": "2024-04-08T11:21:55Z",
        "Description": "current"
      }
    ]
  },
  "Notes": [
    {
      "Text": "Security update for nghttp2",
      "Title": "Topic",
      "Type": "Summary"
    },
    {
      "Text": "This update for nghttp2 fixes the following issues:\n\n- CVE-2024-28182: Fixed denial of service via http/2 continuation frames (bsc#1221399)\n",
      "Title": "Details",
      "Type": "General"
    },
    {
      "Text": "The CVRF data is provided by SUSE under the Creative Commons License 4.0 with Attribution (CC-BY-4.0).",
      "Title": "Terms of Use",
      "Type": "Legal Disclaimer"
    },
    {
      "Text": "Container suse/sles12sp5:latest-2024-1156,Image SLES12-SP5-Azure-BYOS-2024-1156,Image SLES12-SP5-Azure-Basic-On-Demand-2024-1156,Image SLES12-SP5-Azure-HPC-BYOS-2024-1156,Image SLES12-SP5-Azure-HPC-On-Demand-2024-1156,Image SLES12-SP5-Azure-SAP-BYOS-2024-1156,Image SLES12-SP5-Azure-SAP-On-Demand-2024-1156,Image SLES12-SP5-Azure-Standard-On-Demand-2024-1156,Image SLES12-SP5-EC2-BYOS-2024-1156,Image SLES12-SP5-EC2-On-Demand-2024-1156,Image SLES12-SP5-EC2-SAP-BYOS-2024-1156,Image SLES12-SP5-EC2-SAP-On-Demand-2024-1156,Image SLES12-SP5-GCE-BYOS-2024-1156,Image SLES12-SP5-GCE-On-Demand-2024-1156,Image SLES12-SP5-GCE-SAP-BYOS-2024-1156,Image SLES12-SP5-GCE-SAP-On-Demand-2024-1156,Image SLES12-SP5-SAP-Azure-LI-BYOS-Production-2024-1156,Image SLES12-SP5-SAP-Azure-VLI-BYOS-Production-2024-1156,SUSE-2024-1156,SUSE-SLE-SDK-12-SP5-2024-1156,SUSE-SLE-SERVER-12-SP5-2024-1156",
      "Title": "Patchnames",
      "Type": "Details"
    }
  ],
  "ProductTree": {
    "Relationships": [
      {
        "ProductReference": "libnghttp2-14-1.39.2-3.18.1",
        "RelatesToProductReference": "Container suse/sles12sp5:latest",
        "RelationType": "Default Component Of"
      },
      {
        "ProductReference": "libnghttp2-14-1.39.2-3.18.1",
        "RelatesToProductReference": "Image SLES12-SP5-Azure-BYOS",
        "RelationType": "Default Component Of"
      },
      {
        "ProductReference": "libnghttp2-14-1.39.2-3.18.1",
        "RelatesToProductReference": "Image SLES12-SP5-Azure-Basic-On-Demand",
        "RelationType": "Default Component Of"
      },
      {
        "ProductReference": "libnghttp2-14-1.39.2-3.18.1",
        "RelatesToProductReference": "Image SLES12-SP5-Azure-HPC-BYOS",
        "RelationType": "Default Component Of"
      },
      {
        "ProductReference": "libnghttp2-14-1.39.2-3.18.1",
        "RelatesToProductReference": "Image SLES12-SP5-Azure-HPC-On-Demand",
        "RelationType": "Default Component Of"
      },
      {
        "ProductReference": "libnghttp2-14-1.39.2-3.18.1",
        "RelatesToProductReference": "Image SLES12-SP5-Azure-SAP-BYOS",
        "RelationType": "Default Component Of"
      },
      {
        "ProductReference": "libnghttp2-14-1.39.2-3.18.1",
        "RelatesToProductReference": "Image SLES12-SP5-Azure-SAP-On-Demand",
        "RelationType": "Default Component Of"
      },
      {
        "ProductReference": "libnghttp2-14-1.39.2-3.18.1",
        "RelatesToProductReference": "Image SLES12-SP5-Azure-Standard-On-Demand",
        "RelationType": "Default Component Of"
      },
      {
        "ProductReference": "libnghttp2-14-1.39.2-3.18.1",
        "RelatesToProductReference": "Image SLES12-SP5-EC2-BYOS",
        "RelationType": "Default Component Of"
      },
      {
        "ProductReference": "libnghttp2-14-1.39.2-3.18.1",
        "RelatesToProductReference": "Image SLES12-SP5-EC2-On-Demand",
        "RelationType": "Default Component Of"
      },
      {
        "ProductReference": "libnghttp2-14-1.39.2-3.18.1",
        "RelatesToProductReference": "Image SLES12-SP5-EC2-SAP-BYOS",
        "RelationType": "Default Component Of"
      },
      {
        "ProductReference": "libnghttp2-14-1.39.2-3.18.1",
        "RelatesToProductReference": "Image SLES12-SP5-EC2-SAP-On-Demand",
        "RelationType": "Default Component Of"
      },
      {
        "ProductReference": "libnghttp2-14-1.39.2-3.18.1",
        "RelatesToProductReference": "Image SLES12-SP5-GCE-BYOS",
        "RelationType": "Default Component Of"
      },
      {
        "ProductReference": "libnghttp2-14-1.39.2-3.18.1",
        "RelatesToProductReference": "Image SLES12-SP5-GCE-On-Demand",
        "RelationType": "Default Component Of"
      },
      {
        "ProductReference": "libnghttp2-14-1.39.2-3.18.1",
        "RelatesToProductReference": "Image SLES12-SP5-GCE-SAP-BYOS",
        "RelationType": "Default Component Of"
      },
      {
        "ProductReference": "libnghttp2-14-1.39.2-3.18.1",
        "RelatesToProductReference": "Image SLES12-SP5-GCE-SAP-On-Demand",
        "RelationType": "Default Component Of"
      },
      {
        "ProductReference": "libnghttp2-14-1.39.2-3.18.1",
        "RelatesToProductReference": "Image SLES12-SP5-SAP-Azure-LI-BYOS-Production",
        "RelationType": "Default Component Of"
      },
      {
        "ProductReference": "libnghttp2-14-1.39.2-3.18.1",
        "RelatesToProductReference": "Image SLES12-SP5-SAP-Azure-VLI-BYOS-Production",
        "RelationType": "Default Component Of"
      },
      {
        "ProductReference": "libnghttp2-14-1.39.2-3.18.1",
        "RelatesToProductReference": "SUSE Linux Enterprise Server 12 SP5",
        "RelationType": "Default Component Of"
      },
      {
        "ProductReference": "libnghttp2-14-32bit-1.39.2-3.18.1",
        "RelatesToProductReference": "SUSE Linux Enterprise Server 12 SP5",
        "RelationType": "Default Component Of"
      },
      {
        "ProductReference": "libnghttp2-14-1.39.2-3.18.1",
        "RelatesToProductReference": "SUSE Linux Enterprise Server for SAP Applications 12 SP5",
        "RelationType": "Default Component Of"
      },
      {
        "ProductReference": "libnghttp2-14-32bit-1.39.2-3.18.1",
        "RelatesToProductReference": "SUSE Linux Enterprise Server for SAP Applications 12 SP5",
        "RelationType": "Default Component Of"
      },
      {
        "ProductReference": "libnghttp2-devel-1.39.2-3.18.1",
        "RelatesToProductReference": "SUSE Linux Enterprise Software Development Kit 12 SP5",
        "RelationType": "Default Component Of"
      }
    ]
  },
  "References": [
    {
      "URL": "https://www.suse.com/support/update/announcement/2024/suse-su-20241156-1/",
      "Description": "Link for SUSE-SU-2024:1156-1"
    },
    {
      "URL": "https://lists.suse.com/pipermail/sle-updates/2024-April/034867.html",
      "Description": "E-Mail link for SUSE-SU-2024:1156-1"
    },
    {
      "URL": "https://www.suse.com/support/security/rating/",
      "Description": "SUSE Security Ratings"
    },
    {
      "URL": "https://bugzilla.suse.com/1221399",
      "Description": "SUSE Bug 1221399"
    },
    {
      "URL": "https://www.suse.com/security/cve/CVE-2024-28182/",
      "Description": "SUSE CVE CVE-2024-28182 page"
    }
  ],
  "Vulnerabilities": [
    {
      "CVE": "CVE-2024-28182",
      "Description": "nghttp2 is an implementation of the Hypertext Transfer Protocol version 2 in C. The nghttp2 library prior to version 1.61.0 keeps reading the unbounded number of HTTP/2 CONTINUATION frames even after a stream is reset to keep HPACK context in sync.  This causes excessive CPU usage to decode HPACK stream. nghttp2 v1.61.0 mitigates this vulnerability by limiting the number of CONTINUATION frames it accepts per stream. There is no workaround for this vulnerability.",
      "Threats": [
        {
          "Type": "Impact",
          "Severity": "important"
        }
      ],
      "References": [
        {
          "URL": "https://www.suse.com/security/cve/CVE-2024-28182.html",
          "Description": "CVE-2024-28182"
        },
        {
          "URL": "https://bugzilla.suse.com/1221399",
          "Description": "SUSE Bug 1221399"
        }
      ],
      "ProductStatuses": [
        {
          "Type": "Fixed",
          "ProductID": [
            "Container suse/sles12sp5:latest:libnghttp2-14-1.39.2-3.18.1",
            "Image SLES12-SP5-Azure-BYOS:libnghttp2-14-1.39.2-3.18.1",
            "Image SLES12-SP5-Azure-Basic-On-Demand:libnghttp2-14-1.39.2-3.18.1",
            "Image SLES12-SP5-Azure-HPC-BYOS:libnghttp2-14-1.39.2-3.18.1",
            "Image SLES12-SP5-Azure-HPC-On-Demand:libnghttp2-14-1.39.2-3.18.1",
            "Image SLES12-SP5-Azure-SAP-BYOS:libnghttp2-14-1.39.2-3.18.1",
            "Image SLES12-SP5-Azure-SAP-On-Demand:libnghttp2-14-1.39.2-3.18.1",
            "Image SLES12-SP5-Azure-Standard-On-Demand:libnghttp2-14-1.39.2-3.18.1",
            "Image SLES12-SP5-EC2-BYOS:libnghttp2-14-1.39.2-3.18.1",
            "Image SLES12-SP5-EC2-On-Demand:libnghttp2-14-1.39.2-3.18.1",
            "Image SLES12-SP5-EC2-SAP-BYOS:libnghttp2-14-1.39.2-3.18.1",
            "Image SLES12-SP5-EC2-SAP-On-Demand:libnghttp2-14-1.39.2-3.18.1",
            "Image SLES12-SP5-GCE-BYOS:libnghttp2-14-1.39.2-3.18.1",
            "Image SLES12-SP5-GCE-On-Demand:libnghttp2-14-1.39.2-3.18.1",
            "Image SLES12-SP5-GCE-SAP-BYOS:libnghttp2-14-1.39.2-3.18.1",
            "Image SLES12-SP5-GCE-SAP-On-Demand:libnghttp2-14-1.39.2-3.18.1",
            "Image SLES12-SP5-SAP-Azure-LI-BYOS-Production:libnghttp2-14-1.39.2-3.18.1",
            "Image SLES12-SP5-SAP-Azure-VLI-BYOS-Production:libnghttp2-14-1.39.2-3.18.1",
            "SUSE Linux Enterprise Server 12 SP5:libnghttp2-14-1.39.2-3.18.1",
            "SUSE Linux Enterprise Server 12 SP5:libnghttp2-14-32bit-1.39.2-3.18.1",
            "SUSE Linux Enterprise Server for SAP Applications 12 SP5:libnghttp2-14-1.39.2-3.18.1",
            "SUSE Linux Enterprise Server for SAP Applications 12 SP5:libnghttp2-14-32bit-1.39.2-3.18.1",
            "SUSE Linux Enterprise Software Development Kit 12 SP5:libnghttp2-devel-1.39.2-3.18.1"
          ]
        }
      ],
      "CVSSScoreSets": {}
    }
  ]
}