{
  "Title": "Security update for python311",
  "Tracking": {
    "ID": "SUSE-SU-2024:0782-1",
    "Status": "Final",
    "Version": "1",
    "InitialReleaseDate": "2024-03-06T15:33:50Z",
    "CurrentReleaseDate": "2024-03-06T15:33:50Z",
    "RevisionHistory": [
      {
        "Number": "1",
        "Date": "2024-03-06T15:33:50Z",
        "Description": "current"
      }
    ]
  },
  "Notes": [
    {
      "Text": "Security update for python311",
      "Title": "Topic",
      "Type": "Summary"
    },
    {
      "Text": "This update for python311 fixes the following issues:\n\n- CVE-2023-6597: Fixed symlink bug in cleanup of tempfile.TemporaryDirectory (bsc#1219666).\n- CVE-2023-27043: Fixed incorrect e-mqil parsing (bsc#1210638).\n- CVE-2022-25236: Fixed an expat vulnerability by supporting expat \u003e= 2.4.4 (bsc#1212015).\n",
      "Title": "Details",
      "Type": "General"
    },
    {
      "Text": "The CVRF data is provided by SUSE under the Creative Commons License 4.0 with Attribution (CC-BY-4.0).",
      "Title": "Terms of Use",
      "Type": "Legal Disclaimer"
    },
    {
      "Text": "Container bci/python:latest-2024-782,Image SLES15-SP4-Manager-Proxy-4-3-BYOS-2024-782,Image SLES15-SP4-Manager-Proxy-4-3-BYOS-EC2-2024-782,Image SLES15-SP4-Manager-Server-4-3-BYOS-2024-782,Image SLES15-SP4-Manager-Server-4-3-BYOS-Azure-2024-782,Image SLES15-SP4-Manager-Server-4-3-BYOS-EC2-2024-782,Image SLES15-SP5-BYOS-EC2-2024-782,Image SLES15-SP5-EC2-2024-782,Image SLES15-SP5-HPC-BYOS-EC2-2024-782,Image SLES15-SP5-SAP-BYOS-EC2-2024-782,Image SLES15-SP5-SAPCAL-EC2-2024-782,SUSE-2024-782,SUSE-SLE-Module-Python3-15-SP5-2024-782,SUSE-SLE-Product-HPC-15-SP4-ESPOS-2024-782,SUSE-SLE-Product-HPC-15-SP4-LTSS-2024-782,SUSE-SLE-Product-SLED-15-SP4-LTSS-2024-782,SUSE-SLE-Product-SLES-15-SP4-LTSS-2024-782,SUSE-SLE-Product-SLES_SAP-15-SP4-2024-782,openSUSE-SLE-15.5-2024-782",
      "Title": "Patchnames",
      "Type": "Details"
    }
  ],
  "ProductTree": {
    "Relationships": [
      {
        "ProductReference": "libpython3_11-1_0-3.11.8-150400.9.23.1",
        "RelatesToProductReference": "Container bci/python:latest",
        "RelationType": "Default Component Of"
      },
      {
        "ProductReference": "python311-3.11.8-150400.9.23.1",
        "RelatesToProductReference": "Container bci/python:latest",
        "RelationType": "Default Component Of"
      },
      {
        "ProductReference": "python311-base-3.11.8-150400.9.23.1",
        "RelatesToProductReference": "Container bci/python:latest",
        "RelationType": "Default Component Of"
      },
      {
        "ProductReference": "python311-devel-3.11.8-150400.9.23.1",
        "RelatesToProductReference": "Container bci/python:latest",
        "RelationType": "Default Component Of"
      },
      {
        "ProductReference": "libpython3_11-1_0-3.11.8-150400.9.23.1",
        "RelatesToProductReference": "Image SLES15-SP4-Manager-Proxy-4-3-BYOS",
        "RelationType": "Default Component Of"
      },
      {
        "ProductReference": "python311-3.11.8-150400.9.23.1",
        "RelatesToProductReference": "Image SLES15-SP4-Manager-Proxy-4-3-BYOS",
        "RelationType": "Default Component Of"
      },
      {
        "ProductReference": "python311-base-3.11.8-150400.9.23.1",
        "RelatesToProductReference": "Image SLES15-SP4-Manager-Proxy-4-3-BYOS",
        "RelationType": "Default Component Of"
      },
      {
        "ProductReference": "libpython3_11-1_0-3.11.8-150400.9.23.1",
        "RelatesToProductReference": "Image SLES15-SP4-Manager-Proxy-4-3-BYOS-EC2",
        "RelationType": "Default Component Of"
      },
      {
        "ProductReference": "python311-3.11.8-150400.9.23.1",
        "RelatesToProductReference": "Image SLES15-SP4-Manager-Proxy-4-3-BYOS-EC2",
        "RelationType": "Default Component Of"
      },
      {
        "ProductReference": "python311-base-3.11.8-150400.9.23.1",
        "RelatesToProductReference": "Image SLES15-SP4-Manager-Proxy-4-3-BYOS-EC2",
        "RelationType": "Default Component Of"
      },
      {
        "ProductReference": "libpython3_11-1_0-3.11.8-150400.9.23.1",
        "RelatesToProductReference": "Image SLES15-SP4-Manager-Server-4-3-BYOS",
        "RelationType": "Default Component Of"
      },
      {
        "ProductReference": "python311-3.11.8-150400.9.23.1",
        "RelatesToProductReference": "Image SLES15-SP4-Manager-Server-4-3-BYOS",
        "RelationType": "Default Component Of"
      },
      {
        "ProductReference": "python311-base-3.11.8-150400.9.23.1",
        "RelatesToProductReference": "Image SLES15-SP4-Manager-Server-4-3-BYOS",
        "RelationType": "Default Component Of"
      },
      {
        "ProductReference": "libpython3_11-1_0-3.11.8-150400.9.23.1",
        "RelatesToProductReference": "Image SLES15-SP4-Manager-Server-4-3-BYOS-Azure",
        "RelationType": "Default Component Of"
      },
      {
        "ProductReference": "python311-3.11.8-150400.9.23.1",
        "RelatesToProductReference": "Image SLES15-SP4-Manager-Server-4-3-BYOS-Azure",
        "RelationType": "Default Component Of"
      },
      {
        "ProductReference": "python311-base-3.11.8-150400.9.23.1",
        "RelatesToProductReference": "Image SLES15-SP4-Manager-Server-4-3-BYOS-Azure",
        "RelationType": "Default Component Of"
      },
      {
        "ProductReference": "libpython3_11-1_0-3.11.8-150400.9.23.1",
        "RelatesToProductReference": "Image SLES15-SP4-Manager-Server-4-3-BYOS-EC2",
        "RelationType": "Default Component Of"
      },
      {
        "ProductReference": "python311-3.11.8-150400.9.23.1",
        "RelatesToProductReference": "Image SLES15-SP4-Manager-Server-4-3-BYOS-EC2",
        "RelationType": "Default Component Of"
      },
      {
        "ProductReference": "python311-base-3.11.8-150400.9.23.1",
        "RelatesToProductReference": "Image SLES15-SP4-Manager-Server-4-3-BYOS-EC2",
        "RelationType": "Default Component Of"
      },
      {
        "ProductReference": "libpython3_11-1_0-3.11.8-150400.9.23.1",
        "RelatesToProductReference": "Image SLES15-SP5-BYOS-EC2",
        "RelationType": "Default Component Of"
      },
      {
        "ProductReference": "python311-3.11.8-150400.9.23.1",
        "RelatesToProductReference": "Image SLES15-SP5-BYOS-EC2",
        "RelationType": "Default Component Of"
      },
      {
        "ProductReference": "python311-base-3.11.8-150400.9.23.1",
        "RelatesToProductReference": "Image SLES15-SP5-BYOS-EC2",
        "RelationType": "Default Component Of"
      },
      {
        "ProductReference": "libpython3_11-1_0-3.11.8-150400.9.23.1",
        "RelatesToProductReference": "Image SLES15-SP5-EC2",
        "RelationType": "Default Component Of"
      },
      {
        "ProductReference": "python311-3.11.8-150400.9.23.1",
        "RelatesToProductReference": "Image SLES15-SP5-EC2",
        "RelationType": "Default Component Of"
      },
      {
        "ProductReference": "python311-base-3.11.8-150400.9.23.1",
        "RelatesToProductReference": "Image SLES15-SP5-EC2",
        "RelationType": "Default Component Of"
      },
      {
        "ProductReference": "libpython3_11-1_0-3.11.8-150400.9.23.1",
        "RelatesToProductReference": "Image SLES15-SP5-HPC-BYOS-EC2",
        "RelationType": "Default Component Of"
      },
      {
        "ProductReference": "python311-3.11.8-150400.9.23.1",
        "RelatesToProductReference": "Image SLES15-SP5-HPC-BYOS-EC2",
        "RelationType": "Default Component Of"
      },
      {
        "ProductReference": "python311-base-3.11.8-150400.9.23.1",
        "RelatesToProductReference": "Image SLES15-SP5-HPC-BYOS-EC2",
        "RelationType": "Default Component Of"
      },
      {
        "ProductReference": "libpython3_11-1_0-3.11.8-150400.9.23.1",
        "RelatesToProductReference": "Image SLES15-SP5-SAP-BYOS-EC2",
        "RelationType": "Default Component Of"
      },
      {
        "ProductReference": "python311-3.11.8-150400.9.23.1",
        "RelatesToProductReference": "Image SLES15-SP5-SAP-BYOS-EC2",
        "RelationType": "Default Component Of"
      },
      {
        "ProductReference": "python311-base-3.11.8-150400.9.23.1",
        "RelatesToProductReference": "Image SLES15-SP5-SAP-BYOS-EC2",
        "RelationType": "Default Component Of"
      },
      {
        "ProductReference": "libpython3_11-1_0-3.11.8-150400.9.23.1",
        "RelatesToProductReference": "Image SLES15-SP5-SAPCAL-EC2",
        "RelationType": "Default Component Of"
      },
      {
        "ProductReference": "python311-3.11.8-150400.9.23.1",
        "RelatesToProductReference": "Image SLES15-SP5-SAPCAL-EC2",
        "RelationType": "Default Component Of"
      },
      {
        "ProductReference": "python311-base-3.11.8-150400.9.23.1",
        "RelatesToProductReference": "Image SLES15-SP5-SAPCAL-EC2",
        "RelationType": "Default Component Of"
      },
      {
        "ProductReference": "libpython3_11-1_0-3.11.8-150400.9.23.1",
        "RelatesToProductReference": "SUSE Linux Enterprise High Performance Computing 15 SP4-ESPOS",
        "RelationType": "Default Component Of"
      },
      {
        "ProductReference": "python311-3.11.8-150400.9.23.1",
        "RelatesToProductReference": "SUSE Linux Enterprise High Performance Computing 15 SP4-ESPOS",
        "RelationType": "Default Component Of"
      },
      {
        "ProductReference": "python311-base-3.11.8-150400.9.23.1",
        "RelatesToProductReference": "SUSE Linux Enterprise High Performance Computing 15 SP4-ESPOS",
        "RelationType": "Default Component Of"
      },
      {
        "ProductReference": "python311-curses-3.11.8-150400.9.23.1",
        "RelatesToProductReference": "SUSE Linux Enterprise High Performance Computing 15 SP4-ESPOS",
        "RelationType": "Default Component Of"
      },
      {
        "ProductReference": "python311-dbm-3.11.8-150400.9.23.1",
        "RelatesToProductReference": "SUSE Linux Enterprise High Performance Computing 15 SP4-ESPOS",
        "RelationType": "Default Component Of"
      },
      {
        "ProductReference": "python311-devel-3.11.8-150400.9.23.1",
        "RelatesToProductReference": "SUSE Linux Enterprise High Performance Computing 15 SP4-ESPOS",
        "RelationType": "Default Component Of"
      },
      {
        "ProductReference": "python311-doc-3.11.8-150400.9.23.1",
        "RelatesToProductReference": "SUSE Linux Enterprise High Performance Computing 15 SP4-ESPOS",
        "RelationType": "Default Component Of"
      },
      {
        "ProductReference": "python311-doc-devhelp-3.11.8-150400.9.23.1",
        "RelatesToProductReference": "SUSE Linux Enterprise High Performance Computing 15 SP4-ESPOS",
        "RelationType": "Default Component Of"
      },
      {
        "ProductReference": "python311-idle-3.11.8-150400.9.23.1",
        "RelatesToProductReference": "SUSE Linux Enterprise High Performance Computing 15 SP4-ESPOS",
        "RelationType": "Default Component Of"
      },
      {
        "ProductReference": "python311-tk-3.11.8-150400.9.23.1",
        "RelatesToProductReference": "SUSE Linux Enterprise High Performance Computing 15 SP4-ESPOS",
        "RelationType": "Default Component Of"
      },
      {
        "ProductReference": "python311-tools-3.11.8-150400.9.23.1",
        "RelatesToProductReference": "SUSE Linux Enterprise High Performance Computing 15 SP4-ESPOS",
        "RelationType": "Default Component Of"
      },
      {
        "ProductReference": "libpython3_11-1_0-3.11.8-150400.9.23.1",
        "RelatesToProductReference": "SUSE Linux Enterprise High Performance Computing 15 SP4-LTSS",
        "RelationType": "Default Component Of"
      },
      {
        "ProductReference": "python311-3.11.8-150400.9.23.1",
        "RelatesToProductReference": "SUSE Linux Enterprise High Performance Computing 15 SP4-LTSS",
        "RelationType": "Default Component Of"
      },
      {
        "ProductReference": "python311-base-3.11.8-150400.9.23.1",
        "RelatesToProductReference": "SUSE Linux Enterprise High Performance Computing 15 SP4-LTSS",
        "RelationType": "Default Component Of"
      },
      {
        "ProductReference": "python311-curses-3.11.8-150400.9.23.1",
        "RelatesToProductReference": "SUSE Linux Enterprise High Performance Computing 15 SP4-LTSS",
        "RelationType": "Default Component Of"
      },
      {
        "ProductReference": "python311-dbm-3.11.8-150400.9.23.1",
        "RelatesToProductReference": "SUSE Linux Enterprise High Performance Computing 15 SP4-LTSS",
        "RelationType": "Default Component Of"
      },
      {
        "ProductReference": "python311-devel-3.11.8-150400.9.23.1",
        "RelatesToProductReference": "SUSE Linux Enterprise High Performance Computing 15 SP4-LTSS",
        "RelationType": "Default Component Of"
      },
      {
        "ProductReference": "python311-doc-3.11.8-150400.9.23.1",
        "RelatesToProductReference": "SUSE Linux Enterprise High Performance Computing 15 SP4-LTSS",
        "RelationType": "Default Component Of"
      },
      {
        "ProductReference": "python311-doc-devhelp-3.11.8-150400.9.23.1",
        "RelatesToProductReference": "SUSE Linux Enterprise High Performance Computing 15 SP4-LTSS",
        "RelationType": "Default Component Of"
      },
      {
        "ProductReference": "python311-idle-3.11.8-150400.9.23.1",
        "RelatesToProductReference": "SUSE Linux Enterprise High Performance Computing 15 SP4-LTSS",
        "RelationType": "Default Component Of"
      },
      {
        "ProductReference": "python311-tk-3.11.8-150400.9.23.1",
        "RelatesToProductReference": "SUSE Linux Enterprise High Performance Computing 15 SP4-LTSS",
        "RelationType": "Default Component Of"
      },
      {
        "ProductReference": "python311-tools-3.11.8-150400.9.23.1",
        "RelatesToProductReference": "SUSE Linux Enterprise High Performance Computing 15 SP4-LTSS",
        "RelationType": "Default Component Of"
      },
      {
        "ProductReference": "libpython3_11-1_0-3.11.8-150400.9.23.1",
        "RelatesToProductReference": "SUSE Linux Enterprise Module for Python 3 15 SP5",
        "RelationType": "Default Component Of"
      },
      {
        "ProductReference": "python311-3.11.8-150400.9.23.1",
        "RelatesToProductReference": "SUSE Linux Enterprise Module for Python 3 15 SP5",
        "RelationType": "Default Component Of"
      },
      {
        "ProductReference": "python311-base-3.11.8-150400.9.23.1",
        "RelatesToProductReference": "SUSE Linux Enterprise Module for Python 3 15 SP5",
        "RelationType": "Default Component Of"
      },
      {
        "ProductReference": "python311-curses-3.11.8-150400.9.23.1",
        "RelatesToProductReference": "SUSE Linux Enterprise Module for Python 3 15 SP5",
        "RelationType": "Default Component Of"
      },
      {
        "ProductReference": "python311-dbm-3.11.8-150400.9.23.1",
        "RelatesToProductReference": "SUSE Linux Enterprise Module for Python 3 15 SP5",
        "RelationType": "Default Component Of"
      },
      {
        "ProductReference": "python311-devel-3.11.8-150400.9.23.1",
        "RelatesToProductReference": "SUSE Linux Enterprise Module for Python 3 15 SP5",
        "RelationType": "Default Component Of"
      },
      {
        "ProductReference": "python311-doc-3.11.8-150400.9.23.1",
        "RelatesToProductReference": "SUSE Linux Enterprise Module for Python 3 15 SP5",
        "RelationType": "Default Component Of"
      },
      {
        "ProductReference": "python311-doc-devhelp-3.11.8-150400.9.23.1",
        "RelatesToProductReference": "SUSE Linux Enterprise Module for Python 3 15 SP5",
        "RelationType": "Default Component Of"
      },
      {
        "ProductReference": "python311-idle-3.11.8-150400.9.23.1",
        "RelatesToProductReference": "SUSE Linux Enterprise Module for Python 3 15 SP5",
        "RelationType": "Default Component Of"
      },
      {
        "ProductReference": "python311-tk-3.11.8-150400.9.23.1",
        "RelatesToProductReference": "SUSE Linux Enterprise Module for Python 3 15 SP5",
        "RelationType": "Default Component Of"
      },
      {
        "ProductReference": "python311-tools-3.11.8-150400.9.23.1",
        "RelatesToProductReference": "SUSE Linux Enterprise Module for Python 3 15 SP5",
        "RelationType": "Default Component Of"
      },
      {
        "ProductReference": "libpython3_11-1_0-3.11.8-150400.9.23.1",
        "RelatesToProductReference": "SUSE Linux Enterprise Server 15 SP4-LTSS",
        "RelationType": "Default Component Of"
      },
      {
        "ProductReference": "python311-3.11.8-150400.9.23.1",
        "RelatesToProductReference": "SUSE Linux Enterprise Server 15 SP4-LTSS",
        "RelationType": "Default Component Of"
      },
      {
        "ProductReference": "python311-base-3.11.8-150400.9.23.1",
        "RelatesToProductReference": "SUSE Linux Enterprise Server 15 SP4-LTSS",
        "RelationType": "Default Component Of"
      },
      {
        "ProductReference": "python311-curses-3.11.8-150400.9.23.1",
        "RelatesToProductReference": "SUSE Linux Enterprise Server 15 SP4-LTSS",
        "RelationType": "Default Component Of"
      },
      {
        "ProductReference": "python311-dbm-3.11.8-150400.9.23.1",
        "RelatesToProductReference": "SUSE Linux Enterprise Server 15 SP4-LTSS",
        "RelationType": "Default Component Of"
      },
      {
        "ProductReference": "python311-devel-3.11.8-150400.9.23.1",
        "RelatesToProductReference": "SUSE Linux Enterprise Server 15 SP4-LTSS",
        "RelationType": "Default Component Of"
      },
      {
        "ProductReference": "python311-doc-3.11.8-150400.9.23.1",
        "RelatesToProductReference": "SUSE Linux Enterprise Server 15 SP4-LTSS",
        "RelationType": "Default Component Of"
      },
      {
        "ProductReference": "python311-doc-devhelp-3.11.8-150400.9.23.1",
        "RelatesToProductReference": "SUSE Linux Enterprise Server 15 SP4-LTSS",
        "RelationType": "Default Component Of"
      },
      {
        "ProductReference": "python311-idle-3.11.8-150400.9.23.1",
        "RelatesToProductReference": "SUSE Linux Enterprise Server 15 SP4-LTSS",
        "RelationType": "Default Component Of"
      },
      {
        "ProductReference": "python311-tk-3.11.8-150400.9.23.1",
        "RelatesToProductReference": "SUSE Linux Enterprise Server 15 SP4-LTSS",
        "RelationType": "Default Component Of"
      },
      {
        "ProductReference": "python311-tools-3.11.8-150400.9.23.1",
        "RelatesToProductReference": "SUSE Linux Enterprise Server 15 SP4-LTSS",
        "RelationType": "Default Component Of"
      },
      {
        "ProductReference": "libpython3_11-1_0-3.11.8-150400.9.23.1",
        "RelatesToProductReference": "SUSE Linux Enterprise Server for SAP Applications 15 SP4",
        "RelationType": "Default Component Of"
      },
      {
        "ProductReference": "python311-3.11.8-150400.9.23.1",
        "RelatesToProductReference": "SUSE Linux Enterprise Server for SAP Applications 15 SP4",
        "RelationType": "Default Component Of"
      },
      {
        "ProductReference": "python311-base-3.11.8-150400.9.23.1",
        "RelatesToProductReference": "SUSE Linux Enterprise Server for SAP Applications 15 SP4",
        "RelationType": "Default Component Of"
      },
      {
        "ProductReference": "python311-curses-3.11.8-150400.9.23.1",
        "RelatesToProductReference": "SUSE Linux Enterprise Server for SAP Applications 15 SP4",
        "RelationType": "Default Component Of"
      },
      {
        "ProductReference": "python311-dbm-3.11.8-150400.9.23.1",
        "RelatesToProductReference": "SUSE Linux Enterprise Server for SAP Applications 15 SP4",
        "RelationType": "Default Component Of"
      },
      {
        "ProductReference": "python311-devel-3.11.8-150400.9.23.1",
        "RelatesToProductReference": "SUSE Linux Enterprise Server for SAP Applications 15 SP4",
        "RelationType": "Default Component Of"
      },
      {
        "ProductReference": "python311-doc-3.11.8-150400.9.23.1",
        "RelatesToProductReference": "SUSE Linux Enterprise Server for SAP Applications 15 SP4",
        "RelationType": "Default Component Of"
      },
      {
        "ProductReference": "python311-doc-devhelp-3.11.8-150400.9.23.1",
        "RelatesToProductReference": "SUSE Linux Enterprise Server for SAP Applications 15 SP4",
        "RelationType": "Default Component Of"
      },
      {
        "ProductReference": "python311-idle-3.11.8-150400.9.23.1",
        "RelatesToProductReference": "SUSE Linux Enterprise Server for SAP Applications 15 SP4",
        "RelationType": "Default Component Of"
      },
      {
        "ProductReference": "python311-tk-3.11.8-150400.9.23.1",
        "RelatesToProductReference": "SUSE Linux Enterprise Server for SAP Applications 15 SP4",
        "RelationType": "Default Component Of"
      },
      {
        "ProductReference": "python311-tools-3.11.8-150400.9.23.1",
        "RelatesToProductReference": "SUSE Linux Enterprise Server for SAP Applications 15 SP4",
        "RelationType": "Default Component Of"
      },
      {
        "ProductReference": "libpython3_11-1_0-3.11.8-150400.9.23.1",
        "RelatesToProductReference": "openSUSE Leap 15.5",
        "RelationType": "Default Component Of"
      },
      {
        "ProductReference": "libpython3_11-1_0-32bit-3.11.8-150400.9.23.1",
        "RelatesToProductReference": "openSUSE Leap 15.5",
        "RelationType": "Default Component Of"
      },
      {
        "ProductReference": "python311-3.11.8-150400.9.23.1",
        "RelatesToProductReference": "openSUSE Leap 15.5",
        "RelationType": "Default Component Of"
      },
      {
        "ProductReference": "python311-32bit-3.11.8-150400.9.23.1",
        "RelatesToProductReference": "openSUSE Leap 15.5",
        "RelationType": "Default Component Of"
      },
      {
        "ProductReference": "python311-base-3.11.8-150400.9.23.1",
        "RelatesToProductReference": "openSUSE Leap 15.5",
        "RelationType": "Default Component Of"
      },
      {
        "ProductReference": "python311-base-32bit-3.11.8-150400.9.23.1",
        "RelatesToProductReference": "openSUSE Leap 15.5",
        "RelationType": "Default Component Of"
      },
      {
        "ProductReference": "python311-curses-3.11.8-150400.9.23.1",
        "RelatesToProductReference": "openSUSE Leap 15.5",
        "RelationType": "Default Component Of"
      },
      {
        "ProductReference": "python311-dbm-3.11.8-150400.9.23.1",
        "RelatesToProductReference": "openSUSE Leap 15.5",
        "RelationType": "Default Component Of"
      },
      {
        "ProductReference": "python311-devel-3.11.8-150400.9.23.1",
        "RelatesToProductReference": "openSUSE Leap 15.5",
        "RelationType": "Default Component Of"
      },
      {
        "ProductReference": "python311-doc-3.11.8-150400.9.23.1",
        "RelatesToProductReference": "openSUSE Leap 15.5",
        "RelationType": "Default Component Of"
      },
      {
        "ProductReference": "python311-doc-devhelp-3.11.8-150400.9.23.1",
        "RelatesToProductReference": "openSUSE Leap 15.5",
        "RelationType": "Default Component Of"
      },
      {
        "ProductReference": "python311-idle-3.11.8-150400.9.23.1",
        "RelatesToProductReference": "openSUSE Leap 15.5",
        "RelationType": "Default Component Of"
      },
      {
        "ProductReference": "python311-testsuite-3.11.8-150400.9.23.1",
        "RelatesToProductReference": "openSUSE Leap 15.5",
        "RelationType": "Default Component Of"
      },
      {
        "ProductReference": "python311-tk-3.11.8-150400.9.23.1",
        "RelatesToProductReference": "openSUSE Leap 15.5",
        "RelationType": "Default Component Of"
      },
      {
        "ProductReference": "python311-tools-3.11.8-150400.9.23.1",
        "RelatesToProductReference": "openSUSE Leap 15.5",
        "RelationType": "Default Component Of"
      }
    ]
  },
  "References": [
    {
      "URL": "https://www.suse.com/support/update/announcement/2024/suse-su-20240782-1/",
      "Description": "Link for SUSE-SU-2024:0782-1"
    },
    {
      "URL": "https://lists.suse.com/pipermail/sle-security-updates/2024-March/018101.html",
      "Description": "E-Mail link for SUSE-SU-2024:0782-1"
    },
    {
      "URL": "https://www.suse.com/support/security/rating/",
      "Description": "SUSE Security Ratings"
    },
    {
      "URL": "https://bugzilla.suse.com/1196025",
      "Description": "SUSE Bug 1196025"
    },
    {
      "URL": "https://bugzilla.suse.com/1210638",
      "Description": "SUSE Bug 1210638"
    },
    {
      "URL": "https://bugzilla.suse.com/1219666",
      "Description": "SUSE Bug 1219666"
    },
    {
      "URL": "https://www.suse.com/security/cve/CVE-2022-25236/",
      "Description": "SUSE CVE CVE-2022-25236 page"
    },
    {
      "URL": "https://www.suse.com/security/cve/CVE-2023-27043/",
      "Description": "SUSE CVE CVE-2023-27043 page"
    },
    {
      "URL": "https://www.suse.com/security/cve/CVE-2023-6597/",
      "Description": "SUSE CVE CVE-2023-6597 page"
    }
  ],
  "Vulnerabilities": [
    {
      "CVE": "CVE-2022-25236",
      "Description": "xmlparse.c in Expat (aka libexpat) before 2.4.5 allows attackers to insert namespace-separator characters into namespace URIs.",
      "Threats": [
        {
          "Type": "Impact",
          "Severity": "important"
        }
      ],
      "References": [
        {
          "URL": "https://www.suse.com/security/cve/CVE-2022-25236.html",
          "Description": "CVE-2022-25236"
        },
        {
          "URL": "https://bugzilla.suse.com/1196025",
          "Description": "SUSE Bug 1196025"
        },
        {
          "URL": "https://bugzilla.suse.com/1196784",
          "Description": "SUSE Bug 1196784"
        },
        {
          "URL": "https://bugzilla.suse.com/1197217",
          "Description": "SUSE Bug 1197217"
        },
        {
          "URL": "https://bugzilla.suse.com/1200038",
          "Description": "SUSE Bug 1200038"
        },
        {
          "URL": "https://bugzilla.suse.com/1201735",
          "Description": "SUSE Bug 1201735"
        }
      ],
      "ProductStatuses": [
        {
          "Type": "Fixed",
          "ProductID": [
            "Container bci/python:latest:libpython3_11-1_0-3.11.8-150400.9.23.1",
            "Container bci/python:latest:python311-3.11.8-150400.9.23.1",
            "Container bci/python:latest:python311-base-3.11.8-150400.9.23.1",
            "Container bci/python:latest:python311-devel-3.11.8-150400.9.23.1",
            "Image SLES15-SP4-Manager-Proxy-4-3-BYOS-EC2:libpython3_11-1_0-3.11.8-150400.9.23.1",
            "Image SLES15-SP4-Manager-Proxy-4-3-BYOS-EC2:python311-3.11.8-150400.9.23.1",
            "Image SLES15-SP4-Manager-Proxy-4-3-BYOS-EC2:python311-base-3.11.8-150400.9.23.1",
            "Image SLES15-SP4-Manager-Proxy-4-3-BYOS:libpython3_11-1_0-3.11.8-150400.9.23.1",
            "Image SLES15-SP4-Manager-Proxy-4-3-BYOS:python311-3.11.8-150400.9.23.1",
            "Image SLES15-SP4-Manager-Proxy-4-3-BYOS:python311-base-3.11.8-150400.9.23.1",
            "Image SLES15-SP4-Manager-Server-4-3-BYOS-Azure:libpython3_11-1_0-3.11.8-150400.9.23.1",
            "Image SLES15-SP4-Manager-Server-4-3-BYOS-Azure:python311-3.11.8-150400.9.23.1",
            "Image SLES15-SP4-Manager-Server-4-3-BYOS-Azure:python311-base-3.11.8-150400.9.23.1",
            "Image SLES15-SP4-Manager-Server-4-3-BYOS-EC2:libpython3_11-1_0-3.11.8-150400.9.23.1",
            "Image SLES15-SP4-Manager-Server-4-3-BYOS-EC2:python311-3.11.8-150400.9.23.1",
            "Image SLES15-SP4-Manager-Server-4-3-BYOS-EC2:python311-base-3.11.8-150400.9.23.1",
            "Image SLES15-SP4-Manager-Server-4-3-BYOS:libpython3_11-1_0-3.11.8-150400.9.23.1",
            "Image SLES15-SP4-Manager-Server-4-3-BYOS:python311-3.11.8-150400.9.23.1",
            "Image SLES15-SP4-Manager-Server-4-3-BYOS:python311-base-3.11.8-150400.9.23.1",
            "Image SLES15-SP5-BYOS-EC2:libpython3_11-1_0-3.11.8-150400.9.23.1",
            "Image SLES15-SP5-BYOS-EC2:python311-3.11.8-150400.9.23.1",
            "Image SLES15-SP5-BYOS-EC2:python311-base-3.11.8-150400.9.23.1",
            "Image SLES15-SP5-EC2:libpython3_11-1_0-3.11.8-150400.9.23.1",
            "Image SLES15-SP5-EC2:python311-3.11.8-150400.9.23.1",
            "Image SLES15-SP5-EC2:python311-base-3.11.8-150400.9.23.1",
            "Image SLES15-SP5-HPC-BYOS-EC2:libpython3_11-1_0-3.11.8-150400.9.23.1",
            "Image SLES15-SP5-HPC-BYOS-EC2:python311-3.11.8-150400.9.23.1",
            "Image SLES15-SP5-HPC-BYOS-EC2:python311-base-3.11.8-150400.9.23.1",
            "Image SLES15-SP5-SAP-BYOS-EC2:libpython3_11-1_0-3.11.8-150400.9.23.1",
            "Image SLES15-SP5-SAP-BYOS-EC2:python311-3.11.8-150400.9.23.1",
            "Image SLES15-SP5-SAP-BYOS-EC2:python311-base-3.11.8-150400.9.23.1",
            "Image SLES15-SP5-SAPCAL-EC2:libpython3_11-1_0-3.11.8-150400.9.23.1",
            "Image SLES15-SP5-SAPCAL-EC2:python311-3.11.8-150400.9.23.1",
            "Image SLES15-SP5-SAPCAL-EC2:python311-base-3.11.8-150400.9.23.1",
            "SUSE Linux Enterprise High Performance Computing 15 SP4-ESPOS:libpython3_11-1_0-3.11.8-150400.9.23.1",
            "SUSE Linux Enterprise High Performance Computing 15 SP4-ESPOS:python311-3.11.8-150400.9.23.1",
            "SUSE Linux Enterprise High Performance Computing 15 SP4-ESPOS:python311-base-3.11.8-150400.9.23.1",
            "SUSE Linux Enterprise High Performance Computing 15 SP4-ESPOS:python311-curses-3.11.8-150400.9.23.1",
            "SUSE Linux Enterprise High Performance Computing 15 SP4-ESPOS:python311-dbm-3.11.8-150400.9.23.1",
            "SUSE Linux Enterprise High Performance Computing 15 SP4-ESPOS:python311-devel-3.11.8-150400.9.23.1",
            "SUSE Linux Enterprise High Performance Computing 15 SP4-ESPOS:python311-doc-3.11.8-150400.9.23.1",
            "SUSE Linux Enterprise High Performance Computing 15 SP4-ESPOS:python311-doc-devhelp-3.11.8-150400.9.23.1",
            "SUSE Linux Enterprise High Performance Computing 15 SP4-ESPOS:python311-idle-3.11.8-150400.9.23.1",
            "SUSE Linux Enterprise High Performance Computing 15 SP4-ESPOS:python311-tk-3.11.8-150400.9.23.1",
            "SUSE Linux Enterprise High Performance Computing 15 SP4-ESPOS:python311-tools-3.11.8-150400.9.23.1",
            "SUSE Linux Enterprise High Performance Computing 15 SP4-LTSS:libpython3_11-1_0-3.11.8-150400.9.23.1",
            "SUSE Linux Enterprise High Performance Computing 15 SP4-LTSS:python311-3.11.8-150400.9.23.1",
            "SUSE Linux Enterprise High Performance Computing 15 SP4-LTSS:python311-base-3.11.8-150400.9.23.1",
            "SUSE Linux Enterprise High Performance Computing 15 SP4-LTSS:python311-curses-3.11.8-150400.9.23.1",
            "SUSE Linux Enterprise High Performance Computing 15 SP4-LTSS:python311-dbm-3.11.8-150400.9.23.1",
            "SUSE Linux Enterprise High Performance Computing 15 SP4-LTSS:python311-devel-3.11.8-150400.9.23.1",
            "SUSE Linux Enterprise High Performance Computing 15 SP4-LTSS:python311-doc-3.11.8-150400.9.23.1",
            "SUSE Linux Enterprise High Performance Computing 15 SP4-LTSS:python311-doc-devhelp-3.11.8-150400.9.23.1",
            "SUSE Linux Enterprise High Performance Computing 15 SP4-LTSS:python311-idle-3.11.8-150400.9.23.1",
            "SUSE Linux Enterprise High Performance Computing 15 SP4-LTSS:python311-tk-3.11.8-150400.9.23.1",
            "SUSE Linux Enterprise High Performance Computing 15 SP4-LTSS:python311-tools-3.11.8-150400.9.23.1",
            "SUSE Linux Enterprise Module for Python 3 15 SP5:libpython3_11-1_0-3.11.8-150400.9.23.1",
            "SUSE Linux Enterprise Module for Python 3 15 SP5:python311-3.11.8-150400.9.23.1",
            "SUSE Linux Enterprise Module for Python 3 15 SP5:python311-base-3.11.8-150400.9.23.1",
            "SUSE Linux Enterprise Module for Python 3 15 SP5:python311-curses-3.11.8-150400.9.23.1",
            "SUSE Linux Enterprise Module for Python 3 15 SP5:python311-dbm-3.11.8-150400.9.23.1",
            "SUSE Linux Enterprise Module for Python 3 15 SP5:python311-devel-3.11.8-150400.9.23.1",
            "SUSE Linux Enterprise Module for Python 3 15 SP5:python311-doc-3.11.8-150400.9.23.1",
            "SUSE Linux Enterprise Module for Python 3 15 SP5:python311-doc-devhelp-3.11.8-150400.9.23.1",
            "SUSE Linux Enterprise Module for Python 3 15 SP5:python311-idle-3.11.8-150400.9.23.1",
            "SUSE Linux Enterprise Module for Python 3 15 SP5:python311-tk-3.11.8-150400.9.23.1",
            "SUSE Linux Enterprise Module for Python 3 15 SP5:python311-tools-3.11.8-150400.9.23.1",
            "SUSE Linux Enterprise Server 15 SP4-LTSS:libpython3_11-1_0-3.11.8-150400.9.23.1",
            "SUSE Linux Enterprise Server 15 SP4-LTSS:python311-3.11.8-150400.9.23.1",
            "SUSE Linux Enterprise Server 15 SP4-LTSS:python311-base-3.11.8-150400.9.23.1",
            "SUSE Linux Enterprise Server 15 SP4-LTSS:python311-curses-3.11.8-150400.9.23.1",
            "SUSE Linux Enterprise Server 15 SP4-LTSS:python311-dbm-3.11.8-150400.9.23.1",
            "SUSE Linux Enterprise Server 15 SP4-LTSS:python311-devel-3.11.8-150400.9.23.1",
            "SUSE Linux Enterprise Server 15 SP4-LTSS:python311-doc-3.11.8-150400.9.23.1",
            "SUSE Linux Enterprise Server 15 SP4-LTSS:python311-doc-devhelp-3.11.8-150400.9.23.1",
            "SUSE Linux Enterprise Server 15 SP4-LTSS:python311-idle-3.11.8-150400.9.23.1",
            "SUSE Linux Enterprise Server 15 SP4-LTSS:python311-tk-3.11.8-150400.9.23.1",
            "SUSE Linux Enterprise Server 15 SP4-LTSS:python311-tools-3.11.8-150400.9.23.1",
            "SUSE Linux Enterprise Server for SAP Applications 15 SP4:libpython3_11-1_0-3.11.8-150400.9.23.1",
            "SUSE Linux Enterprise Server for SAP Applications 15 SP4:python311-3.11.8-150400.9.23.1",
            "SUSE Linux Enterprise Server for SAP Applications 15 SP4:python311-base-3.11.8-150400.9.23.1",
            "SUSE Linux Enterprise Server for SAP Applications 15 SP4:python311-curses-3.11.8-150400.9.23.1",
            "SUSE Linux Enterprise Server for SAP Applications 15 SP4:python311-dbm-3.11.8-150400.9.23.1",
            "SUSE Linux Enterprise Server for SAP Applications 15 SP4:python311-devel-3.11.8-150400.9.23.1",
            "SUSE Linux Enterprise Server for SAP Applications 15 SP4:python311-doc-3.11.8-150400.9.23.1",
            "SUSE Linux Enterprise Server for SAP Applications 15 SP4:python311-doc-devhelp-3.11.8-150400.9.23.1",
            "SUSE Linux Enterprise Server for SAP Applications 15 SP4:python311-idle-3.11.8-150400.9.23.1",
            "SUSE Linux Enterprise Server for SAP Applications 15 SP4:python311-tk-3.11.8-150400.9.23.1",
            "SUSE Linux Enterprise Server for SAP Applications 15 SP4:python311-tools-3.11.8-150400.9.23.1",
            "openSUSE Leap 15.5:libpython3_11-1_0-3.11.8-150400.9.23.1",
            "openSUSE Leap 15.5:libpython3_11-1_0-32bit-3.11.8-150400.9.23.1",
            "openSUSE Leap 15.5:python311-3.11.8-150400.9.23.1",
            "openSUSE Leap 15.5:python311-32bit-3.11.8-150400.9.23.1",
            "openSUSE Leap 15.5:python311-base-3.11.8-150400.9.23.1",
            "openSUSE Leap 15.5:python311-base-32bit-3.11.8-150400.9.23.1",
            "openSUSE Leap 15.5:python311-curses-3.11.8-150400.9.23.1",
            "openSUSE Leap 15.5:python311-dbm-3.11.8-150400.9.23.1",
            "openSUSE Leap 15.5:python311-devel-3.11.8-150400.9.23.1",
            "openSUSE Leap 15.5:python311-doc-3.11.8-150400.9.23.1",
            "openSUSE Leap 15.5:python311-doc-devhelp-3.11.8-150400.9.23.1",
            "openSUSE Leap 15.5:python311-idle-3.11.8-150400.9.23.1",
            "openSUSE Leap 15.5:python311-testsuite-3.11.8-150400.9.23.1",
            "openSUSE Leap 15.5:python311-tk-3.11.8-150400.9.23.1",
            "openSUSE Leap 15.5:python311-tools-3.11.8-150400.9.23.1"
          ]
        }
      ],
      "CVSSScoreSets": {}
    },
    {
      "CVE": "CVE-2023-27043",
      "Description": "The email module of Python through 3.11.3 incorrectly parses e-mail addresses that contain a special character. The wrong portion of an RFC2822 header is identified as the value of the addr-spec. In some applications, an attacker can bypass a protection mechanism in which application access is granted only after verifying receipt of e-mail to a specific domain (e.g., only @company.example.com addresses may be used for signup). This occurs in email/_parseaddr.py in recent versions of Python.",
      "Threats": [
        {
          "Type": "Impact",
          "Severity": "moderate"
        }
      ],
      "References": [
        {
          "URL": "https://www.suse.com/security/cve/CVE-2023-27043.html",
          "Description": "CVE-2023-27043"
        },
        {
          "URL": "https://bugzilla.suse.com/1210638",
          "Description": "SUSE Bug 1210638"
        },
        {
          "URL": "https://bugzilla.suse.com/1222537",
          "Description": "SUSE Bug 1222537"
        }
      ],
      "ProductStatuses": [
        {
          "Type": "Fixed",
          "ProductID": [
            "Container bci/python:latest:libpython3_11-1_0-3.11.8-150400.9.23.1",
            "Container bci/python:latest:python311-3.11.8-150400.9.23.1",
            "Container bci/python:latest:python311-base-3.11.8-150400.9.23.1",
            "Container bci/python:latest:python311-devel-3.11.8-150400.9.23.1",
            "Image SLES15-SP4-Manager-Proxy-4-3-BYOS-EC2:libpython3_11-1_0-3.11.8-150400.9.23.1",
            "Image SLES15-SP4-Manager-Proxy-4-3-BYOS-EC2:python311-3.11.8-150400.9.23.1",
            "Image SLES15-SP4-Manager-Proxy-4-3-BYOS-EC2:python311-base-3.11.8-150400.9.23.1",
            "Image SLES15-SP4-Manager-Proxy-4-3-BYOS:libpython3_11-1_0-3.11.8-150400.9.23.1",
            "Image SLES15-SP4-Manager-Proxy-4-3-BYOS:python311-3.11.8-150400.9.23.1",
            "Image SLES15-SP4-Manager-Proxy-4-3-BYOS:python311-base-3.11.8-150400.9.23.1",
            "Image SLES15-SP4-Manager-Server-4-3-BYOS-Azure:libpython3_11-1_0-3.11.8-150400.9.23.1",
            "Image SLES15-SP4-Manager-Server-4-3-BYOS-Azure:python311-3.11.8-150400.9.23.1",
            "Image SLES15-SP4-Manager-Server-4-3-BYOS-Azure:python311-base-3.11.8-150400.9.23.1",
            "Image SLES15-SP4-Manager-Server-4-3-BYOS-EC2:libpython3_11-1_0-3.11.8-150400.9.23.1",
            "Image SLES15-SP4-Manager-Server-4-3-BYOS-EC2:python311-3.11.8-150400.9.23.1",
            "Image SLES15-SP4-Manager-Server-4-3-BYOS-EC2:python311-base-3.11.8-150400.9.23.1",
            "Image SLES15-SP4-Manager-Server-4-3-BYOS:libpython3_11-1_0-3.11.8-150400.9.23.1",
            "Image SLES15-SP4-Manager-Server-4-3-BYOS:python311-3.11.8-150400.9.23.1",
            "Image SLES15-SP4-Manager-Server-4-3-BYOS:python311-base-3.11.8-150400.9.23.1",
            "Image SLES15-SP5-BYOS-EC2:libpython3_11-1_0-3.11.8-150400.9.23.1",
            "Image SLES15-SP5-BYOS-EC2:python311-3.11.8-150400.9.23.1",
            "Image SLES15-SP5-BYOS-EC2:python311-base-3.11.8-150400.9.23.1",
            "Image SLES15-SP5-EC2:libpython3_11-1_0-3.11.8-150400.9.23.1",
            "Image SLES15-SP5-EC2:python311-3.11.8-150400.9.23.1",
            "Image SLES15-SP5-EC2:python311-base-3.11.8-150400.9.23.1",
            "Image SLES15-SP5-HPC-BYOS-EC2:libpython3_11-1_0-3.11.8-150400.9.23.1",
            "Image SLES15-SP5-HPC-BYOS-EC2:python311-3.11.8-150400.9.23.1",
            "Image SLES15-SP5-HPC-BYOS-EC2:python311-base-3.11.8-150400.9.23.1",
            "Image SLES15-SP5-SAP-BYOS-EC2:libpython3_11-1_0-3.11.8-150400.9.23.1",
            "Image SLES15-SP5-SAP-BYOS-EC2:python311-3.11.8-150400.9.23.1",
            "Image SLES15-SP5-SAP-BYOS-EC2:python311-base-3.11.8-150400.9.23.1",
            "Image SLES15-SP5-SAPCAL-EC2:libpython3_11-1_0-3.11.8-150400.9.23.1",
            "Image SLES15-SP5-SAPCAL-EC2:python311-3.11.8-150400.9.23.1",
            "Image SLES15-SP5-SAPCAL-EC2:python311-base-3.11.8-150400.9.23.1",
            "SUSE Linux Enterprise High Performance Computing 15 SP4-ESPOS:libpython3_11-1_0-3.11.8-150400.9.23.1",
            "SUSE Linux Enterprise High Performance Computing 15 SP4-ESPOS:python311-3.11.8-150400.9.23.1",
            "SUSE Linux Enterprise High Performance Computing 15 SP4-ESPOS:python311-base-3.11.8-150400.9.23.1",
            "SUSE Linux Enterprise High Performance Computing 15 SP4-ESPOS:python311-curses-3.11.8-150400.9.23.1",
            "SUSE Linux Enterprise High Performance Computing 15 SP4-ESPOS:python311-dbm-3.11.8-150400.9.23.1",
            "SUSE Linux Enterprise High Performance Computing 15 SP4-ESPOS:python311-devel-3.11.8-150400.9.23.1",
            "SUSE Linux Enterprise High Performance Computing 15 SP4-ESPOS:python311-doc-3.11.8-150400.9.23.1",
            "SUSE Linux Enterprise High Performance Computing 15 SP4-ESPOS:python311-doc-devhelp-3.11.8-150400.9.23.1",
            "SUSE Linux Enterprise High Performance Computing 15 SP4-ESPOS:python311-idle-3.11.8-150400.9.23.1",
            "SUSE Linux Enterprise High Performance Computing 15 SP4-ESPOS:python311-tk-3.11.8-150400.9.23.1",
            "SUSE Linux Enterprise High Performance Computing 15 SP4-ESPOS:python311-tools-3.11.8-150400.9.23.1",
            "SUSE Linux Enterprise High Performance Computing 15 SP4-LTSS:libpython3_11-1_0-3.11.8-150400.9.23.1",
            "SUSE Linux Enterprise High Performance Computing 15 SP4-LTSS:python311-3.11.8-150400.9.23.1",
            "SUSE Linux Enterprise High Performance Computing 15 SP4-LTSS:python311-base-3.11.8-150400.9.23.1",
            "SUSE Linux Enterprise High Performance Computing 15 SP4-LTSS:python311-curses-3.11.8-150400.9.23.1",
            "SUSE Linux Enterprise High Performance Computing 15 SP4-LTSS:python311-dbm-3.11.8-150400.9.23.1",
            "SUSE Linux Enterprise High Performance Computing 15 SP4-LTSS:python311-devel-3.11.8-150400.9.23.1",
            "SUSE Linux Enterprise High Performance Computing 15 SP4-LTSS:python311-doc-3.11.8-150400.9.23.1",
            "SUSE Linux Enterprise High Performance Computing 15 SP4-LTSS:python311-doc-devhelp-3.11.8-150400.9.23.1",
            "SUSE Linux Enterprise High Performance Computing 15 SP4-LTSS:python311-idle-3.11.8-150400.9.23.1",
            "SUSE Linux Enterprise High Performance Computing 15 SP4-LTSS:python311-tk-3.11.8-150400.9.23.1",
            "SUSE Linux Enterprise High Performance Computing 15 SP4-LTSS:python311-tools-3.11.8-150400.9.23.1",
            "SUSE Linux Enterprise Module for Python 3 15 SP5:libpython3_11-1_0-3.11.8-150400.9.23.1",
            "SUSE Linux Enterprise Module for Python 3 15 SP5:python311-3.11.8-150400.9.23.1",
            "SUSE Linux Enterprise Module for Python 3 15 SP5:python311-base-3.11.8-150400.9.23.1",
            "SUSE Linux Enterprise Module for Python 3 15 SP5:python311-curses-3.11.8-150400.9.23.1",
            "SUSE Linux Enterprise Module for Python 3 15 SP5:python311-dbm-3.11.8-150400.9.23.1",
            "SUSE Linux Enterprise Module for Python 3 15 SP5:python311-devel-3.11.8-150400.9.23.1",
            "SUSE Linux Enterprise Module for Python 3 15 SP5:python311-doc-3.11.8-150400.9.23.1",
            "SUSE Linux Enterprise Module for Python 3 15 SP5:python311-doc-devhelp-3.11.8-150400.9.23.1",
            "SUSE Linux Enterprise Module for Python 3 15 SP5:python311-idle-3.11.8-150400.9.23.1",
            "SUSE Linux Enterprise Module for Python 3 15 SP5:python311-tk-3.11.8-150400.9.23.1",
            "SUSE Linux Enterprise Module for Python 3 15 SP5:python311-tools-3.11.8-150400.9.23.1",
            "SUSE Linux Enterprise Server 15 SP4-LTSS:libpython3_11-1_0-3.11.8-150400.9.23.1",
            "SUSE Linux Enterprise Server 15 SP4-LTSS:python311-3.11.8-150400.9.23.1",
            "SUSE Linux Enterprise Server 15 SP4-LTSS:python311-base-3.11.8-150400.9.23.1",
            "SUSE Linux Enterprise Server 15 SP4-LTSS:python311-curses-3.11.8-150400.9.23.1",
            "SUSE Linux Enterprise Server 15 SP4-LTSS:python311-dbm-3.11.8-150400.9.23.1",
            "SUSE Linux Enterprise Server 15 SP4-LTSS:python311-devel-3.11.8-150400.9.23.1",
            "SUSE Linux Enterprise Server 15 SP4-LTSS:python311-doc-3.11.8-150400.9.23.1",
            "SUSE Linux Enterprise Server 15 SP4-LTSS:python311-doc-devhelp-3.11.8-150400.9.23.1",
            "SUSE Linux Enterprise Server 15 SP4-LTSS:python311-idle-3.11.8-150400.9.23.1",
            "SUSE Linux Enterprise Server 15 SP4-LTSS:python311-tk-3.11.8-150400.9.23.1",
            "SUSE Linux Enterprise Server 15 SP4-LTSS:python311-tools-3.11.8-150400.9.23.1",
            "SUSE Linux Enterprise Server for SAP Applications 15 SP4:libpython3_11-1_0-3.11.8-150400.9.23.1",
            "SUSE Linux Enterprise Server for SAP Applications 15 SP4:python311-3.11.8-150400.9.23.1",
            "SUSE Linux Enterprise Server for SAP Applications 15 SP4:python311-base-3.11.8-150400.9.23.1",
            "SUSE Linux Enterprise Server for SAP Applications 15 SP4:python311-curses-3.11.8-150400.9.23.1",
            "SUSE Linux Enterprise Server for SAP Applications 15 SP4:python311-dbm-3.11.8-150400.9.23.1",
            "SUSE Linux Enterprise Server for SAP Applications 15 SP4:python311-devel-3.11.8-150400.9.23.1",
            "SUSE Linux Enterprise Server for SAP Applications 15 SP4:python311-doc-3.11.8-150400.9.23.1",
            "SUSE Linux Enterprise Server for SAP Applications 15 SP4:python311-doc-devhelp-3.11.8-150400.9.23.1",
            "SUSE Linux Enterprise Server for SAP Applications 15 SP4:python311-idle-3.11.8-150400.9.23.1",
            "SUSE Linux Enterprise Server for SAP Applications 15 SP4:python311-tk-3.11.8-150400.9.23.1",
            "SUSE Linux Enterprise Server for SAP Applications 15 SP4:python311-tools-3.11.8-150400.9.23.1",
            "openSUSE Leap 15.5:libpython3_11-1_0-3.11.8-150400.9.23.1",
            "openSUSE Leap 15.5:libpython3_11-1_0-32bit-3.11.8-150400.9.23.1",
            "openSUSE Leap 15.5:python311-3.11.8-150400.9.23.1",
            "openSUSE Leap 15.5:python311-32bit-3.11.8-150400.9.23.1",
            "openSUSE Leap 15.5:python311-base-3.11.8-150400.9.23.1",
            "openSUSE Leap 15.5:python311-base-32bit-3.11.8-150400.9.23.1",
            "openSUSE Leap 15.5:python311-curses-3.11.8-150400.9.23.1",
            "openSUSE Leap 15.5:python311-dbm-3.11.8-150400.9.23.1",
            "openSUSE Leap 15.5:python311-devel-3.11.8-150400.9.23.1",
            "openSUSE Leap 15.5:python311-doc-3.11.8-150400.9.23.1",
            "openSUSE Leap 15.5:python311-doc-devhelp-3.11.8-150400.9.23.1",
            "openSUSE Leap 15.5:python311-idle-3.11.8-150400.9.23.1",
            "openSUSE Leap 15.5:python311-testsuite-3.11.8-150400.9.23.1",
            "openSUSE Leap 15.5:python311-tk-3.11.8-150400.9.23.1",
            "openSUSE Leap 15.5:python311-tools-3.11.8-150400.9.23.1"
          ]
        }
      ],
      "CVSSScoreSets": {}
    },
    {
      "CVE": "CVE-2023-6597",
      "Description": "An issue was found in the CPython `tempfile.TemporaryDirectory` class affecting versions 3.12.1, 3.11.7, 3.10.13, 3.9.18, and 3.8.18 and prior.\n\nThe tempfile.TemporaryDirectory class would dereference symlinks during cleanup of permissions-related errors. This means users which can run privileged programs are potentially able to modify permissions of files referenced by symlinks in some circumstances.\n",
      "Threats": [
        {
          "Type": "Impact",
          "Severity": "important"
        }
      ],
      "References": [
        {
          "URL": "https://www.suse.com/security/cve/CVE-2023-6597.html",
          "Description": "CVE-2023-6597"
        },
        {
          "URL": "https://bugzilla.suse.com/1219666",
          "Description": "SUSE Bug 1219666"
        },
        {
          "URL": "https://bugzilla.suse.com/1221854",
          "Description": "SUSE Bug 1221854"
        },
        {
          "URL": "https://bugzilla.suse.com/1224879",
          "Description": "SUSE Bug 1224879"
        },
        {
          "URL": "https://bugzilla.suse.com/1225185",
          "Description": "SUSE Bug 1225185"
        }
      ],
      "ProductStatuses": [
        {
          "Type": "Fixed",
          "ProductID": [
            "Container bci/python:latest:libpython3_11-1_0-3.11.8-150400.9.23.1",
            "Container bci/python:latest:python311-3.11.8-150400.9.23.1",
            "Container bci/python:latest:python311-base-3.11.8-150400.9.23.1",
            "Container bci/python:latest:python311-devel-3.11.8-150400.9.23.1",
            "Image SLES15-SP4-Manager-Proxy-4-3-BYOS-EC2:libpython3_11-1_0-3.11.8-150400.9.23.1",
            "Image SLES15-SP4-Manager-Proxy-4-3-BYOS-EC2:python311-3.11.8-150400.9.23.1",
            "Image SLES15-SP4-Manager-Proxy-4-3-BYOS-EC2:python311-base-3.11.8-150400.9.23.1",
            "Image SLES15-SP4-Manager-Proxy-4-3-BYOS:libpython3_11-1_0-3.11.8-150400.9.23.1",
            "Image SLES15-SP4-Manager-Proxy-4-3-BYOS:python311-3.11.8-150400.9.23.1",
            "Image SLES15-SP4-Manager-Proxy-4-3-BYOS:python311-base-3.11.8-150400.9.23.1",
            "Image SLES15-SP4-Manager-Server-4-3-BYOS-Azure:libpython3_11-1_0-3.11.8-150400.9.23.1",
            "Image SLES15-SP4-Manager-Server-4-3-BYOS-Azure:python311-3.11.8-150400.9.23.1",
            "Image SLES15-SP4-Manager-Server-4-3-BYOS-Azure:python311-base-3.11.8-150400.9.23.1",
            "Image SLES15-SP4-Manager-Server-4-3-BYOS-EC2:libpython3_11-1_0-3.11.8-150400.9.23.1",
            "Image SLES15-SP4-Manager-Server-4-3-BYOS-EC2:python311-3.11.8-150400.9.23.1",
            "Image SLES15-SP4-Manager-Server-4-3-BYOS-EC2:python311-base-3.11.8-150400.9.23.1",
            "Image SLES15-SP4-Manager-Server-4-3-BYOS:libpython3_11-1_0-3.11.8-150400.9.23.1",
            "Image SLES15-SP4-Manager-Server-4-3-BYOS:python311-3.11.8-150400.9.23.1",
            "Image SLES15-SP4-Manager-Server-4-3-BYOS:python311-base-3.11.8-150400.9.23.1",
            "Image SLES15-SP5-BYOS-EC2:libpython3_11-1_0-3.11.8-150400.9.23.1",
            "Image SLES15-SP5-BYOS-EC2:python311-3.11.8-150400.9.23.1",
            "Image SLES15-SP5-BYOS-EC2:python311-base-3.11.8-150400.9.23.1",
            "Image SLES15-SP5-EC2:libpython3_11-1_0-3.11.8-150400.9.23.1",
            "Image SLES15-SP5-EC2:python311-3.11.8-150400.9.23.1",
            "Image SLES15-SP5-EC2:python311-base-3.11.8-150400.9.23.1",
            "Image SLES15-SP5-HPC-BYOS-EC2:libpython3_11-1_0-3.11.8-150400.9.23.1",
            "Image SLES15-SP5-HPC-BYOS-EC2:python311-3.11.8-150400.9.23.1",
            "Image SLES15-SP5-HPC-BYOS-EC2:python311-base-3.11.8-150400.9.23.1",
            "Image SLES15-SP5-SAP-BYOS-EC2:libpython3_11-1_0-3.11.8-150400.9.23.1",
            "Image SLES15-SP5-SAP-BYOS-EC2:python311-3.11.8-150400.9.23.1",
            "Image SLES15-SP5-SAP-BYOS-EC2:python311-base-3.11.8-150400.9.23.1",
            "Image SLES15-SP5-SAPCAL-EC2:libpython3_11-1_0-3.11.8-150400.9.23.1",
            "Image SLES15-SP5-SAPCAL-EC2:python311-3.11.8-150400.9.23.1",
            "Image SLES15-SP5-SAPCAL-EC2:python311-base-3.11.8-150400.9.23.1",
            "SUSE Linux Enterprise High Performance Computing 15 SP4-ESPOS:libpython3_11-1_0-3.11.8-150400.9.23.1",
            "SUSE Linux Enterprise High Performance Computing 15 SP4-ESPOS:python311-3.11.8-150400.9.23.1",
            "SUSE Linux Enterprise High Performance Computing 15 SP4-ESPOS:python311-base-3.11.8-150400.9.23.1",
            "SUSE Linux Enterprise High Performance Computing 15 SP4-ESPOS:python311-curses-3.11.8-150400.9.23.1",
            "SUSE Linux Enterprise High Performance Computing 15 SP4-ESPOS:python311-dbm-3.11.8-150400.9.23.1",
            "SUSE Linux Enterprise High Performance Computing 15 SP4-ESPOS:python311-devel-3.11.8-150400.9.23.1",
            "SUSE Linux Enterprise High Performance Computing 15 SP4-ESPOS:python311-doc-3.11.8-150400.9.23.1",
            "SUSE Linux Enterprise High Performance Computing 15 SP4-ESPOS:python311-doc-devhelp-3.11.8-150400.9.23.1",
            "SUSE Linux Enterprise High Performance Computing 15 SP4-ESPOS:python311-idle-3.11.8-150400.9.23.1",
            "SUSE Linux Enterprise High Performance Computing 15 SP4-ESPOS:python311-tk-3.11.8-150400.9.23.1",
            "SUSE Linux Enterprise High Performance Computing 15 SP4-ESPOS:python311-tools-3.11.8-150400.9.23.1",
            "SUSE Linux Enterprise High Performance Computing 15 SP4-LTSS:libpython3_11-1_0-3.11.8-150400.9.23.1",
            "SUSE Linux Enterprise High Performance Computing 15 SP4-LTSS:python311-3.11.8-150400.9.23.1",
            "SUSE Linux Enterprise High Performance Computing 15 SP4-LTSS:python311-base-3.11.8-150400.9.23.1",
            "SUSE Linux Enterprise High Performance Computing 15 SP4-LTSS:python311-curses-3.11.8-150400.9.23.1",
            "SUSE Linux Enterprise High Performance Computing 15 SP4-LTSS:python311-dbm-3.11.8-150400.9.23.1",
            "SUSE Linux Enterprise High Performance Computing 15 SP4-LTSS:python311-devel-3.11.8-150400.9.23.1",
            "SUSE Linux Enterprise High Performance Computing 15 SP4-LTSS:python311-doc-3.11.8-150400.9.23.1",
            "SUSE Linux Enterprise High Performance Computing 15 SP4-LTSS:python311-doc-devhelp-3.11.8-150400.9.23.1",
            "SUSE Linux Enterprise High Performance Computing 15 SP4-LTSS:python311-idle-3.11.8-150400.9.23.1",
            "SUSE Linux Enterprise High Performance Computing 15 SP4-LTSS:python311-tk-3.11.8-150400.9.23.1",
            "SUSE Linux Enterprise High Performance Computing 15 SP4-LTSS:python311-tools-3.11.8-150400.9.23.1",
            "SUSE Linux Enterprise Module for Python 3 15 SP5:libpython3_11-1_0-3.11.8-150400.9.23.1",
            "SUSE Linux Enterprise Module for Python 3 15 SP5:python311-3.11.8-150400.9.23.1",
            "SUSE Linux Enterprise Module for Python 3 15 SP5:python311-base-3.11.8-150400.9.23.1",
            "SUSE Linux Enterprise Module for Python 3 15 SP5:python311-curses-3.11.8-150400.9.23.1",
            "SUSE Linux Enterprise Module for Python 3 15 SP5:python311-dbm-3.11.8-150400.9.23.1",
            "SUSE Linux Enterprise Module for Python 3 15 SP5:python311-devel-3.11.8-150400.9.23.1",
            "SUSE Linux Enterprise Module for Python 3 15 SP5:python311-doc-3.11.8-150400.9.23.1",
            "SUSE Linux Enterprise Module for Python 3 15 SP5:python311-doc-devhelp-3.11.8-150400.9.23.1",
            "SUSE Linux Enterprise Module for Python 3 15 SP5:python311-idle-3.11.8-150400.9.23.1",
            "SUSE Linux Enterprise Module for Python 3 15 SP5:python311-tk-3.11.8-150400.9.23.1",
            "SUSE Linux Enterprise Module for Python 3 15 SP5:python311-tools-3.11.8-150400.9.23.1",
            "SUSE Linux Enterprise Server 15 SP4-LTSS:libpython3_11-1_0-3.11.8-150400.9.23.1",
            "SUSE Linux Enterprise Server 15 SP4-LTSS:python311-3.11.8-150400.9.23.1",
            "SUSE Linux Enterprise Server 15 SP4-LTSS:python311-base-3.11.8-150400.9.23.1",
            "SUSE Linux Enterprise Server 15 SP4-LTSS:python311-curses-3.11.8-150400.9.23.1",
            "SUSE Linux Enterprise Server 15 SP4-LTSS:python311-dbm-3.11.8-150400.9.23.1",
            "SUSE Linux Enterprise Server 15 SP4-LTSS:python311-devel-3.11.8-150400.9.23.1",
            "SUSE Linux Enterprise Server 15 SP4-LTSS:python311-doc-3.11.8-150400.9.23.1",
            "SUSE Linux Enterprise Server 15 SP4-LTSS:python311-doc-devhelp-3.11.8-150400.9.23.1",
            "SUSE Linux Enterprise Server 15 SP4-LTSS:python311-idle-3.11.8-150400.9.23.1",
            "SUSE Linux Enterprise Server 15 SP4-LTSS:python311-tk-3.11.8-150400.9.23.1",
            "SUSE Linux Enterprise Server 15 SP4-LTSS:python311-tools-3.11.8-150400.9.23.1",
            "SUSE Linux Enterprise Server for SAP Applications 15 SP4:libpython3_11-1_0-3.11.8-150400.9.23.1",
            "SUSE Linux Enterprise Server for SAP Applications 15 SP4:python311-3.11.8-150400.9.23.1",
            "SUSE Linux Enterprise Server for SAP Applications 15 SP4:python311-base-3.11.8-150400.9.23.1",
            "SUSE Linux Enterprise Server for SAP Applications 15 SP4:python311-curses-3.11.8-150400.9.23.1",
            "SUSE Linux Enterprise Server for SAP Applications 15 SP4:python311-dbm-3.11.8-150400.9.23.1",
            "SUSE Linux Enterprise Server for SAP Applications 15 SP4:python311-devel-3.11.8-150400.9.23.1",
            "SUSE Linux Enterprise Server for SAP Applications 15 SP4:python311-doc-3.11.8-150400.9.23.1",
            "SUSE Linux Enterprise Server for SAP Applications 15 SP4:python311-doc-devhelp-3.11.8-150400.9.23.1",
            "SUSE Linux Enterprise Server for SAP Applications 15 SP4:python311-idle-3.11.8-150400.9.23.1",
            "SUSE Linux Enterprise Server for SAP Applications 15 SP4:python311-tk-3.11.8-150400.9.23.1",
            "SUSE Linux Enterprise Server for SAP Applications 15 SP4:python311-tools-3.11.8-150400.9.23.1",
            "openSUSE Leap 15.5:libpython3_11-1_0-3.11.8-150400.9.23.1",
            "openSUSE Leap 15.5:libpython3_11-1_0-32bit-3.11.8-150400.9.23.1",
            "openSUSE Leap 15.5:python311-3.11.8-150400.9.23.1",
            "openSUSE Leap 15.5:python311-32bit-3.11.8-150400.9.23.1",
            "openSUSE Leap 15.5:python311-base-3.11.8-150400.9.23.1",
            "openSUSE Leap 15.5:python311-base-32bit-3.11.8-150400.9.23.1",
            "openSUSE Leap 15.5:python311-curses-3.11.8-150400.9.23.1",
            "openSUSE Leap 15.5:python311-dbm-3.11.8-150400.9.23.1",
            "openSUSE Leap 15.5:python311-devel-3.11.8-150400.9.23.1",
            "openSUSE Leap 15.5:python311-doc-3.11.8-150400.9.23.1",
            "openSUSE Leap 15.5:python311-doc-devhelp-3.11.8-150400.9.23.1",
            "openSUSE Leap 15.5:python311-idle-3.11.8-150400.9.23.1",
            "openSUSE Leap 15.5:python311-testsuite-3.11.8-150400.9.23.1",
            "openSUSE Leap 15.5:python311-tk-3.11.8-150400.9.23.1",
            "openSUSE Leap 15.5:python311-tools-3.11.8-150400.9.23.1"
          ]
        }
      ],
      "CVSSScoreSets": {}
    }
  ]
}