{
  "Title": "Security update for tiff",
  "Tracking": {
    "ID": "SUSE-SU-2024:0594-1",
    "Status": "Final",
    "Version": "1",
    "InitialReleaseDate": "2024-02-22T14:58:01Z",
    "CurrentReleaseDate": "2024-02-22T14:58:01Z",
    "RevisionHistory": [
      {
        "Number": "1",
        "Date": "2024-02-22T14:58:01Z",
        "Description": "current"
      }
    ]
  },
  "Notes": [
    {
      "Text": "Security update for tiff",
      "Title": "Topic",
      "Type": "Summary"
    },
    {
      "Text": "This update for tiff fixes the following issues:\n\n- CVE-2023-52356: Fixed segfault in TIFFReadRGBATileExt() (bsc#1219213).\n",
      "Title": "Details",
      "Type": "General"
    },
    {
      "Text": "The CVRF data is provided by SUSE under the Creative Commons License 4.0 with Attribution (CC-BY-4.0).",
      "Title": "Terms of Use",
      "Type": "Legal Disclaimer"
    },
    {
      "Text": "Container suse/nginx:latest-2024-594,Image SLES15-SP2-SAP-Azure-LI-BYOS-Production-2024-594,Image SLES15-SP2-SAP-Azure-VLI-BYOS-Production-2024-594,Image SLES15-SP3-SAP-Azure-LI-BYOS-Production-2024-594,Image SLES15-SP3-SAP-Azure-VLI-BYOS-Production-2024-594,Image SLES15-SP4-SAP-Azure-LI-BYOS-2024-594,Image SLES15-SP4-SAP-Azure-LI-BYOS-Production-2024-594,Image SLES15-SP4-SAP-Azure-VLI-BYOS-2024-594,Image SLES15-SP4-SAP-Azure-VLI-BYOS-Production-2024-594,Image SLES15-SP4-SUSE-Rancher-Setup-BYOS-2024-594,Image SLES15-SP4-SUSE-Rancher-Setup-BYOS-EC2-2024-594,Image SLES15-SP5-Hardened-BYOS-Azure-2024-594,Image SLES15-SP5-Hardened-BYOS-EC2-2024-594,Image SLES15-SP5-Hardened-BYOS-GCE-2024-594,Image SLES15-SP5-SAP-Azure-LI-BYOS-2024-594,Image SLES15-SP5-SAP-Azure-LI-BYOS-Production-2024-594,Image SLES15-SP5-SAP-Azure-VLI-BYOS-2024-594,Image SLES15-SP5-SAP-Azure-VLI-BYOS-Production-2024-594,Image SLES15-SP5-SAP-BYOS-Azure-2024-594,Image SLES15-SP5-SAP-BYOS-EC2-2024-594,Image SLES15-SP5-SAP-BYOS-GCE-2024-594,Image SLES15-SP5-SAP-Hardened-Azure-2024-594,Image SLES15-SP5-SAP-Hardened-BYOS-Azure-2024-594,Image SLES15-SP5-SAP-Hardened-BYOS-EC2-2024-594,Image SLES15-SP5-SAP-Hardened-BYOS-GCE-2024-594,Image SLES15-SP5-SAP-Hardened-GCE-2024-594,Image SLES15-SP5-SAPCAL-Azure-2024-594,Image SLES15-SP5-SAPCAL-EC2-2024-594,Image SLES15-SP5-SAPCAL-GCE-2024-594,SUSE-2024-594,SUSE-SLE-Micro-5.3-2024-594,SUSE-SLE-Micro-5.4-2024-594,SUSE-SLE-Micro-5.5-2024-594,SUSE-SLE-Module-Basesystem-15-SP5-2024-594,SUSE-SLE-Module-Packagehub-Subpackages-15-SP5-2024-594,SUSE-SUSE-MicroOS-5.2-2024-594,openSUSE-Leap-Micro-5.3-2024-594,openSUSE-Leap-Micro-5.4-2024-594,openSUSE-SLE-15.5-2024-594",
      "Title": "Patchnames",
      "Type": "Details"
    }
  ],
  "ProductTree": {
    "Relationships": [
      {
        "ProductReference": "libtiff5-4.0.9-150000.45.38.1",
        "RelatesToProductReference": "Container suse/nginx:latest",
        "RelationType": "Default Component Of"
      },
      {
        "ProductReference": "libtiff5-4.0.9-150000.45.38.1",
        "RelatesToProductReference": "Image SLES15-SP2-SAP-Azure-LI-BYOS-Production",
        "RelationType": "Default Component Of"
      },
      {
        "ProductReference": "libtiff5-4.0.9-150000.45.38.1",
        "RelatesToProductReference": "Image SLES15-SP2-SAP-Azure-VLI-BYOS-Production",
        "RelationType": "Default Component Of"
      },
      {
        "ProductReference": "libtiff5-4.0.9-150000.45.38.1",
        "RelatesToProductReference": "Image SLES15-SP3-SAP-Azure-LI-BYOS-Production",
        "RelationType": "Default Component Of"
      },
      {
        "ProductReference": "libtiff5-4.0.9-150000.45.38.1",
        "RelatesToProductReference": "Image SLES15-SP3-SAP-Azure-VLI-BYOS-Production",
        "RelationType": "Default Component Of"
      },
      {
        "ProductReference": "libtiff5-4.0.9-150000.45.38.1",
        "RelatesToProductReference": "Image SLES15-SP4-SAP-Azure-LI-BYOS",
        "RelationType": "Default Component Of"
      },
      {
        "ProductReference": "libtiff5-4.0.9-150000.45.38.1",
        "RelatesToProductReference": "Image SLES15-SP4-SAP-Azure-LI-BYOS-Production",
        "RelationType": "Default Component Of"
      },
      {
        "ProductReference": "libtiff5-4.0.9-150000.45.38.1",
        "RelatesToProductReference": "Image SLES15-SP4-SAP-Azure-VLI-BYOS",
        "RelationType": "Default Component Of"
      },
      {
        "ProductReference": "libtiff5-4.0.9-150000.45.38.1",
        "RelatesToProductReference": "Image SLES15-SP4-SAP-Azure-VLI-BYOS-Production",
        "RelationType": "Default Component Of"
      },
      {
        "ProductReference": "libtiff5-4.0.9-150000.45.38.1",
        "RelatesToProductReference": "Image SLES15-SP4-SUSE-Rancher-Setup-BYOS",
        "RelationType": "Default Component Of"
      },
      {
        "ProductReference": "libtiff5-4.0.9-150000.45.38.1",
        "RelatesToProductReference": "Image SLES15-SP4-SUSE-Rancher-Setup-BYOS-EC2",
        "RelationType": "Default Component Of"
      },
      {
        "ProductReference": "libtiff5-4.0.9-150000.45.38.1",
        "RelatesToProductReference": "Image SLES15-SP5-Hardened-BYOS-Azure",
        "RelationType": "Default Component Of"
      },
      {
        "ProductReference": "libtiff5-4.0.9-150000.45.38.1",
        "RelatesToProductReference": "Image SLES15-SP5-Hardened-BYOS-EC2",
        "RelationType": "Default Component Of"
      },
      {
        "ProductReference": "libtiff5-4.0.9-150000.45.38.1",
        "RelatesToProductReference": "Image SLES15-SP5-Hardened-BYOS-GCE",
        "RelationType": "Default Component Of"
      },
      {
        "ProductReference": "libtiff5-4.0.9-150000.45.38.1",
        "RelatesToProductReference": "Image SLES15-SP5-SAP-Azure-LI-BYOS",
        "RelationType": "Default Component Of"
      },
      {
        "ProductReference": "libtiff5-4.0.9-150000.45.38.1",
        "RelatesToProductReference": "Image SLES15-SP5-SAP-Azure-LI-BYOS-Production",
        "RelationType": "Default Component Of"
      },
      {
        "ProductReference": "libtiff5-4.0.9-150000.45.38.1",
        "RelatesToProductReference": "Image SLES15-SP5-SAP-Azure-VLI-BYOS",
        "RelationType": "Default Component Of"
      },
      {
        "ProductReference": "libtiff5-4.0.9-150000.45.38.1",
        "RelatesToProductReference": "Image SLES15-SP5-SAP-Azure-VLI-BYOS-Production",
        "RelationType": "Default Component Of"
      },
      {
        "ProductReference": "libtiff5-4.0.9-150000.45.38.1",
        "RelatesToProductReference": "Image SLES15-SP5-SAP-BYOS-Azure",
        "RelationType": "Default Component Of"
      },
      {
        "ProductReference": "libtiff5-4.0.9-150000.45.38.1",
        "RelatesToProductReference": "Image SLES15-SP5-SAP-BYOS-EC2",
        "RelationType": "Default Component Of"
      },
      {
        "ProductReference": "libtiff5-4.0.9-150000.45.38.1",
        "RelatesToProductReference": "Image SLES15-SP5-SAP-BYOS-GCE",
        "RelationType": "Default Component Of"
      },
      {
        "ProductReference": "libtiff5-4.0.9-150000.45.38.1",
        "RelatesToProductReference": "Image SLES15-SP5-SAP-Hardened-Azure",
        "RelationType": "Default Component Of"
      },
      {
        "ProductReference": "libtiff5-4.0.9-150000.45.38.1",
        "RelatesToProductReference": "Image SLES15-SP5-SAP-Hardened-BYOS-Azure",
        "RelationType": "Default Component Of"
      },
      {
        "ProductReference": "libtiff5-4.0.9-150000.45.38.1",
        "RelatesToProductReference": "Image SLES15-SP5-SAP-Hardened-BYOS-EC2",
        "RelationType": "Default Component Of"
      },
      {
        "ProductReference": "libtiff5-4.0.9-150000.45.38.1",
        "RelatesToProductReference": "Image SLES15-SP5-SAP-Hardened-BYOS-GCE",
        "RelationType": "Default Component Of"
      },
      {
        "ProductReference": "libtiff5-4.0.9-150000.45.38.1",
        "RelatesToProductReference": "Image SLES15-SP5-SAP-Hardened-GCE",
        "RelationType": "Default Component Of"
      },
      {
        "ProductReference": "libtiff5-4.0.9-150000.45.38.1",
        "RelatesToProductReference": "Image SLES15-SP5-SAPCAL-Azure",
        "RelationType": "Default Component Of"
      },
      {
        "ProductReference": "libtiff5-4.0.9-150000.45.38.1",
        "RelatesToProductReference": "Image SLES15-SP5-SAPCAL-EC2",
        "RelationType": "Default Component Of"
      },
      {
        "ProductReference": "libtiff5-4.0.9-150000.45.38.1",
        "RelatesToProductReference": "Image SLES15-SP5-SAPCAL-GCE",
        "RelationType": "Default Component Of"
      },
      {
        "ProductReference": "libtiff5-4.0.9-150000.45.38.1",
        "RelatesToProductReference": "SUSE Linux Enterprise Micro 5.2",
        "RelationType": "Default Component Of"
      },
      {
        "ProductReference": "libtiff5-4.0.9-150000.45.38.1",
        "RelatesToProductReference": "SUSE Linux Enterprise Micro 5.3",
        "RelationType": "Default Component Of"
      },
      {
        "ProductReference": "libtiff5-4.0.9-150000.45.38.1",
        "RelatesToProductReference": "SUSE Linux Enterprise Micro 5.4",
        "RelationType": "Default Component Of"
      },
      {
        "ProductReference": "libtiff5-4.0.9-150000.45.38.1",
        "RelatesToProductReference": "SUSE Linux Enterprise Micro 5.5",
        "RelationType": "Default Component Of"
      },
      {
        "ProductReference": "libtiff-devel-4.0.9-150000.45.38.1",
        "RelatesToProductReference": "SUSE Linux Enterprise Module for Basesystem 15 SP5",
        "RelationType": "Default Component Of"
      },
      {
        "ProductReference": "libtiff5-4.0.9-150000.45.38.1",
        "RelatesToProductReference": "SUSE Linux Enterprise Module for Basesystem 15 SP5",
        "RelationType": "Default Component Of"
      },
      {
        "ProductReference": "libtiff5-32bit-4.0.9-150000.45.38.1",
        "RelatesToProductReference": "SUSE Linux Enterprise Module for Basesystem 15 SP5",
        "RelationType": "Default Component Of"
      },
      {
        "ProductReference": "tiff-4.0.9-150000.45.38.1",
        "RelatesToProductReference": "SUSE Linux Enterprise Module for Package Hub 15 SP5",
        "RelationType": "Default Component Of"
      },
      {
        "ProductReference": "libtiff-devel-4.0.9-150000.45.38.1",
        "RelatesToProductReference": "openSUSE Leap 15.5",
        "RelationType": "Default Component Of"
      },
      {
        "ProductReference": "libtiff-devel-32bit-4.0.9-150000.45.38.1",
        "RelatesToProductReference": "openSUSE Leap 15.5",
        "RelationType": "Default Component Of"
      },
      {
        "ProductReference": "libtiff5-4.0.9-150000.45.38.1",
        "RelatesToProductReference": "openSUSE Leap 15.5",
        "RelationType": "Default Component Of"
      },
      {
        "ProductReference": "libtiff5-32bit-4.0.9-150000.45.38.1",
        "RelatesToProductReference": "openSUSE Leap 15.5",
        "RelationType": "Default Component Of"
      },
      {
        "ProductReference": "tiff-4.0.9-150000.45.38.1",
        "RelatesToProductReference": "openSUSE Leap 15.5",
        "RelationType": "Default Component Of"
      },
      {
        "ProductReference": "libtiff5-4.0.9-150000.45.38.1",
        "RelatesToProductReference": "openSUSE Leap Micro 5.3",
        "RelationType": "Default Component Of"
      },
      {
        "ProductReference": "libtiff5-4.0.9-150000.45.38.1",
        "RelatesToProductReference": "openSUSE Leap Micro 5.4",
        "RelationType": "Default Component Of"
      }
    ]
  },
  "References": [
    {
      "URL": "https://www.suse.com/support/update/announcement/2024/suse-su-20240594-1/",
      "Description": "Link for SUSE-SU-2024:0594-1"
    },
    {
      "URL": "https://lists.suse.com/pipermail/sle-security-updates/2024-February/017992.html",
      "Description": "E-Mail link for SUSE-SU-2024:0594-1"
    },
    {
      "URL": "https://www.suse.com/support/security/rating/",
      "Description": "SUSE Security Ratings"
    },
    {
      "URL": "https://bugzilla.suse.com/1219213",
      "Description": "SUSE Bug 1219213"
    },
    {
      "URL": "https://www.suse.com/security/cve/CVE-2023-52356/",
      "Description": "SUSE CVE CVE-2023-52356 page"
    }
  ],
  "Vulnerabilities": [
    {
      "CVE": "CVE-2023-52356",
      "Description": "A segment fault (SEGV) flaw was found in libtiff that could be triggered by passing a crafted tiff file to the TIFFReadRGBATileExt() API. This flaw allows a remote attacker to cause a heap-buffer overflow, leading to a denial of service.",
      "Threats": [
        {
          "Type": "Impact",
          "Severity": "moderate"
        }
      ],
      "References": [
        {
          "URL": "https://www.suse.com/security/cve/CVE-2023-52356.html",
          "Description": "CVE-2023-52356"
        },
        {
          "URL": "https://bugzilla.suse.com/1219213",
          "Description": "SUSE Bug 1219213"
        }
      ],
      "ProductStatuses": [
        {
          "Type": "Fixed",
          "ProductID": [
            "Container suse/nginx:latest:libtiff5-4.0.9-150000.45.38.1",
            "Image SLES15-SP2-SAP-Azure-LI-BYOS-Production:libtiff5-4.0.9-150000.45.38.1",
            "Image SLES15-SP2-SAP-Azure-VLI-BYOS-Production:libtiff5-4.0.9-150000.45.38.1",
            "Image SLES15-SP3-SAP-Azure-LI-BYOS-Production:libtiff5-4.0.9-150000.45.38.1",
            "Image SLES15-SP3-SAP-Azure-VLI-BYOS-Production:libtiff5-4.0.9-150000.45.38.1",
            "Image SLES15-SP4-SAP-Azure-LI-BYOS-Production:libtiff5-4.0.9-150000.45.38.1",
            "Image SLES15-SP4-SAP-Azure-LI-BYOS:libtiff5-4.0.9-150000.45.38.1",
            "Image SLES15-SP4-SAP-Azure-VLI-BYOS-Production:libtiff5-4.0.9-150000.45.38.1",
            "Image SLES15-SP4-SAP-Azure-VLI-BYOS:libtiff5-4.0.9-150000.45.38.1",
            "Image SLES15-SP4-SUSE-Rancher-Setup-BYOS-EC2:libtiff5-4.0.9-150000.45.38.1",
            "Image SLES15-SP4-SUSE-Rancher-Setup-BYOS:libtiff5-4.0.9-150000.45.38.1",
            "Image SLES15-SP5-Hardened-BYOS-Azure:libtiff5-4.0.9-150000.45.38.1",
            "Image SLES15-SP5-Hardened-BYOS-EC2:libtiff5-4.0.9-150000.45.38.1",
            "Image SLES15-SP5-Hardened-BYOS-GCE:libtiff5-4.0.9-150000.45.38.1",
            "Image SLES15-SP5-SAP-Azure-LI-BYOS-Production:libtiff5-4.0.9-150000.45.38.1",
            "Image SLES15-SP5-SAP-Azure-LI-BYOS:libtiff5-4.0.9-150000.45.38.1",
            "Image SLES15-SP5-SAP-Azure-VLI-BYOS-Production:libtiff5-4.0.9-150000.45.38.1",
            "Image SLES15-SP5-SAP-Azure-VLI-BYOS:libtiff5-4.0.9-150000.45.38.1",
            "Image SLES15-SP5-SAP-BYOS-Azure:libtiff5-4.0.9-150000.45.38.1",
            "Image SLES15-SP5-SAP-BYOS-EC2:libtiff5-4.0.9-150000.45.38.1",
            "Image SLES15-SP5-SAP-BYOS-GCE:libtiff5-4.0.9-150000.45.38.1",
            "Image SLES15-SP5-SAP-Hardened-Azure:libtiff5-4.0.9-150000.45.38.1",
            "Image SLES15-SP5-SAP-Hardened-BYOS-Azure:libtiff5-4.0.9-150000.45.38.1",
            "Image SLES15-SP5-SAP-Hardened-BYOS-EC2:libtiff5-4.0.9-150000.45.38.1",
            "Image SLES15-SP5-SAP-Hardened-BYOS-GCE:libtiff5-4.0.9-150000.45.38.1",
            "Image SLES15-SP5-SAP-Hardened-GCE:libtiff5-4.0.9-150000.45.38.1",
            "Image SLES15-SP5-SAPCAL-Azure:libtiff5-4.0.9-150000.45.38.1",
            "Image SLES15-SP5-SAPCAL-EC2:libtiff5-4.0.9-150000.45.38.1",
            "Image SLES15-SP5-SAPCAL-GCE:libtiff5-4.0.9-150000.45.38.1",
            "SUSE Linux Enterprise Micro 5.2:libtiff5-4.0.9-150000.45.38.1",
            "SUSE Linux Enterprise Micro 5.3:libtiff5-4.0.9-150000.45.38.1",
            "SUSE Linux Enterprise Micro 5.4:libtiff5-4.0.9-150000.45.38.1",
            "SUSE Linux Enterprise Micro 5.5:libtiff5-4.0.9-150000.45.38.1",
            "SUSE Linux Enterprise Module for Basesystem 15 SP5:libtiff-devel-4.0.9-150000.45.38.1",
            "SUSE Linux Enterprise Module for Basesystem 15 SP5:libtiff5-32bit-4.0.9-150000.45.38.1",
            "SUSE Linux Enterprise Module for Basesystem 15 SP5:libtiff5-4.0.9-150000.45.38.1",
            "SUSE Linux Enterprise Module for Package Hub 15 SP5:tiff-4.0.9-150000.45.38.1",
            "openSUSE Leap 15.5:libtiff-devel-32bit-4.0.9-150000.45.38.1",
            "openSUSE Leap 15.5:libtiff-devel-4.0.9-150000.45.38.1",
            "openSUSE Leap 15.5:libtiff5-32bit-4.0.9-150000.45.38.1",
            "openSUSE Leap 15.5:libtiff5-4.0.9-150000.45.38.1",
            "openSUSE Leap 15.5:tiff-4.0.9-150000.45.38.1",
            "openSUSE Leap Micro 5.3:libtiff5-4.0.9-150000.45.38.1",
            "openSUSE Leap Micro 5.4:libtiff5-4.0.9-150000.45.38.1"
          ]
        }
      ],
      "CVSSScoreSets": {}
    }
  ]
}