{
  "Title": "Security update for apache2-mod_jk",
  "Tracking": {
    "ID": "SUSE-SU-2024:1198-1",
    "Status": "Final",
    "Version": "1",
    "InitialReleaseDate": "2024-04-10T09:35:25Z",
    "CurrentReleaseDate": "2024-04-10T09:35:25Z",
    "RevisionHistory": [
      {
        "Number": "1",
        "Date": "2024-04-10T09:35:25Z",
        "Description": "current"
      }
    ]
  },
  "Notes": [
    {
      "Text": "Security update for apache2-mod_jk",
      "Title": "Topic",
      "Type": "Summary"
    },
    {
      "Text": "This update for apache2-mod_jk fixes the following issues:\n\n- Upgrade from version 1.2.40 to 1.2.49\n- CVE-2023-41081: Fix an information disclosure issue in mod_jk. (bsc#1215301)\n",
      "Title": "Details",
      "Type": "General"
    },
    {
      "Text": "The CVRF data is provided by SUSE under the Creative Commons License 4.0 with Attribution (CC-BY-4.0).",
      "Title": "Terms of Use",
      "Type": "Legal Disclaimer"
    },
    {
      "Text": "SUSE-2024-1198,SUSE-SLE-SERVER-12-SP5-2024-1198",
      "Title": "Patchnames",
      "Type": "Details"
    }
  ],
  "ProductTree": {
    "Relationships": [
      {
        "ProductReference": "apache2-mod_jk-1.2.49-7.9.1",
        "RelatesToProductReference": "SUSE Linux Enterprise Server 12 SP5",
        "RelationType": "Default Component Of"
      },
      {
        "ProductReference": "apache2-mod_jk-1.2.49-7.9.1",
        "RelatesToProductReference": "SUSE Linux Enterprise Server for SAP Applications 12 SP5",
        "RelationType": "Default Component Of"
      }
    ]
  },
  "References": [
    {
      "URL": "https://www.suse.com/support/update/announcement/2024/suse-su-20241198-1/",
      "Description": "Link for SUSE-SU-2024:1198-1"
    },
    {
      "URL": "https://lists.suse.com/pipermail/sle-updates/2024-April/034926.html",
      "Description": "E-Mail link for SUSE-SU-2024:1198-1"
    },
    {
      "URL": "https://www.suse.com/support/security/rating/",
      "Description": "SUSE Security Ratings"
    },
    {
      "URL": "https://bugzilla.suse.com/1167896",
      "Description": "SUSE Bug 1167896"
    },
    {
      "URL": "https://bugzilla.suse.com/1206261",
      "Description": "SUSE Bug 1206261"
    },
    {
      "URL": "https://bugzilla.suse.com/1215301",
      "Description": "SUSE Bug 1215301"
    },
    {
      "URL": "https://www.suse.com/security/cve/CVE-2023-41081/",
      "Description": "SUSE CVE CVE-2023-41081 page"
    }
  ],
  "Vulnerabilities": [
    {
      "CVE": "CVE-2023-41081",
      "Description": "Important: Authentication Bypass CVE-2023-41081\n\nThe mod_jk component of Apache Tomcat Connectors in some circumstances, such as when a configuration included \"JkOptions +ForwardDirectories\" but the configuration did not       provide explicit mounts for all possible proxied requests, mod_jk would       use an implicit mapping and map the request to the first defined worker. Such an implicit mapping could result in the unintended exposure of the status worker and/or bypass security constraints configured in httpd. As of JK 1.2.49, the implicit mapping functionality has been removed and all mappings must now be via explicit configuration. Only mod_jk is affected by this issue. The ISAPI redirector is not affected.\n\nThis issue affects Apache Tomcat Connectors (mod_jk only): from 1.2.0 through 1.2.48.\n\nUsers are recommended to upgrade to version 1.2.49, which fixes the issue.\n\nHistory\n2023-09-13 Original advisory\n\n2023-09-28 Updated summary\n\n",
      "Threats": [
        {
          "Type": "Impact",
          "Severity": "moderate"
        }
      ],
      "References": [
        {
          "URL": "https://www.suse.com/security/cve/CVE-2023-41081.html",
          "Description": "CVE-2023-41081"
        },
        {
          "URL": "https://bugzilla.suse.com/1215301",
          "Description": "SUSE Bug 1215301"
        }
      ],
      "ProductStatuses": [
        {
          "Type": "Fixed",
          "ProductID": [
            "SUSE Linux Enterprise Server 12 SP5:apache2-mod_jk-1.2.49-7.9.1",
            "SUSE Linux Enterprise Server for SAP Applications 12 SP5:apache2-mod_jk-1.2.49-7.9.1"
          ]
        }
      ],
      "CVSSScoreSets": {}
    }
  ]
}