{
  "Title": "Security update for the Linux Kernel (Live Patch 46 for SLE 15 SP2)",
  "Tracking": {
    "ID": "SUSE-SU-2024:1719-1",
    "Status": "Final",
    "Version": "1",
    "InitialReleaseDate": "2024-05-21T10:04:07Z",
    "CurrentReleaseDate": "2024-05-21T10:04:07Z",
    "RevisionHistory": [
      {
        "Number": "1",
        "Date": "2024-05-21T10:04:07Z",
        "Description": "current"
      }
    ]
  },
  "Notes": [
    {
      "Text": "Security update for the Linux Kernel (Live Patch 46 for SLE 15 SP2)",
      "Title": "Topic",
      "Type": "Summary"
    },
    {
      "Text": "This update for the Linux Kernel 5.3.18-150200_24_183 fixes several issues.\n\nThe following security issues were fixed:\n\n- CVE-2022-48651: Fixed an out-of-bound bug in ipvlan caused by unset skb-\u003emac_header (bsc#1223514).\n- CVE-2023-6546: Fixed a race condition that could lead to a use-after-free in the GSM 0710 tty multiplexor (bsc#1222685).\n- CVE-2023-6531: Fixed a use-after-free due to a race with the deletion of a SKB in unix_stream_read_generic() (bsc#1218487).\n- CVE-2023-1829: Fixed a use-after-free in tcindex that can lead local privilege escalation (bsc#1210619).\n",
      "Title": "Details",
      "Type": "General"
    },
    {
      "Text": "The CVRF data is provided by SUSE under the Creative Commons License 4.0 with Attribution (CC-BY-4.0).",
      "Title": "Terms of Use",
      "Type": "Legal Disclaimer"
    },
    {
      "Text": "SUSE-2024-1719,SUSE-SLE-Module-Live-Patching-15-SP2-2024-1719",
      "Title": "Patchnames",
      "Type": "Details"
    }
  ],
  "ProductTree": {
    "Relationships": [
      {
        "ProductReference": "kernel-livepatch-5_3_18-150200_24_183-default-3-150200.5.6.1",
        "RelatesToProductReference": "SUSE Linux Enterprise Live Patching 15 SP2",
        "RelationType": "Default Component Of"
      }
    ]
  },
  "References": [
    {
      "URL": "https://www.suse.com/support/update/announcement/2024/suse-su-20241719-1/",
      "Description": "Link for SUSE-SU-2024:1719-1"
    },
    {
      "URL": "https://lists.suse.com/pipermail/sle-updates/2024-May/035315.html",
      "Description": "E-Mail link for SUSE-SU-2024:1719-1"
    },
    {
      "URL": "https://www.suse.com/support/security/rating/",
      "Description": "SUSE Security Ratings"
    },
    {
      "URL": "https://bugzilla.suse.com/1210619",
      "Description": "SUSE Bug 1210619"
    },
    {
      "URL": "https://bugzilla.suse.com/1218487",
      "Description": "SUSE Bug 1218487"
    },
    {
      "URL": "https://bugzilla.suse.com/1222685",
      "Description": "SUSE Bug 1222685"
    },
    {
      "URL": "https://bugzilla.suse.com/1223514",
      "Description": "SUSE Bug 1223514"
    },
    {
      "URL": "https://www.suse.com/security/cve/CVE-2022-48651/",
      "Description": "SUSE CVE CVE-2022-48651 page"
    },
    {
      "URL": "https://www.suse.com/security/cve/CVE-2023-1829/",
      "Description": "SUSE CVE CVE-2023-1829 page"
    },
    {
      "URL": "https://www.suse.com/security/cve/CVE-2023-6531/",
      "Description": "SUSE CVE CVE-2023-6531 page"
    },
    {
      "URL": "https://www.suse.com/security/cve/CVE-2023-6546/",
      "Description": "SUSE CVE CVE-2023-6546 page"
    }
  ],
  "Vulnerabilities": [
    {
      "CVE": "CVE-2022-48651",
      "Description": "In the Linux kernel, the following vulnerability has been resolved:\n\nipvlan: Fix out-of-bound bugs caused by unset skb-\u003emac_header\n\nIf an AF_PACKET socket is used to send packets through ipvlan and the\ndefault xmit function of the AF_PACKET socket is changed from\ndev_queue_xmit() to packet_direct_xmit() via setsockopt() with the option\nname of PACKET_QDISC_BYPASS, the skb-\u003emac_header may not be reset and\nremains as the initial value of 65535, this may trigger slab-out-of-bounds\nbugs as following:\n\n=================================================================\nUG: KASAN: slab-out-of-bounds in ipvlan_xmit_mode_l2+0xdb/0x330 [ipvlan]\nPU: 2 PID: 1768 Comm: raw_send Kdump: loaded Not tainted 6.0.0-rc4+ #6\nardware name: QEMU Standard PC (i440FX + PIIX, 1996), BIOS 1.14.0-1.fc33\nall Trace:\nprint_address_description.constprop.0+0x1d/0x160\nprint_report.cold+0x4f/0x112\nkasan_report+0xa3/0x130\nipvlan_xmit_mode_l2+0xdb/0x330 [ipvlan]\nipvlan_start_xmit+0x29/0xa0 [ipvlan]\n__dev_direct_xmit+0x2e2/0x380\npacket_direct_xmit+0x22/0x60\npacket_snd+0x7c9/0xc40\nsock_sendmsg+0x9a/0xa0\n__sys_sendto+0x18a/0x230\n__x64_sys_sendto+0x74/0x90\ndo_syscall_64+0x3b/0x90\nentry_SYSCALL_64_after_hwframe+0x63/0xcd\n\nThe root cause is:\n  1. packet_snd() only reset skb-\u003emac_header when sock-\u003etype is SOCK_RAW\n     and skb-\u003eprotocol is not specified as in packet_parse_headers()\n\n  2. packet_direct_xmit() doesn't reset skb-\u003emac_header as dev_queue_xmit()\n\nIn this case, skb-\u003emac_header is 65535 when ipvlan_xmit_mode_l2() is\ncalled. So when ipvlan_xmit_mode_l2() gets mac header with eth_hdr() which\nuse \"skb-\u003ehead + skb-\u003emac_header\", out-of-bound access occurs.\n\nThis patch replaces eth_hdr() with skb_eth_hdr() in ipvlan_xmit_mode_l2()\nand reset mac header in multicast to solve this out-of-bound bug.",
      "Threats": [
        {
          "Type": "Impact",
          "Severity": "important"
        }
      ],
      "References": [
        {
          "URL": "https://www.suse.com/security/cve/CVE-2022-48651.html",
          "Description": "CVE-2022-48651"
        },
        {
          "URL": "https://bugzilla.suse.com/1223513",
          "Description": "SUSE Bug 1223513"
        },
        {
          "URL": "https://bugzilla.suse.com/1223514",
          "Description": "SUSE Bug 1223514"
        }
      ],
      "ProductStatuses": [
        {
          "Type": "Fixed",
          "ProductID": [
            "SUSE Linux Enterprise Live Patching 15 SP2:kernel-livepatch-5_3_18-150200_24_183-default-3-150200.5.6.1"
          ]
        }
      ],
      "CVSSScoreSets": {}
    },
    {
      "CVE": "CVE-2023-1829",
      "Description": "A use-after-free vulnerability in the Linux Kernel traffic control index filter (tcindex) can be exploited to achieve local privilege escalation. The tcindex_delete function which does not properly deactivate filters in case of a perfect hashes while deleting the underlying structure which can later lead to double freeing the structure. A local attacker user can use this vulnerability to elevate its privileges to root.\nWe recommend upgrading past commit 8c710f75256bb3cf05ac7b1672c82b92c43f3d28.\n\n",
      "Threats": [
        {
          "Type": "Impact",
          "Severity": "important"
        }
      ],
      "References": [
        {
          "URL": "https://www.suse.com/security/cve/CVE-2023-1829.html",
          "Description": "CVE-2023-1829"
        },
        {
          "URL": "https://bugzilla.suse.com/1210335",
          "Description": "SUSE Bug 1210335"
        },
        {
          "URL": "https://bugzilla.suse.com/1210619",
          "Description": "SUSE Bug 1210619"
        },
        {
          "URL": "https://bugzilla.suse.com/1217444",
          "Description": "SUSE Bug 1217444"
        },
        {
          "URL": "https://bugzilla.suse.com/1217531",
          "Description": "SUSE Bug 1217531"
        },
        {
          "URL": "https://bugzilla.suse.com/1220886",
          "Description": "SUSE Bug 1220886"
        }
      ],
      "ProductStatuses": [
        {
          "Type": "Fixed",
          "ProductID": [
            "SUSE Linux Enterprise Live Patching 15 SP2:kernel-livepatch-5_3_18-150200_24_183-default-3-150200.5.6.1"
          ]
        }
      ],
      "CVSSScoreSets": {}
    },
    {
      "CVE": "CVE-2023-6531",
      "Description": "A use-after-free flaw was found in the Linux Kernel due to a race problem in the unix garbage collector's deletion of SKB races with unix_stream_read_generic() on the socket that the SKB is queued on.",
      "Threats": [
        {
          "Type": "Impact",
          "Severity": "moderate"
        }
      ],
      "References": [
        {
          "URL": "https://www.suse.com/security/cve/CVE-2023-6531.html",
          "Description": "CVE-2023-6531"
        },
        {
          "URL": "https://bugzilla.suse.com/1218447",
          "Description": "SUSE Bug 1218447"
        },
        {
          "URL": "https://bugzilla.suse.com/1218487",
          "Description": "SUSE Bug 1218487"
        }
      ],
      "ProductStatuses": [
        {
          "Type": "Fixed",
          "ProductID": [
            "SUSE Linux Enterprise Live Patching 15 SP2:kernel-livepatch-5_3_18-150200_24_183-default-3-150200.5.6.1"
          ]
        }
      ],
      "CVSSScoreSets": {}
    },
    {
      "CVE": "CVE-2023-6546",
      "Description": "A race condition was found in the GSM 0710 tty multiplexor in the Linux kernel. This issue occurs when two threads execute the GSMIOC_SETCONF ioctl on the same tty file descriptor with the gsm line discipline enabled, and can lead to a use-after-free problem on a struct gsm_dlci while restarting the gsm mux. This could allow a local unprivileged user to escalate their privileges on the system.",
      "Threats": [
        {
          "Type": "Impact",
          "Severity": "important"
        }
      ],
      "References": [
        {
          "URL": "https://www.suse.com/security/cve/CVE-2023-6546.html",
          "Description": "CVE-2023-6546"
        },
        {
          "URL": "https://bugzilla.suse.com/1218335",
          "Description": "SUSE Bug 1218335"
        },
        {
          "URL": "https://bugzilla.suse.com/1222685",
          "Description": "SUSE Bug 1222685"
        }
      ],
      "ProductStatuses": [
        {
          "Type": "Fixed",
          "ProductID": [
            "SUSE Linux Enterprise Live Patching 15 SP2:kernel-livepatch-5_3_18-150200_24_183-default-3-150200.5.6.1"
          ]
        }
      ],
      "CVSSScoreSets": {}
    }
  ]
}