{
  "Title": "Security update for the Linux Kernel (Live Patch 38 for SLE 15 SP3)",
  "Tracking": {
    "ID": "SUSE-SU-2024:1229-1",
    "Status": "Final",
    "Version": "1",
    "InitialReleaseDate": "2024-04-11T15:04:32Z",
    "CurrentReleaseDate": "2024-04-11T15:04:32Z",
    "RevisionHistory": [
      {
        "Number": "1",
        "Date": "2024-04-11T15:04:32Z",
        "Description": "current"
      }
    ]
  },
  "Notes": [
    {
      "Text": "Security update for the Linux Kernel (Live Patch 38 for SLE 15 SP3)",
      "Title": "Topic",
      "Type": "Summary"
    },
    {
      "Text": "This update for the Linux Kernel 5.3.18-150300_59_141 fixes several issues.\n\nThe following security issues were fixed:\n\n- CVE-2024-0565: Fixed an out-of-bounds memory read flaw in receive_encrypted_standard in fs/smb/client/smb2ops.c (bsc#1219078).\n- CVE-2023-52340: Fixed ICMPv6 “Packet Too Big” packets force a DoS of the Linux kernel by forcing 100% CPU (bsc#1219296).\n",
      "Title": "Details",
      "Type": "General"
    },
    {
      "Text": "The CVRF data is provided by SUSE under the Creative Commons License 4.0 with Attribution (CC-BY-4.0).",
      "Title": "Terms of Use",
      "Type": "Legal Disclaimer"
    },
    {
      "Text": "SUSE-2024-1229,SUSE-2024-1235,SUSE-2024-1243,SUSE-2024-1244,SUSE-SLE-Module-Live-Patching-15-SP2-2024-1226,SUSE-SLE-Module-Live-Patching-15-SP3-2024-1243",
      "Title": "Patchnames",
      "Type": "Details"
    }
  ],
  "ProductTree": {
    "Relationships": [
      {
        "ProductReference": "kernel-livepatch-5_3_18-150200_24_175-default-5-150200.2.1",
        "RelatesToProductReference": "SUSE Linux Enterprise Live Patching 15 SP2",
        "RelationType": "Default Component Of"
      },
      {
        "ProductReference": "kernel-livepatch-5_3_18-150300_59_141-default-6-150300.2.1",
        "RelatesToProductReference": "SUSE Linux Enterprise Live Patching 15 SP3",
        "RelationType": "Default Component Of"
      }
    ]
  },
  "References": [
    {
      "URL": "https://www.suse.com/support/update/announcement/2024/suse-su-20241229-1/",
      "Description": "Link for SUSE-SU-2024:1229-1"
    },
    {
      "URL": "https://lists.suse.com/pipermail/sle-updates/2024-April/034937.html",
      "Description": "E-Mail link for SUSE-SU-2024:1229-1"
    },
    {
      "URL": "https://www.suse.com/support/security/rating/",
      "Description": "SUSE Security Ratings"
    },
    {
      "URL": "https://bugzilla.suse.com/1219078",
      "Description": "SUSE Bug 1219078"
    },
    {
      "URL": "https://bugzilla.suse.com/1219296",
      "Description": "SUSE Bug 1219296"
    },
    {
      "URL": "https://www.suse.com/security/cve/CVE-2023-52340/",
      "Description": "SUSE CVE CVE-2023-52340 page"
    },
    {
      "URL": "https://www.suse.com/security/cve/CVE-2024-0565/",
      "Description": "SUSE CVE CVE-2024-0565 page"
    }
  ],
  "Vulnerabilities": [
    {
      "CVE": "CVE-2023-52340",
      "Description": "** RESERVED ** This candidate has been reserved by an organization or individual that will use it when announcing a new security problem. When the candidate has been publicized, the details for this candidate will be provided.",
      "Threats": [
        {
          "Type": "Impact",
          "Severity": "important"
        }
      ],
      "References": [
        {
          "URL": "https://www.suse.com/security/cve/CVE-2023-52340.html",
          "Description": "CVE-2023-52340"
        },
        {
          "URL": "https://bugzilla.suse.com/1219295",
          "Description": "SUSE Bug 1219295"
        },
        {
          "URL": "https://bugzilla.suse.com/1219296",
          "Description": "SUSE Bug 1219296"
        },
        {
          "URL": "https://bugzilla.suse.com/1224878",
          "Description": "SUSE Bug 1224878"
        }
      ],
      "ProductStatuses": [
        {
          "Type": "Fixed",
          "ProductID": [
            "SUSE Linux Enterprise Live Patching 15 SP2:kernel-livepatch-5_3_18-150200_24_175-default-5-150200.2.1",
            "SUSE Linux Enterprise Live Patching 15 SP3:kernel-livepatch-5_3_18-150300_59_141-default-6-150300.2.1"
          ]
        }
      ],
      "CVSSScoreSets": {}
    },
    {
      "CVE": "CVE-2024-0565",
      "Description": "An out-of-bounds memory read flaw was found in receive_encrypted_standard in fs/smb/client/smb2ops.c in the SMB Client sub-component in the Linux Kernel. This issue occurs due to integer underflow on the memcpy length, leading to a denial of service.",
      "Threats": [
        {
          "Type": "Impact",
          "Severity": "important"
        }
      ],
      "References": [
        {
          "URL": "https://www.suse.com/security/cve/CVE-2024-0565.html",
          "Description": "CVE-2024-0565"
        },
        {
          "URL": "https://bugzilla.suse.com/1218832",
          "Description": "SUSE Bug 1218832"
        },
        {
          "URL": "https://bugzilla.suse.com/1219078",
          "Description": "SUSE Bug 1219078"
        }
      ],
      "ProductStatuses": [
        {
          "Type": "Fixed",
          "ProductID": [
            "SUSE Linux Enterprise Live Patching 15 SP2:kernel-livepatch-5_3_18-150200_24_175-default-5-150200.2.1",
            "SUSE Linux Enterprise Live Patching 15 SP3:kernel-livepatch-5_3_18-150300_59_141-default-6-150300.2.1"
          ]
        }
      ],
      "CVSSScoreSets": {}
    }
  ]
}