{
  "Title": "Security update for python-aiohttp",
  "Tracking": {
    "ID": "SUSE-SU-2024:0033-1",
    "Status": "Final",
    "Version": "1",
    "InitialReleaseDate": "2024-01-05T08:48:53Z",
    "CurrentReleaseDate": "2024-01-05T08:48:53Z",
    "RevisionHistory": [
      {
        "Number": "1",
        "Date": "2024-01-05T08:48:53Z",
        "Description": "current"
      }
    ]
  },
  "Notes": [
    {
      "Text": "Security update for python-aiohttp",
      "Title": "Topic",
      "Type": "Summary"
    },
    {
      "Text": "This update for python-aiohttp fixes the following issues:\n\n- CVE-2023-49081: fixed an HTTP header injection via a crafted\n  version (bsc#1217684).\n",
      "Title": "Details",
      "Type": "General"
    },
    {
      "Text": "The CVRF data is provided by SUSE under the Creative Commons License 4.0 with Attribution (CC-BY-4.0).",
      "Title": "Terms of Use",
      "Type": "Legal Disclaimer"
    },
    {
      "Text": "Image SLES15-SP4-Manager-Server-4-3-BYOS-2024-33,Image SLES15-SP4-Manager-Server-4-3-BYOS-Azure-2024-33,SUSE-2024-33,SUSE-SLE-Module-Python3-15-SP5-2024-33,openSUSE-SLE-15.5-2024-33",
      "Title": "Patchnames",
      "Type": "Details"
    }
  ],
  "ProductTree": {
    "Relationships": [
      {
        "ProductReference": "python311-aiohttp-3.8.5-150400.10.8.1",
        "RelatesToProductReference": "Image SLES15-SP4-Manager-Server-4-3-BYOS",
        "RelationType": "Default Component Of"
      },
      {
        "ProductReference": "python311-aiohttp-3.8.5-150400.10.8.1",
        "RelatesToProductReference": "Image SLES15-SP4-Manager-Server-4-3-BYOS-Azure",
        "RelationType": "Default Component Of"
      },
      {
        "ProductReference": "python311-aiohttp-3.8.5-150400.10.8.1",
        "RelatesToProductReference": "SUSE Linux Enterprise Module for Python 3 15 SP5",
        "RelationType": "Default Component Of"
      },
      {
        "ProductReference": "python311-aiohttp-3.8.5-150400.10.8.1",
        "RelatesToProductReference": "openSUSE Leap 15.5",
        "RelationType": "Default Component Of"
      }
    ]
  },
  "References": [
    {
      "URL": "https://www.suse.com/support/update/announcement/2024/suse-su-20240033-1/",
      "Description": "Link for SUSE-SU-2024:0033-1"
    },
    {
      "URL": "https://lists.suse.com/pipermail/sle-security-updates/2024-January/017590.html",
      "Description": "E-Mail link for SUSE-SU-2024:0033-1"
    },
    {
      "URL": "https://www.suse.com/support/security/rating/",
      "Description": "SUSE Security Ratings"
    },
    {
      "URL": "https://bugzilla.suse.com/1217684",
      "Description": "SUSE Bug 1217684"
    },
    {
      "URL": "https://www.suse.com/security/cve/CVE-2023-49081/",
      "Description": "SUSE CVE CVE-2023-49081 page"
    }
  ],
  "Vulnerabilities": [
    {
      "CVE": "CVE-2023-49081",
      "Description": "aiohttp is an asynchronous HTTP client/server framework for asyncio and Python. Improper validation made it possible for an attacker to modify the HTTP request (e.g. to insert a new header) or create a new HTTP request if the attacker controls the HTTP version. The vulnerability only occurs if the attacker can control the HTTP version of the request. This issue has been patched in version 3.9.0.",
      "Threats": [
        {
          "Type": "Impact",
          "Severity": "moderate"
        }
      ],
      "References": [
        {
          "URL": "https://www.suse.com/security/cve/CVE-2023-49081.html",
          "Description": "CVE-2023-49081"
        },
        {
          "URL": "https://bugzilla.suse.com/1217684",
          "Description": "SUSE Bug 1217684"
        }
      ],
      "ProductStatuses": [
        {
          "Type": "Fixed",
          "ProductID": [
            "Image SLES15-SP4-Manager-Server-4-3-BYOS-Azure:python311-aiohttp-3.8.5-150400.10.8.1",
            "Image SLES15-SP4-Manager-Server-4-3-BYOS:python311-aiohttp-3.8.5-150400.10.8.1",
            "SUSE Linux Enterprise Module for Python 3 15 SP5:python311-aiohttp-3.8.5-150400.10.8.1",
            "openSUSE Leap 15.5:python311-aiohttp-3.8.5-150400.10.8.1"
          ]
        }
      ],
      "CVSSScoreSets": {}
    }
  ]
}