{
  "Title": "Security update for sudo",
  "Tracking": {
    "ID": "SUSE-SU-2024:0795-2",
    "Status": "Final",
    "Version": "1",
    "InitialReleaseDate": "2024-03-07T09:33:50Z",
    "CurrentReleaseDate": "2024-03-07T09:33:50Z",
    "RevisionHistory": [
      {
        "Number": "1",
        "Date": "2024-03-07T09:33:50Z",
        "Description": "current"
      }
    ]
  },
  "Notes": [
    {
      "Text": "Security update for sudo",
      "Title": "Topic",
      "Type": "Summary"
    },
    {
      "Text": "This update for sudo fixes the following issues:\n\n- CVE-2023-42465: Try to make sudo less vulnerable to ROWHAMMER attacks (bsc#1219026).\n",
      "Title": "Details",
      "Type": "General"
    },
    {
      "Text": "The CVRF data is provided by SUSE under the Creative Commons License 4.0 with Attribution (CC-BY-4.0).",
      "Title": "Terms of Use",
      "Type": "Legal Disclaimer"
    },
    {
      "Text": "Container suse/sle-micro-rancher/5.3:latest-2024-795,Container suse/sle-micro-rancher/5.4:latest-2024-795,Container suse/sle-micro/5.3/toolbox:latest-2024-795,Container suse/sle-micro/5.4/toolbox:latest-2024-795,Image SLES15-SP4-CHOST-BYOS-2024-795,Image SLES15-SP4-CHOST-BYOS-Aliyun-2024-795,Image SLES15-SP4-CHOST-BYOS-Azure-2024-795,Image SLES15-SP4-CHOST-BYOS-EC2-2024-795,Image SLES15-SP4-CHOST-BYOS-GCE-2024-795,Image SLES15-SP4-CHOST-BYOS-SAP-CCloud-2024-795,Image SLES15-SP4-Manager-Proxy-4-3-BYOS-2024-795,Image SLES15-SP4-Manager-Proxy-4-3-BYOS-Azure-2024-795,Image SLES15-SP4-Manager-Proxy-4-3-BYOS-EC2-2024-795,Image SLES15-SP4-Manager-Proxy-4-3-BYOS-GCE-2024-795,Image SLES15-SP4-Manager-Server-4-3-2024-795,Image SLES15-SP4-Manager-Server-4-3-Azure-llc-2024-795,Image SLES15-SP4-Manager-Server-4-3-Azure-ltd-2024-795,Image SLES15-SP4-Manager-Server-4-3-BYOS-2024-795,Image SLES15-SP4-Manager-Server-4-3-BYOS-Azure-2024-795,Image SLES15-SP4-Manager-Server-4-3-BYOS-EC2-2024-795,Image SLES15-SP4-Manager-Server-4-3-BYOS-GCE-2024-795,Image SLES15-SP4-Manager-Server-4-3-EC2-llc-2024-795,Image SLES15-SP4-Manager-Server-4-3-EC2-ltd-2024-795,Image SLES15-SP4-Micro-5-3-2024-795,Image SLES15-SP4-Micro-5-3-EC2-2024-795,Image SLES15-SP4-Micro-5-4-BYOS-2024-795,Image SLES15-SP4-Micro-5-4-BYOS-EC2-2024-795,Image SLES15-SP4-Micro-5-4-BYOS-GCE-2024-795,Image SLES15-SP4-Micro-5-4-GCE-2024-795,Image SLES15-SP4-SAP-Azure-LI-BYOS-2024-795,Image SLES15-SP4-SAP-Azure-LI-BYOS-Production-2024-795,Image SLES15-SP4-SAP-Azure-VLI-BYOS-2024-795,Image SLES15-SP4-SAP-Azure-VLI-BYOS-Production-2024-795,Image SLES15-SP4-SUSE-Rancher-Setup-BYOS-2024-795,Image SLES15-SP4-SUSE-Rancher-Setup-BYOS-EC2-2024-795,SUSE-2024-795,SUSE-SLE-Micro-5.3-2024-795,SUSE-SLE-Micro-5.4-2024-795,SUSE-SLE-Product-HPC-15-SP4-ESPOS-2024-795,SUSE-SLE-Product-HPC-15-SP4-LTSS-2024-795,SUSE-SLE-Product-SLED-15-SP4-LTSS-2024-795,SUSE-SLE-Product-SLES-15-SP4-LTSS-2024-795,SUSE-SLE-Product-SLES_SAP-15-SP4-2024-795,SUSE-SLE-Product-SUSE-Manager-Proxy-4.3-2024-795,SUSE-SLE-Product-SUSE-Manager-Server-4.3-2024-795,openSUSE-Leap-Micro-5.3-2024-795,openSUSE-Leap-Micro-5.4-2024-795",
      "Title": "Patchnames",
      "Type": "Details"
    }
  ],
  "ProductTree": {
    "Relationships": [
      {
        "ProductReference": "sudo-1.9.9-150400.4.33.1",
        "RelatesToProductReference": "Container suse/sle-micro-rancher/5.3:latest",
        "RelationType": "Default Component Of"
      },
      {
        "ProductReference": "sudo-1.9.9-150400.4.33.1",
        "RelatesToProductReference": "Container suse/sle-micro-rancher/5.4:latest",
        "RelationType": "Default Component Of"
      },
      {
        "ProductReference": "sudo-1.9.9-150400.4.33.1",
        "RelatesToProductReference": "Container suse/sle-micro/5.3/toolbox:latest",
        "RelationType": "Default Component Of"
      },
      {
        "ProductReference": "sudo-1.9.9-150400.4.33.1",
        "RelatesToProductReference": "Container suse/sle-micro/5.4/toolbox:latest",
        "RelationType": "Default Component Of"
      },
      {
        "ProductReference": "sudo-1.9.9-150400.4.33.1",
        "RelatesToProductReference": "Image SLES15-SP4-CHOST-BYOS",
        "RelationType": "Default Component Of"
      },
      {
        "ProductReference": "sudo-1.9.9-150400.4.33.1",
        "RelatesToProductReference": "Image SLES15-SP4-CHOST-BYOS-Aliyun",
        "RelationType": "Default Component Of"
      },
      {
        "ProductReference": "sudo-1.9.9-150400.4.33.1",
        "RelatesToProductReference": "Image SLES15-SP4-CHOST-BYOS-Azure",
        "RelationType": "Default Component Of"
      },
      {
        "ProductReference": "sudo-1.9.9-150400.4.33.1",
        "RelatesToProductReference": "Image SLES15-SP4-CHOST-BYOS-EC2",
        "RelationType": "Default Component Of"
      },
      {
        "ProductReference": "sudo-1.9.9-150400.4.33.1",
        "RelatesToProductReference": "Image SLES15-SP4-CHOST-BYOS-GCE",
        "RelationType": "Default Component Of"
      },
      {
        "ProductReference": "sudo-1.9.9-150400.4.33.1",
        "RelatesToProductReference": "Image SLES15-SP4-CHOST-BYOS-SAP-CCloud",
        "RelationType": "Default Component Of"
      },
      {
        "ProductReference": "sudo-1.9.9-150400.4.33.1",
        "RelatesToProductReference": "Image SLES15-SP4-Manager-Proxy-4-3-BYOS",
        "RelationType": "Default Component Of"
      },
      {
        "ProductReference": "sudo-1.9.9-150400.4.33.1",
        "RelatesToProductReference": "Image SLES15-SP4-Manager-Proxy-4-3-BYOS-Azure",
        "RelationType": "Default Component Of"
      },
      {
        "ProductReference": "sudo-1.9.9-150400.4.33.1",
        "RelatesToProductReference": "Image SLES15-SP4-Manager-Proxy-4-3-BYOS-EC2",
        "RelationType": "Default Component Of"
      },
      {
        "ProductReference": "sudo-1.9.9-150400.4.33.1",
        "RelatesToProductReference": "Image SLES15-SP4-Manager-Proxy-4-3-BYOS-GCE",
        "RelationType": "Default Component Of"
      },
      {
        "ProductReference": "sudo-1.9.9-150400.4.33.1",
        "RelatesToProductReference": "Image SLES15-SP4-Manager-Server-4-3",
        "RelationType": "Default Component Of"
      },
      {
        "ProductReference": "sudo-1.9.9-150400.4.33.1",
        "RelatesToProductReference": "Image SLES15-SP4-Manager-Server-4-3-Azure-llc",
        "RelationType": "Default Component Of"
      },
      {
        "ProductReference": "sudo-1.9.9-150400.4.33.1",
        "RelatesToProductReference": "Image SLES15-SP4-Manager-Server-4-3-Azure-ltd",
        "RelationType": "Default Component Of"
      },
      {
        "ProductReference": "sudo-1.9.9-150400.4.33.1",
        "RelatesToProductReference": "Image SLES15-SP4-Manager-Server-4-3-BYOS",
        "RelationType": "Default Component Of"
      },
      {
        "ProductReference": "sudo-1.9.9-150400.4.33.1",
        "RelatesToProductReference": "Image SLES15-SP4-Manager-Server-4-3-BYOS-Azure",
        "RelationType": "Default Component Of"
      },
      {
        "ProductReference": "sudo-1.9.9-150400.4.33.1",
        "RelatesToProductReference": "Image SLES15-SP4-Manager-Server-4-3-BYOS-EC2",
        "RelationType": "Default Component Of"
      },
      {
        "ProductReference": "sudo-1.9.9-150400.4.33.1",
        "RelatesToProductReference": "Image SLES15-SP4-Manager-Server-4-3-BYOS-GCE",
        "RelationType": "Default Component Of"
      },
      {
        "ProductReference": "sudo-1.9.9-150400.4.33.1",
        "RelatesToProductReference": "Image SLES15-SP4-Manager-Server-4-3-EC2-llc",
        "RelationType": "Default Component Of"
      },
      {
        "ProductReference": "sudo-1.9.9-150400.4.33.1",
        "RelatesToProductReference": "Image SLES15-SP4-Manager-Server-4-3-EC2-ltd",
        "RelationType": "Default Component Of"
      },
      {
        "ProductReference": "sudo-1.9.9-150400.4.33.1",
        "RelatesToProductReference": "Image SLES15-SP4-Micro-5-3",
        "RelationType": "Default Component Of"
      },
      {
        "ProductReference": "sudo-1.9.9-150400.4.33.1",
        "RelatesToProductReference": "Image SLES15-SP4-Micro-5-3-EC2",
        "RelationType": "Default Component Of"
      },
      {
        "ProductReference": "sudo-1.9.9-150400.4.33.1",
        "RelatesToProductReference": "Image SLES15-SP4-Micro-5-4-BYOS",
        "RelationType": "Default Component Of"
      },
      {
        "ProductReference": "sudo-1.9.9-150400.4.33.1",
        "RelatesToProductReference": "Image SLES15-SP4-Micro-5-4-BYOS-EC2",
        "RelationType": "Default Component Of"
      },
      {
        "ProductReference": "sudo-1.9.9-150400.4.33.1",
        "RelatesToProductReference": "Image SLES15-SP4-Micro-5-4-BYOS-GCE",
        "RelationType": "Default Component Of"
      },
      {
        "ProductReference": "sudo-1.9.9-150400.4.33.1",
        "RelatesToProductReference": "Image SLES15-SP4-Micro-5-4-GCE",
        "RelationType": "Default Component Of"
      },
      {
        "ProductReference": "sudo-1.9.9-150400.4.33.1",
        "RelatesToProductReference": "Image SLES15-SP4-SAP-Azure-LI-BYOS",
        "RelationType": "Default Component Of"
      },
      {
        "ProductReference": "sudo-1.9.9-150400.4.33.1",
        "RelatesToProductReference": "Image SLES15-SP4-SAP-Azure-LI-BYOS-Production",
        "RelationType": "Default Component Of"
      },
      {
        "ProductReference": "sudo-1.9.9-150400.4.33.1",
        "RelatesToProductReference": "Image SLES15-SP4-SAP-Azure-VLI-BYOS",
        "RelationType": "Default Component Of"
      },
      {
        "ProductReference": "sudo-1.9.9-150400.4.33.1",
        "RelatesToProductReference": "Image SLES15-SP4-SAP-Azure-VLI-BYOS-Production",
        "RelationType": "Default Component Of"
      },
      {
        "ProductReference": "sudo-1.9.9-150400.4.33.1",
        "RelatesToProductReference": "Image SLES15-SP4-SUSE-Rancher-Setup-BYOS",
        "RelationType": "Default Component Of"
      },
      {
        "ProductReference": "sudo-1.9.9-150400.4.33.1",
        "RelatesToProductReference": "Image SLES15-SP4-SUSE-Rancher-Setup-BYOS-EC2",
        "RelationType": "Default Component Of"
      }
    ]
  },
  "References": [
    {
      "URL": "https://www.suse.com/support/update/announcement/2024/suse-su-20240795-2/",
      "Description": "Link for SUSE-SU-2024:0795-2"
    },
    {
      "URL": "https://lists.suse.com/pipermail/sle-security-updates/2024-March/018128.html",
      "Description": "E-Mail link for SUSE-SU-2024:0795-2"
    },
    {
      "URL": "https://www.suse.com/support/security/rating/",
      "Description": "SUSE Security Ratings"
    },
    {
      "URL": "https://bugzilla.suse.com/1219026",
      "Description": "SUSE Bug 1219026"
    },
    {
      "URL": "https://bugzilla.suse.com/1220389",
      "Description": "SUSE Bug 1220389"
    },
    {
      "URL": "https://www.suse.com/security/cve/CVE-2023-42465/",
      "Description": "SUSE CVE CVE-2023-42465 page"
    }
  ],
  "Vulnerabilities": [
    {
      "CVE": "CVE-2023-42465",
      "Description": "Sudo before 1.9.15 might allow row hammer attacks (for authentication bypass or privilege escalation) because application logic sometimes is based on not equaling an error value (instead of equaling a success value), and because the values do not resist flips of a single bit.",
      "Threats": [
        {
          "Type": "Impact",
          "Severity": "moderate"
        }
      ],
      "References": [
        {
          "URL": "https://www.suse.com/security/cve/CVE-2023-42465.html",
          "Description": "CVE-2023-42465"
        },
        {
          "URL": "https://bugzilla.suse.com/1219026",
          "Description": "SUSE Bug 1219026"
        },
        {
          "URL": "https://bugzilla.suse.com/1221593",
          "Description": "SUSE Bug 1221593"
        },
        {
          "URL": "https://bugzilla.suse.com/1224872",
          "Description": "SUSE Bug 1224872"
        }
      ],
      "ProductStatuses": [
        {
          "Type": "Fixed",
          "ProductID": [
            "Container suse/sle-micro-rancher/5.3:latest:sudo-1.9.9-150400.4.33.1",
            "Container suse/sle-micro-rancher/5.4:latest:sudo-1.9.9-150400.4.33.1",
            "Container suse/sle-micro/5.3/toolbox:latest:sudo-1.9.9-150400.4.33.1",
            "Container suse/sle-micro/5.4/toolbox:latest:sudo-1.9.9-150400.4.33.1",
            "Image SLES15-SP4-CHOST-BYOS-Aliyun:sudo-1.9.9-150400.4.33.1",
            "Image SLES15-SP4-CHOST-BYOS-Azure:sudo-1.9.9-150400.4.33.1",
            "Image SLES15-SP4-CHOST-BYOS-EC2:sudo-1.9.9-150400.4.33.1",
            "Image SLES15-SP4-CHOST-BYOS-GCE:sudo-1.9.9-150400.4.33.1",
            "Image SLES15-SP4-CHOST-BYOS-SAP-CCloud:sudo-1.9.9-150400.4.33.1",
            "Image SLES15-SP4-CHOST-BYOS:sudo-1.9.9-150400.4.33.1",
            "Image SLES15-SP4-Manager-Proxy-4-3-BYOS-Azure:sudo-1.9.9-150400.4.33.1",
            "Image SLES15-SP4-Manager-Proxy-4-3-BYOS-EC2:sudo-1.9.9-150400.4.33.1",
            "Image SLES15-SP4-Manager-Proxy-4-3-BYOS-GCE:sudo-1.9.9-150400.4.33.1",
            "Image SLES15-SP4-Manager-Proxy-4-3-BYOS:sudo-1.9.9-150400.4.33.1",
            "Image SLES15-SP4-Manager-Server-4-3-Azure-llc:sudo-1.9.9-150400.4.33.1",
            "Image SLES15-SP4-Manager-Server-4-3-Azure-ltd:sudo-1.9.9-150400.4.33.1",
            "Image SLES15-SP4-Manager-Server-4-3-BYOS-Azure:sudo-1.9.9-150400.4.33.1",
            "Image SLES15-SP4-Manager-Server-4-3-BYOS-EC2:sudo-1.9.9-150400.4.33.1",
            "Image SLES15-SP4-Manager-Server-4-3-BYOS-GCE:sudo-1.9.9-150400.4.33.1",
            "Image SLES15-SP4-Manager-Server-4-3-BYOS:sudo-1.9.9-150400.4.33.1",
            "Image SLES15-SP4-Manager-Server-4-3-EC2-llc:sudo-1.9.9-150400.4.33.1",
            "Image SLES15-SP4-Manager-Server-4-3-EC2-ltd:sudo-1.9.9-150400.4.33.1",
            "Image SLES15-SP4-Manager-Server-4-3:sudo-1.9.9-150400.4.33.1",
            "Image SLES15-SP4-Micro-5-3-EC2:sudo-1.9.9-150400.4.33.1",
            "Image SLES15-SP4-Micro-5-3:sudo-1.9.9-150400.4.33.1",
            "Image SLES15-SP4-Micro-5-4-BYOS-EC2:sudo-1.9.9-150400.4.33.1",
            "Image SLES15-SP4-Micro-5-4-BYOS-GCE:sudo-1.9.9-150400.4.33.1",
            "Image SLES15-SP4-Micro-5-4-BYOS:sudo-1.9.9-150400.4.33.1",
            "Image SLES15-SP4-Micro-5-4-GCE:sudo-1.9.9-150400.4.33.1",
            "Image SLES15-SP4-SAP-Azure-LI-BYOS-Production:sudo-1.9.9-150400.4.33.1",
            "Image SLES15-SP4-SAP-Azure-LI-BYOS:sudo-1.9.9-150400.4.33.1",
            "Image SLES15-SP4-SAP-Azure-VLI-BYOS-Production:sudo-1.9.9-150400.4.33.1",
            "Image SLES15-SP4-SAP-Azure-VLI-BYOS:sudo-1.9.9-150400.4.33.1",
            "Image SLES15-SP4-SUSE-Rancher-Setup-BYOS-EC2:sudo-1.9.9-150400.4.33.1",
            "Image SLES15-SP4-SUSE-Rancher-Setup-BYOS:sudo-1.9.9-150400.4.33.1"
          ]
        }
      ],
      "CVSSScoreSets": {}
    }
  ]
}