{
  "Title": "Recommended update for SUSE Manager 3.1 Release Notes",
  "Tracking": {
    "ID": "SUSE-RU-2018:2639-1",
    "Status": "Final",
    "Version": "1",
    "InitialReleaseDate": "2018-09-06T11:50:51Z",
    "CurrentReleaseDate": "2018-09-06T11:50:51Z",
    "RevisionHistory": [
      {
        "Number": "1",
        "Date": "2018-09-06T11:50:51Z",
        "Description": "current"
      }
    ]
  },
  "Notes": [
    {
      "Text": "Recommended update for SUSE Manager 3.1 Release Notes",
      "Title": "Topic",
      "Type": "Summary"
    },
    {
      "Text": "This update for the SUSE Manager 3.0 Release Notes provides the following additions:\n\n- SUSE Manager Server bugs fixed by latest updates\n\n  + bsc#1057635, bsc#1083295, bsc#1087837, bsc#1089362, bsc#1089526,\n    bsc#1089662, bsc#1093458, bsc#1096264, bsc#1096514, bsc#1097250,\n    bsc#1097697, bsc#1098388, bsc#1098394, bsc#1098815, bsc#1098993,\n    bsc#1099583, bsc#1099638, bsc#1099781, bsc#1100131, bsc#1100731,\n    bsc#1101670, bsc#1102009, bsc#1103044, bsc#1103090, bsc#1103218,\n    bsc#1104025, bsc#1104503, bsc#1105440, bsc#1105442\n\n- SUSE Manager Server security issues fixed by latest updates\n\n  + CVE-2018-1000225, CVE-2018-1000226, CVE-2018-9159\n\n- SUSE Manager Proxy bugs fixed by latest updates\n\n  + bsc#1083295, bsc#1094705, bsc#1097697\n",
      "Title": "Details",
      "Type": "General"
    },
    {
      "Text": "The CVRF data is provided by SUSE under the Creative Commons License 4.0 with Attribution (CC-BY-4.0).",
      "Title": "Terms of Use",
      "Type": "Legal Disclaimer"
    },
    {
      "Text": "SUSE-SUSE-Manager-Proxy-3.1-2018-1849,SUSE-SUSE-Manager-Server-3.1-2018-1849",
      "Title": "Patchnames",
      "Type": "Details"
    }
  ],
  "ProductTree": {
    "Relationships": [
      {
        "ProductReference": "release-notes-susemanager-proxy-3.1.8-0.15.29.1",
        "RelatesToProductReference": "SUSE Manager Proxy 3.1",
        "RelationType": "Default Component Of"
      },
      {
        "ProductReference": "release-notes-susemanager-3.1.8-5.38.1",
        "RelatesToProductReference": "SUSE Manager Server 3.1",
        "RelationType": "Default Component Of"
      }
    ]
  },
  "References": [
    {
      "URL": "https://www.suse.com/support/update/announcement//suse-ru-20182639-1/",
      "Description": "Link for SUSE-RU-2018:2639-1"
    },
    {
      "URL": "https://lists.suse.com/pipermail/sle-updates/2018-September/009273.html",
      "Description": "E-Mail link for SUSE-RU-2018:2639-1"
    },
    {
      "URL": "https://www.suse.com/support/security/rating/",
      "Description": "SUSE Security Ratings"
    },
    {
      "URL": "https://bugzilla.suse.com/1087837",
      "Description": "SUSE Bug 1087837"
    },
    {
      "URL": "https://bugzilla.suse.com/1105440",
      "Description": "SUSE Bug 1105440"
    },
    {
      "URL": "https://bugzilla.suse.com/1105442",
      "Description": "SUSE Bug 1105442"
    },
    {
      "URL": "https://www.suse.com/security/cve/CVE-2018-1000225/",
      "Description": "SUSE CVE CVE-2018-1000225 page"
    },
    {
      "URL": "https://www.suse.com/security/cve/CVE-2018-1000226/",
      "Description": "SUSE CVE CVE-2018-1000226 page"
    },
    {
      "URL": "https://www.suse.com/security/cve/CVE-2018-9159/",
      "Description": "SUSE CVE CVE-2018-9159 page"
    }
  ],
  "Vulnerabilities": [
    {
      "CVE": "CVE-2018-1000225",
      "Description": "Cobbler version Verified as present in Cobbler versions 2.6.11+, but code inspection suggests at least 2.0.0+ or possibly even older versions may be vulnerable contains a Cross Site Scripting (XSS) vulnerability in cobbler-web that can result in Privilege escalation to admin.. This attack appear to be exploitable via \"network connectivity\". Sending unauthenticated JavaScript payload to the Cobbler XMLRPC API (/cobbler_api).",
      "Threats": [
        {
          "Type": "Impact",
          "Severity": "low"
        }
      ],
      "References": [
        {
          "URL": "https://www.suse.com/security/cve/CVE-2018-1000225.html",
          "Description": "CVE-2018-1000225"
        },
        {
          "URL": "https://bugzilla.suse.com/1104190",
          "Description": "SUSE Bug 1104190"
        },
        {
          "URL": "https://bugzilla.suse.com/1104287",
          "Description": "SUSE Bug 1104287"
        },
        {
          "URL": "https://bugzilla.suse.com/1105442",
          "Description": "SUSE Bug 1105442"
        }
      ],
      "ProductStatuses": [
        {
          "Type": "Fixed",
          "ProductID": [
            "SUSE Manager Proxy 3.1:release-notes-susemanager-proxy-3.1.8-0.15.29.1",
            "SUSE Manager Server 3.1:release-notes-susemanager-3.1.8-5.38.1"
          ]
        }
      ],
      "CVSSScoreSets": {}
    },
    {
      "CVE": "CVE-2018-1000226",
      "Description": "Cobbler version Verified as present in Cobbler versions 2.6.11+, but code inspection suggests at least 2.0.0+ or possibly even older versions may be vulnerable contains a Incorrect Access Control vulnerability in XMLRPC API (/cobbler_api) that can result in Privilege escalation, data manipulation or exfiltration, LDAP credential harvesting. This attack appear to be exploitable via \"network connectivity\". Taking advantage of improper validation of security tokens in API endpoints. Please note this is a different issue than CVE-2018-10931.",
      "Threats": [
        {
          "Type": "Impact",
          "Severity": "low"
        }
      ],
      "References": [
        {
          "URL": "https://www.suse.com/security/cve/CVE-2018-1000226.html",
          "Description": "CVE-2018-1000226"
        },
        {
          "URL": "https://bugzilla.suse.com/1104190",
          "Description": "SUSE Bug 1104190"
        },
        {
          "URL": "https://bugzilla.suse.com/1104287",
          "Description": "SUSE Bug 1104287"
        },
        {
          "URL": "https://bugzilla.suse.com/1105440",
          "Description": "SUSE Bug 1105440"
        },
        {
          "URL": "https://bugzilla.suse.com/1105442",
          "Description": "SUSE Bug 1105442"
        },
        {
          "URL": "https://bugzilla.suse.com/1131852",
          "Description": "SUSE Bug 1131852"
        }
      ],
      "ProductStatuses": [
        {
          "Type": "Fixed",
          "ProductID": [
            "SUSE Manager Proxy 3.1:release-notes-susemanager-proxy-3.1.8-0.15.29.1",
            "SUSE Manager Server 3.1:release-notes-susemanager-3.1.8-5.38.1"
          ]
        }
      ],
      "CVSSScoreSets": {}
    },
    {
      "CVE": "CVE-2018-9159",
      "Description": "In Spark before 2.7.2, a remote attacker can read unintended static files via various representations of absolute or relative pathnames, as demonstrated by file: URLs and directory traversal sequences. NOTE: this product is unrelated to Ignite Realtime Spark.",
      "Threats": [
        {
          "Type": "Impact",
          "Severity": "low"
        }
      ],
      "References": [
        {
          "URL": "https://www.suse.com/security/cve/CVE-2018-9159.html",
          "Description": "CVE-2018-9159"
        },
        {
          "URL": "https://bugzilla.suse.com/1087837",
          "Description": "SUSE Bug 1087837"
        },
        {
          "URL": "https://bugzilla.suse.com/1089101",
          "Description": "SUSE Bug 1089101"
        }
      ],
      "ProductStatuses": [
        {
          "Type": "Fixed",
          "ProductID": [
            "SUSE Manager Proxy 3.1:release-notes-susemanager-proxy-3.1.8-0.15.29.1",
            "SUSE Manager Server 3.1:release-notes-susemanager-3.1.8-5.38.1"
          ]
        }
      ],
      "CVSSScoreSets": {}
    }
  ]
}