{
  "Title": "Security update for the Linux Kernel (Live Patch 30 for SLE 12 SP3)",
  "Tracking": {
    "ID": "SUSE-SU-2020:2498-1",
    "Status": "Final",
    "Version": "1",
    "InitialReleaseDate": "2020-09-04T11:29:42Z",
    "CurrentReleaseDate": "2020-09-04T11:29:42Z",
    "RevisionHistory": [
      {
        "Number": "1",
        "Date": "2020-09-04T11:29:42Z",
        "Description": "current"
      }
    ]
  },
  "Notes": [
    {
      "Text": "Security update for the Linux Kernel (Live Patch 30 for SLE 12 SP3)",
      "Title": "Topic",
      "Type": "Summary"
    },
    {
      "Text": "This update for the Linux Kernel 4.4.180-94_113 fixes several issues.\n\nThe following security issues were fixed:\n\n- CVE-2020-14331: Fixed a buffer over-write in vgacon_scroll (bsc#1174247).\n- CVE-2019-16746: Fixed a buffer overflow in net/wireless/nl80211.c (bsc#1173659).\n- CVE-2019-9458: Fixed a use-after-free in media/v4l (bsc#1173963).\n- CVE-2020-11668: Fixed a memory corruption issue in the Xirlink camera USB driver (bsc#1173942).\n- CVE-2019-19447: Fixed a use-after-free in ext4_put_super (bsc#1173869).\n- CVE-2019-14895: Fixed a heap-based buffer overflow in the Marvell WiFi driver (bsc#1173100).\n",
      "Title": "Details",
      "Type": "General"
    },
    {
      "Text": "The CVRF data is provided by SUSE under the Creative Commons License 4.0 with Attribution (CC-BY-4.0).",
      "Title": "Terms of Use",
      "Type": "Legal Disclaimer"
    },
    {
      "Text": "SUSE-2020-2498,SUSE-SLE-SAP-12-SP3-2020-2498,SUSE-SLE-SERVER-12-SP3-2020-2498",
      "Title": "Patchnames",
      "Type": "Details"
    }
  ],
  "ProductTree": {
    "Relationships": [
      {
        "ProductReference": "kgraft-patch-4_4_180-94_113-default-6-2.2",
        "RelatesToProductReference": "SUSE Linux Enterprise Server 12 SP3-LTSS",
        "RelationType": "Default Component Of"
      },
      {
        "ProductReference": "kgraft-patch-4_4_180-94_113-default-6-2.2",
        "RelatesToProductReference": "SUSE Linux Enterprise Server for SAP Applications 12 SP3",
        "RelationType": "Default Component Of"
      }
    ]
  },
  "References": [
    {
      "URL": "https://www.suse.com/support/update/announcement/2020/suse-su-20202498-1/",
      "Description": "Link for SUSE-SU-2020:2498-1"
    },
    {
      "URL": "https://lists.suse.com/pipermail/sle-security-updates/2020-September/007370.html",
      "Description": "E-Mail link for SUSE-SU-2020:2498-1"
    },
    {
      "URL": "https://www.suse.com/support/security/rating/",
      "Description": "SUSE Security Ratings"
    },
    {
      "URL": "https://bugzilla.suse.com/1173100",
      "Description": "SUSE Bug 1173100"
    },
    {
      "URL": "https://bugzilla.suse.com/1173659",
      "Description": "SUSE Bug 1173659"
    },
    {
      "URL": "https://bugzilla.suse.com/1173869",
      "Description": "SUSE Bug 1173869"
    },
    {
      "URL": "https://bugzilla.suse.com/1173942",
      "Description": "SUSE Bug 1173942"
    },
    {
      "URL": "https://bugzilla.suse.com/1173963",
      "Description": "SUSE Bug 1173963"
    },
    {
      "URL": "https://bugzilla.suse.com/1174247",
      "Description": "SUSE Bug 1174247"
    },
    {
      "URL": "https://www.suse.com/security/cve/CVE-2019-14895/",
      "Description": "SUSE CVE CVE-2019-14895 page"
    },
    {
      "URL": "https://www.suse.com/security/cve/CVE-2019-16746/",
      "Description": "SUSE CVE CVE-2019-16746 page"
    },
    {
      "URL": "https://www.suse.com/security/cve/CVE-2019-19447/",
      "Description": "SUSE CVE CVE-2019-19447 page"
    },
    {
      "URL": "https://www.suse.com/security/cve/CVE-2019-9458/",
      "Description": "SUSE CVE CVE-2019-9458 page"
    },
    {
      "URL": "https://www.suse.com/security/cve/CVE-2020-11668/",
      "Description": "SUSE CVE CVE-2020-11668 page"
    },
    {
      "URL": "https://www.suse.com/security/cve/CVE-2020-14331/",
      "Description": "SUSE CVE CVE-2020-14331 page"
    }
  ],
  "Vulnerabilities": [
    {
      "CVE": "CVE-2019-14895",
      "Description": "A heap-based buffer overflow was discovered in the Linux kernel, all versions 3.x.x and 4.x.x before 4.18.0, in Marvell WiFi chip driver. The flaw could occur when the station attempts a connection negotiation during the handling of the remote devices country settings. This could allow the remote device to cause a denial of service (system crash) or possibly execute arbitrary code.",
      "Threats": [
        {
          "Type": "Impact",
          "Severity": "important"
        }
      ],
      "References": [
        {
          "URL": "https://www.suse.com/security/cve/CVE-2019-14895.html",
          "Description": "CVE-2019-14895"
        },
        {
          "URL": "https://bugzilla.suse.com/1157042",
          "Description": "SUSE Bug 1157042"
        },
        {
          "URL": "https://bugzilla.suse.com/1157158",
          "Description": "SUSE Bug 1157158"
        },
        {
          "URL": "https://bugzilla.suse.com/1173100",
          "Description": "SUSE Bug 1173100"
        },
        {
          "URL": "https://bugzilla.suse.com/1173660",
          "Description": "SUSE Bug 1173660"
        }
      ],
      "ProductStatuses": [
        {
          "Type": "Fixed",
          "ProductID": [
            "SUSE Linux Enterprise Server 12 SP3-LTSS:kgraft-patch-4_4_180-94_113-default-6-2.2",
            "SUSE Linux Enterprise Server for SAP Applications 12 SP3:kgraft-patch-4_4_180-94_113-default-6-2.2"
          ]
        }
      ],
      "CVSSScoreSets": {}
    },
    {
      "CVE": "CVE-2019-16746",
      "Description": "An issue was discovered in net/wireless/nl80211.c in the Linux kernel through 5.2.17. It does not check the length of variable elements in a beacon head, leading to a buffer overflow.",
      "Threats": [
        {
          "Type": "Impact",
          "Severity": "important"
        }
      ],
      "References": [
        {
          "URL": "https://www.suse.com/security/cve/CVE-2019-16746.html",
          "Description": "CVE-2019-16746"
        },
        {
          "URL": "https://bugzilla.suse.com/1152107",
          "Description": "SUSE Bug 1152107"
        },
        {
          "URL": "https://bugzilla.suse.com/1173659",
          "Description": "SUSE Bug 1173659"
        }
      ],
      "ProductStatuses": [
        {
          "Type": "Fixed",
          "ProductID": [
            "SUSE Linux Enterprise Server 12 SP3-LTSS:kgraft-patch-4_4_180-94_113-default-6-2.2",
            "SUSE Linux Enterprise Server for SAP Applications 12 SP3:kgraft-patch-4_4_180-94_113-default-6-2.2"
          ]
        }
      ],
      "CVSSScoreSets": {}
    },
    {
      "CVE": "CVE-2019-19447",
      "Description": "In the Linux kernel 5.0.21, mounting a crafted ext4 filesystem image, performing some operations, and unmounting can lead to a use-after-free in ext4_put_super in fs/ext4/super.c, related to dump_orphan_list in fs/ext4/super.c.",
      "Threats": [
        {
          "Type": "Impact",
          "Severity": "important"
        }
      ],
      "References": [
        {
          "URL": "https://www.suse.com/security/cve/CVE-2019-19447.html",
          "Description": "CVE-2019-19447"
        },
        {
          "URL": "https://bugzilla.suse.com/1158819",
          "Description": "SUSE Bug 1158819"
        },
        {
          "URL": "https://bugzilla.suse.com/1173869",
          "Description": "SUSE Bug 1173869"
        }
      ],
      "ProductStatuses": [
        {
          "Type": "Fixed",
          "ProductID": [
            "SUSE Linux Enterprise Server 12 SP3-LTSS:kgraft-patch-4_4_180-94_113-default-6-2.2",
            "SUSE Linux Enterprise Server for SAP Applications 12 SP3:kgraft-patch-4_4_180-94_113-default-6-2.2"
          ]
        }
      ],
      "CVSSScoreSets": {}
    },
    {
      "CVE": "CVE-2019-9458",
      "Description": "In the Android kernel in the video driver there is a use after free due to a race condition. This could lead to local escalation of privilege with no additional execution privileges needed. User interaction is not needed for exploitation.",
      "Threats": [
        {
          "Type": "Impact",
          "Severity": "moderate"
        }
      ],
      "References": [
        {
          "URL": "https://www.suse.com/security/cve/CVE-2019-9458.html",
          "Description": "CVE-2019-9458"
        },
        {
          "URL": "https://bugzilla.suse.com/1168295",
          "Description": "SUSE Bug 1168295"
        },
        {
          "URL": "https://bugzilla.suse.com/1173963",
          "Description": "SUSE Bug 1173963"
        }
      ],
      "ProductStatuses": [
        {
          "Type": "Fixed",
          "ProductID": [
            "SUSE Linux Enterprise Server 12 SP3-LTSS:kgraft-patch-4_4_180-94_113-default-6-2.2",
            "SUSE Linux Enterprise Server for SAP Applications 12 SP3:kgraft-patch-4_4_180-94_113-default-6-2.2"
          ]
        }
      ],
      "CVSSScoreSets": {}
    },
    {
      "CVE": "CVE-2020-11668",
      "Description": "In the Linux kernel before 5.6.1, drivers/media/usb/gspca/xirlink_cit.c (aka the Xirlink camera USB driver) mishandles invalid descriptors, aka CID-a246b4d54770.",
      "Threats": [
        {
          "Type": "Impact",
          "Severity": "important"
        }
      ],
      "References": [
        {
          "URL": "https://www.suse.com/security/cve/CVE-2020-11668.html",
          "Description": "CVE-2020-11668"
        },
        {
          "URL": "https://bugzilla.suse.com/1168952",
          "Description": "SUSE Bug 1168952"
        },
        {
          "URL": "https://bugzilla.suse.com/1173942",
          "Description": "SUSE Bug 1173942"
        }
      ],
      "ProductStatuses": [
        {
          "Type": "Fixed",
          "ProductID": [
            "SUSE Linux Enterprise Server 12 SP3-LTSS:kgraft-patch-4_4_180-94_113-default-6-2.2",
            "SUSE Linux Enterprise Server for SAP Applications 12 SP3:kgraft-patch-4_4_180-94_113-default-6-2.2"
          ]
        }
      ],
      "CVSSScoreSets": {}
    },
    {
      "CVE": "CVE-2020-14331",
      "Description": "A flaw was found in the Linux kernel's implementation of the invert video code on VGA consoles when a local attacker attempts to resize the console, calling an ioctl VT_RESIZE, which causes an out-of-bounds write to occur. This flaw allows a local user with access to the VGA console to crash the system, potentially escalating their privileges on the system. The highest threat from this vulnerability is to data confidentiality and integrity as well as system availability.",
      "Threats": [
        {
          "Type": "Impact",
          "Severity": "important"
        }
      ],
      "References": [
        {
          "URL": "https://www.suse.com/security/cve/CVE-2020-14331.html",
          "Description": "CVE-2020-14331"
        },
        {
          "URL": "https://bugzilla.suse.com/1174205",
          "Description": "SUSE Bug 1174205"
        },
        {
          "URL": "https://bugzilla.suse.com/1174247",
          "Description": "SUSE Bug 1174247"
        }
      ],
      "ProductStatuses": [
        {
          "Type": "Fixed",
          "ProductID": [
            "SUSE Linux Enterprise Server 12 SP3-LTSS:kgraft-patch-4_4_180-94_113-default-6-2.2",
            "SUSE Linux Enterprise Server for SAP Applications 12 SP3:kgraft-patch-4_4_180-94_113-default-6-2.2"
          ]
        }
      ],
      "CVSSScoreSets": {}
    }
  ]
}