{
  "Title": "Security update for the Linux Kernel (Live Patch 20 for SLE 15)",
  "Tracking": {
    "ID": "SUSE-SU-2020:3178-1",
    "Status": "Final",
    "Version": "1",
    "InitialReleaseDate": "2020-11-05T13:49:07Z",
    "CurrentReleaseDate": "2020-11-05T13:49:07Z",
    "RevisionHistory": [
      {
        "Number": "1",
        "Date": "2020-11-05T13:49:07Z",
        "Description": "current"
      }
    ]
  },
  "Notes": [
    {
      "Text": "Security update for the Linux Kernel (Live Patch 20 for SLE 15)",
      "Title": "Topic",
      "Type": "Summary"
    },
    {
      "Text": "This update for the Linux Kernel 4.12.14-150_58 fixes several issues.\n\nThe following security issues were fixed:\n\n- CVE-2020-14381: Fixed a use-after-free in the fast user mutex (futex) wait operation, which could have lead to memory corruption and possibly privilege escalation (bsc#1176011).\n- CVE-2020-0431: In kbd_keycode of keyboard.c, there is a possible out of bounds write due to a missing bounds check. This could lead to local escalation of privilege with no additional execution privileges needed. User interaction is not needed for exploitation. (bsc#1176722)\n- CVE-2020-25212: A TOCTOU mismatch in the NFS client code could be used by local attackers to corrupt memory or possibly have unspecified other impact because a size check is in fs/nfs/nfs4proc.c instead of fs/nfs/nfs4xdr.c (bsc#1176381).\n- CVE-2020-11668: Fixed an out of bounds write to the heap in drivers/media/usb/gspca/xirlink_cit.c (aka the Xirlink camera USB driver) caused by mishandling invalid descriptors (bsc#1168952).\n",
      "Title": "Details",
      "Type": "General"
    },
    {
      "Text": "The CVRF data is provided by SUSE under the Creative Commons License 4.0 with Attribution (CC-BY-4.0).",
      "Title": "Terms of Use",
      "Type": "Legal Disclaimer"
    },
    {
      "Text": "SUSE-2020-3178,SUSE-SLE-Module-Live-Patching-15-2020-3178",
      "Title": "Patchnames",
      "Type": "Details"
    }
  ],
  "ProductTree": {
    "Relationships": [
      {
        "ProductReference": "kernel-livepatch-4_12_14-150_58-default-2-2.1",
        "RelatesToProductReference": "SUSE Linux Enterprise Live Patching 15",
        "RelationType": "Default Component Of"
      }
    ]
  },
  "References": [
    {
      "URL": "https://www.suse.com/support/update/announcement/2020/suse-su-20203178-1/",
      "Description": "Link for SUSE-SU-2020:3178-1"
    },
    {
      "URL": "https://lists.suse.com/pipermail/sle-security-updates/2020-November/007706.html",
      "Description": "E-Mail link for SUSE-SU-2020:3178-1"
    },
    {
      "URL": "https://www.suse.com/support/security/rating/",
      "Description": "SUSE Security Ratings"
    },
    {
      "URL": "https://bugzilla.suse.com/1173942",
      "Description": "SUSE Bug 1173942"
    },
    {
      "URL": "https://bugzilla.suse.com/1176012",
      "Description": "SUSE Bug 1176012"
    },
    {
      "URL": "https://bugzilla.suse.com/1176382",
      "Description": "SUSE Bug 1176382"
    },
    {
      "URL": "https://bugzilla.suse.com/1176896",
      "Description": "SUSE Bug 1176896"
    },
    {
      "URL": "https://www.suse.com/security/cve/CVE-2020-0431/",
      "Description": "SUSE CVE CVE-2020-0431 page"
    },
    {
      "URL": "https://www.suse.com/security/cve/CVE-2020-11668/",
      "Description": "SUSE CVE CVE-2020-11668 page"
    },
    {
      "URL": "https://www.suse.com/security/cve/CVE-2020-14381/",
      "Description": "SUSE CVE CVE-2020-14381 page"
    },
    {
      "URL": "https://www.suse.com/security/cve/CVE-2020-25212/",
      "Description": "SUSE CVE CVE-2020-25212 page"
    }
  ],
  "Vulnerabilities": [
    {
      "CVE": "CVE-2020-0431",
      "Description": "In kbd_keycode of keyboard.c, there is a possible out of bounds write due to a missing bounds check. This could lead to local escalation of privilege with no additional execution privileges needed. User interaction is not needed for exploitation.Product: AndroidVersions: Android kernelAndroid ID: A-144161459",
      "Threats": [
        {
          "Type": "Impact",
          "Severity": "important"
        }
      ],
      "References": [
        {
          "URL": "https://www.suse.com/security/cve/CVE-2020-0431.html",
          "Description": "CVE-2020-0431"
        },
        {
          "URL": "https://bugzilla.suse.com/1176722",
          "Description": "SUSE Bug 1176722"
        },
        {
          "URL": "https://bugzilla.suse.com/1176896",
          "Description": "SUSE Bug 1176896"
        }
      ],
      "ProductStatuses": [
        {
          "Type": "Fixed",
          "ProductID": [
            "SUSE Linux Enterprise Live Patching 15:kernel-livepatch-4_12_14-150_58-default-2-2.1"
          ]
        }
      ],
      "CVSSScoreSets": {}
    },
    {
      "CVE": "CVE-2020-11668",
      "Description": "In the Linux kernel before 5.6.1, drivers/media/usb/gspca/xirlink_cit.c (aka the Xirlink camera USB driver) mishandles invalid descriptors, aka CID-a246b4d54770.",
      "Threats": [
        {
          "Type": "Impact",
          "Severity": "important"
        }
      ],
      "References": [
        {
          "URL": "https://www.suse.com/security/cve/CVE-2020-11668.html",
          "Description": "CVE-2020-11668"
        },
        {
          "URL": "https://bugzilla.suse.com/1168952",
          "Description": "SUSE Bug 1168952"
        },
        {
          "URL": "https://bugzilla.suse.com/1173942",
          "Description": "SUSE Bug 1173942"
        }
      ],
      "ProductStatuses": [
        {
          "Type": "Fixed",
          "ProductID": [
            "SUSE Linux Enterprise Live Patching 15:kernel-livepatch-4_12_14-150_58-default-2-2.1"
          ]
        }
      ],
      "CVSSScoreSets": {}
    },
    {
      "CVE": "CVE-2020-14381",
      "Description": "A flaw was found in the Linux kernel's futex implementation. This flaw allows a local attacker to corrupt system memory or escalate their privileges when creating a futex on a filesystem that is about to be unmounted. The highest threat from this vulnerability is to confidentiality, integrity, as well as system availability.",
      "Threats": [
        {
          "Type": "Impact",
          "Severity": "important"
        }
      ],
      "References": [
        {
          "URL": "https://www.suse.com/security/cve/CVE-2020-14381.html",
          "Description": "CVE-2020-14381"
        },
        {
          "URL": "https://bugzilla.suse.com/1176011",
          "Description": "SUSE Bug 1176011"
        },
        {
          "URL": "https://bugzilla.suse.com/1176012",
          "Description": "SUSE Bug 1176012"
        }
      ],
      "ProductStatuses": [
        {
          "Type": "Fixed",
          "ProductID": [
            "SUSE Linux Enterprise Live Patching 15:kernel-livepatch-4_12_14-150_58-default-2-2.1"
          ]
        }
      ],
      "CVSSScoreSets": {}
    },
    {
      "CVE": "CVE-2020-25212",
      "Description": "A TOCTOU mismatch in the NFS client code in the Linux kernel before 5.8.3 could be used by local attackers to corrupt memory or possibly have unspecified other impact because a size check is in fs/nfs/nfs4proc.c instead of fs/nfs/nfs4xdr.c, aka CID-b4487b935452.",
      "Threats": [
        {
          "Type": "Impact",
          "Severity": "important"
        }
      ],
      "References": [
        {
          "URL": "https://www.suse.com/security/cve/CVE-2020-25212.html",
          "Description": "CVE-2020-25212"
        },
        {
          "URL": "https://bugzilla.suse.com/1176381",
          "Description": "SUSE Bug 1176381"
        },
        {
          "URL": "https://bugzilla.suse.com/1176382",
          "Description": "SUSE Bug 1176382"
        },
        {
          "URL": "https://bugzilla.suse.com/1177027",
          "Description": "SUSE Bug 1177027"
        }
      ],
      "ProductStatuses": [
        {
          "Type": "Fixed",
          "ProductID": [
            "SUSE Linux Enterprise Live Patching 15:kernel-livepatch-4_12_14-150_58-default-2-2.1"
          ]
        }
      ],
      "CVSSScoreSets": {}
    }
  ]
}