{
  "Title": "Security update for libmspack",
  "Tracking": {
    "ID": "SUSE-SU-2020:1493-1",
    "Status": "Final",
    "Version": "1",
    "InitialReleaseDate": "2020-05-27T16:55:56Z",
    "CurrentReleaseDate": "2020-05-27T16:55:56Z",
    "RevisionHistory": [
      {
        "Number": "1",
        "Date": "2020-05-27T16:55:56Z",
        "Description": "current"
      }
    ]
  },
  "Notes": [
    {
      "Text": "Security update for libmspack",
      "Title": "Topic",
      "Type": "Summary"
    },
    {
      "Text": "This update for libmspack fixes the following issues:\n\nSecurity issue fixed:\n\n- CVE-2019-1010305: Fixed a buffer overflow triggered by a crafted chm file\n  which could have led to information disclosure (bsc#1141680).\n  \nOther issue addressed: \n\n- Enable build-time tests (bsc#1130489)\n\n",
      "Title": "Details",
      "Type": "General"
    },
    {
      "Text": "The CVRF data is provided by SUSE under the Creative Commons License 4.0 with Attribution (CC-BY-4.0).",
      "Title": "Terms of Use",
      "Type": "Legal Disclaimer"
    },
    {
      "Text": "Container rancher/elemental-teal-iso/5.4:latest-2020-1493,Container rancher/elemental-teal-rt/5.3:latest-2020-1493,Container rancher/elemental-teal-rt/5.4:latest-2020-1493,Container rancher/elemental-teal/5.3:latest-2020-1493,Container rancher/elemental-teal/5.4:latest-2020-1493,Container suse/sle-micro-rancher/5.2:latest-2020-1493,Container suse/sle-micro-rancher/5.3:latest-2020-1493,Container suse/sle-micro-rancher/5.4:latest-2020-1493,Container suse/sle-micro/5.5:latest-2020-1493,Image SLES15-SAP-Azure-LI-BYOS-Production-2020-1493,Image SLES15-SAP-Azure-VLI-BYOS-Production-2020-1493,Image SLES15-SP1-SAP-Azure-LI-BYOS-Production-2020-1493,Image SLES15-SP1-SAP-Azure-VLI-BYOS-Production-2020-1493,Image SLES15-SP2-SAP-Azure-LI-BYOS-Production-2020-1493,Image SLES15-SP2-SAP-Azure-VLI-BYOS-Production-2020-1493,Image SLES15-SP3-CHOST-BYOS-SAP-CCloud-2020-1493,Image SLES15-SP3-SAP-Azure-LI-BYOS-Production-2020-1493,Image SLES15-SP3-SAP-Azure-VLI-BYOS-Production-2020-1493,Image SLES15-SP4-CHOST-BYOS-SAP-CCloud-2020-1493,Image SLES15-SP5-CHOST-BYOS-SAP-CCloud-2020-1493,SUSE-2020-1493,SUSE-SLE-Module-Basesystem-15-SP1-2020-1493",
      "Title": "Patchnames",
      "Type": "Details"
    }
  ],
  "ProductTree": {
    "Relationships": [
      {
        "ProductReference": "libmspack0-0.6-3.8.19",
        "RelatesToProductReference": "Container rancher/elemental-teal-iso/5.4:latest",
        "RelationType": "Default Component Of"
      },
      {
        "ProductReference": "libmspack0-0.6-3.8.19",
        "RelatesToProductReference": "Container rancher/elemental-teal-rt/5.3:latest",
        "RelationType": "Default Component Of"
      },
      {
        "ProductReference": "libmspack0-0.6-3.8.19",
        "RelatesToProductReference": "Container rancher/elemental-teal-rt/5.4:latest",
        "RelationType": "Default Component Of"
      },
      {
        "ProductReference": "libmspack0-0.6-3.8.19",
        "RelatesToProductReference": "Container rancher/elemental-teal/5.3:latest",
        "RelationType": "Default Component Of"
      },
      {
        "ProductReference": "libmspack0-0.6-3.8.19",
        "RelatesToProductReference": "Container rancher/elemental-teal/5.4:latest",
        "RelationType": "Default Component Of"
      },
      {
        "ProductReference": "libmspack0-0.6-3.8.19",
        "RelatesToProductReference": "Container suse/sle-micro-rancher/5.2:latest",
        "RelationType": "Default Component Of"
      },
      {
        "ProductReference": "libmspack0-0.6-3.8.19",
        "RelatesToProductReference": "Container suse/sle-micro-rancher/5.3:latest",
        "RelationType": "Default Component Of"
      },
      {
        "ProductReference": "libmspack0-0.6-3.8.19",
        "RelatesToProductReference": "Container suse/sle-micro-rancher/5.4:latest",
        "RelationType": "Default Component Of"
      },
      {
        "ProductReference": "libmspack0-0.6-3.8.19",
        "RelatesToProductReference": "Container suse/sle-micro/5.5:latest",
        "RelationType": "Default Component Of"
      },
      {
        "ProductReference": "libmspack0-0.6-3.8.19",
        "RelatesToProductReference": "Image SLES15-SAP-Azure-LI-BYOS-Production",
        "RelationType": "Default Component Of"
      },
      {
        "ProductReference": "libmspack0-0.6-3.8.19",
        "RelatesToProductReference": "Image SLES15-SAP-Azure-VLI-BYOS-Production",
        "RelationType": "Default Component Of"
      },
      {
        "ProductReference": "libmspack0-0.6-3.8.19",
        "RelatesToProductReference": "Image SLES15-SP1-SAP-Azure-LI-BYOS-Production",
        "RelationType": "Default Component Of"
      },
      {
        "ProductReference": "libmspack0-0.6-3.8.19",
        "RelatesToProductReference": "Image SLES15-SP1-SAP-Azure-VLI-BYOS-Production",
        "RelationType": "Default Component Of"
      },
      {
        "ProductReference": "libmspack0-0.6-3.8.19",
        "RelatesToProductReference": "Image SLES15-SP2-SAP-Azure-LI-BYOS-Production",
        "RelationType": "Default Component Of"
      },
      {
        "ProductReference": "libmspack0-0.6-3.8.19",
        "RelatesToProductReference": "Image SLES15-SP2-SAP-Azure-VLI-BYOS-Production",
        "RelationType": "Default Component Of"
      },
      {
        "ProductReference": "libmspack0-0.6-3.8.19",
        "RelatesToProductReference": "Image SLES15-SP3-CHOST-BYOS-SAP-CCloud",
        "RelationType": "Default Component Of"
      },
      {
        "ProductReference": "libmspack0-0.6-3.8.19",
        "RelatesToProductReference": "Image SLES15-SP3-SAP-Azure-LI-BYOS-Production",
        "RelationType": "Default Component Of"
      },
      {
        "ProductReference": "libmspack0-0.6-3.8.19",
        "RelatesToProductReference": "Image SLES15-SP3-SAP-Azure-VLI-BYOS-Production",
        "RelationType": "Default Component Of"
      },
      {
        "ProductReference": "libmspack0-0.6-3.8.19",
        "RelatesToProductReference": "Image SLES15-SP4-CHOST-BYOS-SAP-CCloud",
        "RelationType": "Default Component Of"
      },
      {
        "ProductReference": "libmspack0-0.6-3.8.19",
        "RelatesToProductReference": "Image SLES15-SP5-CHOST-BYOS-SAP-CCloud",
        "RelationType": "Default Component Of"
      },
      {
        "ProductReference": "libmspack-devel-0.6-3.8.19",
        "RelatesToProductReference": "SUSE Linux Enterprise Module for Basesystem 15 SP1",
        "RelationType": "Default Component Of"
      },
      {
        "ProductReference": "libmspack0-0.6-3.8.19",
        "RelatesToProductReference": "SUSE Linux Enterprise Module for Basesystem 15 SP1",
        "RelationType": "Default Component Of"
      }
    ]
  },
  "References": [
    {
      "URL": "https://www.suse.com/support/update/announcement/2020/suse-su-20201493-1/",
      "Description": "Link for SUSE-SU-2020:1493-1"
    },
    {
      "URL": "https://lists.suse.com/pipermail/sle-security-updates/2020-May/006865.html",
      "Description": "E-Mail link for SUSE-SU-2020:1493-1"
    },
    {
      "URL": "https://www.suse.com/support/security/rating/",
      "Description": "SUSE Security Ratings"
    },
    {
      "URL": "https://bugzilla.suse.com/1130489",
      "Description": "SUSE Bug 1130489"
    },
    {
      "URL": "https://bugzilla.suse.com/1141680",
      "Description": "SUSE Bug 1141680"
    },
    {
      "URL": "https://www.suse.com/security/cve/CVE-2019-1010305/",
      "Description": "SUSE CVE CVE-2019-1010305 page"
    }
  ],
  "Vulnerabilities": [
    {
      "CVE": "CVE-2019-1010305",
      "Description": "libmspack 0.9.1alpha is affected by: Buffer Overflow. The impact is: Information Disclosure. The component is: function chmd_read_headers() in libmspack(file libmspack/mspack/chmd.c). The attack vector is: the victim must open a specially crafted chm file. The fixed version is: after commit 2f084136cfe0d05e5bf5703f3e83c6d955234b4d.",
      "Threats": [
        {
          "Type": "Impact",
          "Severity": "low"
        }
      ],
      "References": [
        {
          "URL": "https://www.suse.com/security/cve/CVE-2019-1010305.html",
          "Description": "CVE-2019-1010305"
        },
        {
          "URL": "https://bugzilla.suse.com/1141680",
          "Description": "SUSE Bug 1141680"
        }
      ],
      "ProductStatuses": [
        {
          "Type": "Fixed",
          "ProductID": [
            "Container rancher/elemental-teal-iso/5.4:latest:libmspack0-0.6-3.8.19",
            "Container rancher/elemental-teal-rt/5.3:latest:libmspack0-0.6-3.8.19",
            "Container rancher/elemental-teal-rt/5.4:latest:libmspack0-0.6-3.8.19",
            "Container rancher/elemental-teal/5.3:latest:libmspack0-0.6-3.8.19",
            "Container rancher/elemental-teal/5.4:latest:libmspack0-0.6-3.8.19",
            "Container suse/sle-micro-rancher/5.2:latest:libmspack0-0.6-3.8.19",
            "Container suse/sle-micro-rancher/5.3:latest:libmspack0-0.6-3.8.19",
            "Container suse/sle-micro-rancher/5.4:latest:libmspack0-0.6-3.8.19",
            "Container suse/sle-micro/5.5:latest:libmspack0-0.6-3.8.19",
            "Image SLES15-SAP-Azure-LI-BYOS-Production:libmspack0-0.6-3.8.19",
            "Image SLES15-SAP-Azure-VLI-BYOS-Production:libmspack0-0.6-3.8.19",
            "Image SLES15-SP1-SAP-Azure-LI-BYOS-Production:libmspack0-0.6-3.8.19",
            "Image SLES15-SP1-SAP-Azure-VLI-BYOS-Production:libmspack0-0.6-3.8.19",
            "Image SLES15-SP2-SAP-Azure-LI-BYOS-Production:libmspack0-0.6-3.8.19",
            "Image SLES15-SP2-SAP-Azure-VLI-BYOS-Production:libmspack0-0.6-3.8.19",
            "Image SLES15-SP3-CHOST-BYOS-SAP-CCloud:libmspack0-0.6-3.8.19",
            "Image SLES15-SP3-SAP-Azure-LI-BYOS-Production:libmspack0-0.6-3.8.19",
            "Image SLES15-SP3-SAP-Azure-VLI-BYOS-Production:libmspack0-0.6-3.8.19",
            "Image SLES15-SP4-CHOST-BYOS-SAP-CCloud:libmspack0-0.6-3.8.19",
            "Image SLES15-SP5-CHOST-BYOS-SAP-CCloud:libmspack0-0.6-3.8.19",
            "SUSE Linux Enterprise Module for Basesystem 15 SP1:libmspack-devel-0.6-3.8.19",
            "SUSE Linux Enterprise Module for Basesystem 15 SP1:libmspack0-0.6-3.8.19"
          ]
        }
      ],
      "CVSSScoreSets": {}
    }
  ]
}