{
  "Title": "Security update for the Linux Kernel (Live Patch 10 for SLE 15 SP1)",
  "Tracking": {
    "ID": "SUSE-SU-2020:2531-1",
    "Status": "Final",
    "Version": "1",
    "InitialReleaseDate": "2020-09-04T11:34:09Z",
    "CurrentReleaseDate": "2020-09-04T11:34:09Z",
    "RevisionHistory": [
      {
        "Number": "1",
        "Date": "2020-09-04T11:34:09Z",
        "Description": "current"
      }
    ]
  },
  "Notes": [
    {
      "Text": "Security update for the Linux Kernel (Live Patch 10 for SLE 15 SP1)",
      "Title": "Topic",
      "Type": "Summary"
    },
    {
      "Text": "This update for the Linux Kernel 4.12.14-197_37 fixes several issues.\n\nThe following security issues were fixed:\n\n- CVE-2020-14331: Fixed a buffer over-write in vgacon_scroll (bsc#1174247).\n- CVE-2020-15780: Fixed a lockdown bypass via injection of malicious ACPI tables via configfs (bsc#1174186).\n- CVE-2019-9458: Fixed a use-after-free in media/v4l (bsc#1173963).\n- CVE-2020-11668: Fixed a memory corruption issue in the Xirlink camera USB driver (bsc#1173942).\n",
      "Title": "Details",
      "Type": "General"
    },
    {
      "Text": "The CVRF data is provided by SUSE under the Creative Commons License 4.0 with Attribution (CC-BY-4.0).",
      "Title": "Terms of Use",
      "Type": "Legal Disclaimer"
    },
    {
      "Text": "SUSE-2020-2531,SUSE-SLE-Live-Patching-12-SP5-2020-2514,SUSE-SLE-Module-Live-Patching-15-SP1-2020-2530,SUSE-SLE-Module-Live-Patching-15-SP1-2020-2531",
      "Title": "Patchnames",
      "Type": "Details"
    }
  ],
  "ProductTree": {
    "Relationships": [
      {
        "ProductReference": "kgraft-patch-4_12_14-122_17-default-5-2.2",
        "RelatesToProductReference": "SUSE Linux Enterprise Live Patching 12 SP5",
        "RelationType": "Default Component Of"
      },
      {
        "ProductReference": "kernel-livepatch-4_12_14-197_34-default-5-2.2",
        "RelatesToProductReference": "SUSE Linux Enterprise Live Patching 15 SP1",
        "RelationType": "Default Component Of"
      },
      {
        "ProductReference": "kernel-livepatch-4_12_14-197_37-default-5-2.2",
        "RelatesToProductReference": "SUSE Linux Enterprise Live Patching 15 SP1",
        "RelationType": "Default Component Of"
      }
    ]
  },
  "References": [
    {
      "URL": "https://www.suse.com/support/update/announcement/2020/suse-su-20202531-1/",
      "Description": "Link for SUSE-SU-2020:2531-1"
    },
    {
      "URL": "https://lists.suse.com/pipermail/sle-security-updates/2020-September/007353.html",
      "Description": "E-Mail link for SUSE-SU-2020:2531-1"
    },
    {
      "URL": "https://www.suse.com/support/security/rating/",
      "Description": "SUSE Security Ratings"
    },
    {
      "URL": "https://bugzilla.suse.com/1173942",
      "Description": "SUSE Bug 1173942"
    },
    {
      "URL": "https://bugzilla.suse.com/1173963",
      "Description": "SUSE Bug 1173963"
    },
    {
      "URL": "https://bugzilla.suse.com/1174186",
      "Description": "SUSE Bug 1174186"
    },
    {
      "URL": "https://bugzilla.suse.com/1174247",
      "Description": "SUSE Bug 1174247"
    },
    {
      "URL": "https://www.suse.com/security/cve/CVE-2019-9458/",
      "Description": "SUSE CVE CVE-2019-9458 page"
    },
    {
      "URL": "https://www.suse.com/security/cve/CVE-2020-11668/",
      "Description": "SUSE CVE CVE-2020-11668 page"
    },
    {
      "URL": "https://www.suse.com/security/cve/CVE-2020-14331/",
      "Description": "SUSE CVE CVE-2020-14331 page"
    },
    {
      "URL": "https://www.suse.com/security/cve/CVE-2020-15780/",
      "Description": "SUSE CVE CVE-2020-15780 page"
    }
  ],
  "Vulnerabilities": [
    {
      "CVE": "CVE-2019-9458",
      "Description": "In the Android kernel in the video driver there is a use after free due to a race condition. This could lead to local escalation of privilege with no additional execution privileges needed. User interaction is not needed for exploitation.",
      "Threats": [
        {
          "Type": "Impact",
          "Severity": "moderate"
        }
      ],
      "References": [
        {
          "URL": "https://www.suse.com/security/cve/CVE-2019-9458.html",
          "Description": "CVE-2019-9458"
        },
        {
          "URL": "https://bugzilla.suse.com/1168295",
          "Description": "SUSE Bug 1168295"
        },
        {
          "URL": "https://bugzilla.suse.com/1173963",
          "Description": "SUSE Bug 1173963"
        }
      ],
      "ProductStatuses": [
        {
          "Type": "Fixed",
          "ProductID": [
            "SUSE Linux Enterprise Live Patching 12 SP5:kgraft-patch-4_12_14-122_17-default-5-2.2",
            "SUSE Linux Enterprise Live Patching 15 SP1:kernel-livepatch-4_12_14-197_34-default-5-2.2",
            "SUSE Linux Enterprise Live Patching 15 SP1:kernel-livepatch-4_12_14-197_37-default-5-2.2"
          ]
        }
      ],
      "CVSSScoreSets": {}
    },
    {
      "CVE": "CVE-2020-11668",
      "Description": "In the Linux kernel before 5.6.1, drivers/media/usb/gspca/xirlink_cit.c (aka the Xirlink camera USB driver) mishandles invalid descriptors, aka CID-a246b4d54770.",
      "Threats": [
        {
          "Type": "Impact",
          "Severity": "important"
        }
      ],
      "References": [
        {
          "URL": "https://www.suse.com/security/cve/CVE-2020-11668.html",
          "Description": "CVE-2020-11668"
        },
        {
          "URL": "https://bugzilla.suse.com/1168952",
          "Description": "SUSE Bug 1168952"
        },
        {
          "URL": "https://bugzilla.suse.com/1173942",
          "Description": "SUSE Bug 1173942"
        }
      ],
      "ProductStatuses": [
        {
          "Type": "Fixed",
          "ProductID": [
            "SUSE Linux Enterprise Live Patching 12 SP5:kgraft-patch-4_12_14-122_17-default-5-2.2",
            "SUSE Linux Enterprise Live Patching 15 SP1:kernel-livepatch-4_12_14-197_34-default-5-2.2",
            "SUSE Linux Enterprise Live Patching 15 SP1:kernel-livepatch-4_12_14-197_37-default-5-2.2"
          ]
        }
      ],
      "CVSSScoreSets": {}
    },
    {
      "CVE": "CVE-2020-14331",
      "Description": "A flaw was found in the Linux kernel's implementation of the invert video code on VGA consoles when a local attacker attempts to resize the console, calling an ioctl VT_RESIZE, which causes an out-of-bounds write to occur. This flaw allows a local user with access to the VGA console to crash the system, potentially escalating their privileges on the system. The highest threat from this vulnerability is to data confidentiality and integrity as well as system availability.",
      "Threats": [
        {
          "Type": "Impact",
          "Severity": "important"
        }
      ],
      "References": [
        {
          "URL": "https://www.suse.com/security/cve/CVE-2020-14331.html",
          "Description": "CVE-2020-14331"
        },
        {
          "URL": "https://bugzilla.suse.com/1174205",
          "Description": "SUSE Bug 1174205"
        },
        {
          "URL": "https://bugzilla.suse.com/1174247",
          "Description": "SUSE Bug 1174247"
        }
      ],
      "ProductStatuses": [
        {
          "Type": "Fixed",
          "ProductID": [
            "SUSE Linux Enterprise Live Patching 12 SP5:kgraft-patch-4_12_14-122_17-default-5-2.2",
            "SUSE Linux Enterprise Live Patching 15 SP1:kernel-livepatch-4_12_14-197_34-default-5-2.2",
            "SUSE Linux Enterprise Live Patching 15 SP1:kernel-livepatch-4_12_14-197_37-default-5-2.2"
          ]
        }
      ],
      "CVSSScoreSets": {}
    },
    {
      "CVE": "CVE-2020-15780",
      "Description": "An issue was discovered in drivers/acpi/acpi_configfs.c in the Linux kernel before 5.7.7. Injection of malicious ACPI tables via configfs could be used by attackers to bypass lockdown and secure boot restrictions, aka CID-75b0cea7bf30.",
      "Threats": [
        {
          "Type": "Impact",
          "Severity": "important"
        }
      ],
      "References": [
        {
          "URL": "https://www.suse.com/security/cve/CVE-2020-15780.html",
          "Description": "CVE-2020-15780"
        },
        {
          "URL": "https://bugzilla.suse.com/1173573",
          "Description": "SUSE Bug 1173573"
        },
        {
          "URL": "https://bugzilla.suse.com/1174186",
          "Description": "SUSE Bug 1174186"
        }
      ],
      "ProductStatuses": [
        {
          "Type": "Fixed",
          "ProductID": [
            "SUSE Linux Enterprise Live Patching 12 SP5:kgraft-patch-4_12_14-122_17-default-5-2.2",
            "SUSE Linux Enterprise Live Patching 15 SP1:kernel-livepatch-4_12_14-197_34-default-5-2.2",
            "SUSE Linux Enterprise Live Patching 15 SP1:kernel-livepatch-4_12_14-197_37-default-5-2.2"
          ]
        }
      ],
      "CVSSScoreSets": {}
    }
  ]
}