{
  "Title": "Security update for the Linux Kernel (Live Patch 0 for SLE 12 SP5)",
  "Tracking": {
    "ID": "SUSE-SU-2020:3204-1",
    "Status": "Final",
    "Version": "1",
    "InitialReleaseDate": "2020-11-06T14:32:32Z",
    "CurrentReleaseDate": "2020-11-06T14:32:32Z",
    "RevisionHistory": [
      {
        "Number": "1",
        "Date": "2020-11-06T14:32:32Z",
        "Description": "current"
      }
    ]
  },
  "Notes": [
    {
      "Text": "Security update for the Linux Kernel (Live Patch 0 for SLE 12 SP5)",
      "Title": "Topic",
      "Type": "Summary"
    },
    {
      "Text": "This update for the Linux Kernel 4.12.14-120 fixes several issues.\n\nThe following security issues were fixed:\n\n- CVE-2020-14381: Fixed a use-after-free in the fast user mutex (futex) wait operation, which could have lead to memory corruption and possibly privilege escalation (bsc#1176011).\n- CVE-2020-0431: In kbd_keycode of keyboard.c, there is a possible out of bounds write due to a missing bounds check. This could lead to local escalation of privilege with no additional execution privileges needed. User interaction is not needed for exploitation. (bsc#1176722)\n- CVE-2020-25212: A TOCTOU mismatch in the NFS client code could be used by local attackers to corrupt memory or possibly have unspecified other impact because a size check is in fs/nfs/nfs4proc.c instead of fs/nfs/nfs4xdr.c (bsc#1176381).\n- CVE-2020-14386: Fixed a memory corruption which could have lead to an attacker gaining root privileges from unprivileged processes. The highest threat from this vulnerability is to data confidentiality and integrity (bsc#1176069).\n- CVE-2020-24394: The NFS server code can set incorrect permissions on new filesystem objects when the filesystem lacks ACL support. This occurs because the current umask is not considered (bsc#1175518).\n",
      "Title": "Details",
      "Type": "General"
    },
    {
      "Text": "The CVRF data is provided by SUSE under the Creative Commons License 4.0 with Attribution (CC-BY-4.0).",
      "Title": "Terms of Use",
      "Type": "Legal Disclaimer"
    },
    {
      "Text": "SUSE-2020-3204,SUSE-SLE-Live-Patching-12-SP4-2020-3213,SUSE-SLE-Live-Patching-12-SP4-2020-3214,SUSE-SLE-Live-Patching-12-SP4-2020-3215,SUSE-SLE-Live-Patching-12-SP4-2020-3216,SUSE-SLE-Live-Patching-12-SP4-2020-3217,SUSE-SLE-Live-Patching-12-SP5-2020-3204,SUSE-SLE-Live-Patching-12-SP5-2020-3205,SUSE-SLE-Live-Patching-12-SP5-2020-3206,SUSE-SLE-Live-Patching-12-SP5-2020-3208,SUSE-SLE-Live-Patching-12-SP5-2020-3211",
      "Title": "Patchnames",
      "Type": "Details"
    }
  ],
  "ProductTree": {
    "Relationships": [
      {
        "ProductReference": "kgraft-patch-4_12_14-95_51-default-5-2.2",
        "RelatesToProductReference": "SUSE Linux Enterprise Live Patching 12 SP4",
        "RelationType": "Default Component Of"
      },
      {
        "ProductReference": "kgraft-patch-4_12_14-95_48-default-6-2.2",
        "RelatesToProductReference": "SUSE Linux Enterprise Live Patching 12 SP4",
        "RelationType": "Default Component Of"
      },
      {
        "ProductReference": "kgraft-patch-4_12_14-95_45-default-7-2.2",
        "RelatesToProductReference": "SUSE Linux Enterprise Live Patching 12 SP4",
        "RelationType": "Default Component Of"
      },
      {
        "ProductReference": "kgraft-patch-4_12_14-95_40-default-7-2.2",
        "RelatesToProductReference": "SUSE Linux Enterprise Live Patching 12 SP4",
        "RelationType": "Default Component Of"
      },
      {
        "ProductReference": "kgraft-patch-4_12_14-95_37-default-8-2.2",
        "RelatesToProductReference": "SUSE Linux Enterprise Live Patching 12 SP4",
        "RelationType": "Default Component Of"
      },
      {
        "ProductReference": "kgraft-patch-4_12_14-122_20-default-5-2.2",
        "RelatesToProductReference": "SUSE Linux Enterprise Live Patching 12 SP5",
        "RelationType": "Default Component Of"
      },
      {
        "ProductReference": "kgraft-patch-4_12_14-122_17-default-6-2.2",
        "RelatesToProductReference": "SUSE Linux Enterprise Live Patching 12 SP5",
        "RelationType": "Default Component Of"
      },
      {
        "ProductReference": "kgraft-patch-4_12_14-122_12-default-7-2.2",
        "RelatesToProductReference": "SUSE Linux Enterprise Live Patching 12 SP5",
        "RelationType": "Default Component Of"
      },
      {
        "ProductReference": "kgraft-patch-4_12_14-122_7-default-7-2.2",
        "RelatesToProductReference": "SUSE Linux Enterprise Live Patching 12 SP5",
        "RelationType": "Default Component Of"
      },
      {
        "ProductReference": "kgraft-patch-4_12_14-120-default-7-18.2",
        "RelatesToProductReference": "SUSE Linux Enterprise Live Patching 12 SP5",
        "RelationType": "Default Component Of"
      }
    ]
  },
  "References": [
    {
      "URL": "https://www.suse.com/support/update/announcement/2020/suse-su-20203204-1/",
      "Description": "Link for SUSE-SU-2020:3204-1"
    },
    {
      "URL": "https://lists.suse.com/pipermail/sle-security-updates/2020-November/007722.html",
      "Description": "E-Mail link for SUSE-SU-2020:3204-1"
    },
    {
      "URL": "https://www.suse.com/support/security/rating/",
      "Description": "SUSE Security Ratings"
    },
    {
      "URL": "https://bugzilla.suse.com/1175992",
      "Description": "SUSE Bug 1175992"
    },
    {
      "URL": "https://bugzilla.suse.com/1176012",
      "Description": "SUSE Bug 1176012"
    },
    {
      "URL": "https://bugzilla.suse.com/1176072",
      "Description": "SUSE Bug 1176072"
    },
    {
      "URL": "https://bugzilla.suse.com/1176382",
      "Description": "SUSE Bug 1176382"
    },
    {
      "URL": "https://bugzilla.suse.com/1176896",
      "Description": "SUSE Bug 1176896"
    },
    {
      "URL": "https://www.suse.com/security/cve/CVE-2020-0431/",
      "Description": "SUSE CVE CVE-2020-0431 page"
    },
    {
      "URL": "https://www.suse.com/security/cve/CVE-2020-14381/",
      "Description": "SUSE CVE CVE-2020-14381 page"
    },
    {
      "URL": "https://www.suse.com/security/cve/CVE-2020-14386/",
      "Description": "SUSE CVE CVE-2020-14386 page"
    },
    {
      "URL": "https://www.suse.com/security/cve/CVE-2020-24394/",
      "Description": "SUSE CVE CVE-2020-24394 page"
    },
    {
      "URL": "https://www.suse.com/security/cve/CVE-2020-25212/",
      "Description": "SUSE CVE CVE-2020-25212 page"
    }
  ],
  "Vulnerabilities": [
    {
      "CVE": "CVE-2020-0431",
      "Description": "In kbd_keycode of keyboard.c, there is a possible out of bounds write due to a missing bounds check. This could lead to local escalation of privilege with no additional execution privileges needed. User interaction is not needed for exploitation.Product: AndroidVersions: Android kernelAndroid ID: A-144161459",
      "Threats": [
        {
          "Type": "Impact",
          "Severity": "important"
        }
      ],
      "References": [
        {
          "URL": "https://www.suse.com/security/cve/CVE-2020-0431.html",
          "Description": "CVE-2020-0431"
        },
        {
          "URL": "https://bugzilla.suse.com/1176722",
          "Description": "SUSE Bug 1176722"
        },
        {
          "URL": "https://bugzilla.suse.com/1176896",
          "Description": "SUSE Bug 1176896"
        }
      ],
      "ProductStatuses": [
        {
          "Type": "Fixed",
          "ProductID": [
            "SUSE Linux Enterprise Live Patching 12 SP4:kgraft-patch-4_12_14-95_37-default-8-2.2",
            "SUSE Linux Enterprise Live Patching 12 SP4:kgraft-patch-4_12_14-95_40-default-7-2.2",
            "SUSE Linux Enterprise Live Patching 12 SP4:kgraft-patch-4_12_14-95_45-default-7-2.2",
            "SUSE Linux Enterprise Live Patching 12 SP4:kgraft-patch-4_12_14-95_48-default-6-2.2",
            "SUSE Linux Enterprise Live Patching 12 SP4:kgraft-patch-4_12_14-95_51-default-5-2.2",
            "SUSE Linux Enterprise Live Patching 12 SP5:kgraft-patch-4_12_14-120-default-7-18.2",
            "SUSE Linux Enterprise Live Patching 12 SP5:kgraft-patch-4_12_14-122_12-default-7-2.2",
            "SUSE Linux Enterprise Live Patching 12 SP5:kgraft-patch-4_12_14-122_17-default-6-2.2",
            "SUSE Linux Enterprise Live Patching 12 SP5:kgraft-patch-4_12_14-122_20-default-5-2.2",
            "SUSE Linux Enterprise Live Patching 12 SP5:kgraft-patch-4_12_14-122_7-default-7-2.2"
          ]
        }
      ],
      "CVSSScoreSets": {}
    },
    {
      "CVE": "CVE-2020-14381",
      "Description": "A flaw was found in the Linux kernel's futex implementation. This flaw allows a local attacker to corrupt system memory or escalate their privileges when creating a futex on a filesystem that is about to be unmounted. The highest threat from this vulnerability is to confidentiality, integrity, as well as system availability.",
      "Threats": [
        {
          "Type": "Impact",
          "Severity": "important"
        }
      ],
      "References": [
        {
          "URL": "https://www.suse.com/security/cve/CVE-2020-14381.html",
          "Description": "CVE-2020-14381"
        },
        {
          "URL": "https://bugzilla.suse.com/1176011",
          "Description": "SUSE Bug 1176011"
        },
        {
          "URL": "https://bugzilla.suse.com/1176012",
          "Description": "SUSE Bug 1176012"
        }
      ],
      "ProductStatuses": [
        {
          "Type": "Fixed",
          "ProductID": [
            "SUSE Linux Enterprise Live Patching 12 SP4:kgraft-patch-4_12_14-95_37-default-8-2.2",
            "SUSE Linux Enterprise Live Patching 12 SP4:kgraft-patch-4_12_14-95_40-default-7-2.2",
            "SUSE Linux Enterprise Live Patching 12 SP4:kgraft-patch-4_12_14-95_45-default-7-2.2",
            "SUSE Linux Enterprise Live Patching 12 SP4:kgraft-patch-4_12_14-95_48-default-6-2.2",
            "SUSE Linux Enterprise Live Patching 12 SP4:kgraft-patch-4_12_14-95_51-default-5-2.2",
            "SUSE Linux Enterprise Live Patching 12 SP5:kgraft-patch-4_12_14-120-default-7-18.2",
            "SUSE Linux Enterprise Live Patching 12 SP5:kgraft-patch-4_12_14-122_12-default-7-2.2",
            "SUSE Linux Enterprise Live Patching 12 SP5:kgraft-patch-4_12_14-122_17-default-6-2.2",
            "SUSE Linux Enterprise Live Patching 12 SP5:kgraft-patch-4_12_14-122_20-default-5-2.2",
            "SUSE Linux Enterprise Live Patching 12 SP5:kgraft-patch-4_12_14-122_7-default-7-2.2"
          ]
        }
      ],
      "CVSSScoreSets": {}
    },
    {
      "CVE": "CVE-2020-14386",
      "Description": "A flaw was found in the Linux kernel before 5.9-rc4. Memory corruption can be exploited to gain root privileges from unprivileged processes. The highest threat from this vulnerability is to data confidentiality and integrity.",
      "Threats": [
        {
          "Type": "Impact",
          "Severity": "important"
        }
      ],
      "References": [
        {
          "URL": "https://www.suse.com/security/cve/CVE-2020-14386.html",
          "Description": "CVE-2020-14386"
        },
        {
          "URL": "https://bugzilla.suse.com/1176069",
          "Description": "SUSE Bug 1176069"
        },
        {
          "URL": "https://bugzilla.suse.com/1176072",
          "Description": "SUSE Bug 1176072"
        }
      ],
      "ProductStatuses": [
        {
          "Type": "Fixed",
          "ProductID": [
            "SUSE Linux Enterprise Live Patching 12 SP4:kgraft-patch-4_12_14-95_37-default-8-2.2",
            "SUSE Linux Enterprise Live Patching 12 SP4:kgraft-patch-4_12_14-95_40-default-7-2.2",
            "SUSE Linux Enterprise Live Patching 12 SP4:kgraft-patch-4_12_14-95_45-default-7-2.2",
            "SUSE Linux Enterprise Live Patching 12 SP4:kgraft-patch-4_12_14-95_48-default-6-2.2",
            "SUSE Linux Enterprise Live Patching 12 SP4:kgraft-patch-4_12_14-95_51-default-5-2.2",
            "SUSE Linux Enterprise Live Patching 12 SP5:kgraft-patch-4_12_14-120-default-7-18.2",
            "SUSE Linux Enterprise Live Patching 12 SP5:kgraft-patch-4_12_14-122_12-default-7-2.2",
            "SUSE Linux Enterprise Live Patching 12 SP5:kgraft-patch-4_12_14-122_17-default-6-2.2",
            "SUSE Linux Enterprise Live Patching 12 SP5:kgraft-patch-4_12_14-122_20-default-5-2.2",
            "SUSE Linux Enterprise Live Patching 12 SP5:kgraft-patch-4_12_14-122_7-default-7-2.2"
          ]
        }
      ],
      "CVSSScoreSets": {}
    },
    {
      "CVE": "CVE-2020-24394",
      "Description": "In the Linux kernel before 5.7.8, fs/nfsd/vfs.c (in the NFS server) can set incorrect permissions on new filesystem objects when the filesystem lacks ACL support, aka CID-22cf8419f131. This occurs because the current umask is not considered.",
      "Threats": [
        {
          "Type": "Impact",
          "Severity": "important"
        }
      ],
      "References": [
        {
          "URL": "https://www.suse.com/security/cve/CVE-2020-24394.html",
          "Description": "CVE-2020-24394"
        },
        {
          "URL": "https://bugzilla.suse.com/1175518",
          "Description": "SUSE Bug 1175518"
        },
        {
          "URL": "https://bugzilla.suse.com/1175992",
          "Description": "SUSE Bug 1175992"
        }
      ],
      "ProductStatuses": [
        {
          "Type": "Fixed",
          "ProductID": [
            "SUSE Linux Enterprise Live Patching 12 SP4:kgraft-patch-4_12_14-95_37-default-8-2.2",
            "SUSE Linux Enterprise Live Patching 12 SP4:kgraft-patch-4_12_14-95_40-default-7-2.2",
            "SUSE Linux Enterprise Live Patching 12 SP4:kgraft-patch-4_12_14-95_45-default-7-2.2",
            "SUSE Linux Enterprise Live Patching 12 SP4:kgraft-patch-4_12_14-95_48-default-6-2.2",
            "SUSE Linux Enterprise Live Patching 12 SP4:kgraft-patch-4_12_14-95_51-default-5-2.2",
            "SUSE Linux Enterprise Live Patching 12 SP5:kgraft-patch-4_12_14-120-default-7-18.2",
            "SUSE Linux Enterprise Live Patching 12 SP5:kgraft-patch-4_12_14-122_12-default-7-2.2",
            "SUSE Linux Enterprise Live Patching 12 SP5:kgraft-patch-4_12_14-122_17-default-6-2.2",
            "SUSE Linux Enterprise Live Patching 12 SP5:kgraft-patch-4_12_14-122_20-default-5-2.2",
            "SUSE Linux Enterprise Live Patching 12 SP5:kgraft-patch-4_12_14-122_7-default-7-2.2"
          ]
        }
      ],
      "CVSSScoreSets": {}
    },
    {
      "CVE": "CVE-2020-25212",
      "Description": "A TOCTOU mismatch in the NFS client code in the Linux kernel before 5.8.3 could be used by local attackers to corrupt memory or possibly have unspecified other impact because a size check is in fs/nfs/nfs4proc.c instead of fs/nfs/nfs4xdr.c, aka CID-b4487b935452.",
      "Threats": [
        {
          "Type": "Impact",
          "Severity": "important"
        }
      ],
      "References": [
        {
          "URL": "https://www.suse.com/security/cve/CVE-2020-25212.html",
          "Description": "CVE-2020-25212"
        },
        {
          "URL": "https://bugzilla.suse.com/1176381",
          "Description": "SUSE Bug 1176381"
        },
        {
          "URL": "https://bugzilla.suse.com/1176382",
          "Description": "SUSE Bug 1176382"
        },
        {
          "URL": "https://bugzilla.suse.com/1177027",
          "Description": "SUSE Bug 1177027"
        }
      ],
      "ProductStatuses": [
        {
          "Type": "Fixed",
          "ProductID": [
            "SUSE Linux Enterprise Live Patching 12 SP4:kgraft-patch-4_12_14-95_37-default-8-2.2",
            "SUSE Linux Enterprise Live Patching 12 SP4:kgraft-patch-4_12_14-95_40-default-7-2.2",
            "SUSE Linux Enterprise Live Patching 12 SP4:kgraft-patch-4_12_14-95_45-default-7-2.2",
            "SUSE Linux Enterprise Live Patching 12 SP4:kgraft-patch-4_12_14-95_48-default-6-2.2",
            "SUSE Linux Enterprise Live Patching 12 SP4:kgraft-patch-4_12_14-95_51-default-5-2.2",
            "SUSE Linux Enterprise Live Patching 12 SP5:kgraft-patch-4_12_14-120-default-7-18.2",
            "SUSE Linux Enterprise Live Patching 12 SP5:kgraft-patch-4_12_14-122_12-default-7-2.2",
            "SUSE Linux Enterprise Live Patching 12 SP5:kgraft-patch-4_12_14-122_17-default-6-2.2",
            "SUSE Linux Enterprise Live Patching 12 SP5:kgraft-patch-4_12_14-122_20-default-5-2.2",
            "SUSE Linux Enterprise Live Patching 12 SP5:kgraft-patch-4_12_14-122_7-default-7-2.2"
          ]
        }
      ],
      "CVSSScoreSets": {}
    }
  ]
}