{
  "Title": "Security update for perl-DBI",
  "Tracking": {
    "ID": "SUSE-SU-2020:3384-1",
    "Status": "Final",
    "Version": "1",
    "InitialReleaseDate": "2020-11-19T10:33:57Z",
    "CurrentReleaseDate": "2020-11-19T10:33:57Z",
    "RevisionHistory": [
      {
        "Number": "1",
        "Date": "2020-11-19T10:33:57Z",
        "Description": "current"
      }
    ]
  },
  "Notes": [
    {
      "Text": "Security update for perl-DBI",
      "Title": "Topic",
      "Type": "Summary"
    },
    {
      "Text": "This update for perl-DBI fixes the following issues:\n\n- DBD::File drivers can open files from folders other than those\n  specifically passed via the f_dir attribute in the data source\n  name (DSN). [bsc#1176492, CVE-2014-10401, CVE-2014-10402]\n",
      "Title": "Details",
      "Type": "General"
    },
    {
      "Text": "The CVRF data is provided by SUSE under the Creative Commons License 4.0 with Attribution (CC-BY-4.0).",
      "Title": "Terms of Use",
      "Type": "Legal Disclaimer"
    },
    {
      "Text": "Container suse/manager/5.0/x86_64/server:latest-2020-3384,Container suse/rmt-mariadb:latest-2020-3384,Image SLES15-SP2-Manager-4-1-Proxy-BYOS-Azure-2020-3384,Image SLES15-SP2-Manager-4-1-Proxy-BYOS-EC2-HVM-2020-3384,Image SLES15-SP2-Manager-4-1-Proxy-BYOS-GCE-2020-3384,Image SLES15-SP2-Manager-4-1-Server-BYOS-Azure-2020-3384,Image SLES15-SP2-Manager-4-1-Server-BYOS-EC2-HVM-2020-3384,Image SLES15-SP2-Manager-4-1-Server-BYOS-GCE-2020-3384,Image SLES15-SP3-Manager-4-2-Proxy-BYOS-Azure-2020-3384,Image SLES15-SP3-Manager-4-2-Proxy-BYOS-EC2-HVM-2020-3384,Image SLES15-SP3-Manager-4-2-Proxy-BYOS-GCE-2020-3384,Image SLES15-SP3-Manager-4-2-Server-BYOS-Azure-2020-3384,Image SLES15-SP3-Manager-4-2-Server-BYOS-EC2-HVM-2020-3384,Image SLES15-SP3-Manager-4-2-Server-BYOS-GCE-2020-3384,Image SLES15-SP4-Manager-Proxy-4-3-BYOS-2020-3384,Image SLES15-SP4-Manager-Proxy-4-3-BYOS-Azure-2020-3384,Image SLES15-SP4-Manager-Proxy-4-3-BYOS-EC2-2020-3384,Image SLES15-SP4-Manager-Proxy-4-3-BYOS-GCE-2020-3384,Image SLES15-SP4-Manager-Server-4-3-2020-3384,Image SLES15-SP4-Manager-Server-4-3-Azure-llc-2020-3384,Image SLES15-SP4-Manager-Server-4-3-Azure-ltd-2020-3384,Image SLES15-SP4-Manager-Server-4-3-BYOS-2020-3384,Image SLES15-SP4-Manager-Server-4-3-BYOS-Azure-2020-3384,Image SLES15-SP4-Manager-Server-4-3-BYOS-EC2-2020-3384,Image SLES15-SP4-Manager-Server-4-3-BYOS-GCE-2020-3384,Image SLES15-SP4-Manager-Server-4-3-EC2-llc-2020-3384,Image SLES15-SP4-Manager-Server-4-3-EC2-ltd-2020-3384,SUSE-2020-3384,SUSE-SLE-Module-Basesystem-15-SP2-2020-3384",
      "Title": "Patchnames",
      "Type": "Details"
    }
  ],
  "ProductTree": {
    "Relationships": [
      {
        "ProductReference": "perl-DBI-1.642-3.9.1",
        "RelatesToProductReference": "Container suse/manager/5.0/x86_64/server:latest",
        "RelationType": "Default Component Of"
      },
      {
        "ProductReference": "perl-DBI-1.642-3.9.1",
        "RelatesToProductReference": "Container suse/rmt-mariadb:latest",
        "RelationType": "Default Component Of"
      },
      {
        "ProductReference": "perl-DBI-1.642-3.9.1",
        "RelatesToProductReference": "Image SLES15-SP2-Manager-4-1-Proxy-BYOS-Azure",
        "RelationType": "Default Component Of"
      },
      {
        "ProductReference": "perl-DBI-1.642-3.9.1",
        "RelatesToProductReference": "Image SLES15-SP2-Manager-4-1-Proxy-BYOS-EC2-HVM",
        "RelationType": "Default Component Of"
      },
      {
        "ProductReference": "perl-DBI-1.642-3.9.1",
        "RelatesToProductReference": "Image SLES15-SP2-Manager-4-1-Proxy-BYOS-GCE",
        "RelationType": "Default Component Of"
      },
      {
        "ProductReference": "perl-DBI-1.642-3.9.1",
        "RelatesToProductReference": "Image SLES15-SP2-Manager-4-1-Server-BYOS-Azure",
        "RelationType": "Default Component Of"
      },
      {
        "ProductReference": "perl-DBI-1.642-3.9.1",
        "RelatesToProductReference": "Image SLES15-SP2-Manager-4-1-Server-BYOS-EC2-HVM",
        "RelationType": "Default Component Of"
      },
      {
        "ProductReference": "perl-DBI-1.642-3.9.1",
        "RelatesToProductReference": "Image SLES15-SP2-Manager-4-1-Server-BYOS-GCE",
        "RelationType": "Default Component Of"
      },
      {
        "ProductReference": "perl-DBI-1.642-3.9.1",
        "RelatesToProductReference": "Image SLES15-SP3-Manager-4-2-Proxy-BYOS-Azure",
        "RelationType": "Default Component Of"
      },
      {
        "ProductReference": "perl-DBI-1.642-3.9.1",
        "RelatesToProductReference": "Image SLES15-SP3-Manager-4-2-Proxy-BYOS-EC2-HVM",
        "RelationType": "Default Component Of"
      },
      {
        "ProductReference": "perl-DBI-1.642-3.9.1",
        "RelatesToProductReference": "Image SLES15-SP3-Manager-4-2-Proxy-BYOS-GCE",
        "RelationType": "Default Component Of"
      },
      {
        "ProductReference": "perl-DBI-1.642-3.9.1",
        "RelatesToProductReference": "Image SLES15-SP3-Manager-4-2-Server-BYOS-Azure",
        "RelationType": "Default Component Of"
      },
      {
        "ProductReference": "perl-DBI-1.642-3.9.1",
        "RelatesToProductReference": "Image SLES15-SP3-Manager-4-2-Server-BYOS-EC2-HVM",
        "RelationType": "Default Component Of"
      },
      {
        "ProductReference": "perl-DBI-1.642-3.9.1",
        "RelatesToProductReference": "Image SLES15-SP3-Manager-4-2-Server-BYOS-GCE",
        "RelationType": "Default Component Of"
      },
      {
        "ProductReference": "perl-DBI-1.642-3.9.1",
        "RelatesToProductReference": "Image SLES15-SP4-Manager-Proxy-4-3-BYOS",
        "RelationType": "Default Component Of"
      },
      {
        "ProductReference": "perl-DBI-1.642-3.9.1",
        "RelatesToProductReference": "Image SLES15-SP4-Manager-Proxy-4-3-BYOS-Azure",
        "RelationType": "Default Component Of"
      },
      {
        "ProductReference": "perl-DBI-1.642-3.9.1",
        "RelatesToProductReference": "Image SLES15-SP4-Manager-Proxy-4-3-BYOS-EC2",
        "RelationType": "Default Component Of"
      },
      {
        "ProductReference": "perl-DBI-1.642-3.9.1",
        "RelatesToProductReference": "Image SLES15-SP4-Manager-Proxy-4-3-BYOS-GCE",
        "RelationType": "Default Component Of"
      },
      {
        "ProductReference": "perl-DBI-1.642-3.9.1",
        "RelatesToProductReference": "Image SLES15-SP4-Manager-Server-4-3",
        "RelationType": "Default Component Of"
      },
      {
        "ProductReference": "perl-DBI-1.642-3.9.1",
        "RelatesToProductReference": "Image SLES15-SP4-Manager-Server-4-3-Azure-llc",
        "RelationType": "Default Component Of"
      },
      {
        "ProductReference": "perl-DBI-1.642-3.9.1",
        "RelatesToProductReference": "Image SLES15-SP4-Manager-Server-4-3-Azure-ltd",
        "RelationType": "Default Component Of"
      },
      {
        "ProductReference": "perl-DBI-1.642-3.9.1",
        "RelatesToProductReference": "Image SLES15-SP4-Manager-Server-4-3-BYOS",
        "RelationType": "Default Component Of"
      },
      {
        "ProductReference": "perl-DBI-1.642-3.9.1",
        "RelatesToProductReference": "Image SLES15-SP4-Manager-Server-4-3-BYOS-Azure",
        "RelationType": "Default Component Of"
      },
      {
        "ProductReference": "perl-DBI-1.642-3.9.1",
        "RelatesToProductReference": "Image SLES15-SP4-Manager-Server-4-3-BYOS-EC2",
        "RelationType": "Default Component Of"
      },
      {
        "ProductReference": "perl-DBI-1.642-3.9.1",
        "RelatesToProductReference": "Image SLES15-SP4-Manager-Server-4-3-BYOS-GCE",
        "RelationType": "Default Component Of"
      },
      {
        "ProductReference": "perl-DBI-1.642-3.9.1",
        "RelatesToProductReference": "Image SLES15-SP4-Manager-Server-4-3-EC2-llc",
        "RelationType": "Default Component Of"
      },
      {
        "ProductReference": "perl-DBI-1.642-3.9.1",
        "RelatesToProductReference": "Image SLES15-SP4-Manager-Server-4-3-EC2-ltd",
        "RelationType": "Default Component Of"
      },
      {
        "ProductReference": "perl-DBI-1.642-3.9.1",
        "RelatesToProductReference": "SUSE Linux Enterprise Module for Basesystem 15 SP2",
        "RelationType": "Default Component Of"
      }
    ]
  },
  "References": [
    {
      "URL": "https://www.suse.com/support/update/announcement/2020/suse-su-20203384-1/",
      "Description": "Link for SUSE-SU-2020:3384-1"
    },
    {
      "URL": "https://lists.suse.com/pipermail/sle-security-updates/2020-November/007795.html",
      "Description": "E-Mail link for SUSE-SU-2020:3384-1"
    },
    {
      "URL": "https://www.suse.com/support/security/rating/",
      "Description": "SUSE Security Ratings"
    },
    {
      "URL": "https://bugzilla.suse.com/1176492",
      "Description": "SUSE Bug 1176492"
    },
    {
      "URL": "https://www.suse.com/security/cve/CVE-2014-10401/",
      "Description": "SUSE CVE CVE-2014-10401 page"
    },
    {
      "URL": "https://www.suse.com/security/cve/CVE-2014-10402/",
      "Description": "SUSE CVE CVE-2014-10402 page"
    }
  ],
  "Vulnerabilities": [
    {
      "CVE": "CVE-2014-10401",
      "Description": "An issue was discovered in the DBI module before 1.632 for Perl. DBD::File drivers can open files from folders other than those specifically passed via the f_dir attribute.",
      "Threats": [
        {
          "Type": "Impact",
          "Severity": "moderate"
        }
      ],
      "References": [
        {
          "URL": "https://www.suse.com/security/cve/CVE-2014-10401.html",
          "Description": "CVE-2014-10401"
        },
        {
          "URL": "https://bugzilla.suse.com/1176492",
          "Description": "SUSE Bug 1176492"
        }
      ],
      "ProductStatuses": [
        {
          "Type": "Fixed",
          "ProductID": [
            "Container suse/manager/5.0/x86_64/server:latest:perl-DBI-1.642-3.9.1",
            "Container suse/rmt-mariadb:latest:perl-DBI-1.642-3.9.1",
            "Image SLES15-SP2-Manager-4-1-Proxy-BYOS-Azure:perl-DBI-1.642-3.9.1",
            "Image SLES15-SP2-Manager-4-1-Proxy-BYOS-EC2-HVM:perl-DBI-1.642-3.9.1",
            "Image SLES15-SP2-Manager-4-1-Proxy-BYOS-GCE:perl-DBI-1.642-3.9.1",
            "Image SLES15-SP2-Manager-4-1-Server-BYOS-Azure:perl-DBI-1.642-3.9.1",
            "Image SLES15-SP2-Manager-4-1-Server-BYOS-EC2-HVM:perl-DBI-1.642-3.9.1",
            "Image SLES15-SP2-Manager-4-1-Server-BYOS-GCE:perl-DBI-1.642-3.9.1",
            "Image SLES15-SP3-Manager-4-2-Proxy-BYOS-Azure:perl-DBI-1.642-3.9.1",
            "Image SLES15-SP3-Manager-4-2-Proxy-BYOS-EC2-HVM:perl-DBI-1.642-3.9.1",
            "Image SLES15-SP3-Manager-4-2-Proxy-BYOS-GCE:perl-DBI-1.642-3.9.1",
            "Image SLES15-SP3-Manager-4-2-Server-BYOS-Azure:perl-DBI-1.642-3.9.1",
            "Image SLES15-SP3-Manager-4-2-Server-BYOS-EC2-HVM:perl-DBI-1.642-3.9.1",
            "Image SLES15-SP3-Manager-4-2-Server-BYOS-GCE:perl-DBI-1.642-3.9.1",
            "Image SLES15-SP4-Manager-Proxy-4-3-BYOS-Azure:perl-DBI-1.642-3.9.1",
            "Image SLES15-SP4-Manager-Proxy-4-3-BYOS-EC2:perl-DBI-1.642-3.9.1",
            "Image SLES15-SP4-Manager-Proxy-4-3-BYOS-GCE:perl-DBI-1.642-3.9.1",
            "Image SLES15-SP4-Manager-Proxy-4-3-BYOS:perl-DBI-1.642-3.9.1",
            "Image SLES15-SP4-Manager-Server-4-3-Azure-llc:perl-DBI-1.642-3.9.1",
            "Image SLES15-SP4-Manager-Server-4-3-Azure-ltd:perl-DBI-1.642-3.9.1",
            "Image SLES15-SP4-Manager-Server-4-3-BYOS-Azure:perl-DBI-1.642-3.9.1",
            "Image SLES15-SP4-Manager-Server-4-3-BYOS-EC2:perl-DBI-1.642-3.9.1",
            "Image SLES15-SP4-Manager-Server-4-3-BYOS-GCE:perl-DBI-1.642-3.9.1",
            "Image SLES15-SP4-Manager-Server-4-3-BYOS:perl-DBI-1.642-3.9.1",
            "Image SLES15-SP4-Manager-Server-4-3-EC2-llc:perl-DBI-1.642-3.9.1",
            "Image SLES15-SP4-Manager-Server-4-3-EC2-ltd:perl-DBI-1.642-3.9.1",
            "Image SLES15-SP4-Manager-Server-4-3:perl-DBI-1.642-3.9.1",
            "SUSE Linux Enterprise Module for Basesystem 15 SP2:perl-DBI-1.642-3.9.1"
          ]
        }
      ],
      "CVSSScoreSets": {}
    },
    {
      "CVE": "CVE-2014-10402",
      "Description": "An issue was discovered in the DBI module through 1.643 for Perl. DBD::File drivers can open files from folders other than those specifically passed via the f_dir attribute in the data source name (DSN). NOTE: this issue exists because of an incomplete fix for CVE-2014-10401.",
      "Threats": [
        {
          "Type": "Impact",
          "Severity": "moderate"
        }
      ],
      "References": [
        {
          "URL": "https://www.suse.com/security/cve/CVE-2014-10402.html",
          "Description": "CVE-2014-10402"
        },
        {
          "URL": "https://bugzilla.suse.com/1176492",
          "Description": "SUSE Bug 1176492"
        }
      ],
      "ProductStatuses": [
        {
          "Type": "Fixed",
          "ProductID": [
            "Container suse/manager/5.0/x86_64/server:latest:perl-DBI-1.642-3.9.1",
            "Container suse/rmt-mariadb:latest:perl-DBI-1.642-3.9.1",
            "Image SLES15-SP2-Manager-4-1-Proxy-BYOS-Azure:perl-DBI-1.642-3.9.1",
            "Image SLES15-SP2-Manager-4-1-Proxy-BYOS-EC2-HVM:perl-DBI-1.642-3.9.1",
            "Image SLES15-SP2-Manager-4-1-Proxy-BYOS-GCE:perl-DBI-1.642-3.9.1",
            "Image SLES15-SP2-Manager-4-1-Server-BYOS-Azure:perl-DBI-1.642-3.9.1",
            "Image SLES15-SP2-Manager-4-1-Server-BYOS-EC2-HVM:perl-DBI-1.642-3.9.1",
            "Image SLES15-SP2-Manager-4-1-Server-BYOS-GCE:perl-DBI-1.642-3.9.1",
            "Image SLES15-SP3-Manager-4-2-Proxy-BYOS-Azure:perl-DBI-1.642-3.9.1",
            "Image SLES15-SP3-Manager-4-2-Proxy-BYOS-EC2-HVM:perl-DBI-1.642-3.9.1",
            "Image SLES15-SP3-Manager-4-2-Proxy-BYOS-GCE:perl-DBI-1.642-3.9.1",
            "Image SLES15-SP3-Manager-4-2-Server-BYOS-Azure:perl-DBI-1.642-3.9.1",
            "Image SLES15-SP3-Manager-4-2-Server-BYOS-EC2-HVM:perl-DBI-1.642-3.9.1",
            "Image SLES15-SP3-Manager-4-2-Server-BYOS-GCE:perl-DBI-1.642-3.9.1",
            "Image SLES15-SP4-Manager-Proxy-4-3-BYOS-Azure:perl-DBI-1.642-3.9.1",
            "Image SLES15-SP4-Manager-Proxy-4-3-BYOS-EC2:perl-DBI-1.642-3.9.1",
            "Image SLES15-SP4-Manager-Proxy-4-3-BYOS-GCE:perl-DBI-1.642-3.9.1",
            "Image SLES15-SP4-Manager-Proxy-4-3-BYOS:perl-DBI-1.642-3.9.1",
            "Image SLES15-SP4-Manager-Server-4-3-Azure-llc:perl-DBI-1.642-3.9.1",
            "Image SLES15-SP4-Manager-Server-4-3-Azure-ltd:perl-DBI-1.642-3.9.1",
            "Image SLES15-SP4-Manager-Server-4-3-BYOS-Azure:perl-DBI-1.642-3.9.1",
            "Image SLES15-SP4-Manager-Server-4-3-BYOS-EC2:perl-DBI-1.642-3.9.1",
            "Image SLES15-SP4-Manager-Server-4-3-BYOS-GCE:perl-DBI-1.642-3.9.1",
            "Image SLES15-SP4-Manager-Server-4-3-BYOS:perl-DBI-1.642-3.9.1",
            "Image SLES15-SP4-Manager-Server-4-3-EC2-llc:perl-DBI-1.642-3.9.1",
            "Image SLES15-SP4-Manager-Server-4-3-EC2-ltd:perl-DBI-1.642-3.9.1",
            "Image SLES15-SP4-Manager-Server-4-3:perl-DBI-1.642-3.9.1",
            "SUSE Linux Enterprise Module for Basesystem 15 SP2:perl-DBI-1.642-3.9.1"
          ]
        }
      ],
      "CVSSScoreSets": {}
    }
  ]
}