{
  "Title": "Security update for the Linux Kernel",
  "Tracking": {
    "ID": "SUSE-SU-2020:14393-1",
    "Status": "Final",
    "Version": "1",
    "InitialReleaseDate": "2020-06-09T17:11:40Z",
    "CurrentReleaseDate": "2020-06-09T17:11:40Z",
    "RevisionHistory": [
      {
        "Number": "1",
        "Date": "2020-06-09T17:11:40Z",
        "Description": "current"
      }
    ]
  },
  "Notes": [
    {
      "Text": "Security update for the Linux Kernel",
      "Title": "Topic",
      "Type": "Summary"
    },
    {
      "Text": "The SUSE Linux Enterprise 11 SP4 kernel was updated to receive various security and bugfixes.\n\nThe following security bugs were fixed:\n\n- CVE-2020-0543: Fixed a side channel attack against special registers which could have resulted in leaking of read values to cores other than the one which called it. \n  This attack is known as Special Register Buffer Data Sampling (SRBDS) or 'CrossTalk' (bsc#1154824).\n- CVE-2020-12652: Fixed an issue which could have allowed local users to hold an incorrect lock during the ioctl operation and trigger a race condition (bsc#1171218).\n- CVE-2020-12653: Fixed an issue in the wifi driver which could have allowed local users to gain privileges or cause a denial of service (bsc#1171195).\n- CVE-2020-12654: Fixed an issue in he wifi driver which could have allowed a remote AP to trigger a heap-based buffer overflow (bsc#1171202).\n- CVE-2020-10690: Fixed the race between the release of ptp_clock and cdev (bsc#1170056).\n\nThe following non-security bugs were fixed:\n\n- nfsd4: clean up open owners on OPEN failure (bsc#1154290).\n- random: always use batched entropy for get_random_u{32,64} (bsc#1164871).\n",
      "Title": "Details",
      "Type": "General"
    },
    {
      "Text": "The CVRF data is provided by SUSE under the Creative Commons License 4.0 with Attribution (CC-BY-4.0).",
      "Title": "Terms of Use",
      "Type": "Legal Disclaimer"
    },
    {
      "Text": "slessp4-kernel-source-14393,slexsp3-kernel-source-14393",
      "Title": "Patchnames",
      "Type": "Details"
    }
  ],
  "ProductTree": {
    "Relationships": [
      {
        "ProductReference": "kernel-bigmem-3.0.101-108.114.1",
        "RelatesToProductReference": "SUSE Linux Enterprise Server 11 SP4-LTSS",
        "RelationType": "Default Component Of"
      },
      {
        "ProductReference": "kernel-bigmem-base-3.0.101-108.114.1",
        "RelatesToProductReference": "SUSE Linux Enterprise Server 11 SP4-LTSS",
        "RelationType": "Default Component Of"
      },
      {
        "ProductReference": "kernel-bigmem-devel-3.0.101-108.114.1",
        "RelatesToProductReference": "SUSE Linux Enterprise Server 11 SP4-LTSS",
        "RelationType": "Default Component Of"
      },
      {
        "ProductReference": "kernel-default-3.0.101-108.114.1",
        "RelatesToProductReference": "SUSE Linux Enterprise Server 11 SP4-LTSS",
        "RelationType": "Default Component Of"
      },
      {
        "ProductReference": "kernel-default-base-3.0.101-108.114.1",
        "RelatesToProductReference": "SUSE Linux Enterprise Server 11 SP4-LTSS",
        "RelationType": "Default Component Of"
      },
      {
        "ProductReference": "kernel-default-devel-3.0.101-108.114.1",
        "RelatesToProductReference": "SUSE Linux Enterprise Server 11 SP4-LTSS",
        "RelationType": "Default Component Of"
      },
      {
        "ProductReference": "kernel-default-man-3.0.101-108.114.1",
        "RelatesToProductReference": "SUSE Linux Enterprise Server 11 SP4-LTSS",
        "RelationType": "Default Component Of"
      },
      {
        "ProductReference": "kernel-ec2-3.0.101-108.114.1",
        "RelatesToProductReference": "SUSE Linux Enterprise Server 11 SP4-LTSS",
        "RelationType": "Default Component Of"
      },
      {
        "ProductReference": "kernel-ec2-base-3.0.101-108.114.1",
        "RelatesToProductReference": "SUSE Linux Enterprise Server 11 SP4-LTSS",
        "RelationType": "Default Component Of"
      },
      {
        "ProductReference": "kernel-ec2-devel-3.0.101-108.114.1",
        "RelatesToProductReference": "SUSE Linux Enterprise Server 11 SP4-LTSS",
        "RelationType": "Default Component Of"
      },
      {
        "ProductReference": "kernel-pae-3.0.101-108.114.1",
        "RelatesToProductReference": "SUSE Linux Enterprise Server 11 SP4-LTSS",
        "RelationType": "Default Component Of"
      },
      {
        "ProductReference": "kernel-pae-base-3.0.101-108.114.1",
        "RelatesToProductReference": "SUSE Linux Enterprise Server 11 SP4-LTSS",
        "RelationType": "Default Component Of"
      },
      {
        "ProductReference": "kernel-pae-devel-3.0.101-108.114.1",
        "RelatesToProductReference": "SUSE Linux Enterprise Server 11 SP4-LTSS",
        "RelationType": "Default Component Of"
      },
      {
        "ProductReference": "kernel-ppc64-3.0.101-108.114.1",
        "RelatesToProductReference": "SUSE Linux Enterprise Server 11 SP4-LTSS",
        "RelationType": "Default Component Of"
      },
      {
        "ProductReference": "kernel-ppc64-base-3.0.101-108.114.1",
        "RelatesToProductReference": "SUSE Linux Enterprise Server 11 SP4-LTSS",
        "RelationType": "Default Component Of"
      },
      {
        "ProductReference": "kernel-ppc64-devel-3.0.101-108.114.1",
        "RelatesToProductReference": "SUSE Linux Enterprise Server 11 SP4-LTSS",
        "RelationType": "Default Component Of"
      },
      {
        "ProductReference": "kernel-source-3.0.101-108.114.1",
        "RelatesToProductReference": "SUSE Linux Enterprise Server 11 SP4-LTSS",
        "RelationType": "Default Component Of"
      },
      {
        "ProductReference": "kernel-syms-3.0.101-108.114.1",
        "RelatesToProductReference": "SUSE Linux Enterprise Server 11 SP4-LTSS",
        "RelationType": "Default Component Of"
      },
      {
        "ProductReference": "kernel-trace-3.0.101-108.114.1",
        "RelatesToProductReference": "SUSE Linux Enterprise Server 11 SP4-LTSS",
        "RelationType": "Default Component Of"
      },
      {
        "ProductReference": "kernel-trace-base-3.0.101-108.114.1",
        "RelatesToProductReference": "SUSE Linux Enterprise Server 11 SP4-LTSS",
        "RelationType": "Default Component Of"
      },
      {
        "ProductReference": "kernel-trace-devel-3.0.101-108.114.1",
        "RelatesToProductReference": "SUSE Linux Enterprise Server 11 SP4-LTSS",
        "RelationType": "Default Component Of"
      },
      {
        "ProductReference": "kernel-xen-3.0.101-108.114.1",
        "RelatesToProductReference": "SUSE Linux Enterprise Server 11 SP4-LTSS",
        "RelationType": "Default Component Of"
      },
      {
        "ProductReference": "kernel-xen-base-3.0.101-108.114.1",
        "RelatesToProductReference": "SUSE Linux Enterprise Server 11 SP4-LTSS",
        "RelationType": "Default Component Of"
      },
      {
        "ProductReference": "kernel-xen-devel-3.0.101-108.114.1",
        "RelatesToProductReference": "SUSE Linux Enterprise Server 11 SP4-LTSS",
        "RelationType": "Default Component Of"
      }
    ]
  },
  "References": [
    {
      "URL": "https://www.suse.com/support/update/announcement/2020/suse-su-202014393-1/",
      "Description": "Link for SUSE-SU-2020:14393-1"
    },
    {
      "URL": "https://lists.suse.com/pipermail/sle-security-updates/2020-June/006913.html",
      "Description": "E-Mail link for SUSE-SU-2020:14393-1"
    },
    {
      "URL": "https://www.suse.com/support/security/rating/",
      "Description": "SUSE Security Ratings"
    },
    {
      "URL": "https://bugzilla.suse.com/1154290",
      "Description": "SUSE Bug 1154290"
    },
    {
      "URL": "https://bugzilla.suse.com/1154824",
      "Description": "SUSE Bug 1154824"
    },
    {
      "URL": "https://bugzilla.suse.com/1164871",
      "Description": "SUSE Bug 1164871"
    },
    {
      "URL": "https://bugzilla.suse.com/1170056",
      "Description": "SUSE Bug 1170056"
    },
    {
      "URL": "https://bugzilla.suse.com/1171195",
      "Description": "SUSE Bug 1171195"
    },
    {
      "URL": "https://bugzilla.suse.com/1171202",
      "Description": "SUSE Bug 1171202"
    },
    {
      "URL": "https://bugzilla.suse.com/1171218",
      "Description": "SUSE Bug 1171218"
    },
    {
      "URL": "https://www.suse.com/security/cve/CVE-2020-0543/",
      "Description": "SUSE CVE CVE-2020-0543 page"
    },
    {
      "URL": "https://www.suse.com/security/cve/CVE-2020-10690/",
      "Description": "SUSE CVE CVE-2020-10690 page"
    },
    {
      "URL": "https://www.suse.com/security/cve/CVE-2020-12652/",
      "Description": "SUSE CVE CVE-2020-12652 page"
    },
    {
      "URL": "https://www.suse.com/security/cve/CVE-2020-12653/",
      "Description": "SUSE CVE CVE-2020-12653 page"
    },
    {
      "URL": "https://www.suse.com/security/cve/CVE-2020-12654/",
      "Description": "SUSE CVE CVE-2020-12654 page"
    }
  ],
  "Vulnerabilities": [
    {
      "CVE": "CVE-2020-0543",
      "Description": "Incomplete cleanup from specific special register read operations in some Intel(R) Processors may allow an authenticated user to potentially enable information disclosure via local access.",
      "Threats": [
        {
          "Type": "Impact",
          "Severity": "moderate"
        }
      ],
      "References": [
        {
          "URL": "https://www.suse.com/security/cve/CVE-2020-0543.html",
          "Description": "CVE-2020-0543"
        },
        {
          "URL": "https://bugzilla.suse.com/1154824",
          "Description": "SUSE Bug 1154824"
        },
        {
          "URL": "https://bugzilla.suse.com/1172205",
          "Description": "SUSE Bug 1172205"
        },
        {
          "URL": "https://bugzilla.suse.com/1172206",
          "Description": "SUSE Bug 1172206"
        },
        {
          "URL": "https://bugzilla.suse.com/1172207",
          "Description": "SUSE Bug 1172207"
        },
        {
          "URL": "https://bugzilla.suse.com/1172770",
          "Description": "SUSE Bug 1172770"
        },
        {
          "URL": "https://bugzilla.suse.com/1178658",
          "Description": "SUSE Bug 1178658"
        },
        {
          "URL": "https://bugzilla.suse.com/1201877",
          "Description": "SUSE Bug 1201877"
        }
      ],
      "ProductStatuses": [
        {
          "Type": "Fixed",
          "ProductID": [
            "SUSE Linux Enterprise Server 11 SP4-LTSS:kernel-bigmem-3.0.101-108.114.1",
            "SUSE Linux Enterprise Server 11 SP4-LTSS:kernel-bigmem-base-3.0.101-108.114.1",
            "SUSE Linux Enterprise Server 11 SP4-LTSS:kernel-bigmem-devel-3.0.101-108.114.1",
            "SUSE Linux Enterprise Server 11 SP4-LTSS:kernel-default-3.0.101-108.114.1",
            "SUSE Linux Enterprise Server 11 SP4-LTSS:kernel-default-base-3.0.101-108.114.1",
            "SUSE Linux Enterprise Server 11 SP4-LTSS:kernel-default-devel-3.0.101-108.114.1",
            "SUSE Linux Enterprise Server 11 SP4-LTSS:kernel-default-man-3.0.101-108.114.1",
            "SUSE Linux Enterprise Server 11 SP4-LTSS:kernel-ec2-3.0.101-108.114.1",
            "SUSE Linux Enterprise Server 11 SP4-LTSS:kernel-ec2-base-3.0.101-108.114.1",
            "SUSE Linux Enterprise Server 11 SP4-LTSS:kernel-ec2-devel-3.0.101-108.114.1",
            "SUSE Linux Enterprise Server 11 SP4-LTSS:kernel-pae-3.0.101-108.114.1",
            "SUSE Linux Enterprise Server 11 SP4-LTSS:kernel-pae-base-3.0.101-108.114.1",
            "SUSE Linux Enterprise Server 11 SP4-LTSS:kernel-pae-devel-3.0.101-108.114.1",
            "SUSE Linux Enterprise Server 11 SP4-LTSS:kernel-ppc64-3.0.101-108.114.1",
            "SUSE Linux Enterprise Server 11 SP4-LTSS:kernel-ppc64-base-3.0.101-108.114.1",
            "SUSE Linux Enterprise Server 11 SP4-LTSS:kernel-ppc64-devel-3.0.101-108.114.1",
            "SUSE Linux Enterprise Server 11 SP4-LTSS:kernel-source-3.0.101-108.114.1",
            "SUSE Linux Enterprise Server 11 SP4-LTSS:kernel-syms-3.0.101-108.114.1",
            "SUSE Linux Enterprise Server 11 SP4-LTSS:kernel-trace-3.0.101-108.114.1",
            "SUSE Linux Enterprise Server 11 SP4-LTSS:kernel-trace-base-3.0.101-108.114.1",
            "SUSE Linux Enterprise Server 11 SP4-LTSS:kernel-trace-devel-3.0.101-108.114.1",
            "SUSE Linux Enterprise Server 11 SP4-LTSS:kernel-xen-3.0.101-108.114.1",
            "SUSE Linux Enterprise Server 11 SP4-LTSS:kernel-xen-base-3.0.101-108.114.1",
            "SUSE Linux Enterprise Server 11 SP4-LTSS:kernel-xen-devel-3.0.101-108.114.1"
          ]
        }
      ],
      "CVSSScoreSets": {}
    },
    {
      "CVE": "CVE-2020-10690",
      "Description": "There is a use-after-free in kernel versions before 5.5 due to a race condition between the release of ptp_clock and cdev while resource deallocation. When a (high privileged) process allocates a ptp device file (like /dev/ptpX) and voluntarily goes to sleep. During this time if the underlying device is removed, it can cause an exploitable condition as the process wakes up to terminate and clean all attached files. The system crashes due to the cdev structure being invalid (as already freed) which is pointed to by the inode.",
      "Threats": [
        {
          "Type": "Impact",
          "Severity": "moderate"
        }
      ],
      "References": [
        {
          "URL": "https://www.suse.com/security/cve/CVE-2020-10690.html",
          "Description": "CVE-2020-10690"
        },
        {
          "URL": "https://bugzilla.suse.com/1170056",
          "Description": "SUSE Bug 1170056"
        }
      ],
      "ProductStatuses": [
        {
          "Type": "Fixed",
          "ProductID": [
            "SUSE Linux Enterprise Server 11 SP4-LTSS:kernel-bigmem-3.0.101-108.114.1",
            "SUSE Linux Enterprise Server 11 SP4-LTSS:kernel-bigmem-base-3.0.101-108.114.1",
            "SUSE Linux Enterprise Server 11 SP4-LTSS:kernel-bigmem-devel-3.0.101-108.114.1",
            "SUSE Linux Enterprise Server 11 SP4-LTSS:kernel-default-3.0.101-108.114.1",
            "SUSE Linux Enterprise Server 11 SP4-LTSS:kernel-default-base-3.0.101-108.114.1",
            "SUSE Linux Enterprise Server 11 SP4-LTSS:kernel-default-devel-3.0.101-108.114.1",
            "SUSE Linux Enterprise Server 11 SP4-LTSS:kernel-default-man-3.0.101-108.114.1",
            "SUSE Linux Enterprise Server 11 SP4-LTSS:kernel-ec2-3.0.101-108.114.1",
            "SUSE Linux Enterprise Server 11 SP4-LTSS:kernel-ec2-base-3.0.101-108.114.1",
            "SUSE Linux Enterprise Server 11 SP4-LTSS:kernel-ec2-devel-3.0.101-108.114.1",
            "SUSE Linux Enterprise Server 11 SP4-LTSS:kernel-pae-3.0.101-108.114.1",
            "SUSE Linux Enterprise Server 11 SP4-LTSS:kernel-pae-base-3.0.101-108.114.1",
            "SUSE Linux Enterprise Server 11 SP4-LTSS:kernel-pae-devel-3.0.101-108.114.1",
            "SUSE Linux Enterprise Server 11 SP4-LTSS:kernel-ppc64-3.0.101-108.114.1",
            "SUSE Linux Enterprise Server 11 SP4-LTSS:kernel-ppc64-base-3.0.101-108.114.1",
            "SUSE Linux Enterprise Server 11 SP4-LTSS:kernel-ppc64-devel-3.0.101-108.114.1",
            "SUSE Linux Enterprise Server 11 SP4-LTSS:kernel-source-3.0.101-108.114.1",
            "SUSE Linux Enterprise Server 11 SP4-LTSS:kernel-syms-3.0.101-108.114.1",
            "SUSE Linux Enterprise Server 11 SP4-LTSS:kernel-trace-3.0.101-108.114.1",
            "SUSE Linux Enterprise Server 11 SP4-LTSS:kernel-trace-base-3.0.101-108.114.1",
            "SUSE Linux Enterprise Server 11 SP4-LTSS:kernel-trace-devel-3.0.101-108.114.1",
            "SUSE Linux Enterprise Server 11 SP4-LTSS:kernel-xen-3.0.101-108.114.1",
            "SUSE Linux Enterprise Server 11 SP4-LTSS:kernel-xen-base-3.0.101-108.114.1",
            "SUSE Linux Enterprise Server 11 SP4-LTSS:kernel-xen-devel-3.0.101-108.114.1"
          ]
        }
      ],
      "CVSSScoreSets": {}
    },
    {
      "CVE": "CVE-2020-12652",
      "Description": "The __mptctl_ioctl function in drivers/message/fusion/mptctl.c in the Linux kernel before 5.4.14 allows local users to hold an incorrect lock during the ioctl operation and trigger a race condition, i.e., a \"double fetch\" vulnerability, aka CID-28d76df18f0a. NOTE: the vendor states \"The security impact of this bug is not as bad as it could have been because these operations are all privileged and root already has enormous destructive power.\"",
      "Threats": [
        {
          "Type": "Impact",
          "Severity": "important"
        }
      ],
      "References": [
        {
          "URL": "https://www.suse.com/security/cve/CVE-2020-12652.html",
          "Description": "CVE-2020-12652"
        },
        {
          "URL": "https://bugzilla.suse.com/1171218",
          "Description": "SUSE Bug 1171218"
        }
      ],
      "ProductStatuses": [
        {
          "Type": "Fixed",
          "ProductID": [
            "SUSE Linux Enterprise Server 11 SP4-LTSS:kernel-bigmem-3.0.101-108.114.1",
            "SUSE Linux Enterprise Server 11 SP4-LTSS:kernel-bigmem-base-3.0.101-108.114.1",
            "SUSE Linux Enterprise Server 11 SP4-LTSS:kernel-bigmem-devel-3.0.101-108.114.1",
            "SUSE Linux Enterprise Server 11 SP4-LTSS:kernel-default-3.0.101-108.114.1",
            "SUSE Linux Enterprise Server 11 SP4-LTSS:kernel-default-base-3.0.101-108.114.1",
            "SUSE Linux Enterprise Server 11 SP4-LTSS:kernel-default-devel-3.0.101-108.114.1",
            "SUSE Linux Enterprise Server 11 SP4-LTSS:kernel-default-man-3.0.101-108.114.1",
            "SUSE Linux Enterprise Server 11 SP4-LTSS:kernel-ec2-3.0.101-108.114.1",
            "SUSE Linux Enterprise Server 11 SP4-LTSS:kernel-ec2-base-3.0.101-108.114.1",
            "SUSE Linux Enterprise Server 11 SP4-LTSS:kernel-ec2-devel-3.0.101-108.114.1",
            "SUSE Linux Enterprise Server 11 SP4-LTSS:kernel-pae-3.0.101-108.114.1",
            "SUSE Linux Enterprise Server 11 SP4-LTSS:kernel-pae-base-3.0.101-108.114.1",
            "SUSE Linux Enterprise Server 11 SP4-LTSS:kernel-pae-devel-3.0.101-108.114.1",
            "SUSE Linux Enterprise Server 11 SP4-LTSS:kernel-ppc64-3.0.101-108.114.1",
            "SUSE Linux Enterprise Server 11 SP4-LTSS:kernel-ppc64-base-3.0.101-108.114.1",
            "SUSE Linux Enterprise Server 11 SP4-LTSS:kernel-ppc64-devel-3.0.101-108.114.1",
            "SUSE Linux Enterprise Server 11 SP4-LTSS:kernel-source-3.0.101-108.114.1",
            "SUSE Linux Enterprise Server 11 SP4-LTSS:kernel-syms-3.0.101-108.114.1",
            "SUSE Linux Enterprise Server 11 SP4-LTSS:kernel-trace-3.0.101-108.114.1",
            "SUSE Linux Enterprise Server 11 SP4-LTSS:kernel-trace-base-3.0.101-108.114.1",
            "SUSE Linux Enterprise Server 11 SP4-LTSS:kernel-trace-devel-3.0.101-108.114.1",
            "SUSE Linux Enterprise Server 11 SP4-LTSS:kernel-xen-3.0.101-108.114.1",
            "SUSE Linux Enterprise Server 11 SP4-LTSS:kernel-xen-base-3.0.101-108.114.1",
            "SUSE Linux Enterprise Server 11 SP4-LTSS:kernel-xen-devel-3.0.101-108.114.1"
          ]
        }
      ],
      "CVSSScoreSets": {}
    },
    {
      "CVE": "CVE-2020-12653",
      "Description": "An issue was found in Linux kernel before 5.5.4. The mwifiex_cmd_append_vsie_tlv() function in drivers/net/wireless/marvell/mwifiex/scan.c allows local users to gain privileges or cause a denial of service because of an incorrect memcpy and buffer overflow, aka CID-b70261a288ea.",
      "Threats": [
        {
          "Type": "Impact",
          "Severity": "important"
        }
      ],
      "References": [
        {
          "URL": "https://www.suse.com/security/cve/CVE-2020-12653.html",
          "Description": "CVE-2020-12653"
        },
        {
          "URL": "https://bugzilla.suse.com/1159281",
          "Description": "SUSE Bug 1159281"
        },
        {
          "URL": "https://bugzilla.suse.com/1171195",
          "Description": "SUSE Bug 1171195"
        },
        {
          "URL": "https://bugzilla.suse.com/1171254",
          "Description": "SUSE Bug 1171254"
        }
      ],
      "ProductStatuses": [
        {
          "Type": "Fixed",
          "ProductID": [
            "SUSE Linux Enterprise Server 11 SP4-LTSS:kernel-bigmem-3.0.101-108.114.1",
            "SUSE Linux Enterprise Server 11 SP4-LTSS:kernel-bigmem-base-3.0.101-108.114.1",
            "SUSE Linux Enterprise Server 11 SP4-LTSS:kernel-bigmem-devel-3.0.101-108.114.1",
            "SUSE Linux Enterprise Server 11 SP4-LTSS:kernel-default-3.0.101-108.114.1",
            "SUSE Linux Enterprise Server 11 SP4-LTSS:kernel-default-base-3.0.101-108.114.1",
            "SUSE Linux Enterprise Server 11 SP4-LTSS:kernel-default-devel-3.0.101-108.114.1",
            "SUSE Linux Enterprise Server 11 SP4-LTSS:kernel-default-man-3.0.101-108.114.1",
            "SUSE Linux Enterprise Server 11 SP4-LTSS:kernel-ec2-3.0.101-108.114.1",
            "SUSE Linux Enterprise Server 11 SP4-LTSS:kernel-ec2-base-3.0.101-108.114.1",
            "SUSE Linux Enterprise Server 11 SP4-LTSS:kernel-ec2-devel-3.0.101-108.114.1",
            "SUSE Linux Enterprise Server 11 SP4-LTSS:kernel-pae-3.0.101-108.114.1",
            "SUSE Linux Enterprise Server 11 SP4-LTSS:kernel-pae-base-3.0.101-108.114.1",
            "SUSE Linux Enterprise Server 11 SP4-LTSS:kernel-pae-devel-3.0.101-108.114.1",
            "SUSE Linux Enterprise Server 11 SP4-LTSS:kernel-ppc64-3.0.101-108.114.1",
            "SUSE Linux Enterprise Server 11 SP4-LTSS:kernel-ppc64-base-3.0.101-108.114.1",
            "SUSE Linux Enterprise Server 11 SP4-LTSS:kernel-ppc64-devel-3.0.101-108.114.1",
            "SUSE Linux Enterprise Server 11 SP4-LTSS:kernel-source-3.0.101-108.114.1",
            "SUSE Linux Enterprise Server 11 SP4-LTSS:kernel-syms-3.0.101-108.114.1",
            "SUSE Linux Enterprise Server 11 SP4-LTSS:kernel-trace-3.0.101-108.114.1",
            "SUSE Linux Enterprise Server 11 SP4-LTSS:kernel-trace-base-3.0.101-108.114.1",
            "SUSE Linux Enterprise Server 11 SP4-LTSS:kernel-trace-devel-3.0.101-108.114.1",
            "SUSE Linux Enterprise Server 11 SP4-LTSS:kernel-xen-3.0.101-108.114.1",
            "SUSE Linux Enterprise Server 11 SP4-LTSS:kernel-xen-base-3.0.101-108.114.1",
            "SUSE Linux Enterprise Server 11 SP4-LTSS:kernel-xen-devel-3.0.101-108.114.1"
          ]
        }
      ],
      "CVSSScoreSets": {}
    },
    {
      "CVE": "CVE-2020-12654",
      "Description": "An issue was found in Linux kernel before 5.5.4. mwifiex_ret_wmm_get_status() in drivers/net/wireless/marvell/mwifiex/wmm.c allows a remote AP to trigger a heap-based buffer overflow because of an incorrect memcpy, aka CID-3a9b153c5591.",
      "Threats": [
        {
          "Type": "Impact",
          "Severity": "important"
        }
      ],
      "References": [
        {
          "URL": "https://www.suse.com/security/cve/CVE-2020-12654.html",
          "Description": "CVE-2020-12654"
        },
        {
          "URL": "https://bugzilla.suse.com/1159281",
          "Description": "SUSE Bug 1159281"
        },
        {
          "URL": "https://bugzilla.suse.com/1171202",
          "Description": "SUSE Bug 1171202"
        },
        {
          "URL": "https://bugzilla.suse.com/1171252",
          "Description": "SUSE Bug 1171252"
        }
      ],
      "ProductStatuses": [
        {
          "Type": "Fixed",
          "ProductID": [
            "SUSE Linux Enterprise Server 11 SP4-LTSS:kernel-bigmem-3.0.101-108.114.1",
            "SUSE Linux Enterprise Server 11 SP4-LTSS:kernel-bigmem-base-3.0.101-108.114.1",
            "SUSE Linux Enterprise Server 11 SP4-LTSS:kernel-bigmem-devel-3.0.101-108.114.1",
            "SUSE Linux Enterprise Server 11 SP4-LTSS:kernel-default-3.0.101-108.114.1",
            "SUSE Linux Enterprise Server 11 SP4-LTSS:kernel-default-base-3.0.101-108.114.1",
            "SUSE Linux Enterprise Server 11 SP4-LTSS:kernel-default-devel-3.0.101-108.114.1",
            "SUSE Linux Enterprise Server 11 SP4-LTSS:kernel-default-man-3.0.101-108.114.1",
            "SUSE Linux Enterprise Server 11 SP4-LTSS:kernel-ec2-3.0.101-108.114.1",
            "SUSE Linux Enterprise Server 11 SP4-LTSS:kernel-ec2-base-3.0.101-108.114.1",
            "SUSE Linux Enterprise Server 11 SP4-LTSS:kernel-ec2-devel-3.0.101-108.114.1",
            "SUSE Linux Enterprise Server 11 SP4-LTSS:kernel-pae-3.0.101-108.114.1",
            "SUSE Linux Enterprise Server 11 SP4-LTSS:kernel-pae-base-3.0.101-108.114.1",
            "SUSE Linux Enterprise Server 11 SP4-LTSS:kernel-pae-devel-3.0.101-108.114.1",
            "SUSE Linux Enterprise Server 11 SP4-LTSS:kernel-ppc64-3.0.101-108.114.1",
            "SUSE Linux Enterprise Server 11 SP4-LTSS:kernel-ppc64-base-3.0.101-108.114.1",
            "SUSE Linux Enterprise Server 11 SP4-LTSS:kernel-ppc64-devel-3.0.101-108.114.1",
            "SUSE Linux Enterprise Server 11 SP4-LTSS:kernel-source-3.0.101-108.114.1",
            "SUSE Linux Enterprise Server 11 SP4-LTSS:kernel-syms-3.0.101-108.114.1",
            "SUSE Linux Enterprise Server 11 SP4-LTSS:kernel-trace-3.0.101-108.114.1",
            "SUSE Linux Enterprise Server 11 SP4-LTSS:kernel-trace-base-3.0.101-108.114.1",
            "SUSE Linux Enterprise Server 11 SP4-LTSS:kernel-trace-devel-3.0.101-108.114.1",
            "SUSE Linux Enterprise Server 11 SP4-LTSS:kernel-xen-3.0.101-108.114.1",
            "SUSE Linux Enterprise Server 11 SP4-LTSS:kernel-xen-base-3.0.101-108.114.1",
            "SUSE Linux Enterprise Server 11 SP4-LTSS:kernel-xen-devel-3.0.101-108.114.1"
          ]
        }
      ],
      "CVSSScoreSets": {}
    }
  ]
}