{
  "Title": "Security update for the Linux Kernel",
  "Tracking": {
    "ID": "SUSE-SU-2020:3766-1",
    "Status": "Final",
    "Version": "1",
    "InitialReleaseDate": "2020-12-11T14:44:17Z",
    "CurrentReleaseDate": "2020-12-11T14:44:17Z",
    "RevisionHistory": [
      {
        "Number": "1",
        "Date": "2020-12-11T14:44:17Z",
        "Description": "current"
      }
    ]
  },
  "Notes": [
    {
      "Text": "Security update for the Linux Kernel",
      "Title": "Topic",
      "Type": "Summary"
    },
    {
      "Text": "The SUSE Linux Enterprise 12 SP5 kernel RT was updated to receive various security and bugfixes.\n\nThe following security bugs were fixed:\n\n- CVE-2018-20669: Fixed an improper check i915_gem_execbuffer2_ioctl in drivers/gpu/drm/i915/i915_gem_execbuffer.c (bsc#1122971).\n- CVE-2019-20934: Fixed a use-after-free in show_numa_stats() because NUMA fault statistics were inappropriately freed, aka CID-16d51a590a8c (bsc#1179663).\n- CVE-2020-15436: Fixed a use after free vulnerability in fs/block_dev.c which could have allowed local users to gain privileges or cause a denial of service (bsc#1179141).\n- CVE-2020-15437: Fixed a null pointer dereference which could have allowed local users to cause a denial of service(bsc#1179140).\n- CVE-2020-25669: Fixed a use-after-free read in sunkbd_reinit() (bsc#1178182).\n- CVE-2020-27777: Restrict RTAS requests from userspace  (bsc#1179107)\n- CVE-2020-27786: Fixed a use after free in kernel midi subsystem snd_rawmidi_kernel_read1() (bsc#1179601).\n- CVE-2020-28915: Fixed a buffer over-read in the fbcon code which could have been used by local attackers to read kernel memory (bsc#1178886).\n- CVE-2020-28974: Fixed a slab-out-of-bounds read in fbcon which could have been used by local attackers to read privileged information or potentially crash the kernel, aka CID-3c4e0dff2095 (bsc#1178589).\n- CVE-2020-29371: Fixed uninitialized memory leaks to userspace (bsc#1179429).\n- CVE-2020-4788: Fixed an issue with IBM Power9 processors could have allowed a local user to obtain sensitive information from the data in the L1 cache under extenuating circumstances (bsc#1177666).\n\nThe following non-security bugs were fixed:\n\n- ACPI: GED: fix -Wformat (git-fixes).\n- ALSA: ctl: fix error path at adding user-defined element set (git-fixes).\n- ALSA: firewire: Clean up a locking issue in copy_resp_to_buf() (git-fixes).\n- ALSA: hda/realtek: Add mute LED quirk to yet another HP x360 model (git-fixes).\n- ALSA: hda/realtek - Add new codec supported for ALC897 (git-fixes).\n- ALSA: hda/realtek: Add some Clove SSID in the ALC293(ALC1220) (git-fixes).\n- ALSA: hda/realtek: Enable headset of ASUS UX482EG \u0026 B9400CEA with ALC294 (git-fixes).\n- ALSA: mixart: Fix mutex deadlock (git-fixes).\n- ALSA: usb-audio: US16x08: fix value count for level meters (git-fixes).\n- arm64: KVM: Fix system register enumeration (bsc#1174726).\n- arm/arm64: KVM: Add PSCI version selection API (bsc#1174726).\n- ASoC: qcom: lpass-platform: Fix memory leak (git-fixes).\n- ath10k: Acquire tx_lock in tx error paths (git-fixes).\n- Avoid a GCC warning about '/*' within a comment.\n- batman-adv: set .owner to THIS_MODULE (git-fixes).\n- Bluetooth: btusb: Fix and detect most of the Chinese Bluetooth controllers (git-fixes).\n- Bluetooth: hci_bcm: fix freeing not-requested IRQ (git-fixes).\n- bnxt_en: Fix race when modifying pause settings (bsc#1050242 ).\n- bnxt_en: Protect bnxt_set_eee() and bnxt_set_pauseparam() with mutex (bsc#1050242).\n- bpf: Zero-fill re-used per-cpu map element (git-fixes).\n- btrfs: account ticket size at add/delete time (bsc#1178897).\n- btrfs: add helper to obtain number of devices with ongoing dev-replace (bsc#1178897).\n- btrfs: check rw_devices, not num_devices for balance (bsc#1178897).\n- btrfs: do not delete mismatched root refs (bsc#1178962).\n- btrfs: fix btrfs_calc_reclaim_metadata_size calculation (bsc#1178897).\n- btrfs: fix force usage in inc_block_group_ro (bsc#1178897).\n- btrfs: fix invalid removal of root ref (bsc#1178962).\n- btrfs: fix reclaim counter leak of space_info objects (bsc#1178897).\n- btrfs: fix reclaim_size counter leak after stealing from global reserve (bsc#1178897).\n- btrfs: kill min_allocable_bytes in inc_block_group_ro (bsc#1178897).\n- btrfs: qgroup: do not commit transaction when we already hold the handle (bsc#1178634).\n- btrfs: rework arguments of btrfs_unlink_subvol (bsc#1178962).\n- btrfs: split dev-replace locking helpers for read and write (bsc#1178897). \n- can: af_can: prevent potential access of uninitialized member in canfd_rcv() (git-fixes).\n- can: af_can: prevent potential access of uninitialized member in can_rcv() (git-fixes).\n- can: dev: can_restart(): post buffer from the right context (git-fixes).\n- can: gs_usb: fix endianess problem with candleLight firmware (git-fixes).\n- can: m_can: fix nominal bitiming tseg2 min for version \u003e= 3.1 (git-fixes).\n- can: m_can: m_can_handle_state_change(): fix state change (git-fixes).\n- can: m_can: m_can_stop(): set device to software init mode before closing (git-fixes).\n- can: mcba_usb: mcba_usb_start_xmit(): first fill skb, then pass to can_put_echo_skb() (git-fixes).\n- can: peak_usb: fix potential integer overflow on shift of a int (git-fixes).\n- ceph: add check_session_state() helper and make it global (bsc#1179259).\n- ceph: check session state after bumping session-\u003es_seq (bsc#1179259).\n- ceph: fix race in concurrent __ceph_remove_cap invocations (bsc#1178635).\n- cifs: add NULL check for ses-\u003etcon_ipc (bsc#1178270).\n- cifs: allow syscalls to be restarted in __smb_send_rqst() (bsc#1176956).\n- cifs: fix check of tcon dfs in smb1 (bsc#1178270).\n- cifs: Fix incomplete memory allocation on setxattr path (bsc#1179211).\n- cifs: fix potential use-after-free in cifs_echo_request() (bsc#1139944).\n- cifs: remove bogus debug code (bsc#1179427).\n- cifs: Return the error from crypt_message when enc/dec key not found (bsc#1179426).\n- Convert trailing spaces and periods in path components (bsc#1179424).\n- coredump: fix core_pattern parse error (git-fixes).\n- cxgb4: Fix offset when clearing filter byte counters (bsc#1064802 bsc#1066129).\n- docs: ABI: stable: remove a duplicated documentation (git-fixes).\n- docs: ABI: sysfs-c2port: remove a duplicated entry (git-fixes).\n- drbd: code cleanup by using sendpage_ok() to check page for kernel_sendpage() (bsc#1172873).\n- Drivers: hv: vmbus: Remove the unused 'tsc_page' from struct hv_context (git-fixes).\n- drm/i915/gvt: Set ENHANCED_FRAME_CAP bit (git-fixes).\n- drm/sun4i: dw-hdmi: fix error return code in sun8i_dw_hdmi_bind() (git-fixes).\n- Drop sysctl files for dropped archs, add ppc64le and arm64 (bsc#1178838). Also fix the ppc64 page size.\n- efi: cper: Fix possible out-of-bounds access (git-fixes).\n- efi/efivars: Add missing kobject_put() in sysfs entry creation error path (git-fixes).\n- efi/esrt: Fix reference count leak in esre_create_sysfs_entry (git-fixes).\n- efi: provide empty efi_enter_virtual_mode implementation (git-fixes).\n- efivarfs: fix memory leak in efivarfs_create() (git-fixes).\n- efivarfs: revert 'fix memory leak in efivarfs_create()' (git-fixes).\n- efi/x86: Do not panic or BUG() on non-critical error conditions (git-fixes).\n- efi/x86: Free efi_pgd with free_pages() (bsc#1112178).\n- efi/x86: Ignore the memory attributes table on i386 (git-fixes).\n- efi/x86: Map the entire EFI vendor string before copying it (git-fixes).\n- fs/proc/array.c: allow reporting eip/esp for all coredumping threads (bsc#1050549).\n- fuse: fix page dereference after free (bsc#1179213).\n- futex: Do not enable IRQs unconditionally in put_pi_state() (bsc#1067665).\n- futex: Handle transient 'ownerless' rtmutex state correctly (bsc#1067665).\n- hv_balloon: disable warning when floor reached (git-fixes).\n- hv_netvsc: deal with bpf API differences in 4.12 (bsc#1177819, bsc#1177820).\n- hv_netvsc: make recording RSS hash depend on feature flag (bsc#1178853, bsc#1178854).\n- hv_netvsc: record hardware hash in skb (bsc#1178853, bsc#1178854).\n- i2c: qup: Fix error return code in qup_i2c_bam_schedule_desc() (git-fixes).\n- i40iw: Fix error handling in i40iw_manage_arp_cache() (bsc#1111666)\n- i40iw: fix null pointer dereference on a null wqe pointer (bsc#1111666)\n- i40iw: Report correct firmware version (bsc#1111666)\n- IB/cma: Fix ports memory leak in cma_configfs (bsc#1111666)\n- IB/core: Set qp-\u003ereal_qp before it may be accessed (bsc#1111666)\n- IB/hfi1: Add missing INVALIDATE opcodes for trace (bsc#1111666)\n- IB/hfi1: Add RcvShortLengthErrCnt to hfi1stats (bsc#1111666)\n- IB/hfi1: Add software counter for ctxt0 seq drop (bsc#1111666)\n- IB/hfi1: Avoid hardlockup with flushlist_lock (bsc#1111666)\n- IB/hfi1: Call kobject_put() when kobject_init_and_add() fails (bsc#1111666)\n- IB/hfi1: Check for error on call to alloc_rsm_map_table (bsc#1111666)\n- IB/hfi1: Close PSM sdma_progress sleep window (bsc#1111666)\n- IB/hfi1: Define variables as unsigned long to fix KASAN warning (bsc#1111666)\n- IB/hfi1: Ensure full Gen3 speed in a Gen4 system (bsc#1111666)\n- IB/hfi1: Fix memory leaks in sysfs registration and unregistration (bsc#1111666)\n- IB/hfi1: Fix Spectre v1 vulnerability (bsc#1111666)\n- IB/hfi1: Handle port down properly in pio (bsc#1111666)\n- IB/hfi1: Handle wakeup of orphaned QPs for pio (bsc#1111666)\n- IB/hfi1: Insure freeze_work work_struct is canceled on shutdown (bsc#1111666)\n- IB/hfi1, qib: Ensure RCU is locked when accessing list (bsc#1111666)\n- IB/{hfi1, qib}: Fix WC.byte_len calculation for UD_SEND_WITH_IMM (bsc#1111666)\n- IB/hfi1: Remove unused define (bsc#1111666)\n- IB/hfi1: Silence txreq allocation warnings (bsc#1111666)\n- IB/hfi1: Validate page aligned for a given virtual address (bsc#1111666)\n- IB/hfi1: Wakeup QPs orphaned on wait list after flush (bsc#1111666)\n- IB/ipoib: drop useless LIST_HEAD (bsc#1111666)\n- IB/ipoib: Fix double free of skb in case of multicast traffic in CM mode (bsc#1111666)\n- IB/ipoib: Fix for use-after-free in ipoib_cm_tx_start (bsc#1111666)\n- IB/iser: Fix dma_nents type definition (bsc#1111666)\n- IB/iser: Pass the correct number of entries for dma mapped SGL (bsc#1111666)\n- IB/mad: Fix use-after-free in ib mad completion handling (bsc#1111666)\n- IB/mlx4: Add and improve logging (bsc#1111666)\n- IB/mlx4: Add support for MRA (bsc#1111666)\n- IB/mlx4: Adjust delayed work when a dup is observed (bsc#1111666)\n- IB/mlx4: Fix leak in id_map_find_del (bsc#1111666)\n- IB/mlx4: Fix memory leak in add_gid error flow (bsc#1111666)\n- IB/mlx4: Fix race condition between catas error reset and aliasguid flows (bsc#1111666)\n- IB/mlx4: Fix starvation in paravirt mux/demux (bsc#1111666)\n- IB/mlx4: Follow mirror sequence of device add during device removal (bsc#1111666)\n- IB/mlx4: Remove unneeded NULL check (bsc#1111666)\n- IB/mlx4: Test return value of calls to ib_get_cached_pkey (bsc#1111666)\n- IB/mlx5: Add missing XRC options to QP optional params mask (bsc#1111666)\n- IB/mlx5: Compare only index part of a memory window rkey (bsc#1111666)\n- IB/mlx5: Do not override existing ip_protocol (bsc#1111666)\n- IB/mlx5: Fix clean_mr() to work in the expected order (bsc#1111666)\n- IB/mlx5: Fix implicit MR release flow (bsc#1111666)\n- IB/mlx5: Fix outstanding_pi index for GSI qps (bsc#1111666)\n- IB/mlx5: Fix RSS Toeplitz setup to be aligned with the HW specification (bsc#1111666)\n- IB/mlx5: Fix unreg_umr to ignore the mkey state (bsc#1111666)\n- IB/mlx5: Improve ODP debugging messages (bsc#1111666)\n- IB/mlx5: Move MRs to a kernel PD when freeing them to the MR cache (bsc#1111666)\n- IB/mlx5: Prevent concurrent MR updates during invalidation (bsc#1111666)\n- IB/mlx5: Reset access mask when looping inside page fault handler (bsc#1111666)\n- IB/mlx5: Set correct write permissions for implicit ODP MR (bsc#1111666)\n- IB/mlx5: Use direct mkey destroy command upon UMR unreg failure (bsc#1111666)\n- IB/mlx5: Use fragmented QP's buffer for in-kernel users (bsc#1111666)\n- IB/mlx5: WQE dump jumps over first 16 bytes (bsc#1111666)\n- IB/mthca: fix return value of error branch in mthca_init_cq() (bsc#1111666)\n- IB/qib: Call kobject_put() when kobject_init_and_add() fails (bsc#1111666)\n- IB/qib: Fix an error code in qib_sdma_verbs_send() (bsc#1111666)\n- IB/{qib, hfi1, rdmavt}: Correct ibv_devinfo max_mr value (bsc#1111666)\n- IB/qib: Remove a set-but-not-used variable (bsc#1111666)\n- IB/rdmavt: Convert timers to use timer_setup() (bsc#1111666)\n- IB/rdmavt: Fix alloc_qpn() WARN_ON() (bsc#1111666)\n- IB/rdmavt: Fix sizeof mismatch (bsc#1111666)\n- IB/rdmavt: Reset all QPs when the device is shut down (bsc#1111666)\n- IB/rxe: Fix incorrect cache cleanup in error flow (bsc#1111666)\n- IB/rxe: Make counters thread safe (bsc#1111666)\n- IB/srpt: Fix memory leak in srpt_add_one (bsc#1111666)\n- IB/umad: Avoid additional device reference during open()/close() (bsc#1111666)\n- IB/umad: Avoid destroying device while it is accessed (bsc#1111666)\n- IB/umad: Do not check status of nonseekable_open() (bsc#1111666)\n- IB/umad: Fix kernel crash while unloading ib_umad (bsc#1111666)\n- IB/umad: Refactor code to use cdev_device_add() (bsc#1111666)\n- IB/umad: Simplify and avoid dynamic allocation of class (bsc#1111666)\n- IB/usnic: Fix out of bounds index check in query pkey (bsc#1111666)\n- IB/uverbs: Fix OOPs upon device disassociation (bsc#1111666)\n- igc: Fix returning wrong statistics (bsc#1118657).\n- iio: accel: kxcjk1013: Add support for KIOX010A ACPI DSM for setting tablet-mode (git-fixes).\n- iio: accel: kxcjk1013: Replace is_smo8500_device with an acpi_type enum (git-fixes).\n- inet_diag: Fix error path to cancel the meseage in inet_req_diag_fill() (git-fixes).\n- Input: adxl34x - clean up a data type in adxl34x_probe() (git-fixes).\n- Input: i8042 - fix error return code in i8042_setup_aux() (git-fixes).\n- iw_cxgb4: fix ECN check on the passive accept (bsc#1111666)\n- iw_cxgb4: only reconnect with MPAv1 if the peer aborts (bsc#1111666)\n- kABI: add back flush_dcache_range (jsc#SLE-16402 jsc#SLE-16497 bsc#1176109 ltc#187964).\n- kABI workaround for usermodehelper changes (bsc#1179406).\n- KVM: arm64: Add missing #include of -\u003clinux/string.h\u003e in guest.c (bsc#1174726).\n- KVM: arm64: Factor out core register ID enumeration (bsc#1174726).\n- KVM: arm64: Filter out invalid core register IDs in KVM_GET_REG_LIST (bsc#1174726).\n- KVM: arm64: Refactor kvm_arm_num_regs() for easier maintenance (bsc#1174726).\n- KVM: arm64: Reject ioctl access to FPSIMD V-regs on SVE vcpus (bsc#1174726).\n- KVM host: kabi fixes for psci_version (bsc#1174726).\n- libceph: use sendpage_ok() in ceph_tcp_sendpage() (bsc#1172873).\n- libnvdimm/nvdimm/flush: Allow architecture to override the flush barrier (jsc#SLE-16402 jsc#SLE-16497 bsc#1176109 ltc#187964).\n- locking/lockdep: Add debug_locks check in __lock_downgrade() (bsc#1050549).\n- locking/percpu-rwsem: Use this_cpu_{inc,dec}() for read_count (bsc#1050549).\n- locktorture: Print ratio of acquisitions, not failures (bsc#1050549).\n- mac80211: always wind down STA state (git-fixes).\n- mac80211: free sta in sta_info_insert_finish() on errors (git-fixes).\n- mac80211: minstrel: fix tx status processing corner case (git-fixes).\n- mac80211: minstrel: remove deferred sampling code (git-fixes).\n- mlxsw: core: Fix memory leak on module removal (bsc#1112374).\n- mm: always have io_remap_pfn_range() set pgprot_decrypted() (bsc#1112178).\n- mmc: sdhci-of-esdhc: Handle pulse width detection erratum for more SoCs (git-fixes).\n- mm/userfaultfd: do not access vma-\u003evm_mm after calling handle_userfault() (bsc#1179204).\n- net: add WARN_ONCE in kernel_sendpage() for improper zero-copy send (bsc#1172873).\n- net: DCB: Validate DCB_ATTR_DCB_BUFFER argument (bsc#1103990 ).\n- net: ena: Capitalize all log strings and improve code readability (bsc#1177397).\n- net: ena: Change license into format to SPDX in all files (bsc#1177397).\n- net: ena: Change log message to netif/dev function (bsc#1177397).\n- net: ena: Change RSS related macros and variables names (bsc#1177397).\n- net: ena: ethtool: Add new device statistics (bsc#1177397).\n- net: ena: ethtool: add stats printing to XDP queues (bsc#1177397).\n- net: ena: ethtool: convert stat_offset to 64 bit resolution (bsc#1177397).\n- net: ena: Fix all static chekers' warnings (bsc#1177397).\n- net: ena: fix packet's addresses for rx_offset feature (bsc#1174852).\n- net: ena: handle bad request id in ena_netdev (git-fixes).\n- net: ena: Remove redundant print of placement policy (bsc#1177397).\n- net: ena: xdp: add queue counters for xdp actions (bsc#1177397).\n- netfilter: nat: can't use dst_hold on noref dst (bsc#1178878).\n- net: introduce helper sendpage_ok() in include/linux/net.h (bsc#1172873). kABI workaround for including mm.h in include/linux/net.h (bsc#1172873).\n- net/mlx4_core: Fix init_hca fields offset (git-fixes).\n- net: qede: fix PTP initialization on recovery (bsc#1136460 jsc#SLE-4691 bsc#1136461 jsc#SLE-4692).\n- net: qede: fix use-after-free on recovery and AER handling (bsc#1136460 jsc#SLE-4691 bsc#1136461 jsc#SLE-4692).\n- net: qed: fix async event callbacks unregistering (bsc#1104393 bsc#1104389).\n- net: qed: fix 'maybe uninitialized' warning (bsc#1136460 jsc#SLE-4691 bsc#1136461 jsc#SLE-4692).\n- net_sched: fix a memory leak in atm_tc_init() (bsc#1056657 bsc#1056653 bsc#1056787).\n- net/smc: fix valid DMBE buffer sizes (git-fixes).\n- net: thunderx: use spin_lock_bh in nicvf_set_rx_mode_task() (bsc#1110096).\n- net/tls: Fix kmap usage (bsc#1109837).\n- net/tls: missing received data after fast remote close (bsc#1109837).\n- net/x25: prevent a couple of overflows (bsc#1178590).\n- nfc: s3fwrn5: use signed integer for parsing GPIO numbers (git-fixes).\n- nfp: use correct define to return NONE fec (bsc#1109837).\n- NFS: mark nfsiod as CPU_INTENSIVE (bsc#1177304).\n- NFS: only invalidate dentrys that are clearly invalid (bsc#1178669 bsc#1170139).\n- NFSv4.1: fix handling of backchannel binding in BIND_CONN_TO_SESSION (bsc#1170630).\n- nvme-tcp: check page by sendpage_ok() before calling kernel_sendpage() (bsc#1172873).\n- PCI: pci-hyperv: Fix build errors on non-SYSFS config (git-fixes).\n- pinctrl: amd: fix incorrect way to disable debounce filter (git-fixes).\n- pinctrl: amd: use higher precision for 512 RtcClk (git-fixes).\n- pinctrl: aspeed: Fix GPI only function problem (git-fixes).\n- pinctrl: intel: Set default bias in case no particular value given (git-fixes).\n- platform/x86: toshiba_acpi: Fix the wrong variable assignment (git-fixes).\n- powerpc/32: define helpers to get L1 cache sizes (jsc#SLE-16402 jsc#SLE-16497 bsc#1176109 ltc#187964).\n- powerpc/64: flush_inval_dcache_range() becomes flush_dcache_range() (jsc#SLE-16402 jsc#SLE-16497 bsc#1176109 ltc#187964).\n- powerpc/64: reuse PPC32 static inline flush_dcache_range() (jsc#SLE-16402 jsc#SLE-16497 bsc#1176109 ltc#187964).\n- powerpc: Chunk calls to flush_dcache_range in arch_*_memory (jsc#SLE-16402 jsc#SLE-16497 bsc#1176109 ltc#187964 git-fixes).\n- powerpc: define helpers to get L1 icache sizes (jsc#SLE-16402 jsc#SLE-16497 bsc#1176109 ltc#187964).\n- powerpc/mm: Flush cache on memory hot(un)plug (jsc#SLE-16402 jsc#SLE-16497 bsc#1176109 ltc#187964).\n- powerpc/perf: Fix crash with is_sier_available when pmu is not set (bsc#1179578 ltc#189313).\n- powerpc/pmem: Add flush routines using new pmem store and sync instruction (jsc#SLE-16402 jsc#SLE-16497 bsc#1176109 ltc#187964).\n- powerpc/pmem: Add new instructions for persistent storage and sync (jsc#SLE-16402 jsc#SLE-16497 bsc#1176109 ltc#187964).\n- powerpc/pmem: Avoid the barrier in flush routines (jsc#SLE-16402 jsc#SLE-16497 bsc#1176109 ltc#187964).\n- powerpc/pmem: Fix kernel crash due to wrong range value usage in flush_dcache_range (jsc#SLE-16497 bsc#1176109 ltc#187964).\n- powerpc/pmem: Initialize pmem device on newer hardware (jsc#SLE-16402 jsc#SLE-16497 bsc#1176109 ltc#187964).\n- powerpc/pmem: Restrict papr_scm to P8 and above (jsc#SLE-16402 jsc#SLE-16497 bsc#1176109 ltc#187964).\n- powerpc/pmem: Update ppc64 to use the new barrier instruction (jsc#SLE-16402 jsc#SLE-16497 bsc#1176109 ltc#187964).\n- qed: fix error return code in qed_iwarp_ll2_start() (bsc#1050536 bsc#1050545).\n- qed: suppress 'do not support RoCE \u0026 iWARP' flooding on HW init (bsc#1050536 bsc#1050545).\n- qed: suppress false-positives interrupt error messages on HW init (bsc#1136460 jsc#SLE-4691 bsc#1136461 jsc#SLE-4692).\n- RDMA/bnxt_re: Fix lifetimes in bnxt_re_task (bsc#1111666)\n- RDMA/bnxt_re: Fix Send Work Entry state check while polling completions (bsc#1111666)\n- RDMA/bnxt_re: Fix sizeof mismatch for allocation of pbl_tbl. (bsc#1111666)\n- RDMA/bnxt_re: Fix stack-out-of-bounds in bnxt_qplib_rcfw_send_message (bsc#1111666)\n- RDMA/cma: add missed unregister_pernet_subsys in init failure (bsc#1111666)\n- RDMA/cm: Add missing locking around id.state in cm_dup_req_handler (bsc#1111666)\n- RDMA/cma: Fix false error message (bsc#1111666)\n- RDMA/cma: fix null-ptr-deref Read in cma_cleanup (bsc#1111666)\n- RDMA/cma: Protect bind_list and listen_list while finding matching cm id (bsc#1111666)\n- RDMA/cm: Fix checking for allowed duplicate listens (bsc#1111666)\n- RDMA/cm: Remove a race freeing timewait_info (bsc#1111666)\n- RDMA/cm: Update num_paths in cma_resolve_iboe_route error flow (bsc#1111666)\n- RDMA/core: Do not depend device ODP capabilities on kconfig option (bsc#1111666)\n- RDMA/core: Fix invalid memory access in spec_filter_size (bsc#1111666)\n- RDMA/core: Fix locking in ib_uverbs_event_read (bsc#1111666)\n- RDMA/core: Fix protection fault in ib_mr_pool_destroy (bsc#1111666)\n- RDMA/core: Fix race between destroy and release FD object (bsc#1111666)\n- RDMA/core: Fix race when resolving IP address (bsc#1111666)\n- RDMA/core: Prevent mixed use of FDs between shared ufiles (bsc#1111666)\n- RDMA/cxgb3: Delete and properly mark unimplemented resize CQ function (bsc#1111666)\n- RDMA: Directly cast the sockaddr union to sockaddr (bsc#1111666)\n- RDMA/hns: Correct the value of HNS_ROCE_HEM_CHUNK_LEN (bsc#1111666)\n- RDMA/hns: Correct typo of hns_roce_create_cq() (bsc#1111666)\n- RDMA/hns: Remove unsupported modify_port callback (bsc#1111666)\n- RDMA/hns: Set the unsupported wr opcode (bsc#1111666)\n- RDMA/i40iw: fix a potential NULL pointer dereference (bsc#1111666)\n- RDMA/i40iw: Set queue pair state when being queried (bsc#1111666)\n- RDMA/ipoib: Fix ABBA deadlock with ipoib_reap_ah() (bsc#1111666)\n- RDMA/ipoib: Remove check for ETH_SS_TEST (bsc#1111666)\n- RDMA/ipoib: Return void from ipoib_ib_dev_stop() (bsc#1111666)\n- RDMA/ipoib: Set rtnl_link_ops for ipoib interfaces (bsc#1111666)\n- RDMA/iwcm: Fix a lock inversion issue (bsc#1111666)\n- RDMA/iwcm: Fix iwcm work deallocation (bsc#1111666)\n- RDMA/iwcm: move iw_rem_ref() calls out of spinlock (bsc#1111666)\n- RDMA/iw_cxgb4: Avoid freeing skb twice in arp failure case (bsc#1111666)\n- RDMA/iw_cxgb4: Fix the unchecked ep dereference (bsc#1111666)\n- RDMA/mad: Fix possible memory leak in ib_mad_post_receive_mads() (bsc#1111666)\n- RDMA/mlx4: Initialize ib_spec on the stack (bsc#1111666)\n- RDMA/mlx4: Read pkey table length instead of hardcoded value (bsc#1111666)\n- RDMA/mlx5: Clear old rate limit when closing QP (bsc#1111666)\n- RDMA/mlx5: Delete unreachable handle_atomic code by simplifying SW completion (bsc#1111666)\n- RDMA/mlx5: Fix access to wrong pointer while performing flush due to error (bsc#1111666)\n- RDMA/mlx5: Fix a race with mlx5_ib_update_xlt on an implicit MR (bsc#1111666)\n- RDMA/mlx5: Fix function name typo 'fileds' -\u003e 'fields' (bsc#1111666)\n- RDMA/mlx5: Return proper error value (bsc#1111666)\n- RDMA/mlx5: Set GRH fields in query QP on RoCE (bsc#1111666)\n- RDMA/mlx5: Verify that QP is created with RQ or SQ (bsc#1111666)\n- RDMA/nes: Remove second wait queue initialization call (bsc#1111666)\n- RDMA/netlink: Do not always generate an ACK for some netlink operations (bsc#1111666)\n- RDMA/ocrdma: Fix out of bounds index check in query pkey (bsc#1111666)\n- RDMA/ocrdma: Remove unsupported modify_port callback (bsc#1111666)\n- RDMA/pvrdma: Fix missing pci disable in pvrdma_pci_probe() (bsc#1111666)\n- RDMA/qedr: Endianness warnings cleanup (bsc#1111666)\n- RDMA/qedr: Fix doorbell setting (bsc#1111666)\n- RDMA/qedr: Fix KASAN: use-after-free in ucma_event_handler+0x532 (bsc#1050545).\n- RDMA/qedr: Fix memory leak in iWARP CM (bsc#1050545 ).\n- RDMA/qedr: Fix memory leak in user qp and mr (bsc#1111666)\n- RDMA/qedr: Fix reported firmware version (bsc#1111666)\n- RDMA/qedr: Fix use of uninitialized field (bsc#1111666)\n- RDMA/qedr: Remove unsupported modify_port callback (bsc#1111666)\n- RDMA/qedr: SRQ's bug fixes (bsc#1111666)\n- RDMA/qib: Delete extra line (bsc#1111666)\n- RDMA/qib: Remove all occurrences of BUG_ON() (bsc#1111666)\n- RDMA/qib: Validate -\u003eshow()/store() callbacks before calling them (bsc#1111666)\n- RDMA/rxe: Drop pointless checks in rxe_init_ports (bsc#1111666)\n- RDMA/rxe: Fill in wc byte_len with IB_WC_RECV_RDMA_WITH_IMM (bsc#1111666)\n- RDMA/rxe: Fix configuration of atomic queue pair attributes (bsc#1111666)\n- RDMA/rxe: Fix memleak in rxe_mem_init_user (bsc#1111666)\n- RDMA/rxe: Fix slab-out-bounds access which lead to kernel crash later (bsc#1111666)\n- RDMA/rxe: Fix soft lockup problem due to using tasklets in softirq (bsc#1111666)\n- RDMA/rxe: Fix the parent sysfs read when the interface has 15 chars (bsc#1111666)\n- RDMA/rxe: Prevent access to wr-\u003enext ptr afrer wr is posted to send queue (bsc#1111666)\n- RDMA/rxe: Remove unused rxe_mem_map_pages (bsc#1111666)\n- RDMA/rxe: Remove useless rxe_init_device_param assignments (bsc#1111666)\n- RDMA/rxe: Return void from rxe_init_port_param() (bsc#1111666)\n- RDMA/rxe: Return void from rxe_mem_init_dma() (bsc#1111666)\n- RDMA/rxe: Set default vendor ID (bsc#1111666)\n- RDMA/rxe: Set sys_image_guid to be aligned with HW IB devices (bsc#1111666)\n- RDMA/rxe: Skip dgid check in loopback mode (bsc#1111666)\n- RDMA/rxe: Use for_each_sg_page iterator on umem SGL (bsc#1111666)\n- RDMA/srp: Rework SCSI device reset handling (bsc#1111666)\n- RDMA/srpt: Fix typo in srpt_unregister_mad_agent docstring (bsc#1111666)\n- RDMA/srpt: Report the SCSI residual to the initiator (bsc#1111666)\n- RDMA/ucma: Add missing locking around rdma_leave_multicast() (bsc#1111666)\n- RDMA/ucma: Put a lock around every call to the rdma_cm layer (bsc#1111666)\n- RDMA/uverbs: Make the event_queue fds return POLLERR when disassociated (bsc#1111666)\n- RDMA/vmw_pvrdma: Fix memory leak on pvrdma_pci_remove (bsc#1111666)\n- RDMA/vmw_pvrdma: Use atomic memory allocation in create AH (bsc#1111666)\n- reboot: fix overflow parsing reboot cpu number (bsc#1179421).\n- regulator: avoid resolve_supply() infinite recursion (git-fixes).\n- regulator: fix memory leak with repeated set_machine_constraints() (git-fixes).\n- regulator: ti-abb: Fix array out of bound read access on the first transition (git-fixes).\n- regulator: workaround self-referent regulators (git-fixes).\n- Revert 'cdc-acm: hardening against malicious devices' (git-fixes).\n- Revert 'kernel/reboot.c: convert simple_strtoul to kstrtoint' (bsc#1179418).\n- RMDA/cm: Fix missing ib_cm_destroy_id() in ib_cm_insert_listen() (bsc#1111666)\n- rxe: correctly calculate iCRC for unaligned payloads (bsc#1111666)\n- rxe: fix error completion wr_id and qp_num (bsc#1111666)\n- s390/bpf: Fix multiple tail calls (git-fixes).\n- s390/cio: add cond_resched() in the slow_eval_known_fn() loop (bsc#1177805 LTC#188737).\n- s390/cpuinfo: show processor physical address (git-fixes).\n- s390/cpum_cf,perf: change DFLT_CCERROR counter name (bsc#1175916 LTC#187937).\n- s390/cpum_sf.c: fix file permission for cpum_sfb_size (git-fixes).\n- s390/dasd: fix inability to use DASD with DIAG driver (bsc#1177809 LTC#188738).\n- s390/dasd: fix null pointer dereference for ERP requests (git-fixes).\n- s390/dasd: Fix zero write for FBA devices (bsc#1177808 LTC#188739).\n- s390: kernel/uv: handle length extension properly (bsc#1178940 LTC#189323).\n- s390/pci: fix CPU address in MSI for directed IRQ (git-fixes).\n- s390/qeth: fix af_iucv notification race (git-fixes).\n- s390/qeth: fix tear down of async TX buffers (git-fixes).\n- s390/qeth: make af_iucv TX notification call more robust (git-fixes).\n- s390/stp: add locking to sysfs functions (git-fixes).\n- s390/zcrypt: Fix ZCRYPT_PERDEV_REQCNT ioctl (git-fixes).\n- sched/core: Fix PI boosting between RT and DEADLINE tasks (bsc#1112178).\n- sched/x86: SaveFLAGS on context switch (bsc#1112178).\n- scripts/git_sort/git_sort.py: add ceph maintainers git tree\n- scsi: libiscsi: use sendpage_ok() in iscsi_tcp_segment_map() (bsc#1172873).\n- scsi: lpfc: Fix initial FLOGI failure due to BBSCN not supported (git-fixes).\n- scsi: RDMA/srpt: Fix a credit leak for aborted commands (bsc#1111666)\n- SMB3: Honor 'handletimeout' flag for multiuser mounts (bsc#1176558).\n- SMB3: Honor lease disabling for multiuser mounts (git-fixes).\n- SMB3: Honor 'posix' flag for multiuser mounts (bsc#1176559).\n- splice: only read in as much information as there is pipe buffer space (bsc#1179520).\n- Staging: rtl8188eu: rtw_mlme: Fix uninitialized variable authmode (git-fixes).\n- staging: rtl8723bs: Add 024c:0627 to the list of SDIO device-ids (git-fixes).\n- SUNRPC: fix copying of multiple pages in gss_read_proxy_verf() (bsc#1103992).\n- svcrdma: fix bounce buffers for unaligned offsets and multiple pages (bsc#1103992).\n- svcrdma: Fix page leak in svc_rdma_recv_read_chunk() (bsc#1103992).\n- tcp: Set INET_ECN_xmit configuration in tcp_reinit_congestion_control (bsc#1109837).\n- thunderbolt: Add the missed ida_simple_remove() in ring_request_msix() (git-fixes).\n- time: Prevent undefined behaviour in timespec64_to_ns() (git-fixes).\n- tracing: Fix out of bounds write in get_trace_buf (bsc#1179403).\n- tty: Fix -\u003epgrp locking in tiocspgrp() (git-fixes).\n- tty: serial: imx: keep console clocks always on (git-fixes).\n- Update references in patches.suse/net-smc-tolerate-future-smcd-versions (bsc#1172542 LTC#186070 git-fixes).\n- USB: cdc-acm: Add DISABLE_ECHO for Renesas USB Download mode (git-fixes).\n- USB: core: driver: fix stray tabs in error messages (git-fixes).\n- USB: core: Fix regression in Hercules audio card (git-fixes).\n- USB: gadget: Fix memleak in gadgetfs_fill_super (git-fixes).\n- USB: gadget: f_midi: Fix memleak in f_midi_alloc (git-fixes).\n- USB: host: ehci-tegra: Fix error handling in tegra_ehci_probe() (git-fixes).\n- USB: host: xhci-mtk: avoid runtime suspend when removing hcd (git-fixes).\n- USB: serial: cyberjack: fix write-URB completion race (git-fixes).\n- USB: serial: ftdi_sio: add support for FreeCalypso JTAG+UART adapters (git-fixes).\n- USB: serial: kl5kUSB105: fix memleak on open (git-fixes).\n- USB: serial: option: add Cellient MPL200 card (git-fixes).\n- USB: serial: option: Add Telit FT980-KS composition (git-fixes).\n- USB: serial: option: fix Quectel BG96 matching (git-fixes).\n- USB: serial: pl2303: add device-id for HP GC device (git-fixes).\n- USB: xhci: force all memory allocations to node (git-fixes).\n- usermodehelper: reset umask to default before executing user process (bsc#1179406).\n- video: hyperv_fb: Fix the cache type when mapping the VRAM (git-fixes).\n- x86/hyperv: Clarify comment on x2apic mode (git-fixes).\n- x86/hyperv: Make vapic support x2apic mode (git-fixes).\n- x86/microcode/intel: Check patch signature before saving microcode for early loading (bsc#1112178).\n- x86/PCI: Avoid AMD FCH XHCI USB PME# from D0 defect (git-fixes).\n- x86/PCI: Fix intel_mid_pci.c build error when ACPI is not enabled (git-fixes).\n- x86/PCI: Mark Intel C620 MROMs as having non-compliant BARs (git-fixes).\n- x86/resctrl: Add necessary kernfs_put() calls to prevent refcount leak (bsc#1112178).\n- x86/resctrl: Remove superfluous kernfs_get() calls to prevent refcount leak (bsc#1112178).\n- x86/speculation: Allow IBPB to be conditionally enabled on CPUs with always-on STIBP (bsc#1112178).\n- x86/speculation: Fix prctl() when spectre_v2_user={seccomp,prctl},ibpb (bsc#1112178).\n- x86/sysfb_efi: Add quirks for some devices with swapped width and height (git-fixes).\n- xfrm: Fix memleak on xfrm state destroy (bsc#1158775).\n- xfs: fix a missing unlock on error in xfs_fs_map_blocks (git-fixes).\n- xfs: fix flags argument to rmap lookup when converting shared file rmaps (git-fixes).\n- xfs: fix rmap key and record comparison functions (git-fixes).\n- xfs: revert 'xfs: fix rmap key and record comparison functions' (git-fixes).\n- xhci: Fix sizeof() mismatch (git-fixes).\n",
      "Title": "Details",
      "Type": "General"
    },
    {
      "Text": "The CVRF data is provided by SUSE under the Creative Commons License 4.0 with Attribution (CC-BY-4.0).",
      "Title": "Terms of Use",
      "Type": "Legal Disclaimer"
    },
    {
      "Text": "SUSE-2020-3766,SUSE-SLE-RT-12-SP5-2020-3766",
      "Title": "Patchnames",
      "Type": "Details"
    }
  ],
  "ProductTree": {
    "Relationships": [
      {
        "ProductReference": "cluster-md-kmp-rt-4.12.14-10.25.1",
        "RelatesToProductReference": "SUSE Linux Enterprise Real Time 12 SP5",
        "RelationType": "Default Component Of"
      },
      {
        "ProductReference": "dlm-kmp-rt-4.12.14-10.25.1",
        "RelatesToProductReference": "SUSE Linux Enterprise Real Time 12 SP5",
        "RelationType": "Default Component Of"
      },
      {
        "ProductReference": "gfs2-kmp-rt-4.12.14-10.25.1",
        "RelatesToProductReference": "SUSE Linux Enterprise Real Time 12 SP5",
        "RelationType": "Default Component Of"
      },
      {
        "ProductReference": "kernel-devel-rt-4.12.14-10.25.1",
        "RelatesToProductReference": "SUSE Linux Enterprise Real Time 12 SP5",
        "RelationType": "Default Component Of"
      },
      {
        "ProductReference": "kernel-rt-4.12.14-10.25.1",
        "RelatesToProductReference": "SUSE Linux Enterprise Real Time 12 SP5",
        "RelationType": "Default Component Of"
      },
      {
        "ProductReference": "kernel-rt-base-4.12.14-10.25.1",
        "RelatesToProductReference": "SUSE Linux Enterprise Real Time 12 SP5",
        "RelationType": "Default Component Of"
      },
      {
        "ProductReference": "kernel-rt-devel-4.12.14-10.25.1",
        "RelatesToProductReference": "SUSE Linux Enterprise Real Time 12 SP5",
        "RelationType": "Default Component Of"
      },
      {
        "ProductReference": "kernel-rt_debug-4.12.14-10.25.1",
        "RelatesToProductReference": "SUSE Linux Enterprise Real Time 12 SP5",
        "RelationType": "Default Component Of"
      },
      {
        "ProductReference": "kernel-rt_debug-devel-4.12.14-10.25.1",
        "RelatesToProductReference": "SUSE Linux Enterprise Real Time 12 SP5",
        "RelationType": "Default Component Of"
      },
      {
        "ProductReference": "kernel-source-rt-4.12.14-10.25.1",
        "RelatesToProductReference": "SUSE Linux Enterprise Real Time 12 SP5",
        "RelationType": "Default Component Of"
      },
      {
        "ProductReference": "kernel-syms-rt-4.12.14-10.25.1",
        "RelatesToProductReference": "SUSE Linux Enterprise Real Time 12 SP5",
        "RelationType": "Default Component Of"
      },
      {
        "ProductReference": "ocfs2-kmp-rt-4.12.14-10.25.1",
        "RelatesToProductReference": "SUSE Linux Enterprise Real Time 12 SP5",
        "RelationType": "Default Component Of"
      }
    ]
  },
  "References": [
    {
      "URL": "https://www.suse.com/support/update/announcement/2020/suse-su-20203766-1/",
      "Description": "Link for SUSE-SU-2020:3766-1"
    },
    {
      "URL": "https://lists.suse.com/pipermail/sle-security-updates/2020-December/007978.html",
      "Description": "E-Mail link for SUSE-SU-2020:3766-1"
    },
    {
      "URL": "https://www.suse.com/support/security/rating/",
      "Description": "SUSE Security Ratings"
    },
    {
      "URL": "https://bugzilla.suse.com/1050242",
      "Description": "SUSE Bug 1050242"
    },
    {
      "URL": "https://bugzilla.suse.com/1050536",
      "Description": "SUSE Bug 1050536"
    },
    {
      "URL": "https://bugzilla.suse.com/1050545",
      "Description": "SUSE Bug 1050545"
    },
    {
      "URL": "https://bugzilla.suse.com/1050549",
      "Description": "SUSE Bug 1050549"
    },
    {
      "URL": "https://bugzilla.suse.com/1056653",
      "Description": "SUSE Bug 1056653"
    },
    {
      "URL": "https://bugzilla.suse.com/1056657",
      "Description": "SUSE Bug 1056657"
    },
    {
      "URL": "https://bugzilla.suse.com/1056787",
      "Description": "SUSE Bug 1056787"
    },
    {
      "URL": "https://bugzilla.suse.com/1064802",
      "Description": "SUSE Bug 1064802"
    },
    {
      "URL": "https://bugzilla.suse.com/1066129",
      "Description": "SUSE Bug 1066129"
    },
    {
      "URL": "https://bugzilla.suse.com/1067665",
      "Description": "SUSE Bug 1067665"
    },
    {
      "URL": "https://bugzilla.suse.com/1103990",
      "Description": "SUSE Bug 1103990"
    },
    {
      "URL": "https://bugzilla.suse.com/1103992",
      "Description": "SUSE Bug 1103992"
    },
    {
      "URL": "https://bugzilla.suse.com/1104389",
      "Description": "SUSE Bug 1104389"
    },
    {
      "URL": "https://bugzilla.suse.com/1104393",
      "Description": "SUSE Bug 1104393"
    },
    {
      "URL": "https://bugzilla.suse.com/1109837",
      "Description": "SUSE Bug 1109837"
    },
    {
      "URL": "https://bugzilla.suse.com/1110096",
      "Description": "SUSE Bug 1110096"
    },
    {
      "URL": "https://bugzilla.suse.com/1111666",
      "Description": "SUSE Bug 1111666"
    },
    {
      "URL": "https://bugzilla.suse.com/1112178",
      "Description": "SUSE Bug 1112178"
    },
    {
      "URL": "https://bugzilla.suse.com/1112374",
      "Description": "SUSE Bug 1112374"
    },
    {
      "URL": "https://bugzilla.suse.com/1118657",
      "Description": "SUSE Bug 1118657"
    },
    {
      "URL": "https://bugzilla.suse.com/1122971",
      "Description": "SUSE Bug 1122971"
    },
    {
      "URL": "https://bugzilla.suse.com/1136460",
      "Description": "SUSE Bug 1136460"
    },
    {
      "URL": "https://bugzilla.suse.com/1136461",
      "Description": "SUSE Bug 1136461"
    },
    {
      "URL": "https://bugzilla.suse.com/1139944",
      "Description": "SUSE Bug 1139944"
    },
    {
      "URL": "https://bugzilla.suse.com/1158775",
      "Description": "SUSE Bug 1158775"
    },
    {
      "URL": "https://bugzilla.suse.com/1170139",
      "Description": "SUSE Bug 1170139"
    },
    {
      "URL": "https://bugzilla.suse.com/1170630",
      "Description": "SUSE Bug 1170630"
    },
    {
      "URL": "https://bugzilla.suse.com/1172542",
      "Description": "SUSE Bug 1172542"
    },
    {
      "URL": "https://bugzilla.suse.com/1172873",
      "Description": "SUSE Bug 1172873"
    },
    {
      "URL": "https://bugzilla.suse.com/1174726",
      "Description": "SUSE Bug 1174726"
    },
    {
      "URL": "https://bugzilla.suse.com/1174852",
      "Description": "SUSE Bug 1174852"
    },
    {
      "URL": "https://bugzilla.suse.com/1175916",
      "Description": "SUSE Bug 1175916"
    },
    {
      "URL": "https://bugzilla.suse.com/1176109",
      "Description": "SUSE Bug 1176109"
    },
    {
      "URL": "https://bugzilla.suse.com/1176558",
      "Description": "SUSE Bug 1176558"
    },
    {
      "URL": "https://bugzilla.suse.com/1176559",
      "Description": "SUSE Bug 1176559"
    },
    {
      "URL": "https://bugzilla.suse.com/1176956",
      "Description": "SUSE Bug 1176956"
    },
    {
      "URL": "https://bugzilla.suse.com/1177304",
      "Description": "SUSE Bug 1177304"
    },
    {
      "URL": "https://bugzilla.suse.com/1177397",
      "Description": "SUSE Bug 1177397"
    },
    {
      "URL": "https://bugzilla.suse.com/1177666",
      "Description": "SUSE Bug 1177666"
    },
    {
      "URL": "https://bugzilla.suse.com/1177805",
      "Description": "SUSE Bug 1177805"
    },
    {
      "URL": "https://bugzilla.suse.com/1177808",
      "Description": "SUSE Bug 1177808"
    },
    {
      "URL": "https://bugzilla.suse.com/1177809",
      "Description": "SUSE Bug 1177809"
    },
    {
      "URL": "https://bugzilla.suse.com/1177819",
      "Description": "SUSE Bug 1177819"
    },
    {
      "URL": "https://bugzilla.suse.com/1177820",
      "Description": "SUSE Bug 1177820"
    },
    {
      "URL": "https://bugzilla.suse.com/1178182",
      "Description": "SUSE Bug 1178182"
    },
    {
      "URL": "https://bugzilla.suse.com/1178270",
      "Description": "SUSE Bug 1178270"
    },
    {
      "URL": "https://bugzilla.suse.com/1178589",
      "Description": "SUSE Bug 1178589"
    },
    {
      "URL": "https://bugzilla.suse.com/1178590",
      "Description": "SUSE Bug 1178590"
    },
    {
      "URL": "https://bugzilla.suse.com/1178634",
      "Description": "SUSE Bug 1178634"
    },
    {
      "URL": "https://bugzilla.suse.com/1178635",
      "Description": "SUSE Bug 1178635"
    },
    {
      "URL": "https://bugzilla.suse.com/1178669",
      "Description": "SUSE Bug 1178669"
    },
    {
      "URL": "https://bugzilla.suse.com/1178838",
      "Description": "SUSE Bug 1178838"
    },
    {
      "URL": "https://bugzilla.suse.com/1178853",
      "Description": "SUSE Bug 1178853"
    },
    {
      "URL": "https://bugzilla.suse.com/1178854",
      "Description": "SUSE Bug 1178854"
    },
    {
      "URL": "https://bugzilla.suse.com/1178878",
      "Description": "SUSE Bug 1178878"
    },
    {
      "URL": "https://bugzilla.suse.com/1178886",
      "Description": "SUSE Bug 1178886"
    },
    {
      "URL": "https://bugzilla.suse.com/1178897",
      "Description": "SUSE Bug 1178897"
    },
    {
      "URL": "https://bugzilla.suse.com/1178940",
      "Description": "SUSE Bug 1178940"
    },
    {
      "URL": "https://bugzilla.suse.com/1178962",
      "Description": "SUSE Bug 1178962"
    },
    {
      "URL": "https://bugzilla.suse.com/1179107",
      "Description": "SUSE Bug 1179107"
    },
    {
      "URL": "https://bugzilla.suse.com/1179140",
      "Description": "SUSE Bug 1179140"
    },
    {
      "URL": "https://bugzilla.suse.com/1179141",
      "Description": "SUSE Bug 1179141"
    },
    {
      "URL": "https://bugzilla.suse.com/1179204",
      "Description": "SUSE Bug 1179204"
    },
    {
      "URL": "https://bugzilla.suse.com/1179211",
      "Description": "SUSE Bug 1179211"
    },
    {
      "URL": "https://bugzilla.suse.com/1179213",
      "Description": "SUSE Bug 1179213"
    },
    {
      "URL": "https://bugzilla.suse.com/1179259",
      "Description": "SUSE Bug 1179259"
    },
    {
      "URL": "https://bugzilla.suse.com/1179403",
      "Description": "SUSE Bug 1179403"
    },
    {
      "URL": "https://bugzilla.suse.com/1179406",
      "Description": "SUSE Bug 1179406"
    },
    {
      "URL": "https://bugzilla.suse.com/1179418",
      "Description": "SUSE Bug 1179418"
    },
    {
      "URL": "https://bugzilla.suse.com/1179419",
      "Description": "SUSE Bug 1179419"
    },
    {
      "URL": "https://bugzilla.suse.com/1179421",
      "Description": "SUSE Bug 1179421"
    },
    {
      "URL": "https://bugzilla.suse.com/1179424",
      "Description": "SUSE Bug 1179424"
    },
    {
      "URL": "https://bugzilla.suse.com/1179426",
      "Description": "SUSE Bug 1179426"
    },
    {
      "URL": "https://bugzilla.suse.com/1179427",
      "Description": "SUSE Bug 1179427"
    },
    {
      "URL": "https://bugzilla.suse.com/1179429",
      "Description": "SUSE Bug 1179429"
    },
    {
      "URL": "https://bugzilla.suse.com/1179520",
      "Description": "SUSE Bug 1179520"
    },
    {
      "URL": "https://bugzilla.suse.com/1179578",
      "Description": "SUSE Bug 1179578"
    },
    {
      "URL": "https://bugzilla.suse.com/1179601",
      "Description": "SUSE Bug 1179601"
    },
    {
      "URL": "https://bugzilla.suse.com/1179663",
      "Description": "SUSE Bug 1179663"
    },
    {
      "URL": "https://www.suse.com/security/cve/CVE-2018-20669/",
      "Description": "SUSE CVE CVE-2018-20669 page"
    },
    {
      "URL": "https://www.suse.com/security/cve/CVE-2019-20934/",
      "Description": "SUSE CVE CVE-2019-20934 page"
    },
    {
      "URL": "https://www.suse.com/security/cve/CVE-2020-15436/",
      "Description": "SUSE CVE CVE-2020-15436 page"
    },
    {
      "URL": "https://www.suse.com/security/cve/CVE-2020-15437/",
      "Description": "SUSE CVE CVE-2020-15437 page"
    },
    {
      "URL": "https://www.suse.com/security/cve/CVE-2020-25669/",
      "Description": "SUSE CVE CVE-2020-25669 page"
    },
    {
      "URL": "https://www.suse.com/security/cve/CVE-2020-27777/",
      "Description": "SUSE CVE CVE-2020-27777 page"
    },
    {
      "URL": "https://www.suse.com/security/cve/CVE-2020-27786/",
      "Description": "SUSE CVE CVE-2020-27786 page"
    },
    {
      "URL": "https://www.suse.com/security/cve/CVE-2020-28915/",
      "Description": "SUSE CVE CVE-2020-28915 page"
    },
    {
      "URL": "https://www.suse.com/security/cve/CVE-2020-28974/",
      "Description": "SUSE CVE CVE-2020-28974 page"
    },
    {
      "URL": "https://www.suse.com/security/cve/CVE-2020-29371/",
      "Description": "SUSE CVE CVE-2020-29371 page"
    },
    {
      "URL": "https://www.suse.com/security/cve/CVE-2020-4788/",
      "Description": "SUSE CVE CVE-2020-4788 page"
    }
  ],
  "Vulnerabilities": [
    {
      "CVE": "CVE-2018-20669",
      "Description": "An issue where a provided address with access_ok() is not checked was discovered in i915_gem_execbuffer2_ioctl in drivers/gpu/drm/i915/i915_gem_execbuffer.c in the Linux kernel through 4.19.13. A local attacker can craft a malicious IOCTL function call to overwrite arbitrary kernel memory, resulting in a Denial of Service or privilege escalation.",
      "Threats": [
        {
          "Type": "Impact",
          "Severity": "important"
        }
      ],
      "References": [
        {
          "URL": "https://www.suse.com/security/cve/CVE-2018-20669.html",
          "Description": "CVE-2018-20669"
        },
        {
          "URL": "https://bugzilla.suse.com/1122971",
          "Description": "SUSE Bug 1122971"
        }
      ],
      "ProductStatuses": [
        {
          "Type": "Fixed",
          "ProductID": [
            "SUSE Linux Enterprise Real Time 12 SP5:cluster-md-kmp-rt-4.12.14-10.25.1",
            "SUSE Linux Enterprise Real Time 12 SP5:dlm-kmp-rt-4.12.14-10.25.1",
            "SUSE Linux Enterprise Real Time 12 SP5:gfs2-kmp-rt-4.12.14-10.25.1",
            "SUSE Linux Enterprise Real Time 12 SP5:kernel-devel-rt-4.12.14-10.25.1",
            "SUSE Linux Enterprise Real Time 12 SP5:kernel-rt-4.12.14-10.25.1",
            "SUSE Linux Enterprise Real Time 12 SP5:kernel-rt-base-4.12.14-10.25.1",
            "SUSE Linux Enterprise Real Time 12 SP5:kernel-rt-devel-4.12.14-10.25.1",
            "SUSE Linux Enterprise Real Time 12 SP5:kernel-rt_debug-4.12.14-10.25.1",
            "SUSE Linux Enterprise Real Time 12 SP5:kernel-rt_debug-devel-4.12.14-10.25.1",
            "SUSE Linux Enterprise Real Time 12 SP5:kernel-source-rt-4.12.14-10.25.1",
            "SUSE Linux Enterprise Real Time 12 SP5:kernel-syms-rt-4.12.14-10.25.1",
            "SUSE Linux Enterprise Real Time 12 SP5:ocfs2-kmp-rt-4.12.14-10.25.1"
          ]
        }
      ],
      "CVSSScoreSets": {}
    },
    {
      "CVE": "CVE-2019-20934",
      "Description": "An issue was discovered in the Linux kernel before 5.2.6. On NUMA systems, the Linux fair scheduler has a use-after-free in show_numa_stats() because NUMA fault statistics are inappropriately freed, aka CID-16d51a590a8c.",
      "Threats": [
        {
          "Type": "Impact",
          "Severity": "important"
        }
      ],
      "References": [
        {
          "URL": "https://www.suse.com/security/cve/CVE-2019-20934.html",
          "Description": "CVE-2019-20934"
        },
        {
          "URL": "https://bugzilla.suse.com/1179663",
          "Description": "SUSE Bug 1179663"
        },
        {
          "URL": "https://bugzilla.suse.com/1179666",
          "Description": "SUSE Bug 1179666"
        }
      ],
      "ProductStatuses": [
        {
          "Type": "Fixed",
          "ProductID": [
            "SUSE Linux Enterprise Real Time 12 SP5:cluster-md-kmp-rt-4.12.14-10.25.1",
            "SUSE Linux Enterprise Real Time 12 SP5:dlm-kmp-rt-4.12.14-10.25.1",
            "SUSE Linux Enterprise Real Time 12 SP5:gfs2-kmp-rt-4.12.14-10.25.1",
            "SUSE Linux Enterprise Real Time 12 SP5:kernel-devel-rt-4.12.14-10.25.1",
            "SUSE Linux Enterprise Real Time 12 SP5:kernel-rt-4.12.14-10.25.1",
            "SUSE Linux Enterprise Real Time 12 SP5:kernel-rt-base-4.12.14-10.25.1",
            "SUSE Linux Enterprise Real Time 12 SP5:kernel-rt-devel-4.12.14-10.25.1",
            "SUSE Linux Enterprise Real Time 12 SP5:kernel-rt_debug-4.12.14-10.25.1",
            "SUSE Linux Enterprise Real Time 12 SP5:kernel-rt_debug-devel-4.12.14-10.25.1",
            "SUSE Linux Enterprise Real Time 12 SP5:kernel-source-rt-4.12.14-10.25.1",
            "SUSE Linux Enterprise Real Time 12 SP5:kernel-syms-rt-4.12.14-10.25.1",
            "SUSE Linux Enterprise Real Time 12 SP5:ocfs2-kmp-rt-4.12.14-10.25.1"
          ]
        }
      ],
      "CVSSScoreSets": {}
    },
    {
      "CVE": "CVE-2020-15436",
      "Description": "Use-after-free vulnerability in fs/block_dev.c in the Linux kernel before 5.8 allows local users to gain privileges or cause a denial of service by leveraging improper access to a certain error field.",
      "Threats": [
        {
          "Type": "Impact",
          "Severity": "moderate"
        }
      ],
      "References": [
        {
          "URL": "https://www.suse.com/security/cve/CVE-2020-15436.html",
          "Description": "CVE-2020-15436"
        },
        {
          "URL": "https://bugzilla.suse.com/1179141",
          "Description": "SUSE Bug 1179141"
        }
      ],
      "ProductStatuses": [
        {
          "Type": "Fixed",
          "ProductID": [
            "SUSE Linux Enterprise Real Time 12 SP5:cluster-md-kmp-rt-4.12.14-10.25.1",
            "SUSE Linux Enterprise Real Time 12 SP5:dlm-kmp-rt-4.12.14-10.25.1",
            "SUSE Linux Enterprise Real Time 12 SP5:gfs2-kmp-rt-4.12.14-10.25.1",
            "SUSE Linux Enterprise Real Time 12 SP5:kernel-devel-rt-4.12.14-10.25.1",
            "SUSE Linux Enterprise Real Time 12 SP5:kernel-rt-4.12.14-10.25.1",
            "SUSE Linux Enterprise Real Time 12 SP5:kernel-rt-base-4.12.14-10.25.1",
            "SUSE Linux Enterprise Real Time 12 SP5:kernel-rt-devel-4.12.14-10.25.1",
            "SUSE Linux Enterprise Real Time 12 SP5:kernel-rt_debug-4.12.14-10.25.1",
            "SUSE Linux Enterprise Real Time 12 SP5:kernel-rt_debug-devel-4.12.14-10.25.1",
            "SUSE Linux Enterprise Real Time 12 SP5:kernel-source-rt-4.12.14-10.25.1",
            "SUSE Linux Enterprise Real Time 12 SP5:kernel-syms-rt-4.12.14-10.25.1",
            "SUSE Linux Enterprise Real Time 12 SP5:ocfs2-kmp-rt-4.12.14-10.25.1"
          ]
        }
      ],
      "CVSSScoreSets": {}
    },
    {
      "CVE": "CVE-2020-15437",
      "Description": "The Linux kernel before version 5.8 is vulnerable to a NULL pointer dereference in drivers/tty/serial/8250/8250_core.c:serial8250_isa_init_ports() that allows local users to cause a denial of service by using the p-\u003eserial_in pointer which uninitialized.",
      "Threats": [
        {
          "Type": "Impact",
          "Severity": "moderate"
        }
      ],
      "References": [
        {
          "URL": "https://www.suse.com/security/cve/CVE-2020-15437.html",
          "Description": "CVE-2020-15437"
        },
        {
          "URL": "https://bugzilla.suse.com/1179140",
          "Description": "SUSE Bug 1179140"
        }
      ],
      "ProductStatuses": [
        {
          "Type": "Fixed",
          "ProductID": [
            "SUSE Linux Enterprise Real Time 12 SP5:cluster-md-kmp-rt-4.12.14-10.25.1",
            "SUSE Linux Enterprise Real Time 12 SP5:dlm-kmp-rt-4.12.14-10.25.1",
            "SUSE Linux Enterprise Real Time 12 SP5:gfs2-kmp-rt-4.12.14-10.25.1",
            "SUSE Linux Enterprise Real Time 12 SP5:kernel-devel-rt-4.12.14-10.25.1",
            "SUSE Linux Enterprise Real Time 12 SP5:kernel-rt-4.12.14-10.25.1",
            "SUSE Linux Enterprise Real Time 12 SP5:kernel-rt-base-4.12.14-10.25.1",
            "SUSE Linux Enterprise Real Time 12 SP5:kernel-rt-devel-4.12.14-10.25.1",
            "SUSE Linux Enterprise Real Time 12 SP5:kernel-rt_debug-4.12.14-10.25.1",
            "SUSE Linux Enterprise Real Time 12 SP5:kernel-rt_debug-devel-4.12.14-10.25.1",
            "SUSE Linux Enterprise Real Time 12 SP5:kernel-source-rt-4.12.14-10.25.1",
            "SUSE Linux Enterprise Real Time 12 SP5:kernel-syms-rt-4.12.14-10.25.1",
            "SUSE Linux Enterprise Real Time 12 SP5:ocfs2-kmp-rt-4.12.14-10.25.1"
          ]
        }
      ],
      "CVSSScoreSets": {}
    },
    {
      "CVE": "CVE-2020-25669",
      "Description": "A vulnerability was found in the Linux Kernel where the function sunkbd_reinit having been scheduled by sunkbd_interrupt before sunkbd being freed. Though the dangling pointer is set to NULL in sunkbd_disconnect, there is still an alias in sunkbd_reinit causing Use After Free.",
      "Threats": [
        {
          "Type": "Impact",
          "Severity": "moderate"
        }
      ],
      "References": [
        {
          "URL": "https://www.suse.com/security/cve/CVE-2020-25669.html",
          "Description": "CVE-2020-25669"
        },
        {
          "URL": "https://bugzilla.suse.com/1178182",
          "Description": "SUSE Bug 1178182"
        }
      ],
      "ProductStatuses": [
        {
          "Type": "Fixed",
          "ProductID": [
            "SUSE Linux Enterprise Real Time 12 SP5:cluster-md-kmp-rt-4.12.14-10.25.1",
            "SUSE Linux Enterprise Real Time 12 SP5:dlm-kmp-rt-4.12.14-10.25.1",
            "SUSE Linux Enterprise Real Time 12 SP5:gfs2-kmp-rt-4.12.14-10.25.1",
            "SUSE Linux Enterprise Real Time 12 SP5:kernel-devel-rt-4.12.14-10.25.1",
            "SUSE Linux Enterprise Real Time 12 SP5:kernel-rt-4.12.14-10.25.1",
            "SUSE Linux Enterprise Real Time 12 SP5:kernel-rt-base-4.12.14-10.25.1",
            "SUSE Linux Enterprise Real Time 12 SP5:kernel-rt-devel-4.12.14-10.25.1",
            "SUSE Linux Enterprise Real Time 12 SP5:kernel-rt_debug-4.12.14-10.25.1",
            "SUSE Linux Enterprise Real Time 12 SP5:kernel-rt_debug-devel-4.12.14-10.25.1",
            "SUSE Linux Enterprise Real Time 12 SP5:kernel-source-rt-4.12.14-10.25.1",
            "SUSE Linux Enterprise Real Time 12 SP5:kernel-syms-rt-4.12.14-10.25.1",
            "SUSE Linux Enterprise Real Time 12 SP5:ocfs2-kmp-rt-4.12.14-10.25.1"
          ]
        }
      ],
      "CVSSScoreSets": {}
    },
    {
      "CVE": "CVE-2020-27777",
      "Description": "A flaw was found in the way RTAS handled memory accesses in userspace to kernel communication. On a locked down (usually due to Secure Boot) guest system running on top of PowerVM or KVM hypervisors (pseries platform) a root like local user could use this flaw to further increase their privileges to that of a running kernel.",
      "Threats": [
        {
          "Type": "Impact",
          "Severity": "moderate"
        }
      ],
      "References": [
        {
          "URL": "https://www.suse.com/security/cve/CVE-2020-27777.html",
          "Description": "CVE-2020-27777"
        },
        {
          "URL": "https://bugzilla.suse.com/1179107",
          "Description": "SUSE Bug 1179107"
        },
        {
          "URL": "https://bugzilla.suse.com/1179419",
          "Description": "SUSE Bug 1179419"
        },
        {
          "URL": "https://bugzilla.suse.com/1200343",
          "Description": "SUSE Bug 1200343"
        },
        {
          "URL": "https://bugzilla.suse.com/1220060",
          "Description": "SUSE Bug 1220060"
        }
      ],
      "ProductStatuses": [
        {
          "Type": "Fixed",
          "ProductID": [
            "SUSE Linux Enterprise Real Time 12 SP5:cluster-md-kmp-rt-4.12.14-10.25.1",
            "SUSE Linux Enterprise Real Time 12 SP5:dlm-kmp-rt-4.12.14-10.25.1",
            "SUSE Linux Enterprise Real Time 12 SP5:gfs2-kmp-rt-4.12.14-10.25.1",
            "SUSE Linux Enterprise Real Time 12 SP5:kernel-devel-rt-4.12.14-10.25.1",
            "SUSE Linux Enterprise Real Time 12 SP5:kernel-rt-4.12.14-10.25.1",
            "SUSE Linux Enterprise Real Time 12 SP5:kernel-rt-base-4.12.14-10.25.1",
            "SUSE Linux Enterprise Real Time 12 SP5:kernel-rt-devel-4.12.14-10.25.1",
            "SUSE Linux Enterprise Real Time 12 SP5:kernel-rt_debug-4.12.14-10.25.1",
            "SUSE Linux Enterprise Real Time 12 SP5:kernel-rt_debug-devel-4.12.14-10.25.1",
            "SUSE Linux Enterprise Real Time 12 SP5:kernel-source-rt-4.12.14-10.25.1",
            "SUSE Linux Enterprise Real Time 12 SP5:kernel-syms-rt-4.12.14-10.25.1",
            "SUSE Linux Enterprise Real Time 12 SP5:ocfs2-kmp-rt-4.12.14-10.25.1"
          ]
        }
      ],
      "CVSSScoreSets": {}
    },
    {
      "CVE": "CVE-2020-27786",
      "Description": "A flaw was found in the Linux kernel's implementation of MIDI, where an attacker with a local account and the permissions to issue ioctl commands to midi devices could trigger a use-after-free issue. A write to this specific memory while freed and before use causes the flow of execution to change and possibly allow for memory corruption or privilege escalation. The highest threat from this vulnerability is to confidentiality, integrity, as well as system availability.",
      "Threats": [
        {
          "Type": "Impact",
          "Severity": "important"
        }
      ],
      "References": [
        {
          "URL": "https://www.suse.com/security/cve/CVE-2020-27786.html",
          "Description": "CVE-2020-27786"
        },
        {
          "URL": "https://bugzilla.suse.com/1179601",
          "Description": "SUSE Bug 1179601"
        },
        {
          "URL": "https://bugzilla.suse.com/1179616",
          "Description": "SUSE Bug 1179616"
        }
      ],
      "ProductStatuses": [
        {
          "Type": "Fixed",
          "ProductID": [
            "SUSE Linux Enterprise Real Time 12 SP5:cluster-md-kmp-rt-4.12.14-10.25.1",
            "SUSE Linux Enterprise Real Time 12 SP5:dlm-kmp-rt-4.12.14-10.25.1",
            "SUSE Linux Enterprise Real Time 12 SP5:gfs2-kmp-rt-4.12.14-10.25.1",
            "SUSE Linux Enterprise Real Time 12 SP5:kernel-devel-rt-4.12.14-10.25.1",
            "SUSE Linux Enterprise Real Time 12 SP5:kernel-rt-4.12.14-10.25.1",
            "SUSE Linux Enterprise Real Time 12 SP5:kernel-rt-base-4.12.14-10.25.1",
            "SUSE Linux Enterprise Real Time 12 SP5:kernel-rt-devel-4.12.14-10.25.1",
            "SUSE Linux Enterprise Real Time 12 SP5:kernel-rt_debug-4.12.14-10.25.1",
            "SUSE Linux Enterprise Real Time 12 SP5:kernel-rt_debug-devel-4.12.14-10.25.1",
            "SUSE Linux Enterprise Real Time 12 SP5:kernel-source-rt-4.12.14-10.25.1",
            "SUSE Linux Enterprise Real Time 12 SP5:kernel-syms-rt-4.12.14-10.25.1",
            "SUSE Linux Enterprise Real Time 12 SP5:ocfs2-kmp-rt-4.12.14-10.25.1"
          ]
        }
      ],
      "CVSSScoreSets": {}
    },
    {
      "CVE": "CVE-2020-28915",
      "Description": "A buffer over-read (at the framebuffer layer) in the fbcon code in the Linux kernel before 5.8.15 could be used by local attackers to read kernel memory, aka CID-6735b4632def.",
      "Threats": [
        {
          "Type": "Impact",
          "Severity": "moderate"
        }
      ],
      "References": [
        {
          "URL": "https://www.suse.com/security/cve/CVE-2020-28915.html",
          "Description": "CVE-2020-28915"
        },
        {
          "URL": "https://bugzilla.suse.com/1178886",
          "Description": "SUSE Bug 1178886"
        }
      ],
      "ProductStatuses": [
        {
          "Type": "Fixed",
          "ProductID": [
            "SUSE Linux Enterprise Real Time 12 SP5:cluster-md-kmp-rt-4.12.14-10.25.1",
            "SUSE Linux Enterprise Real Time 12 SP5:dlm-kmp-rt-4.12.14-10.25.1",
            "SUSE Linux Enterprise Real Time 12 SP5:gfs2-kmp-rt-4.12.14-10.25.1",
            "SUSE Linux Enterprise Real Time 12 SP5:kernel-devel-rt-4.12.14-10.25.1",
            "SUSE Linux Enterprise Real Time 12 SP5:kernel-rt-4.12.14-10.25.1",
            "SUSE Linux Enterprise Real Time 12 SP5:kernel-rt-base-4.12.14-10.25.1",
            "SUSE Linux Enterprise Real Time 12 SP5:kernel-rt-devel-4.12.14-10.25.1",
            "SUSE Linux Enterprise Real Time 12 SP5:kernel-rt_debug-4.12.14-10.25.1",
            "SUSE Linux Enterprise Real Time 12 SP5:kernel-rt_debug-devel-4.12.14-10.25.1",
            "SUSE Linux Enterprise Real Time 12 SP5:kernel-source-rt-4.12.14-10.25.1",
            "SUSE Linux Enterprise Real Time 12 SP5:kernel-syms-rt-4.12.14-10.25.1",
            "SUSE Linux Enterprise Real Time 12 SP5:ocfs2-kmp-rt-4.12.14-10.25.1"
          ]
        }
      ],
      "CVSSScoreSets": {}
    },
    {
      "CVE": "CVE-2020-28974",
      "Description": "A slab-out-of-bounds read in fbcon in the Linux kernel before 5.9.7 could be used by local attackers to read privileged information or potentially crash the kernel, aka CID-3c4e0dff2095. This occurs because KD_FONT_OP_COPY in drivers/tty/vt/vt.c can be used for manipulations such as font height.",
      "Threats": [
        {
          "Type": "Impact",
          "Severity": "moderate"
        }
      ],
      "References": [
        {
          "URL": "https://www.suse.com/security/cve/CVE-2020-28974.html",
          "Description": "CVE-2020-28974"
        },
        {
          "URL": "https://bugzilla.suse.com/1178589",
          "Description": "SUSE Bug 1178589"
        }
      ],
      "ProductStatuses": [
        {
          "Type": "Fixed",
          "ProductID": [
            "SUSE Linux Enterprise Real Time 12 SP5:cluster-md-kmp-rt-4.12.14-10.25.1",
            "SUSE Linux Enterprise Real Time 12 SP5:dlm-kmp-rt-4.12.14-10.25.1",
            "SUSE Linux Enterprise Real Time 12 SP5:gfs2-kmp-rt-4.12.14-10.25.1",
            "SUSE Linux Enterprise Real Time 12 SP5:kernel-devel-rt-4.12.14-10.25.1",
            "SUSE Linux Enterprise Real Time 12 SP5:kernel-rt-4.12.14-10.25.1",
            "SUSE Linux Enterprise Real Time 12 SP5:kernel-rt-base-4.12.14-10.25.1",
            "SUSE Linux Enterprise Real Time 12 SP5:kernel-rt-devel-4.12.14-10.25.1",
            "SUSE Linux Enterprise Real Time 12 SP5:kernel-rt_debug-4.12.14-10.25.1",
            "SUSE Linux Enterprise Real Time 12 SP5:kernel-rt_debug-devel-4.12.14-10.25.1",
            "SUSE Linux Enterprise Real Time 12 SP5:kernel-source-rt-4.12.14-10.25.1",
            "SUSE Linux Enterprise Real Time 12 SP5:kernel-syms-rt-4.12.14-10.25.1",
            "SUSE Linux Enterprise Real Time 12 SP5:ocfs2-kmp-rt-4.12.14-10.25.1"
          ]
        }
      ],
      "CVSSScoreSets": {}
    },
    {
      "CVE": "CVE-2020-29371",
      "Description": "An issue was discovered in romfs_dev_read in fs/romfs/storage.c in the Linux kernel before 5.8.4. Uninitialized memory leaks to userspace, aka CID-bcf85fcedfdd.",
      "Threats": [
        {
          "Type": "Impact",
          "Severity": "low"
        }
      ],
      "References": [
        {
          "URL": "https://www.suse.com/security/cve/CVE-2020-29371.html",
          "Description": "CVE-2020-29371"
        },
        {
          "URL": "https://bugzilla.suse.com/1179429",
          "Description": "SUSE Bug 1179429"
        }
      ],
      "ProductStatuses": [
        {
          "Type": "Fixed",
          "ProductID": [
            "SUSE Linux Enterprise Real Time 12 SP5:cluster-md-kmp-rt-4.12.14-10.25.1",
            "SUSE Linux Enterprise Real Time 12 SP5:dlm-kmp-rt-4.12.14-10.25.1",
            "SUSE Linux Enterprise Real Time 12 SP5:gfs2-kmp-rt-4.12.14-10.25.1",
            "SUSE Linux Enterprise Real Time 12 SP5:kernel-devel-rt-4.12.14-10.25.1",
            "SUSE Linux Enterprise Real Time 12 SP5:kernel-rt-4.12.14-10.25.1",
            "SUSE Linux Enterprise Real Time 12 SP5:kernel-rt-base-4.12.14-10.25.1",
            "SUSE Linux Enterprise Real Time 12 SP5:kernel-rt-devel-4.12.14-10.25.1",
            "SUSE Linux Enterprise Real Time 12 SP5:kernel-rt_debug-4.12.14-10.25.1",
            "SUSE Linux Enterprise Real Time 12 SP5:kernel-rt_debug-devel-4.12.14-10.25.1",
            "SUSE Linux Enterprise Real Time 12 SP5:kernel-source-rt-4.12.14-10.25.1",
            "SUSE Linux Enterprise Real Time 12 SP5:kernel-syms-rt-4.12.14-10.25.1",
            "SUSE Linux Enterprise Real Time 12 SP5:ocfs2-kmp-rt-4.12.14-10.25.1"
          ]
        }
      ],
      "CVSSScoreSets": {}
    },
    {
      "CVE": "CVE-2020-4788",
      "Description": "IBM Power9 (AIX 7.1, 7.2, and VIOS 3.1) processors could allow a local user to obtain sensitive information from the data in the L1 cache under extenuating circumstances. IBM X-Force ID: 189296.",
      "Threats": [
        {
          "Type": "Impact",
          "Severity": "moderate"
        }
      ],
      "References": [
        {
          "URL": "https://www.suse.com/security/cve/CVE-2020-4788.html",
          "Description": "CVE-2020-4788"
        },
        {
          "URL": "https://bugzilla.suse.com/1177666",
          "Description": "SUSE Bug 1177666"
        },
        {
          "URL": "https://bugzilla.suse.com/1181158",
          "Description": "SUSE Bug 1181158"
        }
      ],
      "ProductStatuses": [
        {
          "Type": "Fixed",
          "ProductID": [
            "SUSE Linux Enterprise Real Time 12 SP5:cluster-md-kmp-rt-4.12.14-10.25.1",
            "SUSE Linux Enterprise Real Time 12 SP5:dlm-kmp-rt-4.12.14-10.25.1",
            "SUSE Linux Enterprise Real Time 12 SP5:gfs2-kmp-rt-4.12.14-10.25.1",
            "SUSE Linux Enterprise Real Time 12 SP5:kernel-devel-rt-4.12.14-10.25.1",
            "SUSE Linux Enterprise Real Time 12 SP5:kernel-rt-4.12.14-10.25.1",
            "SUSE Linux Enterprise Real Time 12 SP5:kernel-rt-base-4.12.14-10.25.1",
            "SUSE Linux Enterprise Real Time 12 SP5:kernel-rt-devel-4.12.14-10.25.1",
            "SUSE Linux Enterprise Real Time 12 SP5:kernel-rt_debug-4.12.14-10.25.1",
            "SUSE Linux Enterprise Real Time 12 SP5:kernel-rt_debug-devel-4.12.14-10.25.1",
            "SUSE Linux Enterprise Real Time 12 SP5:kernel-source-rt-4.12.14-10.25.1",
            "SUSE Linux Enterprise Real Time 12 SP5:kernel-syms-rt-4.12.14-10.25.1",
            "SUSE Linux Enterprise Real Time 12 SP5:ocfs2-kmp-rt-4.12.14-10.25.1"
          ]
        }
      ],
      "CVSSScoreSets": {}
    }
  ]
}