{
  "Severity": "HIGH",
  "UpdatedAt": "2024-02-06T13:08:41Z",
  "Package": {
    "Ecosystem": "COMPOSER",
    "Name": "drupal/drupal"
  },
  "Advisory": {
    "DatabaseId": 5741,
    "Id": "GSA_kwCzR0hTQS02OGpjLXYyN2gtdmhtd80WbQ",
    "GhsaId": "GHSA-68jc-v27h-vhmw",
    "References": [
      {
        "Url": "https://nvd.nist.gov/vuln/detail/CVE-2020-13671"
      },
      {
        "Url": "https://lists.fedoraproject.org/archives/list/package-announce@lists.fedoraproject.org/message/5KSFM672XW3X6BR7TVKRD63SLZGKK437/"
      },
      {
        "Url": "https://lists.fedoraproject.org/archives/list/package-announce@lists.fedoraproject.org/message/KWM4CTMEGAC4I2CHYNJVSROY4CVXVEUT/"
      },
      {
        "Url": "https://www.drupal.org/sa-core-2020-012"
      },
      {
        "Url": "https://github.com/FriendsOfPHP/security-advisories/blob/master/drupal/core/CVE-2020-13671.yaml"
      },
      {
        "Url": "https://github.com/FriendsOfPHP/security-advisories/blob/master/drupal/drupal/CVE-2020-13671.yaml"
      },
      {
        "Url": "https://lists.fedoraproject.org/archives/list/package-announce%40lists.fedoraproject.org/message/5KSFM672XW3X6BR7TVKRD63SLZGKK437/"
      },
      {
        "Url": "https://lists.fedoraproject.org/archives/list/package-announce%40lists.fedoraproject.org/message/KWM4CTMEGAC4I2CHYNJVSROY4CVXVEUT/"
      },
      {
        "Url": "https://github.com/advisories/GHSA-68jc-v27h-vhmw"
      }
    ],
    "Identifiers": [
      {
        "Type": "GHSA",
        "Value": "GHSA-68jc-v27h-vhmw"
      },
      {
        "Type": "CVE",
        "Value": "CVE-2020-13671"
      }
    ],
    "Description": "Drupal core does not properly sanitize certain filenames on uploaded files, which can lead to files being interpreted as the incorrect extension and served as the wrong MIME type or executed as PHP for certain hosting configurations. This issue affects: Drupal Drupal Core 9.0 versions prior to 9.0.8, 8.9 versions prior to 8.9.9, 8.8 versions prior to 8.8.11, and 7 versions prior to 7.74.",
    "Origin": "UNSPECIFIED",
    "PublishedAt": "2021-10-12T16:28:25Z",
    "Severity": "HIGH",
    "Summary": "Drupal core Unrestricted Upload of File with Dangerous Type",
    "UpdatedAt": "2024-02-06T13:08:41Z",
    "WithdrawnAt": "",
    "CVSS": {
      "Score": 8.8,
      "VectorString": "CVSS:3.1/AV:N/AC:L/PR:L/UI:N/S:U/C:H/I:H/A:H"
    }
  },
  "Versions": [
    {
      "FirstPatchedVersion": {
        "Identifier": "9.0.8"
      },
      "VulnerableVersionRange": "\u003e= 9.0.0, \u003c 9.0.8"
    },
    {
      "FirstPatchedVersion": {
        "Identifier": "8.9.9"
      },
      "VulnerableVersionRange": "\u003e= 8.9.0, \u003c 8.9.9"
    },
    {
      "FirstPatchedVersion": {
        "Identifier": "8.8.11"
      },
      "VulnerableVersionRange": "\u003e= 8.0.0, \u003c 8.8.11"
    },
    {
      "FirstPatchedVersion": {
        "Identifier": "7.74"
      },
      "VulnerableVersionRange": "\u003e= 7.0.0, \u003c 7.74"
    }
  ]
}