{
  "Severity": "CRITICAL",
  "UpdatedAt": "2024-04-23T22:36:10Z",
  "Package": {
    "Ecosystem": "COMPOSER",
    "Name": "drupal/drupal"
  },
  "Advisory": {
    "DatabaseId": 242712,
    "Id": "GSA_kwCzR0hTQS0yOTd4LWo5cG0teGpnZ84AA7QY",
    "GhsaId": "GHSA-297x-j9pm-xjgg",
    "References": [
      {
        "Url": "https://nvd.nist.gov/vuln/detail/CVE-2018-7602"
      },
      {
        "Url": "https://github.com/FriendsOfPHP/security-advisories/blob/master/drupal/core/CVE-2018-7602.yaml"
      },
      {
        "Url": "https://github.com/FriendsOfPHP/security-advisories/blob/master/drupal/drupal/CVE-2018-7602.yaml"
      },
      {
        "Url": "https://lists.debian.org/debian-lts-announce/2018/04/msg00030.html"
      },
      {
        "Url": "https://www.debian.org/security/2018/dsa-4180"
      },
      {
        "Url": "https://www.drupal.org/sa-core-2018-004"
      },
      {
        "Url": "https://www.exploit-db.com/exploits/44542"
      },
      {
        "Url": "https://www.exploit-db.com/exploits/44557"
      },
      {
        "Url": "http://www.securityfocus.com/bid/103985"
      },
      {
        "Url": "http://www.securitytracker.com/id/1040754"
      },
      {
        "Url": "https://github.com/advisories/GHSA-297x-j9pm-xjgg"
      }
    ],
    "Identifiers": [
      {
        "Type": "GHSA",
        "Value": "GHSA-297x-j9pm-xjgg"
      },
      {
        "Type": "CVE",
        "Value": "CVE-2018-7602"
      }
    ],
    "Description": "A remote code execution vulnerability exists within multiple subsystems of Drupal 7.x and 8.x. This potentially allows attackers to exploit multiple attack vectors on a Drupal site, which could result in the site being compromised. This vulnerability is related to Drupal core - Highly critical - Remote Code Execution - SA-CORE-2018-002. Both SA-CORE-2018-002 and this vulnerability are being exploited in the wild.",
    "Origin": "UNSPECIFIED",
    "PublishedAt": "2024-04-23T22:36:09Z",
    "Severity": "CRITICAL",
    "Summary": "Drupal Core Remote Code Execution Vulnerability",
    "UpdatedAt": "2024-04-23T22:36:10Z",
    "WithdrawnAt": "",
    "CVSS": {
      "Score": 9.8,
      "VectorString": "CVSS:3.1/AV:N/AC:L/PR:N/UI:N/S:U/C:H/I:H/A:H"
    }
  },
  "Versions": [
    {
      "FirstPatchedVersion": {
        "Identifier": "8.5.3"
      },
      "VulnerableVersionRange": "\u003e= 8.5, \u003c 8.5.3"
    },
    {
      "FirstPatchedVersion": {
        "Identifier": "8.4.8"
      },
      "VulnerableVersionRange": "\u003e= 8.0, \u003c 8.4.8"
    },
    {
      "FirstPatchedVersion": {
        "Identifier": "7.59"
      },
      "VulnerableVersionRange": "\u003e= 7.0, \u003c 7.59"
    }
  ]
}