{
  "Title": "Security update for Linux Kernel Live Patch 4 for SLE 12 SP2",
  "Tracking": {
    "ID": "SUSE-SU-2017:2811-1",
    "Status": "Final",
    "Version": "1",
    "InitialReleaseDate": "2017-10-20T15:06:09Z",
    "CurrentReleaseDate": "2017-10-20T15:06:09Z",
    "RevisionHistory": [
      {
        "Number": "1",
        "Date": "2017-10-20T15:06:09Z",
        "Description": "current"
      }
    ]
  },
  "Notes": [
    {
      "Text": "Security update for Linux Kernel Live Patch 4 for SLE 12 SP2",
      "Title": "Topic",
      "Type": "Summary"
    },
    {
      "Text": "This update for the Linux Kernel 4.4.38-93 fixes several issues.\n\nThe following security bugs were fixed:\n\n- CVE-2017-1000251: The native Bluetooth stack in the Linux Kernel (BlueZ) was vulnerable to a stack overflow vulnerability in the processing of L2CAP configuration responses resulting in Remote code execution in kernel space (bsc#1057950).\n- CVE-2017-12762: In drivers/isdn/i4l/isdn_net.c a user-controlled buffer was copied into a local buffer of constant size using strcpy without a length check which can cause a buffer overflow (bsc#1053150).\n",
      "Title": "Details",
      "Type": "General"
    },
    {
      "Text": "The CVRF data is provided by SUSE under the Creative Commons License 4.0 with Attribution (CC-BY-4.0).",
      "Title": "Terms of Use",
      "Type": "Legal Disclaimer"
    },
    {
      "Text": "SUSE-SLE-Live-Patching-12-2017-1754",
      "Title": "Patchnames",
      "Type": "Details"
    }
  ],
  "ProductTree": {
    "Relationships": [
      {
        "ProductReference": "kgraft-patch-4_4_38-93-default-9-4.1",
        "RelatesToProductReference": "SUSE Linux Enterprise Live Patching 12",
        "RelationType": "Default Component Of"
      }
    ]
  },
  "References": [
    {
      "URL": "https://www.suse.com/support/update/announcement/2017/suse-su-20172811-1/",
      "Description": "Link for SUSE-SU-2017:2811-1"
    },
    {
      "URL": "https://lists.suse.com/pipermail/sle-security-updates/2017-October/003345.html",
      "Description": "E-Mail link for SUSE-SU-2017:2811-1"
    },
    {
      "URL": "https://www.suse.com/support/security/rating/",
      "Description": "SUSE Security Ratings"
    },
    {
      "URL": "https://bugzilla.suse.com/1053150",
      "Description": "SUSE Bug 1053150"
    },
    {
      "URL": "https://bugzilla.suse.com/1057950",
      "Description": "SUSE Bug 1057950"
    },
    {
      "URL": "https://www.suse.com/security/cve/CVE-2017-1000251/",
      "Description": "SUSE CVE CVE-2017-1000251 page"
    },
    {
      "URL": "https://www.suse.com/security/cve/CVE-2017-12762/",
      "Description": "SUSE CVE CVE-2017-12762 page"
    }
  ],
  "Vulnerabilities": [
    {
      "CVE": "CVE-2017-1000251",
      "Description": "The native Bluetooth stack in the Linux Kernel (BlueZ), starting at the Linux kernel version 2.6.32 and up to and including 4.13.1, are vulnerable to a stack overflow vulnerability in the processing of L2CAP configuration responses resulting in Remote code execution in kernel space.",
      "Threats": [
        {
          "Type": "Impact",
          "Severity": "important"
        }
      ],
      "References": [
        {
          "URL": "https://www.suse.com/security/cve/CVE-2017-1000251.html",
          "Description": "CVE-2017-1000251"
        },
        {
          "URL": "https://bugzilla.suse.com/1057389",
          "Description": "SUSE Bug 1057389"
        },
        {
          "URL": "https://bugzilla.suse.com/1057950",
          "Description": "SUSE Bug 1057950"
        },
        {
          "URL": "https://bugzilla.suse.com/1070535",
          "Description": "SUSE Bug 1070535"
        },
        {
          "URL": "https://bugzilla.suse.com/1072117",
          "Description": "SUSE Bug 1072117"
        },
        {
          "URL": "https://bugzilla.suse.com/1072162",
          "Description": "SUSE Bug 1072162"
        },
        {
          "URL": "https://bugzilla.suse.com/1120758",
          "Description": "SUSE Bug 1120758"
        }
      ],
      "ProductStatuses": [
        {
          "Type": "Fixed",
          "ProductID": [
            "SUSE Linux Enterprise Live Patching 12:kgraft-patch-4_4_38-93-default-9-4.1"
          ]
        }
      ],
      "CVSSScoreSets": {
        "BaseScore": "7.9",
        "Vector": "AV:A/AC:M/Au:N/C:C/I:C/A:C"
      }
    },
    {
      "CVE": "CVE-2017-12762",
      "Description": "In /drivers/isdn/i4l/isdn_net.c: A user-controlled buffer is copied into a local buffer of constant size using strcpy without a length check which can cause a buffer overflow. This affects the Linux kernel 4.9-stable tree, 4.12-stable tree, 3.18-stable tree, and 4.4-stable tree.",
      "Threats": [
        {
          "Type": "Impact",
          "Severity": "important"
        }
      ],
      "References": [
        {
          "URL": "https://www.suse.com/security/cve/CVE-2017-12762.html",
          "Description": "CVE-2017-12762"
        },
        {
          "URL": "https://bugzilla.suse.com/1053148",
          "Description": "SUSE Bug 1053148"
        },
        {
          "URL": "https://bugzilla.suse.com/1053150",
          "Description": "SUSE Bug 1053150"
        },
        {
          "URL": "https://bugzilla.suse.com/1072117",
          "Description": "SUSE Bug 1072117"
        },
        {
          "URL": "https://bugzilla.suse.com/1072162",
          "Description": "SUSE Bug 1072162"
        },
        {
          "URL": "https://bugzilla.suse.com/1115893",
          "Description": "SUSE Bug 1115893"
        }
      ],
      "ProductStatuses": [
        {
          "Type": "Fixed",
          "ProductID": [
            "SUSE Linux Enterprise Live Patching 12:kgraft-patch-4_4_38-93-default-9-4.1"
          ]
        }
      ],
      "CVSSScoreSets": {
        "BaseScore": "6.8",
        "Vector": "AV:L/AC:L/Au:S/C:C/I:C/A:C"
      }
    }
  ]
}