{
  "Title": "Security update for Linux Kernel Live Patch 21 for SLE 12 SP1",
  "Tracking": {
    "ID": "SUSE-SU-2017:2791-1",
    "Status": "Final",
    "Version": "1",
    "InitialReleaseDate": "2017-10-19T20:21:40Z",
    "CurrentReleaseDate": "2017-10-19T20:21:40Z",
    "RevisionHistory": [
      {
        "Number": "1",
        "Date": "2017-10-19T20:21:40Z",
        "Description": "current"
      }
    ]
  },
  "Notes": [
    {
      "Text": "Security update for Linux Kernel Live Patch 21 for SLE 12 SP1",
      "Title": "Topic",
      "Type": "Summary"
    },
    {
      "Text": "This update for the Linux Kernel 3.12.74-60_64_60 fixes several issues.\n\nThe following security bugs were fixed:\n\n- CVE-2017-15274: security/keys/keyctl.c in the Linux kernel did not consider the case of a NULL payload in conjunction with a nonzero length value, which allowed local users to cause a denial of service (NULL pointer dereference and OOPS) via a crafted add_key or keyctl system call (bsc#1045327).\n- CVE-2017-1000112: Updated patch for this issue to be in sync with the other livepatches. Description of the issue: Prevent race condition in net-packet code that could have been exploited by unprivileged users to gain root access (bsc#1052368, bsc#1052311).\n- CVE-2017-9242: The __ip6_append_data function in net/ipv6/ip6_output.c was too late in checking whether an overwrite of an skb data structure may occur, which allowed local users to cause a denial of service (system crash) via crafted system calls (bsc#1042892).\n- CVE-2017-8890: The inet_csk_clone_lock function in net/ipv4/inet_connection_sock.c allowed attackers to cause a denial of service (double free) or possibly have unspecified other impact by leveraging use of the accept system call (bsc#1038564).\n",
      "Title": "Details",
      "Type": "General"
    },
    {
      "Text": "The CVRF data is provided by SUSE under the Creative Commons License 4.0 with Attribution (CC-BY-4.0).",
      "Title": "Terms of Use",
      "Type": "Legal Disclaimer"
    },
    {
      "Text": "SUSE-SLE-SAP-12-SP1-2017-1732,SUSE-SLE-SERVER-12-SP1-2017-1732",
      "Title": "Patchnames",
      "Type": "Details"
    }
  ],
  "ProductTree": {
    "Relationships": [
      {
        "ProductReference": "kgraft-patch-3_12_74-60_64_60-default-2-4.1",
        "RelatesToProductReference": "SUSE Linux Enterprise Server 12 SP1-LTSS",
        "RelationType": "Default Component Of"
      },
      {
        "ProductReference": "kgraft-patch-3_12_74-60_64_60-xen-2-4.1",
        "RelatesToProductReference": "SUSE Linux Enterprise Server 12 SP1-LTSS",
        "RelationType": "Default Component Of"
      },
      {
        "ProductReference": "kgraft-patch-3_12_74-60_64_60-default-2-4.1",
        "RelatesToProductReference": "SUSE Linux Enterprise Server for SAP Applications 12 SP1",
        "RelationType": "Default Component Of"
      },
      {
        "ProductReference": "kgraft-patch-3_12_74-60_64_60-xen-2-4.1",
        "RelatesToProductReference": "SUSE Linux Enterprise Server for SAP Applications 12 SP1",
        "RelationType": "Default Component Of"
      }
    ]
  },
  "References": [
    {
      "URL": "https://www.suse.com/support/update/announcement/2017/suse-su-20172791-1/",
      "Description": "Link for SUSE-SU-2017:2791-1"
    },
    {
      "URL": "https://lists.suse.com/pipermail/sle-security-updates/2017-October/003328.html",
      "Description": "E-Mail link for SUSE-SU-2017:2791-1"
    },
    {
      "URL": "https://www.suse.com/support/security/rating/",
      "Description": "SUSE Security Ratings"
    },
    {
      "URL": "https://bugzilla.suse.com/1038564",
      "Description": "SUSE Bug 1038564"
    },
    {
      "URL": "https://bugzilla.suse.com/1042892",
      "Description": "SUSE Bug 1042892"
    },
    {
      "URL": "https://bugzilla.suse.com/1045327",
      "Description": "SUSE Bug 1045327"
    },
    {
      "URL": "https://bugzilla.suse.com/1052311",
      "Description": "SUSE Bug 1052311"
    },
    {
      "URL": "https://bugzilla.suse.com/1052368",
      "Description": "SUSE Bug 1052368"
    },
    {
      "URL": "https://www.suse.com/security/cve/CVE-2017-1000112/",
      "Description": "SUSE CVE CVE-2017-1000112 page"
    },
    {
      "URL": "https://www.suse.com/security/cve/CVE-2017-15274/",
      "Description": "SUSE CVE CVE-2017-15274 page"
    },
    {
      "URL": "https://www.suse.com/security/cve/CVE-2017-8890/",
      "Description": "SUSE CVE CVE-2017-8890 page"
    },
    {
      "URL": "https://www.suse.com/security/cve/CVE-2017-9242/",
      "Description": "SUSE CVE CVE-2017-9242 page"
    }
  ],
  "Vulnerabilities": [
    {
      "CVE": "CVE-2017-1000112",
      "Description": "Linux kernel: Exploitable memory corruption due to UFO to non-UFO path switch. When building a UFO packet with MSG_MORE __ip_append_data() calls ip_ufo_append_data() to append. However in between two send() calls, the append path can be switched from UFO to non-UFO one, which leads to a memory corruption. In case UFO packet lengths exceeds MTU, copy = maxfraglen - skb-\u003elen becomes negative on the non-UFO path and the branch to allocate new skb is taken. This triggers fragmentation and computation of fraggap = skb_prev-\u003elen - maxfraglen. Fraggap can exceed MTU, causing copy = datalen - transhdrlen - fraggap to become negative. Subsequently skb_copy_and_csum_bits() writes out-of-bounds. A similar issue is present in IPv6 code. The bug was introduced in e89e9cf539a2 (\"[IPv4/IPv6]: UFO Scatter-gather approach\") on Oct 18 2005.",
      "Threats": [
        {
          "Type": "Impact",
          "Severity": "important"
        }
      ],
      "References": [
        {
          "URL": "https://www.suse.com/security/cve/CVE-2017-1000112.html",
          "Description": "CVE-2017-1000112"
        },
        {
          "URL": "https://bugzilla.suse.com/1052311",
          "Description": "SUSE Bug 1052311"
        },
        {
          "URL": "https://bugzilla.suse.com/1052365",
          "Description": "SUSE Bug 1052365"
        },
        {
          "URL": "https://bugzilla.suse.com/1052368",
          "Description": "SUSE Bug 1052368"
        },
        {
          "URL": "https://bugzilla.suse.com/1072117",
          "Description": "SUSE Bug 1072117"
        },
        {
          "URL": "https://bugzilla.suse.com/1072162",
          "Description": "SUSE Bug 1072162"
        },
        {
          "URL": "https://bugzilla.suse.com/1115893",
          "Description": "SUSE Bug 1115893"
        }
      ],
      "ProductStatuses": [
        {
          "Type": "Fixed",
          "ProductID": [
            "SUSE Linux Enterprise Server 12 SP1-LTSS:kgraft-patch-3_12_74-60_64_60-default-2-4.1",
            "SUSE Linux Enterprise Server 12 SP1-LTSS:kgraft-patch-3_12_74-60_64_60-xen-2-4.1",
            "SUSE Linux Enterprise Server for SAP Applications 12 SP1:kgraft-patch-3_12_74-60_64_60-default-2-4.1",
            "SUSE Linux Enterprise Server for SAP Applications 12 SP1:kgraft-patch-3_12_74-60_64_60-xen-2-4.1"
          ]
        }
      ],
      "CVSSScoreSets": {
        "BaseScore": "6.2",
        "Vector": "AV:L/AC:H/Au:N/C:C/I:C/A:C"
      }
    },
    {
      "CVE": "CVE-2017-15274",
      "Description": "security/keys/keyctl.c in the Linux kernel before 4.11.5 does not consider the case of a NULL payload in conjunction with a nonzero length value, which allows local users to cause a denial of service (NULL pointer dereference and OOPS) via a crafted add_key or keyctl system call, a different vulnerability than CVE-2017-12192.",
      "Threats": [
        {
          "Type": "Impact",
          "Severity": "moderate"
        }
      ],
      "References": [
        {
          "URL": "https://www.suse.com/security/cve/CVE-2017-15274.html",
          "Description": "CVE-2017-15274"
        },
        {
          "URL": "https://bugzilla.suse.com/1045327",
          "Description": "SUSE Bug 1045327"
        },
        {
          "URL": "https://bugzilla.suse.com/1062471",
          "Description": "SUSE Bug 1062471"
        }
      ],
      "ProductStatuses": [
        {
          "Type": "Fixed",
          "ProductID": [
            "SUSE Linux Enterprise Server 12 SP1-LTSS:kgraft-patch-3_12_74-60_64_60-default-2-4.1",
            "SUSE Linux Enterprise Server 12 SP1-LTSS:kgraft-patch-3_12_74-60_64_60-xen-2-4.1",
            "SUSE Linux Enterprise Server for SAP Applications 12 SP1:kgraft-patch-3_12_74-60_64_60-default-2-4.1",
            "SUSE Linux Enterprise Server for SAP Applications 12 SP1:kgraft-patch-3_12_74-60_64_60-xen-2-4.1"
          ]
        }
      ],
      "CVSSScoreSets": {
        "BaseScore": "4.9",
        "Vector": "AV:L/AC:L/Au:N/C:N/I:N/A:C"
      }
    },
    {
      "CVE": "CVE-2017-8890",
      "Description": "The inet_csk_clone_lock function in net/ipv4/inet_connection_sock.c in the Linux kernel through 4.10.15 allows attackers to cause a denial of service (double free) or possibly have unspecified other impact by leveraging use of the accept system call.",
      "Threats": [
        {
          "Type": "Impact",
          "Severity": "important"
        }
      ],
      "References": [
        {
          "URL": "https://www.suse.com/security/cve/CVE-2017-8890.html",
          "Description": "CVE-2017-8890"
        },
        {
          "URL": "https://bugzilla.suse.com/1038544",
          "Description": "SUSE Bug 1038544"
        },
        {
          "URL": "https://bugzilla.suse.com/1038564",
          "Description": "SUSE Bug 1038564"
        },
        {
          "URL": "https://bugzilla.suse.com/1039883",
          "Description": "SUSE Bug 1039883"
        },
        {
          "URL": "https://bugzilla.suse.com/1039885",
          "Description": "SUSE Bug 1039885"
        },
        {
          "URL": "https://bugzilla.suse.com/1040069",
          "Description": "SUSE Bug 1040069"
        },
        {
          "URL": "https://bugzilla.suse.com/1042364",
          "Description": "SUSE Bug 1042364"
        },
        {
          "URL": "https://bugzilla.suse.com/1051906",
          "Description": "SUSE Bug 1051906"
        },
        {
          "URL": "https://bugzilla.suse.com/1115893",
          "Description": "SUSE Bug 1115893"
        }
      ],
      "ProductStatuses": [
        {
          "Type": "Fixed",
          "ProductID": [
            "SUSE Linux Enterprise Server 12 SP1-LTSS:kgraft-patch-3_12_74-60_64_60-default-2-4.1",
            "SUSE Linux Enterprise Server 12 SP1-LTSS:kgraft-patch-3_12_74-60_64_60-xen-2-4.1",
            "SUSE Linux Enterprise Server for SAP Applications 12 SP1:kgraft-patch-3_12_74-60_64_60-default-2-4.1",
            "SUSE Linux Enterprise Server for SAP Applications 12 SP1:kgraft-patch-3_12_74-60_64_60-xen-2-4.1"
          ]
        }
      ],
      "CVSSScoreSets": {
        "BaseScore": "6.9",
        "Vector": "AV:L/AC:M/Au:N/C:C/I:C/A:C"
      }
    },
    {
      "CVE": "CVE-2017-9242",
      "Description": "The __ip6_append_data function in net/ipv6/ip6_output.c in the Linux kernel through 4.11.3 is too late in checking whether an overwrite of an skb data structure may occur, which allows local users to cause a denial of service (system crash) via crafted system calls.",
      "Threats": [
        {
          "Type": "Impact",
          "Severity": "important"
        }
      ],
      "References": [
        {
          "URL": "https://www.suse.com/security/cve/CVE-2017-9242.html",
          "Description": "CVE-2017-9242"
        },
        {
          "URL": "https://bugzilla.suse.com/1041431",
          "Description": "SUSE Bug 1041431"
        },
        {
          "URL": "https://bugzilla.suse.com/1042892",
          "Description": "SUSE Bug 1042892"
        }
      ],
      "ProductStatuses": [
        {
          "Type": "Fixed",
          "ProductID": [
            "SUSE Linux Enterprise Server 12 SP1-LTSS:kgraft-patch-3_12_74-60_64_60-default-2-4.1",
            "SUSE Linux Enterprise Server 12 SP1-LTSS:kgraft-patch-3_12_74-60_64_60-xen-2-4.1",
            "SUSE Linux Enterprise Server for SAP Applications 12 SP1:kgraft-patch-3_12_74-60_64_60-default-2-4.1",
            "SUSE Linux Enterprise Server for SAP Applications 12 SP1:kgraft-patch-3_12_74-60_64_60-xen-2-4.1"
          ]
        }
      ],
      "CVSSScoreSets": {
        "BaseScore": "4.6",
        "Vector": "AV:L/AC:L/Au:N/C:P/I:P/A:P"
      }
    }
  ]
}