{
  "Title": "Security update for Linux Kernel Live Patch 24 for SLE 12",
  "Tracking": {
    "ID": "SUSE-SU-2017:2781-1",
    "Status": "Final",
    "Version": "1",
    "InitialReleaseDate": "2017-10-19T11:16:37Z",
    "CurrentReleaseDate": "2017-10-19T11:16:37Z",
    "RevisionHistory": [
      {
        "Number": "1",
        "Date": "2017-10-19T11:16:37Z",
        "Description": "current"
      }
    ]
  },
  "Notes": [
    {
      "Text": "Security update for Linux Kernel Live Patch 24 for SLE 12",
      "Title": "Topic",
      "Type": "Summary"
    },
    {
      "Text": "This update for the Linux Kernel 3.12.61-52_83 fixes one issue.\n\nThe following security bugs were fixed:\n\n- CVE-2017-15274: security/keys/keyctl.c in the Linux kernel did not consider the case of a NULL payload in conjunction with a nonzero length value, which allowed local users to cause a denial of service (NULL pointer dereference and OOPS) via a crafted add_key or keyctl system call (bsc#1045327).\n- CVE-2017-1000251: The native Bluetooth stack in the Linux Kernel (BlueZ) was vulnerable to a stack overflow vulnerability in the processing of L2CAP configuration responses resulting in Remote code execution in kernel space (bsc#1057950).\n",
      "Title": "Details",
      "Type": "General"
    },
    {
      "Text": "The CVRF data is provided by SUSE under the Creative Commons License 4.0 with Attribution (CC-BY-4.0).",
      "Title": "Terms of Use",
      "Type": "Legal Disclaimer"
    },
    {
      "Text": "SUSE-SLE-SERVER-12-2017-1719",
      "Title": "Patchnames",
      "Type": "Details"
    }
  ],
  "ProductTree": {
    "Relationships": [
      {
        "ProductReference": "kgraft-patch-3_12_61-52_83-default-3-4.1",
        "RelatesToProductReference": "SUSE Linux Enterprise Server 12-LTSS",
        "RelationType": "Default Component Of"
      },
      {
        "ProductReference": "kgraft-patch-3_12_61-52_83-xen-3-4.1",
        "RelatesToProductReference": "SUSE Linux Enterprise Server 12-LTSS",
        "RelationType": "Default Component Of"
      }
    ]
  },
  "References": [
    {
      "URL": "https://www.suse.com/support/update/announcement/2017/suse-su-20172781-1/",
      "Description": "Link for SUSE-SU-2017:2781-1"
    },
    {
      "URL": "https://lists.suse.com/pipermail/sle-security-updates/2017-October/003318.html",
      "Description": "E-Mail link for SUSE-SU-2017:2781-1"
    },
    {
      "URL": "https://www.suse.com/support/security/rating/",
      "Description": "SUSE Security Ratings"
    },
    {
      "URL": "https://bugzilla.suse.com/1045327",
      "Description": "SUSE Bug 1045327"
    },
    {
      "URL": "https://bugzilla.suse.com/1057950",
      "Description": "SUSE Bug 1057950"
    },
    {
      "URL": "https://www.suse.com/security/cve/CVE-2017-1000251/",
      "Description": "SUSE CVE CVE-2017-1000251 page"
    },
    {
      "URL": "https://www.suse.com/security/cve/CVE-2017-15274/",
      "Description": "SUSE CVE CVE-2017-15274 page"
    }
  ],
  "Vulnerabilities": [
    {
      "CVE": "CVE-2017-1000251",
      "Description": "The native Bluetooth stack in the Linux Kernel (BlueZ), starting at the Linux kernel version 2.6.32 and up to and including 4.13.1, are vulnerable to a stack overflow vulnerability in the processing of L2CAP configuration responses resulting in Remote code execution in kernel space.",
      "Threats": [
        {
          "Type": "Impact",
          "Severity": "important"
        }
      ],
      "References": [
        {
          "URL": "https://www.suse.com/security/cve/CVE-2017-1000251.html",
          "Description": "CVE-2017-1000251"
        },
        {
          "URL": "https://bugzilla.suse.com/1057389",
          "Description": "SUSE Bug 1057389"
        },
        {
          "URL": "https://bugzilla.suse.com/1057950",
          "Description": "SUSE Bug 1057950"
        },
        {
          "URL": "https://bugzilla.suse.com/1070535",
          "Description": "SUSE Bug 1070535"
        },
        {
          "URL": "https://bugzilla.suse.com/1072117",
          "Description": "SUSE Bug 1072117"
        },
        {
          "URL": "https://bugzilla.suse.com/1072162",
          "Description": "SUSE Bug 1072162"
        },
        {
          "URL": "https://bugzilla.suse.com/1120758",
          "Description": "SUSE Bug 1120758"
        }
      ],
      "ProductStatuses": [
        {
          "Type": "Fixed",
          "ProductID": [
            "SUSE Linux Enterprise Server 12-LTSS:kgraft-patch-3_12_61-52_83-default-3-4.1",
            "SUSE Linux Enterprise Server 12-LTSS:kgraft-patch-3_12_61-52_83-xen-3-4.1"
          ]
        }
      ],
      "CVSSScoreSets": {
        "BaseScore": "7.9",
        "Vector": "AV:A/AC:M/Au:N/C:C/I:C/A:C"
      }
    },
    {
      "CVE": "CVE-2017-15274",
      "Description": "security/keys/keyctl.c in the Linux kernel before 4.11.5 does not consider the case of a NULL payload in conjunction with a nonzero length value, which allows local users to cause a denial of service (NULL pointer dereference and OOPS) via a crafted add_key or keyctl system call, a different vulnerability than CVE-2017-12192.",
      "Threats": [
        {
          "Type": "Impact",
          "Severity": "moderate"
        }
      ],
      "References": [
        {
          "URL": "https://www.suse.com/security/cve/CVE-2017-15274.html",
          "Description": "CVE-2017-15274"
        },
        {
          "URL": "https://bugzilla.suse.com/1045327",
          "Description": "SUSE Bug 1045327"
        },
        {
          "URL": "https://bugzilla.suse.com/1062471",
          "Description": "SUSE Bug 1062471"
        }
      ],
      "ProductStatuses": [
        {
          "Type": "Fixed",
          "ProductID": [
            "SUSE Linux Enterprise Server 12-LTSS:kgraft-patch-3_12_61-52_83-default-3-4.1",
            "SUSE Linux Enterprise Server 12-LTSS:kgraft-patch-3_12_61-52_83-xen-3-4.1"
          ]
        }
      ],
      "CVSSScoreSets": {
        "BaseScore": "4.9",
        "Vector": "AV:L/AC:L/Au:N/C:N/I:N/A:C"
      }
    }
  ]
}