{
  "Title": "Security update for the Linux Kernel",
  "Tracking": {
    "ID": "SUSE-SU-2017:2523-1",
    "Status": "Final",
    "Version": "1",
    "InitialReleaseDate": "2017-09-18T16:40:41Z",
    "CurrentReleaseDate": "2017-09-18T16:40:41Z",
    "RevisionHistory": [
      {
        "Number": "1",
        "Date": "2017-09-18T16:40:41Z",
        "Description": "current"
      }
    ]
  },
  "Notes": [
    {
      "Text": "Security update for the Linux Kernel",
      "Title": "Topic",
      "Type": "Summary"
    },
    {
      "Text": "\nThe SUSE Linux Enterprise 12 SP3 kernel was updated to receive the following security fixes:\n\n- CVE-2017-1000251: The native Bluetooth stack in the Linux Kernel was\n  vulnerable to a stack overflow while processing L2CAP configuration\n  responses, resulting in a potential remote denial-of-service vulnerability\n  but no remote code execution due to use of CONFIG_CC_STACKPROTECTOR.\n  [bnc#1057389]\n  ",
      "Title": "Details",
      "Type": "General"
    },
    {
      "Text": "The CVRF data is provided by SUSE under the Creative Commons License 4.0 with Attribution (CC-BY-4.0).",
      "Title": "Terms of Use",
      "Type": "Legal Disclaimer"
    },
    {
      "Text": "SUSE-SLE-DESKTOP-12-SP3-2017-1562,SUSE-SLE-HA-12-SP3-2017-1562,SUSE-SLE-Live-Patching-12-SP3-2017-1562,SUSE-SLE-SDK-12-SP3-2017-1562,SUSE-SLE-SERVER-12-SP3-2017-1562,SUSE-SLE-WE-12-SP3-2017-1562",
      "Title": "Patchnames",
      "Type": "Details"
    }
  ],
  "ProductTree": {
    "Relationships": [
      {
        "ProductReference": "kernel-default-4.4.82-6.6.1",
        "RelatesToProductReference": "SUSE Linux Enterprise Desktop 12 SP3",
        "RelationType": "Default Component Of"
      },
      {
        "ProductReference": "kernel-default-devel-4.4.82-6.6.1",
        "RelatesToProductReference": "SUSE Linux Enterprise Desktop 12 SP3",
        "RelationType": "Default Component Of"
      },
      {
        "ProductReference": "kernel-default-extra-4.4.82-6.6.1",
        "RelatesToProductReference": "SUSE Linux Enterprise Desktop 12 SP3",
        "RelationType": "Default Component Of"
      },
      {
        "ProductReference": "kernel-devel-4.4.82-6.6.1",
        "RelatesToProductReference": "SUSE Linux Enterprise Desktop 12 SP3",
        "RelationType": "Default Component Of"
      },
      {
        "ProductReference": "kernel-macros-4.4.82-6.6.1",
        "RelatesToProductReference": "SUSE Linux Enterprise Desktop 12 SP3",
        "RelationType": "Default Component Of"
      },
      {
        "ProductReference": "kernel-source-4.4.82-6.6.1",
        "RelatesToProductReference": "SUSE Linux Enterprise Desktop 12 SP3",
        "RelationType": "Default Component Of"
      },
      {
        "ProductReference": "kernel-syms-4.4.82-6.6.1",
        "RelatesToProductReference": "SUSE Linux Enterprise Desktop 12 SP3",
        "RelationType": "Default Component Of"
      },
      {
        "ProductReference": "cluster-md-kmp-default-4.4.82-6.6.1",
        "RelatesToProductReference": "SUSE Linux Enterprise High Availability Extension 12 SP3",
        "RelationType": "Default Component Of"
      },
      {
        "ProductReference": "dlm-kmp-default-4.4.82-6.6.1",
        "RelatesToProductReference": "SUSE Linux Enterprise High Availability Extension 12 SP3",
        "RelationType": "Default Component Of"
      },
      {
        "ProductReference": "gfs2-kmp-default-4.4.82-6.6.1",
        "RelatesToProductReference": "SUSE Linux Enterprise High Availability Extension 12 SP3",
        "RelationType": "Default Component Of"
      },
      {
        "ProductReference": "ocfs2-kmp-default-4.4.82-6.6.1",
        "RelatesToProductReference": "SUSE Linux Enterprise High Availability Extension 12 SP3",
        "RelationType": "Default Component Of"
      },
      {
        "ProductReference": "kgraft-patch-4_4_82-6_6-default-1-2.1",
        "RelatesToProductReference": "SUSE Linux Enterprise Live Patching 12 SP3",
        "RelationType": "Default Component Of"
      },
      {
        "ProductReference": "kernel-default-4.4.82-6.6.1",
        "RelatesToProductReference": "SUSE Linux Enterprise Server 12 SP3",
        "RelationType": "Default Component Of"
      },
      {
        "ProductReference": "kernel-default-base-4.4.82-6.6.1",
        "RelatesToProductReference": "SUSE Linux Enterprise Server 12 SP3",
        "RelationType": "Default Component Of"
      },
      {
        "ProductReference": "kernel-default-devel-4.4.82-6.6.1",
        "RelatesToProductReference": "SUSE Linux Enterprise Server 12 SP3",
        "RelationType": "Default Component Of"
      },
      {
        "ProductReference": "kernel-default-man-4.4.82-6.6.1",
        "RelatesToProductReference": "SUSE Linux Enterprise Server 12 SP3",
        "RelationType": "Default Component Of"
      },
      {
        "ProductReference": "kernel-devel-4.4.82-6.6.1",
        "RelatesToProductReference": "SUSE Linux Enterprise Server 12 SP3",
        "RelationType": "Default Component Of"
      },
      {
        "ProductReference": "kernel-macros-4.4.82-6.6.1",
        "RelatesToProductReference": "SUSE Linux Enterprise Server 12 SP3",
        "RelationType": "Default Component Of"
      },
      {
        "ProductReference": "kernel-source-4.4.82-6.6.1",
        "RelatesToProductReference": "SUSE Linux Enterprise Server 12 SP3",
        "RelationType": "Default Component Of"
      },
      {
        "ProductReference": "kernel-syms-4.4.82-6.6.1",
        "RelatesToProductReference": "SUSE Linux Enterprise Server 12 SP3",
        "RelationType": "Default Component Of"
      },
      {
        "ProductReference": "kernel-default-4.4.82-6.6.1",
        "RelatesToProductReference": "SUSE Linux Enterprise Server for SAP Applications 12 SP3",
        "RelationType": "Default Component Of"
      },
      {
        "ProductReference": "kernel-default-base-4.4.82-6.6.1",
        "RelatesToProductReference": "SUSE Linux Enterprise Server for SAP Applications 12 SP3",
        "RelationType": "Default Component Of"
      },
      {
        "ProductReference": "kernel-default-devel-4.4.82-6.6.1",
        "RelatesToProductReference": "SUSE Linux Enterprise Server for SAP Applications 12 SP3",
        "RelationType": "Default Component Of"
      },
      {
        "ProductReference": "kernel-default-man-4.4.82-6.6.1",
        "RelatesToProductReference": "SUSE Linux Enterprise Server for SAP Applications 12 SP3",
        "RelationType": "Default Component Of"
      },
      {
        "ProductReference": "kernel-devel-4.4.82-6.6.1",
        "RelatesToProductReference": "SUSE Linux Enterprise Server for SAP Applications 12 SP3",
        "RelationType": "Default Component Of"
      },
      {
        "ProductReference": "kernel-macros-4.4.82-6.6.1",
        "RelatesToProductReference": "SUSE Linux Enterprise Server for SAP Applications 12 SP3",
        "RelationType": "Default Component Of"
      },
      {
        "ProductReference": "kernel-source-4.4.82-6.6.1",
        "RelatesToProductReference": "SUSE Linux Enterprise Server for SAP Applications 12 SP3",
        "RelationType": "Default Component Of"
      },
      {
        "ProductReference": "kernel-syms-4.4.82-6.6.1",
        "RelatesToProductReference": "SUSE Linux Enterprise Server for SAP Applications 12 SP3",
        "RelationType": "Default Component Of"
      },
      {
        "ProductReference": "kernel-docs-4.4.82-6.6.3",
        "RelatesToProductReference": "SUSE Linux Enterprise Software Development Kit 12 SP3",
        "RelationType": "Default Component Of"
      },
      {
        "ProductReference": "kernel-obs-build-4.4.82-6.6.1",
        "RelatesToProductReference": "SUSE Linux Enterprise Software Development Kit 12 SP3",
        "RelationType": "Default Component Of"
      },
      {
        "ProductReference": "kernel-default-extra-4.4.82-6.6.1",
        "RelatesToProductReference": "SUSE Linux Enterprise Workstation Extension 12 SP3",
        "RelationType": "Default Component Of"
      }
    ]
  },
  "References": [
    {
      "URL": "https://www.suse.com/support/update/announcement/2017/suse-su-20172523-1/",
      "Description": "Link for SUSE-SU-2017:2523-1"
    },
    {
      "URL": "https://lists.suse.com/pipermail/sle-security-updates/2017-September/003247.html",
      "Description": "E-Mail link for SUSE-SU-2017:2523-1"
    },
    {
      "URL": "https://www.suse.com/support/security/rating/",
      "Description": "SUSE Security Ratings"
    },
    {
      "URL": "https://bugzilla.suse.com/1057389",
      "Description": "SUSE Bug 1057389"
    },
    {
      "URL": "https://www.suse.com/security/cve/CVE-2017-1000251/",
      "Description": "SUSE CVE CVE-2017-1000251 page"
    }
  ],
  "Vulnerabilities": [
    {
      "CVE": "CVE-2017-1000251",
      "Description": "The native Bluetooth stack in the Linux Kernel (BlueZ), starting at the Linux kernel version 2.6.32 and up to and including 4.13.1, are vulnerable to a stack overflow vulnerability in the processing of L2CAP configuration responses resulting in Remote code execution in kernel space.",
      "Threats": [
        {
          "Type": "Impact",
          "Severity": "important"
        }
      ],
      "References": [
        {
          "URL": "https://www.suse.com/security/cve/CVE-2017-1000251.html",
          "Description": "CVE-2017-1000251"
        },
        {
          "URL": "https://bugzilla.suse.com/1057389",
          "Description": "SUSE Bug 1057389"
        },
        {
          "URL": "https://bugzilla.suse.com/1057950",
          "Description": "SUSE Bug 1057950"
        },
        {
          "URL": "https://bugzilla.suse.com/1070535",
          "Description": "SUSE Bug 1070535"
        },
        {
          "URL": "https://bugzilla.suse.com/1072117",
          "Description": "SUSE Bug 1072117"
        },
        {
          "URL": "https://bugzilla.suse.com/1072162",
          "Description": "SUSE Bug 1072162"
        },
        {
          "URL": "https://bugzilla.suse.com/1120758",
          "Description": "SUSE Bug 1120758"
        }
      ],
      "ProductStatuses": [
        {
          "Type": "Fixed",
          "ProductID": [
            "SUSE Linux Enterprise Desktop 12 SP3:kernel-default-4.4.82-6.6.1",
            "SUSE Linux Enterprise Desktop 12 SP3:kernel-default-devel-4.4.82-6.6.1",
            "SUSE Linux Enterprise Desktop 12 SP3:kernel-default-extra-4.4.82-6.6.1",
            "SUSE Linux Enterprise Desktop 12 SP3:kernel-devel-4.4.82-6.6.1",
            "SUSE Linux Enterprise Desktop 12 SP3:kernel-macros-4.4.82-6.6.1",
            "SUSE Linux Enterprise Desktop 12 SP3:kernel-source-4.4.82-6.6.1",
            "SUSE Linux Enterprise Desktop 12 SP3:kernel-syms-4.4.82-6.6.1",
            "SUSE Linux Enterprise High Availability Extension 12 SP3:cluster-md-kmp-default-4.4.82-6.6.1",
            "SUSE Linux Enterprise High Availability Extension 12 SP3:dlm-kmp-default-4.4.82-6.6.1",
            "SUSE Linux Enterprise High Availability Extension 12 SP3:gfs2-kmp-default-4.4.82-6.6.1",
            "SUSE Linux Enterprise High Availability Extension 12 SP3:ocfs2-kmp-default-4.4.82-6.6.1",
            "SUSE Linux Enterprise Live Patching 12 SP3:kgraft-patch-4_4_82-6_6-default-1-2.1",
            "SUSE Linux Enterprise Server 12 SP3:kernel-default-4.4.82-6.6.1",
            "SUSE Linux Enterprise Server 12 SP3:kernel-default-base-4.4.82-6.6.1",
            "SUSE Linux Enterprise Server 12 SP3:kernel-default-devel-4.4.82-6.6.1",
            "SUSE Linux Enterprise Server 12 SP3:kernel-default-man-4.4.82-6.6.1",
            "SUSE Linux Enterprise Server 12 SP3:kernel-devel-4.4.82-6.6.1",
            "SUSE Linux Enterprise Server 12 SP3:kernel-macros-4.4.82-6.6.1",
            "SUSE Linux Enterprise Server 12 SP3:kernel-source-4.4.82-6.6.1",
            "SUSE Linux Enterprise Server 12 SP3:kernel-syms-4.4.82-6.6.1",
            "SUSE Linux Enterprise Server for SAP Applications 12 SP3:kernel-default-4.4.82-6.6.1",
            "SUSE Linux Enterprise Server for SAP Applications 12 SP3:kernel-default-base-4.4.82-6.6.1",
            "SUSE Linux Enterprise Server for SAP Applications 12 SP3:kernel-default-devel-4.4.82-6.6.1",
            "SUSE Linux Enterprise Server for SAP Applications 12 SP3:kernel-default-man-4.4.82-6.6.1",
            "SUSE Linux Enterprise Server for SAP Applications 12 SP3:kernel-devel-4.4.82-6.6.1",
            "SUSE Linux Enterprise Server for SAP Applications 12 SP3:kernel-macros-4.4.82-6.6.1",
            "SUSE Linux Enterprise Server for SAP Applications 12 SP3:kernel-source-4.4.82-6.6.1",
            "SUSE Linux Enterprise Server for SAP Applications 12 SP3:kernel-syms-4.4.82-6.6.1",
            "SUSE Linux Enterprise Software Development Kit 12 SP3:kernel-docs-4.4.82-6.6.3",
            "SUSE Linux Enterprise Software Development Kit 12 SP3:kernel-obs-build-4.4.82-6.6.1",
            "SUSE Linux Enterprise Workstation Extension 12 SP3:kernel-default-extra-4.4.82-6.6.1"
          ]
        }
      ],
      "CVSSScoreSets": {
        "BaseScore": "7.9",
        "Vector": "AV:A/AC:M/Au:N/C:C/I:C/A:C"
      }
    }
  ]
}