{
  "id": "GO-2024-2913",
  "modified": "2024-06-14T14:14:17.499490Z",
  "published": "2024-06-14T13:41:08Z",
  "aliases": [
    "CVE-2021-41089",
    "GHSA-v994-f8vw-g7j4"
  ],
  "summary": "`docker cp` allows unexpected chmod of host files in Moby Docker Engine in github.com/docker/docker",
  "details": "`docker cp` allows unexpected chmod of host files in Moby Docker Engine in github.com/docker/docker",
  "affected": [
    {
      "package": {
        "ecosystem": "Go",
        "name": "github.com/docker/docker",
        "purl": "pkg:golang/github.com/docker/docker"
      },
      "ranges": [
        {
          "type": "SEMVER",
          "events": [
            {
              "introduced": "0"
            },
            {
              "fixed": "20.10.9+incompatible"
            }
          ]
        }
      ],
      "database_specific": {
        "source": "https://vuln.go.dev/ID/GO-2024-2913.json"
      }
    }
  ],
  "references": [
    {
      "type": "ADVISORY",
      "url": "https://github.com/moby/moby/security/advisories/GHSA-v994-f8vw-g7j4"
    },
    {
      "type": "ADVISORY",
      "url": "https://nvd.nist.gov/vuln/detail/CVE-2021-41089"
    },
    {
      "type": "WEB",
      "url": "https://cert-portal.siemens.com/productcert/pdf/ssa-222547.pdf"
    },
    {
      "type": "WEB",
      "url": "https://github.com/moby/moby/commit/bce32e5c93be4caf1a592582155b9cb837fc129a"
    },
    {
      "type": "WEB",
      "url": "https://lists.fedoraproject.org/archives/list/package-announce@lists.fedoraproject.org/message/B5Q6G6I4W5COQE25QMC7FJY3I3PAYFBB"
    },
    {
      "type": "WEB",
      "url": "https://lists.fedoraproject.org/archives/list/package-announce@lists.fedoraproject.org/message/ZNFADTCHHYWVM6W4NJ6CB4FNFM2VMBIB"
    }
  ]
}