{
  "Title": "python-2.7.18-25.1 on GA media",
  "Tracking": {
    "ID": "openSUSE-SU-2024:12500-1",
    "Status": "Final",
    "Version": "1",
    "InitialReleaseDate": "2024-06-20T21:44:22Z",
    "CurrentReleaseDate": "2024-06-20T21:44:22Z",
    "RevisionHistory": [
      {
        "Number": "1",
        "Date": "2024-06-20T21:44:22Z",
        "Description": "current"
      }
    ]
  },
  "Notes": [
    {
      "Text": "python-2.7.18-25.1 on GA media",
      "Title": "Topic",
      "Type": "Summary"
    },
    {
      "Text": "These are all security issues fixed in the python-2.7.18-25.1 package on the GA media of openSUSE Tumbleweed.",
      "Title": "Details",
      "Type": "General"
    },
    {
      "Text": "The CVRF data is provided by SUSE under the Creative Commons License 4.0 with Attribution (CC-BY-4.0).",
      "Title": "Terms of Use",
      "Type": "Legal Disclaimer"
    },
    {
      "Text": "openSUSE-Tumbleweed-2024-12500",
      "Title": "Patchnames",
      "Type": "Details"
    }
  ],
  "ProductTree": {
    "Relationships": [
      {
        "ProductReference": "python-2.7.18-25.1",
        "RelatesToProductReference": "openSUSE Tumbleweed",
        "RelationType": "Default Component Of"
      },
      {
        "ProductReference": "python-32bit-2.7.18-25.1",
        "RelatesToProductReference": "openSUSE Tumbleweed",
        "RelationType": "Default Component Of"
      },
      {
        "ProductReference": "python-curses-2.7.18-25.1",
        "RelatesToProductReference": "openSUSE Tumbleweed",
        "RelationType": "Default Component Of"
      },
      {
        "ProductReference": "python-demo-2.7.18-25.1",
        "RelatesToProductReference": "openSUSE Tumbleweed",
        "RelationType": "Default Component Of"
      },
      {
        "ProductReference": "python-gdbm-2.7.18-25.1",
        "RelatesToProductReference": "openSUSE Tumbleweed",
        "RelationType": "Default Component Of"
      },
      {
        "ProductReference": "python-idle-2.7.18-25.1",
        "RelatesToProductReference": "openSUSE Tumbleweed",
        "RelationType": "Default Component Of"
      },
      {
        "ProductReference": "python-tk-2.7.18-25.1",
        "RelatesToProductReference": "openSUSE Tumbleweed",
        "RelationType": "Default Component Of"
      }
    ]
  },
  "References": [
    {
      "URL": "https://www.suse.com/support/security/rating/",
      "Description": "SUSE Security Ratings"
    },
    {
      "URL": "https://www.suse.com/security/cve/CVE-2022-45061/",
      "Description": "SUSE CVE CVE-2022-45061 page"
    }
  ],
  "Vulnerabilities": [
    {
      "CVE": "CVE-2022-45061",
      "Description": "An issue was discovered in Python before 3.11.1. An unnecessary quadratic algorithm exists in one path when processing some inputs to the IDNA (RFC 3490) decoder, such that a crafted, unreasonably long name being presented to the decoder could lead to a CPU denial of service. Hostnames are often supplied by remote servers that could be controlled by a malicious actor; in such a scenario, they could trigger excessive CPU consumption on the client attempting to make use of an attacker-supplied supposed hostname. For example, the attack payload could be placed in the Location header of an HTTP response with status code 302. A fix is planned in 3.11.1, 3.10.9, 3.9.16, 3.8.16, and 3.7.16.",
      "Threats": [
        {
          "Type": "Impact",
          "Severity": "moderate"
        }
      ],
      "References": [
        {
          "URL": "https://www.suse.com/security/cve/CVE-2022-45061.html",
          "Description": "CVE-2022-45061"
        },
        {
          "URL": "https://bugzilla.suse.com/1205244",
          "Description": "SUSE Bug 1205244"
        },
        {
          "URL": "https://bugzilla.suse.com/1211488",
          "Description": "SUSE Bug 1211488"
        }
      ],
      "ProductStatuses": [
        {
          "Type": "Fixed",
          "ProductID": [
            "openSUSE Tumbleweed:python-2.7.18-25.1",
            "openSUSE Tumbleweed:python-32bit-2.7.18-25.1",
            "openSUSE Tumbleweed:python-curses-2.7.18-25.1",
            "openSUSE Tumbleweed:python-demo-2.7.18-25.1",
            "openSUSE Tumbleweed:python-gdbm-2.7.18-25.1",
            "openSUSE Tumbleweed:python-idle-2.7.18-25.1",
            "openSUSE Tumbleweed:python-tk-2.7.18-25.1"
          ]
        }
      ],
      "CVSSScoreSets": {}
    }
  ]
}