{
  "Title": "grub2-2.06-25.1 on GA media",
  "Tracking": {
    "ID": "openSUSE-SU-2024:12137-1",
    "Status": "Final",
    "Version": "1",
    "InitialReleaseDate": "2024-06-20T21:44:22Z",
    "CurrentReleaseDate": "2024-06-20T21:44:22Z",
    "RevisionHistory": [
      {
        "Number": "1",
        "Date": "2024-06-20T21:44:22Z",
        "Description": "current"
      }
    ]
  },
  "Notes": [
    {
      "Text": "grub2-2.06-25.1 on GA media",
      "Title": "Topic",
      "Type": "Summary"
    },
    {
      "Text": "These are all security issues fixed in the grub2-2.06-25.1 package on the GA media of openSUSE Tumbleweed.",
      "Title": "Details",
      "Type": "General"
    },
    {
      "Text": "The CVRF data is provided by SUSE under the Creative Commons License 4.0 with Attribution (CC-BY-4.0).",
      "Title": "Terms of Use",
      "Type": "Legal Disclaimer"
    },
    {
      "Text": "openSUSE-Tumbleweed-2024-12137",
      "Title": "Patchnames",
      "Type": "Details"
    }
  ],
  "ProductTree": {
    "Relationships": [
      {
        "ProductReference": "grub2-2.06-25.1",
        "RelatesToProductReference": "openSUSE Tumbleweed",
        "RelationType": "Default Component Of"
      },
      {
        "ProductReference": "grub2-branding-upstream-2.06-25.1",
        "RelatesToProductReference": "openSUSE Tumbleweed",
        "RelationType": "Default Component Of"
      },
      {
        "ProductReference": "grub2-i386-pc-2.06-25.1",
        "RelatesToProductReference": "openSUSE Tumbleweed",
        "RelationType": "Default Component Of"
      },
      {
        "ProductReference": "grub2-i386-pc-debug-2.06-25.1",
        "RelatesToProductReference": "openSUSE Tumbleweed",
        "RelationType": "Default Component Of"
      },
      {
        "ProductReference": "grub2-snapper-plugin-2.06-25.1",
        "RelatesToProductReference": "openSUSE Tumbleweed",
        "RelationType": "Default Component Of"
      },
      {
        "ProductReference": "grub2-systemd-sleep-plugin-2.06-25.1",
        "RelatesToProductReference": "openSUSE Tumbleweed",
        "RelationType": "Default Component Of"
      },
      {
        "ProductReference": "grub2-x86_64-efi-2.06-25.1",
        "RelatesToProductReference": "openSUSE Tumbleweed",
        "RelationType": "Default Component Of"
      },
      {
        "ProductReference": "grub2-x86_64-efi-debug-2.06-25.1",
        "RelatesToProductReference": "openSUSE Tumbleweed",
        "RelationType": "Default Component Of"
      },
      {
        "ProductReference": "grub2-x86_64-xen-2.06-25.1",
        "RelatesToProductReference": "openSUSE Tumbleweed",
        "RelationType": "Default Component Of"
      }
    ]
  },
  "References": [
    {
      "URL": "https://www.suse.com/support/security/rating/",
      "Description": "SUSE Security Ratings"
    },
    {
      "URL": "https://www.suse.com/security/cve/CVE-2021-3695/",
      "Description": "SUSE CVE CVE-2021-3695 page"
    },
    {
      "URL": "https://www.suse.com/security/cve/CVE-2021-3696/",
      "Description": "SUSE CVE CVE-2021-3696 page"
    },
    {
      "URL": "https://www.suse.com/security/cve/CVE-2021-3697/",
      "Description": "SUSE CVE CVE-2021-3697 page"
    },
    {
      "URL": "https://www.suse.com/security/cve/CVE-2022-28733/",
      "Description": "SUSE CVE CVE-2022-28733 page"
    },
    {
      "URL": "https://www.suse.com/security/cve/CVE-2022-28734/",
      "Description": "SUSE CVE CVE-2022-28734 page"
    },
    {
      "URL": "https://www.suse.com/security/cve/CVE-2022-28735/",
      "Description": "SUSE CVE CVE-2022-28735 page"
    },
    {
      "URL": "https://www.suse.com/security/cve/CVE-2022-28736/",
      "Description": "SUSE CVE CVE-2022-28736 page"
    }
  ],
  "Vulnerabilities": [
    {
      "CVE": "CVE-2021-3695",
      "Description": "A crafted 16-bit grayscale PNG image may lead to a out-of-bounds write in the heap area. An attacker may take advantage of that to cause heap data corruption or eventually arbitrary code execution and circumvent secure boot protections. This issue has a high complexity to be exploited as an attacker needs to perform some triage over the heap layout to achieve signifcant results, also the values written into the memory are repeated three times in a row making difficult to produce valid payloads. This flaw affects grub2 versions prior grub-2.12.",
      "Threats": [
        {
          "Type": "Impact",
          "Severity": "moderate"
        }
      ],
      "References": [
        {
          "URL": "https://www.suse.com/security/cve/CVE-2021-3695.html",
          "Description": "CVE-2021-3695"
        },
        {
          "URL": "https://bugzilla.suse.com/1191184",
          "Description": "SUSE Bug 1191184"
        },
        {
          "URL": "https://bugzilla.suse.com/1203445",
          "Description": "SUSE Bug 1203445"
        },
        {
          "URL": "https://bugzilla.suse.com/1205057",
          "Description": "SUSE Bug 1205057"
        }
      ],
      "ProductStatuses": [
        {
          "Type": "Fixed",
          "ProductID": [
            "openSUSE Tumbleweed:grub2-2.06-25.1",
            "openSUSE Tumbleweed:grub2-branding-upstream-2.06-25.1",
            "openSUSE Tumbleweed:grub2-i386-pc-2.06-25.1",
            "openSUSE Tumbleweed:grub2-i386-pc-debug-2.06-25.1",
            "openSUSE Tumbleweed:grub2-snapper-plugin-2.06-25.1",
            "openSUSE Tumbleweed:grub2-systemd-sleep-plugin-2.06-25.1",
            "openSUSE Tumbleweed:grub2-x86_64-efi-2.06-25.1",
            "openSUSE Tumbleweed:grub2-x86_64-efi-debug-2.06-25.1",
            "openSUSE Tumbleweed:grub2-x86_64-xen-2.06-25.1"
          ]
        }
      ],
      "CVSSScoreSets": {}
    },
    {
      "CVE": "CVE-2021-3696",
      "Description": "A heap out-of-bounds write may heppen during the handling of Huffman tables in the PNG reader. This may lead to data corruption in the heap space. Confidentiality, Integrity and Availablity impact may be considered Low as it's very complex to an attacker control the encoding and positioning of corrupted Huffman entries to achieve results such as arbitrary code execution and/or secure boot circumvention. This flaw affects grub2 versions prior grub-2.12.",
      "Threats": [
        {
          "Type": "Impact",
          "Severity": "moderate"
        }
      ],
      "References": [
        {
          "URL": "https://www.suse.com/security/cve/CVE-2021-3696.html",
          "Description": "CVE-2021-3696"
        },
        {
          "URL": "https://bugzilla.suse.com/1191185",
          "Description": "SUSE Bug 1191185"
        }
      ],
      "ProductStatuses": [
        {
          "Type": "Fixed",
          "ProductID": [
            "openSUSE Tumbleweed:grub2-2.06-25.1",
            "openSUSE Tumbleweed:grub2-branding-upstream-2.06-25.1",
            "openSUSE Tumbleweed:grub2-i386-pc-2.06-25.1",
            "openSUSE Tumbleweed:grub2-i386-pc-debug-2.06-25.1",
            "openSUSE Tumbleweed:grub2-snapper-plugin-2.06-25.1",
            "openSUSE Tumbleweed:grub2-systemd-sleep-plugin-2.06-25.1",
            "openSUSE Tumbleweed:grub2-x86_64-efi-2.06-25.1",
            "openSUSE Tumbleweed:grub2-x86_64-efi-debug-2.06-25.1",
            "openSUSE Tumbleweed:grub2-x86_64-xen-2.06-25.1"
          ]
        }
      ],
      "CVSSScoreSets": {}
    },
    {
      "CVE": "CVE-2021-3697",
      "Description": "A crafted JPEG image may lead the JPEG reader to underflow its data pointer, allowing user-controlled data to be written in heap. To a successful to be performed the attacker needs to perform some triage over the heap layout and craft an image with a malicious format and payload. This vulnerability can lead to data corruption and eventual code execution or secure boot circumvention. This flaw affects grub2 versions prior grub-2.12.",
      "Threats": [
        {
          "Type": "Impact",
          "Severity": "moderate"
        }
      ],
      "References": [
        {
          "URL": "https://www.suse.com/security/cve/CVE-2021-3697.html",
          "Description": "CVE-2021-3697"
        },
        {
          "URL": "https://bugzilla.suse.com/1191186",
          "Description": "SUSE Bug 1191186"
        },
        {
          "URL": "https://bugzilla.suse.com/1203445",
          "Description": "SUSE Bug 1203445"
        },
        {
          "URL": "https://bugzilla.suse.com/1205057",
          "Description": "SUSE Bug 1205057"
        }
      ],
      "ProductStatuses": [
        {
          "Type": "Fixed",
          "ProductID": [
            "openSUSE Tumbleweed:grub2-2.06-25.1",
            "openSUSE Tumbleweed:grub2-branding-upstream-2.06-25.1",
            "openSUSE Tumbleweed:grub2-i386-pc-2.06-25.1",
            "openSUSE Tumbleweed:grub2-i386-pc-debug-2.06-25.1",
            "openSUSE Tumbleweed:grub2-snapper-plugin-2.06-25.1",
            "openSUSE Tumbleweed:grub2-systemd-sleep-plugin-2.06-25.1",
            "openSUSE Tumbleweed:grub2-x86_64-efi-2.06-25.1",
            "openSUSE Tumbleweed:grub2-x86_64-efi-debug-2.06-25.1",
            "openSUSE Tumbleweed:grub2-x86_64-xen-2.06-25.1"
          ]
        }
      ],
      "CVSSScoreSets": {}
    },
    {
      "CVE": "CVE-2022-28733",
      "Description": "Integer underflow in grub_net_recv_ip4_packets; A malicious crafted IP packet can lead to an integer underflow in grub_net_recv_ip4_packets() function on rsm-\u003etotal_len value. Under certain circumstances the total_len value may end up wrapping around to a small integer number which will be used in memory allocation. If the attack succeeds in such way, subsequent operations can write past the end of the buffer.",
      "Threats": [
        {
          "Type": "Impact",
          "Severity": "moderate"
        }
      ],
      "References": [
        {
          "URL": "https://www.suse.com/security/cve/CVE-2022-28733.html",
          "Description": "CVE-2022-28733"
        },
        {
          "URL": "https://bugzilla.suse.com/1198460",
          "Description": "SUSE Bug 1198460"
        },
        {
          "URL": "https://bugzilla.suse.com/1203445",
          "Description": "SUSE Bug 1203445"
        },
        {
          "URL": "https://bugzilla.suse.com/1205057",
          "Description": "SUSE Bug 1205057"
        }
      ],
      "ProductStatuses": [
        {
          "Type": "Fixed",
          "ProductID": [
            "openSUSE Tumbleweed:grub2-2.06-25.1",
            "openSUSE Tumbleweed:grub2-branding-upstream-2.06-25.1",
            "openSUSE Tumbleweed:grub2-i386-pc-2.06-25.1",
            "openSUSE Tumbleweed:grub2-i386-pc-debug-2.06-25.1",
            "openSUSE Tumbleweed:grub2-snapper-plugin-2.06-25.1",
            "openSUSE Tumbleweed:grub2-systemd-sleep-plugin-2.06-25.1",
            "openSUSE Tumbleweed:grub2-x86_64-efi-2.06-25.1",
            "openSUSE Tumbleweed:grub2-x86_64-efi-debug-2.06-25.1",
            "openSUSE Tumbleweed:grub2-x86_64-xen-2.06-25.1"
          ]
        }
      ],
      "CVSSScoreSets": {}
    },
    {
      "CVE": "CVE-2022-28734",
      "Description": "Out-of-bounds write when handling split HTTP headers; When handling split HTTP headers, GRUB2 HTTP code accidentally moves its internal data buffer point by one position. This can lead to a out-of-bound write further when parsing the HTTP request, writing a NULL byte past the buffer. It's conceivable that an attacker controlled set of packets can lead to corruption of the GRUB2's internal memory metadata.",
      "Threats": [
        {
          "Type": "Impact",
          "Severity": "moderate"
        }
      ],
      "References": [
        {
          "URL": "https://www.suse.com/security/cve/CVE-2022-28734.html",
          "Description": "CVE-2022-28734"
        },
        {
          "URL": "https://bugzilla.suse.com/1198493",
          "Description": "SUSE Bug 1198493"
        },
        {
          "URL": "https://bugzilla.suse.com/1203445",
          "Description": "SUSE Bug 1203445"
        }
      ],
      "ProductStatuses": [
        {
          "Type": "Fixed",
          "ProductID": [
            "openSUSE Tumbleweed:grub2-2.06-25.1",
            "openSUSE Tumbleweed:grub2-branding-upstream-2.06-25.1",
            "openSUSE Tumbleweed:grub2-i386-pc-2.06-25.1",
            "openSUSE Tumbleweed:grub2-i386-pc-debug-2.06-25.1",
            "openSUSE Tumbleweed:grub2-snapper-plugin-2.06-25.1",
            "openSUSE Tumbleweed:grub2-systemd-sleep-plugin-2.06-25.1",
            "openSUSE Tumbleweed:grub2-x86_64-efi-2.06-25.1",
            "openSUSE Tumbleweed:grub2-x86_64-efi-debug-2.06-25.1",
            "openSUSE Tumbleweed:grub2-x86_64-xen-2.06-25.1"
          ]
        }
      ],
      "CVSSScoreSets": {}
    },
    {
      "CVE": "CVE-2022-28735",
      "Description": "The GRUB2's shim_lock verifier allows non-kernel files to be loaded on shim-powered secure boot systems. Allowing such files to be loaded may lead to unverified code and modules to be loaded in GRUB2 breaking the secure boot trust-chain.",
      "Threats": [
        {
          "Type": "Impact",
          "Severity": "moderate"
        }
      ],
      "References": [
        {
          "URL": "https://www.suse.com/security/cve/CVE-2022-28735.html",
          "Description": "CVE-2022-28735"
        },
        {
          "URL": "https://bugzilla.suse.com/1198495",
          "Description": "SUSE Bug 1198495"
        }
      ],
      "ProductStatuses": [
        {
          "Type": "Fixed",
          "ProductID": [
            "openSUSE Tumbleweed:grub2-2.06-25.1",
            "openSUSE Tumbleweed:grub2-branding-upstream-2.06-25.1",
            "openSUSE Tumbleweed:grub2-i386-pc-2.06-25.1",
            "openSUSE Tumbleweed:grub2-i386-pc-debug-2.06-25.1",
            "openSUSE Tumbleweed:grub2-snapper-plugin-2.06-25.1",
            "openSUSE Tumbleweed:grub2-systemd-sleep-plugin-2.06-25.1",
            "openSUSE Tumbleweed:grub2-x86_64-efi-2.06-25.1",
            "openSUSE Tumbleweed:grub2-x86_64-efi-debug-2.06-25.1",
            "openSUSE Tumbleweed:grub2-x86_64-xen-2.06-25.1"
          ]
        }
      ],
      "CVSSScoreSets": {}
    },
    {
      "CVE": "CVE-2022-28736",
      "Description": "There's a use-after-free vulnerability in grub_cmd_chainloader() function; The chainloader command is used to boot up operating systems that doesn't support multiboot and do not have direct support from GRUB2. When executing chainloader more than once a use-after-free vulnerability is triggered. If an attacker can control the GRUB2's memory allocation pattern sensitive data may be exposed and arbitrary code execution can be achieved.",
      "Threats": [
        {
          "Type": "Impact",
          "Severity": "moderate"
        }
      ],
      "References": [
        {
          "URL": "https://www.suse.com/security/cve/CVE-2022-28736.html",
          "Description": "CVE-2022-28736"
        },
        {
          "URL": "https://bugzilla.suse.com/1198496",
          "Description": "SUSE Bug 1198496"
        },
        {
          "URL": "https://bugzilla.suse.com/1203445",
          "Description": "SUSE Bug 1203445"
        },
        {
          "URL": "https://bugzilla.suse.com/1205057",
          "Description": "SUSE Bug 1205057"
        }
      ],
      "ProductStatuses": [
        {
          "Type": "Fixed",
          "ProductID": [
            "openSUSE Tumbleweed:grub2-2.06-25.1",
            "openSUSE Tumbleweed:grub2-branding-upstream-2.06-25.1",
            "openSUSE Tumbleweed:grub2-i386-pc-2.06-25.1",
            "openSUSE Tumbleweed:grub2-i386-pc-debug-2.06-25.1",
            "openSUSE Tumbleweed:grub2-snapper-plugin-2.06-25.1",
            "openSUSE Tumbleweed:grub2-systemd-sleep-plugin-2.06-25.1",
            "openSUSE Tumbleweed:grub2-x86_64-efi-2.06-25.1",
            "openSUSE Tumbleweed:grub2-x86_64-efi-debug-2.06-25.1",
            "openSUSE Tumbleweed:grub2-x86_64-xen-2.06-25.1"
          ]
        }
      ],
      "CVSSScoreSets": {}
    }
  ]
}