{
  "Title": "kcoreaddons-5.29.0-1.1 on GA media",
  "Tracking": {
    "ID": "openSUSE-SU-2024:10509-1",
    "Status": "Final",
    "Version": "1",
    "InitialReleaseDate": "2024-06-22T21:44:56Z",
    "CurrentReleaseDate": "2024-06-22T21:44:56Z",
    "RevisionHistory": [
      {
        "Number": "1",
        "Date": "2024-06-22T21:44:56Z",
        "Description": "current"
      }
    ]
  },
  "Notes": [
    {
      "Text": "kcoreaddons-5.29.0-1.1 on GA media",
      "Title": "Topic",
      "Type": "Summary"
    },
    {
      "Text": "These are all security issues fixed in the kcoreaddons-5.29.0-1.1 package on the GA media of openSUSE Tumbleweed.",
      "Title": "Details",
      "Type": "General"
    },
    {
      "Text": "The CVRF data is provided by SUSE under the Creative Commons License 4.0 with Attribution (CC-BY-4.0).",
      "Title": "Terms of Use",
      "Type": "Legal Disclaimer"
    },
    {
      "Text": "openSUSE-Tumbleweed-2024-10509",
      "Title": "Patchnames",
      "Type": "Details"
    }
  ],
  "ProductTree": {
    "Relationships": [
      {
        "ProductReference": "kcoreaddons-5.29.0-1.1",
        "RelatesToProductReference": "openSUSE Tumbleweed",
        "RelationType": "Default Component Of"
      },
      {
        "ProductReference": "kcoreaddons-devel-5.29.0-1.1",
        "RelatesToProductReference": "openSUSE Tumbleweed",
        "RelationType": "Default Component Of"
      },
      {
        "ProductReference": "kcoreaddons-devel-32bit-5.29.0-1.1",
        "RelatesToProductReference": "openSUSE Tumbleweed",
        "RelationType": "Default Component Of"
      },
      {
        "ProductReference": "kcoreaddons-lang-5.29.0-1.1",
        "RelatesToProductReference": "openSUSE Tumbleweed",
        "RelationType": "Default Component Of"
      },
      {
        "ProductReference": "libKF5CoreAddons5-5.29.0-1.1",
        "RelatesToProductReference": "openSUSE Tumbleweed",
        "RelationType": "Default Component Of"
      },
      {
        "ProductReference": "libKF5CoreAddons5-32bit-5.29.0-1.1",
        "RelatesToProductReference": "openSUSE Tumbleweed",
        "RelationType": "Default Component Of"
      }
    ]
  },
  "References": [
    {
      "URL": "https://www.suse.com/support/security/rating/",
      "Description": "SUSE Security Ratings"
    },
    {
      "URL": "https://www.suse.com/security/cve/CVE-2016-7966/",
      "Description": "SUSE CVE CVE-2016-7966 page"
    }
  ],
  "Vulnerabilities": [
    {
      "CVE": "CVE-2016-7966",
      "Description": "Through a malicious URL that contained a quote character it was possible to inject HTML code in KMail's plaintext viewer. Due to the parser used on the URL it was not possible to include the equal sign (=) or a space into the injected HTML, which greatly reduces the available HTML functionality. Although it is possible to include an HTML comment indicator to hide content.",
      "Threats": [
        {
          "Type": "Impact",
          "Severity": "important"
        }
      ],
      "References": [
        {
          "URL": "https://www.suse.com/security/cve/CVE-2016-7966.html",
          "Description": "CVE-2016-7966"
        },
        {
          "URL": "https://bugzilla.suse.com/1002977",
          "Description": "SUSE Bug 1002977"
        }
      ],
      "ProductStatuses": [
        {
          "Type": "Fixed",
          "ProductID": [
            "openSUSE Tumbleweed:kcoreaddons-5.29.0-1.1",
            "openSUSE Tumbleweed:kcoreaddons-devel-32bit-5.29.0-1.1",
            "openSUSE Tumbleweed:kcoreaddons-devel-5.29.0-1.1",
            "openSUSE Tumbleweed:kcoreaddons-lang-5.29.0-1.1",
            "openSUSE Tumbleweed:libKF5CoreAddons5-32bit-5.29.0-1.1",
            "openSUSE Tumbleweed:libKF5CoreAddons5-5.29.0-1.1"
          ]
        }
      ],
      "CVSSScoreSets": {}
    }
  ]
}