{
  "Title": "apache2-mod_perl-2.0.9-5.1 on GA media",
  "Tracking": {
    "ID": "openSUSE-SU-2024:10161-1",
    "Status": "Final",
    "Version": "1",
    "InitialReleaseDate": "2024-06-22T21:44:56Z",
    "CurrentReleaseDate": "2024-06-22T21:44:56Z",
    "RevisionHistory": [
      {
        "Number": "1",
        "Date": "2024-06-22T21:44:56Z",
        "Description": "current"
      }
    ]
  },
  "Notes": [
    {
      "Text": "apache2-mod_perl-2.0.9-5.1 on GA media",
      "Title": "Topic",
      "Type": "Summary"
    },
    {
      "Text": "These are all security issues fixed in the apache2-mod_perl-2.0.9-5.1 package on the GA media of openSUSE Tumbleweed.",
      "Title": "Details",
      "Type": "General"
    },
    {
      "Text": "The CVRF data is provided by SUSE under the Creative Commons License 4.0 with Attribution (CC-BY-4.0).",
      "Title": "Terms of Use",
      "Type": "Legal Disclaimer"
    },
    {
      "Text": "openSUSE-Tumbleweed-2024-10161",
      "Title": "Patchnames",
      "Type": "Details"
    }
  ],
  "ProductTree": {
    "Relationships": [
      {
        "ProductReference": "apache2-mod_perl-2.0.9-5.1",
        "RelatesToProductReference": "openSUSE Tumbleweed",
        "RelationType": "Default Component Of"
      },
      {
        "ProductReference": "apache2-mod_perl-devel-2.0.9-5.1",
        "RelatesToProductReference": "openSUSE Tumbleweed",
        "RelationType": "Default Component Of"
      }
    ]
  },
  "References": [
    {
      "URL": "https://www.suse.com/support/security/rating/",
      "Description": "SUSE Security Ratings"
    },
    {
      "URL": "https://www.suse.com/security/cve/CVE-2013-1667/",
      "Description": "SUSE CVE CVE-2013-1667 page"
    }
  ],
  "Vulnerabilities": [
    {
      "CVE": "CVE-2013-1667",
      "Description": "The rehash mechanism in Perl 5.8.2 through 5.16.x allows context-dependent attackers to cause a denial of service (memory consumption and crash) via a crafted hash key.",
      "Threats": [
        {
          "Type": "Impact",
          "Severity": "moderate"
        }
      ],
      "References": [
        {
          "URL": "https://www.suse.com/security/cve/CVE-2013-1667.html",
          "Description": "CVE-2013-1667"
        },
        {
          "URL": "https://bugzilla.suse.com/804415",
          "Description": "SUSE Bug 804415"
        },
        {
          "URL": "https://bugzilla.suse.com/854385",
          "Description": "SUSE Bug 854385"
        }
      ],
      "ProductStatuses": [
        {
          "Type": "Fixed",
          "ProductID": [
            "openSUSE Tumbleweed:apache2-mod_perl-2.0.9-5.1",
            "openSUSE Tumbleweed:apache2-mod_perl-devel-2.0.9-5.1"
          ]
        }
      ],
      "CVSSScoreSets": {}
    }
  ]
}