{
  "Title": "dnsmasq-2.86-3.1 on GA media",
  "Tracking": {
    "ID": "openSUSE-SU-2024:11653-1",
    "Status": "Final",
    "Version": "1",
    "InitialReleaseDate": "2024-06-22T21:44:56Z",
    "CurrentReleaseDate": "2024-06-22T21:44:56Z",
    "RevisionHistory": [
      {
        "Number": "1",
        "Date": "2024-06-22T21:44:56Z",
        "Description": "current"
      }
    ]
  },
  "Notes": [
    {
      "Text": "dnsmasq-2.86-3.1 on GA media",
      "Title": "Topic",
      "Type": "Summary"
    },
    {
      "Text": "These are all security issues fixed in the dnsmasq-2.86-3.1 package on the GA media of openSUSE Tumbleweed.",
      "Title": "Details",
      "Type": "General"
    },
    {
      "Text": "The CVRF data is provided by SUSE under the Creative Commons License 4.0 with Attribution (CC-BY-4.0).",
      "Title": "Terms of Use",
      "Type": "Legal Disclaimer"
    },
    {
      "Text": "openSUSE-Tumbleweed-2024-11653",
      "Title": "Patchnames",
      "Type": "Details"
    }
  ],
  "ProductTree": {
    "Relationships": [
      {
        "ProductReference": "dnsmasq-2.86-3.1",
        "RelatesToProductReference": "openSUSE Tumbleweed",
        "RelationType": "Default Component Of"
      },
      {
        "ProductReference": "dnsmasq-utils-2.86-3.1",
        "RelatesToProductReference": "openSUSE Tumbleweed",
        "RelationType": "Default Component Of"
      }
    ]
  },
  "References": [
    {
      "URL": "https://www.suse.com/support/security/rating/",
      "Description": "SUSE Security Ratings"
    },
    {
      "URL": "https://www.suse.com/security/cve/CVE-2020-14312/",
      "Description": "SUSE CVE CVE-2020-14312 page"
    }
  ],
  "Vulnerabilities": [
    {
      "CVE": "CVE-2020-14312",
      "Description": "A flaw was found in the default configuration of dnsmasq, as shipped with Fedora versions prior to 31 and in all versions Red Hat Enterprise Linux, where it listens on any interface and accepts queries from addresses outside of its local subnet. In particular, the option `local-service` is not enabled. Running dnsmasq in this manner may inadvertently make it an open resolver accessible from any address on the internet. This flaw allows an attacker to conduct a Distributed Denial of Service (DDoS) against other systems.",
      "Threats": [
        {
          "Type": "Impact",
          "Severity": "low"
        }
      ],
      "References": [
        {
          "URL": "https://www.suse.com/security/cve/CVE-2020-14312.html",
          "Description": "CVE-2020-14312"
        },
        {
          "URL": "https://bugzilla.suse.com/1173646",
          "Description": "SUSE Bug 1173646"
        }
      ],
      "ProductStatuses": [
        {
          "Type": "Fixed",
          "ProductID": [
            "openSUSE Tumbleweed:dnsmasq-2.86-3.1",
            "openSUSE Tumbleweed:dnsmasq-utils-2.86-3.1"
          ]
        }
      ],
      "CVSSScoreSets": {}
    }
  ]
}