{
  "Title": "kubernetes1.22-apiserver-1.22.17-1.1 on GA media",
  "Tracking": {
    "ID": "openSUSE-SU-2024:12737-1",
    "Status": "Final",
    "Version": "1",
    "InitialReleaseDate": "2024-06-20T21:44:22Z",
    "CurrentReleaseDate": "2024-06-20T21:44:22Z",
    "RevisionHistory": [
      {
        "Number": "1",
        "Date": "2024-06-20T21:44:22Z",
        "Description": "current"
      }
    ]
  },
  "Notes": [
    {
      "Text": "kubernetes1.22-apiserver-1.22.17-1.1 on GA media",
      "Title": "Topic",
      "Type": "Summary"
    },
    {
      "Text": "These are all security issues fixed in the kubernetes1.22-apiserver-1.22.17-1.1 package on the GA media of openSUSE Tumbleweed.",
      "Title": "Details",
      "Type": "General"
    },
    {
      "Text": "The CVRF data is provided by SUSE under the Creative Commons License 4.0 with Attribution (CC-BY-4.0).",
      "Title": "Terms of Use",
      "Type": "Legal Disclaimer"
    },
    {
      "Text": "openSUSE-Tumbleweed-2024-12737",
      "Title": "Patchnames",
      "Type": "Details"
    }
  ],
  "ProductTree": {
    "Relationships": [
      {
        "ProductReference": "kubernetes1.22-apiserver-1.22.17-1.1",
        "RelatesToProductReference": "openSUSE Tumbleweed",
        "RelationType": "Default Component Of"
      },
      {
        "ProductReference": "kubernetes1.22-client-1.22.17-1.1",
        "RelatesToProductReference": "openSUSE Tumbleweed",
        "RelationType": "Default Component Of"
      },
      {
        "ProductReference": "kubernetes1.22-client-common-1.22.17-1.1",
        "RelatesToProductReference": "openSUSE Tumbleweed",
        "RelationType": "Default Component Of"
      },
      {
        "ProductReference": "kubernetes1.22-controller-manager-1.22.17-1.1",
        "RelatesToProductReference": "openSUSE Tumbleweed",
        "RelationType": "Default Component Of"
      },
      {
        "ProductReference": "kubernetes1.22-kubeadm-1.22.17-1.1",
        "RelatesToProductReference": "openSUSE Tumbleweed",
        "RelationType": "Default Component Of"
      },
      {
        "ProductReference": "kubernetes1.22-kubelet-1.22.17-1.1",
        "RelatesToProductReference": "openSUSE Tumbleweed",
        "RelationType": "Default Component Of"
      },
      {
        "ProductReference": "kubernetes1.22-kubelet-common-1.22.17-1.1",
        "RelatesToProductReference": "openSUSE Tumbleweed",
        "RelationType": "Default Component Of"
      },
      {
        "ProductReference": "kubernetes1.22-proxy-1.22.17-1.1",
        "RelatesToProductReference": "openSUSE Tumbleweed",
        "RelationType": "Default Component Of"
      },
      {
        "ProductReference": "kubernetes1.22-scheduler-1.22.17-1.1",
        "RelatesToProductReference": "openSUSE Tumbleweed",
        "RelationType": "Default Component Of"
      }
    ]
  },
  "References": [
    {
      "URL": "https://www.suse.com/support/security/rating/",
      "Description": "SUSE Security Ratings"
    },
    {
      "URL": "https://www.suse.com/security/cve/CVE-2022-3294/",
      "Description": "SUSE CVE CVE-2022-3294 page"
    }
  ],
  "Vulnerabilities": [
    {
      "CVE": "CVE-2022-3294",
      "Description": "Users may have access to secure endpoints in the control plane network. Kubernetes clusters are only affected if an untrusted user can modify Node objects and send proxy requests to them. Kubernetes supports node proxying, which allows clients of kube-apiserver to access endpoints of a Kubelet to establish connections to Pods, retrieve container logs, and more. While Kubernetes already validates the proxying address for Nodes, a bug in kube-apiserver made it possible to bypass this validation. Bypassing this validation could allow authenticated requests destined for Nodes to to the API server's private network.",
      "Threats": [
        {
          "Type": "Impact",
          "Severity": "moderate"
        }
      ],
      "References": [
        {
          "URL": "https://www.suse.com/security/cve/CVE-2022-3294.html",
          "Description": "CVE-2022-3294"
        },
        {
          "URL": "https://bugzilla.suse.com/1204387",
          "Description": "SUSE Bug 1204387"
        }
      ],
      "ProductStatuses": [
        {
          "Type": "Fixed",
          "ProductID": [
            "openSUSE Tumbleweed:kubernetes1.22-apiserver-1.22.17-1.1",
            "openSUSE Tumbleweed:kubernetes1.22-client-1.22.17-1.1",
            "openSUSE Tumbleweed:kubernetes1.22-client-common-1.22.17-1.1",
            "openSUSE Tumbleweed:kubernetes1.22-controller-manager-1.22.17-1.1",
            "openSUSE Tumbleweed:kubernetes1.22-kubeadm-1.22.17-1.1",
            "openSUSE Tumbleweed:kubernetes1.22-kubelet-1.22.17-1.1",
            "openSUSE Tumbleweed:kubernetes1.22-kubelet-common-1.22.17-1.1",
            "openSUSE Tumbleweed:kubernetes1.22-proxy-1.22.17-1.1",
            "openSUSE Tumbleweed:kubernetes1.22-scheduler-1.22.17-1.1"
          ]
        }
      ],
      "CVSSScoreSets": {}
    }
  ]
}