{
  "Title": "jakarta-taglibs-standard-1.1.1-257.4 on GA media",
  "Tracking": {
    "ID": "openSUSE-SU-2024:10219-1",
    "Status": "Final",
    "Version": "1",
    "InitialReleaseDate": "2024-06-22T21:44:56Z",
    "CurrentReleaseDate": "2024-06-22T21:44:56Z",
    "RevisionHistory": [
      {
        "Number": "1",
        "Date": "2024-06-22T21:44:56Z",
        "Description": "current"
      }
    ]
  },
  "Notes": [
    {
      "Text": "jakarta-taglibs-standard-1.1.1-257.4 on GA media",
      "Title": "Topic",
      "Type": "Summary"
    },
    {
      "Text": "These are all security issues fixed in the jakarta-taglibs-standard-1.1.1-257.4 package on the GA media of openSUSE Tumbleweed.",
      "Title": "Details",
      "Type": "General"
    },
    {
      "Text": "The CVRF data is provided by SUSE under the Creative Commons License 4.0 with Attribution (CC-BY-4.0).",
      "Title": "Terms of Use",
      "Type": "Legal Disclaimer"
    },
    {
      "Text": "openSUSE-Tumbleweed-2024-10219",
      "Title": "Patchnames",
      "Type": "Details"
    }
  ],
  "ProductTree": {
    "Relationships": [
      {
        "ProductReference": "jakarta-taglibs-standard-1.1.1-257.4",
        "RelatesToProductReference": "openSUSE Tumbleweed",
        "RelationType": "Default Component Of"
      },
      {
        "ProductReference": "jakarta-taglibs-standard-javadoc-1.1.1-257.4",
        "RelatesToProductReference": "openSUSE Tumbleweed",
        "RelationType": "Default Component Of"
      }
    ]
  },
  "References": [
    {
      "URL": "https://www.suse.com/support/security/rating/",
      "Description": "SUSE Security Ratings"
    },
    {
      "URL": "https://www.suse.com/security/cve/CVE-2015-0254/",
      "Description": "SUSE CVE CVE-2015-0254 page"
    }
  ],
  "Vulnerabilities": [
    {
      "CVE": "CVE-2015-0254",
      "Description": "Apache Standard Taglibs before 1.2.3 allows remote attackers to execute arbitrary code or conduct external XML entity (XXE) attacks via a crafted XSLT extension in a (1) \u003cx:parse\u003e or (2) \u003cx:transform\u003e JSTL XML tag.",
      "Threats": [
        {
          "Type": "Impact",
          "Severity": "moderate"
        }
      ],
      "References": [
        {
          "URL": "https://www.suse.com/security/cve/CVE-2015-0254.html",
          "Description": "CVE-2015-0254"
        },
        {
          "URL": "https://bugzilla.suse.com/920813",
          "Description": "SUSE Bug 920813"
        }
      ],
      "ProductStatuses": [
        {
          "Type": "Fixed",
          "ProductID": [
            "openSUSE Tumbleweed:jakarta-taglibs-standard-1.1.1-257.4",
            "openSUSE Tumbleweed:jakarta-taglibs-standard-javadoc-1.1.1-257.4"
          ]
        }
      ],
      "CVSSScoreSets": {
        "BaseScore": "6.8",
        "Vector": "AV:N/AC:M/Au:N/C:P/I:P/A:P"
      }
    }
  ]
}