{
  "Title": "gnutls-3.7.9-1.2 on GA media",
  "Tracking": {
    "ID": "openSUSE-SU-2024:12699-1",
    "Status": "Final",
    "Version": "1",
    "InitialReleaseDate": "2024-06-20T21:44:22Z",
    "CurrentReleaseDate": "2024-06-20T21:44:22Z",
    "RevisionHistory": [
      {
        "Number": "1",
        "Date": "2024-06-20T21:44:22Z",
        "Description": "current"
      }
    ]
  },
  "Notes": [
    {
      "Text": "gnutls-3.7.9-1.2 on GA media",
      "Title": "Topic",
      "Type": "Summary"
    },
    {
      "Text": "These are all security issues fixed in the gnutls-3.7.9-1.2 package on the GA media of openSUSE Tumbleweed.",
      "Title": "Details",
      "Type": "General"
    },
    {
      "Text": "The CVRF data is provided by SUSE under the Creative Commons License 4.0 with Attribution (CC-BY-4.0).",
      "Title": "Terms of Use",
      "Type": "Legal Disclaimer"
    },
    {
      "Text": "openSUSE-Tumbleweed-2024-12699",
      "Title": "Patchnames",
      "Type": "Details"
    }
  ],
  "ProductTree": {
    "Relationships": [
      {
        "ProductReference": "gnutls-3.7.9-1.2",
        "RelatesToProductReference": "openSUSE Tumbleweed",
        "RelationType": "Default Component Of"
      },
      {
        "ProductReference": "gnutls-guile-3.7.9-1.2",
        "RelatesToProductReference": "openSUSE Tumbleweed",
        "RelationType": "Default Component Of"
      },
      {
        "ProductReference": "libgnutls-dane-devel-3.7.9-1.2",
        "RelatesToProductReference": "openSUSE Tumbleweed",
        "RelationType": "Default Component Of"
      },
      {
        "ProductReference": "libgnutls-dane0-3.7.9-1.2",
        "RelatesToProductReference": "openSUSE Tumbleweed",
        "RelationType": "Default Component Of"
      },
      {
        "ProductReference": "libgnutls-devel-3.7.9-1.2",
        "RelatesToProductReference": "openSUSE Tumbleweed",
        "RelationType": "Default Component Of"
      },
      {
        "ProductReference": "libgnutls-devel-32bit-3.7.8-3.1",
        "RelatesToProductReference": "openSUSE Tumbleweed",
        "RelationType": "Default Component Of"
      },
      {
        "ProductReference": "libgnutls30-3.7.9-1.2",
        "RelatesToProductReference": "openSUSE Tumbleweed",
        "RelationType": "Default Component Of"
      },
      {
        "ProductReference": "libgnutls30-32bit-3.7.8-3.1",
        "RelatesToProductReference": "openSUSE Tumbleweed",
        "RelationType": "Default Component Of"
      },
      {
        "ProductReference": "libgnutls30-hmac-3.7.9-1.2",
        "RelatesToProductReference": "openSUSE Tumbleweed",
        "RelationType": "Default Component Of"
      },
      {
        "ProductReference": "libgnutls30-hmac-32bit-3.7.8-3.1",
        "RelatesToProductReference": "openSUSE Tumbleweed",
        "RelationType": "Default Component Of"
      },
      {
        "ProductReference": "libgnutlsxx-devel-3.7.9-1.2",
        "RelatesToProductReference": "openSUSE Tumbleweed",
        "RelationType": "Default Component Of"
      },
      {
        "ProductReference": "libgnutlsxx30-3.7.9-1.2",
        "RelatesToProductReference": "openSUSE Tumbleweed",
        "RelationType": "Default Component Of"
      }
    ]
  },
  "References": [
    {
      "URL": "https://www.suse.com/support/security/rating/",
      "Description": "SUSE Security Ratings"
    },
    {
      "URL": "https://www.suse.com/security/cve/CVE-2023-0361/",
      "Description": "SUSE CVE CVE-2023-0361 page"
    }
  ],
  "Vulnerabilities": [
    {
      "CVE": "CVE-2023-0361",
      "Description": "A timing side-channel in the handling of RSA ClientKeyExchange messages was discovered in GnuTLS. This side-channel can be sufficient to recover the key encrypted in the RSA ciphertext across a network in a Bleichenbacher style attack. To achieve a successful decryption the attacker would need to send a large amount of specially crafted messages to the vulnerable server. By recovering the secret from the ClientKeyExchange message, the attacker would be able to decrypt the application data exchanged over that connection.",
      "Threats": [
        {
          "Type": "Impact",
          "Severity": "moderate"
        }
      ],
      "References": [
        {
          "URL": "https://www.suse.com/security/cve/CVE-2023-0361.html",
          "Description": "CVE-2023-0361"
        },
        {
          "URL": "https://bugzilla.suse.com/1208143",
          "Description": "SUSE Bug 1208143"
        }
      ],
      "ProductStatuses": [
        {
          "Type": "Fixed",
          "ProductID": [
            "openSUSE Tumbleweed:gnutls-3.7.9-1.2",
            "openSUSE Tumbleweed:gnutls-guile-3.7.9-1.2",
            "openSUSE Tumbleweed:libgnutls-dane-devel-3.7.9-1.2",
            "openSUSE Tumbleweed:libgnutls-dane0-3.7.9-1.2",
            "openSUSE Tumbleweed:libgnutls-devel-3.7.9-1.2",
            "openSUSE Tumbleweed:libgnutls-devel-32bit-3.7.8-3.1",
            "openSUSE Tumbleweed:libgnutls30-3.7.9-1.2",
            "openSUSE Tumbleweed:libgnutls30-32bit-3.7.8-3.1",
            "openSUSE Tumbleweed:libgnutls30-hmac-3.7.9-1.2",
            "openSUSE Tumbleweed:libgnutls30-hmac-32bit-3.7.8-3.1",
            "openSUSE Tumbleweed:libgnutlsxx-devel-3.7.9-1.2",
            "openSUSE Tumbleweed:libgnutlsxx30-3.7.9-1.2"
          ]
        }
      ],
      "CVSSScoreSets": {}
    }
  ]
}