{
  "Title": "imobiledevice-tools-1.2.0-3.4 on GA media",
  "Tracking": {
    "ID": "openSUSE-SU-2024:10459-1",
    "Status": "Final",
    "Version": "1",
    "InitialReleaseDate": "2024-06-22T21:44:56Z",
    "CurrentReleaseDate": "2024-06-22T21:44:56Z",
    "RevisionHistory": [
      {
        "Number": "1",
        "Date": "2024-06-22T21:44:56Z",
        "Description": "current"
      }
    ]
  },
  "Notes": [
    {
      "Text": "imobiledevice-tools-1.2.0-3.4 on GA media",
      "Title": "Topic",
      "Type": "Summary"
    },
    {
      "Text": "These are all security issues fixed in the imobiledevice-tools-1.2.0-3.4 package on the GA media of openSUSE Tumbleweed.",
      "Title": "Details",
      "Type": "General"
    },
    {
      "Text": "The CVRF data is provided by SUSE under the Creative Commons License 4.0 with Attribution (CC-BY-4.0).",
      "Title": "Terms of Use",
      "Type": "Legal Disclaimer"
    },
    {
      "Text": "openSUSE-Tumbleweed-2024-10459",
      "Title": "Patchnames",
      "Type": "Details"
    }
  ],
  "ProductTree": {
    "Relationships": [
      {
        "ProductReference": "imobiledevice-tools-1.2.0-3.4",
        "RelatesToProductReference": "openSUSE Tumbleweed",
        "RelationType": "Default Component Of"
      },
      {
        "ProductReference": "libimobiledevice-devel-1.2.0-3.4",
        "RelatesToProductReference": "openSUSE Tumbleweed",
        "RelationType": "Default Component Of"
      },
      {
        "ProductReference": "libimobiledevice-doc-1.2.0-3.4",
        "RelatesToProductReference": "openSUSE Tumbleweed",
        "RelationType": "Default Component Of"
      },
      {
        "ProductReference": "libimobiledevice6-1.2.0-3.4",
        "RelatesToProductReference": "openSUSE Tumbleweed",
        "RelationType": "Default Component Of"
      },
      {
        "ProductReference": "libimobiledevice6-32bit-1.2.0-3.4",
        "RelatesToProductReference": "openSUSE Tumbleweed",
        "RelationType": "Default Component Of"
      },
      {
        "ProductReference": "python-imobiledevice-1.2.0-3.4",
        "RelatesToProductReference": "openSUSE Tumbleweed",
        "RelationType": "Default Component Of"
      }
    ]
  },
  "References": [
    {
      "URL": "https://www.suse.com/support/security/rating/",
      "Description": "SUSE Security Ratings"
    },
    {
      "URL": "https://www.suse.com/security/cve/CVE-2013-2142/",
      "Description": "SUSE CVE CVE-2013-2142 page"
    },
    {
      "URL": "https://www.suse.com/security/cve/CVE-2016-5104/",
      "Description": "SUSE CVE CVE-2016-5104 page"
    }
  ],
  "Vulnerabilities": [
    {
      "CVE": "CVE-2013-2142",
      "Description": "userpref.c in libimobiledevice 1.1.4, when $HOME and $XDG_CONFIG_HOME are not set, allows local users to overwrite arbitrary files via a symlink attack on (1) HostCertificate.pem, (2) HostPrivateKey.pem, (3) libimobiledevicerc, (4) RootCertificate.pem, or (5) RootPrivateKey.pem in /tmp/root/.config/libimobiledevice/.",
      "Threats": [
        {
          "Type": "Impact",
          "Severity": "moderate"
        }
      ],
      "References": [
        {
          "URL": "https://www.suse.com/security/cve/CVE-2013-2142.html",
          "Description": "CVE-2013-2142"
        },
        {
          "URL": "https://bugzilla.suse.com/823250",
          "Description": "SUSE Bug 823250"
        }
      ],
      "ProductStatuses": [
        {
          "Type": "Fixed",
          "ProductID": [
            "openSUSE Tumbleweed:imobiledevice-tools-1.2.0-3.4",
            "openSUSE Tumbleweed:libimobiledevice-devel-1.2.0-3.4",
            "openSUSE Tumbleweed:libimobiledevice-doc-1.2.0-3.4",
            "openSUSE Tumbleweed:libimobiledevice6-1.2.0-3.4",
            "openSUSE Tumbleweed:libimobiledevice6-32bit-1.2.0-3.4",
            "openSUSE Tumbleweed:python-imobiledevice-1.2.0-3.4"
          ]
        }
      ],
      "CVSSScoreSets": {}
    },
    {
      "CVE": "CVE-2016-5104",
      "Description": "The socket_create function in common/socket.c in libimobiledevice and libusbmuxd allows remote attackers to bypass intended access restrictions and communicate with services on iOS devices by connecting to an IPv4 TCP socket.",
      "Threats": [
        {
          "Type": "Impact",
          "Severity": "moderate"
        }
      ],
      "References": [
        {
          "URL": "https://www.suse.com/security/cve/CVE-2016-5104.html",
          "Description": "CVE-2016-5104"
        },
        {
          "URL": "https://bugzilla.suse.com/982014",
          "Description": "SUSE Bug 982014"
        }
      ],
      "ProductStatuses": [
        {
          "Type": "Fixed",
          "ProductID": [
            "openSUSE Tumbleweed:imobiledevice-tools-1.2.0-3.4",
            "openSUSE Tumbleweed:libimobiledevice-devel-1.2.0-3.4",
            "openSUSE Tumbleweed:libimobiledevice-doc-1.2.0-3.4",
            "openSUSE Tumbleweed:libimobiledevice6-1.2.0-3.4",
            "openSUSE Tumbleweed:libimobiledevice6-32bit-1.2.0-3.4",
            "openSUSE Tumbleweed:python-imobiledevice-1.2.0-3.4"
          ]
        }
      ],
      "CVSSScoreSets": {
        "BaseScore": "6.8",
        "Vector": "AV:N/AC:M/Au:N/C:P/I:P/A:P"
      }
    }
  ]
}