{
  "Title": "fossil-2.16-1.2 on GA media",
  "Tracking": {
    "ID": "openSUSE-SU-2024:10764-1",
    "Status": "Final",
    "Version": "1",
    "InitialReleaseDate": "2024-06-22T21:44:56Z",
    "CurrentReleaseDate": "2024-06-22T21:44:56Z",
    "RevisionHistory": [
      {
        "Number": "1",
        "Date": "2024-06-22T21:44:56Z",
        "Description": "current"
      }
    ]
  },
  "Notes": [
    {
      "Text": "fossil-2.16-1.2 on GA media",
      "Title": "Topic",
      "Type": "Summary"
    },
    {
      "Text": "These are all security issues fixed in the fossil-2.16-1.2 package on the GA media of openSUSE Tumbleweed.",
      "Title": "Details",
      "Type": "General"
    },
    {
      "Text": "The CVRF data is provided by SUSE under the Creative Commons License 4.0 with Attribution (CC-BY-4.0).",
      "Title": "Terms of Use",
      "Type": "Legal Disclaimer"
    },
    {
      "Text": "openSUSE-Tumbleweed-2024-10764",
      "Title": "Patchnames",
      "Type": "Details"
    }
  ],
  "ProductTree": {
    "Relationships": [
      {
        "ProductReference": "fossil-2.16-1.2",
        "RelatesToProductReference": "openSUSE Tumbleweed",
        "RelationType": "Default Component Of"
      }
    ]
  },
  "References": [
    {
      "URL": "https://www.suse.com/support/security/rating/",
      "Description": "SUSE Security Ratings"
    },
    {
      "URL": "https://www.suse.com/security/cve/CVE-2017-17459/",
      "Description": "SUSE CVE CVE-2017-17459 page"
    },
    {
      "URL": "https://www.suse.com/security/cve/CVE-2020-24614/",
      "Description": "SUSE CVE CVE-2020-24614 page"
    }
  ],
  "Vulnerabilities": [
    {
      "CVE": "CVE-2017-17459",
      "Description": "http_transport.c in Fossil before 2.4, when the SSH sync protocol is used, allows user-assisted remote attackers to execute arbitrary commands via an ssh URL with an initial dash character in the hostname, a related issue to CVE-2017-9800, CVE-2017-12836, CVE-2017-12976, CVE-2017-14176, CVE-2017-16228, CVE-2017-1000116, and CVE-2017-1000117.",
      "Threats": [
        {
          "Type": "Impact",
          "Severity": "moderate"
        }
      ],
      "References": [
        {
          "URL": "https://www.suse.com/security/cve/CVE-2017-17459.html",
          "Description": "CVE-2017-17459"
        },
        {
          "URL": "https://bugzilla.suse.com/1071709",
          "Description": "SUSE Bug 1071709"
        }
      ],
      "ProductStatuses": [
        {
          "Type": "Fixed",
          "ProductID": [
            "openSUSE Tumbleweed:fossil-2.16-1.2"
          ]
        }
      ],
      "CVSSScoreSets": {}
    },
    {
      "CVE": "CVE-2020-24614",
      "Description": "Fossil before 2.10.2, 2.11.x before 2.11.2, and 2.12.x before 2.12.1 allows remote authenticated users to execute arbitrary code. An attacker must have check-in privileges on the repository.",
      "Threats": [
        {
          "Type": "Impact",
          "Severity": "moderate"
        }
      ],
      "References": [
        {
          "URL": "https://www.suse.com/security/cve/CVE-2020-24614.html",
          "Description": "CVE-2020-24614"
        },
        {
          "URL": "https://bugzilla.suse.com/1175760",
          "Description": "SUSE Bug 1175760"
        }
      ],
      "ProductStatuses": [
        {
          "Type": "Fixed",
          "ProductID": [
            "openSUSE Tumbleweed:fossil-2.16-1.2"
          ]
        }
      ],
      "CVSSScoreSets": {}
    }
  ]
}