{
  "Title": "libcrypto47-3.4.3-1.1 on GA media",
  "Tracking": {
    "ID": "openSUSE-SU-2024:11944-1",
    "Status": "Final",
    "Version": "1",
    "InitialReleaseDate": "2024-06-22T21:44:56Z",
    "CurrentReleaseDate": "2024-06-22T21:44:56Z",
    "RevisionHistory": [
      {
        "Number": "1",
        "Date": "2024-06-22T21:44:56Z",
        "Description": "current"
      }
    ]
  },
  "Notes": [
    {
      "Text": "libcrypto47-3.4.3-1.1 on GA media",
      "Title": "Topic",
      "Type": "Summary"
    },
    {
      "Text": "These are all security issues fixed in the libcrypto47-3.4.3-1.1 package on the GA media of openSUSE Tumbleweed.",
      "Title": "Details",
      "Type": "General"
    },
    {
      "Text": "The CVRF data is provided by SUSE under the Creative Commons License 4.0 with Attribution (CC-BY-4.0).",
      "Title": "Terms of Use",
      "Type": "Legal Disclaimer"
    },
    {
      "Text": "openSUSE-Tumbleweed-2024-11944",
      "Title": "Patchnames",
      "Type": "Details"
    }
  ],
  "ProductTree": {
    "Relationships": [
      {
        "ProductReference": "libcrypto47-3.4.3-1.1",
        "RelatesToProductReference": "openSUSE Tumbleweed",
        "RelationType": "Default Component Of"
      },
      {
        "ProductReference": "libcrypto47-32bit-3.4.3-1.1",
        "RelatesToProductReference": "openSUSE Tumbleweed",
        "RelationType": "Default Component Of"
      },
      {
        "ProductReference": "libressl-3.4.3-1.1",
        "RelatesToProductReference": "openSUSE Tumbleweed",
        "RelationType": "Default Component Of"
      },
      {
        "ProductReference": "libressl-devel-3.4.3-1.1",
        "RelatesToProductReference": "openSUSE Tumbleweed",
        "RelationType": "Default Component Of"
      },
      {
        "ProductReference": "libressl-devel-32bit-3.4.3-1.1",
        "RelatesToProductReference": "openSUSE Tumbleweed",
        "RelationType": "Default Component Of"
      },
      {
        "ProductReference": "libressl-devel-doc-3.4.3-1.1",
        "RelatesToProductReference": "openSUSE Tumbleweed",
        "RelationType": "Default Component Of"
      },
      {
        "ProductReference": "libssl50-3.4.3-1.1",
        "RelatesToProductReference": "openSUSE Tumbleweed",
        "RelationType": "Default Component Of"
      },
      {
        "ProductReference": "libssl50-32bit-3.4.3-1.1",
        "RelatesToProductReference": "openSUSE Tumbleweed",
        "RelationType": "Default Component Of"
      },
      {
        "ProductReference": "libtls22-3.4.3-1.1",
        "RelatesToProductReference": "openSUSE Tumbleweed",
        "RelationType": "Default Component Of"
      },
      {
        "ProductReference": "libtls22-32bit-3.4.3-1.1",
        "RelatesToProductReference": "openSUSE Tumbleweed",
        "RelationType": "Default Component Of"
      }
    ]
  },
  "References": [
    {
      "URL": "https://www.suse.com/support/security/rating/",
      "Description": "SUSE Security Ratings"
    },
    {
      "URL": "https://www.suse.com/security/cve/CVE-2022-0778/",
      "Description": "SUSE CVE CVE-2022-0778 page"
    }
  ],
  "Vulnerabilities": [
    {
      "CVE": "CVE-2022-0778",
      "Description": "The BN_mod_sqrt() function, which computes a modular square root, contains a bug that can cause it to loop forever for non-prime moduli. Internally this function is used when parsing certificates that contain elliptic curve public keys in compressed form or explicit elliptic curve parameters with a base point encoded in compressed form. It is possible to trigger the infinite loop by crafting a certificate that has invalid explicit curve parameters. Since certificate parsing happens prior to verification of the certificate signature, any process that parses an externally supplied certificate may thus be subject to a denial of service attack. The infinite loop can also be reached when parsing crafted private keys as they can contain explicit elliptic curve parameters. Thus vulnerable situations include: - TLS clients consuming server certificates - TLS servers consuming client certificates - Hosting providers taking certificates or private keys from customers - Certificate authorities parsing certification requests from subscribers - Anything else which parses ASN.1 elliptic curve parameters Also any other applications that use the BN_mod_sqrt() where the attacker can control the parameter values are vulnerable to this DoS issue. In the OpenSSL 1.0.2 version the public key is not parsed during initial parsing of the certificate which makes it slightly harder to trigger the infinite loop. However any operation which requires the public key from the certificate will trigger the infinite loop. In particular the attacker can use a self-signed certificate to trigger the loop during verification of the certificate signature. This issue affects OpenSSL versions 1.0.2, 1.1.1 and 3.0. It was addressed in the releases of 1.1.1n and 3.0.2 on the 15th March 2022. Fixed in OpenSSL 3.0.2 (Affected 3.0.0,3.0.1). Fixed in OpenSSL 1.1.1n (Affected 1.1.1-1.1.1m). Fixed in OpenSSL 1.0.2zd (Affected 1.0.2-1.0.2zc).",
      "Threats": [
        {
          "Type": "Impact",
          "Severity": "important"
        }
      ],
      "References": [
        {
          "URL": "https://www.suse.com/security/cve/CVE-2022-0778.html",
          "Description": "CVE-2022-0778"
        },
        {
          "URL": "https://bugzilla.suse.com/1196877",
          "Description": "SUSE Bug 1196877"
        },
        {
          "URL": "https://bugzilla.suse.com/1197328",
          "Description": "SUSE Bug 1197328"
        },
        {
          "URL": "https://bugzilla.suse.com/1197340",
          "Description": "SUSE Bug 1197340"
        },
        {
          "URL": "https://bugzilla.suse.com/1199100",
          "Description": "SUSE Bug 1199100"
        },
        {
          "URL": "https://bugzilla.suse.com/1199254",
          "Description": "SUSE Bug 1199254"
        },
        {
          "URL": "https://bugzilla.suse.com/1199303",
          "Description": "SUSE Bug 1199303"
        },
        {
          "URL": "https://bugzilla.suse.com/1199339",
          "Description": "SUSE Bug 1199339"
        },
        {
          "URL": "https://bugzilla.suse.com/1200090",
          "Description": "SUSE Bug 1200090"
        }
      ],
      "ProductStatuses": [
        {
          "Type": "Fixed",
          "ProductID": [
            "openSUSE Tumbleweed:libcrypto47-3.4.3-1.1",
            "openSUSE Tumbleweed:libcrypto47-32bit-3.4.3-1.1",
            "openSUSE Tumbleweed:libressl-3.4.3-1.1",
            "openSUSE Tumbleweed:libressl-devel-3.4.3-1.1",
            "openSUSE Tumbleweed:libressl-devel-32bit-3.4.3-1.1",
            "openSUSE Tumbleweed:libressl-devel-doc-3.4.3-1.1",
            "openSUSE Tumbleweed:libssl50-3.4.3-1.1",
            "openSUSE Tumbleweed:libssl50-32bit-3.4.3-1.1",
            "openSUSE Tumbleweed:libtls22-3.4.3-1.1",
            "openSUSE Tumbleweed:libtls22-32bit-3.4.3-1.1"
          ]
        }
      ],
      "CVSSScoreSets": {}
    }
  ]
}