{
  "Title": "go1.20-1.20.11-1.1 on GA media",
  "Tracking": {
    "ID": "openSUSE-SU-2024:13406-1",
    "Status": "Final",
    "Version": "1",
    "InitialReleaseDate": "2024-06-20T21:44:22Z",
    "CurrentReleaseDate": "2024-06-20T21:44:22Z",
    "RevisionHistory": [
      {
        "Number": "1",
        "Date": "2024-06-20T21:44:22Z",
        "Description": "current"
      }
    ]
  },
  "Notes": [
    {
      "Text": "go1.20-1.20.11-1.1 on GA media",
      "Title": "Topic",
      "Type": "Summary"
    },
    {
      "Text": "These are all security issues fixed in the go1.20-1.20.11-1.1 package on the GA media of openSUSE Tumbleweed.",
      "Title": "Details",
      "Type": "General"
    },
    {
      "Text": "The CVRF data is provided by SUSE under the Creative Commons License 4.0 with Attribution (CC-BY-4.0).",
      "Title": "Terms of Use",
      "Type": "Legal Disclaimer"
    },
    {
      "Text": "openSUSE-Tumbleweed-2024-13406",
      "Title": "Patchnames",
      "Type": "Details"
    }
  ],
  "ProductTree": {
    "Relationships": [
      {
        "ProductReference": "go1.20-1.20.11-1.1",
        "RelatesToProductReference": "openSUSE Tumbleweed",
        "RelationType": "Default Component Of"
      },
      {
        "ProductReference": "go1.20-doc-1.20.11-1.1",
        "RelatesToProductReference": "openSUSE Tumbleweed",
        "RelationType": "Default Component Of"
      },
      {
        "ProductReference": "go1.20-libstd-1.20.11-1.1",
        "RelatesToProductReference": "openSUSE Tumbleweed",
        "RelationType": "Default Component Of"
      },
      {
        "ProductReference": "go1.20-race-1.20.11-1.1",
        "RelatesToProductReference": "openSUSE Tumbleweed",
        "RelationType": "Default Component Of"
      }
    ]
  },
  "References": [
    {
      "URL": "https://www.suse.com/support/security/rating/",
      "Description": "SUSE Security Ratings"
    },
    {
      "URL": "https://www.suse.com/security/cve/CVE-2023-45283/",
      "Description": "SUSE CVE CVE-2023-45283 page"
    }
  ],
  "Vulnerabilities": [
    {
      "CVE": "CVE-2023-45283",
      "Description": "The filepath package does not recognize paths with a \\??\\ prefix as special. On Windows, a path beginning with \\??\\ is a Root Local Device path equivalent to a path beginning with \\\\?\\. Paths with a \\??\\ prefix may be used to access arbitrary locations on the system. For example, the path \\??\\c:\\x is equivalent to the more common path c:\\x. Before fix, Clean could convert a rooted path such as \\a\\..\\??\\b into the root local device path \\??\\b. Clean will now convert this to .\\??\\b. Similarly, Join(\\, ??, b) could convert a seemingly innocent sequence of path elements into the root local device path \\??\\b. Join will now convert this to \\.\\??\\b. In addition, with fix, IsAbs now correctly reports paths beginning with \\??\\ as absolute, and VolumeName correctly reports the \\??\\ prefix as a volume name. UPDATE: Go 1.20.11 and Go 1.21.4 inadvertently changed the definition of the volume name in Windows paths starting with \\?, resulting in filepath.Clean(\\?\\c:) returning \\?\\c: rather than \\?\\c:\\ (among other effects). The previous behavior has been restored.",
      "Threats": [
        {
          "Type": "Impact",
          "Severity": "moderate"
        }
      ],
      "References": [
        {
          "URL": "https://www.suse.com/security/cve/CVE-2023-45283.html",
          "Description": "CVE-2023-45283"
        },
        {
          "URL": "https://bugzilla.suse.com/1216943",
          "Description": "SUSE Bug 1216943"
        }
      ],
      "ProductStatuses": [
        {
          "Type": "Fixed",
          "ProductID": [
            "openSUSE Tumbleweed:go1.20-1.20.11-1.1",
            "openSUSE Tumbleweed:go1.20-doc-1.20.11-1.1",
            "openSUSE Tumbleweed:go1.20-libstd-1.20.11-1.1",
            "openSUSE Tumbleweed:go1.20-race-1.20.11-1.1"
          ]
        }
      ],
      "CVSSScoreSets": {}
    }
  ]
}