{
  "Title": "qemu-6.2.0-41.1 on GA media",
  "Tracking": {
    "ID": "openSUSE-SU-2024:11907-1",
    "Status": "Final",
    "Version": "1",
    "InitialReleaseDate": "2024-06-22T21:44:56Z",
    "CurrentReleaseDate": "2024-06-22T21:44:56Z",
    "RevisionHistory": [
      {
        "Number": "1",
        "Date": "2024-06-22T21:44:56Z",
        "Description": "current"
      }
    ]
  },
  "Notes": [
    {
      "Text": "qemu-6.2.0-41.1 on GA media",
      "Title": "Topic",
      "Type": "Summary"
    },
    {
      "Text": "These are all security issues fixed in the qemu-6.2.0-41.1 package on the GA media of openSUSE Tumbleweed.",
      "Title": "Details",
      "Type": "General"
    },
    {
      "Text": "The CVRF data is provided by SUSE under the Creative Commons License 4.0 with Attribution (CC-BY-4.0).",
      "Title": "Terms of Use",
      "Type": "Legal Disclaimer"
    },
    {
      "Text": "openSUSE-Tumbleweed-2024-11907",
      "Title": "Patchnames",
      "Type": "Details"
    }
  ],
  "ProductTree": {
    "Relationships": [
      {
        "ProductReference": "qemu-6.2.0-41.1",
        "RelatesToProductReference": "openSUSE Tumbleweed",
        "RelationType": "Default Component Of"
      },
      {
        "ProductReference": "qemu-SLOF-6.2.0-41.1",
        "RelatesToProductReference": "openSUSE Tumbleweed",
        "RelationType": "Default Component Of"
      },
      {
        "ProductReference": "qemu-accel-qtest-6.2.0-41.1",
        "RelatesToProductReference": "openSUSE Tumbleweed",
        "RelationType": "Default Component Of"
      },
      {
        "ProductReference": "qemu-accel-tcg-x86-6.2.0-41.1",
        "RelatesToProductReference": "openSUSE Tumbleweed",
        "RelationType": "Default Component Of"
      },
      {
        "ProductReference": "qemu-arm-6.2.0-41.1",
        "RelatesToProductReference": "openSUSE Tumbleweed",
        "RelationType": "Default Component Of"
      },
      {
        "ProductReference": "qemu-audio-alsa-6.2.0-41.1",
        "RelatesToProductReference": "openSUSE Tumbleweed",
        "RelationType": "Default Component Of"
      },
      {
        "ProductReference": "qemu-audio-jack-6.2.0-41.1",
        "RelatesToProductReference": "openSUSE Tumbleweed",
        "RelationType": "Default Component Of"
      },
      {
        "ProductReference": "qemu-audio-oss-6.2.0-41.1",
        "RelatesToProductReference": "openSUSE Tumbleweed",
        "RelationType": "Default Component Of"
      },
      {
        "ProductReference": "qemu-audio-pa-6.2.0-41.1",
        "RelatesToProductReference": "openSUSE Tumbleweed",
        "RelationType": "Default Component Of"
      },
      {
        "ProductReference": "qemu-audio-spice-6.2.0-41.1",
        "RelatesToProductReference": "openSUSE Tumbleweed",
        "RelationType": "Default Component Of"
      },
      {
        "ProductReference": "qemu-block-curl-6.2.0-41.1",
        "RelatesToProductReference": "openSUSE Tumbleweed",
        "RelationType": "Default Component Of"
      },
      {
        "ProductReference": "qemu-block-dmg-6.2.0-41.1",
        "RelatesToProductReference": "openSUSE Tumbleweed",
        "RelationType": "Default Component Of"
      },
      {
        "ProductReference": "qemu-block-gluster-6.2.0-41.1",
        "RelatesToProductReference": "openSUSE Tumbleweed",
        "RelationType": "Default Component Of"
      },
      {
        "ProductReference": "qemu-block-iscsi-6.2.0-41.1",
        "RelatesToProductReference": "openSUSE Tumbleweed",
        "RelationType": "Default Component Of"
      },
      {
        "ProductReference": "qemu-block-nfs-6.2.0-41.1",
        "RelatesToProductReference": "openSUSE Tumbleweed",
        "RelationType": "Default Component Of"
      },
      {
        "ProductReference": "qemu-block-rbd-6.2.0-41.1",
        "RelatesToProductReference": "openSUSE Tumbleweed",
        "RelationType": "Default Component Of"
      },
      {
        "ProductReference": "qemu-block-ssh-6.2.0-41.1",
        "RelatesToProductReference": "openSUSE Tumbleweed",
        "RelationType": "Default Component Of"
      },
      {
        "ProductReference": "qemu-chardev-baum-6.2.0-41.1",
        "RelatesToProductReference": "openSUSE Tumbleweed",
        "RelationType": "Default Component Of"
      },
      {
        "ProductReference": "qemu-chardev-spice-6.2.0-41.1",
        "RelatesToProductReference": "openSUSE Tumbleweed",
        "RelationType": "Default Component Of"
      },
      {
        "ProductReference": "qemu-extra-6.2.0-41.1",
        "RelatesToProductReference": "openSUSE Tumbleweed",
        "RelationType": "Default Component Of"
      },
      {
        "ProductReference": "qemu-guest-agent-6.2.0-41.1",
        "RelatesToProductReference": "openSUSE Tumbleweed",
        "RelationType": "Default Component Of"
      },
      {
        "ProductReference": "qemu-hw-display-qxl-6.2.0-41.1",
        "RelatesToProductReference": "openSUSE Tumbleweed",
        "RelationType": "Default Component Of"
      },
      {
        "ProductReference": "qemu-hw-display-virtio-gpu-6.2.0-41.1",
        "RelatesToProductReference": "openSUSE Tumbleweed",
        "RelationType": "Default Component Of"
      },
      {
        "ProductReference": "qemu-hw-display-virtio-gpu-pci-6.2.0-41.1",
        "RelatesToProductReference": "openSUSE Tumbleweed",
        "RelationType": "Default Component Of"
      },
      {
        "ProductReference": "qemu-hw-display-virtio-vga-6.2.0-41.1",
        "RelatesToProductReference": "openSUSE Tumbleweed",
        "RelationType": "Default Component Of"
      },
      {
        "ProductReference": "qemu-hw-s390x-virtio-gpu-ccw-6.2.0-41.1",
        "RelatesToProductReference": "openSUSE Tumbleweed",
        "RelationType": "Default Component Of"
      },
      {
        "ProductReference": "qemu-hw-usb-host-6.2.0-41.1",
        "RelatesToProductReference": "openSUSE Tumbleweed",
        "RelationType": "Default Component Of"
      },
      {
        "ProductReference": "qemu-hw-usb-redirect-6.2.0-41.1",
        "RelatesToProductReference": "openSUSE Tumbleweed",
        "RelationType": "Default Component Of"
      },
      {
        "ProductReference": "qemu-hw-usb-smartcard-6.2.0-41.1",
        "RelatesToProductReference": "openSUSE Tumbleweed",
        "RelationType": "Default Component Of"
      },
      {
        "ProductReference": "qemu-ipxe-1.0.0+-41.1",
        "RelatesToProductReference": "openSUSE Tumbleweed",
        "RelationType": "Default Component Of"
      },
      {
        "ProductReference": "qemu-ivshmem-tools-6.2.0-41.1",
        "RelatesToProductReference": "openSUSE Tumbleweed",
        "RelationType": "Default Component Of"
      },
      {
        "ProductReference": "qemu-ksm-6.2.0-41.1",
        "RelatesToProductReference": "openSUSE Tumbleweed",
        "RelationType": "Default Component Of"
      },
      {
        "ProductReference": "qemu-kvm-6.2.0-41.1",
        "RelatesToProductReference": "openSUSE Tumbleweed",
        "RelationType": "Default Component Of"
      },
      {
        "ProductReference": "qemu-lang-6.2.0-41.1",
        "RelatesToProductReference": "openSUSE Tumbleweed",
        "RelationType": "Default Component Of"
      },
      {
        "ProductReference": "qemu-microvm-6.2.0-41.1",
        "RelatesToProductReference": "openSUSE Tumbleweed",
        "RelationType": "Default Component Of"
      },
      {
        "ProductReference": "qemu-ppc-6.2.0-41.1",
        "RelatesToProductReference": "openSUSE Tumbleweed",
        "RelationType": "Default Component Of"
      },
      {
        "ProductReference": "qemu-s390x-6.2.0-41.1",
        "RelatesToProductReference": "openSUSE Tumbleweed",
        "RelationType": "Default Component Of"
      },
      {
        "ProductReference": "qemu-seabios-1.15.0_0_g2dd4b9b-41.1",
        "RelatesToProductReference": "openSUSE Tumbleweed",
        "RelationType": "Default Component Of"
      },
      {
        "ProductReference": "qemu-sgabios-8-41.1",
        "RelatesToProductReference": "openSUSE Tumbleweed",
        "RelationType": "Default Component Of"
      },
      {
        "ProductReference": "qemu-skiboot-6.2.0-41.1",
        "RelatesToProductReference": "openSUSE Tumbleweed",
        "RelationType": "Default Component Of"
      },
      {
        "ProductReference": "qemu-tools-6.2.0-41.1",
        "RelatesToProductReference": "openSUSE Tumbleweed",
        "RelationType": "Default Component Of"
      },
      {
        "ProductReference": "qemu-ui-curses-6.2.0-41.1",
        "RelatesToProductReference": "openSUSE Tumbleweed",
        "RelationType": "Default Component Of"
      },
      {
        "ProductReference": "qemu-ui-gtk-6.2.0-41.1",
        "RelatesToProductReference": "openSUSE Tumbleweed",
        "RelationType": "Default Component Of"
      },
      {
        "ProductReference": "qemu-ui-opengl-6.2.0-41.1",
        "RelatesToProductReference": "openSUSE Tumbleweed",
        "RelationType": "Default Component Of"
      },
      {
        "ProductReference": "qemu-ui-spice-app-6.2.0-41.1",
        "RelatesToProductReference": "openSUSE Tumbleweed",
        "RelationType": "Default Component Of"
      },
      {
        "ProductReference": "qemu-ui-spice-core-6.2.0-41.1",
        "RelatesToProductReference": "openSUSE Tumbleweed",
        "RelationType": "Default Component Of"
      },
      {
        "ProductReference": "qemu-vgabios-1.15.0_0_g2dd4b9b-41.1",
        "RelatesToProductReference": "openSUSE Tumbleweed",
        "RelationType": "Default Component Of"
      },
      {
        "ProductReference": "qemu-vhost-user-gpu-6.2.0-41.1",
        "RelatesToProductReference": "openSUSE Tumbleweed",
        "RelationType": "Default Component Of"
      },
      {
        "ProductReference": "qemu-x86-6.2.0-41.1",
        "RelatesToProductReference": "openSUSE Tumbleweed",
        "RelationType": "Default Component Of"
      }
    ]
  },
  "References": [
    {
      "URL": "https://www.suse.com/support/security/rating/",
      "Description": "SUSE Security Ratings"
    },
    {
      "URL": "https://www.suse.com/security/cve/CVE-2020-35503/",
      "Description": "SUSE CVE CVE-2020-35503 page"
    },
    {
      "URL": "https://www.suse.com/security/cve/CVE-2022-0358/",
      "Description": "SUSE CVE CVE-2022-0358 page"
    }
  ],
  "Vulnerabilities": [
    {
      "CVE": "CVE-2020-35503",
      "Description": "A NULL pointer dereference flaw was found in the megasas-gen2 SCSI host bus adapter emulation of QEMU in versions before and including 6.0. This issue occurs in the megasas_command_cancelled() callback function while dropping a SCSI request. This flaw allows a privileged guest user to crash the QEMU process on the host, resulting in a denial of service. The highest threat from this vulnerability is to system availability.",
      "Threats": [
        {
          "Type": "Impact",
          "Severity": "moderate"
        }
      ],
      "References": [
        {
          "URL": "https://www.suse.com/security/cve/CVE-2020-35503.html",
          "Description": "CVE-2020-35503"
        },
        {
          "URL": "https://bugzilla.suse.com/1180432",
          "Description": "SUSE Bug 1180432"
        }
      ],
      "ProductStatuses": [
        {
          "Type": "Fixed",
          "ProductID": [
            "openSUSE Tumbleweed:qemu-6.2.0-41.1",
            "openSUSE Tumbleweed:qemu-SLOF-6.2.0-41.1",
            "openSUSE Tumbleweed:qemu-accel-qtest-6.2.0-41.1",
            "openSUSE Tumbleweed:qemu-accel-tcg-x86-6.2.0-41.1",
            "openSUSE Tumbleweed:qemu-arm-6.2.0-41.1",
            "openSUSE Tumbleweed:qemu-audio-alsa-6.2.0-41.1",
            "openSUSE Tumbleweed:qemu-audio-jack-6.2.0-41.1",
            "openSUSE Tumbleweed:qemu-audio-oss-6.2.0-41.1",
            "openSUSE Tumbleweed:qemu-audio-pa-6.2.0-41.1",
            "openSUSE Tumbleweed:qemu-audio-spice-6.2.0-41.1",
            "openSUSE Tumbleweed:qemu-block-curl-6.2.0-41.1",
            "openSUSE Tumbleweed:qemu-block-dmg-6.2.0-41.1",
            "openSUSE Tumbleweed:qemu-block-gluster-6.2.0-41.1",
            "openSUSE Tumbleweed:qemu-block-iscsi-6.2.0-41.1",
            "openSUSE Tumbleweed:qemu-block-nfs-6.2.0-41.1",
            "openSUSE Tumbleweed:qemu-block-rbd-6.2.0-41.1",
            "openSUSE Tumbleweed:qemu-block-ssh-6.2.0-41.1",
            "openSUSE Tumbleweed:qemu-chardev-baum-6.2.0-41.1",
            "openSUSE Tumbleweed:qemu-chardev-spice-6.2.0-41.1",
            "openSUSE Tumbleweed:qemu-extra-6.2.0-41.1",
            "openSUSE Tumbleweed:qemu-guest-agent-6.2.0-41.1",
            "openSUSE Tumbleweed:qemu-hw-display-qxl-6.2.0-41.1",
            "openSUSE Tumbleweed:qemu-hw-display-virtio-gpu-6.2.0-41.1",
            "openSUSE Tumbleweed:qemu-hw-display-virtio-gpu-pci-6.2.0-41.1",
            "openSUSE Tumbleweed:qemu-hw-display-virtio-vga-6.2.0-41.1",
            "openSUSE Tumbleweed:qemu-hw-s390x-virtio-gpu-ccw-6.2.0-41.1",
            "openSUSE Tumbleweed:qemu-hw-usb-host-6.2.0-41.1",
            "openSUSE Tumbleweed:qemu-hw-usb-redirect-6.2.0-41.1",
            "openSUSE Tumbleweed:qemu-hw-usb-smartcard-6.2.0-41.1",
            "openSUSE Tumbleweed:qemu-ipxe-1.0.0+-41.1",
            "openSUSE Tumbleweed:qemu-ivshmem-tools-6.2.0-41.1",
            "openSUSE Tumbleweed:qemu-ksm-6.2.0-41.1",
            "openSUSE Tumbleweed:qemu-kvm-6.2.0-41.1",
            "openSUSE Tumbleweed:qemu-lang-6.2.0-41.1",
            "openSUSE Tumbleweed:qemu-microvm-6.2.0-41.1",
            "openSUSE Tumbleweed:qemu-ppc-6.2.0-41.1",
            "openSUSE Tumbleweed:qemu-s390x-6.2.0-41.1",
            "openSUSE Tumbleweed:qemu-seabios-1.15.0_0_g2dd4b9b-41.1",
            "openSUSE Tumbleweed:qemu-sgabios-8-41.1",
            "openSUSE Tumbleweed:qemu-skiboot-6.2.0-41.1",
            "openSUSE Tumbleweed:qemu-tools-6.2.0-41.1",
            "openSUSE Tumbleweed:qemu-ui-curses-6.2.0-41.1",
            "openSUSE Tumbleweed:qemu-ui-gtk-6.2.0-41.1",
            "openSUSE Tumbleweed:qemu-ui-opengl-6.2.0-41.1",
            "openSUSE Tumbleweed:qemu-ui-spice-app-6.2.0-41.1",
            "openSUSE Tumbleweed:qemu-ui-spice-core-6.2.0-41.1",
            "openSUSE Tumbleweed:qemu-vgabios-1.15.0_0_g2dd4b9b-41.1",
            "openSUSE Tumbleweed:qemu-vhost-user-gpu-6.2.0-41.1",
            "openSUSE Tumbleweed:qemu-x86-6.2.0-41.1"
          ]
        }
      ],
      "CVSSScoreSets": {}
    },
    {
      "CVE": "CVE-2022-0358",
      "Description": "A flaw was found in the QEMU virtio-fs shared file system daemon (virtiofsd) implementation. This flaw is strictly related to CVE-2018-13405. A local guest user can create files in the directories shared by virtio-fs with unintended group ownership in a scenario where a directory is SGID to a certain group and is writable by a user who is not a member of the group. This could allow a malicious unprivileged user inside the guest to gain access to resources accessible to the root group, potentially escalating their privileges within the guest. A malicious local user in the host might also leverage this unexpected executable file created by the guest to escalate their privileges on the host system.",
      "Threats": [
        {
          "Type": "Impact",
          "Severity": "moderate"
        }
      ],
      "References": [
        {
          "URL": "https://www.suse.com/security/cve/CVE-2022-0358.html",
          "Description": "CVE-2022-0358"
        },
        {
          "URL": "https://bugzilla.suse.com/1195161",
          "Description": "SUSE Bug 1195161"
        }
      ],
      "ProductStatuses": [
        {
          "Type": "Fixed",
          "ProductID": [
            "openSUSE Tumbleweed:qemu-6.2.0-41.1",
            "openSUSE Tumbleweed:qemu-SLOF-6.2.0-41.1",
            "openSUSE Tumbleweed:qemu-accel-qtest-6.2.0-41.1",
            "openSUSE Tumbleweed:qemu-accel-tcg-x86-6.2.0-41.1",
            "openSUSE Tumbleweed:qemu-arm-6.2.0-41.1",
            "openSUSE Tumbleweed:qemu-audio-alsa-6.2.0-41.1",
            "openSUSE Tumbleweed:qemu-audio-jack-6.2.0-41.1",
            "openSUSE Tumbleweed:qemu-audio-oss-6.2.0-41.1",
            "openSUSE Tumbleweed:qemu-audio-pa-6.2.0-41.1",
            "openSUSE Tumbleweed:qemu-audio-spice-6.2.0-41.1",
            "openSUSE Tumbleweed:qemu-block-curl-6.2.0-41.1",
            "openSUSE Tumbleweed:qemu-block-dmg-6.2.0-41.1",
            "openSUSE Tumbleweed:qemu-block-gluster-6.2.0-41.1",
            "openSUSE Tumbleweed:qemu-block-iscsi-6.2.0-41.1",
            "openSUSE Tumbleweed:qemu-block-nfs-6.2.0-41.1",
            "openSUSE Tumbleweed:qemu-block-rbd-6.2.0-41.1",
            "openSUSE Tumbleweed:qemu-block-ssh-6.2.0-41.1",
            "openSUSE Tumbleweed:qemu-chardev-baum-6.2.0-41.1",
            "openSUSE Tumbleweed:qemu-chardev-spice-6.2.0-41.1",
            "openSUSE Tumbleweed:qemu-extra-6.2.0-41.1",
            "openSUSE Tumbleweed:qemu-guest-agent-6.2.0-41.1",
            "openSUSE Tumbleweed:qemu-hw-display-qxl-6.2.0-41.1",
            "openSUSE Tumbleweed:qemu-hw-display-virtio-gpu-6.2.0-41.1",
            "openSUSE Tumbleweed:qemu-hw-display-virtio-gpu-pci-6.2.0-41.1",
            "openSUSE Tumbleweed:qemu-hw-display-virtio-vga-6.2.0-41.1",
            "openSUSE Tumbleweed:qemu-hw-s390x-virtio-gpu-ccw-6.2.0-41.1",
            "openSUSE Tumbleweed:qemu-hw-usb-host-6.2.0-41.1",
            "openSUSE Tumbleweed:qemu-hw-usb-redirect-6.2.0-41.1",
            "openSUSE Tumbleweed:qemu-hw-usb-smartcard-6.2.0-41.1",
            "openSUSE Tumbleweed:qemu-ipxe-1.0.0+-41.1",
            "openSUSE Tumbleweed:qemu-ivshmem-tools-6.2.0-41.1",
            "openSUSE Tumbleweed:qemu-ksm-6.2.0-41.1",
            "openSUSE Tumbleweed:qemu-kvm-6.2.0-41.1",
            "openSUSE Tumbleweed:qemu-lang-6.2.0-41.1",
            "openSUSE Tumbleweed:qemu-microvm-6.2.0-41.1",
            "openSUSE Tumbleweed:qemu-ppc-6.2.0-41.1",
            "openSUSE Tumbleweed:qemu-s390x-6.2.0-41.1",
            "openSUSE Tumbleweed:qemu-seabios-1.15.0_0_g2dd4b9b-41.1",
            "openSUSE Tumbleweed:qemu-sgabios-8-41.1",
            "openSUSE Tumbleweed:qemu-skiboot-6.2.0-41.1",
            "openSUSE Tumbleweed:qemu-tools-6.2.0-41.1",
            "openSUSE Tumbleweed:qemu-ui-curses-6.2.0-41.1",
            "openSUSE Tumbleweed:qemu-ui-gtk-6.2.0-41.1",
            "openSUSE Tumbleweed:qemu-ui-opengl-6.2.0-41.1",
            "openSUSE Tumbleweed:qemu-ui-spice-app-6.2.0-41.1",
            "openSUSE Tumbleweed:qemu-ui-spice-core-6.2.0-41.1",
            "openSUSE Tumbleweed:qemu-vgabios-1.15.0_0_g2dd4b9b-41.1",
            "openSUSE Tumbleweed:qemu-vhost-user-gpu-6.2.0-41.1",
            "openSUSE Tumbleweed:qemu-x86-6.2.0-41.1"
          ]
        }
      ],
      "CVSSScoreSets": {}
    }
  ]
}