{
  "Title": "libwmf-0_2-7-0.2.12-2.3 on GA media",
  "Tracking": {
    "ID": "openSUSE-SU-2024:11012-1",
    "Status": "Final",
    "Version": "1",
    "InitialReleaseDate": "2024-06-22T21:44:56Z",
    "CurrentReleaseDate": "2024-06-22T21:44:56Z",
    "RevisionHistory": [
      {
        "Number": "1",
        "Date": "2024-06-22T21:44:56Z",
        "Description": "current"
      }
    ]
  },
  "Notes": [
    {
      "Text": "libwmf-0_2-7-0.2.12-2.3 on GA media",
      "Title": "Topic",
      "Type": "Summary"
    },
    {
      "Text": "These are all security issues fixed in the libwmf-0_2-7-0.2.12-2.3 package on the GA media of openSUSE Tumbleweed.",
      "Title": "Details",
      "Type": "General"
    },
    {
      "Text": "The CVRF data is provided by SUSE under the Creative Commons License 4.0 with Attribution (CC-BY-4.0).",
      "Title": "Terms of Use",
      "Type": "Legal Disclaimer"
    },
    {
      "Text": "openSUSE-Tumbleweed-2024-11012",
      "Title": "Patchnames",
      "Type": "Details"
    }
  ],
  "ProductTree": {
    "Relationships": [
      {
        "ProductReference": "libwmf-0_2-7-0.2.12-2.3",
        "RelatesToProductReference": "openSUSE Tumbleweed",
        "RelationType": "Default Component Of"
      },
      {
        "ProductReference": "libwmf-0_2-7-32bit-0.2.12-2.3",
        "RelatesToProductReference": "openSUSE Tumbleweed",
        "RelationType": "Default Component Of"
      },
      {
        "ProductReference": "libwmf-devel-0.2.12-2.3",
        "RelatesToProductReference": "openSUSE Tumbleweed",
        "RelationType": "Default Component Of"
      },
      {
        "ProductReference": "libwmf-gnome-0.2.12-2.3",
        "RelatesToProductReference": "openSUSE Tumbleweed",
        "RelationType": "Default Component Of"
      },
      {
        "ProductReference": "libwmf-gnome-32bit-0.2.12-2.3",
        "RelatesToProductReference": "openSUSE Tumbleweed",
        "RelationType": "Default Component Of"
      },
      {
        "ProductReference": "libwmf-tools-0.2.12-2.3",
        "RelatesToProductReference": "openSUSE Tumbleweed",
        "RelationType": "Default Component Of"
      }
    ]
  },
  "References": [
    {
      "URL": "https://www.suse.com/support/security/rating/",
      "Description": "SUSE Security Ratings"
    },
    {
      "URL": "https://www.suse.com/security/cve/CVE-2006-3376/",
      "Description": "SUSE CVE CVE-2006-3376 page"
    },
    {
      "URL": "https://www.suse.com/security/cve/CVE-2019-6978/",
      "Description": "SUSE CVE CVE-2019-6978 page"
    }
  ],
  "Vulnerabilities": [
    {
      "CVE": "CVE-2006-3376",
      "Description": "Integer overflow in player.c in libwmf 0.2.8.4, as used in multiple products including (1) wv, (2) abiword, (3) freetype, (4) gimp, (5) libgsf, and (6) imagemagick allows remote attackers to execute arbitrary code via the MaxRecordSize header field in a WMF file.",
      "Threats": [
        {
          "Type": "Impact",
          "Severity": "moderate"
        }
      ],
      "References": [
        {
          "URL": "https://www.suse.com/security/cve/CVE-2006-3376.html",
          "Description": "CVE-2006-3376"
        },
        {
          "URL": "https://bugzilla.suse.com/189924",
          "Description": "SUSE Bug 189924"
        }
      ],
      "ProductStatuses": [
        {
          "Type": "Fixed",
          "ProductID": [
            "openSUSE Tumbleweed:libwmf-0_2-7-0.2.12-2.3",
            "openSUSE Tumbleweed:libwmf-0_2-7-32bit-0.2.12-2.3",
            "openSUSE Tumbleweed:libwmf-devel-0.2.12-2.3",
            "openSUSE Tumbleweed:libwmf-gnome-0.2.12-2.3",
            "openSUSE Tumbleweed:libwmf-gnome-32bit-0.2.12-2.3",
            "openSUSE Tumbleweed:libwmf-tools-0.2.12-2.3"
          ]
        }
      ],
      "CVSSScoreSets": {}
    },
    {
      "CVE": "CVE-2019-6978",
      "Description": "The GD Graphics Library (aka LibGD) 2.2.5 has a double free in the gdImage*Ptr() functions in gd_gif_out.c, gd_jpeg.c, and gd_wbmp.c. NOTE: PHP is unaffected.",
      "Threats": [
        {
          "Type": "Impact",
          "Severity": "moderate"
        }
      ],
      "References": [
        {
          "URL": "https://www.suse.com/security/cve/CVE-2019-6978.html",
          "Description": "CVE-2019-6978"
        },
        {
          "URL": "https://bugzilla.suse.com/1123522",
          "Description": "SUSE Bug 1123522"
        }
      ],
      "ProductStatuses": [
        {
          "Type": "Fixed",
          "ProductID": [
            "openSUSE Tumbleweed:libwmf-0_2-7-0.2.12-2.3",
            "openSUSE Tumbleweed:libwmf-0_2-7-32bit-0.2.12-2.3",
            "openSUSE Tumbleweed:libwmf-devel-0.2.12-2.3",
            "openSUSE Tumbleweed:libwmf-gnome-0.2.12-2.3",
            "openSUSE Tumbleweed:libwmf-gnome-32bit-0.2.12-2.3",
            "openSUSE Tumbleweed:libwmf-tools-0.2.12-2.3"
          ]
        }
      ],
      "CVSSScoreSets": {}
    }
  ]
}