{
  "Title": "java-17-openj9-17.0.9.0-1.1 on GA media",
  "Tracking": {
    "ID": "openSUSE-SU-2024:13456-1",
    "Status": "Final",
    "Version": "1",
    "InitialReleaseDate": "2024-06-20T21:44:22Z",
    "CurrentReleaseDate": "2024-06-20T21:44:22Z",
    "RevisionHistory": [
      {
        "Number": "1",
        "Date": "2024-06-20T21:44:22Z",
        "Description": "current"
      }
    ]
  },
  "Notes": [
    {
      "Text": "java-17-openj9-17.0.9.0-1.1 on GA media",
      "Title": "Topic",
      "Type": "Summary"
    },
    {
      "Text": "These are all security issues fixed in the java-17-openj9-17.0.9.0-1.1 package on the GA media of openSUSE Tumbleweed.",
      "Title": "Details",
      "Type": "General"
    },
    {
      "Text": "The CVRF data is provided by SUSE under the Creative Commons License 4.0 with Attribution (CC-BY-4.0).",
      "Title": "Terms of Use",
      "Type": "Legal Disclaimer"
    },
    {
      "Text": "openSUSE-Tumbleweed-2024-13456",
      "Title": "Patchnames",
      "Type": "Details"
    }
  ],
  "ProductTree": {
    "Relationships": [
      {
        "ProductReference": "java-17-openj9-17.0.9.0-1.1",
        "RelatesToProductReference": "openSUSE Tumbleweed",
        "RelationType": "Default Component Of"
      },
      {
        "ProductReference": "java-17-openj9-demo-17.0.9.0-1.1",
        "RelatesToProductReference": "openSUSE Tumbleweed",
        "RelationType": "Default Component Of"
      },
      {
        "ProductReference": "java-17-openj9-devel-17.0.9.0-1.1",
        "RelatesToProductReference": "openSUSE Tumbleweed",
        "RelationType": "Default Component Of"
      },
      {
        "ProductReference": "java-17-openj9-headless-17.0.9.0-1.1",
        "RelatesToProductReference": "openSUSE Tumbleweed",
        "RelationType": "Default Component Of"
      },
      {
        "ProductReference": "java-17-openj9-javadoc-17.0.9.0-1.1",
        "RelatesToProductReference": "openSUSE Tumbleweed",
        "RelationType": "Default Component Of"
      },
      {
        "ProductReference": "java-17-openj9-jmods-17.0.9.0-1.1",
        "RelatesToProductReference": "openSUSE Tumbleweed",
        "RelationType": "Default Component Of"
      },
      {
        "ProductReference": "java-17-openj9-src-17.0.9.0-1.1",
        "RelatesToProductReference": "openSUSE Tumbleweed",
        "RelationType": "Default Component Of"
      }
    ]
  },
  "References": [
    {
      "URL": "https://www.suse.com/support/security/rating/",
      "Description": "SUSE Security Ratings"
    },
    {
      "URL": "https://www.suse.com/security/cve/CVE-2023-22025/",
      "Description": "SUSE CVE CVE-2023-22025 page"
    },
    {
      "URL": "https://www.suse.com/security/cve/CVE-2023-22081/",
      "Description": "SUSE CVE CVE-2023-22081 page"
    },
    {
      "URL": "https://www.suse.com/security/cve/CVE-2023-5676/",
      "Description": "SUSE CVE CVE-2023-5676 page"
    }
  ],
  "Vulnerabilities": [
    {
      "CVE": "CVE-2023-22025",
      "Description": "Vulnerability in the Oracle Java SE, Oracle GraalVM for JDK, Oracle GraalVM Enterprise Edition, product of Oracle Java SE (component: Hotspot).  Supported versions that are affected are Oracle Java SE: 8u381-perf, 17.0.8, 21; Oracle GraalVM for JDK: 17.0.8, 21; Oracle GraalVM Enterprise Edition: 21.3.7 and  22.3.3. Difficult to exploit vulnerability allows unauthenticated attacker with network access via multiple protocols to compromise Oracle Java SE, Oracle GraalVM for JDK, Oracle GraalVM Enterprise Edition,.  Successful attacks of this vulnerability can result in  unauthorized update, insert or delete access to some of Oracle Java SE, Oracle GraalVM for JDK, Oracle GraalVM Enterprise Edition, accessible data. Note: This vulnerability can be exploited by using APIs in the specified Component, e.g., through a web service which supplies data to the APIs. This vulnerability also applies to Java deployments, typically in clients running sandboxed Java Web Start applications or sandboxed Java applets, that load and run untrusted code (e.g., code that comes from the internet) and rely on the Java sandbox for security. CVSS 3.1 Base Score 3.7 (Integrity impacts).  CVSS Vector: (CVSS:3.1/AV:N/AC:H/PR:N/UI:N/S:U/C:N/I:L/A:N).",
      "Threats": [
        {
          "Type": "Impact",
          "Severity": "low"
        }
      ],
      "References": [
        {
          "URL": "https://www.suse.com/security/cve/CVE-2023-22025.html",
          "Description": "CVE-2023-22025"
        },
        {
          "URL": "https://bugzilla.suse.com/1216339",
          "Description": "SUSE Bug 1216339"
        }
      ],
      "ProductStatuses": [
        {
          "Type": "Fixed",
          "ProductID": [
            "openSUSE Tumbleweed:java-17-openj9-17.0.9.0-1.1",
            "openSUSE Tumbleweed:java-17-openj9-demo-17.0.9.0-1.1",
            "openSUSE Tumbleweed:java-17-openj9-devel-17.0.9.0-1.1",
            "openSUSE Tumbleweed:java-17-openj9-headless-17.0.9.0-1.1",
            "openSUSE Tumbleweed:java-17-openj9-javadoc-17.0.9.0-1.1",
            "openSUSE Tumbleweed:java-17-openj9-jmods-17.0.9.0-1.1",
            "openSUSE Tumbleweed:java-17-openj9-src-17.0.9.0-1.1"
          ]
        }
      ],
      "CVSSScoreSets": {}
    },
    {
      "CVE": "CVE-2023-22081",
      "Description": "Vulnerability in the Oracle Java SE, Oracle GraalVM for JDK, Oracle GraalVM Enterprise Edition product of Oracle Java SE (component: JSSE).  Supported versions that are affected are Oracle Java SE: 8u381, 8u381-perf, 11.0.20, 17.0.8, 21; Oracle GraalVM for JDK: 17.0.8, 21; Oracle GraalVM Enterprise Edition: 20.3.11, 21.3.7 and  22.3.3. Easily exploitable vulnerability allows unauthenticated attacker with network access via HTTPS to compromise Oracle Java SE, Oracle GraalVM for JDK, Oracle GraalVM Enterprise Edition.  Successful attacks of this vulnerability can result in unauthorized ability to cause a partial denial of service (partial DOS) of Oracle Java SE, Oracle GraalVM for JDK, Oracle GraalVM Enterprise Edition. Note: This vulnerability applies to Java deployments, typically in clients running sandboxed Java Web Start applications or sandboxed Java applets, that load and run untrusted code (e.g., code that comes from the internet) and rely on the Java sandbox for security. This vulnerability does not apply to Java deployments, typically in servers, that load and run only trusted code (e.g., code installed by an administrator). CVSS 3.1 Base Score 5.3 (Availability impacts).  CVSS Vector: (CVSS:3.1/AV:N/AC:L/PR:N/UI:N/S:U/C:N/I:N/A:L).",
      "Threats": [
        {
          "Type": "Impact",
          "Severity": "moderate"
        }
      ],
      "References": [
        {
          "URL": "https://www.suse.com/security/cve/CVE-2023-22081.html",
          "Description": "CVE-2023-22081"
        },
        {
          "URL": "https://bugzilla.suse.com/1216374",
          "Description": "SUSE Bug 1216374"
        }
      ],
      "ProductStatuses": [
        {
          "Type": "Fixed",
          "ProductID": [
            "openSUSE Tumbleweed:java-17-openj9-17.0.9.0-1.1",
            "openSUSE Tumbleweed:java-17-openj9-demo-17.0.9.0-1.1",
            "openSUSE Tumbleweed:java-17-openj9-devel-17.0.9.0-1.1",
            "openSUSE Tumbleweed:java-17-openj9-headless-17.0.9.0-1.1",
            "openSUSE Tumbleweed:java-17-openj9-javadoc-17.0.9.0-1.1",
            "openSUSE Tumbleweed:java-17-openj9-jmods-17.0.9.0-1.1",
            "openSUSE Tumbleweed:java-17-openj9-src-17.0.9.0-1.1"
          ]
        }
      ],
      "CVSSScoreSets": {}
    },
    {
      "CVE": "CVE-2023-5676",
      "Description": "In Eclipse OpenJ9 before version 0.41.0, the JVM can be forced into an infinite busy hang on a spinlock or a segmentation fault if a shutdown signal (SIGTERM, SIGINT or SIGHUP) is received before the JVM has finished initializing.\n",
      "Threats": [
        {
          "Type": "Impact",
          "Severity": "moderate"
        }
      ],
      "References": [
        {
          "URL": "https://www.suse.com/security/cve/CVE-2023-5676.html",
          "Description": "CVE-2023-5676"
        },
        {
          "URL": "https://bugzilla.suse.com/1217214",
          "Description": "SUSE Bug 1217214"
        }
      ],
      "ProductStatuses": [
        {
          "Type": "Fixed",
          "ProductID": [
            "openSUSE Tumbleweed:java-17-openj9-17.0.9.0-1.1",
            "openSUSE Tumbleweed:java-17-openj9-demo-17.0.9.0-1.1",
            "openSUSE Tumbleweed:java-17-openj9-devel-17.0.9.0-1.1",
            "openSUSE Tumbleweed:java-17-openj9-headless-17.0.9.0-1.1",
            "openSUSE Tumbleweed:java-17-openj9-javadoc-17.0.9.0-1.1",
            "openSUSE Tumbleweed:java-17-openj9-jmods-17.0.9.0-1.1",
            "openSUSE Tumbleweed:java-17-openj9-src-17.0.9.0-1.1"
          ]
        }
      ],
      "CVSSScoreSets": {}
    }
  ]
}