{
  "Title": "cherrytree-0.99.49+3-1.1 on GA media",
  "Tracking": {
    "ID": "openSUSE-SU-2024:12330-1",
    "Status": "Final",
    "Version": "1",
    "InitialReleaseDate": "2024-06-20T21:44:22Z",
    "CurrentReleaseDate": "2024-06-20T21:44:22Z",
    "RevisionHistory": [
      {
        "Number": "1",
        "Date": "2024-06-20T21:44:22Z",
        "Description": "current"
      }
    ]
  },
  "Notes": [
    {
      "Text": "cherrytree-0.99.49+3-1.1 on GA media",
      "Title": "Topic",
      "Type": "Summary"
    },
    {
      "Text": "These are all security issues fixed in the cherrytree-0.99.49+3-1.1 package on the GA media of openSUSE Tumbleweed.",
      "Title": "Details",
      "Type": "General"
    },
    {
      "Text": "The CVRF data is provided by SUSE under the Creative Commons License 4.0 with Attribution (CC-BY-4.0).",
      "Title": "Terms of Use",
      "Type": "Legal Disclaimer"
    },
    {
      "Text": "openSUSE-Tumbleweed-2024-12330",
      "Title": "Patchnames",
      "Type": "Details"
    }
  ],
  "ProductTree": {
    "Relationships": [
      {
        "ProductReference": "cherrytree-0.99.49+3-1.1",
        "RelatesToProductReference": "openSUSE Tumbleweed",
        "RelationType": "Default Component Of"
      },
      {
        "ProductReference": "cherrytree-lang-0.99.49+3-1.1",
        "RelatesToProductReference": "openSUSE Tumbleweed",
        "RelationType": "Default Component Of"
      }
    ]
  },
  "References": [
    {
      "URL": "https://www.suse.com/support/security/rating/",
      "Description": "SUSE Security Ratings"
    },
    {
      "URL": "https://www.suse.com/security/cve/CVE-2022-35133/",
      "Description": "SUSE CVE CVE-2022-35133 page"
    }
  ],
  "Vulnerabilities": [
    {
      "CVE": "CVE-2022-35133",
      "Description": "A cross-site scripting (XSS) vulnerability in CherryTree v0.99.30 allows attackers to execute arbitrary web scripts or HTML via a crafted payload injected into the Name text field when creating a node.",
      "Threats": [
        {
          "Type": "Impact",
          "Severity": "moderate"
        }
      ],
      "References": [
        {
          "URL": "https://www.suse.com/security/cve/CVE-2022-35133.html",
          "Description": "CVE-2022-35133"
        },
        {
          "URL": "https://bugzilla.suse.com/1202513",
          "Description": "SUSE Bug 1202513"
        }
      ],
      "ProductStatuses": [
        {
          "Type": "Fixed",
          "ProductID": [
            "openSUSE Tumbleweed:cherrytree-0.99.49+3-1.1",
            "openSUSE Tumbleweed:cherrytree-lang-0.99.49+3-1.1"
          ]
        }
      ],
      "CVSSScoreSets": {}
    }
  ]
}