{
  "Title": "spotifyd-0.3.3-9.1 on GA media",
  "Tracking": {
    "ID": "openSUSE-SU-2024:12274-1",
    "Status": "Final",
    "Version": "1",
    "InitialReleaseDate": "2024-06-20T21:44:22Z",
    "CurrentReleaseDate": "2024-06-20T21:44:22Z",
    "RevisionHistory": [
      {
        "Number": "1",
        "Date": "2024-06-20T21:44:22Z",
        "Description": "current"
      }
    ]
  },
  "Notes": [
    {
      "Text": "spotifyd-0.3.3-9.1 on GA media",
      "Title": "Topic",
      "Type": "Summary"
    },
    {
      "Text": "These are all security issues fixed in the spotifyd-0.3.3-9.1 package on the GA media of openSUSE Tumbleweed.",
      "Title": "Details",
      "Type": "General"
    },
    {
      "Text": "The CVRF data is provided by SUSE under the Creative Commons License 4.0 with Attribution (CC-BY-4.0).",
      "Title": "Terms of Use",
      "Type": "Legal Disclaimer"
    },
    {
      "Text": "openSUSE-Tumbleweed-2024-12274",
      "Title": "Patchnames",
      "Type": "Details"
    }
  ],
  "ProductTree": {
    "Relationships": [
      {
        "ProductReference": "spotifyd-0.3.3-9.1",
        "RelatesToProductReference": "openSUSE Tumbleweed",
        "RelationType": "Default Component Of"
      }
    ]
  },
  "References": [
    {
      "URL": "https://www.suse.com/support/security/rating/",
      "Description": "SUSE Security Ratings"
    },
    {
      "URL": "https://www.suse.com/security/cve/CVE-2021-21299/",
      "Description": "SUSE CVE CVE-2021-21299 page"
    }
  ],
  "Vulnerabilities": [
    {
      "CVE": "CVE-2021-21299",
      "Description": "hyper is an open-source HTTP library for Rust (crates.io). In hyper from version 0.12.0 and before versions 0.13.10 and 0.14.3 there is a vulnerability that can enable a request smuggling attack. The HTTP server code had a flaw that incorrectly understands some requests with multiple transfer-encoding headers to have a chunked payload, when it should have been rejected as illegal. This combined with an upstream HTTP proxy that understands the request payload boundary differently can result in \"request smuggling\" or \"desync attacks\". To determine if vulnerable, all these things must be true: 1) Using hyper as an HTTP server (the client is not affected), 2) Using HTTP/1.1 (HTTP/2 does not use transfer-encoding), 3) Using a vulnerable HTTP proxy upstream to hyper. If an upstream proxy correctly rejects the illegal transfer-encoding headers, the desync attack cannot succeed. If there is no proxy upstream of hyper, hyper cannot start the desync attack, as the client will repair the headers before forwarding. This is fixed in versions 0.14.3 and 0.13.10. As a workaround one can take the following options: 1) Reject requests that contain a `transfer-encoding` header, 2) Ensure any upstream proxy handles `transfer-encoding` correctly.",
      "Threats": [
        {
          "Type": "Impact",
          "Severity": "important"
        }
      ],
      "References": [
        {
          "URL": "https://www.suse.com/security/cve/CVE-2021-21299.html",
          "Description": "CVE-2021-21299"
        },
        {
          "URL": "https://bugzilla.suse.com/1182059",
          "Description": "SUSE Bug 1182059"
        }
      ],
      "ProductStatuses": [
        {
          "Type": "Fixed",
          "ProductID": [
            "openSUSE Tumbleweed:spotifyd-0.3.3-9.1"
          ]
        }
      ],
      "CVSSScoreSets": {}
    }
  ]
}