{
  "Title": "system-user-velociraptor-1.0.0-9.1 on GA media",
  "Tracking": {
    "ID": "openSUSE-SU-2024:14012-1",
    "Status": "Final",
    "Version": "1",
    "InitialReleaseDate": "2024-06-20T21:44:22Z",
    "CurrentReleaseDate": "2024-06-20T21:44:22Z",
    "RevisionHistory": [
      {
        "Number": "1",
        "Date": "2024-06-20T21:44:22Z",
        "Description": "current"
      }
    ]
  },
  "Notes": [
    {
      "Text": "system-user-velociraptor-1.0.0-9.1 on GA media",
      "Title": "Topic",
      "Type": "Summary"
    },
    {
      "Text": "These are all security issues fixed in the system-user-velociraptor-1.0.0-9.1 package on the GA media of openSUSE Tumbleweed.",
      "Title": "Details",
      "Type": "General"
    },
    {
      "Text": "The CVRF data is provided by SUSE under the Creative Commons License 4.0 with Attribution (CC-BY-4.0).",
      "Title": "Terms of Use",
      "Type": "Legal Disclaimer"
    },
    {
      "Text": "openSUSE-Tumbleweed-2024-14012",
      "Title": "Patchnames",
      "Type": "Details"
    }
  ],
  "ProductTree": {
    "Relationships": [
      {
        "ProductReference": "system-user-velociraptor-1.0.0-9.1",
        "RelatesToProductReference": "openSUSE Tumbleweed",
        "RelationType": "Default Component Of"
      },
      {
        "ProductReference": "velociraptor-0.7.0.4.git74.3426c0a-9.1",
        "RelatesToProductReference": "openSUSE Tumbleweed",
        "RelationType": "Default Component Of"
      }
    ]
  },
  "References": [
    {
      "URL": "https://www.suse.com/support/security/rating/",
      "Description": "SUSE Security Ratings"
    },
    {
      "URL": "https://www.suse.com/security/cve/CVE-2022-25883/",
      "Description": "SUSE CVE CVE-2022-25883 page"
    }
  ],
  "Vulnerabilities": [
    {
      "CVE": "CVE-2022-25883",
      "Description": "Versions of the package semver before 7.5.2 are vulnerable to Regular Expression Denial of Service (ReDoS) via the function new Range, when untrusted user data is provided as a range.\n\n\n",
      "Threats": [
        {
          "Type": "Impact",
          "Severity": "moderate"
        }
      ],
      "References": [
        {
          "URL": "https://www.suse.com/security/cve/CVE-2022-25883.html",
          "Description": "CVE-2022-25883"
        },
        {
          "URL": "https://bugzilla.suse.com/1212565",
          "Description": "SUSE Bug 1212565"
        }
      ],
      "ProductStatuses": [
        {
          "Type": "Fixed",
          "ProductID": [
            "openSUSE Tumbleweed:system-user-velociraptor-1.0.0-9.1",
            "openSUSE Tumbleweed:velociraptor-0.7.0.4.git74.3426c0a-9.1"
          ]
        }
      ],
      "CVSSScoreSets": {}
    }
  ]
}