{
  "Title": "libraw-devel-0.20.2-4.1 on GA media",
  "Tracking": {
    "ID": "openSUSE-SU-2024:10980-1",
    "Status": "Final",
    "Version": "1",
    "InitialReleaseDate": "2024-06-22T21:44:56Z",
    "CurrentReleaseDate": "2024-06-22T21:44:56Z",
    "RevisionHistory": [
      {
        "Number": "1",
        "Date": "2024-06-22T21:44:56Z",
        "Description": "current"
      }
    ]
  },
  "Notes": [
    {
      "Text": "libraw-devel-0.20.2-4.1 on GA media",
      "Title": "Topic",
      "Type": "Summary"
    },
    {
      "Text": "These are all security issues fixed in the libraw-devel-0.20.2-4.1 package on the GA media of openSUSE Tumbleweed.",
      "Title": "Details",
      "Type": "General"
    },
    {
      "Text": "The CVRF data is provided by SUSE under the Creative Commons License 4.0 with Attribution (CC-BY-4.0).",
      "Title": "Terms of Use",
      "Type": "Legal Disclaimer"
    },
    {
      "Text": "openSUSE-Tumbleweed-2024-10980",
      "Title": "Patchnames",
      "Type": "Details"
    }
  ],
  "ProductTree": {
    "Relationships": [
      {
        "ProductReference": "libraw-devel-0.20.2-4.1",
        "RelatesToProductReference": "openSUSE Tumbleweed",
        "RelationType": "Default Component Of"
      },
      {
        "ProductReference": "libraw-devel-static-0.20.2-4.1",
        "RelatesToProductReference": "openSUSE Tumbleweed",
        "RelationType": "Default Component Of"
      },
      {
        "ProductReference": "libraw-tools-0.20.2-4.1",
        "RelatesToProductReference": "openSUSE Tumbleweed",
        "RelationType": "Default Component Of"
      },
      {
        "ProductReference": "libraw20-0.20.2-4.1",
        "RelatesToProductReference": "openSUSE Tumbleweed",
        "RelationType": "Default Component Of"
      },
      {
        "ProductReference": "libraw20-32bit-0.20.2-4.1",
        "RelatesToProductReference": "openSUSE Tumbleweed",
        "RelationType": "Default Component Of"
      }
    ]
  },
  "References": [
    {
      "URL": "https://www.suse.com/support/security/rating/",
      "Description": "SUSE Security Ratings"
    },
    {
      "URL": "https://www.suse.com/security/cve/CVE-2017-13735/",
      "Description": "SUSE CVE CVE-2017-13735 page"
    },
    {
      "URL": "https://www.suse.com/security/cve/CVE-2017-14265/",
      "Description": "SUSE CVE CVE-2017-14265 page"
    },
    {
      "URL": "https://www.suse.com/security/cve/CVE-2017-14348/",
      "Description": "SUSE CVE CVE-2017-14348 page"
    },
    {
      "URL": "https://www.suse.com/security/cve/CVE-2017-6886/",
      "Description": "SUSE CVE CVE-2017-6886 page"
    },
    {
      "URL": "https://www.suse.com/security/cve/CVE-2017-6887/",
      "Description": "SUSE CVE CVE-2017-6887 page"
    },
    {
      "URL": "https://www.suse.com/security/cve/CVE-2017-6890/",
      "Description": "SUSE CVE CVE-2017-6890 page"
    },
    {
      "URL": "https://www.suse.com/security/cve/CVE-2018-10528/",
      "Description": "SUSE CVE CVE-2018-10528 page"
    },
    {
      "URL": "https://www.suse.com/security/cve/CVE-2018-10529/",
      "Description": "SUSE CVE CVE-2018-10529 page"
    },
    {
      "URL": "https://www.suse.com/security/cve/CVE-2018-20337/",
      "Description": "SUSE CVE CVE-2018-20337 page"
    },
    {
      "URL": "https://www.suse.com/security/cve/CVE-2018-5813/",
      "Description": "SUSE CVE CVE-2018-5813 page"
    },
    {
      "URL": "https://www.suse.com/security/cve/CVE-2018-5815/",
      "Description": "SUSE CVE CVE-2018-5815 page"
    },
    {
      "URL": "https://www.suse.com/security/cve/CVE-2018-5819/",
      "Description": "SUSE CVE CVE-2018-5819 page"
    },
    {
      "URL": "https://www.suse.com/security/cve/CVE-2020-15503/",
      "Description": "SUSE CVE CVE-2020-15503 page"
    }
  ],
  "Vulnerabilities": [
    {
      "CVE": "CVE-2017-13735",
      "Description": "There is a floating point exception in the kodak_radc_load_raw function in dcraw_common.cpp in LibRaw 0.18.2. It will lead to a remote denial of service attack.",
      "Threats": [
        {
          "Type": "Impact",
          "Severity": "moderate"
        }
      ],
      "References": [
        {
          "URL": "https://www.suse.com/security/cve/CVE-2017-13735.html",
          "Description": "CVE-2017-13735"
        },
        {
          "URL": "https://bugzilla.suse.com/1056170",
          "Description": "SUSE Bug 1056170"
        },
        {
          "URL": "https://bugzilla.suse.com/1060321",
          "Description": "SUSE Bug 1060321"
        }
      ],
      "ProductStatuses": [
        {
          "Type": "Fixed",
          "ProductID": [
            "openSUSE Tumbleweed:libraw-devel-0.20.2-4.1",
            "openSUSE Tumbleweed:libraw-devel-static-0.20.2-4.1",
            "openSUSE Tumbleweed:libraw-tools-0.20.2-4.1",
            "openSUSE Tumbleweed:libraw20-0.20.2-4.1",
            "openSUSE Tumbleweed:libraw20-32bit-0.20.2-4.1"
          ]
        }
      ],
      "CVSSScoreSets": {
        "BaseScore": "5",
        "Vector": "AV:N/AC:L/Au:N/C:N/I:N/A:P"
      }
    },
    {
      "CVE": "CVE-2017-14265",
      "Description": "A Stack-based Buffer Overflow was discovered in xtrans_interpolate in internal/dcraw_common.cpp in LibRaw before 0.18.3. It could allow a remote denial of service or code execution attack.",
      "Threats": [
        {
          "Type": "Impact",
          "Severity": "moderate"
        }
      ],
      "References": [
        {
          "URL": "https://www.suse.com/security/cve/CVE-2017-14265.html",
          "Description": "CVE-2017-14265"
        },
        {
          "URL": "https://bugzilla.suse.com/1060163",
          "Description": "SUSE Bug 1060163"
        },
        {
          "URL": "https://bugzilla.suse.com/1084688",
          "Description": "SUSE Bug 1084688"
        },
        {
          "URL": "https://bugzilla.suse.com/1084690",
          "Description": "SUSE Bug 1084690"
        },
        {
          "URL": "https://bugzilla.suse.com/1084691",
          "Description": "SUSE Bug 1084691"
        }
      ],
      "ProductStatuses": [
        {
          "Type": "Fixed",
          "ProductID": [
            "openSUSE Tumbleweed:libraw-devel-0.20.2-4.1",
            "openSUSE Tumbleweed:libraw-devel-static-0.20.2-4.1",
            "openSUSE Tumbleweed:libraw-tools-0.20.2-4.1",
            "openSUSE Tumbleweed:libraw20-0.20.2-4.1",
            "openSUSE Tumbleweed:libraw20-32bit-0.20.2-4.1"
          ]
        }
      ],
      "CVSSScoreSets": {
        "BaseScore": "5",
        "Vector": "AV:N/AC:L/Au:N/C:N/I:N/A:P"
      }
    },
    {
      "CVE": "CVE-2017-14348",
      "Description": "LibRaw before 0.18.4 has a heap-based Buffer Overflow in the processCanonCameraInfo function via a crafted file.",
      "Threats": [
        {
          "Type": "Impact",
          "Severity": "moderate"
        }
      ],
      "References": [
        {
          "URL": "https://www.suse.com/security/cve/CVE-2017-14348.html",
          "Description": "CVE-2017-14348"
        },
        {
          "URL": "https://bugzilla.suse.com/1058467",
          "Description": "SUSE Bug 1058467"
        },
        {
          "URL": "https://bugzilla.suse.com/1063798",
          "Description": "SUSE Bug 1063798"
        }
      ],
      "ProductStatuses": [
        {
          "Type": "Fixed",
          "ProductID": [
            "openSUSE Tumbleweed:libraw-devel-0.20.2-4.1",
            "openSUSE Tumbleweed:libraw-devel-static-0.20.2-4.1",
            "openSUSE Tumbleweed:libraw-tools-0.20.2-4.1",
            "openSUSE Tumbleweed:libraw20-0.20.2-4.1",
            "openSUSE Tumbleweed:libraw20-32bit-0.20.2-4.1"
          ]
        }
      ],
      "CVSSScoreSets": {}
    },
    {
      "CVE": "CVE-2017-6886",
      "Description": "An error within the \"parse_tiff_ifd()\" function (internal/dcraw_common.cpp) in LibRaw versions before 0.18.2 can be exploited to corrupt memory.",
      "Threats": [
        {
          "Type": "Impact",
          "Severity": "moderate"
        }
      ],
      "References": [
        {
          "URL": "https://www.suse.com/security/cve/CVE-2017-6886.html",
          "Description": "CVE-2017-6886"
        },
        {
          "URL": "https://bugzilla.suse.com/1039380",
          "Description": "SUSE Bug 1039380"
        }
      ],
      "ProductStatuses": [
        {
          "Type": "Fixed",
          "ProductID": [
            "openSUSE Tumbleweed:libraw-devel-0.20.2-4.1",
            "openSUSE Tumbleweed:libraw-devel-static-0.20.2-4.1",
            "openSUSE Tumbleweed:libraw-tools-0.20.2-4.1",
            "openSUSE Tumbleweed:libraw20-0.20.2-4.1",
            "openSUSE Tumbleweed:libraw20-32bit-0.20.2-4.1"
          ]
        }
      ],
      "CVSSScoreSets": {
        "BaseScore": "5.1",
        "Vector": "AV:N/AC:H/Au:N/C:P/I:P/A:P"
      }
    },
    {
      "CVE": "CVE-2017-6887",
      "Description": "A boundary error within the \"parse_tiff_ifd()\" function (internal/dcraw_common.cpp) in LibRaw versions before 0.18.2 can be exploited to cause a memory corruption via e.g. a specially crafted KDC file with model set to \"DSLR-A100\" and containing multiple sequences of 0x100 and 0x14A TAGs.",
      "Threats": [
        {
          "Type": "Impact",
          "Severity": "moderate"
        }
      ],
      "References": [
        {
          "URL": "https://www.suse.com/security/cve/CVE-2017-6887.html",
          "Description": "CVE-2017-6887"
        },
        {
          "URL": "https://bugzilla.suse.com/1039379",
          "Description": "SUSE Bug 1039379"
        }
      ],
      "ProductStatuses": [
        {
          "Type": "Fixed",
          "ProductID": [
            "openSUSE Tumbleweed:libraw-devel-0.20.2-4.1",
            "openSUSE Tumbleweed:libraw-devel-static-0.20.2-4.1",
            "openSUSE Tumbleweed:libraw-tools-0.20.2-4.1",
            "openSUSE Tumbleweed:libraw20-0.20.2-4.1",
            "openSUSE Tumbleweed:libraw20-32bit-0.20.2-4.1"
          ]
        }
      ],
      "CVSSScoreSets": {
        "BaseScore": "5.1",
        "Vector": "AV:N/AC:H/Au:N/C:P/I:P/A:P"
      }
    },
    {
      "CVE": "CVE-2017-6890",
      "Description": "A boundary error within the \"foveon_load_camf()\" function (dcraw_foveon.c) when initializing a huffman table in LibRaw-demosaic-pack-GPL2 before 0.18.2 can be exploited to cause a stack-based buffer overflow.",
      "Threats": [
        {
          "Type": "Impact",
          "Severity": "important"
        }
      ],
      "References": [
        {
          "URL": "https://www.suse.com/security/cve/CVE-2017-6890.html",
          "Description": "CVE-2017-6890"
        },
        {
          "URL": "https://bugzilla.suse.com/1039209",
          "Description": "SUSE Bug 1039209"
        }
      ],
      "ProductStatuses": [
        {
          "Type": "Fixed",
          "ProductID": [
            "openSUSE Tumbleweed:libraw-devel-0.20.2-4.1",
            "openSUSE Tumbleweed:libraw-devel-static-0.20.2-4.1",
            "openSUSE Tumbleweed:libraw-tools-0.20.2-4.1",
            "openSUSE Tumbleweed:libraw20-0.20.2-4.1",
            "openSUSE Tumbleweed:libraw20-32bit-0.20.2-4.1"
          ]
        }
      ],
      "CVSSScoreSets": {
        "BaseScore": "6.8",
        "Vector": "AV:N/AC:M/Au:N/C:P/I:P/A:P"
      }
    },
    {
      "CVE": "CVE-2018-10528",
      "Description": "An issue was discovered in LibRaw 0.18.9. There is a stack-based buffer overflow in the utf2char function in libraw_cxx.cpp.",
      "Threats": [
        {
          "Type": "Impact",
          "Severity": "moderate"
        }
      ],
      "References": [
        {
          "URL": "https://www.suse.com/security/cve/CVE-2018-10528.html",
          "Description": "CVE-2018-10528"
        },
        {
          "URL": "https://bugzilla.suse.com/1091345",
          "Description": "SUSE Bug 1091345"
        }
      ],
      "ProductStatuses": [
        {
          "Type": "Fixed",
          "ProductID": [
            "openSUSE Tumbleweed:libraw-devel-0.20.2-4.1",
            "openSUSE Tumbleweed:libraw-devel-static-0.20.2-4.1",
            "openSUSE Tumbleweed:libraw-tools-0.20.2-4.1",
            "openSUSE Tumbleweed:libraw20-0.20.2-4.1",
            "openSUSE Tumbleweed:libraw20-32bit-0.20.2-4.1"
          ]
        }
      ],
      "CVSSScoreSets": {}
    },
    {
      "CVE": "CVE-2018-10529",
      "Description": "An issue was discovered in LibRaw 0.18.9. There is an out-of-bounds read affecting the X3F property table list implementation in libraw_x3f.cpp and libraw_cxx.cpp.",
      "Threats": [
        {
          "Type": "Impact",
          "Severity": "moderate"
        }
      ],
      "References": [
        {
          "URL": "https://www.suse.com/security/cve/CVE-2018-10529.html",
          "Description": "CVE-2018-10529"
        },
        {
          "URL": "https://bugzilla.suse.com/1091346",
          "Description": "SUSE Bug 1091346"
        }
      ],
      "ProductStatuses": [
        {
          "Type": "Fixed",
          "ProductID": [
            "openSUSE Tumbleweed:libraw-devel-0.20.2-4.1",
            "openSUSE Tumbleweed:libraw-devel-static-0.20.2-4.1",
            "openSUSE Tumbleweed:libraw-tools-0.20.2-4.1",
            "openSUSE Tumbleweed:libraw20-0.20.2-4.1",
            "openSUSE Tumbleweed:libraw20-32bit-0.20.2-4.1"
          ]
        }
      ],
      "CVSSScoreSets": {}
    },
    {
      "CVE": "CVE-2018-20337",
      "Description": "There is a stack-based buffer overflow in the parse_makernote function of dcraw_common.cpp in LibRaw 0.19.1. Crafted input will lead to a denial of service or possibly unspecified other impact.",
      "Threats": [
        {
          "Type": "Impact",
          "Severity": "low"
        }
      ],
      "References": [
        {
          "URL": "https://www.suse.com/security/cve/CVE-2018-20337.html",
          "Description": "CVE-2018-20337"
        },
        {
          "URL": "https://bugzilla.suse.com/1120519",
          "Description": "SUSE Bug 1120519"
        }
      ],
      "ProductStatuses": [
        {
          "Type": "Fixed",
          "ProductID": [
            "openSUSE Tumbleweed:libraw-devel-0.20.2-4.1",
            "openSUSE Tumbleweed:libraw-devel-static-0.20.2-4.1",
            "openSUSE Tumbleweed:libraw-tools-0.20.2-4.1",
            "openSUSE Tumbleweed:libraw20-0.20.2-4.1",
            "openSUSE Tumbleweed:libraw20-32bit-0.20.2-4.1"
          ]
        }
      ],
      "CVSSScoreSets": {}
    },
    {
      "CVE": "CVE-2018-5813",
      "Description": "An error within the \"parse_minolta()\" function (dcraw/dcraw.c) in LibRaw versions prior to 0.18.11 can be exploited to trigger an infinite loop via a specially crafted file.",
      "Threats": [
        {
          "Type": "Impact",
          "Severity": "low"
        }
      ],
      "References": [
        {
          "URL": "https://www.suse.com/security/cve/CVE-2018-5813.html",
          "Description": "CVE-2018-5813"
        },
        {
          "URL": "https://bugzilla.suse.com/1103200",
          "Description": "SUSE Bug 1103200"
        }
      ],
      "ProductStatuses": [
        {
          "Type": "Fixed",
          "ProductID": [
            "openSUSE Tumbleweed:libraw-devel-0.20.2-4.1",
            "openSUSE Tumbleweed:libraw-devel-static-0.20.2-4.1",
            "openSUSE Tumbleweed:libraw-tools-0.20.2-4.1",
            "openSUSE Tumbleweed:libraw20-0.20.2-4.1",
            "openSUSE Tumbleweed:libraw20-32bit-0.20.2-4.1"
          ]
        }
      ],
      "CVSSScoreSets": {}
    },
    {
      "CVE": "CVE-2018-5815",
      "Description": "An integer overflow error within the \"parse_qt()\" function (internal/dcraw_common.cpp) in LibRaw versions prior to 0.18.12 can be exploited to trigger an infinite loop via a specially crafted Apple QuickTime file.",
      "Threats": [
        {
          "Type": "Impact",
          "Severity": "low"
        }
      ],
      "References": [
        {
          "URL": "https://www.suse.com/security/cve/CVE-2018-5815.html",
          "Description": "CVE-2018-5815"
        },
        {
          "URL": "https://bugzilla.suse.com/1103206",
          "Description": "SUSE Bug 1103206"
        }
      ],
      "ProductStatuses": [
        {
          "Type": "Fixed",
          "ProductID": [
            "openSUSE Tumbleweed:libraw-devel-0.20.2-4.1",
            "openSUSE Tumbleweed:libraw-devel-static-0.20.2-4.1",
            "openSUSE Tumbleweed:libraw-tools-0.20.2-4.1",
            "openSUSE Tumbleweed:libraw20-0.20.2-4.1",
            "openSUSE Tumbleweed:libraw20-32bit-0.20.2-4.1"
          ]
        }
      ],
      "CVSSScoreSets": {}
    },
    {
      "CVE": "CVE-2018-5819",
      "Description": "An error within the \"parse_sinar_ia()\" function (internal/dcraw_common.cpp) within LibRaw versions prior to 0.19.1 can be exploited to exhaust available CPU resources.",
      "Threats": [
        {
          "Type": "Impact",
          "Severity": "low"
        }
      ],
      "References": [
        {
          "URL": "https://www.suse.com/security/cve/CVE-2018-5819.html",
          "Description": "CVE-2018-5819"
        },
        {
          "URL": "https://bugzilla.suse.com/1120517",
          "Description": "SUSE Bug 1120517"
        }
      ],
      "ProductStatuses": [
        {
          "Type": "Fixed",
          "ProductID": [
            "openSUSE Tumbleweed:libraw-devel-0.20.2-4.1",
            "openSUSE Tumbleweed:libraw-devel-static-0.20.2-4.1",
            "openSUSE Tumbleweed:libraw-tools-0.20.2-4.1",
            "openSUSE Tumbleweed:libraw20-0.20.2-4.1",
            "openSUSE Tumbleweed:libraw20-32bit-0.20.2-4.1"
          ]
        }
      ],
      "CVSSScoreSets": {}
    },
    {
      "CVE": "CVE-2020-15503",
      "Description": "LibRaw before 0.20-RC1 lacks a thumbnail size range check. This affects decoders/unpack_thumb.cpp, postprocessing/mem_image.cpp, and utils/thumb_utils.cpp. For example, malloc(sizeof(libraw_processed_image_t)+T.tlength) occurs without validating T.tlength.",
      "Threats": [
        {
          "Type": "Impact",
          "Severity": "moderate"
        }
      ],
      "References": [
        {
          "URL": "https://www.suse.com/security/cve/CVE-2020-15503.html",
          "Description": "CVE-2020-15503"
        },
        {
          "URL": "https://bugzilla.suse.com/1173674",
          "Description": "SUSE Bug 1173674"
        }
      ],
      "ProductStatuses": [
        {
          "Type": "Fixed",
          "ProductID": [
            "openSUSE Tumbleweed:libraw-devel-0.20.2-4.1",
            "openSUSE Tumbleweed:libraw-devel-static-0.20.2-4.1",
            "openSUSE Tumbleweed:libraw-tools-0.20.2-4.1",
            "openSUSE Tumbleweed:libraw20-0.20.2-4.1",
            "openSUSE Tumbleweed:libraw20-32bit-0.20.2-4.1"
          ]
        }
      ],
      "CVSSScoreSets": {}
    }
  ]
}