{
  "Title": "nodejs4-4.7.0-1.1 on GA media",
  "Tracking": {
    "ID": "openSUSE-SU-2024:10247-1",
    "Status": "Final",
    "Version": "1",
    "InitialReleaseDate": "2024-06-22T21:44:56Z",
    "CurrentReleaseDate": "2024-06-22T21:44:56Z",
    "RevisionHistory": [
      {
        "Number": "1",
        "Date": "2024-06-22T21:44:56Z",
        "Description": "current"
      }
    ]
  },
  "Notes": [
    {
      "Text": "nodejs4-4.7.0-1.1 on GA media",
      "Title": "Topic",
      "Type": "Summary"
    },
    {
      "Text": "These are all security issues fixed in the nodejs4-4.7.0-1.1 package on the GA media of openSUSE Tumbleweed.",
      "Title": "Details",
      "Type": "General"
    },
    {
      "Text": "The CVRF data is provided by SUSE under the Creative Commons License 4.0 with Attribution (CC-BY-4.0).",
      "Title": "Terms of Use",
      "Type": "Legal Disclaimer"
    },
    {
      "Text": "openSUSE-Tumbleweed-2024-10247",
      "Title": "Patchnames",
      "Type": "Details"
    }
  ],
  "ProductTree": {
    "Relationships": [
      {
        "ProductReference": "nodejs4-4.7.0-1.1",
        "RelatesToProductReference": "openSUSE Tumbleweed",
        "RelationType": "Default Component Of"
      },
      {
        "ProductReference": "nodejs4-devel-4.7.0-1.1",
        "RelatesToProductReference": "openSUSE Tumbleweed",
        "RelationType": "Default Component Of"
      },
      {
        "ProductReference": "nodejs4-docs-4.7.0-1.1",
        "RelatesToProductReference": "openSUSE Tumbleweed",
        "RelationType": "Default Component Of"
      },
      {
        "ProductReference": "npm4-4.7.0-1.1",
        "RelatesToProductReference": "openSUSE Tumbleweed",
        "RelationType": "Default Component Of"
      }
    ]
  },
  "References": [
    {
      "URL": "https://www.suse.com/support/security/rating/",
      "Description": "SUSE Security Ratings"
    },
    {
      "URL": "https://www.suse.com/security/cve/CVE-2016-1669/",
      "Description": "SUSE CVE CVE-2016-1669 page"
    },
    {
      "URL": "https://www.suse.com/security/cve/CVE-2016-2178/",
      "Description": "SUSE CVE CVE-2016-2178 page"
    },
    {
      "URL": "https://www.suse.com/security/cve/CVE-2016-2183/",
      "Description": "SUSE CVE CVE-2016-2183 page"
    },
    {
      "URL": "https://www.suse.com/security/cve/CVE-2016-5180/",
      "Description": "SUSE CVE CVE-2016-5180 page"
    },
    {
      "URL": "https://www.suse.com/security/cve/CVE-2016-5325/",
      "Description": "SUSE CVE CVE-2016-5325 page"
    },
    {
      "URL": "https://www.suse.com/security/cve/CVE-2016-6304/",
      "Description": "SUSE CVE CVE-2016-6304 page"
    },
    {
      "URL": "https://www.suse.com/security/cve/CVE-2016-6306/",
      "Description": "SUSE CVE CVE-2016-6306 page"
    },
    {
      "URL": "https://www.suse.com/security/cve/CVE-2016-7052/",
      "Description": "SUSE CVE CVE-2016-7052 page"
    },
    {
      "URL": "https://www.suse.com/security/cve/CVE-2016-7099/",
      "Description": "SUSE CVE CVE-2016-7099 page"
    }
  ],
  "Vulnerabilities": [
    {
      "CVE": "CVE-2016-1669",
      "Description": "The Zone::New function in zone.cc in Google V8 before 5.0.71.47, as used in Google Chrome before 50.0.2661.102, does not properly determine when to expand certain memory allocations, which allows remote attackers to cause a denial of service (buffer overflow) or possibly have unspecified other impact via crafted JavaScript code.",
      "Threats": [
        {
          "Type": "Impact",
          "Severity": "important"
        }
      ],
      "References": [
        {
          "URL": "https://www.suse.com/security/cve/CVE-2016-1669.html",
          "Description": "CVE-2016-1669"
        },
        {
          "URL": "https://bugzilla.suse.com/979859",
          "Description": "SUSE Bug 979859"
        },
        {
          "URL": "https://bugzilla.suse.com/987919",
          "Description": "SUSE Bug 987919"
        }
      ],
      "ProductStatuses": [
        {
          "Type": "Fixed",
          "ProductID": [
            "openSUSE Tumbleweed:nodejs4-4.7.0-1.1",
            "openSUSE Tumbleweed:nodejs4-devel-4.7.0-1.1",
            "openSUSE Tumbleweed:nodejs4-docs-4.7.0-1.1",
            "openSUSE Tumbleweed:npm4-4.7.0-1.1"
          ]
        }
      ],
      "CVSSScoreSets": {
        "BaseScore": "6.8",
        "Vector": "AV:N/AC:M/Au:N/C:P/I:P/A:P"
      }
    },
    {
      "CVE": "CVE-2016-2178",
      "Description": "The dsa_sign_setup function in crypto/dsa/dsa_ossl.c in OpenSSL through 1.0.2h does not properly ensure the use of constant-time operations, which makes it easier for local users to discover a DSA private key via a timing side-channel attack.",
      "Threats": [
        {
          "Type": "Impact",
          "Severity": "low"
        }
      ],
      "References": [
        {
          "URL": "https://www.suse.com/security/cve/CVE-2016-2178.html",
          "Description": "CVE-2016-2178"
        },
        {
          "URL": "https://bugzilla.suse.com/1004104",
          "Description": "SUSE Bug 1004104"
        },
        {
          "URL": "https://bugzilla.suse.com/983249",
          "Description": "SUSE Bug 983249"
        },
        {
          "URL": "https://bugzilla.suse.com/983519",
          "Description": "SUSE Bug 983519"
        },
        {
          "URL": "https://bugzilla.suse.com/999665",
          "Description": "SUSE Bug 999665"
        }
      ],
      "ProductStatuses": [
        {
          "Type": "Fixed",
          "ProductID": [
            "openSUSE Tumbleweed:nodejs4-4.7.0-1.1",
            "openSUSE Tumbleweed:nodejs4-devel-4.7.0-1.1",
            "openSUSE Tumbleweed:nodejs4-docs-4.7.0-1.1",
            "openSUSE Tumbleweed:npm4-4.7.0-1.1"
          ]
        }
      ],
      "CVSSScoreSets": {
        "BaseScore": "1.2",
        "Vector": "AV:L/AC:H/Au:N/C:P/I:N/A:N"
      }
    },
    {
      "CVE": "CVE-2016-2183",
      "Description": "The DES and Triple DES ciphers, as used in the TLS, SSH, and IPSec protocols and other protocols and products, have a birthday bound of approximately four billion blocks, which makes it easier for remote attackers to obtain cleartext data via a birthday attack against a long-duration encrypted session, as demonstrated by an HTTPS session using Triple DES in CBC mode, aka a \"Sweet32\" attack.",
      "Threats": [
        {
          "Type": "Impact",
          "Severity": "moderate"
        }
      ],
      "References": [
        {
          "URL": "https://www.suse.com/security/cve/CVE-2016-2183.html",
          "Description": "CVE-2016-2183"
        },
        {
          "URL": "https://bugzilla.suse.com/1001912",
          "Description": "SUSE Bug 1001912"
        },
        {
          "URL": "https://bugzilla.suse.com/1024218",
          "Description": "SUSE Bug 1024218"
        },
        {
          "URL": "https://bugzilla.suse.com/1027038",
          "Description": "SUSE Bug 1027038"
        },
        {
          "URL": "https://bugzilla.suse.com/1034689",
          "Description": "SUSE Bug 1034689"
        },
        {
          "URL": "https://bugzilla.suse.com/1056614",
          "Description": "SUSE Bug 1056614"
        },
        {
          "URL": "https://bugzilla.suse.com/1171693",
          "Description": "SUSE Bug 1171693"
        },
        {
          "URL": "https://bugzilla.suse.com/994844",
          "Description": "SUSE Bug 994844"
        },
        {
          "URL": "https://bugzilla.suse.com/995359",
          "Description": "SUSE Bug 995359"
        }
      ],
      "ProductStatuses": [
        {
          "Type": "Fixed",
          "ProductID": [
            "openSUSE Tumbleweed:nodejs4-4.7.0-1.1",
            "openSUSE Tumbleweed:nodejs4-devel-4.7.0-1.1",
            "openSUSE Tumbleweed:nodejs4-docs-4.7.0-1.1",
            "openSUSE Tumbleweed:npm4-4.7.0-1.1"
          ]
        }
      ],
      "CVSSScoreSets": {
        "BaseScore": "4.3",
        "Vector": "AV:N/AC:M/Au:N/C:P/I:N/A:N"
      }
    },
    {
      "CVE": "CVE-2016-5180",
      "Description": "Heap-based buffer overflow in the ares_create_query function in c-ares 1.x before 1.12.0 allows remote attackers to cause a denial of service (out-of-bounds write) or possibly execute arbitrary code via a hostname with an escaped trailing dot.",
      "Threats": [
        {
          "Type": "Impact",
          "Severity": "moderate"
        }
      ],
      "References": [
        {
          "URL": "https://www.suse.com/security/cve/CVE-2016-5180.html",
          "Description": "CVE-2016-5180"
        },
        {
          "URL": "https://bugzilla.suse.com/1007728",
          "Description": "SUSE Bug 1007728"
        }
      ],
      "ProductStatuses": [
        {
          "Type": "Fixed",
          "ProductID": [
            "openSUSE Tumbleweed:nodejs4-4.7.0-1.1",
            "openSUSE Tumbleweed:nodejs4-devel-4.7.0-1.1",
            "openSUSE Tumbleweed:nodejs4-docs-4.7.0-1.1",
            "openSUSE Tumbleweed:npm4-4.7.0-1.1"
          ]
        }
      ],
      "CVSSScoreSets": {
        "BaseScore": "5",
        "Vector": "AV:N/AC:L/Au:N/C:N/I:N/A:P"
      }
    },
    {
      "CVE": "CVE-2016-5325",
      "Description": "CRLF injection vulnerability in the ServerResponse#writeHead function in Node.js 0.10.x before 0.10.47, 0.12.x before 0.12.16, 4.x before 4.6.0, and 6.x before 6.7.0 allows remote attackers to inject arbitrary HTTP headers and conduct HTTP response splitting attacks via the reason argument.",
      "Threats": [
        {
          "Type": "Impact",
          "Severity": "low"
        }
      ],
      "References": [
        {
          "URL": "https://www.suse.com/security/cve/CVE-2016-5325.html",
          "Description": "CVE-2016-5325"
        },
        {
          "URL": "https://bugzilla.suse.com/985201",
          "Description": "SUSE Bug 985201"
        },
        {
          "URL": "https://bugzilla.suse.com/985202",
          "Description": "SUSE Bug 985202"
        }
      ],
      "ProductStatuses": [
        {
          "Type": "Fixed",
          "ProductID": [
            "openSUSE Tumbleweed:nodejs4-4.7.0-1.1",
            "openSUSE Tumbleweed:nodejs4-devel-4.7.0-1.1",
            "openSUSE Tumbleweed:nodejs4-docs-4.7.0-1.1",
            "openSUSE Tumbleweed:npm4-4.7.0-1.1"
          ]
        }
      ],
      "CVSSScoreSets": {
        "BaseScore": "4",
        "Vector": "AV:N/AC:H/Au:N/C:P/I:P/A:N"
      }
    },
    {
      "CVE": "CVE-2016-6304",
      "Description": "Multiple memory leaks in t1_lib.c in OpenSSL before 1.0.1u, 1.0.2 before 1.0.2i, and 1.1.0 before 1.1.0a allow remote attackers to cause a denial of service (memory consumption) via large OCSP Status Request extensions.",
      "Threats": [
        {
          "Type": "Impact",
          "Severity": "moderate"
        }
      ],
      "References": [
        {
          "URL": "https://www.suse.com/security/cve/CVE-2016-6304.html",
          "Description": "CVE-2016-6304"
        },
        {
          "URL": "https://bugzilla.suse.com/1001706",
          "Description": "SUSE Bug 1001706"
        },
        {
          "URL": "https://bugzilla.suse.com/1003811",
          "Description": "SUSE Bug 1003811"
        },
        {
          "URL": "https://bugzilla.suse.com/1004104",
          "Description": "SUSE Bug 1004104"
        },
        {
          "URL": "https://bugzilla.suse.com/1005579",
          "Description": "SUSE Bug 1005579"
        },
        {
          "URL": "https://bugzilla.suse.com/1021375",
          "Description": "SUSE Bug 1021375"
        },
        {
          "URL": "https://bugzilla.suse.com/999665",
          "Description": "SUSE Bug 999665"
        },
        {
          "URL": "https://bugzilla.suse.com/999666",
          "Description": "SUSE Bug 999666"
        }
      ],
      "ProductStatuses": [
        {
          "Type": "Fixed",
          "ProductID": [
            "openSUSE Tumbleweed:nodejs4-4.7.0-1.1",
            "openSUSE Tumbleweed:nodejs4-devel-4.7.0-1.1",
            "openSUSE Tumbleweed:nodejs4-docs-4.7.0-1.1",
            "openSUSE Tumbleweed:npm4-4.7.0-1.1"
          ]
        }
      ],
      "CVSSScoreSets": {
        "BaseScore": "5",
        "Vector": "AV:N/AC:L/Au:N/C:N/I:N/A:P"
      }
    },
    {
      "CVE": "CVE-2016-6306",
      "Description": "The certificate parser in OpenSSL before 1.0.1u and 1.0.2 before 1.0.2i might allow remote attackers to cause a denial of service (out-of-bounds read) via crafted certificate operations, related to s3_clnt.c and s3_srvr.c.",
      "Threats": [
        {
          "Type": "Impact",
          "Severity": "low"
        }
      ],
      "References": [
        {
          "URL": "https://www.suse.com/security/cve/CVE-2016-6306.html",
          "Description": "CVE-2016-6306"
        },
        {
          "URL": "https://bugzilla.suse.com/1004104",
          "Description": "SUSE Bug 1004104"
        },
        {
          "URL": "https://bugzilla.suse.com/999665",
          "Description": "SUSE Bug 999665"
        },
        {
          "URL": "https://bugzilla.suse.com/999668",
          "Description": "SUSE Bug 999668"
        }
      ],
      "ProductStatuses": [
        {
          "Type": "Fixed",
          "ProductID": [
            "openSUSE Tumbleweed:nodejs4-4.7.0-1.1",
            "openSUSE Tumbleweed:nodejs4-devel-4.7.0-1.1",
            "openSUSE Tumbleweed:nodejs4-docs-4.7.0-1.1",
            "openSUSE Tumbleweed:npm4-4.7.0-1.1"
          ]
        }
      ],
      "CVSSScoreSets": {
        "BaseScore": "1.9",
        "Vector": "AV:L/AC:M/Au:N/C:N/I:N/A:P"
      }
    },
    {
      "CVE": "CVE-2016-7052",
      "Description": "crypto/x509/x509_vfy.c in OpenSSL 1.0.2i allows remote attackers to cause a denial of service (NULL pointer dereference and application crash) by triggering a CRL operation.",
      "Threats": [
        {
          "Type": "Impact",
          "Severity": "important"
        }
      ],
      "References": [
        {
          "URL": "https://www.suse.com/security/cve/CVE-2016-7052.html",
          "Description": "CVE-2016-7052"
        },
        {
          "URL": "https://bugzilla.suse.com/1001148",
          "Description": "SUSE Bug 1001148"
        }
      ],
      "ProductStatuses": [
        {
          "Type": "Fixed",
          "ProductID": [
            "openSUSE Tumbleweed:nodejs4-4.7.0-1.1",
            "openSUSE Tumbleweed:nodejs4-devel-4.7.0-1.1",
            "openSUSE Tumbleweed:nodejs4-docs-4.7.0-1.1",
            "openSUSE Tumbleweed:npm4-4.7.0-1.1"
          ]
        }
      ],
      "CVSSScoreSets": {}
    },
    {
      "CVE": "CVE-2016-7099",
      "Description": "The tls.checkServerIdentity function in Node.js 0.10.x before 0.10.47, 0.12.x before 0.12.16, 4.x before 4.6.0, and 6.x before 6.7.0 does not properly handle wildcards in name fields of X.509 certificates, which allows man-in-the-middle attackers to spoof servers via a crafted certificate.",
      "Threats": [
        {
          "Type": "Impact",
          "Severity": "important"
        }
      ],
      "References": [
        {
          "URL": "https://www.suse.com/security/cve/CVE-2016-7099.html",
          "Description": "CVE-2016-7099"
        },
        {
          "URL": "https://bugzilla.suse.com/1001652",
          "Description": "SUSE Bug 1001652"
        }
      ],
      "ProductStatuses": [
        {
          "Type": "Fixed",
          "ProductID": [
            "openSUSE Tumbleweed:nodejs4-4.7.0-1.1",
            "openSUSE Tumbleweed:nodejs4-devel-4.7.0-1.1",
            "openSUSE Tumbleweed:nodejs4-docs-4.7.0-1.1",
            "openSUSE Tumbleweed:npm4-4.7.0-1.1"
          ]
        }
      ],
      "CVSSScoreSets": {
        "BaseScore": "8.8",
        "Vector": "AV:N/AC:M/Au:N/C:C/I:C/A:N"
      }
    }
  ]
}