{
  "Title": "python-2.7.12-1.5 on GA media",
  "Tracking": {
    "ID": "openSUSE-SU-2024:10450-1",
    "Status": "Final",
    "Version": "1",
    "InitialReleaseDate": "2024-06-22T21:44:56Z",
    "CurrentReleaseDate": "2024-06-22T21:44:56Z",
    "RevisionHistory": [
      {
        "Number": "1",
        "Date": "2024-06-22T21:44:56Z",
        "Description": "current"
      }
    ]
  },
  "Notes": [
    {
      "Text": "python-2.7.12-1.5 on GA media",
      "Title": "Topic",
      "Type": "Summary"
    },
    {
      "Text": "These are all security issues fixed in the python-2.7.12-1.5 package on the GA media of openSUSE Tumbleweed.",
      "Title": "Details",
      "Type": "General"
    },
    {
      "Text": "The CVRF data is provided by SUSE under the Creative Commons License 4.0 with Attribution (CC-BY-4.0).",
      "Title": "Terms of Use",
      "Type": "Legal Disclaimer"
    },
    {
      "Text": "openSUSE-Tumbleweed-2024-10450",
      "Title": "Patchnames",
      "Type": "Details"
    }
  ],
  "ProductTree": {
    "Relationships": [
      {
        "ProductReference": "python-2.7.12-1.5",
        "RelatesToProductReference": "openSUSE Tumbleweed",
        "RelationType": "Default Component Of"
      },
      {
        "ProductReference": "python-32bit-2.7.12-1.5",
        "RelatesToProductReference": "openSUSE Tumbleweed",
        "RelationType": "Default Component Of"
      },
      {
        "ProductReference": "python-curses-2.7.12-1.5",
        "RelatesToProductReference": "openSUSE Tumbleweed",
        "RelationType": "Default Component Of"
      },
      {
        "ProductReference": "python-demo-2.7.12-1.5",
        "RelatesToProductReference": "openSUSE Tumbleweed",
        "RelationType": "Default Component Of"
      },
      {
        "ProductReference": "python-gdbm-2.7.12-1.5",
        "RelatesToProductReference": "openSUSE Tumbleweed",
        "RelationType": "Default Component Of"
      },
      {
        "ProductReference": "python-idle-2.7.12-1.5",
        "RelatesToProductReference": "openSUSE Tumbleweed",
        "RelationType": "Default Component Of"
      },
      {
        "ProductReference": "python-tk-2.7.12-1.5",
        "RelatesToProductReference": "openSUSE Tumbleweed",
        "RelationType": "Default Component Of"
      }
    ]
  },
  "References": [
    {
      "URL": "https://www.suse.com/support/security/rating/",
      "Description": "SUSE Security Ratings"
    },
    {
      "URL": "https://www.suse.com/security/cve/CVE-2013-4238/",
      "Description": "SUSE CVE CVE-2013-4238 page"
    },
    {
      "URL": "https://www.suse.com/security/cve/CVE-2016-0772/",
      "Description": "SUSE CVE CVE-2016-0772 page"
    },
    {
      "URL": "https://www.suse.com/security/cve/CVE-2016-5636/",
      "Description": "SUSE CVE CVE-2016-5636 page"
    },
    {
      "URL": "https://www.suse.com/security/cve/CVE-2016-5699/",
      "Description": "SUSE CVE CVE-2016-5699 page"
    }
  ],
  "Vulnerabilities": [
    {
      "CVE": "CVE-2013-4238",
      "Description": "The ssl.match_hostname function in the SSL module in Python 2.6 through 3.4 does not properly handle a '\\0' character in a domain name in the Subject Alternative Name field of an X.509 certificate, which allows man-in-the-middle attackers to spoof arbitrary SSL servers via a crafted certificate issued by a legitimate Certification Authority, a related issue to CVE-2009-2408.",
      "Threats": [
        {
          "Type": "Impact",
          "Severity": "moderate"
        }
      ],
      "References": [
        {
          "URL": "https://www.suse.com/security/cve/CVE-2013-4238.html",
          "Description": "CVE-2013-4238"
        },
        {
          "URL": "https://bugzilla.suse.com/834601",
          "Description": "SUSE Bug 834601"
        },
        {
          "URL": "https://bugzilla.suse.com/839107",
          "Description": "SUSE Bug 839107"
        },
        {
          "URL": "https://bugzilla.suse.com/882915",
          "Description": "SUSE Bug 882915"
        },
        {
          "URL": "https://bugzilla.suse.com/912739",
          "Description": "SUSE Bug 912739"
        }
      ],
      "ProductStatuses": [
        {
          "Type": "Fixed",
          "ProductID": [
            "openSUSE Tumbleweed:python-2.7.12-1.5",
            "openSUSE Tumbleweed:python-32bit-2.7.12-1.5",
            "openSUSE Tumbleweed:python-curses-2.7.12-1.5",
            "openSUSE Tumbleweed:python-demo-2.7.12-1.5",
            "openSUSE Tumbleweed:python-gdbm-2.7.12-1.5",
            "openSUSE Tumbleweed:python-idle-2.7.12-1.5",
            "openSUSE Tumbleweed:python-tk-2.7.12-1.5"
          ]
        }
      ],
      "CVSSScoreSets": {}
    },
    {
      "CVE": "CVE-2016-0772",
      "Description": "The smtplib library in CPython (aka Python) before 2.7.12, 3.x before 3.4.5, and 3.5.x before 3.5.2 does not return an error when StartTLS fails, which might allow man-in-the-middle attackers to bypass the TLS protections by leveraging a network position between the client and the registry to block the StartTLS command, aka a \"StartTLS stripping attack.\"",
      "Threats": [
        {
          "Type": "Impact",
          "Severity": "moderate"
        }
      ],
      "References": [
        {
          "URL": "https://www.suse.com/security/cve/CVE-2016-0772.html",
          "Description": "CVE-2016-0772"
        },
        {
          "URL": "https://bugzilla.suse.com/984751",
          "Description": "SUSE Bug 984751"
        }
      ],
      "ProductStatuses": [
        {
          "Type": "Fixed",
          "ProductID": [
            "openSUSE Tumbleweed:python-2.7.12-1.5",
            "openSUSE Tumbleweed:python-32bit-2.7.12-1.5",
            "openSUSE Tumbleweed:python-curses-2.7.12-1.5",
            "openSUSE Tumbleweed:python-demo-2.7.12-1.5",
            "openSUSE Tumbleweed:python-gdbm-2.7.12-1.5",
            "openSUSE Tumbleweed:python-idle-2.7.12-1.5",
            "openSUSE Tumbleweed:python-tk-2.7.12-1.5"
          ]
        }
      ],
      "CVSSScoreSets": {
        "BaseScore": "5.8",
        "Vector": "AV:N/AC:M/Au:N/C:P/I:P/A:N"
      }
    },
    {
      "CVE": "CVE-2016-5636",
      "Description": "Integer overflow in the get_data function in zipimport.c in CPython (aka Python) before 2.7.12, 3.x before 3.4.5, and 3.5.x before 3.5.2 allows remote attackers to have unspecified impact via a negative data size value, which triggers a heap-based buffer overflow.",
      "Threats": [
        {
          "Type": "Impact",
          "Severity": "important"
        }
      ],
      "References": [
        {
          "URL": "https://www.suse.com/security/cve/CVE-2016-5636.html",
          "Description": "CVE-2016-5636"
        },
        {
          "URL": "https://bugzilla.suse.com/1065451",
          "Description": "SUSE Bug 1065451"
        },
        {
          "URL": "https://bugzilla.suse.com/1106262",
          "Description": "SUSE Bug 1106262"
        },
        {
          "URL": "https://bugzilla.suse.com/985177",
          "Description": "SUSE Bug 985177"
        }
      ],
      "ProductStatuses": [
        {
          "Type": "Fixed",
          "ProductID": [
            "openSUSE Tumbleweed:python-2.7.12-1.5",
            "openSUSE Tumbleweed:python-32bit-2.7.12-1.5",
            "openSUSE Tumbleweed:python-curses-2.7.12-1.5",
            "openSUSE Tumbleweed:python-demo-2.7.12-1.5",
            "openSUSE Tumbleweed:python-gdbm-2.7.12-1.5",
            "openSUSE Tumbleweed:python-idle-2.7.12-1.5",
            "openSUSE Tumbleweed:python-tk-2.7.12-1.5"
          ]
        }
      ],
      "CVSSScoreSets": {
        "BaseScore": "4.4",
        "Vector": "AV:L/AC:M/Au:N/C:P/I:P/A:P"
      }
    },
    {
      "CVE": "CVE-2016-5699",
      "Description": "CRLF injection vulnerability in the HTTPConnection.putheader function in urllib2 and urllib in CPython (aka Python) before 2.7.10 and 3.x before 3.4.4 allows remote attackers to inject arbitrary HTTP headers via CRLF sequences in a URL.",
      "Threats": [
        {
          "Type": "Impact",
          "Severity": "moderate"
        }
      ],
      "References": [
        {
          "URL": "https://www.suse.com/security/cve/CVE-2016-5699.html",
          "Description": "CVE-2016-5699"
        },
        {
          "URL": "https://bugzilla.suse.com/1122729",
          "Description": "SUSE Bug 1122729"
        },
        {
          "URL": "https://bugzilla.suse.com/1130840",
          "Description": "SUSE Bug 1130840"
        },
        {
          "URL": "https://bugzilla.suse.com/985348",
          "Description": "SUSE Bug 985348"
        },
        {
          "URL": "https://bugzilla.suse.com/985351",
          "Description": "SUSE Bug 985351"
        },
        {
          "URL": "https://bugzilla.suse.com/986630",
          "Description": "SUSE Bug 986630"
        }
      ],
      "ProductStatuses": [
        {
          "Type": "Fixed",
          "ProductID": [
            "openSUSE Tumbleweed:python-2.7.12-1.5",
            "openSUSE Tumbleweed:python-32bit-2.7.12-1.5",
            "openSUSE Tumbleweed:python-curses-2.7.12-1.5",
            "openSUSE Tumbleweed:python-demo-2.7.12-1.5",
            "openSUSE Tumbleweed:python-gdbm-2.7.12-1.5",
            "openSUSE Tumbleweed:python-idle-2.7.12-1.5",
            "openSUSE Tumbleweed:python-tk-2.7.12-1.5"
          ]
        }
      ],
      "CVSSScoreSets": {
        "BaseScore": "5",
        "Vector": "AV:N/AC:L/Au:N/C:N/I:P/A:N"
      }
    }
  ]
}