{
  "Title": "jq-1.7.1-1.1 on GA media",
  "Tracking": {
    "ID": "openSUSE-SU-2024:13521-1",
    "Status": "Final",
    "Version": "1",
    "InitialReleaseDate": "2024-06-20T21:44:22Z",
    "CurrentReleaseDate": "2024-06-20T21:44:22Z",
    "RevisionHistory": [
      {
        "Number": "1",
        "Date": "2024-06-20T21:44:22Z",
        "Description": "current"
      }
    ]
  },
  "Notes": [
    {
      "Text": "jq-1.7.1-1.1 on GA media",
      "Title": "Topic",
      "Type": "Summary"
    },
    {
      "Text": "These are all security issues fixed in the jq-1.7.1-1.1 package on the GA media of openSUSE Tumbleweed.",
      "Title": "Details",
      "Type": "General"
    },
    {
      "Text": "The CVRF data is provided by SUSE under the Creative Commons License 4.0 with Attribution (CC-BY-4.0).",
      "Title": "Terms of Use",
      "Type": "Legal Disclaimer"
    },
    {
      "Text": "openSUSE-Tumbleweed-2024-13521",
      "Title": "Patchnames",
      "Type": "Details"
    }
  ],
  "ProductTree": {
    "Relationships": [
      {
        "ProductReference": "jq-1.7.1-1.1",
        "RelatesToProductReference": "openSUSE Tumbleweed",
        "RelationType": "Default Component Of"
      },
      {
        "ProductReference": "libjq-devel-1.7.1-1.1",
        "RelatesToProductReference": "openSUSE Tumbleweed",
        "RelationType": "Default Component Of"
      },
      {
        "ProductReference": "libjq1-1.7.1-1.1",
        "RelatesToProductReference": "openSUSE Tumbleweed",
        "RelationType": "Default Component Of"
      }
    ]
  },
  "References": [
    {
      "URL": "https://www.suse.com/support/security/rating/",
      "Description": "SUSE Security Ratings"
    },
    {
      "URL": "https://www.suse.com/security/cve/CVE-2023-50246/",
      "Description": "SUSE CVE CVE-2023-50246 page"
    },
    {
      "URL": "https://www.suse.com/security/cve/CVE-2023-50268/",
      "Description": "SUSE CVE CVE-2023-50268 page"
    }
  ],
  "Vulnerabilities": [
    {
      "CVE": "CVE-2023-50246",
      "Description": "jq is a command-line JSON processor. Version 1.7 is vulnerable to heap-based buffer overflow. Version 1.7.1 contains a patch for this issue.",
      "Threats": [
        {
          "Type": "Impact",
          "Severity": "moderate"
        }
      ],
      "References": [
        {
          "URL": "https://www.suse.com/security/cve/CVE-2023-50246.html",
          "Description": "CVE-2023-50246"
        },
        {
          "URL": "https://bugzilla.suse.com/1218034",
          "Description": "SUSE Bug 1218034"
        }
      ],
      "ProductStatuses": [
        {
          "Type": "Fixed",
          "ProductID": [
            "openSUSE Tumbleweed:jq-1.7.1-1.1",
            "openSUSE Tumbleweed:libjq-devel-1.7.1-1.1",
            "openSUSE Tumbleweed:libjq1-1.7.1-1.1"
          ]
        }
      ],
      "CVSSScoreSets": {}
    },
    {
      "CVE": "CVE-2023-50268",
      "Description": "jq is a command-line JSON processor. Version 1.7 is vulnerable to stack-based buffer overflow in builds using decNumber. Version 1.7.1 contains a patch for this issue.",
      "Threats": [
        {
          "Type": "Impact",
          "Severity": "moderate"
        }
      ],
      "References": [
        {
          "URL": "https://www.suse.com/security/cve/CVE-2023-50268.html",
          "Description": "CVE-2023-50268"
        },
        {
          "URL": "https://bugzilla.suse.com/1218038",
          "Description": "SUSE Bug 1218038"
        }
      ],
      "ProductStatuses": [
        {
          "Type": "Fixed",
          "ProductID": [
            "openSUSE Tumbleweed:jq-1.7.1-1.1",
            "openSUSE Tumbleweed:libjq-devel-1.7.1-1.1",
            "openSUSE Tumbleweed:libjq1-1.7.1-1.1"
          ]
        }
      ],
      "CVSSScoreSets": {}
    }
  ]
}