{
  "Title": "libblkid-devel-2.37.3-1.1 on GA media",
  "Tracking": {
    "ID": "openSUSE-SU-2024:11784-1",
    "Status": "Final",
    "Version": "1",
    "InitialReleaseDate": "2024-06-22T21:44:56Z",
    "CurrentReleaseDate": "2024-06-22T21:44:56Z",
    "RevisionHistory": [
      {
        "Number": "1",
        "Date": "2024-06-22T21:44:56Z",
        "Description": "current"
      }
    ]
  },
  "Notes": [
    {
      "Text": "libblkid-devel-2.37.3-1.1 on GA media",
      "Title": "Topic",
      "Type": "Summary"
    },
    {
      "Text": "These are all security issues fixed in the libblkid-devel-2.37.3-1.1 package on the GA media of openSUSE Tumbleweed.",
      "Title": "Details",
      "Type": "General"
    },
    {
      "Text": "The CVRF data is provided by SUSE under the Creative Commons License 4.0 with Attribution (CC-BY-4.0).",
      "Title": "Terms of Use",
      "Type": "Legal Disclaimer"
    },
    {
      "Text": "openSUSE-Tumbleweed-2024-11784",
      "Title": "Patchnames",
      "Type": "Details"
    }
  ],
  "ProductTree": {
    "Relationships": [
      {
        "ProductReference": "libblkid-devel-2.37.3-1.1",
        "RelatesToProductReference": "openSUSE Tumbleweed",
        "RelationType": "Default Component Of"
      },
      {
        "ProductReference": "libblkid-devel-32bit-2.37.3-1.1",
        "RelatesToProductReference": "openSUSE Tumbleweed",
        "RelationType": "Default Component Of"
      },
      {
        "ProductReference": "libblkid-devel-static-2.37.3-1.1",
        "RelatesToProductReference": "openSUSE Tumbleweed",
        "RelationType": "Default Component Of"
      },
      {
        "ProductReference": "libblkid1-2.37.3-1.1",
        "RelatesToProductReference": "openSUSE Tumbleweed",
        "RelationType": "Default Component Of"
      },
      {
        "ProductReference": "libblkid1-32bit-2.37.3-1.1",
        "RelatesToProductReference": "openSUSE Tumbleweed",
        "RelationType": "Default Component Of"
      },
      {
        "ProductReference": "libfdisk-devel-2.37.3-1.1",
        "RelatesToProductReference": "openSUSE Tumbleweed",
        "RelationType": "Default Component Of"
      },
      {
        "ProductReference": "libfdisk-devel-32bit-2.37.3-1.1",
        "RelatesToProductReference": "openSUSE Tumbleweed",
        "RelationType": "Default Component Of"
      },
      {
        "ProductReference": "libfdisk-devel-static-2.37.3-1.1",
        "RelatesToProductReference": "openSUSE Tumbleweed",
        "RelationType": "Default Component Of"
      },
      {
        "ProductReference": "libfdisk1-2.37.3-1.1",
        "RelatesToProductReference": "openSUSE Tumbleweed",
        "RelationType": "Default Component Of"
      },
      {
        "ProductReference": "libfdisk1-32bit-2.37.3-1.1",
        "RelatesToProductReference": "openSUSE Tumbleweed",
        "RelationType": "Default Component Of"
      },
      {
        "ProductReference": "libmount-devel-2.37.3-1.1",
        "RelatesToProductReference": "openSUSE Tumbleweed",
        "RelationType": "Default Component Of"
      },
      {
        "ProductReference": "libmount-devel-32bit-2.37.3-1.1",
        "RelatesToProductReference": "openSUSE Tumbleweed",
        "RelationType": "Default Component Of"
      },
      {
        "ProductReference": "libmount-devel-static-2.37.3-1.1",
        "RelatesToProductReference": "openSUSE Tumbleweed",
        "RelationType": "Default Component Of"
      },
      {
        "ProductReference": "libmount1-2.37.3-1.1",
        "RelatesToProductReference": "openSUSE Tumbleweed",
        "RelationType": "Default Component Of"
      },
      {
        "ProductReference": "libmount1-32bit-2.37.3-1.1",
        "RelatesToProductReference": "openSUSE Tumbleweed",
        "RelationType": "Default Component Of"
      },
      {
        "ProductReference": "libsmartcols-devel-2.37.3-1.1",
        "RelatesToProductReference": "openSUSE Tumbleweed",
        "RelationType": "Default Component Of"
      },
      {
        "ProductReference": "libsmartcols-devel-32bit-2.37.3-1.1",
        "RelatesToProductReference": "openSUSE Tumbleweed",
        "RelationType": "Default Component Of"
      },
      {
        "ProductReference": "libsmartcols-devel-static-2.37.3-1.1",
        "RelatesToProductReference": "openSUSE Tumbleweed",
        "RelationType": "Default Component Of"
      },
      {
        "ProductReference": "libsmartcols1-2.37.3-1.1",
        "RelatesToProductReference": "openSUSE Tumbleweed",
        "RelationType": "Default Component Of"
      },
      {
        "ProductReference": "libsmartcols1-32bit-2.37.3-1.1",
        "RelatesToProductReference": "openSUSE Tumbleweed",
        "RelationType": "Default Component Of"
      },
      {
        "ProductReference": "libuuid-devel-2.37.3-1.1",
        "RelatesToProductReference": "openSUSE Tumbleweed",
        "RelationType": "Default Component Of"
      },
      {
        "ProductReference": "libuuid-devel-32bit-2.37.3-1.1",
        "RelatesToProductReference": "openSUSE Tumbleweed",
        "RelationType": "Default Component Of"
      },
      {
        "ProductReference": "libuuid-devel-static-2.37.3-1.1",
        "RelatesToProductReference": "openSUSE Tumbleweed",
        "RelationType": "Default Component Of"
      },
      {
        "ProductReference": "libuuid1-2.37.3-1.1",
        "RelatesToProductReference": "openSUSE Tumbleweed",
        "RelationType": "Default Component Of"
      },
      {
        "ProductReference": "libuuid1-32bit-2.37.3-1.1",
        "RelatesToProductReference": "openSUSE Tumbleweed",
        "RelationType": "Default Component Of"
      },
      {
        "ProductReference": "util-linux-2.37.3-1.1",
        "RelatesToProductReference": "openSUSE Tumbleweed",
        "RelationType": "Default Component Of"
      },
      {
        "ProductReference": "util-linux-lang-2.37.3-1.1",
        "RelatesToProductReference": "openSUSE Tumbleweed",
        "RelationType": "Default Component Of"
      }
    ]
  },
  "References": [
    {
      "URL": "https://www.suse.com/support/security/rating/",
      "Description": "SUSE Security Ratings"
    },
    {
      "URL": "https://www.suse.com/security/cve/CVE-2021-3995/",
      "Description": "SUSE CVE CVE-2021-3995 page"
    },
    {
      "URL": "https://www.suse.com/security/cve/CVE-2021-3996/",
      "Description": "SUSE CVE CVE-2021-3996 page"
    }
  ],
  "Vulnerabilities": [
    {
      "CVE": "CVE-2021-3995",
      "Description": "A logic error was found in the libmount library of util-linux in the function that allows an unprivileged user to unmount a FUSE filesystem. This flaw allows an unprivileged local attacker to unmount FUSE filesystems that belong to certain other users who have a UID that is a prefix of the UID of the attacker in its string form. An attacker may use this flaw to cause a denial of service to applications that use the affected filesystems.",
      "Threats": [
        {
          "Type": "Impact",
          "Severity": "moderate"
        }
      ],
      "References": [
        {
          "URL": "https://www.suse.com/security/cve/CVE-2021-3995.html",
          "Description": "CVE-2021-3995"
        },
        {
          "URL": "https://bugzilla.suse.com/1194976",
          "Description": "SUSE Bug 1194976"
        }
      ],
      "ProductStatuses": [
        {
          "Type": "Fixed",
          "ProductID": [
            "openSUSE Tumbleweed:libblkid-devel-2.37.3-1.1",
            "openSUSE Tumbleweed:libblkid-devel-32bit-2.37.3-1.1",
            "openSUSE Tumbleweed:libblkid-devel-static-2.37.3-1.1",
            "openSUSE Tumbleweed:libblkid1-2.37.3-1.1",
            "openSUSE Tumbleweed:libblkid1-32bit-2.37.3-1.1",
            "openSUSE Tumbleweed:libfdisk-devel-2.37.3-1.1",
            "openSUSE Tumbleweed:libfdisk-devel-32bit-2.37.3-1.1",
            "openSUSE Tumbleweed:libfdisk-devel-static-2.37.3-1.1",
            "openSUSE Tumbleweed:libfdisk1-2.37.3-1.1",
            "openSUSE Tumbleweed:libfdisk1-32bit-2.37.3-1.1",
            "openSUSE Tumbleweed:libmount-devel-2.37.3-1.1",
            "openSUSE Tumbleweed:libmount-devel-32bit-2.37.3-1.1",
            "openSUSE Tumbleweed:libmount-devel-static-2.37.3-1.1",
            "openSUSE Tumbleweed:libmount1-2.37.3-1.1",
            "openSUSE Tumbleweed:libmount1-32bit-2.37.3-1.1",
            "openSUSE Tumbleweed:libsmartcols-devel-2.37.3-1.1",
            "openSUSE Tumbleweed:libsmartcols-devel-32bit-2.37.3-1.1",
            "openSUSE Tumbleweed:libsmartcols-devel-static-2.37.3-1.1",
            "openSUSE Tumbleweed:libsmartcols1-2.37.3-1.1",
            "openSUSE Tumbleweed:libsmartcols1-32bit-2.37.3-1.1",
            "openSUSE Tumbleweed:libuuid-devel-2.37.3-1.1",
            "openSUSE Tumbleweed:libuuid-devel-32bit-2.37.3-1.1",
            "openSUSE Tumbleweed:libuuid-devel-static-2.37.3-1.1",
            "openSUSE Tumbleweed:libuuid1-2.37.3-1.1",
            "openSUSE Tumbleweed:libuuid1-32bit-2.37.3-1.1",
            "openSUSE Tumbleweed:util-linux-2.37.3-1.1",
            "openSUSE Tumbleweed:util-linux-lang-2.37.3-1.1"
          ]
        }
      ],
      "CVSSScoreSets": {}
    },
    {
      "CVE": "CVE-2021-3996",
      "Description": "A logic error was found in the libmount library of util-linux in the function that allows an unprivileged user to unmount a FUSE filesystem. This flaw allows a local user on a vulnerable system to unmount other users' filesystems that are either world-writable themselves (like /tmp) or mounted in a world-writable directory. An attacker may use this flaw to cause a denial of service to applications that use the affected filesystems.",
      "Threats": [
        {
          "Type": "Impact",
          "Severity": "moderate"
        }
      ],
      "References": [
        {
          "URL": "https://www.suse.com/security/cve/CVE-2021-3996.html",
          "Description": "CVE-2021-3996"
        },
        {
          "URL": "https://bugzilla.suse.com/1194976",
          "Description": "SUSE Bug 1194976"
        }
      ],
      "ProductStatuses": [
        {
          "Type": "Fixed",
          "ProductID": [
            "openSUSE Tumbleweed:libblkid-devel-2.37.3-1.1",
            "openSUSE Tumbleweed:libblkid-devel-32bit-2.37.3-1.1",
            "openSUSE Tumbleweed:libblkid-devel-static-2.37.3-1.1",
            "openSUSE Tumbleweed:libblkid1-2.37.3-1.1",
            "openSUSE Tumbleweed:libblkid1-32bit-2.37.3-1.1",
            "openSUSE Tumbleweed:libfdisk-devel-2.37.3-1.1",
            "openSUSE Tumbleweed:libfdisk-devel-32bit-2.37.3-1.1",
            "openSUSE Tumbleweed:libfdisk-devel-static-2.37.3-1.1",
            "openSUSE Tumbleweed:libfdisk1-2.37.3-1.1",
            "openSUSE Tumbleweed:libfdisk1-32bit-2.37.3-1.1",
            "openSUSE Tumbleweed:libmount-devel-2.37.3-1.1",
            "openSUSE Tumbleweed:libmount-devel-32bit-2.37.3-1.1",
            "openSUSE Tumbleweed:libmount-devel-static-2.37.3-1.1",
            "openSUSE Tumbleweed:libmount1-2.37.3-1.1",
            "openSUSE Tumbleweed:libmount1-32bit-2.37.3-1.1",
            "openSUSE Tumbleweed:libsmartcols-devel-2.37.3-1.1",
            "openSUSE Tumbleweed:libsmartcols-devel-32bit-2.37.3-1.1",
            "openSUSE Tumbleweed:libsmartcols-devel-static-2.37.3-1.1",
            "openSUSE Tumbleweed:libsmartcols1-2.37.3-1.1",
            "openSUSE Tumbleweed:libsmartcols1-32bit-2.37.3-1.1",
            "openSUSE Tumbleweed:libuuid-devel-2.37.3-1.1",
            "openSUSE Tumbleweed:libuuid-devel-32bit-2.37.3-1.1",
            "openSUSE Tumbleweed:libuuid-devel-static-2.37.3-1.1",
            "openSUSE Tumbleweed:libuuid1-2.37.3-1.1",
            "openSUSE Tumbleweed:libuuid1-32bit-2.37.3-1.1",
            "openSUSE Tumbleweed:util-linux-2.37.3-1.1",
            "openSUSE Tumbleweed:util-linux-lang-2.37.3-1.1"
          ]
        }
      ],
      "CVSSScoreSets": {}
    }
  ]
}