{
  "Title": "libmwaw-0_3-3-0.3.20-1.1 on GA media",
  "Tracking": {
    "ID": "openSUSE-SU-2024:10959-1",
    "Status": "Final",
    "Version": "1",
    "InitialReleaseDate": "2024-06-22T21:44:56Z",
    "CurrentReleaseDate": "2024-06-22T21:44:56Z",
    "RevisionHistory": [
      {
        "Number": "1",
        "Date": "2024-06-22T21:44:56Z",
        "Description": "current"
      }
    ]
  },
  "Notes": [
    {
      "Text": "libmwaw-0_3-3-0.3.20-1.1 on GA media",
      "Title": "Topic",
      "Type": "Summary"
    },
    {
      "Text": "These are all security issues fixed in the libmwaw-0_3-3-0.3.20-1.1 package on the GA media of openSUSE Tumbleweed.",
      "Title": "Details",
      "Type": "General"
    },
    {
      "Text": "The CVRF data is provided by SUSE under the Creative Commons License 4.0 with Attribution (CC-BY-4.0).",
      "Title": "Terms of Use",
      "Type": "Legal Disclaimer"
    },
    {
      "Text": "openSUSE-Tumbleweed-2024-10959",
      "Title": "Patchnames",
      "Type": "Details"
    }
  ],
  "ProductTree": {
    "Relationships": [
      {
        "ProductReference": "libmwaw-0_3-3-0.3.20-1.1",
        "RelatesToProductReference": "openSUSE Tumbleweed",
        "RelationType": "Default Component Of"
      },
      {
        "ProductReference": "libmwaw-devel-0.3.20-1.1",
        "RelatesToProductReference": "openSUSE Tumbleweed",
        "RelationType": "Default Component Of"
      },
      {
        "ProductReference": "libmwaw-devel-doc-0.3.20-1.1",
        "RelatesToProductReference": "openSUSE Tumbleweed",
        "RelationType": "Default Component Of"
      },
      {
        "ProductReference": "libmwaw-tools-0.3.20-1.1",
        "RelatesToProductReference": "openSUSE Tumbleweed",
        "RelationType": "Default Component Of"
      }
    ]
  },
  "References": [
    {
      "URL": "https://www.suse.com/support/security/rating/",
      "Description": "SUSE Security Ratings"
    },
    {
      "URL": "https://www.suse.com/security/cve/CVE-2017-9433/",
      "Description": "SUSE CVE CVE-2017-9433 page"
    }
  ],
  "Vulnerabilities": [
    {
      "CVE": "CVE-2017-9433",
      "Description": "Document Liberation Project libmwaw before 2017-04-08 has an out-of-bounds write caused by a heap-based buffer overflow related to the MsWrd1Parser::readFootnoteCorrespondance function in lib/MsWrd1Parser.cxx.",
      "Threats": [
        {
          "Type": "Impact",
          "Severity": "moderate"
        }
      ],
      "References": [
        {
          "URL": "https://www.suse.com/security/cve/CVE-2017-9433.html",
          "Description": "CVE-2017-9433"
        },
        {
          "URL": "https://bugzilla.suse.com/1042828",
          "Description": "SUSE Bug 1042828"
        }
      ],
      "ProductStatuses": [
        {
          "Type": "Fixed",
          "ProductID": [
            "openSUSE Tumbleweed:libmwaw-0_3-3-0.3.20-1.1",
            "openSUSE Tumbleweed:libmwaw-devel-0.3.20-1.1",
            "openSUSE Tumbleweed:libmwaw-devel-doc-0.3.20-1.1",
            "openSUSE Tumbleweed:libmwaw-tools-0.3.20-1.1"
          ]
        }
      ],
      "CVSSScoreSets": {
        "BaseScore": "4.3",
        "Vector": "AV:N/AC:M/Au:N/C:N/I:N/A:P"
      }
    }
  ]
}