{
  "Title": "expat-2.4.6-1.1 on GA media",
  "Tracking": {
    "ID": "openSUSE-SU-2024:11866-1",
    "Status": "Final",
    "Version": "1",
    "InitialReleaseDate": "2024-06-22T21:44:56Z",
    "CurrentReleaseDate": "2024-06-22T21:44:56Z",
    "RevisionHistory": [
      {
        "Number": "1",
        "Date": "2024-06-22T21:44:56Z",
        "Description": "current"
      }
    ]
  },
  "Notes": [
    {
      "Text": "expat-2.4.6-1.1 on GA media",
      "Title": "Topic",
      "Type": "Summary"
    },
    {
      "Text": "These are all security issues fixed in the expat-2.4.6-1.1 package on the GA media of openSUSE Tumbleweed.",
      "Title": "Details",
      "Type": "General"
    },
    {
      "Text": "The CVRF data is provided by SUSE under the Creative Commons License 4.0 with Attribution (CC-BY-4.0).",
      "Title": "Terms of Use",
      "Type": "Legal Disclaimer"
    },
    {
      "Text": "openSUSE-Tumbleweed-2024-11866",
      "Title": "Patchnames",
      "Type": "Details"
    }
  ],
  "ProductTree": {
    "Relationships": [
      {
        "ProductReference": "expat-2.4.6-1.1",
        "RelatesToProductReference": "openSUSE Tumbleweed",
        "RelationType": "Default Component Of"
      },
      {
        "ProductReference": "libexpat-devel-2.4.6-1.1",
        "RelatesToProductReference": "openSUSE Tumbleweed",
        "RelationType": "Default Component Of"
      },
      {
        "ProductReference": "libexpat-devel-32bit-2.4.6-1.1",
        "RelatesToProductReference": "openSUSE Tumbleweed",
        "RelationType": "Default Component Of"
      },
      {
        "ProductReference": "libexpat1-2.4.6-1.1",
        "RelatesToProductReference": "openSUSE Tumbleweed",
        "RelationType": "Default Component Of"
      },
      {
        "ProductReference": "libexpat1-32bit-2.4.6-1.1",
        "RelatesToProductReference": "openSUSE Tumbleweed",
        "RelationType": "Default Component Of"
      }
    ]
  },
  "References": [
    {
      "URL": "https://www.suse.com/support/security/rating/",
      "Description": "SUSE Security Ratings"
    },
    {
      "URL": "https://www.suse.com/security/cve/CVE-2022-25235/",
      "Description": "SUSE CVE CVE-2022-25235 page"
    },
    {
      "URL": "https://www.suse.com/security/cve/CVE-2022-25236/",
      "Description": "SUSE CVE CVE-2022-25236 page"
    },
    {
      "URL": "https://www.suse.com/security/cve/CVE-2022-25313/",
      "Description": "SUSE CVE CVE-2022-25313 page"
    },
    {
      "URL": "https://www.suse.com/security/cve/CVE-2022-25314/",
      "Description": "SUSE CVE CVE-2022-25314 page"
    },
    {
      "URL": "https://www.suse.com/security/cve/CVE-2022-25315/",
      "Description": "SUSE CVE CVE-2022-25315 page"
    }
  ],
  "Vulnerabilities": [
    {
      "CVE": "CVE-2022-25235",
      "Description": "xmltok_impl.c in Expat (aka libexpat) before 2.4.5 lacks certain validation of encoding, such as checks for whether a UTF-8 character is valid in a certain context.",
      "Threats": [
        {
          "Type": "Impact",
          "Severity": "important"
        }
      ],
      "References": [
        {
          "URL": "https://www.suse.com/security/cve/CVE-2022-25235.html",
          "Description": "CVE-2022-25235"
        },
        {
          "URL": "https://bugzilla.suse.com/1196026",
          "Description": "SUSE Bug 1196026"
        },
        {
          "URL": "https://bugzilla.suse.com/1197217",
          "Description": "SUSE Bug 1197217"
        },
        {
          "URL": "https://bugzilla.suse.com/1198587",
          "Description": "SUSE Bug 1198587"
        },
        {
          "URL": "https://bugzilla.suse.com/1200038",
          "Description": "SUSE Bug 1200038"
        },
        {
          "URL": "https://bugzilla.suse.com/1200198",
          "Description": "SUSE Bug 1200198"
        },
        {
          "URL": "https://bugzilla.suse.com/1201735",
          "Description": "SUSE Bug 1201735"
        }
      ],
      "ProductStatuses": [
        {
          "Type": "Fixed",
          "ProductID": [
            "openSUSE Tumbleweed:expat-2.4.6-1.1",
            "openSUSE Tumbleweed:libexpat-devel-2.4.6-1.1",
            "openSUSE Tumbleweed:libexpat-devel-32bit-2.4.6-1.1",
            "openSUSE Tumbleweed:libexpat1-2.4.6-1.1",
            "openSUSE Tumbleweed:libexpat1-32bit-2.4.6-1.1"
          ]
        }
      ],
      "CVSSScoreSets": {}
    },
    {
      "CVE": "CVE-2022-25236",
      "Description": "xmlparse.c in Expat (aka libexpat) before 2.4.5 allows attackers to insert namespace-separator characters into namespace URIs.",
      "Threats": [
        {
          "Type": "Impact",
          "Severity": "important"
        }
      ],
      "References": [
        {
          "URL": "https://www.suse.com/security/cve/CVE-2022-25236.html",
          "Description": "CVE-2022-25236"
        },
        {
          "URL": "https://bugzilla.suse.com/1196025",
          "Description": "SUSE Bug 1196025"
        },
        {
          "URL": "https://bugzilla.suse.com/1196784",
          "Description": "SUSE Bug 1196784"
        },
        {
          "URL": "https://bugzilla.suse.com/1197217",
          "Description": "SUSE Bug 1197217"
        },
        {
          "URL": "https://bugzilla.suse.com/1200038",
          "Description": "SUSE Bug 1200038"
        },
        {
          "URL": "https://bugzilla.suse.com/1201735",
          "Description": "SUSE Bug 1201735"
        }
      ],
      "ProductStatuses": [
        {
          "Type": "Fixed",
          "ProductID": [
            "openSUSE Tumbleweed:expat-2.4.6-1.1",
            "openSUSE Tumbleweed:libexpat-devel-2.4.6-1.1",
            "openSUSE Tumbleweed:libexpat-devel-32bit-2.4.6-1.1",
            "openSUSE Tumbleweed:libexpat1-2.4.6-1.1",
            "openSUSE Tumbleweed:libexpat1-32bit-2.4.6-1.1"
          ]
        }
      ],
      "CVSSScoreSets": {}
    },
    {
      "CVE": "CVE-2022-25313",
      "Description": "In Expat (aka libexpat) before 2.4.5, an attacker can trigger stack exhaustion in build_model via a large nesting depth in the DTD element.",
      "Threats": [
        {
          "Type": "Impact",
          "Severity": "moderate"
        }
      ],
      "References": [
        {
          "URL": "https://www.suse.com/security/cve/CVE-2022-25313.html",
          "Description": "CVE-2022-25313"
        },
        {
          "URL": "https://bugzilla.suse.com/1196168",
          "Description": "SUSE Bug 1196168"
        }
      ],
      "ProductStatuses": [
        {
          "Type": "Fixed",
          "ProductID": [
            "openSUSE Tumbleweed:expat-2.4.6-1.1",
            "openSUSE Tumbleweed:libexpat-devel-2.4.6-1.1",
            "openSUSE Tumbleweed:libexpat-devel-32bit-2.4.6-1.1",
            "openSUSE Tumbleweed:libexpat1-2.4.6-1.1",
            "openSUSE Tumbleweed:libexpat1-32bit-2.4.6-1.1"
          ]
        }
      ],
      "CVSSScoreSets": {}
    },
    {
      "CVE": "CVE-2022-25314",
      "Description": "In Expat (aka libexpat) before 2.4.5, there is an integer overflow in copyString.",
      "Threats": [
        {
          "Type": "Impact",
          "Severity": "important"
        }
      ],
      "References": [
        {
          "URL": "https://www.suse.com/security/cve/CVE-2022-25314.html",
          "Description": "CVE-2022-25314"
        },
        {
          "URL": "https://bugzilla.suse.com/1196169",
          "Description": "SUSE Bug 1196169"
        },
        {
          "URL": "https://bugzilla.suse.com/1197217",
          "Description": "SUSE Bug 1197217"
        },
        {
          "URL": "https://bugzilla.suse.com/1198587",
          "Description": "SUSE Bug 1198587"
        },
        {
          "URL": "https://bugzilla.suse.com/1199096",
          "Description": "SUSE Bug 1199096"
        },
        {
          "URL": "https://bugzilla.suse.com/1200038",
          "Description": "SUSE Bug 1200038"
        },
        {
          "URL": "https://bugzilla.suse.com/1200198",
          "Description": "SUSE Bug 1200198"
        }
      ],
      "ProductStatuses": [
        {
          "Type": "Fixed",
          "ProductID": [
            "openSUSE Tumbleweed:expat-2.4.6-1.1",
            "openSUSE Tumbleweed:libexpat-devel-2.4.6-1.1",
            "openSUSE Tumbleweed:libexpat-devel-32bit-2.4.6-1.1",
            "openSUSE Tumbleweed:libexpat1-2.4.6-1.1",
            "openSUSE Tumbleweed:libexpat1-32bit-2.4.6-1.1"
          ]
        }
      ],
      "CVSSScoreSets": {}
    },
    {
      "CVE": "CVE-2022-25315",
      "Description": "In Expat (aka libexpat) before 2.4.5, there is an integer overflow in storeRawNames.",
      "Threats": [
        {
          "Type": "Impact",
          "Severity": "important"
        }
      ],
      "References": [
        {
          "URL": "https://www.suse.com/security/cve/CVE-2022-25315.html",
          "Description": "CVE-2022-25315"
        },
        {
          "URL": "https://bugzilla.suse.com/1196171",
          "Description": "SUSE Bug 1196171"
        },
        {
          "URL": "https://bugzilla.suse.com/1197217",
          "Description": "SUSE Bug 1197217"
        },
        {
          "URL": "https://bugzilla.suse.com/1198587",
          "Description": "SUSE Bug 1198587"
        },
        {
          "URL": "https://bugzilla.suse.com/1200038",
          "Description": "SUSE Bug 1200038"
        },
        {
          "URL": "https://bugzilla.suse.com/1200198",
          "Description": "SUSE Bug 1200198"
        },
        {
          "URL": "https://bugzilla.suse.com/1201735",
          "Description": "SUSE Bug 1201735"
        }
      ],
      "ProductStatuses": [
        {
          "Type": "Fixed",
          "ProductID": [
            "openSUSE Tumbleweed:expat-2.4.6-1.1",
            "openSUSE Tumbleweed:libexpat-devel-2.4.6-1.1",
            "openSUSE Tumbleweed:libexpat-devel-32bit-2.4.6-1.1",
            "openSUSE Tumbleweed:libexpat1-2.4.6-1.1",
            "openSUSE Tumbleweed:libexpat1-32bit-2.4.6-1.1"
          ]
        }
      ],
      "CVSSScoreSets": {}
    }
  ]
}