{
  "Title": "python310-pycryptodome-3.19.1-2.1 on GA media",
  "Tracking": {
    "ID": "openSUSE-SU-2024:13567-1",
    "Status": "Final",
    "Version": "1",
    "InitialReleaseDate": "2024-06-20T21:44:22Z",
    "CurrentReleaseDate": "2024-06-20T21:44:22Z",
    "RevisionHistory": [
      {
        "Number": "1",
        "Date": "2024-06-20T21:44:22Z",
        "Description": "current"
      }
    ]
  },
  "Notes": [
    {
      "Text": "python310-pycryptodome-3.19.1-2.1 on GA media",
      "Title": "Topic",
      "Type": "Summary"
    },
    {
      "Text": "These are all security issues fixed in the python310-pycryptodome-3.19.1-2.1 package on the GA media of openSUSE Tumbleweed.",
      "Title": "Details",
      "Type": "General"
    },
    {
      "Text": "The CVRF data is provided by SUSE under the Creative Commons License 4.0 with Attribution (CC-BY-4.0).",
      "Title": "Terms of Use",
      "Type": "Legal Disclaimer"
    },
    {
      "Text": "openSUSE-Tumbleweed-2024-13567",
      "Title": "Patchnames",
      "Type": "Details"
    }
  ],
  "ProductTree": {
    "Relationships": [
      {
        "ProductReference": "python310-pycryptodome-3.19.1-2.1",
        "RelatesToProductReference": "openSUSE Tumbleweed",
        "RelationType": "Default Component Of"
      },
      {
        "ProductReference": "python311-pycryptodome-3.19.1-2.1",
        "RelatesToProductReference": "openSUSE Tumbleweed",
        "RelationType": "Default Component Of"
      },
      {
        "ProductReference": "python39-pycryptodome-3.19.1-2.1",
        "RelatesToProductReference": "openSUSE Tumbleweed",
        "RelationType": "Default Component Of"
      }
    ]
  },
  "References": [
    {
      "URL": "https://www.suse.com/support/security/rating/",
      "Description": "SUSE Security Ratings"
    },
    {
      "URL": "https://www.suse.com/security/cve/CVE-2023-52323/",
      "Description": "SUSE CVE CVE-2023-52323 page"
    }
  ],
  "Vulnerabilities": [
    {
      "CVE": "CVE-2023-52323",
      "Description": "PyCryptodome and pycryptodomex before 3.19.1 allow side-channel leakage for OAEP decryption, exploitable for a Manger attack.",
      "Threats": [
        {
          "Type": "Impact",
          "Severity": "moderate"
        }
      ],
      "References": [
        {
          "URL": "https://www.suse.com/security/cve/CVE-2023-52323.html",
          "Description": "CVE-2023-52323"
        },
        {
          "URL": "https://bugzilla.suse.com/1218564",
          "Description": "SUSE Bug 1218564"
        }
      ],
      "ProductStatuses": [
        {
          "Type": "Fixed",
          "ProductID": [
            "openSUSE Tumbleweed:python310-pycryptodome-3.19.1-2.1",
            "openSUSE Tumbleweed:python311-pycryptodome-3.19.1-2.1",
            "openSUSE Tumbleweed:python39-pycryptodome-3.19.1-2.1"
          ]
        }
      ],
      "CVSSScoreSets": {}
    }
  ]
}