{
  "Title": "flatpak-builder-1.2.2-1.1 on GA media",
  "Tracking": {
    "ID": "openSUSE-SU-2024:11755-1",
    "Status": "Final",
    "Version": "1",
    "InitialReleaseDate": "2024-06-22T21:44:56Z",
    "CurrentReleaseDate": "2024-06-22T21:44:56Z",
    "RevisionHistory": [
      {
        "Number": "1",
        "Date": "2024-06-22T21:44:56Z",
        "Description": "current"
      }
    ]
  },
  "Notes": [
    {
      "Text": "flatpak-builder-1.2.2-1.1 on GA media",
      "Title": "Topic",
      "Type": "Summary"
    },
    {
      "Text": "These are all security issues fixed in the flatpak-builder-1.2.2-1.1 package on the GA media of openSUSE Tumbleweed.",
      "Title": "Details",
      "Type": "General"
    },
    {
      "Text": "The CVRF data is provided by SUSE under the Creative Commons License 4.0 with Attribution (CC-BY-4.0).",
      "Title": "Terms of Use",
      "Type": "Legal Disclaimer"
    },
    {
      "Text": "openSUSE-Tumbleweed-2024-11755",
      "Title": "Patchnames",
      "Type": "Details"
    }
  ],
  "ProductTree": {
    "Relationships": [
      {
        "ProductReference": "flatpak-builder-1.2.2-1.1",
        "RelatesToProductReference": "openSUSE Tumbleweed",
        "RelationType": "Default Component Of"
      }
    ]
  },
  "References": [
    {
      "URL": "https://www.suse.com/support/security/rating/",
      "Description": "SUSE Security Ratings"
    },
    {
      "URL": "https://www.suse.com/security/cve/CVE-2022-21682/",
      "Description": "SUSE CVE CVE-2022-21682 page"
    }
  ],
  "Vulnerabilities": [
    {
      "CVE": "CVE-2022-21682",
      "Description": "Flatpak is a Linux application sandboxing and distribution framework. A path traversal vulnerability affects versions of Flatpak prior to 1.12.3 and 1.10.6. flatpak-builder applies `finish-args` last in the build. At this point the build directory will have the full access that is specified in the manifest, so running `flatpak build` against it will gain those permissions. Normally this will not be done, so this is not problem. However, if `--mirror-screenshots-url` is specified, then flatpak-builder will launch `flatpak build --nofilesystem=host appstream-utils mirror-screenshots` after finalization, which can lead to issues even with the `--nofilesystem=host` protection. In normal use, the only issue is that these empty directories can be created wherever the user has write permissions. However, a malicious application could replace the `appstream-util` binary and potentially do something more hostile. This has been resolved in Flatpak 1.12.3 and 1.10.6 by changing the behaviour of `--nofilesystem=home` and `--nofilesystem=host`.",
      "Threats": [
        {
          "Type": "Impact",
          "Severity": "moderate"
        }
      ],
      "References": [
        {
          "URL": "https://www.suse.com/security/cve/CVE-2022-21682.html",
          "Description": "CVE-2022-21682"
        },
        {
          "URL": "https://bugzilla.suse.com/1194611",
          "Description": "SUSE Bug 1194611"
        },
        {
          "URL": "https://bugzilla.suse.com/1194703",
          "Description": "SUSE Bug 1194703"
        }
      ],
      "ProductStatuses": [
        {
          "Type": "Fixed",
          "ProductID": [
            "openSUSE Tumbleweed:flatpak-builder-1.2.2-1.1"
          ]
        }
      ],
      "CVSSScoreSets": {}
    }
  ]
}