{
  "Title": "liblouis-data-3.21.0-2.1 on GA media",
  "Tracking": {
    "ID": "openSUSE-SU-2024:12125-1",
    "Status": "Final",
    "Version": "1",
    "InitialReleaseDate": "2024-06-20T21:44:22Z",
    "CurrentReleaseDate": "2024-06-20T21:44:22Z",
    "RevisionHistory": [
      {
        "Number": "1",
        "Date": "2024-06-20T21:44:22Z",
        "Description": "current"
      }
    ]
  },
  "Notes": [
    {
      "Text": "liblouis-data-3.21.0-2.1 on GA media",
      "Title": "Topic",
      "Type": "Summary"
    },
    {
      "Text": "These are all security issues fixed in the liblouis-data-3.21.0-2.1 package on the GA media of openSUSE Tumbleweed.",
      "Title": "Details",
      "Type": "General"
    },
    {
      "Text": "The CVRF data is provided by SUSE under the Creative Commons License 4.0 with Attribution (CC-BY-4.0).",
      "Title": "Terms of Use",
      "Type": "Legal Disclaimer"
    },
    {
      "Text": "openSUSE-Tumbleweed-2024-12125",
      "Title": "Patchnames",
      "Type": "Details"
    }
  ],
  "ProductTree": {
    "Relationships": [
      {
        "ProductReference": "liblouis-data-3.21.0-2.1",
        "RelatesToProductReference": "openSUSE Tumbleweed",
        "RelationType": "Default Component Of"
      },
      {
        "ProductReference": "liblouis-devel-3.21.0-2.1",
        "RelatesToProductReference": "openSUSE Tumbleweed",
        "RelationType": "Default Component Of"
      },
      {
        "ProductReference": "liblouis-doc-3.21.0-2.1",
        "RelatesToProductReference": "openSUSE Tumbleweed",
        "RelationType": "Default Component Of"
      },
      {
        "ProductReference": "liblouis-tools-3.21.0-2.1",
        "RelatesToProductReference": "openSUSE Tumbleweed",
        "RelationType": "Default Component Of"
      },
      {
        "ProductReference": "liblouis20-3.21.0-2.1",
        "RelatesToProductReference": "openSUSE Tumbleweed",
        "RelationType": "Default Component Of"
      },
      {
        "ProductReference": "python3-louis-3.21.0-2.1",
        "RelatesToProductReference": "openSUSE Tumbleweed",
        "RelationType": "Default Component Of"
      }
    ]
  },
  "References": [
    {
      "URL": "https://www.suse.com/support/security/rating/",
      "Description": "SUSE Security Ratings"
    },
    {
      "URL": "https://www.suse.com/security/cve/CVE-2022-26981/",
      "Description": "SUSE CVE CVE-2022-26981 page"
    },
    {
      "URL": "https://www.suse.com/security/cve/CVE-2022-31783/",
      "Description": "SUSE CVE CVE-2022-31783 page"
    }
  ],
  "Vulnerabilities": [
    {
      "CVE": "CVE-2022-26981",
      "Description": "Liblouis through 3.21.0 has a buffer overflow in compilePassOpcode in compileTranslationTable.c (called, indirectly, by tools/lou_checktable.c).",
      "Threats": [
        {
          "Type": "Impact",
          "Severity": "moderate"
        }
      ],
      "References": [
        {
          "URL": "https://www.suse.com/security/cve/CVE-2022-26981.html",
          "Description": "CVE-2022-26981"
        },
        {
          "URL": "https://bugzilla.suse.com/1197085",
          "Description": "SUSE Bug 1197085"
        }
      ],
      "ProductStatuses": [
        {
          "Type": "Fixed",
          "ProductID": [
            "openSUSE Tumbleweed:liblouis-data-3.21.0-2.1",
            "openSUSE Tumbleweed:liblouis-devel-3.21.0-2.1",
            "openSUSE Tumbleweed:liblouis-doc-3.21.0-2.1",
            "openSUSE Tumbleweed:liblouis-tools-3.21.0-2.1",
            "openSUSE Tumbleweed:liblouis20-3.21.0-2.1",
            "openSUSE Tumbleweed:python3-louis-3.21.0-2.1"
          ]
        }
      ],
      "CVSSScoreSets": {}
    },
    {
      "CVE": "CVE-2022-31783",
      "Description": "Liblouis 3.21.0 has an out-of-bounds write in compileRule in compileTranslationTable.c, as demonstrated by lou_trace.",
      "Threats": [
        {
          "Type": "Impact",
          "Severity": "moderate"
        }
      ],
      "References": [
        {
          "URL": "https://www.suse.com/security/cve/CVE-2022-31783.html",
          "Description": "CVE-2022-31783"
        },
        {
          "URL": "https://bugzilla.suse.com/1200120",
          "Description": "SUSE Bug 1200120"
        }
      ],
      "ProductStatuses": [
        {
          "Type": "Fixed",
          "ProductID": [
            "openSUSE Tumbleweed:liblouis-data-3.21.0-2.1",
            "openSUSE Tumbleweed:liblouis-devel-3.21.0-2.1",
            "openSUSE Tumbleweed:liblouis-doc-3.21.0-2.1",
            "openSUSE Tumbleweed:liblouis-tools-3.21.0-2.1",
            "openSUSE Tumbleweed:liblouis20-3.21.0-2.1",
            "openSUSE Tumbleweed:python3-louis-3.21.0-2.1"
          ]
        }
      ],
      "CVSSScoreSets": {}
    }
  ]
}