{
  "Title": "iproxy-1.0.10-3.4 on GA media",
  "Tracking": {
    "ID": "openSUSE-SU-2024:10373-1",
    "Status": "Final",
    "Version": "1",
    "InitialReleaseDate": "2024-06-22T21:44:56Z",
    "CurrentReleaseDate": "2024-06-22T21:44:56Z",
    "RevisionHistory": [
      {
        "Number": "1",
        "Date": "2024-06-22T21:44:56Z",
        "Description": "current"
      }
    ]
  },
  "Notes": [
    {
      "Text": "iproxy-1.0.10-3.4 on GA media",
      "Title": "Topic",
      "Type": "Summary"
    },
    {
      "Text": "These are all security issues fixed in the iproxy-1.0.10-3.4 package on the GA media of openSUSE Tumbleweed.",
      "Title": "Details",
      "Type": "General"
    },
    {
      "Text": "The CVRF data is provided by SUSE under the Creative Commons License 4.0 with Attribution (CC-BY-4.0).",
      "Title": "Terms of Use",
      "Type": "Legal Disclaimer"
    },
    {
      "Text": "openSUSE-Tumbleweed-2024-10373",
      "Title": "Patchnames",
      "Type": "Details"
    }
  ],
  "ProductTree": {
    "Relationships": [
      {
        "ProductReference": "iproxy-1.0.10-3.4",
        "RelatesToProductReference": "openSUSE Tumbleweed",
        "RelationType": "Default Component Of"
      },
      {
        "ProductReference": "libusbmuxd-devel-1.0.10-3.4",
        "RelatesToProductReference": "openSUSE Tumbleweed",
        "RelationType": "Default Component Of"
      },
      {
        "ProductReference": "libusbmuxd4-1.0.10-3.4",
        "RelatesToProductReference": "openSUSE Tumbleweed",
        "RelationType": "Default Component Of"
      },
      {
        "ProductReference": "libusbmuxd4-32bit-1.0.10-3.4",
        "RelatesToProductReference": "openSUSE Tumbleweed",
        "RelationType": "Default Component Of"
      }
    ]
  },
  "References": [
    {
      "URL": "https://www.suse.com/support/security/rating/",
      "Description": "SUSE Security Ratings"
    },
    {
      "URL": "https://www.suse.com/security/cve/CVE-2016-5104/",
      "Description": "SUSE CVE CVE-2016-5104 page"
    }
  ],
  "Vulnerabilities": [
    {
      "CVE": "CVE-2016-5104",
      "Description": "The socket_create function in common/socket.c in libimobiledevice and libusbmuxd allows remote attackers to bypass intended access restrictions and communicate with services on iOS devices by connecting to an IPv4 TCP socket.",
      "Threats": [
        {
          "Type": "Impact",
          "Severity": "moderate"
        }
      ],
      "References": [
        {
          "URL": "https://www.suse.com/security/cve/CVE-2016-5104.html",
          "Description": "CVE-2016-5104"
        },
        {
          "URL": "https://bugzilla.suse.com/982014",
          "Description": "SUSE Bug 982014"
        }
      ],
      "ProductStatuses": [
        {
          "Type": "Fixed",
          "ProductID": [
            "openSUSE Tumbleweed:iproxy-1.0.10-3.4",
            "openSUSE Tumbleweed:libusbmuxd-devel-1.0.10-3.4",
            "openSUSE Tumbleweed:libusbmuxd4-1.0.10-3.4",
            "openSUSE Tumbleweed:libusbmuxd4-32bit-1.0.10-3.4"
          ]
        }
      ],
      "CVSSScoreSets": {
        "BaseScore": "6.8",
        "Vector": "AV:N/AC:M/Au:N/C:P/I:P/A:P"
      }
    }
  ]
}