{
  "Title": "libdrm-devel-2.4.107-2.1 on GA media",
  "Tracking": {
    "ID": "openSUSE-SU-2024:10935-1",
    "Status": "Final",
    "Version": "1",
    "InitialReleaseDate": "2024-06-22T21:44:56Z",
    "CurrentReleaseDate": "2024-06-22T21:44:56Z",
    "RevisionHistory": [
      {
        "Number": "1",
        "Date": "2024-06-22T21:44:56Z",
        "Description": "current"
      }
    ]
  },
  "Notes": [
    {
      "Text": "libdrm-devel-2.4.107-2.1 on GA media",
      "Title": "Topic",
      "Type": "Summary"
    },
    {
      "Text": "These are all security issues fixed in the libdrm-devel-2.4.107-2.1 package on the GA media of openSUSE Tumbleweed.",
      "Title": "Details",
      "Type": "General"
    },
    {
      "Text": "The CVRF data is provided by SUSE under the Creative Commons License 4.0 with Attribution (CC-BY-4.0).",
      "Title": "Terms of Use",
      "Type": "Legal Disclaimer"
    },
    {
      "Text": "openSUSE-Tumbleweed-2024-10935",
      "Title": "Patchnames",
      "Type": "Details"
    }
  ],
  "ProductTree": {
    "Relationships": [
      {
        "ProductReference": "libdrm-devel-2.4.107-2.1",
        "RelatesToProductReference": "openSUSE Tumbleweed",
        "RelationType": "Default Component Of"
      },
      {
        "ProductReference": "libdrm-devel-32bit-2.4.107-2.1",
        "RelatesToProductReference": "openSUSE Tumbleweed",
        "RelationType": "Default Component Of"
      },
      {
        "ProductReference": "libdrm-tools-2.4.107-2.1",
        "RelatesToProductReference": "openSUSE Tumbleweed",
        "RelationType": "Default Component Of"
      },
      {
        "ProductReference": "libdrm2-2.4.107-2.1",
        "RelatesToProductReference": "openSUSE Tumbleweed",
        "RelationType": "Default Component Of"
      },
      {
        "ProductReference": "libdrm2-32bit-2.4.107-2.1",
        "RelatesToProductReference": "openSUSE Tumbleweed",
        "RelationType": "Default Component Of"
      },
      {
        "ProductReference": "libdrm_amdgpu1-2.4.107-2.1",
        "RelatesToProductReference": "openSUSE Tumbleweed",
        "RelationType": "Default Component Of"
      },
      {
        "ProductReference": "libdrm_amdgpu1-32bit-2.4.107-2.1",
        "RelatesToProductReference": "openSUSE Tumbleweed",
        "RelationType": "Default Component Of"
      },
      {
        "ProductReference": "libdrm_intel1-2.4.107-2.1",
        "RelatesToProductReference": "openSUSE Tumbleweed",
        "RelationType": "Default Component Of"
      },
      {
        "ProductReference": "libdrm_intel1-32bit-2.4.107-2.1",
        "RelatesToProductReference": "openSUSE Tumbleweed",
        "RelationType": "Default Component Of"
      },
      {
        "ProductReference": "libdrm_nouveau2-2.4.107-2.1",
        "RelatesToProductReference": "openSUSE Tumbleweed",
        "RelationType": "Default Component Of"
      },
      {
        "ProductReference": "libdrm_nouveau2-32bit-2.4.107-2.1",
        "RelatesToProductReference": "openSUSE Tumbleweed",
        "RelationType": "Default Component Of"
      },
      {
        "ProductReference": "libdrm_radeon1-2.4.107-2.1",
        "RelatesToProductReference": "openSUSE Tumbleweed",
        "RelationType": "Default Component Of"
      },
      {
        "ProductReference": "libdrm_radeon1-32bit-2.4.107-2.1",
        "RelatesToProductReference": "openSUSE Tumbleweed",
        "RelationType": "Default Component Of"
      },
      {
        "ProductReference": "libkms-devel-2.4.107-2.1",
        "RelatesToProductReference": "openSUSE Tumbleweed",
        "RelationType": "Default Component Of"
      },
      {
        "ProductReference": "libkms-devel-32bit-2.4.107-2.1",
        "RelatesToProductReference": "openSUSE Tumbleweed",
        "RelationType": "Default Component Of"
      },
      {
        "ProductReference": "libkms1-2.4.107-2.1",
        "RelatesToProductReference": "openSUSE Tumbleweed",
        "RelationType": "Default Component Of"
      },
      {
        "ProductReference": "libkms1-32bit-2.4.107-2.1",
        "RelatesToProductReference": "openSUSE Tumbleweed",
        "RelationType": "Default Component Of"
      }
    ]
  },
  "References": [
    {
      "URL": "https://www.suse.com/support/security/rating/",
      "Description": "SUSE Security Ratings"
    },
    {
      "URL": "https://www.suse.com/security/cve/CVE-2008-3831/",
      "Description": "SUSE CVE CVE-2008-3831 page"
    }
  ],
  "Vulnerabilities": [
    {
      "CVE": "CVE-2008-3831",
      "Description": "The i915 driver in (1) drivers/char/drm/i915_dma.c in the Linux kernel 2.6.24 on Debian GNU/Linux and (2) sys/dev/pci/drm/i915_drv.c in OpenBSD does not restrict the DRM_I915_HWS_ADDR ioctl to the Direct Rendering Manager (DRM) master, which allows local users to cause a denial of service (memory corruption) via a crafted ioctl call, related to absence of the DRM_MASTER and DRM_ROOT_ONLY flags in the ioctl's configuration.",
      "Threats": [
        {
          "Type": "Impact",
          "Severity": "moderate"
        }
      ],
      "References": [
        {
          "URL": "https://www.suse.com/security/cve/CVE-2008-3831.html",
          "Description": "CVE-2008-3831"
        },
        {
          "URL": "https://bugzilla.suse.com/429919",
          "Description": "SUSE Bug 429919"
        }
      ],
      "ProductStatuses": [
        {
          "Type": "Fixed",
          "ProductID": [
            "openSUSE Tumbleweed:libdrm-devel-2.4.107-2.1",
            "openSUSE Tumbleweed:libdrm-devel-32bit-2.4.107-2.1",
            "openSUSE Tumbleweed:libdrm-tools-2.4.107-2.1",
            "openSUSE Tumbleweed:libdrm2-2.4.107-2.1",
            "openSUSE Tumbleweed:libdrm2-32bit-2.4.107-2.1",
            "openSUSE Tumbleweed:libdrm_amdgpu1-2.4.107-2.1",
            "openSUSE Tumbleweed:libdrm_amdgpu1-32bit-2.4.107-2.1",
            "openSUSE Tumbleweed:libdrm_intel1-2.4.107-2.1",
            "openSUSE Tumbleweed:libdrm_intel1-32bit-2.4.107-2.1",
            "openSUSE Tumbleweed:libdrm_nouveau2-2.4.107-2.1",
            "openSUSE Tumbleweed:libdrm_nouveau2-32bit-2.4.107-2.1",
            "openSUSE Tumbleweed:libdrm_radeon1-2.4.107-2.1",
            "openSUSE Tumbleweed:libdrm_radeon1-32bit-2.4.107-2.1",
            "openSUSE Tumbleweed:libkms-devel-2.4.107-2.1",
            "openSUSE Tumbleweed:libkms-devel-32bit-2.4.107-2.1",
            "openSUSE Tumbleweed:libkms1-2.4.107-2.1",
            "openSUSE Tumbleweed:libkms1-32bit-2.4.107-2.1"
          ]
        }
      ],
      "CVSSScoreSets": {}
    }
  ]
}