{
  "Title": "go1.17-1.17.1-1.1 on GA media",
  "Tracking": {
    "ID": "openSUSE-SU-2024:10810-1",
    "Status": "Final",
    "Version": "1",
    "InitialReleaseDate": "2024-06-22T21:44:56Z",
    "CurrentReleaseDate": "2024-06-22T21:44:56Z",
    "RevisionHistory": [
      {
        "Number": "1",
        "Date": "2024-06-22T21:44:56Z",
        "Description": "current"
      }
    ]
  },
  "Notes": [
    {
      "Text": "go1.17-1.17.1-1.1 on GA media",
      "Title": "Topic",
      "Type": "Summary"
    },
    {
      "Text": "These are all security issues fixed in the go1.17-1.17.1-1.1 package on the GA media of openSUSE Tumbleweed.",
      "Title": "Details",
      "Type": "General"
    },
    {
      "Text": "The CVRF data is provided by SUSE under the Creative Commons License 4.0 with Attribution (CC-BY-4.0).",
      "Title": "Terms of Use",
      "Type": "Legal Disclaimer"
    },
    {
      "Text": "openSUSE-Tumbleweed-2024-10810",
      "Title": "Patchnames",
      "Type": "Details"
    }
  ],
  "ProductTree": {
    "Relationships": [
      {
        "ProductReference": "go1.17-1.17.1-1.1",
        "RelatesToProductReference": "openSUSE Tumbleweed",
        "RelationType": "Default Component Of"
      },
      {
        "ProductReference": "go1.17-doc-1.17.1-1.1",
        "RelatesToProductReference": "openSUSE Tumbleweed",
        "RelationType": "Default Component Of"
      },
      {
        "ProductReference": "go1.17-race-1.17.1-1.1",
        "RelatesToProductReference": "openSUSE Tumbleweed",
        "RelationType": "Default Component Of"
      }
    ]
  },
  "References": [
    {
      "URL": "https://www.suse.com/support/security/rating/",
      "Description": "SUSE Security Ratings"
    },
    {
      "URL": "https://www.suse.com/security/cve/CVE-2021-39293/",
      "Description": "SUSE CVE CVE-2021-39293 page"
    }
  ],
  "Vulnerabilities": [
    {
      "CVE": "CVE-2021-39293",
      "Description": "In archive/zip in Go before 1.16.8 and 1.17.x before 1.17.1, a crafted archive header (falsely designating that many files are present) can cause a NewReader or OpenReader panic. NOTE: this issue exists because of an incomplete fix for CVE-2021-33196.",
      "Threats": [
        {
          "Type": "Impact",
          "Severity": "important"
        }
      ],
      "References": [
        {
          "URL": "https://www.suse.com/security/cve/CVE-2021-39293.html",
          "Description": "CVE-2021-39293"
        },
        {
          "URL": "https://bugzilla.suse.com/1190589",
          "Description": "SUSE Bug 1190589"
        }
      ],
      "ProductStatuses": [
        {
          "Type": "Fixed",
          "ProductID": [
            "openSUSE Tumbleweed:go1.17-1.17.1-1.1",
            "openSUSE Tumbleweed:go1.17-doc-1.17.1-1.1",
            "openSUSE Tumbleweed:go1.17-race-1.17.1-1.1"
          ]
        }
      ],
      "CVSSScoreSets": {}
    }
  ]
}