{
  "Title": "etcd-for-k8s1.25-3.5.9-1.1 on GA media",
  "Tracking": {
    "ID": "openSUSE-SU-2024:13369-1",
    "Status": "Final",
    "Version": "1",
    "InitialReleaseDate": "2024-06-20T21:44:22Z",
    "CurrentReleaseDate": "2024-06-20T21:44:22Z",
    "RevisionHistory": [
      {
        "Number": "1",
        "Date": "2024-06-20T21:44:22Z",
        "Description": "current"
      }
    ]
  },
  "Notes": [
    {
      "Text": "etcd-for-k8s1.25-3.5.9-1.1 on GA media",
      "Title": "Topic",
      "Type": "Summary"
    },
    {
      "Text": "These are all security issues fixed in the etcd-for-k8s1.25-3.5.9-1.1 package on the GA media of openSUSE Tumbleweed.",
      "Title": "Details",
      "Type": "General"
    },
    {
      "Text": "The CVRF data is provided by SUSE under the Creative Commons License 4.0 with Attribution (CC-BY-4.0).",
      "Title": "Terms of Use",
      "Type": "Legal Disclaimer"
    },
    {
      "Text": "openSUSE-Tumbleweed-2024-13369",
      "Title": "Patchnames",
      "Type": "Details"
    }
  ],
  "ProductTree": {
    "Relationships": [
      {
        "ProductReference": "etcd-for-k8s1.25-3.5.9-1.1",
        "RelatesToProductReference": "openSUSE Tumbleweed",
        "RelationType": "Default Component Of"
      }
    ]
  },
  "References": [
    {
      "URL": "https://www.suse.com/support/security/rating/",
      "Description": "SUSE Security Ratings"
    },
    {
      "URL": "https://www.suse.com/security/cve/CVE-2021-28235/",
      "Description": "SUSE CVE CVE-2021-28235 page"
    }
  ],
  "Vulnerabilities": [
    {
      "CVE": "CVE-2021-28235",
      "Description": "Authentication vulnerability found in Etcd-io v.3.4.10 allows remote attackers to escalate privileges via the debug function.",
      "Threats": [
        {
          "Type": "Impact",
          "Severity": "important"
        }
      ],
      "References": [
        {
          "URL": "https://www.suse.com/security/cve/CVE-2021-28235.html",
          "Description": "CVE-2021-28235"
        },
        {
          "URL": "https://bugzilla.suse.com/1210138",
          "Description": "SUSE Bug 1210138"
        }
      ],
      "ProductStatuses": [
        {
          "Type": "Fixed",
          "ProductID": [
            "openSUSE Tumbleweed:etcd-for-k8s1.25-3.5.9-1.1"
          ]
        }
      ],
      "CVSSScoreSets": {}
    }
  ]
}