{
  "Title": "perl-Test-File-1.448-1.5 on GA media",
  "Tracking": {
    "ID": "openSUSE-SU-2024:11163-1",
    "Status": "Final",
    "Version": "1",
    "InitialReleaseDate": "2024-06-22T21:44:56Z",
    "CurrentReleaseDate": "2024-06-22T21:44:56Z",
    "RevisionHistory": [
      {
        "Number": "1",
        "Date": "2024-06-22T21:44:56Z",
        "Description": "current"
      }
    ]
  },
  "Notes": [
    {
      "Text": "perl-Test-File-1.448-1.5 on GA media",
      "Title": "Topic",
      "Type": "Summary"
    },
    {
      "Text": "These are all security issues fixed in the perl-Test-File-1.448-1.5 package on the GA media of openSUSE Tumbleweed.",
      "Title": "Details",
      "Type": "General"
    },
    {
      "Text": "The CVRF data is provided by SUSE under the Creative Commons License 4.0 with Attribution (CC-BY-4.0).",
      "Title": "Terms of Use",
      "Type": "Legal Disclaimer"
    },
    {
      "Text": "openSUSE-Tumbleweed-2024-11163",
      "Title": "Patchnames",
      "Type": "Details"
    }
  ],
  "ProductTree": {
    "Relationships": [
      {
        "ProductReference": "perl-Test-File-1.448-1.5",
        "RelatesToProductReference": "openSUSE Tumbleweed",
        "RelationType": "Default Component Of"
      }
    ]
  },
  "References": [
    {
      "URL": "https://www.suse.com/support/security/rating/",
      "Description": "SUSE Security Ratings"
    },
    {
      "URL": "https://www.suse.com/security/cve/CVE-2016-1238/",
      "Description": "SUSE CVE CVE-2016-1238 page"
    }
  ],
  "Vulnerabilities": [
    {
      "CVE": "CVE-2016-1238",
      "Description": "(1) cpan/Archive-Tar/bin/ptar, (2) cpan/Archive-Tar/bin/ptardiff, (3) cpan/Archive-Tar/bin/ptargrep, (4) cpan/CPAN/scripts/cpan, (5) cpan/Digest-SHA/shasum, (6) cpan/Encode/bin/enc2xs, (7) cpan/Encode/bin/encguess, (8) cpan/Encode/bin/piconv, (9) cpan/Encode/bin/ucmlint, (10) cpan/Encode/bin/unidump, (11) cpan/ExtUtils-MakeMaker/bin/instmodsh, (12) cpan/IO-Compress/bin/zipdetails, (13) cpan/JSON-PP/bin/json_pp, (14) cpan/Test-Harness/bin/prove, (15) dist/ExtUtils-ParseXS/lib/ExtUtils/xsubpp, (16) dist/Module-CoreList/corelist, (17) ext/Pod-Html/bin/pod2html, (18) utils/c2ph.PL, (19) utils/h2ph.PL, (20) utils/h2xs.PL, (21) utils/libnetcfg.PL, (22) utils/perlbug.PL, (23) utils/perldoc.PL, (24) utils/perlivp.PL, and (25) utils/splain.PL in Perl 5.x before 5.22.3-RC2 and 5.24 before 5.24.1-RC2 do not properly remove . (period) characters from the end of the includes directory array, which might allow local users to gain privileges via a Trojan horse module under the current working directory.",
      "Threats": [
        {
          "Type": "Impact",
          "Severity": "moderate"
        }
      ],
      "References": [
        {
          "URL": "https://www.suse.com/security/cve/CVE-2016-1238.html",
          "Description": "CVE-2016-1238"
        },
        {
          "URL": "https://bugzilla.suse.com/1108749",
          "Description": "SUSE Bug 1108749"
        },
        {
          "URL": "https://bugzilla.suse.com/1123389",
          "Description": "SUSE Bug 1123389"
        },
        {
          "URL": "https://bugzilla.suse.com/987887",
          "Description": "SUSE Bug 987887"
        },
        {
          "URL": "https://bugzilla.suse.com/988311",
          "Description": "SUSE Bug 988311"
        }
      ],
      "ProductStatuses": [
        {
          "Type": "Fixed",
          "ProductID": [
            "openSUSE Tumbleweed:perl-Test-File-1.448-1.5"
          ]
        }
      ],
      "CVSSScoreSets": {
        "BaseScore": "4.6",
        "Vector": "AV:L/AC:L/Au:N/C:P/I:P/A:P"
      }
    }
  ]
}