{
  "Title": "nodejs-electron-28.2.9-1.1 on GA media",
  "Tracking": {
    "ID": "openSUSE-SU-2024:13810-1",
    "Status": "Final",
    "Version": "1",
    "InitialReleaseDate": "2024-06-20T21:44:22Z",
    "CurrentReleaseDate": "2024-06-20T21:44:22Z",
    "RevisionHistory": [
      {
        "Number": "1",
        "Date": "2024-06-20T21:44:22Z",
        "Description": "current"
      }
    ]
  },
  "Notes": [
    {
      "Text": "nodejs-electron-28.2.9-1.1 on GA media",
      "Title": "Topic",
      "Type": "Summary"
    },
    {
      "Text": "These are all security issues fixed in the nodejs-electron-28.2.9-1.1 package on the GA media of openSUSE Tumbleweed.",
      "Title": "Details",
      "Type": "General"
    },
    {
      "Text": "The CVRF data is provided by SUSE under the Creative Commons License 4.0 with Attribution (CC-BY-4.0).",
      "Title": "Terms of Use",
      "Type": "Legal Disclaimer"
    },
    {
      "Text": "openSUSE-Tumbleweed-2024-13810",
      "Title": "Patchnames",
      "Type": "Details"
    }
  ],
  "ProductTree": {
    "Relationships": [
      {
        "ProductReference": "nodejs-electron-28.2.9-1.1",
        "RelatesToProductReference": "openSUSE Tumbleweed",
        "RelationType": "Default Component Of"
      },
      {
        "ProductReference": "nodejs-electron-devel-28.2.9-1.1",
        "RelatesToProductReference": "openSUSE Tumbleweed",
        "RelationType": "Default Component Of"
      },
      {
        "ProductReference": "nodejs-electron-doc-28.2.9-1.1",
        "RelatesToProductReference": "openSUSE Tumbleweed",
        "RelationType": "Default Component Of"
      }
    ]
  },
  "References": [
    {
      "URL": "https://www.suse.com/support/security/rating/",
      "Description": "SUSE Security Ratings"
    },
    {
      "URL": "https://www.suse.com/security/cve/CVE-2024-2625/",
      "Description": "SUSE CVE CVE-2024-2625 page"
    }
  ],
  "Vulnerabilities": [
    {
      "CVE": "CVE-2024-2625",
      "Description": "Object lifecycle issue in V8 in Google Chrome prior to 123.0.6312.58 allowed a remote attacker to potentially exploit object corruption via a crafted HTML page. (Chromium security severity: High)",
      "Threats": [
        {
          "Type": "Impact",
          "Severity": "moderate"
        }
      ],
      "References": [
        {
          "URL": "https://www.suse.com/security/cve/CVE-2024-2625.html",
          "Description": "CVE-2024-2625"
        },
        {
          "URL": "https://bugzilla.suse.com/1221732",
          "Description": "SUSE Bug 1221732"
        }
      ],
      "ProductStatuses": [
        {
          "Type": "Fixed",
          "ProductID": [
            "openSUSE Tumbleweed:nodejs-electron-28.2.9-1.1",
            "openSUSE Tumbleweed:nodejs-electron-devel-28.2.9-1.1",
            "openSUSE Tumbleweed:nodejs-electron-doc-28.2.9-1.1"
          ]
        }
      ],
      "CVSSScoreSets": {}
    }
  ]
}