{
  "Title": "apache-ivy-2.5.2-1.1 on GA media",
  "Tracking": {
    "ID": "openSUSE-SU-2024:13148-1",
    "Status": "Final",
    "Version": "1",
    "InitialReleaseDate": "2024-06-20T21:44:22Z",
    "CurrentReleaseDate": "2024-06-20T21:44:22Z",
    "RevisionHistory": [
      {
        "Number": "1",
        "Date": "2024-06-20T21:44:22Z",
        "Description": "current"
      }
    ]
  },
  "Notes": [
    {
      "Text": "apache-ivy-2.5.2-1.1 on GA media",
      "Title": "Topic",
      "Type": "Summary"
    },
    {
      "Text": "These are all security issues fixed in the apache-ivy-2.5.2-1.1 package on the GA media of openSUSE Tumbleweed.",
      "Title": "Details",
      "Type": "General"
    },
    {
      "Text": "The CVRF data is provided by SUSE under the Creative Commons License 4.0 with Attribution (CC-BY-4.0).",
      "Title": "Terms of Use",
      "Type": "Legal Disclaimer"
    },
    {
      "Text": "openSUSE-Tumbleweed-2024-13148",
      "Title": "Patchnames",
      "Type": "Details"
    }
  ],
  "ProductTree": {
    "Relationships": [
      {
        "ProductReference": "apache-ivy-2.5.2-1.1",
        "RelatesToProductReference": "openSUSE Tumbleweed",
        "RelationType": "Default Component Of"
      },
      {
        "ProductReference": "apache-ivy-javadoc-2.5.2-1.1",
        "RelatesToProductReference": "openSUSE Tumbleweed",
        "RelationType": "Default Component Of"
      }
    ]
  },
  "References": [
    {
      "URL": "https://www.suse.com/support/security/rating/",
      "Description": "SUSE Security Ratings"
    },
    {
      "URL": "https://www.suse.com/security/cve/CVE-2022-46751/",
      "Description": "SUSE CVE CVE-2022-46751 page"
    }
  ],
  "Vulnerabilities": [
    {
      "CVE": "CVE-2022-46751",
      "Description": "Improper Restriction of XML External Entity Reference, XML Injection (aka Blind XPath Injection) vulnerability in Apache Software Foundation Apache Ivy.This issue affects any version of Apache Ivy prior to 2.5.2.\n\nWhen Apache Ivy prior to 2.5.2 parses XML files - either its own configuration, Ivy files or Apache Maven POMs - it will allow downloading external document type definitions and expand any entity references contained therein when used.\n\nThis can be used to exfiltrate data, access resources only the machine running Ivy has access to or disturb the execution of Ivy in different ways.\n\nStarting with Ivy 2.5.2 DTD processing is disabled by default except when parsing Maven POMs where the default is to allow DTD processing but only to include a DTD snippet shipping with Ivy that is needed to deal with existing Maven POMs that are not valid XML files but are nevertheless accepted by Maven. Access can be be made more lenient via newly introduced system properties where needed.\n\nUsers of Ivy prior to version 2.5.2 can use Java system properties to restrict processing of external DTDs, see the section about \"JAXP Properties for External Access restrictions\" inside Oracle's \"Java API for XML Processing (JAXP) Security Guide\".\n\n",
      "Threats": [
        {
          "Type": "Impact",
          "Severity": "moderate"
        }
      ],
      "References": [
        {
          "URL": "https://www.suse.com/security/cve/CVE-2022-46751.html",
          "Description": "CVE-2022-46751"
        },
        {
          "URL": "https://bugzilla.suse.com/1214422",
          "Description": "SUSE Bug 1214422"
        }
      ],
      "ProductStatuses": [
        {
          "Type": "Fixed",
          "ProductID": [
            "openSUSE Tumbleweed:apache-ivy-2.5.2-1.1",
            "openSUSE Tumbleweed:apache-ivy-javadoc-2.5.2-1.1"
          ]
        }
      ],
      "CVSSScoreSets": {}
    }
  ]
}