{
  "Title": "libvmtools-devel-10.1.0-1.1 on GA media",
  "Tracking": {
    "ID": "openSUSE-SU-2024:10475-1",
    "Status": "Final",
    "Version": "1",
    "InitialReleaseDate": "2024-06-22T21:44:56Z",
    "CurrentReleaseDate": "2024-06-22T21:44:56Z",
    "RevisionHistory": [
      {
        "Number": "1",
        "Date": "2024-06-22T21:44:56Z",
        "Description": "current"
      }
    ]
  },
  "Notes": [
    {
      "Text": "libvmtools-devel-10.1.0-1.1 on GA media",
      "Title": "Topic",
      "Type": "Summary"
    },
    {
      "Text": "These are all security issues fixed in the libvmtools-devel-10.1.0-1.1 package on the GA media of openSUSE Tumbleweed.",
      "Title": "Details",
      "Type": "General"
    },
    {
      "Text": "The CVRF data is provided by SUSE under the Creative Commons License 4.0 with Attribution (CC-BY-4.0).",
      "Title": "Terms of Use",
      "Type": "Legal Disclaimer"
    },
    {
      "Text": "openSUSE-Tumbleweed-2024-10475",
      "Title": "Patchnames",
      "Type": "Details"
    }
  ],
  "ProductTree": {
    "Relationships": [
      {
        "ProductReference": "libvmtools-devel-10.1.0-1.1",
        "RelatesToProductReference": "openSUSE Tumbleweed",
        "RelationType": "Default Component Of"
      },
      {
        "ProductReference": "libvmtools0-10.1.0-1.1",
        "RelatesToProductReference": "openSUSE Tumbleweed",
        "RelationType": "Default Component Of"
      },
      {
        "ProductReference": "open-vm-tools-10.1.0-1.1",
        "RelatesToProductReference": "openSUSE Tumbleweed",
        "RelationType": "Default Component Of"
      },
      {
        "ProductReference": "open-vm-tools-desktop-10.1.0-1.1",
        "RelatesToProductReference": "openSUSE Tumbleweed",
        "RelationType": "Default Component Of"
      }
    ]
  },
  "References": [
    {
      "URL": "https://www.suse.com/support/security/rating/",
      "Description": "SUSE Security Ratings"
    },
    {
      "URL": "https://www.suse.com/security/cve/CVE-2015-5191/",
      "Description": "SUSE CVE CVE-2015-5191 page"
    }
  ],
  "Vulnerabilities": [
    {
      "CVE": "CVE-2015-5191",
      "Description": "VMware Tools prior to 10.0.9 contains multiple file system races in libDeployPkg, related to the use of hard-coded paths under /tmp. Successful exploitation of this issue may result in a local privilege escalation. CVSS:3.0/AV:L/AC:H/PR:L/UI:R/S:U/C:H/I:H/A:H",
      "Threats": [
        {
          "Type": "Impact",
          "Severity": "moderate"
        }
      ],
      "References": [
        {
          "URL": "https://www.suse.com/security/cve/CVE-2015-5191.html",
          "Description": "CVE-2015-5191"
        },
        {
          "URL": "https://bugzilla.suse.com/1007600",
          "Description": "SUSE Bug 1007600"
        }
      ],
      "ProductStatuses": [
        {
          "Type": "Fixed",
          "ProductID": [
            "openSUSE Tumbleweed:libvmtools-devel-10.1.0-1.1",
            "openSUSE Tumbleweed:libvmtools0-10.1.0-1.1",
            "openSUSE Tumbleweed:open-vm-tools-10.1.0-1.1",
            "openSUSE Tumbleweed:open-vm-tools-desktop-10.1.0-1.1"
          ]
        }
      ],
      "CVSSScoreSets": {
        "BaseScore": "6.6",
        "Vector": "AV:L/AC:M/Au:S/C:C/I:C/A:C"
      }
    }
  ]
}