{
  "Title": "python310-aiohttp-3.9.3-2.1 on GA media",
  "Tracking": {
    "ID": "openSUSE-SU-2024:13691-1",
    "Status": "Final",
    "Version": "1",
    "InitialReleaseDate": "2024-06-20T21:44:22Z",
    "CurrentReleaseDate": "2024-06-20T21:44:22Z",
    "RevisionHistory": [
      {
        "Number": "1",
        "Date": "2024-06-20T21:44:22Z",
        "Description": "current"
      }
    ]
  },
  "Notes": [
    {
      "Text": "python310-aiohttp-3.9.3-2.1 on GA media",
      "Title": "Topic",
      "Type": "Summary"
    },
    {
      "Text": "These are all security issues fixed in the python310-aiohttp-3.9.3-2.1 package on the GA media of openSUSE Tumbleweed.",
      "Title": "Details",
      "Type": "General"
    },
    {
      "Text": "The CVRF data is provided by SUSE under the Creative Commons License 4.0 with Attribution (CC-BY-4.0).",
      "Title": "Terms of Use",
      "Type": "Legal Disclaimer"
    },
    {
      "Text": "openSUSE-Tumbleweed-2024-13691",
      "Title": "Patchnames",
      "Type": "Details"
    }
  ],
  "ProductTree": {
    "Relationships": [
      {
        "ProductReference": "python310-aiohttp-3.9.3-2.1",
        "RelatesToProductReference": "openSUSE Tumbleweed",
        "RelationType": "Default Component Of"
      },
      {
        "ProductReference": "python311-aiohttp-3.9.3-2.1",
        "RelatesToProductReference": "openSUSE Tumbleweed",
        "RelationType": "Default Component Of"
      },
      {
        "ProductReference": "python312-aiohttp-3.9.3-2.1",
        "RelatesToProductReference": "openSUSE Tumbleweed",
        "RelationType": "Default Component Of"
      },
      {
        "ProductReference": "python39-aiohttp-3.9.3-2.1",
        "RelatesToProductReference": "openSUSE Tumbleweed",
        "RelationType": "Default Component Of"
      }
    ]
  },
  "References": [
    {
      "URL": "https://www.suse.com/support/security/rating/",
      "Description": "SUSE Security Ratings"
    },
    {
      "URL": "https://www.suse.com/security/cve/CVE-2023-47641/",
      "Description": "SUSE CVE CVE-2023-47641 page"
    },
    {
      "URL": "https://www.suse.com/security/cve/CVE-2023-49081/",
      "Description": "SUSE CVE CVE-2023-49081 page"
    }
  ],
  "Vulnerabilities": [
    {
      "CVE": "CVE-2023-47641",
      "Description": "aiohttp is an asynchronous HTTP client/server framework for asyncio and Python. Affected versions of aiohttp have a security vulnerability regarding the inconsistent interpretation of the http protocol. HTTP/1.1 is a persistent protocol, if both Content-Length(CL) and Transfer-Encoding(TE) header values are present it can lead to incorrect interpretation of two entities that parse the HTTP and we can poison other sockets with this incorrect interpretation. A possible Proof-of-Concept (POC) would be a configuration with a reverse proxy(frontend) that accepts both CL and TE headers and aiohttp as backend. As aiohttp parses anything with chunked, we can pass a chunked123 as TE, the frontend entity will ignore this header and will parse Content-Length. The impact of this vulnerability is that it is possible to bypass any proxy rule, poisoning sockets to other users like passing Authentication Headers, also if it is present an Open Redirect an attacker could combine it to redirect random users to another website and log the request. This vulnerability has been addressed in release 3.8.0 of aiohttp. Users are advised to upgrade. There are no known workarounds for this vulnerability.",
      "Threats": [
        {
          "Type": "Impact",
          "Severity": "moderate"
        }
      ],
      "References": [
        {
          "URL": "https://www.suse.com/security/cve/CVE-2023-47641.html",
          "Description": "CVE-2023-47641"
        },
        {
          "URL": "https://bugzilla.suse.com/1217174",
          "Description": "SUSE Bug 1217174"
        }
      ],
      "ProductStatuses": [
        {
          "Type": "Fixed",
          "ProductID": [
            "openSUSE Tumbleweed:python310-aiohttp-3.9.3-2.1",
            "openSUSE Tumbleweed:python311-aiohttp-3.9.3-2.1",
            "openSUSE Tumbleweed:python312-aiohttp-3.9.3-2.1",
            "openSUSE Tumbleweed:python39-aiohttp-3.9.3-2.1"
          ]
        }
      ],
      "CVSSScoreSets": {}
    },
    {
      "CVE": "CVE-2023-49081",
      "Description": "aiohttp is an asynchronous HTTP client/server framework for asyncio and Python. Improper validation made it possible for an attacker to modify the HTTP request (e.g. to insert a new header) or create a new HTTP request if the attacker controls the HTTP version. The vulnerability only occurs if the attacker can control the HTTP version of the request. This issue has been patched in version 3.9.0.",
      "Threats": [
        {
          "Type": "Impact",
          "Severity": "moderate"
        }
      ],
      "References": [
        {
          "URL": "https://www.suse.com/security/cve/CVE-2023-49081.html",
          "Description": "CVE-2023-49081"
        },
        {
          "URL": "https://bugzilla.suse.com/1217684",
          "Description": "SUSE Bug 1217684"
        }
      ],
      "ProductStatuses": [
        {
          "Type": "Fixed",
          "ProductID": [
            "openSUSE Tumbleweed:python310-aiohttp-3.9.3-2.1",
            "openSUSE Tumbleweed:python311-aiohttp-3.9.3-2.1",
            "openSUSE Tumbleweed:python312-aiohttp-3.9.3-2.1",
            "openSUSE Tumbleweed:python39-aiohttp-3.9.3-2.1"
          ]
        }
      ],
      "CVSSScoreSets": {}
    }
  ]
}