{
  "Title": "liferea-1.14.1-1.1 on GA media",
  "Tracking": {
    "ID": "openSUSE-SU-2024:12783-1",
    "Status": "Final",
    "Version": "1",
    "InitialReleaseDate": "2024-06-20T21:44:22Z",
    "CurrentReleaseDate": "2024-06-20T21:44:22Z",
    "RevisionHistory": [
      {
        "Number": "1",
        "Date": "2024-06-20T21:44:22Z",
        "Description": "current"
      }
    ]
  },
  "Notes": [
    {
      "Text": "liferea-1.14.1-1.1 on GA media",
      "Title": "Topic",
      "Type": "Summary"
    },
    {
      "Text": "These are all security issues fixed in the liferea-1.14.1-1.1 package on the GA media of openSUSE Tumbleweed.",
      "Title": "Details",
      "Type": "General"
    },
    {
      "Text": "The CVRF data is provided by SUSE under the Creative Commons License 4.0 with Attribution (CC-BY-4.0).",
      "Title": "Terms of Use",
      "Type": "Legal Disclaimer"
    },
    {
      "Text": "openSUSE-Tumbleweed-2024-12783",
      "Title": "Patchnames",
      "Type": "Details"
    }
  ],
  "ProductTree": {
    "Relationships": [
      {
        "ProductReference": "liferea-1.14.1-1.1",
        "RelatesToProductReference": "openSUSE Tumbleweed",
        "RelationType": "Default Component Of"
      },
      {
        "ProductReference": "liferea-lang-1.14.1-1.1",
        "RelatesToProductReference": "openSUSE Tumbleweed",
        "RelationType": "Default Component Of"
      }
    ]
  },
  "References": [
    {
      "URL": "https://www.suse.com/support/security/rating/",
      "Description": "SUSE Security Ratings"
    },
    {
      "URL": "https://www.suse.com/security/cve/CVE-2023-1350/",
      "Description": "SUSE CVE CVE-2023-1350 page"
    }
  ],
  "Vulnerabilities": [
    {
      "CVE": "CVE-2023-1350",
      "Description": "A vulnerability was found in liferea. It has been rated as critical. Affected by this issue is the function update_job_run of the file src/update.c of the component Feed Enrichment. The manipulation of the argument source with the input |date \u0026gt;/tmp/bad-item-link.txt leads to os command injection. The attack may be launched remotely. The exploit has been disclosed to the public and may be used. The name of the patch is 8d8b5b963fa64c7a2122d1bbfbb0bed46e813e59. It is recommended to apply a patch to fix this issue. The identifier of this vulnerability is VDB-222848.",
      "Threats": [
        {
          "Type": "Impact",
          "Severity": "moderate"
        }
      ],
      "References": [
        {
          "URL": "https://www.suse.com/security/cve/CVE-2023-1350.html",
          "Description": "CVE-2023-1350"
        },
        {
          "URL": "https://bugzilla.suse.com/1209190",
          "Description": "SUSE Bug 1209190"
        }
      ],
      "ProductStatuses": [
        {
          "Type": "Fixed",
          "ProductID": [
            "openSUSE Tumbleweed:liferea-1.14.1-1.1",
            "openSUSE Tumbleweed:liferea-lang-1.14.1-1.1"
          ]
        }
      ],
      "CVSSScoreSets": {}
    }
  ]
}