{
  "Title": "qemu-7.1.0-2.1 on GA media",
  "Tracking": {
    "ID": "openSUSE-SU-2024:12393-1",
    "Status": "Final",
    "Version": "1",
    "InitialReleaseDate": "2024-06-20T21:44:22Z",
    "CurrentReleaseDate": "2024-06-20T21:44:22Z",
    "RevisionHistory": [
      {
        "Number": "1",
        "Date": "2024-06-20T21:44:22Z",
        "Description": "current"
      }
    ]
  },
  "Notes": [
    {
      "Text": "qemu-7.1.0-2.1 on GA media",
      "Title": "Topic",
      "Type": "Summary"
    },
    {
      "Text": "These are all security issues fixed in the qemu-7.1.0-2.1 package on the GA media of openSUSE Tumbleweed.",
      "Title": "Details",
      "Type": "General"
    },
    {
      "Text": "The CVRF data is provided by SUSE under the Creative Commons License 4.0 with Attribution (CC-BY-4.0).",
      "Title": "Terms of Use",
      "Type": "Legal Disclaimer"
    },
    {
      "Text": "openSUSE-Tumbleweed-2024-12393",
      "Title": "Patchnames",
      "Type": "Details"
    }
  ],
  "ProductTree": {
    "Relationships": [
      {
        "ProductReference": "qemu-7.1.0-2.1",
        "RelatesToProductReference": "openSUSE Tumbleweed",
        "RelationType": "Default Component Of"
      },
      {
        "ProductReference": "qemu-SLOF-7.1.0-2.1",
        "RelatesToProductReference": "openSUSE Tumbleweed",
        "RelationType": "Default Component Of"
      },
      {
        "ProductReference": "qemu-accel-qtest-7.1.0-2.1",
        "RelatesToProductReference": "openSUSE Tumbleweed",
        "RelationType": "Default Component Of"
      },
      {
        "ProductReference": "qemu-accel-tcg-x86-7.1.0-2.1",
        "RelatesToProductReference": "openSUSE Tumbleweed",
        "RelationType": "Default Component Of"
      },
      {
        "ProductReference": "qemu-arm-7.1.0-2.1",
        "RelatesToProductReference": "openSUSE Tumbleweed",
        "RelationType": "Default Component Of"
      },
      {
        "ProductReference": "qemu-audio-alsa-7.1.0-2.1",
        "RelatesToProductReference": "openSUSE Tumbleweed",
        "RelationType": "Default Component Of"
      },
      {
        "ProductReference": "qemu-audio-dbus-7.1.0-2.1",
        "RelatesToProductReference": "openSUSE Tumbleweed",
        "RelationType": "Default Component Of"
      },
      {
        "ProductReference": "qemu-audio-jack-7.1.0-2.1",
        "RelatesToProductReference": "openSUSE Tumbleweed",
        "RelationType": "Default Component Of"
      },
      {
        "ProductReference": "qemu-audio-oss-7.1.0-2.1",
        "RelatesToProductReference": "openSUSE Tumbleweed",
        "RelationType": "Default Component Of"
      },
      {
        "ProductReference": "qemu-audio-pa-7.1.0-2.1",
        "RelatesToProductReference": "openSUSE Tumbleweed",
        "RelationType": "Default Component Of"
      },
      {
        "ProductReference": "qemu-audio-spice-7.1.0-2.1",
        "RelatesToProductReference": "openSUSE Tumbleweed",
        "RelationType": "Default Component Of"
      },
      {
        "ProductReference": "qemu-block-curl-7.1.0-2.1",
        "RelatesToProductReference": "openSUSE Tumbleweed",
        "RelationType": "Default Component Of"
      },
      {
        "ProductReference": "qemu-block-dmg-7.1.0-2.1",
        "RelatesToProductReference": "openSUSE Tumbleweed",
        "RelationType": "Default Component Of"
      },
      {
        "ProductReference": "qemu-block-gluster-7.1.0-2.1",
        "RelatesToProductReference": "openSUSE Tumbleweed",
        "RelationType": "Default Component Of"
      },
      {
        "ProductReference": "qemu-block-iscsi-7.1.0-2.1",
        "RelatesToProductReference": "openSUSE Tumbleweed",
        "RelationType": "Default Component Of"
      },
      {
        "ProductReference": "qemu-block-nfs-7.1.0-2.1",
        "RelatesToProductReference": "openSUSE Tumbleweed",
        "RelationType": "Default Component Of"
      },
      {
        "ProductReference": "qemu-block-rbd-7.1.0-2.1",
        "RelatesToProductReference": "openSUSE Tumbleweed",
        "RelationType": "Default Component Of"
      },
      {
        "ProductReference": "qemu-block-ssh-7.1.0-2.1",
        "RelatesToProductReference": "openSUSE Tumbleweed",
        "RelationType": "Default Component Of"
      },
      {
        "ProductReference": "qemu-chardev-baum-7.1.0-2.1",
        "RelatesToProductReference": "openSUSE Tumbleweed",
        "RelationType": "Default Component Of"
      },
      {
        "ProductReference": "qemu-chardev-spice-7.1.0-2.1",
        "RelatesToProductReference": "openSUSE Tumbleweed",
        "RelationType": "Default Component Of"
      },
      {
        "ProductReference": "qemu-extra-7.1.0-2.1",
        "RelatesToProductReference": "openSUSE Tumbleweed",
        "RelationType": "Default Component Of"
      },
      {
        "ProductReference": "qemu-guest-agent-7.1.0-2.1",
        "RelatesToProductReference": "openSUSE Tumbleweed",
        "RelationType": "Default Component Of"
      },
      {
        "ProductReference": "qemu-hw-display-qxl-7.1.0-2.1",
        "RelatesToProductReference": "openSUSE Tumbleweed",
        "RelationType": "Default Component Of"
      },
      {
        "ProductReference": "qemu-hw-display-virtio-gpu-7.1.0-2.1",
        "RelatesToProductReference": "openSUSE Tumbleweed",
        "RelationType": "Default Component Of"
      },
      {
        "ProductReference": "qemu-hw-display-virtio-gpu-pci-7.1.0-2.1",
        "RelatesToProductReference": "openSUSE Tumbleweed",
        "RelationType": "Default Component Of"
      },
      {
        "ProductReference": "qemu-hw-display-virtio-vga-7.1.0-2.1",
        "RelatesToProductReference": "openSUSE Tumbleweed",
        "RelationType": "Default Component Of"
      },
      {
        "ProductReference": "qemu-hw-s390x-virtio-gpu-ccw-7.1.0-2.1",
        "RelatesToProductReference": "openSUSE Tumbleweed",
        "RelationType": "Default Component Of"
      },
      {
        "ProductReference": "qemu-hw-usb-host-7.1.0-2.1",
        "RelatesToProductReference": "openSUSE Tumbleweed",
        "RelationType": "Default Component Of"
      },
      {
        "ProductReference": "qemu-hw-usb-redirect-7.1.0-2.1",
        "RelatesToProductReference": "openSUSE Tumbleweed",
        "RelationType": "Default Component Of"
      },
      {
        "ProductReference": "qemu-hw-usb-smartcard-7.1.0-2.1",
        "RelatesToProductReference": "openSUSE Tumbleweed",
        "RelationType": "Default Component Of"
      },
      {
        "ProductReference": "qemu-ipxe-1.0.0+-2.1",
        "RelatesToProductReference": "openSUSE Tumbleweed",
        "RelationType": "Default Component Of"
      },
      {
        "ProductReference": "qemu-ivshmem-tools-7.1.0-2.1",
        "RelatesToProductReference": "openSUSE Tumbleweed",
        "RelationType": "Default Component Of"
      },
      {
        "ProductReference": "qemu-ksm-7.1.0-2.1",
        "RelatesToProductReference": "openSUSE Tumbleweed",
        "RelationType": "Default Component Of"
      },
      {
        "ProductReference": "qemu-kvm-7.1.0-2.1",
        "RelatesToProductReference": "openSUSE Tumbleweed",
        "RelationType": "Default Component Of"
      },
      {
        "ProductReference": "qemu-lang-7.1.0-2.1",
        "RelatesToProductReference": "openSUSE Tumbleweed",
        "RelationType": "Default Component Of"
      },
      {
        "ProductReference": "qemu-microvm-7.1.0-2.1",
        "RelatesToProductReference": "openSUSE Tumbleweed",
        "RelationType": "Default Component Of"
      },
      {
        "ProductReference": "qemu-ppc-7.1.0-2.1",
        "RelatesToProductReference": "openSUSE Tumbleweed",
        "RelationType": "Default Component Of"
      },
      {
        "ProductReference": "qemu-s390x-7.1.0-2.1",
        "RelatesToProductReference": "openSUSE Tumbleweed",
        "RelationType": "Default Component Of"
      },
      {
        "ProductReference": "qemu-seabios-1.16.0_0_gd239552-2.1",
        "RelatesToProductReference": "openSUSE Tumbleweed",
        "RelationType": "Default Component Of"
      },
      {
        "ProductReference": "qemu-sgabios-8-2.1",
        "RelatesToProductReference": "openSUSE Tumbleweed",
        "RelationType": "Default Component Of"
      },
      {
        "ProductReference": "qemu-skiboot-7.1.0-2.1",
        "RelatesToProductReference": "openSUSE Tumbleweed",
        "RelationType": "Default Component Of"
      },
      {
        "ProductReference": "qemu-tools-7.1.0-2.1",
        "RelatesToProductReference": "openSUSE Tumbleweed",
        "RelationType": "Default Component Of"
      },
      {
        "ProductReference": "qemu-ui-curses-7.1.0-2.1",
        "RelatesToProductReference": "openSUSE Tumbleweed",
        "RelationType": "Default Component Of"
      },
      {
        "ProductReference": "qemu-ui-dbus-7.1.0-2.1",
        "RelatesToProductReference": "openSUSE Tumbleweed",
        "RelationType": "Default Component Of"
      },
      {
        "ProductReference": "qemu-ui-gtk-7.1.0-2.1",
        "RelatesToProductReference": "openSUSE Tumbleweed",
        "RelationType": "Default Component Of"
      },
      {
        "ProductReference": "qemu-ui-opengl-7.1.0-2.1",
        "RelatesToProductReference": "openSUSE Tumbleweed",
        "RelationType": "Default Component Of"
      },
      {
        "ProductReference": "qemu-ui-spice-app-7.1.0-2.1",
        "RelatesToProductReference": "openSUSE Tumbleweed",
        "RelationType": "Default Component Of"
      },
      {
        "ProductReference": "qemu-ui-spice-core-7.1.0-2.1",
        "RelatesToProductReference": "openSUSE Tumbleweed",
        "RelationType": "Default Component Of"
      },
      {
        "ProductReference": "qemu-vgabios-1.16.0_0_gd239552-2.1",
        "RelatesToProductReference": "openSUSE Tumbleweed",
        "RelationType": "Default Component Of"
      },
      {
        "ProductReference": "qemu-vhost-user-gpu-7.1.0-2.1",
        "RelatesToProductReference": "openSUSE Tumbleweed",
        "RelationType": "Default Component Of"
      },
      {
        "ProductReference": "qemu-x86-7.1.0-2.1",
        "RelatesToProductReference": "openSUSE Tumbleweed",
        "RelationType": "Default Component Of"
      }
    ]
  },
  "References": [
    {
      "URL": "https://www.suse.com/support/security/rating/",
      "Description": "SUSE Security Ratings"
    },
    {
      "URL": "https://www.suse.com/security/cve/CVE-2022-2962/",
      "Description": "SUSE CVE CVE-2022-2962 page"
    }
  ],
  "Vulnerabilities": [
    {
      "CVE": "CVE-2022-2962",
      "Description": "A DMA reentrancy issue was found in the Tulip device emulation in QEMU. When Tulip reads or writes to the rx/tx descriptor or copies the rx/tx frame, it doesn't check whether the destination address is its own MMIO address. This can cause the device to trigger MMIO handlers multiple times, possibly leading to a stack or heap overflow. A malicious guest could use this flaw to crash the QEMU process on the host, resulting in a denial of service condition.",
      "Threats": [
        {
          "Type": "Impact",
          "Severity": "moderate"
        }
      ],
      "References": [
        {
          "URL": "https://www.suse.com/security/cve/CVE-2022-2962.html",
          "Description": "CVE-2022-2962"
        },
        {
          "URL": "https://bugzilla.suse.com/1202665",
          "Description": "SUSE Bug 1202665"
        }
      ],
      "ProductStatuses": [
        {
          "Type": "Fixed",
          "ProductID": [
            "openSUSE Tumbleweed:qemu-7.1.0-2.1",
            "openSUSE Tumbleweed:qemu-SLOF-7.1.0-2.1",
            "openSUSE Tumbleweed:qemu-accel-qtest-7.1.0-2.1",
            "openSUSE Tumbleweed:qemu-accel-tcg-x86-7.1.0-2.1",
            "openSUSE Tumbleweed:qemu-arm-7.1.0-2.1",
            "openSUSE Tumbleweed:qemu-audio-alsa-7.1.0-2.1",
            "openSUSE Tumbleweed:qemu-audio-dbus-7.1.0-2.1",
            "openSUSE Tumbleweed:qemu-audio-jack-7.1.0-2.1",
            "openSUSE Tumbleweed:qemu-audio-oss-7.1.0-2.1",
            "openSUSE Tumbleweed:qemu-audio-pa-7.1.0-2.1",
            "openSUSE Tumbleweed:qemu-audio-spice-7.1.0-2.1",
            "openSUSE Tumbleweed:qemu-block-curl-7.1.0-2.1",
            "openSUSE Tumbleweed:qemu-block-dmg-7.1.0-2.1",
            "openSUSE Tumbleweed:qemu-block-gluster-7.1.0-2.1",
            "openSUSE Tumbleweed:qemu-block-iscsi-7.1.0-2.1",
            "openSUSE Tumbleweed:qemu-block-nfs-7.1.0-2.1",
            "openSUSE Tumbleweed:qemu-block-rbd-7.1.0-2.1",
            "openSUSE Tumbleweed:qemu-block-ssh-7.1.0-2.1",
            "openSUSE Tumbleweed:qemu-chardev-baum-7.1.0-2.1",
            "openSUSE Tumbleweed:qemu-chardev-spice-7.1.0-2.1",
            "openSUSE Tumbleweed:qemu-extra-7.1.0-2.1",
            "openSUSE Tumbleweed:qemu-guest-agent-7.1.0-2.1",
            "openSUSE Tumbleweed:qemu-hw-display-qxl-7.1.0-2.1",
            "openSUSE Tumbleweed:qemu-hw-display-virtio-gpu-7.1.0-2.1",
            "openSUSE Tumbleweed:qemu-hw-display-virtio-gpu-pci-7.1.0-2.1",
            "openSUSE Tumbleweed:qemu-hw-display-virtio-vga-7.1.0-2.1",
            "openSUSE Tumbleweed:qemu-hw-s390x-virtio-gpu-ccw-7.1.0-2.1",
            "openSUSE Tumbleweed:qemu-hw-usb-host-7.1.0-2.1",
            "openSUSE Tumbleweed:qemu-hw-usb-redirect-7.1.0-2.1",
            "openSUSE Tumbleweed:qemu-hw-usb-smartcard-7.1.0-2.1",
            "openSUSE Tumbleweed:qemu-ipxe-1.0.0+-2.1",
            "openSUSE Tumbleweed:qemu-ivshmem-tools-7.1.0-2.1",
            "openSUSE Tumbleweed:qemu-ksm-7.1.0-2.1",
            "openSUSE Tumbleweed:qemu-kvm-7.1.0-2.1",
            "openSUSE Tumbleweed:qemu-lang-7.1.0-2.1",
            "openSUSE Tumbleweed:qemu-microvm-7.1.0-2.1",
            "openSUSE Tumbleweed:qemu-ppc-7.1.0-2.1",
            "openSUSE Tumbleweed:qemu-s390x-7.1.0-2.1",
            "openSUSE Tumbleweed:qemu-seabios-1.16.0_0_gd239552-2.1",
            "openSUSE Tumbleweed:qemu-sgabios-8-2.1",
            "openSUSE Tumbleweed:qemu-skiboot-7.1.0-2.1",
            "openSUSE Tumbleweed:qemu-tools-7.1.0-2.1",
            "openSUSE Tumbleweed:qemu-ui-curses-7.1.0-2.1",
            "openSUSE Tumbleweed:qemu-ui-dbus-7.1.0-2.1",
            "openSUSE Tumbleweed:qemu-ui-gtk-7.1.0-2.1",
            "openSUSE Tumbleweed:qemu-ui-opengl-7.1.0-2.1",
            "openSUSE Tumbleweed:qemu-ui-spice-app-7.1.0-2.1",
            "openSUSE Tumbleweed:qemu-ui-spice-core-7.1.0-2.1",
            "openSUSE Tumbleweed:qemu-vgabios-1.16.0_0_gd239552-2.1",
            "openSUSE Tumbleweed:qemu-vhost-user-gpu-7.1.0-2.1",
            "openSUSE Tumbleweed:qemu-x86-7.1.0-2.1"
          ]
        }
      ],
      "CVSSScoreSets": {}
    }
  ]
}