{
  "Title": "curl-8.6.0-1.1 on GA media",
  "Tracking": {
    "ID": "openSUSE-SU-2024:13637-1",
    "Status": "Final",
    "Version": "1",
    "InitialReleaseDate": "2024-06-20T21:44:22Z",
    "CurrentReleaseDate": "2024-06-20T21:44:22Z",
    "RevisionHistory": [
      {
        "Number": "1",
        "Date": "2024-06-20T21:44:22Z",
        "Description": "current"
      }
    ]
  },
  "Notes": [
    {
      "Text": "curl-8.6.0-1.1 on GA media",
      "Title": "Topic",
      "Type": "Summary"
    },
    {
      "Text": "These are all security issues fixed in the curl-8.6.0-1.1 package on the GA media of openSUSE Tumbleweed.",
      "Title": "Details",
      "Type": "General"
    },
    {
      "Text": "The CVRF data is provided by SUSE under the Creative Commons License 4.0 with Attribution (CC-BY-4.0).",
      "Title": "Terms of Use",
      "Type": "Legal Disclaimer"
    },
    {
      "Text": "openSUSE-Tumbleweed-2024-13637",
      "Title": "Patchnames",
      "Type": "Details"
    }
  ],
  "ProductTree": {
    "Relationships": [
      {
        "ProductReference": "curl-8.6.0-1.1",
        "RelatesToProductReference": "openSUSE Tumbleweed",
        "RelationType": "Default Component Of"
      },
      {
        "ProductReference": "libcurl-devel-8.6.0-1.1",
        "RelatesToProductReference": "openSUSE Tumbleweed",
        "RelationType": "Default Component Of"
      },
      {
        "ProductReference": "libcurl-devel-32bit-8.6.0-1.1",
        "RelatesToProductReference": "openSUSE Tumbleweed",
        "RelationType": "Default Component Of"
      },
      {
        "ProductReference": "libcurl4-8.6.0-1.1",
        "RelatesToProductReference": "openSUSE Tumbleweed",
        "RelationType": "Default Component Of"
      },
      {
        "ProductReference": "libcurl4-32bit-8.6.0-1.1",
        "RelatesToProductReference": "openSUSE Tumbleweed",
        "RelationType": "Default Component Of"
      }
    ]
  },
  "References": [
    {
      "URL": "https://www.suse.com/support/security/rating/",
      "Description": "SUSE Security Ratings"
    },
    {
      "URL": "https://www.suse.com/security/cve/CVE-2024-0853/",
      "Description": "SUSE CVE CVE-2024-0853 page"
    }
  ],
  "Vulnerabilities": [
    {
      "CVE": "CVE-2024-0853",
      "Description": "curl inadvertently kept the SSL session ID for connections in its cache even when the verify status (*OCSP stapling*) test failed. A subsequent transfer to\nthe same hostname could then succeed if the session ID cache was still fresh, which then skipped the verify status check.",
      "Threats": [
        {
          "Type": "Impact",
          "Severity": "moderate"
        }
      ],
      "References": [
        {
          "URL": "https://www.suse.com/security/cve/CVE-2024-0853.html",
          "Description": "CVE-2024-0853"
        },
        {
          "URL": "https://bugzilla.suse.com/1219149",
          "Description": "SUSE Bug 1219149"
        }
      ],
      "ProductStatuses": [
        {
          "Type": "Fixed",
          "ProductID": [
            "openSUSE Tumbleweed:curl-8.6.0-1.1",
            "openSUSE Tumbleweed:libcurl-devel-32bit-8.6.0-1.1",
            "openSUSE Tumbleweed:libcurl-devel-8.6.0-1.1",
            "openSUSE Tumbleweed:libcurl4-32bit-8.6.0-1.1",
            "openSUSE Tumbleweed:libcurl4-8.6.0-1.1"
          ]
        }
      ],
      "CVSSScoreSets": {}
    }
  ]
}