{
  "Title": "libQt6Pdf6-6.2.4-2.1 on GA media",
  "Tracking": {
    "ID": "openSUSE-SU-2024:11973-1",
    "Status": "Final",
    "Version": "1",
    "InitialReleaseDate": "2024-06-20T21:44:22Z",
    "CurrentReleaseDate": "2024-06-20T21:44:22Z",
    "RevisionHistory": [
      {
        "Number": "1",
        "Date": "2024-06-20T21:44:22Z",
        "Description": "current"
      }
    ]
  },
  "Notes": [
    {
      "Text": "libQt6Pdf6-6.2.4-2.1 on GA media",
      "Title": "Topic",
      "Type": "Summary"
    },
    {
      "Text": "These are all security issues fixed in the libQt6Pdf6-6.2.4-2.1 package on the GA media of openSUSE Tumbleweed.",
      "Title": "Details",
      "Type": "General"
    },
    {
      "Text": "The CVRF data is provided by SUSE under the Creative Commons License 4.0 with Attribution (CC-BY-4.0).",
      "Title": "Terms of Use",
      "Type": "Legal Disclaimer"
    },
    {
      "Text": "openSUSE-Tumbleweed-2024-11973",
      "Title": "Patchnames",
      "Type": "Details"
    }
  ],
  "ProductTree": {
    "Relationships": [
      {
        "ProductReference": "libQt6Pdf6-6.2.4-2.1",
        "RelatesToProductReference": "openSUSE Tumbleweed",
        "RelationType": "Default Component Of"
      },
      {
        "ProductReference": "libQt6PdfQuick6-6.2.4-2.1",
        "RelatesToProductReference": "openSUSE Tumbleweed",
        "RelationType": "Default Component Of"
      },
      {
        "ProductReference": "libQt6PdfWidgets6-6.2.4-2.1",
        "RelatesToProductReference": "openSUSE Tumbleweed",
        "RelationType": "Default Component Of"
      },
      {
        "ProductReference": "libQt6WebEngineCore6-6.2.4-2.1",
        "RelatesToProductReference": "openSUSE Tumbleweed",
        "RelationType": "Default Component Of"
      },
      {
        "ProductReference": "libQt6WebEngineQuick6-6.2.4-2.1",
        "RelatesToProductReference": "openSUSE Tumbleweed",
        "RelationType": "Default Component Of"
      },
      {
        "ProductReference": "libQt6WebEngineWidgets6-6.2.4-2.1",
        "RelatesToProductReference": "openSUSE Tumbleweed",
        "RelationType": "Default Component Of"
      },
      {
        "ProductReference": "qt6-pdf-devel-6.2.4-2.1",
        "RelatesToProductReference": "openSUSE Tumbleweed",
        "RelationType": "Default Component Of"
      },
      {
        "ProductReference": "qt6-pdf-imports-6.2.4-2.1",
        "RelatesToProductReference": "openSUSE Tumbleweed",
        "RelationType": "Default Component Of"
      },
      {
        "ProductReference": "qt6-pdf-private-devel-6.2.4-2.1",
        "RelatesToProductReference": "openSUSE Tumbleweed",
        "RelationType": "Default Component Of"
      },
      {
        "ProductReference": "qt6-pdfquick-devel-6.2.4-2.1",
        "RelatesToProductReference": "openSUSE Tumbleweed",
        "RelationType": "Default Component Of"
      },
      {
        "ProductReference": "qt6-pdfquick-private-devel-6.2.4-2.1",
        "RelatesToProductReference": "openSUSE Tumbleweed",
        "RelationType": "Default Component Of"
      },
      {
        "ProductReference": "qt6-pdfwidgets-devel-6.2.4-2.1",
        "RelatesToProductReference": "openSUSE Tumbleweed",
        "RelationType": "Default Component Of"
      },
      {
        "ProductReference": "qt6-pdfwidgets-private-devel-6.2.4-2.1",
        "RelatesToProductReference": "openSUSE Tumbleweed",
        "RelationType": "Default Component Of"
      },
      {
        "ProductReference": "qt6-webengine-6.2.4-2.1",
        "RelatesToProductReference": "openSUSE Tumbleweed",
        "RelationType": "Default Component Of"
      },
      {
        "ProductReference": "qt6-webengine-examples-6.2.4-2.1",
        "RelatesToProductReference": "openSUSE Tumbleweed",
        "RelationType": "Default Component Of"
      },
      {
        "ProductReference": "qt6-webengine-imports-6.2.4-2.1",
        "RelatesToProductReference": "openSUSE Tumbleweed",
        "RelationType": "Default Component Of"
      },
      {
        "ProductReference": "qt6-webenginecore-devel-6.2.4-2.1",
        "RelatesToProductReference": "openSUSE Tumbleweed",
        "RelationType": "Default Component Of"
      },
      {
        "ProductReference": "qt6-webenginecore-private-devel-6.2.4-2.1",
        "RelatesToProductReference": "openSUSE Tumbleweed",
        "RelationType": "Default Component Of"
      },
      {
        "ProductReference": "qt6-webenginequick-devel-6.2.4-2.1",
        "RelatesToProductReference": "openSUSE Tumbleweed",
        "RelationType": "Default Component Of"
      },
      {
        "ProductReference": "qt6-webenginequick-private-devel-6.2.4-2.1",
        "RelatesToProductReference": "openSUSE Tumbleweed",
        "RelationType": "Default Component Of"
      },
      {
        "ProductReference": "qt6-webenginewidgets-devel-6.2.4-2.1",
        "RelatesToProductReference": "openSUSE Tumbleweed",
        "RelationType": "Default Component Of"
      },
      {
        "ProductReference": "qt6-webenginewidgets-private-devel-6.2.4-2.1",
        "RelatesToProductReference": "openSUSE Tumbleweed",
        "RelationType": "Default Component Of"
      }
    ]
  },
  "References": [
    {
      "URL": "https://www.suse.com/support/security/rating/",
      "Description": "SUSE Security Ratings"
    },
    {
      "URL": "https://www.suse.com/security/cve/CVE-2022-0971/",
      "Description": "SUSE CVE CVE-2022-0971 page"
    },
    {
      "URL": "https://www.suse.com/security/cve/CVE-2022-1096/",
      "Description": "SUSE CVE CVE-2022-1096 page"
    }
  ],
  "Vulnerabilities": [
    {
      "CVE": "CVE-2022-0971",
      "Description": "Use after free in Blink Layout in Google Chrome on Android prior to 99.0.4844.74 allowed a remote attacker who had compromised the renderer process to potentially exploit heap corruption via a crafted HTML page.",
      "Threats": [
        {
          "Type": "Impact",
          "Severity": "critical"
        }
      ],
      "References": [
        {
          "URL": "https://www.suse.com/security/cve/CVE-2022-0971.html",
          "Description": "CVE-2022-0971"
        },
        {
          "URL": "https://bugzilla.suse.com/1197163",
          "Description": "SUSE Bug 1197163"
        }
      ],
      "ProductStatuses": [
        {
          "Type": "Fixed",
          "ProductID": [
            "openSUSE Tumbleweed:libQt6Pdf6-6.2.4-2.1",
            "openSUSE Tumbleweed:libQt6PdfQuick6-6.2.4-2.1",
            "openSUSE Tumbleweed:libQt6PdfWidgets6-6.2.4-2.1",
            "openSUSE Tumbleweed:libQt6WebEngineCore6-6.2.4-2.1",
            "openSUSE Tumbleweed:libQt6WebEngineQuick6-6.2.4-2.1",
            "openSUSE Tumbleweed:libQt6WebEngineWidgets6-6.2.4-2.1",
            "openSUSE Tumbleweed:qt6-pdf-devel-6.2.4-2.1",
            "openSUSE Tumbleweed:qt6-pdf-imports-6.2.4-2.1",
            "openSUSE Tumbleweed:qt6-pdf-private-devel-6.2.4-2.1",
            "openSUSE Tumbleweed:qt6-pdfquick-devel-6.2.4-2.1",
            "openSUSE Tumbleweed:qt6-pdfquick-private-devel-6.2.4-2.1",
            "openSUSE Tumbleweed:qt6-pdfwidgets-devel-6.2.4-2.1",
            "openSUSE Tumbleweed:qt6-pdfwidgets-private-devel-6.2.4-2.1",
            "openSUSE Tumbleweed:qt6-webengine-6.2.4-2.1",
            "openSUSE Tumbleweed:qt6-webengine-examples-6.2.4-2.1",
            "openSUSE Tumbleweed:qt6-webengine-imports-6.2.4-2.1",
            "openSUSE Tumbleweed:qt6-webenginecore-devel-6.2.4-2.1",
            "openSUSE Tumbleweed:qt6-webenginecore-private-devel-6.2.4-2.1",
            "openSUSE Tumbleweed:qt6-webenginequick-devel-6.2.4-2.1",
            "openSUSE Tumbleweed:qt6-webenginequick-private-devel-6.2.4-2.1",
            "openSUSE Tumbleweed:qt6-webenginewidgets-devel-6.2.4-2.1",
            "openSUSE Tumbleweed:qt6-webenginewidgets-private-devel-6.2.4-2.1"
          ]
        }
      ],
      "CVSSScoreSets": {}
    },
    {
      "CVE": "CVE-2022-1096",
      "Description": "Type confusion in V8 in Google Chrome prior to 99.0.4844.84 allowed a remote attacker to potentially exploit heap corruption via a crafted HTML page.",
      "Threats": [
        {
          "Type": "Impact",
          "Severity": "important"
        }
      ],
      "References": [
        {
          "URL": "https://www.suse.com/security/cve/CVE-2022-1096.html",
          "Description": "CVE-2022-1096"
        },
        {
          "URL": "https://bugzilla.suse.com/1197552",
          "Description": "SUSE Bug 1197552"
        }
      ],
      "ProductStatuses": [
        {
          "Type": "Fixed",
          "ProductID": [
            "openSUSE Tumbleweed:libQt6Pdf6-6.2.4-2.1",
            "openSUSE Tumbleweed:libQt6PdfQuick6-6.2.4-2.1",
            "openSUSE Tumbleweed:libQt6PdfWidgets6-6.2.4-2.1",
            "openSUSE Tumbleweed:libQt6WebEngineCore6-6.2.4-2.1",
            "openSUSE Tumbleweed:libQt6WebEngineQuick6-6.2.4-2.1",
            "openSUSE Tumbleweed:libQt6WebEngineWidgets6-6.2.4-2.1",
            "openSUSE Tumbleweed:qt6-pdf-devel-6.2.4-2.1",
            "openSUSE Tumbleweed:qt6-pdf-imports-6.2.4-2.1",
            "openSUSE Tumbleweed:qt6-pdf-private-devel-6.2.4-2.1",
            "openSUSE Tumbleweed:qt6-pdfquick-devel-6.2.4-2.1",
            "openSUSE Tumbleweed:qt6-pdfquick-private-devel-6.2.4-2.1",
            "openSUSE Tumbleweed:qt6-pdfwidgets-devel-6.2.4-2.1",
            "openSUSE Tumbleweed:qt6-pdfwidgets-private-devel-6.2.4-2.1",
            "openSUSE Tumbleweed:qt6-webengine-6.2.4-2.1",
            "openSUSE Tumbleweed:qt6-webengine-examples-6.2.4-2.1",
            "openSUSE Tumbleweed:qt6-webengine-imports-6.2.4-2.1",
            "openSUSE Tumbleweed:qt6-webenginecore-devel-6.2.4-2.1",
            "openSUSE Tumbleweed:qt6-webenginecore-private-devel-6.2.4-2.1",
            "openSUSE Tumbleweed:qt6-webenginequick-devel-6.2.4-2.1",
            "openSUSE Tumbleweed:qt6-webenginequick-private-devel-6.2.4-2.1",
            "openSUSE Tumbleweed:qt6-webenginewidgets-devel-6.2.4-2.1",
            "openSUSE Tumbleweed:qt6-webenginewidgets-private-devel-6.2.4-2.1"
          ]
        }
      ],
      "CVSSScoreSets": {}
    }
  ]
}