{
  "Title": "crash-7.1.5-3.51 on GA media",
  "Tracking": {
    "ID": "openSUSE-SU-2024:10111-1",
    "Status": "Final",
    "Version": "1",
    "InitialReleaseDate": "2024-06-22T21:44:56Z",
    "CurrentReleaseDate": "2024-06-22T21:44:56Z",
    "RevisionHistory": [
      {
        "Number": "1",
        "Date": "2024-06-22T21:44:56Z",
        "Description": "current"
      }
    ]
  },
  "Notes": [
    {
      "Text": "crash-7.1.5-3.51 on GA media",
      "Title": "Topic",
      "Type": "Summary"
    },
    {
      "Text": "These are all security issues fixed in the crash-7.1.5-3.51 package on the GA media of openSUSE Tumbleweed.",
      "Title": "Details",
      "Type": "General"
    },
    {
      "Text": "The CVRF data is provided by SUSE under the Creative Commons License 4.0 with Attribution (CC-BY-4.0).",
      "Title": "Terms of Use",
      "Type": "Legal Disclaimer"
    },
    {
      "Text": "openSUSE-Tumbleweed-2024-10111",
      "Title": "Patchnames",
      "Type": "Details"
    }
  ],
  "ProductTree": {
    "Relationships": [
      {
        "ProductReference": "crash-7.1.5-3.51",
        "RelatesToProductReference": "openSUSE Tumbleweed",
        "RelationType": "Default Component Of"
      },
      {
        "ProductReference": "crash-devel-7.1.5-3.51",
        "RelatesToProductReference": "openSUSE Tumbleweed",
        "RelationType": "Default Component Of"
      },
      {
        "ProductReference": "crash-doc-7.1.5-3.51",
        "RelatesToProductReference": "openSUSE Tumbleweed",
        "RelationType": "Default Component Of"
      },
      {
        "ProductReference": "crash-eppic-7.1.5-3.51",
        "RelatesToProductReference": "openSUSE Tumbleweed",
        "RelationType": "Default Component Of"
      },
      {
        "ProductReference": "crash-gcore-7.1.5-3.51",
        "RelatesToProductReference": "openSUSE Tumbleweed",
        "RelationType": "Default Component Of"
      },
      {
        "ProductReference": "crash-kmp-default-7.1.5_k4.8.13_1-3.51",
        "RelatesToProductReference": "openSUSE Tumbleweed",
        "RelationType": "Default Component Of"
      },
      {
        "ProductReference": "crash-kmp-pae-7.1.5_k4.8.13_1-3.51",
        "RelatesToProductReference": "openSUSE Tumbleweed",
        "RelationType": "Default Component Of"
      }
    ]
  },
  "References": [
    {
      "URL": "https://www.suse.com/support/security/rating/",
      "Description": "SUSE Security Ratings"
    },
    {
      "URL": "https://www.suse.com/security/cve/CVE-2014-2524/",
      "Description": "SUSE CVE CVE-2014-2524 page"
    }
  ],
  "Vulnerabilities": [
    {
      "CVE": "CVE-2014-2524",
      "Description": "The _rl_tropen function in util.c in GNU readline before 6.3 patch 3 allows local users to create or overwrite arbitrary files via a symlink attack on a /var/tmp/rltrace.[PID] file.",
      "Threats": [
        {
          "Type": "Impact",
          "Severity": "low"
        }
      ],
      "References": [
        {
          "URL": "https://www.suse.com/security/cve/CVE-2014-2524.html",
          "Description": "CVE-2014-2524"
        },
        {
          "URL": "https://bugzilla.suse.com/868822",
          "Description": "SUSE Bug 868822"
        }
      ],
      "ProductStatuses": [
        {
          "Type": "Fixed",
          "ProductID": [
            "openSUSE Tumbleweed:crash-7.1.5-3.51",
            "openSUSE Tumbleweed:crash-devel-7.1.5-3.51",
            "openSUSE Tumbleweed:crash-doc-7.1.5-3.51",
            "openSUSE Tumbleweed:crash-eppic-7.1.5-3.51",
            "openSUSE Tumbleweed:crash-gcore-7.1.5-3.51",
            "openSUSE Tumbleweed:crash-kmp-default-7.1.5_k4.8.13_1-3.51",
            "openSUSE Tumbleweed:crash-kmp-pae-7.1.5_k4.8.13_1-3.51"
          ]
        }
      ],
      "CVSSScoreSets": {}
    }
  ]
}