{
  "Title": "chromedriver-104.0.5112.101-1.1 on GA media",
  "Tracking": {
    "ID": "openSUSE-SU-2024:12277-1",
    "Status": "Final",
    "Version": "1",
    "InitialReleaseDate": "2024-06-20T21:44:22Z",
    "CurrentReleaseDate": "2024-06-20T21:44:22Z",
    "RevisionHistory": [
      {
        "Number": "1",
        "Date": "2024-06-20T21:44:22Z",
        "Description": "current"
      }
    ]
  },
  "Notes": [
    {
      "Text": "chromedriver-104.0.5112.101-1.1 on GA media",
      "Title": "Topic",
      "Type": "Summary"
    },
    {
      "Text": "These are all security issues fixed in the chromedriver-104.0.5112.101-1.1 package on the GA media of openSUSE Tumbleweed.",
      "Title": "Details",
      "Type": "General"
    },
    {
      "Text": "The CVRF data is provided by SUSE under the Creative Commons License 4.0 with Attribution (CC-BY-4.0).",
      "Title": "Terms of Use",
      "Type": "Legal Disclaimer"
    },
    {
      "Text": "openSUSE-Tumbleweed-2024-12277",
      "Title": "Patchnames",
      "Type": "Details"
    }
  ],
  "ProductTree": {
    "Relationships": [
      {
        "ProductReference": "chromedriver-104.0.5112.101-1.1",
        "RelatesToProductReference": "openSUSE Tumbleweed",
        "RelationType": "Default Component Of"
      },
      {
        "ProductReference": "chromium-104.0.5112.101-1.1",
        "RelatesToProductReference": "openSUSE Tumbleweed",
        "RelationType": "Default Component Of"
      }
    ]
  },
  "References": [
    {
      "URL": "https://www.suse.com/support/security/rating/",
      "Description": "SUSE Security Ratings"
    },
    {
      "URL": "https://www.suse.com/security/cve/CVE-2022-2852/",
      "Description": "SUSE CVE CVE-2022-2852 page"
    },
    {
      "URL": "https://www.suse.com/security/cve/CVE-2022-2853/",
      "Description": "SUSE CVE CVE-2022-2853 page"
    },
    {
      "URL": "https://www.suse.com/security/cve/CVE-2022-2854/",
      "Description": "SUSE CVE CVE-2022-2854 page"
    },
    {
      "URL": "https://www.suse.com/security/cve/CVE-2022-2855/",
      "Description": "SUSE CVE CVE-2022-2855 page"
    },
    {
      "URL": "https://www.suse.com/security/cve/CVE-2022-2856/",
      "Description": "SUSE CVE CVE-2022-2856 page"
    },
    {
      "URL": "https://www.suse.com/security/cve/CVE-2022-2857/",
      "Description": "SUSE CVE CVE-2022-2857 page"
    },
    {
      "URL": "https://www.suse.com/security/cve/CVE-2022-2858/",
      "Description": "SUSE CVE CVE-2022-2858 page"
    },
    {
      "URL": "https://www.suse.com/security/cve/CVE-2022-2859/",
      "Description": "SUSE CVE CVE-2022-2859 page"
    },
    {
      "URL": "https://www.suse.com/security/cve/CVE-2022-2860/",
      "Description": "SUSE CVE CVE-2022-2860 page"
    },
    {
      "URL": "https://www.suse.com/security/cve/CVE-2022-2861/",
      "Description": "SUSE CVE CVE-2022-2861 page"
    }
  ],
  "Vulnerabilities": [
    {
      "CVE": "CVE-2022-2852",
      "Description": "Use after free in FedCM in Google Chrome prior to 104.0.5112.101 allowed a remote attacker to potentially exploit heap corruption via a crafted HTML page.",
      "Threats": [
        {
          "Type": "Impact",
          "Severity": "moderate"
        }
      ],
      "References": [
        {
          "URL": "https://www.suse.com/security/cve/CVE-2022-2852.html",
          "Description": "CVE-2022-2852"
        },
        {
          "URL": "https://bugzilla.suse.com/1202509",
          "Description": "SUSE Bug 1202509"
        }
      ],
      "ProductStatuses": [
        {
          "Type": "Fixed",
          "ProductID": [
            "openSUSE Tumbleweed:chromedriver-104.0.5112.101-1.1",
            "openSUSE Tumbleweed:chromium-104.0.5112.101-1.1"
          ]
        }
      ],
      "CVSSScoreSets": {}
    },
    {
      "CVE": "CVE-2022-2853",
      "Description": "Heap buffer overflow in Downloads in Google Chrome on Android prior to 104.0.5112.101 allowed a remote attacker who had compromised the renderer process to potentially exploit heap corruption via a crafted HTML page.",
      "Threats": [
        {
          "Type": "Impact",
          "Severity": "moderate"
        }
      ],
      "References": [
        {
          "URL": "https://www.suse.com/security/cve/CVE-2022-2853.html",
          "Description": "CVE-2022-2853"
        },
        {
          "URL": "https://bugzilla.suse.com/1202509",
          "Description": "SUSE Bug 1202509"
        }
      ],
      "ProductStatuses": [
        {
          "Type": "Fixed",
          "ProductID": [
            "openSUSE Tumbleweed:chromedriver-104.0.5112.101-1.1",
            "openSUSE Tumbleweed:chromium-104.0.5112.101-1.1"
          ]
        }
      ],
      "CVSSScoreSets": {}
    },
    {
      "CVE": "CVE-2022-2854",
      "Description": "Use after free in SwiftShader in Google Chrome prior to 104.0.5112.101 allowed a remote attacker to potentially exploit heap corruption via a crafted HTML page.",
      "Threats": [
        {
          "Type": "Impact",
          "Severity": "moderate"
        }
      ],
      "References": [
        {
          "URL": "https://www.suse.com/security/cve/CVE-2022-2854.html",
          "Description": "CVE-2022-2854"
        },
        {
          "URL": "https://bugzilla.suse.com/1202509",
          "Description": "SUSE Bug 1202509"
        }
      ],
      "ProductStatuses": [
        {
          "Type": "Fixed",
          "ProductID": [
            "openSUSE Tumbleweed:chromedriver-104.0.5112.101-1.1",
            "openSUSE Tumbleweed:chromium-104.0.5112.101-1.1"
          ]
        }
      ],
      "CVSSScoreSets": {}
    },
    {
      "CVE": "CVE-2022-2855",
      "Description": "Use after free in ANGLE in Google Chrome prior to 104.0.5112.101 allowed a remote attacker to potentially exploit heap corruption via a crafted HTML page.",
      "Threats": [
        {
          "Type": "Impact",
          "Severity": "moderate"
        }
      ],
      "References": [
        {
          "URL": "https://www.suse.com/security/cve/CVE-2022-2855.html",
          "Description": "CVE-2022-2855"
        },
        {
          "URL": "https://bugzilla.suse.com/1202509",
          "Description": "SUSE Bug 1202509"
        }
      ],
      "ProductStatuses": [
        {
          "Type": "Fixed",
          "ProductID": [
            "openSUSE Tumbleweed:chromedriver-104.0.5112.101-1.1",
            "openSUSE Tumbleweed:chromium-104.0.5112.101-1.1"
          ]
        }
      ],
      "CVSSScoreSets": {}
    },
    {
      "CVE": "CVE-2022-2856",
      "Description": "Insufficient validation of untrusted input in Intents in Google Chrome on Android prior to 104.0.5112.101 allowed a remote attacker to arbitrarily browse to a malicious website via a crafted HTML page.",
      "Threats": [
        {
          "Type": "Impact",
          "Severity": "moderate"
        }
      ],
      "References": [
        {
          "URL": "https://www.suse.com/security/cve/CVE-2022-2856.html",
          "Description": "CVE-2022-2856"
        },
        {
          "URL": "https://bugzilla.suse.com/1202509",
          "Description": "SUSE Bug 1202509"
        }
      ],
      "ProductStatuses": [
        {
          "Type": "Fixed",
          "ProductID": [
            "openSUSE Tumbleweed:chromedriver-104.0.5112.101-1.1",
            "openSUSE Tumbleweed:chromium-104.0.5112.101-1.1"
          ]
        }
      ],
      "CVSSScoreSets": {}
    },
    {
      "CVE": "CVE-2022-2857",
      "Description": "Use after free in Blink in Google Chrome prior to 104.0.5112.101 allowed a remote attacker to potentially exploit heap corruption via a crafted HTML page.",
      "Threats": [
        {
          "Type": "Impact",
          "Severity": "moderate"
        }
      ],
      "References": [
        {
          "URL": "https://www.suse.com/security/cve/CVE-2022-2857.html",
          "Description": "CVE-2022-2857"
        },
        {
          "URL": "https://bugzilla.suse.com/1202509",
          "Description": "SUSE Bug 1202509"
        }
      ],
      "ProductStatuses": [
        {
          "Type": "Fixed",
          "ProductID": [
            "openSUSE Tumbleweed:chromedriver-104.0.5112.101-1.1",
            "openSUSE Tumbleweed:chromium-104.0.5112.101-1.1"
          ]
        }
      ],
      "CVSSScoreSets": {}
    },
    {
      "CVE": "CVE-2022-2858",
      "Description": "Use after free in Sign-In Flow in Google Chrome prior to 104.0.5112.101 allowed a remote attacker to potentially exploit heap corruption via specific UI interaction.",
      "Threats": [
        {
          "Type": "Impact",
          "Severity": "moderate"
        }
      ],
      "References": [
        {
          "URL": "https://www.suse.com/security/cve/CVE-2022-2858.html",
          "Description": "CVE-2022-2858"
        },
        {
          "URL": "https://bugzilla.suse.com/1202509",
          "Description": "SUSE Bug 1202509"
        }
      ],
      "ProductStatuses": [
        {
          "Type": "Fixed",
          "ProductID": [
            "openSUSE Tumbleweed:chromedriver-104.0.5112.101-1.1",
            "openSUSE Tumbleweed:chromium-104.0.5112.101-1.1"
          ]
        }
      ],
      "CVSSScoreSets": {}
    },
    {
      "CVE": "CVE-2022-2859",
      "Description": "Use after free in Chrome OS Shell in Google Chrome prior to 104.0.5112.101 allowed a remote attacker who convinced a user to engage in specific UI interactions to potentially exploit heap corruption via specific UI interactions.",
      "Threats": [
        {
          "Type": "Impact",
          "Severity": "moderate"
        }
      ],
      "References": [
        {
          "URL": "https://www.suse.com/security/cve/CVE-2022-2859.html",
          "Description": "CVE-2022-2859"
        },
        {
          "URL": "https://bugzilla.suse.com/1202509",
          "Description": "SUSE Bug 1202509"
        }
      ],
      "ProductStatuses": [
        {
          "Type": "Fixed",
          "ProductID": [
            "openSUSE Tumbleweed:chromedriver-104.0.5112.101-1.1",
            "openSUSE Tumbleweed:chromium-104.0.5112.101-1.1"
          ]
        }
      ],
      "CVSSScoreSets": {}
    },
    {
      "CVE": "CVE-2022-2860",
      "Description": "Insufficient policy enforcement in Cookies in Google Chrome prior to 104.0.5112.101 allowed a remote attacker to bypass cookie prefix restrictions via a crafted HTML page.",
      "Threats": [
        {
          "Type": "Impact",
          "Severity": "moderate"
        }
      ],
      "References": [
        {
          "URL": "https://www.suse.com/security/cve/CVE-2022-2860.html",
          "Description": "CVE-2022-2860"
        },
        {
          "URL": "https://bugzilla.suse.com/1202509",
          "Description": "SUSE Bug 1202509"
        }
      ],
      "ProductStatuses": [
        {
          "Type": "Fixed",
          "ProductID": [
            "openSUSE Tumbleweed:chromedriver-104.0.5112.101-1.1",
            "openSUSE Tumbleweed:chromium-104.0.5112.101-1.1"
          ]
        }
      ],
      "CVSSScoreSets": {}
    },
    {
      "CVE": "CVE-2022-2861",
      "Description": "Inappropriate implementation in Extensions API in Google Chrome prior to 104.0.5112.101 allowed an attacker who convinced a user to install a malicious extension to inject arbitrary scripts into WebUI via a crafted HTML page.",
      "Threats": [
        {
          "Type": "Impact",
          "Severity": "moderate"
        }
      ],
      "References": [
        {
          "URL": "https://www.suse.com/security/cve/CVE-2022-2861.html",
          "Description": "CVE-2022-2861"
        },
        {
          "URL": "https://bugzilla.suse.com/1202509",
          "Description": "SUSE Bug 1202509"
        }
      ],
      "ProductStatuses": [
        {
          "Type": "Fixed",
          "ProductID": [
            "openSUSE Tumbleweed:chromedriver-104.0.5112.101-1.1",
            "openSUSE Tumbleweed:chromium-104.0.5112.101-1.1"
          ]
        }
      ],
      "CVSSScoreSets": {}
    }
  ]
}