{
  "Title": "chromedriver-106.0.5249.119-1.1 on GA media",
  "Tracking": {
    "ID": "openSUSE-SU-2024:12404-1",
    "Status": "Final",
    "Version": "1",
    "InitialReleaseDate": "2024-06-20T21:44:22Z",
    "CurrentReleaseDate": "2024-06-20T21:44:22Z",
    "RevisionHistory": [
      {
        "Number": "1",
        "Date": "2024-06-20T21:44:22Z",
        "Description": "current"
      }
    ]
  },
  "Notes": [
    {
      "Text": "chromedriver-106.0.5249.119-1.1 on GA media",
      "Title": "Topic",
      "Type": "Summary"
    },
    {
      "Text": "These are all security issues fixed in the chromedriver-106.0.5249.119-1.1 package on the GA media of openSUSE Tumbleweed.",
      "Title": "Details",
      "Type": "General"
    },
    {
      "Text": "The CVRF data is provided by SUSE under the Creative Commons License 4.0 with Attribution (CC-BY-4.0).",
      "Title": "Terms of Use",
      "Type": "Legal Disclaimer"
    },
    {
      "Text": "openSUSE-Tumbleweed-2024-12404",
      "Title": "Patchnames",
      "Type": "Details"
    }
  ],
  "ProductTree": {
    "Relationships": [
      {
        "ProductReference": "chromedriver-106.0.5249.119-1.1",
        "RelatesToProductReference": "openSUSE Tumbleweed",
        "RelationType": "Default Component Of"
      },
      {
        "ProductReference": "chromium-106.0.5249.119-1.1",
        "RelatesToProductReference": "openSUSE Tumbleweed",
        "RelationType": "Default Component Of"
      }
    ]
  },
  "References": [
    {
      "URL": "https://www.suse.com/support/security/rating/",
      "Description": "SUSE Security Ratings"
    },
    {
      "URL": "https://www.suse.com/security/cve/CVE-2022-3445/",
      "Description": "SUSE CVE CVE-2022-3445 page"
    },
    {
      "URL": "https://www.suse.com/security/cve/CVE-2022-3446/",
      "Description": "SUSE CVE CVE-2022-3446 page"
    },
    {
      "URL": "https://www.suse.com/security/cve/CVE-2022-3447/",
      "Description": "SUSE CVE CVE-2022-3447 page"
    },
    {
      "URL": "https://www.suse.com/security/cve/CVE-2022-3448/",
      "Description": "SUSE CVE CVE-2022-3448 page"
    },
    {
      "URL": "https://www.suse.com/security/cve/CVE-2022-3449/",
      "Description": "SUSE CVE CVE-2022-3449 page"
    },
    {
      "URL": "https://www.suse.com/security/cve/CVE-2022-3450/",
      "Description": "SUSE CVE CVE-2022-3450 page"
    }
  ],
  "Vulnerabilities": [
    {
      "CVE": "CVE-2022-3445",
      "Description": "Use after free in Skia in Google Chrome prior to 106.0.5249.119 allowed a remote attacker to potentially exploit heap corruption via a crafted HTML page. (Chromium security severity: High)",
      "Threats": [
        {
          "Type": "Impact",
          "Severity": "moderate"
        }
      ],
      "References": [
        {
          "URL": "https://www.suse.com/security/cve/CVE-2022-3445.html",
          "Description": "CVE-2022-3445"
        },
        {
          "URL": "https://bugzilla.suse.com/1204223",
          "Description": "SUSE Bug 1204223"
        }
      ],
      "ProductStatuses": [
        {
          "Type": "Fixed",
          "ProductID": [
            "openSUSE Tumbleweed:chromedriver-106.0.5249.119-1.1",
            "openSUSE Tumbleweed:chromium-106.0.5249.119-1.1"
          ]
        }
      ],
      "CVSSScoreSets": {}
    },
    {
      "CVE": "CVE-2022-3446",
      "Description": "Heap buffer overflow in WebSQL in Google Chrome prior to 106.0.5249.119 allowed a remote attacker to potentially exploit heap corruption via a crafted HTML page. (Chromium security severity: High)",
      "Threats": [
        {
          "Type": "Impact",
          "Severity": "moderate"
        }
      ],
      "References": [
        {
          "URL": "https://www.suse.com/security/cve/CVE-2022-3446.html",
          "Description": "CVE-2022-3446"
        },
        {
          "URL": "https://bugzilla.suse.com/1204223",
          "Description": "SUSE Bug 1204223"
        }
      ],
      "ProductStatuses": [
        {
          "Type": "Fixed",
          "ProductID": [
            "openSUSE Tumbleweed:chromedriver-106.0.5249.119-1.1",
            "openSUSE Tumbleweed:chromium-106.0.5249.119-1.1"
          ]
        }
      ],
      "CVSSScoreSets": {}
    },
    {
      "CVE": "CVE-2022-3447",
      "Description": "Inappropriate implementation in Custom Tabs in Google Chrome on Android prior to 106.0.5249.119 allowed a remote attacker to spoof the contents of the Omnibox (URL bar) via a crafted HTML page. (Chromium security severity: High)",
      "Threats": [
        {
          "Type": "Impact",
          "Severity": "moderate"
        }
      ],
      "References": [
        {
          "URL": "https://www.suse.com/security/cve/CVE-2022-3447.html",
          "Description": "CVE-2022-3447"
        },
        {
          "URL": "https://bugzilla.suse.com/1204223",
          "Description": "SUSE Bug 1204223"
        }
      ],
      "ProductStatuses": [
        {
          "Type": "Fixed",
          "ProductID": [
            "openSUSE Tumbleweed:chromedriver-106.0.5249.119-1.1",
            "openSUSE Tumbleweed:chromium-106.0.5249.119-1.1"
          ]
        }
      ],
      "CVSSScoreSets": {}
    },
    {
      "CVE": "CVE-2022-3448",
      "Description": "Use after free in Permissions API in Google Chrome prior to 106.0.5249.119 allowed a remote attacker who convinced a user to engage in specific UI gestures to potentially exploit heap corruption via a crafted HTML page. (Chromium security severity: High)",
      "Threats": [
        {
          "Type": "Impact",
          "Severity": "moderate"
        }
      ],
      "References": [
        {
          "URL": "https://www.suse.com/security/cve/CVE-2022-3448.html",
          "Description": "CVE-2022-3448"
        },
        {
          "URL": "https://bugzilla.suse.com/1204223",
          "Description": "SUSE Bug 1204223"
        }
      ],
      "ProductStatuses": [
        {
          "Type": "Fixed",
          "ProductID": [
            "openSUSE Tumbleweed:chromedriver-106.0.5249.119-1.1",
            "openSUSE Tumbleweed:chromium-106.0.5249.119-1.1"
          ]
        }
      ],
      "CVSSScoreSets": {}
    },
    {
      "CVE": "CVE-2022-3449",
      "Description": "Use after free in Safe Browsing in Google Chrome prior to 106.0.5249.119 allowed an attacker who convinced a user to install a malicious extension to potentially exploit heap corruption via a crafted Chrome Extension. (Chromium security severity: High)",
      "Threats": [
        {
          "Type": "Impact",
          "Severity": "moderate"
        }
      ],
      "References": [
        {
          "URL": "https://www.suse.com/security/cve/CVE-2022-3449.html",
          "Description": "CVE-2022-3449"
        },
        {
          "URL": "https://bugzilla.suse.com/1204223",
          "Description": "SUSE Bug 1204223"
        }
      ],
      "ProductStatuses": [
        {
          "Type": "Fixed",
          "ProductID": [
            "openSUSE Tumbleweed:chromedriver-106.0.5249.119-1.1",
            "openSUSE Tumbleweed:chromium-106.0.5249.119-1.1"
          ]
        }
      ],
      "CVSSScoreSets": {}
    },
    {
      "CVE": "CVE-2022-3450",
      "Description": "Use after free in Peer Connection in Google Chrome prior to 106.0.5249.119 allowed a remote attacker to potentially exploit heap corruption via a crafted HTML page. (Chromium security severity: High)",
      "Threats": [
        {
          "Type": "Impact",
          "Severity": "moderate"
        }
      ],
      "References": [
        {
          "URL": "https://www.suse.com/security/cve/CVE-2022-3450.html",
          "Description": "CVE-2022-3450"
        },
        {
          "URL": "https://bugzilla.suse.com/1204223",
          "Description": "SUSE Bug 1204223"
        }
      ],
      "ProductStatuses": [
        {
          "Type": "Fixed",
          "ProductID": [
            "openSUSE Tumbleweed:chromedriver-106.0.5249.119-1.1",
            "openSUSE Tumbleweed:chromium-106.0.5249.119-1.1"
          ]
        }
      ],
      "CVSSScoreSets": {}
    }
  ]
}