{
  "Title": "libwireshark16-4.0.6-1.1 on GA media",
  "Tracking": {
    "ID": "openSUSE-SU-2024:12958-1",
    "Status": "Final",
    "Version": "1",
    "InitialReleaseDate": "2024-06-20T21:44:22Z",
    "CurrentReleaseDate": "2024-06-20T21:44:22Z",
    "RevisionHistory": [
      {
        "Number": "1",
        "Date": "2024-06-20T21:44:22Z",
        "Description": "current"
      }
    ]
  },
  "Notes": [
    {
      "Text": "libwireshark16-4.0.6-1.1 on GA media",
      "Title": "Topic",
      "Type": "Summary"
    },
    {
      "Text": "These are all security issues fixed in the libwireshark16-4.0.6-1.1 package on the GA media of openSUSE Tumbleweed.",
      "Title": "Details",
      "Type": "General"
    },
    {
      "Text": "The CVRF data is provided by SUSE under the Creative Commons License 4.0 with Attribution (CC-BY-4.0).",
      "Title": "Terms of Use",
      "Type": "Legal Disclaimer"
    },
    {
      "Text": "openSUSE-Tumbleweed-2024-12958",
      "Title": "Patchnames",
      "Type": "Details"
    }
  ],
  "ProductTree": {
    "Relationships": [
      {
        "ProductReference": "libwireshark16-4.0.6-1.1",
        "RelatesToProductReference": "openSUSE Tumbleweed",
        "RelationType": "Default Component Of"
      },
      {
        "ProductReference": "libwiretap13-4.0.6-1.1",
        "RelatesToProductReference": "openSUSE Tumbleweed",
        "RelationType": "Default Component Of"
      },
      {
        "ProductReference": "libwsutil14-4.0.6-1.1",
        "RelatesToProductReference": "openSUSE Tumbleweed",
        "RelationType": "Default Component Of"
      },
      {
        "ProductReference": "wireshark-4.0.6-1.1",
        "RelatesToProductReference": "openSUSE Tumbleweed",
        "RelationType": "Default Component Of"
      },
      {
        "ProductReference": "wireshark-devel-4.0.6-1.1",
        "RelatesToProductReference": "openSUSE Tumbleweed",
        "RelationType": "Default Component Of"
      },
      {
        "ProductReference": "wireshark-ui-qt-4.0.6-1.1",
        "RelatesToProductReference": "openSUSE Tumbleweed",
        "RelationType": "Default Component Of"
      }
    ]
  },
  "References": [
    {
      "URL": "https://www.suse.com/support/security/rating/",
      "Description": "SUSE Security Ratings"
    },
    {
      "URL": "https://www.suse.com/security/cve/CVE-2023-0666/",
      "Description": "SUSE CVE CVE-2023-0666 page"
    },
    {
      "URL": "https://www.suse.com/security/cve/CVE-2023-0668/",
      "Description": "SUSE CVE CVE-2023-0668 page"
    },
    {
      "URL": "https://www.suse.com/security/cve/CVE-2023-2854/",
      "Description": "SUSE CVE CVE-2023-2854 page"
    },
    {
      "URL": "https://www.suse.com/security/cve/CVE-2023-2855/",
      "Description": "SUSE CVE CVE-2023-2855 page"
    },
    {
      "URL": "https://www.suse.com/security/cve/CVE-2023-2856/",
      "Description": "SUSE CVE CVE-2023-2856 page"
    },
    {
      "URL": "https://www.suse.com/security/cve/CVE-2023-2857/",
      "Description": "SUSE CVE CVE-2023-2857 page"
    },
    {
      "URL": "https://www.suse.com/security/cve/CVE-2023-2858/",
      "Description": "SUSE CVE CVE-2023-2858 page"
    }
  ],
  "Vulnerabilities": [
    {
      "CVE": "CVE-2023-0666",
      "Description": "Due to failure in validating the length provided by an attacker-crafted RTPS packet, Wireshark version 4.0.5 and prior, by default, is susceptible to a heap-based buffer overflow, and possibly code execution in the context of the process running Wireshark.",
      "Threats": [
        {
          "Type": "Impact",
          "Severity": "moderate"
        }
      ],
      "References": [
        {
          "URL": "https://www.suse.com/security/cve/CVE-2023-0666.html",
          "Description": "CVE-2023-0666"
        },
        {
          "URL": "https://bugzilla.suse.com/1211709",
          "Description": "SUSE Bug 1211709"
        }
      ],
      "ProductStatuses": [
        {
          "Type": "Fixed",
          "ProductID": [
            "openSUSE Tumbleweed:libwireshark16-4.0.6-1.1",
            "openSUSE Tumbleweed:libwiretap13-4.0.6-1.1",
            "openSUSE Tumbleweed:libwsutil14-4.0.6-1.1",
            "openSUSE Tumbleweed:wireshark-4.0.6-1.1",
            "openSUSE Tumbleweed:wireshark-devel-4.0.6-1.1",
            "openSUSE Tumbleweed:wireshark-ui-qt-4.0.6-1.1"
          ]
        }
      ],
      "CVSSScoreSets": {}
    },
    {
      "CVE": "CVE-2023-0668",
      "Description": "Due to failure in validating the length provided by an attacker-crafted IEEE-C37.118 packet, Wireshark version 4.0.5 and prior, by default, is susceptible to a heap-based buffer overflow, and possibly code execution in the context of the process running Wireshark.",
      "Threats": [
        {
          "Type": "Impact",
          "Severity": "moderate"
        }
      ],
      "References": [
        {
          "URL": "https://www.suse.com/security/cve/CVE-2023-0668.html",
          "Description": "CVE-2023-0668"
        },
        {
          "URL": "https://bugzilla.suse.com/1211710",
          "Description": "SUSE Bug 1211710"
        }
      ],
      "ProductStatuses": [
        {
          "Type": "Fixed",
          "ProductID": [
            "openSUSE Tumbleweed:libwireshark16-4.0.6-1.1",
            "openSUSE Tumbleweed:libwiretap13-4.0.6-1.1",
            "openSUSE Tumbleweed:libwsutil14-4.0.6-1.1",
            "openSUSE Tumbleweed:wireshark-4.0.6-1.1",
            "openSUSE Tumbleweed:wireshark-devel-4.0.6-1.1",
            "openSUSE Tumbleweed:wireshark-ui-qt-4.0.6-1.1"
          ]
        }
      ],
      "CVSSScoreSets": {}
    },
    {
      "CVE": "CVE-2023-2854",
      "Description": "BLF file parser crash in Wireshark 4.0.0 to 4.0.5 and 3.6.0 to 3.6.13 allows denial of service via crafted capture file",
      "Threats": [
        {
          "Type": "Impact",
          "Severity": "moderate"
        }
      ],
      "References": [
        {
          "URL": "https://www.suse.com/security/cve/CVE-2023-2854.html",
          "Description": "CVE-2023-2854"
        },
        {
          "URL": "https://bugzilla.suse.com/1211708",
          "Description": "SUSE Bug 1211708"
        }
      ],
      "ProductStatuses": [
        {
          "Type": "Fixed",
          "ProductID": [
            "openSUSE Tumbleweed:libwireshark16-4.0.6-1.1",
            "openSUSE Tumbleweed:libwiretap13-4.0.6-1.1",
            "openSUSE Tumbleweed:libwsutil14-4.0.6-1.1",
            "openSUSE Tumbleweed:wireshark-4.0.6-1.1",
            "openSUSE Tumbleweed:wireshark-devel-4.0.6-1.1",
            "openSUSE Tumbleweed:wireshark-ui-qt-4.0.6-1.1"
          ]
        }
      ],
      "CVSSScoreSets": {}
    },
    {
      "CVE": "CVE-2023-2855",
      "Description": "Candump log parser crash in Wireshark 4.0.0 to 4.0.5 and 3.6.0 to 3.6.13 allows denial of service via crafted capture file",
      "Threats": [
        {
          "Type": "Impact",
          "Severity": "moderate"
        }
      ],
      "References": [
        {
          "URL": "https://www.suse.com/security/cve/CVE-2023-2855.html",
          "Description": "CVE-2023-2855"
        },
        {
          "URL": "https://bugzilla.suse.com/1211703",
          "Description": "SUSE Bug 1211703"
        }
      ],
      "ProductStatuses": [
        {
          "Type": "Fixed",
          "ProductID": [
            "openSUSE Tumbleweed:libwireshark16-4.0.6-1.1",
            "openSUSE Tumbleweed:libwiretap13-4.0.6-1.1",
            "openSUSE Tumbleweed:libwsutil14-4.0.6-1.1",
            "openSUSE Tumbleweed:wireshark-4.0.6-1.1",
            "openSUSE Tumbleweed:wireshark-devel-4.0.6-1.1",
            "openSUSE Tumbleweed:wireshark-ui-qt-4.0.6-1.1"
          ]
        }
      ],
      "CVSSScoreSets": {}
    },
    {
      "CVE": "CVE-2023-2856",
      "Description": "VMS TCPIPtrace file parser crash in Wireshark 4.0.0 to 4.0.5 and 3.6.0 to 3.6.13 allows denial of service via crafted capture file",
      "Threats": [
        {
          "Type": "Impact",
          "Severity": "moderate"
        }
      ],
      "References": [
        {
          "URL": "https://www.suse.com/security/cve/CVE-2023-2856.html",
          "Description": "CVE-2023-2856"
        },
        {
          "URL": "https://bugzilla.suse.com/1211707",
          "Description": "SUSE Bug 1211707"
        }
      ],
      "ProductStatuses": [
        {
          "Type": "Fixed",
          "ProductID": [
            "openSUSE Tumbleweed:libwireshark16-4.0.6-1.1",
            "openSUSE Tumbleweed:libwiretap13-4.0.6-1.1",
            "openSUSE Tumbleweed:libwsutil14-4.0.6-1.1",
            "openSUSE Tumbleweed:wireshark-4.0.6-1.1",
            "openSUSE Tumbleweed:wireshark-devel-4.0.6-1.1",
            "openSUSE Tumbleweed:wireshark-ui-qt-4.0.6-1.1"
          ]
        }
      ],
      "CVSSScoreSets": {}
    },
    {
      "CVE": "CVE-2023-2857",
      "Description": "BLF file parser crash in Wireshark 4.0.0 to 4.0.5 and 3.6.0 to 3.6.13 allows denial of service via crafted capture file",
      "Threats": [
        {
          "Type": "Impact",
          "Severity": "moderate"
        }
      ],
      "References": [
        {
          "URL": "https://www.suse.com/security/cve/CVE-2023-2857.html",
          "Description": "CVE-2023-2857"
        },
        {
          "URL": "https://bugzilla.suse.com/1211705",
          "Description": "SUSE Bug 1211705"
        }
      ],
      "ProductStatuses": [
        {
          "Type": "Fixed",
          "ProductID": [
            "openSUSE Tumbleweed:libwireshark16-4.0.6-1.1",
            "openSUSE Tumbleweed:libwiretap13-4.0.6-1.1",
            "openSUSE Tumbleweed:libwsutil14-4.0.6-1.1",
            "openSUSE Tumbleweed:wireshark-4.0.6-1.1",
            "openSUSE Tumbleweed:wireshark-devel-4.0.6-1.1",
            "openSUSE Tumbleweed:wireshark-ui-qt-4.0.6-1.1"
          ]
        }
      ],
      "CVSSScoreSets": {}
    },
    {
      "CVE": "CVE-2023-2858",
      "Description": "NetScaler file parser crash in Wireshark 4.0.0 to 4.0.5 and 3.6.0 to 3.6.13 allows denial of service via crafted capture file",
      "Threats": [
        {
          "Type": "Impact",
          "Severity": "moderate"
        }
      ],
      "References": [
        {
          "URL": "https://www.suse.com/security/cve/CVE-2023-2858.html",
          "Description": "CVE-2023-2858"
        },
        {
          "URL": "https://bugzilla.suse.com/1211706",
          "Description": "SUSE Bug 1211706"
        }
      ],
      "ProductStatuses": [
        {
          "Type": "Fixed",
          "ProductID": [
            "openSUSE Tumbleweed:libwireshark16-4.0.6-1.1",
            "openSUSE Tumbleweed:libwiretap13-4.0.6-1.1",
            "openSUSE Tumbleweed:libwsutil14-4.0.6-1.1",
            "openSUSE Tumbleweed:wireshark-4.0.6-1.1",
            "openSUSE Tumbleweed:wireshark-devel-4.0.6-1.1",
            "openSUSE Tumbleweed:wireshark-ui-qt-4.0.6-1.1"
          ]
        }
      ],
      "CVSSScoreSets": {}
    }
  ]
}