{
  "Title": "gvim-8.2.4286-1.1 on GA media",
  "Tracking": {
    "ID": "openSUSE-SU-2024:11812-1",
    "Status": "Final",
    "Version": "1",
    "InitialReleaseDate": "2024-06-22T21:44:56Z",
    "CurrentReleaseDate": "2024-06-22T21:44:56Z",
    "RevisionHistory": [
      {
        "Number": "1",
        "Date": "2024-06-22T21:44:56Z",
        "Description": "current"
      }
    ]
  },
  "Notes": [
    {
      "Text": "gvim-8.2.4286-1.1 on GA media",
      "Title": "Topic",
      "Type": "Summary"
    },
    {
      "Text": "These are all security issues fixed in the gvim-8.2.4286-1.1 package on the GA media of openSUSE Tumbleweed.",
      "Title": "Details",
      "Type": "General"
    },
    {
      "Text": "The CVRF data is provided by SUSE under the Creative Commons License 4.0 with Attribution (CC-BY-4.0).",
      "Title": "Terms of Use",
      "Type": "Legal Disclaimer"
    },
    {
      "Text": "openSUSE-Tumbleweed-2024-11812",
      "Title": "Patchnames",
      "Type": "Details"
    }
  ],
  "ProductTree": {
    "Relationships": [
      {
        "ProductReference": "gvim-8.2.4286-1.1",
        "RelatesToProductReference": "openSUSE Tumbleweed",
        "RelationType": "Default Component Of"
      },
      {
        "ProductReference": "vim-8.2.4286-1.1",
        "RelatesToProductReference": "openSUSE Tumbleweed",
        "RelationType": "Default Component Of"
      },
      {
        "ProductReference": "vim-data-8.2.4286-1.1",
        "RelatesToProductReference": "openSUSE Tumbleweed",
        "RelationType": "Default Component Of"
      },
      {
        "ProductReference": "vim-data-common-8.2.4286-1.1",
        "RelatesToProductReference": "openSUSE Tumbleweed",
        "RelationType": "Default Component Of"
      },
      {
        "ProductReference": "vim-small-8.2.4286-1.1",
        "RelatesToProductReference": "openSUSE Tumbleweed",
        "RelationType": "Default Component Of"
      }
    ]
  },
  "References": [
    {
      "URL": "https://www.suse.com/support/security/rating/",
      "Description": "SUSE Security Ratings"
    },
    {
      "URL": "https://www.suse.com/security/cve/CVE-2022-0393/",
      "Description": "SUSE CVE CVE-2022-0393 page"
    },
    {
      "URL": "https://www.suse.com/security/cve/CVE-2022-0417/",
      "Description": "SUSE CVE CVE-2022-0417 page"
    },
    {
      "URL": "https://www.suse.com/security/cve/CVE-2022-0443/",
      "Description": "SUSE CVE CVE-2022-0443 page"
    }
  ],
  "Vulnerabilities": [
    {
      "CVE": "CVE-2022-0393",
      "Description": "Out-of-bounds Read in GitHub repository vim/vim prior to 8.2.",
      "Threats": [
        {
          "Type": "Impact",
          "Severity": "moderate"
        }
      ],
      "References": [
        {
          "URL": "https://www.suse.com/security/cve/CVE-2022-0393.html",
          "Description": "CVE-2022-0393"
        },
        {
          "URL": "https://bugzilla.suse.com/1195336",
          "Description": "SUSE Bug 1195336"
        }
      ],
      "ProductStatuses": [
        {
          "Type": "Fixed",
          "ProductID": [
            "openSUSE Tumbleweed:gvim-8.2.4286-1.1",
            "openSUSE Tumbleweed:vim-8.2.4286-1.1",
            "openSUSE Tumbleweed:vim-data-8.2.4286-1.1",
            "openSUSE Tumbleweed:vim-data-common-8.2.4286-1.1",
            "openSUSE Tumbleweed:vim-small-8.2.4286-1.1"
          ]
        }
      ],
      "CVSSScoreSets": {}
    },
    {
      "CVE": "CVE-2022-0417",
      "Description": "Heap-based Buffer Overflow GitHub repository vim/vim prior to 8.2.",
      "Threats": [
        {
          "Type": "Impact",
          "Severity": "moderate"
        }
      ],
      "References": [
        {
          "URL": "https://www.suse.com/security/cve/CVE-2022-0417.html",
          "Description": "CVE-2022-0417"
        },
        {
          "URL": "https://bugzilla.suse.com/1195499",
          "Description": "SUSE Bug 1195499"
        }
      ],
      "ProductStatuses": [
        {
          "Type": "Fixed",
          "ProductID": [
            "openSUSE Tumbleweed:gvim-8.2.4286-1.1",
            "openSUSE Tumbleweed:vim-8.2.4286-1.1",
            "openSUSE Tumbleweed:vim-data-8.2.4286-1.1",
            "openSUSE Tumbleweed:vim-data-common-8.2.4286-1.1",
            "openSUSE Tumbleweed:vim-small-8.2.4286-1.1"
          ]
        }
      ],
      "CVSSScoreSets": {}
    },
    {
      "CVE": "CVE-2022-0443",
      "Description": "Use After Free in GitHub repository vim/vim prior to 8.2.",
      "Threats": [
        {
          "Type": "Impact",
          "Severity": "moderate"
        }
      ],
      "References": [
        {
          "URL": "https://www.suse.com/security/cve/CVE-2022-0443.html",
          "Description": "CVE-2022-0443"
        },
        {
          "URL": "https://bugzilla.suse.com/1195509",
          "Description": "SUSE Bug 1195509"
        }
      ],
      "ProductStatuses": [
        {
          "Type": "Fixed",
          "ProductID": [
            "openSUSE Tumbleweed:gvim-8.2.4286-1.1",
            "openSUSE Tumbleweed:vim-8.2.4286-1.1",
            "openSUSE Tumbleweed:vim-data-8.2.4286-1.1",
            "openSUSE Tumbleweed:vim-data-common-8.2.4286-1.1",
            "openSUSE Tumbleweed:vim-small-8.2.4286-1.1"
          ]
        }
      ],
      "CVSSScoreSets": {}
    }
  ]
}