{
  "Title": "ceph-16.2.9.536+g41a9f9a5573-1.1 on GA media",
  "Tracking": {
    "ID": "openSUSE-SU-2024:12195-1",
    "Status": "Final",
    "Version": "1",
    "InitialReleaseDate": "2024-06-20T21:44:22Z",
    "CurrentReleaseDate": "2024-06-20T21:44:22Z",
    "RevisionHistory": [
      {
        "Number": "1",
        "Date": "2024-06-20T21:44:22Z",
        "Description": "current"
      }
    ]
  },
  "Notes": [
    {
      "Text": "ceph-16.2.9.536+g41a9f9a5573-1.1 on GA media",
      "Title": "Topic",
      "Type": "Summary"
    },
    {
      "Text": "These are all security issues fixed in the ceph-16.2.9.536+g41a9f9a5573-1.1 package on the GA media of openSUSE Tumbleweed.",
      "Title": "Details",
      "Type": "General"
    },
    {
      "Text": "The CVRF data is provided by SUSE under the Creative Commons License 4.0 with Attribution (CC-BY-4.0).",
      "Title": "Terms of Use",
      "Type": "Legal Disclaimer"
    },
    {
      "Text": "openSUSE-Tumbleweed-2024-12195",
      "Title": "Patchnames",
      "Type": "Details"
    }
  ],
  "ProductTree": {
    "Relationships": [
      {
        "ProductReference": "ceph-16.2.9.536+g41a9f9a5573-1.1",
        "RelatesToProductReference": "openSUSE Tumbleweed",
        "RelationType": "Default Component Of"
      },
      {
        "ProductReference": "ceph-base-16.2.9.536+g41a9f9a5573-1.1",
        "RelatesToProductReference": "openSUSE Tumbleweed",
        "RelationType": "Default Component Of"
      },
      {
        "ProductReference": "ceph-common-16.2.9.536+g41a9f9a5573-1.1",
        "RelatesToProductReference": "openSUSE Tumbleweed",
        "RelationType": "Default Component Of"
      },
      {
        "ProductReference": "ceph-fuse-16.2.9.536+g41a9f9a5573-1.1",
        "RelatesToProductReference": "openSUSE Tumbleweed",
        "RelationType": "Default Component Of"
      },
      {
        "ProductReference": "ceph-grafana-dashboards-16.2.9.536+g41a9f9a5573-1.1",
        "RelatesToProductReference": "openSUSE Tumbleweed",
        "RelationType": "Default Component Of"
      },
      {
        "ProductReference": "ceph-immutable-object-cache-16.2.9.536+g41a9f9a5573-1.1",
        "RelatesToProductReference": "openSUSE Tumbleweed",
        "RelationType": "Default Component Of"
      },
      {
        "ProductReference": "ceph-mds-16.2.9.536+g41a9f9a5573-1.1",
        "RelatesToProductReference": "openSUSE Tumbleweed",
        "RelationType": "Default Component Of"
      },
      {
        "ProductReference": "ceph-mgr-16.2.9.536+g41a9f9a5573-1.1",
        "RelatesToProductReference": "openSUSE Tumbleweed",
        "RelationType": "Default Component Of"
      },
      {
        "ProductReference": "ceph-mgr-cephadm-16.2.9.536+g41a9f9a5573-1.1",
        "RelatesToProductReference": "openSUSE Tumbleweed",
        "RelationType": "Default Component Of"
      },
      {
        "ProductReference": "ceph-mgr-dashboard-16.2.9.536+g41a9f9a5573-1.1",
        "RelatesToProductReference": "openSUSE Tumbleweed",
        "RelationType": "Default Component Of"
      },
      {
        "ProductReference": "ceph-mgr-diskprediction-local-16.2.9.536+g41a9f9a5573-1.1",
        "RelatesToProductReference": "openSUSE Tumbleweed",
        "RelationType": "Default Component Of"
      },
      {
        "ProductReference": "ceph-mgr-k8sevents-16.2.9.536+g41a9f9a5573-1.1",
        "RelatesToProductReference": "openSUSE Tumbleweed",
        "RelationType": "Default Component Of"
      },
      {
        "ProductReference": "ceph-mgr-modules-core-16.2.9.536+g41a9f9a5573-1.1",
        "RelatesToProductReference": "openSUSE Tumbleweed",
        "RelationType": "Default Component Of"
      },
      {
        "ProductReference": "ceph-mgr-rook-16.2.9.536+g41a9f9a5573-1.1",
        "RelatesToProductReference": "openSUSE Tumbleweed",
        "RelationType": "Default Component Of"
      },
      {
        "ProductReference": "ceph-mon-16.2.9.536+g41a9f9a5573-1.1",
        "RelatesToProductReference": "openSUSE Tumbleweed",
        "RelationType": "Default Component Of"
      },
      {
        "ProductReference": "ceph-osd-16.2.9.536+g41a9f9a5573-1.1",
        "RelatesToProductReference": "openSUSE Tumbleweed",
        "RelationType": "Default Component Of"
      },
      {
        "ProductReference": "ceph-prometheus-alerts-16.2.9.536+g41a9f9a5573-1.1",
        "RelatesToProductReference": "openSUSE Tumbleweed",
        "RelationType": "Default Component Of"
      },
      {
        "ProductReference": "ceph-radosgw-16.2.9.536+g41a9f9a5573-1.1",
        "RelatesToProductReference": "openSUSE Tumbleweed",
        "RelationType": "Default Component Of"
      },
      {
        "ProductReference": "cephadm-16.2.9.536+g41a9f9a5573-1.1",
        "RelatesToProductReference": "openSUSE Tumbleweed",
        "RelationType": "Default Component Of"
      },
      {
        "ProductReference": "cephfs-mirror-16.2.9.536+g41a9f9a5573-1.1",
        "RelatesToProductReference": "openSUSE Tumbleweed",
        "RelationType": "Default Component Of"
      },
      {
        "ProductReference": "cephfs-shell-16.2.9.536+g41a9f9a5573-1.1",
        "RelatesToProductReference": "openSUSE Tumbleweed",
        "RelationType": "Default Component Of"
      },
      {
        "ProductReference": "cephfs-top-16.2.9.536+g41a9f9a5573-1.1",
        "RelatesToProductReference": "openSUSE Tumbleweed",
        "RelationType": "Default Component Of"
      },
      {
        "ProductReference": "libcephfs-devel-16.2.9.536+g41a9f9a5573-1.1",
        "RelatesToProductReference": "openSUSE Tumbleweed",
        "RelationType": "Default Component Of"
      },
      {
        "ProductReference": "libcephfs2-16.2.9.536+g41a9f9a5573-1.1",
        "RelatesToProductReference": "openSUSE Tumbleweed",
        "RelationType": "Default Component Of"
      },
      {
        "ProductReference": "libcephsqlite-16.2.9.536+g41a9f9a5573-1.1",
        "RelatesToProductReference": "openSUSE Tumbleweed",
        "RelationType": "Default Component Of"
      },
      {
        "ProductReference": "libcephsqlite-devel-16.2.9.536+g41a9f9a5573-1.1",
        "RelatesToProductReference": "openSUSE Tumbleweed",
        "RelationType": "Default Component Of"
      },
      {
        "ProductReference": "librados-devel-16.2.9.536+g41a9f9a5573-1.1",
        "RelatesToProductReference": "openSUSE Tumbleweed",
        "RelationType": "Default Component Of"
      },
      {
        "ProductReference": "librados2-16.2.9.536+g41a9f9a5573-1.1",
        "RelatesToProductReference": "openSUSE Tumbleweed",
        "RelationType": "Default Component Of"
      },
      {
        "ProductReference": "libradospp-devel-16.2.9.536+g41a9f9a5573-1.1",
        "RelatesToProductReference": "openSUSE Tumbleweed",
        "RelationType": "Default Component Of"
      },
      {
        "ProductReference": "librbd-devel-16.2.9.536+g41a9f9a5573-1.1",
        "RelatesToProductReference": "openSUSE Tumbleweed",
        "RelationType": "Default Component Of"
      },
      {
        "ProductReference": "librbd1-16.2.9.536+g41a9f9a5573-1.1",
        "RelatesToProductReference": "openSUSE Tumbleweed",
        "RelationType": "Default Component Of"
      },
      {
        "ProductReference": "librgw-devel-16.2.9.536+g41a9f9a5573-1.1",
        "RelatesToProductReference": "openSUSE Tumbleweed",
        "RelationType": "Default Component Of"
      },
      {
        "ProductReference": "librgw2-16.2.9.536+g41a9f9a5573-1.1",
        "RelatesToProductReference": "openSUSE Tumbleweed",
        "RelationType": "Default Component Of"
      },
      {
        "ProductReference": "python3-ceph-argparse-16.2.9.536+g41a9f9a5573-1.1",
        "RelatesToProductReference": "openSUSE Tumbleweed",
        "RelationType": "Default Component Of"
      },
      {
        "ProductReference": "python3-ceph-common-16.2.9.536+g41a9f9a5573-1.1",
        "RelatesToProductReference": "openSUSE Tumbleweed",
        "RelationType": "Default Component Of"
      },
      {
        "ProductReference": "python3-cephfs-16.2.9.536+g41a9f9a5573-1.1",
        "RelatesToProductReference": "openSUSE Tumbleweed",
        "RelationType": "Default Component Of"
      },
      {
        "ProductReference": "python3-rados-16.2.9.536+g41a9f9a5573-1.1",
        "RelatesToProductReference": "openSUSE Tumbleweed",
        "RelationType": "Default Component Of"
      },
      {
        "ProductReference": "python3-rbd-16.2.9.536+g41a9f9a5573-1.1",
        "RelatesToProductReference": "openSUSE Tumbleweed",
        "RelationType": "Default Component Of"
      },
      {
        "ProductReference": "python3-rgw-16.2.9.536+g41a9f9a5573-1.1",
        "RelatesToProductReference": "openSUSE Tumbleweed",
        "RelationType": "Default Component Of"
      },
      {
        "ProductReference": "rados-objclass-devel-16.2.9.536+g41a9f9a5573-1.1",
        "RelatesToProductReference": "openSUSE Tumbleweed",
        "RelationType": "Default Component Of"
      },
      {
        "ProductReference": "rbd-fuse-16.2.9.536+g41a9f9a5573-1.1",
        "RelatesToProductReference": "openSUSE Tumbleweed",
        "RelationType": "Default Component Of"
      },
      {
        "ProductReference": "rbd-mirror-16.2.9.536+g41a9f9a5573-1.1",
        "RelatesToProductReference": "openSUSE Tumbleweed",
        "RelationType": "Default Component Of"
      },
      {
        "ProductReference": "rbd-nbd-16.2.9.536+g41a9f9a5573-1.1",
        "RelatesToProductReference": "openSUSE Tumbleweed",
        "RelationType": "Default Component Of"
      }
    ]
  },
  "References": [
    {
      "URL": "https://www.suse.com/support/security/rating/",
      "Description": "SUSE Security Ratings"
    },
    {
      "URL": "https://www.suse.com/security/cve/CVE-2021-3979/",
      "Description": "SUSE CVE CVE-2021-3979 page"
    }
  ],
  "Vulnerabilities": [
    {
      "CVE": "CVE-2021-3979",
      "Description": "A key length flaw was found in Red Hat Ceph Storage. An attacker can exploit the fact that the key length is incorrectly passed in an encryption algorithm to create a non random key, which is weaker and can be exploited for loss of confidentiality and integrity on encrypted disks.",
      "Threats": [
        {
          "Type": "Impact",
          "Severity": "moderate"
        }
      ],
      "References": [
        {
          "URL": "https://www.suse.com/security/cve/CVE-2021-3979.html",
          "Description": "CVE-2021-3979"
        },
        {
          "URL": "https://bugzilla.suse.com/1194131",
          "Description": "SUSE Bug 1194131"
        }
      ],
      "ProductStatuses": [
        {
          "Type": "Fixed",
          "ProductID": [
            "openSUSE Tumbleweed:ceph-16.2.9.536+g41a9f9a5573-1.1",
            "openSUSE Tumbleweed:ceph-base-16.2.9.536+g41a9f9a5573-1.1",
            "openSUSE Tumbleweed:ceph-common-16.2.9.536+g41a9f9a5573-1.1",
            "openSUSE Tumbleweed:ceph-fuse-16.2.9.536+g41a9f9a5573-1.1",
            "openSUSE Tumbleweed:ceph-grafana-dashboards-16.2.9.536+g41a9f9a5573-1.1",
            "openSUSE Tumbleweed:ceph-immutable-object-cache-16.2.9.536+g41a9f9a5573-1.1",
            "openSUSE Tumbleweed:ceph-mds-16.2.9.536+g41a9f9a5573-1.1",
            "openSUSE Tumbleweed:ceph-mgr-16.2.9.536+g41a9f9a5573-1.1",
            "openSUSE Tumbleweed:ceph-mgr-cephadm-16.2.9.536+g41a9f9a5573-1.1",
            "openSUSE Tumbleweed:ceph-mgr-dashboard-16.2.9.536+g41a9f9a5573-1.1",
            "openSUSE Tumbleweed:ceph-mgr-diskprediction-local-16.2.9.536+g41a9f9a5573-1.1",
            "openSUSE Tumbleweed:ceph-mgr-k8sevents-16.2.9.536+g41a9f9a5573-1.1",
            "openSUSE Tumbleweed:ceph-mgr-modules-core-16.2.9.536+g41a9f9a5573-1.1",
            "openSUSE Tumbleweed:ceph-mgr-rook-16.2.9.536+g41a9f9a5573-1.1",
            "openSUSE Tumbleweed:ceph-mon-16.2.9.536+g41a9f9a5573-1.1",
            "openSUSE Tumbleweed:ceph-osd-16.2.9.536+g41a9f9a5573-1.1",
            "openSUSE Tumbleweed:ceph-prometheus-alerts-16.2.9.536+g41a9f9a5573-1.1",
            "openSUSE Tumbleweed:ceph-radosgw-16.2.9.536+g41a9f9a5573-1.1",
            "openSUSE Tumbleweed:cephadm-16.2.9.536+g41a9f9a5573-1.1",
            "openSUSE Tumbleweed:cephfs-mirror-16.2.9.536+g41a9f9a5573-1.1",
            "openSUSE Tumbleweed:cephfs-shell-16.2.9.536+g41a9f9a5573-1.1",
            "openSUSE Tumbleweed:cephfs-top-16.2.9.536+g41a9f9a5573-1.1",
            "openSUSE Tumbleweed:libcephfs-devel-16.2.9.536+g41a9f9a5573-1.1",
            "openSUSE Tumbleweed:libcephfs2-16.2.9.536+g41a9f9a5573-1.1",
            "openSUSE Tumbleweed:libcephsqlite-16.2.9.536+g41a9f9a5573-1.1",
            "openSUSE Tumbleweed:libcephsqlite-devel-16.2.9.536+g41a9f9a5573-1.1",
            "openSUSE Tumbleweed:librados-devel-16.2.9.536+g41a9f9a5573-1.1",
            "openSUSE Tumbleweed:librados2-16.2.9.536+g41a9f9a5573-1.1",
            "openSUSE Tumbleweed:libradospp-devel-16.2.9.536+g41a9f9a5573-1.1",
            "openSUSE Tumbleweed:librbd-devel-16.2.9.536+g41a9f9a5573-1.1",
            "openSUSE Tumbleweed:librbd1-16.2.9.536+g41a9f9a5573-1.1",
            "openSUSE Tumbleweed:librgw-devel-16.2.9.536+g41a9f9a5573-1.1",
            "openSUSE Tumbleweed:librgw2-16.2.9.536+g41a9f9a5573-1.1",
            "openSUSE Tumbleweed:python3-ceph-argparse-16.2.9.536+g41a9f9a5573-1.1",
            "openSUSE Tumbleweed:python3-ceph-common-16.2.9.536+g41a9f9a5573-1.1",
            "openSUSE Tumbleweed:python3-cephfs-16.2.9.536+g41a9f9a5573-1.1",
            "openSUSE Tumbleweed:python3-rados-16.2.9.536+g41a9f9a5573-1.1",
            "openSUSE Tumbleweed:python3-rbd-16.2.9.536+g41a9f9a5573-1.1",
            "openSUSE Tumbleweed:python3-rgw-16.2.9.536+g41a9f9a5573-1.1",
            "openSUSE Tumbleweed:rados-objclass-devel-16.2.9.536+g41a9f9a5573-1.1",
            "openSUSE Tumbleweed:rbd-fuse-16.2.9.536+g41a9f9a5573-1.1",
            "openSUSE Tumbleweed:rbd-mirror-16.2.9.536+g41a9f9a5573-1.1",
            "openSUSE Tumbleweed:rbd-nbd-16.2.9.536+g41a9f9a5573-1.1"
          ]
        }
      ],
      "CVSSScoreSets": {}
    }
  ]
}