{
  "Title": "libsnmp30-32bit-5.9-3.2 on GA media",
  "Tracking": {
    "ID": "openSUSE-SU-2024:11082-1",
    "Status": "Final",
    "Version": "1",
    "InitialReleaseDate": "2024-06-22T21:44:56Z",
    "CurrentReleaseDate": "2024-06-22T21:44:56Z",
    "RevisionHistory": [
      {
        "Number": "1",
        "Date": "2024-06-22T21:44:56Z",
        "Description": "current"
      }
    ]
  },
  "Notes": [
    {
      "Text": "libsnmp30-32bit-5.9-3.2 on GA media",
      "Title": "Topic",
      "Type": "Summary"
    },
    {
      "Text": "These are all security issues fixed in the libsnmp30-32bit-5.9-3.2 package on the GA media of openSUSE Tumbleweed.",
      "Title": "Details",
      "Type": "General"
    },
    {
      "Text": "The CVRF data is provided by SUSE under the Creative Commons License 4.0 with Attribution (CC-BY-4.0).",
      "Title": "Terms of Use",
      "Type": "Legal Disclaimer"
    },
    {
      "Text": "openSUSE-Tumbleweed-2024-11082",
      "Title": "Patchnames",
      "Type": "Details"
    }
  ],
  "ProductTree": {
    "Relationships": [
      {
        "ProductReference": "libsnmp30-5.9-3.2",
        "RelatesToProductReference": "openSUSE Tumbleweed",
        "RelationType": "Default Component Of"
      },
      {
        "ProductReference": "libsnmp30-32bit-5.9-3.2",
        "RelatesToProductReference": "openSUSE Tumbleweed",
        "RelationType": "Default Component Of"
      },
      {
        "ProductReference": "net-snmp-5.9-3.2",
        "RelatesToProductReference": "openSUSE Tumbleweed",
        "RelationType": "Default Component Of"
      },
      {
        "ProductReference": "net-snmp-devel-5.9-3.2",
        "RelatesToProductReference": "openSUSE Tumbleweed",
        "RelationType": "Default Component Of"
      },
      {
        "ProductReference": "net-snmp-devel-32bit-5.9-3.2",
        "RelatesToProductReference": "openSUSE Tumbleweed",
        "RelationType": "Default Component Of"
      },
      {
        "ProductReference": "perl-SNMP-5.9-3.2",
        "RelatesToProductReference": "openSUSE Tumbleweed",
        "RelationType": "Default Component Of"
      },
      {
        "ProductReference": "python36-net-snmp-5.9-3.2",
        "RelatesToProductReference": "openSUSE Tumbleweed",
        "RelationType": "Default Component Of"
      },
      {
        "ProductReference": "python38-net-snmp-5.9-3.2",
        "RelatesToProductReference": "openSUSE Tumbleweed",
        "RelationType": "Default Component Of"
      },
      {
        "ProductReference": "python39-net-snmp-5.9-3.2",
        "RelatesToProductReference": "openSUSE Tumbleweed",
        "RelationType": "Default Component Of"
      },
      {
        "ProductReference": "snmp-mibs-5.9-3.2",
        "RelatesToProductReference": "openSUSE Tumbleweed",
        "RelationType": "Default Component Of"
      }
    ]
  },
  "References": [
    {
      "URL": "https://www.suse.com/support/security/rating/",
      "Description": "SUSE Security Ratings"
    },
    {
      "URL": "https://www.suse.com/security/cve/CVE-2008-4309/",
      "Description": "SUSE CVE CVE-2008-4309 page"
    },
    {
      "URL": "https://www.suse.com/security/cve/CVE-2018-18065/",
      "Description": "SUSE CVE CVE-2018-18065 page"
    }
  ],
  "Vulnerabilities": [
    {
      "CVE": "CVE-2008-4309",
      "Description": "Integer overflow in the netsnmp_create_subtree_cache function in agent/snmp_agent.c in net-snmp 5.4 before 5.4.2.1, 5.3 before 5.3.2.3, and 5.2 before 5.2.5.1 allows remote attackers to cause a denial of service (crash) via a crafted SNMP GETBULK request, which triggers a heap-based buffer overflow, related to the number of responses or repeats.",
      "Threats": [
        {
          "Type": "Impact",
          "Severity": "moderate"
        }
      ],
      "References": [
        {
          "URL": "https://www.suse.com/security/cve/CVE-2008-4309.html",
          "Description": "CVE-2008-4309"
        },
        {
          "URL": "https://bugzilla.suse.com/440950",
          "Description": "SUSE Bug 440950"
        },
        {
          "URL": "https://bugzilla.suse.com/514709",
          "Description": "SUSE Bug 514709"
        }
      ],
      "ProductStatuses": [
        {
          "Type": "Fixed",
          "ProductID": [
            "openSUSE Tumbleweed:libsnmp30-32bit-5.9-3.2",
            "openSUSE Tumbleweed:libsnmp30-5.9-3.2",
            "openSUSE Tumbleweed:net-snmp-5.9-3.2",
            "openSUSE Tumbleweed:net-snmp-devel-32bit-5.9-3.2",
            "openSUSE Tumbleweed:net-snmp-devel-5.9-3.2",
            "openSUSE Tumbleweed:perl-SNMP-5.9-3.2",
            "openSUSE Tumbleweed:python36-net-snmp-5.9-3.2",
            "openSUSE Tumbleweed:python38-net-snmp-5.9-3.2",
            "openSUSE Tumbleweed:python39-net-snmp-5.9-3.2",
            "openSUSE Tumbleweed:snmp-mibs-5.9-3.2"
          ]
        }
      ],
      "CVSSScoreSets": {}
    },
    {
      "CVE": "CVE-2018-18065",
      "Description": "_set_key in agent/helpers/table_container.c in Net-SNMP before 5.8 has a NULL Pointer Exception bug that can be used by an authenticated attacker to remotely cause the instance to crash via a crafted UDP packet, resulting in Denial of Service.",
      "Threats": [
        {
          "Type": "Impact",
          "Severity": "important"
        }
      ],
      "References": [
        {
          "URL": "https://www.suse.com/security/cve/CVE-2018-18065.html",
          "Description": "CVE-2018-18065"
        },
        {
          "URL": "https://bugzilla.suse.com/1111122",
          "Description": "SUSE Bug 1111122"
        },
        {
          "URL": "https://bugzilla.suse.com/1126909",
          "Description": "SUSE Bug 1126909"
        },
        {
          "URL": "https://bugzilla.suse.com/1145864",
          "Description": "SUSE Bug 1145864"
        }
      ],
      "ProductStatuses": [
        {
          "Type": "Fixed",
          "ProductID": [
            "openSUSE Tumbleweed:libsnmp30-32bit-5.9-3.2",
            "openSUSE Tumbleweed:libsnmp30-5.9-3.2",
            "openSUSE Tumbleweed:net-snmp-5.9-3.2",
            "openSUSE Tumbleweed:net-snmp-devel-32bit-5.9-3.2",
            "openSUSE Tumbleweed:net-snmp-devel-5.9-3.2",
            "openSUSE Tumbleweed:perl-SNMP-5.9-3.2",
            "openSUSE Tumbleweed:python36-net-snmp-5.9-3.2",
            "openSUSE Tumbleweed:python38-net-snmp-5.9-3.2",
            "openSUSE Tumbleweed:python39-net-snmp-5.9-3.2",
            "openSUSE Tumbleweed:snmp-mibs-5.9-3.2"
          ]
        }
      ],
      "CVSSScoreSets": {}
    }
  ]
}