{
  "Title": "tomcat-9.0.43-5.1 on GA media",
  "Tracking": {
    "ID": "openSUSE-SU-2024:11864-1",
    "Status": "Final",
    "Version": "1",
    "InitialReleaseDate": "2024-06-22T21:44:56Z",
    "CurrentReleaseDate": "2024-06-22T21:44:56Z",
    "RevisionHistory": [
      {
        "Number": "1",
        "Date": "2024-06-22T21:44:56Z",
        "Description": "current"
      }
    ]
  },
  "Notes": [
    {
      "Text": "tomcat-9.0.43-5.1 on GA media",
      "Title": "Topic",
      "Type": "Summary"
    },
    {
      "Text": "These are all security issues fixed in the tomcat-9.0.43-5.1 package on the GA media of openSUSE Tumbleweed.",
      "Title": "Details",
      "Type": "General"
    },
    {
      "Text": "The CVRF data is provided by SUSE under the Creative Commons License 4.0 with Attribution (CC-BY-4.0).",
      "Title": "Terms of Use",
      "Type": "Legal Disclaimer"
    },
    {
      "Text": "openSUSE-Tumbleweed-2024-11864",
      "Title": "Patchnames",
      "Type": "Details"
    }
  ],
  "ProductTree": {
    "Relationships": [
      {
        "ProductReference": "tomcat-9.0.43-5.1",
        "RelatesToProductReference": "openSUSE Tumbleweed",
        "RelationType": "Default Component Of"
      },
      {
        "ProductReference": "tomcat-admin-webapps-9.0.43-5.1",
        "RelatesToProductReference": "openSUSE Tumbleweed",
        "RelationType": "Default Component Of"
      },
      {
        "ProductReference": "tomcat-docs-webapp-9.0.43-5.1",
        "RelatesToProductReference": "openSUSE Tumbleweed",
        "RelationType": "Default Component Of"
      },
      {
        "ProductReference": "tomcat-el-3_0-api-9.0.43-5.1",
        "RelatesToProductReference": "openSUSE Tumbleweed",
        "RelationType": "Default Component Of"
      },
      {
        "ProductReference": "tomcat-embed-9.0.43-5.1",
        "RelatesToProductReference": "openSUSE Tumbleweed",
        "RelationType": "Default Component Of"
      },
      {
        "ProductReference": "tomcat-javadoc-9.0.43-5.1",
        "RelatesToProductReference": "openSUSE Tumbleweed",
        "RelationType": "Default Component Of"
      },
      {
        "ProductReference": "tomcat-jsp-2_3-api-9.0.43-5.1",
        "RelatesToProductReference": "openSUSE Tumbleweed",
        "RelationType": "Default Component Of"
      },
      {
        "ProductReference": "tomcat-jsvc-9.0.43-5.1",
        "RelatesToProductReference": "openSUSE Tumbleweed",
        "RelationType": "Default Component Of"
      },
      {
        "ProductReference": "tomcat-lib-9.0.43-5.1",
        "RelatesToProductReference": "openSUSE Tumbleweed",
        "RelationType": "Default Component Of"
      },
      {
        "ProductReference": "tomcat-servlet-4_0-api-9.0.43-5.1",
        "RelatesToProductReference": "openSUSE Tumbleweed",
        "RelationType": "Default Component Of"
      },
      {
        "ProductReference": "tomcat-webapps-9.0.43-5.1",
        "RelatesToProductReference": "openSUSE Tumbleweed",
        "RelationType": "Default Component Of"
      }
    ]
  },
  "References": [
    {
      "URL": "https://www.suse.com/support/security/rating/",
      "Description": "SUSE Security Ratings"
    },
    {
      "URL": "https://www.suse.com/security/cve/CVE-2022-23181/",
      "Description": "SUSE CVE CVE-2022-23181 page"
    }
  ],
  "Vulnerabilities": [
    {
      "CVE": "CVE-2022-23181",
      "Description": "The fix for bug CVE-2020-9484 introduced a time of check, time of use vulnerability into Apache Tomcat 10.1.0-M1 to 10.1.0-M8, 10.0.0-M5 to 10.0.14, 9.0.35 to 9.0.56 and 8.5.55 to 8.5.73 that allowed a local attacker to perform actions with the privileges of the user that the Tomcat process is using. This issue is only exploitable when Tomcat is configured to persist sessions using the FileStore.",
      "Threats": [
        {
          "Type": "Impact",
          "Severity": "moderate"
        }
      ],
      "References": [
        {
          "URL": "https://www.suse.com/security/cve/CVE-2022-23181.html",
          "Description": "CVE-2022-23181"
        },
        {
          "URL": "https://bugzilla.suse.com/1195255",
          "Description": "SUSE Bug 1195255"
        },
        {
          "URL": "https://bugzilla.suse.com/1196395",
          "Description": "SUSE Bug 1196395"
        },
        {
          "URL": "https://bugzilla.suse.com/1200696",
          "Description": "SUSE Bug 1200696"
        }
      ],
      "ProductStatuses": [
        {
          "Type": "Fixed",
          "ProductID": [
            "openSUSE Tumbleweed:tomcat-9.0.43-5.1",
            "openSUSE Tumbleweed:tomcat-admin-webapps-9.0.43-5.1",
            "openSUSE Tumbleweed:tomcat-docs-webapp-9.0.43-5.1",
            "openSUSE Tumbleweed:tomcat-el-3_0-api-9.0.43-5.1",
            "openSUSE Tumbleweed:tomcat-embed-9.0.43-5.1",
            "openSUSE Tumbleweed:tomcat-javadoc-9.0.43-5.1",
            "openSUSE Tumbleweed:tomcat-jsp-2_3-api-9.0.43-5.1",
            "openSUSE Tumbleweed:tomcat-jsvc-9.0.43-5.1",
            "openSUSE Tumbleweed:tomcat-lib-9.0.43-5.1",
            "openSUSE Tumbleweed:tomcat-servlet-4_0-api-9.0.43-5.1",
            "openSUSE Tumbleweed:tomcat-webapps-9.0.43-5.1"
          ]
        }
      ],
      "CVSSScoreSets": {}
    }
  ]
}