{
  "Title": "libQt5Pdf5-5.15.12-1.1 on GA media",
  "Tracking": {
    "ID": "openSUSE-SU-2024:12590-1",
    "Status": "Final",
    "Version": "1",
    "InitialReleaseDate": "2024-06-20T21:44:22Z",
    "CurrentReleaseDate": "2024-06-20T21:44:22Z",
    "RevisionHistory": [
      {
        "Number": "1",
        "Date": "2024-06-20T21:44:22Z",
        "Description": "current"
      }
    ]
  },
  "Notes": [
    {
      "Text": "libQt5Pdf5-5.15.12-1.1 on GA media",
      "Title": "Topic",
      "Type": "Summary"
    },
    {
      "Text": "These are all security issues fixed in the libQt5Pdf5-5.15.12-1.1 package on the GA media of openSUSE Tumbleweed.",
      "Title": "Details",
      "Type": "General"
    },
    {
      "Text": "The CVRF data is provided by SUSE under the Creative Commons License 4.0 with Attribution (CC-BY-4.0).",
      "Title": "Terms of Use",
      "Type": "Legal Disclaimer"
    },
    {
      "Text": "openSUSE-Tumbleweed-2024-12590",
      "Title": "Patchnames",
      "Type": "Details"
    }
  ],
  "ProductTree": {
    "Relationships": [
      {
        "ProductReference": "libQt5Pdf5-5.15.12-1.1",
        "RelatesToProductReference": "openSUSE Tumbleweed",
        "RelationType": "Default Component Of"
      },
      {
        "ProductReference": "libQt5PdfWidgets5-5.15.12-1.1",
        "RelatesToProductReference": "openSUSE Tumbleweed",
        "RelationType": "Default Component Of"
      },
      {
        "ProductReference": "libqt5-qtpdf-devel-5.15.12-1.1",
        "RelatesToProductReference": "openSUSE Tumbleweed",
        "RelationType": "Default Component Of"
      },
      {
        "ProductReference": "libqt5-qtpdf-examples-5.15.12-1.1",
        "RelatesToProductReference": "openSUSE Tumbleweed",
        "RelationType": "Default Component Of"
      },
      {
        "ProductReference": "libqt5-qtpdf-imports-5.15.12-1.1",
        "RelatesToProductReference": "openSUSE Tumbleweed",
        "RelationType": "Default Component Of"
      },
      {
        "ProductReference": "libqt5-qtpdf-private-headers-devel-5.15.12-1.1",
        "RelatesToProductReference": "openSUSE Tumbleweed",
        "RelationType": "Default Component Of"
      },
      {
        "ProductReference": "libqt5-qtwebengine-5.15.12-1.1",
        "RelatesToProductReference": "openSUSE Tumbleweed",
        "RelationType": "Default Component Of"
      },
      {
        "ProductReference": "libqt5-qtwebengine-devel-5.15.12-1.1",
        "RelatesToProductReference": "openSUSE Tumbleweed",
        "RelationType": "Default Component Of"
      },
      {
        "ProductReference": "libqt5-qtwebengine-examples-5.15.12-1.1",
        "RelatesToProductReference": "openSUSE Tumbleweed",
        "RelationType": "Default Component Of"
      },
      {
        "ProductReference": "libqt5-qtwebengine-private-headers-devel-5.15.12-1.1",
        "RelatesToProductReference": "openSUSE Tumbleweed",
        "RelationType": "Default Component Of"
      }
    ]
  },
  "References": [
    {
      "URL": "https://www.suse.com/support/security/rating/",
      "Description": "SUSE Security Ratings"
    },
    {
      "URL": "https://www.suse.com/security/cve/CVE-2022-3038/",
      "Description": "SUSE CVE CVE-2022-3038 page"
    },
    {
      "URL": "https://www.suse.com/security/cve/CVE-2022-3040/",
      "Description": "SUSE CVE CVE-2022-3040 page"
    },
    {
      "URL": "https://www.suse.com/security/cve/CVE-2022-3041/",
      "Description": "SUSE CVE CVE-2022-3041 page"
    },
    {
      "URL": "https://www.suse.com/security/cve/CVE-2022-3046/",
      "Description": "SUSE CVE CVE-2022-3046 page"
    },
    {
      "URL": "https://www.suse.com/security/cve/CVE-2022-3075/",
      "Description": "SUSE CVE CVE-2022-3075 page"
    },
    {
      "URL": "https://www.suse.com/security/cve/CVE-2022-3196/",
      "Description": "SUSE CVE CVE-2022-3196 page"
    },
    {
      "URL": "https://www.suse.com/security/cve/CVE-2022-3197/",
      "Description": "SUSE CVE CVE-2022-3197 page"
    },
    {
      "URL": "https://www.suse.com/security/cve/CVE-2022-3198/",
      "Description": "SUSE CVE CVE-2022-3198 page"
    },
    {
      "URL": "https://www.suse.com/security/cve/CVE-2022-3199/",
      "Description": "SUSE CVE CVE-2022-3199 page"
    },
    {
      "URL": "https://www.suse.com/security/cve/CVE-2022-3200/",
      "Description": "SUSE CVE CVE-2022-3200 page"
    },
    {
      "URL": "https://www.suse.com/security/cve/CVE-2022-3201/",
      "Description": "SUSE CVE CVE-2022-3201 page"
    },
    {
      "URL": "https://www.suse.com/security/cve/CVE-2022-3304/",
      "Description": "SUSE CVE CVE-2022-3304 page"
    },
    {
      "URL": "https://www.suse.com/security/cve/CVE-2022-3370/",
      "Description": "SUSE CVE CVE-2022-3370 page"
    },
    {
      "URL": "https://www.suse.com/security/cve/CVE-2022-3373/",
      "Description": "SUSE CVE CVE-2022-3373 page"
    },
    {
      "URL": "https://www.suse.com/security/cve/CVE-2022-3445/",
      "Description": "SUSE CVE CVE-2022-3445 page"
    },
    {
      "URL": "https://www.suse.com/security/cve/CVE-2022-3446/",
      "Description": "SUSE CVE CVE-2022-3446 page"
    },
    {
      "URL": "https://www.suse.com/security/cve/CVE-2022-3885/",
      "Description": "SUSE CVE CVE-2022-3885 page"
    },
    {
      "URL": "https://www.suse.com/security/cve/CVE-2022-3887/",
      "Description": "SUSE CVE CVE-2022-3887 page"
    },
    {
      "URL": "https://www.suse.com/security/cve/CVE-2022-3889/",
      "Description": "SUSE CVE CVE-2022-3889 page"
    },
    {
      "URL": "https://www.suse.com/security/cve/CVE-2022-3890/",
      "Description": "SUSE CVE CVE-2022-3890 page"
    },
    {
      "URL": "https://www.suse.com/security/cve/CVE-2022-4174/",
      "Description": "SUSE CVE CVE-2022-4174 page"
    },
    {
      "URL": "https://www.suse.com/security/cve/CVE-2022-4180/",
      "Description": "SUSE CVE CVE-2022-4180 page"
    },
    {
      "URL": "https://www.suse.com/security/cve/CVE-2022-4181/",
      "Description": "SUSE CVE CVE-2022-4181 page"
    },
    {
      "URL": "https://www.suse.com/security/cve/CVE-2022-4262/",
      "Description": "SUSE CVE CVE-2022-4262 page"
    }
  ],
  "Vulnerabilities": [
    {
      "CVE": "CVE-2022-3038",
      "Description": "Use after free in Network Service in Google Chrome prior to 105.0.5195.52 allowed a remote attacker to potentially exploit heap corruption via a crafted HTML page.",
      "Threats": [
        {
          "Type": "Impact",
          "Severity": "important"
        }
      ],
      "References": [
        {
          "URL": "https://www.suse.com/security/cve/CVE-2022-3038.html",
          "Description": "CVE-2022-3038"
        },
        {
          "URL": "https://bugzilla.suse.com/1202964",
          "Description": "SUSE Bug 1202964"
        }
      ],
      "ProductStatuses": [
        {
          "Type": "Fixed",
          "ProductID": [
            "openSUSE Tumbleweed:libQt5Pdf5-5.15.12-1.1",
            "openSUSE Tumbleweed:libQt5PdfWidgets5-5.15.12-1.1",
            "openSUSE Tumbleweed:libqt5-qtpdf-devel-5.15.12-1.1",
            "openSUSE Tumbleweed:libqt5-qtpdf-examples-5.15.12-1.1",
            "openSUSE Tumbleweed:libqt5-qtpdf-imports-5.15.12-1.1",
            "openSUSE Tumbleweed:libqt5-qtpdf-private-headers-devel-5.15.12-1.1",
            "openSUSE Tumbleweed:libqt5-qtwebengine-5.15.12-1.1",
            "openSUSE Tumbleweed:libqt5-qtwebengine-devel-5.15.12-1.1",
            "openSUSE Tumbleweed:libqt5-qtwebengine-examples-5.15.12-1.1",
            "openSUSE Tumbleweed:libqt5-qtwebengine-private-headers-devel-5.15.12-1.1"
          ]
        }
      ],
      "CVSSScoreSets": {}
    },
    {
      "CVE": "CVE-2022-3040",
      "Description": "Use after free in Layout in Google Chrome prior to 105.0.5195.52 allowed a remote attacker to potentially exploit heap corruption via a crafted HTML page.",
      "Threats": [
        {
          "Type": "Impact",
          "Severity": "important"
        }
      ],
      "References": [
        {
          "URL": "https://www.suse.com/security/cve/CVE-2022-3040.html",
          "Description": "CVE-2022-3040"
        },
        {
          "URL": "https://bugzilla.suse.com/1202964",
          "Description": "SUSE Bug 1202964"
        }
      ],
      "ProductStatuses": [
        {
          "Type": "Fixed",
          "ProductID": [
            "openSUSE Tumbleweed:libQt5Pdf5-5.15.12-1.1",
            "openSUSE Tumbleweed:libQt5PdfWidgets5-5.15.12-1.1",
            "openSUSE Tumbleweed:libqt5-qtpdf-devel-5.15.12-1.1",
            "openSUSE Tumbleweed:libqt5-qtpdf-examples-5.15.12-1.1",
            "openSUSE Tumbleweed:libqt5-qtpdf-imports-5.15.12-1.1",
            "openSUSE Tumbleweed:libqt5-qtpdf-private-headers-devel-5.15.12-1.1",
            "openSUSE Tumbleweed:libqt5-qtwebengine-5.15.12-1.1",
            "openSUSE Tumbleweed:libqt5-qtwebengine-devel-5.15.12-1.1",
            "openSUSE Tumbleweed:libqt5-qtwebengine-examples-5.15.12-1.1",
            "openSUSE Tumbleweed:libqt5-qtwebengine-private-headers-devel-5.15.12-1.1"
          ]
        }
      ],
      "CVSSScoreSets": {}
    },
    {
      "CVE": "CVE-2022-3041",
      "Description": "Use after free in WebSQL in Google Chrome prior to 105.0.5195.52 allowed a remote attacker to potentially exploit heap corruption via a crafted HTML page.",
      "Threats": [
        {
          "Type": "Impact",
          "Severity": "important"
        }
      ],
      "References": [
        {
          "URL": "https://www.suse.com/security/cve/CVE-2022-3041.html",
          "Description": "CVE-2022-3041"
        },
        {
          "URL": "https://bugzilla.suse.com/1202964",
          "Description": "SUSE Bug 1202964"
        }
      ],
      "ProductStatuses": [
        {
          "Type": "Fixed",
          "ProductID": [
            "openSUSE Tumbleweed:libQt5Pdf5-5.15.12-1.1",
            "openSUSE Tumbleweed:libQt5PdfWidgets5-5.15.12-1.1",
            "openSUSE Tumbleweed:libqt5-qtpdf-devel-5.15.12-1.1",
            "openSUSE Tumbleweed:libqt5-qtpdf-examples-5.15.12-1.1",
            "openSUSE Tumbleweed:libqt5-qtpdf-imports-5.15.12-1.1",
            "openSUSE Tumbleweed:libqt5-qtpdf-private-headers-devel-5.15.12-1.1",
            "openSUSE Tumbleweed:libqt5-qtwebengine-5.15.12-1.1",
            "openSUSE Tumbleweed:libqt5-qtwebengine-devel-5.15.12-1.1",
            "openSUSE Tumbleweed:libqt5-qtwebengine-examples-5.15.12-1.1",
            "openSUSE Tumbleweed:libqt5-qtwebengine-private-headers-devel-5.15.12-1.1"
          ]
        }
      ],
      "CVSSScoreSets": {}
    },
    {
      "CVE": "CVE-2022-3046",
      "Description": "Use after free in Browser Tag in Google Chrome prior to 105.0.5195.52 allowed an attacker who convinced a user to install a malicious extension to potentially exploit heap corruption via a crafted HTML page.",
      "Threats": [
        {
          "Type": "Impact",
          "Severity": "important"
        }
      ],
      "References": [
        {
          "URL": "https://www.suse.com/security/cve/CVE-2022-3046.html",
          "Description": "CVE-2022-3046"
        },
        {
          "URL": "https://bugzilla.suse.com/1202964",
          "Description": "SUSE Bug 1202964"
        }
      ],
      "ProductStatuses": [
        {
          "Type": "Fixed",
          "ProductID": [
            "openSUSE Tumbleweed:libQt5Pdf5-5.15.12-1.1",
            "openSUSE Tumbleweed:libQt5PdfWidgets5-5.15.12-1.1",
            "openSUSE Tumbleweed:libqt5-qtpdf-devel-5.15.12-1.1",
            "openSUSE Tumbleweed:libqt5-qtpdf-examples-5.15.12-1.1",
            "openSUSE Tumbleweed:libqt5-qtpdf-imports-5.15.12-1.1",
            "openSUSE Tumbleweed:libqt5-qtpdf-private-headers-devel-5.15.12-1.1",
            "openSUSE Tumbleweed:libqt5-qtwebengine-5.15.12-1.1",
            "openSUSE Tumbleweed:libqt5-qtwebengine-devel-5.15.12-1.1",
            "openSUSE Tumbleweed:libqt5-qtwebengine-examples-5.15.12-1.1",
            "openSUSE Tumbleweed:libqt5-qtwebengine-private-headers-devel-5.15.12-1.1"
          ]
        }
      ],
      "CVSSScoreSets": {}
    },
    {
      "CVE": "CVE-2022-3075",
      "Description": "Insufficient data validation in Mojo in Google Chrome prior to 105.0.5195.102 allowed a remote attacker who had compromised the renderer process to potentially perform a sandbox escape via a crafted HTML page.",
      "Threats": [
        {
          "Type": "Impact",
          "Severity": "critical"
        }
      ],
      "References": [
        {
          "URL": "https://www.suse.com/security/cve/CVE-2022-3075.html",
          "Description": "CVE-2022-3075"
        },
        {
          "URL": "https://bugzilla.suse.com/1203102",
          "Description": "SUSE Bug 1203102"
        }
      ],
      "ProductStatuses": [
        {
          "Type": "Fixed",
          "ProductID": [
            "openSUSE Tumbleweed:libQt5Pdf5-5.15.12-1.1",
            "openSUSE Tumbleweed:libQt5PdfWidgets5-5.15.12-1.1",
            "openSUSE Tumbleweed:libqt5-qtpdf-devel-5.15.12-1.1",
            "openSUSE Tumbleweed:libqt5-qtpdf-examples-5.15.12-1.1",
            "openSUSE Tumbleweed:libqt5-qtpdf-imports-5.15.12-1.1",
            "openSUSE Tumbleweed:libqt5-qtpdf-private-headers-devel-5.15.12-1.1",
            "openSUSE Tumbleweed:libqt5-qtwebengine-5.15.12-1.1",
            "openSUSE Tumbleweed:libqt5-qtwebengine-devel-5.15.12-1.1",
            "openSUSE Tumbleweed:libqt5-qtwebengine-examples-5.15.12-1.1",
            "openSUSE Tumbleweed:libqt5-qtwebengine-private-headers-devel-5.15.12-1.1"
          ]
        }
      ],
      "CVSSScoreSets": {}
    },
    {
      "CVE": "CVE-2022-3196",
      "Description": "Use after free in PDF in Google Chrome prior to 105.0.5195.125 allowed a remote attacker to potentially exploit heap corruption via a crafted PDF file. (Chromium security severity: High)",
      "Threats": [
        {
          "Type": "Impact",
          "Severity": "important"
        }
      ],
      "References": [
        {
          "URL": "https://www.suse.com/security/cve/CVE-2022-3196.html",
          "Description": "CVE-2022-3196"
        },
        {
          "URL": "https://bugzilla.suse.com/1203419",
          "Description": "SUSE Bug 1203419"
        }
      ],
      "ProductStatuses": [
        {
          "Type": "Fixed",
          "ProductID": [
            "openSUSE Tumbleweed:libQt5Pdf5-5.15.12-1.1",
            "openSUSE Tumbleweed:libQt5PdfWidgets5-5.15.12-1.1",
            "openSUSE Tumbleweed:libqt5-qtpdf-devel-5.15.12-1.1",
            "openSUSE Tumbleweed:libqt5-qtpdf-examples-5.15.12-1.1",
            "openSUSE Tumbleweed:libqt5-qtpdf-imports-5.15.12-1.1",
            "openSUSE Tumbleweed:libqt5-qtpdf-private-headers-devel-5.15.12-1.1",
            "openSUSE Tumbleweed:libqt5-qtwebengine-5.15.12-1.1",
            "openSUSE Tumbleweed:libqt5-qtwebengine-devel-5.15.12-1.1",
            "openSUSE Tumbleweed:libqt5-qtwebengine-examples-5.15.12-1.1",
            "openSUSE Tumbleweed:libqt5-qtwebengine-private-headers-devel-5.15.12-1.1"
          ]
        }
      ],
      "CVSSScoreSets": {}
    },
    {
      "CVE": "CVE-2022-3197",
      "Description": "Use after free in PDF in Google Chrome prior to 105.0.5195.125 allowed a remote attacker to potentially exploit heap corruption via a crafted PDF file. (Chromium security severity: High)",
      "Threats": [
        {
          "Type": "Impact",
          "Severity": "important"
        }
      ],
      "References": [
        {
          "URL": "https://www.suse.com/security/cve/CVE-2022-3197.html",
          "Description": "CVE-2022-3197"
        },
        {
          "URL": "https://bugzilla.suse.com/1203419",
          "Description": "SUSE Bug 1203419"
        }
      ],
      "ProductStatuses": [
        {
          "Type": "Fixed",
          "ProductID": [
            "openSUSE Tumbleweed:libQt5Pdf5-5.15.12-1.1",
            "openSUSE Tumbleweed:libQt5PdfWidgets5-5.15.12-1.1",
            "openSUSE Tumbleweed:libqt5-qtpdf-devel-5.15.12-1.1",
            "openSUSE Tumbleweed:libqt5-qtpdf-examples-5.15.12-1.1",
            "openSUSE Tumbleweed:libqt5-qtpdf-imports-5.15.12-1.1",
            "openSUSE Tumbleweed:libqt5-qtpdf-private-headers-devel-5.15.12-1.1",
            "openSUSE Tumbleweed:libqt5-qtwebengine-5.15.12-1.1",
            "openSUSE Tumbleweed:libqt5-qtwebengine-devel-5.15.12-1.1",
            "openSUSE Tumbleweed:libqt5-qtwebengine-examples-5.15.12-1.1",
            "openSUSE Tumbleweed:libqt5-qtwebengine-private-headers-devel-5.15.12-1.1"
          ]
        }
      ],
      "CVSSScoreSets": {}
    },
    {
      "CVE": "CVE-2022-3198",
      "Description": "Use after free in PDF in Google Chrome prior to 105.0.5195.125 allowed a remote attacker to potentially exploit heap corruption via a crafted PDF file. (Chromium security severity: High)",
      "Threats": [
        {
          "Type": "Impact",
          "Severity": "important"
        }
      ],
      "References": [
        {
          "URL": "https://www.suse.com/security/cve/CVE-2022-3198.html",
          "Description": "CVE-2022-3198"
        },
        {
          "URL": "https://bugzilla.suse.com/1203419",
          "Description": "SUSE Bug 1203419"
        }
      ],
      "ProductStatuses": [
        {
          "Type": "Fixed",
          "ProductID": [
            "openSUSE Tumbleweed:libQt5Pdf5-5.15.12-1.1",
            "openSUSE Tumbleweed:libQt5PdfWidgets5-5.15.12-1.1",
            "openSUSE Tumbleweed:libqt5-qtpdf-devel-5.15.12-1.1",
            "openSUSE Tumbleweed:libqt5-qtpdf-examples-5.15.12-1.1",
            "openSUSE Tumbleweed:libqt5-qtpdf-imports-5.15.12-1.1",
            "openSUSE Tumbleweed:libqt5-qtpdf-private-headers-devel-5.15.12-1.1",
            "openSUSE Tumbleweed:libqt5-qtwebengine-5.15.12-1.1",
            "openSUSE Tumbleweed:libqt5-qtwebengine-devel-5.15.12-1.1",
            "openSUSE Tumbleweed:libqt5-qtwebengine-examples-5.15.12-1.1",
            "openSUSE Tumbleweed:libqt5-qtwebengine-private-headers-devel-5.15.12-1.1"
          ]
        }
      ],
      "CVSSScoreSets": {}
    },
    {
      "CVE": "CVE-2022-3199",
      "Description": "Use after free in Frames in Google Chrome prior to 105.0.5195.125 allowed a remote attacker to potentially exploit heap corruption via a crafted HTML page. (Chromium security severity: High)",
      "Threats": [
        {
          "Type": "Impact",
          "Severity": "important"
        }
      ],
      "References": [
        {
          "URL": "https://www.suse.com/security/cve/CVE-2022-3199.html",
          "Description": "CVE-2022-3199"
        },
        {
          "URL": "https://bugzilla.suse.com/1203419",
          "Description": "SUSE Bug 1203419"
        }
      ],
      "ProductStatuses": [
        {
          "Type": "Fixed",
          "ProductID": [
            "openSUSE Tumbleweed:libQt5Pdf5-5.15.12-1.1",
            "openSUSE Tumbleweed:libQt5PdfWidgets5-5.15.12-1.1",
            "openSUSE Tumbleweed:libqt5-qtpdf-devel-5.15.12-1.1",
            "openSUSE Tumbleweed:libqt5-qtpdf-examples-5.15.12-1.1",
            "openSUSE Tumbleweed:libqt5-qtpdf-imports-5.15.12-1.1",
            "openSUSE Tumbleweed:libqt5-qtpdf-private-headers-devel-5.15.12-1.1",
            "openSUSE Tumbleweed:libqt5-qtwebengine-5.15.12-1.1",
            "openSUSE Tumbleweed:libqt5-qtwebengine-devel-5.15.12-1.1",
            "openSUSE Tumbleweed:libqt5-qtwebengine-examples-5.15.12-1.1",
            "openSUSE Tumbleweed:libqt5-qtwebengine-private-headers-devel-5.15.12-1.1"
          ]
        }
      ],
      "CVSSScoreSets": {}
    },
    {
      "CVE": "CVE-2022-3200",
      "Description": "Heap buffer overflow in Internals in Google Chrome prior to 105.0.5195.125 allowed a remote attacker to potentially exploit heap corruption via a crafted HTML page. (Chromium security severity: High)",
      "Threats": [
        {
          "Type": "Impact",
          "Severity": "important"
        }
      ],
      "References": [
        {
          "URL": "https://www.suse.com/security/cve/CVE-2022-3200.html",
          "Description": "CVE-2022-3200"
        },
        {
          "URL": "https://bugzilla.suse.com/1203419",
          "Description": "SUSE Bug 1203419"
        }
      ],
      "ProductStatuses": [
        {
          "Type": "Fixed",
          "ProductID": [
            "openSUSE Tumbleweed:libQt5Pdf5-5.15.12-1.1",
            "openSUSE Tumbleweed:libQt5PdfWidgets5-5.15.12-1.1",
            "openSUSE Tumbleweed:libqt5-qtpdf-devel-5.15.12-1.1",
            "openSUSE Tumbleweed:libqt5-qtpdf-examples-5.15.12-1.1",
            "openSUSE Tumbleweed:libqt5-qtpdf-imports-5.15.12-1.1",
            "openSUSE Tumbleweed:libqt5-qtpdf-private-headers-devel-5.15.12-1.1",
            "openSUSE Tumbleweed:libqt5-qtwebengine-5.15.12-1.1",
            "openSUSE Tumbleweed:libqt5-qtwebengine-devel-5.15.12-1.1",
            "openSUSE Tumbleweed:libqt5-qtwebengine-examples-5.15.12-1.1",
            "openSUSE Tumbleweed:libqt5-qtwebengine-private-headers-devel-5.15.12-1.1"
          ]
        }
      ],
      "CVSSScoreSets": {}
    },
    {
      "CVE": "CVE-2022-3201",
      "Description": "Insufficient validation of untrusted input in DevTools in Google Chrome on Chrome OS prior to 105.0.5195.125 allowed an attacker who convinced a user to install a malicious extension to bypass navigation restrictions via a crafted HTML page. (Chromium security severity: High)",
      "Threats": [
        {
          "Type": "Impact",
          "Severity": "important"
        }
      ],
      "References": [
        {
          "URL": "https://www.suse.com/security/cve/CVE-2022-3201.html",
          "Description": "CVE-2022-3201"
        },
        {
          "URL": "https://bugzilla.suse.com/1203419",
          "Description": "SUSE Bug 1203419"
        },
        {
          "URL": "https://bugzilla.suse.com/1203808",
          "Description": "SUSE Bug 1203808"
        }
      ],
      "ProductStatuses": [
        {
          "Type": "Fixed",
          "ProductID": [
            "openSUSE Tumbleweed:libQt5Pdf5-5.15.12-1.1",
            "openSUSE Tumbleweed:libQt5PdfWidgets5-5.15.12-1.1",
            "openSUSE Tumbleweed:libqt5-qtpdf-devel-5.15.12-1.1",
            "openSUSE Tumbleweed:libqt5-qtpdf-examples-5.15.12-1.1",
            "openSUSE Tumbleweed:libqt5-qtpdf-imports-5.15.12-1.1",
            "openSUSE Tumbleweed:libqt5-qtpdf-private-headers-devel-5.15.12-1.1",
            "openSUSE Tumbleweed:libqt5-qtwebengine-5.15.12-1.1",
            "openSUSE Tumbleweed:libqt5-qtwebengine-devel-5.15.12-1.1",
            "openSUSE Tumbleweed:libqt5-qtwebengine-examples-5.15.12-1.1",
            "openSUSE Tumbleweed:libqt5-qtwebengine-private-headers-devel-5.15.12-1.1"
          ]
        }
      ],
      "CVSSScoreSets": {}
    },
    {
      "CVE": "CVE-2022-3304",
      "Description": "Use after free in CSS in Google Chrome prior to 106.0.5249.62 allowed a remote attacker to potentially exploit heap corruption via a crafted HTML page. (Chromium security severity: High)",
      "Threats": [
        {
          "Type": "Impact",
          "Severity": "important"
        }
      ],
      "References": [
        {
          "URL": "https://www.suse.com/security/cve/CVE-2022-3304.html",
          "Description": "CVE-2022-3304"
        },
        {
          "URL": "https://bugzilla.suse.com/1203808",
          "Description": "SUSE Bug 1203808"
        }
      ],
      "ProductStatuses": [
        {
          "Type": "Fixed",
          "ProductID": [
            "openSUSE Tumbleweed:libQt5Pdf5-5.15.12-1.1",
            "openSUSE Tumbleweed:libQt5PdfWidgets5-5.15.12-1.1",
            "openSUSE Tumbleweed:libqt5-qtpdf-devel-5.15.12-1.1",
            "openSUSE Tumbleweed:libqt5-qtpdf-examples-5.15.12-1.1",
            "openSUSE Tumbleweed:libqt5-qtpdf-imports-5.15.12-1.1",
            "openSUSE Tumbleweed:libqt5-qtpdf-private-headers-devel-5.15.12-1.1",
            "openSUSE Tumbleweed:libqt5-qtwebengine-5.15.12-1.1",
            "openSUSE Tumbleweed:libqt5-qtwebengine-devel-5.15.12-1.1",
            "openSUSE Tumbleweed:libqt5-qtwebengine-examples-5.15.12-1.1",
            "openSUSE Tumbleweed:libqt5-qtwebengine-private-headers-devel-5.15.12-1.1"
          ]
        }
      ],
      "CVSSScoreSets": {}
    },
    {
      "CVE": "CVE-2022-3370",
      "Description": "Use after free in Custom Elements in Google Chrome prior to 106.0.5249.91 allowed a remote attacker to potentially exploit heap corruption via a crafted HTML page. (Chromium security severity: High)",
      "Threats": [
        {
          "Type": "Impact",
          "Severity": "important"
        }
      ],
      "References": [
        {
          "URL": "https://www.suse.com/security/cve/CVE-2022-3370.html",
          "Description": "CVE-2022-3370"
        }
      ],
      "ProductStatuses": [
        {
          "Type": "Fixed",
          "ProductID": [
            "openSUSE Tumbleweed:libQt5Pdf5-5.15.12-1.1",
            "openSUSE Tumbleweed:libQt5PdfWidgets5-5.15.12-1.1",
            "openSUSE Tumbleweed:libqt5-qtpdf-devel-5.15.12-1.1",
            "openSUSE Tumbleweed:libqt5-qtpdf-examples-5.15.12-1.1",
            "openSUSE Tumbleweed:libqt5-qtpdf-imports-5.15.12-1.1",
            "openSUSE Tumbleweed:libqt5-qtpdf-private-headers-devel-5.15.12-1.1",
            "openSUSE Tumbleweed:libqt5-qtwebengine-5.15.12-1.1",
            "openSUSE Tumbleweed:libqt5-qtwebengine-devel-5.15.12-1.1",
            "openSUSE Tumbleweed:libqt5-qtwebengine-examples-5.15.12-1.1",
            "openSUSE Tumbleweed:libqt5-qtwebengine-private-headers-devel-5.15.12-1.1"
          ]
        }
      ],
      "CVSSScoreSets": {}
    },
    {
      "CVE": "CVE-2022-3373",
      "Description": "Out of bounds write in V8 in Google Chrome prior to 106.0.5249.91 allowed a remote attacker to perform an out of bounds memory write via a crafted HTML page. (Chromium security severity: High)",
      "Threats": [
        {
          "Type": "Impact",
          "Severity": "important"
        }
      ],
      "References": [
        {
          "URL": "https://www.suse.com/security/cve/CVE-2022-3373.html",
          "Description": "CVE-2022-3373"
        }
      ],
      "ProductStatuses": [
        {
          "Type": "Fixed",
          "ProductID": [
            "openSUSE Tumbleweed:libQt5Pdf5-5.15.12-1.1",
            "openSUSE Tumbleweed:libQt5PdfWidgets5-5.15.12-1.1",
            "openSUSE Tumbleweed:libqt5-qtpdf-devel-5.15.12-1.1",
            "openSUSE Tumbleweed:libqt5-qtpdf-examples-5.15.12-1.1",
            "openSUSE Tumbleweed:libqt5-qtpdf-imports-5.15.12-1.1",
            "openSUSE Tumbleweed:libqt5-qtpdf-private-headers-devel-5.15.12-1.1",
            "openSUSE Tumbleweed:libqt5-qtwebengine-5.15.12-1.1",
            "openSUSE Tumbleweed:libqt5-qtwebengine-devel-5.15.12-1.1",
            "openSUSE Tumbleweed:libqt5-qtwebengine-examples-5.15.12-1.1",
            "openSUSE Tumbleweed:libqt5-qtwebengine-private-headers-devel-5.15.12-1.1"
          ]
        }
      ],
      "CVSSScoreSets": {}
    },
    {
      "CVE": "CVE-2022-3445",
      "Description": "Use after free in Skia in Google Chrome prior to 106.0.5249.119 allowed a remote attacker to potentially exploit heap corruption via a crafted HTML page. (Chromium security severity: High)",
      "Threats": [
        {
          "Type": "Impact",
          "Severity": "important"
        }
      ],
      "References": [
        {
          "URL": "https://www.suse.com/security/cve/CVE-2022-3445.html",
          "Description": "CVE-2022-3445"
        },
        {
          "URL": "https://bugzilla.suse.com/1204223",
          "Description": "SUSE Bug 1204223"
        }
      ],
      "ProductStatuses": [
        {
          "Type": "Fixed",
          "ProductID": [
            "openSUSE Tumbleweed:libQt5Pdf5-5.15.12-1.1",
            "openSUSE Tumbleweed:libQt5PdfWidgets5-5.15.12-1.1",
            "openSUSE Tumbleweed:libqt5-qtpdf-devel-5.15.12-1.1",
            "openSUSE Tumbleweed:libqt5-qtpdf-examples-5.15.12-1.1",
            "openSUSE Tumbleweed:libqt5-qtpdf-imports-5.15.12-1.1",
            "openSUSE Tumbleweed:libqt5-qtpdf-private-headers-devel-5.15.12-1.1",
            "openSUSE Tumbleweed:libqt5-qtwebengine-5.15.12-1.1",
            "openSUSE Tumbleweed:libqt5-qtwebengine-devel-5.15.12-1.1",
            "openSUSE Tumbleweed:libqt5-qtwebengine-examples-5.15.12-1.1",
            "openSUSE Tumbleweed:libqt5-qtwebengine-private-headers-devel-5.15.12-1.1"
          ]
        }
      ],
      "CVSSScoreSets": {}
    },
    {
      "CVE": "CVE-2022-3446",
      "Description": "Heap buffer overflow in WebSQL in Google Chrome prior to 106.0.5249.119 allowed a remote attacker to potentially exploit heap corruption via a crafted HTML page. (Chromium security severity: High)",
      "Threats": [
        {
          "Type": "Impact",
          "Severity": "important"
        }
      ],
      "References": [
        {
          "URL": "https://www.suse.com/security/cve/CVE-2022-3446.html",
          "Description": "CVE-2022-3446"
        },
        {
          "URL": "https://bugzilla.suse.com/1204223",
          "Description": "SUSE Bug 1204223"
        }
      ],
      "ProductStatuses": [
        {
          "Type": "Fixed",
          "ProductID": [
            "openSUSE Tumbleweed:libQt5Pdf5-5.15.12-1.1",
            "openSUSE Tumbleweed:libQt5PdfWidgets5-5.15.12-1.1",
            "openSUSE Tumbleweed:libqt5-qtpdf-devel-5.15.12-1.1",
            "openSUSE Tumbleweed:libqt5-qtpdf-examples-5.15.12-1.1",
            "openSUSE Tumbleweed:libqt5-qtpdf-imports-5.15.12-1.1",
            "openSUSE Tumbleweed:libqt5-qtpdf-private-headers-devel-5.15.12-1.1",
            "openSUSE Tumbleweed:libqt5-qtwebengine-5.15.12-1.1",
            "openSUSE Tumbleweed:libqt5-qtwebengine-devel-5.15.12-1.1",
            "openSUSE Tumbleweed:libqt5-qtwebengine-examples-5.15.12-1.1",
            "openSUSE Tumbleweed:libqt5-qtwebengine-private-headers-devel-5.15.12-1.1"
          ]
        }
      ],
      "CVSSScoreSets": {}
    },
    {
      "CVE": "CVE-2022-3885",
      "Description": "Use after free in V8 in Google Chrome prior to 107.0.5304.106 allowed a remote attacker to potentially exploit heap corruption via a crafted HTML page. (Chromium security severity: High)",
      "Threats": [
        {
          "Type": "Impact",
          "Severity": "critical"
        }
      ],
      "References": [
        {
          "URL": "https://www.suse.com/security/cve/CVE-2022-3885.html",
          "Description": "CVE-2022-3885"
        },
        {
          "URL": "https://bugzilla.suse.com/1205221",
          "Description": "SUSE Bug 1205221"
        }
      ],
      "ProductStatuses": [
        {
          "Type": "Fixed",
          "ProductID": [
            "openSUSE Tumbleweed:libQt5Pdf5-5.15.12-1.1",
            "openSUSE Tumbleweed:libQt5PdfWidgets5-5.15.12-1.1",
            "openSUSE Tumbleweed:libqt5-qtpdf-devel-5.15.12-1.1",
            "openSUSE Tumbleweed:libqt5-qtpdf-examples-5.15.12-1.1",
            "openSUSE Tumbleweed:libqt5-qtpdf-imports-5.15.12-1.1",
            "openSUSE Tumbleweed:libqt5-qtpdf-private-headers-devel-5.15.12-1.1",
            "openSUSE Tumbleweed:libqt5-qtwebengine-5.15.12-1.1",
            "openSUSE Tumbleweed:libqt5-qtwebengine-devel-5.15.12-1.1",
            "openSUSE Tumbleweed:libqt5-qtwebengine-examples-5.15.12-1.1",
            "openSUSE Tumbleweed:libqt5-qtwebengine-private-headers-devel-5.15.12-1.1"
          ]
        }
      ],
      "CVSSScoreSets": {}
    },
    {
      "CVE": "CVE-2022-3887",
      "Description": "Use after free in Web Workers in Google Chrome prior to 107.0.5304.106 allowed a remote attacker to potentially exploit heap corruption via a crafted HTML page. (Chromium security severity: High)",
      "Threats": [
        {
          "Type": "Impact",
          "Severity": "critical"
        }
      ],
      "References": [
        {
          "URL": "https://www.suse.com/security/cve/CVE-2022-3887.html",
          "Description": "CVE-2022-3887"
        },
        {
          "URL": "https://bugzilla.suse.com/1205221",
          "Description": "SUSE Bug 1205221"
        }
      ],
      "ProductStatuses": [
        {
          "Type": "Fixed",
          "ProductID": [
            "openSUSE Tumbleweed:libQt5Pdf5-5.15.12-1.1",
            "openSUSE Tumbleweed:libQt5PdfWidgets5-5.15.12-1.1",
            "openSUSE Tumbleweed:libqt5-qtpdf-devel-5.15.12-1.1",
            "openSUSE Tumbleweed:libqt5-qtpdf-examples-5.15.12-1.1",
            "openSUSE Tumbleweed:libqt5-qtpdf-imports-5.15.12-1.1",
            "openSUSE Tumbleweed:libqt5-qtpdf-private-headers-devel-5.15.12-1.1",
            "openSUSE Tumbleweed:libqt5-qtwebengine-5.15.12-1.1",
            "openSUSE Tumbleweed:libqt5-qtwebengine-devel-5.15.12-1.1",
            "openSUSE Tumbleweed:libqt5-qtwebengine-examples-5.15.12-1.1",
            "openSUSE Tumbleweed:libqt5-qtwebengine-private-headers-devel-5.15.12-1.1"
          ]
        }
      ],
      "CVSSScoreSets": {}
    },
    {
      "CVE": "CVE-2022-3889",
      "Description": "Type confusion in V8 in Google Chrome prior to 107.0.5304.106 allowed a remote attacker to potentially exploit heap corruption via a crafted HTML page. (Chromium security severity: High)",
      "Threats": [
        {
          "Type": "Impact",
          "Severity": "critical"
        }
      ],
      "References": [
        {
          "URL": "https://www.suse.com/security/cve/CVE-2022-3889.html",
          "Description": "CVE-2022-3889"
        },
        {
          "URL": "https://bugzilla.suse.com/1205221",
          "Description": "SUSE Bug 1205221"
        }
      ],
      "ProductStatuses": [
        {
          "Type": "Fixed",
          "ProductID": [
            "openSUSE Tumbleweed:libQt5Pdf5-5.15.12-1.1",
            "openSUSE Tumbleweed:libQt5PdfWidgets5-5.15.12-1.1",
            "openSUSE Tumbleweed:libqt5-qtpdf-devel-5.15.12-1.1",
            "openSUSE Tumbleweed:libqt5-qtpdf-examples-5.15.12-1.1",
            "openSUSE Tumbleweed:libqt5-qtpdf-imports-5.15.12-1.1",
            "openSUSE Tumbleweed:libqt5-qtpdf-private-headers-devel-5.15.12-1.1",
            "openSUSE Tumbleweed:libqt5-qtwebengine-5.15.12-1.1",
            "openSUSE Tumbleweed:libqt5-qtwebengine-devel-5.15.12-1.1",
            "openSUSE Tumbleweed:libqt5-qtwebengine-examples-5.15.12-1.1",
            "openSUSE Tumbleweed:libqt5-qtwebengine-private-headers-devel-5.15.12-1.1"
          ]
        }
      ],
      "CVSSScoreSets": {}
    },
    {
      "CVE": "CVE-2022-3890",
      "Description": "Heap buffer overflow in Crashpad in Google Chrome on Android prior to 107.0.5304.106 allowed a remote attacker who had compromised the renderer process to potentially perform a sandbox escape via a crafted HTML page. (Chromium security severity: High)",
      "Threats": [
        {
          "Type": "Impact",
          "Severity": "critical"
        }
      ],
      "References": [
        {
          "URL": "https://www.suse.com/security/cve/CVE-2022-3890.html",
          "Description": "CVE-2022-3890"
        },
        {
          "URL": "https://bugzilla.suse.com/1205221",
          "Description": "SUSE Bug 1205221"
        }
      ],
      "ProductStatuses": [
        {
          "Type": "Fixed",
          "ProductID": [
            "openSUSE Tumbleweed:libQt5Pdf5-5.15.12-1.1",
            "openSUSE Tumbleweed:libQt5PdfWidgets5-5.15.12-1.1",
            "openSUSE Tumbleweed:libqt5-qtpdf-devel-5.15.12-1.1",
            "openSUSE Tumbleweed:libqt5-qtpdf-examples-5.15.12-1.1",
            "openSUSE Tumbleweed:libqt5-qtpdf-imports-5.15.12-1.1",
            "openSUSE Tumbleweed:libqt5-qtpdf-private-headers-devel-5.15.12-1.1",
            "openSUSE Tumbleweed:libqt5-qtwebengine-5.15.12-1.1",
            "openSUSE Tumbleweed:libqt5-qtwebengine-devel-5.15.12-1.1",
            "openSUSE Tumbleweed:libqt5-qtwebengine-examples-5.15.12-1.1",
            "openSUSE Tumbleweed:libqt5-qtwebengine-private-headers-devel-5.15.12-1.1"
          ]
        }
      ],
      "CVSSScoreSets": {}
    },
    {
      "CVE": "CVE-2022-4174",
      "Description": "Type confusion in V8 in Google Chrome prior to 108.0.5359.71 allowed a remote attacker to potentially exploit heap corruption via a crafted HTML page. (Chromium security severity: High)",
      "Threats": [
        {
          "Type": "Impact",
          "Severity": "important"
        }
      ],
      "References": [
        {
          "URL": "https://www.suse.com/security/cve/CVE-2022-4174.html",
          "Description": "CVE-2022-4174"
        },
        {
          "URL": "https://bugzilla.suse.com/1205871",
          "Description": "SUSE Bug 1205871"
        }
      ],
      "ProductStatuses": [
        {
          "Type": "Fixed",
          "ProductID": [
            "openSUSE Tumbleweed:libQt5Pdf5-5.15.12-1.1",
            "openSUSE Tumbleweed:libQt5PdfWidgets5-5.15.12-1.1",
            "openSUSE Tumbleweed:libqt5-qtpdf-devel-5.15.12-1.1",
            "openSUSE Tumbleweed:libqt5-qtpdf-examples-5.15.12-1.1",
            "openSUSE Tumbleweed:libqt5-qtpdf-imports-5.15.12-1.1",
            "openSUSE Tumbleweed:libqt5-qtpdf-private-headers-devel-5.15.12-1.1",
            "openSUSE Tumbleweed:libqt5-qtwebengine-5.15.12-1.1",
            "openSUSE Tumbleweed:libqt5-qtwebengine-devel-5.15.12-1.1",
            "openSUSE Tumbleweed:libqt5-qtwebengine-examples-5.15.12-1.1",
            "openSUSE Tumbleweed:libqt5-qtwebengine-private-headers-devel-5.15.12-1.1"
          ]
        }
      ],
      "CVSSScoreSets": {}
    },
    {
      "CVE": "CVE-2022-4180",
      "Description": "Use after free in Mojo in Google Chrome prior to 108.0.5359.71 allowed an attacker who convinced a user to install a malicious extension to potentially exploit heap corruption via a crafted Chrome Extension. (Chromium security severity: High)",
      "Threats": [
        {
          "Type": "Impact",
          "Severity": "important"
        }
      ],
      "References": [
        {
          "URL": "https://www.suse.com/security/cve/CVE-2022-4180.html",
          "Description": "CVE-2022-4180"
        },
        {
          "URL": "https://bugzilla.suse.com/1205871",
          "Description": "SUSE Bug 1205871"
        }
      ],
      "ProductStatuses": [
        {
          "Type": "Fixed",
          "ProductID": [
            "openSUSE Tumbleweed:libQt5Pdf5-5.15.12-1.1",
            "openSUSE Tumbleweed:libQt5PdfWidgets5-5.15.12-1.1",
            "openSUSE Tumbleweed:libqt5-qtpdf-devel-5.15.12-1.1",
            "openSUSE Tumbleweed:libqt5-qtpdf-examples-5.15.12-1.1",
            "openSUSE Tumbleweed:libqt5-qtpdf-imports-5.15.12-1.1",
            "openSUSE Tumbleweed:libqt5-qtpdf-private-headers-devel-5.15.12-1.1",
            "openSUSE Tumbleweed:libqt5-qtwebengine-5.15.12-1.1",
            "openSUSE Tumbleweed:libqt5-qtwebengine-devel-5.15.12-1.1",
            "openSUSE Tumbleweed:libqt5-qtwebengine-examples-5.15.12-1.1",
            "openSUSE Tumbleweed:libqt5-qtwebengine-private-headers-devel-5.15.12-1.1"
          ]
        }
      ],
      "CVSSScoreSets": {}
    },
    {
      "CVE": "CVE-2022-4181",
      "Description": "Use after free in Forms in Google Chrome prior to 108.0.5359.71 allowed a remote attacker to potentially exploit heap corruption via a crafted HTML page. (Chromium security severity: High)",
      "Threats": [
        {
          "Type": "Impact",
          "Severity": "important"
        }
      ],
      "References": [
        {
          "URL": "https://www.suse.com/security/cve/CVE-2022-4181.html",
          "Description": "CVE-2022-4181"
        },
        {
          "URL": "https://bugzilla.suse.com/1205871",
          "Description": "SUSE Bug 1205871"
        }
      ],
      "ProductStatuses": [
        {
          "Type": "Fixed",
          "ProductID": [
            "openSUSE Tumbleweed:libQt5Pdf5-5.15.12-1.1",
            "openSUSE Tumbleweed:libQt5PdfWidgets5-5.15.12-1.1",
            "openSUSE Tumbleweed:libqt5-qtpdf-devel-5.15.12-1.1",
            "openSUSE Tumbleweed:libqt5-qtpdf-examples-5.15.12-1.1",
            "openSUSE Tumbleweed:libqt5-qtpdf-imports-5.15.12-1.1",
            "openSUSE Tumbleweed:libqt5-qtpdf-private-headers-devel-5.15.12-1.1",
            "openSUSE Tumbleweed:libqt5-qtwebengine-5.15.12-1.1",
            "openSUSE Tumbleweed:libqt5-qtwebengine-devel-5.15.12-1.1",
            "openSUSE Tumbleweed:libqt5-qtwebengine-examples-5.15.12-1.1",
            "openSUSE Tumbleweed:libqt5-qtwebengine-private-headers-devel-5.15.12-1.1"
          ]
        }
      ],
      "CVSSScoreSets": {}
    },
    {
      "CVE": "CVE-2022-4262",
      "Description": "Type confusion in V8 in Google Chrome prior to 108.0.5359.94 allowed a remote attacker to potentially exploit heap corruption via a crafted HTML page. (Chromium security severity: High)",
      "Threats": [
        {
          "Type": "Impact",
          "Severity": "important"
        }
      ],
      "References": [
        {
          "URL": "https://www.suse.com/security/cve/CVE-2022-4262.html",
          "Description": "CVE-2022-4262"
        },
        {
          "URL": "https://bugzilla.suse.com/1205999",
          "Description": "SUSE Bug 1205999"
        }
      ],
      "ProductStatuses": [
        {
          "Type": "Fixed",
          "ProductID": [
            "openSUSE Tumbleweed:libQt5Pdf5-5.15.12-1.1",
            "openSUSE Tumbleweed:libQt5PdfWidgets5-5.15.12-1.1",
            "openSUSE Tumbleweed:libqt5-qtpdf-devel-5.15.12-1.1",
            "openSUSE Tumbleweed:libqt5-qtpdf-examples-5.15.12-1.1",
            "openSUSE Tumbleweed:libqt5-qtpdf-imports-5.15.12-1.1",
            "openSUSE Tumbleweed:libqt5-qtpdf-private-headers-devel-5.15.12-1.1",
            "openSUSE Tumbleweed:libqt5-qtwebengine-5.15.12-1.1",
            "openSUSE Tumbleweed:libqt5-qtwebengine-devel-5.15.12-1.1",
            "openSUSE Tumbleweed:libqt5-qtwebengine-examples-5.15.12-1.1",
            "openSUSE Tumbleweed:libqt5-qtwebengine-private-headers-devel-5.15.12-1.1"
          ]
        }
      ],
      "CVSSScoreSets": {}
    }
  ]
}