{
  "Title": "buildah-1.35.4-1.1 on GA media",
  "Tracking": {
    "ID": "openSUSE-SU-2024:13952-1",
    "Status": "Final",
    "Version": "1",
    "InitialReleaseDate": "2024-06-20T21:44:22Z",
    "CurrentReleaseDate": "2024-06-20T21:44:22Z",
    "RevisionHistory": [
      {
        "Number": "1",
        "Date": "2024-06-20T21:44:22Z",
        "Description": "current"
      }
    ]
  },
  "Notes": [
    {
      "Text": "buildah-1.35.4-1.1 on GA media",
      "Title": "Topic",
      "Type": "Summary"
    },
    {
      "Text": "These are all security issues fixed in the buildah-1.35.4-1.1 package on the GA media of openSUSE Tumbleweed.",
      "Title": "Details",
      "Type": "General"
    },
    {
      "Text": "The CVRF data is provided by SUSE under the Creative Commons License 4.0 with Attribution (CC-BY-4.0).",
      "Title": "Terms of Use",
      "Type": "Legal Disclaimer"
    },
    {
      "Text": "openSUSE-Tumbleweed-2024-13952",
      "Title": "Patchnames",
      "Type": "Details"
    }
  ],
  "ProductTree": {
    "Relationships": [
      {
        "ProductReference": "buildah-1.35.4-1.1",
        "RelatesToProductReference": "openSUSE Tumbleweed",
        "RelationType": "Default Component Of"
      }
    ]
  },
  "References": [
    {
      "URL": "https://www.suse.com/support/security/rating/",
      "Description": "SUSE Security Ratings"
    },
    {
      "URL": "https://www.suse.com/security/cve/CVE-2024-28180/",
      "Description": "SUSE CVE CVE-2024-28180 page"
    },
    {
      "URL": "https://www.suse.com/security/cve/CVE-2024-3727/",
      "Description": "SUSE CVE CVE-2024-3727 page"
    }
  ],
  "Vulnerabilities": [
    {
      "CVE": "CVE-2024-28180",
      "Description": "Package jose aims to provide an implementation of the Javascript Object Signing and Encryption set of standards. An attacker could send a JWE containing compressed data that used large amounts of memory and CPU when decompressed by Decrypt or DecryptMulti. Those functions now return an error if the decompressed data would exceed 250kB or 10x the compressed size (whichever is larger). This vulnerability has been patched in versions 4.0.1, 3.0.3 and 2.6.3.\n",
      "Threats": [
        {
          "Type": "Impact",
          "Severity": "moderate"
        }
      ],
      "References": [
        {
          "URL": "https://www.suse.com/security/cve/CVE-2024-28180.html",
          "Description": "CVE-2024-28180"
        }
      ],
      "ProductStatuses": [
        {
          "Type": "Fixed",
          "ProductID": [
            "openSUSE Tumbleweed:buildah-1.35.4-1.1"
          ]
        }
      ],
      "CVSSScoreSets": {}
    },
    {
      "CVE": "CVE-2024-3727",
      "Description": "A flaw was found in the github.com/containers/image library. This flaw allows attackers to trigger unexpected authenticated registry accesses on behalf of a victim user, causing resource exhaustion, local path traversal, and other attacks.",
      "Threats": [
        {
          "Type": "Impact",
          "Severity": "important"
        }
      ],
      "References": [
        {
          "URL": "https://www.suse.com/security/cve/CVE-2024-3727.html",
          "Description": "CVE-2024-3727"
        },
        {
          "URL": "https://bugzilla.suse.com/1224112",
          "Description": "SUSE Bug 1224112"
        }
      ],
      "ProductStatuses": [
        {
          "Type": "Fixed",
          "ProductID": [
            "openSUSE Tumbleweed:buildah-1.35.4-1.1"
          ]
        }
      ],
      "CVSSScoreSets": {}
    }
  ]
}