{
  "Title": "ungoogled-chromium-119.0.6045.123-1.1 on GA media",
  "Tracking": {
    "ID": "openSUSE-SU-2024:13423-1",
    "Status": "Final",
    "Version": "1",
    "InitialReleaseDate": "2024-06-20T21:44:22Z",
    "CurrentReleaseDate": "2024-06-20T21:44:22Z",
    "RevisionHistory": [
      {
        "Number": "1",
        "Date": "2024-06-20T21:44:22Z",
        "Description": "current"
      }
    ]
  },
  "Notes": [
    {
      "Text": "ungoogled-chromium-119.0.6045.123-1.1 on GA media",
      "Title": "Topic",
      "Type": "Summary"
    },
    {
      "Text": "These are all security issues fixed in the ungoogled-chromium-119.0.6045.123-1.1 package on the GA media of openSUSE Tumbleweed.",
      "Title": "Details",
      "Type": "General"
    },
    {
      "Text": "The CVRF data is provided by SUSE under the Creative Commons License 4.0 with Attribution (CC-BY-4.0).",
      "Title": "Terms of Use",
      "Type": "Legal Disclaimer"
    },
    {
      "Text": "openSUSE-Tumbleweed-2024-13423",
      "Title": "Patchnames",
      "Type": "Details"
    }
  ],
  "ProductTree": {
    "Relationships": [
      {
        "ProductReference": "ungoogled-chromium-119.0.6045.123-1.1",
        "RelatesToProductReference": "openSUSE Tumbleweed",
        "RelationType": "Default Component Of"
      },
      {
        "ProductReference": "ungoogled-chromium-chromedriver-119.0.6045.123-1.1",
        "RelatesToProductReference": "openSUSE Tumbleweed",
        "RelationType": "Default Component Of"
      }
    ]
  },
  "References": [
    {
      "URL": "https://www.suse.com/support/security/rating/",
      "Description": "SUSE Security Ratings"
    },
    {
      "URL": "https://www.suse.com/security/cve/CVE-2023-5480/",
      "Description": "SUSE CVE CVE-2023-5480 page"
    },
    {
      "URL": "https://www.suse.com/security/cve/CVE-2023-5482/",
      "Description": "SUSE CVE CVE-2023-5482 page"
    },
    {
      "URL": "https://www.suse.com/security/cve/CVE-2023-5849/",
      "Description": "SUSE CVE CVE-2023-5849 page"
    },
    {
      "URL": "https://www.suse.com/security/cve/CVE-2023-5850/",
      "Description": "SUSE CVE CVE-2023-5850 page"
    },
    {
      "URL": "https://www.suse.com/security/cve/CVE-2023-5851/",
      "Description": "SUSE CVE CVE-2023-5851 page"
    },
    {
      "URL": "https://www.suse.com/security/cve/CVE-2023-5852/",
      "Description": "SUSE CVE CVE-2023-5852 page"
    },
    {
      "URL": "https://www.suse.com/security/cve/CVE-2023-5853/",
      "Description": "SUSE CVE CVE-2023-5853 page"
    },
    {
      "URL": "https://www.suse.com/security/cve/CVE-2023-5854/",
      "Description": "SUSE CVE CVE-2023-5854 page"
    },
    {
      "URL": "https://www.suse.com/security/cve/CVE-2023-5855/",
      "Description": "SUSE CVE CVE-2023-5855 page"
    },
    {
      "URL": "https://www.suse.com/security/cve/CVE-2023-5856/",
      "Description": "SUSE CVE CVE-2023-5856 page"
    },
    {
      "URL": "https://www.suse.com/security/cve/CVE-2023-5857/",
      "Description": "SUSE CVE CVE-2023-5857 page"
    },
    {
      "URL": "https://www.suse.com/security/cve/CVE-2023-5858/",
      "Description": "SUSE CVE CVE-2023-5858 page"
    },
    {
      "URL": "https://www.suse.com/security/cve/CVE-2023-5859/",
      "Description": "SUSE CVE CVE-2023-5859 page"
    },
    {
      "URL": "https://www.suse.com/security/cve/CVE-2023-5996/",
      "Description": "SUSE CVE CVE-2023-5996 page"
    }
  ],
  "Vulnerabilities": [
    {
      "CVE": "CVE-2023-5480",
      "Description": "Inappropriate implementation in Payments in Google Chrome prior to 119.0.6045.105 allowed a remote attacker to bypass XSS preventions via a malicious file. (Chromium security severity: High)",
      "Threats": [
        {
          "Type": "Impact",
          "Severity": "important"
        }
      ],
      "References": [
        {
          "URL": "https://www.suse.com/security/cve/CVE-2023-5480.html",
          "Description": "CVE-2023-5480"
        },
        {
          "URL": "https://bugzilla.suse.com/1216783",
          "Description": "SUSE Bug 1216783"
        }
      ],
      "ProductStatuses": [
        {
          "Type": "Fixed",
          "ProductID": [
            "openSUSE Tumbleweed:ungoogled-chromium-119.0.6045.123-1.1",
            "openSUSE Tumbleweed:ungoogled-chromium-chromedriver-119.0.6045.123-1.1"
          ]
        }
      ],
      "CVSSScoreSets": {}
    },
    {
      "CVE": "CVE-2023-5482",
      "Description": "Insufficient data validation in USB in Google Chrome prior to 119.0.6045.105 allowed a remote attacker to perform out of bounds memory access via a crafted HTML page. (Chromium security severity: High)",
      "Threats": [
        {
          "Type": "Impact",
          "Severity": "important"
        }
      ],
      "References": [
        {
          "URL": "https://www.suse.com/security/cve/CVE-2023-5482.html",
          "Description": "CVE-2023-5482"
        },
        {
          "URL": "https://bugzilla.suse.com/1216783",
          "Description": "SUSE Bug 1216783"
        }
      ],
      "ProductStatuses": [
        {
          "Type": "Fixed",
          "ProductID": [
            "openSUSE Tumbleweed:ungoogled-chromium-119.0.6045.123-1.1",
            "openSUSE Tumbleweed:ungoogled-chromium-chromedriver-119.0.6045.123-1.1"
          ]
        }
      ],
      "CVSSScoreSets": {}
    },
    {
      "CVE": "CVE-2023-5849",
      "Description": "Integer overflow in USB in Google Chrome prior to 119.0.6045.105 allowed a remote attacker to potentially exploit heap corruption via a crafted HTML page. (Chromium security severity: High)",
      "Threats": [
        {
          "Type": "Impact",
          "Severity": "important"
        }
      ],
      "References": [
        {
          "URL": "https://www.suse.com/security/cve/CVE-2023-5849.html",
          "Description": "CVE-2023-5849"
        },
        {
          "URL": "https://bugzilla.suse.com/1216783",
          "Description": "SUSE Bug 1216783"
        }
      ],
      "ProductStatuses": [
        {
          "Type": "Fixed",
          "ProductID": [
            "openSUSE Tumbleweed:ungoogled-chromium-119.0.6045.123-1.1",
            "openSUSE Tumbleweed:ungoogled-chromium-chromedriver-119.0.6045.123-1.1"
          ]
        }
      ],
      "CVSSScoreSets": {}
    },
    {
      "CVE": "CVE-2023-5850",
      "Description": "Incorrect security UI in Downloads in Google Chrome prior to 119.0.6045.105 allowed a remote attacker to perform domain spoofing via a crafted domain name. (Chromium security severity: Medium)",
      "Threats": [
        {
          "Type": "Impact",
          "Severity": "important"
        }
      ],
      "References": [
        {
          "URL": "https://www.suse.com/security/cve/CVE-2023-5850.html",
          "Description": "CVE-2023-5850"
        },
        {
          "URL": "https://bugzilla.suse.com/1216783",
          "Description": "SUSE Bug 1216783"
        }
      ],
      "ProductStatuses": [
        {
          "Type": "Fixed",
          "ProductID": [
            "openSUSE Tumbleweed:ungoogled-chromium-119.0.6045.123-1.1",
            "openSUSE Tumbleweed:ungoogled-chromium-chromedriver-119.0.6045.123-1.1"
          ]
        }
      ],
      "CVSSScoreSets": {}
    },
    {
      "CVE": "CVE-2023-5851",
      "Description": "Inappropriate implementation in Downloads in Google Chrome prior to 119.0.6045.105 allowed a remote attacker to obfuscate security UI via a crafted HTML page. (Chromium security severity: Medium)",
      "Threats": [
        {
          "Type": "Impact",
          "Severity": "important"
        }
      ],
      "References": [
        {
          "URL": "https://www.suse.com/security/cve/CVE-2023-5851.html",
          "Description": "CVE-2023-5851"
        },
        {
          "URL": "https://bugzilla.suse.com/1216783",
          "Description": "SUSE Bug 1216783"
        }
      ],
      "ProductStatuses": [
        {
          "Type": "Fixed",
          "ProductID": [
            "openSUSE Tumbleweed:ungoogled-chromium-119.0.6045.123-1.1",
            "openSUSE Tumbleweed:ungoogled-chromium-chromedriver-119.0.6045.123-1.1"
          ]
        }
      ],
      "CVSSScoreSets": {}
    },
    {
      "CVE": "CVE-2023-5852",
      "Description": "Use after free in Printing in Google Chrome prior to 119.0.6045.105 allowed a remote attacker who convinced a user to engage in specific UI gestures to potentially exploit heap corruption via specific UI gestures. (Chromium security severity: Medium)",
      "Threats": [
        {
          "Type": "Impact",
          "Severity": "important"
        }
      ],
      "References": [
        {
          "URL": "https://www.suse.com/security/cve/CVE-2023-5852.html",
          "Description": "CVE-2023-5852"
        },
        {
          "URL": "https://bugzilla.suse.com/1216783",
          "Description": "SUSE Bug 1216783"
        }
      ],
      "ProductStatuses": [
        {
          "Type": "Fixed",
          "ProductID": [
            "openSUSE Tumbleweed:ungoogled-chromium-119.0.6045.123-1.1",
            "openSUSE Tumbleweed:ungoogled-chromium-chromedriver-119.0.6045.123-1.1"
          ]
        }
      ],
      "CVSSScoreSets": {}
    },
    {
      "CVE": "CVE-2023-5853",
      "Description": "Incorrect security UI in Downloads in Google Chrome prior to 119.0.6045.105 allowed a remote attacker to obfuscate security UI via a crafted HTML page. (Chromium security severity: Medium)",
      "Threats": [
        {
          "Type": "Impact",
          "Severity": "important"
        }
      ],
      "References": [
        {
          "URL": "https://www.suse.com/security/cve/CVE-2023-5853.html",
          "Description": "CVE-2023-5853"
        },
        {
          "URL": "https://bugzilla.suse.com/1216783",
          "Description": "SUSE Bug 1216783"
        }
      ],
      "ProductStatuses": [
        {
          "Type": "Fixed",
          "ProductID": [
            "openSUSE Tumbleweed:ungoogled-chromium-119.0.6045.123-1.1",
            "openSUSE Tumbleweed:ungoogled-chromium-chromedriver-119.0.6045.123-1.1"
          ]
        }
      ],
      "CVSSScoreSets": {}
    },
    {
      "CVE": "CVE-2023-5854",
      "Description": "Use after free in Profiles in Google Chrome prior to 119.0.6045.105 allowed a remote attacker who convinced a user to engage in specific UI gestures to potentially exploit heap corruption via specific UI gestures. (Chromium security severity: Medium)",
      "Threats": [
        {
          "Type": "Impact",
          "Severity": "important"
        }
      ],
      "References": [
        {
          "URL": "https://www.suse.com/security/cve/CVE-2023-5854.html",
          "Description": "CVE-2023-5854"
        },
        {
          "URL": "https://bugzilla.suse.com/1216783",
          "Description": "SUSE Bug 1216783"
        }
      ],
      "ProductStatuses": [
        {
          "Type": "Fixed",
          "ProductID": [
            "openSUSE Tumbleweed:ungoogled-chromium-119.0.6045.123-1.1",
            "openSUSE Tumbleweed:ungoogled-chromium-chromedriver-119.0.6045.123-1.1"
          ]
        }
      ],
      "CVSSScoreSets": {}
    },
    {
      "CVE": "CVE-2023-5855",
      "Description": "Use after free in Reading Mode in Google Chrome prior to 119.0.6045.105 allowed a remote attacker who convinced a user to engage in specific UI gestures to potentially exploit heap corruption via specific UI gestures. (Chromium security severity: Medium)",
      "Threats": [
        {
          "Type": "Impact",
          "Severity": "important"
        }
      ],
      "References": [
        {
          "URL": "https://www.suse.com/security/cve/CVE-2023-5855.html",
          "Description": "CVE-2023-5855"
        },
        {
          "URL": "https://bugzilla.suse.com/1216783",
          "Description": "SUSE Bug 1216783"
        }
      ],
      "ProductStatuses": [
        {
          "Type": "Fixed",
          "ProductID": [
            "openSUSE Tumbleweed:ungoogled-chromium-119.0.6045.123-1.1",
            "openSUSE Tumbleweed:ungoogled-chromium-chromedriver-119.0.6045.123-1.1"
          ]
        }
      ],
      "CVSSScoreSets": {}
    },
    {
      "CVE": "CVE-2023-5856",
      "Description": "Use after free in Side Panel in Google Chrome prior to 119.0.6045.105 allowed a remote attacker who convinced a user to engage in specific UI gestures to potentially exploit heap corruption via a crafted HTML page. (Chromium security severity: Medium)",
      "Threats": [
        {
          "Type": "Impact",
          "Severity": "important"
        }
      ],
      "References": [
        {
          "URL": "https://www.suse.com/security/cve/CVE-2023-5856.html",
          "Description": "CVE-2023-5856"
        },
        {
          "URL": "https://bugzilla.suse.com/1216783",
          "Description": "SUSE Bug 1216783"
        }
      ],
      "ProductStatuses": [
        {
          "Type": "Fixed",
          "ProductID": [
            "openSUSE Tumbleweed:ungoogled-chromium-119.0.6045.123-1.1",
            "openSUSE Tumbleweed:ungoogled-chromium-chromedriver-119.0.6045.123-1.1"
          ]
        }
      ],
      "CVSSScoreSets": {}
    },
    {
      "CVE": "CVE-2023-5857",
      "Description": "Inappropriate implementation in Downloads in Google Chrome prior to 119.0.6045.105 allowed a remote attacker to potentially execute arbitrary code via a malicious file. (Chromium security severity: Medium)",
      "Threats": [
        {
          "Type": "Impact",
          "Severity": "important"
        }
      ],
      "References": [
        {
          "URL": "https://www.suse.com/security/cve/CVE-2023-5857.html",
          "Description": "CVE-2023-5857"
        },
        {
          "URL": "https://bugzilla.suse.com/1216783",
          "Description": "SUSE Bug 1216783"
        }
      ],
      "ProductStatuses": [
        {
          "Type": "Fixed",
          "ProductID": [
            "openSUSE Tumbleweed:ungoogled-chromium-119.0.6045.123-1.1",
            "openSUSE Tumbleweed:ungoogled-chromium-chromedriver-119.0.6045.123-1.1"
          ]
        }
      ],
      "CVSSScoreSets": {}
    },
    {
      "CVE": "CVE-2023-5858",
      "Description": "Inappropriate implementation in WebApp Provider in Google Chrome prior to 119.0.6045.105 allowed a remote attacker to obfuscate security UI via a crafted HTML page. (Chromium security severity: Low)",
      "Threats": [
        {
          "Type": "Impact",
          "Severity": "important"
        }
      ],
      "References": [
        {
          "URL": "https://www.suse.com/security/cve/CVE-2023-5858.html",
          "Description": "CVE-2023-5858"
        },
        {
          "URL": "https://bugzilla.suse.com/1216783",
          "Description": "SUSE Bug 1216783"
        }
      ],
      "ProductStatuses": [
        {
          "Type": "Fixed",
          "ProductID": [
            "openSUSE Tumbleweed:ungoogled-chromium-119.0.6045.123-1.1",
            "openSUSE Tumbleweed:ungoogled-chromium-chromedriver-119.0.6045.123-1.1"
          ]
        }
      ],
      "CVSSScoreSets": {}
    },
    {
      "CVE": "CVE-2023-5859",
      "Description": "Incorrect security UI in Picture In Picture in Google Chrome prior to 119.0.6045.105 allowed a remote attacker to perform domain spoofing via a crafted local HTML page. (Chromium security severity: Low)",
      "Threats": [
        {
          "Type": "Impact",
          "Severity": "important"
        }
      ],
      "References": [
        {
          "URL": "https://www.suse.com/security/cve/CVE-2023-5859.html",
          "Description": "CVE-2023-5859"
        },
        {
          "URL": "https://bugzilla.suse.com/1216783",
          "Description": "SUSE Bug 1216783"
        }
      ],
      "ProductStatuses": [
        {
          "Type": "Fixed",
          "ProductID": [
            "openSUSE Tumbleweed:ungoogled-chromium-119.0.6045.123-1.1",
            "openSUSE Tumbleweed:ungoogled-chromium-chromedriver-119.0.6045.123-1.1"
          ]
        }
      ],
      "CVSSScoreSets": {}
    },
    {
      "CVE": "CVE-2023-5996",
      "Description": "Use after free in WebAudio in Google Chrome prior to 119.0.6045.123 allowed a remote attacker to potentially exploit heap corruption via a crafted HTML page. (Chromium security severity: High)",
      "Threats": [
        {
          "Type": "Impact",
          "Severity": "important"
        }
      ],
      "References": [
        {
          "URL": "https://www.suse.com/security/cve/CVE-2023-5996.html",
          "Description": "CVE-2023-5996"
        },
        {
          "URL": "https://bugzilla.suse.com/1216978",
          "Description": "SUSE Bug 1216978"
        }
      ],
      "ProductStatuses": [
        {
          "Type": "Fixed",
          "ProductID": [
            "openSUSE Tumbleweed:ungoogled-chromium-119.0.6045.123-1.1",
            "openSUSE Tumbleweed:ungoogled-chromium-chromedriver-119.0.6045.123-1.1"
          ]
        }
      ],
      "CVSSScoreSets": {}
    }
  ]
}