{
  "Title": "freeciv-2.6.5-1.2 on GA media",
  "Tracking": {
    "ID": "openSUSE-SU-2024:10765-1",
    "Status": "Final",
    "Version": "1",
    "InitialReleaseDate": "2024-06-22T21:44:56Z",
    "CurrentReleaseDate": "2024-06-22T21:44:56Z",
    "RevisionHistory": [
      {
        "Number": "1",
        "Date": "2024-06-22T21:44:56Z",
        "Description": "current"
      }
    ]
  },
  "Notes": [
    {
      "Text": "freeciv-2.6.5-1.2 on GA media",
      "Title": "Topic",
      "Type": "Summary"
    },
    {
      "Text": "These are all security issues fixed in the freeciv-2.6.5-1.2 package on the GA media of openSUSE Tumbleweed.",
      "Title": "Details",
      "Type": "General"
    },
    {
      "Text": "The CVRF data is provided by SUSE under the Creative Commons License 4.0 with Attribution (CC-BY-4.0).",
      "Title": "Terms of Use",
      "Type": "Legal Disclaimer"
    },
    {
      "Text": "openSUSE-Tumbleweed-2024-10765",
      "Title": "Patchnames",
      "Type": "Details"
    }
  ],
  "ProductTree": {
    "Relationships": [
      {
        "ProductReference": "freeciv-2.6.5-1.2",
        "RelatesToProductReference": "openSUSE Tumbleweed",
        "RelationType": "Default Component Of"
      },
      {
        "ProductReference": "freeciv-gtk3-2.6.5-1.2",
        "RelatesToProductReference": "openSUSE Tumbleweed",
        "RelationType": "Default Component Of"
      },
      {
        "ProductReference": "freeciv-lang-2.6.5-1.2",
        "RelatesToProductReference": "openSUSE Tumbleweed",
        "RelationType": "Default Component Of"
      },
      {
        "ProductReference": "freeciv-qt-2.6.5-1.2",
        "RelatesToProductReference": "openSUSE Tumbleweed",
        "RelationType": "Default Component Of"
      }
    ]
  },
  "References": [
    {
      "URL": "https://www.suse.com/support/security/rating/",
      "Description": "SUSE Security Ratings"
    },
    {
      "URL": "https://www.suse.com/security/cve/CVE-2006-0047/",
      "Description": "SUSE CVE CVE-2006-0047 page"
    }
  ],
  "Vulnerabilities": [
    {
      "CVE": "CVE-2006-0047",
      "Description": "packets.c in Freeciv 2.0 before 2.0.8 allows remote attackers to cause a denial of service (server crash) via crafted packets with negative compressed size values.",
      "Threats": [
        {
          "Type": "Impact",
          "Severity": "moderate"
        }
      ],
      "References": [
        {
          "URL": "https://www.suse.com/security/cve/CVE-2006-0047.html",
          "Description": "CVE-2006-0047"
        },
        {
          "URL": "https://bugzilla.suse.com/155347",
          "Description": "SUSE Bug 155347"
        }
      ],
      "ProductStatuses": [
        {
          "Type": "Fixed",
          "ProductID": [
            "openSUSE Tumbleweed:freeciv-2.6.5-1.2",
            "openSUSE Tumbleweed:freeciv-gtk3-2.6.5-1.2",
            "openSUSE Tumbleweed:freeciv-lang-2.6.5-1.2",
            "openSUSE Tumbleweed:freeciv-qt-2.6.5-1.2"
          ]
        }
      ],
      "CVSSScoreSets": {}
    }
  ]
}