{
  "Title": "libthunarx-2-0-1.6.10-2.5 on GA media",
  "Tracking": {
    "ID": "openSUSE-SU-2024:10354-1",
    "Status": "Final",
    "Version": "1",
    "InitialReleaseDate": "2024-06-22T21:44:56Z",
    "CurrentReleaseDate": "2024-06-22T21:44:56Z",
    "RevisionHistory": [
      {
        "Number": "1",
        "Date": "2024-06-22T21:44:56Z",
        "Description": "current"
      }
    ]
  },
  "Notes": [
    {
      "Text": "libthunarx-2-0-1.6.10-2.5 on GA media",
      "Title": "Topic",
      "Type": "Summary"
    },
    {
      "Text": "These are all security issues fixed in the libthunarx-2-0-1.6.10-2.5 package on the GA media of openSUSE Tumbleweed.",
      "Title": "Details",
      "Type": "General"
    },
    {
      "Text": "The CVRF data is provided by SUSE under the Creative Commons License 4.0 with Attribution (CC-BY-4.0).",
      "Title": "Terms of Use",
      "Type": "Legal Disclaimer"
    },
    {
      "Text": "openSUSE-Tumbleweed-2024-10354",
      "Title": "Patchnames",
      "Type": "Details"
    }
  ],
  "ProductTree": {
    "Relationships": [
      {
        "ProductReference": "libthunarx-2-0-1.6.10-2.5",
        "RelatesToProductReference": "openSUSE Tumbleweed",
        "RelationType": "Default Component Of"
      },
      {
        "ProductReference": "thunar-1.6.10-2.5",
        "RelatesToProductReference": "openSUSE Tumbleweed",
        "RelationType": "Default Component Of"
      },
      {
        "ProductReference": "thunar-devel-1.6.10-2.5",
        "RelatesToProductReference": "openSUSE Tumbleweed",
        "RelationType": "Default Component Of"
      },
      {
        "ProductReference": "thunar-lang-1.6.10-2.5",
        "RelatesToProductReference": "openSUSE Tumbleweed",
        "RelationType": "Default Component Of"
      }
    ]
  },
  "References": [
    {
      "URL": "https://www.suse.com/support/security/rating/",
      "Description": "SUSE Security Ratings"
    },
    {
      "URL": "https://www.suse.com/security/cve/CVE-2011-1588/",
      "Description": "SUSE CVE CVE-2011-1588 page"
    }
  ],
  "Vulnerabilities": [
    {
      "CVE": "CVE-2011-1588",
      "Description": "Thunar before 1.3.1 could crash when copy and pasting a file name with % format characters due to a format string error.",
      "Threats": [
        {
          "Type": "Impact",
          "Severity": "moderate"
        }
      ],
      "References": [
        {
          "URL": "https://www.suse.com/security/cve/CVE-2011-1588.html",
          "Description": "CVE-2011-1588"
        },
        {
          "URL": "https://bugzilla.suse.com/687874",
          "Description": "SUSE Bug 687874"
        }
      ],
      "ProductStatuses": [
        {
          "Type": "Fixed",
          "ProductID": [
            "openSUSE Tumbleweed:libthunarx-2-0-1.6.10-2.5",
            "openSUSE Tumbleweed:thunar-1.6.10-2.5",
            "openSUSE Tumbleweed:thunar-devel-1.6.10-2.5",
            "openSUSE Tumbleweed:thunar-lang-1.6.10-2.5"
          ]
        }
      ],
      "CVSSScoreSets": {}
    }
  ]
}