{
  "Title": "libredwg-devel-0.12.5-3.1 on GA media",
  "Tracking": {
    "ID": "openSUSE-SU-2024:12276-1",
    "Status": "Final",
    "Version": "1",
    "InitialReleaseDate": "2024-06-20T21:44:22Z",
    "CurrentReleaseDate": "2024-06-20T21:44:22Z",
    "RevisionHistory": [
      {
        "Number": "1",
        "Date": "2024-06-20T21:44:22Z",
        "Description": "current"
      }
    ]
  },
  "Notes": [
    {
      "Text": "libredwg-devel-0.12.5-3.1 on GA media",
      "Title": "Topic",
      "Type": "Summary"
    },
    {
      "Text": "These are all security issues fixed in the libredwg-devel-0.12.5-3.1 package on the GA media of openSUSE Tumbleweed.",
      "Title": "Details",
      "Type": "General"
    },
    {
      "Text": "The CVRF data is provided by SUSE under the Creative Commons License 4.0 with Attribution (CC-BY-4.0).",
      "Title": "Terms of Use",
      "Type": "Legal Disclaimer"
    },
    {
      "Text": "openSUSE-Tumbleweed-2024-12276",
      "Title": "Patchnames",
      "Type": "Details"
    }
  ],
  "ProductTree": {
    "Relationships": [
      {
        "ProductReference": "libredwg-devel-0.12.5-3.1",
        "RelatesToProductReference": "openSUSE Tumbleweed",
        "RelationType": "Default Component Of"
      },
      {
        "ProductReference": "libredwg-tools-0.12.5-3.1",
        "RelatesToProductReference": "openSUSE Tumbleweed",
        "RelationType": "Default Component Of"
      },
      {
        "ProductReference": "libredwg0-0.12.5-3.1",
        "RelatesToProductReference": "openSUSE Tumbleweed",
        "RelationType": "Default Component Of"
      }
    ]
  },
  "References": [
    {
      "URL": "https://www.suse.com/support/security/rating/",
      "Description": "SUSE Security Ratings"
    },
    {
      "URL": "https://www.suse.com/security/cve/CVE-2022-35164/",
      "Description": "SUSE CVE CVE-2022-35164 page"
    }
  ],
  "Vulnerabilities": [
    {
      "CVE": "CVE-2022-35164",
      "Description": "LibreDWG v0.12.4.4608 \u0026 commit f2dea29 was discovered to contain a heap use-after-free via bit_copy_chain.",
      "Threats": [
        {
          "Type": "Impact",
          "Severity": "moderate"
        }
      ],
      "References": [
        {
          "URL": "https://www.suse.com/security/cve/CVE-2022-35164.html",
          "Description": "CVE-2022-35164"
        },
        {
          "URL": "https://bugzilla.suse.com/1202553",
          "Description": "SUSE Bug 1202553"
        }
      ],
      "ProductStatuses": [
        {
          "Type": "Fixed",
          "ProductID": [
            "openSUSE Tumbleweed:libredwg-devel-0.12.5-3.1",
            "openSUSE Tumbleweed:libredwg-tools-0.12.5-3.1",
            "openSUSE Tumbleweed:libredwg0-0.12.5-3.1"
          ]
        }
      ],
      "CVSSScoreSets": {}
    }
  ]
}