{
  "Title": "gmp-devel-32bit-6.2.1-4.1 on GA media",
  "Tracking": {
    "ID": "openSUSE-SU-2024:11636-1",
    "Status": "Final",
    "Version": "1",
    "InitialReleaseDate": "2024-06-22T21:44:56Z",
    "CurrentReleaseDate": "2024-06-22T21:44:56Z",
    "RevisionHistory": [
      {
        "Number": "1",
        "Date": "2024-06-22T21:44:56Z",
        "Description": "current"
      }
    ]
  },
  "Notes": [
    {
      "Text": "gmp-devel-32bit-6.2.1-4.1 on GA media",
      "Title": "Topic",
      "Type": "Summary"
    },
    {
      "Text": "These are all security issues fixed in the gmp-devel-32bit-6.2.1-4.1 package on the GA media of openSUSE Tumbleweed.",
      "Title": "Details",
      "Type": "General"
    },
    {
      "Text": "The CVRF data is provided by SUSE under the Creative Commons License 4.0 with Attribution (CC-BY-4.0).",
      "Title": "Terms of Use",
      "Type": "Legal Disclaimer"
    },
    {
      "Text": "openSUSE-Tumbleweed-2024-11636",
      "Title": "Patchnames",
      "Type": "Details"
    }
  ],
  "ProductTree": {
    "Relationships": [
      {
        "ProductReference": "gmp-devel-6.2.1-4.1",
        "RelatesToProductReference": "openSUSE Tumbleweed",
        "RelationType": "Default Component Of"
      },
      {
        "ProductReference": "gmp-devel-32bit-6.2.1-4.1",
        "RelatesToProductReference": "openSUSE Tumbleweed",
        "RelationType": "Default Component Of"
      },
      {
        "ProductReference": "libgmp10-6.2.1-4.1",
        "RelatesToProductReference": "openSUSE Tumbleweed",
        "RelationType": "Default Component Of"
      },
      {
        "ProductReference": "libgmp10-32bit-6.2.1-4.1",
        "RelatesToProductReference": "openSUSE Tumbleweed",
        "RelationType": "Default Component Of"
      },
      {
        "ProductReference": "libgmpxx4-6.2.1-4.1",
        "RelatesToProductReference": "openSUSE Tumbleweed",
        "RelationType": "Default Component Of"
      },
      {
        "ProductReference": "libgmpxx4-32bit-6.2.1-4.1",
        "RelatesToProductReference": "openSUSE Tumbleweed",
        "RelationType": "Default Component Of"
      }
    ]
  },
  "References": [
    {
      "URL": "https://www.suse.com/support/security/rating/",
      "Description": "SUSE Security Ratings"
    },
    {
      "URL": "https://www.suse.com/security/cve/CVE-2021-43618/",
      "Description": "SUSE CVE CVE-2021-43618 page"
    }
  ],
  "Vulnerabilities": [
    {
      "CVE": "CVE-2021-43618",
      "Description": "GNU Multiple Precision Arithmetic Library (GMP) through 6.2.1 has an mpz/inp_raw.c integer overflow and resultant buffer overflow via crafted input, leading to a segmentation fault on 32-bit platforms.",
      "Threats": [
        {
          "Type": "Impact",
          "Severity": "moderate"
        }
      ],
      "References": [
        {
          "URL": "https://www.suse.com/security/cve/CVE-2021-43618.html",
          "Description": "CVE-2021-43618"
        },
        {
          "URL": "https://bugzilla.suse.com/1192717",
          "Description": "SUSE Bug 1192717"
        }
      ],
      "ProductStatuses": [
        {
          "Type": "Fixed",
          "ProductID": [
            "openSUSE Tumbleweed:gmp-devel-32bit-6.2.1-4.1",
            "openSUSE Tumbleweed:gmp-devel-6.2.1-4.1",
            "openSUSE Tumbleweed:libgmp10-32bit-6.2.1-4.1",
            "openSUSE Tumbleweed:libgmp10-6.2.1-4.1",
            "openSUSE Tumbleweed:libgmpxx4-32bit-6.2.1-4.1",
            "openSUSE Tumbleweed:libgmpxx4-6.2.1-4.1"
          ]
        }
      ],
      "CVSSScoreSets": {}
    }
  ]
}