{
  "Title": "python3-virtualbox-6.1.36-1.1 on GA media",
  "Tracking": {
    "ID": "openSUSE-SU-2024:12211-1",
    "Status": "Final",
    "Version": "1",
    "InitialReleaseDate": "2024-06-20T21:44:22Z",
    "CurrentReleaseDate": "2024-06-20T21:44:22Z",
    "RevisionHistory": [
      {
        "Number": "1",
        "Date": "2024-06-20T21:44:22Z",
        "Description": "current"
      }
    ]
  },
  "Notes": [
    {
      "Text": "python3-virtualbox-6.1.36-1.1 on GA media",
      "Title": "Topic",
      "Type": "Summary"
    },
    {
      "Text": "These are all security issues fixed in the python3-virtualbox-6.1.36-1.1 package on the GA media of openSUSE Tumbleweed.",
      "Title": "Details",
      "Type": "General"
    },
    {
      "Text": "The CVRF data is provided by SUSE under the Creative Commons License 4.0 with Attribution (CC-BY-4.0).",
      "Title": "Terms of Use",
      "Type": "Legal Disclaimer"
    },
    {
      "Text": "openSUSE-Tumbleweed-2024-12211",
      "Title": "Patchnames",
      "Type": "Details"
    }
  ],
  "ProductTree": {
    "Relationships": [
      {
        "ProductReference": "python3-virtualbox-6.1.36-1.1",
        "RelatesToProductReference": "openSUSE Tumbleweed",
        "RelationType": "Default Component Of"
      },
      {
        "ProductReference": "virtualbox-6.1.36-1.1",
        "RelatesToProductReference": "openSUSE Tumbleweed",
        "RelationType": "Default Component Of"
      },
      {
        "ProductReference": "virtualbox-devel-6.1.36-1.1",
        "RelatesToProductReference": "openSUSE Tumbleweed",
        "RelationType": "Default Component Of"
      },
      {
        "ProductReference": "virtualbox-guest-desktop-icons-6.1.36-1.1",
        "RelatesToProductReference": "openSUSE Tumbleweed",
        "RelationType": "Default Component Of"
      },
      {
        "ProductReference": "virtualbox-guest-source-6.1.36-1.1",
        "RelatesToProductReference": "openSUSE Tumbleweed",
        "RelationType": "Default Component Of"
      },
      {
        "ProductReference": "virtualbox-guest-tools-6.1.36-1.1",
        "RelatesToProductReference": "openSUSE Tumbleweed",
        "RelationType": "Default Component Of"
      },
      {
        "ProductReference": "virtualbox-guest-x11-6.1.36-1.1",
        "RelatesToProductReference": "openSUSE Tumbleweed",
        "RelationType": "Default Component Of"
      },
      {
        "ProductReference": "virtualbox-host-source-6.1.36-1.1",
        "RelatesToProductReference": "openSUSE Tumbleweed",
        "RelationType": "Default Component Of"
      },
      {
        "ProductReference": "virtualbox-qt-6.1.36-1.1",
        "RelatesToProductReference": "openSUSE Tumbleweed",
        "RelationType": "Default Component Of"
      },
      {
        "ProductReference": "virtualbox-vnc-6.1.36-1.1",
        "RelatesToProductReference": "openSUSE Tumbleweed",
        "RelationType": "Default Component Of"
      },
      {
        "ProductReference": "virtualbox-websrv-6.1.36-1.1",
        "RelatesToProductReference": "openSUSE Tumbleweed",
        "RelationType": "Default Component Of"
      }
    ]
  },
  "References": [
    {
      "URL": "https://www.suse.com/support/security/rating/",
      "Description": "SUSE Security Ratings"
    },
    {
      "URL": "https://www.suse.com/security/cve/CVE-2022-21571/",
      "Description": "SUSE CVE CVE-2022-21571 page"
    }
  ],
  "Vulnerabilities": [
    {
      "CVE": "CVE-2022-21571",
      "Description": "Vulnerability in the Oracle VM VirtualBox product of Oracle Virtualization (component: Core). The supported version that is affected is Prior to 6.1.36. Easily exploitable vulnerability allows high privileged attacker with logon to the infrastructure where Oracle VM VirtualBox executes to compromise Oracle VM VirtualBox. While the vulnerability is in Oracle VM VirtualBox, attacks may significantly impact additional products (scope change). Successful attacks of this vulnerability can result in takeover of Oracle VM VirtualBox. CVSS 3.1 Base Score 8.2 (Confidentiality, Integrity and Availability impacts). CVSS Vector: (CVSS:3.1/AV:L/AC:L/PR:H/UI:N/S:C/C:H/I:H/A:H).",
      "Threats": [
        {
          "Type": "Impact",
          "Severity": "moderate"
        }
      ],
      "References": [
        {
          "URL": "https://www.suse.com/security/cve/CVE-2022-21571.html",
          "Description": "CVE-2022-21571"
        },
        {
          "URL": "https://bugzilla.suse.com/1201720",
          "Description": "SUSE Bug 1201720"
        }
      ],
      "ProductStatuses": [
        {
          "Type": "Fixed",
          "ProductID": [
            "openSUSE Tumbleweed:python3-virtualbox-6.1.36-1.1",
            "openSUSE Tumbleweed:virtualbox-6.1.36-1.1",
            "openSUSE Tumbleweed:virtualbox-devel-6.1.36-1.1",
            "openSUSE Tumbleweed:virtualbox-guest-desktop-icons-6.1.36-1.1",
            "openSUSE Tumbleweed:virtualbox-guest-source-6.1.36-1.1",
            "openSUSE Tumbleweed:virtualbox-guest-tools-6.1.36-1.1",
            "openSUSE Tumbleweed:virtualbox-guest-x11-6.1.36-1.1",
            "openSUSE Tumbleweed:virtualbox-host-source-6.1.36-1.1",
            "openSUSE Tumbleweed:virtualbox-qt-6.1.36-1.1",
            "openSUSE Tumbleweed:virtualbox-vnc-6.1.36-1.1",
            "openSUSE Tumbleweed:virtualbox-websrv-6.1.36-1.1"
          ]
        }
      ],
      "CVSSScoreSets": {}
    }
  ]
}