{
  "Title": "python-keystoneclient-3.5.0-1.1 on GA media",
  "Tracking": {
    "ID": "openSUSE-SU-2024:10471-1",
    "Status": "Final",
    "Version": "1",
    "InitialReleaseDate": "2024-06-22T21:44:56Z",
    "CurrentReleaseDate": "2024-06-22T21:44:56Z",
    "RevisionHistory": [
      {
        "Number": "1",
        "Date": "2024-06-22T21:44:56Z",
        "Description": "current"
      }
    ]
  },
  "Notes": [
    {
      "Text": "python-keystoneclient-3.5.0-1.1 on GA media",
      "Title": "Topic",
      "Type": "Summary"
    },
    {
      "Text": "These are all security issues fixed in the python-keystoneclient-3.5.0-1.1 package on the GA media of openSUSE Tumbleweed.",
      "Title": "Details",
      "Type": "General"
    },
    {
      "Text": "The CVRF data is provided by SUSE under the Creative Commons License 4.0 with Attribution (CC-BY-4.0).",
      "Title": "Terms of Use",
      "Type": "Legal Disclaimer"
    },
    {
      "Text": "openSUSE-Tumbleweed-2024-10471",
      "Title": "Patchnames",
      "Type": "Details"
    }
  ],
  "ProductTree": {
    "Relationships": [
      {
        "ProductReference": "python-keystoneclient-3.5.0-1.1",
        "RelatesToProductReference": "openSUSE Tumbleweed",
        "RelationType": "Default Component Of"
      },
      {
        "ProductReference": "python-keystoneclient-doc-3.5.0-1.1",
        "RelatesToProductReference": "openSUSE Tumbleweed",
        "RelationType": "Default Component Of"
      }
    ]
  },
  "References": [
    {
      "URL": "https://www.suse.com/support/security/rating/",
      "Description": "SUSE Security Ratings"
    },
    {
      "URL": "https://www.suse.com/security/cve/CVE-2014-0105/",
      "Description": "SUSE CVE CVE-2014-0105 page"
    },
    {
      "URL": "https://www.suse.com/security/cve/CVE-2014-7144/",
      "Description": "SUSE CVE CVE-2014-7144 page"
    },
    {
      "URL": "https://www.suse.com/security/cve/CVE-2015-1852/",
      "Description": "SUSE CVE CVE-2015-1852 page"
    }
  ],
  "Vulnerabilities": [
    {
      "CVE": "CVE-2014-0105",
      "Description": "The auth_token middleware in the OpenStack Python client library for Keystone (aka python-keystoneclient) before 0.7.0 does not properly retrieve user tokens from memcache, which allows remote authenticated users to gain privileges in opportunistic circumstances via a large number of requests, related to an \"interaction between eventlet and python-memcached.\"",
      "Threats": [
        {
          "Type": "Impact",
          "Severity": "moderate"
        }
      ],
      "References": [
        {
          "URL": "https://www.suse.com/security/cve/CVE-2014-0105.html",
          "Description": "CVE-2014-0105"
        },
        {
          "URL": "https://bugzilla.suse.com/870102",
          "Description": "SUSE Bug 870102"
        }
      ],
      "ProductStatuses": [
        {
          "Type": "Fixed",
          "ProductID": [
            "openSUSE Tumbleweed:python-keystoneclient-3.5.0-1.1",
            "openSUSE Tumbleweed:python-keystoneclient-doc-3.5.0-1.1"
          ]
        }
      ],
      "CVSSScoreSets": {}
    },
    {
      "CVE": "CVE-2014-7144",
      "Description": "OpenStack keystonemiddleware (formerly python-keystoneclient) 0.x before 0.11.0 and 1.x before 1.2.0 disables certification verification when the \"insecure\" option is set in a paste configuration (paste.ini) file regardless of the value, which allows remote attackers to conduct man-in-the-middle attacks via a crafted certificate.",
      "Threats": [
        {
          "Type": "Impact",
          "Severity": "moderate"
        }
      ],
      "References": [
        {
          "URL": "https://www.suse.com/security/cve/CVE-2014-7144.html",
          "Description": "CVE-2014-7144"
        },
        {
          "URL": "https://bugzilla.suse.com/897103",
          "Description": "SUSE Bug 897103"
        },
        {
          "URL": "https://bugzilla.suse.com/928205",
          "Description": "SUSE Bug 928205"
        }
      ],
      "ProductStatuses": [
        {
          "Type": "Fixed",
          "ProductID": [
            "openSUSE Tumbleweed:python-keystoneclient-3.5.0-1.1",
            "openSUSE Tumbleweed:python-keystoneclient-doc-3.5.0-1.1"
          ]
        }
      ],
      "CVSSScoreSets": {}
    },
    {
      "CVE": "CVE-2015-1852",
      "Description": "The s3_token middleware in OpenStack keystonemiddleware before 1.6.0 and python-keystoneclient before 1.4.0 disables certification verification when the \"insecure\" option is set in a paste configuration (paste.ini) file regardless of the value, which allows remote attackers to conduct man-in-the-middle attacks via a crafted certificate, a different vulnerability than CVE-2014-7144.",
      "Threats": [
        {
          "Type": "Impact",
          "Severity": "moderate"
        }
      ],
      "References": [
        {
          "URL": "https://www.suse.com/security/cve/CVE-2015-1852.html",
          "Description": "CVE-2015-1852"
        },
        {
          "URL": "https://bugzilla.suse.com/928205",
          "Description": "SUSE Bug 928205"
        }
      ],
      "ProductStatuses": [
        {
          "Type": "Fixed",
          "ProductID": [
            "openSUSE Tumbleweed:python-keystoneclient-3.5.0-1.1",
            "openSUSE Tumbleweed:python-keystoneclient-doc-3.5.0-1.1"
          ]
        }
      ],
      "CVSSScoreSets": {}
    }
  ]
}