{
  "Title": "python310-oauthlib-3.2.1-1.1 on GA media",
  "Tracking": {
    "ID": "openSUSE-SU-2024:12339-1",
    "Status": "Final",
    "Version": "1",
    "InitialReleaseDate": "2024-06-20T21:44:22Z",
    "CurrentReleaseDate": "2024-06-20T21:44:22Z",
    "RevisionHistory": [
      {
        "Number": "1",
        "Date": "2024-06-20T21:44:22Z",
        "Description": "current"
      }
    ]
  },
  "Notes": [
    {
      "Text": "python310-oauthlib-3.2.1-1.1 on GA media",
      "Title": "Topic",
      "Type": "Summary"
    },
    {
      "Text": "These are all security issues fixed in the python310-oauthlib-3.2.1-1.1 package on the GA media of openSUSE Tumbleweed.",
      "Title": "Details",
      "Type": "General"
    },
    {
      "Text": "The CVRF data is provided by SUSE under the Creative Commons License 4.0 with Attribution (CC-BY-4.0).",
      "Title": "Terms of Use",
      "Type": "Legal Disclaimer"
    },
    {
      "Text": "openSUSE-Tumbleweed-2024-12339",
      "Title": "Patchnames",
      "Type": "Details"
    }
  ],
  "ProductTree": {
    "Relationships": [
      {
        "ProductReference": "python310-oauthlib-3.2.1-1.1",
        "RelatesToProductReference": "openSUSE Tumbleweed",
        "RelationType": "Default Component Of"
      },
      {
        "ProductReference": "python38-oauthlib-3.2.1-1.1",
        "RelatesToProductReference": "openSUSE Tumbleweed",
        "RelationType": "Default Component Of"
      },
      {
        "ProductReference": "python39-oauthlib-3.2.1-1.1",
        "RelatesToProductReference": "openSUSE Tumbleweed",
        "RelationType": "Default Component Of"
      }
    ]
  },
  "References": [
    {
      "URL": "https://www.suse.com/support/security/rating/",
      "Description": "SUSE Security Ratings"
    },
    {
      "URL": "https://www.suse.com/security/cve/CVE-2022-36087/",
      "Description": "SUSE CVE CVE-2022-36087 page"
    }
  ],
  "Vulnerabilities": [
    {
      "CVE": "CVE-2022-36087",
      "Description": "OAuthLib is an implementation of the OAuth request-signing logic for Python 3.6+. In OAuthLib versions 3.1.1 until 3.2.1, an attacker providing malicious redirect uri can cause denial of service. An attacker can also leverage usage of `uri_validate` functions depending where it is used. OAuthLib applications using OAuth2.0 provider support or use directly `uri_validate` are affected by this issue. Version 3.2.1 contains a patch. There are no known workarounds.",
      "Threats": [
        {
          "Type": "Impact",
          "Severity": "moderate"
        }
      ],
      "References": [
        {
          "URL": "https://www.suse.com/security/cve/CVE-2022-36087.html",
          "Description": "CVE-2022-36087"
        },
        {
          "URL": "https://bugzilla.suse.com/1203333",
          "Description": "SUSE Bug 1203333"
        }
      ],
      "ProductStatuses": [
        {
          "Type": "Fixed",
          "ProductID": [
            "openSUSE Tumbleweed:python310-oauthlib-3.2.1-1.1",
            "openSUSE Tumbleweed:python38-oauthlib-3.2.1-1.1",
            "openSUSE Tumbleweed:python39-oauthlib-3.2.1-1.1"
          ]
        }
      ],
      "CVSSScoreSets": {}
    }
  ]
}