{
  "Title": "gio-branding-upstream-2.50.2-1.1 on GA media",
  "Tracking": {
    "ID": "openSUSE-SU-2024:10473-1",
    "Status": "Final",
    "Version": "1",
    "InitialReleaseDate": "2024-06-22T21:44:56Z",
    "CurrentReleaseDate": "2024-06-22T21:44:56Z",
    "RevisionHistory": [
      {
        "Number": "1",
        "Date": "2024-06-22T21:44:56Z",
        "Description": "current"
      }
    ]
  },
  "Notes": [
    {
      "Text": "gio-branding-upstream-2.50.2-1.1 on GA media",
      "Title": "Topic",
      "Type": "Summary"
    },
    {
      "Text": "These are all security issues fixed in the gio-branding-upstream-2.50.2-1.1 package on the GA media of openSUSE Tumbleweed.",
      "Title": "Details",
      "Type": "General"
    },
    {
      "Text": "The CVRF data is provided by SUSE under the Creative Commons License 4.0 with Attribution (CC-BY-4.0).",
      "Title": "Terms of Use",
      "Type": "Legal Disclaimer"
    },
    {
      "Text": "openSUSE-Tumbleweed-2024-10473",
      "Title": "Patchnames",
      "Type": "Details"
    }
  ],
  "ProductTree": {
    "Relationships": [
      {
        "ProductReference": "gio-branding-upstream-2.50.2-1.1",
        "RelatesToProductReference": "openSUSE Tumbleweed",
        "RelationType": "Default Component Of"
      },
      {
        "ProductReference": "glib2-devel-2.50.2-1.1",
        "RelatesToProductReference": "openSUSE Tumbleweed",
        "RelationType": "Default Component Of"
      },
      {
        "ProductReference": "glib2-devel-32bit-2.50.2-1.1",
        "RelatesToProductReference": "openSUSE Tumbleweed",
        "RelationType": "Default Component Of"
      },
      {
        "ProductReference": "glib2-devel-static-2.50.2-1.1",
        "RelatesToProductReference": "openSUSE Tumbleweed",
        "RelationType": "Default Component Of"
      },
      {
        "ProductReference": "glib2-lang-2.50.2-1.1",
        "RelatesToProductReference": "openSUSE Tumbleweed",
        "RelationType": "Default Component Of"
      },
      {
        "ProductReference": "glib2-tools-2.50.2-1.1",
        "RelatesToProductReference": "openSUSE Tumbleweed",
        "RelationType": "Default Component Of"
      },
      {
        "ProductReference": "glib2-tools-32bit-2.50.2-1.1",
        "RelatesToProductReference": "openSUSE Tumbleweed",
        "RelationType": "Default Component Of"
      },
      {
        "ProductReference": "libgio-2_0-0-2.50.2-1.1",
        "RelatesToProductReference": "openSUSE Tumbleweed",
        "RelationType": "Default Component Of"
      },
      {
        "ProductReference": "libgio-2_0-0-32bit-2.50.2-1.1",
        "RelatesToProductReference": "openSUSE Tumbleweed",
        "RelationType": "Default Component Of"
      },
      {
        "ProductReference": "libgio-fam-2.50.2-1.1",
        "RelatesToProductReference": "openSUSE Tumbleweed",
        "RelationType": "Default Component Of"
      },
      {
        "ProductReference": "libgio-fam-32bit-2.50.2-1.1",
        "RelatesToProductReference": "openSUSE Tumbleweed",
        "RelationType": "Default Component Of"
      },
      {
        "ProductReference": "libglib-2_0-0-2.50.2-1.1",
        "RelatesToProductReference": "openSUSE Tumbleweed",
        "RelationType": "Default Component Of"
      },
      {
        "ProductReference": "libglib-2_0-0-32bit-2.50.2-1.1",
        "RelatesToProductReference": "openSUSE Tumbleweed",
        "RelationType": "Default Component Of"
      },
      {
        "ProductReference": "libgmodule-2_0-0-2.50.2-1.1",
        "RelatesToProductReference": "openSUSE Tumbleweed",
        "RelationType": "Default Component Of"
      },
      {
        "ProductReference": "libgmodule-2_0-0-32bit-2.50.2-1.1",
        "RelatesToProductReference": "openSUSE Tumbleweed",
        "RelationType": "Default Component Of"
      },
      {
        "ProductReference": "libgobject-2_0-0-2.50.2-1.1",
        "RelatesToProductReference": "openSUSE Tumbleweed",
        "RelationType": "Default Component Of"
      },
      {
        "ProductReference": "libgobject-2_0-0-32bit-2.50.2-1.1",
        "RelatesToProductReference": "openSUSE Tumbleweed",
        "RelationType": "Default Component Of"
      },
      {
        "ProductReference": "libgthread-2_0-0-2.50.2-1.1",
        "RelatesToProductReference": "openSUSE Tumbleweed",
        "RelationType": "Default Component Of"
      },
      {
        "ProductReference": "libgthread-2_0-0-32bit-2.50.2-1.1",
        "RelatesToProductReference": "openSUSE Tumbleweed",
        "RelationType": "Default Component Of"
      }
    ]
  },
  "References": [
    {
      "URL": "https://www.suse.com/support/security/rating/",
      "Description": "SUSE Security Ratings"
    },
    {
      "URL": "https://www.suse.com/security/cve/CVE-2008-4316/",
      "Description": "SUSE CVE CVE-2008-4316 page"
    },
    {
      "URL": "https://www.suse.com/security/cve/CVE-2012-3524/",
      "Description": "SUSE CVE CVE-2012-3524 page"
    }
  ],
  "Vulnerabilities": [
    {
      "CVE": "CVE-2008-4316",
      "Description": "Multiple integer overflows in glib/gbase64.c in GLib before 2.20 allow context-dependent attackers to execute arbitrary code via a long string that is converted either (1) from or (2) to a base64 representation.",
      "Threats": [
        {
          "Type": "Impact",
          "Severity": "moderate"
        }
      ],
      "References": [
        {
          "URL": "https://www.suse.com/security/cve/CVE-2008-4316.html",
          "Description": "CVE-2008-4316"
        },
        {
          "URL": "https://bugzilla.suse.com/382708",
          "Description": "SUSE Bug 382708"
        },
        {
          "URL": "https://bugzilla.suse.com/449927",
          "Description": "SUSE Bug 449927"
        },
        {
          "URL": "https://bugzilla.suse.com/475541",
          "Description": "SUSE Bug 475541"
        }
      ],
      "ProductStatuses": [
        {
          "Type": "Fixed",
          "ProductID": [
            "openSUSE Tumbleweed:gio-branding-upstream-2.50.2-1.1",
            "openSUSE Tumbleweed:glib2-devel-2.50.2-1.1",
            "openSUSE Tumbleweed:glib2-devel-32bit-2.50.2-1.1",
            "openSUSE Tumbleweed:glib2-devel-static-2.50.2-1.1",
            "openSUSE Tumbleweed:glib2-lang-2.50.2-1.1",
            "openSUSE Tumbleweed:glib2-tools-2.50.2-1.1",
            "openSUSE Tumbleweed:glib2-tools-32bit-2.50.2-1.1",
            "openSUSE Tumbleweed:libgio-2_0-0-2.50.2-1.1",
            "openSUSE Tumbleweed:libgio-2_0-0-32bit-2.50.2-1.1",
            "openSUSE Tumbleweed:libgio-fam-2.50.2-1.1",
            "openSUSE Tumbleweed:libgio-fam-32bit-2.50.2-1.1",
            "openSUSE Tumbleweed:libglib-2_0-0-2.50.2-1.1",
            "openSUSE Tumbleweed:libglib-2_0-0-32bit-2.50.2-1.1",
            "openSUSE Tumbleweed:libgmodule-2_0-0-2.50.2-1.1",
            "openSUSE Tumbleweed:libgmodule-2_0-0-32bit-2.50.2-1.1",
            "openSUSE Tumbleweed:libgobject-2_0-0-2.50.2-1.1",
            "openSUSE Tumbleweed:libgobject-2_0-0-32bit-2.50.2-1.1",
            "openSUSE Tumbleweed:libgthread-2_0-0-2.50.2-1.1",
            "openSUSE Tumbleweed:libgthread-2_0-0-32bit-2.50.2-1.1"
          ]
        }
      ],
      "CVSSScoreSets": {}
    },
    {
      "CVE": "CVE-2012-3524",
      "Description": "libdbus 1.5.x and earlier, when used in setuid or other privileged programs in X.org and possibly other products, allows local users to gain privileges and execute arbitrary code via the DBUS_SYSTEM_BUS_ADDRESS environment variable. NOTE: libdbus maintainers state that this is a vulnerability in the applications that do not cleanse environment variables, not in libdbus itself: \"we do not support use of libdbus in setuid binaries that do not sanitize their environment before their first call into libdbus.\"",
      "Threats": [
        {
          "Type": "Impact",
          "Severity": "moderate"
        }
      ],
      "References": [
        {
          "URL": "https://www.suse.com/security/cve/CVE-2012-3524.html",
          "Description": "CVE-2012-3524"
        },
        {
          "URL": "https://bugzilla.suse.com/697105",
          "Description": "SUSE Bug 697105"
        },
        {
          "URL": "https://bugzilla.suse.com/852781",
          "Description": "SUSE Bug 852781"
        },
        {
          "URL": "https://bugzilla.suse.com/912016",
          "Description": "SUSE Bug 912016"
        }
      ],
      "ProductStatuses": [
        {
          "Type": "Fixed",
          "ProductID": [
            "openSUSE Tumbleweed:gio-branding-upstream-2.50.2-1.1",
            "openSUSE Tumbleweed:glib2-devel-2.50.2-1.1",
            "openSUSE Tumbleweed:glib2-devel-32bit-2.50.2-1.1",
            "openSUSE Tumbleweed:glib2-devel-static-2.50.2-1.1",
            "openSUSE Tumbleweed:glib2-lang-2.50.2-1.1",
            "openSUSE Tumbleweed:glib2-tools-2.50.2-1.1",
            "openSUSE Tumbleweed:glib2-tools-32bit-2.50.2-1.1",
            "openSUSE Tumbleweed:libgio-2_0-0-2.50.2-1.1",
            "openSUSE Tumbleweed:libgio-2_0-0-32bit-2.50.2-1.1",
            "openSUSE Tumbleweed:libgio-fam-2.50.2-1.1",
            "openSUSE Tumbleweed:libgio-fam-32bit-2.50.2-1.1",
            "openSUSE Tumbleweed:libglib-2_0-0-2.50.2-1.1",
            "openSUSE Tumbleweed:libglib-2_0-0-32bit-2.50.2-1.1",
            "openSUSE Tumbleweed:libgmodule-2_0-0-2.50.2-1.1",
            "openSUSE Tumbleweed:libgmodule-2_0-0-32bit-2.50.2-1.1",
            "openSUSE Tumbleweed:libgobject-2_0-0-2.50.2-1.1",
            "openSUSE Tumbleweed:libgobject-2_0-0-32bit-2.50.2-1.1",
            "openSUSE Tumbleweed:libgthread-2_0-0-2.50.2-1.1",
            "openSUSE Tumbleweed:libgthread-2_0-0-32bit-2.50.2-1.1"
          ]
        }
      ],
      "CVSSScoreSets": {}
    }
  ]
}