{
  "Title": "w3m-0.5.3+git20230121-2.1 on GA media",
  "Tracking": {
    "ID": "openSUSE-SU-2024:13138-1",
    "Status": "Final",
    "Version": "1",
    "InitialReleaseDate": "2024-06-20T21:44:22Z",
    "CurrentReleaseDate": "2024-06-20T21:44:22Z",
    "RevisionHistory": [
      {
        "Number": "1",
        "Date": "2024-06-20T21:44:22Z",
        "Description": "current"
      }
    ]
  },
  "Notes": [
    {
      "Text": "w3m-0.5.3+git20230121-2.1 on GA media",
      "Title": "Topic",
      "Type": "Summary"
    },
    {
      "Text": "These are all security issues fixed in the w3m-0.5.3+git20230121-2.1 package on the GA media of openSUSE Tumbleweed.",
      "Title": "Details",
      "Type": "General"
    },
    {
      "Text": "The CVRF data is provided by SUSE under the Creative Commons License 4.0 with Attribution (CC-BY-4.0).",
      "Title": "Terms of Use",
      "Type": "Legal Disclaimer"
    },
    {
      "Text": "openSUSE-Tumbleweed-2024-13138",
      "Title": "Patchnames",
      "Type": "Details"
    }
  ],
  "ProductTree": {
    "Relationships": [
      {
        "ProductReference": "w3m-0.5.3+git20230121-2.1",
        "RelatesToProductReference": "openSUSE Tumbleweed",
        "RelationType": "Default Component Of"
      },
      {
        "ProductReference": "w3m-inline-image-0.5.3+git20230121-2.1",
        "RelatesToProductReference": "openSUSE Tumbleweed",
        "RelationType": "Default Component Of"
      }
    ]
  },
  "References": [
    {
      "URL": "https://www.suse.com/support/security/rating/",
      "Description": "SUSE Security Ratings"
    },
    {
      "URL": "https://www.suse.com/security/cve/CVE-2023-38252/",
      "Description": "SUSE CVE CVE-2023-38252 page"
    },
    {
      "URL": "https://www.suse.com/security/cve/CVE-2023-38253/",
      "Description": "SUSE CVE CVE-2023-38253 page"
    }
  ],
  "Vulnerabilities": [
    {
      "CVE": "CVE-2023-38252",
      "Description": "An out-of-bounds read flaw was found in w3m, in the Strnew_size function in Str.c. This issue may allow an attacker to cause a denial of service through a crafted HTML file.",
      "Threats": [
        {
          "Type": "Impact",
          "Severity": "moderate"
        }
      ],
      "References": [
        {
          "URL": "https://www.suse.com/security/cve/CVE-2023-38252.html",
          "Description": "CVE-2023-38252"
        },
        {
          "URL": "https://bugzilla.suse.com/1213324",
          "Description": "SUSE Bug 1213324"
        }
      ],
      "ProductStatuses": [
        {
          "Type": "Fixed",
          "ProductID": [
            "openSUSE Tumbleweed:w3m-0.5.3+git20230121-2.1",
            "openSUSE Tumbleweed:w3m-inline-image-0.5.3+git20230121-2.1"
          ]
        }
      ],
      "CVSSScoreSets": {}
    },
    {
      "CVE": "CVE-2023-38253",
      "Description": "An out-of-bounds read flaw was found in w3m, in the growbuf_to_Str function in indep.c. This issue may allow an attacker to cause a denial of service through a crafted HTML file.",
      "Threats": [
        {
          "Type": "Impact",
          "Severity": "moderate"
        }
      ],
      "References": [
        {
          "URL": "https://www.suse.com/security/cve/CVE-2023-38253.html",
          "Description": "CVE-2023-38253"
        },
        {
          "URL": "https://bugzilla.suse.com/1213323",
          "Description": "SUSE Bug 1213323"
        }
      ],
      "ProductStatuses": [
        {
          "Type": "Fixed",
          "ProductID": [
            "openSUSE Tumbleweed:w3m-0.5.3+git20230121-2.1",
            "openSUSE Tumbleweed:w3m-inline-image-0.5.3+git20230121-2.1"
          ]
        }
      ],
      "CVSSScoreSets": {}
    }
  ]
}