{
  "Title": "libmozjs-102-0-102.9.0-1.1 on GA media",
  "Tracking": {
    "ID": "openSUSE-SU-2024:12786-1",
    "Status": "Final",
    "Version": "1",
    "InitialReleaseDate": "2024-06-20T21:44:22Z",
    "CurrentReleaseDate": "2024-06-20T21:44:22Z",
    "RevisionHistory": [
      {
        "Number": "1",
        "Date": "2024-06-20T21:44:22Z",
        "Description": "current"
      }
    ]
  },
  "Notes": [
    {
      "Text": "libmozjs-102-0-102.9.0-1.1 on GA media",
      "Title": "Topic",
      "Type": "Summary"
    },
    {
      "Text": "These are all security issues fixed in the libmozjs-102-0-102.9.0-1.1 package on the GA media of openSUSE Tumbleweed.",
      "Title": "Details",
      "Type": "General"
    },
    {
      "Text": "The CVRF data is provided by SUSE under the Creative Commons License 4.0 with Attribution (CC-BY-4.0).",
      "Title": "Terms of Use",
      "Type": "Legal Disclaimer"
    },
    {
      "Text": "openSUSE-Tumbleweed-2024-12786",
      "Title": "Patchnames",
      "Type": "Details"
    }
  ],
  "ProductTree": {
    "Relationships": [
      {
        "ProductReference": "libmozjs-102-0-102.9.0-1.1",
        "RelatesToProductReference": "openSUSE Tumbleweed",
        "RelationType": "Default Component Of"
      },
      {
        "ProductReference": "mozjs102-102.9.0-1.1",
        "RelatesToProductReference": "openSUSE Tumbleweed",
        "RelationType": "Default Component Of"
      },
      {
        "ProductReference": "mozjs102-devel-102.9.0-1.1",
        "RelatesToProductReference": "openSUSE Tumbleweed",
        "RelationType": "Default Component Of"
      }
    ]
  },
  "References": [
    {
      "URL": "https://www.suse.com/support/security/rating/",
      "Description": "SUSE Security Ratings"
    },
    {
      "URL": "https://www.suse.com/security/cve/CVE-2023-25751/",
      "Description": "SUSE CVE CVE-2023-25751 page"
    },
    {
      "URL": "https://www.suse.com/security/cve/CVE-2023-25752/",
      "Description": "SUSE CVE CVE-2023-25752 page"
    },
    {
      "URL": "https://www.suse.com/security/cve/CVE-2023-28162/",
      "Description": "SUSE CVE CVE-2023-28162 page"
    },
    {
      "URL": "https://www.suse.com/security/cve/CVE-2023-28163/",
      "Description": "SUSE CVE CVE-2023-28163 page"
    },
    {
      "URL": "https://www.suse.com/security/cve/CVE-2023-28164/",
      "Description": "SUSE CVE CVE-2023-28164 page"
    },
    {
      "URL": "https://www.suse.com/security/cve/CVE-2023-28176/",
      "Description": "SUSE CVE CVE-2023-28176 page"
    }
  ],
  "Vulnerabilities": [
    {
      "CVE": "CVE-2023-25751",
      "Description": "Sometimes, when invalidating JIT code while following an iterator, the newly generated code could be overwritten incorrectly. This could lead to a potentially exploitable crash. This vulnerability affects Firefox \u003c 111, Firefox ESR \u003c 102.9, and Thunderbird \u003c 102.9.",
      "Threats": [
        {
          "Type": "Impact",
          "Severity": "moderate"
        }
      ],
      "References": [
        {
          "URL": "https://www.suse.com/security/cve/CVE-2023-25751.html",
          "Description": "CVE-2023-25751"
        }
      ],
      "ProductStatuses": [
        {
          "Type": "Fixed",
          "ProductID": [
            "openSUSE Tumbleweed:libmozjs-102-0-102.9.0-1.1",
            "openSUSE Tumbleweed:mozjs102-102.9.0-1.1",
            "openSUSE Tumbleweed:mozjs102-devel-102.9.0-1.1"
          ]
        }
      ],
      "CVSSScoreSets": {}
    },
    {
      "CVE": "CVE-2023-25752",
      "Description": "When accessing throttled streams, the count of available bytes needed to be checked in the calling function to be within bounds. This may have lead future code to be incorrect and vulnerable. This vulnerability affects Firefox \u003c 111, Firefox ESR \u003c 102.9, and Thunderbird \u003c 102.9.",
      "Threats": [
        {
          "Type": "Impact",
          "Severity": "moderate"
        }
      ],
      "References": [
        {
          "URL": "https://www.suse.com/security/cve/CVE-2023-25752.html",
          "Description": "CVE-2023-25752"
        }
      ],
      "ProductStatuses": [
        {
          "Type": "Fixed",
          "ProductID": [
            "openSUSE Tumbleweed:libmozjs-102-0-102.9.0-1.1",
            "openSUSE Tumbleweed:mozjs102-102.9.0-1.1",
            "openSUSE Tumbleweed:mozjs102-devel-102.9.0-1.1"
          ]
        }
      ],
      "CVSSScoreSets": {}
    },
    {
      "CVE": "CVE-2023-28162",
      "Description": "While implementing AudioWorklets, some code may have casted one type to another, invalid, dynamic type. This could have led to a potentially exploitable crash. This vulnerability affects Firefox \u003c 111, Firefox ESR \u003c 102.9, and Thunderbird \u003c 102.9.",
      "Threats": [
        {
          "Type": "Impact",
          "Severity": "moderate"
        }
      ],
      "References": [
        {
          "URL": "https://www.suse.com/security/cve/CVE-2023-28162.html",
          "Description": "CVE-2023-28162"
        }
      ],
      "ProductStatuses": [
        {
          "Type": "Fixed",
          "ProductID": [
            "openSUSE Tumbleweed:libmozjs-102-0-102.9.0-1.1",
            "openSUSE Tumbleweed:mozjs102-102.9.0-1.1",
            "openSUSE Tumbleweed:mozjs102-devel-102.9.0-1.1"
          ]
        }
      ],
      "CVSSScoreSets": {}
    },
    {
      "CVE": "CVE-2023-28163",
      "Description": "When downloading files through the Save As dialog on Windows with suggested filenames containing environment variable names, Windows would have resolved those in the context of the current user. \u003cbr\u003e*This bug only affects Firefox on Windows. Other versions of Firefox are unaffected.*. This vulnerability affects Firefox \u003c 111, Firefox ESR \u003c 102.9, and Thunderbird \u003c 102.9.",
      "Threats": [
        {
          "Type": "Impact",
          "Severity": "moderate"
        }
      ],
      "References": [
        {
          "URL": "https://www.suse.com/security/cve/CVE-2023-28163.html",
          "Description": "CVE-2023-28163"
        }
      ],
      "ProductStatuses": [
        {
          "Type": "Fixed",
          "ProductID": [
            "openSUSE Tumbleweed:libmozjs-102-0-102.9.0-1.1",
            "openSUSE Tumbleweed:mozjs102-102.9.0-1.1",
            "openSUSE Tumbleweed:mozjs102-devel-102.9.0-1.1"
          ]
        }
      ],
      "CVSSScoreSets": {}
    },
    {
      "CVE": "CVE-2023-28164",
      "Description": "Dragging a URL from a cross-origin iframe that was removed during the drag could have led to user confusion and website spoofing attacks. This vulnerability affects Firefox \u003c 111, Firefox ESR \u003c 102.9, and Thunderbird \u003c 102.9.",
      "Threats": [
        {
          "Type": "Impact",
          "Severity": "moderate"
        }
      ],
      "References": [
        {
          "URL": "https://www.suse.com/security/cve/CVE-2023-28164.html",
          "Description": "CVE-2023-28164"
        }
      ],
      "ProductStatuses": [
        {
          "Type": "Fixed",
          "ProductID": [
            "openSUSE Tumbleweed:libmozjs-102-0-102.9.0-1.1",
            "openSUSE Tumbleweed:mozjs102-102.9.0-1.1",
            "openSUSE Tumbleweed:mozjs102-devel-102.9.0-1.1"
          ]
        }
      ],
      "CVSSScoreSets": {}
    },
    {
      "CVE": "CVE-2023-28176",
      "Description": "Mozilla developers Timothy Nikkel, Andrew McCreight, and the Mozilla Fuzzing Team reported memory safety bugs present in Firefox 110 and Firefox ESR 102.8. Some of these bugs showed evidence of memory corruption and we presume that with enough effort some of these could have been exploited to run arbitrary code. This vulnerability affects Firefox \u003c 111, Firefox ESR \u003c 102.9, and Thunderbird \u003c 102.9.",
      "Threats": [
        {
          "Type": "Impact",
          "Severity": "moderate"
        }
      ],
      "References": [
        {
          "URL": "https://www.suse.com/security/cve/CVE-2023-28176.html",
          "Description": "CVE-2023-28176"
        }
      ],
      "ProductStatuses": [
        {
          "Type": "Fixed",
          "ProductID": [
            "openSUSE Tumbleweed:libmozjs-102-0-102.9.0-1.1",
            "openSUSE Tumbleweed:mozjs102-102.9.0-1.1",
            "openSUSE Tumbleweed:mozjs102-devel-102.9.0-1.1"
          ]
        }
      ],
      "CVSSScoreSets": {}
    }
  ]
}