{
  "Title": "go1.19-1.19.2-1.1 on GA media",
  "Tracking": {
    "ID": "openSUSE-SU-2024:12392-1",
    "Status": "Final",
    "Version": "1",
    "InitialReleaseDate": "2024-06-20T21:44:22Z",
    "CurrentReleaseDate": "2024-06-20T21:44:22Z",
    "RevisionHistory": [
      {
        "Number": "1",
        "Date": "2024-06-20T21:44:22Z",
        "Description": "current"
      }
    ]
  },
  "Notes": [
    {
      "Text": "go1.19-1.19.2-1.1 on GA media",
      "Title": "Topic",
      "Type": "Summary"
    },
    {
      "Text": "These are all security issues fixed in the go1.19-1.19.2-1.1 package on the GA media of openSUSE Tumbleweed.",
      "Title": "Details",
      "Type": "General"
    },
    {
      "Text": "The CVRF data is provided by SUSE under the Creative Commons License 4.0 with Attribution (CC-BY-4.0).",
      "Title": "Terms of Use",
      "Type": "Legal Disclaimer"
    },
    {
      "Text": "openSUSE-Tumbleweed-2024-12392",
      "Title": "Patchnames",
      "Type": "Details"
    }
  ],
  "ProductTree": {
    "Relationships": [
      {
        "ProductReference": "go1.19-1.19.2-1.1",
        "RelatesToProductReference": "openSUSE Tumbleweed",
        "RelationType": "Default Component Of"
      },
      {
        "ProductReference": "go1.19-doc-1.19.2-1.1",
        "RelatesToProductReference": "openSUSE Tumbleweed",
        "RelationType": "Default Component Of"
      },
      {
        "ProductReference": "go1.19-race-1.19.2-1.1",
        "RelatesToProductReference": "openSUSE Tumbleweed",
        "RelationType": "Default Component Of"
      }
    ]
  },
  "References": [
    {
      "URL": "https://www.suse.com/support/security/rating/",
      "Description": "SUSE Security Ratings"
    },
    {
      "URL": "https://www.suse.com/security/cve/CVE-2022-2879/",
      "Description": "SUSE CVE CVE-2022-2879 page"
    },
    {
      "URL": "https://www.suse.com/security/cve/CVE-2022-2880/",
      "Description": "SUSE CVE CVE-2022-2880 page"
    },
    {
      "URL": "https://www.suse.com/security/cve/CVE-2022-41715/",
      "Description": "SUSE CVE CVE-2022-41715 page"
    }
  ],
  "Vulnerabilities": [
    {
      "CVE": "CVE-2022-2879",
      "Description": "Reader.Read does not set a limit on the maximum size of file headers. A maliciously crafted archive could cause Read to allocate unbounded amounts of memory, potentially causing resource exhaustion or panics. After fix, Reader.Read limits the maximum size of header blocks to 1 MiB.",
      "Threats": [
        {
          "Type": "Impact",
          "Severity": "important"
        }
      ],
      "References": [
        {
          "URL": "https://www.suse.com/security/cve/CVE-2022-2879.html",
          "Description": "CVE-2022-2879"
        },
        {
          "URL": "https://bugzilla.suse.com/1204024",
          "Description": "SUSE Bug 1204024"
        }
      ],
      "ProductStatuses": [
        {
          "Type": "Fixed",
          "ProductID": [
            "openSUSE Tumbleweed:go1.19-1.19.2-1.1",
            "openSUSE Tumbleweed:go1.19-doc-1.19.2-1.1",
            "openSUSE Tumbleweed:go1.19-race-1.19.2-1.1"
          ]
        }
      ],
      "CVSSScoreSets": {}
    },
    {
      "CVE": "CVE-2022-2880",
      "Description": "Requests forwarded by ReverseProxy include the raw query parameters from the inbound request, including unparsable parameters rejected by net/http. This could permit query parameter smuggling when a Go proxy forwards a parameter with an unparsable value. After fix, ReverseProxy sanitizes the query parameters in the forwarded query when the outbound request's Form field is set after the ReverseProxy. Director function returns, indicating that the proxy has parsed the query parameters. Proxies which do not parse query parameters continue to forward the original query parameters unchanged.",
      "Threats": [
        {
          "Type": "Impact",
          "Severity": "important"
        }
      ],
      "References": [
        {
          "URL": "https://www.suse.com/security/cve/CVE-2022-2880.html",
          "Description": "CVE-2022-2880"
        },
        {
          "URL": "https://bugzilla.suse.com/1204025",
          "Description": "SUSE Bug 1204025"
        },
        {
          "URL": "https://bugzilla.suse.com/1204076",
          "Description": "SUSE Bug 1204076"
        }
      ],
      "ProductStatuses": [
        {
          "Type": "Fixed",
          "ProductID": [
            "openSUSE Tumbleweed:go1.19-1.19.2-1.1",
            "openSUSE Tumbleweed:go1.19-doc-1.19.2-1.1",
            "openSUSE Tumbleweed:go1.19-race-1.19.2-1.1"
          ]
        }
      ],
      "CVSSScoreSets": {}
    },
    {
      "CVE": "CVE-2022-41715",
      "Description": "Programs which compile regular expressions from untrusted sources may be vulnerable to memory exhaustion or denial of service. The parsed regexp representation is linear in the size of the input, but in some cases the constant factor can be as high as 40,000, making relatively small regexps consume much larger amounts of memory. After fix, each regexp being parsed is limited to a 256 MB memory footprint. Regular expressions whose representation would use more space than that are rejected. Normal use of regular expressions is unaffected.",
      "Threats": [
        {
          "Type": "Impact",
          "Severity": "moderate"
        }
      ],
      "References": [
        {
          "URL": "https://www.suse.com/security/cve/CVE-2022-41715.html",
          "Description": "CVE-2022-41715"
        },
        {
          "URL": "https://bugzilla.suse.com/1204023",
          "Description": "SUSE Bug 1204023"
        },
        {
          "URL": "https://bugzilla.suse.com/1208441",
          "Description": "SUSE Bug 1208441"
        }
      ],
      "ProductStatuses": [
        {
          "Type": "Fixed",
          "ProductID": [
            "openSUSE Tumbleweed:go1.19-1.19.2-1.1",
            "openSUSE Tumbleweed:go1.19-doc-1.19.2-1.1",
            "openSUSE Tumbleweed:go1.19-race-1.19.2-1.1"
          ]
        }
      ],
      "CVSSScoreSets": {}
    }
  ]
}