{
  "Title": "libcrypto46-3.3.4-1.2 on GA media",
  "Tracking": {
    "ID": "openSUSE-SU-2024:10985-1",
    "Status": "Final",
    "Version": "1",
    "InitialReleaseDate": "2024-06-22T21:44:56Z",
    "CurrentReleaseDate": "2024-06-22T21:44:56Z",
    "RevisionHistory": [
      {
        "Number": "1",
        "Date": "2024-06-22T21:44:56Z",
        "Description": "current"
      }
    ]
  },
  "Notes": [
    {
      "Text": "libcrypto46-3.3.4-1.2 on GA media",
      "Title": "Topic",
      "Type": "Summary"
    },
    {
      "Text": "These are all security issues fixed in the libcrypto46-3.3.4-1.2 package on the GA media of openSUSE Tumbleweed.",
      "Title": "Details",
      "Type": "General"
    },
    {
      "Text": "The CVRF data is provided by SUSE under the Creative Commons License 4.0 with Attribution (CC-BY-4.0).",
      "Title": "Terms of Use",
      "Type": "Legal Disclaimer"
    },
    {
      "Text": "openSUSE-Tumbleweed-2024-10985",
      "Title": "Patchnames",
      "Type": "Details"
    }
  ],
  "ProductTree": {
    "Relationships": [
      {
        "ProductReference": "libcrypto46-3.3.4-1.2",
        "RelatesToProductReference": "openSUSE Tumbleweed",
        "RelationType": "Default Component Of"
      },
      {
        "ProductReference": "libcrypto46-32bit-3.3.4-1.2",
        "RelatesToProductReference": "openSUSE Tumbleweed",
        "RelationType": "Default Component Of"
      },
      {
        "ProductReference": "libressl-3.3.4-1.2",
        "RelatesToProductReference": "openSUSE Tumbleweed",
        "RelationType": "Default Component Of"
      },
      {
        "ProductReference": "libressl-devel-3.3.4-1.2",
        "RelatesToProductReference": "openSUSE Tumbleweed",
        "RelationType": "Default Component Of"
      },
      {
        "ProductReference": "libressl-devel-32bit-3.3.4-1.2",
        "RelatesToProductReference": "openSUSE Tumbleweed",
        "RelationType": "Default Component Of"
      },
      {
        "ProductReference": "libressl-devel-doc-3.3.4-1.2",
        "RelatesToProductReference": "openSUSE Tumbleweed",
        "RelationType": "Default Component Of"
      },
      {
        "ProductReference": "libssl48-3.3.4-1.2",
        "RelatesToProductReference": "openSUSE Tumbleweed",
        "RelationType": "Default Component Of"
      },
      {
        "ProductReference": "libssl48-32bit-3.3.4-1.2",
        "RelatesToProductReference": "openSUSE Tumbleweed",
        "RelationType": "Default Component Of"
      },
      {
        "ProductReference": "libtls20-3.3.4-1.2",
        "RelatesToProductReference": "openSUSE Tumbleweed",
        "RelationType": "Default Component Of"
      },
      {
        "ProductReference": "libtls20-32bit-3.3.4-1.2",
        "RelatesToProductReference": "openSUSE Tumbleweed",
        "RelationType": "Default Component Of"
      }
    ]
  },
  "References": [
    {
      "URL": "https://www.suse.com/support/security/rating/",
      "Description": "SUSE Security Ratings"
    },
    {
      "URL": "https://www.suse.com/security/cve/CVE-2018-12434/",
      "Description": "SUSE CVE CVE-2018-12434 page"
    },
    {
      "URL": "https://www.suse.com/security/cve/CVE-2018-8970/",
      "Description": "SUSE CVE CVE-2018-8970 page"
    }
  ],
  "Vulnerabilities": [
    {
      "CVE": "CVE-2018-12434",
      "Description": "LibreSSL before 2.6.5 and 2.7.x before 2.7.4 allows a memory-cache side-channel attack on DSA and ECDSA signatures, aka the Return Of the Hidden Number Problem or ROHNP. To discover a key, the attacker needs access to either the local machine or a different virtual machine on the same physical host.",
      "Threats": [
        {
          "Type": "Impact",
          "Severity": "moderate"
        }
      ],
      "References": [
        {
          "URL": "https://www.suse.com/security/cve/CVE-2018-12434.html",
          "Description": "CVE-2018-12434"
        },
        {
          "URL": "https://bugzilla.suse.com/1097779",
          "Description": "SUSE Bug 1097779"
        }
      ],
      "ProductStatuses": [
        {
          "Type": "Fixed",
          "ProductID": [
            "openSUSE Tumbleweed:libcrypto46-3.3.4-1.2",
            "openSUSE Tumbleweed:libcrypto46-32bit-3.3.4-1.2",
            "openSUSE Tumbleweed:libressl-3.3.4-1.2",
            "openSUSE Tumbleweed:libressl-devel-3.3.4-1.2",
            "openSUSE Tumbleweed:libressl-devel-32bit-3.3.4-1.2",
            "openSUSE Tumbleweed:libressl-devel-doc-3.3.4-1.2",
            "openSUSE Tumbleweed:libssl48-3.3.4-1.2",
            "openSUSE Tumbleweed:libssl48-32bit-3.3.4-1.2",
            "openSUSE Tumbleweed:libtls20-3.3.4-1.2",
            "openSUSE Tumbleweed:libtls20-32bit-3.3.4-1.2"
          ]
        }
      ],
      "CVSSScoreSets": {}
    },
    {
      "CVE": "CVE-2018-8970",
      "Description": "The int_x509_param_set_hosts function in lib/libcrypto/x509/x509_vpm.c in LibreSSL 2.7.0 before 2.7.1 does not support a certain special case of a zero name length, which causes silent omission of hostname verification, and consequently allows man-in-the-middle attackers to spoof servers and obtain sensitive information via a crafted certificate. NOTE: the LibreSSL documentation indicates that this special case is supported, but the BoringSSL documentation does not.",
      "Threats": [
        {
          "Type": "Impact",
          "Severity": "moderate"
        }
      ],
      "References": [
        {
          "URL": "https://www.suse.com/security/cve/CVE-2018-8970.html",
          "Description": "CVE-2018-8970"
        },
        {
          "URL": "https://bugzilla.suse.com/1086778",
          "Description": "SUSE Bug 1086778"
        }
      ],
      "ProductStatuses": [
        {
          "Type": "Fixed",
          "ProductID": [
            "openSUSE Tumbleweed:libcrypto46-3.3.4-1.2",
            "openSUSE Tumbleweed:libcrypto46-32bit-3.3.4-1.2",
            "openSUSE Tumbleweed:libressl-3.3.4-1.2",
            "openSUSE Tumbleweed:libressl-devel-3.3.4-1.2",
            "openSUSE Tumbleweed:libressl-devel-32bit-3.3.4-1.2",
            "openSUSE Tumbleweed:libressl-devel-doc-3.3.4-1.2",
            "openSUSE Tumbleweed:libssl48-3.3.4-1.2",
            "openSUSE Tumbleweed:libssl48-32bit-3.3.4-1.2",
            "openSUSE Tumbleweed:libtls20-3.3.4-1.2",
            "openSUSE Tumbleweed:libtls20-32bit-3.3.4-1.2"
          ]
        }
      ],
      "CVSSScoreSets": {}
    }
  ]
}