{
  "Title": "sblim-sfcb-1.4.9-13.6 on GA media",
  "Tracking": {
    "ID": "openSUSE-SU-2024:11368-1",
    "Status": "Final",
    "Version": "1",
    "InitialReleaseDate": "2024-06-22T21:44:56Z",
    "CurrentReleaseDate": "2024-06-22T21:44:56Z",
    "RevisionHistory": [
      {
        "Number": "1",
        "Date": "2024-06-22T21:44:56Z",
        "Description": "current"
      }
    ]
  },
  "Notes": [
    {
      "Text": "sblim-sfcb-1.4.9-13.6 on GA media",
      "Title": "Topic",
      "Type": "Summary"
    },
    {
      "Text": "These are all security issues fixed in the sblim-sfcb-1.4.9-13.6 package on the GA media of openSUSE Tumbleweed.",
      "Title": "Details",
      "Type": "General"
    },
    {
      "Text": "The CVRF data is provided by SUSE under the Creative Commons License 4.0 with Attribution (CC-BY-4.0).",
      "Title": "Terms of Use",
      "Type": "Legal Disclaimer"
    },
    {
      "Text": "openSUSE-Tumbleweed-2024-11368",
      "Title": "Patchnames",
      "Type": "Details"
    }
  ],
  "ProductTree": {
    "Relationships": [
      {
        "ProductReference": "sblim-sfcb-1.4.9-13.6",
        "RelatesToProductReference": "openSUSE Tumbleweed",
        "RelationType": "Default Component Of"
      }
    ]
  },
  "References": [
    {
      "URL": "https://www.suse.com/support/security/rating/",
      "Description": "SUSE Security Ratings"
    },
    {
      "URL": "https://www.suse.com/security/cve/CVE-2018-6644/",
      "Description": "SUSE CVE CVE-2018-6644 page"
    }
  ],
  "Vulnerabilities": [
    {
      "CVE": "CVE-2018-6644",
      "Description": "SBLIM Small Footprint CIM Broker (SFCB) 1.4.9 has a null pointer (DoS) vulnerability via a crafted POST request to the /cimom URI.",
      "Threats": [
        {
          "Type": "Impact",
          "Severity": "moderate"
        }
      ],
      "References": [
        {
          "URL": "https://www.suse.com/security/cve/CVE-2018-6644.html",
          "Description": "CVE-2018-6644"
        },
        {
          "URL": "https://bugzilla.suse.com/1079937",
          "Description": "SUSE Bug 1079937"
        }
      ],
      "ProductStatuses": [
        {
          "Type": "Fixed",
          "ProductID": [
            "openSUSE Tumbleweed:sblim-sfcb-1.4.9-13.6"
          ]
        }
      ],
      "CVSSScoreSets": {}
    }
  ]
}