{
  "Title": "gnome-shell-3.22.2-1.1 on GA media",
  "Tracking": {
    "ID": "openSUSE-SU-2024:10366-1",
    "Status": "Final",
    "Version": "1",
    "InitialReleaseDate": "2024-06-22T21:44:56Z",
    "CurrentReleaseDate": "2024-06-22T21:44:56Z",
    "RevisionHistory": [
      {
        "Number": "1",
        "Date": "2024-06-22T21:44:56Z",
        "Description": "current"
      }
    ]
  },
  "Notes": [
    {
      "Text": "gnome-shell-3.22.2-1.1 on GA media",
      "Title": "Topic",
      "Type": "Summary"
    },
    {
      "Text": "These are all security issues fixed in the gnome-shell-3.22.2-1.1 package on the GA media of openSUSE Tumbleweed.",
      "Title": "Details",
      "Type": "General"
    },
    {
      "Text": "The CVRF data is provided by SUSE under the Creative Commons License 4.0 with Attribution (CC-BY-4.0).",
      "Title": "Terms of Use",
      "Type": "Legal Disclaimer"
    },
    {
      "Text": "openSUSE-Tumbleweed-2024-10366",
      "Title": "Patchnames",
      "Type": "Details"
    }
  ],
  "ProductTree": {
    "Relationships": [
      {
        "ProductReference": "gnome-shell-3.22.2-1.1",
        "RelatesToProductReference": "openSUSE Tumbleweed",
        "RelationType": "Default Component Of"
      },
      {
        "ProductReference": "gnome-shell-browser-plugin-3.22.2-1.1",
        "RelatesToProductReference": "openSUSE Tumbleweed",
        "RelationType": "Default Component Of"
      },
      {
        "ProductReference": "gnome-shell-calendar-3.22.2-1.1",
        "RelatesToProductReference": "openSUSE Tumbleweed",
        "RelationType": "Default Component Of"
      },
      {
        "ProductReference": "gnome-shell-devel-3.22.2-1.1",
        "RelatesToProductReference": "openSUSE Tumbleweed",
        "RelationType": "Default Component Of"
      },
      {
        "ProductReference": "gnome-shell-lang-3.22.2-1.1",
        "RelatesToProductReference": "openSUSE Tumbleweed",
        "RelationType": "Default Component Of"
      }
    ]
  },
  "References": [
    {
      "URL": "https://www.suse.com/support/security/rating/",
      "Description": "SUSE Security Ratings"
    },
    {
      "URL": "https://www.suse.com/security/cve/CVE-2010-4000/",
      "Description": "SUSE CVE CVE-2010-4000 page"
    }
  ],
  "Vulnerabilities": [
    {
      "CVE": "CVE-2010-4000",
      "Description": "gnome-shell in GNOME Shell 2.31.5 places a zero-length directory name in the LD_LIBRARY_PATH, which allows local users to gain privileges via a Trojan horse shared library in the current working directory.",
      "Threats": [
        {
          "Type": "Impact",
          "Severity": "moderate"
        }
      ],
      "References": [
        {
          "URL": "https://www.suse.com/security/cve/CVE-2010-4000.html",
          "Description": "CVE-2010-4000"
        },
        {
          "URL": "https://bugzilla.suse.com/642827",
          "Description": "SUSE Bug 642827"
        }
      ],
      "ProductStatuses": [
        {
          "Type": "Fixed",
          "ProductID": [
            "openSUSE Tumbleweed:gnome-shell-3.22.2-1.1",
            "openSUSE Tumbleweed:gnome-shell-browser-plugin-3.22.2-1.1",
            "openSUSE Tumbleweed:gnome-shell-calendar-3.22.2-1.1",
            "openSUSE Tumbleweed:gnome-shell-devel-3.22.2-1.1",
            "openSUSE Tumbleweed:gnome-shell-lang-3.22.2-1.1"
          ]
        }
      ],
      "CVSSScoreSets": {}
    }
  ]
}