{
  "Title": "assimp-devel-5.3.1-2.1 on GA media",
  "Tracking": {
    "ID": "openSUSE-SU-2024:13291-1",
    "Status": "Final",
    "Version": "1",
    "InitialReleaseDate": "2024-06-20T21:44:22Z",
    "CurrentReleaseDate": "2024-06-20T21:44:22Z",
    "RevisionHistory": [
      {
        "Number": "1",
        "Date": "2024-06-20T21:44:22Z",
        "Description": "current"
      }
    ]
  },
  "Notes": [
    {
      "Text": "assimp-devel-5.3.1-2.1 on GA media",
      "Title": "Topic",
      "Type": "Summary"
    },
    {
      "Text": "These are all security issues fixed in the assimp-devel-5.3.1-2.1 package on the GA media of openSUSE Tumbleweed.",
      "Title": "Details",
      "Type": "General"
    },
    {
      "Text": "The CVRF data is provided by SUSE under the Creative Commons License 4.0 with Attribution (CC-BY-4.0).",
      "Title": "Terms of Use",
      "Type": "Legal Disclaimer"
    },
    {
      "Text": "openSUSE-Tumbleweed-2024-13291",
      "Title": "Patchnames",
      "Type": "Details"
    }
  ],
  "ProductTree": {
    "Relationships": [
      {
        "ProductReference": "assimp-devel-5.3.1-2.1",
        "RelatesToProductReference": "openSUSE Tumbleweed",
        "RelationType": "Default Component Of"
      },
      {
        "ProductReference": "libassimp5-5.3.1-2.1",
        "RelatesToProductReference": "openSUSE Tumbleweed",
        "RelationType": "Default Component Of"
      }
    ]
  },
  "References": [
    {
      "URL": "https://www.suse.com/support/security/rating/",
      "Description": "SUSE Security Ratings"
    },
    {
      "URL": "https://www.suse.com/security/cve/CVE-2022-45748/",
      "Description": "SUSE CVE CVE-2022-45748 page"
    }
  ],
  "Vulnerabilities": [
    {
      "CVE": "CVE-2022-45748",
      "Description": "An issue was discovered with assimp 5.1.4, a use after free occurred in function ColladaParser::ExtractDataObjectFromChannel in file /code/AssetLib/Collada/ColladaParser.cpp.",
      "Threats": [
        {
          "Type": "Impact",
          "Severity": "moderate"
        }
      ],
      "References": [
        {
          "URL": "https://www.suse.com/security/cve/CVE-2022-45748.html",
          "Description": "CVE-2022-45748"
        },
        {
          "URL": "https://bugzilla.suse.com/1207377",
          "Description": "SUSE Bug 1207377"
        }
      ],
      "ProductStatuses": [
        {
          "Type": "Fixed",
          "ProductID": [
            "openSUSE Tumbleweed:assimp-devel-5.3.1-2.1",
            "openSUSE Tumbleweed:libassimp5-5.3.1-2.1"
          ]
        }
      ],
      "CVSSScoreSets": {}
    }
  ]
}