{
  "Title": "colord-1.3.4-1.1 on GA media",
  "Tracking": {
    "ID": "openSUSE-SU-2024:10103-1",
    "Status": "Final",
    "Version": "1",
    "InitialReleaseDate": "2024-06-22T21:44:56Z",
    "CurrentReleaseDate": "2024-06-22T21:44:56Z",
    "RevisionHistory": [
      {
        "Number": "1",
        "Date": "2024-06-22T21:44:56Z",
        "Description": "current"
      }
    ]
  },
  "Notes": [
    {
      "Text": "colord-1.3.4-1.1 on GA media",
      "Title": "Topic",
      "Type": "Summary"
    },
    {
      "Text": "These are all security issues fixed in the colord-1.3.4-1.1 package on the GA media of openSUSE Tumbleweed.",
      "Title": "Details",
      "Type": "General"
    },
    {
      "Text": "The CVRF data is provided by SUSE under the Creative Commons License 4.0 with Attribution (CC-BY-4.0).",
      "Title": "Terms of Use",
      "Type": "Legal Disclaimer"
    },
    {
      "Text": "openSUSE-Tumbleweed-2024-10103",
      "Title": "Patchnames",
      "Type": "Details"
    }
  ],
  "ProductTree": {
    "Relationships": [
      {
        "ProductReference": "colord-1.3.4-1.1",
        "RelatesToProductReference": "openSUSE Tumbleweed",
        "RelationType": "Default Component Of"
      },
      {
        "ProductReference": "colord-gtk-0.1.26-2.4",
        "RelatesToProductReference": "openSUSE Tumbleweed",
        "RelationType": "Default Component Of"
      },
      {
        "ProductReference": "colord-gtk-lang-0.1.26-2.4",
        "RelatesToProductReference": "openSUSE Tumbleweed",
        "RelationType": "Default Component Of"
      },
      {
        "ProductReference": "colord-lang-1.3.4-1.1",
        "RelatesToProductReference": "openSUSE Tumbleweed",
        "RelationType": "Default Component Of"
      },
      {
        "ProductReference": "libcolord-devel-1.3.4-1.1",
        "RelatesToProductReference": "openSUSE Tumbleweed",
        "RelationType": "Default Component Of"
      },
      {
        "ProductReference": "libcolord-gtk-devel-0.1.26-2.4",
        "RelatesToProductReference": "openSUSE Tumbleweed",
        "RelationType": "Default Component Of"
      },
      {
        "ProductReference": "libcolord-gtk1-0.1.26-2.4",
        "RelatesToProductReference": "openSUSE Tumbleweed",
        "RelationType": "Default Component Of"
      },
      {
        "ProductReference": "libcolord-gtk1-32bit-0.1.26-2.4",
        "RelatesToProductReference": "openSUSE Tumbleweed",
        "RelationType": "Default Component Of"
      },
      {
        "ProductReference": "libcolord2-1.3.4-1.1",
        "RelatesToProductReference": "openSUSE Tumbleweed",
        "RelationType": "Default Component Of"
      },
      {
        "ProductReference": "libcolord2-32bit-1.3.4-1.1",
        "RelatesToProductReference": "openSUSE Tumbleweed",
        "RelationType": "Default Component Of"
      },
      {
        "ProductReference": "libcolorhug2-1.3.4-1.1",
        "RelatesToProductReference": "openSUSE Tumbleweed",
        "RelationType": "Default Component Of"
      },
      {
        "ProductReference": "typelib-1_0-ColorHug-1_0-1.3.4-1.1",
        "RelatesToProductReference": "openSUSE Tumbleweed",
        "RelationType": "Default Component Of"
      },
      {
        "ProductReference": "typelib-1_0-Colord-1_0-1.3.4-1.1",
        "RelatesToProductReference": "openSUSE Tumbleweed",
        "RelationType": "Default Component Of"
      },
      {
        "ProductReference": "typelib-1_0-ColordGtk-1_0-0.1.26-2.4",
        "RelatesToProductReference": "openSUSE Tumbleweed",
        "RelationType": "Default Component Of"
      }
    ]
  },
  "References": [
    {
      "URL": "https://www.suse.com/support/security/rating/",
      "Description": "SUSE Security Ratings"
    },
    {
      "URL": "https://www.suse.com/security/cve/CVE-2011-4349/",
      "Description": "SUSE CVE CVE-2011-4349 page"
    }
  ],
  "Vulnerabilities": [
    {
      "CVE": "CVE-2011-4349",
      "Description": "Multiple SQL injection vulnerabilities in (1) cd-mapping-db.c and (2) cd-device-db.c in colord before 0.1.15 allow local users to execute arbitrary SQL commands via vectors related to color devices and (a) device id, (b) property, or (c) profile id.",
      "Threats": [
        {
          "Type": "Impact",
          "Severity": "moderate"
        }
      ],
      "References": [
        {
          "URL": "https://www.suse.com/security/cve/CVE-2011-4349.html",
          "Description": "CVE-2011-4349"
        },
        {
          "URL": "https://bugzilla.suse.com/698250",
          "Description": "SUSE Bug 698250"
        },
        {
          "URL": "https://bugzilla.suse.com/732996",
          "Description": "SUSE Bug 732996"
        }
      ],
      "ProductStatuses": [
        {
          "Type": "Fixed",
          "ProductID": [
            "openSUSE Tumbleweed:colord-1.3.4-1.1",
            "openSUSE Tumbleweed:colord-gtk-0.1.26-2.4",
            "openSUSE Tumbleweed:colord-gtk-lang-0.1.26-2.4",
            "openSUSE Tumbleweed:colord-lang-1.3.4-1.1",
            "openSUSE Tumbleweed:libcolord-devel-1.3.4-1.1",
            "openSUSE Tumbleweed:libcolord-gtk-devel-0.1.26-2.4",
            "openSUSE Tumbleweed:libcolord-gtk1-0.1.26-2.4",
            "openSUSE Tumbleweed:libcolord-gtk1-32bit-0.1.26-2.4",
            "openSUSE Tumbleweed:libcolord2-1.3.4-1.1",
            "openSUSE Tumbleweed:libcolord2-32bit-1.3.4-1.1",
            "openSUSE Tumbleweed:libcolorhug2-1.3.4-1.1",
            "openSUSE Tumbleweed:typelib-1_0-ColorHug-1_0-1.3.4-1.1",
            "openSUSE Tumbleweed:typelib-1_0-Colord-1_0-1.3.4-1.1",
            "openSUSE Tumbleweed:typelib-1_0-ColordGtk-1_0-0.1.26-2.4"
          ]
        }
      ],
      "CVSSScoreSets": {}
    }
  ]
}