{
  "Title": "chromedriver-120.0.6099.224-1.1 on GA media",
  "Tracking": {
    "ID": "openSUSE-SU-2024:13591-1",
    "Status": "Final",
    "Version": "1",
    "InitialReleaseDate": "2024-06-20T21:44:22Z",
    "CurrentReleaseDate": "2024-06-20T21:44:22Z",
    "RevisionHistory": [
      {
        "Number": "1",
        "Date": "2024-06-20T21:44:22Z",
        "Description": "current"
      }
    ]
  },
  "Notes": [
    {
      "Text": "chromedriver-120.0.6099.224-1.1 on GA media",
      "Title": "Topic",
      "Type": "Summary"
    },
    {
      "Text": "These are all security issues fixed in the chromedriver-120.0.6099.224-1.1 package on the GA media of openSUSE Tumbleweed.",
      "Title": "Details",
      "Type": "General"
    },
    {
      "Text": "The CVRF data is provided by SUSE under the Creative Commons License 4.0 with Attribution (CC-BY-4.0).",
      "Title": "Terms of Use",
      "Type": "Legal Disclaimer"
    },
    {
      "Text": "openSUSE-Tumbleweed-2024-13591",
      "Title": "Patchnames",
      "Type": "Details"
    }
  ],
  "ProductTree": {
    "Relationships": [
      {
        "ProductReference": "chromedriver-120.0.6099.224-1.1",
        "RelatesToProductReference": "openSUSE Tumbleweed",
        "RelationType": "Default Component Of"
      },
      {
        "ProductReference": "chromium-120.0.6099.224-1.1",
        "RelatesToProductReference": "openSUSE Tumbleweed",
        "RelationType": "Default Component Of"
      }
    ]
  },
  "References": [
    {
      "URL": "https://www.suse.com/support/security/rating/",
      "Description": "SUSE Security Ratings"
    },
    {
      "URL": "https://www.suse.com/security/cve/CVE-2024-0517/",
      "Description": "SUSE CVE CVE-2024-0517 page"
    },
    {
      "URL": "https://www.suse.com/security/cve/CVE-2024-0518/",
      "Description": "SUSE CVE CVE-2024-0518 page"
    },
    {
      "URL": "https://www.suse.com/security/cve/CVE-2024-0519/",
      "Description": "SUSE CVE CVE-2024-0519 page"
    }
  ],
  "Vulnerabilities": [
    {
      "CVE": "CVE-2024-0517",
      "Description": "Out of bounds write in V8 in Google Chrome prior to 120.0.6099.224 allowed a remote attacker to potentially exploit heap corruption via a crafted HTML page. (Chromium security severity: High)",
      "Threats": [
        {
          "Type": "Impact",
          "Severity": "moderate"
        }
      ],
      "References": [
        {
          "URL": "https://www.suse.com/security/cve/CVE-2024-0517.html",
          "Description": "CVE-2024-0517"
        },
        {
          "URL": "https://bugzilla.suse.com/1218891",
          "Description": "SUSE Bug 1218891"
        }
      ],
      "ProductStatuses": [
        {
          "Type": "Fixed",
          "ProductID": [
            "openSUSE Tumbleweed:chromedriver-120.0.6099.224-1.1",
            "openSUSE Tumbleweed:chromium-120.0.6099.224-1.1"
          ]
        }
      ],
      "CVSSScoreSets": {}
    },
    {
      "CVE": "CVE-2024-0518",
      "Description": "Type confusion in V8 in Google Chrome prior to 120.0.6099.224 allowed a remote attacker to potentially exploit heap corruption via a crafted HTML page. (Chromium security severity: High)",
      "Threats": [
        {
          "Type": "Impact",
          "Severity": "moderate"
        }
      ],
      "References": [
        {
          "URL": "https://www.suse.com/security/cve/CVE-2024-0518.html",
          "Description": "CVE-2024-0518"
        },
        {
          "URL": "https://bugzilla.suse.com/1218891",
          "Description": "SUSE Bug 1218891"
        }
      ],
      "ProductStatuses": [
        {
          "Type": "Fixed",
          "ProductID": [
            "openSUSE Tumbleweed:chromedriver-120.0.6099.224-1.1",
            "openSUSE Tumbleweed:chromium-120.0.6099.224-1.1"
          ]
        }
      ],
      "CVSSScoreSets": {}
    },
    {
      "CVE": "CVE-2024-0519",
      "Description": "Out of bounds memory access in V8 in Google Chrome prior to 120.0.6099.224 allowed a remote attacker to potentially exploit heap corruption via a crafted HTML page. (Chromium security severity: High)",
      "Threats": [
        {
          "Type": "Impact",
          "Severity": "moderate"
        }
      ],
      "References": [
        {
          "URL": "https://www.suse.com/security/cve/CVE-2024-0519.html",
          "Description": "CVE-2024-0519"
        },
        {
          "URL": "https://bugzilla.suse.com/1218891",
          "Description": "SUSE Bug 1218891"
        }
      ],
      "ProductStatuses": [
        {
          "Type": "Fixed",
          "ProductID": [
            "openSUSE Tumbleweed:chromedriver-120.0.6099.224-1.1",
            "openSUSE Tumbleweed:chromium-120.0.6099.224-1.1"
          ]
        }
      ],
      "CVSSScoreSets": {}
    }
  ]
}