{
  "Title": "postgresql11-11.17-1.1 on GA media",
  "Tracking": {
    "ID": "openSUSE-SU-2024:12265-1",
    "Status": "Final",
    "Version": "1",
    "InitialReleaseDate": "2024-06-20T21:44:22Z",
    "CurrentReleaseDate": "2024-06-20T21:44:22Z",
    "RevisionHistory": [
      {
        "Number": "1",
        "Date": "2024-06-20T21:44:22Z",
        "Description": "current"
      }
    ]
  },
  "Notes": [
    {
      "Text": "postgresql11-11.17-1.1 on GA media",
      "Title": "Topic",
      "Type": "Summary"
    },
    {
      "Text": "These are all security issues fixed in the postgresql11-11.17-1.1 package on the GA media of openSUSE Tumbleweed.",
      "Title": "Details",
      "Type": "General"
    },
    {
      "Text": "The CVRF data is provided by SUSE under the Creative Commons License 4.0 with Attribution (CC-BY-4.0).",
      "Title": "Terms of Use",
      "Type": "Legal Disclaimer"
    },
    {
      "Text": "openSUSE-Tumbleweed-2024-12265",
      "Title": "Patchnames",
      "Type": "Details"
    }
  ],
  "ProductTree": {
    "Relationships": [
      {
        "ProductReference": "postgresql11-11.17-1.1",
        "RelatesToProductReference": "openSUSE Tumbleweed",
        "RelationType": "Default Component Of"
      },
      {
        "ProductReference": "postgresql11-contrib-11.17-1.1",
        "RelatesToProductReference": "openSUSE Tumbleweed",
        "RelationType": "Default Component Of"
      },
      {
        "ProductReference": "postgresql11-devel-11.17-1.1",
        "RelatesToProductReference": "openSUSE Tumbleweed",
        "RelationType": "Default Component Of"
      },
      {
        "ProductReference": "postgresql11-docs-11.17-1.1",
        "RelatesToProductReference": "openSUSE Tumbleweed",
        "RelationType": "Default Component Of"
      },
      {
        "ProductReference": "postgresql11-llvmjit-11.17-1.1",
        "RelatesToProductReference": "openSUSE Tumbleweed",
        "RelationType": "Default Component Of"
      },
      {
        "ProductReference": "postgresql11-llvmjit-devel-11.17-1.1",
        "RelatesToProductReference": "openSUSE Tumbleweed",
        "RelationType": "Default Component Of"
      },
      {
        "ProductReference": "postgresql11-plperl-11.17-1.1",
        "RelatesToProductReference": "openSUSE Tumbleweed",
        "RelationType": "Default Component Of"
      },
      {
        "ProductReference": "postgresql11-plpython-11.17-1.1",
        "RelatesToProductReference": "openSUSE Tumbleweed",
        "RelationType": "Default Component Of"
      },
      {
        "ProductReference": "postgresql11-pltcl-11.17-1.1",
        "RelatesToProductReference": "openSUSE Tumbleweed",
        "RelationType": "Default Component Of"
      },
      {
        "ProductReference": "postgresql11-server-11.17-1.1",
        "RelatesToProductReference": "openSUSE Tumbleweed",
        "RelationType": "Default Component Of"
      },
      {
        "ProductReference": "postgresql11-server-devel-11.17-1.1",
        "RelatesToProductReference": "openSUSE Tumbleweed",
        "RelationType": "Default Component Of"
      },
      {
        "ProductReference": "postgresql11-test-11.17-1.1",
        "RelatesToProductReference": "openSUSE Tumbleweed",
        "RelationType": "Default Component Of"
      }
    ]
  },
  "References": [
    {
      "URL": "https://www.suse.com/support/security/rating/",
      "Description": "SUSE Security Ratings"
    },
    {
      "URL": "https://www.suse.com/security/cve/CVE-2022-2625/",
      "Description": "SUSE CVE CVE-2022-2625 page"
    }
  ],
  "Vulnerabilities": [
    {
      "CVE": "CVE-2022-2625",
      "Description": "A vulnerability was found in PostgreSQL. This attack requires permission to create non-temporary objects in at least one schema, the ability to lure or wait for an administrator to create or update an affected extension in that schema, and the ability to lure or wait for a victim to use the object targeted in CREATE OR REPLACE or CREATE IF NOT EXISTS. Given all three prerequisites, this flaw allows an attacker to run arbitrary code as the victim role, which may be a superuser.",
      "Threats": [
        {
          "Type": "Impact",
          "Severity": "important"
        }
      ],
      "References": [
        {
          "URL": "https://www.suse.com/security/cve/CVE-2022-2625.html",
          "Description": "CVE-2022-2625"
        },
        {
          "URL": "https://bugzilla.suse.com/1202368",
          "Description": "SUSE Bug 1202368"
        }
      ],
      "ProductStatuses": [
        {
          "Type": "Fixed",
          "ProductID": [
            "openSUSE Tumbleweed:postgresql11-11.17-1.1",
            "openSUSE Tumbleweed:postgresql11-contrib-11.17-1.1",
            "openSUSE Tumbleweed:postgresql11-devel-11.17-1.1",
            "openSUSE Tumbleweed:postgresql11-docs-11.17-1.1",
            "openSUSE Tumbleweed:postgresql11-llvmjit-11.17-1.1",
            "openSUSE Tumbleweed:postgresql11-llvmjit-devel-11.17-1.1",
            "openSUSE Tumbleweed:postgresql11-plperl-11.17-1.1",
            "openSUSE Tumbleweed:postgresql11-plpython-11.17-1.1",
            "openSUSE Tumbleweed:postgresql11-pltcl-11.17-1.1",
            "openSUSE Tumbleweed:postgresql11-server-11.17-1.1",
            "openSUSE Tumbleweed:postgresql11-server-devel-11.17-1.1",
            "openSUSE Tumbleweed:postgresql11-test-11.17-1.1"
          ]
        }
      ],
      "CVSSScoreSets": {}
    }
  ]
}