{
  "Title": "kubernetes1.28-apiserver-1.28.8-1.1 on GA media",
  "Tracking": {
    "ID": "openSUSE-SU-2024:13840-1",
    "Status": "Final",
    "Version": "1",
    "InitialReleaseDate": "2024-06-20T21:44:22Z",
    "CurrentReleaseDate": "2024-06-20T21:44:22Z",
    "RevisionHistory": [
      {
        "Number": "1",
        "Date": "2024-06-20T21:44:22Z",
        "Description": "current"
      }
    ]
  },
  "Notes": [
    {
      "Text": "kubernetes1.28-apiserver-1.28.8-1.1 on GA media",
      "Title": "Topic",
      "Type": "Summary"
    },
    {
      "Text": "These are all security issues fixed in the kubernetes1.28-apiserver-1.28.8-1.1 package on the GA media of openSUSE Tumbleweed.",
      "Title": "Details",
      "Type": "General"
    },
    {
      "Text": "The CVRF data is provided by SUSE under the Creative Commons License 4.0 with Attribution (CC-BY-4.0).",
      "Title": "Terms of Use",
      "Type": "Legal Disclaimer"
    },
    {
      "Text": "openSUSE-Tumbleweed-2024-13840",
      "Title": "Patchnames",
      "Type": "Details"
    }
  ],
  "ProductTree": {
    "Relationships": [
      {
        "ProductReference": "kubernetes1.28-apiserver-1.28.8-1.1",
        "RelatesToProductReference": "openSUSE Tumbleweed",
        "RelationType": "Default Component Of"
      },
      {
        "ProductReference": "kubernetes1.28-client-1.28.8-1.1",
        "RelatesToProductReference": "openSUSE Tumbleweed",
        "RelationType": "Default Component Of"
      },
      {
        "ProductReference": "kubernetes1.28-client-bash-completion-1.28.8-1.1",
        "RelatesToProductReference": "openSUSE Tumbleweed",
        "RelationType": "Default Component Of"
      },
      {
        "ProductReference": "kubernetes1.28-client-common-1.28.8-1.1",
        "RelatesToProductReference": "openSUSE Tumbleweed",
        "RelationType": "Default Component Of"
      },
      {
        "ProductReference": "kubernetes1.28-client-fish-completion-1.28.8-1.1",
        "RelatesToProductReference": "openSUSE Tumbleweed",
        "RelationType": "Default Component Of"
      },
      {
        "ProductReference": "kubernetes1.28-controller-manager-1.28.8-1.1",
        "RelatesToProductReference": "openSUSE Tumbleweed",
        "RelationType": "Default Component Of"
      },
      {
        "ProductReference": "kubernetes1.28-kubeadm-1.28.8-1.1",
        "RelatesToProductReference": "openSUSE Tumbleweed",
        "RelationType": "Default Component Of"
      },
      {
        "ProductReference": "kubernetes1.28-kubelet-1.28.8-1.1",
        "RelatesToProductReference": "openSUSE Tumbleweed",
        "RelationType": "Default Component Of"
      },
      {
        "ProductReference": "kubernetes1.28-kubelet-common-1.28.8-1.1",
        "RelatesToProductReference": "openSUSE Tumbleweed",
        "RelationType": "Default Component Of"
      },
      {
        "ProductReference": "kubernetes1.28-proxy-1.28.8-1.1",
        "RelatesToProductReference": "openSUSE Tumbleweed",
        "RelationType": "Default Component Of"
      },
      {
        "ProductReference": "kubernetes1.28-scheduler-1.28.8-1.1",
        "RelatesToProductReference": "openSUSE Tumbleweed",
        "RelationType": "Default Component Of"
      }
    ]
  },
  "References": [
    {
      "URL": "https://www.suse.com/support/security/rating/",
      "Description": "SUSE Security Ratings"
    },
    {
      "URL": "https://www.suse.com/security/cve/CVE-2024-24786/",
      "Description": "SUSE CVE CVE-2024-24786 page"
    }
  ],
  "Vulnerabilities": [
    {
      "CVE": "CVE-2024-24786",
      "Description": "The protojson.Unmarshal function can enter an infinite loop when unmarshaling certain forms of invalid JSON. This condition can occur when unmarshaling into a message which contains a google.protobuf.Any value, or when the UnmarshalOptions.DiscardUnknown option is set.",
      "Threats": [
        {
          "Type": "Impact",
          "Severity": "important"
        }
      ],
      "References": [
        {
          "URL": "https://www.suse.com/security/cve/CVE-2024-24786.html",
          "Description": "CVE-2024-24786"
        },
        {
          "URL": "https://bugzilla.suse.com/1226136",
          "Description": "SUSE Bug 1226136"
        }
      ],
      "ProductStatuses": [
        {
          "Type": "Fixed",
          "ProductID": [
            "openSUSE Tumbleweed:kubernetes1.28-apiserver-1.28.8-1.1",
            "openSUSE Tumbleweed:kubernetes1.28-client-1.28.8-1.1",
            "openSUSE Tumbleweed:kubernetes1.28-client-bash-completion-1.28.8-1.1",
            "openSUSE Tumbleweed:kubernetes1.28-client-common-1.28.8-1.1",
            "openSUSE Tumbleweed:kubernetes1.28-client-fish-completion-1.28.8-1.1",
            "openSUSE Tumbleweed:kubernetes1.28-controller-manager-1.28.8-1.1",
            "openSUSE Tumbleweed:kubernetes1.28-kubeadm-1.28.8-1.1",
            "openSUSE Tumbleweed:kubernetes1.28-kubelet-1.28.8-1.1",
            "openSUSE Tumbleweed:kubernetes1.28-kubelet-common-1.28.8-1.1",
            "openSUSE Tumbleweed:kubernetes1.28-proxy-1.28.8-1.1",
            "openSUSE Tumbleweed:kubernetes1.28-scheduler-1.28.8-1.1"
          ]
        }
      ],
      "CVSSScoreSets": {}
    }
  ]
}