{
  "Title": "helm-3.9.4-2.1 on GA media",
  "Tracking": {
    "ID": "openSUSE-SU-2024:12323-1",
    "Status": "Final",
    "Version": "1",
    "InitialReleaseDate": "2024-06-20T21:44:22Z",
    "CurrentReleaseDate": "2024-06-20T21:44:22Z",
    "RevisionHistory": [
      {
        "Number": "1",
        "Date": "2024-06-20T21:44:22Z",
        "Description": "current"
      }
    ]
  },
  "Notes": [
    {
      "Text": "helm-3.9.4-2.1 on GA media",
      "Title": "Topic",
      "Type": "Summary"
    },
    {
      "Text": "These are all security issues fixed in the helm-3.9.4-2.1 package on the GA media of openSUSE Tumbleweed.",
      "Title": "Details",
      "Type": "General"
    },
    {
      "Text": "The CVRF data is provided by SUSE under the Creative Commons License 4.0 with Attribution (CC-BY-4.0).",
      "Title": "Terms of Use",
      "Type": "Legal Disclaimer"
    },
    {
      "Text": "openSUSE-Tumbleweed-2024-12323",
      "Title": "Patchnames",
      "Type": "Details"
    }
  ],
  "ProductTree": {
    "Relationships": [
      {
        "ProductReference": "helm-3.9.4-2.1",
        "RelatesToProductReference": "openSUSE Tumbleweed",
        "RelationType": "Default Component Of"
      },
      {
        "ProductReference": "helm-bash-completion-3.9.4-2.1",
        "RelatesToProductReference": "openSUSE Tumbleweed",
        "RelationType": "Default Component Of"
      },
      {
        "ProductReference": "helm-fish-completion-3.9.4-2.1",
        "RelatesToProductReference": "openSUSE Tumbleweed",
        "RelationType": "Default Component Of"
      },
      {
        "ProductReference": "helm-zsh-completion-3.9.4-2.1",
        "RelatesToProductReference": "openSUSE Tumbleweed",
        "RelationType": "Default Component Of"
      }
    ]
  },
  "References": [
    {
      "URL": "https://www.suse.com/support/security/rating/",
      "Description": "SUSE Security Ratings"
    },
    {
      "URL": "https://www.suse.com/security/cve/CVE-2022-36055/",
      "Description": "SUSE CVE CVE-2022-36055 page"
    }
  ],
  "Vulnerabilities": [
    {
      "CVE": "CVE-2022-36055",
      "Description": "Helm is a tool for managing Charts. Charts are packages of pre-configured Kubernetes resources. Fuzz testing, provided by the CNCF, identified input to functions in the _strvals_ package that can cause an out of memory panic. The _strvals_ package contains a parser that turns strings in to Go structures. The _strvals_ package converts these strings into structures Go can work with. Some string inputs can cause array data structures to be created causing an out of memory panic. Applications that use the _strvals_ package in the Helm SDK to parse user supplied input can suffer a Denial of Service when that input causes a panic that cannot be recovered from. The Helm Client will panic with input to `--set`, `--set-string`, and other value setting flags that causes an out of memory panic. Helm is not a long running service so the panic will not affect future uses of the Helm client. This issue has been resolved in 3.9.4. SDK users can validate strings supplied by users won't create large arrays causing significant memory usage before passing them to the _strvals_ functions.",
      "Threats": [
        {
          "Type": "Impact",
          "Severity": "moderate"
        }
      ],
      "References": [
        {
          "URL": "https://www.suse.com/security/cve/CVE-2022-36055.html",
          "Description": "CVE-2022-36055"
        },
        {
          "URL": "https://bugzilla.suse.com/1203054",
          "Description": "SUSE Bug 1203054"
        }
      ],
      "ProductStatuses": [
        {
          "Type": "Fixed",
          "ProductID": [
            "openSUSE Tumbleweed:helm-3.9.4-2.1",
            "openSUSE Tumbleweed:helm-bash-completion-3.9.4-2.1",
            "openSUSE Tumbleweed:helm-fish-completion-3.9.4-2.1",
            "openSUSE Tumbleweed:helm-zsh-completion-3.9.4-2.1"
          ]
        }
      ],
      "CVSSScoreSets": {}
    }
  ]
}