{
  "Title": "kvirc-5.0.0-4.3 on GA media",
  "Tracking": {
    "ID": "openSUSE-SU-2024:10906-1",
    "Status": "Final",
    "Version": "1",
    "InitialReleaseDate": "2024-06-22T21:44:56Z",
    "CurrentReleaseDate": "2024-06-22T21:44:56Z",
    "RevisionHistory": [
      {
        "Number": "1",
        "Date": "2024-06-22T21:44:56Z",
        "Description": "current"
      }
    ]
  },
  "Notes": [
    {
      "Text": "kvirc-5.0.0-4.3 on GA media",
      "Title": "Topic",
      "Type": "Summary"
    },
    {
      "Text": "These are all security issues fixed in the kvirc-5.0.0-4.3 package on the GA media of openSUSE Tumbleweed.",
      "Title": "Details",
      "Type": "General"
    },
    {
      "Text": "The CVRF data is provided by SUSE under the Creative Commons License 4.0 with Attribution (CC-BY-4.0).",
      "Title": "Terms of Use",
      "Type": "Legal Disclaimer"
    },
    {
      "Text": "openSUSE-Tumbleweed-2024-10906",
      "Title": "Patchnames",
      "Type": "Details"
    }
  ],
  "ProductTree": {
    "Relationships": [
      {
        "ProductReference": "kvirc-5.0.0-4.3",
        "RelatesToProductReference": "openSUSE Tumbleweed",
        "RelationType": "Default Component Of"
      }
    ]
  },
  "References": [
    {
      "URL": "https://www.suse.com/support/security/rating/",
      "Description": "SUSE Security Ratings"
    },
    {
      "URL": "https://www.suse.com/security/cve/CVE-2008-4748/",
      "Description": "SUSE CVE CVE-2008-4748 page"
    }
  ],
  "Vulnerabilities": [
    {
      "CVE": "CVE-2008-4748",
      "Description": "Format string vulnerability in the URI handler in KVirc 3.4.0, when set as the default application for processing IRC URIs, allows remote attackers to cause a denial of service (application crash) and possibly execute arbitrary code via format string specifiers in the irc:// URI.",
      "Threats": [
        {
          "Type": "Impact",
          "Severity": "moderate"
        }
      ],
      "References": [
        {
          "URL": "https://www.suse.com/security/cve/CVE-2008-4748.html",
          "Description": "CVE-2008-4748"
        },
        {
          "URL": "https://bugzilla.suse.com/439819",
          "Description": "SUSE Bug 439819"
        }
      ],
      "ProductStatuses": [
        {
          "Type": "Fixed",
          "ProductID": [
            "openSUSE Tumbleweed:kvirc-5.0.0-4.3"
          ]
        }
      ],
      "CVSSScoreSets": {}
    }
  ]
}