{
  "Title": "libopenssl-3-devel-3.0.8-1.1 on GA media",
  "Tracking": {
    "ID": "openSUSE-SU-2024:12716-1",
    "Status": "Final",
    "Version": "1",
    "InitialReleaseDate": "2024-06-20T21:44:22Z",
    "CurrentReleaseDate": "2024-06-20T21:44:22Z",
    "RevisionHistory": [
      {
        "Number": "1",
        "Date": "2024-06-20T21:44:22Z",
        "Description": "current"
      }
    ]
  },
  "Notes": [
    {
      "Text": "libopenssl-3-devel-3.0.8-1.1 on GA media",
      "Title": "Topic",
      "Type": "Summary"
    },
    {
      "Text": "These are all security issues fixed in the libopenssl-3-devel-3.0.8-1.1 package on the GA media of openSUSE Tumbleweed.",
      "Title": "Details",
      "Type": "General"
    },
    {
      "Text": "The CVRF data is provided by SUSE under the Creative Commons License 4.0 with Attribution (CC-BY-4.0).",
      "Title": "Terms of Use",
      "Type": "Legal Disclaimer"
    },
    {
      "Text": "openSUSE-Tumbleweed-2024-12716",
      "Title": "Patchnames",
      "Type": "Details"
    }
  ],
  "ProductTree": {
    "Relationships": [
      {
        "ProductReference": "libopenssl-3-devel-3.0.8-1.1",
        "RelatesToProductReference": "openSUSE Tumbleweed",
        "RelationType": "Default Component Of"
      },
      {
        "ProductReference": "libopenssl-3-devel-32bit-3.0.8-1.1",
        "RelatesToProductReference": "openSUSE Tumbleweed",
        "RelationType": "Default Component Of"
      },
      {
        "ProductReference": "libopenssl3-3.0.8-1.1",
        "RelatesToProductReference": "openSUSE Tumbleweed",
        "RelationType": "Default Component Of"
      },
      {
        "ProductReference": "libopenssl3-32bit-3.0.8-1.1",
        "RelatesToProductReference": "openSUSE Tumbleweed",
        "RelationType": "Default Component Of"
      },
      {
        "ProductReference": "libopenssl3-hmac-3.0.8-1.1",
        "RelatesToProductReference": "openSUSE Tumbleweed",
        "RelationType": "Default Component Of"
      },
      {
        "ProductReference": "libopenssl3-hmac-32bit-3.0.8-1.1",
        "RelatesToProductReference": "openSUSE Tumbleweed",
        "RelationType": "Default Component Of"
      },
      {
        "ProductReference": "openssl-3-3.0.8-1.1",
        "RelatesToProductReference": "openSUSE Tumbleweed",
        "RelationType": "Default Component Of"
      },
      {
        "ProductReference": "openssl-3-doc-3.0.8-1.1",
        "RelatesToProductReference": "openSUSE Tumbleweed",
        "RelationType": "Default Component Of"
      }
    ]
  },
  "References": [
    {
      "URL": "https://www.suse.com/support/security/rating/",
      "Description": "SUSE Security Ratings"
    },
    {
      "URL": "https://www.suse.com/security/cve/CVE-2022-4203/",
      "Description": "SUSE CVE CVE-2022-4203 page"
    },
    {
      "URL": "https://www.suse.com/security/cve/CVE-2022-4304/",
      "Description": "SUSE CVE CVE-2022-4304 page"
    },
    {
      "URL": "https://www.suse.com/security/cve/CVE-2022-4450/",
      "Description": "SUSE CVE CVE-2022-4450 page"
    },
    {
      "URL": "https://www.suse.com/security/cve/CVE-2023-0215/",
      "Description": "SUSE CVE CVE-2023-0215 page"
    },
    {
      "URL": "https://www.suse.com/security/cve/CVE-2023-0216/",
      "Description": "SUSE CVE CVE-2023-0216 page"
    },
    {
      "URL": "https://www.suse.com/security/cve/CVE-2023-0217/",
      "Description": "SUSE CVE CVE-2023-0217 page"
    },
    {
      "URL": "https://www.suse.com/security/cve/CVE-2023-0286/",
      "Description": "SUSE CVE CVE-2023-0286 page"
    },
    {
      "URL": "https://www.suse.com/security/cve/CVE-2023-0401/",
      "Description": "SUSE CVE CVE-2023-0401 page"
    }
  ],
  "Vulnerabilities": [
    {
      "CVE": "CVE-2022-4203",
      "Description": "A read buffer overrun can be triggered in X.509 certificate verification,\nspecifically in name constraint checking. Note that this occurs\nafter certificate chain signature verification and requires either a\nCA to have signed the malicious certificate or for the application to\ncontinue certificate verification despite failure to construct a path\nto a trusted issuer.\n\nThe read buffer overrun might result in a crash which could lead to\na denial of service attack. In theory it could also result in the disclosure\nof private memory contents (such as private keys, or sensitive plaintext)\nalthough we are not aware of any working exploit leading to memory\ncontents disclosure as of the time of release of this advisory.\n\nIn a TLS client, this can be triggered by connecting to a malicious\nserver. In a TLS server, this can be triggered if the server requests\nclient authentication and a malicious client connects.\n\n",
      "Threats": [
        {
          "Type": "Impact",
          "Severity": "moderate"
        }
      ],
      "References": [
        {
          "URL": "https://www.suse.com/security/cve/CVE-2022-4203.html",
          "Description": "CVE-2022-4203"
        },
        {
          "URL": "https://bugzilla.suse.com/1207535",
          "Description": "SUSE Bug 1207535"
        }
      ],
      "ProductStatuses": [
        {
          "Type": "Fixed",
          "ProductID": [
            "openSUSE Tumbleweed:libopenssl-3-devel-3.0.8-1.1",
            "openSUSE Tumbleweed:libopenssl-3-devel-32bit-3.0.8-1.1",
            "openSUSE Tumbleweed:libopenssl3-3.0.8-1.1",
            "openSUSE Tumbleweed:libopenssl3-32bit-3.0.8-1.1",
            "openSUSE Tumbleweed:libopenssl3-hmac-3.0.8-1.1",
            "openSUSE Tumbleweed:libopenssl3-hmac-32bit-3.0.8-1.1",
            "openSUSE Tumbleweed:openssl-3-3.0.8-1.1",
            "openSUSE Tumbleweed:openssl-3-doc-3.0.8-1.1"
          ]
        }
      ],
      "CVSSScoreSets": {}
    },
    {
      "CVE": "CVE-2022-4304",
      "Description": "A timing based side channel exists in the OpenSSL RSA Decryption implementation\nwhich could be sufficient to recover a plaintext across a network in a\nBleichenbacher style attack. To achieve a successful decryption an attacker\nwould have to be able to send a very large number of trial messages for\ndecryption. The vulnerability affects all RSA padding modes: PKCS#1 v1.5,\nRSA-OEAP and RSASVE.\n\nFor example, in a TLS connection, RSA is commonly used by a client to send an\nencrypted pre-master secret to the server. An attacker that had observed a\ngenuine connection between a client and a server could use this flaw to send\ntrial messages to the server and record the time taken to process them. After a\nsufficiently large number of messages the attacker could recover the pre-master\nsecret used for the original connection and thus be able to decrypt the\napplication data sent over that connection.\n\n",
      "Threats": [
        {
          "Type": "Impact",
          "Severity": "moderate"
        }
      ],
      "References": [
        {
          "URL": "https://www.suse.com/security/cve/CVE-2022-4304.html",
          "Description": "CVE-2022-4304"
        },
        {
          "URL": "https://bugzilla.suse.com/1207534",
          "Description": "SUSE Bug 1207534"
        },
        {
          "URL": "https://bugzilla.suse.com/1210067",
          "Description": "SUSE Bug 1210067"
        },
        {
          "URL": "https://bugzilla.suse.com/1213146",
          "Description": "SUSE Bug 1213146"
        },
        {
          "URL": "https://bugzilla.suse.com/1213289",
          "Description": "SUSE Bug 1213289"
        },
        {
          "URL": "https://bugzilla.suse.com/1215014",
          "Description": "SUSE Bug 1215014"
        }
      ],
      "ProductStatuses": [
        {
          "Type": "Fixed",
          "ProductID": [
            "openSUSE Tumbleweed:libopenssl-3-devel-3.0.8-1.1",
            "openSUSE Tumbleweed:libopenssl-3-devel-32bit-3.0.8-1.1",
            "openSUSE Tumbleweed:libopenssl3-3.0.8-1.1",
            "openSUSE Tumbleweed:libopenssl3-32bit-3.0.8-1.1",
            "openSUSE Tumbleweed:libopenssl3-hmac-3.0.8-1.1",
            "openSUSE Tumbleweed:libopenssl3-hmac-32bit-3.0.8-1.1",
            "openSUSE Tumbleweed:openssl-3-3.0.8-1.1",
            "openSUSE Tumbleweed:openssl-3-doc-3.0.8-1.1"
          ]
        }
      ],
      "CVSSScoreSets": {}
    },
    {
      "CVE": "CVE-2022-4450",
      "Description": "The function PEM_read_bio_ex() reads a PEM file from a BIO and parses and\ndecodes the \"name\" (e.g. \"CERTIFICATE\"), any header data and the payload data.\nIf the function succeeds then the \"name_out\", \"header\" and \"data\" arguments are\npopulated with pointers to buffers containing the relevant decoded data. The\ncaller is responsible for freeing those buffers. It is possible to construct a\nPEM file that results in 0 bytes of payload data. In this case PEM_read_bio_ex()\nwill return a failure code but will populate the header argument with a pointer\nto a buffer that has already been freed. If the caller also frees this buffer\nthen a double free will occur. This will most likely lead to a crash. This\ncould be exploited by an attacker who has the ability to supply malicious PEM\nfiles for parsing to achieve a denial of service attack.\n\nThe functions PEM_read_bio() and PEM_read() are simple wrappers around\nPEM_read_bio_ex() and therefore these functions are also directly affected.\n\nThese functions are also called indirectly by a number of other OpenSSL\nfunctions including PEM_X509_INFO_read_bio_ex() and\nSSL_CTX_use_serverinfo_file() which are also vulnerable. Some OpenSSL internal\nuses of these functions are not vulnerable because the caller does not free the\nheader argument if PEM_read_bio_ex() returns a failure code. These locations\ninclude the PEM_read_bio_TYPE() functions as well as the decoders introduced in\nOpenSSL 3.0.\n\nThe OpenSSL asn1parse command line application is also impacted by this issue.\n\n\n",
      "Threats": [
        {
          "Type": "Impact",
          "Severity": "moderate"
        }
      ],
      "References": [
        {
          "URL": "https://www.suse.com/security/cve/CVE-2022-4450.html",
          "Description": "CVE-2022-4450"
        },
        {
          "URL": "https://bugzilla.suse.com/1207538",
          "Description": "SUSE Bug 1207538"
        },
        {
          "URL": "https://bugzilla.suse.com/1225628",
          "Description": "SUSE Bug 1225628"
        }
      ],
      "ProductStatuses": [
        {
          "Type": "Fixed",
          "ProductID": [
            "openSUSE Tumbleweed:libopenssl-3-devel-3.0.8-1.1",
            "openSUSE Tumbleweed:libopenssl-3-devel-32bit-3.0.8-1.1",
            "openSUSE Tumbleweed:libopenssl3-3.0.8-1.1",
            "openSUSE Tumbleweed:libopenssl3-32bit-3.0.8-1.1",
            "openSUSE Tumbleweed:libopenssl3-hmac-3.0.8-1.1",
            "openSUSE Tumbleweed:libopenssl3-hmac-32bit-3.0.8-1.1",
            "openSUSE Tumbleweed:openssl-3-3.0.8-1.1",
            "openSUSE Tumbleweed:openssl-3-doc-3.0.8-1.1"
          ]
        }
      ],
      "CVSSScoreSets": {}
    },
    {
      "CVE": "CVE-2023-0215",
      "Description": "The public API function BIO_new_NDEF is a helper function used for streaming\nASN.1 data via a BIO. It is primarily used internally to OpenSSL to support the\nSMIME, CMS and PKCS7 streaming capabilities, but may also be called directly by\nend user applications.\n\nThe function receives a BIO from the caller, prepends a new BIO_f_asn1 filter\nBIO onto the front of it to form a BIO chain, and then returns the new head of\nthe BIO chain to the caller. Under certain conditions, for example if a CMS\nrecipient public key is invalid, the new filter BIO is freed and the function\nreturns a NULL result indicating a failure. However, in this case, the BIO chain\nis not properly cleaned up and the BIO passed by the caller still retains\ninternal pointers to the previously freed filter BIO. If the caller then goes on\nto call BIO_pop() on the BIO then a use-after-free will occur. This will most\nlikely result in a crash.\n\n\n\nThis scenario occurs directly in the internal function B64_write_ASN1() which\nmay cause BIO_new_NDEF() to be called and will subsequently call BIO_pop() on\nthe BIO. This internal function is in turn called by the public API functions\nPEM_write_bio_ASN1_stream, PEM_write_bio_CMS_stream, PEM_write_bio_PKCS7_stream,\nSMIME_write_ASN1, SMIME_write_CMS and SMIME_write_PKCS7.\n\nOther public API functions that may be impacted by this include\ni2d_ASN1_bio_stream, BIO_new_CMS, BIO_new_PKCS7, i2d_CMS_bio_stream and\ni2d_PKCS7_bio_stream.\n\nThe OpenSSL cms and smime command line applications are similarly affected.\n\n\n\n",
      "Threats": [
        {
          "Type": "Impact",
          "Severity": "moderate"
        }
      ],
      "References": [
        {
          "URL": "https://www.suse.com/security/cve/CVE-2023-0215.html",
          "Description": "CVE-2023-0215"
        },
        {
          "URL": "https://bugzilla.suse.com/1207536",
          "Description": "SUSE Bug 1207536"
        },
        {
          "URL": "https://bugzilla.suse.com/1213146",
          "Description": "SUSE Bug 1213146"
        },
        {
          "URL": "https://bugzilla.suse.com/1225628",
          "Description": "SUSE Bug 1225628"
        }
      ],
      "ProductStatuses": [
        {
          "Type": "Fixed",
          "ProductID": [
            "openSUSE Tumbleweed:libopenssl-3-devel-3.0.8-1.1",
            "openSUSE Tumbleweed:libopenssl-3-devel-32bit-3.0.8-1.1",
            "openSUSE Tumbleweed:libopenssl3-3.0.8-1.1",
            "openSUSE Tumbleweed:libopenssl3-32bit-3.0.8-1.1",
            "openSUSE Tumbleweed:libopenssl3-hmac-3.0.8-1.1",
            "openSUSE Tumbleweed:libopenssl3-hmac-32bit-3.0.8-1.1",
            "openSUSE Tumbleweed:openssl-3-3.0.8-1.1",
            "openSUSE Tumbleweed:openssl-3-doc-3.0.8-1.1"
          ]
        }
      ],
      "CVSSScoreSets": {}
    },
    {
      "CVE": "CVE-2023-0216",
      "Description": "An invalid pointer dereference on read can be triggered when an\napplication tries to load malformed PKCS7 data with the\nd2i_PKCS7(), d2i_PKCS7_bio() or d2i_PKCS7_fp() functions.\n\nThe result of the dereference is an application crash which could\nlead to a denial of service attack. The TLS implementation in OpenSSL\ndoes not call this function however third party applications might\ncall these functions on untrusted data.\n\n",
      "Threats": [
        {
          "Type": "Impact",
          "Severity": "moderate"
        }
      ],
      "References": [
        {
          "URL": "https://www.suse.com/security/cve/CVE-2023-0216.html",
          "Description": "CVE-2023-0216"
        },
        {
          "URL": "https://bugzilla.suse.com/1207539",
          "Description": "SUSE Bug 1207539"
        }
      ],
      "ProductStatuses": [
        {
          "Type": "Fixed",
          "ProductID": [
            "openSUSE Tumbleweed:libopenssl-3-devel-3.0.8-1.1",
            "openSUSE Tumbleweed:libopenssl-3-devel-32bit-3.0.8-1.1",
            "openSUSE Tumbleweed:libopenssl3-3.0.8-1.1",
            "openSUSE Tumbleweed:libopenssl3-32bit-3.0.8-1.1",
            "openSUSE Tumbleweed:libopenssl3-hmac-3.0.8-1.1",
            "openSUSE Tumbleweed:libopenssl3-hmac-32bit-3.0.8-1.1",
            "openSUSE Tumbleweed:openssl-3-3.0.8-1.1",
            "openSUSE Tumbleweed:openssl-3-doc-3.0.8-1.1"
          ]
        }
      ],
      "CVSSScoreSets": {}
    },
    {
      "CVE": "CVE-2023-0217",
      "Description": "An invalid pointer dereference on read can be triggered when an\napplication tries to check a malformed DSA public key by the\nEVP_PKEY_public_check() function. This will most likely lead\nto an application crash. This function can be called on public\nkeys supplied from untrusted sources which could allow an attacker\nto cause a denial of service attack.\n\nThe TLS implementation in OpenSSL does not call this function\nbut applications might call the function if there are additional\nsecurity requirements imposed by standards such as FIPS 140-3.\n\n",
      "Threats": [
        {
          "Type": "Impact",
          "Severity": "moderate"
        }
      ],
      "References": [
        {
          "URL": "https://www.suse.com/security/cve/CVE-2023-0217.html",
          "Description": "CVE-2023-0217"
        },
        {
          "URL": "https://bugzilla.suse.com/1207540",
          "Description": "SUSE Bug 1207540"
        }
      ],
      "ProductStatuses": [
        {
          "Type": "Fixed",
          "ProductID": [
            "openSUSE Tumbleweed:libopenssl-3-devel-3.0.8-1.1",
            "openSUSE Tumbleweed:libopenssl-3-devel-32bit-3.0.8-1.1",
            "openSUSE Tumbleweed:libopenssl3-3.0.8-1.1",
            "openSUSE Tumbleweed:libopenssl3-32bit-3.0.8-1.1",
            "openSUSE Tumbleweed:libopenssl3-hmac-3.0.8-1.1",
            "openSUSE Tumbleweed:libopenssl3-hmac-32bit-3.0.8-1.1",
            "openSUSE Tumbleweed:openssl-3-3.0.8-1.1",
            "openSUSE Tumbleweed:openssl-3-doc-3.0.8-1.1"
          ]
        }
      ],
      "CVSSScoreSets": {}
    },
    {
      "CVE": "CVE-2023-0286",
      "Description": "There is a type confusion vulnerability relating to X.400 address processing\ninside an X.509 GeneralName. X.400 addresses were parsed as an ASN1_STRING but\nthe public structure definition for GENERAL_NAME incorrectly specified the type\nof the x400Address field as ASN1_TYPE. This field is subsequently interpreted by\nthe OpenSSL function GENERAL_NAME_cmp as an ASN1_TYPE rather than an\nASN1_STRING.\n\nWhen CRL checking is enabled (i.e. the application sets the\nX509_V_FLAG_CRL_CHECK flag), this vulnerability may allow an attacker to pass\narbitrary pointers to a memcmp call, enabling them to read memory contents or\nenact a denial of service. In most cases, the attack requires the attacker to\nprovide both the certificate chain and CRL, neither of which need to have a\nvalid signature. If the attacker only controls one of these inputs, the other\ninput must already contain an X.400 address as a CRL distribution point, which\nis uncommon. As such, this vulnerability is most likely to only affect\napplications which have implemented their own functionality for retrieving CRLs\nover a network.\n\n",
      "Threats": [
        {
          "Type": "Impact",
          "Severity": "important"
        }
      ],
      "References": [
        {
          "URL": "https://www.suse.com/security/cve/CVE-2023-0286.html",
          "Description": "CVE-2023-0286"
        },
        {
          "URL": "https://bugzilla.suse.com/1207533",
          "Description": "SUSE Bug 1207533"
        },
        {
          "URL": "https://bugzilla.suse.com/1207569",
          "Description": "SUSE Bug 1207569"
        },
        {
          "URL": "https://bugzilla.suse.com/1211136",
          "Description": "SUSE Bug 1211136"
        },
        {
          "URL": "https://bugzilla.suse.com/1211503",
          "Description": "SUSE Bug 1211503"
        },
        {
          "URL": "https://bugzilla.suse.com/1213146",
          "Description": "SUSE Bug 1213146"
        },
        {
          "URL": "https://bugzilla.suse.com/1214269",
          "Description": "SUSE Bug 1214269"
        },
        {
          "URL": "https://bugzilla.suse.com/1218477",
          "Description": "SUSE Bug 1218477"
        },
        {
          "URL": "https://bugzilla.suse.com/1218967",
          "Description": "SUSE Bug 1218967"
        }
      ],
      "ProductStatuses": [
        {
          "Type": "Fixed",
          "ProductID": [
            "openSUSE Tumbleweed:libopenssl-3-devel-3.0.8-1.1",
            "openSUSE Tumbleweed:libopenssl-3-devel-32bit-3.0.8-1.1",
            "openSUSE Tumbleweed:libopenssl3-3.0.8-1.1",
            "openSUSE Tumbleweed:libopenssl3-32bit-3.0.8-1.1",
            "openSUSE Tumbleweed:libopenssl3-hmac-3.0.8-1.1",
            "openSUSE Tumbleweed:libopenssl3-hmac-32bit-3.0.8-1.1",
            "openSUSE Tumbleweed:openssl-3-3.0.8-1.1",
            "openSUSE Tumbleweed:openssl-3-doc-3.0.8-1.1"
          ]
        }
      ],
      "CVSSScoreSets": {}
    },
    {
      "CVE": "CVE-2023-0401",
      "Description": "A NULL pointer can be dereferenced when signatures are being\nverified on PKCS7 signed or signedAndEnveloped data. In case the hash\nalgorithm used for the signature is known to the OpenSSL library but\nthe implementation of the hash algorithm is not available the digest\ninitialization will fail. There is a missing check for the return\nvalue from the initialization function which later leads to invalid\nusage of the digest API most likely leading to a crash.\n\nThe unavailability of an algorithm can be caused by using FIPS\nenabled configuration of providers or more commonly by not loading\nthe legacy provider.\n\nPKCS7 data is processed by the SMIME library calls and also by the\ntime stamp (TS) library calls. The TLS implementation in OpenSSL does\nnot call these functions however third party applications would be\naffected if they call these functions to verify signatures on untrusted\ndata.\n\n",
      "Threats": [
        {
          "Type": "Impact",
          "Severity": "moderate"
        }
      ],
      "References": [
        {
          "URL": "https://www.suse.com/security/cve/CVE-2023-0401.html",
          "Description": "CVE-2023-0401"
        },
        {
          "URL": "https://bugzilla.suse.com/1207541",
          "Description": "SUSE Bug 1207541"
        },
        {
          "URL": "https://bugzilla.suse.com/1210509",
          "Description": "SUSE Bug 1210509"
        }
      ],
      "ProductStatuses": [
        {
          "Type": "Fixed",
          "ProductID": [
            "openSUSE Tumbleweed:libopenssl-3-devel-3.0.8-1.1",
            "openSUSE Tumbleweed:libopenssl-3-devel-32bit-3.0.8-1.1",
            "openSUSE Tumbleweed:libopenssl3-3.0.8-1.1",
            "openSUSE Tumbleweed:libopenssl3-32bit-3.0.8-1.1",
            "openSUSE Tumbleweed:libopenssl3-hmac-3.0.8-1.1",
            "openSUSE Tumbleweed:libopenssl3-hmac-32bit-3.0.8-1.1",
            "openSUSE Tumbleweed:openssl-3-3.0.8-1.1",
            "openSUSE Tumbleweed:openssl-3-doc-3.0.8-1.1"
          ]
        }
      ],
      "CVSSScoreSets": {}
    }
  ]
}