{
  "Title": "libX11-6-1.8.5-2.1 on GA media",
  "Tracking": {
    "ID": "openSUSE-SU-2024:13008-1",
    "Status": "Final",
    "Version": "1",
    "InitialReleaseDate": "2024-06-20T21:44:22Z",
    "CurrentReleaseDate": "2024-06-20T21:44:22Z",
    "RevisionHistory": [
      {
        "Number": "1",
        "Date": "2024-06-20T21:44:22Z",
        "Description": "current"
      }
    ]
  },
  "Notes": [
    {
      "Text": "libX11-6-1.8.5-2.1 on GA media",
      "Title": "Topic",
      "Type": "Summary"
    },
    {
      "Text": "These are all security issues fixed in the libX11-6-1.8.5-2.1 package on the GA media of openSUSE Tumbleweed.",
      "Title": "Details",
      "Type": "General"
    },
    {
      "Text": "The CVRF data is provided by SUSE under the Creative Commons License 4.0 with Attribution (CC-BY-4.0).",
      "Title": "Terms of Use",
      "Type": "Legal Disclaimer"
    },
    {
      "Text": "openSUSE-Tumbleweed-2024-13008",
      "Title": "Patchnames",
      "Type": "Details"
    }
  ],
  "ProductTree": {
    "Relationships": [
      {
        "ProductReference": "libX11-6-1.8.5-2.1",
        "RelatesToProductReference": "openSUSE Tumbleweed",
        "RelationType": "Default Component Of"
      },
      {
        "ProductReference": "libX11-6-32bit-1.8.5-2.1",
        "RelatesToProductReference": "openSUSE Tumbleweed",
        "RelationType": "Default Component Of"
      },
      {
        "ProductReference": "libX11-data-1.8.5-2.1",
        "RelatesToProductReference": "openSUSE Tumbleweed",
        "RelationType": "Default Component Of"
      },
      {
        "ProductReference": "libX11-devel-1.8.5-2.1",
        "RelatesToProductReference": "openSUSE Tumbleweed",
        "RelationType": "Default Component Of"
      },
      {
        "ProductReference": "libX11-devel-32bit-1.8.5-2.1",
        "RelatesToProductReference": "openSUSE Tumbleweed",
        "RelationType": "Default Component Of"
      },
      {
        "ProductReference": "libX11-xcb1-1.8.5-2.1",
        "RelatesToProductReference": "openSUSE Tumbleweed",
        "RelationType": "Default Component Of"
      },
      {
        "ProductReference": "libX11-xcb1-32bit-1.8.5-2.1",
        "RelatesToProductReference": "openSUSE Tumbleweed",
        "RelationType": "Default Component Of"
      }
    ]
  },
  "References": [
    {
      "URL": "https://www.suse.com/support/security/rating/",
      "Description": "SUSE Security Ratings"
    },
    {
      "URL": "https://www.suse.com/security/cve/CVE-2023-3138/",
      "Description": "SUSE CVE CVE-2023-3138 page"
    }
  ],
  "Vulnerabilities": [
    {
      "CVE": "CVE-2023-3138",
      "Description": "A vulnerability was found in libX11. The security flaw occurs because the functions in src/InitExt.c in libX11 do not check that the values provided for the Request, Event, or Error IDs are within the bounds of the arrays that those functions write to, using those IDs as array indexes. They trust that they were called with values provided by an Xserver adhering to the bounds specified in the X11 protocol, as all X servers provided by X.Org do. As the protocol only specifies a single byte for these values, an out-of-bounds value provided by a malicious server (or a malicious proxy-in-the-middle) can only overwrite other portions of the Display structure and not write outside the bounds of the Display structure itself, possibly causing the client to crash with this memory corruption.",
      "Threats": [
        {
          "Type": "Impact",
          "Severity": "moderate"
        }
      ],
      "References": [
        {
          "URL": "https://www.suse.com/security/cve/CVE-2023-3138.html",
          "Description": "CVE-2023-3138"
        },
        {
          "URL": "https://bugzilla.suse.com/1212102",
          "Description": "SUSE Bug 1212102"
        },
        {
          "URL": "https://bugzilla.suse.com/1212746",
          "Description": "SUSE Bug 1212746"
        },
        {
          "URL": "https://bugzilla.suse.com/1213994",
          "Description": "SUSE Bug 1213994"
        }
      ],
      "ProductStatuses": [
        {
          "Type": "Fixed",
          "ProductID": [
            "openSUSE Tumbleweed:libX11-6-1.8.5-2.1",
            "openSUSE Tumbleweed:libX11-6-32bit-1.8.5-2.1",
            "openSUSE Tumbleweed:libX11-data-1.8.5-2.1",
            "openSUSE Tumbleweed:libX11-devel-1.8.5-2.1",
            "openSUSE Tumbleweed:libX11-devel-32bit-1.8.5-2.1",
            "openSUSE Tumbleweed:libX11-xcb1-1.8.5-2.1",
            "openSUSE Tumbleweed:libX11-xcb1-32bit-1.8.5-2.1"
          ]
        }
      ],
      "CVSSScoreSets": {}
    }
  ]
}