{
  "Title": "gromacs-2016.1-1.1 on GA media",
  "Tracking": {
    "ID": "openSUSE-SU-2024:10577-1",
    "Status": "Final",
    "Version": "1",
    "InitialReleaseDate": "2024-06-22T21:44:56Z",
    "CurrentReleaseDate": "2024-06-22T21:44:56Z",
    "RevisionHistory": [
      {
        "Number": "1",
        "Date": "2024-06-22T21:44:56Z",
        "Description": "current"
      }
    ]
  },
  "Notes": [
    {
      "Text": "gromacs-2016.1-1.1 on GA media",
      "Title": "Topic",
      "Type": "Summary"
    },
    {
      "Text": "These are all security issues fixed in the gromacs-2016.1-1.1 package on the GA media of openSUSE Tumbleweed.",
      "Title": "Details",
      "Type": "General"
    },
    {
      "Text": "The CVRF data is provided by SUSE under the Creative Commons License 4.0 with Attribution (CC-BY-4.0).",
      "Title": "Terms of Use",
      "Type": "Legal Disclaimer"
    },
    {
      "Text": "openSUSE-Tumbleweed-2024-10577",
      "Title": "Patchnames",
      "Type": "Details"
    }
  ],
  "ProductTree": {
    "Relationships": [
      {
        "ProductReference": "gromacs-2016.1-1.1",
        "RelatesToProductReference": "openSUSE Tumbleweed",
        "RelationType": "Default Component Of"
      },
      {
        "ProductReference": "gromacs-bash-2016.1-1.1",
        "RelatesToProductReference": "openSUSE Tumbleweed",
        "RelationType": "Default Component Of"
      },
      {
        "ProductReference": "gromacs-devel-2016.1-1.1",
        "RelatesToProductReference": "openSUSE Tumbleweed",
        "RelationType": "Default Component Of"
      },
      {
        "ProductReference": "gromacs-doc-2016.1-1.1",
        "RelatesToProductReference": "openSUSE Tumbleweed",
        "RelationType": "Default Component Of"
      },
      {
        "ProductReference": "gromacs-openmpi-2016.1-1.1",
        "RelatesToProductReference": "openSUSE Tumbleweed",
        "RelationType": "Default Component Of"
      },
      {
        "ProductReference": "libgromacs2-2016.1-1.1",
        "RelatesToProductReference": "openSUSE Tumbleweed",
        "RelationType": "Default Component Of"
      }
    ]
  },
  "References": [
    {
      "URL": "https://www.suse.com/support/security/rating/",
      "Description": "SUSE Security Ratings"
    },
    {
      "URL": "https://www.suse.com/security/cve/CVE-2010-4001/",
      "Description": "SUSE CVE CVE-2010-4001 page"
    }
  ],
  "Vulnerabilities": [
    {
      "CVE": "CVE-2010-4001",
      "Description": "** DISPUTED ** GMXRC.bash in Gromacs 4.5.1 and earlier places a zero-length directory name in the LD_LIBRARY_PATH, which allows local users to gain privileges via a Trojan horse shared library in the current working directory.  NOTE: CVE disputes this issue because the GMXLDLIB value is always added to the beginning of LD_LIBRARY_PATH at a later point in the script.",
      "Threats": [
        {
          "Type": "Impact",
          "Severity": "moderate"
        }
      ],
      "References": [
        {
          "URL": "https://www.suse.com/security/cve/CVE-2010-4001.html",
          "Description": "CVE-2010-4001"
        },
        {
          "URL": "https://bugzilla.suse.com/642828",
          "Description": "SUSE Bug 642828"
        }
      ],
      "ProductStatuses": [
        {
          "Type": "Fixed",
          "ProductID": [
            "openSUSE Tumbleweed:gromacs-2016.1-1.1",
            "openSUSE Tumbleweed:gromacs-bash-2016.1-1.1",
            "openSUSE Tumbleweed:gromacs-devel-2016.1-1.1",
            "openSUSE Tumbleweed:gromacs-doc-2016.1-1.1",
            "openSUSE Tumbleweed:gromacs-openmpi-2016.1-1.1",
            "openSUSE Tumbleweed:libgromacs2-2016.1-1.1"
          ]
        }
      ],
      "CVSSScoreSets": {}
    }
  ]
}