{
  "Title": "MozillaFirefox-120.0-1.1 on GA media",
  "Tracking": {
    "ID": "openSUSE-SU-2024:13468-1",
    "Status": "Final",
    "Version": "1",
    "InitialReleaseDate": "2024-06-20T21:44:22Z",
    "CurrentReleaseDate": "2024-06-20T21:44:22Z",
    "RevisionHistory": [
      {
        "Number": "1",
        "Date": "2024-06-20T21:44:22Z",
        "Description": "current"
      }
    ]
  },
  "Notes": [
    {
      "Text": "MozillaFirefox-120.0-1.1 on GA media",
      "Title": "Topic",
      "Type": "Summary"
    },
    {
      "Text": "These are all security issues fixed in the MozillaFirefox-120.0-1.1 package on the GA media of openSUSE Tumbleweed.",
      "Title": "Details",
      "Type": "General"
    },
    {
      "Text": "The CVRF data is provided by SUSE under the Creative Commons License 4.0 with Attribution (CC-BY-4.0).",
      "Title": "Terms of Use",
      "Type": "Legal Disclaimer"
    },
    {
      "Text": "openSUSE-Tumbleweed-2024-13468",
      "Title": "Patchnames",
      "Type": "Details"
    }
  ],
  "ProductTree": {
    "Relationships": [
      {
        "ProductReference": "MozillaFirefox-120.0-1.1",
        "RelatesToProductReference": "openSUSE Tumbleweed",
        "RelationType": "Default Component Of"
      },
      {
        "ProductReference": "MozillaFirefox-branding-upstream-120.0-1.1",
        "RelatesToProductReference": "openSUSE Tumbleweed",
        "RelationType": "Default Component Of"
      },
      {
        "ProductReference": "MozillaFirefox-devel-120.0-1.1",
        "RelatesToProductReference": "openSUSE Tumbleweed",
        "RelationType": "Default Component Of"
      },
      {
        "ProductReference": "MozillaFirefox-translations-common-120.0-1.1",
        "RelatesToProductReference": "openSUSE Tumbleweed",
        "RelationType": "Default Component Of"
      },
      {
        "ProductReference": "MozillaFirefox-translations-other-120.0-1.1",
        "RelatesToProductReference": "openSUSE Tumbleweed",
        "RelationType": "Default Component Of"
      }
    ]
  },
  "References": [
    {
      "URL": "https://www.suse.com/support/security/rating/",
      "Description": "SUSE Security Ratings"
    },
    {
      "URL": "https://www.suse.com/security/cve/CVE-2023-6204/",
      "Description": "SUSE CVE CVE-2023-6204 page"
    },
    {
      "URL": "https://www.suse.com/security/cve/CVE-2023-6205/",
      "Description": "SUSE CVE CVE-2023-6205 page"
    },
    {
      "URL": "https://www.suse.com/security/cve/CVE-2023-6206/",
      "Description": "SUSE CVE CVE-2023-6206 page"
    },
    {
      "URL": "https://www.suse.com/security/cve/CVE-2023-6207/",
      "Description": "SUSE CVE CVE-2023-6207 page"
    },
    {
      "URL": "https://www.suse.com/security/cve/CVE-2023-6208/",
      "Description": "SUSE CVE CVE-2023-6208 page"
    },
    {
      "URL": "https://www.suse.com/security/cve/CVE-2023-6209/",
      "Description": "SUSE CVE CVE-2023-6209 page"
    },
    {
      "URL": "https://www.suse.com/security/cve/CVE-2023-6210/",
      "Description": "SUSE CVE CVE-2023-6210 page"
    },
    {
      "URL": "https://www.suse.com/security/cve/CVE-2023-6211/",
      "Description": "SUSE CVE CVE-2023-6211 page"
    },
    {
      "URL": "https://www.suse.com/security/cve/CVE-2023-6212/",
      "Description": "SUSE CVE CVE-2023-6212 page"
    },
    {
      "URL": "https://www.suse.com/security/cve/CVE-2023-6213/",
      "Description": "SUSE CVE CVE-2023-6213 page"
    }
  ],
  "Vulnerabilities": [
    {
      "CVE": "CVE-2023-6204",
      "Description": "On some systems—depending on the graphics settings and drivers—it was possible to force an out-of-bounds read and leak memory data into the images created on the canvas element. This vulnerability affects Firefox \u003c 120, Firefox ESR \u003c 115.5.0, and Thunderbird \u003c 115.5.",
      "Threats": [
        {
          "Type": "Impact",
          "Severity": "important"
        }
      ],
      "References": [
        {
          "URL": "https://www.suse.com/security/cve/CVE-2023-6204.html",
          "Description": "CVE-2023-6204"
        }
      ],
      "ProductStatuses": [
        {
          "Type": "Fixed",
          "ProductID": [
            "openSUSE Tumbleweed:MozillaFirefox-120.0-1.1",
            "openSUSE Tumbleweed:MozillaFirefox-branding-upstream-120.0-1.1",
            "openSUSE Tumbleweed:MozillaFirefox-devel-120.0-1.1",
            "openSUSE Tumbleweed:MozillaFirefox-translations-common-120.0-1.1",
            "openSUSE Tumbleweed:MozillaFirefox-translations-other-120.0-1.1"
          ]
        }
      ],
      "CVSSScoreSets": {}
    },
    {
      "CVE": "CVE-2023-6205",
      "Description": "It was possible to cause the use of a MessagePort after it had already been freed, which could potentially have led to an exploitable crash. This vulnerability affects Firefox \u003c 120, Firefox ESR \u003c 115.5.0, and Thunderbird \u003c 115.5.",
      "Threats": [
        {
          "Type": "Impact",
          "Severity": "important"
        }
      ],
      "References": [
        {
          "URL": "https://www.suse.com/security/cve/CVE-2023-6205.html",
          "Description": "CVE-2023-6205"
        }
      ],
      "ProductStatuses": [
        {
          "Type": "Fixed",
          "ProductID": [
            "openSUSE Tumbleweed:MozillaFirefox-120.0-1.1",
            "openSUSE Tumbleweed:MozillaFirefox-branding-upstream-120.0-1.1",
            "openSUSE Tumbleweed:MozillaFirefox-devel-120.0-1.1",
            "openSUSE Tumbleweed:MozillaFirefox-translations-common-120.0-1.1",
            "openSUSE Tumbleweed:MozillaFirefox-translations-other-120.0-1.1"
          ]
        }
      ],
      "CVSSScoreSets": {}
    },
    {
      "CVE": "CVE-2023-6206",
      "Description": "The black fade animation when exiting fullscreen is roughly the length of the anti-clickjacking delay on permission prompts. It was possible to use this fact to surprise users by luring them to click where the permission grant button would be about to appear. This vulnerability affects Firefox \u003c 120, Firefox ESR \u003c 115.5.0, and Thunderbird \u003c 115.5.",
      "Threats": [
        {
          "Type": "Impact",
          "Severity": "important"
        }
      ],
      "References": [
        {
          "URL": "https://www.suse.com/security/cve/CVE-2023-6206.html",
          "Description": "CVE-2023-6206"
        }
      ],
      "ProductStatuses": [
        {
          "Type": "Fixed",
          "ProductID": [
            "openSUSE Tumbleweed:MozillaFirefox-120.0-1.1",
            "openSUSE Tumbleweed:MozillaFirefox-branding-upstream-120.0-1.1",
            "openSUSE Tumbleweed:MozillaFirefox-devel-120.0-1.1",
            "openSUSE Tumbleweed:MozillaFirefox-translations-common-120.0-1.1",
            "openSUSE Tumbleweed:MozillaFirefox-translations-other-120.0-1.1"
          ]
        }
      ],
      "CVSSScoreSets": {}
    },
    {
      "CVE": "CVE-2023-6207",
      "Description": "Ownership mismanagement led to a use-after-free in ReadableByteStreams This vulnerability affects Firefox \u003c 120, Firefox ESR \u003c 115.5.0, and Thunderbird \u003c 115.5.",
      "Threats": [
        {
          "Type": "Impact",
          "Severity": "important"
        }
      ],
      "References": [
        {
          "URL": "https://www.suse.com/security/cve/CVE-2023-6207.html",
          "Description": "CVE-2023-6207"
        }
      ],
      "ProductStatuses": [
        {
          "Type": "Fixed",
          "ProductID": [
            "openSUSE Tumbleweed:MozillaFirefox-120.0-1.1",
            "openSUSE Tumbleweed:MozillaFirefox-branding-upstream-120.0-1.1",
            "openSUSE Tumbleweed:MozillaFirefox-devel-120.0-1.1",
            "openSUSE Tumbleweed:MozillaFirefox-translations-common-120.0-1.1",
            "openSUSE Tumbleweed:MozillaFirefox-translations-other-120.0-1.1"
          ]
        }
      ],
      "CVSSScoreSets": {}
    },
    {
      "CVE": "CVE-2023-6208",
      "Description": "When using X11, text selected by the page using the Selection API was erroneously copied into the primary selection, a temporary storage not unlike the clipboard.\n*This bug only affects Firefox on X11. Other systems are unaffected.* This vulnerability affects Firefox \u003c 120, Firefox ESR \u003c 115.5.0, and Thunderbird \u003c 115.5.",
      "Threats": [
        {
          "Type": "Impact",
          "Severity": "important"
        }
      ],
      "References": [
        {
          "URL": "https://www.suse.com/security/cve/CVE-2023-6208.html",
          "Description": "CVE-2023-6208"
        }
      ],
      "ProductStatuses": [
        {
          "Type": "Fixed",
          "ProductID": [
            "openSUSE Tumbleweed:MozillaFirefox-120.0-1.1",
            "openSUSE Tumbleweed:MozillaFirefox-branding-upstream-120.0-1.1",
            "openSUSE Tumbleweed:MozillaFirefox-devel-120.0-1.1",
            "openSUSE Tumbleweed:MozillaFirefox-translations-common-120.0-1.1",
            "openSUSE Tumbleweed:MozillaFirefox-translations-other-120.0-1.1"
          ]
        }
      ],
      "CVSSScoreSets": {}
    },
    {
      "CVE": "CVE-2023-6209",
      "Description": "Relative URLs starting with three slashes were incorrectly parsed, and a path-traversal \"/../\" part in the path could be used to override the specified host. This could contribute to security problems in web sites. This vulnerability affects Firefox \u003c 120, Firefox ESR \u003c 115.5.0, and Thunderbird \u003c 115.5.",
      "Threats": [
        {
          "Type": "Impact",
          "Severity": "important"
        }
      ],
      "References": [
        {
          "URL": "https://www.suse.com/security/cve/CVE-2023-6209.html",
          "Description": "CVE-2023-6209"
        }
      ],
      "ProductStatuses": [
        {
          "Type": "Fixed",
          "ProductID": [
            "openSUSE Tumbleweed:MozillaFirefox-120.0-1.1",
            "openSUSE Tumbleweed:MozillaFirefox-branding-upstream-120.0-1.1",
            "openSUSE Tumbleweed:MozillaFirefox-devel-120.0-1.1",
            "openSUSE Tumbleweed:MozillaFirefox-translations-common-120.0-1.1",
            "openSUSE Tumbleweed:MozillaFirefox-translations-other-120.0-1.1"
          ]
        }
      ],
      "CVSSScoreSets": {}
    },
    {
      "CVE": "CVE-2023-6210",
      "Description": "When an https: web page created a pop-up from a \"javascript:\" URL, that pop-up was incorrectly allowed to load blockable content such as iframes from insecure http: URLs This vulnerability affects Firefox \u003c 120.",
      "Threats": [
        {
          "Type": "Impact",
          "Severity": "moderate"
        }
      ],
      "References": [
        {
          "URL": "https://www.suse.com/security/cve/CVE-2023-6210.html",
          "Description": "CVE-2023-6210"
        }
      ],
      "ProductStatuses": [
        {
          "Type": "Fixed",
          "ProductID": [
            "openSUSE Tumbleweed:MozillaFirefox-120.0-1.1",
            "openSUSE Tumbleweed:MozillaFirefox-branding-upstream-120.0-1.1",
            "openSUSE Tumbleweed:MozillaFirefox-devel-120.0-1.1",
            "openSUSE Tumbleweed:MozillaFirefox-translations-common-120.0-1.1",
            "openSUSE Tumbleweed:MozillaFirefox-translations-other-120.0-1.1"
          ]
        }
      ],
      "CVSSScoreSets": {}
    },
    {
      "CVE": "CVE-2023-6211",
      "Description": "If an attacker needed a user to load an insecure http: page and knew that user had enabled HTTPS-only mode, the attacker could have tricked the user into clicking to grant an HTTPS-only exception if they could get the user to participate in a clicking game. This vulnerability affects Firefox \u003c 120.",
      "Threats": [
        {
          "Type": "Impact",
          "Severity": "moderate"
        }
      ],
      "References": [
        {
          "URL": "https://www.suse.com/security/cve/CVE-2023-6211.html",
          "Description": "CVE-2023-6211"
        }
      ],
      "ProductStatuses": [
        {
          "Type": "Fixed",
          "ProductID": [
            "openSUSE Tumbleweed:MozillaFirefox-120.0-1.1",
            "openSUSE Tumbleweed:MozillaFirefox-branding-upstream-120.0-1.1",
            "openSUSE Tumbleweed:MozillaFirefox-devel-120.0-1.1",
            "openSUSE Tumbleweed:MozillaFirefox-translations-common-120.0-1.1",
            "openSUSE Tumbleweed:MozillaFirefox-translations-other-120.0-1.1"
          ]
        }
      ],
      "CVSSScoreSets": {}
    },
    {
      "CVE": "CVE-2023-6212",
      "Description": "Memory safety bugs present in Firefox 119, Firefox ESR 115.4, and Thunderbird 115.4. Some of these bugs showed evidence of memory corruption and we presume that with enough effort some of these could have been exploited to run arbitrary code. This vulnerability affects Firefox \u003c 120, Firefox ESR \u003c 115.5.0, and Thunderbird \u003c 115.5.",
      "Threats": [
        {
          "Type": "Impact",
          "Severity": "important"
        }
      ],
      "References": [
        {
          "URL": "https://www.suse.com/security/cve/CVE-2023-6212.html",
          "Description": "CVE-2023-6212"
        }
      ],
      "ProductStatuses": [
        {
          "Type": "Fixed",
          "ProductID": [
            "openSUSE Tumbleweed:MozillaFirefox-120.0-1.1",
            "openSUSE Tumbleweed:MozillaFirefox-branding-upstream-120.0-1.1",
            "openSUSE Tumbleweed:MozillaFirefox-devel-120.0-1.1",
            "openSUSE Tumbleweed:MozillaFirefox-translations-common-120.0-1.1",
            "openSUSE Tumbleweed:MozillaFirefox-translations-other-120.0-1.1"
          ]
        }
      ],
      "CVSSScoreSets": {}
    },
    {
      "CVE": "CVE-2023-6213",
      "Description": "Memory safety bugs present in Firefox 119. Some of these bugs showed evidence of memory corruption and we presume that with enough effort some of these could have been exploited to run arbitrary code. This vulnerability affects Firefox \u003c 120.",
      "Threats": [
        {
          "Type": "Impact",
          "Severity": "moderate"
        }
      ],
      "References": [
        {
          "URL": "https://www.suse.com/security/cve/CVE-2023-6213.html",
          "Description": "CVE-2023-6213"
        }
      ],
      "ProductStatuses": [
        {
          "Type": "Fixed",
          "ProductID": [
            "openSUSE Tumbleweed:MozillaFirefox-120.0-1.1",
            "openSUSE Tumbleweed:MozillaFirefox-branding-upstream-120.0-1.1",
            "openSUSE Tumbleweed:MozillaFirefox-devel-120.0-1.1",
            "openSUSE Tumbleweed:MozillaFirefox-translations-common-120.0-1.1",
            "openSUSE Tumbleweed:MozillaFirefox-translations-other-120.0-1.1"
          ]
        }
      ],
      "CVSSScoreSets": {}
    }
  ]
}