{
  "Title": "libipa_hbac-devel-1.14.2-3.1 on GA media",
  "Tracking": {
    "ID": "openSUSE-SU-2024:10427-1",
    "Status": "Final",
    "Version": "1",
    "InitialReleaseDate": "2024-06-22T21:44:56Z",
    "CurrentReleaseDate": "2024-06-22T21:44:56Z",
    "RevisionHistory": [
      {
        "Number": "1",
        "Date": "2024-06-22T21:44:56Z",
        "Description": "current"
      }
    ]
  },
  "Notes": [
    {
      "Text": "libipa_hbac-devel-1.14.2-3.1 on GA media",
      "Title": "Topic",
      "Type": "Summary"
    },
    {
      "Text": "These are all security issues fixed in the libipa_hbac-devel-1.14.2-3.1 package on the GA media of openSUSE Tumbleweed.",
      "Title": "Details",
      "Type": "General"
    },
    {
      "Text": "The CVRF data is provided by SUSE under the Creative Commons License 4.0 with Attribution (CC-BY-4.0).",
      "Title": "Terms of Use",
      "Type": "Legal Disclaimer"
    },
    {
      "Text": "openSUSE-Tumbleweed-2024-10427",
      "Title": "Patchnames",
      "Type": "Details"
    }
  ],
  "ProductTree": {
    "Relationships": [
      {
        "ProductReference": "libipa_hbac-devel-1.14.2-3.1",
        "RelatesToProductReference": "openSUSE Tumbleweed",
        "RelationType": "Default Component Of"
      },
      {
        "ProductReference": "libipa_hbac0-1.14.2-3.1",
        "RelatesToProductReference": "openSUSE Tumbleweed",
        "RelationType": "Default Component Of"
      },
      {
        "ProductReference": "libnfsidmap-sss-1.14.2-3.1",
        "RelatesToProductReference": "openSUSE Tumbleweed",
        "RelationType": "Default Component Of"
      },
      {
        "ProductReference": "libsss_idmap-devel-1.14.2-3.1",
        "RelatesToProductReference": "openSUSE Tumbleweed",
        "RelationType": "Default Component Of"
      },
      {
        "ProductReference": "libsss_idmap0-1.14.2-3.1",
        "RelatesToProductReference": "openSUSE Tumbleweed",
        "RelationType": "Default Component Of"
      },
      {
        "ProductReference": "libsss_nss_idmap-devel-1.14.2-3.1",
        "RelatesToProductReference": "openSUSE Tumbleweed",
        "RelationType": "Default Component Of"
      },
      {
        "ProductReference": "libsss_nss_idmap0-1.14.2-3.1",
        "RelatesToProductReference": "openSUSE Tumbleweed",
        "RelationType": "Default Component Of"
      },
      {
        "ProductReference": "libsss_simpleifp-devel-1.14.2-3.1",
        "RelatesToProductReference": "openSUSE Tumbleweed",
        "RelationType": "Default Component Of"
      },
      {
        "ProductReference": "libsss_simpleifp0-1.14.2-3.1",
        "RelatesToProductReference": "openSUSE Tumbleweed",
        "RelationType": "Default Component Of"
      },
      {
        "ProductReference": "python-ipa_hbac-1.14.2-3.1",
        "RelatesToProductReference": "openSUSE Tumbleweed",
        "RelationType": "Default Component Of"
      },
      {
        "ProductReference": "python-sss-murmur-1.14.2-3.1",
        "RelatesToProductReference": "openSUSE Tumbleweed",
        "RelationType": "Default Component Of"
      },
      {
        "ProductReference": "python-sss_nss_idmap-1.14.2-3.1",
        "RelatesToProductReference": "openSUSE Tumbleweed",
        "RelationType": "Default Component Of"
      },
      {
        "ProductReference": "python-sssd-config-1.14.2-3.1",
        "RelatesToProductReference": "openSUSE Tumbleweed",
        "RelationType": "Default Component Of"
      },
      {
        "ProductReference": "python3-ipa_hbac-1.14.2-3.1",
        "RelatesToProductReference": "openSUSE Tumbleweed",
        "RelationType": "Default Component Of"
      },
      {
        "ProductReference": "python3-sss-murmur-1.14.2-3.1",
        "RelatesToProductReference": "openSUSE Tumbleweed",
        "RelationType": "Default Component Of"
      },
      {
        "ProductReference": "python3-sss_nss_idmap-1.14.2-3.1",
        "RelatesToProductReference": "openSUSE Tumbleweed",
        "RelationType": "Default Component Of"
      },
      {
        "ProductReference": "python3-sssd-config-1.14.2-3.1",
        "RelatesToProductReference": "openSUSE Tumbleweed",
        "RelationType": "Default Component Of"
      },
      {
        "ProductReference": "sssd-1.14.2-3.1",
        "RelatesToProductReference": "openSUSE Tumbleweed",
        "RelationType": "Default Component Of"
      },
      {
        "ProductReference": "sssd-32bit-1.14.2-3.1",
        "RelatesToProductReference": "openSUSE Tumbleweed",
        "RelationType": "Default Component Of"
      },
      {
        "ProductReference": "sssd-ad-1.14.2-3.1",
        "RelatesToProductReference": "openSUSE Tumbleweed",
        "RelationType": "Default Component Of"
      },
      {
        "ProductReference": "sssd-dbus-1.14.2-3.1",
        "RelatesToProductReference": "openSUSE Tumbleweed",
        "RelationType": "Default Component Of"
      },
      {
        "ProductReference": "sssd-ipa-1.14.2-3.1",
        "RelatesToProductReference": "openSUSE Tumbleweed",
        "RelationType": "Default Component Of"
      },
      {
        "ProductReference": "sssd-krb5-1.14.2-3.1",
        "RelatesToProductReference": "openSUSE Tumbleweed",
        "RelationType": "Default Component Of"
      },
      {
        "ProductReference": "sssd-krb5-common-1.14.2-3.1",
        "RelatesToProductReference": "openSUSE Tumbleweed",
        "RelationType": "Default Component Of"
      },
      {
        "ProductReference": "sssd-ldap-1.14.2-3.1",
        "RelatesToProductReference": "openSUSE Tumbleweed",
        "RelationType": "Default Component Of"
      },
      {
        "ProductReference": "sssd-proxy-1.14.2-3.1",
        "RelatesToProductReference": "openSUSE Tumbleweed",
        "RelationType": "Default Component Of"
      },
      {
        "ProductReference": "sssd-tools-1.14.2-3.1",
        "RelatesToProductReference": "openSUSE Tumbleweed",
        "RelationType": "Default Component Of"
      },
      {
        "ProductReference": "sssd-wbclient-1.14.2-3.1",
        "RelatesToProductReference": "openSUSE Tumbleweed",
        "RelationType": "Default Component Of"
      },
      {
        "ProductReference": "sssd-wbclient-devel-1.14.2-3.1",
        "RelatesToProductReference": "openSUSE Tumbleweed",
        "RelationType": "Default Component Of"
      },
      {
        "ProductReference": "sssd-winbind-idmap-1.14.2-3.1",
        "RelatesToProductReference": "openSUSE Tumbleweed",
        "RelationType": "Default Component Of"
      }
    ]
  },
  "References": [
    {
      "URL": "https://www.suse.com/support/security/rating/",
      "Description": "SUSE Security Ratings"
    },
    {
      "URL": "https://www.suse.com/security/cve/CVE-2010-4341/",
      "Description": "SUSE CVE CVE-2010-4341 page"
    },
    {
      "URL": "https://www.suse.com/security/cve/CVE-2011-1758/",
      "Description": "SUSE CVE CVE-2011-1758 page"
    },
    {
      "URL": "https://www.suse.com/security/cve/CVE-2013-0219/",
      "Description": "SUSE CVE CVE-2013-0219 page"
    },
    {
      "URL": "https://www.suse.com/security/cve/CVE-2013-0220/",
      "Description": "SUSE CVE CVE-2013-0220 page"
    },
    {
      "URL": "https://www.suse.com/security/cve/CVE-2013-0287/",
      "Description": "SUSE CVE CVE-2013-0287 page"
    },
    {
      "URL": "https://www.suse.com/security/cve/CVE-2014-0249/",
      "Description": "SUSE CVE CVE-2014-0249 page"
    }
  ],
  "Vulnerabilities": [
    {
      "CVE": "CVE-2010-4341",
      "Description": "The pam_parse_in_data_v2 function in src/responder/pam/pamsrv_cmd.c in the PAM responder in SSSD 1.5.0, 1.4.x, and 1.3 allows local users to cause a denial of service (infinite loop, crash, and login prevention) via a crafted packet.",
      "Threats": [
        {
          "Type": "Impact",
          "Severity": "moderate"
        }
      ],
      "References": [
        {
          "URL": "https://www.suse.com/security/cve/CVE-2010-4341.html",
          "Description": "CVE-2010-4341"
        },
        {
          "URL": "https://bugzilla.suse.com/660481",
          "Description": "SUSE Bug 660481"
        }
      ],
      "ProductStatuses": [
        {
          "Type": "Fixed",
          "ProductID": [
            "openSUSE Tumbleweed:libipa_hbac-devel-1.14.2-3.1",
            "openSUSE Tumbleweed:libipa_hbac0-1.14.2-3.1",
            "openSUSE Tumbleweed:libnfsidmap-sss-1.14.2-3.1",
            "openSUSE Tumbleweed:libsss_idmap-devel-1.14.2-3.1",
            "openSUSE Tumbleweed:libsss_idmap0-1.14.2-3.1",
            "openSUSE Tumbleweed:libsss_nss_idmap-devel-1.14.2-3.1",
            "openSUSE Tumbleweed:libsss_nss_idmap0-1.14.2-3.1",
            "openSUSE Tumbleweed:libsss_simpleifp-devel-1.14.2-3.1",
            "openSUSE Tumbleweed:libsss_simpleifp0-1.14.2-3.1",
            "openSUSE Tumbleweed:python-ipa_hbac-1.14.2-3.1",
            "openSUSE Tumbleweed:python-sss-murmur-1.14.2-3.1",
            "openSUSE Tumbleweed:python-sss_nss_idmap-1.14.2-3.1",
            "openSUSE Tumbleweed:python-sssd-config-1.14.2-3.1",
            "openSUSE Tumbleweed:python3-ipa_hbac-1.14.2-3.1",
            "openSUSE Tumbleweed:python3-sss-murmur-1.14.2-3.1",
            "openSUSE Tumbleweed:python3-sss_nss_idmap-1.14.2-3.1",
            "openSUSE Tumbleweed:python3-sssd-config-1.14.2-3.1",
            "openSUSE Tumbleweed:sssd-1.14.2-3.1",
            "openSUSE Tumbleweed:sssd-32bit-1.14.2-3.1",
            "openSUSE Tumbleweed:sssd-ad-1.14.2-3.1",
            "openSUSE Tumbleweed:sssd-dbus-1.14.2-3.1",
            "openSUSE Tumbleweed:sssd-ipa-1.14.2-3.1",
            "openSUSE Tumbleweed:sssd-krb5-1.14.2-3.1",
            "openSUSE Tumbleweed:sssd-krb5-common-1.14.2-3.1",
            "openSUSE Tumbleweed:sssd-ldap-1.14.2-3.1",
            "openSUSE Tumbleweed:sssd-proxy-1.14.2-3.1",
            "openSUSE Tumbleweed:sssd-tools-1.14.2-3.1",
            "openSUSE Tumbleweed:sssd-wbclient-1.14.2-3.1",
            "openSUSE Tumbleweed:sssd-wbclient-devel-1.14.2-3.1",
            "openSUSE Tumbleweed:sssd-winbind-idmap-1.14.2-3.1"
          ]
        }
      ],
      "CVSSScoreSets": {}
    },
    {
      "CVE": "CVE-2011-1758",
      "Description": "The krb5_save_ccname_done function in providers/krb5/krb5_auth.c in System Security Services Daemon (SSSD) 1.5.x before 1.5.7, when automatic ticket renewal and offline authentication are configured, uses a pathname string as a password, which allows local users to bypass Kerberos authentication by listing the /tmp directory to obtain the pathname.",
      "Threats": [
        {
          "Type": "Impact",
          "Severity": "moderate"
        }
      ],
      "References": [
        {
          "URL": "https://www.suse.com/security/cve/CVE-2011-1758.html",
          "Description": "CVE-2011-1758"
        },
        {
          "URL": "https://bugzilla.suse.com/691135",
          "Description": "SUSE Bug 691135"
        }
      ],
      "ProductStatuses": [
        {
          "Type": "Fixed",
          "ProductID": [
            "openSUSE Tumbleweed:libipa_hbac-devel-1.14.2-3.1",
            "openSUSE Tumbleweed:libipa_hbac0-1.14.2-3.1",
            "openSUSE Tumbleweed:libnfsidmap-sss-1.14.2-3.1",
            "openSUSE Tumbleweed:libsss_idmap-devel-1.14.2-3.1",
            "openSUSE Tumbleweed:libsss_idmap0-1.14.2-3.1",
            "openSUSE Tumbleweed:libsss_nss_idmap-devel-1.14.2-3.1",
            "openSUSE Tumbleweed:libsss_nss_idmap0-1.14.2-3.1",
            "openSUSE Tumbleweed:libsss_simpleifp-devel-1.14.2-3.1",
            "openSUSE Tumbleweed:libsss_simpleifp0-1.14.2-3.1",
            "openSUSE Tumbleweed:python-ipa_hbac-1.14.2-3.1",
            "openSUSE Tumbleweed:python-sss-murmur-1.14.2-3.1",
            "openSUSE Tumbleweed:python-sss_nss_idmap-1.14.2-3.1",
            "openSUSE Tumbleweed:python-sssd-config-1.14.2-3.1",
            "openSUSE Tumbleweed:python3-ipa_hbac-1.14.2-3.1",
            "openSUSE Tumbleweed:python3-sss-murmur-1.14.2-3.1",
            "openSUSE Tumbleweed:python3-sss_nss_idmap-1.14.2-3.1",
            "openSUSE Tumbleweed:python3-sssd-config-1.14.2-3.1",
            "openSUSE Tumbleweed:sssd-1.14.2-3.1",
            "openSUSE Tumbleweed:sssd-32bit-1.14.2-3.1",
            "openSUSE Tumbleweed:sssd-ad-1.14.2-3.1",
            "openSUSE Tumbleweed:sssd-dbus-1.14.2-3.1",
            "openSUSE Tumbleweed:sssd-ipa-1.14.2-3.1",
            "openSUSE Tumbleweed:sssd-krb5-1.14.2-3.1",
            "openSUSE Tumbleweed:sssd-krb5-common-1.14.2-3.1",
            "openSUSE Tumbleweed:sssd-ldap-1.14.2-3.1",
            "openSUSE Tumbleweed:sssd-proxy-1.14.2-3.1",
            "openSUSE Tumbleweed:sssd-tools-1.14.2-3.1",
            "openSUSE Tumbleweed:sssd-wbclient-1.14.2-3.1",
            "openSUSE Tumbleweed:sssd-wbclient-devel-1.14.2-3.1",
            "openSUSE Tumbleweed:sssd-winbind-idmap-1.14.2-3.1"
          ]
        }
      ],
      "CVSSScoreSets": {}
    },
    {
      "CVE": "CVE-2013-0219",
      "Description": "System Security Services Daemon (SSSD) before 1.9.4, when (1) creating, (2) copying, or (3) removing a user home directory tree, allows local users to create, modify, or delete arbitrary files via a symlink attack on another user's files.",
      "Threats": [
        {
          "Type": "Impact",
          "Severity": "moderate"
        }
      ],
      "References": [
        {
          "URL": "https://www.suse.com/security/cve/CVE-2013-0219.html",
          "Description": "CVE-2013-0219"
        },
        {
          "URL": "https://bugzilla.suse.com/801036",
          "Description": "SUSE Bug 801036"
        }
      ],
      "ProductStatuses": [
        {
          "Type": "Fixed",
          "ProductID": [
            "openSUSE Tumbleweed:libipa_hbac-devel-1.14.2-3.1",
            "openSUSE Tumbleweed:libipa_hbac0-1.14.2-3.1",
            "openSUSE Tumbleweed:libnfsidmap-sss-1.14.2-3.1",
            "openSUSE Tumbleweed:libsss_idmap-devel-1.14.2-3.1",
            "openSUSE Tumbleweed:libsss_idmap0-1.14.2-3.1",
            "openSUSE Tumbleweed:libsss_nss_idmap-devel-1.14.2-3.1",
            "openSUSE Tumbleweed:libsss_nss_idmap0-1.14.2-3.1",
            "openSUSE Tumbleweed:libsss_simpleifp-devel-1.14.2-3.1",
            "openSUSE Tumbleweed:libsss_simpleifp0-1.14.2-3.1",
            "openSUSE Tumbleweed:python-ipa_hbac-1.14.2-3.1",
            "openSUSE Tumbleweed:python-sss-murmur-1.14.2-3.1",
            "openSUSE Tumbleweed:python-sss_nss_idmap-1.14.2-3.1",
            "openSUSE Tumbleweed:python-sssd-config-1.14.2-3.1",
            "openSUSE Tumbleweed:python3-ipa_hbac-1.14.2-3.1",
            "openSUSE Tumbleweed:python3-sss-murmur-1.14.2-3.1",
            "openSUSE Tumbleweed:python3-sss_nss_idmap-1.14.2-3.1",
            "openSUSE Tumbleweed:python3-sssd-config-1.14.2-3.1",
            "openSUSE Tumbleweed:sssd-1.14.2-3.1",
            "openSUSE Tumbleweed:sssd-32bit-1.14.2-3.1",
            "openSUSE Tumbleweed:sssd-ad-1.14.2-3.1",
            "openSUSE Tumbleweed:sssd-dbus-1.14.2-3.1",
            "openSUSE Tumbleweed:sssd-ipa-1.14.2-3.1",
            "openSUSE Tumbleweed:sssd-krb5-1.14.2-3.1",
            "openSUSE Tumbleweed:sssd-krb5-common-1.14.2-3.1",
            "openSUSE Tumbleweed:sssd-ldap-1.14.2-3.1",
            "openSUSE Tumbleweed:sssd-proxy-1.14.2-3.1",
            "openSUSE Tumbleweed:sssd-tools-1.14.2-3.1",
            "openSUSE Tumbleweed:sssd-wbclient-1.14.2-3.1",
            "openSUSE Tumbleweed:sssd-wbclient-devel-1.14.2-3.1",
            "openSUSE Tumbleweed:sssd-winbind-idmap-1.14.2-3.1"
          ]
        }
      ],
      "CVSSScoreSets": {
        "BaseScore": "3.7",
        "Vector": "AV:L/AC:H/Au:N/C:P/I:P/A:P"
      }
    },
    {
      "CVE": "CVE-2013-0220",
      "Description": "The (1) sss_autofs_cmd_getautomntent and (2) sss_autofs_cmd_getautomntbyname function in responder/autofs/autofssrv_cmd.c and the (3) ssh_cmd_parse_request function in responder/ssh/sshsrv_cmd.c in System Security Services Daemon (SSSD) before 1.9.4 allow remote attackers to cause a denial of service (out-of-bounds read, crash, and restart) via a crafted SSSD packet.",
      "Threats": [
        {
          "Type": "Impact",
          "Severity": "moderate"
        }
      ],
      "References": [
        {
          "URL": "https://www.suse.com/security/cve/CVE-2013-0220.html",
          "Description": "CVE-2013-0220"
        },
        {
          "URL": "https://bugzilla.suse.com/801036",
          "Description": "SUSE Bug 801036"
        }
      ],
      "ProductStatuses": [
        {
          "Type": "Fixed",
          "ProductID": [
            "openSUSE Tumbleweed:libipa_hbac-devel-1.14.2-3.1",
            "openSUSE Tumbleweed:libipa_hbac0-1.14.2-3.1",
            "openSUSE Tumbleweed:libnfsidmap-sss-1.14.2-3.1",
            "openSUSE Tumbleweed:libsss_idmap-devel-1.14.2-3.1",
            "openSUSE Tumbleweed:libsss_idmap0-1.14.2-3.1",
            "openSUSE Tumbleweed:libsss_nss_idmap-devel-1.14.2-3.1",
            "openSUSE Tumbleweed:libsss_nss_idmap0-1.14.2-3.1",
            "openSUSE Tumbleweed:libsss_simpleifp-devel-1.14.2-3.1",
            "openSUSE Tumbleweed:libsss_simpleifp0-1.14.2-3.1",
            "openSUSE Tumbleweed:python-ipa_hbac-1.14.2-3.1",
            "openSUSE Tumbleweed:python-sss-murmur-1.14.2-3.1",
            "openSUSE Tumbleweed:python-sss_nss_idmap-1.14.2-3.1",
            "openSUSE Tumbleweed:python-sssd-config-1.14.2-3.1",
            "openSUSE Tumbleweed:python3-ipa_hbac-1.14.2-3.1",
            "openSUSE Tumbleweed:python3-sss-murmur-1.14.2-3.1",
            "openSUSE Tumbleweed:python3-sss_nss_idmap-1.14.2-3.1",
            "openSUSE Tumbleweed:python3-sssd-config-1.14.2-3.1",
            "openSUSE Tumbleweed:sssd-1.14.2-3.1",
            "openSUSE Tumbleweed:sssd-32bit-1.14.2-3.1",
            "openSUSE Tumbleweed:sssd-ad-1.14.2-3.1",
            "openSUSE Tumbleweed:sssd-dbus-1.14.2-3.1",
            "openSUSE Tumbleweed:sssd-ipa-1.14.2-3.1",
            "openSUSE Tumbleweed:sssd-krb5-1.14.2-3.1",
            "openSUSE Tumbleweed:sssd-krb5-common-1.14.2-3.1",
            "openSUSE Tumbleweed:sssd-ldap-1.14.2-3.1",
            "openSUSE Tumbleweed:sssd-proxy-1.14.2-3.1",
            "openSUSE Tumbleweed:sssd-tools-1.14.2-3.1",
            "openSUSE Tumbleweed:sssd-wbclient-1.14.2-3.1",
            "openSUSE Tumbleweed:sssd-wbclient-devel-1.14.2-3.1",
            "openSUSE Tumbleweed:sssd-winbind-idmap-1.14.2-3.1"
          ]
        }
      ],
      "CVSSScoreSets": {}
    },
    {
      "CVE": "CVE-2013-0287",
      "Description": "The Simple Access Provider in System Security Services Daemon (SSSD) 1.9.0 through 1.9.4, when the Active Directory provider is used, does not properly enforce the simple_deny_groups option, which allows remote authenticated users to bypass intended access restrictions.",
      "Threats": [
        {
          "Type": "Impact",
          "Severity": "moderate"
        }
      ],
      "References": [
        {
          "URL": "https://www.suse.com/security/cve/CVE-2013-0287.html",
          "Description": "CVE-2013-0287"
        },
        {
          "URL": "https://bugzilla.suse.com/809153",
          "Description": "SUSE Bug 809153"
        }
      ],
      "ProductStatuses": [
        {
          "Type": "Fixed",
          "ProductID": [
            "openSUSE Tumbleweed:libipa_hbac-devel-1.14.2-3.1",
            "openSUSE Tumbleweed:libipa_hbac0-1.14.2-3.1",
            "openSUSE Tumbleweed:libnfsidmap-sss-1.14.2-3.1",
            "openSUSE Tumbleweed:libsss_idmap-devel-1.14.2-3.1",
            "openSUSE Tumbleweed:libsss_idmap0-1.14.2-3.1",
            "openSUSE Tumbleweed:libsss_nss_idmap-devel-1.14.2-3.1",
            "openSUSE Tumbleweed:libsss_nss_idmap0-1.14.2-3.1",
            "openSUSE Tumbleweed:libsss_simpleifp-devel-1.14.2-3.1",
            "openSUSE Tumbleweed:libsss_simpleifp0-1.14.2-3.1",
            "openSUSE Tumbleweed:python-ipa_hbac-1.14.2-3.1",
            "openSUSE Tumbleweed:python-sss-murmur-1.14.2-3.1",
            "openSUSE Tumbleweed:python-sss_nss_idmap-1.14.2-3.1",
            "openSUSE Tumbleweed:python-sssd-config-1.14.2-3.1",
            "openSUSE Tumbleweed:python3-ipa_hbac-1.14.2-3.1",
            "openSUSE Tumbleweed:python3-sss-murmur-1.14.2-3.1",
            "openSUSE Tumbleweed:python3-sss_nss_idmap-1.14.2-3.1",
            "openSUSE Tumbleweed:python3-sssd-config-1.14.2-3.1",
            "openSUSE Tumbleweed:sssd-1.14.2-3.1",
            "openSUSE Tumbleweed:sssd-32bit-1.14.2-3.1",
            "openSUSE Tumbleweed:sssd-ad-1.14.2-3.1",
            "openSUSE Tumbleweed:sssd-dbus-1.14.2-3.1",
            "openSUSE Tumbleweed:sssd-ipa-1.14.2-3.1",
            "openSUSE Tumbleweed:sssd-krb5-1.14.2-3.1",
            "openSUSE Tumbleweed:sssd-krb5-common-1.14.2-3.1",
            "openSUSE Tumbleweed:sssd-ldap-1.14.2-3.1",
            "openSUSE Tumbleweed:sssd-proxy-1.14.2-3.1",
            "openSUSE Tumbleweed:sssd-tools-1.14.2-3.1",
            "openSUSE Tumbleweed:sssd-wbclient-1.14.2-3.1",
            "openSUSE Tumbleweed:sssd-wbclient-devel-1.14.2-3.1",
            "openSUSE Tumbleweed:sssd-winbind-idmap-1.14.2-3.1"
          ]
        }
      ],
      "CVSSScoreSets": {
        "BaseScore": "4.9",
        "Vector": "AV:N/AC:M/Au:S/C:P/I:P/A:N"
      }
    },
    {
      "CVE": "CVE-2014-0249",
      "Description": "The System Security Services Daemon (SSSD) 1.11.6 does not properly identify group membership when a non-POSIX group is in a group membership chain, which allows local users to bypass access restrictions via unspecified vectors.",
      "Threats": [
        {
          "Type": "Impact",
          "Severity": "low"
        }
      ],
      "References": [
        {
          "URL": "https://www.suse.com/security/cve/CVE-2014-0249.html",
          "Description": "CVE-2014-0249"
        },
        {
          "URL": "https://bugzilla.suse.com/880245",
          "Description": "SUSE Bug 880245"
        }
      ],
      "ProductStatuses": [
        {
          "Type": "Fixed",
          "ProductID": [
            "openSUSE Tumbleweed:libipa_hbac-devel-1.14.2-3.1",
            "openSUSE Tumbleweed:libipa_hbac0-1.14.2-3.1",
            "openSUSE Tumbleweed:libnfsidmap-sss-1.14.2-3.1",
            "openSUSE Tumbleweed:libsss_idmap-devel-1.14.2-3.1",
            "openSUSE Tumbleweed:libsss_idmap0-1.14.2-3.1",
            "openSUSE Tumbleweed:libsss_nss_idmap-devel-1.14.2-3.1",
            "openSUSE Tumbleweed:libsss_nss_idmap0-1.14.2-3.1",
            "openSUSE Tumbleweed:libsss_simpleifp-devel-1.14.2-3.1",
            "openSUSE Tumbleweed:libsss_simpleifp0-1.14.2-3.1",
            "openSUSE Tumbleweed:python-ipa_hbac-1.14.2-3.1",
            "openSUSE Tumbleweed:python-sss-murmur-1.14.2-3.1",
            "openSUSE Tumbleweed:python-sss_nss_idmap-1.14.2-3.1",
            "openSUSE Tumbleweed:python-sssd-config-1.14.2-3.1",
            "openSUSE Tumbleweed:python3-ipa_hbac-1.14.2-3.1",
            "openSUSE Tumbleweed:python3-sss-murmur-1.14.2-3.1",
            "openSUSE Tumbleweed:python3-sss_nss_idmap-1.14.2-3.1",
            "openSUSE Tumbleweed:python3-sssd-config-1.14.2-3.1",
            "openSUSE Tumbleweed:sssd-1.14.2-3.1",
            "openSUSE Tumbleweed:sssd-32bit-1.14.2-3.1",
            "openSUSE Tumbleweed:sssd-ad-1.14.2-3.1",
            "openSUSE Tumbleweed:sssd-dbus-1.14.2-3.1",
            "openSUSE Tumbleweed:sssd-ipa-1.14.2-3.1",
            "openSUSE Tumbleweed:sssd-krb5-1.14.2-3.1",
            "openSUSE Tumbleweed:sssd-krb5-common-1.14.2-3.1",
            "openSUSE Tumbleweed:sssd-ldap-1.14.2-3.1",
            "openSUSE Tumbleweed:sssd-proxy-1.14.2-3.1",
            "openSUSE Tumbleweed:sssd-tools-1.14.2-3.1",
            "openSUSE Tumbleweed:sssd-wbclient-1.14.2-3.1",
            "openSUSE Tumbleweed:sssd-wbclient-devel-1.14.2-3.1",
            "openSUSE Tumbleweed:sssd-winbind-idmap-1.14.2-3.1"
          ]
        }
      ],
      "CVSSScoreSets": {
        "BaseScore": "2.4",
        "Vector": "AV:L/AC:H/Au:S/C:P/I:P/A:N"
      }
    }
  ]
}