{
  "Title": "dpic-2023.02.01-2.1 on GA media",
  "Tracking": {
    "ID": "openSUSE-SU-2024:13194-1",
    "Status": "Final",
    "Version": "1",
    "InitialReleaseDate": "2024-06-20T21:44:22Z",
    "CurrentReleaseDate": "2024-06-20T21:44:22Z",
    "RevisionHistory": [
      {
        "Number": "1",
        "Date": "2024-06-20T21:44:22Z",
        "Description": "current"
      }
    ]
  },
  "Notes": [
    {
      "Text": "dpic-2023.02.01-2.1 on GA media",
      "Title": "Topic",
      "Type": "Summary"
    },
    {
      "Text": "These are all security issues fixed in the dpic-2023.02.01-2.1 package on the GA media of openSUSE Tumbleweed.",
      "Title": "Details",
      "Type": "General"
    },
    {
      "Text": "The CVRF data is provided by SUSE under the Creative Commons License 4.0 with Attribution (CC-BY-4.0).",
      "Title": "Terms of Use",
      "Type": "Legal Disclaimer"
    },
    {
      "Text": "openSUSE-Tumbleweed-2024-13194",
      "Title": "Patchnames",
      "Type": "Details"
    }
  ],
  "ProductTree": {
    "Relationships": [
      {
        "ProductReference": "dpic-2023.02.01-2.1",
        "RelatesToProductReference": "openSUSE Tumbleweed",
        "RelationType": "Default Component Of"
      },
      {
        "ProductReference": "dpic-doc-2023.02.01-2.1",
        "RelatesToProductReference": "openSUSE Tumbleweed",
        "RelationType": "Default Component Of"
      }
    ]
  },
  "References": [
    {
      "URL": "https://www.suse.com/support/security/rating/",
      "Description": "SUSE Security Ratings"
    },
    {
      "URL": "https://www.suse.com/security/cve/CVE-2021-32420/",
      "Description": "SUSE CVE CVE-2021-32420 page"
    },
    {
      "URL": "https://www.suse.com/security/cve/CVE-2021-32421/",
      "Description": "SUSE CVE CVE-2021-32421 page"
    },
    {
      "URL": "https://www.suse.com/security/cve/CVE-2021-32422/",
      "Description": "SUSE CVE CVE-2021-32422 page"
    },
    {
      "URL": "https://www.suse.com/security/cve/CVE-2021-33388/",
      "Description": "SUSE CVE CVE-2021-33388 page"
    },
    {
      "URL": "https://www.suse.com/security/cve/CVE-2021-33390/",
      "Description": "SUSE CVE CVE-2021-33390 page"
    }
  ],
  "Vulnerabilities": [
    {
      "CVE": "CVE-2021-32420",
      "Description": "dpic 2021.01.01 has a Heap-based Buffer Overflow in thestorestring function in dpic.y.",
      "Threats": [
        {
          "Type": "Impact",
          "Severity": "moderate"
        }
      ],
      "References": [
        {
          "URL": "https://www.suse.com/security/cve/CVE-2021-32420.html",
          "Description": "CVE-2021-32420"
        },
        {
          "URL": "https://bugzilla.suse.com/1214505",
          "Description": "SUSE Bug 1214505"
        }
      ],
      "ProductStatuses": [
        {
          "Type": "Fixed",
          "ProductID": [
            "openSUSE Tumbleweed:dpic-2023.02.01-2.1",
            "openSUSE Tumbleweed:dpic-doc-2023.02.01-2.1"
          ]
        }
      ],
      "CVSSScoreSets": {}
    },
    {
      "CVE": "CVE-2021-32421",
      "Description": "dpic 2021.01.01 has a Heap Use-After-Free in thedeletestringbox() function in dpic.y.",
      "Threats": [
        {
          "Type": "Impact",
          "Severity": "moderate"
        }
      ],
      "References": [
        {
          "URL": "https://www.suse.com/security/cve/CVE-2021-32421.html",
          "Description": "CVE-2021-32421"
        },
        {
          "URL": "https://bugzilla.suse.com/1214501",
          "Description": "SUSE Bug 1214501"
        },
        {
          "URL": "https://bugzilla.suse.com/1214504",
          "Description": "SUSE Bug 1214504"
        }
      ],
      "ProductStatuses": [
        {
          "Type": "Fixed",
          "ProductID": [
            "openSUSE Tumbleweed:dpic-2023.02.01-2.1",
            "openSUSE Tumbleweed:dpic-doc-2023.02.01-2.1"
          ]
        }
      ],
      "CVSSScoreSets": {}
    },
    {
      "CVE": "CVE-2021-32422",
      "Description": "dpic 2021.01.01 has a Global buffer overflow in theyylex() function in main.c and reads out of the bound array.",
      "Threats": [
        {
          "Type": "Impact",
          "Severity": "moderate"
        }
      ],
      "References": [
        {
          "URL": "https://www.suse.com/security/cve/CVE-2021-32422.html",
          "Description": "CVE-2021-32422"
        },
        {
          "URL": "https://bugzilla.suse.com/1214503",
          "Description": "SUSE Bug 1214503"
        }
      ],
      "ProductStatuses": [
        {
          "Type": "Fixed",
          "ProductID": [
            "openSUSE Tumbleweed:dpic-2023.02.01-2.1",
            "openSUSE Tumbleweed:dpic-doc-2023.02.01-2.1"
          ]
        }
      ],
      "CVSSScoreSets": {}
    },
    {
      "CVE": "CVE-2021-33388",
      "Description": "dpic 2021.04.10 has a Heap Buffer Overflow in themakevar() function in dpic.y",
      "Threats": [
        {
          "Type": "Impact",
          "Severity": "moderate"
        }
      ],
      "References": [
        {
          "URL": "https://www.suse.com/security/cve/CVE-2021-33388.html",
          "Description": "CVE-2021-33388"
        },
        {
          "URL": "https://bugzilla.suse.com/1214502",
          "Description": "SUSE Bug 1214502"
        }
      ],
      "ProductStatuses": [
        {
          "Type": "Fixed",
          "ProductID": [
            "openSUSE Tumbleweed:dpic-2023.02.01-2.1",
            "openSUSE Tumbleweed:dpic-doc-2023.02.01-2.1"
          ]
        }
      ],
      "CVSSScoreSets": {}
    },
    {
      "CVE": "CVE-2021-33390",
      "Description": "dpic 2021.04.10 has a use-after-free in thedeletestringbox() function in dpic.y. A different vulnerablility than CVE-2021-32421.",
      "Threats": [
        {
          "Type": "Impact",
          "Severity": "moderate"
        }
      ],
      "References": [
        {
          "URL": "https://www.suse.com/security/cve/CVE-2021-33390.html",
          "Description": "CVE-2021-33390"
        },
        {
          "URL": "https://bugzilla.suse.com/1214501",
          "Description": "SUSE Bug 1214501"
        }
      ],
      "ProductStatuses": [
        {
          "Type": "Fixed",
          "ProductID": [
            "openSUSE Tumbleweed:dpic-2023.02.01-2.1",
            "openSUSE Tumbleweed:dpic-doc-2023.02.01-2.1"
          ]
        }
      ],
      "CVSSScoreSets": {}
    }
  ]
}