{
  "Title": "libvlc5-2.2.4-11.1 on GA media",
  "Tracking": {
    "ID": "openSUSE-SU-2024:10064-1",
    "Status": "Final",
    "Version": "1",
    "InitialReleaseDate": "2024-06-22T21:44:56Z",
    "CurrentReleaseDate": "2024-06-22T21:44:56Z",
    "RevisionHistory": [
      {
        "Number": "1",
        "Date": "2024-06-22T21:44:56Z",
        "Description": "current"
      }
    ]
  },
  "Notes": [
    {
      "Text": "libvlc5-2.2.4-11.1 on GA media",
      "Title": "Topic",
      "Type": "Summary"
    },
    {
      "Text": "These are all security issues fixed in the libvlc5-2.2.4-11.1 package on the GA media of openSUSE Tumbleweed.",
      "Title": "Details",
      "Type": "General"
    },
    {
      "Text": "The CVRF data is provided by SUSE under the Creative Commons License 4.0 with Attribution (CC-BY-4.0).",
      "Title": "Terms of Use",
      "Type": "Legal Disclaimer"
    },
    {
      "Text": "openSUSE-Tumbleweed-2024-10064",
      "Title": "Patchnames",
      "Type": "Details"
    }
  ],
  "ProductTree": {
    "Relationships": [
      {
        "ProductReference": "libvlc5-2.2.4-11.1",
        "RelatesToProductReference": "openSUSE Tumbleweed",
        "RelationType": "Default Component Of"
      },
      {
        "ProductReference": "libvlccore8-2.2.4-11.1",
        "RelatesToProductReference": "openSUSE Tumbleweed",
        "RelationType": "Default Component Of"
      },
      {
        "ProductReference": "vlc-2.2.4-11.1",
        "RelatesToProductReference": "openSUSE Tumbleweed",
        "RelationType": "Default Component Of"
      },
      {
        "ProductReference": "vlc-codec-gstreamer-2.2.4-11.1",
        "RelatesToProductReference": "openSUSE Tumbleweed",
        "RelationType": "Default Component Of"
      },
      {
        "ProductReference": "vlc-devel-2.2.4-11.1",
        "RelatesToProductReference": "openSUSE Tumbleweed",
        "RelationType": "Default Component Of"
      },
      {
        "ProductReference": "vlc-lang-2.2.4-11.1",
        "RelatesToProductReference": "openSUSE Tumbleweed",
        "RelationType": "Default Component Of"
      },
      {
        "ProductReference": "vlc-noX-2.2.4-11.1",
        "RelatesToProductReference": "openSUSE Tumbleweed",
        "RelationType": "Default Component Of"
      },
      {
        "ProductReference": "vlc-qt-2.2.4-11.1",
        "RelatesToProductReference": "openSUSE Tumbleweed",
        "RelationType": "Default Component Of"
      }
    ]
  },
  "References": [
    {
      "URL": "https://www.suse.com/support/security/rating/",
      "Description": "SUSE Security Ratings"
    },
    {
      "URL": "https://www.suse.com/security/cve/CVE-2010-2937/",
      "Description": "SUSE CVE CVE-2010-2937 page"
    },
    {
      "URL": "https://www.suse.com/security/cve/CVE-2010-3907/",
      "Description": "SUSE CVE CVE-2010-3907 page"
    },
    {
      "URL": "https://www.suse.com/security/cve/CVE-2011-2587/",
      "Description": "SUSE CVE CVE-2011-2587 page"
    },
    {
      "URL": "https://www.suse.com/security/cve/CVE-2011-2588/",
      "Description": "SUSE CVE CVE-2011-2588 page"
    },
    {
      "URL": "https://www.suse.com/security/cve/CVE-2014-9625/",
      "Description": "SUSE CVE CVE-2014-9625 page"
    },
    {
      "URL": "https://www.suse.com/security/cve/CVE-2015-5949/",
      "Description": "SUSE CVE CVE-2015-5949 page"
    },
    {
      "URL": "https://www.suse.com/security/cve/CVE-2015-7981/",
      "Description": "SUSE CVE CVE-2015-7981 page"
    },
    {
      "URL": "https://www.suse.com/security/cve/CVE-2015-8126/",
      "Description": "SUSE CVE CVE-2015-8126 page"
    },
    {
      "URL": "https://www.suse.com/security/cve/CVE-2016-5108/",
      "Description": "SUSE CVE CVE-2016-5108 page"
    }
  ],
  "Vulnerabilities": [
    {
      "CVE": "CVE-2010-2937",
      "Description": "The ReadMetaFromId3v2 function in taglib.cpp in the TagLib plugin in VideoLAN VLC media player 0.9.0 through 1.1.2 does not properly process ID3v2 tags, which allows remote attackers to cause a denial of service (application crash) via a crafted media file.",
      "Threats": [
        {
          "Type": "Impact",
          "Severity": "moderate"
        }
      ],
      "References": [
        {
          "URL": "https://www.suse.com/security/cve/CVE-2010-2937.html",
          "Description": "CVE-2010-2937"
        }
      ],
      "ProductStatuses": [
        {
          "Type": "Fixed",
          "ProductID": [
            "openSUSE Tumbleweed:libvlc5-2.2.4-11.1",
            "openSUSE Tumbleweed:libvlccore8-2.2.4-11.1",
            "openSUSE Tumbleweed:vlc-2.2.4-11.1",
            "openSUSE Tumbleweed:vlc-codec-gstreamer-2.2.4-11.1",
            "openSUSE Tumbleweed:vlc-devel-2.2.4-11.1",
            "openSUSE Tumbleweed:vlc-lang-2.2.4-11.1",
            "openSUSE Tumbleweed:vlc-noX-2.2.4-11.1",
            "openSUSE Tumbleweed:vlc-qt-2.2.4-11.1"
          ]
        }
      ],
      "CVSSScoreSets": {}
    },
    {
      "CVE": "CVE-2010-3907",
      "Description": "Multiple integer overflows in real.c in the Real demuxer plugin in VideoLAN VLC Media Player before 1.1.6 allow remote attackers to cause a denial of service (application crash) or possibly execute arbitrary code via a zero i_subpackets value in a Real Media file, leading to a heap-based buffer overflow.",
      "Threats": [
        {
          "Type": "Impact",
          "Severity": "moderate"
        }
      ],
      "References": [
        {
          "URL": "https://www.suse.com/security/cve/CVE-2010-3907.html",
          "Description": "CVE-2010-3907"
        }
      ],
      "ProductStatuses": [
        {
          "Type": "Fixed",
          "ProductID": [
            "openSUSE Tumbleweed:libvlc5-2.2.4-11.1",
            "openSUSE Tumbleweed:libvlccore8-2.2.4-11.1",
            "openSUSE Tumbleweed:vlc-2.2.4-11.1",
            "openSUSE Tumbleweed:vlc-codec-gstreamer-2.2.4-11.1",
            "openSUSE Tumbleweed:vlc-devel-2.2.4-11.1",
            "openSUSE Tumbleweed:vlc-lang-2.2.4-11.1",
            "openSUSE Tumbleweed:vlc-noX-2.2.4-11.1",
            "openSUSE Tumbleweed:vlc-qt-2.2.4-11.1"
          ]
        }
      ],
      "CVSSScoreSets": {}
    },
    {
      "CVE": "CVE-2011-2587",
      "Description": "Heap-based buffer overflow in the DemuxAudioSipr function in real.c in the RealMedia demuxer in VideoLAN VLC media player 1.1.x before 1.1.11 allows remote attackers to cause a denial of service (application crash) or possibly execute arbitrary code via a crafted Real Media file.",
      "Threats": [
        {
          "Type": "Impact",
          "Severity": "moderate"
        }
      ],
      "References": [
        {
          "URL": "https://www.suse.com/security/cve/CVE-2011-2587.html",
          "Description": "CVE-2011-2587"
        }
      ],
      "ProductStatuses": [
        {
          "Type": "Fixed",
          "ProductID": [
            "openSUSE Tumbleweed:libvlc5-2.2.4-11.1",
            "openSUSE Tumbleweed:libvlccore8-2.2.4-11.1",
            "openSUSE Tumbleweed:vlc-2.2.4-11.1",
            "openSUSE Tumbleweed:vlc-codec-gstreamer-2.2.4-11.1",
            "openSUSE Tumbleweed:vlc-devel-2.2.4-11.1",
            "openSUSE Tumbleweed:vlc-lang-2.2.4-11.1",
            "openSUSE Tumbleweed:vlc-noX-2.2.4-11.1",
            "openSUSE Tumbleweed:vlc-qt-2.2.4-11.1"
          ]
        }
      ],
      "CVSSScoreSets": {}
    },
    {
      "CVE": "CVE-2011-2588",
      "Description": "Heap-based buffer overflow in the AVI_ChunkRead_strf function in libavi.c in the AVI demuxer in VideoLAN VLC media player before 1.1.11 allows remote attackers to cause a denial of service (application crash) or possibly execute arbitrary code via a crafted AVI media file.",
      "Threats": [
        {
          "Type": "Impact",
          "Severity": "moderate"
        }
      ],
      "References": [
        {
          "URL": "https://www.suse.com/security/cve/CVE-2011-2588.html",
          "Description": "CVE-2011-2588"
        }
      ],
      "ProductStatuses": [
        {
          "Type": "Fixed",
          "ProductID": [
            "openSUSE Tumbleweed:libvlc5-2.2.4-11.1",
            "openSUSE Tumbleweed:libvlccore8-2.2.4-11.1",
            "openSUSE Tumbleweed:vlc-2.2.4-11.1",
            "openSUSE Tumbleweed:vlc-codec-gstreamer-2.2.4-11.1",
            "openSUSE Tumbleweed:vlc-devel-2.2.4-11.1",
            "openSUSE Tumbleweed:vlc-lang-2.2.4-11.1",
            "openSUSE Tumbleweed:vlc-noX-2.2.4-11.1",
            "openSUSE Tumbleweed:vlc-qt-2.2.4-11.1"
          ]
        }
      ],
      "CVSSScoreSets": {}
    },
    {
      "CVE": "CVE-2014-9625",
      "Description": "The GetUpdateFile function in misc/update.c in the Updater in VideoLAN VLC media player before 2.1.6 performs an incorrect cast operation from a 64-bit integer to a 32-bit integer, which allows remote attackers to conduct buffer overflow attacks and execute arbitrary code via a crafted update status file, aka an \"integer truncation\" vulnerability.",
      "Threats": [
        {
          "Type": "Impact",
          "Severity": "moderate"
        }
      ],
      "References": [
        {
          "URL": "https://www.suse.com/security/cve/CVE-2014-9625.html",
          "Description": "CVE-2014-9625"
        },
        {
          "URL": "https://bugzilla.suse.com/914268",
          "Description": "SUSE Bug 914268"
        },
        {
          "URL": "https://bugzilla.suse.com/920781",
          "Description": "SUSE Bug 920781"
        }
      ],
      "ProductStatuses": [
        {
          "Type": "Fixed",
          "ProductID": [
            "openSUSE Tumbleweed:libvlc5-2.2.4-11.1",
            "openSUSE Tumbleweed:libvlccore8-2.2.4-11.1",
            "openSUSE Tumbleweed:vlc-2.2.4-11.1",
            "openSUSE Tumbleweed:vlc-codec-gstreamer-2.2.4-11.1",
            "openSUSE Tumbleweed:vlc-devel-2.2.4-11.1",
            "openSUSE Tumbleweed:vlc-lang-2.2.4-11.1",
            "openSUSE Tumbleweed:vlc-noX-2.2.4-11.1",
            "openSUSE Tumbleweed:vlc-qt-2.2.4-11.1"
          ]
        }
      ],
      "CVSSScoreSets": {}
    },
    {
      "CVE": "CVE-2015-5949",
      "Description": "VideoLAN VLC media player 2.2.1 allows remote attackers to cause a denial of service (crash) and possibly execute arbitrary code via a crafted 3GP file, which triggers the freeing of arbitrary pointers.",
      "Threats": [
        {
          "Type": "Impact",
          "Severity": "moderate"
        }
      ],
      "References": [
        {
          "URL": "https://www.suse.com/security/cve/CVE-2015-5949.html",
          "Description": "CVE-2015-5949"
        },
        {
          "URL": "https://bugzilla.suse.com/965227",
          "Description": "SUSE Bug 965227"
        }
      ],
      "ProductStatuses": [
        {
          "Type": "Fixed",
          "ProductID": [
            "openSUSE Tumbleweed:libvlc5-2.2.4-11.1",
            "openSUSE Tumbleweed:libvlccore8-2.2.4-11.1",
            "openSUSE Tumbleweed:vlc-2.2.4-11.1",
            "openSUSE Tumbleweed:vlc-codec-gstreamer-2.2.4-11.1",
            "openSUSE Tumbleweed:vlc-devel-2.2.4-11.1",
            "openSUSE Tumbleweed:vlc-lang-2.2.4-11.1",
            "openSUSE Tumbleweed:vlc-noX-2.2.4-11.1",
            "openSUSE Tumbleweed:vlc-qt-2.2.4-11.1"
          ]
        }
      ],
      "CVSSScoreSets": {}
    },
    {
      "CVE": "CVE-2015-7981",
      "Description": "The png_convert_to_rfc1123 function in png.c in libpng 1.0.x before 1.0.64, 1.2.x before 1.2.54, and 1.4.x before 1.4.17 allows remote attackers to obtain sensitive process memory information via crafted tIME chunk data in an image file, which triggers an out-of-bounds read.",
      "Threats": [
        {
          "Type": "Impact",
          "Severity": "moderate"
        }
      ],
      "References": [
        {
          "URL": "https://www.suse.com/security/cve/CVE-2015-7981.html",
          "Description": "CVE-2015-7981"
        },
        {
          "URL": "https://bugzilla.suse.com/952051",
          "Description": "SUSE Bug 952051"
        },
        {
          "URL": "https://bugzilla.suse.com/960402",
          "Description": "SUSE Bug 960402"
        },
        {
          "URL": "https://bugzilla.suse.com/963937",
          "Description": "SUSE Bug 963937"
        }
      ],
      "ProductStatuses": [
        {
          "Type": "Fixed",
          "ProductID": [
            "openSUSE Tumbleweed:libvlc5-2.2.4-11.1",
            "openSUSE Tumbleweed:libvlccore8-2.2.4-11.1",
            "openSUSE Tumbleweed:vlc-2.2.4-11.1",
            "openSUSE Tumbleweed:vlc-codec-gstreamer-2.2.4-11.1",
            "openSUSE Tumbleweed:vlc-devel-2.2.4-11.1",
            "openSUSE Tumbleweed:vlc-lang-2.2.4-11.1",
            "openSUSE Tumbleweed:vlc-noX-2.2.4-11.1",
            "openSUSE Tumbleweed:vlc-qt-2.2.4-11.1"
          ]
        }
      ],
      "CVSSScoreSets": {
        "BaseScore": "4.3",
        "Vector": "AV:N/AC:M/Au:N/C:N/I:P/A:N"
      }
    },
    {
      "CVE": "CVE-2015-8126",
      "Description": "Multiple buffer overflows in the (1) png_set_PLTE and (2) png_get_PLTE functions in libpng before 1.0.64, 1.1.x and 1.2.x before 1.2.54, 1.3.x and 1.4.x before 1.4.17, 1.5.x before 1.5.24, and 1.6.x before 1.6.19 allow remote attackers to cause a denial of service (application crash) or possibly have unspecified other impact via a small bit-depth value in an IHDR (aka image header) chunk in a PNG image.",
      "Threats": [
        {
          "Type": "Impact",
          "Severity": "moderate"
        }
      ],
      "References": [
        {
          "URL": "https://www.suse.com/security/cve/CVE-2015-8126.html",
          "Description": "CVE-2015-8126"
        },
        {
          "URL": "https://bugzilla.suse.com/954980",
          "Description": "SUSE Bug 954980"
        },
        {
          "URL": "https://bugzilla.suse.com/958198",
          "Description": "SUSE Bug 958198"
        },
        {
          "URL": "https://bugzilla.suse.com/960402",
          "Description": "SUSE Bug 960402"
        },
        {
          "URL": "https://bugzilla.suse.com/962743",
          "Description": "SUSE Bug 962743"
        },
        {
          "URL": "https://bugzilla.suse.com/963937",
          "Description": "SUSE Bug 963937"
        },
        {
          "URL": "https://bugzilla.suse.com/969333",
          "Description": "SUSE Bug 969333"
        }
      ],
      "ProductStatuses": [
        {
          "Type": "Fixed",
          "ProductID": [
            "openSUSE Tumbleweed:libvlc5-2.2.4-11.1",
            "openSUSE Tumbleweed:libvlccore8-2.2.4-11.1",
            "openSUSE Tumbleweed:vlc-2.2.4-11.1",
            "openSUSE Tumbleweed:vlc-codec-gstreamer-2.2.4-11.1",
            "openSUSE Tumbleweed:vlc-devel-2.2.4-11.1",
            "openSUSE Tumbleweed:vlc-lang-2.2.4-11.1",
            "openSUSE Tumbleweed:vlc-noX-2.2.4-11.1",
            "openSUSE Tumbleweed:vlc-qt-2.2.4-11.1"
          ]
        }
      ],
      "CVSSScoreSets": {
        "BaseScore": "4.3",
        "Vector": "AV:L/AC:L/Au:S/C:P/I:P/A:P"
      }
    },
    {
      "CVE": "CVE-2016-5108",
      "Description": "Buffer overflow in the DecodeAdpcmImaQT function in modules/codec/adpcm.c in VideoLAN VLC media player before 2.2.4 allows remote attackers to cause a denial of service (crash) or possibly execute arbitrary code via a crafted QuickTime IMA file.",
      "Threats": [
        {
          "Type": "Impact",
          "Severity": "moderate"
        }
      ],
      "References": [
        {
          "URL": "https://www.suse.com/security/cve/CVE-2016-5108.html",
          "Description": "CVE-2016-5108"
        },
        {
          "URL": "https://bugzilla.suse.com/984382",
          "Description": "SUSE Bug 984382"
        }
      ],
      "ProductStatuses": [
        {
          "Type": "Fixed",
          "ProductID": [
            "openSUSE Tumbleweed:libvlc5-2.2.4-11.1",
            "openSUSE Tumbleweed:libvlccore8-2.2.4-11.1",
            "openSUSE Tumbleweed:vlc-2.2.4-11.1",
            "openSUSE Tumbleweed:vlc-codec-gstreamer-2.2.4-11.1",
            "openSUSE Tumbleweed:vlc-devel-2.2.4-11.1",
            "openSUSE Tumbleweed:vlc-lang-2.2.4-11.1",
            "openSUSE Tumbleweed:vlc-noX-2.2.4-11.1",
            "openSUSE Tumbleweed:vlc-qt-2.2.4-11.1"
          ]
        }
      ],
      "CVSSScoreSets": {
        "BaseScore": "7.5",
        "Vector": "AV:N/AC:L/Au:N/C:P/I:P/A:P"
      }
    }
  ]
}