{
  "Title": "filezilla-3.67.0-1.1 on GA media",
  "Tracking": {
    "ID": "openSUSE-SU-2024:13870-1",
    "Status": "Final",
    "Version": "1",
    "InitialReleaseDate": "2024-06-20T21:44:22Z",
    "CurrentReleaseDate": "2024-06-20T21:44:22Z",
    "RevisionHistory": [
      {
        "Number": "1",
        "Date": "2024-06-20T21:44:22Z",
        "Description": "current"
      }
    ]
  },
  "Notes": [
    {
      "Text": "filezilla-3.67.0-1.1 on GA media",
      "Title": "Topic",
      "Type": "Summary"
    },
    {
      "Text": "These are all security issues fixed in the filezilla-3.67.0-1.1 package on the GA media of openSUSE Tumbleweed.",
      "Title": "Details",
      "Type": "General"
    },
    {
      "Text": "The CVRF data is provided by SUSE under the Creative Commons License 4.0 with Attribution (CC-BY-4.0).",
      "Title": "Terms of Use",
      "Type": "Legal Disclaimer"
    },
    {
      "Text": "openSUSE-Tumbleweed-2024-13870",
      "Title": "Patchnames",
      "Type": "Details"
    }
  ],
  "ProductTree": {
    "Relationships": [
      {
        "ProductReference": "filezilla-3.67.0-1.1",
        "RelatesToProductReference": "openSUSE Tumbleweed",
        "RelationType": "Default Component Of"
      },
      {
        "ProductReference": "filezilla-devel-3.67.0-1.1",
        "RelatesToProductReference": "openSUSE Tumbleweed",
        "RelationType": "Default Component Of"
      },
      {
        "ProductReference": "filezilla-lang-3.67.0-1.1",
        "RelatesToProductReference": "openSUSE Tumbleweed",
        "RelationType": "Default Component Of"
      }
    ]
  },
  "References": [
    {
      "URL": "https://www.suse.com/support/security/rating/",
      "Description": "SUSE Security Ratings"
    },
    {
      "URL": "https://www.suse.com/security/cve/CVE-2024-31497/",
      "Description": "SUSE CVE CVE-2024-31497 page"
    }
  ],
  "Vulnerabilities": [
    {
      "CVE": "CVE-2024-31497",
      "Description": "In PuTTY 0.68 through 0.80 before 0.81, biased ECDSA nonce generation allows an attacker to recover a user's NIST P-521 secret key via a quick attack in approximately 60 signatures. This is especially important in a scenario where an adversary is able to read messages signed by PuTTY or Pageant. The required set of signed messages may be publicly readable because they are stored in a public Git service that supports use of SSH for commit signing, and the signatures were made by Pageant through an agent-forwarding mechanism. In other words, an adversary may already have enough signature information to compromise a victim's private key, even if there is no further use of vulnerable PuTTY versions. After a key compromise, an adversary may be able to conduct supply-chain attacks on software maintained in Git. A second, independent scenario is that the adversary is an operator of an SSH server to which the victim authenticates (for remote login or file copy), even though this server is not fully trusted by the victim, and the victim uses the same private key for SSH connections to other services operated by other entities. Here, the rogue server operator (who would otherwise have no way to determine the victim's private key) can derive the victim's private key, and then use it for unauthorized access to those other services. If the other services include Git services, then again it may be possible to conduct supply-chain attacks on software maintained in Git. This also affects, for example, FileZilla before 3.67.0, WinSCP before 6.3.3, TortoiseGit before 2.15.0.1, and TortoiseSVN through 1.14.6.",
      "Threats": [
        {
          "Type": "Impact",
          "Severity": "moderate"
        }
      ],
      "References": [
        {
          "URL": "https://www.suse.com/security/cve/CVE-2024-31497.html",
          "Description": "CVE-2024-31497"
        },
        {
          "URL": "https://bugzilla.suse.com/1222864",
          "Description": "SUSE Bug 1222864"
        }
      ],
      "ProductStatuses": [
        {
          "Type": "Fixed",
          "ProductID": [
            "openSUSE Tumbleweed:filezilla-3.67.0-1.1",
            "openSUSE Tumbleweed:filezilla-devel-3.67.0-1.1",
            "openSUSE Tumbleweed:filezilla-lang-3.67.0-1.1"
          ]
        }
      ],
      "CVSSScoreSets": {}
    }
  ]
}