{
  "Title": "gnome-remote-desktop-46.2-1.1 on GA media",
  "Tracking": {
    "ID": "openSUSE-SU-2024:14002-1",
    "Status": "Final",
    "Version": "1",
    "InitialReleaseDate": "2024-06-20T21:44:22Z",
    "CurrentReleaseDate": "2024-06-20T21:44:22Z",
    "RevisionHistory": [
      {
        "Number": "1",
        "Date": "2024-06-20T21:44:22Z",
        "Description": "current"
      }
    ]
  },
  "Notes": [
    {
      "Text": "gnome-remote-desktop-46.2-1.1 on GA media",
      "Title": "Topic",
      "Type": "Summary"
    },
    {
      "Text": "These are all security issues fixed in the gnome-remote-desktop-46.2-1.1 package on the GA media of openSUSE Tumbleweed.",
      "Title": "Details",
      "Type": "General"
    },
    {
      "Text": "The CVRF data is provided by SUSE under the Creative Commons License 4.0 with Attribution (CC-BY-4.0).",
      "Title": "Terms of Use",
      "Type": "Legal Disclaimer"
    },
    {
      "Text": "openSUSE-Tumbleweed-2024-14002",
      "Title": "Patchnames",
      "Type": "Details"
    }
  ],
  "ProductTree": {
    "Relationships": [
      {
        "ProductReference": "gnome-remote-desktop-46.2-1.1",
        "RelatesToProductReference": "openSUSE Tumbleweed",
        "RelationType": "Default Component Of"
      },
      {
        "ProductReference": "gnome-remote-desktop-lang-46.2-1.1",
        "RelatesToProductReference": "openSUSE Tumbleweed",
        "RelationType": "Default Component Of"
      }
    ]
  },
  "References": [
    {
      "URL": "https://www.suse.com/support/security/rating/",
      "Description": "SUSE Security Ratings"
    },
    {
      "URL": "https://www.suse.com/security/cve/CVE-2024-5148/",
      "Description": "SUSE CVE CVE-2024-5148 page"
    }
  ],
  "Vulnerabilities": [
    {
      "CVE": "CVE-2024-5148",
      "Description": "** RESERVED ** This candidate has been reserved by an organization or individual that will use it when announcing a new security problem. When the candidate has been publicized, the details for this candidate will be provided.",
      "Threats": [
        {
          "Type": "Impact",
          "Severity": "moderate"
        }
      ],
      "References": [
        {
          "URL": "https://www.suse.com/security/cve/CVE-2024-5148.html",
          "Description": "CVE-2024-5148"
        },
        {
          "URL": "https://bugzilla.suse.com/1222159",
          "Description": "SUSE Bug 1222159"
        }
      ],
      "ProductStatuses": [
        {
          "Type": "Fixed",
          "ProductID": [
            "openSUSE Tumbleweed:gnome-remote-desktop-46.2-1.1",
            "openSUSE Tumbleweed:gnome-remote-desktop-lang-46.2-1.1"
          ]
        }
      ],
      "CVSSScoreSets": {}
    }
  ]
}