{
  "Title": "libudisks2-0-2.1.8-1.1 on GA media",
  "Tracking": {
    "ID": "openSUSE-SU-2024:10495-1",
    "Status": "Final",
    "Version": "1",
    "InitialReleaseDate": "2024-06-22T21:44:56Z",
    "CurrentReleaseDate": "2024-06-22T21:44:56Z",
    "RevisionHistory": [
      {
        "Number": "1",
        "Date": "2024-06-22T21:44:56Z",
        "Description": "current"
      }
    ]
  },
  "Notes": [
    {
      "Text": "libudisks2-0-2.1.8-1.1 on GA media",
      "Title": "Topic",
      "Type": "Summary"
    },
    {
      "Text": "These are all security issues fixed in the libudisks2-0-2.1.8-1.1 package on the GA media of openSUSE Tumbleweed.",
      "Title": "Details",
      "Type": "General"
    },
    {
      "Text": "The CVRF data is provided by SUSE under the Creative Commons License 4.0 with Attribution (CC-BY-4.0).",
      "Title": "Terms of Use",
      "Type": "Legal Disclaimer"
    },
    {
      "Text": "openSUSE-Tumbleweed-2024-10495",
      "Title": "Patchnames",
      "Type": "Details"
    }
  ],
  "ProductTree": {
    "Relationships": [
      {
        "ProductReference": "libudisks2-0-2.1.8-1.1",
        "RelatesToProductReference": "openSUSE Tumbleweed",
        "RelationType": "Default Component Of"
      },
      {
        "ProductReference": "typelib-1_0-UDisks-2_0-2.1.8-1.1",
        "RelatesToProductReference": "openSUSE Tumbleweed",
        "RelationType": "Default Component Of"
      },
      {
        "ProductReference": "udisks2-2.1.8-1.1",
        "RelatesToProductReference": "openSUSE Tumbleweed",
        "RelationType": "Default Component Of"
      },
      {
        "ProductReference": "udisks2-devel-2.1.8-1.1",
        "RelatesToProductReference": "openSUSE Tumbleweed",
        "RelationType": "Default Component Of"
      },
      {
        "ProductReference": "udisks2-lang-2.1.8-1.1",
        "RelatesToProductReference": "openSUSE Tumbleweed",
        "RelationType": "Default Component Of"
      }
    ]
  },
  "References": [
    {
      "URL": "https://www.suse.com/support/security/rating/",
      "Description": "SUSE Security Ratings"
    },
    {
      "URL": "https://www.suse.com/security/cve/CVE-2014-0004/",
      "Description": "SUSE CVE CVE-2014-0004 page"
    }
  ],
  "Vulnerabilities": [
    {
      "CVE": "CVE-2014-0004",
      "Description": "Stack-based buffer overflow in udisks before 1.0.5 and 2.x before 2.1.3 allows local users to cause a denial of service (crash) and possibly execute arbitrary code via a long mount point.",
      "Threats": [
        {
          "Type": "Impact",
          "Severity": "moderate"
        }
      ],
      "References": [
        {
          "URL": "https://www.suse.com/security/cve/CVE-2014-0004.html",
          "Description": "CVE-2014-0004"
        },
        {
          "URL": "https://bugzilla.suse.com/865854",
          "Description": "SUSE Bug 865854"
        }
      ],
      "ProductStatuses": [
        {
          "Type": "Fixed",
          "ProductID": [
            "openSUSE Tumbleweed:libudisks2-0-2.1.8-1.1",
            "openSUSE Tumbleweed:typelib-1_0-UDisks-2_0-2.1.8-1.1",
            "openSUSE Tumbleweed:udisks2-2.1.8-1.1",
            "openSUSE Tumbleweed:udisks2-devel-2.1.8-1.1",
            "openSUSE Tumbleweed:udisks2-lang-2.1.8-1.1"
          ]
        }
      ],
      "CVSSScoreSets": {}
    }
  ]
}