{
  "Title": "pam-1.3.0-3.4 on GA media",
  "Tracking": {
    "ID": "openSUSE-SU-2024:10405-1",
    "Status": "Final",
    "Version": "1",
    "InitialReleaseDate": "2024-06-22T21:44:56Z",
    "CurrentReleaseDate": "2024-06-22T21:44:56Z",
    "RevisionHistory": [
      {
        "Number": "1",
        "Date": "2024-06-22T21:44:56Z",
        "Description": "current"
      }
    ]
  },
  "Notes": [
    {
      "Text": "pam-1.3.0-3.4 on GA media",
      "Title": "Topic",
      "Type": "Summary"
    },
    {
      "Text": "These are all security issues fixed in the pam-1.3.0-3.4 package on the GA media of openSUSE Tumbleweed.",
      "Title": "Details",
      "Type": "General"
    },
    {
      "Text": "The CVRF data is provided by SUSE under the Creative Commons License 4.0 with Attribution (CC-BY-4.0).",
      "Title": "Terms of Use",
      "Type": "Legal Disclaimer"
    },
    {
      "Text": "openSUSE-Tumbleweed-2024-10405",
      "Title": "Patchnames",
      "Type": "Details"
    }
  ],
  "ProductTree": {
    "Relationships": [
      {
        "ProductReference": "pam-1.3.0-3.4",
        "RelatesToProductReference": "openSUSE Tumbleweed",
        "RelationType": "Default Component Of"
      },
      {
        "ProductReference": "pam-32bit-1.3.0-3.4",
        "RelatesToProductReference": "openSUSE Tumbleweed",
        "RelationType": "Default Component Of"
      },
      {
        "ProductReference": "pam-devel-1.3.0-3.4",
        "RelatesToProductReference": "openSUSE Tumbleweed",
        "RelationType": "Default Component Of"
      },
      {
        "ProductReference": "pam-devel-32bit-1.3.0-3.4",
        "RelatesToProductReference": "openSUSE Tumbleweed",
        "RelationType": "Default Component Of"
      },
      {
        "ProductReference": "pam-doc-1.3.0-3.4",
        "RelatesToProductReference": "openSUSE Tumbleweed",
        "RelationType": "Default Component Of"
      }
    ]
  },
  "References": [
    {
      "URL": "https://www.suse.com/support/security/rating/",
      "Description": "SUSE Security Ratings"
    },
    {
      "URL": "https://www.suse.com/security/cve/CVE-2010-3430/",
      "Description": "SUSE CVE CVE-2010-3430 page"
    },
    {
      "URL": "https://www.suse.com/security/cve/CVE-2010-3431/",
      "Description": "SUSE CVE CVE-2010-3431 page"
    },
    {
      "URL": "https://www.suse.com/security/cve/CVE-2010-3853/",
      "Description": "SUSE CVE CVE-2010-3853 page"
    },
    {
      "URL": "https://www.suse.com/security/cve/CVE-2011-3148/",
      "Description": "SUSE CVE CVE-2011-3148 page"
    },
    {
      "URL": "https://www.suse.com/security/cve/CVE-2011-3149/",
      "Description": "SUSE CVE CVE-2011-3149 page"
    },
    {
      "URL": "https://www.suse.com/security/cve/CVE-2014-2583/",
      "Description": "SUSE CVE CVE-2014-2583 page"
    },
    {
      "URL": "https://www.suse.com/security/cve/CVE-2015-3238/",
      "Description": "SUSE CVE CVE-2015-3238 page"
    }
  ],
  "Vulnerabilities": [
    {
      "CVE": "CVE-2010-3430",
      "Description": "The privilege-dropping implementation in the (1) pam_env and (2) pam_mail modules in Linux-PAM (aka pam) 1.1.2 does not perform the required setfsgid and setgroups system calls, which might allow local users to obtain sensitive information by leveraging unintended group permissions, as demonstrated by a symlink attack on the .pam_environment file in a user's home directory. NOTE: this vulnerability exists because of an incomplete fix for CVE-2010-3435.",
      "Threats": [
        {
          "Type": "Impact",
          "Severity": "moderate"
        }
      ],
      "References": [
        {
          "URL": "https://www.suse.com/security/cve/CVE-2010-3430.html",
          "Description": "CVE-2010-3430"
        },
        {
          "URL": "https://bugzilla.suse.com/623457",
          "Description": "SUSE Bug 623457"
        },
        {
          "URL": "https://bugzilla.suse.com/631802",
          "Description": "SUSE Bug 631802"
        }
      ],
      "ProductStatuses": [
        {
          "Type": "Fixed",
          "ProductID": [
            "openSUSE Tumbleweed:pam-1.3.0-3.4",
            "openSUSE Tumbleweed:pam-32bit-1.3.0-3.4",
            "openSUSE Tumbleweed:pam-devel-1.3.0-3.4",
            "openSUSE Tumbleweed:pam-devel-32bit-1.3.0-3.4",
            "openSUSE Tumbleweed:pam-doc-1.3.0-3.4"
          ]
        }
      ],
      "CVSSScoreSets": {}
    },
    {
      "CVE": "CVE-2010-3431",
      "Description": "The privilege-dropping implementation in the (1) pam_env and (2) pam_mail modules in Linux-PAM (aka pam) 1.1.2 does not check the return value of the setfsuid system call, which might allow local users to obtain sensitive information by leveraging an unintended uid, as demonstrated by a symlink attack on the .pam_environment file in a user's home directory. NOTE: this vulnerability exists because of an incomplete fix for CVE-2010-3435.",
      "Threats": [
        {
          "Type": "Impact",
          "Severity": "moderate"
        }
      ],
      "References": [
        {
          "URL": "https://www.suse.com/security/cve/CVE-2010-3431.html",
          "Description": "CVE-2010-3431"
        },
        {
          "URL": "https://bugzilla.suse.com/623457",
          "Description": "SUSE Bug 623457"
        }
      ],
      "ProductStatuses": [
        {
          "Type": "Fixed",
          "ProductID": [
            "openSUSE Tumbleweed:pam-1.3.0-3.4",
            "openSUSE Tumbleweed:pam-32bit-1.3.0-3.4",
            "openSUSE Tumbleweed:pam-devel-1.3.0-3.4",
            "openSUSE Tumbleweed:pam-devel-32bit-1.3.0-3.4",
            "openSUSE Tumbleweed:pam-doc-1.3.0-3.4"
          ]
        }
      ],
      "CVSSScoreSets": {}
    },
    {
      "CVE": "CVE-2010-3853",
      "Description": "pam_namespace.c in the pam_namespace module in Linux-PAM (aka pam) before 1.1.3 uses the environment of the invoking application or service during execution of the namespace.init script, which might allow local users to gain privileges by running a setuid program that relies on the pam_namespace PAM check, as demonstrated by the sudo program.",
      "Threats": [
        {
          "Type": "Impact",
          "Severity": "moderate"
        }
      ],
      "References": [
        {
          "URL": "https://www.suse.com/security/cve/CVE-2010-3853.html",
          "Description": "CVE-2010-3853"
        },
        {
          "URL": "https://bugzilla.suse.com/647958",
          "Description": "SUSE Bug 647958"
        }
      ],
      "ProductStatuses": [
        {
          "Type": "Fixed",
          "ProductID": [
            "openSUSE Tumbleweed:pam-1.3.0-3.4",
            "openSUSE Tumbleweed:pam-32bit-1.3.0-3.4",
            "openSUSE Tumbleweed:pam-devel-1.3.0-3.4",
            "openSUSE Tumbleweed:pam-devel-32bit-1.3.0-3.4",
            "openSUSE Tumbleweed:pam-doc-1.3.0-3.4"
          ]
        }
      ],
      "CVSSScoreSets": {}
    },
    {
      "CVE": "CVE-2011-3148",
      "Description": "Stack-based buffer overflow in the _assemble_line function in modules/pam_env/pam_env.c in Linux-PAM (aka pam) before 1.1.5 allows local users to cause a denial of service (crash) and possibly execute arbitrary code via a long string of white spaces at the beginning of the ~/.pam_environment file.",
      "Threats": [
        {
          "Type": "Impact",
          "Severity": "moderate"
        }
      ],
      "References": [
        {
          "URL": "https://www.suse.com/security/cve/CVE-2011-3148.html",
          "Description": "CVE-2011-3148"
        },
        {
          "URL": "https://bugzilla.suse.com/724480",
          "Description": "SUSE Bug 724480"
        }
      ],
      "ProductStatuses": [
        {
          "Type": "Fixed",
          "ProductID": [
            "openSUSE Tumbleweed:pam-1.3.0-3.4",
            "openSUSE Tumbleweed:pam-32bit-1.3.0-3.4",
            "openSUSE Tumbleweed:pam-devel-1.3.0-3.4",
            "openSUSE Tumbleweed:pam-devel-32bit-1.3.0-3.4",
            "openSUSE Tumbleweed:pam-doc-1.3.0-3.4"
          ]
        }
      ],
      "CVSSScoreSets": {}
    },
    {
      "CVE": "CVE-2011-3149",
      "Description": "The _expand_arg function in the pam_env module (modules/pam_env/pam_env.c) in Linux-PAM (aka pam) before 1.1.5 does not properly handle when environment variable expansion can overflow, which allows local users to cause a denial of service (CPU consumption).",
      "Threats": [
        {
          "Type": "Impact",
          "Severity": "moderate"
        }
      ],
      "References": [
        {
          "URL": "https://www.suse.com/security/cve/CVE-2011-3149.html",
          "Description": "CVE-2011-3149"
        },
        {
          "URL": "https://bugzilla.suse.com/724480",
          "Description": "SUSE Bug 724480"
        }
      ],
      "ProductStatuses": [
        {
          "Type": "Fixed",
          "ProductID": [
            "openSUSE Tumbleweed:pam-1.3.0-3.4",
            "openSUSE Tumbleweed:pam-32bit-1.3.0-3.4",
            "openSUSE Tumbleweed:pam-devel-1.3.0-3.4",
            "openSUSE Tumbleweed:pam-devel-32bit-1.3.0-3.4",
            "openSUSE Tumbleweed:pam-doc-1.3.0-3.4"
          ]
        }
      ],
      "CVSSScoreSets": {}
    },
    {
      "CVE": "CVE-2014-2583",
      "Description": "Multiple directory traversal vulnerabilities in pam_timestamp.c in the pam_timestamp module for Linux-PAM (aka pam) 1.1.8 allow local users to create arbitrary files or possibly bypass authentication via a .. (dot dot) in the (1) PAM_RUSER value to the get_ruser function or (2) PAM_TTY value to the check_tty function, which is used by the format_timestamp_name function.",
      "Threats": [
        {
          "Type": "Impact",
          "Severity": "moderate"
        }
      ],
      "References": [
        {
          "URL": "https://www.suse.com/security/cve/CVE-2014-2583.html",
          "Description": "CVE-2014-2583"
        },
        {
          "URL": "https://bugzilla.suse.com/870433",
          "Description": "SUSE Bug 870433"
        }
      ],
      "ProductStatuses": [
        {
          "Type": "Fixed",
          "ProductID": [
            "openSUSE Tumbleweed:pam-1.3.0-3.4",
            "openSUSE Tumbleweed:pam-32bit-1.3.0-3.4",
            "openSUSE Tumbleweed:pam-devel-1.3.0-3.4",
            "openSUSE Tumbleweed:pam-devel-32bit-1.3.0-3.4",
            "openSUSE Tumbleweed:pam-doc-1.3.0-3.4"
          ]
        }
      ],
      "CVSSScoreSets": {}
    },
    {
      "CVE": "CVE-2015-3238",
      "Description": "The _unix_run_helper_binary function in the pam_unix module in Linux-PAM (aka pam) before 1.2.1, when unable to directly access passwords, allows local users to enumerate usernames or cause a denial of service (hang) via a large password.",
      "Threats": [
        {
          "Type": "Impact",
          "Severity": "moderate"
        }
      ],
      "References": [
        {
          "URL": "https://www.suse.com/security/cve/CVE-2015-3238.html",
          "Description": "CVE-2015-3238"
        },
        {
          "URL": "https://bugzilla.suse.com/1123794",
          "Description": "SUSE Bug 1123794"
        },
        {
          "URL": "https://bugzilla.suse.com/934920",
          "Description": "SUSE Bug 934920"
        }
      ],
      "ProductStatuses": [
        {
          "Type": "Fixed",
          "ProductID": [
            "openSUSE Tumbleweed:pam-1.3.0-3.4",
            "openSUSE Tumbleweed:pam-32bit-1.3.0-3.4",
            "openSUSE Tumbleweed:pam-devel-1.3.0-3.4",
            "openSUSE Tumbleweed:pam-devel-32bit-1.3.0-3.4",
            "openSUSE Tumbleweed:pam-doc-1.3.0-3.4"
          ]
        }
      ],
      "CVSSScoreSets": {
        "BaseScore": "6.4",
        "Vector": "AV:N/AC:L/Au:N/C:P/I:N/A:P"
      }
    }
  ]
}