{
  "Title": "avahi-0.8-31.1 on GA media",
  "Tracking": {
    "ID": "openSUSE-SU-2024:13478-1",
    "Status": "Final",
    "Version": "1",
    "InitialReleaseDate": "2024-06-20T21:44:22Z",
    "CurrentReleaseDate": "2024-06-20T21:44:22Z",
    "RevisionHistory": [
      {
        "Number": "1",
        "Date": "2024-06-20T21:44:22Z",
        "Description": "current"
      }
    ]
  },
  "Notes": [
    {
      "Text": "avahi-0.8-31.1 on GA media",
      "Title": "Topic",
      "Type": "Summary"
    },
    {
      "Text": "These are all security issues fixed in the avahi-0.8-31.1 package on the GA media of openSUSE Tumbleweed.",
      "Title": "Details",
      "Type": "General"
    },
    {
      "Text": "The CVRF data is provided by SUSE under the Creative Commons License 4.0 with Attribution (CC-BY-4.0).",
      "Title": "Terms of Use",
      "Type": "Legal Disclaimer"
    },
    {
      "Text": "openSUSE-Tumbleweed-2024-13478",
      "Title": "Patchnames",
      "Type": "Details"
    }
  ],
  "ProductTree": {
    "Relationships": [
      {
        "ProductReference": "avahi-0.8-31.1",
        "RelatesToProductReference": "openSUSE Tumbleweed",
        "RelationType": "Default Component Of"
      },
      {
        "ProductReference": "avahi-autoipd-0.8-31.1",
        "RelatesToProductReference": "openSUSE Tumbleweed",
        "RelationType": "Default Component Of"
      },
      {
        "ProductReference": "avahi-compat-howl-devel-0.8-31.1",
        "RelatesToProductReference": "openSUSE Tumbleweed",
        "RelationType": "Default Component Of"
      },
      {
        "ProductReference": "avahi-compat-mDNSResponder-devel-0.8-31.1",
        "RelatesToProductReference": "openSUSE Tumbleweed",
        "RelationType": "Default Component Of"
      },
      {
        "ProductReference": "avahi-lang-0.8-31.1",
        "RelatesToProductReference": "openSUSE Tumbleweed",
        "RelationType": "Default Component Of"
      },
      {
        "ProductReference": "avahi-utils-0.8-31.1",
        "RelatesToProductReference": "openSUSE Tumbleweed",
        "RelationType": "Default Component Of"
      },
      {
        "ProductReference": "libavahi-client3-0.8-31.1",
        "RelatesToProductReference": "openSUSE Tumbleweed",
        "RelationType": "Default Component Of"
      },
      {
        "ProductReference": "libavahi-client3-32bit-0.8-31.1",
        "RelatesToProductReference": "openSUSE Tumbleweed",
        "RelationType": "Default Component Of"
      },
      {
        "ProductReference": "libavahi-common3-0.8-31.1",
        "RelatesToProductReference": "openSUSE Tumbleweed",
        "RelationType": "Default Component Of"
      },
      {
        "ProductReference": "libavahi-common3-32bit-0.8-31.1",
        "RelatesToProductReference": "openSUSE Tumbleweed",
        "RelationType": "Default Component Of"
      },
      {
        "ProductReference": "libavahi-core7-0.8-31.1",
        "RelatesToProductReference": "openSUSE Tumbleweed",
        "RelationType": "Default Component Of"
      },
      {
        "ProductReference": "libavahi-devel-0.8-31.1",
        "RelatesToProductReference": "openSUSE Tumbleweed",
        "RelationType": "Default Component Of"
      },
      {
        "ProductReference": "libavahi-libevent1-0.8-31.1",
        "RelatesToProductReference": "openSUSE Tumbleweed",
        "RelationType": "Default Component Of"
      },
      {
        "ProductReference": "libdns_sd-0.8-31.1",
        "RelatesToProductReference": "openSUSE Tumbleweed",
        "RelationType": "Default Component Of"
      },
      {
        "ProductReference": "libdns_sd-32bit-0.8-31.1",
        "RelatesToProductReference": "openSUSE Tumbleweed",
        "RelationType": "Default Component Of"
      },
      {
        "ProductReference": "libhowl0-0.8-31.1",
        "RelatesToProductReference": "openSUSE Tumbleweed",
        "RelationType": "Default Component Of"
      },
      {
        "ProductReference": "python310-avahi-0.8-31.1",
        "RelatesToProductReference": "openSUSE Tumbleweed",
        "RelationType": "Default Component Of"
      },
      {
        "ProductReference": "python311-avahi-0.8-31.1",
        "RelatesToProductReference": "openSUSE Tumbleweed",
        "RelationType": "Default Component Of"
      },
      {
        "ProductReference": "python39-avahi-0.8-31.1",
        "RelatesToProductReference": "openSUSE Tumbleweed",
        "RelationType": "Default Component Of"
      }
    ]
  },
  "References": [
    {
      "URL": "https://www.suse.com/support/security/rating/",
      "Description": "SUSE Security Ratings"
    },
    {
      "URL": "https://www.suse.com/security/cve/CVE-2023-38472/",
      "Description": "SUSE CVE CVE-2023-38472 page"
    }
  ],
  "Vulnerabilities": [
    {
      "CVE": "CVE-2023-38472",
      "Description": "A vulnerability was found in Avahi. A reachable assertion exists in the avahi_rdata_parse() function.",
      "Threats": [
        {
          "Type": "Impact",
          "Severity": "moderate"
        }
      ],
      "References": [
        {
          "URL": "https://www.suse.com/security/cve/CVE-2023-38472.html",
          "Description": "CVE-2023-38472"
        },
        {
          "URL": "https://bugzilla.suse.com/1216853",
          "Description": "SUSE Bug 1216853"
        }
      ],
      "ProductStatuses": [
        {
          "Type": "Fixed",
          "ProductID": [
            "openSUSE Tumbleweed:avahi-0.8-31.1",
            "openSUSE Tumbleweed:avahi-autoipd-0.8-31.1",
            "openSUSE Tumbleweed:avahi-compat-howl-devel-0.8-31.1",
            "openSUSE Tumbleweed:avahi-compat-mDNSResponder-devel-0.8-31.1",
            "openSUSE Tumbleweed:avahi-lang-0.8-31.1",
            "openSUSE Tumbleweed:avahi-utils-0.8-31.1",
            "openSUSE Tumbleweed:libavahi-client3-0.8-31.1",
            "openSUSE Tumbleweed:libavahi-client3-32bit-0.8-31.1",
            "openSUSE Tumbleweed:libavahi-common3-0.8-31.1",
            "openSUSE Tumbleweed:libavahi-common3-32bit-0.8-31.1",
            "openSUSE Tumbleweed:libavahi-core7-0.8-31.1",
            "openSUSE Tumbleweed:libavahi-devel-0.8-31.1",
            "openSUSE Tumbleweed:libavahi-libevent1-0.8-31.1",
            "openSUSE Tumbleweed:libdns_sd-0.8-31.1",
            "openSUSE Tumbleweed:libdns_sd-32bit-0.8-31.1",
            "openSUSE Tumbleweed:libhowl0-0.8-31.1",
            "openSUSE Tumbleweed:python310-avahi-0.8-31.1",
            "openSUSE Tumbleweed:python311-avahi-0.8-31.1",
            "openSUSE Tumbleweed:python39-avahi-0.8-31.1"
          ]
        }
      ],
      "CVSSScoreSets": {}
    }
  ]
}