{
  "Title": "gnome-extensions-40.5-1.1 on GA media",
  "Tracking": {
    "ID": "openSUSE-SU-2024:10797-1",
    "Status": "Final",
    "Version": "1",
    "InitialReleaseDate": "2024-06-22T21:44:56Z",
    "CurrentReleaseDate": "2024-06-22T21:44:56Z",
    "RevisionHistory": [
      {
        "Number": "1",
        "Date": "2024-06-22T21:44:56Z",
        "Description": "current"
      }
    ]
  },
  "Notes": [
    {
      "Text": "gnome-extensions-40.5-1.1 on GA media",
      "Title": "Topic",
      "Type": "Summary"
    },
    {
      "Text": "These are all security issues fixed in the gnome-extensions-40.5-1.1 package on the GA media of openSUSE Tumbleweed.",
      "Title": "Details",
      "Type": "General"
    },
    {
      "Text": "The CVRF data is provided by SUSE under the Creative Commons License 4.0 with Attribution (CC-BY-4.0).",
      "Title": "Terms of Use",
      "Type": "Legal Disclaimer"
    },
    {
      "Text": "openSUSE-Tumbleweed-2024-10797",
      "Title": "Patchnames",
      "Type": "Details"
    }
  ],
  "ProductTree": {
    "Relationships": [
      {
        "ProductReference": "gnome-extensions-40.5-1.1",
        "RelatesToProductReference": "openSUSE Tumbleweed",
        "RelationType": "Default Component Of"
      },
      {
        "ProductReference": "gnome-shell-40.5-1.1",
        "RelatesToProductReference": "openSUSE Tumbleweed",
        "RelationType": "Default Component Of"
      },
      {
        "ProductReference": "gnome-shell-calendar-40.5-1.1",
        "RelatesToProductReference": "openSUSE Tumbleweed",
        "RelationType": "Default Component Of"
      },
      {
        "ProductReference": "gnome-shell-devel-40.5-1.1",
        "RelatesToProductReference": "openSUSE Tumbleweed",
        "RelationType": "Default Component Of"
      },
      {
        "ProductReference": "gnome-shell-lang-40.5-1.1",
        "RelatesToProductReference": "openSUSE Tumbleweed",
        "RelationType": "Default Component Of"
      }
    ]
  },
  "References": [
    {
      "URL": "https://www.suse.com/support/security/rating/",
      "Description": "SUSE Security Ratings"
    },
    {
      "URL": "https://www.suse.com/security/cve/CVE-2017-8288/",
      "Description": "SUSE CVE CVE-2017-8288 page"
    },
    {
      "URL": "https://www.suse.com/security/cve/CVE-2019-3820/",
      "Description": "SUSE CVE CVE-2019-3820 page"
    },
    {
      "URL": "https://www.suse.com/security/cve/CVE-2020-12825/",
      "Description": "SUSE CVE CVE-2020-12825 page"
    },
    {
      "URL": "https://www.suse.com/security/cve/CVE-2020-17489/",
      "Description": "SUSE CVE CVE-2020-17489 page"
    }
  ],
  "Vulnerabilities": [
    {
      "CVE": "CVE-2017-8288",
      "Description": "gnome-shell 3.22 through 3.24.1 mishandles extensions that fail to reload, which can lead to leaving extensions enabled in the lock screen. With these extensions, a bystander could launch applications (but not interact with them), see information from the extensions (e.g., what applications you have opened or what music you were playing), or even execute arbitrary commands. It all depends on what extensions a user has enabled. The problem is caused by lack of exception handling in js/ui/extensionSystem.js.",
      "Threats": [
        {
          "Type": "Impact",
          "Severity": "moderate"
        }
      ],
      "References": [
        {
          "URL": "https://www.suse.com/security/cve/CVE-2017-8288.html",
          "Description": "CVE-2017-8288"
        },
        {
          "URL": "https://bugzilla.suse.com/1036494",
          "Description": "SUSE Bug 1036494"
        }
      ],
      "ProductStatuses": [
        {
          "Type": "Fixed",
          "ProductID": [
            "openSUSE Tumbleweed:gnome-extensions-40.5-1.1",
            "openSUSE Tumbleweed:gnome-shell-40.5-1.1",
            "openSUSE Tumbleweed:gnome-shell-calendar-40.5-1.1",
            "openSUSE Tumbleweed:gnome-shell-devel-40.5-1.1",
            "openSUSE Tumbleweed:gnome-shell-lang-40.5-1.1"
          ]
        }
      ],
      "CVSSScoreSets": {
        "BaseScore": "4.4",
        "Vector": "AV:L/AC:M/Au:N/C:P/I:P/A:P"
      }
    },
    {
      "CVE": "CVE-2019-3820",
      "Description": "It was discovered that the gnome-shell lock screen since version 3.15.91 did not properly restrict all contextual actions. An attacker with physical access to a locked workstation could invoke certain keyboard shortcuts, and potentially other actions.",
      "Threats": [
        {
          "Type": "Impact",
          "Severity": "moderate"
        }
      ],
      "References": [
        {
          "URL": "https://www.suse.com/security/cve/CVE-2019-3820.html",
          "Description": "CVE-2019-3820"
        },
        {
          "URL": "https://bugzilla.suse.com/1124493",
          "Description": "SUSE Bug 1124493"
        }
      ],
      "ProductStatuses": [
        {
          "Type": "Fixed",
          "ProductID": [
            "openSUSE Tumbleweed:gnome-extensions-40.5-1.1",
            "openSUSE Tumbleweed:gnome-shell-40.5-1.1",
            "openSUSE Tumbleweed:gnome-shell-calendar-40.5-1.1",
            "openSUSE Tumbleweed:gnome-shell-devel-40.5-1.1",
            "openSUSE Tumbleweed:gnome-shell-lang-40.5-1.1"
          ]
        }
      ],
      "CVSSScoreSets": {}
    },
    {
      "CVE": "CVE-2020-12825",
      "Description": "libcroco through 0.6.13 has excessive recursion in cr_parser_parse_any_core in cr-parser.c, leading to stack consumption.",
      "Threats": [
        {
          "Type": "Impact",
          "Severity": "important"
        }
      ],
      "References": [
        {
          "URL": "https://www.suse.com/security/cve/CVE-2020-12825.html",
          "Description": "CVE-2020-12825"
        },
        {
          "URL": "https://bugzilla.suse.com/1171685",
          "Description": "SUSE Bug 1171685"
        },
        {
          "URL": "https://bugzilla.suse.com/1203730",
          "Description": "SUSE Bug 1203730"
        },
        {
          "URL": "https://bugzilla.suse.com/1208647",
          "Description": "SUSE Bug 1208647"
        }
      ],
      "ProductStatuses": [
        {
          "Type": "Fixed",
          "ProductID": [
            "openSUSE Tumbleweed:gnome-extensions-40.5-1.1",
            "openSUSE Tumbleweed:gnome-shell-40.5-1.1",
            "openSUSE Tumbleweed:gnome-shell-calendar-40.5-1.1",
            "openSUSE Tumbleweed:gnome-shell-devel-40.5-1.1",
            "openSUSE Tumbleweed:gnome-shell-lang-40.5-1.1"
          ]
        }
      ],
      "CVSSScoreSets": {}
    },
    {
      "CVE": "CVE-2020-17489",
      "Description": "An issue was discovered in certain configurations of GNOME gnome-shell through 3.36.4. When logging out of an account, the password box from the login dialog reappears with the password still visible. If the user had decided to have the password shown in cleartext at login time, it is then visible for a brief moment upon a logout. (If the password were never shown in cleartext, only the password length is revealed.)",
      "Threats": [
        {
          "Type": "Impact",
          "Severity": "low"
        }
      ],
      "References": [
        {
          "URL": "https://www.suse.com/security/cve/CVE-2020-17489.html",
          "Description": "CVE-2020-17489"
        },
        {
          "URL": "https://bugzilla.suse.com/1175155",
          "Description": "SUSE Bug 1175155"
        }
      ],
      "ProductStatuses": [
        {
          "Type": "Fixed",
          "ProductID": [
            "openSUSE Tumbleweed:gnome-extensions-40.5-1.1",
            "openSUSE Tumbleweed:gnome-shell-40.5-1.1",
            "openSUSE Tumbleweed:gnome-shell-calendar-40.5-1.1",
            "openSUSE Tumbleweed:gnome-shell-devel-40.5-1.1",
            "openSUSE Tumbleweed:gnome-shell-lang-40.5-1.1"
          ]
        }
      ],
      "CVSSScoreSets": {}
    }
  ]
}