{
  "Title": "tar-1.29-2.1 on GA media",
  "Tracking": {
    "ID": "openSUSE-SU-2024:10382-1",
    "Status": "Final",
    "Version": "1",
    "InitialReleaseDate": "2024-06-22T21:44:56Z",
    "CurrentReleaseDate": "2024-06-22T21:44:56Z",
    "RevisionHistory": [
      {
        "Number": "1",
        "Date": "2024-06-22T21:44:56Z",
        "Description": "current"
      }
    ]
  },
  "Notes": [
    {
      "Text": "tar-1.29-2.1 on GA media",
      "Title": "Topic",
      "Type": "Summary"
    },
    {
      "Text": "These are all security issues fixed in the tar-1.29-2.1 package on the GA media of openSUSE Tumbleweed.",
      "Title": "Details",
      "Type": "General"
    },
    {
      "Text": "The CVRF data is provided by SUSE under the Creative Commons License 4.0 with Attribution (CC-BY-4.0).",
      "Title": "Terms of Use",
      "Type": "Legal Disclaimer"
    },
    {
      "Text": "openSUSE-Tumbleweed-2024-10382",
      "Title": "Patchnames",
      "Type": "Details"
    }
  ],
  "ProductTree": {
    "Relationships": [
      {
        "ProductReference": "tar-1.29-2.1",
        "RelatesToProductReference": "openSUSE Tumbleweed",
        "RelationType": "Default Component Of"
      },
      {
        "ProductReference": "tar-backup-scripts-1.29-2.1",
        "RelatesToProductReference": "openSUSE Tumbleweed",
        "RelationType": "Default Component Of"
      },
      {
        "ProductReference": "tar-lang-1.29-2.1",
        "RelatesToProductReference": "openSUSE Tumbleweed",
        "RelationType": "Default Component Of"
      },
      {
        "ProductReference": "tar-tests-1.29-2.1",
        "RelatesToProductReference": "openSUSE Tumbleweed",
        "RelationType": "Default Component Of"
      }
    ]
  },
  "References": [
    {
      "URL": "https://www.suse.com/support/security/rating/",
      "Description": "SUSE Security Ratings"
    },
    {
      "URL": "https://www.suse.com/security/cve/CVE-2010-0624/",
      "Description": "SUSE CVE CVE-2010-0624 page"
    },
    {
      "URL": "https://www.suse.com/security/cve/CVE-2016-6321/",
      "Description": "SUSE CVE CVE-2016-6321 page"
    }
  ],
  "Vulnerabilities": [
    {
      "CVE": "CVE-2010-0624",
      "Description": "Heap-based buffer overflow in the rmt_read__ function in lib/rtapelib.c in the rmt client functionality in GNU tar before 1.23 and GNU cpio before 2.11 allows remote rmt servers to cause a denial of service (memory corruption) or possibly execute arbitrary code by sending more data than was requested, related to archive filenames that contain a : (colon) character.",
      "Threats": [
        {
          "Type": "Impact",
          "Severity": "moderate"
        }
      ],
      "References": [
        {
          "URL": "https://www.suse.com/security/cve/CVE-2010-0624.html",
          "Description": "CVE-2010-0624"
        },
        {
          "URL": "https://bugzilla.suse.com/579475",
          "Description": "SUSE Bug 579475"
        },
        {
          "URL": "https://bugzilla.suse.com/608034",
          "Description": "SUSE Bug 608034"
        }
      ],
      "ProductStatuses": [
        {
          "Type": "Fixed",
          "ProductID": [
            "openSUSE Tumbleweed:tar-1.29-2.1",
            "openSUSE Tumbleweed:tar-backup-scripts-1.29-2.1",
            "openSUSE Tumbleweed:tar-lang-1.29-2.1",
            "openSUSE Tumbleweed:tar-tests-1.29-2.1"
          ]
        }
      ],
      "CVSSScoreSets": {}
    },
    {
      "CVE": "CVE-2016-6321",
      "Description": "Directory traversal vulnerability in the safer_name_suffix function in GNU tar 1.14 through 1.29 might allow remote attackers to bypass an intended protection mechanism and write to arbitrary files via vectors related to improper sanitization of the file_name parameter, aka POINTYFEATHER.",
      "Threats": [
        {
          "Type": "Impact",
          "Severity": "low"
        }
      ],
      "References": [
        {
          "URL": "https://www.suse.com/security/cve/CVE-2016-6321.html",
          "Description": "CVE-2016-6321"
        },
        {
          "URL": "https://bugzilla.suse.com/1007188",
          "Description": "SUSE Bug 1007188"
        },
        {
          "URL": "https://bugzilla.suse.com/1123796",
          "Description": "SUSE Bug 1123796"
        }
      ],
      "ProductStatuses": [
        {
          "Type": "Fixed",
          "ProductID": [
            "openSUSE Tumbleweed:tar-1.29-2.1",
            "openSUSE Tumbleweed:tar-backup-scripts-1.29-2.1",
            "openSUSE Tumbleweed:tar-lang-1.29-2.1",
            "openSUSE Tumbleweed:tar-tests-1.29-2.1"
          ]
        }
      ],
      "CVSSScoreSets": {
        "BaseScore": "2.6",
        "Vector": "AV:N/AC:H/Au:N/C:N/I:P/A:N"
      }
    }
  ]
}