{
  "Title": "python310-suds-1.1.1-1.1 on GA media",
  "Tracking": {
    "ID": "openSUSE-SU-2024:12127-1",
    "Status": "Final",
    "Version": "1",
    "InitialReleaseDate": "2024-06-20T21:44:22Z",
    "CurrentReleaseDate": "2024-06-20T21:44:22Z",
    "RevisionHistory": [
      {
        "Number": "1",
        "Date": "2024-06-20T21:44:22Z",
        "Description": "current"
      }
    ]
  },
  "Notes": [
    {
      "Text": "python310-suds-1.1.1-1.1 on GA media",
      "Title": "Topic",
      "Type": "Summary"
    },
    {
      "Text": "These are all security issues fixed in the python310-suds-1.1.1-1.1 package on the GA media of openSUSE Tumbleweed.",
      "Title": "Details",
      "Type": "General"
    },
    {
      "Text": "The CVRF data is provided by SUSE under the Creative Commons License 4.0 with Attribution (CC-BY-4.0).",
      "Title": "Terms of Use",
      "Type": "Legal Disclaimer"
    },
    {
      "Text": "openSUSE-Tumbleweed-2024-12127",
      "Title": "Patchnames",
      "Type": "Details"
    }
  ],
  "ProductTree": {
    "Relationships": [
      {
        "ProductReference": "python310-suds-1.1.1-1.1",
        "RelatesToProductReference": "openSUSE Tumbleweed",
        "RelationType": "Default Component Of"
      },
      {
        "ProductReference": "python38-suds-1.1.1-1.1",
        "RelatesToProductReference": "openSUSE Tumbleweed",
        "RelationType": "Default Component Of"
      },
      {
        "ProductReference": "python39-suds-1.1.1-1.1",
        "RelatesToProductReference": "openSUSE Tumbleweed",
        "RelationType": "Default Component Of"
      }
    ]
  },
  "References": [
    {
      "URL": "https://www.suse.com/support/security/rating/",
      "Description": "SUSE Security Ratings"
    },
    {
      "URL": "https://www.suse.com/security/cve/CVE-2013-2217/",
      "Description": "SUSE CVE CVE-2013-2217 page"
    }
  ],
  "Vulnerabilities": [
    {
      "CVE": "CVE-2013-2217",
      "Description": "cache.py in Suds 0.4, when tempdir is set to None, allows local users to redirect SOAP queries and possibly have other unspecified impact via a symlink attack on a cache file with a predictable name in /tmp/suds/.",
      "Threats": [
        {
          "Type": "Impact",
          "Severity": "moderate"
        }
      ],
      "References": [
        {
          "URL": "https://www.suse.com/security/cve/CVE-2013-2217.html",
          "Description": "CVE-2013-2217"
        },
        {
          "URL": "https://bugzilla.suse.com/827568",
          "Description": "SUSE Bug 827568"
        }
      ],
      "ProductStatuses": [
        {
          "Type": "Fixed",
          "ProductID": [
            "openSUSE Tumbleweed:python310-suds-1.1.1-1.1",
            "openSUSE Tumbleweed:python38-suds-1.1.1-1.1",
            "openSUSE Tumbleweed:python39-suds-1.1.1-1.1"
          ]
        }
      ],
      "CVSSScoreSets": {
        "BaseScore": "3.2",
        "Vector": "AV:L/AC:L/Au:S/C:N/I:P/A:P"
      }
    }
  ]
}