{
  "Title": "python310-azure-storage-blob-12.13.1-2.1 on GA media",
  "Tracking": {
    "ID": "openSUSE-SU-2024:12283-1",
    "Status": "Final",
    "Version": "1",
    "InitialReleaseDate": "2024-06-20T21:44:22Z",
    "CurrentReleaseDate": "2024-06-20T21:44:22Z",
    "RevisionHistory": [
      {
        "Number": "1",
        "Date": "2024-06-20T21:44:22Z",
        "Description": "current"
      }
    ]
  },
  "Notes": [
    {
      "Text": "python310-azure-storage-blob-12.13.1-2.1 on GA media",
      "Title": "Topic",
      "Type": "Summary"
    },
    {
      "Text": "These are all security issues fixed in the python310-azure-storage-blob-12.13.1-2.1 package on the GA media of openSUSE Tumbleweed.",
      "Title": "Details",
      "Type": "General"
    },
    {
      "Text": "The CVRF data is provided by SUSE under the Creative Commons License 4.0 with Attribution (CC-BY-4.0).",
      "Title": "Terms of Use",
      "Type": "Legal Disclaimer"
    },
    {
      "Text": "openSUSE-Tumbleweed-2024-12283",
      "Title": "Patchnames",
      "Type": "Details"
    }
  ],
  "ProductTree": {
    "Relationships": [
      {
        "ProductReference": "python310-azure-storage-blob-12.13.1-2.1",
        "RelatesToProductReference": "openSUSE Tumbleweed",
        "RelationType": "Default Component Of"
      },
      {
        "ProductReference": "python38-azure-storage-blob-12.13.1-2.1",
        "RelatesToProductReference": "openSUSE Tumbleweed",
        "RelationType": "Default Component Of"
      },
      {
        "ProductReference": "python39-azure-storage-blob-12.13.1-2.1",
        "RelatesToProductReference": "openSUSE Tumbleweed",
        "RelationType": "Default Component Of"
      }
    ]
  },
  "References": [
    {
      "URL": "https://www.suse.com/support/security/rating/",
      "Description": "SUSE Security Ratings"
    },
    {
      "URL": "https://www.suse.com/security/cve/CVE-2022-30187/",
      "Description": "SUSE CVE CVE-2022-30187 page"
    }
  ],
  "Vulnerabilities": [
    {
      "CVE": "CVE-2022-30187",
      "Description": "Azure Storage Library Information Disclosure Vulnerability",
      "Threats": [
        {
          "Type": "Impact",
          "Severity": "moderate"
        }
      ],
      "References": [
        {
          "URL": "https://www.suse.com/security/cve/CVE-2022-30187.html",
          "Description": "CVE-2022-30187"
        },
        {
          "URL": "https://bugzilla.suse.com/1202088",
          "Description": "SUSE Bug 1202088"
        },
        {
          "URL": "https://bugzilla.suse.com/1203582",
          "Description": "SUSE Bug 1203582"
        },
        {
          "URL": "https://bugzilla.suse.com/1205790",
          "Description": "SUSE Bug 1205790"
        }
      ],
      "ProductStatuses": [
        {
          "Type": "Fixed",
          "ProductID": [
            "openSUSE Tumbleweed:python310-azure-storage-blob-12.13.1-2.1",
            "openSUSE Tumbleweed:python38-azure-storage-blob-12.13.1-2.1",
            "openSUSE Tumbleweed:python39-azure-storage-blob-12.13.1-2.1"
          ]
        }
      ],
      "CVSSScoreSets": {}
    }
  ]
}