{
  "Title": "python39-3.9.19-1.1 on GA media",
  "Tracking": {
    "ID": "openSUSE-SU-2024:13800-1",
    "Status": "Final",
    "Version": "1",
    "InitialReleaseDate": "2024-06-20T21:44:22Z",
    "CurrentReleaseDate": "2024-06-20T21:44:22Z",
    "RevisionHistory": [
      {
        "Number": "1",
        "Date": "2024-06-20T21:44:22Z",
        "Description": "current"
      }
    ]
  },
  "Notes": [
    {
      "Text": "python39-3.9.19-1.1 on GA media",
      "Title": "Topic",
      "Type": "Summary"
    },
    {
      "Text": "These are all security issues fixed in the python39-3.9.19-1.1 package on the GA media of openSUSE Tumbleweed.",
      "Title": "Details",
      "Type": "General"
    },
    {
      "Text": "The CVRF data is provided by SUSE under the Creative Commons License 4.0 with Attribution (CC-BY-4.0).",
      "Title": "Terms of Use",
      "Type": "Legal Disclaimer"
    },
    {
      "Text": "openSUSE-Tumbleweed-2024-13800",
      "Title": "Patchnames",
      "Type": "Details"
    }
  ],
  "ProductTree": {
    "Relationships": [
      {
        "ProductReference": "python39-3.9.19-1.1",
        "RelatesToProductReference": "openSUSE Tumbleweed",
        "RelationType": "Default Component Of"
      },
      {
        "ProductReference": "python39-32bit-3.9.19-1.1",
        "RelatesToProductReference": "openSUSE Tumbleweed",
        "RelationType": "Default Component Of"
      },
      {
        "ProductReference": "python39-curses-3.9.19-1.1",
        "RelatesToProductReference": "openSUSE Tumbleweed",
        "RelationType": "Default Component Of"
      },
      {
        "ProductReference": "python39-dbm-3.9.19-1.1",
        "RelatesToProductReference": "openSUSE Tumbleweed",
        "RelationType": "Default Component Of"
      },
      {
        "ProductReference": "python39-idle-3.9.19-1.1",
        "RelatesToProductReference": "openSUSE Tumbleweed",
        "RelationType": "Default Component Of"
      },
      {
        "ProductReference": "python39-tk-3.9.19-1.1",
        "RelatesToProductReference": "openSUSE Tumbleweed",
        "RelationType": "Default Component Of"
      }
    ]
  },
  "References": [
    {
      "URL": "https://www.suse.com/support/security/rating/",
      "Description": "SUSE Security Ratings"
    },
    {
      "URL": "https://www.suse.com/security/cve/CVE-2023-52425/",
      "Description": "SUSE CVE CVE-2023-52425 page"
    },
    {
      "URL": "https://www.suse.com/security/cve/CVE-2024-0450/",
      "Description": "SUSE CVE CVE-2024-0450 page"
    }
  ],
  "Vulnerabilities": [
    {
      "CVE": "CVE-2023-52425",
      "Description": "libexpat through 2.5.0 allows a denial of service (resource consumption) because many full reparsings are required in the case of a large token for which multiple buffer fills are needed.",
      "Threats": [
        {
          "Type": "Impact",
          "Severity": "moderate"
        }
      ],
      "References": [
        {
          "URL": "https://www.suse.com/security/cve/CVE-2023-52425.html",
          "Description": "CVE-2023-52425"
        },
        {
          "URL": "https://bugzilla.suse.com/1219559",
          "Description": "SUSE Bug 1219559"
        }
      ],
      "ProductStatuses": [
        {
          "Type": "Fixed",
          "ProductID": [
            "openSUSE Tumbleweed:python39-3.9.19-1.1",
            "openSUSE Tumbleweed:python39-32bit-3.9.19-1.1",
            "openSUSE Tumbleweed:python39-curses-3.9.19-1.1",
            "openSUSE Tumbleweed:python39-dbm-3.9.19-1.1",
            "openSUSE Tumbleweed:python39-idle-3.9.19-1.1",
            "openSUSE Tumbleweed:python39-tk-3.9.19-1.1"
          ]
        }
      ],
      "CVSSScoreSets": {}
    },
    {
      "CVE": "CVE-2024-0450",
      "Description": "An issue was found in the CPython `zipfile` module affecting versions 3.12.1, 3.11.7, 3.10.13, 3.9.18, and 3.8.18 and prior.\n\nThe zipfile module is vulnerable to \"quoted-overlap\" zip-bombs which exploit the zip format to create a zip-bomb with a high compression ratio. The fixed versions of CPython makes the zipfile module reject zip archives which overlap entries in the archive.\n\n",
      "Threats": [
        {
          "Type": "Impact",
          "Severity": "moderate"
        }
      ],
      "References": [
        {
          "URL": "https://www.suse.com/security/cve/CVE-2024-0450.html",
          "Description": "CVE-2024-0450"
        },
        {
          "URL": "https://bugzilla.suse.com/1221854",
          "Description": "SUSE Bug 1221854"
        }
      ],
      "ProductStatuses": [
        {
          "Type": "Fixed",
          "ProductID": [
            "openSUSE Tumbleweed:python39-3.9.19-1.1",
            "openSUSE Tumbleweed:python39-32bit-3.9.19-1.1",
            "openSUSE Tumbleweed:python39-curses-3.9.19-1.1",
            "openSUSE Tumbleweed:python39-dbm-3.9.19-1.1",
            "openSUSE Tumbleweed:python39-idle-3.9.19-1.1",
            "openSUSE Tumbleweed:python39-tk-3.9.19-1.1"
          ]
        }
      ],
      "CVSSScoreSets": {}
    }
  ]
}