{
  "Title": "libQt5NetworkAuth5-5.15.13+kde1-1.1 on GA media",
  "Tracking": {
    "ID": "openSUSE-SU-2024:14006-1",
    "Status": "Final",
    "Version": "1",
    "InitialReleaseDate": "2024-06-20T21:44:22Z",
    "CurrentReleaseDate": "2024-06-20T21:44:22Z",
    "RevisionHistory": [
      {
        "Number": "1",
        "Date": "2024-06-20T21:44:22Z",
        "Description": "current"
      }
    ]
  },
  "Notes": [
    {
      "Text": "libQt5NetworkAuth5-5.15.13+kde1-1.1 on GA media",
      "Title": "Topic",
      "Type": "Summary"
    },
    {
      "Text": "These are all security issues fixed in the libQt5NetworkAuth5-5.15.13+kde1-1.1 package on the GA media of openSUSE Tumbleweed.",
      "Title": "Details",
      "Type": "General"
    },
    {
      "Text": "The CVRF data is provided by SUSE under the Creative Commons License 4.0 with Attribution (CC-BY-4.0).",
      "Title": "Terms of Use",
      "Type": "Legal Disclaimer"
    },
    {
      "Text": "openSUSE-Tumbleweed-2024-14006",
      "Title": "Patchnames",
      "Type": "Details"
    }
  ],
  "ProductTree": {
    "Relationships": [
      {
        "ProductReference": "libQt5NetworkAuth5-5.15.13+kde1-1.1",
        "RelatesToProductReference": "openSUSE Tumbleweed",
        "RelationType": "Default Component Of"
      },
      {
        "ProductReference": "libqt5-qtnetworkauth-devel-5.15.13+kde1-1.1",
        "RelatesToProductReference": "openSUSE Tumbleweed",
        "RelationType": "Default Component Of"
      },
      {
        "ProductReference": "libqt5-qtnetworkauth-examples-5.15.13+kde1-1.1",
        "RelatesToProductReference": "openSUSE Tumbleweed",
        "RelationType": "Default Component Of"
      },
      {
        "ProductReference": "libqt5-qtnetworkauth-private-headers-devel-5.15.13+kde1-1.1",
        "RelatesToProductReference": "openSUSE Tumbleweed",
        "RelationType": "Default Component Of"
      }
    ]
  },
  "References": [
    {
      "URL": "https://www.suse.com/support/security/rating/",
      "Description": "SUSE Security Ratings"
    },
    {
      "URL": "https://www.suse.com/security/cve/CVE-2024-36048/",
      "Description": "SUSE CVE CVE-2024-36048 page"
    }
  ],
  "Vulnerabilities": [
    {
      "CVE": "CVE-2024-36048",
      "Description": "QAbstractOAuth in Qt Network Authorization in Qt before 5.15.17, 6.x before 6.2.13, 6.3.x through 6.5.x before 6.5.6, and 6.6.x through 6.7.x before 6.7.1 uses only the time to seed the PRNG, which may result in guessable values.",
      "Threats": [
        {
          "Type": "Impact",
          "Severity": "moderate"
        }
      ],
      "References": [
        {
          "URL": "https://www.suse.com/security/cve/CVE-2024-36048.html",
          "Description": "CVE-2024-36048"
        },
        {
          "URL": "https://bugzilla.suse.com/1224782",
          "Description": "SUSE Bug 1224782"
        }
      ],
      "ProductStatuses": [
        {
          "Type": "Fixed",
          "ProductID": [
            "openSUSE Tumbleweed:libQt5NetworkAuth5-5.15.13+kde1-1.1",
            "openSUSE Tumbleweed:libqt5-qtnetworkauth-devel-5.15.13+kde1-1.1",
            "openSUSE Tumbleweed:libqt5-qtnetworkauth-examples-5.15.13+kde1-1.1",
            "openSUSE Tumbleweed:libqt5-qtnetworkauth-private-headers-devel-5.15.13+kde1-1.1"
          ]
        }
      ],
      "CVSSScoreSets": {}
    }
  ]
}