{
  "Title": "nodejs-electron-13.6.2-1.1 on GA media",
  "Tracking": {
    "ID": "openSUSE-SU-2024:11656-1",
    "Status": "Final",
    "Version": "1",
    "InitialReleaseDate": "2024-06-22T21:44:56Z",
    "CurrentReleaseDate": "2024-06-22T21:44:56Z",
    "RevisionHistory": [
      {
        "Number": "1",
        "Date": "2024-06-22T21:44:56Z",
        "Description": "current"
      }
    ]
  },
  "Notes": [
    {
      "Text": "nodejs-electron-13.6.2-1.1 on GA media",
      "Title": "Topic",
      "Type": "Summary"
    },
    {
      "Text": "These are all security issues fixed in the nodejs-electron-13.6.2-1.1 package on the GA media of openSUSE Tumbleweed.",
      "Title": "Details",
      "Type": "General"
    },
    {
      "Text": "The CVRF data is provided by SUSE under the Creative Commons License 4.0 with Attribution (CC-BY-4.0).",
      "Title": "Terms of Use",
      "Type": "Legal Disclaimer"
    },
    {
      "Text": "openSUSE-Tumbleweed-2024-11656",
      "Title": "Patchnames",
      "Type": "Details"
    }
  ],
  "ProductTree": {
    "Relationships": [
      {
        "ProductReference": "nodejs-electron-13.6.2-1.1",
        "RelatesToProductReference": "openSUSE Tumbleweed",
        "RelationType": "Default Component Of"
      }
    ]
  },
  "References": [
    {
      "URL": "https://www.suse.com/support/security/rating/",
      "Description": "SUSE Security Ratings"
    },
    {
      "URL": "https://www.suse.com/security/cve/CVE-2021-37998/",
      "Description": "SUSE CVE CVE-2021-37998 page"
    },
    {
      "URL": "https://www.suse.com/security/cve/CVE-2021-38001/",
      "Description": "SUSE CVE CVE-2021-38001 page"
    },
    {
      "URL": "https://www.suse.com/security/cve/CVE-2021-38002/",
      "Description": "SUSE CVE CVE-2021-38002 page"
    },
    {
      "URL": "https://www.suse.com/security/cve/CVE-2021-38003/",
      "Description": "SUSE CVE CVE-2021-38003 page"
    }
  ],
  "Vulnerabilities": [
    {
      "CVE": "CVE-2021-37998",
      "Description": "Use after free in Garbage Collection in Google Chrome prior to 95.0.4638.69 allowed a remote attacker to potentially exploit heap corruption via a crafted HTML page.",
      "Threats": [
        {
          "Type": "Impact",
          "Severity": "critical"
        }
      ],
      "References": [
        {
          "URL": "https://www.suse.com/security/cve/CVE-2021-37998.html",
          "Description": "CVE-2021-37998"
        },
        {
          "URL": "https://bugzilla.suse.com/1192184",
          "Description": "SUSE Bug 1192184"
        }
      ],
      "ProductStatuses": [
        {
          "Type": "Fixed",
          "ProductID": [
            "openSUSE Tumbleweed:nodejs-electron-13.6.2-1.1"
          ]
        }
      ],
      "CVSSScoreSets": {}
    },
    {
      "CVE": "CVE-2021-38001",
      "Description": "Type confusion in V8 in Google Chrome prior to 95.0.4638.69 allowed a remote attacker to potentially exploit heap corruption via a crafted HTML page.",
      "Threats": [
        {
          "Type": "Impact",
          "Severity": "critical"
        }
      ],
      "References": [
        {
          "URL": "https://www.suse.com/security/cve/CVE-2021-38001.html",
          "Description": "CVE-2021-38001"
        },
        {
          "URL": "https://bugzilla.suse.com/1192184",
          "Description": "SUSE Bug 1192184"
        }
      ],
      "ProductStatuses": [
        {
          "Type": "Fixed",
          "ProductID": [
            "openSUSE Tumbleweed:nodejs-electron-13.6.2-1.1"
          ]
        }
      ],
      "CVSSScoreSets": {}
    },
    {
      "CVE": "CVE-2021-38002",
      "Description": "Use after free in Web Transport in Google Chrome prior to 95.0.4638.69 allowed a remote attacker to potentially perform a sandbox escape via a crafted HTML page.",
      "Threats": [
        {
          "Type": "Impact",
          "Severity": "critical"
        }
      ],
      "References": [
        {
          "URL": "https://www.suse.com/security/cve/CVE-2021-38002.html",
          "Description": "CVE-2021-38002"
        },
        {
          "URL": "https://bugzilla.suse.com/1192184",
          "Description": "SUSE Bug 1192184"
        }
      ],
      "ProductStatuses": [
        {
          "Type": "Fixed",
          "ProductID": [
            "openSUSE Tumbleweed:nodejs-electron-13.6.2-1.1"
          ]
        }
      ],
      "CVSSScoreSets": {}
    },
    {
      "CVE": "CVE-2021-38003",
      "Description": "Inappropriate implementation in V8 in Google Chrome prior to 95.0.4638.69 allowed a remote attacker to potentially exploit heap corruption via a crafted HTML page.",
      "Threats": [
        {
          "Type": "Impact",
          "Severity": "critical"
        }
      ],
      "References": [
        {
          "URL": "https://www.suse.com/security/cve/CVE-2021-38003.html",
          "Description": "CVE-2021-38003"
        },
        {
          "URL": "https://bugzilla.suse.com/1192184",
          "Description": "SUSE Bug 1192184"
        }
      ],
      "ProductStatuses": [
        {
          "Type": "Fixed",
          "ProductID": [
            "openSUSE Tumbleweed:nodejs-electron-13.6.2-1.1"
          ]
        }
      ],
      "CVSSScoreSets": {}
    }
  ]
}