{
  "Title": "phpPgAdmin-7.14.6-1.1 on GA media",
  "Tracking": {
    "ID": "openSUSE-SU-2024:13400-1",
    "Status": "Final",
    "Version": "1",
    "InitialReleaseDate": "2024-06-20T21:44:22Z",
    "CurrentReleaseDate": "2024-06-20T21:44:22Z",
    "RevisionHistory": [
      {
        "Number": "1",
        "Date": "2024-06-20T21:44:22Z",
        "Description": "current"
      }
    ]
  },
  "Notes": [
    {
      "Text": "phpPgAdmin-7.14.6-1.1 on GA media",
      "Title": "Topic",
      "Type": "Summary"
    },
    {
      "Text": "These are all security issues fixed in the phpPgAdmin-7.14.6-1.1 package on the GA media of openSUSE Tumbleweed.",
      "Title": "Details",
      "Type": "General"
    },
    {
      "Text": "The CVRF data is provided by SUSE under the Creative Commons License 4.0 with Attribution (CC-BY-4.0).",
      "Title": "Terms of Use",
      "Type": "Legal Disclaimer"
    },
    {
      "Text": "openSUSE-Tumbleweed-2024-13400",
      "Title": "Patchnames",
      "Type": "Details"
    }
  ],
  "ProductTree": {
    "Relationships": [
      {
        "ProductReference": "phpPgAdmin-7.14.6-1.1",
        "RelatesToProductReference": "openSUSE Tumbleweed",
        "RelationType": "Default Component Of"
      },
      {
        "ProductReference": "phpPgAdmin-apache-7.14.6-1.1",
        "RelatesToProductReference": "openSUSE Tumbleweed",
        "RelationType": "Default Component Of"
      }
    ]
  },
  "References": [
    {
      "URL": "https://www.suse.com/support/security/rating/",
      "Description": "SUSE Security Ratings"
    },
    {
      "URL": "https://www.suse.com/security/cve/CVE-2023-40619/",
      "Description": "SUSE CVE CVE-2023-40619 page"
    }
  ],
  "Vulnerabilities": [
    {
      "CVE": "CVE-2023-40619",
      "Description": "phpPgAdmin 7.14.4 and earlier is vulnerable to deserialization of untrusted data which may lead to remote code execution because user-controlled data is directly passed to the PHP 'unserialize()' function in multiple places. An example is the functionality to manage tables in 'tables.php' where the 'ma[]' POST parameter is deserialized.",
      "Threats": [
        {
          "Type": "Impact",
          "Severity": "moderate"
        }
      ],
      "References": [
        {
          "URL": "https://www.suse.com/security/cve/CVE-2023-40619.html",
          "Description": "CVE-2023-40619"
        },
        {
          "URL": "https://bugzilla.suse.com/1215551",
          "Description": "SUSE Bug 1215551"
        }
      ],
      "ProductStatuses": [
        {
          "Type": "Fixed",
          "ProductID": [
            "openSUSE Tumbleweed:phpPgAdmin-7.14.6-1.1",
            "openSUSE Tumbleweed:phpPgAdmin-apache-7.14.6-1.1"
          ]
        }
      ],
      "CVSSScoreSets": {}
    }
  ]
}