{
  "Title": "libodbc2-2.3.9-3.4 on GA media",
  "Tracking": {
    "ID": "openSUSE-SU-2024:11483-1",
    "Status": "Final",
    "Version": "1",
    "InitialReleaseDate": "2024-06-22T21:44:56Z",
    "CurrentReleaseDate": "2024-06-22T21:44:56Z",
    "RevisionHistory": [
      {
        "Number": "1",
        "Date": "2024-06-22T21:44:56Z",
        "Description": "current"
      }
    ]
  },
  "Notes": [
    {
      "Text": "libodbc2-2.3.9-3.4 on GA media",
      "Title": "Topic",
      "Type": "Summary"
    },
    {
      "Text": "These are all security issues fixed in the libodbc2-2.3.9-3.4 package on the GA media of openSUSE Tumbleweed.",
      "Title": "Details",
      "Type": "General"
    },
    {
      "Text": "The CVRF data is provided by SUSE under the Creative Commons License 4.0 with Attribution (CC-BY-4.0).",
      "Title": "Terms of Use",
      "Type": "Legal Disclaimer"
    },
    {
      "Text": "openSUSE-Tumbleweed-2024-11483",
      "Title": "Patchnames",
      "Type": "Details"
    }
  ],
  "ProductTree": {
    "Relationships": [
      {
        "ProductReference": "libodbc2-2.3.9-3.4",
        "RelatesToProductReference": "openSUSE Tumbleweed",
        "RelationType": "Default Component Of"
      },
      {
        "ProductReference": "libodbc2-32bit-2.3.9-3.4",
        "RelatesToProductReference": "openSUSE Tumbleweed",
        "RelationType": "Default Component Of"
      },
      {
        "ProductReference": "unixODBC-2.3.9-3.4",
        "RelatesToProductReference": "openSUSE Tumbleweed",
        "RelationType": "Default Component Of"
      },
      {
        "ProductReference": "unixODBC-32bit-2.3.9-3.4",
        "RelatesToProductReference": "openSUSE Tumbleweed",
        "RelationType": "Default Component Of"
      },
      {
        "ProductReference": "unixODBC-devel-2.3.9-3.4",
        "RelatesToProductReference": "openSUSE Tumbleweed",
        "RelationType": "Default Component Of"
      },
      {
        "ProductReference": "unixODBC-devel-32bit-2.3.9-3.4",
        "RelatesToProductReference": "openSUSE Tumbleweed",
        "RelationType": "Default Component Of"
      }
    ]
  },
  "References": [
    {
      "URL": "https://www.suse.com/support/security/rating/",
      "Description": "SUSE Security Ratings"
    },
    {
      "URL": "https://www.suse.com/security/cve/CVE-2018-7409/",
      "Description": "SUSE CVE CVE-2018-7409 page"
    },
    {
      "URL": "https://www.suse.com/security/cve/CVE-2018-7485/",
      "Description": "SUSE CVE CVE-2018-7485 page"
    }
  ],
  "Vulnerabilities": [
    {
      "CVE": "CVE-2018-7409",
      "Description": "In unixODBC before 2.3.5, there is a buffer overflow in the unicode_to_ansi_copy() function in DriverManager/__info.c.",
      "Threats": [
        {
          "Type": "Impact",
          "Severity": "critical"
        }
      ],
      "References": [
        {
          "URL": "https://www.suse.com/security/cve/CVE-2018-7409.html",
          "Description": "CVE-2018-7409"
        },
        {
          "URL": "https://bugzilla.suse.com/1082290",
          "Description": "SUSE Bug 1082290"
        }
      ],
      "ProductStatuses": [
        {
          "Type": "Fixed",
          "ProductID": [
            "openSUSE Tumbleweed:libodbc2-2.3.9-3.4",
            "openSUSE Tumbleweed:libodbc2-32bit-2.3.9-3.4",
            "openSUSE Tumbleweed:unixODBC-2.3.9-3.4",
            "openSUSE Tumbleweed:unixODBC-32bit-2.3.9-3.4",
            "openSUSE Tumbleweed:unixODBC-devel-2.3.9-3.4",
            "openSUSE Tumbleweed:unixODBC-devel-32bit-2.3.9-3.4"
          ]
        }
      ],
      "CVSSScoreSets": {}
    },
    {
      "CVE": "CVE-2018-7485",
      "Description": "The SQLWriteFileDSN function in odbcinst/SQLWriteFileDSN.c in unixODBC 2.3.5 has strncpy arguments in the wrong order, which allows attackers to cause a denial of service or possibly have unspecified other impact.",
      "Threats": [
        {
          "Type": "Impact",
          "Severity": "critical"
        }
      ],
      "References": [
        {
          "URL": "https://www.suse.com/security/cve/CVE-2018-7485.html",
          "Description": "CVE-2018-7485"
        },
        {
          "URL": "https://bugzilla.suse.com/1082484",
          "Description": "SUSE Bug 1082484"
        }
      ],
      "ProductStatuses": [
        {
          "Type": "Fixed",
          "ProductID": [
            "openSUSE Tumbleweed:libodbc2-2.3.9-3.4",
            "openSUSE Tumbleweed:libodbc2-32bit-2.3.9-3.4",
            "openSUSE Tumbleweed:unixODBC-2.3.9-3.4",
            "openSUSE Tumbleweed:unixODBC-32bit-2.3.9-3.4",
            "openSUSE Tumbleweed:unixODBC-devel-2.3.9-3.4",
            "openSUSE Tumbleweed:unixODBC-devel-32bit-2.3.9-3.4"
          ]
        }
      ],
      "CVSSScoreSets": {}
    }
  ]
}