{
  "Title": "libeverest-3.5.2-1.1 on GA media",
  "Tracking": {
    "ID": "openSUSE-SU-2024:13639-1",
    "Status": "Final",
    "Version": "1",
    "InitialReleaseDate": "2024-06-20T21:44:22Z",
    "CurrentReleaseDate": "2024-06-20T21:44:22Z",
    "RevisionHistory": [
      {
        "Number": "1",
        "Date": "2024-06-20T21:44:22Z",
        "Description": "current"
      }
    ]
  },
  "Notes": [
    {
      "Text": "libeverest-3.5.2-1.1 on GA media",
      "Title": "Topic",
      "Type": "Summary"
    },
    {
      "Text": "These are all security issues fixed in the libeverest-3.5.2-1.1 package on the GA media of openSUSE Tumbleweed.",
      "Title": "Details",
      "Type": "General"
    },
    {
      "Text": "The CVRF data is provided by SUSE under the Creative Commons License 4.0 with Attribution (CC-BY-4.0).",
      "Title": "Terms of Use",
      "Type": "Legal Disclaimer"
    },
    {
      "Text": "openSUSE-Tumbleweed-2024-13639",
      "Title": "Patchnames",
      "Type": "Details"
    }
  ],
  "ProductTree": {
    "Relationships": [
      {
        "ProductReference": "libeverest-3.5.2-1.1",
        "RelatesToProductReference": "openSUSE Tumbleweed",
        "RelationType": "Default Component Of"
      },
      {
        "ProductReference": "libeverest-x86-64-v3-3.5.2-1.1",
        "RelatesToProductReference": "openSUSE Tumbleweed",
        "RelationType": "Default Component Of"
      },
      {
        "ProductReference": "libmbedcrypto15-3.5.2-1.1",
        "RelatesToProductReference": "openSUSE Tumbleweed",
        "RelationType": "Default Component Of"
      },
      {
        "ProductReference": "libmbedcrypto15-x86-64-v3-3.5.2-1.1",
        "RelatesToProductReference": "openSUSE Tumbleweed",
        "RelationType": "Default Component Of"
      },
      {
        "ProductReference": "libmbedtls20-3.5.2-1.1",
        "RelatesToProductReference": "openSUSE Tumbleweed",
        "RelationType": "Default Component Of"
      },
      {
        "ProductReference": "libmbedtls20-x86-64-v3-3.5.2-1.1",
        "RelatesToProductReference": "openSUSE Tumbleweed",
        "RelationType": "Default Component Of"
      },
      {
        "ProductReference": "libmbedx509-6-3.5.2-1.1",
        "RelatesToProductReference": "openSUSE Tumbleweed",
        "RelationType": "Default Component Of"
      },
      {
        "ProductReference": "libmbedx509-6-x86-64-v3-3.5.2-1.1",
        "RelatesToProductReference": "openSUSE Tumbleweed",
        "RelationType": "Default Component Of"
      },
      {
        "ProductReference": "libp256m-3.5.2-1.1",
        "RelatesToProductReference": "openSUSE Tumbleweed",
        "RelationType": "Default Component Of"
      },
      {
        "ProductReference": "libp256m-x86-64-v3-3.5.2-1.1",
        "RelatesToProductReference": "openSUSE Tumbleweed",
        "RelationType": "Default Component Of"
      },
      {
        "ProductReference": "mbedtls-devel-3.5.2-1.1",
        "RelatesToProductReference": "openSUSE Tumbleweed",
        "RelationType": "Default Component Of"
      }
    ]
  },
  "References": [
    {
      "URL": "https://www.suse.com/support/security/rating/",
      "Description": "SUSE Security Ratings"
    },
    {
      "URL": "https://www.suse.com/security/cve/CVE-2024-23170/",
      "Description": "SUSE CVE CVE-2024-23170 page"
    }
  ],
  "Vulnerabilities": [
    {
      "CVE": "CVE-2024-23170",
      "Description": "An issue was discovered in Mbed TLS 2.x before 2.28.7 and 3.x before 3.5.2. There was a timing side channel in RSA private operations. This side channel could be sufficient for a local attacker to recover the plaintext. It requires the attacker to send a large number of messages for decryption, as described in \"Everlasting ROBOT: the Marvin Attack\" by Hubert Kario.",
      "Threats": [
        {
          "Type": "Impact",
          "Severity": "moderate"
        }
      ],
      "References": [
        {
          "URL": "https://www.suse.com/security/cve/CVE-2024-23170.html",
          "Description": "CVE-2024-23170"
        },
        {
          "URL": "https://bugzilla.suse.com/1219336",
          "Description": "SUSE Bug 1219336"
        }
      ],
      "ProductStatuses": [
        {
          "Type": "Fixed",
          "ProductID": [
            "openSUSE Tumbleweed:libeverest-3.5.2-1.1",
            "openSUSE Tumbleweed:libeverest-x86-64-v3-3.5.2-1.1",
            "openSUSE Tumbleweed:libmbedcrypto15-3.5.2-1.1",
            "openSUSE Tumbleweed:libmbedcrypto15-x86-64-v3-3.5.2-1.1",
            "openSUSE Tumbleweed:libmbedtls20-3.5.2-1.1",
            "openSUSE Tumbleweed:libmbedtls20-x86-64-v3-3.5.2-1.1",
            "openSUSE Tumbleweed:libmbedx509-6-3.5.2-1.1",
            "openSUSE Tumbleweed:libmbedx509-6-x86-64-v3-3.5.2-1.1",
            "openSUSE Tumbleweed:libp256m-3.5.2-1.1",
            "openSUSE Tumbleweed:libp256m-x86-64-v3-3.5.2-1.1",
            "openSUSE Tumbleweed:mbedtls-devel-3.5.2-1.1"
          ]
        }
      ],
      "CVSSScoreSets": {}
    }
  ]
}