{
  "Title": "libmozjs-115-0-115.2.0-1.1 on GA media",
  "Tracking": {
    "ID": "openSUSE-SU-2024:13197-1",
    "Status": "Final",
    "Version": "1",
    "InitialReleaseDate": "2024-06-20T21:44:22Z",
    "CurrentReleaseDate": "2024-06-20T21:44:22Z",
    "RevisionHistory": [
      {
        "Number": "1",
        "Date": "2024-06-20T21:44:22Z",
        "Description": "current"
      }
    ]
  },
  "Notes": [
    {
      "Text": "libmozjs-115-0-115.2.0-1.1 on GA media",
      "Title": "Topic",
      "Type": "Summary"
    },
    {
      "Text": "These are all security issues fixed in the libmozjs-115-0-115.2.0-1.1 package on the GA media of openSUSE Tumbleweed.",
      "Title": "Details",
      "Type": "General"
    },
    {
      "Text": "The CVRF data is provided by SUSE under the Creative Commons License 4.0 with Attribution (CC-BY-4.0).",
      "Title": "Terms of Use",
      "Type": "Legal Disclaimer"
    },
    {
      "Text": "openSUSE-Tumbleweed-2024-13197",
      "Title": "Patchnames",
      "Type": "Details"
    }
  ],
  "ProductTree": {
    "Relationships": [
      {
        "ProductReference": "libmozjs-115-0-115.2.0-1.1",
        "RelatesToProductReference": "openSUSE Tumbleweed",
        "RelationType": "Default Component Of"
      },
      {
        "ProductReference": "mozjs115-115.2.0-1.1",
        "RelatesToProductReference": "openSUSE Tumbleweed",
        "RelationType": "Default Component Of"
      },
      {
        "ProductReference": "mozjs115-devel-115.2.0-1.1",
        "RelatesToProductReference": "openSUSE Tumbleweed",
        "RelationType": "Default Component Of"
      }
    ]
  },
  "References": [
    {
      "URL": "https://www.suse.com/support/security/rating/",
      "Description": "SUSE Security Ratings"
    },
    {
      "URL": "https://www.suse.com/security/cve/CVE-2023-4051/",
      "Description": "SUSE CVE CVE-2023-4051 page"
    },
    {
      "URL": "https://www.suse.com/security/cve/CVE-2023-4053/",
      "Description": "SUSE CVE CVE-2023-4053 page"
    },
    {
      "URL": "https://www.suse.com/security/cve/CVE-2023-4573/",
      "Description": "SUSE CVE CVE-2023-4573 page"
    },
    {
      "URL": "https://www.suse.com/security/cve/CVE-2023-4574/",
      "Description": "SUSE CVE CVE-2023-4574 page"
    },
    {
      "URL": "https://www.suse.com/security/cve/CVE-2023-4575/",
      "Description": "SUSE CVE CVE-2023-4575 page"
    },
    {
      "URL": "https://www.suse.com/security/cve/CVE-2023-4576/",
      "Description": "SUSE CVE CVE-2023-4576 page"
    },
    {
      "URL": "https://www.suse.com/security/cve/CVE-2023-4577/",
      "Description": "SUSE CVE CVE-2023-4577 page"
    },
    {
      "URL": "https://www.suse.com/security/cve/CVE-2023-4578/",
      "Description": "SUSE CVE CVE-2023-4578 page"
    },
    {
      "URL": "https://www.suse.com/security/cve/CVE-2023-4580/",
      "Description": "SUSE CVE CVE-2023-4580 page"
    },
    {
      "URL": "https://www.suse.com/security/cve/CVE-2023-4581/",
      "Description": "SUSE CVE CVE-2023-4581 page"
    },
    {
      "URL": "https://www.suse.com/security/cve/CVE-2023-4582/",
      "Description": "SUSE CVE CVE-2023-4582 page"
    },
    {
      "URL": "https://www.suse.com/security/cve/CVE-2023-4583/",
      "Description": "SUSE CVE CVE-2023-4583 page"
    },
    {
      "URL": "https://www.suse.com/security/cve/CVE-2023-4584/",
      "Description": "SUSE CVE CVE-2023-4584 page"
    },
    {
      "URL": "https://www.suse.com/security/cve/CVE-2023-4585/",
      "Description": "SUSE CVE CVE-2023-4585 page"
    }
  ],
  "Vulnerabilities": [
    {
      "CVE": "CVE-2023-4051",
      "Description": "A website could have obscured the full screen notification by using the file open dialog. This could have led to user confusion and possible spoofing attacks. This vulnerability affects Firefox \u003c 116, Firefox ESR \u003c 115.2, and Thunderbird \u003c 115.2.",
      "Threats": [
        {
          "Type": "Impact",
          "Severity": "moderate"
        }
      ],
      "References": [
        {
          "URL": "https://www.suse.com/security/cve/CVE-2023-4051.html",
          "Description": "CVE-2023-4051"
        }
      ],
      "ProductStatuses": [
        {
          "Type": "Fixed",
          "ProductID": [
            "openSUSE Tumbleweed:libmozjs-115-0-115.2.0-1.1",
            "openSUSE Tumbleweed:mozjs115-115.2.0-1.1",
            "openSUSE Tumbleweed:mozjs115-devel-115.2.0-1.1"
          ]
        }
      ],
      "CVSSScoreSets": {}
    },
    {
      "CVE": "CVE-2023-4053",
      "Description": "A website could have obscured the full screen notification by using a URL with a scheme handled by an external program, such as a mailto URL. This could have led to user confusion and possible spoofing attacks. This vulnerability affects Firefox \u003c 116, Firefox ESR \u003c 115.2, and Thunderbird \u003c 115.2.",
      "Threats": [
        {
          "Type": "Impact",
          "Severity": "moderate"
        }
      ],
      "References": [
        {
          "URL": "https://www.suse.com/security/cve/CVE-2023-4053.html",
          "Description": "CVE-2023-4053"
        }
      ],
      "ProductStatuses": [
        {
          "Type": "Fixed",
          "ProductID": [
            "openSUSE Tumbleweed:libmozjs-115-0-115.2.0-1.1",
            "openSUSE Tumbleweed:mozjs115-115.2.0-1.1",
            "openSUSE Tumbleweed:mozjs115-devel-115.2.0-1.1"
          ]
        }
      ],
      "CVSSScoreSets": {}
    },
    {
      "CVE": "CVE-2023-4573",
      "Description": "When receiving rendering data over IPC `mStream` could have been destroyed when initialized, which could have led to a use-after-free causing a potentially exploitable crash. This vulnerability affects Firefox \u003c 117, Firefox ESR \u003c 102.15, Firefox ESR \u003c 115.2, Thunderbird \u003c 102.15, and Thunderbird \u003c 115.2.",
      "Threats": [
        {
          "Type": "Impact",
          "Severity": "important"
        }
      ],
      "References": [
        {
          "URL": "https://www.suse.com/security/cve/CVE-2023-4573.html",
          "Description": "CVE-2023-4573"
        }
      ],
      "ProductStatuses": [
        {
          "Type": "Fixed",
          "ProductID": [
            "openSUSE Tumbleweed:libmozjs-115-0-115.2.0-1.1",
            "openSUSE Tumbleweed:mozjs115-115.2.0-1.1",
            "openSUSE Tumbleweed:mozjs115-devel-115.2.0-1.1"
          ]
        }
      ],
      "CVSSScoreSets": {}
    },
    {
      "CVE": "CVE-2023-4574",
      "Description": "When creating a callback over IPC for showing the Color Picker window, multiple of the same callbacks could have been created at a time and eventually all simultaneously destroyed as soon as one of the callbacks finished. This could have led to a use-after-free causing a potentially exploitable crash. This vulnerability affects Firefox \u003c 117, Firefox ESR \u003c 102.15, Firefox ESR \u003c 115.2, Thunderbird \u003c 102.15, and Thunderbird \u003c 115.2.",
      "Threats": [
        {
          "Type": "Impact",
          "Severity": "important"
        }
      ],
      "References": [
        {
          "URL": "https://www.suse.com/security/cve/CVE-2023-4574.html",
          "Description": "CVE-2023-4574"
        }
      ],
      "ProductStatuses": [
        {
          "Type": "Fixed",
          "ProductID": [
            "openSUSE Tumbleweed:libmozjs-115-0-115.2.0-1.1",
            "openSUSE Tumbleweed:mozjs115-115.2.0-1.1",
            "openSUSE Tumbleweed:mozjs115-devel-115.2.0-1.1"
          ]
        }
      ],
      "CVSSScoreSets": {}
    },
    {
      "CVE": "CVE-2023-4575",
      "Description": "When creating a callback over IPC for showing the File Picker window, multiple of the same callbacks could have been created at a time and eventually all simultaneously destroyed as soon as one of the callbacks finished. This could have led to a use-after-free causing a potentially exploitable crash. This vulnerability affects Firefox \u003c 117, Firefox ESR \u003c 102.15, Firefox ESR \u003c 115.2, Thunderbird \u003c 102.15, and Thunderbird \u003c 115.2.",
      "Threats": [
        {
          "Type": "Impact",
          "Severity": "important"
        }
      ],
      "References": [
        {
          "URL": "https://www.suse.com/security/cve/CVE-2023-4575.html",
          "Description": "CVE-2023-4575"
        }
      ],
      "ProductStatuses": [
        {
          "Type": "Fixed",
          "ProductID": [
            "openSUSE Tumbleweed:libmozjs-115-0-115.2.0-1.1",
            "openSUSE Tumbleweed:mozjs115-115.2.0-1.1",
            "openSUSE Tumbleweed:mozjs115-devel-115.2.0-1.1"
          ]
        }
      ],
      "CVSSScoreSets": {}
    },
    {
      "CVE": "CVE-2023-4576",
      "Description": "On Windows, an integer overflow could occur in `RecordedSourceSurfaceCreation` which resulted in a heap buffer overflow potentially leaking sensitive data that could have led to a sandbox escape.\n*This bug only affects Firefox on Windows. Other operating systems are unaffected.* This vulnerability affects Firefox \u003c 117, Firefox ESR \u003c 102.15, Firefox ESR \u003c 115.2, Thunderbird \u003c 102.15, and Thunderbird \u003c 115.2.",
      "Threats": [
        {
          "Type": "Impact",
          "Severity": "important"
        }
      ],
      "References": [
        {
          "URL": "https://www.suse.com/security/cve/CVE-2023-4576.html",
          "Description": "CVE-2023-4576"
        }
      ],
      "ProductStatuses": [
        {
          "Type": "Fixed",
          "ProductID": [
            "openSUSE Tumbleweed:libmozjs-115-0-115.2.0-1.1",
            "openSUSE Tumbleweed:mozjs115-115.2.0-1.1",
            "openSUSE Tumbleweed:mozjs115-devel-115.2.0-1.1"
          ]
        }
      ],
      "CVSSScoreSets": {}
    },
    {
      "CVE": "CVE-2023-4577",
      "Description": "When `UpdateRegExpStatics` attempted to access `initialStringHeap` it could already have been garbage collected prior to entering the function, which could potentially have led to an exploitable crash. This vulnerability affects Firefox \u003c 117, Firefox ESR \u003c 115.2, and Thunderbird \u003c 115.2.",
      "Threats": [
        {
          "Type": "Impact",
          "Severity": "important"
        }
      ],
      "References": [
        {
          "URL": "https://www.suse.com/security/cve/CVE-2023-4577.html",
          "Description": "CVE-2023-4577"
        }
      ],
      "ProductStatuses": [
        {
          "Type": "Fixed",
          "ProductID": [
            "openSUSE Tumbleweed:libmozjs-115-0-115.2.0-1.1",
            "openSUSE Tumbleweed:mozjs115-115.2.0-1.1",
            "openSUSE Tumbleweed:mozjs115-devel-115.2.0-1.1"
          ]
        }
      ],
      "CVSSScoreSets": {}
    },
    {
      "CVE": "CVE-2023-4578",
      "Description": "When calling `JS::CheckRegExpSyntax` a Syntax Error could have been set which would end in calling `convertToRuntimeErrorAndClear`. A path in the function could attempt to allocate memory when none is available which would have caused a newly created Out of Memory exception to be mishandled as a Syntax Error. This vulnerability affects Firefox \u003c 117, Firefox ESR \u003c 115.2, and Thunderbird \u003c 115.2.",
      "Threats": [
        {
          "Type": "Impact",
          "Severity": "important"
        }
      ],
      "References": [
        {
          "URL": "https://www.suse.com/security/cve/CVE-2023-4578.html",
          "Description": "CVE-2023-4578"
        }
      ],
      "ProductStatuses": [
        {
          "Type": "Fixed",
          "ProductID": [
            "openSUSE Tumbleweed:libmozjs-115-0-115.2.0-1.1",
            "openSUSE Tumbleweed:mozjs115-115.2.0-1.1",
            "openSUSE Tumbleweed:mozjs115-devel-115.2.0-1.1"
          ]
        }
      ],
      "CVSSScoreSets": {}
    },
    {
      "CVE": "CVE-2023-4580",
      "Description": "Push notifications stored on disk in private browsing mode were not being encrypted potentially allowing the leak of sensitive information. This vulnerability affects Firefox \u003c 117, Firefox ESR \u003c 115.2, and Thunderbird \u003c 115.2.",
      "Threats": [
        {
          "Type": "Impact",
          "Severity": "important"
        }
      ],
      "References": [
        {
          "URL": "https://www.suse.com/security/cve/CVE-2023-4580.html",
          "Description": "CVE-2023-4580"
        }
      ],
      "ProductStatuses": [
        {
          "Type": "Fixed",
          "ProductID": [
            "openSUSE Tumbleweed:libmozjs-115-0-115.2.0-1.1",
            "openSUSE Tumbleweed:mozjs115-115.2.0-1.1",
            "openSUSE Tumbleweed:mozjs115-devel-115.2.0-1.1"
          ]
        }
      ],
      "CVSSScoreSets": {}
    },
    {
      "CVE": "CVE-2023-4581",
      "Description": "Excel `.xll` add-in files did not have a blocklist entry in Firefox's executable blocklist which allowed them to be downloaded without any warning of their potential harm. This vulnerability affects Firefox \u003c 117, Firefox ESR \u003c 102.15, Firefox ESR \u003c 115.2, Thunderbird \u003c 102.15, and Thunderbird \u003c 115.2.",
      "Threats": [
        {
          "Type": "Impact",
          "Severity": "important"
        }
      ],
      "References": [
        {
          "URL": "https://www.suse.com/security/cve/CVE-2023-4581.html",
          "Description": "CVE-2023-4581"
        }
      ],
      "ProductStatuses": [
        {
          "Type": "Fixed",
          "ProductID": [
            "openSUSE Tumbleweed:libmozjs-115-0-115.2.0-1.1",
            "openSUSE Tumbleweed:mozjs115-115.2.0-1.1",
            "openSUSE Tumbleweed:mozjs115-devel-115.2.0-1.1"
          ]
        }
      ],
      "CVSSScoreSets": {}
    },
    {
      "CVE": "CVE-2023-4582",
      "Description": "Due to large allocation checks in Angle for glsl shaders being too lenient a buffer overflow could have occured when allocating too much private shader memory on mac OS. \n*This bug only affects Firefox on macOS. Other operating systems are unaffected.* This vulnerability affects Firefox \u003c 117, Firefox ESR \u003c 115.2, and Thunderbird \u003c 115.2.",
      "Threats": [
        {
          "Type": "Impact",
          "Severity": "important"
        }
      ],
      "References": [
        {
          "URL": "https://www.suse.com/security/cve/CVE-2023-4582.html",
          "Description": "CVE-2023-4582"
        }
      ],
      "ProductStatuses": [
        {
          "Type": "Fixed",
          "ProductID": [
            "openSUSE Tumbleweed:libmozjs-115-0-115.2.0-1.1",
            "openSUSE Tumbleweed:mozjs115-115.2.0-1.1",
            "openSUSE Tumbleweed:mozjs115-devel-115.2.0-1.1"
          ]
        }
      ],
      "CVSSScoreSets": {}
    },
    {
      "CVE": "CVE-2023-4583",
      "Description": "When checking if the Browsing Context had been discarded in `HttpBaseChannel`, if the load group was not available then it was assumed to have already been discarded which was not always the case for private channels after the private session had ended. This vulnerability affects Firefox \u003c 117, Firefox ESR \u003c 115.2, and Thunderbird \u003c 115.2.",
      "Threats": [
        {
          "Type": "Impact",
          "Severity": "important"
        }
      ],
      "References": [
        {
          "URL": "https://www.suse.com/security/cve/CVE-2023-4583.html",
          "Description": "CVE-2023-4583"
        }
      ],
      "ProductStatuses": [
        {
          "Type": "Fixed",
          "ProductID": [
            "openSUSE Tumbleweed:libmozjs-115-0-115.2.0-1.1",
            "openSUSE Tumbleweed:mozjs115-115.2.0-1.1",
            "openSUSE Tumbleweed:mozjs115-devel-115.2.0-1.1"
          ]
        }
      ],
      "CVSSScoreSets": {}
    },
    {
      "CVE": "CVE-2023-4584",
      "Description": "Memory safety bugs present in Firefox 116, Firefox ESR 102.14, Firefox ESR 115.1, Thunderbird 102.14, and Thunderbird 115.1. Some of these bugs showed evidence of memory corruption and we presume that with enough effort some of these could have been exploited to run arbitrary code. This vulnerability affects Firefox \u003c 117, Firefox ESR \u003c 102.15, Firefox ESR \u003c 115.2, Thunderbird \u003c 102.15, and Thunderbird \u003c 115.2.",
      "Threats": [
        {
          "Type": "Impact",
          "Severity": "important"
        }
      ],
      "References": [
        {
          "URL": "https://www.suse.com/security/cve/CVE-2023-4584.html",
          "Description": "CVE-2023-4584"
        }
      ],
      "ProductStatuses": [
        {
          "Type": "Fixed",
          "ProductID": [
            "openSUSE Tumbleweed:libmozjs-115-0-115.2.0-1.1",
            "openSUSE Tumbleweed:mozjs115-115.2.0-1.1",
            "openSUSE Tumbleweed:mozjs115-devel-115.2.0-1.1"
          ]
        }
      ],
      "CVSSScoreSets": {}
    },
    {
      "CVE": "CVE-2023-4585",
      "Description": "Memory safety bugs present in Firefox 116, Firefox ESR 115.1, and Thunderbird 115.1. Some of these bugs showed evidence of memory corruption and we presume that with enough effort some of these could have been exploited to run arbitrary code. This vulnerability affects Firefox \u003c 117, Firefox ESR \u003c 115.2, and Thunderbird \u003c 115.2.",
      "Threats": [
        {
          "Type": "Impact",
          "Severity": "important"
        }
      ],
      "References": [
        {
          "URL": "https://www.suse.com/security/cve/CVE-2023-4585.html",
          "Description": "CVE-2023-4585"
        }
      ],
      "ProductStatuses": [
        {
          "Type": "Fixed",
          "ProductID": [
            "openSUSE Tumbleweed:libmozjs-115-0-115.2.0-1.1",
            "openSUSE Tumbleweed:mozjs115-115.2.0-1.1",
            "openSUSE Tumbleweed:mozjs115-devel-115.2.0-1.1"
          ]
        }
      ],
      "CVSSScoreSets": {}
    }
  ]
}