{
  "Title": "kernel-devel-6.8.1-1.1 on GA media",
  "Tracking": {
    "ID": "openSUSE-SU-2024:13785-1",
    "Status": "Final",
    "Version": "1",
    "InitialReleaseDate": "2024-06-20T21:44:22Z",
    "CurrentReleaseDate": "2024-06-20T21:44:22Z",
    "RevisionHistory": [
      {
        "Number": "1",
        "Date": "2024-06-20T21:44:22Z",
        "Description": "current"
      }
    ]
  },
  "Notes": [
    {
      "Text": "kernel-devel-6.8.1-1.1 on GA media",
      "Title": "Topic",
      "Type": "Summary"
    },
    {
      "Text": "These are all security issues fixed in the kernel-devel-6.8.1-1.1 package on the GA media of openSUSE Tumbleweed.",
      "Title": "Details",
      "Type": "General"
    },
    {
      "Text": "The CVRF data is provided by SUSE under the Creative Commons License 4.0 with Attribution (CC-BY-4.0).",
      "Title": "Terms of Use",
      "Type": "Legal Disclaimer"
    },
    {
      "Text": "openSUSE-Tumbleweed-2024-13785",
      "Title": "Patchnames",
      "Type": "Details"
    }
  ],
  "ProductTree": {
    "Relationships": [
      {
        "ProductReference": "kernel-devel-6.8.1-1.1",
        "RelatesToProductReference": "openSUSE Tumbleweed",
        "RelationType": "Default Component Of"
      },
      {
        "ProductReference": "kernel-macros-6.8.1-1.1",
        "RelatesToProductReference": "openSUSE Tumbleweed",
        "RelationType": "Default Component Of"
      },
      {
        "ProductReference": "kernel-source-6.8.1-1.1",
        "RelatesToProductReference": "openSUSE Tumbleweed",
        "RelationType": "Default Component Of"
      },
      {
        "ProductReference": "kernel-source-vanilla-6.8.1-1.1",
        "RelatesToProductReference": "openSUSE Tumbleweed",
        "RelationType": "Default Component Of"
      }
    ]
  },
  "References": [
    {
      "URL": "https://www.suse.com/support/security/rating/",
      "Description": "SUSE Security Ratings"
    },
    {
      "URL": "https://www.suse.com/security/cve/CVE-2023-28746/",
      "Description": "SUSE CVE CVE-2023-28746 page"
    }
  ],
  "Vulnerabilities": [
    {
      "CVE": "CVE-2023-28746",
      "Description": "Information exposure through microarchitectural state after transient execution from some register files for some Intel(R) Atom(R) Processors may allow an authenticated user to potentially enable information disclosure via local access.",
      "Threats": [
        {
          "Type": "Impact",
          "Severity": "moderate"
        }
      ],
      "References": [
        {
          "URL": "https://www.suse.com/security/cve/CVE-2023-28746.html",
          "Description": "CVE-2023-28746"
        },
        {
          "URL": "https://bugzilla.suse.com/1213456",
          "Description": "SUSE Bug 1213456"
        },
        {
          "URL": "https://bugzilla.suse.com/1221323",
          "Description": "SUSE Bug 1221323"
        }
      ],
      "ProductStatuses": [
        {
          "Type": "Fixed",
          "ProductID": [
            "openSUSE Tumbleweed:kernel-devel-6.8.1-1.1",
            "openSUSE Tumbleweed:kernel-macros-6.8.1-1.1",
            "openSUSE Tumbleweed:kernel-source-6.8.1-1.1",
            "openSUSE Tumbleweed:kernel-source-vanilla-6.8.1-1.1"
          ]
        }
      ],
      "CVSSScoreSets": {}
    }
  ]
}