{
  "Title": "cups-pk-helper-0.2.6-1.5 on GA media",
  "Tracking": {
    "ID": "openSUSE-SU-2024:10212-1",
    "Status": "Final",
    "Version": "1",
    "InitialReleaseDate": "2024-06-22T21:44:56Z",
    "CurrentReleaseDate": "2024-06-22T21:44:56Z",
    "RevisionHistory": [
      {
        "Number": "1",
        "Date": "2024-06-22T21:44:56Z",
        "Description": "current"
      }
    ]
  },
  "Notes": [
    {
      "Text": "cups-pk-helper-0.2.6-1.5 on GA media",
      "Title": "Topic",
      "Type": "Summary"
    },
    {
      "Text": "These are all security issues fixed in the cups-pk-helper-0.2.6-1.5 package on the GA media of openSUSE Tumbleweed.",
      "Title": "Details",
      "Type": "General"
    },
    {
      "Text": "The CVRF data is provided by SUSE under the Creative Commons License 4.0 with Attribution (CC-BY-4.0).",
      "Title": "Terms of Use",
      "Type": "Legal Disclaimer"
    },
    {
      "Text": "openSUSE-Tumbleweed-2024-10212",
      "Title": "Patchnames",
      "Type": "Details"
    }
  ],
  "ProductTree": {
    "Relationships": [
      {
        "ProductReference": "cups-pk-helper-0.2.6-1.5",
        "RelatesToProductReference": "openSUSE Tumbleweed",
        "RelationType": "Default Component Of"
      },
      {
        "ProductReference": "cups-pk-helper-lang-0.2.6-1.5",
        "RelatesToProductReference": "openSUSE Tumbleweed",
        "RelationType": "Default Component Of"
      }
    ]
  },
  "References": [
    {
      "URL": "https://www.suse.com/support/security/rating/",
      "Description": "SUSE Security Ratings"
    },
    {
      "URL": "https://www.suse.com/security/cve/CVE-2012-4510/",
      "Description": "SUSE CVE CVE-2012-4510 page"
    }
  ],
  "Vulnerabilities": [
    {
      "CVE": "CVE-2012-4510",
      "Description": "cups-pk-helper before 0.2.3 does not properly wrap the (1) cupsGetFile and (2) cupsPutFile function calls, which allows user-assisted remote attackers to read or overwrite sensitive files using CUPS resources.",
      "Threats": [
        {
          "Type": "Impact",
          "Severity": "moderate"
        }
      ],
      "References": [
        {
          "URL": "https://www.suse.com/security/cve/CVE-2012-4510.html",
          "Description": "CVE-2012-4510"
        },
        {
          "URL": "https://bugzilla.suse.com/783488",
          "Description": "SUSE Bug 783488"
        }
      ],
      "ProductStatuses": [
        {
          "Type": "Fixed",
          "ProductID": [
            "openSUSE Tumbleweed:cups-pk-helper-0.2.6-1.5",
            "openSUSE Tumbleweed:cups-pk-helper-lang-0.2.6-1.5"
          ]
        }
      ],
      "CVSSScoreSets": {}
    }
  ]
}