{
  "Title": "gnome-settings-daemon-46.0-5.1 on GA media",
  "Tracking": {
    "ID": "openSUSE-SU-2024:14060-1",
    "Status": "Final",
    "Version": "1",
    "InitialReleaseDate": "2024-06-21T21:46:36Z",
    "CurrentReleaseDate": "2024-06-21T21:46:36Z",
    "RevisionHistory": [
      {
        "Number": "1",
        "Date": "2024-06-21T21:46:36Z",
        "Description": "current"
      }
    ]
  },
  "Notes": [
    {
      "Text": "gnome-settings-daemon-46.0-5.1 on GA media",
      "Title": "Topic",
      "Type": "Summary"
    },
    {
      "Text": "These are all security issues fixed in the gnome-settings-daemon-46.0-5.1 package on the GA media of openSUSE Tumbleweed.",
      "Title": "Details",
      "Type": "General"
    },
    {
      "Text": "The CVRF data is provided by SUSE under the Creative Commons License 4.0 with Attribution (CC-BY-4.0).",
      "Title": "Terms of Use",
      "Type": "Legal Disclaimer"
    },
    {
      "Text": "openSUSE-Tumbleweed-2024-14060",
      "Title": "Patchnames",
      "Type": "Details"
    }
  ],
  "ProductTree": {
    "Relationships": [
      {
        "ProductReference": "gnome-settings-daemon-46.0-5.1",
        "RelatesToProductReference": "openSUSE Tumbleweed",
        "RelationType": "Default Component Of"
      },
      {
        "ProductReference": "gnome-settings-daemon-devel-46.0-5.1",
        "RelatesToProductReference": "openSUSE Tumbleweed",
        "RelationType": "Default Component Of"
      },
      {
        "ProductReference": "gnome-settings-daemon-lang-46.0-5.1",
        "RelatesToProductReference": "openSUSE Tumbleweed",
        "RelationType": "Default Component Of"
      }
    ]
  },
  "References": [
    {
      "URL": "https://www.suse.com/support/security/rating/",
      "Description": "SUSE Security Ratings"
    },
    {
      "URL": "https://www.suse.com/security/cve/CVE-2024-38394/",
      "Description": "SUSE CVE CVE-2024-38394 page"
    }
  ],
  "Vulnerabilities": [
    {
      "CVE": "CVE-2024-38394",
      "Description": "** DISPUTED ** Mismatches in interpreting USB authorization policy between GNOME Settings Daemon (GSD) through 46.0 and the Linux kernel's underlying device matching logic allow a physically proximate attacker to access some unintended Linux kernel USB functionality, such as USB device-specific kernel modules and filesystem implementations. NOTE: the GSD supplier indicates that consideration of a mitigation for this within GSD would be in the context of \"a new feature, not a CVE.\"",
      "Threats": [
        {
          "Type": "Impact",
          "Severity": "moderate"
        }
      ],
      "References": [
        {
          "URL": "https://www.suse.com/security/cve/CVE-2024-38394.html",
          "Description": "CVE-2024-38394"
        },
        {
          "URL": "https://bugzilla.suse.com/1226423",
          "Description": "SUSE Bug 1226423"
        }
      ],
      "ProductStatuses": [
        {
          "Type": "Fixed",
          "ProductID": [
            "openSUSE Tumbleweed:gnome-settings-daemon-46.0-5.1",
            "openSUSE Tumbleweed:gnome-settings-daemon-devel-46.0-5.1",
            "openSUSE Tumbleweed:gnome-settings-daemon-lang-46.0-5.1"
          ]
        }
      ],
      "CVSSScoreSets": {}
    }
  ]
}