{
  "Title": "corepack18-18.10.0-1.1 on GA media",
  "Tracking": {
    "ID": "openSUSE-SU-2024:12376-1",
    "Status": "Final",
    "Version": "1",
    "InitialReleaseDate": "2024-06-20T21:44:22Z",
    "CurrentReleaseDate": "2024-06-20T21:44:22Z",
    "RevisionHistory": [
      {
        "Number": "1",
        "Date": "2024-06-20T21:44:22Z",
        "Description": "current"
      }
    ]
  },
  "Notes": [
    {
      "Text": "corepack18-18.10.0-1.1 on GA media",
      "Title": "Topic",
      "Type": "Summary"
    },
    {
      "Text": "These are all security issues fixed in the corepack18-18.10.0-1.1 package on the GA media of openSUSE Tumbleweed.",
      "Title": "Details",
      "Type": "General"
    },
    {
      "Text": "The CVRF data is provided by SUSE under the Creative Commons License 4.0 with Attribution (CC-BY-4.0).",
      "Title": "Terms of Use",
      "Type": "Legal Disclaimer"
    },
    {
      "Text": "openSUSE-Tumbleweed-2024-12376",
      "Title": "Patchnames",
      "Type": "Details"
    }
  ],
  "ProductTree": {
    "Relationships": [
      {
        "ProductReference": "corepack18-18.10.0-1.1",
        "RelatesToProductReference": "openSUSE Tumbleweed",
        "RelationType": "Default Component Of"
      },
      {
        "ProductReference": "nodejs18-18.10.0-1.1",
        "RelatesToProductReference": "openSUSE Tumbleweed",
        "RelationType": "Default Component Of"
      },
      {
        "ProductReference": "nodejs18-devel-18.10.0-1.1",
        "RelatesToProductReference": "openSUSE Tumbleweed",
        "RelationType": "Default Component Of"
      },
      {
        "ProductReference": "nodejs18-docs-18.10.0-1.1",
        "RelatesToProductReference": "openSUSE Tumbleweed",
        "RelationType": "Default Component Of"
      },
      {
        "ProductReference": "npm18-18.10.0-1.1",
        "RelatesToProductReference": "openSUSE Tumbleweed",
        "RelationType": "Default Component Of"
      }
    ]
  },
  "References": [
    {
      "URL": "https://www.suse.com/support/security/rating/",
      "Description": "SUSE Security Ratings"
    },
    {
      "URL": "https://www.suse.com/security/cve/CVE-2022-32215/",
      "Description": "SUSE CVE CVE-2022-32215 page"
    },
    {
      "URL": "https://www.suse.com/security/cve/CVE-2022-35255/",
      "Description": "SUSE CVE CVE-2022-35255 page"
    },
    {
      "URL": "https://www.suse.com/security/cve/CVE-2022-35256/",
      "Description": "SUSE CVE CVE-2022-35256 page"
    }
  ],
  "Vulnerabilities": [
    {
      "CVE": "CVE-2022-32215",
      "Description": "The llhttp parser \u003cv14.20.1, \u003cv16.17.1 and \u003cv18.9.1 in the http module in Node.js does not correctly handle multi-line Transfer-Encoding headers. This can lead to HTTP Request Smuggling (HRS).",
      "Threats": [
        {
          "Type": "Impact",
          "Severity": "moderate"
        }
      ],
      "References": [
        {
          "URL": "https://www.suse.com/security/cve/CVE-2022-32215.html",
          "Description": "CVE-2022-32215"
        },
        {
          "URL": "https://bugzilla.suse.com/1201327",
          "Description": "SUSE Bug 1201327"
        }
      ],
      "ProductStatuses": [
        {
          "Type": "Fixed",
          "ProductID": [
            "openSUSE Tumbleweed:corepack18-18.10.0-1.1",
            "openSUSE Tumbleweed:nodejs18-18.10.0-1.1",
            "openSUSE Tumbleweed:nodejs18-devel-18.10.0-1.1",
            "openSUSE Tumbleweed:nodejs18-docs-18.10.0-1.1",
            "openSUSE Tumbleweed:npm18-18.10.0-1.1"
          ]
        }
      ],
      "CVSSScoreSets": {}
    },
    {
      "CVE": "CVE-2022-35255",
      "Description": "A weak randomness in WebCrypto keygen vulnerability exists in Node.js 18 due to a change with EntropySource() in SecretKeyGenTraits::DoKeyGen() in src/crypto/crypto_keygen.cc. There are two problems with this: 1) It does not check the return value, it assumes EntropySource() always succeeds, but it can (and sometimes will) fail. 2) The random data returned byEntropySource() may not be cryptographically strong and therefore not suitable as keying material.",
      "Threats": [
        {
          "Type": "Impact",
          "Severity": "important"
        }
      ],
      "References": [
        {
          "URL": "https://www.suse.com/security/cve/CVE-2022-35255.html",
          "Description": "CVE-2022-35255"
        },
        {
          "URL": "https://bugzilla.suse.com/1203831",
          "Description": "SUSE Bug 1203831"
        }
      ],
      "ProductStatuses": [
        {
          "Type": "Fixed",
          "ProductID": [
            "openSUSE Tumbleweed:corepack18-18.10.0-1.1",
            "openSUSE Tumbleweed:nodejs18-18.10.0-1.1",
            "openSUSE Tumbleweed:nodejs18-devel-18.10.0-1.1",
            "openSUSE Tumbleweed:nodejs18-docs-18.10.0-1.1",
            "openSUSE Tumbleweed:npm18-18.10.0-1.1"
          ]
        }
      ],
      "CVSSScoreSets": {}
    },
    {
      "CVE": "CVE-2022-35256",
      "Description": "The llhttp parser in the http module in Node v18.7.0 does not correctly handle header fields that are not terminated with CLRF. This may result in HTTP Request Smuggling.",
      "Threats": [
        {
          "Type": "Impact",
          "Severity": "moderate"
        }
      ],
      "References": [
        {
          "URL": "https://www.suse.com/security/cve/CVE-2022-35256.html",
          "Description": "CVE-2022-35256"
        },
        {
          "URL": "https://bugzilla.suse.com/1203832",
          "Description": "SUSE Bug 1203832"
        }
      ],
      "ProductStatuses": [
        {
          "Type": "Fixed",
          "ProductID": [
            "openSUSE Tumbleweed:corepack18-18.10.0-1.1",
            "openSUSE Tumbleweed:nodejs18-18.10.0-1.1",
            "openSUSE Tumbleweed:nodejs18-devel-18.10.0-1.1",
            "openSUSE Tumbleweed:nodejs18-docs-18.10.0-1.1",
            "openSUSE Tumbleweed:npm18-18.10.0-1.1"
          ]
        }
      ],
      "CVSSScoreSets": {}
    }
  ]
}