{
  "Title": "bluez-5.65-4.1 on GA media",
  "Tracking": {
    "ID": "openSUSE-SU-2024:12446-1",
    "Status": "Final",
    "Version": "1",
    "InitialReleaseDate": "2024-06-20T21:44:22Z",
    "CurrentReleaseDate": "2024-06-20T21:44:22Z",
    "RevisionHistory": [
      {
        "Number": "1",
        "Date": "2024-06-20T21:44:22Z",
        "Description": "current"
      }
    ]
  },
  "Notes": [
    {
      "Text": "bluez-5.65-4.1 on GA media",
      "Title": "Topic",
      "Type": "Summary"
    },
    {
      "Text": "These are all security issues fixed in the bluez-5.65-4.1 package on the GA media of openSUSE Tumbleweed.",
      "Title": "Details",
      "Type": "General"
    },
    {
      "Text": "The CVRF data is provided by SUSE under the Creative Commons License 4.0 with Attribution (CC-BY-4.0).",
      "Title": "Terms of Use",
      "Type": "Legal Disclaimer"
    },
    {
      "Text": "openSUSE-Tumbleweed-2024-12446",
      "Title": "Patchnames",
      "Type": "Details"
    }
  ],
  "ProductTree": {
    "Relationships": [
      {
        "ProductReference": "bluez-5.65-4.1",
        "RelatesToProductReference": "openSUSE Tumbleweed",
        "RelationType": "Default Component Of"
      },
      {
        "ProductReference": "bluez-auto-enable-devices-5.65-4.1",
        "RelatesToProductReference": "openSUSE Tumbleweed",
        "RelationType": "Default Component Of"
      },
      {
        "ProductReference": "bluez-cups-5.65-4.1",
        "RelatesToProductReference": "openSUSE Tumbleweed",
        "RelationType": "Default Component Of"
      },
      {
        "ProductReference": "bluez-deprecated-5.65-4.1",
        "RelatesToProductReference": "openSUSE Tumbleweed",
        "RelationType": "Default Component Of"
      },
      {
        "ProductReference": "bluez-devel-5.65-4.1",
        "RelatesToProductReference": "openSUSE Tumbleweed",
        "RelationType": "Default Component Of"
      },
      {
        "ProductReference": "bluez-devel-32bit-5.65-4.1",
        "RelatesToProductReference": "openSUSE Tumbleweed",
        "RelationType": "Default Component Of"
      },
      {
        "ProductReference": "bluez-obexd-5.65-4.1",
        "RelatesToProductReference": "openSUSE Tumbleweed",
        "RelationType": "Default Component Of"
      },
      {
        "ProductReference": "bluez-test-5.65-4.1",
        "RelatesToProductReference": "openSUSE Tumbleweed",
        "RelationType": "Default Component Of"
      },
      {
        "ProductReference": "bluez-zsh-completion-5.65-4.1",
        "RelatesToProductReference": "openSUSE Tumbleweed",
        "RelationType": "Default Component Of"
      },
      {
        "ProductReference": "libbluetooth3-5.65-4.1",
        "RelatesToProductReference": "openSUSE Tumbleweed",
        "RelationType": "Default Component Of"
      },
      {
        "ProductReference": "libbluetooth3-32bit-5.65-4.1",
        "RelatesToProductReference": "openSUSE Tumbleweed",
        "RelationType": "Default Component Of"
      }
    ]
  },
  "References": [
    {
      "URL": "https://www.suse.com/support/security/rating/",
      "Description": "SUSE Security Ratings"
    },
    {
      "URL": "https://www.suse.com/security/cve/CVE-2016-9801/",
      "Description": "SUSE CVE CVE-2016-9801 page"
    },
    {
      "URL": "https://www.suse.com/security/cve/CVE-2016-9918/",
      "Description": "SUSE CVE CVE-2016-9918 page"
    },
    {
      "URL": "https://www.suse.com/security/cve/CVE-2021-0129/",
      "Description": "SUSE CVE CVE-2021-0129 page"
    },
    {
      "URL": "https://www.suse.com/security/cve/CVE-2021-3588/",
      "Description": "SUSE CVE CVE-2021-3588 page"
    }
  ],
  "Vulnerabilities": [
    {
      "CVE": "CVE-2016-9801",
      "Description": "In BlueZ 5.42, a buffer overflow was observed in \"set_ext_ctrl\" function in \"tools/parser/l2cap.c\" source file when processing corrupted dump file.",
      "Threats": [
        {
          "Type": "Impact",
          "Severity": "moderate"
        }
      ],
      "References": [
        {
          "URL": "https://www.suse.com/security/cve/CVE-2016-9801.html",
          "Description": "CVE-2016-9801"
        },
        {
          "URL": "https://bugzilla.suse.com/1013732",
          "Description": "SUSE Bug 1013732"
        }
      ],
      "ProductStatuses": [
        {
          "Type": "Fixed",
          "ProductID": [
            "openSUSE Tumbleweed:bluez-5.65-4.1",
            "openSUSE Tumbleweed:bluez-auto-enable-devices-5.65-4.1",
            "openSUSE Tumbleweed:bluez-cups-5.65-4.1",
            "openSUSE Tumbleweed:bluez-deprecated-5.65-4.1",
            "openSUSE Tumbleweed:bluez-devel-32bit-5.65-4.1",
            "openSUSE Tumbleweed:bluez-devel-5.65-4.1",
            "openSUSE Tumbleweed:bluez-obexd-5.65-4.1",
            "openSUSE Tumbleweed:bluez-test-5.65-4.1",
            "openSUSE Tumbleweed:bluez-zsh-completion-5.65-4.1",
            "openSUSE Tumbleweed:libbluetooth3-32bit-5.65-4.1",
            "openSUSE Tumbleweed:libbluetooth3-5.65-4.1"
          ]
        }
      ],
      "CVSSScoreSets": {
        "BaseScore": "1.2",
        "Vector": "AV:L/AC:H/Au:N/C:N/I:N/A:P"
      }
    },
    {
      "CVE": "CVE-2016-9918",
      "Description": "In BlueZ 5.42, an out-of-bounds read was identified in \"packet_hexdump\" function in \"monitor/packet.c\" source file. This issue can be triggered by processing a corrupted dump file and will result in btmon crash.",
      "Threats": [
        {
          "Type": "Impact",
          "Severity": "moderate"
        }
      ],
      "References": [
        {
          "URL": "https://www.suse.com/security/cve/CVE-2016-9918.html",
          "Description": "CVE-2016-9918"
        },
        {
          "URL": "https://bugzilla.suse.com/1013893",
          "Description": "SUSE Bug 1013893"
        },
        {
          "URL": "https://bugzilla.suse.com/1015173",
          "Description": "SUSE Bug 1015173"
        }
      ],
      "ProductStatuses": [
        {
          "Type": "Fixed",
          "ProductID": [
            "openSUSE Tumbleweed:bluez-5.65-4.1",
            "openSUSE Tumbleweed:bluez-auto-enable-devices-5.65-4.1",
            "openSUSE Tumbleweed:bluez-cups-5.65-4.1",
            "openSUSE Tumbleweed:bluez-deprecated-5.65-4.1",
            "openSUSE Tumbleweed:bluez-devel-32bit-5.65-4.1",
            "openSUSE Tumbleweed:bluez-devel-5.65-4.1",
            "openSUSE Tumbleweed:bluez-obexd-5.65-4.1",
            "openSUSE Tumbleweed:bluez-test-5.65-4.1",
            "openSUSE Tumbleweed:bluez-zsh-completion-5.65-4.1",
            "openSUSE Tumbleweed:libbluetooth3-32bit-5.65-4.1",
            "openSUSE Tumbleweed:libbluetooth3-5.65-4.1"
          ]
        }
      ],
      "CVSSScoreSets": {
        "BaseScore": "2.9",
        "Vector": "AV:A/AC:M/Au:N/C:N/I:N/A:P"
      }
    },
    {
      "CVE": "CVE-2021-0129",
      "Description": "Improper access control in BlueZ may allow an authenticated user to potentially enable information disclosure via adjacent access.",
      "Threats": [
        {
          "Type": "Impact",
          "Severity": "moderate"
        }
      ],
      "References": [
        {
          "URL": "https://www.suse.com/security/cve/CVE-2021-0129.html",
          "Description": "CVE-2021-0129"
        },
        {
          "URL": "https://bugzilla.suse.com/1186463",
          "Description": "SUSE Bug 1186463"
        }
      ],
      "ProductStatuses": [
        {
          "Type": "Fixed",
          "ProductID": [
            "openSUSE Tumbleweed:bluez-5.65-4.1",
            "openSUSE Tumbleweed:bluez-auto-enable-devices-5.65-4.1",
            "openSUSE Tumbleweed:bluez-cups-5.65-4.1",
            "openSUSE Tumbleweed:bluez-deprecated-5.65-4.1",
            "openSUSE Tumbleweed:bluez-devel-32bit-5.65-4.1",
            "openSUSE Tumbleweed:bluez-devel-5.65-4.1",
            "openSUSE Tumbleweed:bluez-obexd-5.65-4.1",
            "openSUSE Tumbleweed:bluez-test-5.65-4.1",
            "openSUSE Tumbleweed:bluez-zsh-completion-5.65-4.1",
            "openSUSE Tumbleweed:libbluetooth3-32bit-5.65-4.1",
            "openSUSE Tumbleweed:libbluetooth3-5.65-4.1"
          ]
        }
      ],
      "CVSSScoreSets": {}
    },
    {
      "CVE": "CVE-2021-3588",
      "Description": "The cli_feat_read_cb() function in src/gatt-database.c does not perform bounds checks on the 'offset' variable before using it as an index into an array for reading.",
      "Threats": [
        {
          "Type": "Impact",
          "Severity": "moderate"
        }
      ],
      "References": [
        {
          "URL": "https://www.suse.com/security/cve/CVE-2021-3588.html",
          "Description": "CVE-2021-3588"
        },
        {
          "URL": "https://bugzilla.suse.com/1187165",
          "Description": "SUSE Bug 1187165"
        }
      ],
      "ProductStatuses": [
        {
          "Type": "Fixed",
          "ProductID": [
            "openSUSE Tumbleweed:bluez-5.65-4.1",
            "openSUSE Tumbleweed:bluez-auto-enable-devices-5.65-4.1",
            "openSUSE Tumbleweed:bluez-cups-5.65-4.1",
            "openSUSE Tumbleweed:bluez-deprecated-5.65-4.1",
            "openSUSE Tumbleweed:bluez-devel-32bit-5.65-4.1",
            "openSUSE Tumbleweed:bluez-devel-5.65-4.1",
            "openSUSE Tumbleweed:bluez-obexd-5.65-4.1",
            "openSUSE Tumbleweed:bluez-test-5.65-4.1",
            "openSUSE Tumbleweed:bluez-zsh-completion-5.65-4.1",
            "openSUSE Tumbleweed:libbluetooth3-32bit-5.65-4.1",
            "openSUSE Tumbleweed:libbluetooth3-5.65-4.1"
          ]
        }
      ],
      "CVSSScoreSets": {}
    }
  ]
}