{
  "Title": "libnss_slurm2-21.08.1-1.1 on GA media",
  "Tracking": {
    "ID": "openSUSE-SU-2024:11389-1",
    "Status": "Final",
    "Version": "1",
    "InitialReleaseDate": "2024-06-22T21:44:56Z",
    "CurrentReleaseDate": "2024-06-22T21:44:56Z",
    "RevisionHistory": [
      {
        "Number": "1",
        "Date": "2024-06-22T21:44:56Z",
        "Description": "current"
      }
    ]
  },
  "Notes": [
    {
      "Text": "libnss_slurm2-21.08.1-1.1 on GA media",
      "Title": "Topic",
      "Type": "Summary"
    },
    {
      "Text": "These are all security issues fixed in the libnss_slurm2-21.08.1-1.1 package on the GA media of openSUSE Tumbleweed.",
      "Title": "Details",
      "Type": "General"
    },
    {
      "Text": "The CVRF data is provided by SUSE under the Creative Commons License 4.0 with Attribution (CC-BY-4.0).",
      "Title": "Terms of Use",
      "Type": "Legal Disclaimer"
    },
    {
      "Text": "openSUSE-Tumbleweed-2024-11389",
      "Title": "Patchnames",
      "Type": "Details"
    }
  ],
  "ProductTree": {
    "Relationships": [
      {
        "ProductReference": "libnss_slurm2-21.08.1-1.1",
        "RelatesToProductReference": "openSUSE Tumbleweed",
        "RelationType": "Default Component Of"
      },
      {
        "ProductReference": "libpmi0-21.08.1-1.1",
        "RelatesToProductReference": "openSUSE Tumbleweed",
        "RelationType": "Default Component Of"
      },
      {
        "ProductReference": "libslurm37-21.08.1-1.1",
        "RelatesToProductReference": "openSUSE Tumbleweed",
        "RelationType": "Default Component Of"
      },
      {
        "ProductReference": "perl-slurm-21.08.1-1.1",
        "RelatesToProductReference": "openSUSE Tumbleweed",
        "RelationType": "Default Component Of"
      },
      {
        "ProductReference": "slurm-21.08.1-1.1",
        "RelatesToProductReference": "openSUSE Tumbleweed",
        "RelationType": "Default Component Of"
      },
      {
        "ProductReference": "slurm-auth-none-21.08.1-1.1",
        "RelatesToProductReference": "openSUSE Tumbleweed",
        "RelationType": "Default Component Of"
      },
      {
        "ProductReference": "slurm-config-21.08.1-1.1",
        "RelatesToProductReference": "openSUSE Tumbleweed",
        "RelationType": "Default Component Of"
      },
      {
        "ProductReference": "slurm-config-man-21.08.1-1.1",
        "RelatesToProductReference": "openSUSE Tumbleweed",
        "RelationType": "Default Component Of"
      },
      {
        "ProductReference": "slurm-cray-21.08.1-1.1",
        "RelatesToProductReference": "openSUSE Tumbleweed",
        "RelationType": "Default Component Of"
      },
      {
        "ProductReference": "slurm-devel-21.08.1-1.1",
        "RelatesToProductReference": "openSUSE Tumbleweed",
        "RelationType": "Default Component Of"
      },
      {
        "ProductReference": "slurm-doc-21.08.1-1.1",
        "RelatesToProductReference": "openSUSE Tumbleweed",
        "RelationType": "Default Component Of"
      },
      {
        "ProductReference": "slurm-hdf5-21.08.1-1.1",
        "RelatesToProductReference": "openSUSE Tumbleweed",
        "RelationType": "Default Component Of"
      },
      {
        "ProductReference": "slurm-lua-21.08.1-1.1",
        "RelatesToProductReference": "openSUSE Tumbleweed",
        "RelationType": "Default Component Of"
      },
      {
        "ProductReference": "slurm-munge-21.08.1-1.1",
        "RelatesToProductReference": "openSUSE Tumbleweed",
        "RelationType": "Default Component Of"
      },
      {
        "ProductReference": "slurm-node-21.08.1-1.1",
        "RelatesToProductReference": "openSUSE Tumbleweed",
        "RelationType": "Default Component Of"
      },
      {
        "ProductReference": "slurm-openlava-21.08.1-1.1",
        "RelatesToProductReference": "openSUSE Tumbleweed",
        "RelationType": "Default Component Of"
      },
      {
        "ProductReference": "slurm-pam_slurm-21.08.1-1.1",
        "RelatesToProductReference": "openSUSE Tumbleweed",
        "RelationType": "Default Component Of"
      },
      {
        "ProductReference": "slurm-plugins-21.08.1-1.1",
        "RelatesToProductReference": "openSUSE Tumbleweed",
        "RelationType": "Default Component Of"
      },
      {
        "ProductReference": "slurm-rest-21.08.1-1.1",
        "RelatesToProductReference": "openSUSE Tumbleweed",
        "RelationType": "Default Component Of"
      },
      {
        "ProductReference": "slurm-seff-21.08.1-1.1",
        "RelatesToProductReference": "openSUSE Tumbleweed",
        "RelationType": "Default Component Of"
      },
      {
        "ProductReference": "slurm-sjstat-21.08.1-1.1",
        "RelatesToProductReference": "openSUSE Tumbleweed",
        "RelationType": "Default Component Of"
      },
      {
        "ProductReference": "slurm-slurmdbd-21.08.1-1.1",
        "RelatesToProductReference": "openSUSE Tumbleweed",
        "RelationType": "Default Component Of"
      },
      {
        "ProductReference": "slurm-sql-21.08.1-1.1",
        "RelatesToProductReference": "openSUSE Tumbleweed",
        "RelationType": "Default Component Of"
      },
      {
        "ProductReference": "slurm-sview-21.08.1-1.1",
        "RelatesToProductReference": "openSUSE Tumbleweed",
        "RelationType": "Default Component Of"
      },
      {
        "ProductReference": "slurm-torque-21.08.1-1.1",
        "RelatesToProductReference": "openSUSE Tumbleweed",
        "RelationType": "Default Component Of"
      },
      {
        "ProductReference": "slurm-webdoc-21.08.1-1.1",
        "RelatesToProductReference": "openSUSE Tumbleweed",
        "RelationType": "Default Component Of"
      }
    ]
  },
  "References": [
    {
      "URL": "https://www.suse.com/support/security/rating/",
      "Description": "SUSE Security Ratings"
    },
    {
      "URL": "https://www.suse.com/security/cve/CVE-2016-10030/",
      "Description": "SUSE CVE CVE-2016-10030 page"
    },
    {
      "URL": "https://www.suse.com/security/cve/CVE-2017-15566/",
      "Description": "SUSE CVE CVE-2017-15566 page"
    },
    {
      "URL": "https://www.suse.com/security/cve/CVE-2018-10995/",
      "Description": "SUSE CVE CVE-2018-10995 page"
    },
    {
      "URL": "https://www.suse.com/security/cve/CVE-2018-7033/",
      "Description": "SUSE CVE CVE-2018-7033 page"
    },
    {
      "URL": "https://www.suse.com/security/cve/CVE-2019-12838/",
      "Description": "SUSE CVE CVE-2019-12838 page"
    },
    {
      "URL": "https://www.suse.com/security/cve/CVE-2019-19727/",
      "Description": "SUSE CVE CVE-2019-19727 page"
    },
    {
      "URL": "https://www.suse.com/security/cve/CVE-2019-19728/",
      "Description": "SUSE CVE CVE-2019-19728 page"
    },
    {
      "URL": "https://www.suse.com/security/cve/CVE-2019-6438/",
      "Description": "SUSE CVE CVE-2019-6438 page"
    },
    {
      "URL": "https://www.suse.com/security/cve/CVE-2020-12693/",
      "Description": "SUSE CVE CVE-2020-12693 page"
    },
    {
      "URL": "https://www.suse.com/security/cve/CVE-2020-27745/",
      "Description": "SUSE CVE CVE-2020-27745 page"
    },
    {
      "URL": "https://www.suse.com/security/cve/CVE-2020-27746/",
      "Description": "SUSE CVE CVE-2020-27746 page"
    },
    {
      "URL": "https://www.suse.com/security/cve/CVE-2021-31215/",
      "Description": "SUSE CVE CVE-2021-31215 page"
    }
  ],
  "Vulnerabilities": [
    {
      "CVE": "CVE-2016-10030",
      "Description": "The _prolog_error function in slurmd/req.c in Slurm before 15.08.13, 16.x before 16.05.7, and 17.x before 17.02.0-pre4 has a vulnerability in how the slurmd daemon informs users of a Prolog failure on a compute node. That vulnerability could allow a user to assume control of an arbitrary file on the system. Any exploitation of this is dependent on the user being able to cause or anticipate the failure (non-zero return code) of a Prolog script that their job would run on. This issue affects all Slurm versions from 0.6.0 (September 2005) to present. Workarounds to prevent exploitation of this are to either disable your Prolog script, or modify it such that it always returns 0 (\"success\") and adjust it to set the node as down using scontrol instead of relying on the slurmd to handle that automatically. If you do not have a Prolog set you are unaffected by this issue.",
      "Threats": [
        {
          "Type": "Impact",
          "Severity": "important"
        }
      ],
      "References": [
        {
          "URL": "https://www.suse.com/security/cve/CVE-2016-10030.html",
          "Description": "CVE-2016-10030"
        },
        {
          "URL": "https://bugzilla.suse.com/1018371",
          "Description": "SUSE Bug 1018371"
        }
      ],
      "ProductStatuses": [
        {
          "Type": "Fixed",
          "ProductID": [
            "openSUSE Tumbleweed:libnss_slurm2-21.08.1-1.1",
            "openSUSE Tumbleweed:libpmi0-21.08.1-1.1",
            "openSUSE Tumbleweed:libslurm37-21.08.1-1.1",
            "openSUSE Tumbleweed:perl-slurm-21.08.1-1.1",
            "openSUSE Tumbleweed:slurm-21.08.1-1.1",
            "openSUSE Tumbleweed:slurm-auth-none-21.08.1-1.1",
            "openSUSE Tumbleweed:slurm-config-21.08.1-1.1",
            "openSUSE Tumbleweed:slurm-config-man-21.08.1-1.1",
            "openSUSE Tumbleweed:slurm-cray-21.08.1-1.1",
            "openSUSE Tumbleweed:slurm-devel-21.08.1-1.1",
            "openSUSE Tumbleweed:slurm-doc-21.08.1-1.1",
            "openSUSE Tumbleweed:slurm-hdf5-21.08.1-1.1",
            "openSUSE Tumbleweed:slurm-lua-21.08.1-1.1",
            "openSUSE Tumbleweed:slurm-munge-21.08.1-1.1",
            "openSUSE Tumbleweed:slurm-node-21.08.1-1.1",
            "openSUSE Tumbleweed:slurm-openlava-21.08.1-1.1",
            "openSUSE Tumbleweed:slurm-pam_slurm-21.08.1-1.1",
            "openSUSE Tumbleweed:slurm-plugins-21.08.1-1.1",
            "openSUSE Tumbleweed:slurm-rest-21.08.1-1.1",
            "openSUSE Tumbleweed:slurm-seff-21.08.1-1.1",
            "openSUSE Tumbleweed:slurm-sjstat-21.08.1-1.1",
            "openSUSE Tumbleweed:slurm-slurmdbd-21.08.1-1.1",
            "openSUSE Tumbleweed:slurm-sql-21.08.1-1.1",
            "openSUSE Tumbleweed:slurm-sview-21.08.1-1.1",
            "openSUSE Tumbleweed:slurm-torque-21.08.1-1.1",
            "openSUSE Tumbleweed:slurm-webdoc-21.08.1-1.1"
          ]
        }
      ],
      "CVSSScoreSets": {}
    },
    {
      "CVE": "CVE-2017-15566",
      "Description": "Insecure SPANK environment variable handling exists in SchedMD Slurm before 16.05.11, 17.x before 17.02.9, and 17.11.x before 17.11.0rc2, allowing privilege escalation to root during Prolog or Epilog execution.",
      "Threats": [
        {
          "Type": "Impact",
          "Severity": "important"
        }
      ],
      "References": [
        {
          "URL": "https://www.suse.com/security/cve/CVE-2017-15566.html",
          "Description": "CVE-2017-15566"
        },
        {
          "URL": "https://bugzilla.suse.com/1065697",
          "Description": "SUSE Bug 1065697"
        }
      ],
      "ProductStatuses": [
        {
          "Type": "Fixed",
          "ProductID": [
            "openSUSE Tumbleweed:libnss_slurm2-21.08.1-1.1",
            "openSUSE Tumbleweed:libpmi0-21.08.1-1.1",
            "openSUSE Tumbleweed:libslurm37-21.08.1-1.1",
            "openSUSE Tumbleweed:perl-slurm-21.08.1-1.1",
            "openSUSE Tumbleweed:slurm-21.08.1-1.1",
            "openSUSE Tumbleweed:slurm-auth-none-21.08.1-1.1",
            "openSUSE Tumbleweed:slurm-config-21.08.1-1.1",
            "openSUSE Tumbleweed:slurm-config-man-21.08.1-1.1",
            "openSUSE Tumbleweed:slurm-cray-21.08.1-1.1",
            "openSUSE Tumbleweed:slurm-devel-21.08.1-1.1",
            "openSUSE Tumbleweed:slurm-doc-21.08.1-1.1",
            "openSUSE Tumbleweed:slurm-hdf5-21.08.1-1.1",
            "openSUSE Tumbleweed:slurm-lua-21.08.1-1.1",
            "openSUSE Tumbleweed:slurm-munge-21.08.1-1.1",
            "openSUSE Tumbleweed:slurm-node-21.08.1-1.1",
            "openSUSE Tumbleweed:slurm-openlava-21.08.1-1.1",
            "openSUSE Tumbleweed:slurm-pam_slurm-21.08.1-1.1",
            "openSUSE Tumbleweed:slurm-plugins-21.08.1-1.1",
            "openSUSE Tumbleweed:slurm-rest-21.08.1-1.1",
            "openSUSE Tumbleweed:slurm-seff-21.08.1-1.1",
            "openSUSE Tumbleweed:slurm-sjstat-21.08.1-1.1",
            "openSUSE Tumbleweed:slurm-slurmdbd-21.08.1-1.1",
            "openSUSE Tumbleweed:slurm-sql-21.08.1-1.1",
            "openSUSE Tumbleweed:slurm-sview-21.08.1-1.1",
            "openSUSE Tumbleweed:slurm-torque-21.08.1-1.1",
            "openSUSE Tumbleweed:slurm-webdoc-21.08.1-1.1"
          ]
        }
      ],
      "CVSSScoreSets": {}
    },
    {
      "CVE": "CVE-2018-10995",
      "Description": "SchedMD Slurm before 17.02.11 and 17.1x.x before 17.11.7 mishandles user names (aka user_name fields) and group ids (aka gid fields).",
      "Threats": [
        {
          "Type": "Impact",
          "Severity": "moderate"
        }
      ],
      "References": [
        {
          "URL": "https://www.suse.com/security/cve/CVE-2018-10995.html",
          "Description": "CVE-2018-10995"
        },
        {
          "URL": "https://bugzilla.suse.com/1095508",
          "Description": "SUSE Bug 1095508"
        }
      ],
      "ProductStatuses": [
        {
          "Type": "Fixed",
          "ProductID": [
            "openSUSE Tumbleweed:libnss_slurm2-21.08.1-1.1",
            "openSUSE Tumbleweed:libpmi0-21.08.1-1.1",
            "openSUSE Tumbleweed:libslurm37-21.08.1-1.1",
            "openSUSE Tumbleweed:perl-slurm-21.08.1-1.1",
            "openSUSE Tumbleweed:slurm-21.08.1-1.1",
            "openSUSE Tumbleweed:slurm-auth-none-21.08.1-1.1",
            "openSUSE Tumbleweed:slurm-config-21.08.1-1.1",
            "openSUSE Tumbleweed:slurm-config-man-21.08.1-1.1",
            "openSUSE Tumbleweed:slurm-cray-21.08.1-1.1",
            "openSUSE Tumbleweed:slurm-devel-21.08.1-1.1",
            "openSUSE Tumbleweed:slurm-doc-21.08.1-1.1",
            "openSUSE Tumbleweed:slurm-hdf5-21.08.1-1.1",
            "openSUSE Tumbleweed:slurm-lua-21.08.1-1.1",
            "openSUSE Tumbleweed:slurm-munge-21.08.1-1.1",
            "openSUSE Tumbleweed:slurm-node-21.08.1-1.1",
            "openSUSE Tumbleweed:slurm-openlava-21.08.1-1.1",
            "openSUSE Tumbleweed:slurm-pam_slurm-21.08.1-1.1",
            "openSUSE Tumbleweed:slurm-plugins-21.08.1-1.1",
            "openSUSE Tumbleweed:slurm-rest-21.08.1-1.1",
            "openSUSE Tumbleweed:slurm-seff-21.08.1-1.1",
            "openSUSE Tumbleweed:slurm-sjstat-21.08.1-1.1",
            "openSUSE Tumbleweed:slurm-slurmdbd-21.08.1-1.1",
            "openSUSE Tumbleweed:slurm-sql-21.08.1-1.1",
            "openSUSE Tumbleweed:slurm-sview-21.08.1-1.1",
            "openSUSE Tumbleweed:slurm-torque-21.08.1-1.1",
            "openSUSE Tumbleweed:slurm-webdoc-21.08.1-1.1"
          ]
        }
      ],
      "CVSSScoreSets": {}
    },
    {
      "CVE": "CVE-2018-7033",
      "Description": "SchedMD Slurm before 17.02.10 and 17.11.x before 17.11.5 allows SQL Injection attacks against SlurmDBD.",
      "Threats": [
        {
          "Type": "Impact",
          "Severity": "moderate"
        }
      ],
      "References": [
        {
          "URL": "https://www.suse.com/security/cve/CVE-2018-7033.html",
          "Description": "CVE-2018-7033"
        },
        {
          "URL": "https://bugzilla.suse.com/1085240",
          "Description": "SUSE Bug 1085240"
        }
      ],
      "ProductStatuses": [
        {
          "Type": "Fixed",
          "ProductID": [
            "openSUSE Tumbleweed:libnss_slurm2-21.08.1-1.1",
            "openSUSE Tumbleweed:libpmi0-21.08.1-1.1",
            "openSUSE Tumbleweed:libslurm37-21.08.1-1.1",
            "openSUSE Tumbleweed:perl-slurm-21.08.1-1.1",
            "openSUSE Tumbleweed:slurm-21.08.1-1.1",
            "openSUSE Tumbleweed:slurm-auth-none-21.08.1-1.1",
            "openSUSE Tumbleweed:slurm-config-21.08.1-1.1",
            "openSUSE Tumbleweed:slurm-config-man-21.08.1-1.1",
            "openSUSE Tumbleweed:slurm-cray-21.08.1-1.1",
            "openSUSE Tumbleweed:slurm-devel-21.08.1-1.1",
            "openSUSE Tumbleweed:slurm-doc-21.08.1-1.1",
            "openSUSE Tumbleweed:slurm-hdf5-21.08.1-1.1",
            "openSUSE Tumbleweed:slurm-lua-21.08.1-1.1",
            "openSUSE Tumbleweed:slurm-munge-21.08.1-1.1",
            "openSUSE Tumbleweed:slurm-node-21.08.1-1.1",
            "openSUSE Tumbleweed:slurm-openlava-21.08.1-1.1",
            "openSUSE Tumbleweed:slurm-pam_slurm-21.08.1-1.1",
            "openSUSE Tumbleweed:slurm-plugins-21.08.1-1.1",
            "openSUSE Tumbleweed:slurm-rest-21.08.1-1.1",
            "openSUSE Tumbleweed:slurm-seff-21.08.1-1.1",
            "openSUSE Tumbleweed:slurm-sjstat-21.08.1-1.1",
            "openSUSE Tumbleweed:slurm-slurmdbd-21.08.1-1.1",
            "openSUSE Tumbleweed:slurm-sql-21.08.1-1.1",
            "openSUSE Tumbleweed:slurm-sview-21.08.1-1.1",
            "openSUSE Tumbleweed:slurm-torque-21.08.1-1.1",
            "openSUSE Tumbleweed:slurm-webdoc-21.08.1-1.1"
          ]
        }
      ],
      "CVSSScoreSets": {}
    },
    {
      "CVE": "CVE-2019-12838",
      "Description": "SchedMD Slurm 17.11.x, 18.08.0 through 18.08.7, and 19.05.0 allows SQL Injection.",
      "Threats": [
        {
          "Type": "Impact",
          "Severity": "moderate"
        }
      ],
      "References": [
        {
          "URL": "https://www.suse.com/security/cve/CVE-2019-12838.html",
          "Description": "CVE-2019-12838"
        },
        {
          "URL": "https://bugzilla.suse.com/1140709",
          "Description": "SUSE Bug 1140709"
        }
      ],
      "ProductStatuses": [
        {
          "Type": "Fixed",
          "ProductID": [
            "openSUSE Tumbleweed:libnss_slurm2-21.08.1-1.1",
            "openSUSE Tumbleweed:libpmi0-21.08.1-1.1",
            "openSUSE Tumbleweed:libslurm37-21.08.1-1.1",
            "openSUSE Tumbleweed:perl-slurm-21.08.1-1.1",
            "openSUSE Tumbleweed:slurm-21.08.1-1.1",
            "openSUSE Tumbleweed:slurm-auth-none-21.08.1-1.1",
            "openSUSE Tumbleweed:slurm-config-21.08.1-1.1",
            "openSUSE Tumbleweed:slurm-config-man-21.08.1-1.1",
            "openSUSE Tumbleweed:slurm-cray-21.08.1-1.1",
            "openSUSE Tumbleweed:slurm-devel-21.08.1-1.1",
            "openSUSE Tumbleweed:slurm-doc-21.08.1-1.1",
            "openSUSE Tumbleweed:slurm-hdf5-21.08.1-1.1",
            "openSUSE Tumbleweed:slurm-lua-21.08.1-1.1",
            "openSUSE Tumbleweed:slurm-munge-21.08.1-1.1",
            "openSUSE Tumbleweed:slurm-node-21.08.1-1.1",
            "openSUSE Tumbleweed:slurm-openlava-21.08.1-1.1",
            "openSUSE Tumbleweed:slurm-pam_slurm-21.08.1-1.1",
            "openSUSE Tumbleweed:slurm-plugins-21.08.1-1.1",
            "openSUSE Tumbleweed:slurm-rest-21.08.1-1.1",
            "openSUSE Tumbleweed:slurm-seff-21.08.1-1.1",
            "openSUSE Tumbleweed:slurm-sjstat-21.08.1-1.1",
            "openSUSE Tumbleweed:slurm-slurmdbd-21.08.1-1.1",
            "openSUSE Tumbleweed:slurm-sql-21.08.1-1.1",
            "openSUSE Tumbleweed:slurm-sview-21.08.1-1.1",
            "openSUSE Tumbleweed:slurm-torque-21.08.1-1.1",
            "openSUSE Tumbleweed:slurm-webdoc-21.08.1-1.1"
          ]
        }
      ],
      "CVSSScoreSets": {}
    },
    {
      "CVE": "CVE-2019-19727",
      "Description": "SchedMD Slurm before 18.08.9 and 19.x before 19.05.5 has weak slurmdbd.conf permissions.",
      "Threats": [
        {
          "Type": "Impact",
          "Severity": "low"
        }
      ],
      "References": [
        {
          "URL": "https://www.suse.com/security/cve/CVE-2019-19727.html",
          "Description": "CVE-2019-19727"
        },
        {
          "URL": "https://bugzilla.suse.com/1155784",
          "Description": "SUSE Bug 1155784"
        }
      ],
      "ProductStatuses": [
        {
          "Type": "Fixed",
          "ProductID": [
            "openSUSE Tumbleweed:libnss_slurm2-21.08.1-1.1",
            "openSUSE Tumbleweed:libpmi0-21.08.1-1.1",
            "openSUSE Tumbleweed:libslurm37-21.08.1-1.1",
            "openSUSE Tumbleweed:perl-slurm-21.08.1-1.1",
            "openSUSE Tumbleweed:slurm-21.08.1-1.1",
            "openSUSE Tumbleweed:slurm-auth-none-21.08.1-1.1",
            "openSUSE Tumbleweed:slurm-config-21.08.1-1.1",
            "openSUSE Tumbleweed:slurm-config-man-21.08.1-1.1",
            "openSUSE Tumbleweed:slurm-cray-21.08.1-1.1",
            "openSUSE Tumbleweed:slurm-devel-21.08.1-1.1",
            "openSUSE Tumbleweed:slurm-doc-21.08.1-1.1",
            "openSUSE Tumbleweed:slurm-hdf5-21.08.1-1.1",
            "openSUSE Tumbleweed:slurm-lua-21.08.1-1.1",
            "openSUSE Tumbleweed:slurm-munge-21.08.1-1.1",
            "openSUSE Tumbleweed:slurm-node-21.08.1-1.1",
            "openSUSE Tumbleweed:slurm-openlava-21.08.1-1.1",
            "openSUSE Tumbleweed:slurm-pam_slurm-21.08.1-1.1",
            "openSUSE Tumbleweed:slurm-plugins-21.08.1-1.1",
            "openSUSE Tumbleweed:slurm-rest-21.08.1-1.1",
            "openSUSE Tumbleweed:slurm-seff-21.08.1-1.1",
            "openSUSE Tumbleweed:slurm-sjstat-21.08.1-1.1",
            "openSUSE Tumbleweed:slurm-slurmdbd-21.08.1-1.1",
            "openSUSE Tumbleweed:slurm-sql-21.08.1-1.1",
            "openSUSE Tumbleweed:slurm-sview-21.08.1-1.1",
            "openSUSE Tumbleweed:slurm-torque-21.08.1-1.1",
            "openSUSE Tumbleweed:slurm-webdoc-21.08.1-1.1"
          ]
        }
      ],
      "CVSSScoreSets": {}
    },
    {
      "CVE": "CVE-2019-19728",
      "Description": "SchedMD Slurm before 18.08.9 and 19.x before 19.05.5 executes srun --uid with incorrect privileges.",
      "Threats": [
        {
          "Type": "Impact",
          "Severity": "moderate"
        }
      ],
      "References": [
        {
          "URL": "https://www.suse.com/security/cve/CVE-2019-19728.html",
          "Description": "CVE-2019-19728"
        },
        {
          "URL": "https://bugzilla.suse.com/1155784",
          "Description": "SUSE Bug 1155784"
        },
        {
          "URL": "https://bugzilla.suse.com/1159692",
          "Description": "SUSE Bug 1159692"
        }
      ],
      "ProductStatuses": [
        {
          "Type": "Fixed",
          "ProductID": [
            "openSUSE Tumbleweed:libnss_slurm2-21.08.1-1.1",
            "openSUSE Tumbleweed:libpmi0-21.08.1-1.1",
            "openSUSE Tumbleweed:libslurm37-21.08.1-1.1",
            "openSUSE Tumbleweed:perl-slurm-21.08.1-1.1",
            "openSUSE Tumbleweed:slurm-21.08.1-1.1",
            "openSUSE Tumbleweed:slurm-auth-none-21.08.1-1.1",
            "openSUSE Tumbleweed:slurm-config-21.08.1-1.1",
            "openSUSE Tumbleweed:slurm-config-man-21.08.1-1.1",
            "openSUSE Tumbleweed:slurm-cray-21.08.1-1.1",
            "openSUSE Tumbleweed:slurm-devel-21.08.1-1.1",
            "openSUSE Tumbleweed:slurm-doc-21.08.1-1.1",
            "openSUSE Tumbleweed:slurm-hdf5-21.08.1-1.1",
            "openSUSE Tumbleweed:slurm-lua-21.08.1-1.1",
            "openSUSE Tumbleweed:slurm-munge-21.08.1-1.1",
            "openSUSE Tumbleweed:slurm-node-21.08.1-1.1",
            "openSUSE Tumbleweed:slurm-openlava-21.08.1-1.1",
            "openSUSE Tumbleweed:slurm-pam_slurm-21.08.1-1.1",
            "openSUSE Tumbleweed:slurm-plugins-21.08.1-1.1",
            "openSUSE Tumbleweed:slurm-rest-21.08.1-1.1",
            "openSUSE Tumbleweed:slurm-seff-21.08.1-1.1",
            "openSUSE Tumbleweed:slurm-sjstat-21.08.1-1.1",
            "openSUSE Tumbleweed:slurm-slurmdbd-21.08.1-1.1",
            "openSUSE Tumbleweed:slurm-sql-21.08.1-1.1",
            "openSUSE Tumbleweed:slurm-sview-21.08.1-1.1",
            "openSUSE Tumbleweed:slurm-torque-21.08.1-1.1",
            "openSUSE Tumbleweed:slurm-webdoc-21.08.1-1.1"
          ]
        }
      ],
      "CVSSScoreSets": {}
    },
    {
      "CVE": "CVE-2019-6438",
      "Description": "SchedMD Slurm before 17.11.13 and 18.x before 18.08.5 mishandles 32-bit systems.",
      "Threats": [
        {
          "Type": "Impact",
          "Severity": "critical"
        }
      ],
      "References": [
        {
          "URL": "https://www.suse.com/security/cve/CVE-2019-6438.html",
          "Description": "CVE-2019-6438"
        },
        {
          "URL": "https://bugzilla.suse.com/1123304",
          "Description": "SUSE Bug 1123304"
        }
      ],
      "ProductStatuses": [
        {
          "Type": "Fixed",
          "ProductID": [
            "openSUSE Tumbleweed:libnss_slurm2-21.08.1-1.1",
            "openSUSE Tumbleweed:libpmi0-21.08.1-1.1",
            "openSUSE Tumbleweed:libslurm37-21.08.1-1.1",
            "openSUSE Tumbleweed:perl-slurm-21.08.1-1.1",
            "openSUSE Tumbleweed:slurm-21.08.1-1.1",
            "openSUSE Tumbleweed:slurm-auth-none-21.08.1-1.1",
            "openSUSE Tumbleweed:slurm-config-21.08.1-1.1",
            "openSUSE Tumbleweed:slurm-config-man-21.08.1-1.1",
            "openSUSE Tumbleweed:slurm-cray-21.08.1-1.1",
            "openSUSE Tumbleweed:slurm-devel-21.08.1-1.1",
            "openSUSE Tumbleweed:slurm-doc-21.08.1-1.1",
            "openSUSE Tumbleweed:slurm-hdf5-21.08.1-1.1",
            "openSUSE Tumbleweed:slurm-lua-21.08.1-1.1",
            "openSUSE Tumbleweed:slurm-munge-21.08.1-1.1",
            "openSUSE Tumbleweed:slurm-node-21.08.1-1.1",
            "openSUSE Tumbleweed:slurm-openlava-21.08.1-1.1",
            "openSUSE Tumbleweed:slurm-pam_slurm-21.08.1-1.1",
            "openSUSE Tumbleweed:slurm-plugins-21.08.1-1.1",
            "openSUSE Tumbleweed:slurm-rest-21.08.1-1.1",
            "openSUSE Tumbleweed:slurm-seff-21.08.1-1.1",
            "openSUSE Tumbleweed:slurm-sjstat-21.08.1-1.1",
            "openSUSE Tumbleweed:slurm-slurmdbd-21.08.1-1.1",
            "openSUSE Tumbleweed:slurm-sql-21.08.1-1.1",
            "openSUSE Tumbleweed:slurm-sview-21.08.1-1.1",
            "openSUSE Tumbleweed:slurm-torque-21.08.1-1.1",
            "openSUSE Tumbleweed:slurm-webdoc-21.08.1-1.1"
          ]
        }
      ],
      "CVSSScoreSets": {}
    },
    {
      "CVE": "CVE-2020-12693",
      "Description": "Slurm 19.05.x before 19.05.7 and 20.02.x before 20.02.3, in the rare case where Message Aggregation is enabled, allows Authentication Bypass via an Alternate Path or Channel. A race condition allows a user to launch a process as an arbitrary user.",
      "Threats": [
        {
          "Type": "Impact",
          "Severity": "moderate"
        }
      ],
      "References": [
        {
          "URL": "https://www.suse.com/security/cve/CVE-2020-12693.html",
          "Description": "CVE-2020-12693"
        },
        {
          "URL": "https://bugzilla.suse.com/1172004",
          "Description": "SUSE Bug 1172004"
        },
        {
          "URL": "https://bugzilla.suse.com/1173804",
          "Description": "SUSE Bug 1173804"
        }
      ],
      "ProductStatuses": [
        {
          "Type": "Fixed",
          "ProductID": [
            "openSUSE Tumbleweed:libnss_slurm2-21.08.1-1.1",
            "openSUSE Tumbleweed:libpmi0-21.08.1-1.1",
            "openSUSE Tumbleweed:libslurm37-21.08.1-1.1",
            "openSUSE Tumbleweed:perl-slurm-21.08.1-1.1",
            "openSUSE Tumbleweed:slurm-21.08.1-1.1",
            "openSUSE Tumbleweed:slurm-auth-none-21.08.1-1.1",
            "openSUSE Tumbleweed:slurm-config-21.08.1-1.1",
            "openSUSE Tumbleweed:slurm-config-man-21.08.1-1.1",
            "openSUSE Tumbleweed:slurm-cray-21.08.1-1.1",
            "openSUSE Tumbleweed:slurm-devel-21.08.1-1.1",
            "openSUSE Tumbleweed:slurm-doc-21.08.1-1.1",
            "openSUSE Tumbleweed:slurm-hdf5-21.08.1-1.1",
            "openSUSE Tumbleweed:slurm-lua-21.08.1-1.1",
            "openSUSE Tumbleweed:slurm-munge-21.08.1-1.1",
            "openSUSE Tumbleweed:slurm-node-21.08.1-1.1",
            "openSUSE Tumbleweed:slurm-openlava-21.08.1-1.1",
            "openSUSE Tumbleweed:slurm-pam_slurm-21.08.1-1.1",
            "openSUSE Tumbleweed:slurm-plugins-21.08.1-1.1",
            "openSUSE Tumbleweed:slurm-rest-21.08.1-1.1",
            "openSUSE Tumbleweed:slurm-seff-21.08.1-1.1",
            "openSUSE Tumbleweed:slurm-sjstat-21.08.1-1.1",
            "openSUSE Tumbleweed:slurm-slurmdbd-21.08.1-1.1",
            "openSUSE Tumbleweed:slurm-sql-21.08.1-1.1",
            "openSUSE Tumbleweed:slurm-sview-21.08.1-1.1",
            "openSUSE Tumbleweed:slurm-torque-21.08.1-1.1",
            "openSUSE Tumbleweed:slurm-webdoc-21.08.1-1.1"
          ]
        }
      ],
      "CVSSScoreSets": {}
    },
    {
      "CVE": "CVE-2020-27745",
      "Description": "Slurm before 19.05.8 and 20.x before 20.02.6 has an RPC Buffer Overflow in the PMIx MPI plugin.",
      "Threats": [
        {
          "Type": "Impact",
          "Severity": "important"
        }
      ],
      "References": [
        {
          "URL": "https://www.suse.com/security/cve/CVE-2020-27745.html",
          "Description": "CVE-2020-27745"
        },
        {
          "URL": "https://bugzilla.suse.com/1178890",
          "Description": "SUSE Bug 1178890"
        }
      ],
      "ProductStatuses": [
        {
          "Type": "Fixed",
          "ProductID": [
            "openSUSE Tumbleweed:libnss_slurm2-21.08.1-1.1",
            "openSUSE Tumbleweed:libpmi0-21.08.1-1.1",
            "openSUSE Tumbleweed:libslurm37-21.08.1-1.1",
            "openSUSE Tumbleweed:perl-slurm-21.08.1-1.1",
            "openSUSE Tumbleweed:slurm-21.08.1-1.1",
            "openSUSE Tumbleweed:slurm-auth-none-21.08.1-1.1",
            "openSUSE Tumbleweed:slurm-config-21.08.1-1.1",
            "openSUSE Tumbleweed:slurm-config-man-21.08.1-1.1",
            "openSUSE Tumbleweed:slurm-cray-21.08.1-1.1",
            "openSUSE Tumbleweed:slurm-devel-21.08.1-1.1",
            "openSUSE Tumbleweed:slurm-doc-21.08.1-1.1",
            "openSUSE Tumbleweed:slurm-hdf5-21.08.1-1.1",
            "openSUSE Tumbleweed:slurm-lua-21.08.1-1.1",
            "openSUSE Tumbleweed:slurm-munge-21.08.1-1.1",
            "openSUSE Tumbleweed:slurm-node-21.08.1-1.1",
            "openSUSE Tumbleweed:slurm-openlava-21.08.1-1.1",
            "openSUSE Tumbleweed:slurm-pam_slurm-21.08.1-1.1",
            "openSUSE Tumbleweed:slurm-plugins-21.08.1-1.1",
            "openSUSE Tumbleweed:slurm-rest-21.08.1-1.1",
            "openSUSE Tumbleweed:slurm-seff-21.08.1-1.1",
            "openSUSE Tumbleweed:slurm-sjstat-21.08.1-1.1",
            "openSUSE Tumbleweed:slurm-slurmdbd-21.08.1-1.1",
            "openSUSE Tumbleweed:slurm-sql-21.08.1-1.1",
            "openSUSE Tumbleweed:slurm-sview-21.08.1-1.1",
            "openSUSE Tumbleweed:slurm-torque-21.08.1-1.1",
            "openSUSE Tumbleweed:slurm-webdoc-21.08.1-1.1"
          ]
        }
      ],
      "CVSSScoreSets": {}
    },
    {
      "CVE": "CVE-2020-27746",
      "Description": "Slurm before 19.05.8 and 20.x before 20.02.6 exposes Sensitive Information to an Unauthorized Actor because xauth for X11 magic cookies is affected by a race condition in a read operation on the /proc filesystem.",
      "Threats": [
        {
          "Type": "Impact",
          "Severity": "low"
        }
      ],
      "References": [
        {
          "URL": "https://www.suse.com/security/cve/CVE-2020-27746.html",
          "Description": "CVE-2020-27746"
        },
        {
          "URL": "https://bugzilla.suse.com/1178891",
          "Description": "SUSE Bug 1178891"
        }
      ],
      "ProductStatuses": [
        {
          "Type": "Fixed",
          "ProductID": [
            "openSUSE Tumbleweed:libnss_slurm2-21.08.1-1.1",
            "openSUSE Tumbleweed:libpmi0-21.08.1-1.1",
            "openSUSE Tumbleweed:libslurm37-21.08.1-1.1",
            "openSUSE Tumbleweed:perl-slurm-21.08.1-1.1",
            "openSUSE Tumbleweed:slurm-21.08.1-1.1",
            "openSUSE Tumbleweed:slurm-auth-none-21.08.1-1.1",
            "openSUSE Tumbleweed:slurm-config-21.08.1-1.1",
            "openSUSE Tumbleweed:slurm-config-man-21.08.1-1.1",
            "openSUSE Tumbleweed:slurm-cray-21.08.1-1.1",
            "openSUSE Tumbleweed:slurm-devel-21.08.1-1.1",
            "openSUSE Tumbleweed:slurm-doc-21.08.1-1.1",
            "openSUSE Tumbleweed:slurm-hdf5-21.08.1-1.1",
            "openSUSE Tumbleweed:slurm-lua-21.08.1-1.1",
            "openSUSE Tumbleweed:slurm-munge-21.08.1-1.1",
            "openSUSE Tumbleweed:slurm-node-21.08.1-1.1",
            "openSUSE Tumbleweed:slurm-openlava-21.08.1-1.1",
            "openSUSE Tumbleweed:slurm-pam_slurm-21.08.1-1.1",
            "openSUSE Tumbleweed:slurm-plugins-21.08.1-1.1",
            "openSUSE Tumbleweed:slurm-rest-21.08.1-1.1",
            "openSUSE Tumbleweed:slurm-seff-21.08.1-1.1",
            "openSUSE Tumbleweed:slurm-sjstat-21.08.1-1.1",
            "openSUSE Tumbleweed:slurm-slurmdbd-21.08.1-1.1",
            "openSUSE Tumbleweed:slurm-sql-21.08.1-1.1",
            "openSUSE Tumbleweed:slurm-sview-21.08.1-1.1",
            "openSUSE Tumbleweed:slurm-torque-21.08.1-1.1",
            "openSUSE Tumbleweed:slurm-webdoc-21.08.1-1.1"
          ]
        }
      ],
      "CVSSScoreSets": {}
    },
    {
      "CVE": "CVE-2021-31215",
      "Description": "SchedMD Slurm before 20.02.7 and 20.03.x through 20.11.x before 20.11.7 allows remote code execution as SlurmUser because use of a PrologSlurmctld or EpilogSlurmctld script leads to environment mishandling.",
      "Threats": [
        {
          "Type": "Impact",
          "Severity": "important"
        }
      ],
      "References": [
        {
          "URL": "https://www.suse.com/security/cve/CVE-2021-31215.html",
          "Description": "CVE-2021-31215"
        },
        {
          "URL": "https://bugzilla.suse.com/1186024",
          "Description": "SUSE Bug 1186024"
        }
      ],
      "ProductStatuses": [
        {
          "Type": "Fixed",
          "ProductID": [
            "openSUSE Tumbleweed:libnss_slurm2-21.08.1-1.1",
            "openSUSE Tumbleweed:libpmi0-21.08.1-1.1",
            "openSUSE Tumbleweed:libslurm37-21.08.1-1.1",
            "openSUSE Tumbleweed:perl-slurm-21.08.1-1.1",
            "openSUSE Tumbleweed:slurm-21.08.1-1.1",
            "openSUSE Tumbleweed:slurm-auth-none-21.08.1-1.1",
            "openSUSE Tumbleweed:slurm-config-21.08.1-1.1",
            "openSUSE Tumbleweed:slurm-config-man-21.08.1-1.1",
            "openSUSE Tumbleweed:slurm-cray-21.08.1-1.1",
            "openSUSE Tumbleweed:slurm-devel-21.08.1-1.1",
            "openSUSE Tumbleweed:slurm-doc-21.08.1-1.1",
            "openSUSE Tumbleweed:slurm-hdf5-21.08.1-1.1",
            "openSUSE Tumbleweed:slurm-lua-21.08.1-1.1",
            "openSUSE Tumbleweed:slurm-munge-21.08.1-1.1",
            "openSUSE Tumbleweed:slurm-node-21.08.1-1.1",
            "openSUSE Tumbleweed:slurm-openlava-21.08.1-1.1",
            "openSUSE Tumbleweed:slurm-pam_slurm-21.08.1-1.1",
            "openSUSE Tumbleweed:slurm-plugins-21.08.1-1.1",
            "openSUSE Tumbleweed:slurm-rest-21.08.1-1.1",
            "openSUSE Tumbleweed:slurm-seff-21.08.1-1.1",
            "openSUSE Tumbleweed:slurm-sjstat-21.08.1-1.1",
            "openSUSE Tumbleweed:slurm-slurmdbd-21.08.1-1.1",
            "openSUSE Tumbleweed:slurm-sql-21.08.1-1.1",
            "openSUSE Tumbleweed:slurm-sview-21.08.1-1.1",
            "openSUSE Tumbleweed:slurm-torque-21.08.1-1.1",
            "openSUSE Tumbleweed:slurm-webdoc-21.08.1-1.1"
          ]
        }
      ],
      "CVSSScoreSets": {}
    }
  ]
}