{
  "Title": "gimp-2.8.18-1.4 on GA media",
  "Tracking": {
    "ID": "openSUSE-SU-2024:10294-1",
    "Status": "Final",
    "Version": "1",
    "InitialReleaseDate": "2024-06-22T21:44:56Z",
    "CurrentReleaseDate": "2024-06-22T21:44:56Z",
    "RevisionHistory": [
      {
        "Number": "1",
        "Date": "2024-06-22T21:44:56Z",
        "Description": "current"
      }
    ]
  },
  "Notes": [
    {
      "Text": "gimp-2.8.18-1.4 on GA media",
      "Title": "Topic",
      "Type": "Summary"
    },
    {
      "Text": "These are all security issues fixed in the gimp-2.8.18-1.4 package on the GA media of openSUSE Tumbleweed.",
      "Title": "Details",
      "Type": "General"
    },
    {
      "Text": "The CVRF data is provided by SUSE under the Creative Commons License 4.0 with Attribution (CC-BY-4.0).",
      "Title": "Terms of Use",
      "Type": "Legal Disclaimer"
    },
    {
      "Text": "openSUSE-Tumbleweed-2024-10294",
      "Title": "Patchnames",
      "Type": "Details"
    }
  ],
  "ProductTree": {
    "Relationships": [
      {
        "ProductReference": "gimp-2.8.18-1.4",
        "RelatesToProductReference": "openSUSE Tumbleweed",
        "RelationType": "Default Component Of"
      },
      {
        "ProductReference": "gimp-devel-2.8.18-1.4",
        "RelatesToProductReference": "openSUSE Tumbleweed",
        "RelationType": "Default Component Of"
      },
      {
        "ProductReference": "gimp-help-browser-2.8.18-1.4",
        "RelatesToProductReference": "openSUSE Tumbleweed",
        "RelationType": "Default Component Of"
      },
      {
        "ProductReference": "gimp-lang-2.8.18-1.4",
        "RelatesToProductReference": "openSUSE Tumbleweed",
        "RelationType": "Default Component Of"
      },
      {
        "ProductReference": "gimp-plugin-aa-2.8.18-1.4",
        "RelatesToProductReference": "openSUSE Tumbleweed",
        "RelationType": "Default Component Of"
      },
      {
        "ProductReference": "gimp-plugins-python-2.8.18-1.4",
        "RelatesToProductReference": "openSUSE Tumbleweed",
        "RelationType": "Default Component Of"
      },
      {
        "ProductReference": "libgimp-2_0-0-2.8.18-1.4",
        "RelatesToProductReference": "openSUSE Tumbleweed",
        "RelationType": "Default Component Of"
      },
      {
        "ProductReference": "libgimp-2_0-0-32bit-2.8.18-1.4",
        "RelatesToProductReference": "openSUSE Tumbleweed",
        "RelationType": "Default Component Of"
      },
      {
        "ProductReference": "libgimpui-2_0-0-2.8.18-1.4",
        "RelatesToProductReference": "openSUSE Tumbleweed",
        "RelationType": "Default Component Of"
      },
      {
        "ProductReference": "libgimpui-2_0-0-32bit-2.8.18-1.4",
        "RelatesToProductReference": "openSUSE Tumbleweed",
        "RelationType": "Default Component Of"
      }
    ]
  },
  "References": [
    {
      "URL": "https://www.suse.com/support/security/rating/",
      "Description": "SUSE Security Ratings"
    },
    {
      "URL": "https://www.suse.com/security/cve/CVE-2010-4540/",
      "Description": "SUSE CVE CVE-2010-4540 page"
    },
    {
      "URL": "https://www.suse.com/security/cve/CVE-2010-4541/",
      "Description": "SUSE CVE CVE-2010-4541 page"
    },
    {
      "URL": "https://www.suse.com/security/cve/CVE-2010-4542/",
      "Description": "SUSE CVE CVE-2010-4542 page"
    },
    {
      "URL": "https://www.suse.com/security/cve/CVE-2010-4543/",
      "Description": "SUSE CVE CVE-2010-4543 page"
    },
    {
      "URL": "https://www.suse.com/security/cve/CVE-2011-2896/",
      "Description": "SUSE CVE CVE-2011-2896 page"
    },
    {
      "URL": "https://www.suse.com/security/cve/CVE-2012-3236/",
      "Description": "SUSE CVE CVE-2012-3236 page"
    },
    {
      "URL": "https://www.suse.com/security/cve/CVE-2012-5576/",
      "Description": "SUSE CVE CVE-2012-5576 page"
    },
    {
      "URL": "https://www.suse.com/security/cve/CVE-2016-4994/",
      "Description": "SUSE CVE CVE-2016-4994 page"
    }
  ],
  "Vulnerabilities": [
    {
      "CVE": "CVE-2010-4540",
      "Description": "Stack-based buffer overflow in the load_preset_response function in plug-ins/lighting/lighting-ui.c in the \"LIGHTING EFFECTS \u003e LIGHT\" plugin in GIMP 2.6.11 allows user-assisted remote attackers to cause a denial of service (application crash) or possibly execute arbitrary code via a long Position field in a plugin configuration file. NOTE: it may be uncommon to obtain a GIMP plugin configuration file from an untrusted source that is separate from the distribution of the plugin itself. NOTE: some of these details are obtained from third party information.",
      "Threats": [
        {
          "Type": "Impact",
          "Severity": "moderate"
        }
      ],
      "References": [
        {
          "URL": "https://www.suse.com/security/cve/CVE-2010-4540.html",
          "Description": "CVE-2010-4540"
        },
        {
          "URL": "https://bugzilla.suse.com/662043",
          "Description": "SUSE Bug 662043"
        }
      ],
      "ProductStatuses": [
        {
          "Type": "Fixed",
          "ProductID": [
            "openSUSE Tumbleweed:gimp-2.8.18-1.4",
            "openSUSE Tumbleweed:gimp-devel-2.8.18-1.4",
            "openSUSE Tumbleweed:gimp-help-browser-2.8.18-1.4",
            "openSUSE Tumbleweed:gimp-lang-2.8.18-1.4",
            "openSUSE Tumbleweed:gimp-plugin-aa-2.8.18-1.4",
            "openSUSE Tumbleweed:gimp-plugins-python-2.8.18-1.4",
            "openSUSE Tumbleweed:libgimp-2_0-0-2.8.18-1.4",
            "openSUSE Tumbleweed:libgimp-2_0-0-32bit-2.8.18-1.4",
            "openSUSE Tumbleweed:libgimpui-2_0-0-2.8.18-1.4",
            "openSUSE Tumbleweed:libgimpui-2_0-0-32bit-2.8.18-1.4"
          ]
        }
      ],
      "CVSSScoreSets": {}
    },
    {
      "CVE": "CVE-2010-4541",
      "Description": "Stack-based buffer overflow in the loadit function in plug-ins/common/sphere-designer.c in the SPHERE DESIGNER plugin in GIMP 2.6.11 allows user-assisted remote attackers to cause a denial of service (application crash) or possibly execute arbitrary code via a long \"Number of lights\" field in a plugin configuration file. NOTE: it may be uncommon to obtain a GIMP plugin configuration file from an untrusted source that is separate from the distribution of the plugin itself.",
      "Threats": [
        {
          "Type": "Impact",
          "Severity": "moderate"
        }
      ],
      "References": [
        {
          "URL": "https://www.suse.com/security/cve/CVE-2010-4541.html",
          "Description": "CVE-2010-4541"
        },
        {
          "URL": "https://bugzilla.suse.com/662043",
          "Description": "SUSE Bug 662043"
        }
      ],
      "ProductStatuses": [
        {
          "Type": "Fixed",
          "ProductID": [
            "openSUSE Tumbleweed:gimp-2.8.18-1.4",
            "openSUSE Tumbleweed:gimp-devel-2.8.18-1.4",
            "openSUSE Tumbleweed:gimp-help-browser-2.8.18-1.4",
            "openSUSE Tumbleweed:gimp-lang-2.8.18-1.4",
            "openSUSE Tumbleweed:gimp-plugin-aa-2.8.18-1.4",
            "openSUSE Tumbleweed:gimp-plugins-python-2.8.18-1.4",
            "openSUSE Tumbleweed:libgimp-2_0-0-2.8.18-1.4",
            "openSUSE Tumbleweed:libgimp-2_0-0-32bit-2.8.18-1.4",
            "openSUSE Tumbleweed:libgimpui-2_0-0-2.8.18-1.4",
            "openSUSE Tumbleweed:libgimpui-2_0-0-32bit-2.8.18-1.4"
          ]
        }
      ],
      "CVSSScoreSets": {}
    },
    {
      "CVE": "CVE-2010-4542",
      "Description": "Stack-based buffer overflow in the gfig_read_parameter_gimp_rgb function in plug-ins/gfig/gfig-style.c in the GFIG plugin in GIMP 2.6.11 allows user-assisted remote attackers to cause a denial of service (application crash) or possibly execute arbitrary code via a long Foreground field in a plugin configuration file. NOTE: it may be uncommon to obtain a GIMP plugin configuration file from an untrusted source that is separate from the distribution of the plugin itself. NOTE: some of these details are obtained from third party information.",
      "Threats": [
        {
          "Type": "Impact",
          "Severity": "moderate"
        }
      ],
      "References": [
        {
          "URL": "https://www.suse.com/security/cve/CVE-2010-4542.html",
          "Description": "CVE-2010-4542"
        },
        {
          "URL": "https://bugzilla.suse.com/662043",
          "Description": "SUSE Bug 662043"
        }
      ],
      "ProductStatuses": [
        {
          "Type": "Fixed",
          "ProductID": [
            "openSUSE Tumbleweed:gimp-2.8.18-1.4",
            "openSUSE Tumbleweed:gimp-devel-2.8.18-1.4",
            "openSUSE Tumbleweed:gimp-help-browser-2.8.18-1.4",
            "openSUSE Tumbleweed:gimp-lang-2.8.18-1.4",
            "openSUSE Tumbleweed:gimp-plugin-aa-2.8.18-1.4",
            "openSUSE Tumbleweed:gimp-plugins-python-2.8.18-1.4",
            "openSUSE Tumbleweed:libgimp-2_0-0-2.8.18-1.4",
            "openSUSE Tumbleweed:libgimp-2_0-0-32bit-2.8.18-1.4",
            "openSUSE Tumbleweed:libgimpui-2_0-0-2.8.18-1.4",
            "openSUSE Tumbleweed:libgimpui-2_0-0-32bit-2.8.18-1.4"
          ]
        }
      ],
      "CVSSScoreSets": {}
    },
    {
      "CVE": "CVE-2010-4543",
      "Description": "Heap-based buffer overflow in the read_channel_data function in file-psp.c in the Paint Shop Pro (PSP) plugin in GIMP 2.6.11 allows remote attackers to cause a denial of service (application crash) or possibly execute arbitrary code via a PSP_COMP_RLE (aka RLE compression) image file that begins a long run count at the end of the image. NOTE: some of these details are obtained from third party information.",
      "Threats": [
        {
          "Type": "Impact",
          "Severity": "moderate"
        }
      ],
      "References": [
        {
          "URL": "https://www.suse.com/security/cve/CVE-2010-4543.html",
          "Description": "CVE-2010-4543"
        },
        {
          "URL": "https://bugzilla.suse.com/662043",
          "Description": "SUSE Bug 662043"
        },
        {
          "URL": "https://bugzilla.suse.com/692877",
          "Description": "SUSE Bug 692877"
        }
      ],
      "ProductStatuses": [
        {
          "Type": "Fixed",
          "ProductID": [
            "openSUSE Tumbleweed:gimp-2.8.18-1.4",
            "openSUSE Tumbleweed:gimp-devel-2.8.18-1.4",
            "openSUSE Tumbleweed:gimp-help-browser-2.8.18-1.4",
            "openSUSE Tumbleweed:gimp-lang-2.8.18-1.4",
            "openSUSE Tumbleweed:gimp-plugin-aa-2.8.18-1.4",
            "openSUSE Tumbleweed:gimp-plugins-python-2.8.18-1.4",
            "openSUSE Tumbleweed:libgimp-2_0-0-2.8.18-1.4",
            "openSUSE Tumbleweed:libgimp-2_0-0-32bit-2.8.18-1.4",
            "openSUSE Tumbleweed:libgimpui-2_0-0-2.8.18-1.4",
            "openSUSE Tumbleweed:libgimpui-2_0-0-32bit-2.8.18-1.4"
          ]
        }
      ],
      "CVSSScoreSets": {}
    },
    {
      "CVE": "CVE-2011-2896",
      "Description": "The LZW decompressor in the LWZReadByte function in giftoppm.c in the David Koblas GIF decoder in PBMPLUS, as used in the gif_read_lzw function in filter/image-gif.c in CUPS before 1.4.7, the LZWReadByte function in plug-ins/common/file-gif-load.c in GIMP 2.6.11 and earlier, the LZWReadByte function in img/gifread.c in XPCE in SWI-Prolog 5.10.4 and earlier, and other products, does not properly handle code words that are absent from the decompression table when encountered, which allows remote attackers to trigger an infinite loop or a heap-based buffer overflow, and possibly execute arbitrary code, via a crafted compressed stream, a related issue to CVE-2006-1168 and CVE-2011-2895.",
      "Threats": [
        {
          "Type": "Impact",
          "Severity": "moderate"
        }
      ],
      "References": [
        {
          "URL": "https://www.suse.com/security/cve/CVE-2011-2896.html",
          "Description": "CVE-2011-2896"
        },
        {
          "URL": "https://bugzilla.suse.com/601830",
          "Description": "SUSE Bug 601830"
        },
        {
          "URL": "https://bugzilla.suse.com/671735",
          "Description": "SUSE Bug 671735"
        },
        {
          "URL": "https://bugzilla.suse.com/680210",
          "Description": "SUSE Bug 680210"
        },
        {
          "URL": "https://bugzilla.suse.com/680212",
          "Description": "SUSE Bug 680212"
        },
        {
          "URL": "https://bugzilla.suse.com/700987",
          "Description": "SUSE Bug 700987"
        },
        {
          "URL": "https://bugzilla.suse.com/711490",
          "Description": "SUSE Bug 711490"
        },
        {
          "URL": "https://bugzilla.suse.com/711491",
          "Description": "SUSE Bug 711491"
        },
        {
          "URL": "https://bugzilla.suse.com/715643",
          "Description": "SUSE Bug 715643"
        }
      ],
      "ProductStatuses": [
        {
          "Type": "Fixed",
          "ProductID": [
            "openSUSE Tumbleweed:gimp-2.8.18-1.4",
            "openSUSE Tumbleweed:gimp-devel-2.8.18-1.4",
            "openSUSE Tumbleweed:gimp-help-browser-2.8.18-1.4",
            "openSUSE Tumbleweed:gimp-lang-2.8.18-1.4",
            "openSUSE Tumbleweed:gimp-plugin-aa-2.8.18-1.4",
            "openSUSE Tumbleweed:gimp-plugins-python-2.8.18-1.4",
            "openSUSE Tumbleweed:libgimp-2_0-0-2.8.18-1.4",
            "openSUSE Tumbleweed:libgimp-2_0-0-32bit-2.8.18-1.4",
            "openSUSE Tumbleweed:libgimpui-2_0-0-2.8.18-1.4",
            "openSUSE Tumbleweed:libgimpui-2_0-0-32bit-2.8.18-1.4"
          ]
        }
      ],
      "CVSSScoreSets": {}
    },
    {
      "CVE": "CVE-2012-3236",
      "Description": "fits-io.c in GIMP before 2.8.1 allows remote attackers to cause a denial of service (NULL pointer dereference and application crash) via a malformed XTENSION header of a .fit file, as demonstrated using a long string.",
      "Threats": [
        {
          "Type": "Impact",
          "Severity": "moderate"
        }
      ],
      "References": [
        {
          "URL": "https://www.suse.com/security/cve/CVE-2012-3236.html",
          "Description": "CVE-2012-3236"
        },
        {
          "URL": "https://bugzilla.suse.com/763595",
          "Description": "SUSE Bug 763595"
        },
        {
          "URL": "https://bugzilla.suse.com/768376",
          "Description": "SUSE Bug 768376"
        },
        {
          "URL": "https://bugzilla.suse.com/769565",
          "Description": "SUSE Bug 769565"
        }
      ],
      "ProductStatuses": [
        {
          "Type": "Fixed",
          "ProductID": [
            "openSUSE Tumbleweed:gimp-2.8.18-1.4",
            "openSUSE Tumbleweed:gimp-devel-2.8.18-1.4",
            "openSUSE Tumbleweed:gimp-help-browser-2.8.18-1.4",
            "openSUSE Tumbleweed:gimp-lang-2.8.18-1.4",
            "openSUSE Tumbleweed:gimp-plugin-aa-2.8.18-1.4",
            "openSUSE Tumbleweed:gimp-plugins-python-2.8.18-1.4",
            "openSUSE Tumbleweed:libgimp-2_0-0-2.8.18-1.4",
            "openSUSE Tumbleweed:libgimp-2_0-0-32bit-2.8.18-1.4",
            "openSUSE Tumbleweed:libgimpui-2_0-0-2.8.18-1.4",
            "openSUSE Tumbleweed:libgimpui-2_0-0-32bit-2.8.18-1.4"
          ]
        }
      ],
      "CVSSScoreSets": {}
    },
    {
      "CVE": "CVE-2012-5576",
      "Description": "Multiple stack-based buffer overflows in file-xwd.c in the X Window Dump (XWD) plug-in in GIMP 2.8.2 allow remote attackers to cause a denial of service (crash) and possibly execute arbitrary code via a large (1) red, (2) green, or (3) blue color mask in an XWD file.",
      "Threats": [
        {
          "Type": "Impact",
          "Severity": "moderate"
        }
      ],
      "References": [
        {
          "URL": "https://www.suse.com/security/cve/CVE-2012-5576.html",
          "Description": "CVE-2012-5576"
        },
        {
          "URL": "https://bugzilla.suse.com/791372",
          "Description": "SUSE Bug 791372"
        }
      ],
      "ProductStatuses": [
        {
          "Type": "Fixed",
          "ProductID": [
            "openSUSE Tumbleweed:gimp-2.8.18-1.4",
            "openSUSE Tumbleweed:gimp-devel-2.8.18-1.4",
            "openSUSE Tumbleweed:gimp-help-browser-2.8.18-1.4",
            "openSUSE Tumbleweed:gimp-lang-2.8.18-1.4",
            "openSUSE Tumbleweed:gimp-plugin-aa-2.8.18-1.4",
            "openSUSE Tumbleweed:gimp-plugins-python-2.8.18-1.4",
            "openSUSE Tumbleweed:libgimp-2_0-0-2.8.18-1.4",
            "openSUSE Tumbleweed:libgimp-2_0-0-32bit-2.8.18-1.4",
            "openSUSE Tumbleweed:libgimpui-2_0-0-2.8.18-1.4",
            "openSUSE Tumbleweed:libgimpui-2_0-0-32bit-2.8.18-1.4"
          ]
        }
      ],
      "CVSSScoreSets": {}
    },
    {
      "CVE": "CVE-2016-4994",
      "Description": "Use-after-free vulnerability in the xcf_load_image function in app/xcf/xcf-load.c in GIMP allows remote attackers to cause a denial of service (program crash) or possibly execute arbitrary code via a crafted XCF file.",
      "Threats": [
        {
          "Type": "Impact",
          "Severity": "moderate"
        }
      ],
      "References": [
        {
          "URL": "https://www.suse.com/security/cve/CVE-2016-4994.html",
          "Description": "CVE-2016-4994"
        },
        {
          "URL": "https://bugzilla.suse.com/986021",
          "Description": "SUSE Bug 986021"
        }
      ],
      "ProductStatuses": [
        {
          "Type": "Fixed",
          "ProductID": [
            "openSUSE Tumbleweed:gimp-2.8.18-1.4",
            "openSUSE Tumbleweed:gimp-devel-2.8.18-1.4",
            "openSUSE Tumbleweed:gimp-help-browser-2.8.18-1.4",
            "openSUSE Tumbleweed:gimp-lang-2.8.18-1.4",
            "openSUSE Tumbleweed:gimp-plugin-aa-2.8.18-1.4",
            "openSUSE Tumbleweed:gimp-plugins-python-2.8.18-1.4",
            "openSUSE Tumbleweed:libgimp-2_0-0-2.8.18-1.4",
            "openSUSE Tumbleweed:libgimp-2_0-0-32bit-2.8.18-1.4",
            "openSUSE Tumbleweed:libgimpui-2_0-0-2.8.18-1.4",
            "openSUSE Tumbleweed:libgimpui-2_0-0-32bit-2.8.18-1.4"
          ]
        }
      ],
      "CVSSScoreSets": {
        "BaseScore": "5.1",
        "Vector": "AV:N/AC:H/Au:N/C:P/I:P/A:P"
      }
    }
  ]
}