{
  "Title": "gvim-9.0.1392-1.1 on GA media",
  "Tracking": {
    "ID": "openSUSE-SU-2024:12774-1",
    "Status": "Final",
    "Version": "1",
    "InitialReleaseDate": "2024-06-20T21:44:22Z",
    "CurrentReleaseDate": "2024-06-20T21:44:22Z",
    "RevisionHistory": [
      {
        "Number": "1",
        "Date": "2024-06-20T21:44:22Z",
        "Description": "current"
      }
    ]
  },
  "Notes": [
    {
      "Text": "gvim-9.0.1392-1.1 on GA media",
      "Title": "Topic",
      "Type": "Summary"
    },
    {
      "Text": "These are all security issues fixed in the gvim-9.0.1392-1.1 package on the GA media of openSUSE Tumbleweed.",
      "Title": "Details",
      "Type": "General"
    },
    {
      "Text": "The CVRF data is provided by SUSE under the Creative Commons License 4.0 with Attribution (CC-BY-4.0).",
      "Title": "Terms of Use",
      "Type": "Legal Disclaimer"
    },
    {
      "Text": "openSUSE-Tumbleweed-2024-12774",
      "Title": "Patchnames",
      "Type": "Details"
    }
  ],
  "ProductTree": {
    "Relationships": [
      {
        "ProductReference": "gvim-9.0.1392-1.1",
        "RelatesToProductReference": "openSUSE Tumbleweed",
        "RelationType": "Default Component Of"
      },
      {
        "ProductReference": "vim-9.0.1392-1.1",
        "RelatesToProductReference": "openSUSE Tumbleweed",
        "RelationType": "Default Component Of"
      },
      {
        "ProductReference": "vim-data-9.0.1392-1.1",
        "RelatesToProductReference": "openSUSE Tumbleweed",
        "RelationType": "Default Component Of"
      },
      {
        "ProductReference": "vim-data-common-9.0.1392-1.1",
        "RelatesToProductReference": "openSUSE Tumbleweed",
        "RelationType": "Default Component Of"
      },
      {
        "ProductReference": "vim-small-9.0.1392-1.1",
        "RelatesToProductReference": "openSUSE Tumbleweed",
        "RelationType": "Default Component Of"
      }
    ]
  },
  "References": [
    {
      "URL": "https://www.suse.com/support/security/rating/",
      "Description": "SUSE Security Ratings"
    },
    {
      "URL": "https://www.suse.com/security/cve/CVE-2023-1175/",
      "Description": "SUSE CVE CVE-2023-1175 page"
    },
    {
      "URL": "https://www.suse.com/security/cve/CVE-2023-1264/",
      "Description": "SUSE CVE CVE-2023-1264 page"
    }
  ],
  "Vulnerabilities": [
    {
      "CVE": "CVE-2023-1175",
      "Description": "Incorrect Calculation of Buffer Size in GitHub repository vim/vim prior to 9.0.1378.",
      "Threats": [
        {
          "Type": "Impact",
          "Severity": "moderate"
        }
      ],
      "References": [
        {
          "URL": "https://www.suse.com/security/cve/CVE-2023-1175.html",
          "Description": "CVE-2023-1175"
        },
        {
          "URL": "https://bugzilla.suse.com/1208957",
          "Description": "SUSE Bug 1208957"
        }
      ],
      "ProductStatuses": [
        {
          "Type": "Fixed",
          "ProductID": [
            "openSUSE Tumbleweed:gvim-9.0.1392-1.1",
            "openSUSE Tumbleweed:vim-9.0.1392-1.1",
            "openSUSE Tumbleweed:vim-data-9.0.1392-1.1",
            "openSUSE Tumbleweed:vim-data-common-9.0.1392-1.1",
            "openSUSE Tumbleweed:vim-small-9.0.1392-1.1"
          ]
        }
      ],
      "CVSSScoreSets": {}
    },
    {
      "CVE": "CVE-2023-1264",
      "Description": "NULL Pointer Dereference in GitHub repository vim/vim prior to 9.0.1392.",
      "Threats": [
        {
          "Type": "Impact",
          "Severity": "moderate"
        }
      ],
      "References": [
        {
          "URL": "https://www.suse.com/security/cve/CVE-2023-1264.html",
          "Description": "CVE-2023-1264"
        },
        {
          "URL": "https://bugzilla.suse.com/1209042",
          "Description": "SUSE Bug 1209042"
        }
      ],
      "ProductStatuses": [
        {
          "Type": "Fixed",
          "ProductID": [
            "openSUSE Tumbleweed:gvim-9.0.1392-1.1",
            "openSUSE Tumbleweed:vim-9.0.1392-1.1",
            "openSUSE Tumbleweed:vim-data-9.0.1392-1.1",
            "openSUSE Tumbleweed:vim-data-common-9.0.1392-1.1",
            "openSUSE Tumbleweed:vim-small-9.0.1392-1.1"
          ]
        }
      ],
      "CVSSScoreSets": {}
    }
  ]
}