{
  "Title": "yast2-multipath-4.4.1-1.2 on GA media",
  "Tracking": {
    "ID": "openSUSE-SU-2024:11533-1",
    "Status": "Final",
    "Version": "1",
    "InitialReleaseDate": "2024-06-22T21:44:56Z",
    "CurrentReleaseDate": "2024-06-22T21:44:56Z",
    "RevisionHistory": [
      {
        "Number": "1",
        "Date": "2024-06-22T21:44:56Z",
        "Description": "current"
      }
    ]
  },
  "Notes": [
    {
      "Text": "yast2-multipath-4.4.1-1.2 on GA media",
      "Title": "Topic",
      "Type": "Summary"
    },
    {
      "Text": "These are all security issues fixed in the yast2-multipath-4.4.1-1.2 package on the GA media of openSUSE Tumbleweed.",
      "Title": "Details",
      "Type": "General"
    },
    {
      "Text": "The CVRF data is provided by SUSE under the Creative Commons License 4.0 with Attribution (CC-BY-4.0).",
      "Title": "Terms of Use",
      "Type": "Legal Disclaimer"
    },
    {
      "Text": "openSUSE-Tumbleweed-2024-11533",
      "Title": "Patchnames",
      "Type": "Details"
    }
  ],
  "ProductTree": {
    "Relationships": [
      {
        "ProductReference": "yast2-multipath-4.4.1-1.2",
        "RelatesToProductReference": "openSUSE Tumbleweed",
        "RelationType": "Default Component Of"
      }
    ]
  },
  "References": [
    {
      "URL": "https://www.suse.com/support/security/rating/",
      "Description": "SUSE Security Ratings"
    },
    {
      "URL": "https://www.suse.com/security/cve/CVE-2018-17955/",
      "Description": "SUSE CVE CVE-2018-17955 page"
    }
  ],
  "Vulnerabilities": [
    {
      "CVE": "CVE-2018-17955",
      "Description": "In yast2-multipath before version 4.1.1 a static temporary filename allows local attackers to overwrite files on systems without symlink protection",
      "Threats": [
        {
          "Type": "Impact",
          "Severity": "important"
        }
      ],
      "References": [
        {
          "URL": "https://www.suse.com/security/cve/CVE-2018-17955.html",
          "Description": "CVE-2018-17955"
        },
        {
          "URL": "https://bugzilla.suse.com/1117592",
          "Description": "SUSE Bug 1117592"
        }
      ],
      "ProductStatuses": [
        {
          "Type": "Fixed",
          "ProductID": [
            "openSUSE Tumbleweed:yast2-multipath-4.4.1-1.2"
          ]
        }
      ],
      "CVSSScoreSets": {}
    }
  ]
}