{
  "Title": "java-1_8_0-openjdk-1.8.0.362-1.1 on GA media",
  "Tracking": {
    "ID": "openSUSE-SU-2024:12670-1",
    "Status": "Final",
    "Version": "1",
    "InitialReleaseDate": "2024-06-20T21:44:22Z",
    "CurrentReleaseDate": "2024-06-20T21:44:22Z",
    "RevisionHistory": [
      {
        "Number": "1",
        "Date": "2024-06-20T21:44:22Z",
        "Description": "current"
      }
    ]
  },
  "Notes": [
    {
      "Text": "java-1_8_0-openjdk-1.8.0.362-1.1 on GA media",
      "Title": "Topic",
      "Type": "Summary"
    },
    {
      "Text": "These are all security issues fixed in the java-1_8_0-openjdk-1.8.0.362-1.1 package on the GA media of openSUSE Tumbleweed.",
      "Title": "Details",
      "Type": "General"
    },
    {
      "Text": "The CVRF data is provided by SUSE under the Creative Commons License 4.0 with Attribution (CC-BY-4.0).",
      "Title": "Terms of Use",
      "Type": "Legal Disclaimer"
    },
    {
      "Text": "openSUSE-Tumbleweed-2024-12670",
      "Title": "Patchnames",
      "Type": "Details"
    }
  ],
  "ProductTree": {
    "Relationships": [
      {
        "ProductReference": "java-1_8_0-openjdk-1.8.0.362-1.1",
        "RelatesToProductReference": "openSUSE Tumbleweed",
        "RelationType": "Default Component Of"
      },
      {
        "ProductReference": "java-1_8_0-openjdk-accessibility-1.8.0.362-1.1",
        "RelatesToProductReference": "openSUSE Tumbleweed",
        "RelationType": "Default Component Of"
      },
      {
        "ProductReference": "java-1_8_0-openjdk-demo-1.8.0.362-1.1",
        "RelatesToProductReference": "openSUSE Tumbleweed",
        "RelationType": "Default Component Of"
      },
      {
        "ProductReference": "java-1_8_0-openjdk-devel-1.8.0.362-1.1",
        "RelatesToProductReference": "openSUSE Tumbleweed",
        "RelationType": "Default Component Of"
      },
      {
        "ProductReference": "java-1_8_0-openjdk-headless-1.8.0.362-1.1",
        "RelatesToProductReference": "openSUSE Tumbleweed",
        "RelationType": "Default Component Of"
      },
      {
        "ProductReference": "java-1_8_0-openjdk-javadoc-1.8.0.362-1.1",
        "RelatesToProductReference": "openSUSE Tumbleweed",
        "RelationType": "Default Component Of"
      },
      {
        "ProductReference": "java-1_8_0-openjdk-src-1.8.0.362-1.1",
        "RelatesToProductReference": "openSUSE Tumbleweed",
        "RelationType": "Default Component Of"
      }
    ]
  },
  "References": [
    {
      "URL": "https://www.suse.com/support/security/rating/",
      "Description": "SUSE Security Ratings"
    },
    {
      "URL": "https://www.suse.com/security/cve/CVE-2023-21830/",
      "Description": "SUSE CVE CVE-2023-21830 page"
    },
    {
      "URL": "https://www.suse.com/security/cve/CVE-2023-21843/",
      "Description": "SUSE CVE CVE-2023-21843 page"
    }
  ],
  "Vulnerabilities": [
    {
      "CVE": "CVE-2023-21830",
      "Description": "Vulnerability in the Oracle Java SE, Oracle GraalVM Enterprise Edition product of Oracle Java SE (component: Serialization).  Supported versions that are affected are Oracle Java SE: 8u351, 8u351-perf; Oracle GraalVM Enterprise Edition: 20.3.8 and  21.3.4. Easily exploitable vulnerability allows unauthenticated attacker with network access via multiple protocols to compromise Oracle Java SE, Oracle GraalVM Enterprise Edition.  Successful attacks of this vulnerability can result in  unauthorized update, insert or delete access to some of Oracle Java SE, Oracle GraalVM Enterprise Edition accessible data. Note: This vulnerability applies to Java deployments, typically in clients running sandboxed Java Web Start applications or sandboxed Java applets, that load and run untrusted code (e.g., code that comes from the internet) and rely on the Java sandbox for security. This vulnerability does not apply to Java deployments, typically in servers, that load and run only trusted code (e.g., code installed by an administrator). CVSS 3.1 Base Score 5.3 (Integrity impacts).  CVSS Vector: (CVSS:3.1/AV:N/AC:L/PR:N/UI:N/S:U/C:N/I:L/A:N).",
      "Threats": [
        {
          "Type": "Impact",
          "Severity": "moderate"
        }
      ],
      "References": [
        {
          "URL": "https://www.suse.com/security/cve/CVE-2023-21830.html",
          "Description": "CVE-2023-21830"
        },
        {
          "URL": "https://bugzilla.suse.com/1207249",
          "Description": "SUSE Bug 1207249"
        }
      ],
      "ProductStatuses": [
        {
          "Type": "Fixed",
          "ProductID": [
            "openSUSE Tumbleweed:java-1_8_0-openjdk-1.8.0.362-1.1",
            "openSUSE Tumbleweed:java-1_8_0-openjdk-accessibility-1.8.0.362-1.1",
            "openSUSE Tumbleweed:java-1_8_0-openjdk-demo-1.8.0.362-1.1",
            "openSUSE Tumbleweed:java-1_8_0-openjdk-devel-1.8.0.362-1.1",
            "openSUSE Tumbleweed:java-1_8_0-openjdk-headless-1.8.0.362-1.1",
            "openSUSE Tumbleweed:java-1_8_0-openjdk-javadoc-1.8.0.362-1.1",
            "openSUSE Tumbleweed:java-1_8_0-openjdk-src-1.8.0.362-1.1"
          ]
        }
      ],
      "CVSSScoreSets": {}
    },
    {
      "CVE": "CVE-2023-21843",
      "Description": "Vulnerability in the Oracle Java SE, Oracle GraalVM Enterprise Edition product of Oracle Java SE (component: Sound).  Supported versions that are affected are Oracle Java SE: 8u351, 8u351-perf, 11.0.17, 17.0.5, 19.0.1; Oracle GraalVM Enterprise Edition: 20.3.8, 21.3.4 and  22.3.0. Difficult to exploit vulnerability allows unauthenticated attacker with network access via multiple protocols to compromise Oracle Java SE, Oracle GraalVM Enterprise Edition.  Successful attacks of this vulnerability can result in  unauthorized update, insert or delete access to some of Oracle Java SE, Oracle GraalVM Enterprise Edition accessible data. Note: This vulnerability applies to Java deployments, typically in clients running sandboxed Java Web Start applications or sandboxed Java applets, that load and run untrusted code (e.g., code that comes from the internet) and rely on the Java sandbox for security. This vulnerability does not apply to Java deployments, typically in servers, that load and run only trusted code (e.g., code installed by an administrator). CVSS 3.1 Base Score 3.7 (Integrity impacts).  CVSS Vector: (CVSS:3.1/AV:N/AC:H/PR:N/UI:N/S:U/C:N/I:L/A:N).",
      "Threats": [
        {
          "Type": "Impact",
          "Severity": "low"
        }
      ],
      "References": [
        {
          "URL": "https://www.suse.com/security/cve/CVE-2023-21843.html",
          "Description": "CVE-2023-21843"
        },
        {
          "URL": "https://bugzilla.suse.com/1207248",
          "Description": "SUSE Bug 1207248"
        }
      ],
      "ProductStatuses": [
        {
          "Type": "Fixed",
          "ProductID": [
            "openSUSE Tumbleweed:java-1_8_0-openjdk-1.8.0.362-1.1",
            "openSUSE Tumbleweed:java-1_8_0-openjdk-accessibility-1.8.0.362-1.1",
            "openSUSE Tumbleweed:java-1_8_0-openjdk-demo-1.8.0.362-1.1",
            "openSUSE Tumbleweed:java-1_8_0-openjdk-devel-1.8.0.362-1.1",
            "openSUSE Tumbleweed:java-1_8_0-openjdk-headless-1.8.0.362-1.1",
            "openSUSE Tumbleweed:java-1_8_0-openjdk-javadoc-1.8.0.362-1.1",
            "openSUSE Tumbleweed:java-1_8_0-openjdk-src-1.8.0.362-1.1"
          ]
        }
      ],
      "CVSSScoreSets": {}
    }
  ]
}