{
  "Title": "DevIL-devel-1.7.8-5.7 on GA media",
  "Tracking": {
    "ID": "openSUSE-SU-2024:10314-1",
    "Status": "Final",
    "Version": "1",
    "InitialReleaseDate": "2024-06-22T21:44:56Z",
    "CurrentReleaseDate": "2024-06-22T21:44:56Z",
    "RevisionHistory": [
      {
        "Number": "1",
        "Date": "2024-06-22T21:44:56Z",
        "Description": "current"
      }
    ]
  },
  "Notes": [
    {
      "Text": "DevIL-devel-1.7.8-5.7 on GA media",
      "Title": "Topic",
      "Type": "Summary"
    },
    {
      "Text": "These are all security issues fixed in the DevIL-devel-1.7.8-5.7 package on the GA media of openSUSE Tumbleweed.",
      "Title": "Details",
      "Type": "General"
    },
    {
      "Text": "The CVRF data is provided by SUSE under the Creative Commons License 4.0 with Attribution (CC-BY-4.0).",
      "Title": "Terms of Use",
      "Type": "Legal Disclaimer"
    },
    {
      "Text": "openSUSE-Tumbleweed-2024-10314",
      "Title": "Patchnames",
      "Type": "Details"
    }
  ],
  "ProductTree": {
    "Relationships": [
      {
        "ProductReference": "DevIL-devel-1.7.8-5.7",
        "RelatesToProductReference": "openSUSE Tumbleweed",
        "RelationType": "Default Component Of"
      },
      {
        "ProductReference": "libIL1-1.7.8-5.7",
        "RelatesToProductReference": "openSUSE Tumbleweed",
        "RelationType": "Default Component Of"
      },
      {
        "ProductReference": "libdevil-tools-1.7.8-5.7",
        "RelatesToProductReference": "openSUSE Tumbleweed",
        "RelationType": "Default Component Of"
      }
    ]
  },
  "References": [
    {
      "URL": "https://www.suse.com/support/security/rating/",
      "Description": "SUSE Security Ratings"
    },
    {
      "URL": "https://www.suse.com/security/cve/CVE-2009-3994/",
      "Description": "SUSE CVE CVE-2009-3994 page"
    }
  ],
  "Vulnerabilities": [
    {
      "CVE": "CVE-2009-3994",
      "Description": "Stack-based buffer overflow in the GetUID function in src-IL/src/il_dicom.c in DevIL 1.7.8 allows remote attackers to cause a denial of service (application crash) or execute arbitrary code via a crafted DICOM file.",
      "Threats": [
        {
          "Type": "Impact",
          "Severity": "moderate"
        }
      ],
      "References": [
        {
          "URL": "https://www.suse.com/security/cve/CVE-2009-3994.html",
          "Description": "CVE-2009-3994"
        }
      ],
      "ProductStatuses": [
        {
          "Type": "Fixed",
          "ProductID": [
            "openSUSE Tumbleweed:DevIL-devel-1.7.8-5.7",
            "openSUSE Tumbleweed:libIL1-1.7.8-5.7",
            "openSUSE Tumbleweed:libdevil-tools-1.7.8-5.7"
          ]
        }
      ],
      "CVSSScoreSets": {}
    }
  ]
}