{
  "Title": "pam-modules-12.1-27.4 on GA media",
  "Tracking": {
    "ID": "openSUSE-SU-2024:10043-1",
    "Status": "Final",
    "Version": "1",
    "InitialReleaseDate": "2024-06-22T21:44:56Z",
    "CurrentReleaseDate": "2024-06-22T21:44:56Z",
    "RevisionHistory": [
      {
        "Number": "1",
        "Date": "2024-06-22T21:44:56Z",
        "Description": "current"
      }
    ]
  },
  "Notes": [
    {
      "Text": "pam-modules-12.1-27.4 on GA media",
      "Title": "Topic",
      "Type": "Summary"
    },
    {
      "Text": "These are all security issues fixed in the pam-modules-12.1-27.4 package on the GA media of openSUSE Tumbleweed.",
      "Title": "Details",
      "Type": "General"
    },
    {
      "Text": "The CVRF data is provided by SUSE under the Creative Commons License 4.0 with Attribution (CC-BY-4.0).",
      "Title": "Terms of Use",
      "Type": "Legal Disclaimer"
    },
    {
      "Text": "openSUSE-Tumbleweed-2024-10043",
      "Title": "Patchnames",
      "Type": "Details"
    }
  ],
  "ProductTree": {
    "Relationships": [
      {
        "ProductReference": "pam-modules-12.1-27.4",
        "RelatesToProductReference": "openSUSE Tumbleweed",
        "RelationType": "Default Component Of"
      },
      {
        "ProductReference": "pam-modules-32bit-12.1-27.4",
        "RelatesToProductReference": "openSUSE Tumbleweed",
        "RelationType": "Default Component Of"
      }
    ]
  },
  "References": [
    {
      "URL": "https://www.suse.com/support/security/rating/",
      "Description": "SUSE Security Ratings"
    },
    {
      "URL": "https://www.suse.com/security/cve/CVE-2011-3172/",
      "Description": "SUSE CVE CVE-2011-3172 page"
    }
  ],
  "Vulnerabilities": [
    {
      "CVE": "CVE-2011-3172",
      "Description": "A vulnerability in pam_modules of SUSE Linux Enterprise allows attackers to log into accounts that should have been disabled. Affected releases are SUSE Linux Enterprise: versions prior to 12.",
      "Threats": [
        {
          "Type": "Impact",
          "Severity": "critical"
        }
      ],
      "References": [
        {
          "URL": "https://www.suse.com/security/cve/CVE-2011-3172.html",
          "Description": "CVE-2011-3172"
        },
        {
          "URL": "https://bugzilla.suse.com/1149683",
          "Description": "SUSE Bug 1149683"
        },
        {
          "URL": "https://bugzilla.suse.com/707645",
          "Description": "SUSE Bug 707645"
        }
      ],
      "ProductStatuses": [
        {
          "Type": "Fixed",
          "ProductID": [
            "openSUSE Tumbleweed:pam-modules-12.1-27.4",
            "openSUSE Tumbleweed:pam-modules-32bit-12.1-27.4"
          ]
        }
      ],
      "CVSSScoreSets": {}
    }
  ]
}