{
  "Title": "gdk-pixbuf-loader-libheif-1.17.6-1.1 on GA media",
  "Tracking": {
    "ID": "openSUSE-SU-2024:13551-1",
    "Status": "Final",
    "Version": "1",
    "InitialReleaseDate": "2024-06-20T21:44:22Z",
    "CurrentReleaseDate": "2024-06-20T21:44:22Z",
    "RevisionHistory": [
      {
        "Number": "1",
        "Date": "2024-06-20T21:44:22Z",
        "Description": "current"
      }
    ]
  },
  "Notes": [
    {
      "Text": "gdk-pixbuf-loader-libheif-1.17.6-1.1 on GA media",
      "Title": "Topic",
      "Type": "Summary"
    },
    {
      "Text": "These are all security issues fixed in the gdk-pixbuf-loader-libheif-1.17.6-1.1 package on the GA media of openSUSE Tumbleweed.",
      "Title": "Details",
      "Type": "General"
    },
    {
      "Text": "The CVRF data is provided by SUSE under the Creative Commons License 4.0 with Attribution (CC-BY-4.0).",
      "Title": "Terms of Use",
      "Type": "Legal Disclaimer"
    },
    {
      "Text": "openSUSE-Tumbleweed-2024-13551",
      "Title": "Patchnames",
      "Type": "Details"
    }
  ],
  "ProductTree": {
    "Relationships": [
      {
        "ProductReference": "gdk-pixbuf-loader-libheif-1.17.6-1.1",
        "RelatesToProductReference": "openSUSE Tumbleweed",
        "RelationType": "Default Component Of"
      },
      {
        "ProductReference": "libheif-aom-1.17.6-1.1",
        "RelatesToProductReference": "openSUSE Tumbleweed",
        "RelationType": "Default Component Of"
      },
      {
        "ProductReference": "libheif-dav1d-1.17.6-1.1",
        "RelatesToProductReference": "openSUSE Tumbleweed",
        "RelationType": "Default Component Of"
      },
      {
        "ProductReference": "libheif-devel-1.17.6-1.1",
        "RelatesToProductReference": "openSUSE Tumbleweed",
        "RelationType": "Default Component Of"
      },
      {
        "ProductReference": "libheif-ffmpeg-1.17.6-1.1",
        "RelatesToProductReference": "openSUSE Tumbleweed",
        "RelationType": "Default Component Of"
      },
      {
        "ProductReference": "libheif-jpeg-1.17.6-1.1",
        "RelatesToProductReference": "openSUSE Tumbleweed",
        "RelationType": "Default Component Of"
      },
      {
        "ProductReference": "libheif-openjpeg-1.17.6-1.1",
        "RelatesToProductReference": "openSUSE Tumbleweed",
        "RelationType": "Default Component Of"
      },
      {
        "ProductReference": "libheif-rav1e-1.17.6-1.1",
        "RelatesToProductReference": "openSUSE Tumbleweed",
        "RelationType": "Default Component Of"
      },
      {
        "ProductReference": "libheif-svtenc-1.17.6-1.1",
        "RelatesToProductReference": "openSUSE Tumbleweed",
        "RelationType": "Default Component Of"
      },
      {
        "ProductReference": "libheif1-1.17.6-1.1",
        "RelatesToProductReference": "openSUSE Tumbleweed",
        "RelationType": "Default Component Of"
      },
      {
        "ProductReference": "libheif1-32bit-1.17.6-1.1",
        "RelatesToProductReference": "openSUSE Tumbleweed",
        "RelationType": "Default Component Of"
      }
    ]
  },
  "References": [
    {
      "URL": "https://www.suse.com/support/security/rating/",
      "Description": "SUSE Security Ratings"
    },
    {
      "URL": "https://www.suse.com/security/cve/CVE-2023-49460/",
      "Description": "SUSE CVE CVE-2023-49460 page"
    },
    {
      "URL": "https://www.suse.com/security/cve/CVE-2023-49463/",
      "Description": "SUSE CVE CVE-2023-49463 page"
    }
  ],
  "Vulnerabilities": [
    {
      "CVE": "CVE-2023-49460",
      "Description": "libheif v1.17.5 was discovered to contain a segmentation violation via the function UncompressedImageCodec::decode_uncompressed_image.",
      "Threats": [
        {
          "Type": "Impact",
          "Severity": "moderate"
        }
      ],
      "References": [
        {
          "URL": "https://www.suse.com/security/cve/CVE-2023-49460.html",
          "Description": "CVE-2023-49460"
        },
        {
          "URL": "https://bugzilla.suse.com/1217902",
          "Description": "SUSE Bug 1217902"
        }
      ],
      "ProductStatuses": [
        {
          "Type": "Fixed",
          "ProductID": [
            "openSUSE Tumbleweed:gdk-pixbuf-loader-libheif-1.17.6-1.1",
            "openSUSE Tumbleweed:libheif-aom-1.17.6-1.1",
            "openSUSE Tumbleweed:libheif-dav1d-1.17.6-1.1",
            "openSUSE Tumbleweed:libheif-devel-1.17.6-1.1",
            "openSUSE Tumbleweed:libheif-ffmpeg-1.17.6-1.1",
            "openSUSE Tumbleweed:libheif-jpeg-1.17.6-1.1",
            "openSUSE Tumbleweed:libheif-openjpeg-1.17.6-1.1",
            "openSUSE Tumbleweed:libheif-rav1e-1.17.6-1.1",
            "openSUSE Tumbleweed:libheif-svtenc-1.17.6-1.1",
            "openSUSE Tumbleweed:libheif1-1.17.6-1.1",
            "openSUSE Tumbleweed:libheif1-32bit-1.17.6-1.1"
          ]
        }
      ],
      "CVSSScoreSets": {}
    },
    {
      "CVE": "CVE-2023-49463",
      "Description": "libheif v1.17.5 was discovered to contain a segmentation violation via the function find_exif_tag at /libheif/exif.cc.",
      "Threats": [
        {
          "Type": "Impact",
          "Severity": "moderate"
        }
      ],
      "References": [
        {
          "URL": "https://www.suse.com/security/cve/CVE-2023-49463.html",
          "Description": "CVE-2023-49463"
        },
        {
          "URL": "https://bugzilla.suse.com/1217899",
          "Description": "SUSE Bug 1217899"
        }
      ],
      "ProductStatuses": [
        {
          "Type": "Fixed",
          "ProductID": [
            "openSUSE Tumbleweed:gdk-pixbuf-loader-libheif-1.17.6-1.1",
            "openSUSE Tumbleweed:libheif-aom-1.17.6-1.1",
            "openSUSE Tumbleweed:libheif-dav1d-1.17.6-1.1",
            "openSUSE Tumbleweed:libheif-devel-1.17.6-1.1",
            "openSUSE Tumbleweed:libheif-ffmpeg-1.17.6-1.1",
            "openSUSE Tumbleweed:libheif-jpeg-1.17.6-1.1",
            "openSUSE Tumbleweed:libheif-openjpeg-1.17.6-1.1",
            "openSUSE Tumbleweed:libheif-rav1e-1.17.6-1.1",
            "openSUSE Tumbleweed:libheif-svtenc-1.17.6-1.1",
            "openSUSE Tumbleweed:libheif1-1.17.6-1.1",
            "openSUSE Tumbleweed:libheif1-32bit-1.17.6-1.1"
          ]
        }
      ],
      "CVSSScoreSets": {}
    }
  ]
}