{
  "Title": "chromedriver-100.0.4896.88-1.1 on GA media",
  "Tracking": {
    "ID": "openSUSE-SU-2024:11988-1",
    "Status": "Final",
    "Version": "1",
    "InitialReleaseDate": "2024-06-20T21:44:22Z",
    "CurrentReleaseDate": "2024-06-20T21:44:22Z",
    "RevisionHistory": [
      {
        "Number": "1",
        "Date": "2024-06-20T21:44:22Z",
        "Description": "current"
      }
    ]
  },
  "Notes": [
    {
      "Text": "chromedriver-100.0.4896.88-1.1 on GA media",
      "Title": "Topic",
      "Type": "Summary"
    },
    {
      "Text": "These are all security issues fixed in the chromedriver-100.0.4896.88-1.1 package on the GA media of openSUSE Tumbleweed.",
      "Title": "Details",
      "Type": "General"
    },
    {
      "Text": "The CVRF data is provided by SUSE under the Creative Commons License 4.0 with Attribution (CC-BY-4.0).",
      "Title": "Terms of Use",
      "Type": "Legal Disclaimer"
    },
    {
      "Text": "openSUSE-Tumbleweed-2024-11988",
      "Title": "Patchnames",
      "Type": "Details"
    }
  ],
  "ProductTree": {
    "Relationships": [
      {
        "ProductReference": "chromedriver-100.0.4896.88-1.1",
        "RelatesToProductReference": "openSUSE Tumbleweed",
        "RelationType": "Default Component Of"
      },
      {
        "ProductReference": "chromium-100.0.4896.88-1.1",
        "RelatesToProductReference": "openSUSE Tumbleweed",
        "RelationType": "Default Component Of"
      }
    ]
  },
  "References": [
    {
      "URL": "https://www.suse.com/support/security/rating/",
      "Description": "SUSE Security Ratings"
    },
    {
      "URL": "https://www.suse.com/security/cve/CVE-2022-1305/",
      "Description": "SUSE CVE CVE-2022-1305 page"
    },
    {
      "URL": "https://www.suse.com/security/cve/CVE-2022-1306/",
      "Description": "SUSE CVE CVE-2022-1306 page"
    },
    {
      "URL": "https://www.suse.com/security/cve/CVE-2022-1307/",
      "Description": "SUSE CVE CVE-2022-1307 page"
    },
    {
      "URL": "https://www.suse.com/security/cve/CVE-2022-1308/",
      "Description": "SUSE CVE CVE-2022-1308 page"
    },
    {
      "URL": "https://www.suse.com/security/cve/CVE-2022-1309/",
      "Description": "SUSE CVE CVE-2022-1309 page"
    },
    {
      "URL": "https://www.suse.com/security/cve/CVE-2022-1310/",
      "Description": "SUSE CVE CVE-2022-1310 page"
    },
    {
      "URL": "https://www.suse.com/security/cve/CVE-2022-1311/",
      "Description": "SUSE CVE CVE-2022-1311 page"
    },
    {
      "URL": "https://www.suse.com/security/cve/CVE-2022-1312/",
      "Description": "SUSE CVE CVE-2022-1312 page"
    },
    {
      "URL": "https://www.suse.com/security/cve/CVE-2022-1313/",
      "Description": "SUSE CVE CVE-2022-1313 page"
    },
    {
      "URL": "https://www.suse.com/security/cve/CVE-2022-1314/",
      "Description": "SUSE CVE CVE-2022-1314 page"
    }
  ],
  "Vulnerabilities": [
    {
      "CVE": "CVE-2022-1305",
      "Description": "Use after free in storage in Google Chrome prior to 100.0.4896.88 allowed a remote attacker to potentially exploit heap corruption via a crafted HTML page.",
      "Threats": [
        {
          "Type": "Impact",
          "Severity": "moderate"
        }
      ],
      "References": [
        {
          "URL": "https://www.suse.com/security/cve/CVE-2022-1305.html",
          "Description": "CVE-2022-1305"
        },
        {
          "URL": "https://bugzilla.suse.com/1198361",
          "Description": "SUSE Bug 1198361"
        }
      ],
      "ProductStatuses": [
        {
          "Type": "Fixed",
          "ProductID": [
            "openSUSE Tumbleweed:chromedriver-100.0.4896.88-1.1",
            "openSUSE Tumbleweed:chromium-100.0.4896.88-1.1"
          ]
        }
      ],
      "CVSSScoreSets": {}
    },
    {
      "CVE": "CVE-2022-1306",
      "Description": "Inappropriate implementation in compositing in Google Chrome prior to 100.0.4896.88 allowed a remote attacker to spoof the contents of the Omnibox (URL bar) via a crafted HTML page.",
      "Threats": [
        {
          "Type": "Impact",
          "Severity": "moderate"
        }
      ],
      "References": [
        {
          "URL": "https://www.suse.com/security/cve/CVE-2022-1306.html",
          "Description": "CVE-2022-1306"
        },
        {
          "URL": "https://bugzilla.suse.com/1198361",
          "Description": "SUSE Bug 1198361"
        }
      ],
      "ProductStatuses": [
        {
          "Type": "Fixed",
          "ProductID": [
            "openSUSE Tumbleweed:chromedriver-100.0.4896.88-1.1",
            "openSUSE Tumbleweed:chromium-100.0.4896.88-1.1"
          ]
        }
      ],
      "CVSSScoreSets": {}
    },
    {
      "CVE": "CVE-2022-1307",
      "Description": "Inappropriate implementation in full screen in Google Chrome on Android prior to 100.0.4896.88 allowed a remote attacker to spoof the contents of the Omnibox (URL bar) via a crafted HTML page.",
      "Threats": [
        {
          "Type": "Impact",
          "Severity": "moderate"
        }
      ],
      "References": [
        {
          "URL": "https://www.suse.com/security/cve/CVE-2022-1307.html",
          "Description": "CVE-2022-1307"
        },
        {
          "URL": "https://bugzilla.suse.com/1198361",
          "Description": "SUSE Bug 1198361"
        }
      ],
      "ProductStatuses": [
        {
          "Type": "Fixed",
          "ProductID": [
            "openSUSE Tumbleweed:chromedriver-100.0.4896.88-1.1",
            "openSUSE Tumbleweed:chromium-100.0.4896.88-1.1"
          ]
        }
      ],
      "CVSSScoreSets": {}
    },
    {
      "CVE": "CVE-2022-1308",
      "Description": "Use after free in BFCache in Google Chrome prior to 100.0.4896.88 allowed a remote attacker to potentially exploit heap corruption via a crafted HTML page.",
      "Threats": [
        {
          "Type": "Impact",
          "Severity": "moderate"
        }
      ],
      "References": [
        {
          "URL": "https://www.suse.com/security/cve/CVE-2022-1308.html",
          "Description": "CVE-2022-1308"
        },
        {
          "URL": "https://bugzilla.suse.com/1198361",
          "Description": "SUSE Bug 1198361"
        }
      ],
      "ProductStatuses": [
        {
          "Type": "Fixed",
          "ProductID": [
            "openSUSE Tumbleweed:chromedriver-100.0.4896.88-1.1",
            "openSUSE Tumbleweed:chromium-100.0.4896.88-1.1"
          ]
        }
      ],
      "CVSSScoreSets": {}
    },
    {
      "CVE": "CVE-2022-1309",
      "Description": "Insufficient policy enforcement in developer tools in Google Chrome prior to 100.0.4896.88 allowed a remote attacker to potentially perform a sandbox escape via a crafted HTML page.",
      "Threats": [
        {
          "Type": "Impact",
          "Severity": "moderate"
        }
      ],
      "References": [
        {
          "URL": "https://www.suse.com/security/cve/CVE-2022-1309.html",
          "Description": "CVE-2022-1309"
        },
        {
          "URL": "https://bugzilla.suse.com/1198361",
          "Description": "SUSE Bug 1198361"
        }
      ],
      "ProductStatuses": [
        {
          "Type": "Fixed",
          "ProductID": [
            "openSUSE Tumbleweed:chromedriver-100.0.4896.88-1.1",
            "openSUSE Tumbleweed:chromium-100.0.4896.88-1.1"
          ]
        }
      ],
      "CVSSScoreSets": {}
    },
    {
      "CVE": "CVE-2022-1310",
      "Description": "Use after free in regular expressions in Google Chrome prior to 100.0.4896.88 allowed a remote attacker to potentially exploit heap corruption via a crafted HTML page.",
      "Threats": [
        {
          "Type": "Impact",
          "Severity": "moderate"
        }
      ],
      "References": [
        {
          "URL": "https://www.suse.com/security/cve/CVE-2022-1310.html",
          "Description": "CVE-2022-1310"
        },
        {
          "URL": "https://bugzilla.suse.com/1198361",
          "Description": "SUSE Bug 1198361"
        }
      ],
      "ProductStatuses": [
        {
          "Type": "Fixed",
          "ProductID": [
            "openSUSE Tumbleweed:chromedriver-100.0.4896.88-1.1",
            "openSUSE Tumbleweed:chromium-100.0.4896.88-1.1"
          ]
        }
      ],
      "CVSSScoreSets": {}
    },
    {
      "CVE": "CVE-2022-1311",
      "Description": "Use after free in shell in Google Chrome on ChromeOS prior to 100.0.4896.88 allowed a remote attacker to potentially exploit heap corruption via a crafted HTML page.",
      "Threats": [
        {
          "Type": "Impact",
          "Severity": "moderate"
        }
      ],
      "References": [
        {
          "URL": "https://www.suse.com/security/cve/CVE-2022-1311.html",
          "Description": "CVE-2022-1311"
        },
        {
          "URL": "https://bugzilla.suse.com/1198361",
          "Description": "SUSE Bug 1198361"
        }
      ],
      "ProductStatuses": [
        {
          "Type": "Fixed",
          "ProductID": [
            "openSUSE Tumbleweed:chromedriver-100.0.4896.88-1.1",
            "openSUSE Tumbleweed:chromium-100.0.4896.88-1.1"
          ]
        }
      ],
      "CVSSScoreSets": {}
    },
    {
      "CVE": "CVE-2022-1312",
      "Description": "Use after free in storage in Google Chrome prior to 100.0.4896.88 allowed an attacker who convinced a user to install a malicious extension to potentially perform a sandbox escape via a crafted Chrome Extension.",
      "Threats": [
        {
          "Type": "Impact",
          "Severity": "moderate"
        }
      ],
      "References": [
        {
          "URL": "https://www.suse.com/security/cve/CVE-2022-1312.html",
          "Description": "CVE-2022-1312"
        },
        {
          "URL": "https://bugzilla.suse.com/1198361",
          "Description": "SUSE Bug 1198361"
        }
      ],
      "ProductStatuses": [
        {
          "Type": "Fixed",
          "ProductID": [
            "openSUSE Tumbleweed:chromedriver-100.0.4896.88-1.1",
            "openSUSE Tumbleweed:chromium-100.0.4896.88-1.1"
          ]
        }
      ],
      "CVSSScoreSets": {}
    },
    {
      "CVE": "CVE-2022-1313",
      "Description": "Use after free in tab groups in Google Chrome prior to 100.0.4896.88 allowed a remote attacker to potentially exploit heap corruption via a crafted HTML page.",
      "Threats": [
        {
          "Type": "Impact",
          "Severity": "moderate"
        }
      ],
      "References": [
        {
          "URL": "https://www.suse.com/security/cve/CVE-2022-1313.html",
          "Description": "CVE-2022-1313"
        },
        {
          "URL": "https://bugzilla.suse.com/1198361",
          "Description": "SUSE Bug 1198361"
        }
      ],
      "ProductStatuses": [
        {
          "Type": "Fixed",
          "ProductID": [
            "openSUSE Tumbleweed:chromedriver-100.0.4896.88-1.1",
            "openSUSE Tumbleweed:chromium-100.0.4896.88-1.1"
          ]
        }
      ],
      "CVSSScoreSets": {}
    },
    {
      "CVE": "CVE-2022-1314",
      "Description": "Type confusion in V8 in Google Chrome prior to 100.0.4896.88 allowed a remote attacker to potentially exploit heap corruption via a crafted HTML page.",
      "Threats": [
        {
          "Type": "Impact",
          "Severity": "moderate"
        }
      ],
      "References": [
        {
          "URL": "https://www.suse.com/security/cve/CVE-2022-1314.html",
          "Description": "CVE-2022-1314"
        },
        {
          "URL": "https://bugzilla.suse.com/1198361",
          "Description": "SUSE Bug 1198361"
        }
      ],
      "ProductStatuses": [
        {
          "Type": "Fixed",
          "ProductID": [
            "openSUSE Tumbleweed:chromedriver-100.0.4896.88-1.1",
            "openSUSE Tumbleweed:chromium-100.0.4896.88-1.1"
          ]
        }
      ],
      "CVSSScoreSets": {}
    }
  ]
}