{
  "Title": "qemu-7.0.0-53.1 on GA media",
  "Tracking": {
    "ID": "openSUSE-SU-2024:12209-1",
    "Status": "Final",
    "Version": "1",
    "InitialReleaseDate": "2024-06-20T21:44:22Z",
    "CurrentReleaseDate": "2024-06-20T21:44:22Z",
    "RevisionHistory": [
      {
        "Number": "1",
        "Date": "2024-06-20T21:44:22Z",
        "Description": "current"
      }
    ]
  },
  "Notes": [
    {
      "Text": "qemu-7.0.0-53.1 on GA media",
      "Title": "Topic",
      "Type": "Summary"
    },
    {
      "Text": "These are all security issues fixed in the qemu-7.0.0-53.1 package on the GA media of openSUSE Tumbleweed.",
      "Title": "Details",
      "Type": "General"
    },
    {
      "Text": "The CVRF data is provided by SUSE under the Creative Commons License 4.0 with Attribution (CC-BY-4.0).",
      "Title": "Terms of Use",
      "Type": "Legal Disclaimer"
    },
    {
      "Text": "openSUSE-Tumbleweed-2024-12209",
      "Title": "Patchnames",
      "Type": "Details"
    }
  ],
  "ProductTree": {
    "Relationships": [
      {
        "ProductReference": "qemu-7.0.0-53.1",
        "RelatesToProductReference": "openSUSE Tumbleweed",
        "RelationType": "Default Component Of"
      },
      {
        "ProductReference": "qemu-SLOF-7.0.0-53.1",
        "RelatesToProductReference": "openSUSE Tumbleweed",
        "RelationType": "Default Component Of"
      },
      {
        "ProductReference": "qemu-accel-qtest-7.0.0-53.1",
        "RelatesToProductReference": "openSUSE Tumbleweed",
        "RelationType": "Default Component Of"
      },
      {
        "ProductReference": "qemu-accel-tcg-x86-7.0.0-53.1",
        "RelatesToProductReference": "openSUSE Tumbleweed",
        "RelationType": "Default Component Of"
      },
      {
        "ProductReference": "qemu-arm-7.0.0-53.1",
        "RelatesToProductReference": "openSUSE Tumbleweed",
        "RelationType": "Default Component Of"
      },
      {
        "ProductReference": "qemu-audio-alsa-7.0.0-53.1",
        "RelatesToProductReference": "openSUSE Tumbleweed",
        "RelationType": "Default Component Of"
      },
      {
        "ProductReference": "qemu-audio-dbus-7.0.0-53.1",
        "RelatesToProductReference": "openSUSE Tumbleweed",
        "RelationType": "Default Component Of"
      },
      {
        "ProductReference": "qemu-audio-jack-7.0.0-53.1",
        "RelatesToProductReference": "openSUSE Tumbleweed",
        "RelationType": "Default Component Of"
      },
      {
        "ProductReference": "qemu-audio-oss-7.0.0-53.1",
        "RelatesToProductReference": "openSUSE Tumbleweed",
        "RelationType": "Default Component Of"
      },
      {
        "ProductReference": "qemu-audio-pa-7.0.0-53.1",
        "RelatesToProductReference": "openSUSE Tumbleweed",
        "RelationType": "Default Component Of"
      },
      {
        "ProductReference": "qemu-audio-spice-7.0.0-53.1",
        "RelatesToProductReference": "openSUSE Tumbleweed",
        "RelationType": "Default Component Of"
      },
      {
        "ProductReference": "qemu-block-curl-7.0.0-53.1",
        "RelatesToProductReference": "openSUSE Tumbleweed",
        "RelationType": "Default Component Of"
      },
      {
        "ProductReference": "qemu-block-dmg-7.0.0-53.1",
        "RelatesToProductReference": "openSUSE Tumbleweed",
        "RelationType": "Default Component Of"
      },
      {
        "ProductReference": "qemu-block-gluster-7.0.0-53.1",
        "RelatesToProductReference": "openSUSE Tumbleweed",
        "RelationType": "Default Component Of"
      },
      {
        "ProductReference": "qemu-block-iscsi-7.0.0-53.1",
        "RelatesToProductReference": "openSUSE Tumbleweed",
        "RelationType": "Default Component Of"
      },
      {
        "ProductReference": "qemu-block-nfs-7.0.0-53.1",
        "RelatesToProductReference": "openSUSE Tumbleweed",
        "RelationType": "Default Component Of"
      },
      {
        "ProductReference": "qemu-block-rbd-7.0.0-53.1",
        "RelatesToProductReference": "openSUSE Tumbleweed",
        "RelationType": "Default Component Of"
      },
      {
        "ProductReference": "qemu-block-ssh-7.0.0-53.1",
        "RelatesToProductReference": "openSUSE Tumbleweed",
        "RelationType": "Default Component Of"
      },
      {
        "ProductReference": "qemu-chardev-baum-7.0.0-53.1",
        "RelatesToProductReference": "openSUSE Tumbleweed",
        "RelationType": "Default Component Of"
      },
      {
        "ProductReference": "qemu-chardev-spice-7.0.0-53.1",
        "RelatesToProductReference": "openSUSE Tumbleweed",
        "RelationType": "Default Component Of"
      },
      {
        "ProductReference": "qemu-extra-7.0.0-53.1",
        "RelatesToProductReference": "openSUSE Tumbleweed",
        "RelationType": "Default Component Of"
      },
      {
        "ProductReference": "qemu-guest-agent-7.0.0-53.1",
        "RelatesToProductReference": "openSUSE Tumbleweed",
        "RelationType": "Default Component Of"
      },
      {
        "ProductReference": "qemu-hw-display-qxl-7.0.0-53.1",
        "RelatesToProductReference": "openSUSE Tumbleweed",
        "RelationType": "Default Component Of"
      },
      {
        "ProductReference": "qemu-hw-display-virtio-gpu-7.0.0-53.1",
        "RelatesToProductReference": "openSUSE Tumbleweed",
        "RelationType": "Default Component Of"
      },
      {
        "ProductReference": "qemu-hw-display-virtio-gpu-pci-7.0.0-53.1",
        "RelatesToProductReference": "openSUSE Tumbleweed",
        "RelationType": "Default Component Of"
      },
      {
        "ProductReference": "qemu-hw-display-virtio-vga-7.0.0-53.1",
        "RelatesToProductReference": "openSUSE Tumbleweed",
        "RelationType": "Default Component Of"
      },
      {
        "ProductReference": "qemu-hw-s390x-virtio-gpu-ccw-7.0.0-53.1",
        "RelatesToProductReference": "openSUSE Tumbleweed",
        "RelationType": "Default Component Of"
      },
      {
        "ProductReference": "qemu-hw-usb-host-7.0.0-53.1",
        "RelatesToProductReference": "openSUSE Tumbleweed",
        "RelationType": "Default Component Of"
      },
      {
        "ProductReference": "qemu-hw-usb-redirect-7.0.0-53.1",
        "RelatesToProductReference": "openSUSE Tumbleweed",
        "RelationType": "Default Component Of"
      },
      {
        "ProductReference": "qemu-hw-usb-smartcard-7.0.0-53.1",
        "RelatesToProductReference": "openSUSE Tumbleweed",
        "RelationType": "Default Component Of"
      },
      {
        "ProductReference": "qemu-ipxe-1.0.0+-53.1",
        "RelatesToProductReference": "openSUSE Tumbleweed",
        "RelationType": "Default Component Of"
      },
      {
        "ProductReference": "qemu-ivshmem-tools-7.0.0-53.1",
        "RelatesToProductReference": "openSUSE Tumbleweed",
        "RelationType": "Default Component Of"
      },
      {
        "ProductReference": "qemu-ksm-7.0.0-53.1",
        "RelatesToProductReference": "openSUSE Tumbleweed",
        "RelationType": "Default Component Of"
      },
      {
        "ProductReference": "qemu-kvm-7.0.0-53.1",
        "RelatesToProductReference": "openSUSE Tumbleweed",
        "RelationType": "Default Component Of"
      },
      {
        "ProductReference": "qemu-lang-7.0.0-53.1",
        "RelatesToProductReference": "openSUSE Tumbleweed",
        "RelationType": "Default Component Of"
      },
      {
        "ProductReference": "qemu-microvm-7.0.0-53.1",
        "RelatesToProductReference": "openSUSE Tumbleweed",
        "RelationType": "Default Component Of"
      },
      {
        "ProductReference": "qemu-ppc-7.0.0-53.1",
        "RelatesToProductReference": "openSUSE Tumbleweed",
        "RelationType": "Default Component Of"
      },
      {
        "ProductReference": "qemu-s390x-7.0.0-53.1",
        "RelatesToProductReference": "openSUSE Tumbleweed",
        "RelationType": "Default Component Of"
      },
      {
        "ProductReference": "qemu-seabios-1.16.0_0_gd239552-53.1",
        "RelatesToProductReference": "openSUSE Tumbleweed",
        "RelationType": "Default Component Of"
      },
      {
        "ProductReference": "qemu-sgabios-8-53.1",
        "RelatesToProductReference": "openSUSE Tumbleweed",
        "RelationType": "Default Component Of"
      },
      {
        "ProductReference": "qemu-skiboot-7.0.0-53.1",
        "RelatesToProductReference": "openSUSE Tumbleweed",
        "RelationType": "Default Component Of"
      },
      {
        "ProductReference": "qemu-tools-7.0.0-53.1",
        "RelatesToProductReference": "openSUSE Tumbleweed",
        "RelationType": "Default Component Of"
      },
      {
        "ProductReference": "qemu-ui-curses-7.0.0-53.1",
        "RelatesToProductReference": "openSUSE Tumbleweed",
        "RelationType": "Default Component Of"
      },
      {
        "ProductReference": "qemu-ui-dbus-7.0.0-53.1",
        "RelatesToProductReference": "openSUSE Tumbleweed",
        "RelationType": "Default Component Of"
      },
      {
        "ProductReference": "qemu-ui-gtk-7.0.0-53.1",
        "RelatesToProductReference": "openSUSE Tumbleweed",
        "RelationType": "Default Component Of"
      },
      {
        "ProductReference": "qemu-ui-opengl-7.0.0-53.1",
        "RelatesToProductReference": "openSUSE Tumbleweed",
        "RelationType": "Default Component Of"
      },
      {
        "ProductReference": "qemu-ui-spice-app-7.0.0-53.1",
        "RelatesToProductReference": "openSUSE Tumbleweed",
        "RelationType": "Default Component Of"
      },
      {
        "ProductReference": "qemu-ui-spice-core-7.0.0-53.1",
        "RelatesToProductReference": "openSUSE Tumbleweed",
        "RelationType": "Default Component Of"
      },
      {
        "ProductReference": "qemu-vgabios-1.16.0_0_gd239552-53.1",
        "RelatesToProductReference": "openSUSE Tumbleweed",
        "RelationType": "Default Component Of"
      },
      {
        "ProductReference": "qemu-vhost-user-gpu-7.0.0-53.1",
        "RelatesToProductReference": "openSUSE Tumbleweed",
        "RelationType": "Default Component Of"
      },
      {
        "ProductReference": "qemu-x86-7.0.0-53.1",
        "RelatesToProductReference": "openSUSE Tumbleweed",
        "RelationType": "Default Component Of"
      }
    ]
  },
  "References": [
    {
      "URL": "https://www.suse.com/support/security/rating/",
      "Description": "SUSE Security Ratings"
    },
    {
      "URL": "https://www.suse.com/security/cve/CVE-2021-4206/",
      "Description": "SUSE CVE CVE-2021-4206 page"
    },
    {
      "URL": "https://www.suse.com/security/cve/CVE-2021-4207/",
      "Description": "SUSE CVE CVE-2021-4207 page"
    },
    {
      "URL": "https://www.suse.com/security/cve/CVE-2022-0216/",
      "Description": "SUSE CVE CVE-2022-0216 page"
    },
    {
      "URL": "https://www.suse.com/security/cve/CVE-2022-26353/",
      "Description": "SUSE CVE CVE-2022-26353 page"
    },
    {
      "URL": "https://www.suse.com/security/cve/CVE-2022-26354/",
      "Description": "SUSE CVE CVE-2022-26354 page"
    },
    {
      "URL": "https://www.suse.com/security/cve/CVE-2022-35414/",
      "Description": "SUSE CVE CVE-2022-35414 page"
    }
  ],
  "Vulnerabilities": [
    {
      "CVE": "CVE-2021-4206",
      "Description": "A flaw was found in the QXL display device emulation in QEMU. An integer overflow in the cursor_alloc() function can lead to the allocation of a small cursor object followed by a subsequent heap-based buffer overflow. This flaw allows a malicious privileged guest user to crash the QEMU process on the host or potentially execute arbitrary code within the context of the QEMU process.",
      "Threats": [
        {
          "Type": "Impact",
          "Severity": "moderate"
        }
      ],
      "References": [
        {
          "URL": "https://www.suse.com/security/cve/CVE-2021-4206.html",
          "Description": "CVE-2021-4206"
        },
        {
          "URL": "https://bugzilla.suse.com/1198035",
          "Description": "SUSE Bug 1198035"
        },
        {
          "URL": "https://bugzilla.suse.com/1211582",
          "Description": "SUSE Bug 1211582"
        }
      ],
      "ProductStatuses": [
        {
          "Type": "Fixed",
          "ProductID": [
            "openSUSE Tumbleweed:qemu-7.0.0-53.1",
            "openSUSE Tumbleweed:qemu-SLOF-7.0.0-53.1",
            "openSUSE Tumbleweed:qemu-accel-qtest-7.0.0-53.1",
            "openSUSE Tumbleweed:qemu-accel-tcg-x86-7.0.0-53.1",
            "openSUSE Tumbleweed:qemu-arm-7.0.0-53.1",
            "openSUSE Tumbleweed:qemu-audio-alsa-7.0.0-53.1",
            "openSUSE Tumbleweed:qemu-audio-dbus-7.0.0-53.1",
            "openSUSE Tumbleweed:qemu-audio-jack-7.0.0-53.1",
            "openSUSE Tumbleweed:qemu-audio-oss-7.0.0-53.1",
            "openSUSE Tumbleweed:qemu-audio-pa-7.0.0-53.1",
            "openSUSE Tumbleweed:qemu-audio-spice-7.0.0-53.1",
            "openSUSE Tumbleweed:qemu-block-curl-7.0.0-53.1",
            "openSUSE Tumbleweed:qemu-block-dmg-7.0.0-53.1",
            "openSUSE Tumbleweed:qemu-block-gluster-7.0.0-53.1",
            "openSUSE Tumbleweed:qemu-block-iscsi-7.0.0-53.1",
            "openSUSE Tumbleweed:qemu-block-nfs-7.0.0-53.1",
            "openSUSE Tumbleweed:qemu-block-rbd-7.0.0-53.1",
            "openSUSE Tumbleweed:qemu-block-ssh-7.0.0-53.1",
            "openSUSE Tumbleweed:qemu-chardev-baum-7.0.0-53.1",
            "openSUSE Tumbleweed:qemu-chardev-spice-7.0.0-53.1",
            "openSUSE Tumbleweed:qemu-extra-7.0.0-53.1",
            "openSUSE Tumbleweed:qemu-guest-agent-7.0.0-53.1",
            "openSUSE Tumbleweed:qemu-hw-display-qxl-7.0.0-53.1",
            "openSUSE Tumbleweed:qemu-hw-display-virtio-gpu-7.0.0-53.1",
            "openSUSE Tumbleweed:qemu-hw-display-virtio-gpu-pci-7.0.0-53.1",
            "openSUSE Tumbleweed:qemu-hw-display-virtio-vga-7.0.0-53.1",
            "openSUSE Tumbleweed:qemu-hw-s390x-virtio-gpu-ccw-7.0.0-53.1",
            "openSUSE Tumbleweed:qemu-hw-usb-host-7.0.0-53.1",
            "openSUSE Tumbleweed:qemu-hw-usb-redirect-7.0.0-53.1",
            "openSUSE Tumbleweed:qemu-hw-usb-smartcard-7.0.0-53.1",
            "openSUSE Tumbleweed:qemu-ipxe-1.0.0+-53.1",
            "openSUSE Tumbleweed:qemu-ivshmem-tools-7.0.0-53.1",
            "openSUSE Tumbleweed:qemu-ksm-7.0.0-53.1",
            "openSUSE Tumbleweed:qemu-kvm-7.0.0-53.1",
            "openSUSE Tumbleweed:qemu-lang-7.0.0-53.1",
            "openSUSE Tumbleweed:qemu-microvm-7.0.0-53.1",
            "openSUSE Tumbleweed:qemu-ppc-7.0.0-53.1",
            "openSUSE Tumbleweed:qemu-s390x-7.0.0-53.1",
            "openSUSE Tumbleweed:qemu-seabios-1.16.0_0_gd239552-53.1",
            "openSUSE Tumbleweed:qemu-sgabios-8-53.1",
            "openSUSE Tumbleweed:qemu-skiboot-7.0.0-53.1",
            "openSUSE Tumbleweed:qemu-tools-7.0.0-53.1",
            "openSUSE Tumbleweed:qemu-ui-curses-7.0.0-53.1",
            "openSUSE Tumbleweed:qemu-ui-dbus-7.0.0-53.1",
            "openSUSE Tumbleweed:qemu-ui-gtk-7.0.0-53.1",
            "openSUSE Tumbleweed:qemu-ui-opengl-7.0.0-53.1",
            "openSUSE Tumbleweed:qemu-ui-spice-app-7.0.0-53.1",
            "openSUSE Tumbleweed:qemu-ui-spice-core-7.0.0-53.1",
            "openSUSE Tumbleweed:qemu-vgabios-1.16.0_0_gd239552-53.1",
            "openSUSE Tumbleweed:qemu-vhost-user-gpu-7.0.0-53.1",
            "openSUSE Tumbleweed:qemu-x86-7.0.0-53.1"
          ]
        }
      ],
      "CVSSScoreSets": {}
    },
    {
      "CVE": "CVE-2021-4207",
      "Description": "A flaw was found in the QXL display device emulation in QEMU. A double fetch of guest controlled values `cursor-\u003eheader.width` and `cursor-\u003eheader.height` can lead to the allocation of a small cursor object followed by a subsequent heap-based buffer overflow. A malicious privileged guest user could use this flaw to crash the QEMU process on the host or potentially execute arbitrary code within the context of the QEMU process.",
      "Threats": [
        {
          "Type": "Impact",
          "Severity": "moderate"
        }
      ],
      "References": [
        {
          "URL": "https://www.suse.com/security/cve/CVE-2021-4207.html",
          "Description": "CVE-2021-4207"
        },
        {
          "URL": "https://bugzilla.suse.com/1198037",
          "Description": "SUSE Bug 1198037"
        }
      ],
      "ProductStatuses": [
        {
          "Type": "Fixed",
          "ProductID": [
            "openSUSE Tumbleweed:qemu-7.0.0-53.1",
            "openSUSE Tumbleweed:qemu-SLOF-7.0.0-53.1",
            "openSUSE Tumbleweed:qemu-accel-qtest-7.0.0-53.1",
            "openSUSE Tumbleweed:qemu-accel-tcg-x86-7.0.0-53.1",
            "openSUSE Tumbleweed:qemu-arm-7.0.0-53.1",
            "openSUSE Tumbleweed:qemu-audio-alsa-7.0.0-53.1",
            "openSUSE Tumbleweed:qemu-audio-dbus-7.0.0-53.1",
            "openSUSE Tumbleweed:qemu-audio-jack-7.0.0-53.1",
            "openSUSE Tumbleweed:qemu-audio-oss-7.0.0-53.1",
            "openSUSE Tumbleweed:qemu-audio-pa-7.0.0-53.1",
            "openSUSE Tumbleweed:qemu-audio-spice-7.0.0-53.1",
            "openSUSE Tumbleweed:qemu-block-curl-7.0.0-53.1",
            "openSUSE Tumbleweed:qemu-block-dmg-7.0.0-53.1",
            "openSUSE Tumbleweed:qemu-block-gluster-7.0.0-53.1",
            "openSUSE Tumbleweed:qemu-block-iscsi-7.0.0-53.1",
            "openSUSE Tumbleweed:qemu-block-nfs-7.0.0-53.1",
            "openSUSE Tumbleweed:qemu-block-rbd-7.0.0-53.1",
            "openSUSE Tumbleweed:qemu-block-ssh-7.0.0-53.1",
            "openSUSE Tumbleweed:qemu-chardev-baum-7.0.0-53.1",
            "openSUSE Tumbleweed:qemu-chardev-spice-7.0.0-53.1",
            "openSUSE Tumbleweed:qemu-extra-7.0.0-53.1",
            "openSUSE Tumbleweed:qemu-guest-agent-7.0.0-53.1",
            "openSUSE Tumbleweed:qemu-hw-display-qxl-7.0.0-53.1",
            "openSUSE Tumbleweed:qemu-hw-display-virtio-gpu-7.0.0-53.1",
            "openSUSE Tumbleweed:qemu-hw-display-virtio-gpu-pci-7.0.0-53.1",
            "openSUSE Tumbleweed:qemu-hw-display-virtio-vga-7.0.0-53.1",
            "openSUSE Tumbleweed:qemu-hw-s390x-virtio-gpu-ccw-7.0.0-53.1",
            "openSUSE Tumbleweed:qemu-hw-usb-host-7.0.0-53.1",
            "openSUSE Tumbleweed:qemu-hw-usb-redirect-7.0.0-53.1",
            "openSUSE Tumbleweed:qemu-hw-usb-smartcard-7.0.0-53.1",
            "openSUSE Tumbleweed:qemu-ipxe-1.0.0+-53.1",
            "openSUSE Tumbleweed:qemu-ivshmem-tools-7.0.0-53.1",
            "openSUSE Tumbleweed:qemu-ksm-7.0.0-53.1",
            "openSUSE Tumbleweed:qemu-kvm-7.0.0-53.1",
            "openSUSE Tumbleweed:qemu-lang-7.0.0-53.1",
            "openSUSE Tumbleweed:qemu-microvm-7.0.0-53.1",
            "openSUSE Tumbleweed:qemu-ppc-7.0.0-53.1",
            "openSUSE Tumbleweed:qemu-s390x-7.0.0-53.1",
            "openSUSE Tumbleweed:qemu-seabios-1.16.0_0_gd239552-53.1",
            "openSUSE Tumbleweed:qemu-sgabios-8-53.1",
            "openSUSE Tumbleweed:qemu-skiboot-7.0.0-53.1",
            "openSUSE Tumbleweed:qemu-tools-7.0.0-53.1",
            "openSUSE Tumbleweed:qemu-ui-curses-7.0.0-53.1",
            "openSUSE Tumbleweed:qemu-ui-dbus-7.0.0-53.1",
            "openSUSE Tumbleweed:qemu-ui-gtk-7.0.0-53.1",
            "openSUSE Tumbleweed:qemu-ui-opengl-7.0.0-53.1",
            "openSUSE Tumbleweed:qemu-ui-spice-app-7.0.0-53.1",
            "openSUSE Tumbleweed:qemu-ui-spice-core-7.0.0-53.1",
            "openSUSE Tumbleweed:qemu-vgabios-1.16.0_0_gd239552-53.1",
            "openSUSE Tumbleweed:qemu-vhost-user-gpu-7.0.0-53.1",
            "openSUSE Tumbleweed:qemu-x86-7.0.0-53.1"
          ]
        }
      ],
      "CVSSScoreSets": {}
    },
    {
      "CVE": "CVE-2022-0216",
      "Description": "A use-after-free vulnerability was found in the LSI53C895A SCSI Host Bus Adapter emulation of QEMU. The flaw occurs while processing repeated messages to cancel the current SCSI request via the lsi_do_msgout function. This flaw allows a malicious privileged user within the guest to crash the QEMU process on the host, resulting in a denial of service.",
      "Threats": [
        {
          "Type": "Impact",
          "Severity": "moderate"
        }
      ],
      "References": [
        {
          "URL": "https://www.suse.com/security/cve/CVE-2022-0216.html",
          "Description": "CVE-2022-0216"
        },
        {
          "URL": "https://bugzilla.suse.com/1198038",
          "Description": "SUSE Bug 1198038"
        }
      ],
      "ProductStatuses": [
        {
          "Type": "Fixed",
          "ProductID": [
            "openSUSE Tumbleweed:qemu-7.0.0-53.1",
            "openSUSE Tumbleweed:qemu-SLOF-7.0.0-53.1",
            "openSUSE Tumbleweed:qemu-accel-qtest-7.0.0-53.1",
            "openSUSE Tumbleweed:qemu-accel-tcg-x86-7.0.0-53.1",
            "openSUSE Tumbleweed:qemu-arm-7.0.0-53.1",
            "openSUSE Tumbleweed:qemu-audio-alsa-7.0.0-53.1",
            "openSUSE Tumbleweed:qemu-audio-dbus-7.0.0-53.1",
            "openSUSE Tumbleweed:qemu-audio-jack-7.0.0-53.1",
            "openSUSE Tumbleweed:qemu-audio-oss-7.0.0-53.1",
            "openSUSE Tumbleweed:qemu-audio-pa-7.0.0-53.1",
            "openSUSE Tumbleweed:qemu-audio-spice-7.0.0-53.1",
            "openSUSE Tumbleweed:qemu-block-curl-7.0.0-53.1",
            "openSUSE Tumbleweed:qemu-block-dmg-7.0.0-53.1",
            "openSUSE Tumbleweed:qemu-block-gluster-7.0.0-53.1",
            "openSUSE Tumbleweed:qemu-block-iscsi-7.0.0-53.1",
            "openSUSE Tumbleweed:qemu-block-nfs-7.0.0-53.1",
            "openSUSE Tumbleweed:qemu-block-rbd-7.0.0-53.1",
            "openSUSE Tumbleweed:qemu-block-ssh-7.0.0-53.1",
            "openSUSE Tumbleweed:qemu-chardev-baum-7.0.0-53.1",
            "openSUSE Tumbleweed:qemu-chardev-spice-7.0.0-53.1",
            "openSUSE Tumbleweed:qemu-extra-7.0.0-53.1",
            "openSUSE Tumbleweed:qemu-guest-agent-7.0.0-53.1",
            "openSUSE Tumbleweed:qemu-hw-display-qxl-7.0.0-53.1",
            "openSUSE Tumbleweed:qemu-hw-display-virtio-gpu-7.0.0-53.1",
            "openSUSE Tumbleweed:qemu-hw-display-virtio-gpu-pci-7.0.0-53.1",
            "openSUSE Tumbleweed:qemu-hw-display-virtio-vga-7.0.0-53.1",
            "openSUSE Tumbleweed:qemu-hw-s390x-virtio-gpu-ccw-7.0.0-53.1",
            "openSUSE Tumbleweed:qemu-hw-usb-host-7.0.0-53.1",
            "openSUSE Tumbleweed:qemu-hw-usb-redirect-7.0.0-53.1",
            "openSUSE Tumbleweed:qemu-hw-usb-smartcard-7.0.0-53.1",
            "openSUSE Tumbleweed:qemu-ipxe-1.0.0+-53.1",
            "openSUSE Tumbleweed:qemu-ivshmem-tools-7.0.0-53.1",
            "openSUSE Tumbleweed:qemu-ksm-7.0.0-53.1",
            "openSUSE Tumbleweed:qemu-kvm-7.0.0-53.1",
            "openSUSE Tumbleweed:qemu-lang-7.0.0-53.1",
            "openSUSE Tumbleweed:qemu-microvm-7.0.0-53.1",
            "openSUSE Tumbleweed:qemu-ppc-7.0.0-53.1",
            "openSUSE Tumbleweed:qemu-s390x-7.0.0-53.1",
            "openSUSE Tumbleweed:qemu-seabios-1.16.0_0_gd239552-53.1",
            "openSUSE Tumbleweed:qemu-sgabios-8-53.1",
            "openSUSE Tumbleweed:qemu-skiboot-7.0.0-53.1",
            "openSUSE Tumbleweed:qemu-tools-7.0.0-53.1",
            "openSUSE Tumbleweed:qemu-ui-curses-7.0.0-53.1",
            "openSUSE Tumbleweed:qemu-ui-dbus-7.0.0-53.1",
            "openSUSE Tumbleweed:qemu-ui-gtk-7.0.0-53.1",
            "openSUSE Tumbleweed:qemu-ui-opengl-7.0.0-53.1",
            "openSUSE Tumbleweed:qemu-ui-spice-app-7.0.0-53.1",
            "openSUSE Tumbleweed:qemu-ui-spice-core-7.0.0-53.1",
            "openSUSE Tumbleweed:qemu-vgabios-1.16.0_0_gd239552-53.1",
            "openSUSE Tumbleweed:qemu-vhost-user-gpu-7.0.0-53.1",
            "openSUSE Tumbleweed:qemu-x86-7.0.0-53.1"
          ]
        }
      ],
      "CVSSScoreSets": {}
    },
    {
      "CVE": "CVE-2022-26353",
      "Description": "A flaw was found in the virtio-net device of QEMU. This flaw was inadvertently introduced with the fix for CVE-2021-3748, which forgot to unmap the cached virtqueue elements on error, leading to memory leakage and other unexpected results. Affected QEMU version: 6.2.0.",
      "Threats": [
        {
          "Type": "Impact",
          "Severity": "moderate"
        }
      ],
      "References": [
        {
          "URL": "https://www.suse.com/security/cve/CVE-2022-26353.html",
          "Description": "CVE-2022-26353"
        },
        {
          "URL": "https://bugzilla.suse.com/1198711",
          "Description": "SUSE Bug 1198711"
        }
      ],
      "ProductStatuses": [
        {
          "Type": "Fixed",
          "ProductID": [
            "openSUSE Tumbleweed:qemu-7.0.0-53.1",
            "openSUSE Tumbleweed:qemu-SLOF-7.0.0-53.1",
            "openSUSE Tumbleweed:qemu-accel-qtest-7.0.0-53.1",
            "openSUSE Tumbleweed:qemu-accel-tcg-x86-7.0.0-53.1",
            "openSUSE Tumbleweed:qemu-arm-7.0.0-53.1",
            "openSUSE Tumbleweed:qemu-audio-alsa-7.0.0-53.1",
            "openSUSE Tumbleweed:qemu-audio-dbus-7.0.0-53.1",
            "openSUSE Tumbleweed:qemu-audio-jack-7.0.0-53.1",
            "openSUSE Tumbleweed:qemu-audio-oss-7.0.0-53.1",
            "openSUSE Tumbleweed:qemu-audio-pa-7.0.0-53.1",
            "openSUSE Tumbleweed:qemu-audio-spice-7.0.0-53.1",
            "openSUSE Tumbleweed:qemu-block-curl-7.0.0-53.1",
            "openSUSE Tumbleweed:qemu-block-dmg-7.0.0-53.1",
            "openSUSE Tumbleweed:qemu-block-gluster-7.0.0-53.1",
            "openSUSE Tumbleweed:qemu-block-iscsi-7.0.0-53.1",
            "openSUSE Tumbleweed:qemu-block-nfs-7.0.0-53.1",
            "openSUSE Tumbleweed:qemu-block-rbd-7.0.0-53.1",
            "openSUSE Tumbleweed:qemu-block-ssh-7.0.0-53.1",
            "openSUSE Tumbleweed:qemu-chardev-baum-7.0.0-53.1",
            "openSUSE Tumbleweed:qemu-chardev-spice-7.0.0-53.1",
            "openSUSE Tumbleweed:qemu-extra-7.0.0-53.1",
            "openSUSE Tumbleweed:qemu-guest-agent-7.0.0-53.1",
            "openSUSE Tumbleweed:qemu-hw-display-qxl-7.0.0-53.1",
            "openSUSE Tumbleweed:qemu-hw-display-virtio-gpu-7.0.0-53.1",
            "openSUSE Tumbleweed:qemu-hw-display-virtio-gpu-pci-7.0.0-53.1",
            "openSUSE Tumbleweed:qemu-hw-display-virtio-vga-7.0.0-53.1",
            "openSUSE Tumbleweed:qemu-hw-s390x-virtio-gpu-ccw-7.0.0-53.1",
            "openSUSE Tumbleweed:qemu-hw-usb-host-7.0.0-53.1",
            "openSUSE Tumbleweed:qemu-hw-usb-redirect-7.0.0-53.1",
            "openSUSE Tumbleweed:qemu-hw-usb-smartcard-7.0.0-53.1",
            "openSUSE Tumbleweed:qemu-ipxe-1.0.0+-53.1",
            "openSUSE Tumbleweed:qemu-ivshmem-tools-7.0.0-53.1",
            "openSUSE Tumbleweed:qemu-ksm-7.0.0-53.1",
            "openSUSE Tumbleweed:qemu-kvm-7.0.0-53.1",
            "openSUSE Tumbleweed:qemu-lang-7.0.0-53.1",
            "openSUSE Tumbleweed:qemu-microvm-7.0.0-53.1",
            "openSUSE Tumbleweed:qemu-ppc-7.0.0-53.1",
            "openSUSE Tumbleweed:qemu-s390x-7.0.0-53.1",
            "openSUSE Tumbleweed:qemu-seabios-1.16.0_0_gd239552-53.1",
            "openSUSE Tumbleweed:qemu-sgabios-8-53.1",
            "openSUSE Tumbleweed:qemu-skiboot-7.0.0-53.1",
            "openSUSE Tumbleweed:qemu-tools-7.0.0-53.1",
            "openSUSE Tumbleweed:qemu-ui-curses-7.0.0-53.1",
            "openSUSE Tumbleweed:qemu-ui-dbus-7.0.0-53.1",
            "openSUSE Tumbleweed:qemu-ui-gtk-7.0.0-53.1",
            "openSUSE Tumbleweed:qemu-ui-opengl-7.0.0-53.1",
            "openSUSE Tumbleweed:qemu-ui-spice-app-7.0.0-53.1",
            "openSUSE Tumbleweed:qemu-ui-spice-core-7.0.0-53.1",
            "openSUSE Tumbleweed:qemu-vgabios-1.16.0_0_gd239552-53.1",
            "openSUSE Tumbleweed:qemu-vhost-user-gpu-7.0.0-53.1",
            "openSUSE Tumbleweed:qemu-x86-7.0.0-53.1"
          ]
        }
      ],
      "CVSSScoreSets": {}
    },
    {
      "CVE": "CVE-2022-26354",
      "Description": "A flaw was found in the vhost-vsock device of QEMU. In case of error, an invalid element was not detached from the virtqueue before freeing its memory, leading to memory leakage and other unexpected results. Affected QEMU versions \u003c= 6.2.0.",
      "Threats": [
        {
          "Type": "Impact",
          "Severity": "moderate"
        }
      ],
      "References": [
        {
          "URL": "https://www.suse.com/security/cve/CVE-2022-26354.html",
          "Description": "CVE-2022-26354"
        },
        {
          "URL": "https://bugzilla.suse.com/1198712",
          "Description": "SUSE Bug 1198712"
        }
      ],
      "ProductStatuses": [
        {
          "Type": "Fixed",
          "ProductID": [
            "openSUSE Tumbleweed:qemu-7.0.0-53.1",
            "openSUSE Tumbleweed:qemu-SLOF-7.0.0-53.1",
            "openSUSE Tumbleweed:qemu-accel-qtest-7.0.0-53.1",
            "openSUSE Tumbleweed:qemu-accel-tcg-x86-7.0.0-53.1",
            "openSUSE Tumbleweed:qemu-arm-7.0.0-53.1",
            "openSUSE Tumbleweed:qemu-audio-alsa-7.0.0-53.1",
            "openSUSE Tumbleweed:qemu-audio-dbus-7.0.0-53.1",
            "openSUSE Tumbleweed:qemu-audio-jack-7.0.0-53.1",
            "openSUSE Tumbleweed:qemu-audio-oss-7.0.0-53.1",
            "openSUSE Tumbleweed:qemu-audio-pa-7.0.0-53.1",
            "openSUSE Tumbleweed:qemu-audio-spice-7.0.0-53.1",
            "openSUSE Tumbleweed:qemu-block-curl-7.0.0-53.1",
            "openSUSE Tumbleweed:qemu-block-dmg-7.0.0-53.1",
            "openSUSE Tumbleweed:qemu-block-gluster-7.0.0-53.1",
            "openSUSE Tumbleweed:qemu-block-iscsi-7.0.0-53.1",
            "openSUSE Tumbleweed:qemu-block-nfs-7.0.0-53.1",
            "openSUSE Tumbleweed:qemu-block-rbd-7.0.0-53.1",
            "openSUSE Tumbleweed:qemu-block-ssh-7.0.0-53.1",
            "openSUSE Tumbleweed:qemu-chardev-baum-7.0.0-53.1",
            "openSUSE Tumbleweed:qemu-chardev-spice-7.0.0-53.1",
            "openSUSE Tumbleweed:qemu-extra-7.0.0-53.1",
            "openSUSE Tumbleweed:qemu-guest-agent-7.0.0-53.1",
            "openSUSE Tumbleweed:qemu-hw-display-qxl-7.0.0-53.1",
            "openSUSE Tumbleweed:qemu-hw-display-virtio-gpu-7.0.0-53.1",
            "openSUSE Tumbleweed:qemu-hw-display-virtio-gpu-pci-7.0.0-53.1",
            "openSUSE Tumbleweed:qemu-hw-display-virtio-vga-7.0.0-53.1",
            "openSUSE Tumbleweed:qemu-hw-s390x-virtio-gpu-ccw-7.0.0-53.1",
            "openSUSE Tumbleweed:qemu-hw-usb-host-7.0.0-53.1",
            "openSUSE Tumbleweed:qemu-hw-usb-redirect-7.0.0-53.1",
            "openSUSE Tumbleweed:qemu-hw-usb-smartcard-7.0.0-53.1",
            "openSUSE Tumbleweed:qemu-ipxe-1.0.0+-53.1",
            "openSUSE Tumbleweed:qemu-ivshmem-tools-7.0.0-53.1",
            "openSUSE Tumbleweed:qemu-ksm-7.0.0-53.1",
            "openSUSE Tumbleweed:qemu-kvm-7.0.0-53.1",
            "openSUSE Tumbleweed:qemu-lang-7.0.0-53.1",
            "openSUSE Tumbleweed:qemu-microvm-7.0.0-53.1",
            "openSUSE Tumbleweed:qemu-ppc-7.0.0-53.1",
            "openSUSE Tumbleweed:qemu-s390x-7.0.0-53.1",
            "openSUSE Tumbleweed:qemu-seabios-1.16.0_0_gd239552-53.1",
            "openSUSE Tumbleweed:qemu-sgabios-8-53.1",
            "openSUSE Tumbleweed:qemu-skiboot-7.0.0-53.1",
            "openSUSE Tumbleweed:qemu-tools-7.0.0-53.1",
            "openSUSE Tumbleweed:qemu-ui-curses-7.0.0-53.1",
            "openSUSE Tumbleweed:qemu-ui-dbus-7.0.0-53.1",
            "openSUSE Tumbleweed:qemu-ui-gtk-7.0.0-53.1",
            "openSUSE Tumbleweed:qemu-ui-opengl-7.0.0-53.1",
            "openSUSE Tumbleweed:qemu-ui-spice-app-7.0.0-53.1",
            "openSUSE Tumbleweed:qemu-ui-spice-core-7.0.0-53.1",
            "openSUSE Tumbleweed:qemu-vgabios-1.16.0_0_gd239552-53.1",
            "openSUSE Tumbleweed:qemu-vhost-user-gpu-7.0.0-53.1",
            "openSUSE Tumbleweed:qemu-x86-7.0.0-53.1"
          ]
        }
      ],
      "CVSSScoreSets": {}
    },
    {
      "CVE": "CVE-2022-35414",
      "Description": "** DISPUTED ** softmmu/physmem.c in QEMU through 7.0.0 can perform an uninitialized read on the translate_fail path, leading to an io_readx or io_writex crash. NOTE: a third party states that the Non-virtualization Use Case in the qemu.org reference applies here, i.e., \"Bugs affecting the non-virtualization use case are not considered security bugs at this time.\"",
      "Threats": [
        {
          "Type": "Impact",
          "Severity": "moderate"
        }
      ],
      "References": [
        {
          "URL": "https://www.suse.com/security/cve/CVE-2022-35414.html",
          "Description": "CVE-2022-35414"
        },
        {
          "URL": "https://bugzilla.suse.com/1201367",
          "Description": "SUSE Bug 1201367"
        }
      ],
      "ProductStatuses": [
        {
          "Type": "Fixed",
          "ProductID": [
            "openSUSE Tumbleweed:qemu-7.0.0-53.1",
            "openSUSE Tumbleweed:qemu-SLOF-7.0.0-53.1",
            "openSUSE Tumbleweed:qemu-accel-qtest-7.0.0-53.1",
            "openSUSE Tumbleweed:qemu-accel-tcg-x86-7.0.0-53.1",
            "openSUSE Tumbleweed:qemu-arm-7.0.0-53.1",
            "openSUSE Tumbleweed:qemu-audio-alsa-7.0.0-53.1",
            "openSUSE Tumbleweed:qemu-audio-dbus-7.0.0-53.1",
            "openSUSE Tumbleweed:qemu-audio-jack-7.0.0-53.1",
            "openSUSE Tumbleweed:qemu-audio-oss-7.0.0-53.1",
            "openSUSE Tumbleweed:qemu-audio-pa-7.0.0-53.1",
            "openSUSE Tumbleweed:qemu-audio-spice-7.0.0-53.1",
            "openSUSE Tumbleweed:qemu-block-curl-7.0.0-53.1",
            "openSUSE Tumbleweed:qemu-block-dmg-7.0.0-53.1",
            "openSUSE Tumbleweed:qemu-block-gluster-7.0.0-53.1",
            "openSUSE Tumbleweed:qemu-block-iscsi-7.0.0-53.1",
            "openSUSE Tumbleweed:qemu-block-nfs-7.0.0-53.1",
            "openSUSE Tumbleweed:qemu-block-rbd-7.0.0-53.1",
            "openSUSE Tumbleweed:qemu-block-ssh-7.0.0-53.1",
            "openSUSE Tumbleweed:qemu-chardev-baum-7.0.0-53.1",
            "openSUSE Tumbleweed:qemu-chardev-spice-7.0.0-53.1",
            "openSUSE Tumbleweed:qemu-extra-7.0.0-53.1",
            "openSUSE Tumbleweed:qemu-guest-agent-7.0.0-53.1",
            "openSUSE Tumbleweed:qemu-hw-display-qxl-7.0.0-53.1",
            "openSUSE Tumbleweed:qemu-hw-display-virtio-gpu-7.0.0-53.1",
            "openSUSE Tumbleweed:qemu-hw-display-virtio-gpu-pci-7.0.0-53.1",
            "openSUSE Tumbleweed:qemu-hw-display-virtio-vga-7.0.0-53.1",
            "openSUSE Tumbleweed:qemu-hw-s390x-virtio-gpu-ccw-7.0.0-53.1",
            "openSUSE Tumbleweed:qemu-hw-usb-host-7.0.0-53.1",
            "openSUSE Tumbleweed:qemu-hw-usb-redirect-7.0.0-53.1",
            "openSUSE Tumbleweed:qemu-hw-usb-smartcard-7.0.0-53.1",
            "openSUSE Tumbleweed:qemu-ipxe-1.0.0+-53.1",
            "openSUSE Tumbleweed:qemu-ivshmem-tools-7.0.0-53.1",
            "openSUSE Tumbleweed:qemu-ksm-7.0.0-53.1",
            "openSUSE Tumbleweed:qemu-kvm-7.0.0-53.1",
            "openSUSE Tumbleweed:qemu-lang-7.0.0-53.1",
            "openSUSE Tumbleweed:qemu-microvm-7.0.0-53.1",
            "openSUSE Tumbleweed:qemu-ppc-7.0.0-53.1",
            "openSUSE Tumbleweed:qemu-s390x-7.0.0-53.1",
            "openSUSE Tumbleweed:qemu-seabios-1.16.0_0_gd239552-53.1",
            "openSUSE Tumbleweed:qemu-sgabios-8-53.1",
            "openSUSE Tumbleweed:qemu-skiboot-7.0.0-53.1",
            "openSUSE Tumbleweed:qemu-tools-7.0.0-53.1",
            "openSUSE Tumbleweed:qemu-ui-curses-7.0.0-53.1",
            "openSUSE Tumbleweed:qemu-ui-dbus-7.0.0-53.1",
            "openSUSE Tumbleweed:qemu-ui-gtk-7.0.0-53.1",
            "openSUSE Tumbleweed:qemu-ui-opengl-7.0.0-53.1",
            "openSUSE Tumbleweed:qemu-ui-spice-app-7.0.0-53.1",
            "openSUSE Tumbleweed:qemu-ui-spice-core-7.0.0-53.1",
            "openSUSE Tumbleweed:qemu-vgabios-1.16.0_0_gd239552-53.1",
            "openSUSE Tumbleweed:qemu-vhost-user-gpu-7.0.0-53.1",
            "openSUSE Tumbleweed:qemu-x86-7.0.0-53.1"
          ]
        }
      ],
      "CVSSScoreSets": {}
    }
  ]
}