{
  "Title": "xen-4.17.0_04-3.1 on GA media",
  "Tracking": {
    "ID": "openSUSE-SU-2024:12715-1",
    "Status": "Final",
    "Version": "1",
    "InitialReleaseDate": "2024-06-20T21:44:22Z",
    "CurrentReleaseDate": "2024-06-20T21:44:22Z",
    "RevisionHistory": [
      {
        "Number": "1",
        "Date": "2024-06-20T21:44:22Z",
        "Description": "current"
      }
    ]
  },
  "Notes": [
    {
      "Text": "xen-4.17.0_04-3.1 on GA media",
      "Title": "Topic",
      "Type": "Summary"
    },
    {
      "Text": "These are all security issues fixed in the xen-4.17.0_04-3.1 package on the GA media of openSUSE Tumbleweed.",
      "Title": "Details",
      "Type": "General"
    },
    {
      "Text": "The CVRF data is provided by SUSE under the Creative Commons License 4.0 with Attribution (CC-BY-4.0).",
      "Title": "Terms of Use",
      "Type": "Legal Disclaimer"
    },
    {
      "Text": "openSUSE-Tumbleweed-2024-12715",
      "Title": "Patchnames",
      "Type": "Details"
    }
  ],
  "ProductTree": {
    "Relationships": [
      {
        "ProductReference": "xen-4.17.0_04-3.1",
        "RelatesToProductReference": "openSUSE Tumbleweed",
        "RelationType": "Default Component Of"
      },
      {
        "ProductReference": "xen-devel-4.17.0_04-3.1",
        "RelatesToProductReference": "openSUSE Tumbleweed",
        "RelationType": "Default Component Of"
      },
      {
        "ProductReference": "xen-doc-html-4.17.0_04-3.1",
        "RelatesToProductReference": "openSUSE Tumbleweed",
        "RelationType": "Default Component Of"
      },
      {
        "ProductReference": "xen-libs-4.17.0_04-3.1",
        "RelatesToProductReference": "openSUSE Tumbleweed",
        "RelationType": "Default Component Of"
      },
      {
        "ProductReference": "xen-libs-32bit-4.17.0_04-3.1",
        "RelatesToProductReference": "openSUSE Tumbleweed",
        "RelationType": "Default Component Of"
      },
      {
        "ProductReference": "xen-tools-4.17.0_04-3.1",
        "RelatesToProductReference": "openSUSE Tumbleweed",
        "RelationType": "Default Component Of"
      },
      {
        "ProductReference": "xen-tools-domU-4.17.0_04-3.1",
        "RelatesToProductReference": "openSUSE Tumbleweed",
        "RelationType": "Default Component Of"
      },
      {
        "ProductReference": "xen-tools-xendomains-wait-disk-4.17.0_04-3.1",
        "RelatesToProductReference": "openSUSE Tumbleweed",
        "RelationType": "Default Component Of"
      }
    ]
  },
  "References": [
    {
      "URL": "https://www.suse.com/support/security/rating/",
      "Description": "SUSE Security Ratings"
    },
    {
      "URL": "https://www.suse.com/security/cve/CVE-2022-27672/",
      "Description": "SUSE CVE CVE-2022-27672 page"
    }
  ],
  "Vulnerabilities": [
    {
      "CVE": "CVE-2022-27672",
      "Description": "\nWhen SMT is enabled, certain AMD processors may speculatively execute instructions using a target\nfrom the sibling thread after an SMT mode switch potentially resulting in information disclosure.\n\n\n",
      "Threats": [
        {
          "Type": "Impact",
          "Severity": "moderate"
        }
      ],
      "References": [
        {
          "URL": "https://www.suse.com/security/cve/CVE-2022-27672.html",
          "Description": "CVE-2022-27672"
        },
        {
          "URL": "https://bugzilla.suse.com/1208286",
          "Description": "SUSE Bug 1208286"
        }
      ],
      "ProductStatuses": [
        {
          "Type": "Fixed",
          "ProductID": [
            "openSUSE Tumbleweed:xen-4.17.0_04-3.1",
            "openSUSE Tumbleweed:xen-devel-4.17.0_04-3.1",
            "openSUSE Tumbleweed:xen-doc-html-4.17.0_04-3.1",
            "openSUSE Tumbleweed:xen-libs-32bit-4.17.0_04-3.1",
            "openSUSE Tumbleweed:xen-libs-4.17.0_04-3.1",
            "openSUSE Tumbleweed:xen-tools-4.17.0_04-3.1",
            "openSUSE Tumbleweed:xen-tools-domU-4.17.0_04-3.1",
            "openSUSE Tumbleweed:xen-tools-xendomains-wait-disk-4.17.0_04-3.1"
          ]
        }
      ],
      "CVSSScoreSets": {}
    }
  ]
}