{
  "Title": "libruby2_7-2_7-2.7.3-3.2 on GA media",
  "Tracking": {
    "ID": "openSUSE-SU-2024:11310-1",
    "Status": "Final",
    "Version": "1",
    "InitialReleaseDate": "2024-06-22T21:44:56Z",
    "CurrentReleaseDate": "2024-06-22T21:44:56Z",
    "RevisionHistory": [
      {
        "Number": "1",
        "Date": "2024-06-22T21:44:56Z",
        "Description": "current"
      }
    ]
  },
  "Notes": [
    {
      "Text": "libruby2_7-2_7-2.7.3-3.2 on GA media",
      "Title": "Topic",
      "Type": "Summary"
    },
    {
      "Text": "These are all security issues fixed in the libruby2_7-2_7-2.7.3-3.2 package on the GA media of openSUSE Tumbleweed.",
      "Title": "Details",
      "Type": "General"
    },
    {
      "Text": "The CVRF data is provided by SUSE under the Creative Commons License 4.0 with Attribution (CC-BY-4.0).",
      "Title": "Terms of Use",
      "Type": "Legal Disclaimer"
    },
    {
      "Text": "openSUSE-Tumbleweed-2024-11310",
      "Title": "Patchnames",
      "Type": "Details"
    }
  ],
  "ProductTree": {
    "Relationships": [
      {
        "ProductReference": "libruby2_7-2_7-2.7.3-3.2",
        "RelatesToProductReference": "openSUSE Tumbleweed",
        "RelationType": "Default Component Of"
      },
      {
        "ProductReference": "ruby2.7-2.7.3-3.2",
        "RelatesToProductReference": "openSUSE Tumbleweed",
        "RelationType": "Default Component Of"
      },
      {
        "ProductReference": "ruby2.7-devel-2.7.3-3.2",
        "RelatesToProductReference": "openSUSE Tumbleweed",
        "RelationType": "Default Component Of"
      },
      {
        "ProductReference": "ruby2.7-devel-extra-2.7.3-3.2",
        "RelatesToProductReference": "openSUSE Tumbleweed",
        "RelationType": "Default Component Of"
      },
      {
        "ProductReference": "ruby2.7-doc-2.7.3-3.2",
        "RelatesToProductReference": "openSUSE Tumbleweed",
        "RelationType": "Default Component Of"
      },
      {
        "ProductReference": "ruby2.7-doc-ri-2.7.3-3.2",
        "RelatesToProductReference": "openSUSE Tumbleweed",
        "RelationType": "Default Component Of"
      }
    ]
  },
  "References": [
    {
      "URL": "https://www.suse.com/support/security/rating/",
      "Description": "SUSE Security Ratings"
    },
    {
      "URL": "https://www.suse.com/security/cve/CVE-2020-10663/",
      "Description": "SUSE CVE CVE-2020-10663 page"
    },
    {
      "URL": "https://www.suse.com/security/cve/CVE-2020-10933/",
      "Description": "SUSE CVE CVE-2020-10933 page"
    },
    {
      "URL": "https://www.suse.com/security/cve/CVE-2020-25613/",
      "Description": "SUSE CVE CVE-2020-25613 page"
    },
    {
      "URL": "https://www.suse.com/security/cve/CVE-2021-28965/",
      "Description": "SUSE CVE CVE-2021-28965 page"
    }
  ],
  "Vulnerabilities": [
    {
      "CVE": "CVE-2020-10663",
      "Description": "The JSON gem through 2.2.0 for Ruby, as used in Ruby 2.4 through 2.4.9, 2.5 through 2.5.7, and 2.6 through 2.6.5, has an Unsafe Object Creation Vulnerability. This is quite similar to CVE-2013-0269, but does not rely on poor garbage-collection behavior within Ruby. Specifically, use of JSON parsing methods can lead to creation of a malicious object within the interpreter, with adverse effects that are application-dependent.",
      "Threats": [
        {
          "Type": "Impact",
          "Severity": "important"
        }
      ],
      "References": [
        {
          "URL": "https://www.suse.com/security/cve/CVE-2020-10663.html",
          "Description": "CVE-2020-10663"
        },
        {
          "URL": "https://bugzilla.suse.com/1167244",
          "Description": "SUSE Bug 1167244"
        },
        {
          "URL": "https://bugzilla.suse.com/1171517",
          "Description": "SUSE Bug 1171517"
        }
      ],
      "ProductStatuses": [
        {
          "Type": "Fixed",
          "ProductID": [
            "openSUSE Tumbleweed:libruby2_7-2_7-2.7.3-3.2",
            "openSUSE Tumbleweed:ruby2.7-2.7.3-3.2",
            "openSUSE Tumbleweed:ruby2.7-devel-2.7.3-3.2",
            "openSUSE Tumbleweed:ruby2.7-devel-extra-2.7.3-3.2",
            "openSUSE Tumbleweed:ruby2.7-doc-2.7.3-3.2",
            "openSUSE Tumbleweed:ruby2.7-doc-ri-2.7.3-3.2"
          ]
        }
      ],
      "CVSSScoreSets": {}
    },
    {
      "CVE": "CVE-2020-10933",
      "Description": "An issue was discovered in Ruby 2.5.x through 2.5.7, 2.6.x through 2.6.5, and 2.7.0. If a victim calls BasicSocket#read_nonblock(requested_size, buffer, exception: false), the method resizes the buffer to fit the requested size, but no data is copied. Thus, the buffer string provides the previous value of the heap. This may expose possibly sensitive data from the interpreter.",
      "Threats": [
        {
          "Type": "Impact",
          "Severity": "moderate"
        }
      ],
      "References": [
        {
          "URL": "https://www.suse.com/security/cve/CVE-2020-10933.html",
          "Description": "CVE-2020-10933"
        },
        {
          "URL": "https://bugzilla.suse.com/1168938",
          "Description": "SUSE Bug 1168938"
        }
      ],
      "ProductStatuses": [
        {
          "Type": "Fixed",
          "ProductID": [
            "openSUSE Tumbleweed:libruby2_7-2_7-2.7.3-3.2",
            "openSUSE Tumbleweed:ruby2.7-2.7.3-3.2",
            "openSUSE Tumbleweed:ruby2.7-devel-2.7.3-3.2",
            "openSUSE Tumbleweed:ruby2.7-devel-extra-2.7.3-3.2",
            "openSUSE Tumbleweed:ruby2.7-doc-2.7.3-3.2",
            "openSUSE Tumbleweed:ruby2.7-doc-ri-2.7.3-3.2"
          ]
        }
      ],
      "CVSSScoreSets": {}
    },
    {
      "CVE": "CVE-2020-25613",
      "Description": "An issue was discovered in Ruby through 2.5.8, 2.6.x through 2.6.6, and 2.7.x through 2.7.1. WEBrick, a simple HTTP server bundled with Ruby, had not checked the transfer-encoding header value rigorously. An attacker may potentially exploit this issue to bypass a reverse proxy (which also has a poor header check), which may lead to an HTTP Request Smuggling attack.",
      "Threats": [
        {
          "Type": "Impact",
          "Severity": "moderate"
        }
      ],
      "References": [
        {
          "URL": "https://www.suse.com/security/cve/CVE-2020-25613.html",
          "Description": "CVE-2020-25613"
        },
        {
          "URL": "https://bugzilla.suse.com/1177125",
          "Description": "SUSE Bug 1177125"
        }
      ],
      "ProductStatuses": [
        {
          "Type": "Fixed",
          "ProductID": [
            "openSUSE Tumbleweed:libruby2_7-2_7-2.7.3-3.2",
            "openSUSE Tumbleweed:ruby2.7-2.7.3-3.2",
            "openSUSE Tumbleweed:ruby2.7-devel-2.7.3-3.2",
            "openSUSE Tumbleweed:ruby2.7-devel-extra-2.7.3-3.2",
            "openSUSE Tumbleweed:ruby2.7-doc-2.7.3-3.2",
            "openSUSE Tumbleweed:ruby2.7-doc-ri-2.7.3-3.2"
          ]
        }
      ],
      "CVSSScoreSets": {}
    },
    {
      "CVE": "CVE-2021-28965",
      "Description": "The REXML gem before 3.2.5 in Ruby before 2.6.7, 2.7.x before 2.7.3, and 3.x before 3.0.1 does not properly address XML round-trip issues. An incorrect document can be produced after parsing and serializing.",
      "Threats": [
        {
          "Type": "Impact",
          "Severity": "moderate"
        }
      ],
      "References": [
        {
          "URL": "https://www.suse.com/security/cve/CVE-2021-28965.html",
          "Description": "CVE-2021-28965"
        },
        {
          "URL": "https://bugzilla.suse.com/1184644",
          "Description": "SUSE Bug 1184644"
        }
      ],
      "ProductStatuses": [
        {
          "Type": "Fixed",
          "ProductID": [
            "openSUSE Tumbleweed:libruby2_7-2_7-2.7.3-3.2",
            "openSUSE Tumbleweed:ruby2.7-2.7.3-3.2",
            "openSUSE Tumbleweed:ruby2.7-devel-2.7.3-3.2",
            "openSUSE Tumbleweed:ruby2.7-devel-extra-2.7.3-3.2",
            "openSUSE Tumbleweed:ruby2.7-doc-2.7.3-3.2",
            "openSUSE Tumbleweed:ruby2.7-doc-ri-2.7.3-3.2"
          ]
        }
      ],
      "CVSSScoreSets": {}
    }
  ]
}