{
  "Title": "MozillaThunderbird-115.8.1-1.1 on GA media",
  "Tracking": {
    "ID": "openSUSE-SU-2024:13753-1",
    "Status": "Final",
    "Version": "1",
    "InitialReleaseDate": "2024-06-20T21:44:22Z",
    "CurrentReleaseDate": "2024-06-20T21:44:22Z",
    "RevisionHistory": [
      {
        "Number": "1",
        "Date": "2024-06-20T21:44:22Z",
        "Description": "current"
      }
    ]
  },
  "Notes": [
    {
      "Text": "MozillaThunderbird-115.8.1-1.1 on GA media",
      "Title": "Topic",
      "Type": "Summary"
    },
    {
      "Text": "These are all security issues fixed in the MozillaThunderbird-115.8.1-1.1 package on the GA media of openSUSE Tumbleweed.",
      "Title": "Details",
      "Type": "General"
    },
    {
      "Text": "The CVRF data is provided by SUSE under the Creative Commons License 4.0 with Attribution (CC-BY-4.0).",
      "Title": "Terms of Use",
      "Type": "Legal Disclaimer"
    },
    {
      "Text": "openSUSE-Tumbleweed-2024-13753",
      "Title": "Patchnames",
      "Type": "Details"
    }
  ],
  "ProductTree": {
    "Relationships": [
      {
        "ProductReference": "MozillaThunderbird-115.8.1-1.1",
        "RelatesToProductReference": "openSUSE Tumbleweed",
        "RelationType": "Default Component Of"
      },
      {
        "ProductReference": "MozillaThunderbird-translations-common-115.8.1-1.1",
        "RelatesToProductReference": "openSUSE Tumbleweed",
        "RelationType": "Default Component Of"
      },
      {
        "ProductReference": "MozillaThunderbird-translations-other-115.8.1-1.1",
        "RelatesToProductReference": "openSUSE Tumbleweed",
        "RelationType": "Default Component Of"
      }
    ]
  },
  "References": [
    {
      "URL": "https://www.suse.com/support/security/rating/",
      "Description": "SUSE Security Ratings"
    },
    {
      "URL": "https://www.suse.com/security/cve/CVE-2024-1936/",
      "Description": "SUSE CVE CVE-2024-1936 page"
    }
  ],
  "Vulnerabilities": [
    {
      "CVE": "CVE-2024-1936",
      "Description": "The encrypted subject of an email message could be incorrectly and permanently assigned to an arbitrary other email message in Thunderbird's local cache. Consequently, when replying to the contaminated email message, the user might accidentally leak the confidential subject to a third party. While this update fixes the bug and avoids future message contamination, it does not automatically repair existing contaminations. Users are advised to use the repair folder functionality, which is available from the context menu of email folders, which will erase incorrect subject assignments. This vulnerability affects Thunderbird \u003c 115.8.1.",
      "Threats": [
        {
          "Type": "Impact",
          "Severity": "moderate"
        }
      ],
      "References": [
        {
          "URL": "https://www.suse.com/security/cve/CVE-2024-1936.html",
          "Description": "CVE-2024-1936"
        },
        {
          "URL": "https://bugzilla.suse.com/1221054",
          "Description": "SUSE Bug 1221054"
        }
      ],
      "ProductStatuses": [
        {
          "Type": "Fixed",
          "ProductID": [
            "openSUSE Tumbleweed:MozillaThunderbird-115.8.1-1.1",
            "openSUSE Tumbleweed:MozillaThunderbird-translations-common-115.8.1-1.1",
            "openSUSE Tumbleweed:MozillaThunderbird-translations-other-115.8.1-1.1"
          ]
        }
      ],
      "CVSSScoreSets": {}
    }
  ]
}