{
  "Title": "nodejs-electron-21.3.2-2.1 on GA media",
  "Tracking": {
    "ID": "openSUSE-SU-2024:12554-1",
    "Status": "Final",
    "Version": "1",
    "InitialReleaseDate": "2024-06-20T21:44:22Z",
    "CurrentReleaseDate": "2024-06-20T21:44:22Z",
    "RevisionHistory": [
      {
        "Number": "1",
        "Date": "2024-06-20T21:44:22Z",
        "Description": "current"
      }
    ]
  },
  "Notes": [
    {
      "Text": "nodejs-electron-21.3.2-2.1 on GA media",
      "Title": "Topic",
      "Type": "Summary"
    },
    {
      "Text": "These are all security issues fixed in the nodejs-electron-21.3.2-2.1 package on the GA media of openSUSE Tumbleweed.",
      "Title": "Details",
      "Type": "General"
    },
    {
      "Text": "The CVRF data is provided by SUSE under the Creative Commons License 4.0 with Attribution (CC-BY-4.0).",
      "Title": "Terms of Use",
      "Type": "Legal Disclaimer"
    },
    {
      "Text": "openSUSE-Tumbleweed-2024-12554",
      "Title": "Patchnames",
      "Type": "Details"
    }
  ],
  "ProductTree": {
    "Relationships": [
      {
        "ProductReference": "nodejs-electron-21.3.2-2.1",
        "RelatesToProductReference": "openSUSE Tumbleweed",
        "RelationType": "Default Component Of"
      },
      {
        "ProductReference": "nodejs-electron-devel-21.3.2-2.1",
        "RelatesToProductReference": "openSUSE Tumbleweed",
        "RelationType": "Default Component Of"
      },
      {
        "ProductReference": "nodejs-electron-doc-21.3.2-2.1",
        "RelatesToProductReference": "openSUSE Tumbleweed",
        "RelationType": "Default Component Of"
      }
    ]
  },
  "References": [
    {
      "URL": "https://www.suse.com/support/security/rating/",
      "Description": "SUSE Security Ratings"
    },
    {
      "URL": "https://www.suse.com/security/cve/CVE-2022-43548/",
      "Description": "SUSE CVE CVE-2022-43548 page"
    }
  ],
  "Vulnerabilities": [
    {
      "CVE": "CVE-2022-43548",
      "Description": "A OS Command Injection vulnerability exists in Node.js versions \u003c14.21.1, \u003c16.18.1, \u003c18.12.1, \u003c19.0.1 due to an insufficient IsAllowedHost check that can easily be bypassed because IsIPAddress does not properly check if an IP address is invalid before making DBS requests allowing rebinding attacks.The fix for this issue in https://cve.mitre.org/cgi-bin/cvename.cgi?name=CVE-2022-32212 was incomplete and this new CVE is to complete the fix.",
      "Threats": [
        {
          "Type": "Impact",
          "Severity": "important"
        }
      ],
      "References": [
        {
          "URL": "https://www.suse.com/security/cve/CVE-2022-43548.html",
          "Description": "CVE-2022-43548"
        },
        {
          "URL": "https://bugzilla.suse.com/1205119",
          "Description": "SUSE Bug 1205119"
        }
      ],
      "ProductStatuses": [
        {
          "Type": "Fixed",
          "ProductID": [
            "openSUSE Tumbleweed:nodejs-electron-21.3.2-2.1",
            "openSUSE Tumbleweed:nodejs-electron-devel-21.3.2-2.1",
            "openSUSE Tumbleweed:nodejs-electron-doc-21.3.2-2.1"
          ]
        }
      ],
      "CVSSScoreSets": {}
    }
  ]
}