{
  "Title": "cni-1.1.2-2.1 on GA media",
  "Tracking": {
    "ID": "openSUSE-SU-2024:12599-1",
    "Status": "Final",
    "Version": "1",
    "InitialReleaseDate": "2024-06-20T21:44:22Z",
    "CurrentReleaseDate": "2024-06-20T21:44:22Z",
    "RevisionHistory": [
      {
        "Number": "1",
        "Date": "2024-06-20T21:44:22Z",
        "Description": "current"
      }
    ]
  },
  "Notes": [
    {
      "Text": "cni-1.1.2-2.1 on GA media",
      "Title": "Topic",
      "Type": "Summary"
    },
    {
      "Text": "These are all security issues fixed in the cni-1.1.2-2.1 package on the GA media of openSUSE Tumbleweed.",
      "Title": "Details",
      "Type": "General"
    },
    {
      "Text": "The CVRF data is provided by SUSE under the Creative Commons License 4.0 with Attribution (CC-BY-4.0).",
      "Title": "Terms of Use",
      "Type": "Legal Disclaimer"
    },
    {
      "Text": "openSUSE-Tumbleweed-2024-12599",
      "Title": "Patchnames",
      "Type": "Details"
    }
  ],
  "ProductTree": {
    "Relationships": [
      {
        "ProductReference": "cni-1.1.2-2.1",
        "RelatesToProductReference": "openSUSE Tumbleweed",
        "RelationType": "Default Component Of"
      }
    ]
  },
  "References": [
    {
      "URL": "https://www.suse.com/support/security/rating/",
      "Description": "SUSE Security Ratings"
    },
    {
      "URL": "https://www.suse.com/security/cve/CVE-2021-38561/",
      "Description": "SUSE CVE CVE-2021-38561 page"
    }
  ],
  "Vulnerabilities": [
    {
      "CVE": "CVE-2021-38561",
      "Description": "golang.org/x/text/language in golang.org/x/text before 0.3.7 can panic with an out-of-bounds read during BCP 47 language tag parsing. Index calculation is mishandled. If parsing untrusted user input, this can be used as a vector for a denial-of-service attack.",
      "Threats": [
        {
          "Type": "Impact",
          "Severity": "moderate"
        }
      ],
      "References": [
        {
          "URL": "https://www.suse.com/security/cve/CVE-2021-38561.html",
          "Description": "CVE-2021-38561"
        },
        {
          "URL": "https://bugzilla.suse.com/1206711",
          "Description": "SUSE Bug 1206711"
        }
      ],
      "ProductStatuses": [
        {
          "Type": "Fixed",
          "ProductID": [
            "openSUSE Tumbleweed:cni-1.1.2-2.1"
          ]
        }
      ],
      "CVSSScoreSets": {}
    }
  ]
}