{
  "Title": "ctdb-4.17.2+git.273.a55a83528b9-1.1 on GA media",
  "Tracking": {
    "ID": "openSUSE-SU-2024:12454-1",
    "Status": "Final",
    "Version": "1",
    "InitialReleaseDate": "2024-06-20T21:44:22Z",
    "CurrentReleaseDate": "2024-06-20T21:44:22Z",
    "RevisionHistory": [
      {
        "Number": "1",
        "Date": "2024-06-20T21:44:22Z",
        "Description": "current"
      }
    ]
  },
  "Notes": [
    {
      "Text": "ctdb-4.17.2+git.273.a55a83528b9-1.1 on GA media",
      "Title": "Topic",
      "Type": "Summary"
    },
    {
      "Text": "These are all security issues fixed in the ctdb-4.17.2+git.273.a55a83528b9-1.1 package on the GA media of openSUSE Tumbleweed.",
      "Title": "Details",
      "Type": "General"
    },
    {
      "Text": "The CVRF data is provided by SUSE under the Creative Commons License 4.0 with Attribution (CC-BY-4.0).",
      "Title": "Terms of Use",
      "Type": "Legal Disclaimer"
    },
    {
      "Text": "openSUSE-Tumbleweed-2024-12454",
      "Title": "Patchnames",
      "Type": "Details"
    }
  ],
  "ProductTree": {
    "Relationships": [
      {
        "ProductReference": "ctdb-4.17.2+git.273.a55a83528b9-1.1",
        "RelatesToProductReference": "openSUSE Tumbleweed",
        "RelationType": "Default Component Of"
      },
      {
        "ProductReference": "ctdb-pcp-pmda-4.17.2+git.273.a55a83528b9-1.1",
        "RelatesToProductReference": "openSUSE Tumbleweed",
        "RelationType": "Default Component Of"
      },
      {
        "ProductReference": "libsamba-policy-devel-4.17.2+git.273.a55a83528b9-1.1",
        "RelatesToProductReference": "openSUSE Tumbleweed",
        "RelationType": "Default Component Of"
      },
      {
        "ProductReference": "libsamba-policy-python3-devel-4.17.2+git.273.a55a83528b9-1.1",
        "RelatesToProductReference": "openSUSE Tumbleweed",
        "RelationType": "Default Component Of"
      },
      {
        "ProductReference": "libsamba-policy0-python3-4.17.2+git.273.a55a83528b9-1.1",
        "RelatesToProductReference": "openSUSE Tumbleweed",
        "RelationType": "Default Component Of"
      },
      {
        "ProductReference": "libsamba-policy0-python3-32bit-4.17.2+git.273.a55a83528b9-1.1",
        "RelatesToProductReference": "openSUSE Tumbleweed",
        "RelationType": "Default Component Of"
      },
      {
        "ProductReference": "samba-4.17.2+git.273.a55a83528b9-1.1",
        "RelatesToProductReference": "openSUSE Tumbleweed",
        "RelationType": "Default Component Of"
      },
      {
        "ProductReference": "samba-ad-dc-4.17.2+git.273.a55a83528b9-1.1",
        "RelatesToProductReference": "openSUSE Tumbleweed",
        "RelationType": "Default Component Of"
      },
      {
        "ProductReference": "samba-ad-dc-libs-4.17.2+git.273.a55a83528b9-1.1",
        "RelatesToProductReference": "openSUSE Tumbleweed",
        "RelationType": "Default Component Of"
      },
      {
        "ProductReference": "samba-ad-dc-libs-32bit-4.17.2+git.273.a55a83528b9-1.1",
        "RelatesToProductReference": "openSUSE Tumbleweed",
        "RelationType": "Default Component Of"
      },
      {
        "ProductReference": "samba-ceph-4.17.2+git.273.a55a83528b9-1.1",
        "RelatesToProductReference": "openSUSE Tumbleweed",
        "RelationType": "Default Component Of"
      },
      {
        "ProductReference": "samba-client-4.17.2+git.273.a55a83528b9-1.1",
        "RelatesToProductReference": "openSUSE Tumbleweed",
        "RelationType": "Default Component Of"
      },
      {
        "ProductReference": "samba-client-32bit-4.17.2+git.273.a55a83528b9-1.1",
        "RelatesToProductReference": "openSUSE Tumbleweed",
        "RelationType": "Default Component Of"
      },
      {
        "ProductReference": "samba-client-libs-4.17.2+git.273.a55a83528b9-1.1",
        "RelatesToProductReference": "openSUSE Tumbleweed",
        "RelationType": "Default Component Of"
      },
      {
        "ProductReference": "samba-client-libs-32bit-4.17.2+git.273.a55a83528b9-1.1",
        "RelatesToProductReference": "openSUSE Tumbleweed",
        "RelationType": "Default Component Of"
      },
      {
        "ProductReference": "samba-devel-4.17.2+git.273.a55a83528b9-1.1",
        "RelatesToProductReference": "openSUSE Tumbleweed",
        "RelationType": "Default Component Of"
      },
      {
        "ProductReference": "samba-devel-32bit-4.17.2+git.273.a55a83528b9-1.1",
        "RelatesToProductReference": "openSUSE Tumbleweed",
        "RelationType": "Default Component Of"
      },
      {
        "ProductReference": "samba-doc-4.17.2+git.273.a55a83528b9-1.1",
        "RelatesToProductReference": "openSUSE Tumbleweed",
        "RelationType": "Default Component Of"
      },
      {
        "ProductReference": "samba-dsdb-modules-4.17.2+git.273.a55a83528b9-1.1",
        "RelatesToProductReference": "openSUSE Tumbleweed",
        "RelationType": "Default Component Of"
      },
      {
        "ProductReference": "samba-gpupdate-4.17.2+git.273.a55a83528b9-1.1",
        "RelatesToProductReference": "openSUSE Tumbleweed",
        "RelationType": "Default Component Of"
      },
      {
        "ProductReference": "samba-ldb-ldap-4.17.2+git.273.a55a83528b9-1.1",
        "RelatesToProductReference": "openSUSE Tumbleweed",
        "RelationType": "Default Component Of"
      },
      {
        "ProductReference": "samba-libs-4.17.2+git.273.a55a83528b9-1.1",
        "RelatesToProductReference": "openSUSE Tumbleweed",
        "RelationType": "Default Component Of"
      },
      {
        "ProductReference": "samba-libs-32bit-4.17.2+git.273.a55a83528b9-1.1",
        "RelatesToProductReference": "openSUSE Tumbleweed",
        "RelationType": "Default Component Of"
      },
      {
        "ProductReference": "samba-libs-python3-4.17.2+git.273.a55a83528b9-1.1",
        "RelatesToProductReference": "openSUSE Tumbleweed",
        "RelationType": "Default Component Of"
      },
      {
        "ProductReference": "samba-libs-python3-32bit-4.17.2+git.273.a55a83528b9-1.1",
        "RelatesToProductReference": "openSUSE Tumbleweed",
        "RelationType": "Default Component Of"
      },
      {
        "ProductReference": "samba-python3-4.17.2+git.273.a55a83528b9-1.1",
        "RelatesToProductReference": "openSUSE Tumbleweed",
        "RelationType": "Default Component Of"
      },
      {
        "ProductReference": "samba-test-4.17.2+git.273.a55a83528b9-1.1",
        "RelatesToProductReference": "openSUSE Tumbleweed",
        "RelationType": "Default Component Of"
      },
      {
        "ProductReference": "samba-tool-4.17.2+git.273.a55a83528b9-1.1",
        "RelatesToProductReference": "openSUSE Tumbleweed",
        "RelationType": "Default Component Of"
      },
      {
        "ProductReference": "samba-winbind-4.17.2+git.273.a55a83528b9-1.1",
        "RelatesToProductReference": "openSUSE Tumbleweed",
        "RelationType": "Default Component Of"
      },
      {
        "ProductReference": "samba-winbind-libs-4.17.2+git.273.a55a83528b9-1.1",
        "RelatesToProductReference": "openSUSE Tumbleweed",
        "RelationType": "Default Component Of"
      },
      {
        "ProductReference": "samba-winbind-libs-32bit-4.17.2+git.273.a55a83528b9-1.1",
        "RelatesToProductReference": "openSUSE Tumbleweed",
        "RelationType": "Default Component Of"
      }
    ]
  },
  "References": [
    {
      "URL": "https://www.suse.com/support/security/rating/",
      "Description": "SUSE Security Ratings"
    },
    {
      "URL": "https://www.suse.com/security/cve/CVE-2022-3437/",
      "Description": "SUSE CVE CVE-2022-3437 page"
    },
    {
      "URL": "https://www.suse.com/security/cve/CVE-2022-3592/",
      "Description": "SUSE CVE CVE-2022-3592 page"
    }
  ],
  "Vulnerabilities": [
    {
      "CVE": "CVE-2022-3437",
      "Description": "A heap-based buffer overflow vulnerability was found in Samba within the GSSAPI unwrap_des() and unwrap_des3() routines of Heimdal. The DES and Triple-DES decryption routines in the Heimdal GSSAPI library allow a length-limited write buffer overflow on malloc() allocated memory when presented with a maliciously small packet. This flaw allows a remote user to send specially crafted malicious data to the application, possibly resulting in a denial of service (DoS) attack.",
      "Threats": [
        {
          "Type": "Impact",
          "Severity": "moderate"
        }
      ],
      "References": [
        {
          "URL": "https://www.suse.com/security/cve/CVE-2022-3437.html",
          "Description": "CVE-2022-3437"
        },
        {
          "URL": "https://bugzilla.suse.com/1204254",
          "Description": "SUSE Bug 1204254"
        },
        {
          "URL": "https://bugzilla.suse.com/1205667",
          "Description": "SUSE Bug 1205667"
        },
        {
          "URL": "https://bugzilla.suse.com/1208992",
          "Description": "SUSE Bug 1208992"
        }
      ],
      "ProductStatuses": [
        {
          "Type": "Fixed",
          "ProductID": [
            "openSUSE Tumbleweed:ctdb-4.17.2+git.273.a55a83528b9-1.1",
            "openSUSE Tumbleweed:ctdb-pcp-pmda-4.17.2+git.273.a55a83528b9-1.1",
            "openSUSE Tumbleweed:libsamba-policy-devel-4.17.2+git.273.a55a83528b9-1.1",
            "openSUSE Tumbleweed:libsamba-policy-python3-devel-4.17.2+git.273.a55a83528b9-1.1",
            "openSUSE Tumbleweed:libsamba-policy0-python3-32bit-4.17.2+git.273.a55a83528b9-1.1",
            "openSUSE Tumbleweed:libsamba-policy0-python3-4.17.2+git.273.a55a83528b9-1.1",
            "openSUSE Tumbleweed:samba-4.17.2+git.273.a55a83528b9-1.1",
            "openSUSE Tumbleweed:samba-ad-dc-4.17.2+git.273.a55a83528b9-1.1",
            "openSUSE Tumbleweed:samba-ad-dc-libs-32bit-4.17.2+git.273.a55a83528b9-1.1",
            "openSUSE Tumbleweed:samba-ad-dc-libs-4.17.2+git.273.a55a83528b9-1.1",
            "openSUSE Tumbleweed:samba-ceph-4.17.2+git.273.a55a83528b9-1.1",
            "openSUSE Tumbleweed:samba-client-32bit-4.17.2+git.273.a55a83528b9-1.1",
            "openSUSE Tumbleweed:samba-client-4.17.2+git.273.a55a83528b9-1.1",
            "openSUSE Tumbleweed:samba-client-libs-32bit-4.17.2+git.273.a55a83528b9-1.1",
            "openSUSE Tumbleweed:samba-client-libs-4.17.2+git.273.a55a83528b9-1.1",
            "openSUSE Tumbleweed:samba-devel-32bit-4.17.2+git.273.a55a83528b9-1.1",
            "openSUSE Tumbleweed:samba-devel-4.17.2+git.273.a55a83528b9-1.1",
            "openSUSE Tumbleweed:samba-doc-4.17.2+git.273.a55a83528b9-1.1",
            "openSUSE Tumbleweed:samba-dsdb-modules-4.17.2+git.273.a55a83528b9-1.1",
            "openSUSE Tumbleweed:samba-gpupdate-4.17.2+git.273.a55a83528b9-1.1",
            "openSUSE Tumbleweed:samba-ldb-ldap-4.17.2+git.273.a55a83528b9-1.1",
            "openSUSE Tumbleweed:samba-libs-32bit-4.17.2+git.273.a55a83528b9-1.1",
            "openSUSE Tumbleweed:samba-libs-4.17.2+git.273.a55a83528b9-1.1",
            "openSUSE Tumbleweed:samba-libs-python3-32bit-4.17.2+git.273.a55a83528b9-1.1",
            "openSUSE Tumbleweed:samba-libs-python3-4.17.2+git.273.a55a83528b9-1.1",
            "openSUSE Tumbleweed:samba-python3-4.17.2+git.273.a55a83528b9-1.1",
            "openSUSE Tumbleweed:samba-test-4.17.2+git.273.a55a83528b9-1.1",
            "openSUSE Tumbleweed:samba-tool-4.17.2+git.273.a55a83528b9-1.1",
            "openSUSE Tumbleweed:samba-winbind-4.17.2+git.273.a55a83528b9-1.1",
            "openSUSE Tumbleweed:samba-winbind-libs-32bit-4.17.2+git.273.a55a83528b9-1.1",
            "openSUSE Tumbleweed:samba-winbind-libs-4.17.2+git.273.a55a83528b9-1.1"
          ]
        }
      ],
      "CVSSScoreSets": {}
    },
    {
      "CVE": "CVE-2022-3592",
      "Description": "A symlink following vulnerability was found in Samba, where a user can create a symbolic link that will make 'smbd' escape the configured share path. This flaw allows a remote user with access to the exported part of the file system under a share via SMB1 unix extensions or NFS to create symlinks to files outside the 'smbd' configured share path and gain access to another restricted server's filesystem.",
      "Threats": [
        {
          "Type": "Impact",
          "Severity": "moderate"
        }
      ],
      "References": [
        {
          "URL": "https://www.suse.com/security/cve/CVE-2022-3592.html",
          "Description": "CVE-2022-3592"
        },
        {
          "URL": "https://bugzilla.suse.com/1204499",
          "Description": "SUSE Bug 1204499"
        }
      ],
      "ProductStatuses": [
        {
          "Type": "Fixed",
          "ProductID": [
            "openSUSE Tumbleweed:ctdb-4.17.2+git.273.a55a83528b9-1.1",
            "openSUSE Tumbleweed:ctdb-pcp-pmda-4.17.2+git.273.a55a83528b9-1.1",
            "openSUSE Tumbleweed:libsamba-policy-devel-4.17.2+git.273.a55a83528b9-1.1",
            "openSUSE Tumbleweed:libsamba-policy-python3-devel-4.17.2+git.273.a55a83528b9-1.1",
            "openSUSE Tumbleweed:libsamba-policy0-python3-32bit-4.17.2+git.273.a55a83528b9-1.1",
            "openSUSE Tumbleweed:libsamba-policy0-python3-4.17.2+git.273.a55a83528b9-1.1",
            "openSUSE Tumbleweed:samba-4.17.2+git.273.a55a83528b9-1.1",
            "openSUSE Tumbleweed:samba-ad-dc-4.17.2+git.273.a55a83528b9-1.1",
            "openSUSE Tumbleweed:samba-ad-dc-libs-32bit-4.17.2+git.273.a55a83528b9-1.1",
            "openSUSE Tumbleweed:samba-ad-dc-libs-4.17.2+git.273.a55a83528b9-1.1",
            "openSUSE Tumbleweed:samba-ceph-4.17.2+git.273.a55a83528b9-1.1",
            "openSUSE Tumbleweed:samba-client-32bit-4.17.2+git.273.a55a83528b9-1.1",
            "openSUSE Tumbleweed:samba-client-4.17.2+git.273.a55a83528b9-1.1",
            "openSUSE Tumbleweed:samba-client-libs-32bit-4.17.2+git.273.a55a83528b9-1.1",
            "openSUSE Tumbleweed:samba-client-libs-4.17.2+git.273.a55a83528b9-1.1",
            "openSUSE Tumbleweed:samba-devel-32bit-4.17.2+git.273.a55a83528b9-1.1",
            "openSUSE Tumbleweed:samba-devel-4.17.2+git.273.a55a83528b9-1.1",
            "openSUSE Tumbleweed:samba-doc-4.17.2+git.273.a55a83528b9-1.1",
            "openSUSE Tumbleweed:samba-dsdb-modules-4.17.2+git.273.a55a83528b9-1.1",
            "openSUSE Tumbleweed:samba-gpupdate-4.17.2+git.273.a55a83528b9-1.1",
            "openSUSE Tumbleweed:samba-ldb-ldap-4.17.2+git.273.a55a83528b9-1.1",
            "openSUSE Tumbleweed:samba-libs-32bit-4.17.2+git.273.a55a83528b9-1.1",
            "openSUSE Tumbleweed:samba-libs-4.17.2+git.273.a55a83528b9-1.1",
            "openSUSE Tumbleweed:samba-libs-python3-32bit-4.17.2+git.273.a55a83528b9-1.1",
            "openSUSE Tumbleweed:samba-libs-python3-4.17.2+git.273.a55a83528b9-1.1",
            "openSUSE Tumbleweed:samba-python3-4.17.2+git.273.a55a83528b9-1.1",
            "openSUSE Tumbleweed:samba-test-4.17.2+git.273.a55a83528b9-1.1",
            "openSUSE Tumbleweed:samba-tool-4.17.2+git.273.a55a83528b9-1.1",
            "openSUSE Tumbleweed:samba-winbind-4.17.2+git.273.a55a83528b9-1.1",
            "openSUSE Tumbleweed:samba-winbind-libs-32bit-4.17.2+git.273.a55a83528b9-1.1",
            "openSUSE Tumbleweed:samba-winbind-libs-4.17.2+git.273.a55a83528b9-1.1"
          ]
        }
      ],
      "CVSSScoreSets": {}
    }
  ]
}