{
  "Title": "ovmf-202308-9.1 on GA media",
  "Tracking": {
    "ID": "openSUSE-SU-2024:13949-1",
    "Status": "Final",
    "Version": "1",
    "InitialReleaseDate": "2024-06-20T21:44:22Z",
    "CurrentReleaseDate": "2024-06-20T21:44:22Z",
    "RevisionHistory": [
      {
        "Number": "1",
        "Date": "2024-06-20T21:44:22Z",
        "Description": "current"
      }
    ]
  },
  "Notes": [
    {
      "Text": "ovmf-202308-9.1 on GA media",
      "Title": "Topic",
      "Type": "Summary"
    },
    {
      "Text": "These are all security issues fixed in the ovmf-202308-9.1 package on the GA media of openSUSE Tumbleweed.",
      "Title": "Details",
      "Type": "General"
    },
    {
      "Text": "The CVRF data is provided by SUSE under the Creative Commons License 4.0 with Attribution (CC-BY-4.0).",
      "Title": "Terms of Use",
      "Type": "Legal Disclaimer"
    },
    {
      "Text": "openSUSE-Tumbleweed-2024-13949",
      "Title": "Patchnames",
      "Type": "Details"
    }
  ],
  "ProductTree": {
    "Relationships": [
      {
        "ProductReference": "ovmf-202308-9.1",
        "RelatesToProductReference": "openSUSE Tumbleweed",
        "RelationType": "Default Component Of"
      },
      {
        "ProductReference": "ovmf-tools-202308-9.1",
        "RelatesToProductReference": "openSUSE Tumbleweed",
        "RelationType": "Default Component Of"
      },
      {
        "ProductReference": "qemu-ovmf-ia32-202308-9.1",
        "RelatesToProductReference": "openSUSE Tumbleweed",
        "RelationType": "Default Component Of"
      },
      {
        "ProductReference": "qemu-ovmf-x86_64-202308-9.1",
        "RelatesToProductReference": "openSUSE Tumbleweed",
        "RelationType": "Default Component Of"
      },
      {
        "ProductReference": "qemu-ovmf-x86_64-debug-202308-9.1",
        "RelatesToProductReference": "openSUSE Tumbleweed",
        "RelationType": "Default Component Of"
      },
      {
        "ProductReference": "qemu-uefi-aarch32-202308-9.1",
        "RelatesToProductReference": "openSUSE Tumbleweed",
        "RelationType": "Default Component Of"
      },
      {
        "ProductReference": "qemu-uefi-aarch64-202308-9.1",
        "RelatesToProductReference": "openSUSE Tumbleweed",
        "RelationType": "Default Component Of"
      },
      {
        "ProductReference": "qemu-uefi-riscv64-202308-9.1",
        "RelatesToProductReference": "openSUSE Tumbleweed",
        "RelationType": "Default Component Of"
      }
    ]
  },
  "References": [
    {
      "URL": "https://www.suse.com/support/security/rating/",
      "Description": "SUSE Security Ratings"
    },
    {
      "URL": "https://www.suse.com/security/cve/CVE-2022-36763/",
      "Description": "SUSE CVE CVE-2022-36763 page"
    },
    {
      "URL": "https://www.suse.com/security/cve/CVE-2022-36764/",
      "Description": "SUSE CVE CVE-2022-36764 page"
    }
  ],
  "Vulnerabilities": [
    {
      "CVE": "CVE-2022-36763",
      "Description": "\nEDK2 is susceptible to a vulnerability in the Tcg2MeasureGptTable() function, allowing a user to trigger a heap buffer overflow via a local network. Successful exploitation of this vulnerability may result in a compromise of confidentiality, integrity, and/or availability.\n\n",
      "Threats": [
        {
          "Type": "Impact",
          "Severity": "moderate"
        }
      ],
      "References": [
        {
          "URL": "https://www.suse.com/security/cve/CVE-2022-36763.html",
          "Description": "CVE-2022-36763"
        },
        {
          "URL": "https://bugzilla.suse.com/1218678",
          "Description": "SUSE Bug 1218678"
        }
      ],
      "ProductStatuses": [
        {
          "Type": "Fixed",
          "ProductID": [
            "openSUSE Tumbleweed:ovmf-202308-9.1",
            "openSUSE Tumbleweed:ovmf-tools-202308-9.1",
            "openSUSE Tumbleweed:qemu-ovmf-ia32-202308-9.1",
            "openSUSE Tumbleweed:qemu-ovmf-x86_64-202308-9.1",
            "openSUSE Tumbleweed:qemu-ovmf-x86_64-debug-202308-9.1",
            "openSUSE Tumbleweed:qemu-uefi-aarch32-202308-9.1",
            "openSUSE Tumbleweed:qemu-uefi-aarch64-202308-9.1",
            "openSUSE Tumbleweed:qemu-uefi-riscv64-202308-9.1"
          ]
        }
      ],
      "CVSSScoreSets": {}
    },
    {
      "CVE": "CVE-2022-36764",
      "Description": "\nEDK2 is susceptible to a vulnerability in the Tcg2MeasurePeImage() function, allowing a user to trigger a heap buffer overflow via a local network. Successful exploitation of this vulnerability may result in a compromise of confidentiality, integrity, and/or availability.\n\n",
      "Threats": [
        {
          "Type": "Impact",
          "Severity": "moderate"
        }
      ],
      "References": [
        {
          "URL": "https://www.suse.com/security/cve/CVE-2022-36764.html",
          "Description": "CVE-2022-36764"
        },
        {
          "URL": "https://bugzilla.suse.com/1218679",
          "Description": "SUSE Bug 1218679"
        }
      ],
      "ProductStatuses": [
        {
          "Type": "Fixed",
          "ProductID": [
            "openSUSE Tumbleweed:ovmf-202308-9.1",
            "openSUSE Tumbleweed:ovmf-tools-202308-9.1",
            "openSUSE Tumbleweed:qemu-ovmf-ia32-202308-9.1",
            "openSUSE Tumbleweed:qemu-ovmf-x86_64-202308-9.1",
            "openSUSE Tumbleweed:qemu-ovmf-x86_64-debug-202308-9.1",
            "openSUSE Tumbleweed:qemu-uefi-aarch32-202308-9.1",
            "openSUSE Tumbleweed:qemu-uefi-aarch64-202308-9.1",
            "openSUSE Tumbleweed:qemu-uefi-riscv64-202308-9.1"
          ]
        }
      ],
      "CVSSScoreSets": {}
    }
  ]
}