{
  "Title": "python-2.7.18-8.1 on GA media",
  "Tracking": {
    "ID": "openSUSE-SU-2024:11202-1",
    "Status": "Final",
    "Version": "1",
    "InitialReleaseDate": "2024-06-22T21:44:56Z",
    "CurrentReleaseDate": "2024-06-22T21:44:56Z",
    "RevisionHistory": [
      {
        "Number": "1",
        "Date": "2024-06-22T21:44:56Z",
        "Description": "current"
      }
    ]
  },
  "Notes": [
    {
      "Text": "python-2.7.18-8.1 on GA media",
      "Title": "Topic",
      "Type": "Summary"
    },
    {
      "Text": "These are all security issues fixed in the python-2.7.18-8.1 package on the GA media of openSUSE Tumbleweed.",
      "Title": "Details",
      "Type": "General"
    },
    {
      "Text": "The CVRF data is provided by SUSE under the Creative Commons License 4.0 with Attribution (CC-BY-4.0).",
      "Title": "Terms of Use",
      "Type": "Legal Disclaimer"
    },
    {
      "Text": "openSUSE-Tumbleweed-2024-11202",
      "Title": "Patchnames",
      "Type": "Details"
    }
  ],
  "ProductTree": {
    "Relationships": [
      {
        "ProductReference": "python-2.7.18-8.1",
        "RelatesToProductReference": "openSUSE Tumbleweed",
        "RelationType": "Default Component Of"
      },
      {
        "ProductReference": "python-32bit-2.7.18-8.1",
        "RelatesToProductReference": "openSUSE Tumbleweed",
        "RelationType": "Default Component Of"
      },
      {
        "ProductReference": "python-curses-2.7.18-8.1",
        "RelatesToProductReference": "openSUSE Tumbleweed",
        "RelationType": "Default Component Of"
      },
      {
        "ProductReference": "python-demo-2.7.18-8.1",
        "RelatesToProductReference": "openSUSE Tumbleweed",
        "RelationType": "Default Component Of"
      },
      {
        "ProductReference": "python-gdbm-2.7.18-8.1",
        "RelatesToProductReference": "openSUSE Tumbleweed",
        "RelationType": "Default Component Of"
      },
      {
        "ProductReference": "python-idle-2.7.18-8.1",
        "RelatesToProductReference": "openSUSE Tumbleweed",
        "RelationType": "Default Component Of"
      },
      {
        "ProductReference": "python-tk-2.7.18-8.1",
        "RelatesToProductReference": "openSUSE Tumbleweed",
        "RelationType": "Default Component Of"
      }
    ]
  },
  "References": [
    {
      "URL": "https://www.suse.com/support/security/rating/",
      "Description": "SUSE Security Ratings"
    },
    {
      "URL": "https://www.suse.com/security/cve/CVE-2007-2052/",
      "Description": "SUSE CVE CVE-2007-2052 page"
    },
    {
      "URL": "https://www.suse.com/security/cve/CVE-2008-1721/",
      "Description": "SUSE CVE CVE-2008-1721 page"
    },
    {
      "URL": "https://www.suse.com/security/cve/CVE-2008-2315/",
      "Description": "SUSE CVE CVE-2008-2315 page"
    },
    {
      "URL": "https://www.suse.com/security/cve/CVE-2008-2316/",
      "Description": "SUSE CVE CVE-2008-2316 page"
    },
    {
      "URL": "https://www.suse.com/security/cve/CVE-2008-3142/",
      "Description": "SUSE CVE CVE-2008-3142 page"
    },
    {
      "URL": "https://www.suse.com/security/cve/CVE-2008-3143/",
      "Description": "SUSE CVE CVE-2008-3143 page"
    },
    {
      "URL": "https://www.suse.com/security/cve/CVE-2008-3144/",
      "Description": "SUSE CVE CVE-2008-3144 page"
    },
    {
      "URL": "https://www.suse.com/security/cve/CVE-2011-1521/",
      "Description": "SUSE CVE CVE-2011-1521 page"
    },
    {
      "URL": "https://www.suse.com/security/cve/CVE-2011-3389/",
      "Description": "SUSE CVE CVE-2011-3389 page"
    },
    {
      "URL": "https://www.suse.com/security/cve/CVE-2011-4944/",
      "Description": "SUSE CVE CVE-2011-4944 page"
    },
    {
      "URL": "https://www.suse.com/security/cve/CVE-2012-0845/",
      "Description": "SUSE CVE CVE-2012-0845 page"
    },
    {
      "URL": "https://www.suse.com/security/cve/CVE-2012-1150/",
      "Description": "SUSE CVE CVE-2012-1150 page"
    },
    {
      "URL": "https://www.suse.com/security/cve/CVE-2013-1752/",
      "Description": "SUSE CVE CVE-2013-1752 page"
    },
    {
      "URL": "https://www.suse.com/security/cve/CVE-2013-1753/",
      "Description": "SUSE CVE CVE-2013-1753 page"
    },
    {
      "URL": "https://www.suse.com/security/cve/CVE-2014-1912/",
      "Description": "SUSE CVE CVE-2014-1912 page"
    },
    {
      "URL": "https://www.suse.com/security/cve/CVE-2014-4650/",
      "Description": "SUSE CVE CVE-2014-4650 page"
    },
    {
      "URL": "https://www.suse.com/security/cve/CVE-2014-7185/",
      "Description": "SUSE CVE CVE-2014-7185 page"
    },
    {
      "URL": "https://www.suse.com/security/cve/CVE-2016-1000110/",
      "Description": "SUSE CVE CVE-2016-1000110 page"
    },
    {
      "URL": "https://www.suse.com/security/cve/CVE-2017-1000158/",
      "Description": "SUSE CVE CVE-2017-1000158 page"
    },
    {
      "URL": "https://www.suse.com/security/cve/CVE-2017-18207/",
      "Description": "SUSE CVE CVE-2017-18207 page"
    },
    {
      "URL": "https://www.suse.com/security/cve/CVE-2018-1000030/",
      "Description": "SUSE CVE CVE-2018-1000030 page"
    },
    {
      "URL": "https://www.suse.com/security/cve/CVE-2018-1000802/",
      "Description": "SUSE CVE CVE-2018-1000802 page"
    },
    {
      "URL": "https://www.suse.com/security/cve/CVE-2018-1060/",
      "Description": "SUSE CVE CVE-2018-1060 page"
    },
    {
      "URL": "https://www.suse.com/security/cve/CVE-2018-1061/",
      "Description": "SUSE CVE CVE-2018-1061 page"
    },
    {
      "URL": "https://www.suse.com/security/cve/CVE-2018-14647/",
      "Description": "SUSE CVE CVE-2018-14647 page"
    },
    {
      "URL": "https://www.suse.com/security/cve/CVE-2018-20852/",
      "Description": "SUSE CVE CVE-2018-20852 page"
    },
    {
      "URL": "https://www.suse.com/security/cve/CVE-2019-10160/",
      "Description": "SUSE CVE CVE-2019-10160 page"
    },
    {
      "URL": "https://www.suse.com/security/cve/CVE-2019-16056/",
      "Description": "SUSE CVE CVE-2019-16056 page"
    },
    {
      "URL": "https://www.suse.com/security/cve/CVE-2019-16935/",
      "Description": "SUSE CVE CVE-2019-16935 page"
    },
    {
      "URL": "https://www.suse.com/security/cve/CVE-2019-18348/",
      "Description": "SUSE CVE CVE-2019-18348 page"
    },
    {
      "URL": "https://www.suse.com/security/cve/CVE-2019-5010/",
      "Description": "SUSE CVE CVE-2019-5010 page"
    },
    {
      "URL": "https://www.suse.com/security/cve/CVE-2019-9636/",
      "Description": "SUSE CVE CVE-2019-9636 page"
    },
    {
      "URL": "https://www.suse.com/security/cve/CVE-2019-9674/",
      "Description": "SUSE CVE CVE-2019-9674 page"
    },
    {
      "URL": "https://www.suse.com/security/cve/CVE-2019-9947/",
      "Description": "SUSE CVE CVE-2019-9947 page"
    },
    {
      "URL": "https://www.suse.com/security/cve/CVE-2019-9948/",
      "Description": "SUSE CVE CVE-2019-9948 page"
    },
    {
      "URL": "https://www.suse.com/security/cve/CVE-2020-8492/",
      "Description": "SUSE CVE CVE-2020-8492 page"
    },
    {
      "URL": "https://www.suse.com/security/cve/CVE-2021-23336/",
      "Description": "SUSE CVE CVE-2021-23336 page"
    },
    {
      "URL": "https://www.suse.com/security/cve/CVE-2021-3177/",
      "Description": "SUSE CVE CVE-2021-3177 page"
    },
    {
      "URL": "https://www.suse.com/security/cve/CVE-2021-3733/",
      "Description": "SUSE CVE CVE-2021-3733 page"
    },
    {
      "URL": "https://www.suse.com/security/cve/CVE-2021-3737/",
      "Description": "SUSE CVE CVE-2021-3737 page"
    }
  ],
  "Vulnerabilities": [
    {
      "CVE": "CVE-2007-2052",
      "Description": "Off-by-one error in the PyLocale_strxfrm function in Modules/_localemodule.c for Python 2.4 and 2.5 causes an incorrect buffer size to be used for the strxfrm function, which allows context-dependent attackers to read portions of memory via unknown manipulations that trigger a buffer over-read due to missing null termination.",
      "Threats": [
        {
          "Type": "Impact",
          "Severity": "moderate"
        }
      ],
      "References": [
        {
          "URL": "https://www.suse.com/security/cve/CVE-2007-2052.html",
          "Description": "CVE-2007-2052"
        },
        {
          "URL": "https://bugzilla.suse.com/276889",
          "Description": "SUSE Bug 276889"
        }
      ],
      "ProductStatuses": [
        {
          "Type": "Fixed",
          "ProductID": [
            "openSUSE Tumbleweed:python-2.7.18-8.1",
            "openSUSE Tumbleweed:python-32bit-2.7.18-8.1",
            "openSUSE Tumbleweed:python-curses-2.7.18-8.1",
            "openSUSE Tumbleweed:python-demo-2.7.18-8.1",
            "openSUSE Tumbleweed:python-gdbm-2.7.18-8.1",
            "openSUSE Tumbleweed:python-idle-2.7.18-8.1",
            "openSUSE Tumbleweed:python-tk-2.7.18-8.1"
          ]
        }
      ],
      "CVSSScoreSets": {}
    },
    {
      "CVE": "CVE-2008-1721",
      "Description": "Integer signedness error in the zlib extension module in Python 2.5.2 and earlier allows remote attackers to execute arbitrary code via a negative signed integer, which triggers insufficient memory allocation and a buffer overflow.",
      "Threats": [
        {
          "Type": "Impact",
          "Severity": "important"
        }
      ],
      "References": [
        {
          "URL": "https://www.suse.com/security/cve/CVE-2008-1721.html",
          "Description": "CVE-2008-1721"
        },
        {
          "URL": "https://bugzilla.suse.com/379044",
          "Description": "SUSE Bug 379044"
        }
      ],
      "ProductStatuses": [
        {
          "Type": "Fixed",
          "ProductID": [
            "openSUSE Tumbleweed:python-2.7.18-8.1",
            "openSUSE Tumbleweed:python-32bit-2.7.18-8.1",
            "openSUSE Tumbleweed:python-curses-2.7.18-8.1",
            "openSUSE Tumbleweed:python-demo-2.7.18-8.1",
            "openSUSE Tumbleweed:python-gdbm-2.7.18-8.1",
            "openSUSE Tumbleweed:python-idle-2.7.18-8.1",
            "openSUSE Tumbleweed:python-tk-2.7.18-8.1"
          ]
        }
      ],
      "CVSSScoreSets": {}
    },
    {
      "CVE": "CVE-2008-2315",
      "Description": "Multiple integer overflows in Python 2.5.2 and earlier allow context-dependent attackers to have an unknown impact via vectors related to the (1) stringobject, (2) unicodeobject, (3) bufferobject, (4) longobject, (5) tupleobject, (6) stropmodule, (7) gcmodule, and (8) mmapmodule modules.  NOTE: The expandtabs integer overflows in stringobject and unicodeobject in 2.5.2 are covered by CVE-2008-5031.",
      "Threats": [
        {
          "Type": "Impact",
          "Severity": "important"
        }
      ],
      "References": [
        {
          "URL": "https://www.suse.com/security/cve/CVE-2008-2315.html",
          "Description": "CVE-2008-2315"
        },
        {
          "URL": "https://bugzilla.suse.com/406051",
          "Description": "SUSE Bug 406051"
        },
        {
          "URL": "https://bugzilla.suse.com/443653",
          "Description": "SUSE Bug 443653"
        }
      ],
      "ProductStatuses": [
        {
          "Type": "Fixed",
          "ProductID": [
            "openSUSE Tumbleweed:python-2.7.18-8.1",
            "openSUSE Tumbleweed:python-32bit-2.7.18-8.1",
            "openSUSE Tumbleweed:python-curses-2.7.18-8.1",
            "openSUSE Tumbleweed:python-demo-2.7.18-8.1",
            "openSUSE Tumbleweed:python-gdbm-2.7.18-8.1",
            "openSUSE Tumbleweed:python-idle-2.7.18-8.1",
            "openSUSE Tumbleweed:python-tk-2.7.18-8.1"
          ]
        }
      ],
      "CVSSScoreSets": {}
    },
    {
      "CVE": "CVE-2008-2316",
      "Description": "Integer overflow in _hashopenssl.c in the hashlib module in Python 2.5.2 and earlier might allow context-dependent attackers to defeat cryptographic digests, related to \"partial hashlib hashing of data exceeding 4GB.\"",
      "Threats": [
        {
          "Type": "Impact",
          "Severity": "important"
        }
      ],
      "References": [
        {
          "URL": "https://www.suse.com/security/cve/CVE-2008-2316.html",
          "Description": "CVE-2008-2316"
        },
        {
          "URL": "https://bugzilla.suse.com/406051",
          "Description": "SUSE Bug 406051"
        }
      ],
      "ProductStatuses": [
        {
          "Type": "Fixed",
          "ProductID": [
            "openSUSE Tumbleweed:python-2.7.18-8.1",
            "openSUSE Tumbleweed:python-32bit-2.7.18-8.1",
            "openSUSE Tumbleweed:python-curses-2.7.18-8.1",
            "openSUSE Tumbleweed:python-demo-2.7.18-8.1",
            "openSUSE Tumbleweed:python-gdbm-2.7.18-8.1",
            "openSUSE Tumbleweed:python-idle-2.7.18-8.1",
            "openSUSE Tumbleweed:python-tk-2.7.18-8.1"
          ]
        }
      ],
      "CVSSScoreSets": {}
    },
    {
      "CVE": "CVE-2008-3142",
      "Description": "Multiple buffer overflows in Python 2.5.2 and earlier on 32bit platforms allow context-dependent attackers to cause a denial of service (crash) or have unspecified other impact via a long string that leads to incorrect memory allocation during Unicode string processing, related to the unicode_resize function and the PyMem_RESIZE macro.",
      "Threats": [
        {
          "Type": "Impact",
          "Severity": "important"
        }
      ],
      "References": [
        {
          "URL": "https://www.suse.com/security/cve/CVE-2008-3142.html",
          "Description": "CVE-2008-3142"
        },
        {
          "URL": "https://bugzilla.suse.com/406051",
          "Description": "SUSE Bug 406051"
        }
      ],
      "ProductStatuses": [
        {
          "Type": "Fixed",
          "ProductID": [
            "openSUSE Tumbleweed:python-2.7.18-8.1",
            "openSUSE Tumbleweed:python-32bit-2.7.18-8.1",
            "openSUSE Tumbleweed:python-curses-2.7.18-8.1",
            "openSUSE Tumbleweed:python-demo-2.7.18-8.1",
            "openSUSE Tumbleweed:python-gdbm-2.7.18-8.1",
            "openSUSE Tumbleweed:python-idle-2.7.18-8.1",
            "openSUSE Tumbleweed:python-tk-2.7.18-8.1"
          ]
        }
      ],
      "CVSSScoreSets": {}
    },
    {
      "CVE": "CVE-2008-3143",
      "Description": "Multiple integer overflows in Python before 2.5.2 might allow context-dependent attackers to have an unknown impact via vectors related to (1) Include/pymem.h; (2) _csv.c, (3) _struct.c, (4) arraymodule.c, (5) audioop.c, (6) binascii.c, (7) cPickle.c, (8) cStringIO.c, (9) cjkcodecs/multibytecodec.c, (10) datetimemodule.c, (11) md5.c, (12) rgbimgmodule.c, and (13) stropmodule.c in Modules/; (14) bufferobject.c, (15) listobject.c, and (16) obmalloc.c in Objects/; (17) Parser/node.c; and (18) asdl.c, (19) ast.c, (20) bltinmodule.c, and (21) compile.c in Python/, as addressed by \"checks for integer overflows, contributed by Google.\"",
      "Threats": [
        {
          "Type": "Impact",
          "Severity": "important"
        }
      ],
      "References": [
        {
          "URL": "https://www.suse.com/security/cve/CVE-2008-3143.html",
          "Description": "CVE-2008-3143"
        },
        {
          "URL": "https://bugzilla.suse.com/406051",
          "Description": "SUSE Bug 406051"
        },
        {
          "URL": "https://bugzilla.suse.com/444989",
          "Description": "SUSE Bug 444989"
        },
        {
          "URL": "https://bugzilla.suse.com/609759",
          "Description": "SUSE Bug 609759"
        }
      ],
      "ProductStatuses": [
        {
          "Type": "Fixed",
          "ProductID": [
            "openSUSE Tumbleweed:python-2.7.18-8.1",
            "openSUSE Tumbleweed:python-32bit-2.7.18-8.1",
            "openSUSE Tumbleweed:python-curses-2.7.18-8.1",
            "openSUSE Tumbleweed:python-demo-2.7.18-8.1",
            "openSUSE Tumbleweed:python-gdbm-2.7.18-8.1",
            "openSUSE Tumbleweed:python-idle-2.7.18-8.1",
            "openSUSE Tumbleweed:python-tk-2.7.18-8.1"
          ]
        }
      ],
      "CVSSScoreSets": {}
    },
    {
      "CVE": "CVE-2008-3144",
      "Description": "Multiple integer overflows in the PyOS_vsnprintf function in Python/mysnprintf.c in Python 2.5.2 and earlier allow context-dependent attackers to cause a denial of service (memory corruption) or have unspecified other impact via crafted input to string formatting operations.  NOTE: the handling of certain integer values is also affected by related integer underflows and an off-by-one error.",
      "Threats": [
        {
          "Type": "Impact",
          "Severity": "moderate"
        }
      ],
      "References": [
        {
          "URL": "https://www.suse.com/security/cve/CVE-2008-3144.html",
          "Description": "CVE-2008-3144"
        },
        {
          "URL": "https://bugzilla.suse.com/406051",
          "Description": "SUSE Bug 406051"
        }
      ],
      "ProductStatuses": [
        {
          "Type": "Fixed",
          "ProductID": [
            "openSUSE Tumbleweed:python-2.7.18-8.1",
            "openSUSE Tumbleweed:python-32bit-2.7.18-8.1",
            "openSUSE Tumbleweed:python-curses-2.7.18-8.1",
            "openSUSE Tumbleweed:python-demo-2.7.18-8.1",
            "openSUSE Tumbleweed:python-gdbm-2.7.18-8.1",
            "openSUSE Tumbleweed:python-idle-2.7.18-8.1",
            "openSUSE Tumbleweed:python-tk-2.7.18-8.1"
          ]
        }
      ],
      "CVSSScoreSets": {}
    },
    {
      "CVE": "CVE-2011-1521",
      "Description": "The urllib and urllib2 modules in Python 2.x before 2.7.2 and 3.x before 3.2.1 process Location headers that specify redirection to file: URLs, which makes it easier for remote attackers to obtain sensitive information or cause a denial of service (resource consumption) via a crafted URL, as demonstrated by the file:///etc/passwd and file:///dev/zero URLs.",
      "Threats": [
        {
          "Type": "Impact",
          "Severity": "moderate"
        }
      ],
      "References": [
        {
          "URL": "https://www.suse.com/security/cve/CVE-2011-1521.html",
          "Description": "CVE-2011-1521"
        },
        {
          "URL": "https://bugzilla.suse.com/682554",
          "Description": "SUSE Bug 682554"
        }
      ],
      "ProductStatuses": [
        {
          "Type": "Fixed",
          "ProductID": [
            "openSUSE Tumbleweed:python-2.7.18-8.1",
            "openSUSE Tumbleweed:python-32bit-2.7.18-8.1",
            "openSUSE Tumbleweed:python-curses-2.7.18-8.1",
            "openSUSE Tumbleweed:python-demo-2.7.18-8.1",
            "openSUSE Tumbleweed:python-gdbm-2.7.18-8.1",
            "openSUSE Tumbleweed:python-idle-2.7.18-8.1",
            "openSUSE Tumbleweed:python-tk-2.7.18-8.1"
          ]
        }
      ],
      "CVSSScoreSets": {}
    },
    {
      "CVE": "CVE-2011-3389",
      "Description": "The SSL protocol, as used in certain configurations in Microsoft Windows and Microsoft Internet Explorer, Mozilla Firefox, Google Chrome, Opera, and other products, encrypts data by using CBC mode with chained initialization vectors, which allows man-in-the-middle attackers to obtain plaintext HTTP headers via a blockwise chosen-boundary attack (BCBA) on an HTTPS session, in conjunction with JavaScript code that uses (1) the HTML5 WebSocket API, (2) the Java URLConnection API, or (3) the Silverlight WebClient API, aka a \"BEAST\" attack.",
      "Threats": [
        {
          "Type": "Impact",
          "Severity": "moderate"
        }
      ],
      "References": [
        {
          "URL": "https://www.suse.com/security/cve/CVE-2011-3389.html",
          "Description": "CVE-2011-3389"
        },
        {
          "URL": "https://bugzilla.suse.com/716002",
          "Description": "SUSE Bug 716002"
        },
        {
          "URL": "https://bugzilla.suse.com/719047",
          "Description": "SUSE Bug 719047"
        },
        {
          "URL": "https://bugzilla.suse.com/725167",
          "Description": "SUSE Bug 725167"
        },
        {
          "URL": "https://bugzilla.suse.com/726096",
          "Description": "SUSE Bug 726096"
        },
        {
          "URL": "https://bugzilla.suse.com/739248",
          "Description": "SUSE Bug 739248"
        },
        {
          "URL": "https://bugzilla.suse.com/739256",
          "Description": "SUSE Bug 739256"
        },
        {
          "URL": "https://bugzilla.suse.com/742306",
          "Description": "SUSE Bug 742306"
        },
        {
          "URL": "https://bugzilla.suse.com/751718",
          "Description": "SUSE Bug 751718"
        },
        {
          "URL": "https://bugzilla.suse.com/759666",
          "Description": "SUSE Bug 759666"
        },
        {
          "URL": "https://bugzilla.suse.com/763598",
          "Description": "SUSE Bug 763598"
        },
        {
          "URL": "https://bugzilla.suse.com/814655",
          "Description": "SUSE Bug 814655"
        }
      ],
      "ProductStatuses": [
        {
          "Type": "Fixed",
          "ProductID": [
            "openSUSE Tumbleweed:python-2.7.18-8.1",
            "openSUSE Tumbleweed:python-32bit-2.7.18-8.1",
            "openSUSE Tumbleweed:python-curses-2.7.18-8.1",
            "openSUSE Tumbleweed:python-demo-2.7.18-8.1",
            "openSUSE Tumbleweed:python-gdbm-2.7.18-8.1",
            "openSUSE Tumbleweed:python-idle-2.7.18-8.1",
            "openSUSE Tumbleweed:python-tk-2.7.18-8.1"
          ]
        }
      ],
      "CVSSScoreSets": {}
    },
    {
      "CVE": "CVE-2011-4944",
      "Description": "Python 2.6 through 3.2 creates ~/.pypirc with world-readable permissions before changing them after data has been written, which introduces a race condition that allows local users to obtain a username and password by reading this file.",
      "Threats": [
        {
          "Type": "Impact",
          "Severity": "low"
        }
      ],
      "References": [
        {
          "URL": "https://www.suse.com/security/cve/CVE-2011-4944.html",
          "Description": "CVE-2011-4944"
        },
        {
          "URL": "https://bugzilla.suse.com/754447",
          "Description": "SUSE Bug 754447"
        }
      ],
      "ProductStatuses": [
        {
          "Type": "Fixed",
          "ProductID": [
            "openSUSE Tumbleweed:python-2.7.18-8.1",
            "openSUSE Tumbleweed:python-32bit-2.7.18-8.1",
            "openSUSE Tumbleweed:python-curses-2.7.18-8.1",
            "openSUSE Tumbleweed:python-demo-2.7.18-8.1",
            "openSUSE Tumbleweed:python-gdbm-2.7.18-8.1",
            "openSUSE Tumbleweed:python-idle-2.7.18-8.1",
            "openSUSE Tumbleweed:python-tk-2.7.18-8.1"
          ]
        }
      ],
      "CVSSScoreSets": {}
    },
    {
      "CVE": "CVE-2012-0845",
      "Description": "SimpleXMLRPCServer.py in SimpleXMLRPCServer in Python before 2.6.8, 2.7.x before 2.7.3, 3.x before 3.1.5, and 3.2.x before 3.2.3 allows remote attackers to cause a denial of service (infinite loop and CPU consumption) via an XML-RPC POST request that contains a smaller amount of data than specified by the Content-Length header.",
      "Threats": [
        {
          "Type": "Impact",
          "Severity": "moderate"
        }
      ],
      "References": [
        {
          "URL": "https://www.suse.com/security/cve/CVE-2012-0845.html",
          "Description": "CVE-2012-0845"
        },
        {
          "URL": "https://bugzilla.suse.com/747125",
          "Description": "SUSE Bug 747125"
        }
      ],
      "ProductStatuses": [
        {
          "Type": "Fixed",
          "ProductID": [
            "openSUSE Tumbleweed:python-2.7.18-8.1",
            "openSUSE Tumbleweed:python-32bit-2.7.18-8.1",
            "openSUSE Tumbleweed:python-curses-2.7.18-8.1",
            "openSUSE Tumbleweed:python-demo-2.7.18-8.1",
            "openSUSE Tumbleweed:python-gdbm-2.7.18-8.1",
            "openSUSE Tumbleweed:python-idle-2.7.18-8.1",
            "openSUSE Tumbleweed:python-tk-2.7.18-8.1"
          ]
        }
      ],
      "CVSSScoreSets": {}
    },
    {
      "CVE": "CVE-2012-1150",
      "Description": "Python before 2.6.8, 2.7.x before 2.7.3, 3.x before 3.1.5, and 3.2.x before 3.2.3 computes hash values without restricting the ability to trigger hash collisions predictably, which allows context-dependent attackers to cause a denial of service (CPU consumption) via crafted input to an application that maintains a hash table.",
      "Threats": [
        {
          "Type": "Impact",
          "Severity": "moderate"
        }
      ],
      "References": [
        {
          "URL": "https://www.suse.com/security/cve/CVE-2012-1150.html",
          "Description": "CVE-2012-1150"
        },
        {
          "URL": "https://bugzilla.suse.com/751718",
          "Description": "SUSE Bug 751718"
        },
        {
          "URL": "https://bugzilla.suse.com/755383",
          "Description": "SUSE Bug 755383"
        },
        {
          "URL": "https://bugzilla.suse.com/826682",
          "Description": "SUSE Bug 826682"
        }
      ],
      "ProductStatuses": [
        {
          "Type": "Fixed",
          "ProductID": [
            "openSUSE Tumbleweed:python-2.7.18-8.1",
            "openSUSE Tumbleweed:python-32bit-2.7.18-8.1",
            "openSUSE Tumbleweed:python-curses-2.7.18-8.1",
            "openSUSE Tumbleweed:python-demo-2.7.18-8.1",
            "openSUSE Tumbleweed:python-gdbm-2.7.18-8.1",
            "openSUSE Tumbleweed:python-idle-2.7.18-8.1",
            "openSUSE Tumbleweed:python-tk-2.7.18-8.1"
          ]
        }
      ],
      "CVSSScoreSets": {}
    },
    {
      "CVE": "CVE-2013-1752",
      "Description": "** REJECT ** Various versions of Python do not properly restrict readline calls, which allows remote attackers to cause a denial of service (memory consumption) via a long string, related to (1) httplib - fixed in 2.7.4, 2.6.9, and 3.3.3; (2) ftplib - fixed in 2.7.6, 2.6.9, 3.3.3; (3) imaplib - not yet fixed in 2.7.x, fixed in 2.6.9, 3.3.3; (4) nntplib - fixed in 2.7.6, 2.6.9, 3.3.3; (5) poplib - not yet fixed in 2.7.x, fixed in 2.6.9, 3.3.3; and (6) smtplib - not yet fixed in 2.7.x, fixed in 2.6.9, not yet fixed in 3.3.x. NOTE: this was REJECTed because it is incompatible with CNT1 \"Independently Fixable\" in the CVE Counting Decisions.",
      "Threats": [
        {
          "Type": "Impact",
          "Severity": "moderate"
        }
      ],
      "References": [
        {
          "URL": "https://www.suse.com/security/cve/CVE-2013-1752.html",
          "Description": "CVE-2013-1752"
        },
        {
          "URL": "https://bugzilla.suse.com/856835",
          "Description": "SUSE Bug 856835"
        },
        {
          "URL": "https://bugzilla.suse.com/856836",
          "Description": "SUSE Bug 856836"
        },
        {
          "URL": "https://bugzilla.suse.com/863741",
          "Description": "SUSE Bug 863741"
        },
        {
          "URL": "https://bugzilla.suse.com/885882",
          "Description": "SUSE Bug 885882"
        },
        {
          "URL": "https://bugzilla.suse.com/898572",
          "Description": "SUSE Bug 898572"
        },
        {
          "URL": "https://bugzilla.suse.com/912739",
          "Description": "SUSE Bug 912739"
        }
      ],
      "ProductStatuses": [
        {
          "Type": "Fixed",
          "ProductID": [
            "openSUSE Tumbleweed:python-2.7.18-8.1",
            "openSUSE Tumbleweed:python-32bit-2.7.18-8.1",
            "openSUSE Tumbleweed:python-curses-2.7.18-8.1",
            "openSUSE Tumbleweed:python-demo-2.7.18-8.1",
            "openSUSE Tumbleweed:python-gdbm-2.7.18-8.1",
            "openSUSE Tumbleweed:python-idle-2.7.18-8.1",
            "openSUSE Tumbleweed:python-tk-2.7.18-8.1"
          ]
        }
      ],
      "CVSSScoreSets": {}
    },
    {
      "CVE": "CVE-2013-1753",
      "Description": "The gzip_decode function in the xmlrpc client library in Python 3.4 and earlier allows remote attackers to cause a denial of service (memory consumption) via a crafted HTTP request.",
      "Threats": [
        {
          "Type": "Impact",
          "Severity": "moderate"
        }
      ],
      "References": [
        {
          "URL": "https://www.suse.com/security/cve/CVE-2013-1753.html",
          "Description": "CVE-2013-1753"
        },
        {
          "URL": "https://bugzilla.suse.com/856835",
          "Description": "SUSE Bug 856835"
        }
      ],
      "ProductStatuses": [
        {
          "Type": "Fixed",
          "ProductID": [
            "openSUSE Tumbleweed:python-2.7.18-8.1",
            "openSUSE Tumbleweed:python-32bit-2.7.18-8.1",
            "openSUSE Tumbleweed:python-curses-2.7.18-8.1",
            "openSUSE Tumbleweed:python-demo-2.7.18-8.1",
            "openSUSE Tumbleweed:python-gdbm-2.7.18-8.1",
            "openSUSE Tumbleweed:python-idle-2.7.18-8.1",
            "openSUSE Tumbleweed:python-tk-2.7.18-8.1"
          ]
        }
      ],
      "CVSSScoreSets": {}
    },
    {
      "CVE": "CVE-2014-1912",
      "Description": "Buffer overflow in the socket.recvfrom_into function in Modules/socketmodule.c in Python 2.5 before 2.7.7, 3.x before 3.3.4, and 3.4.x before 3.4rc1 allows remote attackers to execute arbitrary code via a crafted string.",
      "Threats": [
        {
          "Type": "Impact",
          "Severity": "important"
        }
      ],
      "References": [
        {
          "URL": "https://www.suse.com/security/cve/CVE-2014-1912.html",
          "Description": "CVE-2014-1912"
        },
        {
          "URL": "https://bugzilla.suse.com/1049392",
          "Description": "SUSE Bug 1049392"
        },
        {
          "URL": "https://bugzilla.suse.com/1049422",
          "Description": "SUSE Bug 1049422"
        },
        {
          "URL": "https://bugzilla.suse.com/863741",
          "Description": "SUSE Bug 863741"
        },
        {
          "URL": "https://bugzilla.suse.com/882915",
          "Description": "SUSE Bug 882915"
        },
        {
          "URL": "https://bugzilla.suse.com/912739",
          "Description": "SUSE Bug 912739"
        }
      ],
      "ProductStatuses": [
        {
          "Type": "Fixed",
          "ProductID": [
            "openSUSE Tumbleweed:python-2.7.18-8.1",
            "openSUSE Tumbleweed:python-32bit-2.7.18-8.1",
            "openSUSE Tumbleweed:python-curses-2.7.18-8.1",
            "openSUSE Tumbleweed:python-demo-2.7.18-8.1",
            "openSUSE Tumbleweed:python-gdbm-2.7.18-8.1",
            "openSUSE Tumbleweed:python-idle-2.7.18-8.1",
            "openSUSE Tumbleweed:python-tk-2.7.18-8.1"
          ]
        }
      ],
      "CVSSScoreSets": {}
    },
    {
      "CVE": "CVE-2014-4650",
      "Description": "The CGIHTTPServer module in Python 2.7.5 and 3.3.4 does not properly handle URLs in which URL encoding is used for path separators, which allows remote attackers to read script source code or conduct directory traversal attacks and execute unintended code via a crafted character sequence, as demonstrated by a %2f separator.",
      "Threats": [
        {
          "Type": "Impact",
          "Severity": "moderate"
        }
      ],
      "References": [
        {
          "URL": "https://www.suse.com/security/cve/CVE-2014-4650.html",
          "Description": "CVE-2014-4650"
        },
        {
          "URL": "https://bugzilla.suse.com/856835",
          "Description": "SUSE Bug 856835"
        },
        {
          "URL": "https://bugzilla.suse.com/856836",
          "Description": "SUSE Bug 856836"
        },
        {
          "URL": "https://bugzilla.suse.com/863741",
          "Description": "SUSE Bug 863741"
        },
        {
          "URL": "https://bugzilla.suse.com/885882",
          "Description": "SUSE Bug 885882"
        },
        {
          "URL": "https://bugzilla.suse.com/898572",
          "Description": "SUSE Bug 898572"
        },
        {
          "URL": "https://bugzilla.suse.com/912739",
          "Description": "SUSE Bug 912739"
        }
      ],
      "ProductStatuses": [
        {
          "Type": "Fixed",
          "ProductID": [
            "openSUSE Tumbleweed:python-2.7.18-8.1",
            "openSUSE Tumbleweed:python-32bit-2.7.18-8.1",
            "openSUSE Tumbleweed:python-curses-2.7.18-8.1",
            "openSUSE Tumbleweed:python-demo-2.7.18-8.1",
            "openSUSE Tumbleweed:python-gdbm-2.7.18-8.1",
            "openSUSE Tumbleweed:python-idle-2.7.18-8.1",
            "openSUSE Tumbleweed:python-tk-2.7.18-8.1"
          ]
        }
      ],
      "CVSSScoreSets": {}
    },
    {
      "CVE": "CVE-2014-7185",
      "Description": "Integer overflow in bufferobject.c in Python before 2.7.8 allows context-dependent attackers to obtain sensitive information from process memory via a large size and offset in a \"buffer\" function.",
      "Threats": [
        {
          "Type": "Impact",
          "Severity": "moderate"
        }
      ],
      "References": [
        {
          "URL": "https://www.suse.com/security/cve/CVE-2014-7185.html",
          "Description": "CVE-2014-7185"
        },
        {
          "URL": "https://bugzilla.suse.com/898572",
          "Description": "SUSE Bug 898572"
        },
        {
          "URL": "https://bugzilla.suse.com/912739",
          "Description": "SUSE Bug 912739"
        },
        {
          "URL": "https://bugzilla.suse.com/913479",
          "Description": "SUSE Bug 913479"
        },
        {
          "URL": "https://bugzilla.suse.com/955182",
          "Description": "SUSE Bug 955182"
        }
      ],
      "ProductStatuses": [
        {
          "Type": "Fixed",
          "ProductID": [
            "openSUSE Tumbleweed:python-2.7.18-8.1",
            "openSUSE Tumbleweed:python-32bit-2.7.18-8.1",
            "openSUSE Tumbleweed:python-curses-2.7.18-8.1",
            "openSUSE Tumbleweed:python-demo-2.7.18-8.1",
            "openSUSE Tumbleweed:python-gdbm-2.7.18-8.1",
            "openSUSE Tumbleweed:python-idle-2.7.18-8.1",
            "openSUSE Tumbleweed:python-tk-2.7.18-8.1"
          ]
        }
      ],
      "CVSSScoreSets": {}
    },
    {
      "CVE": "CVE-2016-1000110",
      "Description": "The CGIHandler class in Python before 2.7.12 does not protect against the HTTP_PROXY variable name clash in a CGI script, which could allow a remote attacker to redirect HTTP requests.",
      "Threats": [
        {
          "Type": "Impact",
          "Severity": "moderate"
        }
      ],
      "References": [
        {
          "URL": "https://www.suse.com/security/cve/CVE-2016-1000110.html",
          "Description": "CVE-2016-1000110"
        },
        {
          "URL": "https://bugzilla.suse.com/988484",
          "Description": "SUSE Bug 988484"
        },
        {
          "URL": "https://bugzilla.suse.com/989523",
          "Description": "SUSE Bug 989523"
        }
      ],
      "ProductStatuses": [
        {
          "Type": "Fixed",
          "ProductID": [
            "openSUSE Tumbleweed:python-2.7.18-8.1",
            "openSUSE Tumbleweed:python-32bit-2.7.18-8.1",
            "openSUSE Tumbleweed:python-curses-2.7.18-8.1",
            "openSUSE Tumbleweed:python-demo-2.7.18-8.1",
            "openSUSE Tumbleweed:python-gdbm-2.7.18-8.1",
            "openSUSE Tumbleweed:python-idle-2.7.18-8.1",
            "openSUSE Tumbleweed:python-tk-2.7.18-8.1"
          ]
        }
      ],
      "CVSSScoreSets": {
        "BaseScore": "5",
        "Vector": "AV:N/AC:L/Au:N/C:N/I:P/A:N"
      }
    },
    {
      "CVE": "CVE-2017-1000158",
      "Description": "CPython (aka Python) up to 2.7.13 is vulnerable to an integer overflow in the PyString_DecodeEscape function in stringobject.c, resulting in heap-based buffer overflow (and possible arbitrary code execution)",
      "Threats": [
        {
          "Type": "Impact",
          "Severity": "important"
        }
      ],
      "References": [
        {
          "URL": "https://www.suse.com/security/cve/CVE-2017-1000158.html",
          "Description": "CVE-2017-1000158"
        },
        {
          "URL": "https://bugzilla.suse.com/1068664",
          "Description": "SUSE Bug 1068664"
        }
      ],
      "ProductStatuses": [
        {
          "Type": "Fixed",
          "ProductID": [
            "openSUSE Tumbleweed:python-2.7.18-8.1",
            "openSUSE Tumbleweed:python-32bit-2.7.18-8.1",
            "openSUSE Tumbleweed:python-curses-2.7.18-8.1",
            "openSUSE Tumbleweed:python-demo-2.7.18-8.1",
            "openSUSE Tumbleweed:python-gdbm-2.7.18-8.1",
            "openSUSE Tumbleweed:python-idle-2.7.18-8.1",
            "openSUSE Tumbleweed:python-tk-2.7.18-8.1"
          ]
        }
      ],
      "CVSSScoreSets": {}
    },
    {
      "CVE": "CVE-2017-18207",
      "Description": "** DISPUTED ** The Wave_read._read_fmt_chunk function in Lib/wave.py in Python through 3.6.4 does not ensure a nonzero channel value, which allows attackers to cause a denial of service (divide-by-zero and exception) via a crafted wav format audio file. NOTE: the vendor disputes this issue because Python applications \"need to be prepared to handle a wide variety of exceptions.\"",
      "Threats": [
        {
          "Type": "Impact",
          "Severity": "moderate"
        }
      ],
      "References": [
        {
          "URL": "https://www.suse.com/security/cve/CVE-2017-18207.html",
          "Description": "CVE-2017-18207"
        },
        {
          "URL": "https://bugzilla.suse.com/1083507",
          "Description": "SUSE Bug 1083507"
        }
      ],
      "ProductStatuses": [
        {
          "Type": "Fixed",
          "ProductID": [
            "openSUSE Tumbleweed:python-2.7.18-8.1",
            "openSUSE Tumbleweed:python-32bit-2.7.18-8.1",
            "openSUSE Tumbleweed:python-curses-2.7.18-8.1",
            "openSUSE Tumbleweed:python-demo-2.7.18-8.1",
            "openSUSE Tumbleweed:python-gdbm-2.7.18-8.1",
            "openSUSE Tumbleweed:python-idle-2.7.18-8.1",
            "openSUSE Tumbleweed:python-tk-2.7.18-8.1"
          ]
        }
      ],
      "CVSSScoreSets": {}
    },
    {
      "CVE": "CVE-2018-1000030",
      "Description": "Python 2.7.14 is vulnerable to a Heap-Buffer-Overflow as well as a Heap-Use-After-Free. Python versions prior to 2.7.14 may also be vulnerable and it appears that Python 2.7.17 and prior may also be vulnerable however this has not been confirmed. The vulnerability lies when multiply threads are handling large amounts of data. In both cases there is essentially a race condition that occurs. For the Heap-Buffer-Overflow, Thread 2 is creating the size for a buffer, but Thread1 is already writing to the buffer without knowing how much to write. So when a large amount of data is being processed, it is very easy to cause memory corruption using a Heap-Buffer-Overflow. As for the Use-After-Free, Thread3-\u003eMalloc-\u003eThread1-\u003eFree's-\u003eThread2-Re-uses-Free'd Memory. The PSRT has stated that this is not a security vulnerability due to the fact that the attacker must be able to run code, however in some situations, such as function as a service, this vulnerability can potentially be used by an attacker to violate a trust boundary, as such the DWF feels this issue deserves a CVE.",
      "Threats": [
        {
          "Type": "Impact",
          "Severity": "important"
        }
      ],
      "References": [
        {
          "URL": "https://www.suse.com/security/cve/CVE-2018-1000030.html",
          "Description": "CVE-2018-1000030"
        },
        {
          "URL": "https://bugzilla.suse.com/1079300",
          "Description": "SUSE Bug 1079300"
        }
      ],
      "ProductStatuses": [
        {
          "Type": "Fixed",
          "ProductID": [
            "openSUSE Tumbleweed:python-2.7.18-8.1",
            "openSUSE Tumbleweed:python-32bit-2.7.18-8.1",
            "openSUSE Tumbleweed:python-curses-2.7.18-8.1",
            "openSUSE Tumbleweed:python-demo-2.7.18-8.1",
            "openSUSE Tumbleweed:python-gdbm-2.7.18-8.1",
            "openSUSE Tumbleweed:python-idle-2.7.18-8.1",
            "openSUSE Tumbleweed:python-tk-2.7.18-8.1"
          ]
        }
      ],
      "CVSSScoreSets": {}
    },
    {
      "CVE": "CVE-2018-1000802",
      "Description": "Python Software Foundation Python (CPython) version 2.7 contains a CWE-77: Improper Neutralization of Special Elements used in a Command ('Command Injection') vulnerability in shutil module (make_archive function) that can result in Denial of service, Information gain via injection of arbitrary files on the system or entire drive. This attack appear to be exploitable via Passage of unfiltered user input to the function. This vulnerability appears to have been fixed in after commit add531a1e55b0a739b0f42582f1c9747e5649ace.",
      "Threats": [
        {
          "Type": "Impact",
          "Severity": "moderate"
        }
      ],
      "References": [
        {
          "URL": "https://www.suse.com/security/cve/CVE-2018-1000802.html",
          "Description": "CVE-2018-1000802"
        },
        {
          "URL": "https://bugzilla.suse.com/1109663",
          "Description": "SUSE Bug 1109663"
        }
      ],
      "ProductStatuses": [
        {
          "Type": "Fixed",
          "ProductID": [
            "openSUSE Tumbleweed:python-2.7.18-8.1",
            "openSUSE Tumbleweed:python-32bit-2.7.18-8.1",
            "openSUSE Tumbleweed:python-curses-2.7.18-8.1",
            "openSUSE Tumbleweed:python-demo-2.7.18-8.1",
            "openSUSE Tumbleweed:python-gdbm-2.7.18-8.1",
            "openSUSE Tumbleweed:python-idle-2.7.18-8.1",
            "openSUSE Tumbleweed:python-tk-2.7.18-8.1"
          ]
        }
      ],
      "CVSSScoreSets": {}
    },
    {
      "CVE": "CVE-2018-1060",
      "Description": "python before versions 2.7.15, 3.4.9, 3.5.6rc1, 3.6.5rc1 and 3.7.0 is vulnerable to catastrophic backtracking in pop3lib's apop() method. An attacker could use this flaw to cause denial of service.",
      "Threats": [
        {
          "Type": "Impact",
          "Severity": "low"
        }
      ],
      "References": [
        {
          "URL": "https://www.suse.com/security/cve/CVE-2018-1060.html",
          "Description": "CVE-2018-1060"
        },
        {
          "URL": "https://bugzilla.suse.com/1088009",
          "Description": "SUSE Bug 1088009"
        }
      ],
      "ProductStatuses": [
        {
          "Type": "Fixed",
          "ProductID": [
            "openSUSE Tumbleweed:python-2.7.18-8.1",
            "openSUSE Tumbleweed:python-32bit-2.7.18-8.1",
            "openSUSE Tumbleweed:python-curses-2.7.18-8.1",
            "openSUSE Tumbleweed:python-demo-2.7.18-8.1",
            "openSUSE Tumbleweed:python-gdbm-2.7.18-8.1",
            "openSUSE Tumbleweed:python-idle-2.7.18-8.1",
            "openSUSE Tumbleweed:python-tk-2.7.18-8.1"
          ]
        }
      ],
      "CVSSScoreSets": {}
    },
    {
      "CVE": "CVE-2018-1061",
      "Description": "python before versions 2.7.15, 3.4.9, 3.5.6rc1, 3.6.5rc1 and 3.7.0 is vulnerable to catastrophic backtracking in the difflib.IS_LINE_JUNK method.  An attacker could use this flaw to cause denial of service.",
      "Threats": [
        {
          "Type": "Impact",
          "Severity": "moderate"
        }
      ],
      "References": [
        {
          "URL": "https://www.suse.com/security/cve/CVE-2018-1061.html",
          "Description": "CVE-2018-1061"
        },
        {
          "URL": "https://bugzilla.suse.com/1088004",
          "Description": "SUSE Bug 1088004"
        }
      ],
      "ProductStatuses": [
        {
          "Type": "Fixed",
          "ProductID": [
            "openSUSE Tumbleweed:python-2.7.18-8.1",
            "openSUSE Tumbleweed:python-32bit-2.7.18-8.1",
            "openSUSE Tumbleweed:python-curses-2.7.18-8.1",
            "openSUSE Tumbleweed:python-demo-2.7.18-8.1",
            "openSUSE Tumbleweed:python-gdbm-2.7.18-8.1",
            "openSUSE Tumbleweed:python-idle-2.7.18-8.1",
            "openSUSE Tumbleweed:python-tk-2.7.18-8.1"
          ]
        }
      ],
      "CVSSScoreSets": {}
    },
    {
      "CVE": "CVE-2018-14647",
      "Description": "Python's elementtree C accelerator failed to initialise Expat's hash salt during initialization. This could make it easy to conduct denial of service attacks against Expat by constructing an XML document that would cause pathological hash collisions in Expat's internal data structures, consuming large amounts CPU and RAM. The vulnerability exists in Python versions 3.7.0, 3.6.0 through 3.6.6, 3.5.0 through 3.5.6, 3.4.0 through 3.4.9, 2.7.0 through 2.7.15.",
      "Threats": [
        {
          "Type": "Impact",
          "Severity": "moderate"
        }
      ],
      "References": [
        {
          "URL": "https://www.suse.com/security/cve/CVE-2018-14647.html",
          "Description": "CVE-2018-14647"
        },
        {
          "URL": "https://bugzilla.suse.com/1109847",
          "Description": "SUSE Bug 1109847"
        },
        {
          "URL": "https://bugzilla.suse.com/1126909",
          "Description": "SUSE Bug 1126909"
        }
      ],
      "ProductStatuses": [
        {
          "Type": "Fixed",
          "ProductID": [
            "openSUSE Tumbleweed:python-2.7.18-8.1",
            "openSUSE Tumbleweed:python-32bit-2.7.18-8.1",
            "openSUSE Tumbleweed:python-curses-2.7.18-8.1",
            "openSUSE Tumbleweed:python-demo-2.7.18-8.1",
            "openSUSE Tumbleweed:python-gdbm-2.7.18-8.1",
            "openSUSE Tumbleweed:python-idle-2.7.18-8.1",
            "openSUSE Tumbleweed:python-tk-2.7.18-8.1"
          ]
        }
      ],
      "CVSSScoreSets": {}
    },
    {
      "CVE": "CVE-2018-20852",
      "Description": "http.cookiejar.DefaultPolicy.domain_return_ok in Lib/http/cookiejar.py in Python before 3.7.3 does not correctly validate the domain: it can be tricked into sending existing cookies to the wrong server. An attacker may abuse this flaw by using a server with a hostname that has another valid hostname as a suffix (e.g., pythonicexample.com to steal cookies for example.com). When a program uses http.cookiejar.DefaultPolicy and tries to do an HTTP connection to an attacker-controlled server, existing cookies can be leaked to the attacker. This affects 2.x through 2.7.16, 3.x before 3.4.10, 3.5.x before 3.5.7, 3.6.x before 3.6.9, and 3.7.x before 3.7.3.",
      "Threats": [
        {
          "Type": "Impact",
          "Severity": "moderate"
        }
      ],
      "References": [
        {
          "URL": "https://www.suse.com/security/cve/CVE-2018-20852.html",
          "Description": "CVE-2018-20852"
        },
        {
          "URL": "https://bugzilla.suse.com/1141853",
          "Description": "SUSE Bug 1141853"
        }
      ],
      "ProductStatuses": [
        {
          "Type": "Fixed",
          "ProductID": [
            "openSUSE Tumbleweed:python-2.7.18-8.1",
            "openSUSE Tumbleweed:python-32bit-2.7.18-8.1",
            "openSUSE Tumbleweed:python-curses-2.7.18-8.1",
            "openSUSE Tumbleweed:python-demo-2.7.18-8.1",
            "openSUSE Tumbleweed:python-gdbm-2.7.18-8.1",
            "openSUSE Tumbleweed:python-idle-2.7.18-8.1",
            "openSUSE Tumbleweed:python-tk-2.7.18-8.1"
          ]
        }
      ],
      "CVSSScoreSets": {}
    },
    {
      "CVE": "CVE-2019-10160",
      "Description": "A security regression of CVE-2019-9636 was discovered in python since commit d537ab0ff9767ef024f26246899728f0116b1ec3 affecting versions 2.7, 3.5, 3.6, 3.7 and from v3.8.0a4 through v3.8.0b1, which still allows an attacker to exploit CVE-2019-9636 by abusing the user and password parts of a URL. When an application parses user-supplied URLs to store cookies, authentication credentials, or other kind of information, it is possible for an attacker to provide specially crafted URLs to make the application locate host-related information (e.g. cookies, authentication data) and send them to a different host than where it should, unlike if the URLs had been correctly parsed. The result of an attack may vary based on the application.",
      "Threats": [
        {
          "Type": "Impact",
          "Severity": "critical"
        }
      ],
      "References": [
        {
          "URL": "https://www.suse.com/security/cve/CVE-2019-10160.html",
          "Description": "CVE-2019-10160"
        },
        {
          "URL": "https://bugzilla.suse.com/1138459",
          "Description": "SUSE Bug 1138459"
        }
      ],
      "ProductStatuses": [
        {
          "Type": "Fixed",
          "ProductID": [
            "openSUSE Tumbleweed:python-2.7.18-8.1",
            "openSUSE Tumbleweed:python-32bit-2.7.18-8.1",
            "openSUSE Tumbleweed:python-curses-2.7.18-8.1",
            "openSUSE Tumbleweed:python-demo-2.7.18-8.1",
            "openSUSE Tumbleweed:python-gdbm-2.7.18-8.1",
            "openSUSE Tumbleweed:python-idle-2.7.18-8.1",
            "openSUSE Tumbleweed:python-tk-2.7.18-8.1"
          ]
        }
      ],
      "CVSSScoreSets": {}
    },
    {
      "CVE": "CVE-2019-16056",
      "Description": "An issue was discovered in Python through 2.7.16, 3.x through 3.5.7, 3.6.x through 3.6.9, and 3.7.x through 3.7.4. The email module wrongly parses email addresses that contain multiple @ characters. An application that uses the email module and implements some kind of checks on the From/To headers of a message could be tricked into accepting an email address that should be denied. An attack may be the same as in CVE-2019-11340; however, this CVE applies to Python more generally.",
      "Threats": [
        {
          "Type": "Impact",
          "Severity": "moderate"
        }
      ],
      "References": [
        {
          "URL": "https://www.suse.com/security/cve/CVE-2019-16056.html",
          "Description": "CVE-2019-16056"
        },
        {
          "URL": "https://bugzilla.suse.com/1149955",
          "Description": "SUSE Bug 1149955"
        }
      ],
      "ProductStatuses": [
        {
          "Type": "Fixed",
          "ProductID": [
            "openSUSE Tumbleweed:python-2.7.18-8.1",
            "openSUSE Tumbleweed:python-32bit-2.7.18-8.1",
            "openSUSE Tumbleweed:python-curses-2.7.18-8.1",
            "openSUSE Tumbleweed:python-demo-2.7.18-8.1",
            "openSUSE Tumbleweed:python-gdbm-2.7.18-8.1",
            "openSUSE Tumbleweed:python-idle-2.7.18-8.1",
            "openSUSE Tumbleweed:python-tk-2.7.18-8.1"
          ]
        }
      ],
      "CVSSScoreSets": {}
    },
    {
      "CVE": "CVE-2019-16935",
      "Description": "The documentation XML-RPC server in Python through 2.7.16, 3.x through 3.6.9, and 3.7.x through 3.7.4 has XSS via the server_title field. This occurs in Lib/DocXMLRPCServer.py in Python 2.x, and in Lib/xmlrpc/server.py in Python 3.x. If set_server_title is called with untrusted input, arbitrary JavaScript can be delivered to clients that visit the http URL for this server.",
      "Threats": [
        {
          "Type": "Impact",
          "Severity": "moderate"
        }
      ],
      "References": [
        {
          "URL": "https://www.suse.com/security/cve/CVE-2019-16935.html",
          "Description": "CVE-2019-16935"
        },
        {
          "URL": "https://bugzilla.suse.com/1153238",
          "Description": "SUSE Bug 1153238"
        }
      ],
      "ProductStatuses": [
        {
          "Type": "Fixed",
          "ProductID": [
            "openSUSE Tumbleweed:python-2.7.18-8.1",
            "openSUSE Tumbleweed:python-32bit-2.7.18-8.1",
            "openSUSE Tumbleweed:python-curses-2.7.18-8.1",
            "openSUSE Tumbleweed:python-demo-2.7.18-8.1",
            "openSUSE Tumbleweed:python-gdbm-2.7.18-8.1",
            "openSUSE Tumbleweed:python-idle-2.7.18-8.1",
            "openSUSE Tumbleweed:python-tk-2.7.18-8.1"
          ]
        }
      ],
      "CVSSScoreSets": {}
    },
    {
      "CVE": "CVE-2019-18348",
      "Description": "An issue was discovered in urllib2 in Python 2.x through 2.7.17 and urllib in Python 3.x through 3.8.0. CRLF injection is possible if the attacker controls a url parameter, as demonstrated by the first argument to urllib.request.urlopen with \\r\\n (specifically in the host component of a URL) followed by an HTTP header. This is similar to the CVE-2019-9740 query string issue and the CVE-2019-9947 path string issue. (This is not exploitable when glibc has CVE-2016-10739 fixed.). This is fixed in: v2.7.18, v2.7.18rc1; v3.5.10, v3.5.10rc1; v3.6.11, v3.6.11rc1, v3.6.12; v3.7.8, v3.7.8rc1, v3.7.9; v3.8.3, v3.8.3rc1, v3.8.4, v3.8.4rc1, v3.8.5, v3.8.6, v3.8.6rc1.",
      "Threats": [
        {
          "Type": "Impact",
          "Severity": "moderate"
        }
      ],
      "References": [
        {
          "URL": "https://www.suse.com/security/cve/CVE-2019-18348.html",
          "Description": "CVE-2019-18348"
        },
        {
          "URL": "https://bugzilla.suse.com/1155094",
          "Description": "SUSE Bug 1155094"
        }
      ],
      "ProductStatuses": [
        {
          "Type": "Fixed",
          "ProductID": [
            "openSUSE Tumbleweed:python-2.7.18-8.1",
            "openSUSE Tumbleweed:python-32bit-2.7.18-8.1",
            "openSUSE Tumbleweed:python-curses-2.7.18-8.1",
            "openSUSE Tumbleweed:python-demo-2.7.18-8.1",
            "openSUSE Tumbleweed:python-gdbm-2.7.18-8.1",
            "openSUSE Tumbleweed:python-idle-2.7.18-8.1",
            "openSUSE Tumbleweed:python-tk-2.7.18-8.1"
          ]
        }
      ],
      "CVSSScoreSets": {}
    },
    {
      "CVE": "CVE-2019-5010",
      "Description": "An exploitable denial-of-service vulnerability exists in the X509 certificate parser of Python.org Python 2.7.11 / 3.6.6. A specially crafted X509 certificate can cause a NULL pointer dereference, resulting in a denial of service. An attacker can initiate or accept TLS connections using crafted certificates to trigger this vulnerability.",
      "Threats": [
        {
          "Type": "Impact",
          "Severity": "important"
        }
      ],
      "References": [
        {
          "URL": "https://www.suse.com/security/cve/CVE-2019-5010.html",
          "Description": "CVE-2019-5010"
        },
        {
          "URL": "https://bugzilla.suse.com/1122191",
          "Description": "SUSE Bug 1122191"
        },
        {
          "URL": "https://bugzilla.suse.com/1126909",
          "Description": "SUSE Bug 1126909"
        }
      ],
      "ProductStatuses": [
        {
          "Type": "Fixed",
          "ProductID": [
            "openSUSE Tumbleweed:python-2.7.18-8.1",
            "openSUSE Tumbleweed:python-32bit-2.7.18-8.1",
            "openSUSE Tumbleweed:python-curses-2.7.18-8.1",
            "openSUSE Tumbleweed:python-demo-2.7.18-8.1",
            "openSUSE Tumbleweed:python-gdbm-2.7.18-8.1",
            "openSUSE Tumbleweed:python-idle-2.7.18-8.1",
            "openSUSE Tumbleweed:python-tk-2.7.18-8.1"
          ]
        }
      ],
      "CVSSScoreSets": {}
    },
    {
      "CVE": "CVE-2019-9636",
      "Description": "Python 2.7.x through 2.7.16 and 3.x through 3.7.2 is affected by: Improper Handling of Unicode Encoding (with an incorrect netloc) during NFKC normalization. The impact is: Information disclosure (credentials, cookies, etc. that are cached against a given hostname). The components are: urllib.parse.urlsplit, urllib.parse.urlparse. The attack vector is: A specially crafted URL could be incorrectly parsed to locate cookies or authentication data and send that information to a different host than when parsed correctly. This is fixed in: v2.7.17, v2.7.17rc1, v2.7.18, v2.7.18rc1; v3.5.10, v3.5.10rc1, v3.5.7, v3.5.8, v3.5.8rc1, v3.5.8rc2, v3.5.9; v3.6.10, v3.6.10rc1, v3.6.11, v3.6.11rc1, v3.6.12, v3.6.9, v3.6.9rc1; v3.7.3, v3.7.3rc1, v3.7.4, v3.7.4rc1, v3.7.4rc2, v3.7.5, v3.7.5rc1, v3.7.6, v3.7.6rc1, v3.7.7, v3.7.7rc1, v3.7.8, v3.7.8rc1, v3.7.9.",
      "Threats": [
        {
          "Type": "Impact",
          "Severity": "important"
        }
      ],
      "References": [
        {
          "URL": "https://www.suse.com/security/cve/CVE-2019-9636.html",
          "Description": "CVE-2019-9636"
        },
        {
          "URL": "https://bugzilla.suse.com/1129346",
          "Description": "SUSE Bug 1129346"
        },
        {
          "URL": "https://bugzilla.suse.com/1135433",
          "Description": "SUSE Bug 1135433"
        },
        {
          "URL": "https://bugzilla.suse.com/1138459",
          "Description": "SUSE Bug 1138459"
        },
        {
          "URL": "https://bugzilla.suse.com/1145004",
          "Description": "SUSE Bug 1145004"
        }
      ],
      "ProductStatuses": [
        {
          "Type": "Fixed",
          "ProductID": [
            "openSUSE Tumbleweed:python-2.7.18-8.1",
            "openSUSE Tumbleweed:python-32bit-2.7.18-8.1",
            "openSUSE Tumbleweed:python-curses-2.7.18-8.1",
            "openSUSE Tumbleweed:python-demo-2.7.18-8.1",
            "openSUSE Tumbleweed:python-gdbm-2.7.18-8.1",
            "openSUSE Tumbleweed:python-idle-2.7.18-8.1",
            "openSUSE Tumbleweed:python-tk-2.7.18-8.1"
          ]
        }
      ],
      "CVSSScoreSets": {}
    },
    {
      "CVE": "CVE-2019-9674",
      "Description": "Lib/zipfile.py in Python through 3.7.2 allows remote attackers to cause a denial of service (resource consumption) via a ZIP bomb.",
      "Threats": [
        {
          "Type": "Impact",
          "Severity": "moderate"
        }
      ],
      "References": [
        {
          "URL": "https://www.suse.com/security/cve/CVE-2019-9674.html",
          "Description": "CVE-2019-9674"
        },
        {
          "URL": "https://bugzilla.suse.com/1162825",
          "Description": "SUSE Bug 1162825"
        }
      ],
      "ProductStatuses": [
        {
          "Type": "Fixed",
          "ProductID": [
            "openSUSE Tumbleweed:python-2.7.18-8.1",
            "openSUSE Tumbleweed:python-32bit-2.7.18-8.1",
            "openSUSE Tumbleweed:python-curses-2.7.18-8.1",
            "openSUSE Tumbleweed:python-demo-2.7.18-8.1",
            "openSUSE Tumbleweed:python-gdbm-2.7.18-8.1",
            "openSUSE Tumbleweed:python-idle-2.7.18-8.1",
            "openSUSE Tumbleweed:python-tk-2.7.18-8.1"
          ]
        }
      ],
      "CVSSScoreSets": {}
    },
    {
      "CVE": "CVE-2019-9947",
      "Description": "An issue was discovered in urllib2 in Python 2.x through 2.7.16 and urllib in Python 3.x through 3.7.3. CRLF injection is possible if the attacker controls a url parameter, as demonstrated by the first argument to urllib.request.urlopen with \\r\\n (specifically in the path component of a URL that lacks a ? character) followed by an HTTP header or a Redis command. This is similar to the CVE-2019-9740 query string issue. This is fixed in: v2.7.17, v2.7.17rc1, v2.7.18, v2.7.18rc1; v3.5.10, v3.5.10rc1, v3.5.8, v3.5.8rc1, v3.5.8rc2, v3.5.9; v3.6.10, v3.6.10rc1, v3.6.11, v3.6.11rc1, v3.6.12, v3.6.9, v3.6.9rc1; v3.7.4, v3.7.4rc1, v3.7.4rc2, v3.7.5, v3.7.5rc1, v3.7.6, v3.7.6rc1, v3.7.7, v3.7.7rc1, v3.7.8, v3.7.8rc1, v3.7.9.",
      "Threats": [
        {
          "Type": "Impact",
          "Severity": "moderate"
        }
      ],
      "References": [
        {
          "URL": "https://www.suse.com/security/cve/CVE-2019-9947.html",
          "Description": "CVE-2019-9947"
        },
        {
          "URL": "https://bugzilla.suse.com/1130840",
          "Description": "SUSE Bug 1130840"
        },
        {
          "URL": "https://bugzilla.suse.com/1136184",
          "Description": "SUSE Bug 1136184"
        },
        {
          "URL": "https://bugzilla.suse.com/1155094",
          "Description": "SUSE Bug 1155094"
        },
        {
          "URL": "https://bugzilla.suse.com/1201559",
          "Description": "SUSE Bug 1201559"
        }
      ],
      "ProductStatuses": [
        {
          "Type": "Fixed",
          "ProductID": [
            "openSUSE Tumbleweed:python-2.7.18-8.1",
            "openSUSE Tumbleweed:python-32bit-2.7.18-8.1",
            "openSUSE Tumbleweed:python-curses-2.7.18-8.1",
            "openSUSE Tumbleweed:python-demo-2.7.18-8.1",
            "openSUSE Tumbleweed:python-gdbm-2.7.18-8.1",
            "openSUSE Tumbleweed:python-idle-2.7.18-8.1",
            "openSUSE Tumbleweed:python-tk-2.7.18-8.1"
          ]
        }
      ],
      "CVSSScoreSets": {}
    },
    {
      "CVE": "CVE-2019-9948",
      "Description": "urllib in Python 2.x through 2.7.16 supports the local_file: scheme, which makes it easier for remote attackers to bypass protection mechanisms that blacklist file: URIs, as demonstrated by triggering a urllib.urlopen('local_file:///etc/passwd') call.",
      "Threats": [
        {
          "Type": "Impact",
          "Severity": "low"
        }
      ],
      "References": [
        {
          "URL": "https://www.suse.com/security/cve/CVE-2019-9948.html",
          "Description": "CVE-2019-9948"
        },
        {
          "URL": "https://bugzilla.suse.com/1130847",
          "Description": "SUSE Bug 1130847"
        },
        {
          "URL": "https://bugzilla.suse.com/1135433",
          "Description": "SUSE Bug 1135433"
        }
      ],
      "ProductStatuses": [
        {
          "Type": "Fixed",
          "ProductID": [
            "openSUSE Tumbleweed:python-2.7.18-8.1",
            "openSUSE Tumbleweed:python-32bit-2.7.18-8.1",
            "openSUSE Tumbleweed:python-curses-2.7.18-8.1",
            "openSUSE Tumbleweed:python-demo-2.7.18-8.1",
            "openSUSE Tumbleweed:python-gdbm-2.7.18-8.1",
            "openSUSE Tumbleweed:python-idle-2.7.18-8.1",
            "openSUSE Tumbleweed:python-tk-2.7.18-8.1"
          ]
        }
      ],
      "CVSSScoreSets": {}
    },
    {
      "CVE": "CVE-2020-8492",
      "Description": "Python 2.7 through 2.7.17, 3.5 through 3.5.9, 3.6 through 3.6.10, 3.7 through 3.7.6, and 3.8 through 3.8.1 allows an HTTP server to conduct Regular Expression Denial of Service (ReDoS) attacks against a client because of urllib.request.AbstractBasicAuthHandler catastrophic backtracking.",
      "Threats": [
        {
          "Type": "Impact",
          "Severity": "moderate"
        }
      ],
      "References": [
        {
          "URL": "https://www.suse.com/security/cve/CVE-2020-8492.html",
          "Description": "CVE-2020-8492"
        },
        {
          "URL": "https://bugzilla.suse.com/1162367",
          "Description": "SUSE Bug 1162367"
        }
      ],
      "ProductStatuses": [
        {
          "Type": "Fixed",
          "ProductID": [
            "openSUSE Tumbleweed:python-2.7.18-8.1",
            "openSUSE Tumbleweed:python-32bit-2.7.18-8.1",
            "openSUSE Tumbleweed:python-curses-2.7.18-8.1",
            "openSUSE Tumbleweed:python-demo-2.7.18-8.1",
            "openSUSE Tumbleweed:python-gdbm-2.7.18-8.1",
            "openSUSE Tumbleweed:python-idle-2.7.18-8.1",
            "openSUSE Tumbleweed:python-tk-2.7.18-8.1"
          ]
        }
      ],
      "CVSSScoreSets": {}
    },
    {
      "CVE": "CVE-2021-23336",
      "Description": "The package python/cpython from 0 and before 3.6.13, from 3.7.0 and before 3.7.10, from 3.8.0 and before 3.8.8, from 3.9.0 and before 3.9.2 are vulnerable to Web Cache Poisoning via urllib.parse.parse_qsl and urllib.parse.parse_qs by using a vector called parameter cloaking. When the attacker can separate query parameters using a semicolon (;), they can cause a difference in the interpretation of the request between the proxy (running with default configuration) and the server. This can result in malicious requests being cached as completely safe ones, as the proxy would usually not see the semicolon as a separator, and therefore would not include it in a cache key of an unkeyed parameter.",
      "Threats": [
        {
          "Type": "Impact",
          "Severity": "moderate"
        }
      ],
      "References": [
        {
          "URL": "https://www.suse.com/security/cve/CVE-2021-23336.html",
          "Description": "CVE-2021-23336"
        },
        {
          "URL": "https://bugzilla.suse.com/1182179",
          "Description": "SUSE Bug 1182179"
        },
        {
          "URL": "https://bugzilla.suse.com/1182379",
          "Description": "SUSE Bug 1182379"
        },
        {
          "URL": "https://bugzilla.suse.com/1182433",
          "Description": "SUSE Bug 1182433"
        }
      ],
      "ProductStatuses": [
        {
          "Type": "Fixed",
          "ProductID": [
            "openSUSE Tumbleweed:python-2.7.18-8.1",
            "openSUSE Tumbleweed:python-32bit-2.7.18-8.1",
            "openSUSE Tumbleweed:python-curses-2.7.18-8.1",
            "openSUSE Tumbleweed:python-demo-2.7.18-8.1",
            "openSUSE Tumbleweed:python-gdbm-2.7.18-8.1",
            "openSUSE Tumbleweed:python-idle-2.7.18-8.1",
            "openSUSE Tumbleweed:python-tk-2.7.18-8.1"
          ]
        }
      ],
      "CVSSScoreSets": {}
    },
    {
      "CVE": "CVE-2021-3177",
      "Description": "Python 3.x through 3.9.1 has a buffer overflow in PyCArg_repr in _ctypes/callproc.c, which may lead to remote code execution in certain Python applications that accept floating-point numbers as untrusted input, as demonstrated by a 1e300 argument to c_double.from_param. This occurs because sprintf is used unsafely.",
      "Threats": [
        {
          "Type": "Impact",
          "Severity": "moderate"
        }
      ],
      "References": [
        {
          "URL": "https://www.suse.com/security/cve/CVE-2021-3177.html",
          "Description": "CVE-2021-3177"
        },
        {
          "URL": "https://bugzilla.suse.com/1181126",
          "Description": "SUSE Bug 1181126"
        }
      ],
      "ProductStatuses": [
        {
          "Type": "Fixed",
          "ProductID": [
            "openSUSE Tumbleweed:python-2.7.18-8.1",
            "openSUSE Tumbleweed:python-32bit-2.7.18-8.1",
            "openSUSE Tumbleweed:python-curses-2.7.18-8.1",
            "openSUSE Tumbleweed:python-demo-2.7.18-8.1",
            "openSUSE Tumbleweed:python-gdbm-2.7.18-8.1",
            "openSUSE Tumbleweed:python-idle-2.7.18-8.1",
            "openSUSE Tumbleweed:python-tk-2.7.18-8.1"
          ]
        }
      ],
      "CVSSScoreSets": {}
    },
    {
      "CVE": "CVE-2021-3733",
      "Description": "There's a flaw in urllib's AbstractBasicAuthHandler class. An attacker who controls a malicious HTTP server that an HTTP client (such as web browser) connects to, could trigger a Regular Expression Denial of Service (ReDOS) during an authentication request with a specially crafted payload that is sent by the server to the client. The greatest threat that this flaw poses is to application availability.",
      "Threats": [
        {
          "Type": "Impact",
          "Severity": "low"
        }
      ],
      "References": [
        {
          "URL": "https://www.suse.com/security/cve/CVE-2021-3733.html",
          "Description": "CVE-2021-3733"
        },
        {
          "URL": "https://bugzilla.suse.com/1189287",
          "Description": "SUSE Bug 1189287"
        }
      ],
      "ProductStatuses": [
        {
          "Type": "Fixed",
          "ProductID": [
            "openSUSE Tumbleweed:python-2.7.18-8.1",
            "openSUSE Tumbleweed:python-32bit-2.7.18-8.1",
            "openSUSE Tumbleweed:python-curses-2.7.18-8.1",
            "openSUSE Tumbleweed:python-demo-2.7.18-8.1",
            "openSUSE Tumbleweed:python-gdbm-2.7.18-8.1",
            "openSUSE Tumbleweed:python-idle-2.7.18-8.1",
            "openSUSE Tumbleweed:python-tk-2.7.18-8.1"
          ]
        }
      ],
      "CVSSScoreSets": {}
    },
    {
      "CVE": "CVE-2021-3737",
      "Description": "A flaw was found in python. An improperly handled HTTP response in the HTTP client code of python may allow a remote attacker, who controls the HTTP server, to make the client script enter an infinite loop, consuming CPU time. The highest threat from this vulnerability is to system availability.",
      "Threats": [
        {
          "Type": "Impact",
          "Severity": "moderate"
        }
      ],
      "References": [
        {
          "URL": "https://www.suse.com/security/cve/CVE-2021-3737.html",
          "Description": "CVE-2021-3737"
        },
        {
          "URL": "https://bugzilla.suse.com/1189241",
          "Description": "SUSE Bug 1189241"
        }
      ],
      "ProductStatuses": [
        {
          "Type": "Fixed",
          "ProductID": [
            "openSUSE Tumbleweed:python-2.7.18-8.1",
            "openSUSE Tumbleweed:python-32bit-2.7.18-8.1",
            "openSUSE Tumbleweed:python-curses-2.7.18-8.1",
            "openSUSE Tumbleweed:python-demo-2.7.18-8.1",
            "openSUSE Tumbleweed:python-gdbm-2.7.18-8.1",
            "openSUSE Tumbleweed:python-idle-2.7.18-8.1",
            "openSUSE Tumbleweed:python-tk-2.7.18-8.1"
          ]
        }
      ],
      "CVSSScoreSets": {}
    }
  ]
}