{
  "Title": "ruby2.7-rubygem-sprockets-3.7-3.7.2-1.10 on GA media",
  "Tracking": {
    "ID": "openSUSE-SU-2024:11355-1",
    "Status": "Final",
    "Version": "1",
    "InitialReleaseDate": "2024-06-22T21:44:56Z",
    "CurrentReleaseDate": "2024-06-22T21:44:56Z",
    "RevisionHistory": [
      {
        "Number": "1",
        "Date": "2024-06-22T21:44:56Z",
        "Description": "current"
      }
    ]
  },
  "Notes": [
    {
      "Text": "ruby2.7-rubygem-sprockets-3.7-3.7.2-1.10 on GA media",
      "Title": "Topic",
      "Type": "Summary"
    },
    {
      "Text": "These are all security issues fixed in the ruby2.7-rubygem-sprockets-3.7-3.7.2-1.10 package on the GA media of openSUSE Tumbleweed.",
      "Title": "Details",
      "Type": "General"
    },
    {
      "Text": "The CVRF data is provided by SUSE under the Creative Commons License 4.0 with Attribution (CC-BY-4.0).",
      "Title": "Terms of Use",
      "Type": "Legal Disclaimer"
    },
    {
      "Text": "openSUSE-Tumbleweed-2024-11355",
      "Title": "Patchnames",
      "Type": "Details"
    }
  ],
  "ProductTree": {
    "Relationships": [
      {
        "ProductReference": "ruby2.7-rubygem-sprockets-3.7-3.7.2-1.10",
        "RelatesToProductReference": "openSUSE Tumbleweed",
        "RelationType": "Default Component Of"
      },
      {
        "ProductReference": "ruby3.0-rubygem-sprockets-3.7-3.7.2-1.10",
        "RelatesToProductReference": "openSUSE Tumbleweed",
        "RelationType": "Default Component Of"
      }
    ]
  },
  "References": [
    {
      "URL": "https://www.suse.com/support/security/rating/",
      "Description": "SUSE Security Ratings"
    },
    {
      "URL": "https://www.suse.com/security/cve/CVE-2018-3760/",
      "Description": "SUSE CVE CVE-2018-3760 page"
    }
  ],
  "Vulnerabilities": [
    {
      "CVE": "CVE-2018-3760",
      "Description": "There is an information leak vulnerability in Sprockets. Versions Affected: 4.0.0.beta7 and lower, 3.7.1 and lower, 2.12.4 and lower. Specially crafted requests can be used to access files that exists on the filesystem that is outside an application's root directory, when the Sprockets server is used in production. All users running an affected release should either upgrade or use one of the work arounds immediately.",
      "Threats": [
        {
          "Type": "Impact",
          "Severity": "important"
        }
      ],
      "References": [
        {
          "URL": "https://www.suse.com/security/cve/CVE-2018-3760.html",
          "Description": "CVE-2018-3760"
        },
        {
          "URL": "https://bugzilla.suse.com/1098369",
          "Description": "SUSE Bug 1098369"
        },
        {
          "URL": "https://bugzilla.suse.com/1182167",
          "Description": "SUSE Bug 1182167"
        }
      ],
      "ProductStatuses": [
        {
          "Type": "Fixed",
          "ProductID": [
            "openSUSE Tumbleweed:ruby2.7-rubygem-sprockets-3.7-3.7.2-1.10",
            "openSUSE Tumbleweed:ruby3.0-rubygem-sprockets-3.7-3.7.2-1.10"
          ]
        }
      ],
      "CVSSScoreSets": {}
    }
  ]
}