{
  "Title": "python36-oic-1.2.1-1.2 on GA media",
  "Tracking": {
    "ID": "openSUSE-SU-2024:11244-1",
    "Status": "Final",
    "Version": "1",
    "InitialReleaseDate": "2024-06-22T21:44:56Z",
    "CurrentReleaseDate": "2024-06-22T21:44:56Z",
    "RevisionHistory": [
      {
        "Number": "1",
        "Date": "2024-06-22T21:44:56Z",
        "Description": "current"
      }
    ]
  },
  "Notes": [
    {
      "Text": "python36-oic-1.2.1-1.2 on GA media",
      "Title": "Topic",
      "Type": "Summary"
    },
    {
      "Text": "These are all security issues fixed in the python36-oic-1.2.1-1.2 package on the GA media of openSUSE Tumbleweed.",
      "Title": "Details",
      "Type": "General"
    },
    {
      "Text": "The CVRF data is provided by SUSE under the Creative Commons License 4.0 with Attribution (CC-BY-4.0).",
      "Title": "Terms of Use",
      "Type": "Legal Disclaimer"
    },
    {
      "Text": "openSUSE-Tumbleweed-2024-11244",
      "Title": "Patchnames",
      "Type": "Details"
    }
  ],
  "ProductTree": {
    "Relationships": [
      {
        "ProductReference": "python36-oic-1.2.1-1.2",
        "RelatesToProductReference": "openSUSE Tumbleweed",
        "RelationType": "Default Component Of"
      },
      {
        "ProductReference": "python38-oic-1.2.1-1.2",
        "RelatesToProductReference": "openSUSE Tumbleweed",
        "RelationType": "Default Component Of"
      },
      {
        "ProductReference": "python39-oic-1.2.1-1.2",
        "RelatesToProductReference": "openSUSE Tumbleweed",
        "RelationType": "Default Component Of"
      }
    ]
  },
  "References": [
    {
      "URL": "https://www.suse.com/support/security/rating/",
      "Description": "SUSE Security Ratings"
    },
    {
      "URL": "https://www.suse.com/security/cve/CVE-2020-26244/",
      "Description": "SUSE CVE CVE-2020-26244 page"
    }
  ],
  "Vulnerabilities": [
    {
      "CVE": "CVE-2020-26244",
      "Description": "Python oic is a Python OpenID Connect implementation. In Python oic before version 1.2.1, there are several related cryptographic issues affecting client implementations that use the library. The issues are: 1) The IdToken signature algorithm was not checked automatically, but only if the expected algorithm was passed in as a kwarg. 2) JWA `none` algorithm was allowed in all flows. 3) oic.consumer.Consumer.parse_authz returns an unverified IdToken. The verification of the token was left to the discretion of the implementator. 4) iat claim was not checked for sanity (i.e. it could be in the future). These issues are patched in version 1.2.1.",
      "Threats": [
        {
          "Type": "Impact",
          "Severity": "moderate"
        }
      ],
      "References": [
        {
          "URL": "https://www.suse.com/security/cve/CVE-2020-26244.html",
          "Description": "CVE-2020-26244"
        }
      ],
      "ProductStatuses": [
        {
          "Type": "Fixed",
          "ProductID": [
            "openSUSE Tumbleweed:python36-oic-1.2.1-1.2",
            "openSUSE Tumbleweed:python38-oic-1.2.1-1.2",
            "openSUSE Tumbleweed:python39-oic-1.2.1-1.2"
          ]
        }
      ],
      "CVSSScoreSets": {}
    }
  ]
}