{
  "Title": "libBasicUsageEnvironment1-2021.08.23-1.2 on GA media",
  "Tracking": {
    "ID": "openSUSE-SU-2024:11023-1",
    "Status": "Final",
    "Version": "1",
    "InitialReleaseDate": "2024-06-22T21:44:56Z",
    "CurrentReleaseDate": "2024-06-22T21:44:56Z",
    "RevisionHistory": [
      {
        "Number": "1",
        "Date": "2024-06-22T21:44:56Z",
        "Description": "current"
      }
    ]
  },
  "Notes": [
    {
      "Text": "libBasicUsageEnvironment1-2021.08.23-1.2 on GA media",
      "Title": "Topic",
      "Type": "Summary"
    },
    {
      "Text": "These are all security issues fixed in the libBasicUsageEnvironment1-2021.08.23-1.2 package on the GA media of openSUSE Tumbleweed.",
      "Title": "Details",
      "Type": "General"
    },
    {
      "Text": "The CVRF data is provided by SUSE under the Creative Commons License 4.0 with Attribution (CC-BY-4.0).",
      "Title": "Terms of Use",
      "Type": "Legal Disclaimer"
    },
    {
      "Text": "openSUSE-Tumbleweed-2024-11023",
      "Title": "Patchnames",
      "Type": "Details"
    }
  ],
  "ProductTree": {
    "Relationships": [
      {
        "ProductReference": "libBasicUsageEnvironment1-2021.08.23-1.2",
        "RelatesToProductReference": "openSUSE Tumbleweed",
        "RelationType": "Default Component Of"
      },
      {
        "ProductReference": "libUsageEnvironment3-2021.08.23-1.2",
        "RelatesToProductReference": "openSUSE Tumbleweed",
        "RelationType": "Default Component Of"
      },
      {
        "ProductReference": "libgroupsock30-2021.08.23-1.2",
        "RelatesToProductReference": "openSUSE Tumbleweed",
        "RelationType": "Default Component Of"
      },
      {
        "ProductReference": "libliveMedia97-2021.08.23-1.2",
        "RelatesToProductReference": "openSUSE Tumbleweed",
        "RelationType": "Default Component Of"
      },
      {
        "ProductReference": "live555-2021.08.23-1.2",
        "RelatesToProductReference": "openSUSE Tumbleweed",
        "RelationType": "Default Component Of"
      },
      {
        "ProductReference": "live555-devel-2021.08.23-1.2",
        "RelatesToProductReference": "openSUSE Tumbleweed",
        "RelationType": "Default Component Of"
      }
    ]
  },
  "References": [
    {
      "URL": "https://www.suse.com/support/security/rating/",
      "Description": "SUSE Security Ratings"
    },
    {
      "URL": "https://www.suse.com/security/cve/CVE-2018-4013/",
      "Description": "SUSE CVE CVE-2018-4013 page"
    },
    {
      "URL": "https://www.suse.com/security/cve/CVE-2019-15232/",
      "Description": "SUSE CVE CVE-2019-15232 page"
    },
    {
      "URL": "https://www.suse.com/security/cve/CVE-2019-6256/",
      "Description": "SUSE CVE CVE-2019-6256 page"
    },
    {
      "URL": "https://www.suse.com/security/cve/CVE-2019-7314/",
      "Description": "SUSE CVE CVE-2019-7314 page"
    },
    {
      "URL": "https://www.suse.com/security/cve/CVE-2019-9215/",
      "Description": "SUSE CVE CVE-2019-9215 page"
    },
    {
      "URL": "https://www.suse.com/security/cve/CVE-2021-28899/",
      "Description": "SUSE CVE CVE-2021-28899 page"
    },
    {
      "URL": "https://www.suse.com/security/cve/CVE-2021-38380/",
      "Description": "SUSE CVE CVE-2021-38380 page"
    },
    {
      "URL": "https://www.suse.com/security/cve/CVE-2021-38381/",
      "Description": "SUSE CVE CVE-2021-38381 page"
    },
    {
      "URL": "https://www.suse.com/security/cve/CVE-2021-38382/",
      "Description": "SUSE CVE CVE-2021-38382 page"
    },
    {
      "URL": "https://www.suse.com/security/cve/CVE-2021-39282/",
      "Description": "SUSE CVE CVE-2021-39282 page"
    },
    {
      "URL": "https://www.suse.com/security/cve/CVE-2021-39283/",
      "Description": "SUSE CVE CVE-2021-39283 page"
    }
  ],
  "Vulnerabilities": [
    {
      "CVE": "CVE-2018-4013",
      "Description": "An exploitable code execution vulnerability exists in the HTTP packet-parsing functionality of the LIVE555 RTSP server library version 0.92. A specially crafted packet can cause a stack-based buffer overflow, resulting in code execution. An attacker can send a packet to trigger this vulnerability.",
      "Threats": [
        {
          "Type": "Impact",
          "Severity": "important"
        }
      ],
      "References": [
        {
          "URL": "https://www.suse.com/security/cve/CVE-2018-4013.html",
          "Description": "CVE-2018-4013"
        },
        {
          "URL": "https://bugzilla.suse.com/1114779",
          "Description": "SUSE Bug 1114779"
        }
      ],
      "ProductStatuses": [
        {
          "Type": "Fixed",
          "ProductID": [
            "openSUSE Tumbleweed:libBasicUsageEnvironment1-2021.08.23-1.2",
            "openSUSE Tumbleweed:libUsageEnvironment3-2021.08.23-1.2",
            "openSUSE Tumbleweed:libgroupsock30-2021.08.23-1.2",
            "openSUSE Tumbleweed:libliveMedia97-2021.08.23-1.2",
            "openSUSE Tumbleweed:live555-2021.08.23-1.2",
            "openSUSE Tumbleweed:live555-devel-2021.08.23-1.2"
          ]
        }
      ],
      "CVSSScoreSets": {}
    },
    {
      "CVE": "CVE-2019-15232",
      "Description": "Live555 before 2019.08.16 has a Use-After-Free because GenericMediaServer::createNewClientSessionWithId can generate the same client session ID in succession, which is mishandled by the MPEG1or2 and Matroska file demultiplexors.",
      "Threats": [
        {
          "Type": "Impact",
          "Severity": "critical"
        }
      ],
      "References": [
        {
          "URL": "https://www.suse.com/security/cve/CVE-2019-15232.html",
          "Description": "CVE-2019-15232"
        },
        {
          "URL": "https://bugzilla.suse.com/1146283",
          "Description": "SUSE Bug 1146283"
        }
      ],
      "ProductStatuses": [
        {
          "Type": "Fixed",
          "ProductID": [
            "openSUSE Tumbleweed:libBasicUsageEnvironment1-2021.08.23-1.2",
            "openSUSE Tumbleweed:libUsageEnvironment3-2021.08.23-1.2",
            "openSUSE Tumbleweed:libgroupsock30-2021.08.23-1.2",
            "openSUSE Tumbleweed:libliveMedia97-2021.08.23-1.2",
            "openSUSE Tumbleweed:live555-2021.08.23-1.2",
            "openSUSE Tumbleweed:live555-devel-2021.08.23-1.2"
          ]
        }
      ],
      "CVSSScoreSets": {}
    },
    {
      "CVE": "CVE-2019-6256",
      "Description": "A Denial of Service issue was discovered in the LIVE555 Streaming Media libraries as used in Live555 Media Server 0.93. It can cause an RTSPServer crash in handleHTTPCmd_TunnelingPOST, when RTSP-over-HTTP tunneling is supported, via x-sessioncookie HTTP headers in a GET request and a POST request within the same TCP session. This occurs because of a call to an incorrect virtual function pointer in the readSocket function in GroupsockHelper.cpp.",
      "Threats": [
        {
          "Type": "Impact",
          "Severity": "important"
        }
      ],
      "References": [
        {
          "URL": "https://www.suse.com/security/cve/CVE-2019-6256.html",
          "Description": "CVE-2019-6256"
        },
        {
          "URL": "https://bugzilla.suse.com/1121892",
          "Description": "SUSE Bug 1121892"
        }
      ],
      "ProductStatuses": [
        {
          "Type": "Fixed",
          "ProductID": [
            "openSUSE Tumbleweed:libBasicUsageEnvironment1-2021.08.23-1.2",
            "openSUSE Tumbleweed:libUsageEnvironment3-2021.08.23-1.2",
            "openSUSE Tumbleweed:libgroupsock30-2021.08.23-1.2",
            "openSUSE Tumbleweed:libliveMedia97-2021.08.23-1.2",
            "openSUSE Tumbleweed:live555-2021.08.23-1.2",
            "openSUSE Tumbleweed:live555-devel-2021.08.23-1.2"
          ]
        }
      ],
      "CVSSScoreSets": {}
    },
    {
      "CVE": "CVE-2019-7314",
      "Description": "liblivemedia in Live555 before 2019.02.03 mishandles the termination of an RTSP stream after RTP/RTCP-over-RTSP has been set up, which could lead to a Use-After-Free error that causes the RTSP server to crash (Segmentation fault) or possibly have unspecified other impact.",
      "Threats": [
        {
          "Type": "Impact",
          "Severity": "important"
        }
      ],
      "References": [
        {
          "URL": "https://www.suse.com/security/cve/CVE-2019-7314.html",
          "Description": "CVE-2019-7314"
        },
        {
          "URL": "https://bugzilla.suse.com/1124159",
          "Description": "SUSE Bug 1124159"
        }
      ],
      "ProductStatuses": [
        {
          "Type": "Fixed",
          "ProductID": [
            "openSUSE Tumbleweed:libBasicUsageEnvironment1-2021.08.23-1.2",
            "openSUSE Tumbleweed:libUsageEnvironment3-2021.08.23-1.2",
            "openSUSE Tumbleweed:libgroupsock30-2021.08.23-1.2",
            "openSUSE Tumbleweed:libliveMedia97-2021.08.23-1.2",
            "openSUSE Tumbleweed:live555-2021.08.23-1.2",
            "openSUSE Tumbleweed:live555-devel-2021.08.23-1.2"
          ]
        }
      ],
      "CVSSScoreSets": {}
    },
    {
      "CVE": "CVE-2019-9215",
      "Description": "In Live555 before 2019.02.27, malformed headers lead to invalid memory access in the parseAuthorizationHeader function.",
      "Threats": [
        {
          "Type": "Impact",
          "Severity": "important"
        }
      ],
      "References": [
        {
          "URL": "https://www.suse.com/security/cve/CVE-2019-9215.html",
          "Description": "CVE-2019-9215"
        },
        {
          "URL": "https://bugzilla.suse.com/1127341",
          "Description": "SUSE Bug 1127341"
        }
      ],
      "ProductStatuses": [
        {
          "Type": "Fixed",
          "ProductID": [
            "openSUSE Tumbleweed:libBasicUsageEnvironment1-2021.08.23-1.2",
            "openSUSE Tumbleweed:libUsageEnvironment3-2021.08.23-1.2",
            "openSUSE Tumbleweed:libgroupsock30-2021.08.23-1.2",
            "openSUSE Tumbleweed:libliveMedia97-2021.08.23-1.2",
            "openSUSE Tumbleweed:live555-2021.08.23-1.2",
            "openSUSE Tumbleweed:live555-devel-2021.08.23-1.2"
          ]
        }
      ],
      "CVSSScoreSets": {}
    },
    {
      "CVE": "CVE-2021-28899",
      "Description": "Vulnerability in the AC3AudioFileServerMediaSubsession, ADTSAudioFileServerMediaSubsession, and AMRAudioFileServerMediaSubsessionLive OnDemandServerMediaSubsession subclasses in Networks LIVE555 Streaming Media before 2021.3.16.",
      "Threats": [
        {
          "Type": "Impact",
          "Severity": "important"
        }
      ],
      "References": [
        {
          "URL": "https://www.suse.com/security/cve/CVE-2021-28899.html",
          "Description": "CVE-2021-28899"
        },
        {
          "URL": "https://bugzilla.suse.com/1185874",
          "Description": "SUSE Bug 1185874"
        }
      ],
      "ProductStatuses": [
        {
          "Type": "Fixed",
          "ProductID": [
            "openSUSE Tumbleweed:libBasicUsageEnvironment1-2021.08.23-1.2",
            "openSUSE Tumbleweed:libUsageEnvironment3-2021.08.23-1.2",
            "openSUSE Tumbleweed:libgroupsock30-2021.08.23-1.2",
            "openSUSE Tumbleweed:libliveMedia97-2021.08.23-1.2",
            "openSUSE Tumbleweed:live555-2021.08.23-1.2",
            "openSUSE Tumbleweed:live555-devel-2021.08.23-1.2"
          ]
        }
      ],
      "CVSSScoreSets": {}
    },
    {
      "CVE": "CVE-2021-38380",
      "Description": "Live555 through 1.08 mishandles huge requests for the same MP3 stream, leading to recursion and s stack-based buffer over-read. An attacker can leverage this to launch a DoS attack.",
      "Threats": [
        {
          "Type": "Impact",
          "Severity": "moderate"
        }
      ],
      "References": [
        {
          "URL": "https://www.suse.com/security/cve/CVE-2021-38380.html",
          "Description": "CVE-2021-38380"
        },
        {
          "URL": "https://bugzilla.suse.com/1189351",
          "Description": "SUSE Bug 1189351"
        }
      ],
      "ProductStatuses": [
        {
          "Type": "Fixed",
          "ProductID": [
            "openSUSE Tumbleweed:libBasicUsageEnvironment1-2021.08.23-1.2",
            "openSUSE Tumbleweed:libUsageEnvironment3-2021.08.23-1.2",
            "openSUSE Tumbleweed:libgroupsock30-2021.08.23-1.2",
            "openSUSE Tumbleweed:libliveMedia97-2021.08.23-1.2",
            "openSUSE Tumbleweed:live555-2021.08.23-1.2",
            "openSUSE Tumbleweed:live555-devel-2021.08.23-1.2"
          ]
        }
      ],
      "CVSSScoreSets": {}
    },
    {
      "CVE": "CVE-2021-38381",
      "Description": "Live555 through 1.08 does not handle MPEG-1 or 2 files properly. Sending two successive RTSP SETUP commands for the same track causes a Use-After-Free and daemon crash.",
      "Threats": [
        {
          "Type": "Impact",
          "Severity": "moderate"
        }
      ],
      "References": [
        {
          "URL": "https://www.suse.com/security/cve/CVE-2021-38381.html",
          "Description": "CVE-2021-38381"
        },
        {
          "URL": "https://bugzilla.suse.com/1189352",
          "Description": "SUSE Bug 1189352"
        }
      ],
      "ProductStatuses": [
        {
          "Type": "Fixed",
          "ProductID": [
            "openSUSE Tumbleweed:libBasicUsageEnvironment1-2021.08.23-1.2",
            "openSUSE Tumbleweed:libUsageEnvironment3-2021.08.23-1.2",
            "openSUSE Tumbleweed:libgroupsock30-2021.08.23-1.2",
            "openSUSE Tumbleweed:libliveMedia97-2021.08.23-1.2",
            "openSUSE Tumbleweed:live555-2021.08.23-1.2",
            "openSUSE Tumbleweed:live555-devel-2021.08.23-1.2"
          ]
        }
      ],
      "CVSSScoreSets": {}
    },
    {
      "CVE": "CVE-2021-38382",
      "Description": "Live555 through 1.08 does not handle Matroska and Ogg files properly. Sending two successive RTSP SETUP commands for the same track causes a Use-After-Free and daemon crash.",
      "Threats": [
        {
          "Type": "Impact",
          "Severity": "moderate"
        }
      ],
      "References": [
        {
          "URL": "https://www.suse.com/security/cve/CVE-2021-38382.html",
          "Description": "CVE-2021-38382"
        },
        {
          "URL": "https://bugzilla.suse.com/1189353",
          "Description": "SUSE Bug 1189353"
        }
      ],
      "ProductStatuses": [
        {
          "Type": "Fixed",
          "ProductID": [
            "openSUSE Tumbleweed:libBasicUsageEnvironment1-2021.08.23-1.2",
            "openSUSE Tumbleweed:libUsageEnvironment3-2021.08.23-1.2",
            "openSUSE Tumbleweed:libgroupsock30-2021.08.23-1.2",
            "openSUSE Tumbleweed:libliveMedia97-2021.08.23-1.2",
            "openSUSE Tumbleweed:live555-2021.08.23-1.2",
            "openSUSE Tumbleweed:live555-devel-2021.08.23-1.2"
          ]
        }
      ],
      "CVSSScoreSets": {}
    },
    {
      "CVE": "CVE-2021-39282",
      "Description": "Live555 through 1.08 has a memory leak in AC3AudioStreamParser for AC3 files.",
      "Threats": [
        {
          "Type": "Impact",
          "Severity": "moderate"
        }
      ],
      "References": [
        {
          "URL": "https://www.suse.com/security/cve/CVE-2021-39282.html",
          "Description": "CVE-2021-39282"
        },
        {
          "URL": "https://bugzilla.suse.com/1189725",
          "Description": "SUSE Bug 1189725"
        }
      ],
      "ProductStatuses": [
        {
          "Type": "Fixed",
          "ProductID": [
            "openSUSE Tumbleweed:libBasicUsageEnvironment1-2021.08.23-1.2",
            "openSUSE Tumbleweed:libUsageEnvironment3-2021.08.23-1.2",
            "openSUSE Tumbleweed:libgroupsock30-2021.08.23-1.2",
            "openSUSE Tumbleweed:libliveMedia97-2021.08.23-1.2",
            "openSUSE Tumbleweed:live555-2021.08.23-1.2",
            "openSUSE Tumbleweed:live555-devel-2021.08.23-1.2"
          ]
        }
      ],
      "CVSSScoreSets": {}
    },
    {
      "CVE": "CVE-2021-39283",
      "Description": "liveMedia/FramedSource.cpp in Live555 through 1.08 allows an assertion failure and application exit via multiple SETUP and PLAY commands.",
      "Threats": [
        {
          "Type": "Impact",
          "Severity": "moderate"
        }
      ],
      "References": [
        {
          "URL": "https://www.suse.com/security/cve/CVE-2021-39283.html",
          "Description": "CVE-2021-39283"
        },
        {
          "URL": "https://bugzilla.suse.com/1189726",
          "Description": "SUSE Bug 1189726"
        }
      ],
      "ProductStatuses": [
        {
          "Type": "Fixed",
          "ProductID": [
            "openSUSE Tumbleweed:libBasicUsageEnvironment1-2021.08.23-1.2",
            "openSUSE Tumbleweed:libUsageEnvironment3-2021.08.23-1.2",
            "openSUSE Tumbleweed:libgroupsock30-2021.08.23-1.2",
            "openSUSE Tumbleweed:libliveMedia97-2021.08.23-1.2",
            "openSUSE Tumbleweed:live555-2021.08.23-1.2",
            "openSUSE Tumbleweed:live555-devel-2021.08.23-1.2"
          ]
        }
      ],
      "CVSSScoreSets": {}
    }
  ]
}