{
  "Title": "corepack18-18.16.0-1.1 on GA media",
  "Tracking": {
    "ID": "openSUSE-SU-2024:12870-1",
    "Status": "Final",
    "Version": "1",
    "InitialReleaseDate": "2024-06-20T21:44:22Z",
    "CurrentReleaseDate": "2024-06-20T21:44:22Z",
    "RevisionHistory": [
      {
        "Number": "1",
        "Date": "2024-06-20T21:44:22Z",
        "Description": "current"
      }
    ]
  },
  "Notes": [
    {
      "Text": "corepack18-18.16.0-1.1 on GA media",
      "Title": "Topic",
      "Type": "Summary"
    },
    {
      "Text": "These are all security issues fixed in the corepack18-18.16.0-1.1 package on the GA media of openSUSE Tumbleweed.",
      "Title": "Details",
      "Type": "General"
    },
    {
      "Text": "The CVRF data is provided by SUSE under the Creative Commons License 4.0 with Attribution (CC-BY-4.0).",
      "Title": "Terms of Use",
      "Type": "Legal Disclaimer"
    },
    {
      "Text": "openSUSE-Tumbleweed-2024-12870",
      "Title": "Patchnames",
      "Type": "Details"
    }
  ],
  "ProductTree": {
    "Relationships": [
      {
        "ProductReference": "corepack18-18.16.0-1.1",
        "RelatesToProductReference": "openSUSE Tumbleweed",
        "RelationType": "Default Component Of"
      },
      {
        "ProductReference": "nodejs18-18.16.0-1.1",
        "RelatesToProductReference": "openSUSE Tumbleweed",
        "RelationType": "Default Component Of"
      },
      {
        "ProductReference": "nodejs18-devel-18.16.0-1.1",
        "RelatesToProductReference": "openSUSE Tumbleweed",
        "RelationType": "Default Component Of"
      },
      {
        "ProductReference": "nodejs18-docs-18.16.0-1.1",
        "RelatesToProductReference": "openSUSE Tumbleweed",
        "RelationType": "Default Component Of"
      },
      {
        "ProductReference": "npm18-18.16.0-1.1",
        "RelatesToProductReference": "openSUSE Tumbleweed",
        "RelationType": "Default Component Of"
      }
    ]
  },
  "References": [
    {
      "URL": "https://www.suse.com/support/security/rating/",
      "Description": "SUSE Security Ratings"
    },
    {
      "URL": "https://www.suse.com/security/cve/CVE-2022-25881/",
      "Description": "SUSE CVE CVE-2022-25881 page"
    }
  ],
  "Vulnerabilities": [
    {
      "CVE": "CVE-2022-25881",
      "Description": "This affects versions of the package http-cache-semantics before 4.1.1. The issue can be exploited via malicious request header values sent to a server, when that server reads the cache policy from the request using this library.\n\n",
      "Threats": [
        {
          "Type": "Impact",
          "Severity": "moderate"
        }
      ],
      "References": [
        {
          "URL": "https://www.suse.com/security/cve/CVE-2022-25881.html",
          "Description": "CVE-2022-25881"
        },
        {
          "URL": "https://bugzilla.suse.com/1208744",
          "Description": "SUSE Bug 1208744"
        }
      ],
      "ProductStatuses": [
        {
          "Type": "Fixed",
          "ProductID": [
            "openSUSE Tumbleweed:corepack18-18.16.0-1.1",
            "openSUSE Tumbleweed:nodejs18-18.16.0-1.1",
            "openSUSE Tumbleweed:nodejs18-devel-18.16.0-1.1",
            "openSUSE Tumbleweed:nodejs18-docs-18.16.0-1.1",
            "openSUSE Tumbleweed:npm18-18.16.0-1.1"
          ]
        }
      ],
      "CVSSScoreSets": {}
    }
  ]
}