{
  "Title": "getmail-4.46.0-1.2 on GA media",
  "Tracking": {
    "ID": "openSUSE-SU-2024:10525-1",
    "Status": "Final",
    "Version": "1",
    "InitialReleaseDate": "2024-06-22T21:44:56Z",
    "CurrentReleaseDate": "2024-06-22T21:44:56Z",
    "RevisionHistory": [
      {
        "Number": "1",
        "Date": "2024-06-22T21:44:56Z",
        "Description": "current"
      }
    ]
  },
  "Notes": [
    {
      "Text": "getmail-4.46.0-1.2 on GA media",
      "Title": "Topic",
      "Type": "Summary"
    },
    {
      "Text": "These are all security issues fixed in the getmail-4.46.0-1.2 package on the GA media of openSUSE Tumbleweed.",
      "Title": "Details",
      "Type": "General"
    },
    {
      "Text": "The CVRF data is provided by SUSE under the Creative Commons License 4.0 with Attribution (CC-BY-4.0).",
      "Title": "Terms of Use",
      "Type": "Legal Disclaimer"
    },
    {
      "Text": "openSUSE-Tumbleweed-2024-10525",
      "Title": "Patchnames",
      "Type": "Details"
    }
  ],
  "ProductTree": {
    "Relationships": [
      {
        "ProductReference": "getmail-4.46.0-1.2",
        "RelatesToProductReference": "openSUSE Tumbleweed",
        "RelationType": "Default Component Of"
      },
      {
        "ProductReference": "getmail-doc-4.46.0-1.2",
        "RelatesToProductReference": "openSUSE Tumbleweed",
        "RelationType": "Default Component Of"
      }
    ]
  },
  "References": [
    {
      "URL": "https://www.suse.com/support/security/rating/",
      "Description": "SUSE Security Ratings"
    },
    {
      "URL": "https://www.suse.com/security/cve/CVE-2014-7273/",
      "Description": "SUSE CVE CVE-2014-7273 page"
    },
    {
      "URL": "https://www.suse.com/security/cve/CVE-2014-7274/",
      "Description": "SUSE CVE CVE-2014-7274 page"
    },
    {
      "URL": "https://www.suse.com/security/cve/CVE-2014-7275/",
      "Description": "SUSE CVE CVE-2014-7275 page"
    }
  ],
  "Vulnerabilities": [
    {
      "CVE": "CVE-2014-7273",
      "Description": "The IMAP-over-SSL implementation in getmail 4.0.0 through 4.43.0 does not verify X.509 certificates from SSL servers, which allows man-in-the-middle attackers to spoof IMAP servers and obtain sensitive information via a crafted certificate.",
      "Threats": [
        {
          "Type": "Impact",
          "Severity": "moderate"
        }
      ],
      "References": [
        {
          "URL": "https://www.suse.com/security/cve/CVE-2014-7273.html",
          "Description": "CVE-2014-7273"
        },
        {
          "URL": "https://bugzilla.suse.com/900217",
          "Description": "SUSE Bug 900217"
        }
      ],
      "ProductStatuses": [
        {
          "Type": "Fixed",
          "ProductID": [
            "openSUSE Tumbleweed:getmail-4.46.0-1.2",
            "openSUSE Tumbleweed:getmail-doc-4.46.0-1.2"
          ]
        }
      ],
      "CVSSScoreSets": {}
    },
    {
      "CVE": "CVE-2014-7274",
      "Description": "The IMAP-over-SSL implementation in getmail 4.44.0 does not verify that the server hostname matches a domain name in the subject's Common Name (CN) field of the X.509 certificate, which allows man-in-the-middle attackers to spoof IMAP servers and obtain sensitive information via a crafted certificate from a recognized Certification Authority.",
      "Threats": [
        {
          "Type": "Impact",
          "Severity": "moderate"
        }
      ],
      "References": [
        {
          "URL": "https://www.suse.com/security/cve/CVE-2014-7274.html",
          "Description": "CVE-2014-7274"
        },
        {
          "URL": "https://bugzilla.suse.com/900217",
          "Description": "SUSE Bug 900217"
        }
      ],
      "ProductStatuses": [
        {
          "Type": "Fixed",
          "ProductID": [
            "openSUSE Tumbleweed:getmail-4.46.0-1.2",
            "openSUSE Tumbleweed:getmail-doc-4.46.0-1.2"
          ]
        }
      ],
      "CVSSScoreSets": {}
    },
    {
      "CVE": "CVE-2014-7275",
      "Description": "The POP3-over-SSL implementation in getmail 4.0.0 through 4.44.0 does not verify X.509 certificates from SSL servers, which allows man-in-the-middle attackers to spoof POP3 servers and obtain sensitive information via a crafted certificate.",
      "Threats": [
        {
          "Type": "Impact",
          "Severity": "moderate"
        }
      ],
      "References": [
        {
          "URL": "https://www.suse.com/security/cve/CVE-2014-7275.html",
          "Description": "CVE-2014-7275"
        },
        {
          "URL": "https://bugzilla.suse.com/900217",
          "Description": "SUSE Bug 900217"
        }
      ],
      "ProductStatuses": [
        {
          "Type": "Fixed",
          "ProductID": [
            "openSUSE Tumbleweed:getmail-4.46.0-1.2",
            "openSUSE Tumbleweed:getmail-doc-4.46.0-1.2"
          ]
        }
      ],
      "CVSSScoreSets": {}
    }
  ]
}