{
  "Title": "cups-2.4.8-1.1 on GA media",
  "Tracking": {
    "ID": "openSUSE-SU-2024:14041-1",
    "Status": "Final",
    "Version": "1",
    "InitialReleaseDate": "2024-06-20T21:44:22Z",
    "CurrentReleaseDate": "2024-06-20T21:44:22Z",
    "RevisionHistory": [
      {
        "Number": "1",
        "Date": "2024-06-20T21:44:22Z",
        "Description": "current"
      }
    ]
  },
  "Notes": [
    {
      "Text": "cups-2.4.8-1.1 on GA media",
      "Title": "Topic",
      "Type": "Summary"
    },
    {
      "Text": "These are all security issues fixed in the cups-2.4.8-1.1 package on the GA media of openSUSE Tumbleweed.",
      "Title": "Details",
      "Type": "General"
    },
    {
      "Text": "The CVRF data is provided by SUSE under the Creative Commons License 4.0 with Attribution (CC-BY-4.0).",
      "Title": "Terms of Use",
      "Type": "Legal Disclaimer"
    },
    {
      "Text": "openSUSE-Tumbleweed-2024-14041",
      "Title": "Patchnames",
      "Type": "Details"
    }
  ],
  "ProductTree": {
    "Relationships": [
      {
        "ProductReference": "cups-2.4.8-1.1",
        "RelatesToProductReference": "openSUSE Tumbleweed",
        "RelationType": "Default Component Of"
      },
      {
        "ProductReference": "cups-client-2.4.8-1.1",
        "RelatesToProductReference": "openSUSE Tumbleweed",
        "RelationType": "Default Component Of"
      },
      {
        "ProductReference": "cups-config-2.4.8-1.1",
        "RelatesToProductReference": "openSUSE Tumbleweed",
        "RelationType": "Default Component Of"
      },
      {
        "ProductReference": "cups-ddk-2.4.8-1.1",
        "RelatesToProductReference": "openSUSE Tumbleweed",
        "RelationType": "Default Component Of"
      },
      {
        "ProductReference": "cups-devel-2.4.8-1.1",
        "RelatesToProductReference": "openSUSE Tumbleweed",
        "RelationType": "Default Component Of"
      },
      {
        "ProductReference": "cups-devel-32bit-2.4.8-1.1",
        "RelatesToProductReference": "openSUSE Tumbleweed",
        "RelationType": "Default Component Of"
      },
      {
        "ProductReference": "libcups2-2.4.8-1.1",
        "RelatesToProductReference": "openSUSE Tumbleweed",
        "RelationType": "Default Component Of"
      },
      {
        "ProductReference": "libcups2-32bit-2.4.8-1.1",
        "RelatesToProductReference": "openSUSE Tumbleweed",
        "RelationType": "Default Component Of"
      },
      {
        "ProductReference": "libcupsimage2-2.4.8-1.1",
        "RelatesToProductReference": "openSUSE Tumbleweed",
        "RelationType": "Default Component Of"
      },
      {
        "ProductReference": "libcupsimage2-32bit-2.4.8-1.1",
        "RelatesToProductReference": "openSUSE Tumbleweed",
        "RelationType": "Default Component Of"
      }
    ]
  },
  "References": [
    {
      "URL": "https://www.suse.com/support/security/rating/",
      "Description": "SUSE Security Ratings"
    },
    {
      "URL": "https://www.suse.com/security/cve/CVE-2024-35235/",
      "Description": "SUSE CVE CVE-2024-35235 page"
    }
  ],
  "Vulnerabilities": [
    {
      "CVE": "CVE-2024-35235",
      "Description": "OpenPrinting CUPS is an open source printing system for Linux and other Unix-like operating systems. In versions 2.4.8 and earlier, when starting the cupsd server with a Listen configuration item pointing to a symbolic link, the cupsd process can be caused to perform an arbitrary chmod of the provided argument, providing world-writable access to the target. Given that cupsd is often running as root, this can result in the change of permission of any user or system files to be world writable. Given the aforementioned Ubuntu AppArmor context, on such systems this vulnerability is limited to those files modifiable by the cupsd process. In that specific case it was found to be possible to turn the configuration of the Listen argument into full control over the cupsd.conf and cups-files.conf configuration files. By later setting the User and Group arguments in cups-files.conf, and printing with a printer configured by PPD with a `FoomaticRIPCommandLine` argument, arbitrary user and group (not root) command execution could be achieved, which can further be used on Ubuntu systems to achieve full root command execution. Commit ff1f8a623e090dee8a8aadf12a6a4b25efac143d contains a patch for the issue.\n",
      "Threats": [
        {
          "Type": "Impact",
          "Severity": "moderate"
        }
      ],
      "References": [
        {
          "URL": "https://www.suse.com/security/cve/CVE-2024-35235.html",
          "Description": "CVE-2024-35235"
        },
        {
          "URL": "https://bugzilla.suse.com/1225365",
          "Description": "SUSE Bug 1225365"
        }
      ],
      "ProductStatuses": [
        {
          "Type": "Fixed",
          "ProductID": [
            "openSUSE Tumbleweed:cups-2.4.8-1.1",
            "openSUSE Tumbleweed:cups-client-2.4.8-1.1",
            "openSUSE Tumbleweed:cups-config-2.4.8-1.1",
            "openSUSE Tumbleweed:cups-ddk-2.4.8-1.1",
            "openSUSE Tumbleweed:cups-devel-2.4.8-1.1",
            "openSUSE Tumbleweed:cups-devel-32bit-2.4.8-1.1",
            "openSUSE Tumbleweed:libcups2-2.4.8-1.1",
            "openSUSE Tumbleweed:libcups2-32bit-2.4.8-1.1",
            "openSUSE Tumbleweed:libcupsimage2-2.4.8-1.1",
            "openSUSE Tumbleweed:libcupsimage2-32bit-2.4.8-1.1"
          ]
        }
      ],
      "CVSSScoreSets": {}
    }
  ]
}