{
  "Title": "perl-32bit-5.34.0-1.1 on GA media",
  "Tracking": {
    "ID": "openSUSE-SU-2024:11158-1",
    "Status": "Final",
    "Version": "1",
    "InitialReleaseDate": "2024-06-22T21:44:56Z",
    "CurrentReleaseDate": "2024-06-22T21:44:56Z",
    "RevisionHistory": [
      {
        "Number": "1",
        "Date": "2024-06-22T21:44:56Z",
        "Description": "current"
      }
    ]
  },
  "Notes": [
    {
      "Text": "perl-32bit-5.34.0-1.1 on GA media",
      "Title": "Topic",
      "Type": "Summary"
    },
    {
      "Text": "These are all security issues fixed in the perl-32bit-5.34.0-1.1 package on the GA media of openSUSE Tumbleweed.",
      "Title": "Details",
      "Type": "General"
    },
    {
      "Text": "The CVRF data is provided by SUSE under the Creative Commons License 4.0 with Attribution (CC-BY-4.0).",
      "Title": "Terms of Use",
      "Type": "Legal Disclaimer"
    },
    {
      "Text": "openSUSE-Tumbleweed-2024-11158",
      "Title": "Patchnames",
      "Type": "Details"
    }
  ],
  "ProductTree": {
    "Relationships": [
      {
        "ProductReference": "perl-5.34.0-1.1",
        "RelatesToProductReference": "openSUSE Tumbleweed",
        "RelationType": "Default Component Of"
      },
      {
        "ProductReference": "perl-32bit-5.34.0-1.1",
        "RelatesToProductReference": "openSUSE Tumbleweed",
        "RelationType": "Default Component Of"
      },
      {
        "ProductReference": "perl-base-5.34.0-1.1",
        "RelatesToProductReference": "openSUSE Tumbleweed",
        "RelationType": "Default Component Of"
      },
      {
        "ProductReference": "perl-base-32bit-5.34.0-1.1",
        "RelatesToProductReference": "openSUSE Tumbleweed",
        "RelationType": "Default Component Of"
      },
      {
        "ProductReference": "perl-doc-5.34.0-1.1",
        "RelatesToProductReference": "openSUSE Tumbleweed",
        "RelationType": "Default Component Of"
      }
    ]
  },
  "References": [
    {
      "URL": "https://www.suse.com/support/security/rating/",
      "Description": "SUSE Security Ratings"
    },
    {
      "URL": "https://www.suse.com/security/cve/CVE-2005-3962/",
      "Description": "SUSE CVE CVE-2005-3962 page"
    },
    {
      "URL": "https://www.suse.com/security/cve/CVE-2007-5116/",
      "Description": "SUSE CVE CVE-2007-5116 page"
    },
    {
      "URL": "https://www.suse.com/security/cve/CVE-2017-12814/",
      "Description": "SUSE CVE CVE-2017-12814 page"
    },
    {
      "URL": "https://www.suse.com/security/cve/CVE-2017-12837/",
      "Description": "SUSE CVE CVE-2017-12837 page"
    },
    {
      "URL": "https://www.suse.com/security/cve/CVE-2017-12883/",
      "Description": "SUSE CVE CVE-2017-12883 page"
    },
    {
      "URL": "https://www.suse.com/security/cve/CVE-2018-18311/",
      "Description": "SUSE CVE CVE-2018-18311 page"
    },
    {
      "URL": "https://www.suse.com/security/cve/CVE-2018-18312/",
      "Description": "SUSE CVE CVE-2018-18312 page"
    },
    {
      "URL": "https://www.suse.com/security/cve/CVE-2020-10543/",
      "Description": "SUSE CVE CVE-2020-10543 page"
    },
    {
      "URL": "https://www.suse.com/security/cve/CVE-2020-10878/",
      "Description": "SUSE CVE CVE-2020-10878 page"
    },
    {
      "URL": "https://www.suse.com/security/cve/CVE-2020-12723/",
      "Description": "SUSE CVE CVE-2020-12723 page"
    }
  ],
  "Vulnerabilities": [
    {
      "CVE": "CVE-2005-3962",
      "Description": "Integer overflow in the format string functionality (Perl_sv_vcatpvfn) in Perl 5.9.2 and 5.8.6 Perl allows attackers to overwrite arbitrary memory and possibly execute arbitrary code via format string specifiers with large values, which causes an integer wrap and leads to a buffer overflow, as demonstrated using format string vulnerabilities in Perl applications.",
      "Threats": [
        {
          "Type": "Impact",
          "Severity": "moderate"
        }
      ],
      "References": [
        {
          "URL": "https://www.suse.com/security/cve/CVE-2005-3962.html",
          "Description": "CVE-2005-3962"
        },
        {
          "URL": "https://bugzilla.suse.com/136360",
          "Description": "SUSE Bug 136360"
        }
      ],
      "ProductStatuses": [
        {
          "Type": "Fixed",
          "ProductID": [
            "openSUSE Tumbleweed:perl-32bit-5.34.0-1.1",
            "openSUSE Tumbleweed:perl-5.34.0-1.1",
            "openSUSE Tumbleweed:perl-base-32bit-5.34.0-1.1",
            "openSUSE Tumbleweed:perl-base-5.34.0-1.1",
            "openSUSE Tumbleweed:perl-doc-5.34.0-1.1"
          ]
        }
      ],
      "CVSSScoreSets": {}
    },
    {
      "CVE": "CVE-2007-5116",
      "Description": "Buffer overflow in the polymorphic opcode support in the Regular Expression Engine (regcomp.c) in Perl 5.8 allows context-dependent attackers to execute arbitrary code by switching from byte to Unicode (UTF) characters in a regular expression.",
      "Threats": [
        {
          "Type": "Impact",
          "Severity": "moderate"
        }
      ],
      "References": [
        {
          "URL": "https://www.suse.com/security/cve/CVE-2007-5116.html",
          "Description": "CVE-2007-5116"
        },
        {
          "URL": "https://bugzilla.suse.com/332199",
          "Description": "SUSE Bug 332199"
        },
        {
          "URL": "https://bugzilla.suse.com/372331",
          "Description": "SUSE Bug 372331"
        },
        {
          "URL": "https://bugzilla.suse.com/915514",
          "Description": "SUSE Bug 915514"
        }
      ],
      "ProductStatuses": [
        {
          "Type": "Fixed",
          "ProductID": [
            "openSUSE Tumbleweed:perl-32bit-5.34.0-1.1",
            "openSUSE Tumbleweed:perl-5.34.0-1.1",
            "openSUSE Tumbleweed:perl-base-32bit-5.34.0-1.1",
            "openSUSE Tumbleweed:perl-base-5.34.0-1.1",
            "openSUSE Tumbleweed:perl-doc-5.34.0-1.1"
          ]
        }
      ],
      "CVSSScoreSets": {}
    },
    {
      "CVE": "CVE-2017-12814",
      "Description": "Stack-based buffer overflow in the CPerlHost::Add method in win32/perlhost.h in Perl before 5.24.3-RC1 and 5.26.x before 5.26.1-RC1 on Windows allows attackers to execute arbitrary code via a long environment variable.",
      "Threats": [
        {
          "Type": "Impact",
          "Severity": "moderate"
        }
      ],
      "References": [
        {
          "URL": "https://www.suse.com/security/cve/CVE-2017-12814.html",
          "Description": "CVE-2017-12814"
        },
        {
          "URL": "https://bugzilla.suse.com/1057727",
          "Description": "SUSE Bug 1057727"
        }
      ],
      "ProductStatuses": [
        {
          "Type": "Fixed",
          "ProductID": [
            "openSUSE Tumbleweed:perl-32bit-5.34.0-1.1",
            "openSUSE Tumbleweed:perl-5.34.0-1.1",
            "openSUSE Tumbleweed:perl-base-32bit-5.34.0-1.1",
            "openSUSE Tumbleweed:perl-base-5.34.0-1.1",
            "openSUSE Tumbleweed:perl-doc-5.34.0-1.1"
          ]
        }
      ],
      "CVSSScoreSets": {}
    },
    {
      "CVE": "CVE-2017-12837",
      "Description": "Heap-based buffer overflow in the S_regatom function in regcomp.c in Perl 5 before 5.24.3-RC1 and 5.26.x before 5.26.1-RC1 allows remote attackers to cause a denial of service (out-of-bounds write) via a regular expression with a '\\N{}' escape and the case-insensitive modifier.",
      "Threats": [
        {
          "Type": "Impact",
          "Severity": "low"
        }
      ],
      "References": [
        {
          "URL": "https://www.suse.com/security/cve/CVE-2017-12837.html",
          "Description": "CVE-2017-12837"
        },
        {
          "URL": "https://bugzilla.suse.com/1057724",
          "Description": "SUSE Bug 1057724"
        }
      ],
      "ProductStatuses": [
        {
          "Type": "Fixed",
          "ProductID": [
            "openSUSE Tumbleweed:perl-32bit-5.34.0-1.1",
            "openSUSE Tumbleweed:perl-5.34.0-1.1",
            "openSUSE Tumbleweed:perl-base-32bit-5.34.0-1.1",
            "openSUSE Tumbleweed:perl-base-5.34.0-1.1",
            "openSUSE Tumbleweed:perl-doc-5.34.0-1.1"
          ]
        }
      ],
      "CVSSScoreSets": {
        "BaseScore": "1.9",
        "Vector": "AV:L/AC:M/Au:N/C:P/I:N/A:N"
      }
    },
    {
      "CVE": "CVE-2017-12883",
      "Description": "Buffer overflow in the S_grok_bslash_N function in regcomp.c in Perl 5 before 5.24.3-RC1 and 5.26.x before 5.26.1-RC1 allows remote attackers to disclose sensitive information or cause a denial of service (application crash) via a crafted regular expression with an invalid '\\N{U+...}' escape.",
      "Threats": [
        {
          "Type": "Impact",
          "Severity": "moderate"
        }
      ],
      "References": [
        {
          "URL": "https://www.suse.com/security/cve/CVE-2017-12883.html",
          "Description": "CVE-2017-12883"
        },
        {
          "URL": "https://bugzilla.suse.com/1057721",
          "Description": "SUSE Bug 1057721"
        }
      ],
      "ProductStatuses": [
        {
          "Type": "Fixed",
          "ProductID": [
            "openSUSE Tumbleweed:perl-32bit-5.34.0-1.1",
            "openSUSE Tumbleweed:perl-5.34.0-1.1",
            "openSUSE Tumbleweed:perl-base-32bit-5.34.0-1.1",
            "openSUSE Tumbleweed:perl-base-5.34.0-1.1",
            "openSUSE Tumbleweed:perl-doc-5.34.0-1.1"
          ]
        }
      ],
      "CVSSScoreSets": {
        "BaseScore": "3.6",
        "Vector": "AV:L/AC:L/Au:N/C:P/I:N/A:P"
      }
    },
    {
      "CVE": "CVE-2018-18311",
      "Description": "Perl before 5.26.3 and 5.28.x before 5.28.1 has a buffer overflow via a crafted regular expression that triggers invalid write operations.",
      "Threats": [
        {
          "Type": "Impact",
          "Severity": "important"
        }
      ],
      "References": [
        {
          "URL": "https://www.suse.com/security/cve/CVE-2018-18311.html",
          "Description": "CVE-2018-18311"
        },
        {
          "URL": "https://bugzilla.suse.com/1114674",
          "Description": "SUSE Bug 1114674"
        },
        {
          "URL": "https://bugzilla.suse.com/1132018",
          "Description": "SUSE Bug 1132018"
        }
      ],
      "ProductStatuses": [
        {
          "Type": "Fixed",
          "ProductID": [
            "openSUSE Tumbleweed:perl-32bit-5.34.0-1.1",
            "openSUSE Tumbleweed:perl-5.34.0-1.1",
            "openSUSE Tumbleweed:perl-base-32bit-5.34.0-1.1",
            "openSUSE Tumbleweed:perl-base-5.34.0-1.1",
            "openSUSE Tumbleweed:perl-doc-5.34.0-1.1"
          ]
        }
      ],
      "CVSSScoreSets": {}
    },
    {
      "CVE": "CVE-2018-18312",
      "Description": "Perl before 5.26.3 and 5.28.0 before 5.28.1 has a buffer overflow via a crafted regular expression that triggers invalid write operations.",
      "Threats": [
        {
          "Type": "Impact",
          "Severity": "moderate"
        }
      ],
      "References": [
        {
          "URL": "https://www.suse.com/security/cve/CVE-2018-18312.html",
          "Description": "CVE-2018-18312"
        },
        {
          "URL": "https://bugzilla.suse.com/1114675",
          "Description": "SUSE Bug 1114675"
        }
      ],
      "ProductStatuses": [
        {
          "Type": "Fixed",
          "ProductID": [
            "openSUSE Tumbleweed:perl-32bit-5.34.0-1.1",
            "openSUSE Tumbleweed:perl-5.34.0-1.1",
            "openSUSE Tumbleweed:perl-base-32bit-5.34.0-1.1",
            "openSUSE Tumbleweed:perl-base-5.34.0-1.1",
            "openSUSE Tumbleweed:perl-doc-5.34.0-1.1"
          ]
        }
      ],
      "CVSSScoreSets": {}
    },
    {
      "CVE": "CVE-2020-10543",
      "Description": "Perl before 5.30.3 on 32-bit platforms allows a heap-based buffer overflow because nested regular expression quantifiers have an integer overflow.",
      "Threats": [
        {
          "Type": "Impact",
          "Severity": "moderate"
        }
      ],
      "References": [
        {
          "URL": "https://www.suse.com/security/cve/CVE-2020-10543.html",
          "Description": "CVE-2020-10543"
        },
        {
          "URL": "https://bugzilla.suse.com/1171863",
          "Description": "SUSE Bug 1171863"
        },
        {
          "URL": "https://bugzilla.suse.com/1225627",
          "Description": "SUSE Bug 1225627"
        }
      ],
      "ProductStatuses": [
        {
          "Type": "Fixed",
          "ProductID": [
            "openSUSE Tumbleweed:perl-32bit-5.34.0-1.1",
            "openSUSE Tumbleweed:perl-5.34.0-1.1",
            "openSUSE Tumbleweed:perl-base-32bit-5.34.0-1.1",
            "openSUSE Tumbleweed:perl-base-5.34.0-1.1",
            "openSUSE Tumbleweed:perl-doc-5.34.0-1.1"
          ]
        }
      ],
      "CVSSScoreSets": {}
    },
    {
      "CVE": "CVE-2020-10878",
      "Description": "Perl before 5.30.3 has an integer overflow related to mishandling of a \"PL_regkind[OP(n)] == NOTHING\" situation. A crafted regular expression could lead to malformed bytecode with a possibility of instruction injection.",
      "Threats": [
        {
          "Type": "Impact",
          "Severity": "moderate"
        }
      ],
      "References": [
        {
          "URL": "https://www.suse.com/security/cve/CVE-2020-10878.html",
          "Description": "CVE-2020-10878"
        },
        {
          "URL": "https://bugzilla.suse.com/1171864",
          "Description": "SUSE Bug 1171864"
        },
        {
          "URL": "https://bugzilla.suse.com/1225627",
          "Description": "SUSE Bug 1225627"
        }
      ],
      "ProductStatuses": [
        {
          "Type": "Fixed",
          "ProductID": [
            "openSUSE Tumbleweed:perl-32bit-5.34.0-1.1",
            "openSUSE Tumbleweed:perl-5.34.0-1.1",
            "openSUSE Tumbleweed:perl-base-32bit-5.34.0-1.1",
            "openSUSE Tumbleweed:perl-base-5.34.0-1.1",
            "openSUSE Tumbleweed:perl-doc-5.34.0-1.1"
          ]
        }
      ],
      "CVSSScoreSets": {}
    },
    {
      "CVE": "CVE-2020-12723",
      "Description": "regcomp.c in Perl before 5.30.3 allows a buffer overflow via a crafted regular expression because of recursive S_study_chunk calls.",
      "Threats": [
        {
          "Type": "Impact",
          "Severity": "moderate"
        }
      ],
      "References": [
        {
          "URL": "https://www.suse.com/security/cve/CVE-2020-12723.html",
          "Description": "CVE-2020-12723"
        },
        {
          "URL": "https://bugzilla.suse.com/1171866",
          "Description": "SUSE Bug 1171866"
        },
        {
          "URL": "https://bugzilla.suse.com/1225627",
          "Description": "SUSE Bug 1225627"
        }
      ],
      "ProductStatuses": [
        {
          "Type": "Fixed",
          "ProductID": [
            "openSUSE Tumbleweed:perl-32bit-5.34.0-1.1",
            "openSUSE Tumbleweed:perl-5.34.0-1.1",
            "openSUSE Tumbleweed:perl-base-32bit-5.34.0-1.1",
            "openSUSE Tumbleweed:perl-base-5.34.0-1.1",
            "openSUSE Tumbleweed:perl-doc-5.34.0-1.1"
          ]
        }
      ],
      "CVSSScoreSets": {}
    }
  ]
}