{
  "Title": "libsqlite3-0-3.39.3-2.1 on GA media",
  "Tracking": {
    "ID": "openSUSE-SU-2024:12347-1",
    "Status": "Final",
    "Version": "1",
    "InitialReleaseDate": "2024-06-20T21:44:22Z",
    "CurrentReleaseDate": "2024-06-20T21:44:22Z",
    "RevisionHistory": [
      {
        "Number": "1",
        "Date": "2024-06-20T21:44:22Z",
        "Description": "current"
      }
    ]
  },
  "Notes": [
    {
      "Text": "libsqlite3-0-3.39.3-2.1 on GA media",
      "Title": "Topic",
      "Type": "Summary"
    },
    {
      "Text": "These are all security issues fixed in the libsqlite3-0-3.39.3-2.1 package on the GA media of openSUSE Tumbleweed.",
      "Title": "Details",
      "Type": "General"
    },
    {
      "Text": "The CVRF data is provided by SUSE under the Creative Commons License 4.0 with Attribution (CC-BY-4.0).",
      "Title": "Terms of Use",
      "Type": "Legal Disclaimer"
    },
    {
      "Text": "openSUSE-Tumbleweed-2024-12347",
      "Title": "Patchnames",
      "Type": "Details"
    }
  ],
  "ProductTree": {
    "Relationships": [
      {
        "ProductReference": "libsqlite3-0-3.39.3-2.1",
        "RelatesToProductReference": "openSUSE Tumbleweed",
        "RelationType": "Default Component Of"
      },
      {
        "ProductReference": "libsqlite3-0-32bit-3.39.3-2.1",
        "RelatesToProductReference": "openSUSE Tumbleweed",
        "RelationType": "Default Component Of"
      },
      {
        "ProductReference": "sqlite3-3.39.3-2.1",
        "RelatesToProductReference": "openSUSE Tumbleweed",
        "RelationType": "Default Component Of"
      },
      {
        "ProductReference": "sqlite3-devel-3.39.3-2.1",
        "RelatesToProductReference": "openSUSE Tumbleweed",
        "RelationType": "Default Component Of"
      },
      {
        "ProductReference": "sqlite3-doc-3.39.3-2.1",
        "RelatesToProductReference": "openSUSE Tumbleweed",
        "RelationType": "Default Component Of"
      },
      {
        "ProductReference": "sqlite3-tcl-3.39.3-2.1",
        "RelatesToProductReference": "openSUSE Tumbleweed",
        "RelationType": "Default Component Of"
      }
    ]
  },
  "References": [
    {
      "URL": "https://www.suse.com/support/security/rating/",
      "Description": "SUSE Security Ratings"
    },
    {
      "URL": "https://www.suse.com/security/cve/CVE-2021-36690/",
      "Description": "SUSE CVE CVE-2021-36690 page"
    }
  ],
  "Vulnerabilities": [
    {
      "CVE": "CVE-2021-36690",
      "Description": "** DISPUTED ** A segmentation fault can occur in the sqlite3.exe command-line component of SQLite 3.36.0 via the idxGetTableInfo function when there is a crafted SQL query. NOTE: the vendor disputes the relevance of this report because a sqlite3.exe user already has full privileges (e.g., is intentionally allowed to execute commands). This report does NOT imply any problem in the SQLite library.",
      "Threats": [
        {
          "Type": "Impact",
          "Severity": "moderate"
        }
      ],
      "References": [
        {
          "URL": "https://www.suse.com/security/cve/CVE-2021-36690.html",
          "Description": "CVE-2021-36690"
        },
        {
          "URL": "https://bugzilla.suse.com/1189802",
          "Description": "SUSE Bug 1189802"
        },
        {
          "URL": "https://bugzilla.suse.com/1211963",
          "Description": "SUSE Bug 1211963"
        }
      ],
      "ProductStatuses": [
        {
          "Type": "Fixed",
          "ProductID": [
            "openSUSE Tumbleweed:libsqlite3-0-3.39.3-2.1",
            "openSUSE Tumbleweed:libsqlite3-0-32bit-3.39.3-2.1",
            "openSUSE Tumbleweed:sqlite3-3.39.3-2.1",
            "openSUSE Tumbleweed:sqlite3-devel-3.39.3-2.1",
            "openSUSE Tumbleweed:sqlite3-doc-3.39.3-2.1",
            "openSUSE Tumbleweed:sqlite3-tcl-3.39.3-2.1"
          ]
        }
      ],
      "CVSSScoreSets": {}
    }
  ]
}