{
  "Title": "libqpdf28-10.3.2-1.3 on GA media",
  "Tracking": {
    "ID": "openSUSE-SU-2024:11289-1",
    "Status": "Final",
    "Version": "1",
    "InitialReleaseDate": "2024-06-22T21:44:56Z",
    "CurrentReleaseDate": "2024-06-22T21:44:56Z",
    "RevisionHistory": [
      {
        "Number": "1",
        "Date": "2024-06-22T21:44:56Z",
        "Description": "current"
      }
    ]
  },
  "Notes": [
    {
      "Text": "libqpdf28-10.3.2-1.3 on GA media",
      "Title": "Topic",
      "Type": "Summary"
    },
    {
      "Text": "These are all security issues fixed in the libqpdf28-10.3.2-1.3 package on the GA media of openSUSE Tumbleweed.",
      "Title": "Details",
      "Type": "General"
    },
    {
      "Text": "The CVRF data is provided by SUSE under the Creative Commons License 4.0 with Attribution (CC-BY-4.0).",
      "Title": "Terms of Use",
      "Type": "Legal Disclaimer"
    },
    {
      "Text": "openSUSE-Tumbleweed-2024-11289",
      "Title": "Patchnames",
      "Type": "Details"
    }
  ],
  "ProductTree": {
    "Relationships": [
      {
        "ProductReference": "libqpdf28-10.3.2-1.3",
        "RelatesToProductReference": "openSUSE Tumbleweed",
        "RelationType": "Default Component Of"
      },
      {
        "ProductReference": "qpdf-10.3.2-1.3",
        "RelatesToProductReference": "openSUSE Tumbleweed",
        "RelationType": "Default Component Of"
      },
      {
        "ProductReference": "qpdf-devel-10.3.2-1.3",
        "RelatesToProductReference": "openSUSE Tumbleweed",
        "RelationType": "Default Component Of"
      },
      {
        "ProductReference": "qpdf-htmldoc-10.3.2-1.3",
        "RelatesToProductReference": "openSUSE Tumbleweed",
        "RelationType": "Default Component Of"
      }
    ]
  },
  "References": [
    {
      "URL": "https://www.suse.com/support/security/rating/",
      "Description": "SUSE Security Ratings"
    },
    {
      "URL": "https://www.suse.com/security/cve/CVE-2017-11625/",
      "Description": "SUSE CVE CVE-2017-11625 page"
    },
    {
      "URL": "https://www.suse.com/security/cve/CVE-2017-11627/",
      "Description": "SUSE CVE CVE-2017-11627 page"
    },
    {
      "URL": "https://www.suse.com/security/cve/CVE-2017-12595/",
      "Description": "SUSE CVE CVE-2017-12595 page"
    },
    {
      "URL": "https://www.suse.com/security/cve/CVE-2017-9209/",
      "Description": "SUSE CVE CVE-2017-9209 page"
    }
  ],
  "Vulnerabilities": [
    {
      "CVE": "CVE-2017-11625",
      "Description": "A stack-consumption vulnerability was found in libqpdf in QPDF 6.0.0, which allows attackers to cause a denial of service via a crafted file, related to the QPDF::resolveObjectsInStream function in QPDF.cc, aka an \"infinite loop.\"",
      "Threats": [
        {
          "Type": "Impact",
          "Severity": "important"
        }
      ],
      "References": [
        {
          "URL": "https://www.suse.com/security/cve/CVE-2017-11625.html",
          "Description": "CVE-2017-11625"
        },
        {
          "URL": "https://bugzilla.suse.com/1050579",
          "Description": "SUSE Bug 1050579"
        }
      ],
      "ProductStatuses": [
        {
          "Type": "Fixed",
          "ProductID": [
            "openSUSE Tumbleweed:libqpdf28-10.3.2-1.3",
            "openSUSE Tumbleweed:qpdf-10.3.2-1.3",
            "openSUSE Tumbleweed:qpdf-devel-10.3.2-1.3",
            "openSUSE Tumbleweed:qpdf-htmldoc-10.3.2-1.3"
          ]
        }
      ],
      "CVSSScoreSets": {
        "BaseScore": "5",
        "Vector": "AV:N/AC:L/Au:N/C:N/I:N/A:P"
      }
    },
    {
      "CVE": "CVE-2017-11627",
      "Description": "A stack-consumption vulnerability was found in libqpdf in QPDF 6.0.0, which allows attackers to cause a denial of service via a crafted file, related to the PointerHolder function in PointerHolder.hh, aka an \"infinite loop.\"",
      "Threats": [
        {
          "Type": "Impact",
          "Severity": "important"
        }
      ],
      "References": [
        {
          "URL": "https://www.suse.com/security/cve/CVE-2017-11627.html",
          "Description": "CVE-2017-11627"
        },
        {
          "URL": "https://bugzilla.suse.com/1050577",
          "Description": "SUSE Bug 1050577"
        }
      ],
      "ProductStatuses": [
        {
          "Type": "Fixed",
          "ProductID": [
            "openSUSE Tumbleweed:libqpdf28-10.3.2-1.3",
            "openSUSE Tumbleweed:qpdf-10.3.2-1.3",
            "openSUSE Tumbleweed:qpdf-devel-10.3.2-1.3",
            "openSUSE Tumbleweed:qpdf-htmldoc-10.3.2-1.3"
          ]
        }
      ],
      "CVSSScoreSets": {
        "BaseScore": "5",
        "Vector": "AV:N/AC:L/Au:N/C:N/I:N/A:P"
      }
    },
    {
      "CVE": "CVE-2017-12595",
      "Description": "The tokenizer in QPDF 6.0.0 and 7.0.b1 is recursive for arrays and dictionaries, which allows remote attackers to cause a denial of service (stack consumption and segmentation fault) or possibly have unspecified other impact via a PDF document with a deep data structure, as demonstrated by a crash in QPDFObjectHandle::parseInternal in libqpdf/QPDFObjectHandle.cc.",
      "Threats": [
        {
          "Type": "Impact",
          "Severity": "low"
        }
      ],
      "References": [
        {
          "URL": "https://www.suse.com/security/cve/CVE-2017-12595.html",
          "Description": "CVE-2017-12595"
        },
        {
          "URL": "https://bugzilla.suse.com/1055960",
          "Description": "SUSE Bug 1055960"
        }
      ],
      "ProductStatuses": [
        {
          "Type": "Fixed",
          "ProductID": [
            "openSUSE Tumbleweed:libqpdf28-10.3.2-1.3",
            "openSUSE Tumbleweed:qpdf-10.3.2-1.3",
            "openSUSE Tumbleweed:qpdf-devel-10.3.2-1.3",
            "openSUSE Tumbleweed:qpdf-htmldoc-10.3.2-1.3"
          ]
        }
      ],
      "CVSSScoreSets": {
        "BaseScore": "2.1",
        "Vector": "AV:L/AC:L/Au:N/C:N/I:N/A:P"
      }
    },
    {
      "CVE": "CVE-2017-9209",
      "Description": "libqpdf.a in QPDF 6.0.0 allows remote attackers to cause a denial of service (infinite recursion and stack consumption) via a crafted PDF document, related to QPDFObjectHandle::parseInternal, aka qpdf-infiniteloop2.",
      "Threats": [
        {
          "Type": "Impact",
          "Severity": "moderate"
        }
      ],
      "References": [
        {
          "URL": "https://www.suse.com/security/cve/CVE-2017-9209.html",
          "Description": "CVE-2017-9209"
        },
        {
          "URL": "https://bugzilla.suse.com/1040312",
          "Description": "SUSE Bug 1040312"
        }
      ],
      "ProductStatuses": [
        {
          "Type": "Fixed",
          "ProductID": [
            "openSUSE Tumbleweed:libqpdf28-10.3.2-1.3",
            "openSUSE Tumbleweed:qpdf-10.3.2-1.3",
            "openSUSE Tumbleweed:qpdf-devel-10.3.2-1.3",
            "openSUSE Tumbleweed:qpdf-htmldoc-10.3.2-1.3"
          ]
        }
      ],
      "CVSSScoreSets": {
        "BaseScore": "4.3",
        "Vector": "AV:N/AC:M/Au:N/C:N/I:N/A:P"
      }
    }
  ]
}