{
  "Title": "xlockmore-5.45-3.8 on GA media",
  "Tracking": {
    "ID": "openSUSE-SU-2024:10134-1",
    "Status": "Final",
    "Version": "1",
    "InitialReleaseDate": "2024-06-22T21:44:56Z",
    "CurrentReleaseDate": "2024-06-22T21:44:56Z",
    "RevisionHistory": [
      {
        "Number": "1",
        "Date": "2024-06-22T21:44:56Z",
        "Description": "current"
      }
    ]
  },
  "Notes": [
    {
      "Text": "xlockmore-5.45-3.8 on GA media",
      "Title": "Topic",
      "Type": "Summary"
    },
    {
      "Text": "These are all security issues fixed in the xlockmore-5.45-3.8 package on the GA media of openSUSE Tumbleweed.",
      "Title": "Details",
      "Type": "General"
    },
    {
      "Text": "The CVRF data is provided by SUSE under the Creative Commons License 4.0 with Attribution (CC-BY-4.0).",
      "Title": "Terms of Use",
      "Type": "Legal Disclaimer"
    },
    {
      "Text": "openSUSE-Tumbleweed-2024-10134",
      "Title": "Patchnames",
      "Type": "Details"
    }
  ],
  "ProductTree": {
    "Relationships": [
      {
        "ProductReference": "xlockmore-5.45-3.8",
        "RelatesToProductReference": "openSUSE Tumbleweed",
        "RelationType": "Default Component Of"
      }
    ]
  },
  "References": [
    {
      "URL": "https://www.suse.com/support/security/rating/",
      "Description": "SUSE Security Ratings"
    },
    {
      "URL": "https://www.suse.com/security/cve/CVE-2013-4143/",
      "Description": "SUSE CVE CVE-2013-4143 page"
    }
  ],
  "Vulnerabilities": [
    {
      "CVE": "CVE-2013-4143",
      "Description": "The (1) checkPasswd and (2) checkGroupXlockPasswds functions in xlockmore before 5.43 do not properly handle when a NULL value is returned upon an error by the crypt or dispcrypt function as implemented in glibc 2.17 and later, which allows attackers to bypass the screen lock via vectors related to invalid salts.",
      "Threats": [
        {
          "Type": "Impact",
          "Severity": "moderate"
        }
      ],
      "References": [
        {
          "URL": "https://www.suse.com/security/cve/CVE-2013-4143.html",
          "Description": "CVE-2013-4143"
        },
        {
          "URL": "https://bugzilla.suse.com/829859",
          "Description": "SUSE Bug 829859"
        }
      ],
      "ProductStatuses": [
        {
          "Type": "Fixed",
          "ProductID": [
            "openSUSE Tumbleweed:xlockmore-5.45-3.8"
          ]
        }
      ],
      "CVSSScoreSets": {}
    }
  ]
}