{
  "Title": "python310-Pillow-10.2.0-1.1 on GA media",
  "Tracking": {
    "ID": "openSUSE-SU-2024:13611-1",
    "Status": "Final",
    "Version": "1",
    "InitialReleaseDate": "2024-06-20T21:44:22Z",
    "CurrentReleaseDate": "2024-06-20T21:44:22Z",
    "RevisionHistory": [
      {
        "Number": "1",
        "Date": "2024-06-20T21:44:22Z",
        "Description": "current"
      }
    ]
  },
  "Notes": [
    {
      "Text": "python310-Pillow-10.2.0-1.1 on GA media",
      "Title": "Topic",
      "Type": "Summary"
    },
    {
      "Text": "These are all security issues fixed in the python310-Pillow-10.2.0-1.1 package on the GA media of openSUSE Tumbleweed.",
      "Title": "Details",
      "Type": "General"
    },
    {
      "Text": "The CVRF data is provided by SUSE under the Creative Commons License 4.0 with Attribution (CC-BY-4.0).",
      "Title": "Terms of Use",
      "Type": "Legal Disclaimer"
    },
    {
      "Text": "openSUSE-Tumbleweed-2024-13611",
      "Title": "Patchnames",
      "Type": "Details"
    }
  ],
  "ProductTree": {
    "Relationships": [
      {
        "ProductReference": "python310-Pillow-10.2.0-1.1",
        "RelatesToProductReference": "openSUSE Tumbleweed",
        "RelationType": "Default Component Of"
      },
      {
        "ProductReference": "python310-Pillow-tk-10.2.0-1.1",
        "RelatesToProductReference": "openSUSE Tumbleweed",
        "RelationType": "Default Component Of"
      },
      {
        "ProductReference": "python311-Pillow-10.2.0-1.1",
        "RelatesToProductReference": "openSUSE Tumbleweed",
        "RelationType": "Default Component Of"
      },
      {
        "ProductReference": "python311-Pillow-tk-10.2.0-1.1",
        "RelatesToProductReference": "openSUSE Tumbleweed",
        "RelationType": "Default Component Of"
      },
      {
        "ProductReference": "python39-Pillow-10.2.0-1.1",
        "RelatesToProductReference": "openSUSE Tumbleweed",
        "RelationType": "Default Component Of"
      },
      {
        "ProductReference": "python39-Pillow-tk-10.2.0-1.1",
        "RelatesToProductReference": "openSUSE Tumbleweed",
        "RelationType": "Default Component Of"
      }
    ]
  },
  "References": [
    {
      "URL": "https://www.suse.com/support/security/rating/",
      "Description": "SUSE Security Ratings"
    },
    {
      "URL": "https://www.suse.com/security/cve/CVE-2023-50447/",
      "Description": "SUSE CVE CVE-2023-50447 page"
    }
  ],
  "Vulnerabilities": [
    {
      "CVE": "CVE-2023-50447",
      "Description": "Pillow through 10.1.0 allows PIL.ImageMath.eval Arbitrary Code Execution via the environment parameter, a different vulnerability than CVE-2022-22817 (which was about the expression parameter).",
      "Threats": [
        {
          "Type": "Impact",
          "Severity": "moderate"
        }
      ],
      "References": [
        {
          "URL": "https://www.suse.com/security/cve/CVE-2023-50447.html",
          "Description": "CVE-2023-50447"
        },
        {
          "URL": "https://bugzilla.suse.com/1219048",
          "Description": "SUSE Bug 1219048"
        }
      ],
      "ProductStatuses": [
        {
          "Type": "Fixed",
          "ProductID": [
            "openSUSE Tumbleweed:python310-Pillow-10.2.0-1.1",
            "openSUSE Tumbleweed:python310-Pillow-tk-10.2.0-1.1",
            "openSUSE Tumbleweed:python311-Pillow-10.2.0-1.1",
            "openSUSE Tumbleweed:python311-Pillow-tk-10.2.0-1.1",
            "openSUSE Tumbleweed:python39-Pillow-10.2.0-1.1",
            "openSUSE Tumbleweed:python39-Pillow-tk-10.2.0-1.1"
          ]
        }
      ],
      "CVSSScoreSets": {}
    }
  ]
}