{
  "Title": "gdk-pixbuf-loader-rsvg-2.52.2-2.1 on GA media",
  "Tracking": {
    "ID": "openSUSE-SU-2024:11593-1",
    "Status": "Final",
    "Version": "1",
    "InitialReleaseDate": "2024-06-22T21:44:56Z",
    "CurrentReleaseDate": "2024-06-22T21:44:56Z",
    "RevisionHistory": [
      {
        "Number": "1",
        "Date": "2024-06-22T21:44:56Z",
        "Description": "current"
      }
    ]
  },
  "Notes": [
    {
      "Text": "gdk-pixbuf-loader-rsvg-2.52.2-2.1 on GA media",
      "Title": "Topic",
      "Type": "Summary"
    },
    {
      "Text": "These are all security issues fixed in the gdk-pixbuf-loader-rsvg-2.52.2-2.1 package on the GA media of openSUSE Tumbleweed.",
      "Title": "Details",
      "Type": "General"
    },
    {
      "Text": "The CVRF data is provided by SUSE under the Creative Commons License 4.0 with Attribution (CC-BY-4.0).",
      "Title": "Terms of Use",
      "Type": "Legal Disclaimer"
    },
    {
      "Text": "openSUSE-Tumbleweed-2024-11593",
      "Title": "Patchnames",
      "Type": "Details"
    }
  ],
  "ProductTree": {
    "Relationships": [
      {
        "ProductReference": "gdk-pixbuf-loader-rsvg-2.52.2-2.1",
        "RelatesToProductReference": "openSUSE Tumbleweed",
        "RelationType": "Default Component Of"
      },
      {
        "ProductReference": "gdk-pixbuf-loader-rsvg-32bit-2.52.2-2.1",
        "RelatesToProductReference": "openSUSE Tumbleweed",
        "RelationType": "Default Component Of"
      },
      {
        "ProductReference": "librsvg-2-2-2.52.2-2.1",
        "RelatesToProductReference": "openSUSE Tumbleweed",
        "RelationType": "Default Component Of"
      },
      {
        "ProductReference": "librsvg-2-2-32bit-2.52.2-2.1",
        "RelatesToProductReference": "openSUSE Tumbleweed",
        "RelationType": "Default Component Of"
      },
      {
        "ProductReference": "librsvg-devel-2.52.2-2.1",
        "RelatesToProductReference": "openSUSE Tumbleweed",
        "RelationType": "Default Component Of"
      },
      {
        "ProductReference": "rsvg-convert-2.52.2-2.1",
        "RelatesToProductReference": "openSUSE Tumbleweed",
        "RelationType": "Default Component Of"
      },
      {
        "ProductReference": "rsvg-thumbnailer-2.52.2-2.1",
        "RelatesToProductReference": "openSUSE Tumbleweed",
        "RelationType": "Default Component Of"
      },
      {
        "ProductReference": "typelib-1_0-Rsvg-2_0-2.52.2-2.1",
        "RelatesToProductReference": "openSUSE Tumbleweed",
        "RelationType": "Default Component Of"
      }
    ]
  },
  "References": [
    {
      "URL": "https://www.suse.com/support/security/rating/",
      "Description": "SUSE Security Ratings"
    },
    {
      "URL": "https://www.suse.com/security/cve/CVE-2021-25900/",
      "Description": "SUSE CVE CVE-2021-25900 page"
    }
  ],
  "Vulnerabilities": [
    {
      "CVE": "CVE-2021-25900",
      "Description": "An issue was discovered in the smallvec crate before 0.6.14 and 1.x before 1.6.1 for Rust. There is a heap-based buffer overflow in SmallVec::insert_many.",
      "Threats": [
        {
          "Type": "Impact",
          "Severity": "important"
        }
      ],
      "References": [
        {
          "URL": "https://www.suse.com/security/cve/CVE-2021-25900.html",
          "Description": "CVE-2021-25900"
        },
        {
          "URL": "https://bugzilla.suse.com/1183403",
          "Description": "SUSE Bug 1183403"
        }
      ],
      "ProductStatuses": [
        {
          "Type": "Fixed",
          "ProductID": [
            "openSUSE Tumbleweed:gdk-pixbuf-loader-rsvg-2.52.2-2.1",
            "openSUSE Tumbleweed:gdk-pixbuf-loader-rsvg-32bit-2.52.2-2.1",
            "openSUSE Tumbleweed:librsvg-2-2-2.52.2-2.1",
            "openSUSE Tumbleweed:librsvg-2-2-32bit-2.52.2-2.1",
            "openSUSE Tumbleweed:librsvg-devel-2.52.2-2.1",
            "openSUSE Tumbleweed:rsvg-convert-2.52.2-2.1",
            "openSUSE Tumbleweed:rsvg-thumbnailer-2.52.2-2.1",
            "openSUSE Tumbleweed:typelib-1_0-Rsvg-2_0-2.52.2-2.1"
          ]
        }
      ],
      "CVSSScoreSets": {}
    }
  ]
}