{
  "Title": "perl-DBI-1.643-4.1 on GA media",
  "Tracking": {
    "ID": "openSUSE-SU-2024:14061-1",
    "Status": "Final",
    "Version": "1",
    "InitialReleaseDate": "2024-06-21T21:46:36Z",
    "CurrentReleaseDate": "2024-06-21T21:46:36Z",
    "RevisionHistory": [
      {
        "Number": "1",
        "Date": "2024-06-21T21:46:36Z",
        "Description": "current"
      }
    ]
  },
  "Notes": [
    {
      "Text": "perl-DBI-1.643-4.1 on GA media",
      "Title": "Topic",
      "Type": "Summary"
    },
    {
      "Text": "These are all security issues fixed in the perl-DBI-1.643-4.1 package on the GA media of openSUSE Tumbleweed.",
      "Title": "Details",
      "Type": "General"
    },
    {
      "Text": "The CVRF data is provided by SUSE under the Creative Commons License 4.0 with Attribution (CC-BY-4.0).",
      "Title": "Terms of Use",
      "Type": "Legal Disclaimer"
    },
    {
      "Text": "openSUSE-Tumbleweed-2024-14061",
      "Title": "Patchnames",
      "Type": "Details"
    }
  ],
  "ProductTree": {
    "Relationships": [
      {
        "ProductReference": "perl-DBI-1.643-4.1",
        "RelatesToProductReference": "openSUSE Tumbleweed",
        "RelationType": "Default Component Of"
      }
    ]
  },
  "References": [
    {
      "URL": "https://www.suse.com/support/security/rating/",
      "Description": "SUSE Security Ratings"
    },
    {
      "URL": "https://www.suse.com/security/cve/CVE-2019-20919/",
      "Description": "SUSE CVE CVE-2019-20919 page"
    },
    {
      "URL": "https://www.suse.com/security/cve/CVE-2020-14392/",
      "Description": "SUSE CVE CVE-2020-14392 page"
    },
    {
      "URL": "https://www.suse.com/security/cve/CVE-2020-14393/",
      "Description": "SUSE CVE CVE-2020-14393 page"
    }
  ],
  "Vulnerabilities": [
    {
      "CVE": "CVE-2019-20919",
      "Description": "An issue was discovered in the DBI module before 1.643 for Perl. The hv_fetch() documentation requires checking for NULL and the code does that. But, shortly thereafter, it calls SvOK(profile), causing a NULL pointer dereference.",
      "Threats": [
        {
          "Type": "Impact",
          "Severity": "moderate"
        }
      ],
      "References": [
        {
          "URL": "https://www.suse.com/security/cve/CVE-2019-20919.html",
          "Description": "CVE-2019-20919"
        },
        {
          "URL": "https://bugzilla.suse.com/1176764",
          "Description": "SUSE Bug 1176764"
        }
      ],
      "ProductStatuses": [
        {
          "Type": "Fixed",
          "ProductID": [
            "openSUSE Tumbleweed:perl-DBI-1.643-4.1"
          ]
        }
      ],
      "CVSSScoreSets": {}
    },
    {
      "CVE": "CVE-2020-14392",
      "Description": "An untrusted pointer dereference flaw was found in Perl-DBI \u003c 1.643. A local attacker who is able to manipulate calls to dbd_db_login6_sv() could cause memory corruption, affecting the service's availability.",
      "Threats": [
        {
          "Type": "Impact",
          "Severity": "moderate"
        }
      ],
      "References": [
        {
          "URL": "https://www.suse.com/security/cve/CVE-2020-14392.html",
          "Description": "CVE-2020-14392"
        },
        {
          "URL": "https://bugzilla.suse.com/1176412",
          "Description": "SUSE Bug 1176412"
        }
      ],
      "ProductStatuses": [
        {
          "Type": "Fixed",
          "ProductID": [
            "openSUSE Tumbleweed:perl-DBI-1.643-4.1"
          ]
        }
      ],
      "CVSSScoreSets": {}
    },
    {
      "CVE": "CVE-2020-14393",
      "Description": "A buffer overflow was found in perl-DBI \u003c 1.643 in DBI.xs. A local attacker who is able to supply a string longer than 300 characters could cause an out-of-bounds write, affecting the availability of the service or integrity of data.",
      "Threats": [
        {
          "Type": "Impact",
          "Severity": "moderate"
        }
      ],
      "References": [
        {
          "URL": "https://www.suse.com/security/cve/CVE-2020-14393.html",
          "Description": "CVE-2020-14393"
        },
        {
          "URL": "https://bugzilla.suse.com/1176409",
          "Description": "SUSE Bug 1176409"
        }
      ],
      "ProductStatuses": [
        {
          "Type": "Fixed",
          "ProductID": [
            "openSUSE Tumbleweed:perl-DBI-1.643-4.1"
          ]
        }
      ],
      "CVSSScoreSets": {}
    }
  ]
}