{
  "Title": "libIex-3_1-30-32bit-3.1.11-1.3 on GA media",
  "Tracking": {
    "ID": "openSUSE-SU-2024:13683-1",
    "Status": "Final",
    "Version": "1",
    "InitialReleaseDate": "2024-06-20T21:44:22Z",
    "CurrentReleaseDate": "2024-06-20T21:44:22Z",
    "RevisionHistory": [
      {
        "Number": "1",
        "Date": "2024-06-20T21:44:22Z",
        "Description": "current"
      }
    ]
  },
  "Notes": [
    {
      "Text": "libIex-3_1-30-32bit-3.1.11-1.3 on GA media",
      "Title": "Topic",
      "Type": "Summary"
    },
    {
      "Text": "These are all security issues fixed in the libIex-3_1-30-32bit-3.1.11-1.3 package on the GA media of openSUSE Tumbleweed.",
      "Title": "Details",
      "Type": "General"
    },
    {
      "Text": "The CVRF data is provided by SUSE under the Creative Commons License 4.0 with Attribution (CC-BY-4.0).",
      "Title": "Terms of Use",
      "Type": "Legal Disclaimer"
    },
    {
      "Text": "openSUSE-Tumbleweed-2024-13683",
      "Title": "Patchnames",
      "Type": "Details"
    }
  ],
  "ProductTree": {
    "Relationships": [
      {
        "ProductReference": "libIex-3_1-30-32bit-3.1.11-1.3",
        "RelatesToProductReference": "openSUSE Tumbleweed",
        "RelationType": "Default Component Of"
      },
      {
        "ProductReference": "libIex-3_2-31-3.2.2-1.1",
        "RelatesToProductReference": "openSUSE Tumbleweed",
        "RelationType": "Default Component Of"
      },
      {
        "ProductReference": "libIlmThread-3_1-30-32bit-3.1.11-1.3",
        "RelatesToProductReference": "openSUSE Tumbleweed",
        "RelationType": "Default Component Of"
      },
      {
        "ProductReference": "libIlmThread-3_2-31-3.2.2-1.1",
        "RelatesToProductReference": "openSUSE Tumbleweed",
        "RelationType": "Default Component Of"
      },
      {
        "ProductReference": "libOpenEXR-3_1-30-32bit-3.1.11-1.3",
        "RelatesToProductReference": "openSUSE Tumbleweed",
        "RelationType": "Default Component Of"
      },
      {
        "ProductReference": "libOpenEXR-3_2-31-3.2.2-1.1",
        "RelatesToProductReference": "openSUSE Tumbleweed",
        "RelationType": "Default Component Of"
      },
      {
        "ProductReference": "libOpenEXRCore-3_1-30-32bit-3.1.11-1.3",
        "RelatesToProductReference": "openSUSE Tumbleweed",
        "RelationType": "Default Component Of"
      },
      {
        "ProductReference": "libOpenEXRCore-3_2-31-3.2.2-1.1",
        "RelatesToProductReference": "openSUSE Tumbleweed",
        "RelationType": "Default Component Of"
      },
      {
        "ProductReference": "libOpenEXRUtil-3_1-30-32bit-3.1.11-1.3",
        "RelatesToProductReference": "openSUSE Tumbleweed",
        "RelationType": "Default Component Of"
      },
      {
        "ProductReference": "libOpenEXRUtil-3_2-31-3.2.2-1.1",
        "RelatesToProductReference": "openSUSE Tumbleweed",
        "RelationType": "Default Component Of"
      },
      {
        "ProductReference": "openexr-3.2.2-1.1",
        "RelatesToProductReference": "openSUSE Tumbleweed",
        "RelationType": "Default Component Of"
      },
      {
        "ProductReference": "openexr-devel-3.2.2-1.1",
        "RelatesToProductReference": "openSUSE Tumbleweed",
        "RelationType": "Default Component Of"
      },
      {
        "ProductReference": "openexr-doc-3.2.2-1.1",
        "RelatesToProductReference": "openSUSE Tumbleweed",
        "RelationType": "Default Component Of"
      }
    ]
  },
  "References": [
    {
      "URL": "https://www.suse.com/support/security/rating/",
      "Description": "SUSE Security Ratings"
    },
    {
      "URL": "https://www.suse.com/security/cve/CVE-2023-5841/",
      "Description": "SUSE CVE CVE-2023-5841 page"
    }
  ],
  "Vulnerabilities": [
    {
      "CVE": "CVE-2023-5841",
      "Description": "Due to a failure in validating the number of scanline samples of a OpenEXR file containing deep scanline data, Academy Software Foundation OpenEX image parsing library version 3.2.1 and prior is susceptible to a heap-based buffer overflow vulnerability. This issue was resolved as of versions v3.2.2 and v3.1.12 of the affected library.\n",
      "Threats": [
        {
          "Type": "Impact",
          "Severity": "moderate"
        }
      ],
      "References": [
        {
          "URL": "https://www.suse.com/security/cve/CVE-2023-5841.html",
          "Description": "CVE-2023-5841"
        },
        {
          "URL": "https://bugzilla.suse.com/1219498",
          "Description": "SUSE Bug 1219498"
        }
      ],
      "ProductStatuses": [
        {
          "Type": "Fixed",
          "ProductID": [
            "openSUSE Tumbleweed:libIex-3_1-30-32bit-3.1.11-1.3",
            "openSUSE Tumbleweed:libIex-3_2-31-3.2.2-1.1",
            "openSUSE Tumbleweed:libIlmThread-3_1-30-32bit-3.1.11-1.3",
            "openSUSE Tumbleweed:libIlmThread-3_2-31-3.2.2-1.1",
            "openSUSE Tumbleweed:libOpenEXR-3_1-30-32bit-3.1.11-1.3",
            "openSUSE Tumbleweed:libOpenEXR-3_2-31-3.2.2-1.1",
            "openSUSE Tumbleweed:libOpenEXRCore-3_1-30-32bit-3.1.11-1.3",
            "openSUSE Tumbleweed:libOpenEXRCore-3_2-31-3.2.2-1.1",
            "openSUSE Tumbleweed:libOpenEXRUtil-3_1-30-32bit-3.1.11-1.3",
            "openSUSE Tumbleweed:libOpenEXRUtil-3_2-31-3.2.2-1.1",
            "openSUSE Tumbleweed:openexr-3.2.2-1.1",
            "openSUSE Tumbleweed:openexr-devel-3.2.2-1.1",
            "openSUSE Tumbleweed:openexr-doc-3.2.2-1.1"
          ]
        }
      ],
      "CVSSScoreSets": {}
    }
  ]
}