{
  "Title": "ucode-intel-20210608-1.2 on GA media",
  "Tracking": {
    "ID": "openSUSE-SU-2024:11478-1",
    "Status": "Final",
    "Version": "1",
    "InitialReleaseDate": "2024-06-22T21:44:56Z",
    "CurrentReleaseDate": "2024-06-22T21:44:56Z",
    "RevisionHistory": [
      {
        "Number": "1",
        "Date": "2024-06-22T21:44:56Z",
        "Description": "current"
      }
    ]
  },
  "Notes": [
    {
      "Text": "ucode-intel-20210608-1.2 on GA media",
      "Title": "Topic",
      "Type": "Summary"
    },
    {
      "Text": "These are all security issues fixed in the ucode-intel-20210608-1.2 package on the GA media of openSUSE Tumbleweed.",
      "Title": "Details",
      "Type": "General"
    },
    {
      "Text": "The CVRF data is provided by SUSE under the Creative Commons License 4.0 with Attribution (CC-BY-4.0).",
      "Title": "Terms of Use",
      "Type": "Legal Disclaimer"
    },
    {
      "Text": "openSUSE-Tumbleweed-2024-11478",
      "Title": "Patchnames",
      "Type": "Details"
    }
  ],
  "ProductTree": {
    "Relationships": [
      {
        "ProductReference": "ucode-intel-20210608-1.2",
        "RelatesToProductReference": "openSUSE Tumbleweed",
        "RelationType": "Default Component Of"
      }
    ]
  },
  "References": [
    {
      "URL": "https://www.suse.com/support/security/rating/",
      "Description": "SUSE Security Ratings"
    },
    {
      "URL": "https://www.suse.com/security/cve/CVE-2017-5715/",
      "Description": "SUSE CVE CVE-2017-5715 page"
    },
    {
      "URL": "https://www.suse.com/security/cve/CVE-2018-12126/",
      "Description": "SUSE CVE CVE-2018-12126 page"
    },
    {
      "URL": "https://www.suse.com/security/cve/CVE-2018-12130/",
      "Description": "SUSE CVE CVE-2018-12130 page"
    },
    {
      "URL": "https://www.suse.com/security/cve/CVE-2018-3640/",
      "Description": "SUSE CVE CVE-2018-3640 page"
    },
    {
      "URL": "https://www.suse.com/security/cve/CVE-2019-11135/",
      "Description": "SUSE CVE CVE-2019-11135 page"
    },
    {
      "URL": "https://www.suse.com/security/cve/CVE-2019-11139/",
      "Description": "SUSE CVE CVE-2019-11139 page"
    },
    {
      "URL": "https://www.suse.com/security/cve/CVE-2020-0543/",
      "Description": "SUSE CVE CVE-2020-0543 page"
    },
    {
      "URL": "https://www.suse.com/security/cve/CVE-2020-0548/",
      "Description": "SUSE CVE CVE-2020-0548 page"
    },
    {
      "URL": "https://www.suse.com/security/cve/CVE-2020-24489/",
      "Description": "SUSE CVE CVE-2020-24489 page"
    },
    {
      "URL": "https://www.suse.com/security/cve/CVE-2020-24511/",
      "Description": "SUSE CVE CVE-2020-24511 page"
    },
    {
      "URL": "https://www.suse.com/security/cve/CVE-2020-24512/",
      "Description": "SUSE CVE CVE-2020-24512 page"
    },
    {
      "URL": "https://www.suse.com/security/cve/CVE-2020-24513/",
      "Description": "SUSE CVE CVE-2020-24513 page"
    },
    {
      "URL": "https://www.suse.com/security/cve/CVE-2020-8695/",
      "Description": "SUSE CVE CVE-2020-8695 page"
    },
    {
      "URL": "https://www.suse.com/security/cve/CVE-2020-8696/",
      "Description": "SUSE CVE CVE-2020-8696 page"
    },
    {
      "URL": "https://www.suse.com/security/cve/CVE-2020-8698/",
      "Description": "SUSE CVE CVE-2020-8698 page"
    }
  ],
  "Vulnerabilities": [
    {
      "CVE": "CVE-2017-5715",
      "Description": "Systems with microprocessors utilizing speculative execution and indirect branch prediction may allow unauthorized disclosure of information to an attacker with local user access via a side-channel analysis.",
      "Threats": [
        {
          "Type": "Impact",
          "Severity": "important"
        }
      ],
      "References": [
        {
          "URL": "https://www.suse.com/security/cve/CVE-2017-5715.html",
          "Description": "CVE-2017-5715"
        },
        {
          "URL": "https://bugzilla.suse.com/1068032",
          "Description": "SUSE Bug 1068032"
        },
        {
          "URL": "https://bugzilla.suse.com/1074562",
          "Description": "SUSE Bug 1074562"
        },
        {
          "URL": "https://bugzilla.suse.com/1074578",
          "Description": "SUSE Bug 1074578"
        },
        {
          "URL": "https://bugzilla.suse.com/1074701",
          "Description": "SUSE Bug 1074701"
        },
        {
          "URL": "https://bugzilla.suse.com/1074741",
          "Description": "SUSE Bug 1074741"
        },
        {
          "URL": "https://bugzilla.suse.com/1074919",
          "Description": "SUSE Bug 1074919"
        },
        {
          "URL": "https://bugzilla.suse.com/1075006",
          "Description": "SUSE Bug 1075006"
        },
        {
          "URL": "https://bugzilla.suse.com/1075007",
          "Description": "SUSE Bug 1075007"
        },
        {
          "URL": "https://bugzilla.suse.com/1075262",
          "Description": "SUSE Bug 1075262"
        },
        {
          "URL": "https://bugzilla.suse.com/1075419",
          "Description": "SUSE Bug 1075419"
        },
        {
          "URL": "https://bugzilla.suse.com/1076115",
          "Description": "SUSE Bug 1076115"
        },
        {
          "URL": "https://bugzilla.suse.com/1076372",
          "Description": "SUSE Bug 1076372"
        },
        {
          "URL": "https://bugzilla.suse.com/1076606",
          "Description": "SUSE Bug 1076606"
        },
        {
          "URL": "https://bugzilla.suse.com/1078353",
          "Description": "SUSE Bug 1078353"
        },
        {
          "URL": "https://bugzilla.suse.com/1080039",
          "Description": "SUSE Bug 1080039"
        },
        {
          "URL": "https://bugzilla.suse.com/1087887",
          "Description": "SUSE Bug 1087887"
        },
        {
          "URL": "https://bugzilla.suse.com/1087939",
          "Description": "SUSE Bug 1087939"
        },
        {
          "URL": "https://bugzilla.suse.com/1088147",
          "Description": "SUSE Bug 1088147"
        },
        {
          "URL": "https://bugzilla.suse.com/1089055",
          "Description": "SUSE Bug 1089055"
        },
        {
          "URL": "https://bugzilla.suse.com/1091815",
          "Description": "SUSE Bug 1091815"
        },
        {
          "URL": "https://bugzilla.suse.com/1095735",
          "Description": "SUSE Bug 1095735"
        },
        {
          "URL": "https://bugzilla.suse.com/1102517",
          "Description": "SUSE Bug 1102517"
        },
        {
          "URL": "https://bugzilla.suse.com/1105108",
          "Description": "SUSE Bug 1105108"
        },
        {
          "URL": "https://bugzilla.suse.com/1126516",
          "Description": "SUSE Bug 1126516"
        },
        {
          "URL": "https://bugzilla.suse.com/1173489",
          "Description": "SUSE Bug 1173489"
        },
        {
          "URL": "https://bugzilla.suse.com/1178658",
          "Description": "SUSE Bug 1178658"
        },
        {
          "URL": "https://bugzilla.suse.com/1201457",
          "Description": "SUSE Bug 1201457"
        },
        {
          "URL": "https://bugzilla.suse.com/1201877",
          "Description": "SUSE Bug 1201877"
        },
        {
          "URL": "https://bugzilla.suse.com/1203236",
          "Description": "SUSE Bug 1203236"
        }
      ],
      "ProductStatuses": [
        {
          "Type": "Fixed",
          "ProductID": [
            "openSUSE Tumbleweed:ucode-intel-20210608-1.2"
          ]
        }
      ],
      "CVSSScoreSets": {
        "BaseScore": "4.7",
        "Vector": "AV:L/AC:M/Au:N/C:C/I:N/A:N"
      }
    },
    {
      "CVE": "CVE-2018-12126",
      "Description": "Microarchitectural Store Buffer Data Sampling (MSBDS): Store buffers on some microprocessors utilizing speculative execution may allow an authenticated user to potentially enable information disclosure via a side channel with local access. A list of impacted products can be found here: https://www.intel.com/content/dam/www/public/us/en/documents/corporate-information/SA00233-microcode-update-guidance_05132019.pdf",
      "Threats": [
        {
          "Type": "Impact",
          "Severity": "moderate"
        }
      ],
      "References": [
        {
          "URL": "https://www.suse.com/security/cve/CVE-2018-12126.html",
          "Description": "CVE-2018-12126"
        },
        {
          "URL": "https://bugzilla.suse.com/1103186",
          "Description": "SUSE Bug 1103186"
        },
        {
          "URL": "https://bugzilla.suse.com/1111331",
          "Description": "SUSE Bug 1111331"
        },
        {
          "URL": "https://bugzilla.suse.com/1132686",
          "Description": "SUSE Bug 1132686"
        },
        {
          "URL": "https://bugzilla.suse.com/1135409",
          "Description": "SUSE Bug 1135409"
        },
        {
          "URL": "https://bugzilla.suse.com/1135524",
          "Description": "SUSE Bug 1135524"
        },
        {
          "URL": "https://bugzilla.suse.com/1137916",
          "Description": "SUSE Bug 1137916"
        },
        {
          "URL": "https://bugzilla.suse.com/1138534",
          "Description": "SUSE Bug 1138534"
        },
        {
          "URL": "https://bugzilla.suse.com/1141977",
          "Description": "SUSE Bug 1141977"
        },
        {
          "URL": "https://bugzilla.suse.com/1149725",
          "Description": "SUSE Bug 1149725"
        },
        {
          "URL": "https://bugzilla.suse.com/1149726",
          "Description": "SUSE Bug 1149726"
        },
        {
          "URL": "https://bugzilla.suse.com/1149729",
          "Description": "SUSE Bug 1149729"
        },
        {
          "URL": "https://bugzilla.suse.com/1178658",
          "Description": "SUSE Bug 1178658"
        },
        {
          "URL": "https://bugzilla.suse.com/1201877",
          "Description": "SUSE Bug 1201877"
        }
      ],
      "ProductStatuses": [
        {
          "Type": "Fixed",
          "ProductID": [
            "openSUSE Tumbleweed:ucode-intel-20210608-1.2"
          ]
        }
      ],
      "CVSSScoreSets": {}
    },
    {
      "CVE": "CVE-2018-12130",
      "Description": "Microarchitectural Fill Buffer Data Sampling (MFBDS): Fill buffers on some microprocessors utilizing speculative execution may allow an authenticated user to potentially enable information disclosure via a side channel with local access. A list of impacted products can be found here: https://www.intel.com/content/dam/www/public/us/en/documents/corporate-information/SA00233-microcode-update-guidance_05132019.pdf",
      "Threats": [
        {
          "Type": "Impact",
          "Severity": "moderate"
        }
      ],
      "References": [
        {
          "URL": "https://www.suse.com/security/cve/CVE-2018-12130.html",
          "Description": "CVE-2018-12130"
        },
        {
          "URL": "https://bugzilla.suse.com/1103186",
          "Description": "SUSE Bug 1103186"
        },
        {
          "URL": "https://bugzilla.suse.com/1111331",
          "Description": "SUSE Bug 1111331"
        },
        {
          "URL": "https://bugzilla.suse.com/1132686",
          "Description": "SUSE Bug 1132686"
        },
        {
          "URL": "https://bugzilla.suse.com/1135409",
          "Description": "SUSE Bug 1135409"
        },
        {
          "URL": "https://bugzilla.suse.com/1137916",
          "Description": "SUSE Bug 1137916"
        },
        {
          "URL": "https://bugzilla.suse.com/1138534",
          "Description": "SUSE Bug 1138534"
        },
        {
          "URL": "https://bugzilla.suse.com/1141977",
          "Description": "SUSE Bug 1141977"
        },
        {
          "URL": "https://bugzilla.suse.com/1178658",
          "Description": "SUSE Bug 1178658"
        },
        {
          "URL": "https://bugzilla.suse.com/1201877",
          "Description": "SUSE Bug 1201877"
        }
      ],
      "ProductStatuses": [
        {
          "Type": "Fixed",
          "ProductID": [
            "openSUSE Tumbleweed:ucode-intel-20210608-1.2"
          ]
        }
      ],
      "CVSSScoreSets": {}
    },
    {
      "CVE": "CVE-2018-3640",
      "Description": "Systems with microprocessors utilizing speculative execution and that perform speculative reads of system registers may allow unauthorized disclosure of system parameters to an attacker with local user access via a side-channel analysis, aka Rogue System Register Read (RSRE), Variant 3a.",
      "Threats": [
        {
          "Type": "Impact",
          "Severity": "moderate"
        }
      ],
      "References": [
        {
          "URL": "https://www.suse.com/security/cve/CVE-2018-3640.html",
          "Description": "CVE-2018-3640"
        },
        {
          "URL": "https://bugzilla.suse.com/1074701",
          "Description": "SUSE Bug 1074701"
        },
        {
          "URL": "https://bugzilla.suse.com/1087078",
          "Description": "SUSE Bug 1087078"
        },
        {
          "URL": "https://bugzilla.suse.com/1087083",
          "Description": "SUSE Bug 1087083"
        },
        {
          "URL": "https://bugzilla.suse.com/1094912",
          "Description": "SUSE Bug 1094912"
        },
        {
          "URL": "https://bugzilla.suse.com/1098813",
          "Description": "SUSE Bug 1098813"
        },
        {
          "URL": "https://bugzilla.suse.com/1100394",
          "Description": "SUSE Bug 1100394"
        },
        {
          "URL": "https://bugzilla.suse.com/1115893",
          "Description": "SUSE Bug 1115893"
        },
        {
          "URL": "https://bugzilla.suse.com/1175912",
          "Description": "SUSE Bug 1175912"
        },
        {
          "URL": "https://bugzilla.suse.com/1201877",
          "Description": "SUSE Bug 1201877"
        }
      ],
      "ProductStatuses": [
        {
          "Type": "Fixed",
          "ProductID": [
            "openSUSE Tumbleweed:ucode-intel-20210608-1.2"
          ]
        }
      ],
      "CVSSScoreSets": {}
    },
    {
      "CVE": "CVE-2019-11135",
      "Description": "TSX Asynchronous Abort condition on some CPUs utilizing speculative execution may allow an authenticated user to potentially enable information disclosure via a side channel with local access.",
      "Threats": [
        {
          "Type": "Impact",
          "Severity": "moderate"
        }
      ],
      "References": [
        {
          "URL": "https://www.suse.com/security/cve/CVE-2019-11135.html",
          "Description": "CVE-2019-11135"
        },
        {
          "URL": "https://bugzilla.suse.com/1139073",
          "Description": "SUSE Bug 1139073"
        },
        {
          "URL": "https://bugzilla.suse.com/1152497",
          "Description": "SUSE Bug 1152497"
        },
        {
          "URL": "https://bugzilla.suse.com/1152505",
          "Description": "SUSE Bug 1152505"
        },
        {
          "URL": "https://bugzilla.suse.com/1152506",
          "Description": "SUSE Bug 1152506"
        },
        {
          "URL": "https://bugzilla.suse.com/1160120",
          "Description": "SUSE Bug 1160120"
        },
        {
          "URL": "https://bugzilla.suse.com/1201877",
          "Description": "SUSE Bug 1201877"
        }
      ],
      "ProductStatuses": [
        {
          "Type": "Fixed",
          "ProductID": [
            "openSUSE Tumbleweed:ucode-intel-20210608-1.2"
          ]
        }
      ],
      "CVSSScoreSets": {}
    },
    {
      "CVE": "CVE-2019-11139",
      "Description": "Improper conditions check in the voltage modulation interface for some Intel(R) Xeon(R) Scalable Processors may allow a privileged user to potentially enable denial of service via local access.",
      "Threats": [
        {
          "Type": "Impact",
          "Severity": "moderate"
        }
      ],
      "References": [
        {
          "URL": "https://www.suse.com/security/cve/CVE-2019-11139.html",
          "Description": "CVE-2019-11139"
        },
        {
          "URL": "https://bugzilla.suse.com/1141035",
          "Description": "SUSE Bug 1141035"
        }
      ],
      "ProductStatuses": [
        {
          "Type": "Fixed",
          "ProductID": [
            "openSUSE Tumbleweed:ucode-intel-20210608-1.2"
          ]
        }
      ],
      "CVSSScoreSets": {}
    },
    {
      "CVE": "CVE-2020-0543",
      "Description": "Incomplete cleanup from specific special register read operations in some Intel(R) Processors may allow an authenticated user to potentially enable information disclosure via local access.",
      "Threats": [
        {
          "Type": "Impact",
          "Severity": "moderate"
        }
      ],
      "References": [
        {
          "URL": "https://www.suse.com/security/cve/CVE-2020-0543.html",
          "Description": "CVE-2020-0543"
        },
        {
          "URL": "https://bugzilla.suse.com/1154824",
          "Description": "SUSE Bug 1154824"
        },
        {
          "URL": "https://bugzilla.suse.com/1172205",
          "Description": "SUSE Bug 1172205"
        },
        {
          "URL": "https://bugzilla.suse.com/1172206",
          "Description": "SUSE Bug 1172206"
        },
        {
          "URL": "https://bugzilla.suse.com/1172207",
          "Description": "SUSE Bug 1172207"
        },
        {
          "URL": "https://bugzilla.suse.com/1172770",
          "Description": "SUSE Bug 1172770"
        },
        {
          "URL": "https://bugzilla.suse.com/1178658",
          "Description": "SUSE Bug 1178658"
        },
        {
          "URL": "https://bugzilla.suse.com/1201877",
          "Description": "SUSE Bug 1201877"
        }
      ],
      "ProductStatuses": [
        {
          "Type": "Fixed",
          "ProductID": [
            "openSUSE Tumbleweed:ucode-intel-20210608-1.2"
          ]
        }
      ],
      "CVSSScoreSets": {}
    },
    {
      "CVE": "CVE-2020-0548",
      "Description": "Cleanup errors in some Intel(R) Processors may allow an authenticated user to potentially enable information disclosure via local access.",
      "Threats": [
        {
          "Type": "Impact",
          "Severity": "moderate"
        }
      ],
      "References": [
        {
          "URL": "https://www.suse.com/security/cve/CVE-2020-0548.html",
          "Description": "CVE-2020-0548"
        },
        {
          "URL": "https://bugzilla.suse.com/1156353",
          "Description": "SUSE Bug 1156353"
        }
      ],
      "ProductStatuses": [
        {
          "Type": "Fixed",
          "ProductID": [
            "openSUSE Tumbleweed:ucode-intel-20210608-1.2"
          ]
        }
      ],
      "CVSSScoreSets": {}
    },
    {
      "CVE": "CVE-2020-24489",
      "Description": "Incomplete cleanup in some Intel(R) VT-d products may allow an authenticated user to potentially enable escalation of privilege via local access.",
      "Threats": [
        {
          "Type": "Impact",
          "Severity": "important"
        }
      ],
      "References": [
        {
          "URL": "https://www.suse.com/security/cve/CVE-2020-24489.html",
          "Description": "CVE-2020-24489"
        },
        {
          "URL": "https://bugzilla.suse.com/1179839",
          "Description": "SUSE Bug 1179839"
        },
        {
          "URL": "https://bugzilla.suse.com/1192359",
          "Description": "SUSE Bug 1192359"
        },
        {
          "URL": "https://bugzilla.suse.com/1199300",
          "Description": "SUSE Bug 1199300"
        },
        {
          "URL": "https://bugzilla.suse.com/1201731",
          "Description": "SUSE Bug 1201731"
        }
      ],
      "ProductStatuses": [
        {
          "Type": "Fixed",
          "ProductID": [
            "openSUSE Tumbleweed:ucode-intel-20210608-1.2"
          ]
        }
      ],
      "CVSSScoreSets": {}
    },
    {
      "CVE": "CVE-2020-24511",
      "Description": "Improper isolation of shared resources in some Intel(R) Processors may allow an authenticated user to potentially enable information disclosure via local access.",
      "Threats": [
        {
          "Type": "Impact",
          "Severity": "moderate"
        }
      ],
      "References": [
        {
          "URL": "https://www.suse.com/security/cve/CVE-2020-24511.html",
          "Description": "CVE-2020-24511"
        },
        {
          "URL": "https://bugzilla.suse.com/1179836",
          "Description": "SUSE Bug 1179836"
        },
        {
          "URL": "https://bugzilla.suse.com/1192360",
          "Description": "SUSE Bug 1192360"
        },
        {
          "URL": "https://bugzilla.suse.com/1199300",
          "Description": "SUSE Bug 1199300"
        },
        {
          "URL": "https://bugzilla.suse.com/1201731",
          "Description": "SUSE Bug 1201731"
        }
      ],
      "ProductStatuses": [
        {
          "Type": "Fixed",
          "ProductID": [
            "openSUSE Tumbleweed:ucode-intel-20210608-1.2"
          ]
        }
      ],
      "CVSSScoreSets": {}
    },
    {
      "CVE": "CVE-2020-24512",
      "Description": "Observable timing discrepancy in some Intel(R) Processors may allow an authenticated user to potentially enable information disclosure via local access.",
      "Threats": [
        {
          "Type": "Impact",
          "Severity": "low"
        }
      ],
      "References": [
        {
          "URL": "https://www.suse.com/security/cve/CVE-2020-24512.html",
          "Description": "CVE-2020-24512"
        },
        {
          "URL": "https://bugzilla.suse.com/1179837",
          "Description": "SUSE Bug 1179837"
        },
        {
          "URL": "https://bugzilla.suse.com/1192360",
          "Description": "SUSE Bug 1192360"
        },
        {
          "URL": "https://bugzilla.suse.com/1199300",
          "Description": "SUSE Bug 1199300"
        },
        {
          "URL": "https://bugzilla.suse.com/1201731",
          "Description": "SUSE Bug 1201731"
        }
      ],
      "ProductStatuses": [
        {
          "Type": "Fixed",
          "ProductID": [
            "openSUSE Tumbleweed:ucode-intel-20210608-1.2"
          ]
        }
      ],
      "CVSSScoreSets": {}
    },
    {
      "CVE": "CVE-2020-24513",
      "Description": "Domain-bypass transient execution vulnerability in some Intel Atom(R) Processors may allow an authenticated user to potentially enable information disclosure via local access.",
      "Threats": [
        {
          "Type": "Impact",
          "Severity": "moderate"
        }
      ],
      "References": [
        {
          "URL": "https://www.suse.com/security/cve/CVE-2020-24513.html",
          "Description": "CVE-2020-24513"
        },
        {
          "URL": "https://bugzilla.suse.com/1179833",
          "Description": "SUSE Bug 1179833"
        },
        {
          "URL": "https://bugzilla.suse.com/1192360",
          "Description": "SUSE Bug 1192360"
        },
        {
          "URL": "https://bugzilla.suse.com/1199300",
          "Description": "SUSE Bug 1199300"
        },
        {
          "URL": "https://bugzilla.suse.com/1201731",
          "Description": "SUSE Bug 1201731"
        }
      ],
      "ProductStatuses": [
        {
          "Type": "Fixed",
          "ProductID": [
            "openSUSE Tumbleweed:ucode-intel-20210608-1.2"
          ]
        }
      ],
      "CVSSScoreSets": {}
    },
    {
      "CVE": "CVE-2020-8695",
      "Description": "Observable discrepancy in the RAPL interface for some Intel(R) Processors may allow a privileged user to potentially enable information disclosure via local access.",
      "Threats": [
        {
          "Type": "Impact",
          "Severity": "moderate"
        }
      ],
      "References": [
        {
          "URL": "https://www.suse.com/security/cve/CVE-2020-8695.html",
          "Description": "CVE-2020-8695"
        },
        {
          "URL": "https://bugzilla.suse.com/1170415",
          "Description": "SUSE Bug 1170415"
        },
        {
          "URL": "https://bugzilla.suse.com/1170446",
          "Description": "SUSE Bug 1170446"
        },
        {
          "URL": "https://bugzilla.suse.com/1178591",
          "Description": "SUSE Bug 1178591"
        }
      ],
      "ProductStatuses": [
        {
          "Type": "Fixed",
          "ProductID": [
            "openSUSE Tumbleweed:ucode-intel-20210608-1.2"
          ]
        }
      ],
      "CVSSScoreSets": {}
    },
    {
      "CVE": "CVE-2020-8696",
      "Description": "Improper removal of sensitive information before storage or transfer in some Intel(R) Processors may allow an authenticated user to potentially enable information disclosure via local access.",
      "Threats": [
        {
          "Type": "Impact",
          "Severity": "low"
        }
      ],
      "References": [
        {
          "URL": "https://www.suse.com/security/cve/CVE-2020-8696.html",
          "Description": "CVE-2020-8696"
        },
        {
          "URL": "https://bugzilla.suse.com/1173592",
          "Description": "SUSE Bug 1173592"
        }
      ],
      "ProductStatuses": [
        {
          "Type": "Fixed",
          "ProductID": [
            "openSUSE Tumbleweed:ucode-intel-20210608-1.2"
          ]
        }
      ],
      "CVSSScoreSets": {}
    },
    {
      "CVE": "CVE-2020-8698",
      "Description": "Improper isolation of shared resources in some Intel(R) Processors may allow an authenticated user to potentially enable information disclosure via local access.",
      "Threats": [
        {
          "Type": "Impact",
          "Severity": "low"
        }
      ],
      "References": [
        {
          "URL": "https://www.suse.com/security/cve/CVE-2020-8698.html",
          "Description": "CVE-2020-8698"
        },
        {
          "URL": "https://bugzilla.suse.com/1173594",
          "Description": "SUSE Bug 1173594"
        }
      ],
      "ProductStatuses": [
        {
          "Type": "Fixed",
          "ProductID": [
            "openSUSE Tumbleweed:ucode-intel-20210608-1.2"
          ]
        }
      ],
      "CVSSScoreSets": {}
    }
  ]
}