{
  "Title": "autotrace-0.31.1-645.1 on GA media",
  "Tracking": {
    "ID": "openSUSE-SU-2024:12090-1",
    "Status": "Final",
    "Version": "1",
    "InitialReleaseDate": "2024-06-20T21:44:22Z",
    "CurrentReleaseDate": "2024-06-20T21:44:22Z",
    "RevisionHistory": [
      {
        "Number": "1",
        "Date": "2024-06-20T21:44:22Z",
        "Description": "current"
      }
    ]
  },
  "Notes": [
    {
      "Text": "autotrace-0.31.1-645.1 on GA media",
      "Title": "Topic",
      "Type": "Summary"
    },
    {
      "Text": "These are all security issues fixed in the autotrace-0.31.1-645.1 package on the GA media of openSUSE Tumbleweed.",
      "Title": "Details",
      "Type": "General"
    },
    {
      "Text": "The CVRF data is provided by SUSE under the Creative Commons License 4.0 with Attribution (CC-BY-4.0).",
      "Title": "Terms of Use",
      "Type": "Legal Disclaimer"
    },
    {
      "Text": "openSUSE-Tumbleweed-2024-12090",
      "Title": "Patchnames",
      "Type": "Details"
    }
  ],
  "ProductTree": {
    "Relationships": [
      {
        "ProductReference": "autotrace-0.31.1-645.1",
        "RelatesToProductReference": "openSUSE Tumbleweed",
        "RelationType": "Default Component Of"
      },
      {
        "ProductReference": "autotrace-devel-0.31.1-645.1",
        "RelatesToProductReference": "openSUSE Tumbleweed",
        "RelationType": "Default Component Of"
      },
      {
        "ProductReference": "libautotrace3-0.31.1-645.1",
        "RelatesToProductReference": "openSUSE Tumbleweed",
        "RelationType": "Default Component Of"
      }
    ]
  },
  "References": [
    {
      "URL": "https://www.suse.com/support/security/rating/",
      "Description": "SUSE Security Ratings"
    },
    {
      "URL": "https://www.suse.com/security/cve/CVE-2017-9182/",
      "Description": "SUSE CVE CVE-2017-9182 page"
    },
    {
      "URL": "https://www.suse.com/security/cve/CVE-2019-19004/",
      "Description": "SUSE CVE CVE-2019-19004 page"
    },
    {
      "URL": "https://www.suse.com/security/cve/CVE-2019-19005/",
      "Description": "SUSE CVE CVE-2019-19005 page"
    }
  ],
  "Vulnerabilities": [
    {
      "CVE": "CVE-2017-9182",
      "Description": "libautotrace.a in AutoTrace 0.31.1 allows remote attackers to cause a denial of service (use-after-free and invalid heap read), related to the GET_COLOR function in color.c:16:11.",
      "Threats": [
        {
          "Type": "Impact",
          "Severity": "moderate"
        }
      ],
      "References": [
        {
          "URL": "https://www.suse.com/security/cve/CVE-2017-9182.html",
          "Description": "CVE-2017-9182"
        },
        {
          "URL": "https://bugzilla.suse.com/1040278",
          "Description": "SUSE Bug 1040278"
        },
        {
          "URL": "https://bugzilla.suse.com/1182159",
          "Description": "SUSE Bug 1182159"
        }
      ],
      "ProductStatuses": [
        {
          "Type": "Fixed",
          "ProductID": [
            "openSUSE Tumbleweed:autotrace-0.31.1-645.1",
            "openSUSE Tumbleweed:autotrace-devel-0.31.1-645.1",
            "openSUSE Tumbleweed:libautotrace3-0.31.1-645.1"
          ]
        }
      ],
      "CVSSScoreSets": {}
    },
    {
      "CVE": "CVE-2019-19004",
      "Description": "A biWidth*biBitCnt integer overflow in input-bmp.c in autotrace 0.31.1 allows attackers to provide an unexpected input value to malloc via a malformed bitmap image.",
      "Threats": [
        {
          "Type": "Impact",
          "Severity": "moderate"
        }
      ],
      "References": [
        {
          "URL": "https://www.suse.com/security/cve/CVE-2019-19004.html",
          "Description": "CVE-2019-19004"
        },
        {
          "URL": "https://bugzilla.suse.com/1182158",
          "Description": "SUSE Bug 1182158"
        }
      ],
      "ProductStatuses": [
        {
          "Type": "Fixed",
          "ProductID": [
            "openSUSE Tumbleweed:autotrace-0.31.1-645.1",
            "openSUSE Tumbleweed:autotrace-devel-0.31.1-645.1",
            "openSUSE Tumbleweed:libautotrace3-0.31.1-645.1"
          ]
        }
      ],
      "CVSSScoreSets": {}
    },
    {
      "CVE": "CVE-2019-19005",
      "Description": "A bitmap double free in main.c in autotrace 0.31.1 allows attackers to cause an unspecified impact via a malformed bitmap image. This may occur after the use-after-free in CVE-2017-9182.",
      "Threats": [
        {
          "Type": "Impact",
          "Severity": "moderate"
        }
      ],
      "References": [
        {
          "URL": "https://www.suse.com/security/cve/CVE-2019-19005.html",
          "Description": "CVE-2019-19005"
        },
        {
          "URL": "https://bugzilla.suse.com/1182159",
          "Description": "SUSE Bug 1182159"
        }
      ],
      "ProductStatuses": [
        {
          "Type": "Fixed",
          "ProductID": [
            "openSUSE Tumbleweed:autotrace-0.31.1-645.1",
            "openSUSE Tumbleweed:autotrace-devel-0.31.1-645.1",
            "openSUSE Tumbleweed:libautotrace3-0.31.1-645.1"
          ]
        }
      ],
      "CVSSScoreSets": {}
    }
  ]
}