{
  "Title": "gnome-autoar-devel-0.4.0-1.3 on GA media",
  "Tracking": {
    "ID": "openSUSE-SU-2024:10795-1",
    "Status": "Final",
    "Version": "1",
    "InitialReleaseDate": "2024-06-22T21:44:56Z",
    "CurrentReleaseDate": "2024-06-22T21:44:56Z",
    "RevisionHistory": [
      {
        "Number": "1",
        "Date": "2024-06-22T21:44:56Z",
        "Description": "current"
      }
    ]
  },
  "Notes": [
    {
      "Text": "gnome-autoar-devel-0.4.0-1.3 on GA media",
      "Title": "Topic",
      "Type": "Summary"
    },
    {
      "Text": "These are all security issues fixed in the gnome-autoar-devel-0.4.0-1.3 package on the GA media of openSUSE Tumbleweed.",
      "Title": "Details",
      "Type": "General"
    },
    {
      "Text": "The CVRF data is provided by SUSE under the Creative Commons License 4.0 with Attribution (CC-BY-4.0).",
      "Title": "Terms of Use",
      "Type": "Legal Disclaimer"
    },
    {
      "Text": "openSUSE-Tumbleweed-2024-10795",
      "Title": "Patchnames",
      "Type": "Details"
    }
  ],
  "ProductTree": {
    "Relationships": [
      {
        "ProductReference": "gnome-autoar-devel-0.4.0-1.3",
        "RelatesToProductReference": "openSUSE Tumbleweed",
        "RelationType": "Default Component Of"
      },
      {
        "ProductReference": "libgnome-autoar-0-0-0.4.0-1.3",
        "RelatesToProductReference": "openSUSE Tumbleweed",
        "RelationType": "Default Component Of"
      },
      {
        "ProductReference": "libgnome-autoar-gtk-0-0-0.4.0-1.3",
        "RelatesToProductReference": "openSUSE Tumbleweed",
        "RelationType": "Default Component Of"
      },
      {
        "ProductReference": "typelib-1_0-GnomeAutoar-0_1-0.4.0-1.3",
        "RelatesToProductReference": "openSUSE Tumbleweed",
        "RelationType": "Default Component Of"
      },
      {
        "ProductReference": "typelib-1_0-GnomeAutoarGtk-0_1-0.4.0-1.3",
        "RelatesToProductReference": "openSUSE Tumbleweed",
        "RelationType": "Default Component Of"
      }
    ]
  },
  "References": [
    {
      "URL": "https://www.suse.com/support/security/rating/",
      "Description": "SUSE Security Ratings"
    },
    {
      "URL": "https://www.suse.com/security/cve/CVE-2020-36241/",
      "Description": "SUSE CVE CVE-2020-36241 page"
    },
    {
      "URL": "https://www.suse.com/security/cve/CVE-2021-28650/",
      "Description": "SUSE CVE CVE-2021-28650 page"
    }
  ],
  "Vulnerabilities": [
    {
      "CVE": "CVE-2020-36241",
      "Description": "autoar-extractor.c in GNOME gnome-autoar through 0.2.4, as used by GNOME Shell, Nautilus, and other software, allows Directory Traversal during extraction because it lacks a check of whether a file's parent is a symlink to a directory outside of the intended extraction location.",
      "Threats": [
        {
          "Type": "Impact",
          "Severity": "low"
        }
      ],
      "References": [
        {
          "URL": "https://www.suse.com/security/cve/CVE-2020-36241.html",
          "Description": "CVE-2020-36241"
        },
        {
          "URL": "https://bugzilla.suse.com/1181930",
          "Description": "SUSE Bug 1181930"
        },
        {
          "URL": "https://bugzilla.suse.com/1184169",
          "Description": "SUSE Bug 1184169"
        }
      ],
      "ProductStatuses": [
        {
          "Type": "Fixed",
          "ProductID": [
            "openSUSE Tumbleweed:gnome-autoar-devel-0.4.0-1.3",
            "openSUSE Tumbleweed:libgnome-autoar-0-0-0.4.0-1.3",
            "openSUSE Tumbleweed:libgnome-autoar-gtk-0-0-0.4.0-1.3",
            "openSUSE Tumbleweed:typelib-1_0-GnomeAutoar-0_1-0.4.0-1.3",
            "openSUSE Tumbleweed:typelib-1_0-GnomeAutoarGtk-0_1-0.4.0-1.3"
          ]
        }
      ],
      "CVSSScoreSets": {}
    },
    {
      "CVE": "CVE-2021-28650",
      "Description": "autoar-extractor.c in GNOME gnome-autoar before 0.3.1, as used by GNOME Shell, Nautilus, and other software, allows Directory Traversal during extraction because it lacks a check of whether a file's parent is a symlink in certain complex situations. NOTE: this issue exists because of an incomplete fix for CVE-2020-36241.",
      "Threats": [
        {
          "Type": "Impact",
          "Severity": "moderate"
        }
      ],
      "References": [
        {
          "URL": "https://www.suse.com/security/cve/CVE-2021-28650.html",
          "Description": "CVE-2021-28650"
        },
        {
          "URL": "https://bugzilla.suse.com/1184169",
          "Description": "SUSE Bug 1184169"
        }
      ],
      "ProductStatuses": [
        {
          "Type": "Fixed",
          "ProductID": [
            "openSUSE Tumbleweed:gnome-autoar-devel-0.4.0-1.3",
            "openSUSE Tumbleweed:libgnome-autoar-0-0-0.4.0-1.3",
            "openSUSE Tumbleweed:libgnome-autoar-gtk-0-0-0.4.0-1.3",
            "openSUSE Tumbleweed:typelib-1_0-GnomeAutoar-0_1-0.4.0-1.3",
            "openSUSE Tumbleweed:typelib-1_0-GnomeAutoarGtk-0_1-0.4.0-1.3"
          ]
        }
      ],
      "CVSSScoreSets": {}
    }
  ]
}