{
  "Title": "grpc-devel-1.60.0-3.1 on GA media",
  "Tracking": {
    "ID": "openSUSE-SU-2024:13621-1",
    "Status": "Final",
    "Version": "1",
    "InitialReleaseDate": "2024-06-20T21:44:22Z",
    "CurrentReleaseDate": "2024-06-20T21:44:22Z",
    "RevisionHistory": [
      {
        "Number": "1",
        "Date": "2024-06-20T21:44:22Z",
        "Description": "current"
      }
    ]
  },
  "Notes": [
    {
      "Text": "grpc-devel-1.60.0-3.1 on GA media",
      "Title": "Topic",
      "Type": "Summary"
    },
    {
      "Text": "These are all security issues fixed in the grpc-devel-1.60.0-3.1 package on the GA media of openSUSE Tumbleweed.",
      "Title": "Details",
      "Type": "General"
    },
    {
      "Text": "The CVRF data is provided by SUSE under the Creative Commons License 4.0 with Attribution (CC-BY-4.0).",
      "Title": "Terms of Use",
      "Type": "Legal Disclaimer"
    },
    {
      "Text": "openSUSE-Tumbleweed-2024-13621",
      "Title": "Patchnames",
      "Type": "Details"
    }
  ],
  "ProductTree": {
    "Relationships": [
      {
        "ProductReference": "grpc-devel-1.60.0-3.1",
        "RelatesToProductReference": "openSUSE Tumbleweed",
        "RelationType": "Default Component Of"
      },
      {
        "ProductReference": "grpc-source-1.60.0-3.1",
        "RelatesToProductReference": "openSUSE Tumbleweed",
        "RelationType": "Default Component Of"
      },
      {
        "ProductReference": "libgrpc++1_60-1.60.0-3.1",
        "RelatesToProductReference": "openSUSE Tumbleweed",
        "RelationType": "Default Component Of"
      },
      {
        "ProductReference": "libgrpc1_60-1.60.0-3.1",
        "RelatesToProductReference": "openSUSE Tumbleweed",
        "RelationType": "Default Component Of"
      },
      {
        "ProductReference": "libgrpc37-1.60.0-3.1",
        "RelatesToProductReference": "openSUSE Tumbleweed",
        "RelationType": "Default Component Of"
      },
      {
        "ProductReference": "libupb37-1.60.0-3.1",
        "RelatesToProductReference": "openSUSE Tumbleweed",
        "RelationType": "Default Component Of"
      },
      {
        "ProductReference": "upb-devel-1.60.0-3.1",
        "RelatesToProductReference": "openSUSE Tumbleweed",
        "RelationType": "Default Component Of"
      }
    ]
  },
  "References": [
    {
      "URL": "https://www.suse.com/support/security/rating/",
      "Description": "SUSE Security Ratings"
    },
    {
      "URL": "https://www.suse.com/security/cve/CVE-2023-32731/",
      "Description": "SUSE CVE CVE-2023-32731 page"
    },
    {
      "URL": "https://www.suse.com/security/cve/CVE-2023-32732/",
      "Description": "SUSE CVE CVE-2023-32732 page"
    },
    {
      "URL": "https://www.suse.com/security/cve/CVE-2023-4785/",
      "Description": "SUSE CVE CVE-2023-4785 page"
    }
  ],
  "Vulnerabilities": [
    {
      "CVE": "CVE-2023-32731",
      "Description": "When gRPC HTTP2 stack raised a header size exceeded error, it skipped parsing the rest of the HPACK frame. This caused any HPACK table mutations to also be skipped, resulting in a desynchronization of HPACK tables between sender and receiver. If leveraged, say, between a proxy and a backend, this could lead to requests from the proxy being interpreted as containing headers from different proxy clients - leading to an information leak that can be used for privilege escalation or data exfiltration. We recommend upgrading beyond the commit contained in  https://github.com/grpc/grpc/pull/33005 https://github.com/grpc/grpc/pull/33005 \n",
      "Threats": [
        {
          "Type": "Impact",
          "Severity": "moderate"
        }
      ],
      "References": [
        {
          "URL": "https://www.suse.com/security/cve/CVE-2023-32731.html",
          "Description": "CVE-2023-32731"
        },
        {
          "URL": "https://bugzilla.suse.com/1212180",
          "Description": "SUSE Bug 1212180"
        }
      ],
      "ProductStatuses": [
        {
          "Type": "Fixed",
          "ProductID": [
            "openSUSE Tumbleweed:grpc-devel-1.60.0-3.1",
            "openSUSE Tumbleweed:grpc-source-1.60.0-3.1",
            "openSUSE Tumbleweed:libgrpc++1_60-1.60.0-3.1",
            "openSUSE Tumbleweed:libgrpc1_60-1.60.0-3.1",
            "openSUSE Tumbleweed:libgrpc37-1.60.0-3.1",
            "openSUSE Tumbleweed:libupb37-1.60.0-3.1",
            "openSUSE Tumbleweed:upb-devel-1.60.0-3.1"
          ]
        }
      ],
      "CVSSScoreSets": {}
    },
    {
      "CVE": "CVE-2023-32732",
      "Description": "gRPC contains a vulnerability whereby a client can cause a termination of connection between a HTTP2 proxy and a gRPC server: a base64 encoding error for `-bin` suffixed headers will result in a disconnection by the gRPC server, but is typically allowed by HTTP2 proxies. We recommend upgrading beyond the commit in  https://github.com/grpc/grpc/pull/32309 https://www.google.com/url \n",
      "Threats": [
        {
          "Type": "Impact",
          "Severity": "moderate"
        }
      ],
      "References": [
        {
          "URL": "https://www.suse.com/security/cve/CVE-2023-32732.html",
          "Description": "CVE-2023-32732"
        },
        {
          "URL": "https://bugzilla.suse.com/1212182",
          "Description": "SUSE Bug 1212182"
        }
      ],
      "ProductStatuses": [
        {
          "Type": "Fixed",
          "ProductID": [
            "openSUSE Tumbleweed:grpc-devel-1.60.0-3.1",
            "openSUSE Tumbleweed:grpc-source-1.60.0-3.1",
            "openSUSE Tumbleweed:libgrpc++1_60-1.60.0-3.1",
            "openSUSE Tumbleweed:libgrpc1_60-1.60.0-3.1",
            "openSUSE Tumbleweed:libgrpc37-1.60.0-3.1",
            "openSUSE Tumbleweed:libupb37-1.60.0-3.1",
            "openSUSE Tumbleweed:upb-devel-1.60.0-3.1"
          ]
        }
      ],
      "CVSSScoreSets": {}
    },
    {
      "CVE": "CVE-2023-4785",
      "Description": "Lack of error handling in the TCP server in Google's gRPC starting version 1.23 on posix-compatible platforms (ex. Linux) allows an attacker to cause a denial of service by initiating a significant number of connections with the server. Note that gRPC C++ Python, and Ruby are affected, but gRPC Java, and Go are NOT affected. ",
      "Threats": [
        {
          "Type": "Impact",
          "Severity": "moderate"
        }
      ],
      "References": [
        {
          "URL": "https://www.suse.com/security/cve/CVE-2023-4785.html",
          "Description": "CVE-2023-4785"
        },
        {
          "URL": "https://bugzilla.suse.com/1215334",
          "Description": "SUSE Bug 1215334"
        }
      ],
      "ProductStatuses": [
        {
          "Type": "Fixed",
          "ProductID": [
            "openSUSE Tumbleweed:grpc-devel-1.60.0-3.1",
            "openSUSE Tumbleweed:grpc-source-1.60.0-3.1",
            "openSUSE Tumbleweed:libgrpc++1_60-1.60.0-3.1",
            "openSUSE Tumbleweed:libgrpc1_60-1.60.0-3.1",
            "openSUSE Tumbleweed:libgrpc37-1.60.0-3.1",
            "openSUSE Tumbleweed:libupb37-1.60.0-3.1",
            "openSUSE Tumbleweed:upb-devel-1.60.0-3.1"
          ]
        }
      ],
      "CVSSScoreSets": {}
    }
  ]
}