{
  "Title": "element-web-1.11.30-2.1 on GA media",
  "Tracking": {
    "ID": "openSUSE-SU-2024:12888-1",
    "Status": "Final",
    "Version": "1",
    "InitialReleaseDate": "2024-06-20T21:44:22Z",
    "CurrentReleaseDate": "2024-06-20T21:44:22Z",
    "RevisionHistory": [
      {
        "Number": "1",
        "Date": "2024-06-20T21:44:22Z",
        "Description": "current"
      }
    ]
  },
  "Notes": [
    {
      "Text": "element-web-1.11.30-2.1 on GA media",
      "Title": "Topic",
      "Type": "Summary"
    },
    {
      "Text": "These are all security issues fixed in the element-web-1.11.30-2.1 package on the GA media of openSUSE Tumbleweed.",
      "Title": "Details",
      "Type": "General"
    },
    {
      "Text": "The CVRF data is provided by SUSE under the Creative Commons License 4.0 with Attribution (CC-BY-4.0).",
      "Title": "Terms of Use",
      "Type": "Legal Disclaimer"
    },
    {
      "Text": "openSUSE-Tumbleweed-2024-12888",
      "Title": "Patchnames",
      "Type": "Details"
    }
  ],
  "ProductTree": {
    "Relationships": [
      {
        "ProductReference": "element-web-1.11.30-2.1",
        "RelatesToProductReference": "openSUSE Tumbleweed",
        "RelationType": "Default Component Of"
      }
    ]
  },
  "References": [
    {
      "URL": "https://www.suse.com/support/security/rating/",
      "Description": "SUSE Security Ratings"
    },
    {
      "URL": "https://www.suse.com/security/cve/CVE-2023-2251/",
      "Description": "SUSE CVE CVE-2023-2251 page"
    }
  ],
  "Vulnerabilities": [
    {
      "CVE": "CVE-2023-2251",
      "Description": "Uncaught Exception in GitHub repository eemeli/yaml prior to 2.0.0-5.",
      "Threats": [
        {
          "Type": "Impact",
          "Severity": "moderate"
        }
      ],
      "References": [
        {
          "URL": "https://www.suse.com/security/cve/CVE-2023-2251.html",
          "Description": "CVE-2023-2251"
        },
        {
          "URL": "https://bugzilla.suse.com/1210801",
          "Description": "SUSE Bug 1210801"
        }
      ],
      "ProductStatuses": [
        {
          "Type": "Fixed",
          "ProductID": [
            "openSUSE Tumbleweed:element-web-1.11.30-2.1"
          ]
        }
      ],
      "CVSSScoreSets": {}
    }
  ]
}