{
  "Title": "cscreen-1.4-1.1 on GA media",
  "Tracking": {
    "ID": "openSUSE-SU-2024:11924-1",
    "Status": "Final",
    "Version": "1",
    "InitialReleaseDate": "2024-06-22T21:44:56Z",
    "CurrentReleaseDate": "2024-06-22T21:44:56Z",
    "RevisionHistory": [
      {
        "Number": "1",
        "Date": "2024-06-22T21:44:56Z",
        "Description": "current"
      }
    ]
  },
  "Notes": [
    {
      "Text": "cscreen-1.4-1.1 on GA media",
      "Title": "Topic",
      "Type": "Summary"
    },
    {
      "Text": "These are all security issues fixed in the cscreen-1.4-1.1 package on the GA media of openSUSE Tumbleweed.",
      "Title": "Details",
      "Type": "General"
    },
    {
      "Text": "The CVRF data is provided by SUSE under the Creative Commons License 4.0 with Attribution (CC-BY-4.0).",
      "Title": "Terms of Use",
      "Type": "Legal Disclaimer"
    },
    {
      "Text": "openSUSE-Tumbleweed-2024-11924",
      "Title": "Patchnames",
      "Type": "Details"
    }
  ],
  "ProductTree": {
    "Relationships": [
      {
        "ProductReference": "cscreen-1.4-1.1",
        "RelatesToProductReference": "openSUSE Tumbleweed",
        "RelationType": "Default Component Of"
      }
    ]
  },
  "References": [
    {
      "URL": "https://www.suse.com/support/security/rating/",
      "Description": "SUSE Security Ratings"
    },
    {
      "URL": "https://www.suse.com/security/cve/CVE-2022-21945/",
      "Description": "SUSE CVE CVE-2022-21945 page"
    },
    {
      "URL": "https://www.suse.com/security/cve/CVE-2022-21946/",
      "Description": "SUSE CVE CVE-2022-21946 page"
    }
  ],
  "Vulnerabilities": [
    {
      "CVE": "CVE-2022-21945",
      "Description": "A Insecure Temporary File vulnerability in cscreen of openSUSE Factory allows local attackers to cause DoS for cscreen and a system DoS for non-default systems. This issue affects: openSUSE Factory cscreen version 1.2-1.3 and prior versions.",
      "Threats": [
        {
          "Type": "Impact",
          "Severity": "moderate"
        }
      ],
      "References": [
        {
          "URL": "https://www.suse.com/security/cve/CVE-2022-21945.html",
          "Description": "CVE-2022-21945"
        },
        {
          "URL": "https://bugzilla.suse.com/1196446",
          "Description": "SUSE Bug 1196446"
        }
      ],
      "ProductStatuses": [
        {
          "Type": "Fixed",
          "ProductID": [
            "openSUSE Tumbleweed:cscreen-1.4-1.1"
          ]
        }
      ],
      "CVSSScoreSets": {}
    },
    {
      "CVE": "CVE-2022-21946",
      "Description": "A Incorrect Permission Assignment for Critical Resource vulnerability in the sudoers configuration in cscreen of openSUSE Factory allows any local users to gain the privileges of the tty and dialout groups and access and manipulate any running cscreen seesion. This issue affects: openSUSE Factory cscreen version 1.2-1.3 and prior versions.",
      "Threats": [
        {
          "Type": "Impact",
          "Severity": "moderate"
        }
      ],
      "References": [
        {
          "URL": "https://www.suse.com/security/cve/CVE-2022-21946.html",
          "Description": "CVE-2022-21946"
        },
        {
          "URL": "https://bugzilla.suse.com/1196451",
          "Description": "SUSE Bug 1196451"
        }
      ],
      "ProductStatuses": [
        {
          "Type": "Fixed",
          "ProductID": [
            "openSUSE Tumbleweed:cscreen-1.4-1.1"
          ]
        }
      ],
      "CVSSScoreSets": {}
    }
  ]
}