{
  "Title": "finch-2.11.0-4.1 on GA media",
  "Tracking": {
    "ID": "openSUSE-SU-2024:10432-1",
    "Status": "Final",
    "Version": "1",
    "InitialReleaseDate": "2024-06-22T21:44:56Z",
    "CurrentReleaseDate": "2024-06-22T21:44:56Z",
    "RevisionHistory": [
      {
        "Number": "1",
        "Date": "2024-06-22T21:44:56Z",
        "Description": "current"
      }
    ]
  },
  "Notes": [
    {
      "Text": "finch-2.11.0-4.1 on GA media",
      "Title": "Topic",
      "Type": "Summary"
    },
    {
      "Text": "These are all security issues fixed in the finch-2.11.0-4.1 package on the GA media of openSUSE Tumbleweed.",
      "Title": "Details",
      "Type": "General"
    },
    {
      "Text": "The CVRF data is provided by SUSE under the Creative Commons License 4.0 with Attribution (CC-BY-4.0).",
      "Title": "Terms of Use",
      "Type": "Legal Disclaimer"
    },
    {
      "Text": "openSUSE-Tumbleweed-2024-10432",
      "Title": "Patchnames",
      "Type": "Details"
    }
  ],
  "ProductTree": {
    "Relationships": [
      {
        "ProductReference": "finch-2.11.0-4.1",
        "RelatesToProductReference": "openSUSE Tumbleweed",
        "RelationType": "Default Component Of"
      },
      {
        "ProductReference": "finch-devel-2.11.0-4.1",
        "RelatesToProductReference": "openSUSE Tumbleweed",
        "RelationType": "Default Component Of"
      },
      {
        "ProductReference": "libpurple-2.11.0-4.1",
        "RelatesToProductReference": "openSUSE Tumbleweed",
        "RelationType": "Default Component Of"
      },
      {
        "ProductReference": "libpurple-branding-upstream-2.11.0-4.1",
        "RelatesToProductReference": "openSUSE Tumbleweed",
        "RelationType": "Default Component Of"
      },
      {
        "ProductReference": "libpurple-devel-2.11.0-4.1",
        "RelatesToProductReference": "openSUSE Tumbleweed",
        "RelationType": "Default Component Of"
      },
      {
        "ProductReference": "libpurple-lang-2.11.0-4.1",
        "RelatesToProductReference": "openSUSE Tumbleweed",
        "RelationType": "Default Component Of"
      },
      {
        "ProductReference": "libpurple-plugin-sametime-2.11.0-4.1",
        "RelatesToProductReference": "openSUSE Tumbleweed",
        "RelationType": "Default Component Of"
      },
      {
        "ProductReference": "libpurple-tcl-2.11.0-4.1",
        "RelatesToProductReference": "openSUSE Tumbleweed",
        "RelationType": "Default Component Of"
      },
      {
        "ProductReference": "pidgin-2.11.0-4.1",
        "RelatesToProductReference": "openSUSE Tumbleweed",
        "RelationType": "Default Component Of"
      },
      {
        "ProductReference": "pidgin-devel-2.11.0-4.1",
        "RelatesToProductReference": "openSUSE Tumbleweed",
        "RelationType": "Default Component Of"
      }
    ]
  },
  "References": [
    {
      "URL": "https://www.suse.com/support/security/rating/",
      "Description": "SUSE Security Ratings"
    },
    {
      "URL": "https://www.suse.com/security/cve/CVE-2009-2694/",
      "Description": "SUSE CVE CVE-2009-2694 page"
    },
    {
      "URL": "https://www.suse.com/security/cve/CVE-2009-2703/",
      "Description": "SUSE CVE CVE-2009-2703 page"
    },
    {
      "URL": "https://www.suse.com/security/cve/CVE-2009-3026/",
      "Description": "SUSE CVE CVE-2009-3026 page"
    },
    {
      "URL": "https://www.suse.com/security/cve/CVE-2009-3083/",
      "Description": "SUSE CVE CVE-2009-3083 page"
    },
    {
      "URL": "https://www.suse.com/security/cve/CVE-2009-3084/",
      "Description": "SUSE CVE CVE-2009-3084 page"
    },
    {
      "URL": "https://www.suse.com/security/cve/CVE-2009-3085/",
      "Description": "SUSE CVE CVE-2009-3085 page"
    },
    {
      "URL": "https://www.suse.com/security/cve/CVE-2009-3615/",
      "Description": "SUSE CVE CVE-2009-3615 page"
    },
    {
      "URL": "https://www.suse.com/security/cve/CVE-2010-0013/",
      "Description": "SUSE CVE CVE-2010-0013 page"
    },
    {
      "URL": "https://www.suse.com/security/cve/CVE-2010-0277/",
      "Description": "SUSE CVE CVE-2010-0277 page"
    },
    {
      "URL": "https://www.suse.com/security/cve/CVE-2010-0420/",
      "Description": "SUSE CVE CVE-2010-0420 page"
    },
    {
      "URL": "https://www.suse.com/security/cve/CVE-2010-0423/",
      "Description": "SUSE CVE CVE-2010-0423 page"
    },
    {
      "URL": "https://www.suse.com/security/cve/CVE-2010-1624/",
      "Description": "SUSE CVE CVE-2010-1624 page"
    },
    {
      "URL": "https://www.suse.com/security/cve/CVE-2010-2528/",
      "Description": "SUSE CVE CVE-2010-2528 page"
    },
    {
      "URL": "https://www.suse.com/security/cve/CVE-2010-3711/",
      "Description": "SUSE CVE CVE-2010-3711 page"
    },
    {
      "URL": "https://www.suse.com/security/cve/CVE-2011-1091/",
      "Description": "SUSE CVE CVE-2011-1091 page"
    },
    {
      "URL": "https://www.suse.com/security/cve/CVE-2011-3594/",
      "Description": "SUSE CVE CVE-2011-3594 page"
    },
    {
      "URL": "https://www.suse.com/security/cve/CVE-2012-2214/",
      "Description": "SUSE CVE CVE-2012-2214 page"
    },
    {
      "URL": "https://www.suse.com/security/cve/CVE-2012-3374/",
      "Description": "SUSE CVE CVE-2012-3374 page"
    },
    {
      "URL": "https://www.suse.com/security/cve/CVE-2012-6152/",
      "Description": "SUSE CVE CVE-2012-6152 page"
    },
    {
      "URL": "https://www.suse.com/security/cve/CVE-2013-0271/",
      "Description": "SUSE CVE CVE-2013-0271 page"
    },
    {
      "URL": "https://www.suse.com/security/cve/CVE-2013-0272/",
      "Description": "SUSE CVE CVE-2013-0272 page"
    },
    {
      "URL": "https://www.suse.com/security/cve/CVE-2013-0273/",
      "Description": "SUSE CVE CVE-2013-0273 page"
    },
    {
      "URL": "https://www.suse.com/security/cve/CVE-2013-0274/",
      "Description": "SUSE CVE CVE-2013-0274 page"
    },
    {
      "URL": "https://www.suse.com/security/cve/CVE-2013-6477/",
      "Description": "SUSE CVE CVE-2013-6477 page"
    },
    {
      "URL": "https://www.suse.com/security/cve/CVE-2013-6478/",
      "Description": "SUSE CVE CVE-2013-6478 page"
    },
    {
      "URL": "https://www.suse.com/security/cve/CVE-2013-6479/",
      "Description": "SUSE CVE CVE-2013-6479 page"
    },
    {
      "URL": "https://www.suse.com/security/cve/CVE-2013-6481/",
      "Description": "SUSE CVE CVE-2013-6481 page"
    },
    {
      "URL": "https://www.suse.com/security/cve/CVE-2013-6482/",
      "Description": "SUSE CVE CVE-2013-6482 page"
    },
    {
      "URL": "https://www.suse.com/security/cve/CVE-2013-6483/",
      "Description": "SUSE CVE CVE-2013-6483 page"
    },
    {
      "URL": "https://www.suse.com/security/cve/CVE-2013-6484/",
      "Description": "SUSE CVE CVE-2013-6484 page"
    },
    {
      "URL": "https://www.suse.com/security/cve/CVE-2013-6485/",
      "Description": "SUSE CVE CVE-2013-6485 page"
    },
    {
      "URL": "https://www.suse.com/security/cve/CVE-2013-6486/",
      "Description": "SUSE CVE CVE-2013-6486 page"
    },
    {
      "URL": "https://www.suse.com/security/cve/CVE-2013-6487/",
      "Description": "SUSE CVE CVE-2013-6487 page"
    },
    {
      "URL": "https://www.suse.com/security/cve/CVE-2014-0020/",
      "Description": "SUSE CVE CVE-2014-0020 page"
    },
    {
      "URL": "https://www.suse.com/security/cve/CVE-2014-3694/",
      "Description": "SUSE CVE CVE-2014-3694 page"
    },
    {
      "URL": "https://www.suse.com/security/cve/CVE-2014-3695/",
      "Description": "SUSE CVE CVE-2014-3695 page"
    },
    {
      "URL": "https://www.suse.com/security/cve/CVE-2014-3696/",
      "Description": "SUSE CVE CVE-2014-3696 page"
    },
    {
      "URL": "https://www.suse.com/security/cve/CVE-2014-3697/",
      "Description": "SUSE CVE CVE-2014-3697 page"
    },
    {
      "URL": "https://www.suse.com/security/cve/CVE-2014-3698/",
      "Description": "SUSE CVE CVE-2014-3698 page"
    }
  ],
  "Vulnerabilities": [
    {
      "CVE": "CVE-2009-2694",
      "Description": "The msn_slplink_process_msg function in libpurple/protocols/msn/slplink.c in libpurple, as used in Pidgin (formerly Gaim) before 2.5.9 and Adium 1.3.5 and earlier, allows remote attackers to execute arbitrary code or cause a denial of service (memory corruption and application crash) by sending multiple crafted SLP (aka MSNSLP) messages to trigger an overwrite of an arbitrary memory location.  NOTE: this issue reportedly exists because of an incomplete fix for CVE-2009-1376.",
      "Threats": [
        {
          "Type": "Impact",
          "Severity": "moderate"
        }
      ],
      "References": [
        {
          "URL": "https://www.suse.com/security/cve/CVE-2009-2694.html",
          "Description": "CVE-2009-2694"
        },
        {
          "URL": "https://bugzilla.suse.com/527100",
          "Description": "SUSE Bug 527100"
        }
      ],
      "ProductStatuses": [
        {
          "Type": "Fixed",
          "ProductID": [
            "openSUSE Tumbleweed:finch-2.11.0-4.1",
            "openSUSE Tumbleweed:finch-devel-2.11.0-4.1",
            "openSUSE Tumbleweed:libpurple-2.11.0-4.1",
            "openSUSE Tumbleweed:libpurple-branding-upstream-2.11.0-4.1",
            "openSUSE Tumbleweed:libpurple-devel-2.11.0-4.1",
            "openSUSE Tumbleweed:libpurple-lang-2.11.0-4.1",
            "openSUSE Tumbleweed:libpurple-plugin-sametime-2.11.0-4.1",
            "openSUSE Tumbleweed:libpurple-tcl-2.11.0-4.1",
            "openSUSE Tumbleweed:pidgin-2.11.0-4.1",
            "openSUSE Tumbleweed:pidgin-devel-2.11.0-4.1"
          ]
        }
      ],
      "CVSSScoreSets": {}
    },
    {
      "CVE": "CVE-2009-2703",
      "Description": "libpurple/protocols/irc/msgs.c in the IRC protocol plugin in libpurple in Pidgin before 2.6.2 allows remote IRC servers to cause a denial of service (NULL pointer dereference and application crash) via a TOPIC message that lacks a topic string.",
      "Threats": [
        {
          "Type": "Impact",
          "Severity": "moderate"
        }
      ],
      "References": [
        {
          "URL": "https://www.suse.com/security/cve/CVE-2009-2703.html",
          "Description": "CVE-2009-2703"
        },
        {
          "URL": "https://bugzilla.suse.com/537214",
          "Description": "SUSE Bug 537214"
        }
      ],
      "ProductStatuses": [
        {
          "Type": "Fixed",
          "ProductID": [
            "openSUSE Tumbleweed:finch-2.11.0-4.1",
            "openSUSE Tumbleweed:finch-devel-2.11.0-4.1",
            "openSUSE Tumbleweed:libpurple-2.11.0-4.1",
            "openSUSE Tumbleweed:libpurple-branding-upstream-2.11.0-4.1",
            "openSUSE Tumbleweed:libpurple-devel-2.11.0-4.1",
            "openSUSE Tumbleweed:libpurple-lang-2.11.0-4.1",
            "openSUSE Tumbleweed:libpurple-plugin-sametime-2.11.0-4.1",
            "openSUSE Tumbleweed:libpurple-tcl-2.11.0-4.1",
            "openSUSE Tumbleweed:pidgin-2.11.0-4.1",
            "openSUSE Tumbleweed:pidgin-devel-2.11.0-4.1"
          ]
        }
      ],
      "CVSSScoreSets": {}
    },
    {
      "CVE": "CVE-2009-3026",
      "Description": "protocols/jabber/auth.c in libpurple in Pidgin 2.6.0, and possibly other versions, does not follow the \"require TLS/SSL\" preference when connecting to older Jabber servers that do not follow the XMPP specification, which causes libpurple to connect to the server without the expected encryption and allows remote attackers to sniff sessions.",
      "Threats": [
        {
          "Type": "Impact",
          "Severity": "moderate"
        }
      ],
      "References": [
        {
          "URL": "https://www.suse.com/security/cve/CVE-2009-3026.html",
          "Description": "CVE-2009-3026"
        },
        {
          "URL": "https://bugzilla.suse.com/535570",
          "Description": "SUSE Bug 535570"
        },
        {
          "URL": "https://bugzilla.suse.com/550170",
          "Description": "SUSE Bug 550170"
        }
      ],
      "ProductStatuses": [
        {
          "Type": "Fixed",
          "ProductID": [
            "openSUSE Tumbleweed:finch-2.11.0-4.1",
            "openSUSE Tumbleweed:finch-devel-2.11.0-4.1",
            "openSUSE Tumbleweed:libpurple-2.11.0-4.1",
            "openSUSE Tumbleweed:libpurple-branding-upstream-2.11.0-4.1",
            "openSUSE Tumbleweed:libpurple-devel-2.11.0-4.1",
            "openSUSE Tumbleweed:libpurple-lang-2.11.0-4.1",
            "openSUSE Tumbleweed:libpurple-plugin-sametime-2.11.0-4.1",
            "openSUSE Tumbleweed:libpurple-tcl-2.11.0-4.1",
            "openSUSE Tumbleweed:pidgin-2.11.0-4.1",
            "openSUSE Tumbleweed:pidgin-devel-2.11.0-4.1"
          ]
        }
      ],
      "CVSSScoreSets": {}
    },
    {
      "CVE": "CVE-2009-3083",
      "Description": "The msn_slp_sip_recv function in libpurple/protocols/msn/slp.c in the MSN protocol plugin in libpurple in Pidgin before 2.6.2 allows remote attackers to cause a denial of service (NULL pointer dereference and application crash) via an SLP invite message that lacks certain required fields, as demonstrated by a malformed message from a KMess client.",
      "Threats": [
        {
          "Type": "Impact",
          "Severity": "moderate"
        }
      ],
      "References": [
        {
          "URL": "https://www.suse.com/security/cve/CVE-2009-3083.html",
          "Description": "CVE-2009-3083"
        },
        {
          "URL": "https://bugzilla.suse.com/536602",
          "Description": "SUSE Bug 536602"
        },
        {
          "URL": "https://bugzilla.suse.com/550170",
          "Description": "SUSE Bug 550170"
        }
      ],
      "ProductStatuses": [
        {
          "Type": "Fixed",
          "ProductID": [
            "openSUSE Tumbleweed:finch-2.11.0-4.1",
            "openSUSE Tumbleweed:finch-devel-2.11.0-4.1",
            "openSUSE Tumbleweed:libpurple-2.11.0-4.1",
            "openSUSE Tumbleweed:libpurple-branding-upstream-2.11.0-4.1",
            "openSUSE Tumbleweed:libpurple-devel-2.11.0-4.1",
            "openSUSE Tumbleweed:libpurple-lang-2.11.0-4.1",
            "openSUSE Tumbleweed:libpurple-plugin-sametime-2.11.0-4.1",
            "openSUSE Tumbleweed:libpurple-tcl-2.11.0-4.1",
            "openSUSE Tumbleweed:pidgin-2.11.0-4.1",
            "openSUSE Tumbleweed:pidgin-devel-2.11.0-4.1"
          ]
        }
      ],
      "CVSSScoreSets": {}
    },
    {
      "CVE": "CVE-2009-3084",
      "Description": "The msn_slp_process_msg function in libpurple/protocols/msn/slpcall.c in the MSN protocol plugin in libpurple 2.6.0 and 2.6.1, as used in Pidgin before 2.6.2, allows remote attackers to cause a denial of service (application crash) via a handwritten (aka Ink) message, related to an uninitialized variable and the incorrect \"UTF16-LE\" charset name.",
      "Threats": [
        {
          "Type": "Impact",
          "Severity": "moderate"
        }
      ],
      "References": [
        {
          "URL": "https://www.suse.com/security/cve/CVE-2009-3084.html",
          "Description": "CVE-2009-3084"
        },
        {
          "URL": "https://bugzilla.suse.com/536602",
          "Description": "SUSE Bug 536602"
        },
        {
          "URL": "https://bugzilla.suse.com/550170",
          "Description": "SUSE Bug 550170"
        }
      ],
      "ProductStatuses": [
        {
          "Type": "Fixed",
          "ProductID": [
            "openSUSE Tumbleweed:finch-2.11.0-4.1",
            "openSUSE Tumbleweed:finch-devel-2.11.0-4.1",
            "openSUSE Tumbleweed:libpurple-2.11.0-4.1",
            "openSUSE Tumbleweed:libpurple-branding-upstream-2.11.0-4.1",
            "openSUSE Tumbleweed:libpurple-devel-2.11.0-4.1",
            "openSUSE Tumbleweed:libpurple-lang-2.11.0-4.1",
            "openSUSE Tumbleweed:libpurple-plugin-sametime-2.11.0-4.1",
            "openSUSE Tumbleweed:libpurple-tcl-2.11.0-4.1",
            "openSUSE Tumbleweed:pidgin-2.11.0-4.1",
            "openSUSE Tumbleweed:pidgin-devel-2.11.0-4.1"
          ]
        }
      ],
      "CVSSScoreSets": {}
    },
    {
      "CVE": "CVE-2009-3085",
      "Description": "The XMPP protocol plugin in libpurple in Pidgin before 2.6.2 does not properly handle an error IQ stanza during an attempted fetch of a custom smiley, which allows remote attackers to cause a denial of service (application crash) via XHTML-IM content with cid: images.",
      "Threats": [
        {
          "Type": "Impact",
          "Severity": "moderate"
        }
      ],
      "References": [
        {
          "URL": "https://www.suse.com/security/cve/CVE-2009-3085.html",
          "Description": "CVE-2009-3085"
        },
        {
          "URL": "https://bugzilla.suse.com/536602",
          "Description": "SUSE Bug 536602"
        },
        {
          "URL": "https://bugzilla.suse.com/550170",
          "Description": "SUSE Bug 550170"
        }
      ],
      "ProductStatuses": [
        {
          "Type": "Fixed",
          "ProductID": [
            "openSUSE Tumbleweed:finch-2.11.0-4.1",
            "openSUSE Tumbleweed:finch-devel-2.11.0-4.1",
            "openSUSE Tumbleweed:libpurple-2.11.0-4.1",
            "openSUSE Tumbleweed:libpurple-branding-upstream-2.11.0-4.1",
            "openSUSE Tumbleweed:libpurple-devel-2.11.0-4.1",
            "openSUSE Tumbleweed:libpurple-lang-2.11.0-4.1",
            "openSUSE Tumbleweed:libpurple-plugin-sametime-2.11.0-4.1",
            "openSUSE Tumbleweed:libpurple-tcl-2.11.0-4.1",
            "openSUSE Tumbleweed:pidgin-2.11.0-4.1",
            "openSUSE Tumbleweed:pidgin-devel-2.11.0-4.1"
          ]
        }
      ],
      "CVSSScoreSets": {}
    },
    {
      "CVE": "CVE-2009-3615",
      "Description": "The OSCAR protocol plugin in libpurple in Pidgin before 2.6.3 and Adium before 1.3.7 allows remote attackers to cause a denial of service (application crash) via crafted contact-list data for (1) ICQ and possibly (2) AIM, as demonstrated by the SIM IM client.",
      "Threats": [
        {
          "Type": "Impact",
          "Severity": "moderate"
        }
      ],
      "References": [
        {
          "URL": "https://www.suse.com/security/cve/CVE-2009-3615.html",
          "Description": "CVE-2009-3615"
        },
        {
          "URL": "https://bugzilla.suse.com/548072",
          "Description": "SUSE Bug 548072"
        },
        {
          "URL": "https://bugzilla.suse.com/550170",
          "Description": "SUSE Bug 550170"
        }
      ],
      "ProductStatuses": [
        {
          "Type": "Fixed",
          "ProductID": [
            "openSUSE Tumbleweed:finch-2.11.0-4.1",
            "openSUSE Tumbleweed:finch-devel-2.11.0-4.1",
            "openSUSE Tumbleweed:libpurple-2.11.0-4.1",
            "openSUSE Tumbleweed:libpurple-branding-upstream-2.11.0-4.1",
            "openSUSE Tumbleweed:libpurple-devel-2.11.0-4.1",
            "openSUSE Tumbleweed:libpurple-lang-2.11.0-4.1",
            "openSUSE Tumbleweed:libpurple-plugin-sametime-2.11.0-4.1",
            "openSUSE Tumbleweed:libpurple-tcl-2.11.0-4.1",
            "openSUSE Tumbleweed:pidgin-2.11.0-4.1",
            "openSUSE Tumbleweed:pidgin-devel-2.11.0-4.1"
          ]
        }
      ],
      "CVSSScoreSets": {}
    },
    {
      "CVE": "CVE-2010-0013",
      "Description": "Directory traversal vulnerability in slp.c in the MSN protocol plugin in libpurple in Pidgin 2.6.4 and Adium 1.3.8 allows remote attackers to read arbitrary files via a .. (dot dot) in an application/x-msnmsgrp2p MSN emoticon (aka custom smiley) request, a related issue to CVE-2004-0122. NOTE: it could be argued that this is resultant from a vulnerability in which an emoticon download request is processed even without a preceding text/x-mms-emoticon message that announced availability of the emoticon.",
      "Threats": [
        {
          "Type": "Impact",
          "Severity": "moderate"
        }
      ],
      "References": [
        {
          "URL": "https://www.suse.com/security/cve/CVE-2010-0013.html",
          "Description": "CVE-2010-0013"
        },
        {
          "URL": "https://bugzilla.suse.com/567799",
          "Description": "SUSE Bug 567799"
        },
        {
          "URL": "https://bugzilla.suse.com/569616",
          "Description": "SUSE Bug 569616"
        },
        {
          "URL": "https://bugzilla.suse.com/581201",
          "Description": "SUSE Bug 581201"
        }
      ],
      "ProductStatuses": [
        {
          "Type": "Fixed",
          "ProductID": [
            "openSUSE Tumbleweed:finch-2.11.0-4.1",
            "openSUSE Tumbleweed:finch-devel-2.11.0-4.1",
            "openSUSE Tumbleweed:libpurple-2.11.0-4.1",
            "openSUSE Tumbleweed:libpurple-branding-upstream-2.11.0-4.1",
            "openSUSE Tumbleweed:libpurple-devel-2.11.0-4.1",
            "openSUSE Tumbleweed:libpurple-lang-2.11.0-4.1",
            "openSUSE Tumbleweed:libpurple-plugin-sametime-2.11.0-4.1",
            "openSUSE Tumbleweed:libpurple-tcl-2.11.0-4.1",
            "openSUSE Tumbleweed:pidgin-2.11.0-4.1",
            "openSUSE Tumbleweed:pidgin-devel-2.11.0-4.1"
          ]
        }
      ],
      "CVSSScoreSets": {}
    },
    {
      "CVE": "CVE-2010-0277",
      "Description": "slp.c in the MSN protocol plugin in libpurple in Pidgin before 2.6.6, including 2.6.4, and Adium 1.3.8 allows remote attackers to cause a denial of service (memory corruption and application crash) or possibly have unspecified other impact via a malformed MSNSLP INVITE request in an SLP message, a different issue than CVE-2010-0013.",
      "Threats": [
        {
          "Type": "Impact",
          "Severity": "moderate"
        }
      ],
      "References": [
        {
          "URL": "https://www.suse.com/security/cve/CVE-2010-0277.html",
          "Description": "CVE-2010-0277"
        },
        {
          "URL": "https://bugzilla.suse.com/567799",
          "Description": "SUSE Bug 567799"
        },
        {
          "URL": "https://bugzilla.suse.com/569616",
          "Description": "SUSE Bug 569616"
        },
        {
          "URL": "https://bugzilla.suse.com/581201",
          "Description": "SUSE Bug 581201"
        }
      ],
      "ProductStatuses": [
        {
          "Type": "Fixed",
          "ProductID": [
            "openSUSE Tumbleweed:finch-2.11.0-4.1",
            "openSUSE Tumbleweed:finch-devel-2.11.0-4.1",
            "openSUSE Tumbleweed:libpurple-2.11.0-4.1",
            "openSUSE Tumbleweed:libpurple-branding-upstream-2.11.0-4.1",
            "openSUSE Tumbleweed:libpurple-devel-2.11.0-4.1",
            "openSUSE Tumbleweed:libpurple-lang-2.11.0-4.1",
            "openSUSE Tumbleweed:libpurple-plugin-sametime-2.11.0-4.1",
            "openSUSE Tumbleweed:libpurple-tcl-2.11.0-4.1",
            "openSUSE Tumbleweed:pidgin-2.11.0-4.1",
            "openSUSE Tumbleweed:pidgin-devel-2.11.0-4.1"
          ]
        }
      ],
      "CVSSScoreSets": {}
    },
    {
      "CVE": "CVE-2010-0420",
      "Description": "libpurple in Finch in Pidgin before 2.6.6, when an XMPP multi-user chat (MUC) room is used, does not properly parse nicknames containing \u003cbr\u003e sequences, which allows remote attackers to cause a denial of service (application crash) via a crafted nickname.",
      "Threats": [
        {
          "Type": "Impact",
          "Severity": "moderate"
        }
      ],
      "References": [
        {
          "URL": "https://www.suse.com/security/cve/CVE-2010-0420.html",
          "Description": "CVE-2010-0420"
        },
        {
          "URL": "https://bugzilla.suse.com/569616",
          "Description": "SUSE Bug 569616"
        },
        {
          "URL": "https://bugzilla.suse.com/581201",
          "Description": "SUSE Bug 581201"
        }
      ],
      "ProductStatuses": [
        {
          "Type": "Fixed",
          "ProductID": [
            "openSUSE Tumbleweed:finch-2.11.0-4.1",
            "openSUSE Tumbleweed:finch-devel-2.11.0-4.1",
            "openSUSE Tumbleweed:libpurple-2.11.0-4.1",
            "openSUSE Tumbleweed:libpurple-branding-upstream-2.11.0-4.1",
            "openSUSE Tumbleweed:libpurple-devel-2.11.0-4.1",
            "openSUSE Tumbleweed:libpurple-lang-2.11.0-4.1",
            "openSUSE Tumbleweed:libpurple-plugin-sametime-2.11.0-4.1",
            "openSUSE Tumbleweed:libpurple-tcl-2.11.0-4.1",
            "openSUSE Tumbleweed:pidgin-2.11.0-4.1",
            "openSUSE Tumbleweed:pidgin-devel-2.11.0-4.1"
          ]
        }
      ],
      "CVSSScoreSets": {}
    },
    {
      "CVE": "CVE-2010-0423",
      "Description": "gtkimhtml.c in Pidgin before 2.6.6 allows remote attackers to cause a denial of service (CPU consumption and application hang) by sending many smileys in a (1) IM or (2) chat.",
      "Threats": [
        {
          "Type": "Impact",
          "Severity": "moderate"
        }
      ],
      "References": [
        {
          "URL": "https://www.suse.com/security/cve/CVE-2010-0423.html",
          "Description": "CVE-2010-0423"
        },
        {
          "URL": "https://bugzilla.suse.com/569616",
          "Description": "SUSE Bug 569616"
        },
        {
          "URL": "https://bugzilla.suse.com/581201",
          "Description": "SUSE Bug 581201"
        }
      ],
      "ProductStatuses": [
        {
          "Type": "Fixed",
          "ProductID": [
            "openSUSE Tumbleweed:finch-2.11.0-4.1",
            "openSUSE Tumbleweed:finch-devel-2.11.0-4.1",
            "openSUSE Tumbleweed:libpurple-2.11.0-4.1",
            "openSUSE Tumbleweed:libpurple-branding-upstream-2.11.0-4.1",
            "openSUSE Tumbleweed:libpurple-devel-2.11.0-4.1",
            "openSUSE Tumbleweed:libpurple-lang-2.11.0-4.1",
            "openSUSE Tumbleweed:libpurple-plugin-sametime-2.11.0-4.1",
            "openSUSE Tumbleweed:libpurple-tcl-2.11.0-4.1",
            "openSUSE Tumbleweed:pidgin-2.11.0-4.1",
            "openSUSE Tumbleweed:pidgin-devel-2.11.0-4.1"
          ]
        }
      ],
      "CVSSScoreSets": {}
    },
    {
      "CVE": "CVE-2010-1624",
      "Description": "The msn_emoticon_msg function in slp.c in the MSN protocol plugin in libpurple in Pidgin before 2.7.0 allows remote authenticated users to cause a denial of service (NULL pointer dereference and application crash) via a custom emoticon in a malformed SLP message.",
      "Threats": [
        {
          "Type": "Impact",
          "Severity": "moderate"
        }
      ],
      "References": [
        {
          "URL": "https://www.suse.com/security/cve/CVE-2010-1624.html",
          "Description": "CVE-2010-1624"
        },
        {
          "URL": "https://bugzilla.suse.com/604225",
          "Description": "SUSE Bug 604225"
        }
      ],
      "ProductStatuses": [
        {
          "Type": "Fixed",
          "ProductID": [
            "openSUSE Tumbleweed:finch-2.11.0-4.1",
            "openSUSE Tumbleweed:finch-devel-2.11.0-4.1",
            "openSUSE Tumbleweed:libpurple-2.11.0-4.1",
            "openSUSE Tumbleweed:libpurple-branding-upstream-2.11.0-4.1",
            "openSUSE Tumbleweed:libpurple-devel-2.11.0-4.1",
            "openSUSE Tumbleweed:libpurple-lang-2.11.0-4.1",
            "openSUSE Tumbleweed:libpurple-plugin-sametime-2.11.0-4.1",
            "openSUSE Tumbleweed:libpurple-tcl-2.11.0-4.1",
            "openSUSE Tumbleweed:pidgin-2.11.0-4.1",
            "openSUSE Tumbleweed:pidgin-devel-2.11.0-4.1"
          ]
        }
      ],
      "CVSSScoreSets": {}
    },
    {
      "CVE": "CVE-2010-2528",
      "Description": "The clientautoresp function in family_icbm.c in the oscar protocol plugin in libpurple in Pidgin before 2.7.2 allows remote authenticated users to cause a denial of service (NULL pointer dereference and application crash) via an X-Status message that lacks the expected end tag for a (1) desc or (2) title element.",
      "Threats": [
        {
          "Type": "Impact",
          "Severity": "moderate"
        }
      ],
      "References": [
        {
          "URL": "https://www.suse.com/security/cve/CVE-2010-2528.html",
          "Description": "CVE-2010-2528"
        },
        {
          "URL": "https://bugzilla.suse.com/630965",
          "Description": "SUSE Bug 630965"
        }
      ],
      "ProductStatuses": [
        {
          "Type": "Fixed",
          "ProductID": [
            "openSUSE Tumbleweed:finch-2.11.0-4.1",
            "openSUSE Tumbleweed:finch-devel-2.11.0-4.1",
            "openSUSE Tumbleweed:libpurple-2.11.0-4.1",
            "openSUSE Tumbleweed:libpurple-branding-upstream-2.11.0-4.1",
            "openSUSE Tumbleweed:libpurple-devel-2.11.0-4.1",
            "openSUSE Tumbleweed:libpurple-lang-2.11.0-4.1",
            "openSUSE Tumbleweed:libpurple-plugin-sametime-2.11.0-4.1",
            "openSUSE Tumbleweed:libpurple-tcl-2.11.0-4.1",
            "openSUSE Tumbleweed:pidgin-2.11.0-4.1",
            "openSUSE Tumbleweed:pidgin-devel-2.11.0-4.1"
          ]
        }
      ],
      "CVSSScoreSets": {}
    },
    {
      "CVE": "CVE-2010-3711",
      "Description": "libpurple in Pidgin before 2.7.4 does not properly validate the return value of the purple_base64_decode function, which allows remote authenticated users to cause a denial of service (NULL pointer dereference and application crash) via a crafted message, related to the plugins for MSN, MySpaceIM, XMPP, and Yahoo! and the NTLM authentication support.",
      "Threats": [
        {
          "Type": "Impact",
          "Severity": "moderate"
        }
      ],
      "References": [
        {
          "URL": "https://www.suse.com/security/cve/CVE-2010-3711.html",
          "Description": "CVE-2010-3711"
        },
        {
          "URL": "https://bugzilla.suse.com/648273",
          "Description": "SUSE Bug 648273"
        }
      ],
      "ProductStatuses": [
        {
          "Type": "Fixed",
          "ProductID": [
            "openSUSE Tumbleweed:finch-2.11.0-4.1",
            "openSUSE Tumbleweed:finch-devel-2.11.0-4.1",
            "openSUSE Tumbleweed:libpurple-2.11.0-4.1",
            "openSUSE Tumbleweed:libpurple-branding-upstream-2.11.0-4.1",
            "openSUSE Tumbleweed:libpurple-devel-2.11.0-4.1",
            "openSUSE Tumbleweed:libpurple-lang-2.11.0-4.1",
            "openSUSE Tumbleweed:libpurple-plugin-sametime-2.11.0-4.1",
            "openSUSE Tumbleweed:libpurple-tcl-2.11.0-4.1",
            "openSUSE Tumbleweed:pidgin-2.11.0-4.1",
            "openSUSE Tumbleweed:pidgin-devel-2.11.0-4.1"
          ]
        }
      ],
      "CVSSScoreSets": {}
    },
    {
      "CVE": "CVE-2011-1091",
      "Description": "libymsg.c in the Yahoo! protocol plugin in libpurple in Pidgin 2.6.0 through 2.7.10 allows (1) remote authenticated users to cause a denial of service (NULL pointer dereference and application crash) via a malformed YMSG notification packet, and allows (2) remote Yahoo! servers to cause a denial of service (NULL pointer dereference and application crash) via a malformed YMSG SMS message.",
      "Threats": [
        {
          "Type": "Impact",
          "Severity": "moderate"
        }
      ],
      "References": [
        {
          "URL": "https://www.suse.com/security/cve/CVE-2011-1091.html",
          "Description": "CVE-2011-1091"
        },
        {
          "URL": "https://bugzilla.suse.com/736189",
          "Description": "SUSE Bug 736189"
        }
      ],
      "ProductStatuses": [
        {
          "Type": "Fixed",
          "ProductID": [
            "openSUSE Tumbleweed:finch-2.11.0-4.1",
            "openSUSE Tumbleweed:finch-devel-2.11.0-4.1",
            "openSUSE Tumbleweed:libpurple-2.11.0-4.1",
            "openSUSE Tumbleweed:libpurple-branding-upstream-2.11.0-4.1",
            "openSUSE Tumbleweed:libpurple-devel-2.11.0-4.1",
            "openSUSE Tumbleweed:libpurple-lang-2.11.0-4.1",
            "openSUSE Tumbleweed:libpurple-plugin-sametime-2.11.0-4.1",
            "openSUSE Tumbleweed:libpurple-tcl-2.11.0-4.1",
            "openSUSE Tumbleweed:pidgin-2.11.0-4.1",
            "openSUSE Tumbleweed:pidgin-devel-2.11.0-4.1"
          ]
        }
      ],
      "CVSSScoreSets": {}
    },
    {
      "CVE": "CVE-2011-3594",
      "Description": "The g_markup_escape_text function in the SILC protocol plug-in in libpurple 2.10.0 and earlier, as used in Pidgin and possibly other products, allows remote attackers to cause a denial of service (crash) via invalid UTF-8 sequences that trigger use of invalid pointers and an out-of-bounds read, related to interactions with certain versions of glib2.",
      "Threats": [
        {
          "Type": "Impact",
          "Severity": "moderate"
        }
      ],
      "References": [
        {
          "URL": "https://www.suse.com/security/cve/CVE-2011-3594.html",
          "Description": "CVE-2011-3594"
        },
        {
          "URL": "https://bugzilla.suse.com/722199",
          "Description": "SUSE Bug 722199"
        },
        {
          "URL": "https://bugzilla.suse.com/736161",
          "Description": "SUSE Bug 736161"
        }
      ],
      "ProductStatuses": [
        {
          "Type": "Fixed",
          "ProductID": [
            "openSUSE Tumbleweed:finch-2.11.0-4.1",
            "openSUSE Tumbleweed:finch-devel-2.11.0-4.1",
            "openSUSE Tumbleweed:libpurple-2.11.0-4.1",
            "openSUSE Tumbleweed:libpurple-branding-upstream-2.11.0-4.1",
            "openSUSE Tumbleweed:libpurple-devel-2.11.0-4.1",
            "openSUSE Tumbleweed:libpurple-lang-2.11.0-4.1",
            "openSUSE Tumbleweed:libpurple-plugin-sametime-2.11.0-4.1",
            "openSUSE Tumbleweed:libpurple-tcl-2.11.0-4.1",
            "openSUSE Tumbleweed:pidgin-2.11.0-4.1",
            "openSUSE Tumbleweed:pidgin-devel-2.11.0-4.1"
          ]
        }
      ],
      "CVSSScoreSets": {}
    },
    {
      "CVE": "CVE-2012-2214",
      "Description": "proxy.c in libpurple in Pidgin before 2.10.4 does not properly handle canceled SOCKS5 connection attempts, which allows user-assisted remote authenticated users to cause a denial of service (application crash) via a sequence of XMPP file-transfer requests.",
      "Threats": [
        {
          "Type": "Impact",
          "Severity": "moderate"
        }
      ],
      "References": [
        {
          "URL": "https://www.suse.com/security/cve/CVE-2012-2214.html",
          "Description": "CVE-2012-2214"
        },
        {
          "URL": "https://bugzilla.suse.com/760890",
          "Description": "SUSE Bug 760890"
        }
      ],
      "ProductStatuses": [
        {
          "Type": "Fixed",
          "ProductID": [
            "openSUSE Tumbleweed:finch-2.11.0-4.1",
            "openSUSE Tumbleweed:finch-devel-2.11.0-4.1",
            "openSUSE Tumbleweed:libpurple-2.11.0-4.1",
            "openSUSE Tumbleweed:libpurple-branding-upstream-2.11.0-4.1",
            "openSUSE Tumbleweed:libpurple-devel-2.11.0-4.1",
            "openSUSE Tumbleweed:libpurple-lang-2.11.0-4.1",
            "openSUSE Tumbleweed:libpurple-plugin-sametime-2.11.0-4.1",
            "openSUSE Tumbleweed:libpurple-tcl-2.11.0-4.1",
            "openSUSE Tumbleweed:pidgin-2.11.0-4.1",
            "openSUSE Tumbleweed:pidgin-devel-2.11.0-4.1"
          ]
        }
      ],
      "CVSSScoreSets": {}
    },
    {
      "CVE": "CVE-2012-3374",
      "Description": "Buffer overflow in markup.c in the MXit protocol plugin in libpurple in Pidgin before 2.10.5 allows remote attackers to execute arbitrary code via a crafted inline image in a message.",
      "Threats": [
        {
          "Type": "Impact",
          "Severity": "moderate"
        }
      ],
      "References": [
        {
          "URL": "https://www.suse.com/security/cve/CVE-2012-3374.html",
          "Description": "CVE-2012-3374"
        },
        {
          "URL": "https://bugzilla.suse.com/770304",
          "Description": "SUSE Bug 770304"
        }
      ],
      "ProductStatuses": [
        {
          "Type": "Fixed",
          "ProductID": [
            "openSUSE Tumbleweed:finch-2.11.0-4.1",
            "openSUSE Tumbleweed:finch-devel-2.11.0-4.1",
            "openSUSE Tumbleweed:libpurple-2.11.0-4.1",
            "openSUSE Tumbleweed:libpurple-branding-upstream-2.11.0-4.1",
            "openSUSE Tumbleweed:libpurple-devel-2.11.0-4.1",
            "openSUSE Tumbleweed:libpurple-lang-2.11.0-4.1",
            "openSUSE Tumbleweed:libpurple-plugin-sametime-2.11.0-4.1",
            "openSUSE Tumbleweed:libpurple-tcl-2.11.0-4.1",
            "openSUSE Tumbleweed:pidgin-2.11.0-4.1",
            "openSUSE Tumbleweed:pidgin-devel-2.11.0-4.1"
          ]
        }
      ],
      "CVSSScoreSets": {}
    },
    {
      "CVE": "CVE-2012-6152",
      "Description": "The Yahoo! protocol plugin in libpurple in Pidgin before 2.10.8 does not properly validate UTF-8 data, which allows remote attackers to cause a denial of service (application crash) via crafted byte sequences.",
      "Threats": [
        {
          "Type": "Impact",
          "Severity": "moderate"
        }
      ],
      "References": [
        {
          "URL": "https://www.suse.com/security/cve/CVE-2012-6152.html",
          "Description": "CVE-2012-6152"
        },
        {
          "URL": "https://bugzilla.suse.com/861019",
          "Description": "SUSE Bug 861019"
        }
      ],
      "ProductStatuses": [
        {
          "Type": "Fixed",
          "ProductID": [
            "openSUSE Tumbleweed:finch-2.11.0-4.1",
            "openSUSE Tumbleweed:finch-devel-2.11.0-4.1",
            "openSUSE Tumbleweed:libpurple-2.11.0-4.1",
            "openSUSE Tumbleweed:libpurple-branding-upstream-2.11.0-4.1",
            "openSUSE Tumbleweed:libpurple-devel-2.11.0-4.1",
            "openSUSE Tumbleweed:libpurple-lang-2.11.0-4.1",
            "openSUSE Tumbleweed:libpurple-plugin-sametime-2.11.0-4.1",
            "openSUSE Tumbleweed:libpurple-tcl-2.11.0-4.1",
            "openSUSE Tumbleweed:pidgin-2.11.0-4.1",
            "openSUSE Tumbleweed:pidgin-devel-2.11.0-4.1"
          ]
        }
      ],
      "CVSSScoreSets": {
        "BaseScore": "7.1",
        "Vector": "AV:N/AC:M/Au:N/C:C/I:N/A:N"
      }
    },
    {
      "CVE": "CVE-2013-0271",
      "Description": "The MXit protocol plugin in libpurple in Pidgin before 2.10.7 might allow remote attackers to create or overwrite files via a crafted (1) mxit or (2) mxit/imagestrips pathname.",
      "Threats": [
        {
          "Type": "Impact",
          "Severity": "moderate"
        }
      ],
      "References": [
        {
          "URL": "https://www.suse.com/security/cve/CVE-2013-0271.html",
          "Description": "CVE-2013-0271"
        },
        {
          "URL": "https://bugzilla.suse.com/804742",
          "Description": "SUSE Bug 804742"
        }
      ],
      "ProductStatuses": [
        {
          "Type": "Fixed",
          "ProductID": [
            "openSUSE Tumbleweed:finch-2.11.0-4.1",
            "openSUSE Tumbleweed:finch-devel-2.11.0-4.1",
            "openSUSE Tumbleweed:libpurple-2.11.0-4.1",
            "openSUSE Tumbleweed:libpurple-branding-upstream-2.11.0-4.1",
            "openSUSE Tumbleweed:libpurple-devel-2.11.0-4.1",
            "openSUSE Tumbleweed:libpurple-lang-2.11.0-4.1",
            "openSUSE Tumbleweed:libpurple-plugin-sametime-2.11.0-4.1",
            "openSUSE Tumbleweed:libpurple-tcl-2.11.0-4.1",
            "openSUSE Tumbleweed:pidgin-2.11.0-4.1",
            "openSUSE Tumbleweed:pidgin-devel-2.11.0-4.1"
          ]
        }
      ],
      "CVSSScoreSets": {}
    },
    {
      "CVE": "CVE-2013-0272",
      "Description": "Buffer overflow in http.c in the MXit protocol plugin in libpurple in Pidgin before 2.10.7 allows remote servers to execute arbitrary code via a long HTTP header.",
      "Threats": [
        {
          "Type": "Impact",
          "Severity": "moderate"
        }
      ],
      "References": [
        {
          "URL": "https://www.suse.com/security/cve/CVE-2013-0272.html",
          "Description": "CVE-2013-0272"
        },
        {
          "URL": "https://bugzilla.suse.com/804742",
          "Description": "SUSE Bug 804742"
        }
      ],
      "ProductStatuses": [
        {
          "Type": "Fixed",
          "ProductID": [
            "openSUSE Tumbleweed:finch-2.11.0-4.1",
            "openSUSE Tumbleweed:finch-devel-2.11.0-4.1",
            "openSUSE Tumbleweed:libpurple-2.11.0-4.1",
            "openSUSE Tumbleweed:libpurple-branding-upstream-2.11.0-4.1",
            "openSUSE Tumbleweed:libpurple-devel-2.11.0-4.1",
            "openSUSE Tumbleweed:libpurple-lang-2.11.0-4.1",
            "openSUSE Tumbleweed:libpurple-plugin-sametime-2.11.0-4.1",
            "openSUSE Tumbleweed:libpurple-tcl-2.11.0-4.1",
            "openSUSE Tumbleweed:pidgin-2.11.0-4.1",
            "openSUSE Tumbleweed:pidgin-devel-2.11.0-4.1"
          ]
        }
      ],
      "CVSSScoreSets": {}
    },
    {
      "CVE": "CVE-2013-0273",
      "Description": "sametime.c in the Sametime protocol plugin in libpurple in Pidgin before 2.10.7 does not properly terminate long user IDs, which allows remote servers to cause a denial of service (application crash) via a crafted packet.",
      "Threats": [
        {
          "Type": "Impact",
          "Severity": "moderate"
        }
      ],
      "References": [
        {
          "URL": "https://www.suse.com/security/cve/CVE-2013-0273.html",
          "Description": "CVE-2013-0273"
        },
        {
          "URL": "https://bugzilla.suse.com/804742",
          "Description": "SUSE Bug 804742"
        }
      ],
      "ProductStatuses": [
        {
          "Type": "Fixed",
          "ProductID": [
            "openSUSE Tumbleweed:finch-2.11.0-4.1",
            "openSUSE Tumbleweed:finch-devel-2.11.0-4.1",
            "openSUSE Tumbleweed:libpurple-2.11.0-4.1",
            "openSUSE Tumbleweed:libpurple-branding-upstream-2.11.0-4.1",
            "openSUSE Tumbleweed:libpurple-devel-2.11.0-4.1",
            "openSUSE Tumbleweed:libpurple-lang-2.11.0-4.1",
            "openSUSE Tumbleweed:libpurple-plugin-sametime-2.11.0-4.1",
            "openSUSE Tumbleweed:libpurple-tcl-2.11.0-4.1",
            "openSUSE Tumbleweed:pidgin-2.11.0-4.1",
            "openSUSE Tumbleweed:pidgin-devel-2.11.0-4.1"
          ]
        }
      ],
      "CVSSScoreSets": {}
    },
    {
      "CVE": "CVE-2013-0274",
      "Description": "upnp.c in libpurple in Pidgin before 2.10.7 does not properly terminate long strings in UPnP responses, which allows remote attackers to cause a denial of service (application crash) by leveraging access to the local network.",
      "Threats": [
        {
          "Type": "Impact",
          "Severity": "moderate"
        }
      ],
      "References": [
        {
          "URL": "https://www.suse.com/security/cve/CVE-2013-0274.html",
          "Description": "CVE-2013-0274"
        },
        {
          "URL": "https://bugzilla.suse.com/804742",
          "Description": "SUSE Bug 804742"
        }
      ],
      "ProductStatuses": [
        {
          "Type": "Fixed",
          "ProductID": [
            "openSUSE Tumbleweed:finch-2.11.0-4.1",
            "openSUSE Tumbleweed:finch-devel-2.11.0-4.1",
            "openSUSE Tumbleweed:libpurple-2.11.0-4.1",
            "openSUSE Tumbleweed:libpurple-branding-upstream-2.11.0-4.1",
            "openSUSE Tumbleweed:libpurple-devel-2.11.0-4.1",
            "openSUSE Tumbleweed:libpurple-lang-2.11.0-4.1",
            "openSUSE Tumbleweed:libpurple-plugin-sametime-2.11.0-4.1",
            "openSUSE Tumbleweed:libpurple-tcl-2.11.0-4.1",
            "openSUSE Tumbleweed:pidgin-2.11.0-4.1",
            "openSUSE Tumbleweed:pidgin-devel-2.11.0-4.1"
          ]
        }
      ],
      "CVSSScoreSets": {}
    },
    {
      "CVE": "CVE-2013-6477",
      "Description": "Multiple integer signedness errors in libpurple in Pidgin before 2.10.8 allow remote attackers to cause a denial of service (application crash) via a crafted timestamp value in an XMPP message.",
      "Threats": [
        {
          "Type": "Impact",
          "Severity": "moderate"
        }
      ],
      "References": [
        {
          "URL": "https://www.suse.com/security/cve/CVE-2013-6477.html",
          "Description": "CVE-2013-6477"
        },
        {
          "URL": "https://bugzilla.suse.com/861019",
          "Description": "SUSE Bug 861019"
        }
      ],
      "ProductStatuses": [
        {
          "Type": "Fixed",
          "ProductID": [
            "openSUSE Tumbleweed:finch-2.11.0-4.1",
            "openSUSE Tumbleweed:finch-devel-2.11.0-4.1",
            "openSUSE Tumbleweed:libpurple-2.11.0-4.1",
            "openSUSE Tumbleweed:libpurple-branding-upstream-2.11.0-4.1",
            "openSUSE Tumbleweed:libpurple-devel-2.11.0-4.1",
            "openSUSE Tumbleweed:libpurple-lang-2.11.0-4.1",
            "openSUSE Tumbleweed:libpurple-plugin-sametime-2.11.0-4.1",
            "openSUSE Tumbleweed:libpurple-tcl-2.11.0-4.1",
            "openSUSE Tumbleweed:pidgin-2.11.0-4.1",
            "openSUSE Tumbleweed:pidgin-devel-2.11.0-4.1"
          ]
        }
      ],
      "CVSSScoreSets": {}
    },
    {
      "CVE": "CVE-2013-6478",
      "Description": "gtkimhtml.c in Pidgin before 2.10.8 does not properly interact with underlying library support for wide Pango layouts, which allows user-assisted remote attackers to cause a denial of service (application crash) via a long URL that is examined with a tooltip.",
      "Threats": [
        {
          "Type": "Impact",
          "Severity": "moderate"
        }
      ],
      "References": [
        {
          "URL": "https://www.suse.com/security/cve/CVE-2013-6478.html",
          "Description": "CVE-2013-6478"
        },
        {
          "URL": "https://bugzilla.suse.com/861019",
          "Description": "SUSE Bug 861019"
        }
      ],
      "ProductStatuses": [
        {
          "Type": "Fixed",
          "ProductID": [
            "openSUSE Tumbleweed:finch-2.11.0-4.1",
            "openSUSE Tumbleweed:finch-devel-2.11.0-4.1",
            "openSUSE Tumbleweed:libpurple-2.11.0-4.1",
            "openSUSE Tumbleweed:libpurple-branding-upstream-2.11.0-4.1",
            "openSUSE Tumbleweed:libpurple-devel-2.11.0-4.1",
            "openSUSE Tumbleweed:libpurple-lang-2.11.0-4.1",
            "openSUSE Tumbleweed:libpurple-plugin-sametime-2.11.0-4.1",
            "openSUSE Tumbleweed:libpurple-tcl-2.11.0-4.1",
            "openSUSE Tumbleweed:pidgin-2.11.0-4.1",
            "openSUSE Tumbleweed:pidgin-devel-2.11.0-4.1"
          ]
        }
      ],
      "CVSSScoreSets": {}
    },
    {
      "CVE": "CVE-2013-6479",
      "Description": "util.c in libpurple in Pidgin before 2.10.8 does not properly allocate memory for HTTP responses that are inconsistent with the Content-Length header, which allows remote HTTP servers to cause a denial of service (application crash) via a crafted response.",
      "Threats": [
        {
          "Type": "Impact",
          "Severity": "moderate"
        }
      ],
      "References": [
        {
          "URL": "https://www.suse.com/security/cve/CVE-2013-6479.html",
          "Description": "CVE-2013-6479"
        },
        {
          "URL": "https://bugzilla.suse.com/861019",
          "Description": "SUSE Bug 861019"
        }
      ],
      "ProductStatuses": [
        {
          "Type": "Fixed",
          "ProductID": [
            "openSUSE Tumbleweed:finch-2.11.0-4.1",
            "openSUSE Tumbleweed:finch-devel-2.11.0-4.1",
            "openSUSE Tumbleweed:libpurple-2.11.0-4.1",
            "openSUSE Tumbleweed:libpurple-branding-upstream-2.11.0-4.1",
            "openSUSE Tumbleweed:libpurple-devel-2.11.0-4.1",
            "openSUSE Tumbleweed:libpurple-lang-2.11.0-4.1",
            "openSUSE Tumbleweed:libpurple-plugin-sametime-2.11.0-4.1",
            "openSUSE Tumbleweed:libpurple-tcl-2.11.0-4.1",
            "openSUSE Tumbleweed:pidgin-2.11.0-4.1",
            "openSUSE Tumbleweed:pidgin-devel-2.11.0-4.1"
          ]
        }
      ],
      "CVSSScoreSets": {}
    },
    {
      "CVE": "CVE-2013-6481",
      "Description": "libpurple/protocols/yahoo/libymsg.c in Pidgin before 2.10.8 allows remote attackers to cause a denial of service (crash) via a Yahoo! P2P message with a crafted length field, which triggers a buffer over-read.",
      "Threats": [
        {
          "Type": "Impact",
          "Severity": "moderate"
        }
      ],
      "References": [
        {
          "URL": "https://www.suse.com/security/cve/CVE-2013-6481.html",
          "Description": "CVE-2013-6481"
        },
        {
          "URL": "https://bugzilla.suse.com/861019",
          "Description": "SUSE Bug 861019"
        }
      ],
      "ProductStatuses": [
        {
          "Type": "Fixed",
          "ProductID": [
            "openSUSE Tumbleweed:finch-2.11.0-4.1",
            "openSUSE Tumbleweed:finch-devel-2.11.0-4.1",
            "openSUSE Tumbleweed:libpurple-2.11.0-4.1",
            "openSUSE Tumbleweed:libpurple-branding-upstream-2.11.0-4.1",
            "openSUSE Tumbleweed:libpurple-devel-2.11.0-4.1",
            "openSUSE Tumbleweed:libpurple-lang-2.11.0-4.1",
            "openSUSE Tumbleweed:libpurple-plugin-sametime-2.11.0-4.1",
            "openSUSE Tumbleweed:libpurple-tcl-2.11.0-4.1",
            "openSUSE Tumbleweed:pidgin-2.11.0-4.1",
            "openSUSE Tumbleweed:pidgin-devel-2.11.0-4.1"
          ]
        }
      ],
      "CVSSScoreSets": {}
    },
    {
      "CVE": "CVE-2013-6482",
      "Description": "Pidgin before 2.10.8 allows remote MSN servers to cause a denial of service (NULL pointer dereference and crash) via a crafted (1) SOAP response, (2) OIM XML response, or (3) Content-Length header.",
      "Threats": [
        {
          "Type": "Impact",
          "Severity": "moderate"
        }
      ],
      "References": [
        {
          "URL": "https://www.suse.com/security/cve/CVE-2013-6482.html",
          "Description": "CVE-2013-6482"
        },
        {
          "URL": "https://bugzilla.suse.com/861019",
          "Description": "SUSE Bug 861019"
        }
      ],
      "ProductStatuses": [
        {
          "Type": "Fixed",
          "ProductID": [
            "openSUSE Tumbleweed:finch-2.11.0-4.1",
            "openSUSE Tumbleweed:finch-devel-2.11.0-4.1",
            "openSUSE Tumbleweed:libpurple-2.11.0-4.1",
            "openSUSE Tumbleweed:libpurple-branding-upstream-2.11.0-4.1",
            "openSUSE Tumbleweed:libpurple-devel-2.11.0-4.1",
            "openSUSE Tumbleweed:libpurple-lang-2.11.0-4.1",
            "openSUSE Tumbleweed:libpurple-plugin-sametime-2.11.0-4.1",
            "openSUSE Tumbleweed:libpurple-tcl-2.11.0-4.1",
            "openSUSE Tumbleweed:pidgin-2.11.0-4.1",
            "openSUSE Tumbleweed:pidgin-devel-2.11.0-4.1"
          ]
        }
      ],
      "CVSSScoreSets": {}
    },
    {
      "CVE": "CVE-2013-6483",
      "Description": "The XMPP protocol plugin in libpurple in Pidgin before 2.10.8 does not properly determine whether the from address in an iq reply is consistent with the to address in an iq request, which allows remote attackers to spoof iq traffic or cause a denial of service (NULL pointer dereference and application crash) via a crafted reply.",
      "Threats": [
        {
          "Type": "Impact",
          "Severity": "moderate"
        }
      ],
      "References": [
        {
          "URL": "https://www.suse.com/security/cve/CVE-2013-6483.html",
          "Description": "CVE-2013-6483"
        },
        {
          "URL": "https://bugzilla.suse.com/861019",
          "Description": "SUSE Bug 861019"
        }
      ],
      "ProductStatuses": [
        {
          "Type": "Fixed",
          "ProductID": [
            "openSUSE Tumbleweed:finch-2.11.0-4.1",
            "openSUSE Tumbleweed:finch-devel-2.11.0-4.1",
            "openSUSE Tumbleweed:libpurple-2.11.0-4.1",
            "openSUSE Tumbleweed:libpurple-branding-upstream-2.11.0-4.1",
            "openSUSE Tumbleweed:libpurple-devel-2.11.0-4.1",
            "openSUSE Tumbleweed:libpurple-lang-2.11.0-4.1",
            "openSUSE Tumbleweed:libpurple-plugin-sametime-2.11.0-4.1",
            "openSUSE Tumbleweed:libpurple-tcl-2.11.0-4.1",
            "openSUSE Tumbleweed:pidgin-2.11.0-4.1",
            "openSUSE Tumbleweed:pidgin-devel-2.11.0-4.1"
          ]
        }
      ],
      "CVSSScoreSets": {}
    },
    {
      "CVE": "CVE-2013-6484",
      "Description": "The STUN protocol implementation in libpurple in Pidgin before 2.10.8 allows remote STUN servers to cause a denial of service (out-of-bounds write operation and application crash) by triggering a socket read error.",
      "Threats": [
        {
          "Type": "Impact",
          "Severity": "moderate"
        }
      ],
      "References": [
        {
          "URL": "https://www.suse.com/security/cve/CVE-2013-6484.html",
          "Description": "CVE-2013-6484"
        },
        {
          "URL": "https://bugzilla.suse.com/861019",
          "Description": "SUSE Bug 861019"
        }
      ],
      "ProductStatuses": [
        {
          "Type": "Fixed",
          "ProductID": [
            "openSUSE Tumbleweed:finch-2.11.0-4.1",
            "openSUSE Tumbleweed:finch-devel-2.11.0-4.1",
            "openSUSE Tumbleweed:libpurple-2.11.0-4.1",
            "openSUSE Tumbleweed:libpurple-branding-upstream-2.11.0-4.1",
            "openSUSE Tumbleweed:libpurple-devel-2.11.0-4.1",
            "openSUSE Tumbleweed:libpurple-lang-2.11.0-4.1",
            "openSUSE Tumbleweed:libpurple-plugin-sametime-2.11.0-4.1",
            "openSUSE Tumbleweed:libpurple-tcl-2.11.0-4.1",
            "openSUSE Tumbleweed:pidgin-2.11.0-4.1",
            "openSUSE Tumbleweed:pidgin-devel-2.11.0-4.1"
          ]
        }
      ],
      "CVSSScoreSets": {}
    },
    {
      "CVE": "CVE-2013-6485",
      "Description": "Buffer overflow in util.c in libpurple in Pidgin before 2.10.8 allows remote HTTP servers to cause a denial of service (application crash) or possibly have unspecified other impact via an invalid chunk-size field in chunked transfer-coding data.",
      "Threats": [
        {
          "Type": "Impact",
          "Severity": "moderate"
        }
      ],
      "References": [
        {
          "URL": "https://www.suse.com/security/cve/CVE-2013-6485.html",
          "Description": "CVE-2013-6485"
        },
        {
          "URL": "https://bugzilla.suse.com/861019",
          "Description": "SUSE Bug 861019"
        }
      ],
      "ProductStatuses": [
        {
          "Type": "Fixed",
          "ProductID": [
            "openSUSE Tumbleweed:finch-2.11.0-4.1",
            "openSUSE Tumbleweed:finch-devel-2.11.0-4.1",
            "openSUSE Tumbleweed:libpurple-2.11.0-4.1",
            "openSUSE Tumbleweed:libpurple-branding-upstream-2.11.0-4.1",
            "openSUSE Tumbleweed:libpurple-devel-2.11.0-4.1",
            "openSUSE Tumbleweed:libpurple-lang-2.11.0-4.1",
            "openSUSE Tumbleweed:libpurple-plugin-sametime-2.11.0-4.1",
            "openSUSE Tumbleweed:libpurple-tcl-2.11.0-4.1",
            "openSUSE Tumbleweed:pidgin-2.11.0-4.1",
            "openSUSE Tumbleweed:pidgin-devel-2.11.0-4.1"
          ]
        }
      ],
      "CVSSScoreSets": {}
    },
    {
      "CVE": "CVE-2013-6486",
      "Description": "gtkutils.c in Pidgin before 2.10.8 on Windows allows user-assisted remote attackers to execute arbitrary programs via a message containing a file: URL that is improperly handled during construction of an explorer.exe command.  NOTE: this vulnerability exists because of an incomplete fix for CVE-2011-3185.",
      "Threats": [
        {
          "Type": "Impact",
          "Severity": "moderate"
        }
      ],
      "References": [
        {
          "URL": "https://www.suse.com/security/cve/CVE-2013-6486.html",
          "Description": "CVE-2013-6486"
        },
        {
          "URL": "https://bugzilla.suse.com/861019",
          "Description": "SUSE Bug 861019"
        }
      ],
      "ProductStatuses": [
        {
          "Type": "Fixed",
          "ProductID": [
            "openSUSE Tumbleweed:finch-2.11.0-4.1",
            "openSUSE Tumbleweed:finch-devel-2.11.0-4.1",
            "openSUSE Tumbleweed:libpurple-2.11.0-4.1",
            "openSUSE Tumbleweed:libpurple-branding-upstream-2.11.0-4.1",
            "openSUSE Tumbleweed:libpurple-devel-2.11.0-4.1",
            "openSUSE Tumbleweed:libpurple-lang-2.11.0-4.1",
            "openSUSE Tumbleweed:libpurple-plugin-sametime-2.11.0-4.1",
            "openSUSE Tumbleweed:libpurple-tcl-2.11.0-4.1",
            "openSUSE Tumbleweed:pidgin-2.11.0-4.1",
            "openSUSE Tumbleweed:pidgin-devel-2.11.0-4.1"
          ]
        }
      ],
      "CVSSScoreSets": {}
    },
    {
      "CVE": "CVE-2013-6487",
      "Description": "Integer overflow in libpurple/protocols/gg/lib/http.c in the Gadu-Gadu (gg) parser in Pidgin before 2.10.8 allows remote attackers to have an unspecified impact via a large Content-Length value, which triggers a buffer overflow.",
      "Threats": [
        {
          "Type": "Impact",
          "Severity": "important"
        }
      ],
      "References": [
        {
          "URL": "https://www.suse.com/security/cve/CVE-2013-6487.html",
          "Description": "CVE-2013-6487"
        },
        {
          "URL": "https://bugzilla.suse.com/861019",
          "Description": "SUSE Bug 861019"
        },
        {
          "URL": "https://bugzilla.suse.com/878540",
          "Description": "SUSE Bug 878540"
        }
      ],
      "ProductStatuses": [
        {
          "Type": "Fixed",
          "ProductID": [
            "openSUSE Tumbleweed:finch-2.11.0-4.1",
            "openSUSE Tumbleweed:finch-devel-2.11.0-4.1",
            "openSUSE Tumbleweed:libpurple-2.11.0-4.1",
            "openSUSE Tumbleweed:libpurple-branding-upstream-2.11.0-4.1",
            "openSUSE Tumbleweed:libpurple-devel-2.11.0-4.1",
            "openSUSE Tumbleweed:libpurple-lang-2.11.0-4.1",
            "openSUSE Tumbleweed:libpurple-plugin-sametime-2.11.0-4.1",
            "openSUSE Tumbleweed:libpurple-tcl-2.11.0-4.1",
            "openSUSE Tumbleweed:pidgin-2.11.0-4.1",
            "openSUSE Tumbleweed:pidgin-devel-2.11.0-4.1"
          ]
        }
      ],
      "CVSSScoreSets": {}
    },
    {
      "CVE": "CVE-2014-0020",
      "Description": "The IRC protocol plugin in libpurple in Pidgin before 2.10.8 does not validate argument counts, which allows remote IRC servers to cause a denial of service (application crash) via a crafted message.",
      "Threats": [
        {
          "Type": "Impact",
          "Severity": "moderate"
        }
      ],
      "References": [
        {
          "URL": "https://www.suse.com/security/cve/CVE-2014-0020.html",
          "Description": "CVE-2014-0020"
        },
        {
          "URL": "https://bugzilla.suse.com/861019",
          "Description": "SUSE Bug 861019"
        }
      ],
      "ProductStatuses": [
        {
          "Type": "Fixed",
          "ProductID": [
            "openSUSE Tumbleweed:finch-2.11.0-4.1",
            "openSUSE Tumbleweed:finch-devel-2.11.0-4.1",
            "openSUSE Tumbleweed:libpurple-2.11.0-4.1",
            "openSUSE Tumbleweed:libpurple-branding-upstream-2.11.0-4.1",
            "openSUSE Tumbleweed:libpurple-devel-2.11.0-4.1",
            "openSUSE Tumbleweed:libpurple-lang-2.11.0-4.1",
            "openSUSE Tumbleweed:libpurple-plugin-sametime-2.11.0-4.1",
            "openSUSE Tumbleweed:libpurple-tcl-2.11.0-4.1",
            "openSUSE Tumbleweed:pidgin-2.11.0-4.1",
            "openSUSE Tumbleweed:pidgin-devel-2.11.0-4.1"
          ]
        }
      ],
      "CVSSScoreSets": {}
    },
    {
      "CVE": "CVE-2014-3694",
      "Description": "The (1) bundled GnuTLS SSL/TLS plugin and the (2) bundled OpenSSL SSL/TLS plugin in libpurple in Pidgin before 2.10.10 do not properly consider the Basic Constraints extension during verification of X.509 certificates from SSL servers, which allows man-in-the-middle attackers to spoof servers and obtain sensitive information via a crafted certificate.",
      "Threats": [
        {
          "Type": "Impact",
          "Severity": "moderate"
        }
      ],
      "References": [
        {
          "URL": "https://www.suse.com/security/cve/CVE-2014-3694.html",
          "Description": "CVE-2014-3694"
        },
        {
          "URL": "https://bugzilla.suse.com/902495",
          "Description": "SUSE Bug 902495"
        }
      ],
      "ProductStatuses": [
        {
          "Type": "Fixed",
          "ProductID": [
            "openSUSE Tumbleweed:finch-2.11.0-4.1",
            "openSUSE Tumbleweed:finch-devel-2.11.0-4.1",
            "openSUSE Tumbleweed:libpurple-2.11.0-4.1",
            "openSUSE Tumbleweed:libpurple-branding-upstream-2.11.0-4.1",
            "openSUSE Tumbleweed:libpurple-devel-2.11.0-4.1",
            "openSUSE Tumbleweed:libpurple-lang-2.11.0-4.1",
            "openSUSE Tumbleweed:libpurple-plugin-sametime-2.11.0-4.1",
            "openSUSE Tumbleweed:libpurple-tcl-2.11.0-4.1",
            "openSUSE Tumbleweed:pidgin-2.11.0-4.1",
            "openSUSE Tumbleweed:pidgin-devel-2.11.0-4.1"
          ]
        }
      ],
      "CVSSScoreSets": {}
    },
    {
      "CVE": "CVE-2014-3695",
      "Description": "markup.c in the MXit protocol plugin in libpurple in Pidgin before 2.10.10 allows remote servers to cause a denial of service (application crash) via a large length value in an emoticon response.",
      "Threats": [
        {
          "Type": "Impact",
          "Severity": "moderate"
        }
      ],
      "References": [
        {
          "URL": "https://www.suse.com/security/cve/CVE-2014-3695.html",
          "Description": "CVE-2014-3695"
        },
        {
          "URL": "https://bugzilla.suse.com/902409",
          "Description": "SUSE Bug 902409"
        }
      ],
      "ProductStatuses": [
        {
          "Type": "Fixed",
          "ProductID": [
            "openSUSE Tumbleweed:finch-2.11.0-4.1",
            "openSUSE Tumbleweed:finch-devel-2.11.0-4.1",
            "openSUSE Tumbleweed:libpurple-2.11.0-4.1",
            "openSUSE Tumbleweed:libpurple-branding-upstream-2.11.0-4.1",
            "openSUSE Tumbleweed:libpurple-devel-2.11.0-4.1",
            "openSUSE Tumbleweed:libpurple-lang-2.11.0-4.1",
            "openSUSE Tumbleweed:libpurple-plugin-sametime-2.11.0-4.1",
            "openSUSE Tumbleweed:libpurple-tcl-2.11.0-4.1",
            "openSUSE Tumbleweed:pidgin-2.11.0-4.1",
            "openSUSE Tumbleweed:pidgin-devel-2.11.0-4.1"
          ]
        }
      ],
      "CVSSScoreSets": {}
    },
    {
      "CVE": "CVE-2014-3696",
      "Description": "nmevent.c in the Novell GroupWise protocol plugin in libpurple in Pidgin before 2.10.10 allows remote servers to cause a denial of service (application crash) via a crafted server message that triggers a large memory allocation.",
      "Threats": [
        {
          "Type": "Impact",
          "Severity": "moderate"
        }
      ],
      "References": [
        {
          "URL": "https://www.suse.com/security/cve/CVE-2014-3696.html",
          "Description": "CVE-2014-3696"
        },
        {
          "URL": "https://bugzilla.suse.com/902410",
          "Description": "SUSE Bug 902410"
        }
      ],
      "ProductStatuses": [
        {
          "Type": "Fixed",
          "ProductID": [
            "openSUSE Tumbleweed:finch-2.11.0-4.1",
            "openSUSE Tumbleweed:finch-devel-2.11.0-4.1",
            "openSUSE Tumbleweed:libpurple-2.11.0-4.1",
            "openSUSE Tumbleweed:libpurple-branding-upstream-2.11.0-4.1",
            "openSUSE Tumbleweed:libpurple-devel-2.11.0-4.1",
            "openSUSE Tumbleweed:libpurple-lang-2.11.0-4.1",
            "openSUSE Tumbleweed:libpurple-plugin-sametime-2.11.0-4.1",
            "openSUSE Tumbleweed:libpurple-tcl-2.11.0-4.1",
            "openSUSE Tumbleweed:pidgin-2.11.0-4.1",
            "openSUSE Tumbleweed:pidgin-devel-2.11.0-4.1"
          ]
        }
      ],
      "CVSSScoreSets": {}
    },
    {
      "CVE": "CVE-2014-3697",
      "Description": "Absolute path traversal vulnerability in the untar_block function in win32/untar.c in Pidgin before 2.10.10 on Windows allows remote attackers to write to arbitrary files via a drive name in a tar archive of a smiley theme.",
      "Threats": [
        {
          "Type": "Impact",
          "Severity": "moderate"
        }
      ],
      "References": [
        {
          "URL": "https://www.suse.com/security/cve/CVE-2014-3697.html",
          "Description": "CVE-2014-3697"
        }
      ],
      "ProductStatuses": [
        {
          "Type": "Fixed",
          "ProductID": [
            "openSUSE Tumbleweed:finch-2.11.0-4.1",
            "openSUSE Tumbleweed:finch-devel-2.11.0-4.1",
            "openSUSE Tumbleweed:libpurple-2.11.0-4.1",
            "openSUSE Tumbleweed:libpurple-branding-upstream-2.11.0-4.1",
            "openSUSE Tumbleweed:libpurple-devel-2.11.0-4.1",
            "openSUSE Tumbleweed:libpurple-lang-2.11.0-4.1",
            "openSUSE Tumbleweed:libpurple-plugin-sametime-2.11.0-4.1",
            "openSUSE Tumbleweed:libpurple-tcl-2.11.0-4.1",
            "openSUSE Tumbleweed:pidgin-2.11.0-4.1",
            "openSUSE Tumbleweed:pidgin-devel-2.11.0-4.1"
          ]
        }
      ],
      "CVSSScoreSets": {}
    },
    {
      "CVE": "CVE-2014-3698",
      "Description": "The jabber_idn_validate function in jutil.c in the Jabber protocol plugin in libpurple in Pidgin before 2.10.10 allows remote attackers to obtain sensitive information from process memory via a crafted XMPP message.",
      "Threats": [
        {
          "Type": "Impact",
          "Severity": "moderate"
        }
      ],
      "References": [
        {
          "URL": "https://www.suse.com/security/cve/CVE-2014-3698.html",
          "Description": "CVE-2014-3698"
        },
        {
          "URL": "https://bugzilla.suse.com/902408",
          "Description": "SUSE Bug 902408"
        }
      ],
      "ProductStatuses": [
        {
          "Type": "Fixed",
          "ProductID": [
            "openSUSE Tumbleweed:finch-2.11.0-4.1",
            "openSUSE Tumbleweed:finch-devel-2.11.0-4.1",
            "openSUSE Tumbleweed:libpurple-2.11.0-4.1",
            "openSUSE Tumbleweed:libpurple-branding-upstream-2.11.0-4.1",
            "openSUSE Tumbleweed:libpurple-devel-2.11.0-4.1",
            "openSUSE Tumbleweed:libpurple-lang-2.11.0-4.1",
            "openSUSE Tumbleweed:libpurple-plugin-sametime-2.11.0-4.1",
            "openSUSE Tumbleweed:libpurple-tcl-2.11.0-4.1",
            "openSUSE Tumbleweed:pidgin-2.11.0-4.1",
            "openSUSE Tumbleweed:pidgin-devel-2.11.0-4.1"
          ]
        }
      ],
      "CVSSScoreSets": {}
    }
  ]
}