{
  "Title": "frr-8.4-6.1 on GA media",
  "Tracking": {
    "ID": "openSUSE-SU-2024:13238-1",
    "Status": "Final",
    "Version": "1",
    "InitialReleaseDate": "2024-06-20T21:44:22Z",
    "CurrentReleaseDate": "2024-06-20T21:44:22Z",
    "RevisionHistory": [
      {
        "Number": "1",
        "Date": "2024-06-20T21:44:22Z",
        "Description": "current"
      }
    ]
  },
  "Notes": [
    {
      "Text": "frr-8.4-6.1 on GA media",
      "Title": "Topic",
      "Type": "Summary"
    },
    {
      "Text": "These are all security issues fixed in the frr-8.4-6.1 package on the GA media of openSUSE Tumbleweed.",
      "Title": "Details",
      "Type": "General"
    },
    {
      "Text": "The CVRF data is provided by SUSE under the Creative Commons License 4.0 with Attribution (CC-BY-4.0).",
      "Title": "Terms of Use",
      "Type": "Legal Disclaimer"
    },
    {
      "Text": "openSUSE-Tumbleweed-2024-13238",
      "Title": "Patchnames",
      "Type": "Details"
    }
  ],
  "ProductTree": {
    "Relationships": [
      {
        "ProductReference": "frr-8.4-6.1",
        "RelatesToProductReference": "openSUSE Tumbleweed",
        "RelationType": "Default Component Of"
      },
      {
        "ProductReference": "frr-devel-8.4-6.1",
        "RelatesToProductReference": "openSUSE Tumbleweed",
        "RelationType": "Default Component Of"
      },
      {
        "ProductReference": "libfrr0-8.4-6.1",
        "RelatesToProductReference": "openSUSE Tumbleweed",
        "RelationType": "Default Component Of"
      },
      {
        "ProductReference": "libfrr_pb0-8.4-6.1",
        "RelatesToProductReference": "openSUSE Tumbleweed",
        "RelationType": "Default Component Of"
      },
      {
        "ProductReference": "libfrrcares0-8.4-6.1",
        "RelatesToProductReference": "openSUSE Tumbleweed",
        "RelationType": "Default Component Of"
      },
      {
        "ProductReference": "libfrrfpm_pb0-8.4-6.1",
        "RelatesToProductReference": "openSUSE Tumbleweed",
        "RelationType": "Default Component Of"
      },
      {
        "ProductReference": "libfrrospfapiclient0-8.4-6.1",
        "RelatesToProductReference": "openSUSE Tumbleweed",
        "RelationType": "Default Component Of"
      },
      {
        "ProductReference": "libfrrsnmp0-8.4-6.1",
        "RelatesToProductReference": "openSUSE Tumbleweed",
        "RelationType": "Default Component Of"
      },
      {
        "ProductReference": "libfrrzmq0-8.4-6.1",
        "RelatesToProductReference": "openSUSE Tumbleweed",
        "RelationType": "Default Component Of"
      },
      {
        "ProductReference": "libmlag_pb0-8.4-6.1",
        "RelatesToProductReference": "openSUSE Tumbleweed",
        "RelationType": "Default Component Of"
      }
    ]
  },
  "References": [
    {
      "URL": "https://www.suse.com/support/security/rating/",
      "Description": "SUSE Security Ratings"
    },
    {
      "URL": "https://www.suse.com/security/cve/CVE-2023-41909/",
      "Description": "SUSE CVE CVE-2023-41909 page"
    }
  ],
  "Vulnerabilities": [
    {
      "CVE": "CVE-2023-41909",
      "Description": "An issue was discovered in FRRouting FRR through 9.0. bgp_nlri_parse_flowspec in bgpd/bgp_flowspec.c processes malformed requests with no attributes, leading to a NULL pointer dereference.",
      "Threats": [
        {
          "Type": "Impact",
          "Severity": "moderate"
        }
      ],
      "References": [
        {
          "URL": "https://www.suse.com/security/cve/CVE-2023-41909.html",
          "Description": "CVE-2023-41909"
        },
        {
          "URL": "https://bugzilla.suse.com/1215065",
          "Description": "SUSE Bug 1215065"
        }
      ],
      "ProductStatuses": [
        {
          "Type": "Fixed",
          "ProductID": [
            "openSUSE Tumbleweed:frr-8.4-6.1",
            "openSUSE Tumbleweed:frr-devel-8.4-6.1",
            "openSUSE Tumbleweed:libfrr0-8.4-6.1",
            "openSUSE Tumbleweed:libfrr_pb0-8.4-6.1",
            "openSUSE Tumbleweed:libfrrcares0-8.4-6.1",
            "openSUSE Tumbleweed:libfrrfpm_pb0-8.4-6.1",
            "openSUSE Tumbleweed:libfrrospfapiclient0-8.4-6.1",
            "openSUSE Tumbleweed:libfrrsnmp0-8.4-6.1",
            "openSUSE Tumbleweed:libfrrzmq0-8.4-6.1",
            "openSUSE Tumbleweed:libmlag_pb0-8.4-6.1"
          ]
        }
      ],
      "CVSSScoreSets": {}
    }
  ]
}