{
  "Title": "python310-MechanicalSoup-1.3.0-1.1 on GA media",
  "Tracking": {
    "ID": "openSUSE-SU-2024:13499-1",
    "Status": "Final",
    "Version": "1",
    "InitialReleaseDate": "2024-06-20T21:44:22Z",
    "CurrentReleaseDate": "2024-06-20T21:44:22Z",
    "RevisionHistory": [
      {
        "Number": "1",
        "Date": "2024-06-20T21:44:22Z",
        "Description": "current"
      }
    ]
  },
  "Notes": [
    {
      "Text": "python310-MechanicalSoup-1.3.0-1.1 on GA media",
      "Title": "Topic",
      "Type": "Summary"
    },
    {
      "Text": "These are all security issues fixed in the python310-MechanicalSoup-1.3.0-1.1 package on the GA media of openSUSE Tumbleweed.",
      "Title": "Details",
      "Type": "General"
    },
    {
      "Text": "The CVRF data is provided by SUSE under the Creative Commons License 4.0 with Attribution (CC-BY-4.0).",
      "Title": "Terms of Use",
      "Type": "Legal Disclaimer"
    },
    {
      "Text": "openSUSE-Tumbleweed-2024-13499",
      "Title": "Patchnames",
      "Type": "Details"
    }
  ],
  "ProductTree": {
    "Relationships": [
      {
        "ProductReference": "python310-MechanicalSoup-1.3.0-1.1",
        "RelatesToProductReference": "openSUSE Tumbleweed",
        "RelationType": "Default Component Of"
      },
      {
        "ProductReference": "python311-MechanicalSoup-1.3.0-1.1",
        "RelatesToProductReference": "openSUSE Tumbleweed",
        "RelationType": "Default Component Of"
      },
      {
        "ProductReference": "python39-MechanicalSoup-1.3.0-1.1",
        "RelatesToProductReference": "openSUSE Tumbleweed",
        "RelationType": "Default Component Of"
      }
    ]
  },
  "References": [
    {
      "URL": "https://www.suse.com/support/security/rating/",
      "Description": "SUSE Security Ratings"
    },
    {
      "URL": "https://www.suse.com/security/cve/CVE-2023-34457/",
      "Description": "SUSE CVE CVE-2023-34457 page"
    }
  ],
  "Vulnerabilities": [
    {
      "CVE": "CVE-2023-34457",
      "Description": "MechanicalSoup is a Python library for automating interaction with websites. Starting in version 0.2.0 and prior to version 1.3.0, a malicious web server can read arbitrary files on the client using a `\u003cinput type=\"file\" ...\u003e` inside HTML form. All users of MechanicalSoup's form submission are affected, unless they took very specific (and manual) steps to reset HTML form field values. Version 1.3.0 contains a patch for this issue.",
      "Threats": [
        {
          "Type": "Impact",
          "Severity": "moderate"
        }
      ],
      "References": [
        {
          "URL": "https://www.suse.com/security/cve/CVE-2023-34457.html",
          "Description": "CVE-2023-34457"
        },
        {
          "URL": "https://bugzilla.suse.com/1213006",
          "Description": "SUSE Bug 1213006"
        }
      ],
      "ProductStatuses": [
        {
          "Type": "Fixed",
          "ProductID": [
            "openSUSE Tumbleweed:python310-MechanicalSoup-1.3.0-1.1",
            "openSUSE Tumbleweed:python311-MechanicalSoup-1.3.0-1.1",
            "openSUSE Tumbleweed:python39-MechanicalSoup-1.3.0-1.1"
          ]
        }
      ],
      "CVSSScoreSets": {}
    }
  ]
}