{
  "Title": "ioquake3-1.36+git.20210720-1.2 on GA media",
  "Tracking": {
    "ID": "openSUSE-SU-2024:10863-1",
    "Status": "Final",
    "Version": "1",
    "InitialReleaseDate": "2024-06-22T21:44:56Z",
    "CurrentReleaseDate": "2024-06-22T21:44:56Z",
    "RevisionHistory": [
      {
        "Number": "1",
        "Date": "2024-06-22T21:44:56Z",
        "Description": "current"
      }
    ]
  },
  "Notes": [
    {
      "Text": "ioquake3-1.36+git.20210720-1.2 on GA media",
      "Title": "Topic",
      "Type": "Summary"
    },
    {
      "Text": "These are all security issues fixed in the ioquake3-1.36+git.20210720-1.2 package on the GA media of openSUSE Tumbleweed.",
      "Title": "Details",
      "Type": "General"
    },
    {
      "Text": "The CVRF data is provided by SUSE under the Creative Commons License 4.0 with Attribution (CC-BY-4.0).",
      "Title": "Terms of Use",
      "Type": "Legal Disclaimer"
    },
    {
      "Text": "openSUSE-Tumbleweed-2024-10863",
      "Title": "Patchnames",
      "Type": "Details"
    }
  ],
  "ProductTree": {
    "Relationships": [
      {
        "ProductReference": "ioquake3-1.36+git.20210720-1.2",
        "RelatesToProductReference": "openSUSE Tumbleweed",
        "RelationType": "Default Component Of"
      },
      {
        "ProductReference": "ioquake3-devel-1.36+git.20210720-1.2",
        "RelatesToProductReference": "openSUSE Tumbleweed",
        "RelationType": "Default Component Of"
      }
    ]
  },
  "References": [
    {
      "URL": "https://www.suse.com/support/security/rating/",
      "Description": "SUSE Security Ratings"
    },
    {
      "URL": "https://www.suse.com/security/cve/CVE-2006-2082/",
      "Description": "SUSE CVE CVE-2006-2082 page"
    },
    {
      "URL": "https://www.suse.com/security/cve/CVE-2006-2236/",
      "Description": "SUSE CVE CVE-2006-2236 page"
    }
  ],
  "Vulnerabilities": [
    {
      "CVE": "CVE-2006-2082",
      "Description": "Directory traversal vulnerability in Quake 3 engine, as used in products including Quake3 Arena, Return to Castle Wolfenstein, Wolfenstein: Enemy Territory, and Star Trek Voyager: Elite Force, when the sv_allowdownload cvar is enabled, allows remote attackers to read arbitrary files from the server via \"..\" sequences in a .pk3 file request.",
      "Threats": [
        {
          "Type": "Impact",
          "Severity": "moderate"
        }
      ],
      "References": [
        {
          "URL": "https://www.suse.com/security/cve/CVE-2006-2082.html",
          "Description": "CVE-2006-2082"
        }
      ],
      "ProductStatuses": [
        {
          "Type": "Fixed",
          "ProductID": [
            "openSUSE Tumbleweed:ioquake3-1.36+git.20210720-1.2",
            "openSUSE Tumbleweed:ioquake3-devel-1.36+git.20210720-1.2"
          ]
        }
      ],
      "CVSSScoreSets": {}
    },
    {
      "CVE": "CVE-2006-2236",
      "Description": "Buffer overflow in the Quake 3 Engine, as used by (1) ET 2.60, (2) Return to Castle Wolfenstein 1.41, and (3) Quake III Arena 1.32b allows remote attackers to execute arbitrary commands via a long remapShader command.",
      "Threats": [
        {
          "Type": "Impact",
          "Severity": "moderate"
        }
      ],
      "References": [
        {
          "URL": "https://www.suse.com/security/cve/CVE-2006-2236.html",
          "Description": "CVE-2006-2236"
        }
      ],
      "ProductStatuses": [
        {
          "Type": "Fixed",
          "ProductID": [
            "openSUSE Tumbleweed:ioquake3-1.36+git.20210720-1.2",
            "openSUSE Tumbleweed:ioquake3-devel-1.36+git.20210720-1.2"
          ]
        }
      ],
      "CVSSScoreSets": {}
    }
  ]
}