{
  "Title": "runc-1.1.2-1.1 on GA media",
  "Tracking": {
    "ID": "openSUSE-SU-2024:12074-1",
    "Status": "Final",
    "Version": "1",
    "InitialReleaseDate": "2024-06-20T21:44:22Z",
    "CurrentReleaseDate": "2024-06-20T21:44:22Z",
    "RevisionHistory": [
      {
        "Number": "1",
        "Date": "2024-06-20T21:44:22Z",
        "Description": "current"
      }
    ]
  },
  "Notes": [
    {
      "Text": "runc-1.1.2-1.1 on GA media",
      "Title": "Topic",
      "Type": "Summary"
    },
    {
      "Text": "These are all security issues fixed in the runc-1.1.2-1.1 package on the GA media of openSUSE Tumbleweed.",
      "Title": "Details",
      "Type": "General"
    },
    {
      "Text": "The CVRF data is provided by SUSE under the Creative Commons License 4.0 with Attribution (CC-BY-4.0).",
      "Title": "Terms of Use",
      "Type": "Legal Disclaimer"
    },
    {
      "Text": "openSUSE-Tumbleweed-2024-12074",
      "Title": "Patchnames",
      "Type": "Details"
    }
  ],
  "ProductTree": {
    "Relationships": [
      {
        "ProductReference": "runc-1.1.2-1.1",
        "RelatesToProductReference": "openSUSE Tumbleweed",
        "RelationType": "Default Component Of"
      }
    ]
  },
  "References": [
    {
      "URL": "https://www.suse.com/support/security/rating/",
      "Description": "SUSE Security Ratings"
    },
    {
      "URL": "https://www.suse.com/security/cve/CVE-2022-24769/",
      "Description": "SUSE CVE CVE-2022-24769 page"
    },
    {
      "URL": "https://www.suse.com/security/cve/CVE-2022-29162/",
      "Description": "SUSE CVE CVE-2022-29162 page"
    }
  ],
  "Vulnerabilities": [
    {
      "CVE": "CVE-2022-24769",
      "Description": "Moby is an open-source project created by Docker to enable and accelerate software containerization. A bug was found in Moby (Docker Engine) prior to version 20.10.14 where containers were incorrectly started with non-empty inheritable Linux process capabilities, creating an atypical Linux environment and enabling programs with inheritable file capabilities to elevate those capabilities to the permitted set during `execve(2)`. Normally, when executable programs have specified permitted file capabilities, otherwise unprivileged users and processes can execute those programs and gain the specified file capabilities up to the bounding set. Due to this bug, containers which included executable programs with inheritable file capabilities allowed otherwise unprivileged users and processes to additionally gain these inheritable file capabilities up to the container's bounding set. Containers which use Linux users and groups to perform privilege separation inside the container are most directly impacted. This bug did not affect the container security sandbox as the inheritable set never contained more capabilities than were included in the container's bounding set. This bug has been fixed in Moby (Docker Engine) 20.10.14. Running containers should be stopped, deleted, and recreated for the inheritable capabilities to be reset. This fix changes Moby (Docker Engine) behavior such that containers are started with a more typical Linux environment. As a workaround, the entry point of a container can be modified to use a utility like `capsh(1)` to drop inheritable capabilities prior to the primary process starting.",
      "Threats": [
        {
          "Type": "Impact",
          "Severity": "moderate"
        }
      ],
      "References": [
        {
          "URL": "https://www.suse.com/security/cve/CVE-2022-24769.html",
          "Description": "CVE-2022-24769"
        },
        {
          "URL": "https://bugzilla.suse.com/1197517",
          "Description": "SUSE Bug 1197517"
        }
      ],
      "ProductStatuses": [
        {
          "Type": "Fixed",
          "ProductID": [
            "openSUSE Tumbleweed:runc-1.1.2-1.1"
          ]
        }
      ],
      "CVSSScoreSets": {}
    },
    {
      "CVE": "CVE-2022-29162",
      "Description": "runc is a CLI tool for spawning and running containers on Linux according to the OCI specification. A bug was found in runc prior to version 1.1.2 where `runc exec --cap` created processes with non-empty inheritable Linux process capabilities, creating an atypical Linux environment and enabling programs with inheritable file capabilities to elevate those capabilities to the permitted set during execve(2). This bug did not affect the container security sandbox as the inheritable set never contained more capabilities than were included in the container's bounding set. This bug has been fixed in runc 1.1.2. This fix changes `runc exec --cap` behavior such that the additional capabilities granted to the process being executed (as specified via `--cap` arguments) do not include inheritable capabilities. In addition, `runc spec` is changed to not set any inheritable capabilities in the created example OCI spec (`config.json`) file.",
      "Threats": [
        {
          "Type": "Impact",
          "Severity": "moderate"
        }
      ],
      "References": [
        {
          "URL": "https://www.suse.com/security/cve/CVE-2022-29162.html",
          "Description": "CVE-2022-29162"
        },
        {
          "URL": "https://bugzilla.suse.com/1199460",
          "Description": "SUSE Bug 1199460"
        }
      ],
      "ProductStatuses": [
        {
          "Type": "Fixed",
          "ProductID": [
            "openSUSE Tumbleweed:runc-1.1.2-1.1"
          ]
        }
      ],
      "CVSSScoreSets": {}
    }
  ]
}