{
  "Title": "libXvMC-devel-1.0.10-1.1 on GA media",
  "Tracking": {
    "ID": "openSUSE-SU-2024:10255-1",
    "Status": "Final",
    "Version": "1",
    "InitialReleaseDate": "2024-06-22T21:44:56Z",
    "CurrentReleaseDate": "2024-06-22T21:44:56Z",
    "RevisionHistory": [
      {
        "Number": "1",
        "Date": "2024-06-22T21:44:56Z",
        "Description": "current"
      }
    ]
  },
  "Notes": [
    {
      "Text": "libXvMC-devel-1.0.10-1.1 on GA media",
      "Title": "Topic",
      "Type": "Summary"
    },
    {
      "Text": "These are all security issues fixed in the libXvMC-devel-1.0.10-1.1 package on the GA media of openSUSE Tumbleweed.",
      "Title": "Details",
      "Type": "General"
    },
    {
      "Text": "The CVRF data is provided by SUSE under the Creative Commons License 4.0 with Attribution (CC-BY-4.0).",
      "Title": "Terms of Use",
      "Type": "Legal Disclaimer"
    },
    {
      "Text": "openSUSE-Tumbleweed-2024-10255",
      "Title": "Patchnames",
      "Type": "Details"
    }
  ],
  "ProductTree": {
    "Relationships": [
      {
        "ProductReference": "libXvMC-devel-1.0.10-1.1",
        "RelatesToProductReference": "openSUSE Tumbleweed",
        "RelationType": "Default Component Of"
      },
      {
        "ProductReference": "libXvMC-devel-32bit-1.0.10-1.1",
        "RelatesToProductReference": "openSUSE Tumbleweed",
        "RelationType": "Default Component Of"
      },
      {
        "ProductReference": "libXvMC1-1.0.10-1.1",
        "RelatesToProductReference": "openSUSE Tumbleweed",
        "RelationType": "Default Component Of"
      },
      {
        "ProductReference": "libXvMC1-32bit-1.0.10-1.1",
        "RelatesToProductReference": "openSUSE Tumbleweed",
        "RelationType": "Default Component Of"
      }
    ]
  },
  "References": [
    {
      "URL": "https://www.suse.com/support/security/rating/",
      "Description": "SUSE Security Ratings"
    },
    {
      "URL": "https://www.suse.com/security/cve/CVE-2013-1990/",
      "Description": "SUSE CVE CVE-2013-1990 page"
    },
    {
      "URL": "https://www.suse.com/security/cve/CVE-2013-1999/",
      "Description": "SUSE CVE CVE-2013-1999 page"
    }
  ],
  "Vulnerabilities": [
    {
      "CVE": "CVE-2013-1990",
      "Description": "Multiple integer overflows in X.org libXvMC 1.0.7 and earlier allow X servers to trigger allocation of insufficient memory and a buffer overflow via vectors related to the (1) XvMCListSurfaceTypes and (2) XvMCListSubpictureTypes functions.",
      "Threats": [
        {
          "Type": "Impact",
          "Severity": "moderate"
        }
      ],
      "References": [
        {
          "URL": "https://www.suse.com/security/cve/CVE-2013-1990.html",
          "Description": "CVE-2013-1990"
        },
        {
          "URL": "https://bugzilla.suse.com/815451",
          "Description": "SUSE Bug 815451"
        },
        {
          "URL": "https://bugzilla.suse.com/821663",
          "Description": "SUSE Bug 821663"
        }
      ],
      "ProductStatuses": [
        {
          "Type": "Fixed",
          "ProductID": [
            "openSUSE Tumbleweed:libXvMC-devel-1.0.10-1.1",
            "openSUSE Tumbleweed:libXvMC-devel-32bit-1.0.10-1.1",
            "openSUSE Tumbleweed:libXvMC1-1.0.10-1.1",
            "openSUSE Tumbleweed:libXvMC1-32bit-1.0.10-1.1"
          ]
        }
      ],
      "CVSSScoreSets": {}
    },
    {
      "CVE": "CVE-2013-1999",
      "Description": "Buffer overflow in X.org libXvMC 1.0.7 and earlier allows X servers to cause a denial of service (crash) and possibly execute arbitrary code via crafted length or index values to the XvMCGetDRInfo function.",
      "Threats": [
        {
          "Type": "Impact",
          "Severity": "moderate"
        }
      ],
      "References": [
        {
          "URL": "https://www.suse.com/security/cve/CVE-2013-1999.html",
          "Description": "CVE-2013-1999"
        },
        {
          "URL": "https://bugzilla.suse.com/815451",
          "Description": "SUSE Bug 815451"
        },
        {
          "URL": "https://bugzilla.suse.com/821663",
          "Description": "SUSE Bug 821663"
        }
      ],
      "ProductStatuses": [
        {
          "Type": "Fixed",
          "ProductID": [
            "openSUSE Tumbleweed:libXvMC-devel-1.0.10-1.1",
            "openSUSE Tumbleweed:libXvMC-devel-32bit-1.0.10-1.1",
            "openSUSE Tumbleweed:libXvMC1-1.0.10-1.1",
            "openSUSE Tumbleweed:libXvMC1-32bit-1.0.10-1.1"
          ]
        }
      ],
      "CVSSScoreSets": {}
    }
  ]
}