{
  "Title": "hivex-1.3.21-2.2 on GA media",
  "Tracking": {
    "ID": "openSUSE-SU-2024:10845-1",
    "Status": "Final",
    "Version": "1",
    "InitialReleaseDate": "2024-06-22T21:44:56Z",
    "CurrentReleaseDate": "2024-06-22T21:44:56Z",
    "RevisionHistory": [
      {
        "Number": "1",
        "Date": "2024-06-22T21:44:56Z",
        "Description": "current"
      }
    ]
  },
  "Notes": [
    {
      "Text": "hivex-1.3.21-2.2 on GA media",
      "Title": "Topic",
      "Type": "Summary"
    },
    {
      "Text": "These are all security issues fixed in the hivex-1.3.21-2.2 package on the GA media of openSUSE Tumbleweed.",
      "Title": "Details",
      "Type": "General"
    },
    {
      "Text": "The CVRF data is provided by SUSE under the Creative Commons License 4.0 with Attribution (CC-BY-4.0).",
      "Title": "Terms of Use",
      "Type": "Legal Disclaimer"
    },
    {
      "Text": "openSUSE-Tumbleweed-2024-10845",
      "Title": "Patchnames",
      "Type": "Details"
    }
  ],
  "ProductTree": {
    "Relationships": [
      {
        "ProductReference": "hivex-1.3.21-2.2",
        "RelatesToProductReference": "openSUSE Tumbleweed",
        "RelationType": "Default Component Of"
      },
      {
        "ProductReference": "hivex-devel-1.3.21-2.2",
        "RelatesToProductReference": "openSUSE Tumbleweed",
        "RelationType": "Default Component Of"
      },
      {
        "ProductReference": "hivex-lang-1.3.21-2.2",
        "RelatesToProductReference": "openSUSE Tumbleweed",
        "RelationType": "Default Component Of"
      },
      {
        "ProductReference": "libhivex0-1.3.21-2.2",
        "RelatesToProductReference": "openSUSE Tumbleweed",
        "RelationType": "Default Component Of"
      },
      {
        "ProductReference": "ocaml-hivex-1.3.21-2.2",
        "RelatesToProductReference": "openSUSE Tumbleweed",
        "RelationType": "Default Component Of"
      },
      {
        "ProductReference": "ocaml-hivex-devel-1.3.21-2.2",
        "RelatesToProductReference": "openSUSE Tumbleweed",
        "RelationType": "Default Component Of"
      },
      {
        "ProductReference": "perl-Win-Hivex-1.3.21-2.2",
        "RelatesToProductReference": "openSUSE Tumbleweed",
        "RelationType": "Default Component Of"
      },
      {
        "ProductReference": "python3-hivex-1.3.21-2.2",
        "RelatesToProductReference": "openSUSE Tumbleweed",
        "RelationType": "Default Component Of"
      }
    ]
  },
  "References": [
    {
      "URL": "https://www.suse.com/support/security/rating/",
      "Description": "SUSE Security Ratings"
    },
    {
      "URL": "https://www.suse.com/security/cve/CVE-2021-3504/",
      "Description": "SUSE CVE CVE-2021-3504 page"
    },
    {
      "URL": "https://www.suse.com/security/cve/CVE-2021-3622/",
      "Description": "SUSE CVE CVE-2021-3622 page"
    }
  ],
  "Vulnerabilities": [
    {
      "CVE": "CVE-2021-3504",
      "Description": "A flaw was found in the hivex library in versions before 1.3.20. It is caused due to a lack of bounds check within the hivex_open function. An attacker could input a specially crafted Windows Registry (hive) file which would cause hivex to read memory beyond its normal bounds or cause the program to crash. The highest threat from this vulnerability is to system availability.",
      "Threats": [
        {
          "Type": "Impact",
          "Severity": "moderate"
        }
      ],
      "References": [
        {
          "URL": "https://www.suse.com/security/cve/CVE-2021-3504.html",
          "Description": "CVE-2021-3504"
        },
        {
          "URL": "https://bugzilla.suse.com/1185013",
          "Description": "SUSE Bug 1185013"
        }
      ],
      "ProductStatuses": [
        {
          "Type": "Fixed",
          "ProductID": [
            "openSUSE Tumbleweed:hivex-1.3.21-2.2",
            "openSUSE Tumbleweed:hivex-devel-1.3.21-2.2",
            "openSUSE Tumbleweed:hivex-lang-1.3.21-2.2",
            "openSUSE Tumbleweed:libhivex0-1.3.21-2.2",
            "openSUSE Tumbleweed:ocaml-hivex-1.3.21-2.2",
            "openSUSE Tumbleweed:ocaml-hivex-devel-1.3.21-2.2",
            "openSUSE Tumbleweed:perl-Win-Hivex-1.3.21-2.2",
            "openSUSE Tumbleweed:python3-hivex-1.3.21-2.2"
          ]
        }
      ],
      "CVSSScoreSets": {}
    },
    {
      "CVE": "CVE-2021-3622",
      "Description": "A flaw was found in the hivex library. This flaw allows an attacker to input a specially crafted Windows Registry (hive) file, which would cause hivex to recursively call the _get_children() function, leading to a stack overflow. The highest threat from this vulnerability is to system availability.",
      "Threats": [
        {
          "Type": "Impact",
          "Severity": "moderate"
        }
      ],
      "References": [
        {
          "URL": "https://www.suse.com/security/cve/CVE-2021-3622.html",
          "Description": "CVE-2021-3622"
        },
        {
          "URL": "https://bugzilla.suse.com/1189060",
          "Description": "SUSE Bug 1189060"
        }
      ],
      "ProductStatuses": [
        {
          "Type": "Fixed",
          "ProductID": [
            "openSUSE Tumbleweed:hivex-1.3.21-2.2",
            "openSUSE Tumbleweed:hivex-devel-1.3.21-2.2",
            "openSUSE Tumbleweed:hivex-lang-1.3.21-2.2",
            "openSUSE Tumbleweed:libhivex0-1.3.21-2.2",
            "openSUSE Tumbleweed:ocaml-hivex-1.3.21-2.2",
            "openSUSE Tumbleweed:ocaml-hivex-devel-1.3.21-2.2",
            "openSUSE Tumbleweed:perl-Win-Hivex-1.3.21-2.2",
            "openSUSE Tumbleweed:python3-hivex-1.3.21-2.2"
          ]
        }
      ],
      "CVSSScoreSets": {}
    }
  ]
}