{
  "Title": "finch-2.14.9-1.1 on GA media",
  "Tracking": {
    "ID": "openSUSE-SU-2024:12036-1",
    "Status": "Final",
    "Version": "1",
    "InitialReleaseDate": "2024-06-20T21:44:22Z",
    "CurrentReleaseDate": "2024-06-20T21:44:22Z",
    "RevisionHistory": [
      {
        "Number": "1",
        "Date": "2024-06-20T21:44:22Z",
        "Description": "current"
      }
    ]
  },
  "Notes": [
    {
      "Text": "finch-2.14.9-1.1 on GA media",
      "Title": "Topic",
      "Type": "Summary"
    },
    {
      "Text": "These are all security issues fixed in the finch-2.14.9-1.1 package on the GA media of openSUSE Tumbleweed.",
      "Title": "Details",
      "Type": "General"
    },
    {
      "Text": "The CVRF data is provided by SUSE under the Creative Commons License 4.0 with Attribution (CC-BY-4.0).",
      "Title": "Terms of Use",
      "Type": "Legal Disclaimer"
    },
    {
      "Text": "openSUSE-Tumbleweed-2024-12036",
      "Title": "Patchnames",
      "Type": "Details"
    }
  ],
  "ProductTree": {
    "Relationships": [
      {
        "ProductReference": "finch-2.14.9-1.1",
        "RelatesToProductReference": "openSUSE Tumbleweed",
        "RelationType": "Default Component Of"
      },
      {
        "ProductReference": "finch-devel-2.14.9-1.1",
        "RelatesToProductReference": "openSUSE Tumbleweed",
        "RelationType": "Default Component Of"
      },
      {
        "ProductReference": "libpurple-2.14.9-1.1",
        "RelatesToProductReference": "openSUSE Tumbleweed",
        "RelationType": "Default Component Of"
      },
      {
        "ProductReference": "libpurple-branding-upstream-2.14.9-1.1",
        "RelatesToProductReference": "openSUSE Tumbleweed",
        "RelationType": "Default Component Of"
      },
      {
        "ProductReference": "libpurple-client0-2.14.9-1.1",
        "RelatesToProductReference": "openSUSE Tumbleweed",
        "RelationType": "Default Component Of"
      },
      {
        "ProductReference": "libpurple-devel-2.14.9-1.1",
        "RelatesToProductReference": "openSUSE Tumbleweed",
        "RelationType": "Default Component Of"
      },
      {
        "ProductReference": "libpurple-lang-2.14.9-1.1",
        "RelatesToProductReference": "openSUSE Tumbleweed",
        "RelationType": "Default Component Of"
      },
      {
        "ProductReference": "libpurple-plugin-sametime-2.14.9-1.1",
        "RelatesToProductReference": "openSUSE Tumbleweed",
        "RelationType": "Default Component Of"
      },
      {
        "ProductReference": "libpurple-tcl-2.14.9-1.1",
        "RelatesToProductReference": "openSUSE Tumbleweed",
        "RelationType": "Default Component Of"
      },
      {
        "ProductReference": "libpurple0-2.14.9-1.1",
        "RelatesToProductReference": "openSUSE Tumbleweed",
        "RelationType": "Default Component Of"
      },
      {
        "ProductReference": "pidgin-2.14.9-1.1",
        "RelatesToProductReference": "openSUSE Tumbleweed",
        "RelationType": "Default Component Of"
      },
      {
        "ProductReference": "pidgin-devel-2.14.9-1.1",
        "RelatesToProductReference": "openSUSE Tumbleweed",
        "RelationType": "Default Component Of"
      }
    ]
  },
  "References": [
    {
      "URL": "https://www.suse.com/support/security/rating/",
      "Description": "SUSE Security Ratings"
    },
    {
      "URL": "https://www.suse.com/security/cve/CVE-2022-26491/",
      "Description": "SUSE CVE CVE-2022-26491 page"
    }
  ],
  "Vulnerabilities": [
    {
      "CVE": "CVE-2022-26491",
      "Description": "An issue was discovered in Pidgin before 2.14.9. A remote attacker who can spoof DNS responses can redirect a client connection to a malicious server. The client will perform TLS certificate verification of the malicious domain name instead of the original XMPP service domain, allowing the attacker to take over control over the XMPP connection and to obtain user credentials and all communication content. This is similar to CVE-2022-24968.",
      "Threats": [
        {
          "Type": "Impact",
          "Severity": "moderate"
        }
      ],
      "References": [
        {
          "URL": "https://www.suse.com/security/cve/CVE-2022-26491.html",
          "Description": "CVE-2022-26491"
        },
        {
          "URL": "https://bugzilla.suse.com/1199025",
          "Description": "SUSE Bug 1199025"
        }
      ],
      "ProductStatuses": [
        {
          "Type": "Fixed",
          "ProductID": [
            "openSUSE Tumbleweed:finch-2.14.9-1.1",
            "openSUSE Tumbleweed:finch-devel-2.14.9-1.1",
            "openSUSE Tumbleweed:libpurple-2.14.9-1.1",
            "openSUSE Tumbleweed:libpurple-branding-upstream-2.14.9-1.1",
            "openSUSE Tumbleweed:libpurple-client0-2.14.9-1.1",
            "openSUSE Tumbleweed:libpurple-devel-2.14.9-1.1",
            "openSUSE Tumbleweed:libpurple-lang-2.14.9-1.1",
            "openSUSE Tumbleweed:libpurple-plugin-sametime-2.14.9-1.1",
            "openSUSE Tumbleweed:libpurple-tcl-2.14.9-1.1",
            "openSUSE Tumbleweed:libpurple0-2.14.9-1.1",
            "openSUSE Tumbleweed:pidgin-2.14.9-1.1",
            "openSUSE Tumbleweed:pidgin-devel-2.14.9-1.1"
          ]
        }
      ],
      "CVSSScoreSets": {}
    }
  ]
}