{
  "Title": "bluez-5.68-2.1 on GA media",
  "Tracking": {
    "ID": "openSUSE-SU-2024:13128-1",
    "Status": "Final",
    "Version": "1",
    "InitialReleaseDate": "2024-06-20T21:44:22Z",
    "CurrentReleaseDate": "2024-06-20T21:44:22Z",
    "RevisionHistory": [
      {
        "Number": "1",
        "Date": "2024-06-20T21:44:22Z",
        "Description": "current"
      }
    ]
  },
  "Notes": [
    {
      "Text": "bluez-5.68-2.1 on GA media",
      "Title": "Topic",
      "Type": "Summary"
    },
    {
      "Text": "These are all security issues fixed in the bluez-5.68-2.1 package on the GA media of openSUSE Tumbleweed.",
      "Title": "Details",
      "Type": "General"
    },
    {
      "Text": "The CVRF data is provided by SUSE under the Creative Commons License 4.0 with Attribution (CC-BY-4.0).",
      "Title": "Terms of Use",
      "Type": "Legal Disclaimer"
    },
    {
      "Text": "openSUSE-Tumbleweed-2024-13128",
      "Title": "Patchnames",
      "Type": "Details"
    }
  ],
  "ProductTree": {
    "Relationships": [
      {
        "ProductReference": "bluez-5.68-2.1",
        "RelatesToProductReference": "openSUSE Tumbleweed",
        "RelationType": "Default Component Of"
      },
      {
        "ProductReference": "bluez-auto-enable-devices-5.68-2.1",
        "RelatesToProductReference": "openSUSE Tumbleweed",
        "RelationType": "Default Component Of"
      },
      {
        "ProductReference": "bluez-cups-5.68-2.1",
        "RelatesToProductReference": "openSUSE Tumbleweed",
        "RelationType": "Default Component Of"
      },
      {
        "ProductReference": "bluez-deprecated-5.68-2.1",
        "RelatesToProductReference": "openSUSE Tumbleweed",
        "RelationType": "Default Component Of"
      },
      {
        "ProductReference": "bluez-devel-5.68-2.1",
        "RelatesToProductReference": "openSUSE Tumbleweed",
        "RelationType": "Default Component Of"
      },
      {
        "ProductReference": "bluez-devel-32bit-5.68-2.1",
        "RelatesToProductReference": "openSUSE Tumbleweed",
        "RelationType": "Default Component Of"
      },
      {
        "ProductReference": "bluez-obexd-5.68-2.1",
        "RelatesToProductReference": "openSUSE Tumbleweed",
        "RelationType": "Default Component Of"
      },
      {
        "ProductReference": "bluez-test-5.68-2.1",
        "RelatesToProductReference": "openSUSE Tumbleweed",
        "RelationType": "Default Component Of"
      },
      {
        "ProductReference": "bluez-zsh-completion-5.68-2.1",
        "RelatesToProductReference": "openSUSE Tumbleweed",
        "RelationType": "Default Component Of"
      },
      {
        "ProductReference": "libbluetooth3-5.68-2.1",
        "RelatesToProductReference": "openSUSE Tumbleweed",
        "RelationType": "Default Component Of"
      },
      {
        "ProductReference": "libbluetooth3-32bit-5.68-2.1",
        "RelatesToProductReference": "openSUSE Tumbleweed",
        "RelationType": "Default Component Of"
      }
    ]
  },
  "References": [
    {
      "URL": "https://www.suse.com/support/security/rating/",
      "Description": "SUSE Security Ratings"
    },
    {
      "URL": "https://www.suse.com/security/cve/CVE-2023-27349/",
      "Description": "SUSE CVE CVE-2023-27349 page"
    }
  ],
  "Vulnerabilities": [
    {
      "CVE": "CVE-2023-27349",
      "Description": "BlueZ Audio Profile AVRCP Improper Validation of Array Index Remote Code Execution Vulnerability. This vulnerability allows network-adjacent attackers to execute arbitrary code via Bluetooth on affected installations of BlueZ. User interaction is required to exploit this vulnerability in that the target must connect to a malicious device.\n\nThe specific flaw exists within the handling of the AVRCP protocol. The issue results from the lack of proper validation of user-supplied data, which can result in a write past the end of an allocated buffer. An attacker can leverage this vulnerability to execute code in the context of root. Was ZDI-CAN-19908.",
      "Threats": [
        {
          "Type": "Impact",
          "Severity": "moderate"
        }
      ],
      "References": [
        {
          "URL": "https://www.suse.com/security/cve/CVE-2023-27349.html",
          "Description": "CVE-2023-27349"
        },
        {
          "URL": "https://bugzilla.suse.com/1210398",
          "Description": "SUSE Bug 1210398"
        }
      ],
      "ProductStatuses": [
        {
          "Type": "Fixed",
          "ProductID": [
            "openSUSE Tumbleweed:bluez-5.68-2.1",
            "openSUSE Tumbleweed:bluez-auto-enable-devices-5.68-2.1",
            "openSUSE Tumbleweed:bluez-cups-5.68-2.1",
            "openSUSE Tumbleweed:bluez-deprecated-5.68-2.1",
            "openSUSE Tumbleweed:bluez-devel-32bit-5.68-2.1",
            "openSUSE Tumbleweed:bluez-devel-5.68-2.1",
            "openSUSE Tumbleweed:bluez-obexd-5.68-2.1",
            "openSUSE Tumbleweed:bluez-test-5.68-2.1",
            "openSUSE Tumbleweed:bluez-zsh-completion-5.68-2.1",
            "openSUSE Tumbleweed:libbluetooth3-32bit-5.68-2.1",
            "openSUSE Tumbleweed:libbluetooth3-5.68-2.1"
          ]
        }
      ],
      "CVSSScoreSets": {}
    }
  ]
}