{
  "Title": "bluez-5.65-2.1 on GA media",
  "Tracking": {
    "ID": "openSUSE-SU-2024:12348-1",
    "Status": "Final",
    "Version": "1",
    "InitialReleaseDate": "2024-06-20T21:44:22Z",
    "CurrentReleaseDate": "2024-06-20T21:44:22Z",
    "RevisionHistory": [
      {
        "Number": "1",
        "Date": "2024-06-20T21:44:22Z",
        "Description": "current"
      }
    ]
  },
  "Notes": [
    {
      "Text": "bluez-5.65-2.1 on GA media",
      "Title": "Topic",
      "Type": "Summary"
    },
    {
      "Text": "These are all security issues fixed in the bluez-5.65-2.1 package on the GA media of openSUSE Tumbleweed.",
      "Title": "Details",
      "Type": "General"
    },
    {
      "Text": "The CVRF data is provided by SUSE under the Creative Commons License 4.0 with Attribution (CC-BY-4.0).",
      "Title": "Terms of Use",
      "Type": "Legal Disclaimer"
    },
    {
      "Text": "openSUSE-Tumbleweed-2024-12348",
      "Title": "Patchnames",
      "Type": "Details"
    }
  ],
  "ProductTree": {
    "Relationships": [
      {
        "ProductReference": "bluez-5.65-2.1",
        "RelatesToProductReference": "openSUSE Tumbleweed",
        "RelationType": "Default Component Of"
      },
      {
        "ProductReference": "bluez-auto-enable-devices-5.65-2.1",
        "RelatesToProductReference": "openSUSE Tumbleweed",
        "RelationType": "Default Component Of"
      },
      {
        "ProductReference": "bluez-cups-5.65-2.1",
        "RelatesToProductReference": "openSUSE Tumbleweed",
        "RelationType": "Default Component Of"
      },
      {
        "ProductReference": "bluez-deprecated-5.65-2.1",
        "RelatesToProductReference": "openSUSE Tumbleweed",
        "RelationType": "Default Component Of"
      },
      {
        "ProductReference": "bluez-devel-5.65-2.1",
        "RelatesToProductReference": "openSUSE Tumbleweed",
        "RelationType": "Default Component Of"
      },
      {
        "ProductReference": "bluez-devel-32bit-5.65-2.1",
        "RelatesToProductReference": "openSUSE Tumbleweed",
        "RelationType": "Default Component Of"
      },
      {
        "ProductReference": "bluez-obexd-5.65-2.1",
        "RelatesToProductReference": "openSUSE Tumbleweed",
        "RelationType": "Default Component Of"
      },
      {
        "ProductReference": "bluez-test-5.65-2.1",
        "RelatesToProductReference": "openSUSE Tumbleweed",
        "RelationType": "Default Component Of"
      },
      {
        "ProductReference": "bluez-zsh-completion-5.65-2.1",
        "RelatesToProductReference": "openSUSE Tumbleweed",
        "RelationType": "Default Component Of"
      },
      {
        "ProductReference": "libbluetooth3-5.65-2.1",
        "RelatesToProductReference": "openSUSE Tumbleweed",
        "RelationType": "Default Component Of"
      },
      {
        "ProductReference": "libbluetooth3-32bit-5.65-2.1",
        "RelatesToProductReference": "openSUSE Tumbleweed",
        "RelationType": "Default Component Of"
      }
    ]
  },
  "References": [
    {
      "URL": "https://www.suse.com/support/security/rating/",
      "Description": "SUSE Security Ratings"
    },
    {
      "URL": "https://www.suse.com/security/cve/CVE-2016-9797/",
      "Description": "SUSE CVE CVE-2016-9797 page"
    },
    {
      "URL": "https://www.suse.com/security/cve/CVE-2016-9798/",
      "Description": "SUSE CVE CVE-2016-9798 page"
    },
    {
      "URL": "https://www.suse.com/security/cve/CVE-2016-9917/",
      "Description": "SUSE CVE CVE-2016-9917 page"
    }
  ],
  "Vulnerabilities": [
    {
      "CVE": "CVE-2016-9797",
      "Description": "In BlueZ 5.42, a buffer over-read was observed in \"l2cap_dump\" function in \"tools/parser/l2cap.c\" source file. This issue can be triggered by processing a corrupted dump file and will result in hcidump crash.",
      "Threats": [
        {
          "Type": "Impact",
          "Severity": "moderate"
        }
      ],
      "References": [
        {
          "URL": "https://www.suse.com/security/cve/CVE-2016-9797.html",
          "Description": "CVE-2016-9797"
        },
        {
          "URL": "https://bugzilla.suse.com/1013708",
          "Description": "SUSE Bug 1013708"
        },
        {
          "URL": "https://bugzilla.suse.com/1013712",
          "Description": "SUSE Bug 1013712"
        }
      ],
      "ProductStatuses": [
        {
          "Type": "Fixed",
          "ProductID": [
            "openSUSE Tumbleweed:bluez-5.65-2.1",
            "openSUSE Tumbleweed:bluez-auto-enable-devices-5.65-2.1",
            "openSUSE Tumbleweed:bluez-cups-5.65-2.1",
            "openSUSE Tumbleweed:bluez-deprecated-5.65-2.1",
            "openSUSE Tumbleweed:bluez-devel-32bit-5.65-2.1",
            "openSUSE Tumbleweed:bluez-devel-5.65-2.1",
            "openSUSE Tumbleweed:bluez-obexd-5.65-2.1",
            "openSUSE Tumbleweed:bluez-test-5.65-2.1",
            "openSUSE Tumbleweed:bluez-zsh-completion-5.65-2.1",
            "openSUSE Tumbleweed:libbluetooth3-32bit-5.65-2.1",
            "openSUSE Tumbleweed:libbluetooth3-5.65-2.1"
          ]
        }
      ],
      "CVSSScoreSets": {
        "BaseScore": "1.2",
        "Vector": "AV:L/AC:H/Au:N/C:N/I:N/A:P"
      }
    },
    {
      "CVE": "CVE-2016-9798",
      "Description": "In BlueZ 5.42, a use-after-free was identified in \"conf_opt\" function in \"tools/parser/l2cap.c\" source file. This issue can be triggered by processing a corrupted dump file and will result in hcidump crash.",
      "Threats": [
        {
          "Type": "Impact",
          "Severity": "moderate"
        }
      ],
      "References": [
        {
          "URL": "https://www.suse.com/security/cve/CVE-2016-9798.html",
          "Description": "CVE-2016-9798"
        },
        {
          "URL": "https://bugzilla.suse.com/1013708",
          "Description": "SUSE Bug 1013708"
        },
        {
          "URL": "https://bugzilla.suse.com/1013712",
          "Description": "SUSE Bug 1013712"
        },
        {
          "URL": "https://bugzilla.suse.com/1013732",
          "Description": "SUSE Bug 1013732"
        }
      ],
      "ProductStatuses": [
        {
          "Type": "Fixed",
          "ProductID": [
            "openSUSE Tumbleweed:bluez-5.65-2.1",
            "openSUSE Tumbleweed:bluez-auto-enable-devices-5.65-2.1",
            "openSUSE Tumbleweed:bluez-cups-5.65-2.1",
            "openSUSE Tumbleweed:bluez-deprecated-5.65-2.1",
            "openSUSE Tumbleweed:bluez-devel-32bit-5.65-2.1",
            "openSUSE Tumbleweed:bluez-devel-5.65-2.1",
            "openSUSE Tumbleweed:bluez-obexd-5.65-2.1",
            "openSUSE Tumbleweed:bluez-test-5.65-2.1",
            "openSUSE Tumbleweed:bluez-zsh-completion-5.65-2.1",
            "openSUSE Tumbleweed:libbluetooth3-32bit-5.65-2.1",
            "openSUSE Tumbleweed:libbluetooth3-5.65-2.1"
          ]
        }
      ],
      "CVSSScoreSets": {
        "BaseScore": "1.2",
        "Vector": "AV:L/AC:H/Au:N/C:N/I:N/A:P"
      }
    },
    {
      "CVE": "CVE-2016-9917",
      "Description": "In BlueZ 5.42, a buffer overflow was observed in \"read_n\" function in \"tools/hcidump.c\" source file. This issue can be triggered by processing a corrupted dump file and will result in hcidump crash.",
      "Threats": [
        {
          "Type": "Impact",
          "Severity": "moderate"
        }
      ],
      "References": [
        {
          "URL": "https://www.suse.com/security/cve/CVE-2016-9917.html",
          "Description": "CVE-2016-9917"
        },
        {
          "URL": "https://bugzilla.suse.com/1015171",
          "Description": "SUSE Bug 1015171"
        }
      ],
      "ProductStatuses": [
        {
          "Type": "Fixed",
          "ProductID": [
            "openSUSE Tumbleweed:bluez-5.65-2.1",
            "openSUSE Tumbleweed:bluez-auto-enable-devices-5.65-2.1",
            "openSUSE Tumbleweed:bluez-cups-5.65-2.1",
            "openSUSE Tumbleweed:bluez-deprecated-5.65-2.1",
            "openSUSE Tumbleweed:bluez-devel-32bit-5.65-2.1",
            "openSUSE Tumbleweed:bluez-devel-5.65-2.1",
            "openSUSE Tumbleweed:bluez-obexd-5.65-2.1",
            "openSUSE Tumbleweed:bluez-test-5.65-2.1",
            "openSUSE Tumbleweed:bluez-zsh-completion-5.65-2.1",
            "openSUSE Tumbleweed:libbluetooth3-32bit-5.65-2.1",
            "openSUSE Tumbleweed:libbluetooth3-5.65-2.1"
          ]
        }
      ],
      "CVSSScoreSets": {
        "BaseScore": "4.3",
        "Vector": "AV:A/AC:M/Au:N/C:N/I:P/A:P"
      }
    }
  ]
}