{
  "Title": "caddy-2.5.1-2.1 on GA media",
  "Tracking": {
    "ID": "openSUSE-SU-2024:12132-1",
    "Status": "Final",
    "Version": "1",
    "InitialReleaseDate": "2024-06-20T21:44:22Z",
    "CurrentReleaseDate": "2024-06-20T21:44:22Z",
    "RevisionHistory": [
      {
        "Number": "1",
        "Date": "2024-06-20T21:44:22Z",
        "Description": "current"
      }
    ]
  },
  "Notes": [
    {
      "Text": "caddy-2.5.1-2.1 on GA media",
      "Title": "Topic",
      "Type": "Summary"
    },
    {
      "Text": "These are all security issues fixed in the caddy-2.5.1-2.1 package on the GA media of openSUSE Tumbleweed.",
      "Title": "Details",
      "Type": "General"
    },
    {
      "Text": "The CVRF data is provided by SUSE under the Creative Commons License 4.0 with Attribution (CC-BY-4.0).",
      "Title": "Terms of Use",
      "Type": "Legal Disclaimer"
    },
    {
      "Text": "openSUSE-Tumbleweed-2024-12132",
      "Title": "Patchnames",
      "Type": "Details"
    }
  ],
  "ProductTree": {
    "Relationships": [
      {
        "ProductReference": "caddy-2.5.1-2.1",
        "RelatesToProductReference": "openSUSE Tumbleweed",
        "RelationType": "Default Component Of"
      }
    ]
  },
  "References": [
    {
      "URL": "https://www.suse.com/support/security/rating/",
      "Description": "SUSE Security Ratings"
    },
    {
      "URL": "https://www.suse.com/security/cve/CVE-2022-29718/",
      "Description": "SUSE CVE CVE-2022-29718 page"
    }
  ],
  "Vulnerabilities": [
    {
      "CVE": "CVE-2022-29718",
      "Description": "Caddy v2.4 was discovered to contain an open redirect vulnerability. A remote unauthenticated attacker may exploit this vulnerability to redirect users to arbitrary web URLs by tricking the victim users to click on crafted links.",
      "Threats": [
        {
          "Type": "Impact",
          "Severity": "moderate"
        }
      ],
      "References": [
        {
          "URL": "https://www.suse.com/security/cve/CVE-2022-29718.html",
          "Description": "CVE-2022-29718"
        },
        {
          "URL": "https://bugzilla.suse.com/1200279",
          "Description": "SUSE Bug 1200279"
        }
      ],
      "ProductStatuses": [
        {
          "Type": "Fixed",
          "ProductID": [
            "openSUSE Tumbleweed:caddy-2.5.1-2.1"
          ]
        }
      ],
      "CVSSScoreSets": {}
    }
  ]
}