{
  "Title": "ungoogled-chromium-116.0.5845.96-1.1 on GA media",
  "Tracking": {
    "ID": "openSUSE-SU-2024:13144-1",
    "Status": "Final",
    "Version": "1",
    "InitialReleaseDate": "2024-06-20T21:44:22Z",
    "CurrentReleaseDate": "2024-06-20T21:44:22Z",
    "RevisionHistory": [
      {
        "Number": "1",
        "Date": "2024-06-20T21:44:22Z",
        "Description": "current"
      }
    ]
  },
  "Notes": [
    {
      "Text": "ungoogled-chromium-116.0.5845.96-1.1 on GA media",
      "Title": "Topic",
      "Type": "Summary"
    },
    {
      "Text": "These are all security issues fixed in the ungoogled-chromium-116.0.5845.96-1.1 package on the GA media of openSUSE Tumbleweed.",
      "Title": "Details",
      "Type": "General"
    },
    {
      "Text": "The CVRF data is provided by SUSE under the Creative Commons License 4.0 with Attribution (CC-BY-4.0).",
      "Title": "Terms of Use",
      "Type": "Legal Disclaimer"
    },
    {
      "Text": "openSUSE-Tumbleweed-2024-13144",
      "Title": "Patchnames",
      "Type": "Details"
    }
  ],
  "ProductTree": {
    "Relationships": [
      {
        "ProductReference": "ungoogled-chromium-116.0.5845.96-1.1",
        "RelatesToProductReference": "openSUSE Tumbleweed",
        "RelationType": "Default Component Of"
      },
      {
        "ProductReference": "ungoogled-chromium-chromedriver-116.0.5845.96-1.1",
        "RelatesToProductReference": "openSUSE Tumbleweed",
        "RelationType": "Default Component Of"
      }
    ]
  },
  "References": [
    {
      "URL": "https://www.suse.com/support/security/rating/",
      "Description": "SUSE Security Ratings"
    },
    {
      "URL": "https://www.suse.com/security/cve/CVE-2023-2312/",
      "Description": "SUSE CVE CVE-2023-2312 page"
    },
    {
      "URL": "https://www.suse.com/security/cve/CVE-2023-4349/",
      "Description": "SUSE CVE CVE-2023-4349 page"
    },
    {
      "URL": "https://www.suse.com/security/cve/CVE-2023-4350/",
      "Description": "SUSE CVE CVE-2023-4350 page"
    },
    {
      "URL": "https://www.suse.com/security/cve/CVE-2023-4351/",
      "Description": "SUSE CVE CVE-2023-4351 page"
    },
    {
      "URL": "https://www.suse.com/security/cve/CVE-2023-4352/",
      "Description": "SUSE CVE CVE-2023-4352 page"
    },
    {
      "URL": "https://www.suse.com/security/cve/CVE-2023-4353/",
      "Description": "SUSE CVE CVE-2023-4353 page"
    },
    {
      "URL": "https://www.suse.com/security/cve/CVE-2023-4354/",
      "Description": "SUSE CVE CVE-2023-4354 page"
    },
    {
      "URL": "https://www.suse.com/security/cve/CVE-2023-4355/",
      "Description": "SUSE CVE CVE-2023-4355 page"
    },
    {
      "URL": "https://www.suse.com/security/cve/CVE-2023-4356/",
      "Description": "SUSE CVE CVE-2023-4356 page"
    },
    {
      "URL": "https://www.suse.com/security/cve/CVE-2023-4357/",
      "Description": "SUSE CVE CVE-2023-4357 page"
    },
    {
      "URL": "https://www.suse.com/security/cve/CVE-2023-4358/",
      "Description": "SUSE CVE CVE-2023-4358 page"
    },
    {
      "URL": "https://www.suse.com/security/cve/CVE-2023-4359/",
      "Description": "SUSE CVE CVE-2023-4359 page"
    },
    {
      "URL": "https://www.suse.com/security/cve/CVE-2023-4360/",
      "Description": "SUSE CVE CVE-2023-4360 page"
    },
    {
      "URL": "https://www.suse.com/security/cve/CVE-2023-4361/",
      "Description": "SUSE CVE CVE-2023-4361 page"
    },
    {
      "URL": "https://www.suse.com/security/cve/CVE-2023-4362/",
      "Description": "SUSE CVE CVE-2023-4362 page"
    },
    {
      "URL": "https://www.suse.com/security/cve/CVE-2023-4363/",
      "Description": "SUSE CVE CVE-2023-4363 page"
    },
    {
      "URL": "https://www.suse.com/security/cve/CVE-2023-4364/",
      "Description": "SUSE CVE CVE-2023-4364 page"
    },
    {
      "URL": "https://www.suse.com/security/cve/CVE-2023-4365/",
      "Description": "SUSE CVE CVE-2023-4365 page"
    },
    {
      "URL": "https://www.suse.com/security/cve/CVE-2023-4366/",
      "Description": "SUSE CVE CVE-2023-4366 page"
    },
    {
      "URL": "https://www.suse.com/security/cve/CVE-2023-4367/",
      "Description": "SUSE CVE CVE-2023-4367 page"
    },
    {
      "URL": "https://www.suse.com/security/cve/CVE-2023-4368/",
      "Description": "SUSE CVE CVE-2023-4368 page"
    }
  ],
  "Vulnerabilities": [
    {
      "CVE": "CVE-2023-2312",
      "Description": "Use after free in Offline in Google Chrome on Android prior to 116.0.5845.96 allowed a remote attacker who had compromised the renderer process to potentially exploit heap corruption via a crafted HTML page. (Chromium security severity: High)",
      "Threats": [
        {
          "Type": "Impact",
          "Severity": "important"
        }
      ],
      "References": [
        {
          "URL": "https://www.suse.com/security/cve/CVE-2023-2312.html",
          "Description": "CVE-2023-2312"
        },
        {
          "URL": "https://bugzilla.suse.com/1214301",
          "Description": "SUSE Bug 1214301"
        }
      ],
      "ProductStatuses": [
        {
          "Type": "Fixed",
          "ProductID": [
            "openSUSE Tumbleweed:ungoogled-chromium-116.0.5845.96-1.1",
            "openSUSE Tumbleweed:ungoogled-chromium-chromedriver-116.0.5845.96-1.1"
          ]
        }
      ],
      "CVSSScoreSets": {}
    },
    {
      "CVE": "CVE-2023-4349",
      "Description": "Use after free in Device Trust Connectors in Google Chrome prior to 116.0.5845.96 allowed a remote attacker to potentially exploit heap corruption via a crafted HTML page. (Chromium security severity: High)",
      "Threats": [
        {
          "Type": "Impact",
          "Severity": "important"
        }
      ],
      "References": [
        {
          "URL": "https://www.suse.com/security/cve/CVE-2023-4349.html",
          "Description": "CVE-2023-4349"
        },
        {
          "URL": "https://bugzilla.suse.com/1214301",
          "Description": "SUSE Bug 1214301"
        }
      ],
      "ProductStatuses": [
        {
          "Type": "Fixed",
          "ProductID": [
            "openSUSE Tumbleweed:ungoogled-chromium-116.0.5845.96-1.1",
            "openSUSE Tumbleweed:ungoogled-chromium-chromedriver-116.0.5845.96-1.1"
          ]
        }
      ],
      "CVSSScoreSets": {}
    },
    {
      "CVE": "CVE-2023-4350",
      "Description": "Inappropriate implementation in Fullscreen in Google Chrome on Android prior to 116.0.5845.96 allowed a remote attacker to potentially spoof the contents of the Omnibox (URL bar) via a crafted HTML page. (Chromium security severity: High)",
      "Threats": [
        {
          "Type": "Impact",
          "Severity": "important"
        }
      ],
      "References": [
        {
          "URL": "https://www.suse.com/security/cve/CVE-2023-4350.html",
          "Description": "CVE-2023-4350"
        },
        {
          "URL": "https://bugzilla.suse.com/1214301",
          "Description": "SUSE Bug 1214301"
        }
      ],
      "ProductStatuses": [
        {
          "Type": "Fixed",
          "ProductID": [
            "openSUSE Tumbleweed:ungoogled-chromium-116.0.5845.96-1.1",
            "openSUSE Tumbleweed:ungoogled-chromium-chromedriver-116.0.5845.96-1.1"
          ]
        }
      ],
      "CVSSScoreSets": {}
    },
    {
      "CVE": "CVE-2023-4351",
      "Description": "Use after free in Network in Google Chrome prior to 116.0.5845.96 allowed a remote attacker who has elicited a browser shutdown to potentially exploit heap corruption via a crafted HTML page. (Chromium security severity: High)",
      "Threats": [
        {
          "Type": "Impact",
          "Severity": "important"
        }
      ],
      "References": [
        {
          "URL": "https://www.suse.com/security/cve/CVE-2023-4351.html",
          "Description": "CVE-2023-4351"
        },
        {
          "URL": "https://bugzilla.suse.com/1214301",
          "Description": "SUSE Bug 1214301"
        }
      ],
      "ProductStatuses": [
        {
          "Type": "Fixed",
          "ProductID": [
            "openSUSE Tumbleweed:ungoogled-chromium-116.0.5845.96-1.1",
            "openSUSE Tumbleweed:ungoogled-chromium-chromedriver-116.0.5845.96-1.1"
          ]
        }
      ],
      "CVSSScoreSets": {}
    },
    {
      "CVE": "CVE-2023-4352",
      "Description": "Type confusion in V8 in Google Chrome prior to 116.0.5845.96 allowed a remote attacker to potentially exploit heap corruption via a crafted HTML page. (Chromium security severity: High)",
      "Threats": [
        {
          "Type": "Impact",
          "Severity": "important"
        }
      ],
      "References": [
        {
          "URL": "https://www.suse.com/security/cve/CVE-2023-4352.html",
          "Description": "CVE-2023-4352"
        },
        {
          "URL": "https://bugzilla.suse.com/1214301",
          "Description": "SUSE Bug 1214301"
        }
      ],
      "ProductStatuses": [
        {
          "Type": "Fixed",
          "ProductID": [
            "openSUSE Tumbleweed:ungoogled-chromium-116.0.5845.96-1.1",
            "openSUSE Tumbleweed:ungoogled-chromium-chromedriver-116.0.5845.96-1.1"
          ]
        }
      ],
      "CVSSScoreSets": {}
    },
    {
      "CVE": "CVE-2023-4353",
      "Description": "Heap buffer overflow in ANGLE in Google Chrome prior to 116.0.5845.96 allowed a remote attacker to potentially exploit heap corruption via a crafted HTML page. (Chromium security severity: High)",
      "Threats": [
        {
          "Type": "Impact",
          "Severity": "important"
        }
      ],
      "References": [
        {
          "URL": "https://www.suse.com/security/cve/CVE-2023-4353.html",
          "Description": "CVE-2023-4353"
        },
        {
          "URL": "https://bugzilla.suse.com/1214301",
          "Description": "SUSE Bug 1214301"
        }
      ],
      "ProductStatuses": [
        {
          "Type": "Fixed",
          "ProductID": [
            "openSUSE Tumbleweed:ungoogled-chromium-116.0.5845.96-1.1",
            "openSUSE Tumbleweed:ungoogled-chromium-chromedriver-116.0.5845.96-1.1"
          ]
        }
      ],
      "CVSSScoreSets": {}
    },
    {
      "CVE": "CVE-2023-4354",
      "Description": "Heap buffer overflow in Skia in Google Chrome prior to 116.0.5845.96 allowed a remote attacker who had compromised the renderer process to potentially exploit heap corruption via a crafted HTML page. (Chromium security severity: High)",
      "Threats": [
        {
          "Type": "Impact",
          "Severity": "important"
        }
      ],
      "References": [
        {
          "URL": "https://www.suse.com/security/cve/CVE-2023-4354.html",
          "Description": "CVE-2023-4354"
        },
        {
          "URL": "https://bugzilla.suse.com/1214301",
          "Description": "SUSE Bug 1214301"
        }
      ],
      "ProductStatuses": [
        {
          "Type": "Fixed",
          "ProductID": [
            "openSUSE Tumbleweed:ungoogled-chromium-116.0.5845.96-1.1",
            "openSUSE Tumbleweed:ungoogled-chromium-chromedriver-116.0.5845.96-1.1"
          ]
        }
      ],
      "CVSSScoreSets": {}
    },
    {
      "CVE": "CVE-2023-4355",
      "Description": "Out of bounds memory access in V8 in Google Chrome prior to 116.0.5845.96 allowed a remote attacker to potentially exploit heap corruption via a crafted HTML page. (Chromium security severity: High)",
      "Threats": [
        {
          "Type": "Impact",
          "Severity": "important"
        }
      ],
      "References": [
        {
          "URL": "https://www.suse.com/security/cve/CVE-2023-4355.html",
          "Description": "CVE-2023-4355"
        },
        {
          "URL": "https://bugzilla.suse.com/1214301",
          "Description": "SUSE Bug 1214301"
        }
      ],
      "ProductStatuses": [
        {
          "Type": "Fixed",
          "ProductID": [
            "openSUSE Tumbleweed:ungoogled-chromium-116.0.5845.96-1.1",
            "openSUSE Tumbleweed:ungoogled-chromium-chromedriver-116.0.5845.96-1.1"
          ]
        }
      ],
      "CVSSScoreSets": {}
    },
    {
      "CVE": "CVE-2023-4356",
      "Description": "Use after free in Audio in Google Chrome prior to 116.0.5845.96 allowed a remote attacker who has convinced a user to engage in specific UI interaction to potentially exploit heap corruption via a crafted HTML page. (Chromium security severity: Medium)",
      "Threats": [
        {
          "Type": "Impact",
          "Severity": "important"
        }
      ],
      "References": [
        {
          "URL": "https://www.suse.com/security/cve/CVE-2023-4356.html",
          "Description": "CVE-2023-4356"
        },
        {
          "URL": "https://bugzilla.suse.com/1214301",
          "Description": "SUSE Bug 1214301"
        }
      ],
      "ProductStatuses": [
        {
          "Type": "Fixed",
          "ProductID": [
            "openSUSE Tumbleweed:ungoogled-chromium-116.0.5845.96-1.1",
            "openSUSE Tumbleweed:ungoogled-chromium-chromedriver-116.0.5845.96-1.1"
          ]
        }
      ],
      "CVSSScoreSets": {}
    },
    {
      "CVE": "CVE-2023-4357",
      "Description": "Insufficient validation of untrusted input in XML in Google Chrome prior to 116.0.5845.96 allowed a remote attacker to bypass file access restrictions via a crafted HTML page. (Chromium security severity: Medium)",
      "Threats": [
        {
          "Type": "Impact",
          "Severity": "important"
        }
      ],
      "References": [
        {
          "URL": "https://www.suse.com/security/cve/CVE-2023-4357.html",
          "Description": "CVE-2023-4357"
        },
        {
          "URL": "https://bugzilla.suse.com/1214301",
          "Description": "SUSE Bug 1214301"
        }
      ],
      "ProductStatuses": [
        {
          "Type": "Fixed",
          "ProductID": [
            "openSUSE Tumbleweed:ungoogled-chromium-116.0.5845.96-1.1",
            "openSUSE Tumbleweed:ungoogled-chromium-chromedriver-116.0.5845.96-1.1"
          ]
        }
      ],
      "CVSSScoreSets": {}
    },
    {
      "CVE": "CVE-2023-4358",
      "Description": "Use after free in DNS in Google Chrome prior to 116.0.5845.96 allowed a remote attacker to potentially exploit heap corruption via a crafted HTML page. (Chromium security severity: Medium)",
      "Threats": [
        {
          "Type": "Impact",
          "Severity": "important"
        }
      ],
      "References": [
        {
          "URL": "https://www.suse.com/security/cve/CVE-2023-4358.html",
          "Description": "CVE-2023-4358"
        },
        {
          "URL": "https://bugzilla.suse.com/1214301",
          "Description": "SUSE Bug 1214301"
        }
      ],
      "ProductStatuses": [
        {
          "Type": "Fixed",
          "ProductID": [
            "openSUSE Tumbleweed:ungoogled-chromium-116.0.5845.96-1.1",
            "openSUSE Tumbleweed:ungoogled-chromium-chromedriver-116.0.5845.96-1.1"
          ]
        }
      ],
      "CVSSScoreSets": {}
    },
    {
      "CVE": "CVE-2023-4359",
      "Description": "Inappropriate implementation in App Launcher in Google Chrome on iOS prior to 116.0.5845.96 allowed a remote attacker to potentially spoof elements of the security UI via a crafted HTML page. (Chromium security severity: Medium)",
      "Threats": [
        {
          "Type": "Impact",
          "Severity": "important"
        }
      ],
      "References": [
        {
          "URL": "https://www.suse.com/security/cve/CVE-2023-4359.html",
          "Description": "CVE-2023-4359"
        },
        {
          "URL": "https://bugzilla.suse.com/1214301",
          "Description": "SUSE Bug 1214301"
        }
      ],
      "ProductStatuses": [
        {
          "Type": "Fixed",
          "ProductID": [
            "openSUSE Tumbleweed:ungoogled-chromium-116.0.5845.96-1.1",
            "openSUSE Tumbleweed:ungoogled-chromium-chromedriver-116.0.5845.96-1.1"
          ]
        }
      ],
      "CVSSScoreSets": {}
    },
    {
      "CVE": "CVE-2023-4360",
      "Description": "Inappropriate implementation in Color in Google Chrome prior to 116.0.5845.96 allowed a remote attacker to obfuscate security UI via a crafted HTML page. (Chromium security severity: Medium)",
      "Threats": [
        {
          "Type": "Impact",
          "Severity": "important"
        }
      ],
      "References": [
        {
          "URL": "https://www.suse.com/security/cve/CVE-2023-4360.html",
          "Description": "CVE-2023-4360"
        },
        {
          "URL": "https://bugzilla.suse.com/1214301",
          "Description": "SUSE Bug 1214301"
        }
      ],
      "ProductStatuses": [
        {
          "Type": "Fixed",
          "ProductID": [
            "openSUSE Tumbleweed:ungoogled-chromium-116.0.5845.96-1.1",
            "openSUSE Tumbleweed:ungoogled-chromium-chromedriver-116.0.5845.96-1.1"
          ]
        }
      ],
      "CVSSScoreSets": {}
    },
    {
      "CVE": "CVE-2023-4361",
      "Description": "Inappropriate implementation in Autofill in Google Chrome on Android prior to 116.0.5845.96 allowed a remote attacker to bypass Autofill restrictions via a crafted HTML page. (Chromium security severity: Medium)",
      "Threats": [
        {
          "Type": "Impact",
          "Severity": "important"
        }
      ],
      "References": [
        {
          "URL": "https://www.suse.com/security/cve/CVE-2023-4361.html",
          "Description": "CVE-2023-4361"
        },
        {
          "URL": "https://bugzilla.suse.com/1214301",
          "Description": "SUSE Bug 1214301"
        }
      ],
      "ProductStatuses": [
        {
          "Type": "Fixed",
          "ProductID": [
            "openSUSE Tumbleweed:ungoogled-chromium-116.0.5845.96-1.1",
            "openSUSE Tumbleweed:ungoogled-chromium-chromedriver-116.0.5845.96-1.1"
          ]
        }
      ],
      "CVSSScoreSets": {}
    },
    {
      "CVE": "CVE-2023-4362",
      "Description": "Heap buffer overflow in Mojom IDL in Google Chrome prior to 116.0.5845.96 allowed a remote attacker who had compromised the renderer process and gained control of a WebUI process to potentially exploit heap corruption via a crafted HTML page. (Chromium security severity: Medium)",
      "Threats": [
        {
          "Type": "Impact",
          "Severity": "important"
        }
      ],
      "References": [
        {
          "URL": "https://www.suse.com/security/cve/CVE-2023-4362.html",
          "Description": "CVE-2023-4362"
        },
        {
          "URL": "https://bugzilla.suse.com/1214301",
          "Description": "SUSE Bug 1214301"
        }
      ],
      "ProductStatuses": [
        {
          "Type": "Fixed",
          "ProductID": [
            "openSUSE Tumbleweed:ungoogled-chromium-116.0.5845.96-1.1",
            "openSUSE Tumbleweed:ungoogled-chromium-chromedriver-116.0.5845.96-1.1"
          ]
        }
      ],
      "CVSSScoreSets": {}
    },
    {
      "CVE": "CVE-2023-4363",
      "Description": "Inappropriate implementation in WebShare in Google Chrome on Android prior to 116.0.5845.96 allowed a remote attacker to spoof the contents of a dialog URL via a crafted HTML page. (Chromium security severity: Medium)",
      "Threats": [
        {
          "Type": "Impact",
          "Severity": "important"
        }
      ],
      "References": [
        {
          "URL": "https://www.suse.com/security/cve/CVE-2023-4363.html",
          "Description": "CVE-2023-4363"
        },
        {
          "URL": "https://bugzilla.suse.com/1214301",
          "Description": "SUSE Bug 1214301"
        }
      ],
      "ProductStatuses": [
        {
          "Type": "Fixed",
          "ProductID": [
            "openSUSE Tumbleweed:ungoogled-chromium-116.0.5845.96-1.1",
            "openSUSE Tumbleweed:ungoogled-chromium-chromedriver-116.0.5845.96-1.1"
          ]
        }
      ],
      "CVSSScoreSets": {}
    },
    {
      "CVE": "CVE-2023-4364",
      "Description": "Inappropriate implementation in Permission Prompts in Google Chrome prior to 116.0.5845.96 allowed a remote attacker to obfuscate security UI via a crafted HTML page. (Chromium security severity: Medium)",
      "Threats": [
        {
          "Type": "Impact",
          "Severity": "important"
        }
      ],
      "References": [
        {
          "URL": "https://www.suse.com/security/cve/CVE-2023-4364.html",
          "Description": "CVE-2023-4364"
        },
        {
          "URL": "https://bugzilla.suse.com/1214301",
          "Description": "SUSE Bug 1214301"
        }
      ],
      "ProductStatuses": [
        {
          "Type": "Fixed",
          "ProductID": [
            "openSUSE Tumbleweed:ungoogled-chromium-116.0.5845.96-1.1",
            "openSUSE Tumbleweed:ungoogled-chromium-chromedriver-116.0.5845.96-1.1"
          ]
        }
      ],
      "CVSSScoreSets": {}
    },
    {
      "CVE": "CVE-2023-4365",
      "Description": "Inappropriate implementation in Fullscreen in Google Chrome prior to 116.0.5845.96 allowed a remote attacker to obfuscate security UI via a crafted HTML page. (Chromium security severity: Medium)",
      "Threats": [
        {
          "Type": "Impact",
          "Severity": "important"
        }
      ],
      "References": [
        {
          "URL": "https://www.suse.com/security/cve/CVE-2023-4365.html",
          "Description": "CVE-2023-4365"
        },
        {
          "URL": "https://bugzilla.suse.com/1214301",
          "Description": "SUSE Bug 1214301"
        }
      ],
      "ProductStatuses": [
        {
          "Type": "Fixed",
          "ProductID": [
            "openSUSE Tumbleweed:ungoogled-chromium-116.0.5845.96-1.1",
            "openSUSE Tumbleweed:ungoogled-chromium-chromedriver-116.0.5845.96-1.1"
          ]
        }
      ],
      "CVSSScoreSets": {}
    },
    {
      "CVE": "CVE-2023-4366",
      "Description": "Use after free in Extensions in Google Chrome prior to 116.0.5845.96 allowed an attacker who convinced a user to install a malicious extension to potentially exploit heap corruption via a crafted HTML page. (Chromium security severity: Medium)",
      "Threats": [
        {
          "Type": "Impact",
          "Severity": "important"
        }
      ],
      "References": [
        {
          "URL": "https://www.suse.com/security/cve/CVE-2023-4366.html",
          "Description": "CVE-2023-4366"
        },
        {
          "URL": "https://bugzilla.suse.com/1214301",
          "Description": "SUSE Bug 1214301"
        }
      ],
      "ProductStatuses": [
        {
          "Type": "Fixed",
          "ProductID": [
            "openSUSE Tumbleweed:ungoogled-chromium-116.0.5845.96-1.1",
            "openSUSE Tumbleweed:ungoogled-chromium-chromedriver-116.0.5845.96-1.1"
          ]
        }
      ],
      "CVSSScoreSets": {}
    },
    {
      "CVE": "CVE-2023-4367",
      "Description": "Insufficient policy enforcement in Extensions API in Google Chrome prior to 116.0.5845.96 allowed an attacker who convinced a user to install a malicious extension to bypass an enterprise policy via a crafted HTML page. (Chromium security severity: Medium)",
      "Threats": [
        {
          "Type": "Impact",
          "Severity": "important"
        }
      ],
      "References": [
        {
          "URL": "https://www.suse.com/security/cve/CVE-2023-4367.html",
          "Description": "CVE-2023-4367"
        },
        {
          "URL": "https://bugzilla.suse.com/1214301",
          "Description": "SUSE Bug 1214301"
        }
      ],
      "ProductStatuses": [
        {
          "Type": "Fixed",
          "ProductID": [
            "openSUSE Tumbleweed:ungoogled-chromium-116.0.5845.96-1.1",
            "openSUSE Tumbleweed:ungoogled-chromium-chromedriver-116.0.5845.96-1.1"
          ]
        }
      ],
      "CVSSScoreSets": {}
    },
    {
      "CVE": "CVE-2023-4368",
      "Description": "Insufficient policy enforcement in Extensions API in Google Chrome prior to 116.0.5845.96 allowed an attacker who convinced a user to install a malicious extension to bypass an enterprise policy via a crafted HTML page. (Chromium security severity: Medium)",
      "Threats": [
        {
          "Type": "Impact",
          "Severity": "important"
        }
      ],
      "References": [
        {
          "URL": "https://www.suse.com/security/cve/CVE-2023-4368.html",
          "Description": "CVE-2023-4368"
        },
        {
          "URL": "https://bugzilla.suse.com/1214301",
          "Description": "SUSE Bug 1214301"
        }
      ],
      "ProductStatuses": [
        {
          "Type": "Fixed",
          "ProductID": [
            "openSUSE Tumbleweed:ungoogled-chromium-116.0.5845.96-1.1",
            "openSUSE Tumbleweed:ungoogled-chromium-chromedriver-116.0.5845.96-1.1"
          ]
        }
      ],
      "CVSSScoreSets": {}
    }
  ]
}