{
  "Title": "libdxfrw-devel-1.0.1+git.20211110-1.1 on GA media",
  "Tracking": {
    "ID": "openSUSE-SU-2024:11697-1",
    "Status": "Final",
    "Version": "1",
    "InitialReleaseDate": "2024-06-22T21:44:56Z",
    "CurrentReleaseDate": "2024-06-22T21:44:56Z",
    "RevisionHistory": [
      {
        "Number": "1",
        "Date": "2024-06-22T21:44:56Z",
        "Description": "current"
      }
    ]
  },
  "Notes": [
    {
      "Text": "libdxfrw-devel-1.0.1+git.20211110-1.1 on GA media",
      "Title": "Topic",
      "Type": "Summary"
    },
    {
      "Text": "These are all security issues fixed in the libdxfrw-devel-1.0.1+git.20211110-1.1 package on the GA media of openSUSE Tumbleweed.",
      "Title": "Details",
      "Type": "General"
    },
    {
      "Text": "The CVRF data is provided by SUSE under the Creative Commons License 4.0 with Attribution (CC-BY-4.0).",
      "Title": "Terms of Use",
      "Type": "Legal Disclaimer"
    },
    {
      "Text": "openSUSE-Tumbleweed-2024-11697",
      "Title": "Patchnames",
      "Type": "Details"
    }
  ],
  "ProductTree": {
    "Relationships": [
      {
        "ProductReference": "libdxfrw-devel-1.0.1+git.20211110-1.1",
        "RelatesToProductReference": "openSUSE Tumbleweed",
        "RelationType": "Default Component Of"
      },
      {
        "ProductReference": "libdxfrw-tools-1.0.1+git.20211110-1.1",
        "RelatesToProductReference": "openSUSE Tumbleweed",
        "RelationType": "Default Component Of"
      },
      {
        "ProductReference": "libdxfrw1-1.0.1+git.20211110-1.1",
        "RelatesToProductReference": "openSUSE Tumbleweed",
        "RelationType": "Default Component Of"
      }
    ]
  },
  "References": [
    {
      "URL": "https://www.suse.com/support/security/rating/",
      "Description": "SUSE Security Ratings"
    },
    {
      "URL": "https://www.suse.com/security/cve/CVE-2021-21898/",
      "Description": "SUSE CVE CVE-2021-21898 page"
    },
    {
      "URL": "https://www.suse.com/security/cve/CVE-2021-21899/",
      "Description": "SUSE CVE CVE-2021-21899 page"
    },
    {
      "URL": "https://www.suse.com/security/cve/CVE-2021-21900/",
      "Description": "SUSE CVE CVE-2021-21900 page"
    }
  ],
  "Vulnerabilities": [
    {
      "CVE": "CVE-2021-21898",
      "Description": "A code execution vulnerability exists in the dwgCompressor::decompress18() functionality of LibreCad libdxfrw 2.2.0-rc2-19-ge02f3580. A specially-crafted .dwg file can lead to an out-of-bounds write. An attacker can provide a malicious file to trigger this vulnerability.",
      "Threats": [
        {
          "Type": "Impact",
          "Severity": "important"
        }
      ],
      "References": [
        {
          "URL": "https://www.suse.com/security/cve/CVE-2021-21898.html",
          "Description": "CVE-2021-21898"
        },
        {
          "URL": "https://bugzilla.suse.com/1192936",
          "Description": "SUSE Bug 1192936"
        }
      ],
      "ProductStatuses": [
        {
          "Type": "Fixed",
          "ProductID": [
            "openSUSE Tumbleweed:libdxfrw-devel-1.0.1+git.20211110-1.1",
            "openSUSE Tumbleweed:libdxfrw-tools-1.0.1+git.20211110-1.1",
            "openSUSE Tumbleweed:libdxfrw1-1.0.1+git.20211110-1.1"
          ]
        }
      ],
      "CVSSScoreSets": {}
    },
    {
      "CVE": "CVE-2021-21899",
      "Description": "A code execution vulnerability exists in the dwgCompressor::copyCompBytes21 functionality of LibreCad libdxfrw 2.2.0-rc2-19-ge02f3580. A specially-crafted .dwg file can lead to a heap buffer overflow. An attacker can provide a malicious file to trigger this vulnerability.",
      "Threats": [
        {
          "Type": "Impact",
          "Severity": "important"
        }
      ],
      "References": [
        {
          "URL": "https://www.suse.com/security/cve/CVE-2021-21899.html",
          "Description": "CVE-2021-21899"
        },
        {
          "URL": "https://bugzilla.suse.com/1192937",
          "Description": "SUSE Bug 1192937"
        }
      ],
      "ProductStatuses": [
        {
          "Type": "Fixed",
          "ProductID": [
            "openSUSE Tumbleweed:libdxfrw-devel-1.0.1+git.20211110-1.1",
            "openSUSE Tumbleweed:libdxfrw-tools-1.0.1+git.20211110-1.1",
            "openSUSE Tumbleweed:libdxfrw1-1.0.1+git.20211110-1.1"
          ]
        }
      ],
      "CVSSScoreSets": {}
    },
    {
      "CVE": "CVE-2021-21900",
      "Description": "A code execution vulnerability exists in the dxfRW::processLType() functionality of LibreCad libdxfrw 2.2.0-rc2-19-ge02f3580. A specially-crafted .dxf file can lead to a use-after-free vulnerability. An attacker can provide a malicious file to trigger this vulnerability.",
      "Threats": [
        {
          "Type": "Impact",
          "Severity": "important"
        }
      ],
      "References": [
        {
          "URL": "https://www.suse.com/security/cve/CVE-2021-21900.html",
          "Description": "CVE-2021-21900"
        },
        {
          "URL": "https://bugzilla.suse.com/1192938",
          "Description": "SUSE Bug 1192938"
        }
      ],
      "ProductStatuses": [
        {
          "Type": "Fixed",
          "ProductID": [
            "openSUSE Tumbleweed:libdxfrw-devel-1.0.1+git.20211110-1.1",
            "openSUSE Tumbleweed:libdxfrw-tools-1.0.1+git.20211110-1.1",
            "openSUSE Tumbleweed:libdxfrw1-1.0.1+git.20211110-1.1"
          ]
        }
      ],
      "CVSSScoreSets": {}
    }
  ]
}