{
  "Title": "libixml11-1.14.10-1.2 on GA media",
  "Tracking": {
    "ID": "openSUSE-SU-2024:11006-1",
    "Status": "Final",
    "Version": "1",
    "InitialReleaseDate": "2024-06-22T21:44:56Z",
    "CurrentReleaseDate": "2024-06-22T21:44:56Z",
    "RevisionHistory": [
      {
        "Number": "1",
        "Date": "2024-06-22T21:44:56Z",
        "Description": "current"
      }
    ]
  },
  "Notes": [
    {
      "Text": "libixml11-1.14.10-1.2 on GA media",
      "Title": "Topic",
      "Type": "Summary"
    },
    {
      "Text": "These are all security issues fixed in the libixml11-1.14.10-1.2 package on the GA media of openSUSE Tumbleweed.",
      "Title": "Details",
      "Type": "General"
    },
    {
      "Text": "The CVRF data is provided by SUSE under the Creative Commons License 4.0 with Attribution (CC-BY-4.0).",
      "Title": "Terms of Use",
      "Type": "Legal Disclaimer"
    },
    {
      "Text": "openSUSE-Tumbleweed-2024-11006",
      "Title": "Patchnames",
      "Type": "Details"
    }
  ],
  "ProductTree": {
    "Relationships": [
      {
        "ProductReference": "libixml11-1.14.10-1.2",
        "RelatesToProductReference": "openSUSE Tumbleweed",
        "RelationType": "Default Component Of"
      },
      {
        "ProductReference": "libixml11-32bit-1.14.10-1.2",
        "RelatesToProductReference": "openSUSE Tumbleweed",
        "RelationType": "Default Component Of"
      },
      {
        "ProductReference": "libupnp-devel-1.14.10-1.2",
        "RelatesToProductReference": "openSUSE Tumbleweed",
        "RelationType": "Default Component Of"
      },
      {
        "ProductReference": "libupnp17-1.14.10-1.2",
        "RelatesToProductReference": "openSUSE Tumbleweed",
        "RelationType": "Default Component Of"
      },
      {
        "ProductReference": "libupnp17-32bit-1.14.10-1.2",
        "RelatesToProductReference": "openSUSE Tumbleweed",
        "RelationType": "Default Component Of"
      }
    ]
  },
  "References": [
    {
      "URL": "https://www.suse.com/support/security/rating/",
      "Description": "SUSE Security Ratings"
    },
    {
      "URL": "https://www.suse.com/security/cve/CVE-2016-6255/",
      "Description": "SUSE CVE CVE-2016-6255 page"
    },
    {
      "URL": "https://www.suse.com/security/cve/CVE-2016-8863/",
      "Description": "SUSE CVE CVE-2016-8863 page"
    },
    {
      "URL": "https://www.suse.com/security/cve/CVE-2021-28302/",
      "Description": "SUSE CVE CVE-2021-28302 page"
    },
    {
      "URL": "https://www.suse.com/security/cve/CVE-2021-29462/",
      "Description": "SUSE CVE CVE-2021-29462 page"
    }
  ],
  "Vulnerabilities": [
    {
      "CVE": "CVE-2016-6255",
      "Description": "Portable UPnP SDK (aka libupnp) before 1.6.21 allows remote attackers to write to arbitrary files in the webroot via a POST request without a registered handler.",
      "Threats": [
        {
          "Type": "Impact",
          "Severity": "moderate"
        }
      ],
      "References": [
        {
          "URL": "https://www.suse.com/security/cve/CVE-2016-6255.html",
          "Description": "CVE-2016-6255"
        },
        {
          "URL": "https://bugzilla.suse.com/989948",
          "Description": "SUSE Bug 989948"
        }
      ],
      "ProductStatuses": [
        {
          "Type": "Fixed",
          "ProductID": [
            "openSUSE Tumbleweed:libixml11-1.14.10-1.2",
            "openSUSE Tumbleweed:libixml11-32bit-1.14.10-1.2",
            "openSUSE Tumbleweed:libupnp-devel-1.14.10-1.2",
            "openSUSE Tumbleweed:libupnp17-1.14.10-1.2",
            "openSUSE Tumbleweed:libupnp17-32bit-1.14.10-1.2"
          ]
        }
      ],
      "CVSSScoreSets": {}
    },
    {
      "CVE": "CVE-2016-8863",
      "Description": "Heap-based buffer overflow in the create_url_list function in gena/gena_device.c in Portable UPnP SDK (aka libupnp) before 1.6.21 allows remote attackers to cause a denial of service (crash) or possibly execute arbitrary code via a valid URI followed by an invalid one in the CALLBACK header of an SUBSCRIBE request.",
      "Threats": [
        {
          "Type": "Impact",
          "Severity": "moderate"
        }
      ],
      "References": [
        {
          "URL": "https://www.suse.com/security/cve/CVE-2016-8863.html",
          "Description": "CVE-2016-8863"
        },
        {
          "URL": "https://bugzilla.suse.com/1006256",
          "Description": "SUSE Bug 1006256"
        }
      ],
      "ProductStatuses": [
        {
          "Type": "Fixed",
          "ProductID": [
            "openSUSE Tumbleweed:libixml11-1.14.10-1.2",
            "openSUSE Tumbleweed:libixml11-32bit-1.14.10-1.2",
            "openSUSE Tumbleweed:libupnp-devel-1.14.10-1.2",
            "openSUSE Tumbleweed:libupnp17-1.14.10-1.2",
            "openSUSE Tumbleweed:libupnp17-32bit-1.14.10-1.2"
          ]
        }
      ],
      "CVSSScoreSets": {}
    },
    {
      "CVE": "CVE-2021-28302",
      "Description": "A stack overflow in pupnp before version 1.14.5 can cause the denial of service through the Parser_parseDocument() function. ixmlNode_free() will release a child node recursively, which will consume stack space and lead to a crash.",
      "Threats": [
        {
          "Type": "Impact",
          "Severity": "moderate"
        }
      ],
      "References": [
        {
          "URL": "https://www.suse.com/security/cve/CVE-2021-28302.html",
          "Description": "CVE-2021-28302"
        }
      ],
      "ProductStatuses": [
        {
          "Type": "Fixed",
          "ProductID": [
            "openSUSE Tumbleweed:libixml11-1.14.10-1.2",
            "openSUSE Tumbleweed:libixml11-32bit-1.14.10-1.2",
            "openSUSE Tumbleweed:libupnp-devel-1.14.10-1.2",
            "openSUSE Tumbleweed:libupnp17-1.14.10-1.2",
            "openSUSE Tumbleweed:libupnp17-32bit-1.14.10-1.2"
          ]
        }
      ],
      "CVSSScoreSets": {}
    },
    {
      "CVE": "CVE-2021-29462",
      "Description": "The Portable SDK for UPnP Devices is an SDK for development of UPnP device and control point applications. The server part of pupnp (libupnp) appears to be vulnerable to DNS rebinding attacks because it does not check the value of the `Host` header. This can be mitigated by using DNS revolvers which block DNS-rebinding attacks. The vulnerability is fixed in version 1.14.6 and later.",
      "Threats": [
        {
          "Type": "Impact",
          "Severity": "moderate"
        }
      ],
      "References": [
        {
          "URL": "https://www.suse.com/security/cve/CVE-2021-29462.html",
          "Description": "CVE-2021-29462"
        }
      ],
      "ProductStatuses": [
        {
          "Type": "Fixed",
          "ProductID": [
            "openSUSE Tumbleweed:libixml11-1.14.10-1.2",
            "openSUSE Tumbleweed:libixml11-32bit-1.14.10-1.2",
            "openSUSE Tumbleweed:libupnp-devel-1.14.10-1.2",
            "openSUSE Tumbleweed:libupnp17-1.14.10-1.2",
            "openSUSE Tumbleweed:libupnp17-32bit-1.14.10-1.2"
          ]
        }
      ],
      "CVSSScoreSets": {}
    }
  ]
}