{
  "Title": "terraform-provider-helm-2.9.0-1.1 on GA media",
  "Tracking": {
    "ID": "openSUSE-SU-2024:12729-1",
    "Status": "Final",
    "Version": "1",
    "InitialReleaseDate": "2024-06-20T21:44:22Z",
    "CurrentReleaseDate": "2024-06-20T21:44:22Z",
    "RevisionHistory": [
      {
        "Number": "1",
        "Date": "2024-06-20T21:44:22Z",
        "Description": "current"
      }
    ]
  },
  "Notes": [
    {
      "Text": "terraform-provider-helm-2.9.0-1.1 on GA media",
      "Title": "Topic",
      "Type": "Summary"
    },
    {
      "Text": "These are all security issues fixed in the terraform-provider-helm-2.9.0-1.1 package on the GA media of openSUSE Tumbleweed.",
      "Title": "Details",
      "Type": "General"
    },
    {
      "Text": "The CVRF data is provided by SUSE under the Creative Commons License 4.0 with Attribution (CC-BY-4.0).",
      "Title": "Terms of Use",
      "Type": "Legal Disclaimer"
    },
    {
      "Text": "openSUSE-Tumbleweed-2024-12729",
      "Title": "Patchnames",
      "Type": "Details"
    }
  ],
  "ProductTree": {
    "Relationships": [
      {
        "ProductReference": "terraform-provider-helm-2.9.0-1.1",
        "RelatesToProductReference": "openSUSE Tumbleweed",
        "RelationType": "Default Component Of"
      }
    ]
  },
  "References": [
    {
      "URL": "https://www.suse.com/support/security/rating/",
      "Description": "SUSE Security Ratings"
    },
    {
      "URL": "https://www.suse.com/security/cve/CVE-2023-25165/",
      "Description": "SUSE CVE CVE-2023-25165 page"
    }
  ],
  "Vulnerabilities": [
    {
      "CVE": "CVE-2023-25165",
      "Description": "Helm is a tool that streamlines installing and managing Kubernetes applications.`getHostByName` is a Helm template function introduced in Helm v3. The function is able to accept a hostname and return an IP address for that hostname. To get the IP address the function performs a DNS lookup. The DNS lookup happens when used with `helm install|upgrade|template` or when the Helm SDK is used to render a chart. Information passed into the chart can be disclosed to the DNS servers used to lookup the IP address. For example, a malicious chart could inject `getHostByName` into a chart in order to disclose values to a malicious DNS server. The issue has been fixed in Helm 3.11.1. Prior to using a chart with Helm verify the `getHostByName` function is not being used in a template to disclose any information you do not want passed to DNS servers.",
      "Threats": [
        {
          "Type": "Impact",
          "Severity": "moderate"
        }
      ],
      "References": [
        {
          "URL": "https://www.suse.com/security/cve/CVE-2023-25165.html",
          "Description": "CVE-2023-25165"
        },
        {
          "URL": "https://bugzilla.suse.com/1208083",
          "Description": "SUSE Bug 1208083"
        }
      ],
      "ProductStatuses": [
        {
          "Type": "Fixed",
          "ProductID": [
            "openSUSE Tumbleweed:terraform-provider-helm-2.9.0-1.1"
          ]
        }
      ],
      "CVSSScoreSets": {}
    }
  ]
}