{
  "Title": "clojure-1.11.2.1446-1.1 on GA media",
  "Tracking": {
    "ID": "openSUSE-SU-2024:13763-1",
    "Status": "Final",
    "Version": "1",
    "InitialReleaseDate": "2024-06-20T21:44:22Z",
    "CurrentReleaseDate": "2024-06-20T21:44:22Z",
    "RevisionHistory": [
      {
        "Number": "1",
        "Date": "2024-06-20T21:44:22Z",
        "Description": "current"
      }
    ]
  },
  "Notes": [
    {
      "Text": "clojure-1.11.2.1446-1.1 on GA media",
      "Title": "Topic",
      "Type": "Summary"
    },
    {
      "Text": "These are all security issues fixed in the clojure-1.11.2.1446-1.1 package on the GA media of openSUSE Tumbleweed.",
      "Title": "Details",
      "Type": "General"
    },
    {
      "Text": "The CVRF data is provided by SUSE under the Creative Commons License 4.0 with Attribution (CC-BY-4.0).",
      "Title": "Terms of Use",
      "Type": "Legal Disclaimer"
    },
    {
      "Text": "openSUSE-Tumbleweed-2024-13763",
      "Title": "Patchnames",
      "Type": "Details"
    }
  ],
  "ProductTree": {
    "Relationships": [
      {
        "ProductReference": "clojure-1.11.2.1446-1.1",
        "RelatesToProductReference": "openSUSE Tumbleweed",
        "RelationType": "Default Component Of"
      }
    ]
  },
  "References": [
    {
      "URL": "https://www.suse.com/support/security/rating/",
      "Description": "SUSE Security Ratings"
    },
    {
      "URL": "https://www.suse.com/security/cve/CVE-2024-22871/",
      "Description": "SUSE CVE CVE-2024-22871 page"
    }
  ],
  "Vulnerabilities": [
    {
      "CVE": "CVE-2024-22871",
      "Description": "An issue in Clojure versions 1.20 to 1.12.0-alpha5 allows an attacker to cause a denial of service (DoS) via the clojure.core$partial$fn__5920 function.",
      "Threats": [
        {
          "Type": "Impact",
          "Severity": "moderate"
        }
      ],
      "References": [
        {
          "URL": "https://www.suse.com/security/cve/CVE-2024-22871.html",
          "Description": "CVE-2024-22871"
        },
        {
          "URL": "https://bugzilla.suse.com/1220666",
          "Description": "SUSE Bug 1220666"
        }
      ],
      "ProductStatuses": [
        {
          "Type": "Fixed",
          "ProductID": [
            "openSUSE Tumbleweed:clojure-1.11.2.1446-1.1"
          ]
        }
      ],
      "CVSSScoreSets": {}
    }
  ]
}