{
  "Title": "MozillaFirefox-98.0-1.1 on GA media",
  "Tracking": {
    "ID": "openSUSE-SU-2024:11908-1",
    "Status": "Final",
    "Version": "1",
    "InitialReleaseDate": "2024-06-22T21:44:56Z",
    "CurrentReleaseDate": "2024-06-22T21:44:56Z",
    "RevisionHistory": [
      {
        "Number": "1",
        "Date": "2024-06-22T21:44:56Z",
        "Description": "current"
      }
    ]
  },
  "Notes": [
    {
      "Text": "MozillaFirefox-98.0-1.1 on GA media",
      "Title": "Topic",
      "Type": "Summary"
    },
    {
      "Text": "These are all security issues fixed in the MozillaFirefox-98.0-1.1 package on the GA media of openSUSE Tumbleweed.",
      "Title": "Details",
      "Type": "General"
    },
    {
      "Text": "The CVRF data is provided by SUSE under the Creative Commons License 4.0 with Attribution (CC-BY-4.0).",
      "Title": "Terms of Use",
      "Type": "Legal Disclaimer"
    },
    {
      "Text": "openSUSE-Tumbleweed-2024-11908",
      "Title": "Patchnames",
      "Type": "Details"
    }
  ],
  "ProductTree": {
    "Relationships": [
      {
        "ProductReference": "MozillaFirefox-98.0-1.1",
        "RelatesToProductReference": "openSUSE Tumbleweed",
        "RelationType": "Default Component Of"
      },
      {
        "ProductReference": "MozillaFirefox-branding-upstream-98.0-1.1",
        "RelatesToProductReference": "openSUSE Tumbleweed",
        "RelationType": "Default Component Of"
      },
      {
        "ProductReference": "MozillaFirefox-devel-98.0-1.1",
        "RelatesToProductReference": "openSUSE Tumbleweed",
        "RelationType": "Default Component Of"
      },
      {
        "ProductReference": "MozillaFirefox-translations-common-98.0-1.1",
        "RelatesToProductReference": "openSUSE Tumbleweed",
        "RelationType": "Default Component Of"
      },
      {
        "ProductReference": "MozillaFirefox-translations-other-98.0-1.1",
        "RelatesToProductReference": "openSUSE Tumbleweed",
        "RelationType": "Default Component Of"
      }
    ]
  },
  "References": [
    {
      "URL": "https://www.suse.com/support/security/rating/",
      "Description": "SUSE Security Ratings"
    },
    {
      "URL": "https://www.suse.com/security/cve/CVE-2022-0843/",
      "Description": "SUSE CVE CVE-2022-0843 page"
    },
    {
      "URL": "https://www.suse.com/security/cve/CVE-2022-26381/",
      "Description": "SUSE CVE CVE-2022-26381 page"
    },
    {
      "URL": "https://www.suse.com/security/cve/CVE-2022-26382/",
      "Description": "SUSE CVE CVE-2022-26382 page"
    },
    {
      "URL": "https://www.suse.com/security/cve/CVE-2022-26383/",
      "Description": "SUSE CVE CVE-2022-26383 page"
    },
    {
      "URL": "https://www.suse.com/security/cve/CVE-2022-26384/",
      "Description": "SUSE CVE CVE-2022-26384 page"
    },
    {
      "URL": "https://www.suse.com/security/cve/CVE-2022-26385/",
      "Description": "SUSE CVE CVE-2022-26385 page"
    },
    {
      "URL": "https://www.suse.com/security/cve/CVE-2022-26387/",
      "Description": "SUSE CVE CVE-2022-26387 page"
    }
  ],
  "Vulnerabilities": [
    {
      "CVE": "CVE-2022-0843",
      "Description": "Mozilla developers Kershaw Chang, Ryan VanderMeulen, and Randell Jesup reported memory safety bugs present in Firefox 97. Some of these bugs showed evidence of memory corruption and we presume that with enough effort some of these could have been exploited to run arbitrary code. This vulnerability affects Firefox \u003c 98.",
      "Threats": [
        {
          "Type": "Impact",
          "Severity": "moderate"
        }
      ],
      "References": [
        {
          "URL": "https://www.suse.com/security/cve/CVE-2022-0843.html",
          "Description": "CVE-2022-0843"
        },
        {
          "URL": "https://bugzilla.suse.com/1196900",
          "Description": "SUSE Bug 1196900"
        }
      ],
      "ProductStatuses": [
        {
          "Type": "Fixed",
          "ProductID": [
            "openSUSE Tumbleweed:MozillaFirefox-98.0-1.1",
            "openSUSE Tumbleweed:MozillaFirefox-branding-upstream-98.0-1.1",
            "openSUSE Tumbleweed:MozillaFirefox-devel-98.0-1.1",
            "openSUSE Tumbleweed:MozillaFirefox-translations-common-98.0-1.1",
            "openSUSE Tumbleweed:MozillaFirefox-translations-other-98.0-1.1"
          ]
        }
      ],
      "CVSSScoreSets": {}
    },
    {
      "CVE": "CVE-2022-26381",
      "Description": "An attacker could have caused a use-after-free by forcing a text reflow in an SVG object leading to a potentially exploitable crash. This vulnerability affects Firefox \u003c 98, Firefox ESR \u003c 91.7, and Thunderbird \u003c 91.7.",
      "Threats": [
        {
          "Type": "Impact",
          "Severity": "critical"
        }
      ],
      "References": [
        {
          "URL": "https://www.suse.com/security/cve/CVE-2022-26381.html",
          "Description": "CVE-2022-26381"
        },
        {
          "URL": "https://bugzilla.suse.com/1196900",
          "Description": "SUSE Bug 1196900"
        }
      ],
      "ProductStatuses": [
        {
          "Type": "Fixed",
          "ProductID": [
            "openSUSE Tumbleweed:MozillaFirefox-98.0-1.1",
            "openSUSE Tumbleweed:MozillaFirefox-branding-upstream-98.0-1.1",
            "openSUSE Tumbleweed:MozillaFirefox-devel-98.0-1.1",
            "openSUSE Tumbleweed:MozillaFirefox-translations-common-98.0-1.1",
            "openSUSE Tumbleweed:MozillaFirefox-translations-other-98.0-1.1"
          ]
        }
      ],
      "CVSSScoreSets": {}
    },
    {
      "CVE": "CVE-2022-26382",
      "Description": "While the text displayed in Autofill tooltips cannot be directly read by JavaScript, the text was rendered using page fonts. Side-channel attacks on the text by using specially crafted fonts could have lead to this text being inferred by the webpage. This vulnerability affects Firefox \u003c 98.",
      "Threats": [
        {
          "Type": "Impact",
          "Severity": "moderate"
        }
      ],
      "References": [
        {
          "URL": "https://www.suse.com/security/cve/CVE-2022-26382.html",
          "Description": "CVE-2022-26382"
        },
        {
          "URL": "https://bugzilla.suse.com/1196900",
          "Description": "SUSE Bug 1196900"
        }
      ],
      "ProductStatuses": [
        {
          "Type": "Fixed",
          "ProductID": [
            "openSUSE Tumbleweed:MozillaFirefox-98.0-1.1",
            "openSUSE Tumbleweed:MozillaFirefox-branding-upstream-98.0-1.1",
            "openSUSE Tumbleweed:MozillaFirefox-devel-98.0-1.1",
            "openSUSE Tumbleweed:MozillaFirefox-translations-common-98.0-1.1",
            "openSUSE Tumbleweed:MozillaFirefox-translations-other-98.0-1.1"
          ]
        }
      ],
      "CVSSScoreSets": {}
    },
    {
      "CVE": "CVE-2022-26383",
      "Description": "When resizing a popup after requesting fullscreen access, the popup would not display the fullscreen notification. This vulnerability affects Firefox \u003c 98, Firefox ESR \u003c 91.7, and Thunderbird \u003c 91.7.",
      "Threats": [
        {
          "Type": "Impact",
          "Severity": "critical"
        }
      ],
      "References": [
        {
          "URL": "https://www.suse.com/security/cve/CVE-2022-26383.html",
          "Description": "CVE-2022-26383"
        },
        {
          "URL": "https://bugzilla.suse.com/1196900",
          "Description": "SUSE Bug 1196900"
        }
      ],
      "ProductStatuses": [
        {
          "Type": "Fixed",
          "ProductID": [
            "openSUSE Tumbleweed:MozillaFirefox-98.0-1.1",
            "openSUSE Tumbleweed:MozillaFirefox-branding-upstream-98.0-1.1",
            "openSUSE Tumbleweed:MozillaFirefox-devel-98.0-1.1",
            "openSUSE Tumbleweed:MozillaFirefox-translations-common-98.0-1.1",
            "openSUSE Tumbleweed:MozillaFirefox-translations-other-98.0-1.1"
          ]
        }
      ],
      "CVSSScoreSets": {}
    },
    {
      "CVE": "CVE-2022-26384",
      "Description": "If an attacker could control the contents of an iframe sandboxed with \u003ccode\u003eallow-popups\u003c/code\u003e but not \u003ccode\u003eallow-scripts\u003c/code\u003e, they were able to craft a link that, when clicked, would lead to JavaScript execution in violation of the sandbox. This vulnerability affects Firefox \u003c 98, Firefox ESR \u003c 91.7, and Thunderbird \u003c 91.7.",
      "Threats": [
        {
          "Type": "Impact",
          "Severity": "critical"
        }
      ],
      "References": [
        {
          "URL": "https://www.suse.com/security/cve/CVE-2022-26384.html",
          "Description": "CVE-2022-26384"
        },
        {
          "URL": "https://bugzilla.suse.com/1196900",
          "Description": "SUSE Bug 1196900"
        }
      ],
      "ProductStatuses": [
        {
          "Type": "Fixed",
          "ProductID": [
            "openSUSE Tumbleweed:MozillaFirefox-98.0-1.1",
            "openSUSE Tumbleweed:MozillaFirefox-branding-upstream-98.0-1.1",
            "openSUSE Tumbleweed:MozillaFirefox-devel-98.0-1.1",
            "openSUSE Tumbleweed:MozillaFirefox-translations-common-98.0-1.1",
            "openSUSE Tumbleweed:MozillaFirefox-translations-other-98.0-1.1"
          ]
        }
      ],
      "CVSSScoreSets": {}
    },
    {
      "CVE": "CVE-2022-26385",
      "Description": "In unusual circumstances, an individual thread may outlive the thread's manager during shutdown. This could have led to a use-after-free causing a potentially exploitable crash. This vulnerability affects Firefox \u003c 98.",
      "Threats": [
        {
          "Type": "Impact",
          "Severity": "moderate"
        }
      ],
      "References": [
        {
          "URL": "https://www.suse.com/security/cve/CVE-2022-26385.html",
          "Description": "CVE-2022-26385"
        },
        {
          "URL": "https://bugzilla.suse.com/1196900",
          "Description": "SUSE Bug 1196900"
        }
      ],
      "ProductStatuses": [
        {
          "Type": "Fixed",
          "ProductID": [
            "openSUSE Tumbleweed:MozillaFirefox-98.0-1.1",
            "openSUSE Tumbleweed:MozillaFirefox-branding-upstream-98.0-1.1",
            "openSUSE Tumbleweed:MozillaFirefox-devel-98.0-1.1",
            "openSUSE Tumbleweed:MozillaFirefox-translations-common-98.0-1.1",
            "openSUSE Tumbleweed:MozillaFirefox-translations-other-98.0-1.1"
          ]
        }
      ],
      "CVSSScoreSets": {}
    },
    {
      "CVE": "CVE-2022-26387",
      "Description": "When installing an add-on, Firefox verified the signature before prompting the user; but while the user was confirming the prompt, the underlying add-on file could have been modified and Firefox would not have noticed. This vulnerability affects Firefox \u003c 98, Firefox ESR \u003c 91.7, and Thunderbird \u003c 91.7.",
      "Threats": [
        {
          "Type": "Impact",
          "Severity": "critical"
        }
      ],
      "References": [
        {
          "URL": "https://www.suse.com/security/cve/CVE-2022-26387.html",
          "Description": "CVE-2022-26387"
        },
        {
          "URL": "https://bugzilla.suse.com/1196900",
          "Description": "SUSE Bug 1196900"
        }
      ],
      "ProductStatuses": [
        {
          "Type": "Fixed",
          "ProductID": [
            "openSUSE Tumbleweed:MozillaFirefox-98.0-1.1",
            "openSUSE Tumbleweed:MozillaFirefox-branding-upstream-98.0-1.1",
            "openSUSE Tumbleweed:MozillaFirefox-devel-98.0-1.1",
            "openSUSE Tumbleweed:MozillaFirefox-translations-common-98.0-1.1",
            "openSUSE Tumbleweed:MozillaFirefox-translations-other-98.0-1.1"
          ]
        }
      ],
      "CVSSScoreSets": {}
    }
  ]
}