{
  "Title": "ruby2.7-rubygem-nokogiri-1.12.3-1.2 on GA media",
  "Tracking": {
    "ID": "openSUSE-SU-2024:11340-1",
    "Status": "Final",
    "Version": "1",
    "InitialReleaseDate": "2024-06-22T21:44:56Z",
    "CurrentReleaseDate": "2024-06-22T21:44:56Z",
    "RevisionHistory": [
      {
        "Number": "1",
        "Date": "2024-06-22T21:44:56Z",
        "Description": "current"
      }
    ]
  },
  "Notes": [
    {
      "Text": "ruby2.7-rubygem-nokogiri-1.12.3-1.2 on GA media",
      "Title": "Topic",
      "Type": "Summary"
    },
    {
      "Text": "These are all security issues fixed in the ruby2.7-rubygem-nokogiri-1.12.3-1.2 package on the GA media of openSUSE Tumbleweed.",
      "Title": "Details",
      "Type": "General"
    },
    {
      "Text": "The CVRF data is provided by SUSE under the Creative Commons License 4.0 with Attribution (CC-BY-4.0).",
      "Title": "Terms of Use",
      "Type": "Legal Disclaimer"
    },
    {
      "Text": "openSUSE-Tumbleweed-2024-11340",
      "Title": "Patchnames",
      "Type": "Details"
    }
  ],
  "ProductTree": {
    "Relationships": [
      {
        "ProductReference": "ruby2.7-rubygem-nokogiri-1.12.3-1.2",
        "RelatesToProductReference": "openSUSE Tumbleweed",
        "RelationType": "Default Component Of"
      },
      {
        "ProductReference": "ruby3.0-rubygem-nokogiri-1.12.3-1.2",
        "RelatesToProductReference": "openSUSE Tumbleweed",
        "RelationType": "Default Component Of"
      }
    ]
  },
  "References": [
    {
      "URL": "https://www.suse.com/support/security/rating/",
      "Description": "SUSE Security Ratings"
    },
    {
      "URL": "https://www.suse.com/security/cve/CVE-2013-2877/",
      "Description": "SUSE CVE CVE-2013-2877 page"
    },
    {
      "URL": "https://www.suse.com/security/cve/CVE-2014-0191/",
      "Description": "SUSE CVE CVE-2014-0191 page"
    },
    {
      "URL": "https://www.suse.com/security/cve/CVE-2015-1819/",
      "Description": "SUSE CVE CVE-2015-1819 page"
    },
    {
      "URL": "https://www.suse.com/security/cve/CVE-2015-5312/",
      "Description": "SUSE CVE CVE-2015-5312 page"
    },
    {
      "URL": "https://www.suse.com/security/cve/CVE-2015-7497/",
      "Description": "SUSE CVE CVE-2015-7497 page"
    },
    {
      "URL": "https://www.suse.com/security/cve/CVE-2015-7498/",
      "Description": "SUSE CVE CVE-2015-7498 page"
    },
    {
      "URL": "https://www.suse.com/security/cve/CVE-2015-7499/",
      "Description": "SUSE CVE CVE-2015-7499 page"
    },
    {
      "URL": "https://www.suse.com/security/cve/CVE-2015-7500/",
      "Description": "SUSE CVE CVE-2015-7500 page"
    },
    {
      "URL": "https://www.suse.com/security/cve/CVE-2015-7941/",
      "Description": "SUSE CVE CVE-2015-7941 page"
    },
    {
      "URL": "https://www.suse.com/security/cve/CVE-2015-7942/",
      "Description": "SUSE CVE CVE-2015-7942 page"
    },
    {
      "URL": "https://www.suse.com/security/cve/CVE-2015-7995/",
      "Description": "SUSE CVE CVE-2015-7995 page"
    },
    {
      "URL": "https://www.suse.com/security/cve/CVE-2015-8035/",
      "Description": "SUSE CVE CVE-2015-8035 page"
    },
    {
      "URL": "https://www.suse.com/security/cve/CVE-2015-8241/",
      "Description": "SUSE CVE CVE-2015-8241 page"
    },
    {
      "URL": "https://www.suse.com/security/cve/CVE-2015-8242/",
      "Description": "SUSE CVE CVE-2015-8242 page"
    },
    {
      "URL": "https://www.suse.com/security/cve/CVE-2015-8317/",
      "Description": "SUSE CVE CVE-2015-8317 page"
    },
    {
      "URL": "https://www.suse.com/security/cve/CVE-2016-4658/",
      "Description": "SUSE CVE CVE-2016-4658 page"
    },
    {
      "URL": "https://www.suse.com/security/cve/CVE-2016-4738/",
      "Description": "SUSE CVE CVE-2016-4738 page"
    },
    {
      "URL": "https://www.suse.com/security/cve/CVE-2016-5131/",
      "Description": "SUSE CVE CVE-2016-5131 page"
    },
    {
      "URL": "https://www.suse.com/security/cve/CVE-2017-15412/",
      "Description": "SUSE CVE CVE-2017-15412 page"
    },
    {
      "URL": "https://www.suse.com/security/cve/CVE-2017-5029/",
      "Description": "SUSE CVE CVE-2017-5029 page"
    },
    {
      "URL": "https://www.suse.com/security/cve/CVE-2018-14404/",
      "Description": "SUSE CVE CVE-2018-14404 page"
    },
    {
      "URL": "https://www.suse.com/security/cve/CVE-2018-8048/",
      "Description": "SUSE CVE CVE-2018-8048 page"
    },
    {
      "URL": "https://www.suse.com/security/cve/CVE-2019-11068/",
      "Description": "SUSE CVE CVE-2019-11068 page"
    },
    {
      "URL": "https://www.suse.com/security/cve/CVE-2019-20388/",
      "Description": "SUSE CVE CVE-2019-20388 page"
    },
    {
      "URL": "https://www.suse.com/security/cve/CVE-2019-5477/",
      "Description": "SUSE CVE CVE-2019-5477 page"
    },
    {
      "URL": "https://www.suse.com/security/cve/CVE-2020-24977/",
      "Description": "SUSE CVE CVE-2020-24977 page"
    },
    {
      "URL": "https://www.suse.com/security/cve/CVE-2020-7595/",
      "Description": "SUSE CVE CVE-2020-7595 page"
    },
    {
      "URL": "https://www.suse.com/security/cve/CVE-2021-3516/",
      "Description": "SUSE CVE CVE-2021-3516 page"
    },
    {
      "URL": "https://www.suse.com/security/cve/CVE-2021-3517/",
      "Description": "SUSE CVE CVE-2021-3517 page"
    },
    {
      "URL": "https://www.suse.com/security/cve/CVE-2021-3518/",
      "Description": "SUSE CVE CVE-2021-3518 page"
    },
    {
      "URL": "https://www.suse.com/security/cve/CVE-2021-3537/",
      "Description": "SUSE CVE CVE-2021-3537 page"
    },
    {
      "URL": "https://www.suse.com/security/cve/CVE-2021-3541/",
      "Description": "SUSE CVE CVE-2021-3541 page"
    }
  ],
  "Vulnerabilities": [
    {
      "CVE": "CVE-2013-2877",
      "Description": "parser.c in libxml2 before 2.9.0, as used in Google Chrome before 28.0.1500.71 and other products, allows remote attackers to cause a denial of service (out-of-bounds read) via a document that ends abruptly, related to the lack of certain checks for the XML_PARSER_EOF state.",
      "Threats": [
        {
          "Type": "Impact",
          "Severity": "critical"
        }
      ],
      "References": [
        {
          "URL": "https://www.suse.com/security/cve/CVE-2013-2877.html",
          "Description": "CVE-2013-2877"
        },
        {
          "URL": "https://bugzilla.suse.com/1123919",
          "Description": "SUSE Bug 1123919"
        },
        {
          "URL": "https://bugzilla.suse.com/828893",
          "Description": "SUSE Bug 828893"
        },
        {
          "URL": "https://bugzilla.suse.com/829077",
          "Description": "SUSE Bug 829077"
        },
        {
          "URL": "https://bugzilla.suse.com/854869",
          "Description": "SUSE Bug 854869"
        },
        {
          "URL": "https://bugzilla.suse.com/877506",
          "Description": "SUSE Bug 877506"
        }
      ],
      "ProductStatuses": [
        {
          "Type": "Fixed",
          "ProductID": [
            "openSUSE Tumbleweed:ruby2.7-rubygem-nokogiri-1.12.3-1.2",
            "openSUSE Tumbleweed:ruby3.0-rubygem-nokogiri-1.12.3-1.2"
          ]
        }
      ],
      "CVSSScoreSets": {}
    },
    {
      "CVE": "CVE-2014-0191",
      "Description": "The xmlParserHandlePEReference function in parser.c in libxml2 before 2.9.2, as used in Web Listener in Oracle HTTP Server in Oracle Fusion Middleware 11.1.1.7.0, 12.1.2.0, and 12.1.3.0 and other products, loads external parameter entities regardless of whether entity substitution or validation is enabled, which allows remote attackers to cause a denial of service (resource consumption) via a crafted XML document.",
      "Threats": [
        {
          "Type": "Impact",
          "Severity": "important"
        }
      ],
      "References": [
        {
          "URL": "https://www.suse.com/security/cve/CVE-2014-0191.html",
          "Description": "CVE-2014-0191"
        },
        {
          "URL": "https://bugzilla.suse.com/1014873",
          "Description": "SUSE Bug 1014873"
        },
        {
          "URL": "https://bugzilla.suse.com/1123919",
          "Description": "SUSE Bug 1123919"
        },
        {
          "URL": "https://bugzilla.suse.com/876652",
          "Description": "SUSE Bug 876652"
        },
        {
          "URL": "https://bugzilla.suse.com/877506",
          "Description": "SUSE Bug 877506"
        },
        {
          "URL": "https://bugzilla.suse.com/996079",
          "Description": "SUSE Bug 996079"
        }
      ],
      "ProductStatuses": [
        {
          "Type": "Fixed",
          "ProductID": [
            "openSUSE Tumbleweed:ruby2.7-rubygem-nokogiri-1.12.3-1.2",
            "openSUSE Tumbleweed:ruby3.0-rubygem-nokogiri-1.12.3-1.2"
          ]
        }
      ],
      "CVSSScoreSets": {
        "BaseScore": "7.1",
        "Vector": "AV:N/AC:M/Au:N/C:N/I:N/A:C"
      }
    },
    {
      "CVE": "CVE-2015-1819",
      "Description": "The xmlreader in libxml allows remote attackers to cause a denial of service (memory consumption) via crafted XML data, related to an XML Entity Expansion (XEE) attack.",
      "Threats": [
        {
          "Type": "Impact",
          "Severity": "moderate"
        }
      ],
      "References": [
        {
          "URL": "https://www.suse.com/security/cve/CVE-2015-1819.html",
          "Description": "CVE-2015-1819"
        },
        {
          "URL": "https://bugzilla.suse.com/1123919",
          "Description": "SUSE Bug 1123919"
        },
        {
          "URL": "https://bugzilla.suse.com/928193",
          "Description": "SUSE Bug 928193"
        },
        {
          "URL": "https://bugzilla.suse.com/969769",
          "Description": "SUSE Bug 969769"
        }
      ],
      "ProductStatuses": [
        {
          "Type": "Fixed",
          "ProductID": [
            "openSUSE Tumbleweed:ruby2.7-rubygem-nokogiri-1.12.3-1.2",
            "openSUSE Tumbleweed:ruby3.0-rubygem-nokogiri-1.12.3-1.2"
          ]
        }
      ],
      "CVSSScoreSets": {}
    },
    {
      "CVE": "CVE-2015-5312",
      "Description": "The xmlStringLenDecodeEntities function in parser.c in libxml2 before 2.9.3 does not properly prevent entity expansion, which allows context-dependent attackers to cause a denial of service (CPU consumption) via crafted XML data, a different vulnerability than CVE-2014-3660.",
      "Threats": [
        {
          "Type": "Impact",
          "Severity": "important"
        }
      ],
      "References": [
        {
          "URL": "https://www.suse.com/security/cve/CVE-2015-5312.html",
          "Description": "CVE-2015-5312"
        },
        {
          "URL": "https://bugzilla.suse.com/1123919",
          "Description": "SUSE Bug 1123919"
        },
        {
          "URL": "https://bugzilla.suse.com/957105",
          "Description": "SUSE Bug 957105"
        },
        {
          "URL": "https://bugzilla.suse.com/959469",
          "Description": "SUSE Bug 959469"
        },
        {
          "URL": "https://bugzilla.suse.com/969769",
          "Description": "SUSE Bug 969769"
        }
      ],
      "ProductStatuses": [
        {
          "Type": "Fixed",
          "ProductID": [
            "openSUSE Tumbleweed:ruby2.7-rubygem-nokogiri-1.12.3-1.2",
            "openSUSE Tumbleweed:ruby3.0-rubygem-nokogiri-1.12.3-1.2"
          ]
        }
      ],
      "CVSSScoreSets": {}
    },
    {
      "CVE": "CVE-2015-7497",
      "Description": "Heap-based buffer overflow in the xmlDictComputeFastQKey function in dict.c in libxml2 before 2.9.3 allows context-dependent attackers to cause a denial of service via unspecified vectors.",
      "Threats": [
        {
          "Type": "Impact",
          "Severity": "moderate"
        }
      ],
      "References": [
        {
          "URL": "https://www.suse.com/security/cve/CVE-2015-7497.html",
          "Description": "CVE-2015-7497"
        },
        {
          "URL": "https://bugzilla.suse.com/1123919",
          "Description": "SUSE Bug 1123919"
        },
        {
          "URL": "https://bugzilla.suse.com/957106",
          "Description": "SUSE Bug 957106"
        },
        {
          "URL": "https://bugzilla.suse.com/959469",
          "Description": "SUSE Bug 959469"
        },
        {
          "URL": "https://bugzilla.suse.com/969769",
          "Description": "SUSE Bug 969769"
        }
      ],
      "ProductStatuses": [
        {
          "Type": "Fixed",
          "ProductID": [
            "openSUSE Tumbleweed:ruby2.7-rubygem-nokogiri-1.12.3-1.2",
            "openSUSE Tumbleweed:ruby3.0-rubygem-nokogiri-1.12.3-1.2"
          ]
        }
      ],
      "CVSSScoreSets": {}
    },
    {
      "CVE": "CVE-2015-7498",
      "Description": "Heap-based buffer overflow in the xmlParseXmlDecl function in parser.c in libxml2 before 2.9.3 allows context-dependent attackers to cause a denial of service via unspecified vectors related to extracting errors after an encoding conversion failure.",
      "Threats": [
        {
          "Type": "Impact",
          "Severity": "moderate"
        }
      ],
      "References": [
        {
          "URL": "https://www.suse.com/security/cve/CVE-2015-7498.html",
          "Description": "CVE-2015-7498"
        },
        {
          "URL": "https://bugzilla.suse.com/1123919",
          "Description": "SUSE Bug 1123919"
        },
        {
          "URL": "https://bugzilla.suse.com/957107",
          "Description": "SUSE Bug 957107"
        },
        {
          "URL": "https://bugzilla.suse.com/959469",
          "Description": "SUSE Bug 959469"
        },
        {
          "URL": "https://bugzilla.suse.com/969769",
          "Description": "SUSE Bug 969769"
        }
      ],
      "ProductStatuses": [
        {
          "Type": "Fixed",
          "ProductID": [
            "openSUSE Tumbleweed:ruby2.7-rubygem-nokogiri-1.12.3-1.2",
            "openSUSE Tumbleweed:ruby3.0-rubygem-nokogiri-1.12.3-1.2"
          ]
        }
      ],
      "CVSSScoreSets": {}
    },
    {
      "CVE": "CVE-2015-7499",
      "Description": "Heap-based buffer overflow in the xmlGROW function in parser.c in libxml2 before 2.9.3 allows context-dependent attackers to obtain sensitive process memory information via unspecified vectors.",
      "Threats": [
        {
          "Type": "Impact",
          "Severity": "moderate"
        }
      ],
      "References": [
        {
          "URL": "https://www.suse.com/security/cve/CVE-2015-7499.html",
          "Description": "CVE-2015-7499"
        },
        {
          "URL": "https://bugzilla.suse.com/1123919",
          "Description": "SUSE Bug 1123919"
        },
        {
          "URL": "https://bugzilla.suse.com/957109",
          "Description": "SUSE Bug 957109"
        },
        {
          "URL": "https://bugzilla.suse.com/959469",
          "Description": "SUSE Bug 959469"
        },
        {
          "URL": "https://bugzilla.suse.com/969769",
          "Description": "SUSE Bug 969769"
        }
      ],
      "ProductStatuses": [
        {
          "Type": "Fixed",
          "ProductID": [
            "openSUSE Tumbleweed:ruby2.7-rubygem-nokogiri-1.12.3-1.2",
            "openSUSE Tumbleweed:ruby3.0-rubygem-nokogiri-1.12.3-1.2"
          ]
        }
      ],
      "CVSSScoreSets": {}
    },
    {
      "CVE": "CVE-2015-7500",
      "Description": "The xmlParseMisc function in parser.c in libxml2 before 2.9.3 allows context-dependent attackers to cause a denial of service (out-of-bounds heap read) via unspecified vectors related to incorrect entities boundaries and start tags.",
      "Threats": [
        {
          "Type": "Impact",
          "Severity": "moderate"
        }
      ],
      "References": [
        {
          "URL": "https://www.suse.com/security/cve/CVE-2015-7500.html",
          "Description": "CVE-2015-7500"
        },
        {
          "URL": "https://bugzilla.suse.com/1123919",
          "Description": "SUSE Bug 1123919"
        },
        {
          "URL": "https://bugzilla.suse.com/957110",
          "Description": "SUSE Bug 957110"
        },
        {
          "URL": "https://bugzilla.suse.com/959469",
          "Description": "SUSE Bug 959469"
        },
        {
          "URL": "https://bugzilla.suse.com/969769",
          "Description": "SUSE Bug 969769"
        }
      ],
      "ProductStatuses": [
        {
          "Type": "Fixed",
          "ProductID": [
            "openSUSE Tumbleweed:ruby2.7-rubygem-nokogiri-1.12.3-1.2",
            "openSUSE Tumbleweed:ruby3.0-rubygem-nokogiri-1.12.3-1.2"
          ]
        }
      ],
      "CVSSScoreSets": {}
    },
    {
      "CVE": "CVE-2015-7941",
      "Description": "libxml2 2.9.2 does not properly stop parsing invalid input, which allows context-dependent attackers to cause a denial of service (out-of-bounds read and libxml2 crash) via crafted XML data to the (1) xmlParseEntityDecl or (2) xmlParseConditionalSections function in parser.c, as demonstrated by non-terminated entities.",
      "Threats": [
        {
          "Type": "Impact",
          "Severity": "low"
        }
      ],
      "References": [
        {
          "URL": "https://www.suse.com/security/cve/CVE-2015-7941.html",
          "Description": "CVE-2015-7941"
        },
        {
          "URL": "https://bugzilla.suse.com/1123919",
          "Description": "SUSE Bug 1123919"
        },
        {
          "URL": "https://bugzilla.suse.com/951734",
          "Description": "SUSE Bug 951734"
        },
        {
          "URL": "https://bugzilla.suse.com/951735",
          "Description": "SUSE Bug 951735"
        },
        {
          "URL": "https://bugzilla.suse.com/969769",
          "Description": "SUSE Bug 969769"
        }
      ],
      "ProductStatuses": [
        {
          "Type": "Fixed",
          "ProductID": [
            "openSUSE Tumbleweed:ruby2.7-rubygem-nokogiri-1.12.3-1.2",
            "openSUSE Tumbleweed:ruby3.0-rubygem-nokogiri-1.12.3-1.2"
          ]
        }
      ],
      "CVSSScoreSets": {
        "BaseScore": "4.3",
        "Vector": "AV:N/AC:M/Au:N/C:N/I:N/A:P"
      }
    },
    {
      "CVE": "CVE-2015-7942",
      "Description": "The xmlParseConditionalSections function in parser.c in libxml2 does not properly skip intermediary entities when it stops parsing invalid input, which allows context-dependent attackers to cause a denial of service (out-of-bounds read and crash) via crafted XML data, a different vulnerability than CVE-2015-7941.",
      "Threats": [
        {
          "Type": "Impact",
          "Severity": "low"
        }
      ],
      "References": [
        {
          "URL": "https://www.suse.com/security/cve/CVE-2015-7942.html",
          "Description": "CVE-2015-7942"
        },
        {
          "URL": "https://bugzilla.suse.com/1123919",
          "Description": "SUSE Bug 1123919"
        },
        {
          "URL": "https://bugzilla.suse.com/951735",
          "Description": "SUSE Bug 951735"
        },
        {
          "URL": "https://bugzilla.suse.com/969769",
          "Description": "SUSE Bug 969769"
        }
      ],
      "ProductStatuses": [
        {
          "Type": "Fixed",
          "ProductID": [
            "openSUSE Tumbleweed:ruby2.7-rubygem-nokogiri-1.12.3-1.2",
            "openSUSE Tumbleweed:ruby3.0-rubygem-nokogiri-1.12.3-1.2"
          ]
        }
      ],
      "CVSSScoreSets": {}
    },
    {
      "CVE": "CVE-2015-7995",
      "Description": "The xsltStylePreCompute function in preproc.c in libxslt 1.1.28 does not check if the parent node is an element, which allows attackers to cause a denial of service via a crafted XML file, related to a \"type confusion\" issue.",
      "Threats": [
        {
          "Type": "Impact",
          "Severity": "low"
        }
      ],
      "References": [
        {
          "URL": "https://www.suse.com/security/cve/CVE-2015-7995.html",
          "Description": "CVE-2015-7995"
        },
        {
          "URL": "https://bugzilla.suse.com/1123130",
          "Description": "SUSE Bug 1123130"
        },
        {
          "URL": "https://bugzilla.suse.com/952474",
          "Description": "SUSE Bug 952474"
        }
      ],
      "ProductStatuses": [
        {
          "Type": "Fixed",
          "ProductID": [
            "openSUSE Tumbleweed:ruby2.7-rubygem-nokogiri-1.12.3-1.2",
            "openSUSE Tumbleweed:ruby3.0-rubygem-nokogiri-1.12.3-1.2"
          ]
        }
      ],
      "CVSSScoreSets": {
        "BaseScore": "5",
        "Vector": "AV:N/AC:L/Au:N/C:N/I:N/A:P"
      }
    },
    {
      "CVE": "CVE-2015-8035",
      "Description": "The xz_decomp function in xzlib.c in libxml2 2.9.1 does not properly detect compression errors, which allows context-dependent attackers to cause a denial of service (process hang) via crafted XML data.",
      "Threats": [
        {
          "Type": "Impact",
          "Severity": "low"
        }
      ],
      "References": [
        {
          "URL": "https://www.suse.com/security/cve/CVE-2015-8035.html",
          "Description": "CVE-2015-8035"
        },
        {
          "URL": "https://bugzilla.suse.com/1088279",
          "Description": "SUSE Bug 1088279"
        },
        {
          "URL": "https://bugzilla.suse.com/1105166",
          "Description": "SUSE Bug 1105166"
        },
        {
          "URL": "https://bugzilla.suse.com/954429",
          "Description": "SUSE Bug 954429"
        }
      ],
      "ProductStatuses": [
        {
          "Type": "Fixed",
          "ProductID": [
            "openSUSE Tumbleweed:ruby2.7-rubygem-nokogiri-1.12.3-1.2",
            "openSUSE Tumbleweed:ruby3.0-rubygem-nokogiri-1.12.3-1.2"
          ]
        }
      ],
      "CVSSScoreSets": {
        "BaseScore": "4.3",
        "Vector": "AV:N/AC:M/Au:N/C:N/I:N/A:P"
      }
    },
    {
      "CVE": "CVE-2015-8241",
      "Description": "The xmlNextChar function in libxml2 2.9.2 does not properly check the state, which allows context-dependent attackers to cause a denial of service (heap-based buffer over-read and application crash) or obtain sensitive information via crafted XML data.",
      "Threats": [
        {
          "Type": "Impact",
          "Severity": "moderate"
        }
      ],
      "References": [
        {
          "URL": "https://www.suse.com/security/cve/CVE-2015-8241.html",
          "Description": "CVE-2015-8241"
        },
        {
          "URL": "https://bugzilla.suse.com/1123919",
          "Description": "SUSE Bug 1123919"
        },
        {
          "URL": "https://bugzilla.suse.com/956018",
          "Description": "SUSE Bug 956018"
        },
        {
          "URL": "https://bugzilla.suse.com/959469",
          "Description": "SUSE Bug 959469"
        },
        {
          "URL": "https://bugzilla.suse.com/969769",
          "Description": "SUSE Bug 969769"
        }
      ],
      "ProductStatuses": [
        {
          "Type": "Fixed",
          "ProductID": [
            "openSUSE Tumbleweed:ruby2.7-rubygem-nokogiri-1.12.3-1.2",
            "openSUSE Tumbleweed:ruby3.0-rubygem-nokogiri-1.12.3-1.2"
          ]
        }
      ],
      "CVSSScoreSets": {
        "BaseScore": "4.3",
        "Vector": "AV:N/AC:M/Au:N/C:P/I:N/A:N"
      }
    },
    {
      "CVE": "CVE-2015-8242",
      "Description": "The xmlSAX2TextNode function in SAX2.c in the push interface in the HTML parser in libxml2 before 2.9.3 allows context-dependent attackers to cause a denial of service (stack-based buffer over-read and application crash) or obtain sensitive information via crafted XML data.",
      "Threats": [
        {
          "Type": "Impact",
          "Severity": "moderate"
        }
      ],
      "References": [
        {
          "URL": "https://www.suse.com/security/cve/CVE-2015-8242.html",
          "Description": "CVE-2015-8242"
        },
        {
          "URL": "https://bugzilla.suse.com/1123919",
          "Description": "SUSE Bug 1123919"
        },
        {
          "URL": "https://bugzilla.suse.com/956021",
          "Description": "SUSE Bug 956021"
        },
        {
          "URL": "https://bugzilla.suse.com/959469",
          "Description": "SUSE Bug 959469"
        },
        {
          "URL": "https://bugzilla.suse.com/969769",
          "Description": "SUSE Bug 969769"
        }
      ],
      "ProductStatuses": [
        {
          "Type": "Fixed",
          "ProductID": [
            "openSUSE Tumbleweed:ruby2.7-rubygem-nokogiri-1.12.3-1.2",
            "openSUSE Tumbleweed:ruby3.0-rubygem-nokogiri-1.12.3-1.2"
          ]
        }
      ],
      "CVSSScoreSets": {
        "BaseScore": "4.3",
        "Vector": "AV:N/AC:M/Au:N/C:P/I:N/A:N"
      }
    },
    {
      "CVE": "CVE-2015-8317",
      "Description": "The xmlParseXMLDecl function in parser.c in libxml2 before 2.9.3 allows context-dependent attackers to obtain sensitive information via an (1) unterminated encoding value or (2) incomplete XML declaration in XML data, which triggers an out-of-bounds heap read.",
      "Threats": [
        {
          "Type": "Impact",
          "Severity": "moderate"
        }
      ],
      "References": [
        {
          "URL": "https://www.suse.com/security/cve/CVE-2015-8317.html",
          "Description": "CVE-2015-8317"
        },
        {
          "URL": "https://bugzilla.suse.com/1123919",
          "Description": "SUSE Bug 1123919"
        },
        {
          "URL": "https://bugzilla.suse.com/956260",
          "Description": "SUSE Bug 956260"
        },
        {
          "URL": "https://bugzilla.suse.com/959469",
          "Description": "SUSE Bug 959469"
        },
        {
          "URL": "https://bugzilla.suse.com/969769",
          "Description": "SUSE Bug 969769"
        }
      ],
      "ProductStatuses": [
        {
          "Type": "Fixed",
          "ProductID": [
            "openSUSE Tumbleweed:ruby2.7-rubygem-nokogiri-1.12.3-1.2",
            "openSUSE Tumbleweed:ruby3.0-rubygem-nokogiri-1.12.3-1.2"
          ]
        }
      ],
      "CVSSScoreSets": {
        "BaseScore": "4.3",
        "Vector": "AV:N/AC:M/Au:N/C:P/I:N/A:N"
      }
    },
    {
      "CVE": "CVE-2016-4658",
      "Description": "xpointer.c in libxml2 before 2.9.5 (as used in Apple iOS before 10, OS X before 10.12, tvOS before 10, and watchOS before 3, and other products) does not forbid namespace nodes in XPointer ranges, which allows remote attackers to execute arbitrary code or cause a denial of service (use-after-free and memory corruption) via a crafted XML document.",
      "Threats": [
        {
          "Type": "Impact",
          "Severity": "moderate"
        }
      ],
      "References": [
        {
          "URL": "https://www.suse.com/security/cve/CVE-2016-4658.html",
          "Description": "CVE-2016-4658"
        },
        {
          "URL": "https://bugzilla.suse.com/1005544",
          "Description": "SUSE Bug 1005544"
        },
        {
          "URL": "https://bugzilla.suse.com/1014873",
          "Description": "SUSE Bug 1014873"
        },
        {
          "URL": "https://bugzilla.suse.com/1069433",
          "Description": "SUSE Bug 1069433"
        },
        {
          "URL": "https://bugzilla.suse.com/1078813",
          "Description": "SUSE Bug 1078813"
        },
        {
          "URL": "https://bugzilla.suse.com/1123919",
          "Description": "SUSE Bug 1123919"
        }
      ],
      "ProductStatuses": [
        {
          "Type": "Fixed",
          "ProductID": [
            "openSUSE Tumbleweed:ruby2.7-rubygem-nokogiri-1.12.3-1.2",
            "openSUSE Tumbleweed:ruby3.0-rubygem-nokogiri-1.12.3-1.2"
          ]
        }
      ],
      "CVSSScoreSets": {
        "BaseScore": "5.1",
        "Vector": "AV:N/AC:H/Au:N/C:P/I:P/A:P"
      }
    },
    {
      "CVE": "CVE-2016-4738",
      "Description": "libxslt in Apple iOS before 10, OS X before 10.12, tvOS before 10, and watchOS before 3 allows remote attackers to execute arbitrary code or cause a denial of service (memory corruption) via a crafted web site.",
      "Threats": [
        {
          "Type": "Impact",
          "Severity": "moderate"
        }
      ],
      "References": [
        {
          "URL": "https://www.suse.com/security/cve/CVE-2016-4738.html",
          "Description": "CVE-2016-4738"
        },
        {
          "URL": "https://bugzilla.suse.com/1005591",
          "Description": "SUSE Bug 1005591"
        },
        {
          "URL": "https://bugzilla.suse.com/1123130",
          "Description": "SUSE Bug 1123130"
        }
      ],
      "ProductStatuses": [
        {
          "Type": "Fixed",
          "ProductID": [
            "openSUSE Tumbleweed:ruby2.7-rubygem-nokogiri-1.12.3-1.2",
            "openSUSE Tumbleweed:ruby3.0-rubygem-nokogiri-1.12.3-1.2"
          ]
        }
      ],
      "CVSSScoreSets": {
        "BaseScore": "4.3",
        "Vector": "AV:N/AC:M/Au:N/C:P/I:N/A:N"
      }
    },
    {
      "CVE": "CVE-2016-5131",
      "Description": "Use-after-free vulnerability in libxml2 through 2.9.4, as used in Google Chrome before 52.0.2743.82, allows remote attackers to cause a denial of service or possibly have unspecified other impact via vectors related to the XPointer range-to function.",
      "Threats": [
        {
          "Type": "Impact",
          "Severity": "important"
        }
      ],
      "References": [
        {
          "URL": "https://www.suse.com/security/cve/CVE-2016-5131.html",
          "Description": "CVE-2016-5131"
        },
        {
          "URL": "https://bugzilla.suse.com/1014873",
          "Description": "SUSE Bug 1014873"
        },
        {
          "URL": "https://bugzilla.suse.com/1069433",
          "Description": "SUSE Bug 1069433"
        },
        {
          "URL": "https://bugzilla.suse.com/1078813",
          "Description": "SUSE Bug 1078813"
        },
        {
          "URL": "https://bugzilla.suse.com/1123919",
          "Description": "SUSE Bug 1123919"
        },
        {
          "URL": "https://bugzilla.suse.com/989901",
          "Description": "SUSE Bug 989901"
        }
      ],
      "ProductStatuses": [
        {
          "Type": "Fixed",
          "ProductID": [
            "openSUSE Tumbleweed:ruby2.7-rubygem-nokogiri-1.12.3-1.2",
            "openSUSE Tumbleweed:ruby3.0-rubygem-nokogiri-1.12.3-1.2"
          ]
        }
      ],
      "CVSSScoreSets": {}
    },
    {
      "CVE": "CVE-2017-15412",
      "Description": "Use after free in libxml2 before 2.9.5, as used in Google Chrome prior to 63.0.3239.84 and other products, allowed a remote attacker to potentially exploit heap corruption via a crafted HTML page.",
      "Threats": [
        {
          "Type": "Impact",
          "Severity": "important"
        }
      ],
      "References": [
        {
          "URL": "https://www.suse.com/security/cve/CVE-2017-15412.html",
          "Description": "CVE-2017-15412"
        },
        {
          "URL": "https://bugzilla.suse.com/1071691",
          "Description": "SUSE Bug 1071691"
        },
        {
          "URL": "https://bugzilla.suse.com/1077993",
          "Description": "SUSE Bug 1077993"
        },
        {
          "URL": "https://bugzilla.suse.com/1123129",
          "Description": "SUSE Bug 1123129"
        },
        {
          "URL": "https://bugzilla.suse.com/1123919",
          "Description": "SUSE Bug 1123919"
        }
      ],
      "ProductStatuses": [
        {
          "Type": "Fixed",
          "ProductID": [
            "openSUSE Tumbleweed:ruby2.7-rubygem-nokogiri-1.12.3-1.2",
            "openSUSE Tumbleweed:ruby3.0-rubygem-nokogiri-1.12.3-1.2"
          ]
        }
      ],
      "CVSSScoreSets": {}
    },
    {
      "CVE": "CVE-2017-5029",
      "Description": "The xsltAddTextString function in transform.c in libxslt 1.1.29, as used in Blink in Google Chrome prior to 57.0.2987.98 for Mac, Windows, and Linux and 57.0.2987.108 for Android, lacked a check for integer overflow during a size calculation, which allowed a remote attacker to perform an out of bounds memory write via a crafted HTML page.",
      "Threats": [
        {
          "Type": "Impact",
          "Severity": "low"
        }
      ],
      "References": [
        {
          "URL": "https://www.suse.com/security/cve/CVE-2017-5029.html",
          "Description": "CVE-2017-5029"
        },
        {
          "URL": "https://bugzilla.suse.com/1028848",
          "Description": "SUSE Bug 1028848"
        },
        {
          "URL": "https://bugzilla.suse.com/1028875",
          "Description": "SUSE Bug 1028875"
        },
        {
          "URL": "https://bugzilla.suse.com/1035905",
          "Description": "SUSE Bug 1035905"
        },
        {
          "URL": "https://bugzilla.suse.com/1123130",
          "Description": "SUSE Bug 1123130"
        }
      ],
      "ProductStatuses": [
        {
          "Type": "Fixed",
          "ProductID": [
            "openSUSE Tumbleweed:ruby2.7-rubygem-nokogiri-1.12.3-1.2",
            "openSUSE Tumbleweed:ruby3.0-rubygem-nokogiri-1.12.3-1.2"
          ]
        }
      ],
      "CVSSScoreSets": {
        "BaseScore": "3.3",
        "Vector": "AV:L/AC:M/Au:N/C:N/I:P/A:P"
      }
    },
    {
      "CVE": "CVE-2018-14404",
      "Description": "A NULL pointer dereference vulnerability exists in the xpath.c:xmlXPathCompOpEval() function of libxml2 through 2.9.8 when parsing an invalid XPath expression in the XPATH_OP_AND or XPATH_OP_OR case. Applications processing untrusted XSL format inputs with the use of the libxml2 library may be vulnerable to a denial of service attack due to a crash of the application.",
      "Threats": [
        {
          "Type": "Impact",
          "Severity": "moderate"
        }
      ],
      "References": [
        {
          "URL": "https://www.suse.com/security/cve/CVE-2018-14404.html",
          "Description": "CVE-2018-14404"
        },
        {
          "URL": "https://bugzilla.suse.com/1102046",
          "Description": "SUSE Bug 1102046"
        },
        {
          "URL": "https://bugzilla.suse.com/1148896",
          "Description": "SUSE Bug 1148896"
        }
      ],
      "ProductStatuses": [
        {
          "Type": "Fixed",
          "ProductID": [
            "openSUSE Tumbleweed:ruby2.7-rubygem-nokogiri-1.12.3-1.2",
            "openSUSE Tumbleweed:ruby3.0-rubygem-nokogiri-1.12.3-1.2"
          ]
        }
      ],
      "CVSSScoreSets": {}
    },
    {
      "CVE": "CVE-2018-8048",
      "Description": "In the Loofah gem through 2.2.0 for Ruby, non-whitelisted HTML attributes may occur in sanitized output by republishing a crafted HTML fragment.",
      "Threats": [
        {
          "Type": "Impact",
          "Severity": "moderate"
        }
      ],
      "References": [
        {
          "URL": "https://www.suse.com/security/cve/CVE-2018-8048.html",
          "Description": "CVE-2018-8048"
        },
        {
          "URL": "https://bugzilla.suse.com/1085967",
          "Description": "SUSE Bug 1085967"
        },
        {
          "URL": "https://bugzilla.suse.com/1086598",
          "Description": "SUSE Bug 1086598"
        }
      ],
      "ProductStatuses": [
        {
          "Type": "Fixed",
          "ProductID": [
            "openSUSE Tumbleweed:ruby2.7-rubygem-nokogiri-1.12.3-1.2",
            "openSUSE Tumbleweed:ruby3.0-rubygem-nokogiri-1.12.3-1.2"
          ]
        }
      ],
      "CVSSScoreSets": {}
    },
    {
      "CVE": "CVE-2019-11068",
      "Description": "libxslt through 1.1.33 allows bypass of a protection mechanism because callers of xsltCheckRead and xsltCheckWrite permit access even upon receiving a -1 error code. xsltCheckRead can return -1 for a crafted URL that is not actually invalid and is subsequently loaded.",
      "Threats": [
        {
          "Type": "Impact",
          "Severity": "moderate"
        }
      ],
      "References": [
        {
          "URL": "https://www.suse.com/security/cve/CVE-2019-11068.html",
          "Description": "CVE-2019-11068"
        },
        {
          "URL": "https://bugzilla.suse.com/1132160",
          "Description": "SUSE Bug 1132160"
        },
        {
          "URL": "https://bugzilla.suse.com/1154212",
          "Description": "SUSE Bug 1154212"
        }
      ],
      "ProductStatuses": [
        {
          "Type": "Fixed",
          "ProductID": [
            "openSUSE Tumbleweed:ruby2.7-rubygem-nokogiri-1.12.3-1.2",
            "openSUSE Tumbleweed:ruby3.0-rubygem-nokogiri-1.12.3-1.2"
          ]
        }
      ],
      "CVSSScoreSets": {}
    },
    {
      "CVE": "CVE-2019-20388",
      "Description": "xmlSchemaPreRun in xmlschemas.c in libxml2 2.9.10 allows an xmlSchemaValidateStream memory leak.",
      "Threats": [
        {
          "Type": "Impact",
          "Severity": "low"
        }
      ],
      "References": [
        {
          "URL": "https://www.suse.com/security/cve/CVE-2019-20388.html",
          "Description": "CVE-2019-20388"
        },
        {
          "URL": "https://bugzilla.suse.com/1161521",
          "Description": "SUSE Bug 1161521"
        },
        {
          "URL": "https://bugzilla.suse.com/1191860",
          "Description": "SUSE Bug 1191860"
        }
      ],
      "ProductStatuses": [
        {
          "Type": "Fixed",
          "ProductID": [
            "openSUSE Tumbleweed:ruby2.7-rubygem-nokogiri-1.12.3-1.2",
            "openSUSE Tumbleweed:ruby3.0-rubygem-nokogiri-1.12.3-1.2"
          ]
        }
      ],
      "CVSSScoreSets": {}
    },
    {
      "CVE": "CVE-2019-5477",
      "Description": "A command injection vulnerability in Nokogiri v1.10.3 and earlier allows commands to be executed in a subprocess via Ruby's `Kernel.open` method. Processes are vulnerable only if the undocumented method `Nokogiri::CSS::Tokenizer#load_file` is being called with unsafe user input as the filename. This vulnerability appears in code generated by the Rexical gem versions v1.0.6 and earlier. Rexical is used by Nokogiri to generate lexical scanner code for parsing CSS queries. The underlying vulnerability was addressed in Rexical v1.0.7 and Nokogiri upgraded to this version of Rexical in Nokogiri v1.10.4.",
      "Threats": [
        {
          "Type": "Impact",
          "Severity": "important"
        }
      ],
      "References": [
        {
          "URL": "https://www.suse.com/security/cve/CVE-2019-5477.html",
          "Description": "CVE-2019-5477"
        },
        {
          "URL": "https://bugzilla.suse.com/1146578",
          "Description": "SUSE Bug 1146578"
        }
      ],
      "ProductStatuses": [
        {
          "Type": "Fixed",
          "ProductID": [
            "openSUSE Tumbleweed:ruby2.7-rubygem-nokogiri-1.12.3-1.2",
            "openSUSE Tumbleweed:ruby3.0-rubygem-nokogiri-1.12.3-1.2"
          ]
        }
      ],
      "CVSSScoreSets": {}
    },
    {
      "CVE": "CVE-2020-24977",
      "Description": "GNOME project libxml2 v2.9.10 has a global buffer over-read vulnerability in xmlEncodeEntitiesInternal at libxml2/entities.c. The issue has been fixed in commit 50f06b3e.",
      "Threats": [
        {
          "Type": "Impact",
          "Severity": "moderate"
        }
      ],
      "References": [
        {
          "URL": "https://www.suse.com/security/cve/CVE-2020-24977.html",
          "Description": "CVE-2020-24977"
        },
        {
          "URL": "https://bugzilla.suse.com/1176179",
          "Description": "SUSE Bug 1176179"
        },
        {
          "URL": "https://bugzilla.suse.com/1191860",
          "Description": "SUSE Bug 1191860"
        }
      ],
      "ProductStatuses": [
        {
          "Type": "Fixed",
          "ProductID": [
            "openSUSE Tumbleweed:ruby2.7-rubygem-nokogiri-1.12.3-1.2",
            "openSUSE Tumbleweed:ruby3.0-rubygem-nokogiri-1.12.3-1.2"
          ]
        }
      ],
      "CVSSScoreSets": {}
    },
    {
      "CVE": "CVE-2020-7595",
      "Description": "xmlStringLenDecodeEntities in parser.c in libxml2 2.9.10 has an infinite loop in a certain end-of-file situation.",
      "Threats": [
        {
          "Type": "Impact",
          "Severity": "moderate"
        }
      ],
      "References": [
        {
          "URL": "https://www.suse.com/security/cve/CVE-2020-7595.html",
          "Description": "CVE-2020-7595"
        },
        {
          "URL": "https://bugzilla.suse.com/1161517",
          "Description": "SUSE Bug 1161517"
        },
        {
          "URL": "https://bugzilla.suse.com/1191860",
          "Description": "SUSE Bug 1191860"
        }
      ],
      "ProductStatuses": [
        {
          "Type": "Fixed",
          "ProductID": [
            "openSUSE Tumbleweed:ruby2.7-rubygem-nokogiri-1.12.3-1.2",
            "openSUSE Tumbleweed:ruby3.0-rubygem-nokogiri-1.12.3-1.2"
          ]
        }
      ],
      "CVSSScoreSets": {}
    },
    {
      "CVE": "CVE-2021-3516",
      "Description": "There's a flaw in libxml2's xmllint in versions before 2.9.11. An attacker who is able to submit a crafted file to be processed by xmllint could trigger a use-after-free. The greatest impact of this flaw is to confidentiality, integrity, and availability.",
      "Threats": [
        {
          "Type": "Impact",
          "Severity": "moderate"
        }
      ],
      "References": [
        {
          "URL": "https://www.suse.com/security/cve/CVE-2021-3516.html",
          "Description": "CVE-2021-3516"
        },
        {
          "URL": "https://bugzilla.suse.com/1185409",
          "Description": "SUSE Bug 1185409"
        },
        {
          "URL": "https://bugzilla.suse.com/1191860",
          "Description": "SUSE Bug 1191860"
        }
      ],
      "ProductStatuses": [
        {
          "Type": "Fixed",
          "ProductID": [
            "openSUSE Tumbleweed:ruby2.7-rubygem-nokogiri-1.12.3-1.2",
            "openSUSE Tumbleweed:ruby3.0-rubygem-nokogiri-1.12.3-1.2"
          ]
        }
      ],
      "CVSSScoreSets": {}
    },
    {
      "CVE": "CVE-2021-3517",
      "Description": "There is a flaw in the xml entity encoding functionality of libxml2 in versions before 2.9.11. An attacker who is able to supply a crafted file to be processed by an application linked with the affected functionality of libxml2 could trigger an out-of-bounds read. The most likely impact of this flaw is to application availability, with some potential impact to confidentiality and integrity if an attacker is able to use memory information to further exploit the application.",
      "Threats": [
        {
          "Type": "Impact",
          "Severity": "important"
        }
      ],
      "References": [
        {
          "URL": "https://www.suse.com/security/cve/CVE-2021-3517.html",
          "Description": "CVE-2021-3517"
        },
        {
          "URL": "https://bugzilla.suse.com/1185410",
          "Description": "SUSE Bug 1185410"
        },
        {
          "URL": "https://bugzilla.suse.com/1191860",
          "Description": "SUSE Bug 1191860"
        },
        {
          "URL": "https://bugzilla.suse.com/1194438",
          "Description": "SUSE Bug 1194438"
        },
        {
          "URL": "https://bugzilla.suse.com/1196383",
          "Description": "SUSE Bug 1196383"
        }
      ],
      "ProductStatuses": [
        {
          "Type": "Fixed",
          "ProductID": [
            "openSUSE Tumbleweed:ruby2.7-rubygem-nokogiri-1.12.3-1.2",
            "openSUSE Tumbleweed:ruby3.0-rubygem-nokogiri-1.12.3-1.2"
          ]
        }
      ],
      "CVSSScoreSets": {}
    },
    {
      "CVE": "CVE-2021-3518",
      "Description": "There's a flaw in libxml2 in versions before 2.9.11. An attacker who is able to submit a crafted file to be processed by an application linked with libxml2 could trigger a use-after-free. The greatest impact from this flaw is to confidentiality, integrity, and availability.",
      "Threats": [
        {
          "Type": "Impact",
          "Severity": "moderate"
        }
      ],
      "References": [
        {
          "URL": "https://www.suse.com/security/cve/CVE-2021-3518.html",
          "Description": "CVE-2021-3518"
        },
        {
          "URL": "https://bugzilla.suse.com/1185408",
          "Description": "SUSE Bug 1185408"
        },
        {
          "URL": "https://bugzilla.suse.com/1191860",
          "Description": "SUSE Bug 1191860"
        }
      ],
      "ProductStatuses": [
        {
          "Type": "Fixed",
          "ProductID": [
            "openSUSE Tumbleweed:ruby2.7-rubygem-nokogiri-1.12.3-1.2",
            "openSUSE Tumbleweed:ruby3.0-rubygem-nokogiri-1.12.3-1.2"
          ]
        }
      ],
      "CVSSScoreSets": {}
    },
    {
      "CVE": "CVE-2021-3537",
      "Description": "A vulnerability found in libxml2 in versions before 2.9.11 shows that it did not propagate errors while parsing XML mixed content, causing a NULL dereference. If an untrusted XML document was parsed in recovery mode and post-validated, the flaw could be used to crash the application. The highest threat from this vulnerability is to system availability.",
      "Threats": [
        {
          "Type": "Impact",
          "Severity": "important"
        }
      ],
      "References": [
        {
          "URL": "https://www.suse.com/security/cve/CVE-2021-3537.html",
          "Description": "CVE-2021-3537"
        },
        {
          "URL": "https://bugzilla.suse.com/1185698",
          "Description": "SUSE Bug 1185698"
        }
      ],
      "ProductStatuses": [
        {
          "Type": "Fixed",
          "ProductID": [
            "openSUSE Tumbleweed:ruby2.7-rubygem-nokogiri-1.12.3-1.2",
            "openSUSE Tumbleweed:ruby3.0-rubygem-nokogiri-1.12.3-1.2"
          ]
        }
      ],
      "CVSSScoreSets": {}
    },
    {
      "CVE": "CVE-2021-3541",
      "Description": "A flaw was found in libxml2. Exponential entity expansion attack its possible bypassing all existing protection mechanisms and leading to denial of service.",
      "Threats": [
        {
          "Type": "Impact",
          "Severity": "moderate"
        }
      ],
      "References": [
        {
          "URL": "https://www.suse.com/security/cve/CVE-2021-3541.html",
          "Description": "CVE-2021-3541"
        },
        {
          "URL": "https://bugzilla.suse.com/1186015",
          "Description": "SUSE Bug 1186015"
        }
      ],
      "ProductStatuses": [
        {
          "Type": "Fixed",
          "ProductID": [
            "openSUSE Tumbleweed:ruby2.7-rubygem-nokogiri-1.12.3-1.2",
            "openSUSE Tumbleweed:ruby3.0-rubygem-nokogiri-1.12.3-1.2"
          ]
        }
      ],
      "CVSSScoreSets": {}
    }
  ]
}