{
  "Title": "postgresql93-9.3.15-1.1 on GA media",
  "Tracking": {
    "ID": "openSUSE-SU-2024:10256-1",
    "Status": "Final",
    "Version": "1",
    "InitialReleaseDate": "2024-06-22T21:44:56Z",
    "CurrentReleaseDate": "2024-06-22T21:44:56Z",
    "RevisionHistory": [
      {
        "Number": "1",
        "Date": "2024-06-22T21:44:56Z",
        "Description": "current"
      }
    ]
  },
  "Notes": [
    {
      "Text": "postgresql93-9.3.15-1.1 on GA media",
      "Title": "Topic",
      "Type": "Summary"
    },
    {
      "Text": "These are all security issues fixed in the postgresql93-9.3.15-1.1 package on the GA media of openSUSE Tumbleweed.",
      "Title": "Details",
      "Type": "General"
    },
    {
      "Text": "The CVRF data is provided by SUSE under the Creative Commons License 4.0 with Attribution (CC-BY-4.0).",
      "Title": "Terms of Use",
      "Type": "Legal Disclaimer"
    },
    {
      "Text": "openSUSE-Tumbleweed-2024-10256",
      "Title": "Patchnames",
      "Type": "Details"
    }
  ],
  "ProductTree": {
    "Relationships": [
      {
        "ProductReference": "postgresql93-9.3.15-1.1",
        "RelatesToProductReference": "openSUSE Tumbleweed",
        "RelationType": "Default Component Of"
      },
      {
        "ProductReference": "postgresql93-contrib-9.3.15-1.1",
        "RelatesToProductReference": "openSUSE Tumbleweed",
        "RelationType": "Default Component Of"
      },
      {
        "ProductReference": "postgresql93-devel-9.3.15-1.1",
        "RelatesToProductReference": "openSUSE Tumbleweed",
        "RelationType": "Default Component Of"
      },
      {
        "ProductReference": "postgresql93-docs-9.3.15-1.1",
        "RelatesToProductReference": "openSUSE Tumbleweed",
        "RelationType": "Default Component Of"
      },
      {
        "ProductReference": "postgresql93-plperl-9.3.15-1.1",
        "RelatesToProductReference": "openSUSE Tumbleweed",
        "RelationType": "Default Component Of"
      },
      {
        "ProductReference": "postgresql93-plpython-9.3.15-1.1",
        "RelatesToProductReference": "openSUSE Tumbleweed",
        "RelationType": "Default Component Of"
      },
      {
        "ProductReference": "postgresql93-pltcl-9.3.15-1.1",
        "RelatesToProductReference": "openSUSE Tumbleweed",
        "RelationType": "Default Component Of"
      },
      {
        "ProductReference": "postgresql93-server-9.3.15-1.1",
        "RelatesToProductReference": "openSUSE Tumbleweed",
        "RelationType": "Default Component Of"
      },
      {
        "ProductReference": "postgresql93-test-9.3.15-1.1",
        "RelatesToProductReference": "openSUSE Tumbleweed",
        "RelationType": "Default Component Of"
      }
    ]
  },
  "References": [
    {
      "URL": "https://www.suse.com/support/security/rating/",
      "Description": "SUSE Security Ratings"
    },
    {
      "URL": "https://www.suse.com/security/cve/CVE-2007-4772/",
      "Description": "SUSE CVE CVE-2007-4772 page"
    },
    {
      "URL": "https://www.suse.com/security/cve/CVE-2007-6600/",
      "Description": "SUSE CVE CVE-2007-6600 page"
    },
    {
      "URL": "https://www.suse.com/security/cve/CVE-2009-4034/",
      "Description": "SUSE CVE CVE-2009-4034 page"
    },
    {
      "URL": "https://www.suse.com/security/cve/CVE-2009-4136/",
      "Description": "SUSE CVE CVE-2009-4136 page"
    },
    {
      "URL": "https://www.suse.com/security/cve/CVE-2010-1169/",
      "Description": "SUSE CVE CVE-2010-1169 page"
    },
    {
      "URL": "https://www.suse.com/security/cve/CVE-2010-1170/",
      "Description": "SUSE CVE CVE-2010-1170 page"
    },
    {
      "URL": "https://www.suse.com/security/cve/CVE-2010-3433/",
      "Description": "SUSE CVE CVE-2010-3433 page"
    },
    {
      "URL": "https://www.suse.com/security/cve/CVE-2012-0866/",
      "Description": "SUSE CVE CVE-2012-0866 page"
    },
    {
      "URL": "https://www.suse.com/security/cve/CVE-2012-0867/",
      "Description": "SUSE CVE CVE-2012-0867 page"
    },
    {
      "URL": "https://www.suse.com/security/cve/CVE-2012-0868/",
      "Description": "SUSE CVE CVE-2012-0868 page"
    },
    {
      "URL": "https://www.suse.com/security/cve/CVE-2012-2143/",
      "Description": "SUSE CVE CVE-2012-2143 page"
    },
    {
      "URL": "https://www.suse.com/security/cve/CVE-2012-2655/",
      "Description": "SUSE CVE CVE-2012-2655 page"
    },
    {
      "URL": "https://www.suse.com/security/cve/CVE-2012-3488/",
      "Description": "SUSE CVE CVE-2012-3488 page"
    },
    {
      "URL": "https://www.suse.com/security/cve/CVE-2012-3489/",
      "Description": "SUSE CVE CVE-2012-3489 page"
    },
    {
      "URL": "https://www.suse.com/security/cve/CVE-2013-0255/",
      "Description": "SUSE CVE CVE-2013-0255 page"
    },
    {
      "URL": "https://www.suse.com/security/cve/CVE-2013-1899/",
      "Description": "SUSE CVE CVE-2013-1899 page"
    },
    {
      "URL": "https://www.suse.com/security/cve/CVE-2013-1900/",
      "Description": "SUSE CVE CVE-2013-1900 page"
    },
    {
      "URL": "https://www.suse.com/security/cve/CVE-2013-1901/",
      "Description": "SUSE CVE CVE-2013-1901 page"
    },
    {
      "URL": "https://www.suse.com/security/cve/CVE-2014-0060/",
      "Description": "SUSE CVE CVE-2014-0060 page"
    },
    {
      "URL": "https://www.suse.com/security/cve/CVE-2014-0061/",
      "Description": "SUSE CVE CVE-2014-0061 page"
    },
    {
      "URL": "https://www.suse.com/security/cve/CVE-2014-0062/",
      "Description": "SUSE CVE CVE-2014-0062 page"
    },
    {
      "URL": "https://www.suse.com/security/cve/CVE-2014-0063/",
      "Description": "SUSE CVE CVE-2014-0063 page"
    },
    {
      "URL": "https://www.suse.com/security/cve/CVE-2014-0064/",
      "Description": "SUSE CVE CVE-2014-0064 page"
    },
    {
      "URL": "https://www.suse.com/security/cve/CVE-2014-0065/",
      "Description": "SUSE CVE CVE-2014-0065 page"
    },
    {
      "URL": "https://www.suse.com/security/cve/CVE-2014-0066/",
      "Description": "SUSE CVE CVE-2014-0066 page"
    },
    {
      "URL": "https://www.suse.com/security/cve/CVE-2014-0067/",
      "Description": "SUSE CVE CVE-2014-0067 page"
    },
    {
      "URL": "https://www.suse.com/security/cve/CVE-2014-8161/",
      "Description": "SUSE CVE CVE-2014-8161 page"
    },
    {
      "URL": "https://www.suse.com/security/cve/CVE-2015-0241/",
      "Description": "SUSE CVE CVE-2015-0241 page"
    },
    {
      "URL": "https://www.suse.com/security/cve/CVE-2015-0242/",
      "Description": "SUSE CVE CVE-2015-0242 page"
    },
    {
      "URL": "https://www.suse.com/security/cve/CVE-2015-0243/",
      "Description": "SUSE CVE CVE-2015-0243 page"
    },
    {
      "URL": "https://www.suse.com/security/cve/CVE-2015-0244/",
      "Description": "SUSE CVE CVE-2015-0244 page"
    },
    {
      "URL": "https://www.suse.com/security/cve/CVE-2015-3165/",
      "Description": "SUSE CVE CVE-2015-3165 page"
    },
    {
      "URL": "https://www.suse.com/security/cve/CVE-2015-3166/",
      "Description": "SUSE CVE CVE-2015-3166 page"
    },
    {
      "URL": "https://www.suse.com/security/cve/CVE-2015-3167/",
      "Description": "SUSE CVE CVE-2015-3167 page"
    },
    {
      "URL": "https://www.suse.com/security/cve/CVE-2015-5288/",
      "Description": "SUSE CVE CVE-2015-5288 page"
    },
    {
      "URL": "https://www.suse.com/security/cve/CVE-2015-5289/",
      "Description": "SUSE CVE CVE-2015-5289 page"
    },
    {
      "URL": "https://www.suse.com/security/cve/CVE-2016-0766/",
      "Description": "SUSE CVE CVE-2016-0766 page"
    },
    {
      "URL": "https://www.suse.com/security/cve/CVE-2016-0773/",
      "Description": "SUSE CVE CVE-2016-0773 page"
    },
    {
      "URL": "https://www.suse.com/security/cve/CVE-2016-5423/",
      "Description": "SUSE CVE CVE-2016-5423 page"
    },
    {
      "URL": "https://www.suse.com/security/cve/CVE-2016-5424/",
      "Description": "SUSE CVE CVE-2016-5424 page"
    }
  ],
  "Vulnerabilities": [
    {
      "CVE": "CVE-2007-4772",
      "Description": "The regular expression parser in TCL before 8.4.17, as used in PostgreSQL 8.2 before 8.2.6, 8.1 before 8.1.11, 8.0 before 8.0.15, and 7.4 before 7.4.19, allows context-dependent attackers to cause a denial of service (infinite loop) via a crafted regular expression.",
      "Threats": [
        {
          "Type": "Impact",
          "Severity": "important"
        }
      ],
      "References": [
        {
          "URL": "https://www.suse.com/security/cve/CVE-2007-4772.html",
          "Description": "CVE-2007-4772"
        },
        {
          "URL": "https://bugzilla.suse.com/329282",
          "Description": "SUSE Bug 329282"
        }
      ],
      "ProductStatuses": [
        {
          "Type": "Fixed",
          "ProductID": [
            "openSUSE Tumbleweed:postgresql93-9.3.15-1.1",
            "openSUSE Tumbleweed:postgresql93-contrib-9.3.15-1.1",
            "openSUSE Tumbleweed:postgresql93-devel-9.3.15-1.1",
            "openSUSE Tumbleweed:postgresql93-docs-9.3.15-1.1",
            "openSUSE Tumbleweed:postgresql93-plperl-9.3.15-1.1",
            "openSUSE Tumbleweed:postgresql93-plpython-9.3.15-1.1",
            "openSUSE Tumbleweed:postgresql93-pltcl-9.3.15-1.1",
            "openSUSE Tumbleweed:postgresql93-server-9.3.15-1.1",
            "openSUSE Tumbleweed:postgresql93-test-9.3.15-1.1"
          ]
        }
      ],
      "CVSSScoreSets": {}
    },
    {
      "CVE": "CVE-2007-6600",
      "Description": "PostgreSQL 8.2 before 8.2.6, 8.1 before 8.1.11, 8.0 before 8.0.15, 7.4 before 7.4.19, and 7.3 before 7.3.21 uses superuser privileges instead of table owner privileges for (1) VACUUM and (2) ANALYZE operations within index functions, and supports (3) SET ROLE and (4) SET SESSION AUTHORIZATION within index functions, which allows remote authenticated users to gain privileges.",
      "Threats": [
        {
          "Type": "Impact",
          "Severity": "moderate"
        }
      ],
      "References": [
        {
          "URL": "https://www.suse.com/security/cve/CVE-2007-6600.html",
          "Description": "CVE-2007-6600"
        },
        {
          "URL": "https://bugzilla.suse.com/329282",
          "Description": "SUSE Bug 329282"
        },
        {
          "URL": "https://bugzilla.suse.com/537706",
          "Description": "SUSE Bug 537706"
        }
      ],
      "ProductStatuses": [
        {
          "Type": "Fixed",
          "ProductID": [
            "openSUSE Tumbleweed:postgresql93-9.3.15-1.1",
            "openSUSE Tumbleweed:postgresql93-contrib-9.3.15-1.1",
            "openSUSE Tumbleweed:postgresql93-devel-9.3.15-1.1",
            "openSUSE Tumbleweed:postgresql93-docs-9.3.15-1.1",
            "openSUSE Tumbleweed:postgresql93-plperl-9.3.15-1.1",
            "openSUSE Tumbleweed:postgresql93-plpython-9.3.15-1.1",
            "openSUSE Tumbleweed:postgresql93-pltcl-9.3.15-1.1",
            "openSUSE Tumbleweed:postgresql93-server-9.3.15-1.1",
            "openSUSE Tumbleweed:postgresql93-test-9.3.15-1.1"
          ]
        }
      ],
      "CVSSScoreSets": {}
    },
    {
      "CVE": "CVE-2009-4034",
      "Description": "PostgreSQL 7.4.x before 7.4.27, 8.0.x before 8.0.23, 8.1.x before 8.1.19, 8.2.x before 8.2.15, 8.3.x before 8.3.9, and 8.4.x before 8.4.2 does not properly handle a '\\0' character in a domain name in the subject's Common Name (CN) field of an X.509 certificate, which (1) allows man-in-the-middle attackers to spoof arbitrary SSL-based PostgreSQL servers via a crafted server certificate issued by a legitimate Certification Authority, and (2) allows remote attackers to bypass intended client-hostname restrictions via a crafted client certificate issued by a legitimate Certification Authority, a related issue to CVE-2009-2408.",
      "Threats": [
        {
          "Type": "Impact",
          "Severity": "moderate"
        }
      ],
      "References": [
        {
          "URL": "https://www.suse.com/security/cve/CVE-2009-4034.html",
          "Description": "CVE-2009-4034"
        },
        {
          "URL": "https://bugzilla.suse.com/564710",
          "Description": "SUSE Bug 564710"
        },
        {
          "URL": "https://bugzilla.suse.com/603968",
          "Description": "SUSE Bug 603968"
        }
      ],
      "ProductStatuses": [
        {
          "Type": "Fixed",
          "ProductID": [
            "openSUSE Tumbleweed:postgresql93-9.3.15-1.1",
            "openSUSE Tumbleweed:postgresql93-contrib-9.3.15-1.1",
            "openSUSE Tumbleweed:postgresql93-devel-9.3.15-1.1",
            "openSUSE Tumbleweed:postgresql93-docs-9.3.15-1.1",
            "openSUSE Tumbleweed:postgresql93-plperl-9.3.15-1.1",
            "openSUSE Tumbleweed:postgresql93-plpython-9.3.15-1.1",
            "openSUSE Tumbleweed:postgresql93-pltcl-9.3.15-1.1",
            "openSUSE Tumbleweed:postgresql93-server-9.3.15-1.1",
            "openSUSE Tumbleweed:postgresql93-test-9.3.15-1.1"
          ]
        }
      ],
      "CVSSScoreSets": {}
    },
    {
      "CVE": "CVE-2009-4136",
      "Description": "PostgreSQL 7.4.x before 7.4.27, 8.0.x before 8.0.23, 8.1.x before 8.1.19, 8.2.x before 8.2.15, 8.3.x before 8.3.9, and 8.4.x before 8.4.2 does not properly manage session-local state during execution of an index function by a database superuser, which allows remote authenticated users to gain privileges via a table with crafted index functions, as demonstrated by functions that modify (1) search_path or (2) a prepared statement, a related issue to CVE-2007-6600 and CVE-2009-3230.",
      "Threats": [
        {
          "Type": "Impact",
          "Severity": "moderate"
        }
      ],
      "References": [
        {
          "URL": "https://www.suse.com/security/cve/CVE-2009-4136.html",
          "Description": "CVE-2009-4136"
        },
        {
          "URL": "https://bugzilla.suse.com/564360",
          "Description": "SUSE Bug 564360"
        },
        {
          "URL": "https://bugzilla.suse.com/603969",
          "Description": "SUSE Bug 603969"
        }
      ],
      "ProductStatuses": [
        {
          "Type": "Fixed",
          "ProductID": [
            "openSUSE Tumbleweed:postgresql93-9.3.15-1.1",
            "openSUSE Tumbleweed:postgresql93-contrib-9.3.15-1.1",
            "openSUSE Tumbleweed:postgresql93-devel-9.3.15-1.1",
            "openSUSE Tumbleweed:postgresql93-docs-9.3.15-1.1",
            "openSUSE Tumbleweed:postgresql93-plperl-9.3.15-1.1",
            "openSUSE Tumbleweed:postgresql93-plpython-9.3.15-1.1",
            "openSUSE Tumbleweed:postgresql93-pltcl-9.3.15-1.1",
            "openSUSE Tumbleweed:postgresql93-server-9.3.15-1.1",
            "openSUSE Tumbleweed:postgresql93-test-9.3.15-1.1"
          ]
        }
      ],
      "CVSSScoreSets": {}
    },
    {
      "CVE": "CVE-2010-1169",
      "Description": "PostgreSQL 7.4 before 7.4.29, 8.0 before 8.0.25, 8.1 before 8.1.21, 8.2 before 8.2.17, 8.3 before 8.3.11, 8.4 before 8.4.4, and 9.0 Beta before 9.0 Beta 2 does not properly restrict PL/perl procedures, which allows remote authenticated users, with database-creation privileges, to execute arbitrary Perl code via a crafted script, related to the Safe module (aka Safe.pm) for Perl. NOTE: some sources report that this issue is the same as CVE-2010-1447.",
      "Threats": [
        {
          "Type": "Impact",
          "Severity": "important"
        }
      ],
      "References": [
        {
          "URL": "https://www.suse.com/security/cve/CVE-2010-1169.html",
          "Description": "CVE-2010-1169"
        },
        {
          "URL": "https://bugzilla.suse.com/605926",
          "Description": "SUSE Bug 605926"
        },
        {
          "URL": "https://bugzilla.suse.com/648140",
          "Description": "SUSE Bug 648140"
        }
      ],
      "ProductStatuses": [
        {
          "Type": "Fixed",
          "ProductID": [
            "openSUSE Tumbleweed:postgresql93-9.3.15-1.1",
            "openSUSE Tumbleweed:postgresql93-contrib-9.3.15-1.1",
            "openSUSE Tumbleweed:postgresql93-devel-9.3.15-1.1",
            "openSUSE Tumbleweed:postgresql93-docs-9.3.15-1.1",
            "openSUSE Tumbleweed:postgresql93-plperl-9.3.15-1.1",
            "openSUSE Tumbleweed:postgresql93-plpython-9.3.15-1.1",
            "openSUSE Tumbleweed:postgresql93-pltcl-9.3.15-1.1",
            "openSUSE Tumbleweed:postgresql93-server-9.3.15-1.1",
            "openSUSE Tumbleweed:postgresql93-test-9.3.15-1.1"
          ]
        }
      ],
      "CVSSScoreSets": {}
    },
    {
      "CVE": "CVE-2010-1170",
      "Description": "The PL/Tcl implementation in PostgreSQL 7.4 before 7.4.29, 8.0 before 8.0.25, 8.1 before 8.1.21, 8.2 before 8.2.17, 8.3 before 8.3.11, 8.4 before 8.4.4, and 9.0 Beta before 9.0 Beta 2 loads Tcl code from the pltcl_modules table regardless of the table's ownership and permissions, which allows remote authenticated users, with database-creation privileges, to execute arbitrary Tcl code by creating this table and inserting a crafted Tcl script.",
      "Threats": [
        {
          "Type": "Impact",
          "Severity": "moderate"
        }
      ],
      "References": [
        {
          "URL": "https://www.suse.com/security/cve/CVE-2010-1170.html",
          "Description": "CVE-2010-1170"
        },
        {
          "URL": "https://bugzilla.suse.com/605845",
          "Description": "SUSE Bug 605845"
        },
        {
          "URL": "https://bugzilla.suse.com/605926",
          "Description": "SUSE Bug 605926"
        },
        {
          "URL": "https://bugzilla.suse.com/634562",
          "Description": "SUSE Bug 634562"
        },
        {
          "URL": "https://bugzilla.suse.com/648140",
          "Description": "SUSE Bug 648140"
        }
      ],
      "ProductStatuses": [
        {
          "Type": "Fixed",
          "ProductID": [
            "openSUSE Tumbleweed:postgresql93-9.3.15-1.1",
            "openSUSE Tumbleweed:postgresql93-contrib-9.3.15-1.1",
            "openSUSE Tumbleweed:postgresql93-devel-9.3.15-1.1",
            "openSUSE Tumbleweed:postgresql93-docs-9.3.15-1.1",
            "openSUSE Tumbleweed:postgresql93-plperl-9.3.15-1.1",
            "openSUSE Tumbleweed:postgresql93-plpython-9.3.15-1.1",
            "openSUSE Tumbleweed:postgresql93-pltcl-9.3.15-1.1",
            "openSUSE Tumbleweed:postgresql93-server-9.3.15-1.1",
            "openSUSE Tumbleweed:postgresql93-test-9.3.15-1.1"
          ]
        }
      ],
      "CVSSScoreSets": {}
    },
    {
      "CVE": "CVE-2010-3433",
      "Description": "The PL/perl and PL/Tcl implementations in PostgreSQL 7.4 before 7.4.30, 8.0 before 8.0.26, 8.1 before 8.1.22, 8.2 before 8.2.18, 8.3 before 8.3.12, 8.4 before 8.4.5, and 9.0 before 9.0.1 do not properly protect script execution by a different SQL user identity within the same session, which allows remote authenticated users to gain privileges via crafted script code in a SECURITY DEFINER function, as demonstrated by (1) redefining standard functions or (2) redefining operators, a different vulnerability than CVE-2010-1168, CVE-2010-1169, CVE-2010-1170, and CVE-2010-1447.",
      "Threats": [
        {
          "Type": "Impact",
          "Severity": "moderate"
        }
      ],
      "References": [
        {
          "URL": "https://www.suse.com/security/cve/CVE-2010-3433.html",
          "Description": "CVE-2010-3433"
        },
        {
          "URL": "https://bugzilla.suse.com/643771",
          "Description": "SUSE Bug 643771"
        },
        {
          "URL": "https://bugzilla.suse.com/648140",
          "Description": "SUSE Bug 648140"
        }
      ],
      "ProductStatuses": [
        {
          "Type": "Fixed",
          "ProductID": [
            "openSUSE Tumbleweed:postgresql93-9.3.15-1.1",
            "openSUSE Tumbleweed:postgresql93-contrib-9.3.15-1.1",
            "openSUSE Tumbleweed:postgresql93-devel-9.3.15-1.1",
            "openSUSE Tumbleweed:postgresql93-docs-9.3.15-1.1",
            "openSUSE Tumbleweed:postgresql93-plperl-9.3.15-1.1",
            "openSUSE Tumbleweed:postgresql93-plpython-9.3.15-1.1",
            "openSUSE Tumbleweed:postgresql93-pltcl-9.3.15-1.1",
            "openSUSE Tumbleweed:postgresql93-server-9.3.15-1.1",
            "openSUSE Tumbleweed:postgresql93-test-9.3.15-1.1"
          ]
        }
      ],
      "CVSSScoreSets": {}
    },
    {
      "CVE": "CVE-2012-0866",
      "Description": "CREATE TRIGGER in PostgreSQL 8.3.x before 8.3.18, 8.4.x before 8.4.11, 9.0.x before 9.0.7, and 9.1.x before 9.1.3 does not properly check the execute permission for trigger functions marked SECURITY DEFINER, which allows remote authenticated users to execute otherwise restricted triggers on arbitrary data by installing the trigger on an attacker-owned table.",
      "Threats": [
        {
          "Type": "Impact",
          "Severity": "moderate"
        }
      ],
      "References": [
        {
          "URL": "https://www.suse.com/security/cve/CVE-2012-0866.html",
          "Description": "CVE-2012-0866"
        },
        {
          "URL": "https://bugzilla.suse.com/701489",
          "Description": "SUSE Bug 701489"
        },
        {
          "URL": "https://bugzilla.suse.com/749299",
          "Description": "SUSE Bug 749299"
        },
        {
          "URL": "https://bugzilla.suse.com/749301",
          "Description": "SUSE Bug 749301"
        },
        {
          "URL": "https://bugzilla.suse.com/749303",
          "Description": "SUSE Bug 749303"
        }
      ],
      "ProductStatuses": [
        {
          "Type": "Fixed",
          "ProductID": [
            "openSUSE Tumbleweed:postgresql93-9.3.15-1.1",
            "openSUSE Tumbleweed:postgresql93-contrib-9.3.15-1.1",
            "openSUSE Tumbleweed:postgresql93-devel-9.3.15-1.1",
            "openSUSE Tumbleweed:postgresql93-docs-9.3.15-1.1",
            "openSUSE Tumbleweed:postgresql93-plperl-9.3.15-1.1",
            "openSUSE Tumbleweed:postgresql93-plpython-9.3.15-1.1",
            "openSUSE Tumbleweed:postgresql93-pltcl-9.3.15-1.1",
            "openSUSE Tumbleweed:postgresql93-server-9.3.15-1.1",
            "openSUSE Tumbleweed:postgresql93-test-9.3.15-1.1"
          ]
        }
      ],
      "CVSSScoreSets": {}
    },
    {
      "CVE": "CVE-2012-0867",
      "Description": "PostgreSQL 8.4.x before 8.4.11, 9.0.x before 9.0.7, and 9.1.x before 9.1.3 truncates the common name to only 32 characters when verifying SSL certificates, which allows remote attackers to spoof connections when the host name is exactly 32 characters.",
      "Threats": [
        {
          "Type": "Impact",
          "Severity": "moderate"
        }
      ],
      "References": [
        {
          "URL": "https://www.suse.com/security/cve/CVE-2012-0867.html",
          "Description": "CVE-2012-0867"
        },
        {
          "URL": "https://bugzilla.suse.com/701489",
          "Description": "SUSE Bug 701489"
        },
        {
          "URL": "https://bugzilla.suse.com/749299",
          "Description": "SUSE Bug 749299"
        },
        {
          "URL": "https://bugzilla.suse.com/749301",
          "Description": "SUSE Bug 749301"
        },
        {
          "URL": "https://bugzilla.suse.com/749303",
          "Description": "SUSE Bug 749303"
        }
      ],
      "ProductStatuses": [
        {
          "Type": "Fixed",
          "ProductID": [
            "openSUSE Tumbleweed:postgresql93-9.3.15-1.1",
            "openSUSE Tumbleweed:postgresql93-contrib-9.3.15-1.1",
            "openSUSE Tumbleweed:postgresql93-devel-9.3.15-1.1",
            "openSUSE Tumbleweed:postgresql93-docs-9.3.15-1.1",
            "openSUSE Tumbleweed:postgresql93-plperl-9.3.15-1.1",
            "openSUSE Tumbleweed:postgresql93-plpython-9.3.15-1.1",
            "openSUSE Tumbleweed:postgresql93-pltcl-9.3.15-1.1",
            "openSUSE Tumbleweed:postgresql93-server-9.3.15-1.1",
            "openSUSE Tumbleweed:postgresql93-test-9.3.15-1.1"
          ]
        }
      ],
      "CVSSScoreSets": {}
    },
    {
      "CVE": "CVE-2012-0868",
      "Description": "CRLF injection vulnerability in pg_dump in PostgreSQL 8.3.x before 8.3.18, 8.4.x before 8.4.11, 9.0.x before 9.0.7, and 9.1.x before 9.1.3 allows user-assisted remote attackers to execute arbitrary SQL commands via a crafted file containing object names with newlines, which are inserted into an SQL script that is used when the database is restored.",
      "Threats": [
        {
          "Type": "Impact",
          "Severity": "moderate"
        }
      ],
      "References": [
        {
          "URL": "https://www.suse.com/security/cve/CVE-2012-0868.html",
          "Description": "CVE-2012-0868"
        },
        {
          "URL": "https://bugzilla.suse.com/701489",
          "Description": "SUSE Bug 701489"
        },
        {
          "URL": "https://bugzilla.suse.com/749299",
          "Description": "SUSE Bug 749299"
        },
        {
          "URL": "https://bugzilla.suse.com/749301",
          "Description": "SUSE Bug 749301"
        },
        {
          "URL": "https://bugzilla.suse.com/749303",
          "Description": "SUSE Bug 749303"
        }
      ],
      "ProductStatuses": [
        {
          "Type": "Fixed",
          "ProductID": [
            "openSUSE Tumbleweed:postgresql93-9.3.15-1.1",
            "openSUSE Tumbleweed:postgresql93-contrib-9.3.15-1.1",
            "openSUSE Tumbleweed:postgresql93-devel-9.3.15-1.1",
            "openSUSE Tumbleweed:postgresql93-docs-9.3.15-1.1",
            "openSUSE Tumbleweed:postgresql93-plperl-9.3.15-1.1",
            "openSUSE Tumbleweed:postgresql93-plpython-9.3.15-1.1",
            "openSUSE Tumbleweed:postgresql93-pltcl-9.3.15-1.1",
            "openSUSE Tumbleweed:postgresql93-server-9.3.15-1.1",
            "openSUSE Tumbleweed:postgresql93-test-9.3.15-1.1"
          ]
        }
      ],
      "CVSSScoreSets": {}
    },
    {
      "CVE": "CVE-2012-2143",
      "Description": "The crypt_des (aka DES-based crypt) function in FreeBSD before 9.0-RELEASE-p2, as used in PHP, PostgreSQL, and other products, does not process the complete cleartext password if this password contains a 0x80 character, which makes it easier for context-dependent attackers to obtain access via an authentication attempt with an initial substring of the intended password, as demonstrated by a Unicode password.",
      "Threats": [
        {
          "Type": "Impact",
          "Severity": "moderate"
        }
      ],
      "References": [
        {
          "URL": "https://www.suse.com/security/cve/CVE-2012-2143.html",
          "Description": "CVE-2012-2143"
        },
        {
          "URL": "https://bugzilla.suse.com/766797",
          "Description": "SUSE Bug 766797"
        },
        {
          "URL": "https://bugzilla.suse.com/766798",
          "Description": "SUSE Bug 766798"
        },
        {
          "URL": "https://bugzilla.suse.com/766799",
          "Description": "SUSE Bug 766799"
        }
      ],
      "ProductStatuses": [
        {
          "Type": "Fixed",
          "ProductID": [
            "openSUSE Tumbleweed:postgresql93-9.3.15-1.1",
            "openSUSE Tumbleweed:postgresql93-contrib-9.3.15-1.1",
            "openSUSE Tumbleweed:postgresql93-devel-9.3.15-1.1",
            "openSUSE Tumbleweed:postgresql93-docs-9.3.15-1.1",
            "openSUSE Tumbleweed:postgresql93-plperl-9.3.15-1.1",
            "openSUSE Tumbleweed:postgresql93-plpython-9.3.15-1.1",
            "openSUSE Tumbleweed:postgresql93-pltcl-9.3.15-1.1",
            "openSUSE Tumbleweed:postgresql93-server-9.3.15-1.1",
            "openSUSE Tumbleweed:postgresql93-test-9.3.15-1.1"
          ]
        }
      ],
      "CVSSScoreSets": {}
    },
    {
      "CVE": "CVE-2012-2655",
      "Description": "PostgreSQL 8.3.x before 8.3.19, 8.4.x before 8.4.12, 9.0.x before 9.0.8, and 9.1.x before 9.1.4 allows remote authenticated users to cause a denial of service (server crash) by adding the (1) SECURITY DEFINER or (2) SET attributes to a procedural language's call handler.",
      "Threats": [
        {
          "Type": "Impact",
          "Severity": "low"
        }
      ],
      "References": [
        {
          "URL": "https://www.suse.com/security/cve/CVE-2012-2655.html",
          "Description": "CVE-2012-2655"
        },
        {
          "URL": "https://bugzilla.suse.com/765069",
          "Description": "SUSE Bug 765069"
        }
      ],
      "ProductStatuses": [
        {
          "Type": "Fixed",
          "ProductID": [
            "openSUSE Tumbleweed:postgresql93-9.3.15-1.1",
            "openSUSE Tumbleweed:postgresql93-contrib-9.3.15-1.1",
            "openSUSE Tumbleweed:postgresql93-devel-9.3.15-1.1",
            "openSUSE Tumbleweed:postgresql93-docs-9.3.15-1.1",
            "openSUSE Tumbleweed:postgresql93-plperl-9.3.15-1.1",
            "openSUSE Tumbleweed:postgresql93-plpython-9.3.15-1.1",
            "openSUSE Tumbleweed:postgresql93-pltcl-9.3.15-1.1",
            "openSUSE Tumbleweed:postgresql93-server-9.3.15-1.1",
            "openSUSE Tumbleweed:postgresql93-test-9.3.15-1.1"
          ]
        }
      ],
      "CVSSScoreSets": {}
    },
    {
      "CVE": "CVE-2012-3488",
      "Description": "The libxslt support in contrib/xml2 in PostgreSQL 8.3 before 8.3.20, 8.4 before 8.4.13, 9.0 before 9.0.9, and 9.1 before 9.1.5 does not properly restrict access to files and URLs, which allows remote authenticated users to modify data, obtain sensitive information, or trigger outbound traffic to arbitrary external hosts by leveraging (1) stylesheet commands that are permitted by the libxslt security options or (2) an xslt_process feature, related to an XML External Entity (aka XXE) issue.",
      "Threats": [
        {
          "Type": "Impact",
          "Severity": "moderate"
        }
      ],
      "References": [
        {
          "URL": "https://www.suse.com/security/cve/CVE-2012-3488.html",
          "Description": "CVE-2012-3488"
        },
        {
          "URL": "https://bugzilla.suse.com/776523",
          "Description": "SUSE Bug 776523"
        }
      ],
      "ProductStatuses": [
        {
          "Type": "Fixed",
          "ProductID": [
            "openSUSE Tumbleweed:postgresql93-9.3.15-1.1",
            "openSUSE Tumbleweed:postgresql93-contrib-9.3.15-1.1",
            "openSUSE Tumbleweed:postgresql93-devel-9.3.15-1.1",
            "openSUSE Tumbleweed:postgresql93-docs-9.3.15-1.1",
            "openSUSE Tumbleweed:postgresql93-plperl-9.3.15-1.1",
            "openSUSE Tumbleweed:postgresql93-plpython-9.3.15-1.1",
            "openSUSE Tumbleweed:postgresql93-pltcl-9.3.15-1.1",
            "openSUSE Tumbleweed:postgresql93-server-9.3.15-1.1",
            "openSUSE Tumbleweed:postgresql93-test-9.3.15-1.1"
          ]
        }
      ],
      "CVSSScoreSets": {}
    },
    {
      "CVE": "CVE-2012-3489",
      "Description": "The xml_parse function in the libxml2 support in the core server component in PostgreSQL 8.3 before 8.3.20, 8.4 before 8.4.13, 9.0 before 9.0.9, and 9.1 before 9.1.5 allows remote authenticated users to determine the existence of arbitrary files or URLs, and possibly obtain file or URL content that triggers a parsing error, via an XML value that refers to (1) a DTD or (2) an entity, related to an XML External Entity (aka XXE) issue.",
      "Threats": [
        {
          "Type": "Impact",
          "Severity": "moderate"
        }
      ],
      "References": [
        {
          "URL": "https://www.suse.com/security/cve/CVE-2012-3489.html",
          "Description": "CVE-2012-3489"
        },
        {
          "URL": "https://bugzilla.suse.com/776524",
          "Description": "SUSE Bug 776524"
        }
      ],
      "ProductStatuses": [
        {
          "Type": "Fixed",
          "ProductID": [
            "openSUSE Tumbleweed:postgresql93-9.3.15-1.1",
            "openSUSE Tumbleweed:postgresql93-contrib-9.3.15-1.1",
            "openSUSE Tumbleweed:postgresql93-devel-9.3.15-1.1",
            "openSUSE Tumbleweed:postgresql93-docs-9.3.15-1.1",
            "openSUSE Tumbleweed:postgresql93-plperl-9.3.15-1.1",
            "openSUSE Tumbleweed:postgresql93-plpython-9.3.15-1.1",
            "openSUSE Tumbleweed:postgresql93-pltcl-9.3.15-1.1",
            "openSUSE Tumbleweed:postgresql93-server-9.3.15-1.1",
            "openSUSE Tumbleweed:postgresql93-test-9.3.15-1.1"
          ]
        }
      ],
      "CVSSScoreSets": {}
    },
    {
      "CVE": "CVE-2013-0255",
      "Description": "PostgreSQL 9.2.x before 9.2.3, 9.1.x before 9.1.8, 9.0.x before 9.0.12, 8.4.x before 8.4.16, and 8.3.x before 8.3.23 does not properly declare the enum_recv function in backend/utils/adt/enum.c, which causes it to be invoked with incorrect arguments and allows remote authenticated users to cause a denial of service (server crash) or read sensitive process memory via a crafted SQL command, which triggers an array index error and an out-of-bounds read.",
      "Threats": [
        {
          "Type": "Impact",
          "Severity": "moderate"
        }
      ],
      "References": [
        {
          "URL": "https://www.suse.com/security/cve/CVE-2013-0255.html",
          "Description": "CVE-2013-0255"
        },
        {
          "URL": "https://bugzilla.suse.com/802679",
          "Description": "SUSE Bug 802679"
        },
        {
          "URL": "https://bugzilla.suse.com/803057",
          "Description": "SUSE Bug 803057"
        }
      ],
      "ProductStatuses": [
        {
          "Type": "Fixed",
          "ProductID": [
            "openSUSE Tumbleweed:postgresql93-9.3.15-1.1",
            "openSUSE Tumbleweed:postgresql93-contrib-9.3.15-1.1",
            "openSUSE Tumbleweed:postgresql93-devel-9.3.15-1.1",
            "openSUSE Tumbleweed:postgresql93-docs-9.3.15-1.1",
            "openSUSE Tumbleweed:postgresql93-plperl-9.3.15-1.1",
            "openSUSE Tumbleweed:postgresql93-plpython-9.3.15-1.1",
            "openSUSE Tumbleweed:postgresql93-pltcl-9.3.15-1.1",
            "openSUSE Tumbleweed:postgresql93-server-9.3.15-1.1",
            "openSUSE Tumbleweed:postgresql93-test-9.3.15-1.1"
          ]
        }
      ],
      "CVSSScoreSets": {}
    },
    {
      "CVE": "CVE-2013-1899",
      "Description": "Argument injection vulnerability in PostgreSQL 9.2.x before 9.2.4, 9.1.x before 9.1.9, and 9.0.x before 9.0.13 allows remote attackers to cause a denial of service (file corruption), and allows remote authenticated users to modify configuration settings and execute arbitrary code, via a connection request using a database name that begins with a \"-\" (hyphen).",
      "Threats": [
        {
          "Type": "Impact",
          "Severity": "important"
        }
      ],
      "References": [
        {
          "URL": "https://www.suse.com/security/cve/CVE-2013-1899.html",
          "Description": "CVE-2013-1899"
        },
        {
          "URL": "https://bugzilla.suse.com/812525",
          "Description": "SUSE Bug 812525"
        }
      ],
      "ProductStatuses": [
        {
          "Type": "Fixed",
          "ProductID": [
            "openSUSE Tumbleweed:postgresql93-9.3.15-1.1",
            "openSUSE Tumbleweed:postgresql93-contrib-9.3.15-1.1",
            "openSUSE Tumbleweed:postgresql93-devel-9.3.15-1.1",
            "openSUSE Tumbleweed:postgresql93-docs-9.3.15-1.1",
            "openSUSE Tumbleweed:postgresql93-plperl-9.3.15-1.1",
            "openSUSE Tumbleweed:postgresql93-plpython-9.3.15-1.1",
            "openSUSE Tumbleweed:postgresql93-pltcl-9.3.15-1.1",
            "openSUSE Tumbleweed:postgresql93-server-9.3.15-1.1",
            "openSUSE Tumbleweed:postgresql93-test-9.3.15-1.1"
          ]
        }
      ],
      "CVSSScoreSets": {}
    },
    {
      "CVE": "CVE-2013-1900",
      "Description": "PostgreSQL 9.2.x before 9.2.4, 9.1.x before 9.1.9, 9.0.x before 9.0.13, and 8.4.x before 8.4.17, when using OpenSSL, generates insufficiently random numbers, which might allow remote authenticated users to have an unspecified impact via vectors related to the \"contrib/pgcrypto functions.\"",
      "Threats": [
        {
          "Type": "Impact",
          "Severity": "important"
        }
      ],
      "References": [
        {
          "URL": "https://www.suse.com/security/cve/CVE-2013-1900.html",
          "Description": "CVE-2013-1900"
        },
        {
          "URL": "https://bugzilla.suse.com/812525",
          "Description": "SUSE Bug 812525"
        }
      ],
      "ProductStatuses": [
        {
          "Type": "Fixed",
          "ProductID": [
            "openSUSE Tumbleweed:postgresql93-9.3.15-1.1",
            "openSUSE Tumbleweed:postgresql93-contrib-9.3.15-1.1",
            "openSUSE Tumbleweed:postgresql93-devel-9.3.15-1.1",
            "openSUSE Tumbleweed:postgresql93-docs-9.3.15-1.1",
            "openSUSE Tumbleweed:postgresql93-plperl-9.3.15-1.1",
            "openSUSE Tumbleweed:postgresql93-plpython-9.3.15-1.1",
            "openSUSE Tumbleweed:postgresql93-pltcl-9.3.15-1.1",
            "openSUSE Tumbleweed:postgresql93-server-9.3.15-1.1",
            "openSUSE Tumbleweed:postgresql93-test-9.3.15-1.1"
          ]
        }
      ],
      "CVSSScoreSets": {}
    },
    {
      "CVE": "CVE-2013-1901",
      "Description": "PostgreSQL 9.2.x before 9.2.4 and 9.1.x before 9.1.9 does not properly check REPLICATION privileges, which allows remote authenticated users to bypass intended backup restrictions by calling the (1) pg_start_backup or (2) pg_stop_backup functions.",
      "Threats": [
        {
          "Type": "Impact",
          "Severity": "important"
        }
      ],
      "References": [
        {
          "URL": "https://www.suse.com/security/cve/CVE-2013-1901.html",
          "Description": "CVE-2013-1901"
        },
        {
          "URL": "https://bugzilla.suse.com/812525",
          "Description": "SUSE Bug 812525"
        }
      ],
      "ProductStatuses": [
        {
          "Type": "Fixed",
          "ProductID": [
            "openSUSE Tumbleweed:postgresql93-9.3.15-1.1",
            "openSUSE Tumbleweed:postgresql93-contrib-9.3.15-1.1",
            "openSUSE Tumbleweed:postgresql93-devel-9.3.15-1.1",
            "openSUSE Tumbleweed:postgresql93-docs-9.3.15-1.1",
            "openSUSE Tumbleweed:postgresql93-plperl-9.3.15-1.1",
            "openSUSE Tumbleweed:postgresql93-plpython-9.3.15-1.1",
            "openSUSE Tumbleweed:postgresql93-pltcl-9.3.15-1.1",
            "openSUSE Tumbleweed:postgresql93-server-9.3.15-1.1",
            "openSUSE Tumbleweed:postgresql93-test-9.3.15-1.1"
          ]
        }
      ],
      "CVSSScoreSets": {}
    },
    {
      "CVE": "CVE-2014-0060",
      "Description": "PostgreSQL before 8.4.20, 9.0.x before 9.0.16, 9.1.x before 9.1.12, 9.2.x before 9.2.7, and 9.3.x before 9.3.3 does not properly enforce the ADMIN OPTION restriction, which allows remote authenticated members of a role to add or remove arbitrary users to that role by calling the SET ROLE command before the associated GRANT command.",
      "Threats": [
        {
          "Type": "Impact",
          "Severity": "low"
        }
      ],
      "References": [
        {
          "URL": "https://www.suse.com/security/cve/CVE-2014-0060.html",
          "Description": "CVE-2014-0060"
        },
        {
          "URL": "https://bugzilla.suse.com/864845",
          "Description": "SUSE Bug 864845"
        },
        {
          "URL": "https://bugzilla.suse.com/864856",
          "Description": "SUSE Bug 864856"
        }
      ],
      "ProductStatuses": [
        {
          "Type": "Fixed",
          "ProductID": [
            "openSUSE Tumbleweed:postgresql93-9.3.15-1.1",
            "openSUSE Tumbleweed:postgresql93-contrib-9.3.15-1.1",
            "openSUSE Tumbleweed:postgresql93-devel-9.3.15-1.1",
            "openSUSE Tumbleweed:postgresql93-docs-9.3.15-1.1",
            "openSUSE Tumbleweed:postgresql93-plperl-9.3.15-1.1",
            "openSUSE Tumbleweed:postgresql93-plpython-9.3.15-1.1",
            "openSUSE Tumbleweed:postgresql93-pltcl-9.3.15-1.1",
            "openSUSE Tumbleweed:postgresql93-server-9.3.15-1.1",
            "openSUSE Tumbleweed:postgresql93-test-9.3.15-1.1"
          ]
        }
      ],
      "CVSSScoreSets": {}
    },
    {
      "CVE": "CVE-2014-0061",
      "Description": "The validator functions for the procedural languages (PLs) in PostgreSQL before 8.4.20, 9.0.x before 9.0.16, 9.1.x before 9.1.12, 9.2.x before 9.2.7, and 9.3.x before 9.3.3 allow remote authenticated users to gain privileges via a function that is (1) defined in another language or (2) not allowed to be directly called by the user due to permissions.",
      "Threats": [
        {
          "Type": "Impact",
          "Severity": "moderate"
        }
      ],
      "References": [
        {
          "URL": "https://www.suse.com/security/cve/CVE-2014-0061.html",
          "Description": "CVE-2014-0061"
        },
        {
          "URL": "https://bugzilla.suse.com/864846",
          "Description": "SUSE Bug 864846"
        },
        {
          "URL": "https://bugzilla.suse.com/864856",
          "Description": "SUSE Bug 864856"
        }
      ],
      "ProductStatuses": [
        {
          "Type": "Fixed",
          "ProductID": [
            "openSUSE Tumbleweed:postgresql93-9.3.15-1.1",
            "openSUSE Tumbleweed:postgresql93-contrib-9.3.15-1.1",
            "openSUSE Tumbleweed:postgresql93-devel-9.3.15-1.1",
            "openSUSE Tumbleweed:postgresql93-docs-9.3.15-1.1",
            "openSUSE Tumbleweed:postgresql93-plperl-9.3.15-1.1",
            "openSUSE Tumbleweed:postgresql93-plpython-9.3.15-1.1",
            "openSUSE Tumbleweed:postgresql93-pltcl-9.3.15-1.1",
            "openSUSE Tumbleweed:postgresql93-server-9.3.15-1.1",
            "openSUSE Tumbleweed:postgresql93-test-9.3.15-1.1"
          ]
        }
      ],
      "CVSSScoreSets": {}
    },
    {
      "CVE": "CVE-2014-0062",
      "Description": "Race condition in the (1) CREATE INDEX and (2) unspecified ALTER TABLE commands in PostgreSQL before 8.4.20, 9.0.x before 9.0.16, 9.1.x before 9.1.12, 9.2.x before 9.2.7, and 9.3.x before 9.3.3 allows remote authenticated users to create an unauthorized index or read portions of unauthorized tables by creating or deleting a table with the same name during the timing window.",
      "Threats": [
        {
          "Type": "Impact",
          "Severity": "moderate"
        }
      ],
      "References": [
        {
          "URL": "https://www.suse.com/security/cve/CVE-2014-0062.html",
          "Description": "CVE-2014-0062"
        },
        {
          "URL": "https://bugzilla.suse.com/864847",
          "Description": "SUSE Bug 864847"
        },
        {
          "URL": "https://bugzilla.suse.com/864856",
          "Description": "SUSE Bug 864856"
        }
      ],
      "ProductStatuses": [
        {
          "Type": "Fixed",
          "ProductID": [
            "openSUSE Tumbleweed:postgresql93-9.3.15-1.1",
            "openSUSE Tumbleweed:postgresql93-contrib-9.3.15-1.1",
            "openSUSE Tumbleweed:postgresql93-devel-9.3.15-1.1",
            "openSUSE Tumbleweed:postgresql93-docs-9.3.15-1.1",
            "openSUSE Tumbleweed:postgresql93-plperl-9.3.15-1.1",
            "openSUSE Tumbleweed:postgresql93-plpython-9.3.15-1.1",
            "openSUSE Tumbleweed:postgresql93-pltcl-9.3.15-1.1",
            "openSUSE Tumbleweed:postgresql93-server-9.3.15-1.1",
            "openSUSE Tumbleweed:postgresql93-test-9.3.15-1.1"
          ]
        }
      ],
      "CVSSScoreSets": {}
    },
    {
      "CVE": "CVE-2014-0063",
      "Description": "Multiple stack-based buffer overflows in PostgreSQL before 8.4.20, 9.0.x before 9.0.16, 9.1.x before 9.1.12, 9.2.x before 9.2.7, and 9.3.x before 9.3.3 allow remote authenticated users to cause a denial of service (crash) or possibly execute arbitrary code via vectors related to an incorrect MAXDATELEN constant and datetime values involving (1) intervals, (2) timestamps, or (3) timezones, a different vulnerability than CVE-2014-0065.",
      "Threats": [
        {
          "Type": "Impact",
          "Severity": "moderate"
        }
      ],
      "References": [
        {
          "URL": "https://www.suse.com/security/cve/CVE-2014-0063.html",
          "Description": "CVE-2014-0063"
        },
        {
          "URL": "https://bugzilla.suse.com/864850",
          "Description": "SUSE Bug 864850"
        },
        {
          "URL": "https://bugzilla.suse.com/864856",
          "Description": "SUSE Bug 864856"
        }
      ],
      "ProductStatuses": [
        {
          "Type": "Fixed",
          "ProductID": [
            "openSUSE Tumbleweed:postgresql93-9.3.15-1.1",
            "openSUSE Tumbleweed:postgresql93-contrib-9.3.15-1.1",
            "openSUSE Tumbleweed:postgresql93-devel-9.3.15-1.1",
            "openSUSE Tumbleweed:postgresql93-docs-9.3.15-1.1",
            "openSUSE Tumbleweed:postgresql93-plperl-9.3.15-1.1",
            "openSUSE Tumbleweed:postgresql93-plpython-9.3.15-1.1",
            "openSUSE Tumbleweed:postgresql93-pltcl-9.3.15-1.1",
            "openSUSE Tumbleweed:postgresql93-server-9.3.15-1.1",
            "openSUSE Tumbleweed:postgresql93-test-9.3.15-1.1"
          ]
        }
      ],
      "CVSSScoreSets": {}
    },
    {
      "CVE": "CVE-2014-0064",
      "Description": "Multiple integer overflows in the path_in and other unspecified functions in PostgreSQL before 8.4.20, 9.0.x before 9.0.16, 9.1.x before 9.1.12, 9.2.x before 9.2.7, and 9.3.x before 9.3.3 allow remote authenticated users to have unspecified impact and attack vectors, which trigger a buffer overflow. NOTE: this identifier has been SPLIT due to different affected versions; use CVE-2014-2669 for the hstore vector.",
      "Threats": [
        {
          "Type": "Impact",
          "Severity": "moderate"
        }
      ],
      "References": [
        {
          "URL": "https://www.suse.com/security/cve/CVE-2014-0064.html",
          "Description": "CVE-2014-0064"
        },
        {
          "URL": "https://bugzilla.suse.com/864851",
          "Description": "SUSE Bug 864851"
        },
        {
          "URL": "https://bugzilla.suse.com/864856",
          "Description": "SUSE Bug 864856"
        },
        {
          "URL": "https://bugzilla.suse.com/871307",
          "Description": "SUSE Bug 871307"
        }
      ],
      "ProductStatuses": [
        {
          "Type": "Fixed",
          "ProductID": [
            "openSUSE Tumbleweed:postgresql93-9.3.15-1.1",
            "openSUSE Tumbleweed:postgresql93-contrib-9.3.15-1.1",
            "openSUSE Tumbleweed:postgresql93-devel-9.3.15-1.1",
            "openSUSE Tumbleweed:postgresql93-docs-9.3.15-1.1",
            "openSUSE Tumbleweed:postgresql93-plperl-9.3.15-1.1",
            "openSUSE Tumbleweed:postgresql93-plpython-9.3.15-1.1",
            "openSUSE Tumbleweed:postgresql93-pltcl-9.3.15-1.1",
            "openSUSE Tumbleweed:postgresql93-server-9.3.15-1.1",
            "openSUSE Tumbleweed:postgresql93-test-9.3.15-1.1"
          ]
        }
      ],
      "CVSSScoreSets": {}
    },
    {
      "CVE": "CVE-2014-0065",
      "Description": "Multiple buffer overflows in PostgreSQL before 8.4.20, 9.0.x before 9.0.16, 9.1.x before 9.1.12, 9.2.x before 9.2.7, and 9.3.x before 9.3.3 allow remote authenticated users to have unspecified impact and attack vectors, a different vulnerability than CVE-2014-0063.",
      "Threats": [
        {
          "Type": "Impact",
          "Severity": "moderate"
        }
      ],
      "References": [
        {
          "URL": "https://www.suse.com/security/cve/CVE-2014-0065.html",
          "Description": "CVE-2014-0065"
        },
        {
          "URL": "https://bugzilla.suse.com/864852",
          "Description": "SUSE Bug 864852"
        },
        {
          "URL": "https://bugzilla.suse.com/864856",
          "Description": "SUSE Bug 864856"
        }
      ],
      "ProductStatuses": [
        {
          "Type": "Fixed",
          "ProductID": [
            "openSUSE Tumbleweed:postgresql93-9.3.15-1.1",
            "openSUSE Tumbleweed:postgresql93-contrib-9.3.15-1.1",
            "openSUSE Tumbleweed:postgresql93-devel-9.3.15-1.1",
            "openSUSE Tumbleweed:postgresql93-docs-9.3.15-1.1",
            "openSUSE Tumbleweed:postgresql93-plperl-9.3.15-1.1",
            "openSUSE Tumbleweed:postgresql93-plpython-9.3.15-1.1",
            "openSUSE Tumbleweed:postgresql93-pltcl-9.3.15-1.1",
            "openSUSE Tumbleweed:postgresql93-server-9.3.15-1.1",
            "openSUSE Tumbleweed:postgresql93-test-9.3.15-1.1"
          ]
        }
      ],
      "CVSSScoreSets": {}
    },
    {
      "CVE": "CVE-2014-0066",
      "Description": "The chkpass extension in PostgreSQL before 8.4.20, 9.0.x before 9.0.16, 9.1.x before 9.1.12, 9.2.x before 9.2.7, and 9.3.x before 9.3.3 does not properly check the return value of the crypt library function, which allows remote authenticated users to cause a denial of service (NULL pointer dereference and crash) via unspecified vectors.",
      "Threats": [
        {
          "Type": "Impact",
          "Severity": "moderate"
        }
      ],
      "References": [
        {
          "URL": "https://www.suse.com/security/cve/CVE-2014-0066.html",
          "Description": "CVE-2014-0066"
        },
        {
          "URL": "https://bugzilla.suse.com/864853",
          "Description": "SUSE Bug 864853"
        },
        {
          "URL": "https://bugzilla.suse.com/864856",
          "Description": "SUSE Bug 864856"
        }
      ],
      "ProductStatuses": [
        {
          "Type": "Fixed",
          "ProductID": [
            "openSUSE Tumbleweed:postgresql93-9.3.15-1.1",
            "openSUSE Tumbleweed:postgresql93-contrib-9.3.15-1.1",
            "openSUSE Tumbleweed:postgresql93-devel-9.3.15-1.1",
            "openSUSE Tumbleweed:postgresql93-docs-9.3.15-1.1",
            "openSUSE Tumbleweed:postgresql93-plperl-9.3.15-1.1",
            "openSUSE Tumbleweed:postgresql93-plpython-9.3.15-1.1",
            "openSUSE Tumbleweed:postgresql93-pltcl-9.3.15-1.1",
            "openSUSE Tumbleweed:postgresql93-server-9.3.15-1.1",
            "openSUSE Tumbleweed:postgresql93-test-9.3.15-1.1"
          ]
        }
      ],
      "CVSSScoreSets": {}
    },
    {
      "CVE": "CVE-2014-0067",
      "Description": "The \"make check\" command for the test suites in PostgreSQL 9.3.3 and earlier does not properly invoke initdb to specify the authentication requirements for a database cluster to be used for the tests, which allows local users to gain privileges by leveraging access to this cluster.",
      "Threats": [
        {
          "Type": "Impact",
          "Severity": "low"
        }
      ],
      "References": [
        {
          "URL": "https://www.suse.com/security/cve/CVE-2014-0067.html",
          "Description": "CVE-2014-0067"
        },
        {
          "URL": "https://bugzilla.suse.com/864856",
          "Description": "SUSE Bug 864856"
        },
        {
          "URL": "https://bugzilla.suse.com/872783",
          "Description": "SUSE Bug 872783"
        }
      ],
      "ProductStatuses": [
        {
          "Type": "Fixed",
          "ProductID": [
            "openSUSE Tumbleweed:postgresql93-9.3.15-1.1",
            "openSUSE Tumbleweed:postgresql93-contrib-9.3.15-1.1",
            "openSUSE Tumbleweed:postgresql93-devel-9.3.15-1.1",
            "openSUSE Tumbleweed:postgresql93-docs-9.3.15-1.1",
            "openSUSE Tumbleweed:postgresql93-plperl-9.3.15-1.1",
            "openSUSE Tumbleweed:postgresql93-plpython-9.3.15-1.1",
            "openSUSE Tumbleweed:postgresql93-pltcl-9.3.15-1.1",
            "openSUSE Tumbleweed:postgresql93-server-9.3.15-1.1",
            "openSUSE Tumbleweed:postgresql93-test-9.3.15-1.1"
          ]
        }
      ],
      "CVSSScoreSets": {}
    },
    {
      "CVE": "CVE-2014-8161",
      "Description": "PostgreSQL before 9.0.19, 9.1.x before 9.1.15, 9.2.x before 9.2.10, 9.3.x before 9.3.6, and 9.4.x before 9.4.1 allows remote authenticated users to obtain sensitive column values by triggering constraint violation and then reading the error message.",
      "Threats": [
        {
          "Type": "Impact",
          "Severity": "moderate"
        }
      ],
      "References": [
        {
          "URL": "https://www.suse.com/security/cve/CVE-2014-8161.html",
          "Description": "CVE-2014-8161"
        },
        {
          "URL": "https://bugzilla.suse.com/916953",
          "Description": "SUSE Bug 916953"
        }
      ],
      "ProductStatuses": [
        {
          "Type": "Fixed",
          "ProductID": [
            "openSUSE Tumbleweed:postgresql93-9.3.15-1.1",
            "openSUSE Tumbleweed:postgresql93-contrib-9.3.15-1.1",
            "openSUSE Tumbleweed:postgresql93-devel-9.3.15-1.1",
            "openSUSE Tumbleweed:postgresql93-docs-9.3.15-1.1",
            "openSUSE Tumbleweed:postgresql93-plperl-9.3.15-1.1",
            "openSUSE Tumbleweed:postgresql93-plpython-9.3.15-1.1",
            "openSUSE Tumbleweed:postgresql93-pltcl-9.3.15-1.1",
            "openSUSE Tumbleweed:postgresql93-server-9.3.15-1.1",
            "openSUSE Tumbleweed:postgresql93-test-9.3.15-1.1"
          ]
        }
      ],
      "CVSSScoreSets": {}
    },
    {
      "CVE": "CVE-2015-0241",
      "Description": "The to_char function in PostgreSQL before 9.0.19, 9.1.x before 9.1.15, 9.2.x before 9.2.10, 9.3.x before 9.3.6, and 9.4.x before 9.4.1 allows remote authenticated users to cause a denial of service (crash) or possibly execute arbitrary code via a (1) large number of digits when processing a numeric formatting template, which triggers a buffer over-read, or (2) crafted timestamp formatting template, which triggers a buffer overflow.",
      "Threats": [
        {
          "Type": "Impact",
          "Severity": "moderate"
        }
      ],
      "References": [
        {
          "URL": "https://www.suse.com/security/cve/CVE-2015-0241.html",
          "Description": "CVE-2015-0241"
        },
        {
          "URL": "https://bugzilla.suse.com/916953",
          "Description": "SUSE Bug 916953"
        }
      ],
      "ProductStatuses": [
        {
          "Type": "Fixed",
          "ProductID": [
            "openSUSE Tumbleweed:postgresql93-9.3.15-1.1",
            "openSUSE Tumbleweed:postgresql93-contrib-9.3.15-1.1",
            "openSUSE Tumbleweed:postgresql93-devel-9.3.15-1.1",
            "openSUSE Tumbleweed:postgresql93-docs-9.3.15-1.1",
            "openSUSE Tumbleweed:postgresql93-plperl-9.3.15-1.1",
            "openSUSE Tumbleweed:postgresql93-plpython-9.3.15-1.1",
            "openSUSE Tumbleweed:postgresql93-pltcl-9.3.15-1.1",
            "openSUSE Tumbleweed:postgresql93-server-9.3.15-1.1",
            "openSUSE Tumbleweed:postgresql93-test-9.3.15-1.1"
          ]
        }
      ],
      "CVSSScoreSets": {}
    },
    {
      "CVE": "CVE-2015-0242",
      "Description": "Stack-based buffer overflow in the *printf function implementations in PostgreSQL before 9.0.19, 9.1.x before 9.1.15, 9.2.x before 9.2.10, 9.3.x before 9.3.6, and 9.4.x before 9.4.1, when running on a Windows system, allows remote authenticated users to cause a denial of service (crash) and possibly execute arbitrary code via a floating point number with a large precision, as demonstrated by using the to_char function.",
      "Threats": [
        {
          "Type": "Impact",
          "Severity": "moderate"
        }
      ],
      "References": [
        {
          "URL": "https://www.suse.com/security/cve/CVE-2015-0242.html",
          "Description": "CVE-2015-0242"
        }
      ],
      "ProductStatuses": [
        {
          "Type": "Fixed",
          "ProductID": [
            "openSUSE Tumbleweed:postgresql93-9.3.15-1.1",
            "openSUSE Tumbleweed:postgresql93-contrib-9.3.15-1.1",
            "openSUSE Tumbleweed:postgresql93-devel-9.3.15-1.1",
            "openSUSE Tumbleweed:postgresql93-docs-9.3.15-1.1",
            "openSUSE Tumbleweed:postgresql93-plperl-9.3.15-1.1",
            "openSUSE Tumbleweed:postgresql93-plpython-9.3.15-1.1",
            "openSUSE Tumbleweed:postgresql93-pltcl-9.3.15-1.1",
            "openSUSE Tumbleweed:postgresql93-server-9.3.15-1.1",
            "openSUSE Tumbleweed:postgresql93-test-9.3.15-1.1"
          ]
        }
      ],
      "CVSSScoreSets": {}
    },
    {
      "CVE": "CVE-2015-0243",
      "Description": "Multiple buffer overflows in contrib/pgcrypto in PostgreSQL before 9.0.19, 9.1.x before 9.1.15, 9.2.x before 9.2.10, 9.3.x before 9.3.6, and 9.4.x before 9.4.1 allow remote authenticated users to cause a denial of service (crash) and possibly execute arbitrary code via unspecified vectors.",
      "Threats": [
        {
          "Type": "Impact",
          "Severity": "moderate"
        }
      ],
      "References": [
        {
          "URL": "https://www.suse.com/security/cve/CVE-2015-0243.html",
          "Description": "CVE-2015-0243"
        },
        {
          "URL": "https://bugzilla.suse.com/916953",
          "Description": "SUSE Bug 916953"
        }
      ],
      "ProductStatuses": [
        {
          "Type": "Fixed",
          "ProductID": [
            "openSUSE Tumbleweed:postgresql93-9.3.15-1.1",
            "openSUSE Tumbleweed:postgresql93-contrib-9.3.15-1.1",
            "openSUSE Tumbleweed:postgresql93-devel-9.3.15-1.1",
            "openSUSE Tumbleweed:postgresql93-docs-9.3.15-1.1",
            "openSUSE Tumbleweed:postgresql93-plperl-9.3.15-1.1",
            "openSUSE Tumbleweed:postgresql93-plpython-9.3.15-1.1",
            "openSUSE Tumbleweed:postgresql93-pltcl-9.3.15-1.1",
            "openSUSE Tumbleweed:postgresql93-server-9.3.15-1.1",
            "openSUSE Tumbleweed:postgresql93-test-9.3.15-1.1"
          ]
        }
      ],
      "CVSSScoreSets": {}
    },
    {
      "CVE": "CVE-2015-0244",
      "Description": "PostgreSQL before 9.0.19, 9.1.x before 9.1.15, 9.2.x before 9.2.10, 9.3.x before 9.3.6, and 9.4.x before 9.4.1 does not properly handle errors while reading a protocol message, which allows remote attackers to conduct SQL injection attacks via crafted binary data in a parameter and causing an error, which triggers the loss of synchronization and part of the protocol message to be treated as a new message, as demonstrated by causing a timeout or query cancellation.",
      "Threats": [
        {
          "Type": "Impact",
          "Severity": "moderate"
        }
      ],
      "References": [
        {
          "URL": "https://www.suse.com/security/cve/CVE-2015-0244.html",
          "Description": "CVE-2015-0244"
        },
        {
          "URL": "https://bugzilla.suse.com/916953",
          "Description": "SUSE Bug 916953"
        }
      ],
      "ProductStatuses": [
        {
          "Type": "Fixed",
          "ProductID": [
            "openSUSE Tumbleweed:postgresql93-9.3.15-1.1",
            "openSUSE Tumbleweed:postgresql93-contrib-9.3.15-1.1",
            "openSUSE Tumbleweed:postgresql93-devel-9.3.15-1.1",
            "openSUSE Tumbleweed:postgresql93-docs-9.3.15-1.1",
            "openSUSE Tumbleweed:postgresql93-plperl-9.3.15-1.1",
            "openSUSE Tumbleweed:postgresql93-plpython-9.3.15-1.1",
            "openSUSE Tumbleweed:postgresql93-pltcl-9.3.15-1.1",
            "openSUSE Tumbleweed:postgresql93-server-9.3.15-1.1",
            "openSUSE Tumbleweed:postgresql93-test-9.3.15-1.1"
          ]
        }
      ],
      "CVSSScoreSets": {}
    },
    {
      "CVE": "CVE-2015-3165",
      "Description": "Double free vulnerability in PostgreSQL before 9.0.20, 9.1.x before 9.1.16, 9.2.x before 9.2.11, 9.3.x before 9.3.7, and 9.4.x before 9.4.2 allows remote attackers to cause a denial of service (crash) by closing an SSL session at a time when the authentication timeout will expire during the session shutdown sequence.",
      "Threats": [
        {
          "Type": "Impact",
          "Severity": "critical"
        }
      ],
      "References": [
        {
          "URL": "https://www.suse.com/security/cve/CVE-2015-3165.html",
          "Description": "CVE-2015-3165"
        },
        {
          "URL": "https://bugzilla.suse.com/931972",
          "Description": "SUSE Bug 931972"
        },
        {
          "URL": "https://bugzilla.suse.com/931973",
          "Description": "SUSE Bug 931973"
        },
        {
          "URL": "https://bugzilla.suse.com/931974",
          "Description": "SUSE Bug 931974"
        },
        {
          "URL": "https://bugzilla.suse.com/932040",
          "Description": "SUSE Bug 932040"
        }
      ],
      "ProductStatuses": [
        {
          "Type": "Fixed",
          "ProductID": [
            "openSUSE Tumbleweed:postgresql93-9.3.15-1.1",
            "openSUSE Tumbleweed:postgresql93-contrib-9.3.15-1.1",
            "openSUSE Tumbleweed:postgresql93-devel-9.3.15-1.1",
            "openSUSE Tumbleweed:postgresql93-docs-9.3.15-1.1",
            "openSUSE Tumbleweed:postgresql93-plperl-9.3.15-1.1",
            "openSUSE Tumbleweed:postgresql93-plpython-9.3.15-1.1",
            "openSUSE Tumbleweed:postgresql93-pltcl-9.3.15-1.1",
            "openSUSE Tumbleweed:postgresql93-server-9.3.15-1.1",
            "openSUSE Tumbleweed:postgresql93-test-9.3.15-1.1"
          ]
        }
      ],
      "CVSSScoreSets": {}
    },
    {
      "CVE": "CVE-2015-3166",
      "Description": "The snprintf implementation in PostgreSQL before 9.0.20, 9.1.x before 9.1.16, 9.2.x before 9.2.11, 9.3.x before 9.3.7, and 9.4.x before 9.4.2 does not properly handle system-call errors, which allows attackers to obtain sensitive information or have other unspecified impact via unknown vectors, as demonstrated by an out-of-memory error.",
      "Threats": [
        {
          "Type": "Impact",
          "Severity": "critical"
        }
      ],
      "References": [
        {
          "URL": "https://www.suse.com/security/cve/CVE-2015-3166.html",
          "Description": "CVE-2015-3166"
        },
        {
          "URL": "https://bugzilla.suse.com/931972",
          "Description": "SUSE Bug 931972"
        },
        {
          "URL": "https://bugzilla.suse.com/931973",
          "Description": "SUSE Bug 931973"
        },
        {
          "URL": "https://bugzilla.suse.com/931974",
          "Description": "SUSE Bug 931974"
        },
        {
          "URL": "https://bugzilla.suse.com/932040",
          "Description": "SUSE Bug 932040"
        }
      ],
      "ProductStatuses": [
        {
          "Type": "Fixed",
          "ProductID": [
            "openSUSE Tumbleweed:postgresql93-9.3.15-1.1",
            "openSUSE Tumbleweed:postgresql93-contrib-9.3.15-1.1",
            "openSUSE Tumbleweed:postgresql93-devel-9.3.15-1.1",
            "openSUSE Tumbleweed:postgresql93-docs-9.3.15-1.1",
            "openSUSE Tumbleweed:postgresql93-plperl-9.3.15-1.1",
            "openSUSE Tumbleweed:postgresql93-plpython-9.3.15-1.1",
            "openSUSE Tumbleweed:postgresql93-pltcl-9.3.15-1.1",
            "openSUSE Tumbleweed:postgresql93-server-9.3.15-1.1",
            "openSUSE Tumbleweed:postgresql93-test-9.3.15-1.1"
          ]
        }
      ],
      "CVSSScoreSets": {}
    },
    {
      "CVE": "CVE-2015-3167",
      "Description": "contrib/pgcrypto in PostgreSQL before 9.0.20, 9.1.x before 9.1.16, 9.2.x before 9.2.11, 9.3.x before 9.3.7, and 9.4.x before 9.4.2 uses different error responses when an incorrect key is used, which makes it easier for attackers to obtain the key via a brute force attack.",
      "Threats": [
        {
          "Type": "Impact",
          "Severity": "critical"
        }
      ],
      "References": [
        {
          "URL": "https://www.suse.com/security/cve/CVE-2015-3167.html",
          "Description": "CVE-2015-3167"
        },
        {
          "URL": "https://bugzilla.suse.com/931972",
          "Description": "SUSE Bug 931972"
        },
        {
          "URL": "https://bugzilla.suse.com/931973",
          "Description": "SUSE Bug 931973"
        },
        {
          "URL": "https://bugzilla.suse.com/931974",
          "Description": "SUSE Bug 931974"
        },
        {
          "URL": "https://bugzilla.suse.com/932040",
          "Description": "SUSE Bug 932040"
        }
      ],
      "ProductStatuses": [
        {
          "Type": "Fixed",
          "ProductID": [
            "openSUSE Tumbleweed:postgresql93-9.3.15-1.1",
            "openSUSE Tumbleweed:postgresql93-contrib-9.3.15-1.1",
            "openSUSE Tumbleweed:postgresql93-devel-9.3.15-1.1",
            "openSUSE Tumbleweed:postgresql93-docs-9.3.15-1.1",
            "openSUSE Tumbleweed:postgresql93-plperl-9.3.15-1.1",
            "openSUSE Tumbleweed:postgresql93-plpython-9.3.15-1.1",
            "openSUSE Tumbleweed:postgresql93-pltcl-9.3.15-1.1",
            "openSUSE Tumbleweed:postgresql93-server-9.3.15-1.1",
            "openSUSE Tumbleweed:postgresql93-test-9.3.15-1.1"
          ]
        }
      ],
      "CVSSScoreSets": {}
    },
    {
      "CVE": "CVE-2015-5288",
      "Description": "The crypt function in contrib/pgcrypto in PostgreSQL before 9.0.23, 9.1.x before 9.1.19, 9.2.x before 9.2.14, 9.3.x before 9.3.10, and 9.4.x before 9.4.5 allows attackers to cause a denial of service (server crash) or read arbitrary server memory via a \"too-short\" salt.",
      "Threats": [
        {
          "Type": "Impact",
          "Severity": "low"
        }
      ],
      "References": [
        {
          "URL": "https://www.suse.com/security/cve/CVE-2015-5288.html",
          "Description": "CVE-2015-5288"
        },
        {
          "URL": "https://bugzilla.suse.com/949669",
          "Description": "SUSE Bug 949669"
        },
        {
          "URL": "https://bugzilla.suse.com/949670",
          "Description": "SUSE Bug 949670"
        }
      ],
      "ProductStatuses": [
        {
          "Type": "Fixed",
          "ProductID": [
            "openSUSE Tumbleweed:postgresql93-9.3.15-1.1",
            "openSUSE Tumbleweed:postgresql93-contrib-9.3.15-1.1",
            "openSUSE Tumbleweed:postgresql93-devel-9.3.15-1.1",
            "openSUSE Tumbleweed:postgresql93-docs-9.3.15-1.1",
            "openSUSE Tumbleweed:postgresql93-plperl-9.3.15-1.1",
            "openSUSE Tumbleweed:postgresql93-plpython-9.3.15-1.1",
            "openSUSE Tumbleweed:postgresql93-pltcl-9.3.15-1.1",
            "openSUSE Tumbleweed:postgresql93-server-9.3.15-1.1",
            "openSUSE Tumbleweed:postgresql93-test-9.3.15-1.1"
          ]
        }
      ],
      "CVSSScoreSets": {
        "BaseScore": "4",
        "Vector": "AV:N/AC:L/Au:S/C:N/I:N/A:P"
      }
    },
    {
      "CVE": "CVE-2015-5289",
      "Description": "Multiple stack-based buffer overflows in json parsing in PostgreSQL before 9.3.x before 9.3.10 and 9.4.x before 9.4.5 allow attackers to cause a denial of service (server crash) via unspecified vectors, which are not properly handled in (1) json or (2) jsonb values.",
      "Threats": [
        {
          "Type": "Impact",
          "Severity": "moderate"
        }
      ],
      "References": [
        {
          "URL": "https://www.suse.com/security/cve/CVE-2015-5289.html",
          "Description": "CVE-2015-5289"
        },
        {
          "URL": "https://bugzilla.suse.com/949669",
          "Description": "SUSE Bug 949669"
        },
        {
          "URL": "https://bugzilla.suse.com/949670",
          "Description": "SUSE Bug 949670"
        }
      ],
      "ProductStatuses": [
        {
          "Type": "Fixed",
          "ProductID": [
            "openSUSE Tumbleweed:postgresql93-9.3.15-1.1",
            "openSUSE Tumbleweed:postgresql93-contrib-9.3.15-1.1",
            "openSUSE Tumbleweed:postgresql93-devel-9.3.15-1.1",
            "openSUSE Tumbleweed:postgresql93-docs-9.3.15-1.1",
            "openSUSE Tumbleweed:postgresql93-plperl-9.3.15-1.1",
            "openSUSE Tumbleweed:postgresql93-plpython-9.3.15-1.1",
            "openSUSE Tumbleweed:postgresql93-pltcl-9.3.15-1.1",
            "openSUSE Tumbleweed:postgresql93-server-9.3.15-1.1",
            "openSUSE Tumbleweed:postgresql93-test-9.3.15-1.1"
          ]
        }
      ],
      "CVSSScoreSets": {}
    },
    {
      "CVE": "CVE-2016-0766",
      "Description": "PostgreSQL before 9.1.20, 9.2.x before 9.2.15, 9.3.x before 9.3.11, 9.4.x before 9.4.6, and 9.5.x before 9.5.1 does not properly restrict access to unspecified custom configuration settings (GUCS) for PL/Java, which allows attackers to gain privileges via unspecified vectors.",
      "Threats": [
        {
          "Type": "Impact",
          "Severity": "moderate"
        }
      ],
      "References": [
        {
          "URL": "https://www.suse.com/security/cve/CVE-2016-0766.html",
          "Description": "CVE-2016-0766"
        },
        {
          "URL": "https://bugzilla.suse.com/966435",
          "Description": "SUSE Bug 966435"
        },
        {
          "URL": "https://bugzilla.suse.com/966436",
          "Description": "SUSE Bug 966436"
        },
        {
          "URL": "https://bugzilla.suse.com/978323",
          "Description": "SUSE Bug 978323"
        }
      ],
      "ProductStatuses": [
        {
          "Type": "Fixed",
          "ProductID": [
            "openSUSE Tumbleweed:postgresql93-9.3.15-1.1",
            "openSUSE Tumbleweed:postgresql93-contrib-9.3.15-1.1",
            "openSUSE Tumbleweed:postgresql93-devel-9.3.15-1.1",
            "openSUSE Tumbleweed:postgresql93-docs-9.3.15-1.1",
            "openSUSE Tumbleweed:postgresql93-plperl-9.3.15-1.1",
            "openSUSE Tumbleweed:postgresql93-plpython-9.3.15-1.1",
            "openSUSE Tumbleweed:postgresql93-pltcl-9.3.15-1.1",
            "openSUSE Tumbleweed:postgresql93-server-9.3.15-1.1",
            "openSUSE Tumbleweed:postgresql93-test-9.3.15-1.1"
          ]
        }
      ],
      "CVSSScoreSets": {
        "BaseScore": "6.8",
        "Vector": "AV:N/AC:M/Au:N/C:P/I:P/A:P"
      }
    },
    {
      "CVE": "CVE-2016-0773",
      "Description": "PostgreSQL before 9.1.20, 9.2.x before 9.2.15, 9.3.x before 9.3.11, 9.4.x before 9.4.6, and 9.5.x before 9.5.1 allows remote attackers to cause a denial of service (infinite loop or buffer overflow and crash) via a large Unicode character range in a regular expression.",
      "Threats": [
        {
          "Type": "Impact",
          "Severity": "moderate"
        }
      ],
      "References": [
        {
          "URL": "https://www.suse.com/security/cve/CVE-2016-0773.html",
          "Description": "CVE-2016-0773"
        },
        {
          "URL": "https://bugzilla.suse.com/966435",
          "Description": "SUSE Bug 966435"
        },
        {
          "URL": "https://bugzilla.suse.com/966436",
          "Description": "SUSE Bug 966436"
        },
        {
          "URL": "https://bugzilla.suse.com/978323",
          "Description": "SUSE Bug 978323"
        },
        {
          "URL": "https://bugzilla.suse.com/983246",
          "Description": "SUSE Bug 983246"
        },
        {
          "URL": "https://bugzilla.suse.com/986409",
          "Description": "SUSE Bug 986409"
        }
      ],
      "ProductStatuses": [
        {
          "Type": "Fixed",
          "ProductID": [
            "openSUSE Tumbleweed:postgresql93-9.3.15-1.1",
            "openSUSE Tumbleweed:postgresql93-contrib-9.3.15-1.1",
            "openSUSE Tumbleweed:postgresql93-devel-9.3.15-1.1",
            "openSUSE Tumbleweed:postgresql93-docs-9.3.15-1.1",
            "openSUSE Tumbleweed:postgresql93-plperl-9.3.15-1.1",
            "openSUSE Tumbleweed:postgresql93-plpython-9.3.15-1.1",
            "openSUSE Tumbleweed:postgresql93-pltcl-9.3.15-1.1",
            "openSUSE Tumbleweed:postgresql93-server-9.3.15-1.1",
            "openSUSE Tumbleweed:postgresql93-test-9.3.15-1.1"
          ]
        }
      ],
      "CVSSScoreSets": {
        "BaseScore": "6.8",
        "Vector": "AV:N/AC:M/Au:N/C:P/I:P/A:P"
      }
    },
    {
      "CVE": "CVE-2016-5423",
      "Description": "PostgreSQL before 9.1.23, 9.2.x before 9.2.18, 9.3.x before 9.3.14, 9.4.x before 9.4.9, and 9.5.x before 9.5.4 allow remote authenticated users to cause a denial of service (NULL pointer dereference and server crash), obtain sensitive memory information, or possibly execute arbitrary code via (1) a CASE expression within the test value subexpression of another CASE or (2) inlining of an SQL function that implements the equality operator used for a CASE expression involving values of different types.",
      "Threats": [
        {
          "Type": "Impact",
          "Severity": "moderate"
        }
      ],
      "References": [
        {
          "URL": "https://www.suse.com/security/cve/CVE-2016-5423.html",
          "Description": "CVE-2016-5423"
        },
        {
          "URL": "https://bugzilla.suse.com/1041981",
          "Description": "SUSE Bug 1041981"
        },
        {
          "URL": "https://bugzilla.suse.com/1042497",
          "Description": "SUSE Bug 1042497"
        },
        {
          "URL": "https://bugzilla.suse.com/1052683",
          "Description": "SUSE Bug 1052683"
        },
        {
          "URL": "https://bugzilla.suse.com/993454",
          "Description": "SUSE Bug 993454"
        }
      ],
      "ProductStatuses": [
        {
          "Type": "Fixed",
          "ProductID": [
            "openSUSE Tumbleweed:postgresql93-9.3.15-1.1",
            "openSUSE Tumbleweed:postgresql93-contrib-9.3.15-1.1",
            "openSUSE Tumbleweed:postgresql93-devel-9.3.15-1.1",
            "openSUSE Tumbleweed:postgresql93-docs-9.3.15-1.1",
            "openSUSE Tumbleweed:postgresql93-plperl-9.3.15-1.1",
            "openSUSE Tumbleweed:postgresql93-plpython-9.3.15-1.1",
            "openSUSE Tumbleweed:postgresql93-pltcl-9.3.15-1.1",
            "openSUSE Tumbleweed:postgresql93-server-9.3.15-1.1",
            "openSUSE Tumbleweed:postgresql93-test-9.3.15-1.1"
          ]
        }
      ],
      "CVSSScoreSets": {
        "BaseScore": "6.5",
        "Vector": "AV:N/AC:L/Au:S/C:P/I:P/A:P"
      }
    },
    {
      "CVE": "CVE-2016-5424",
      "Description": "PostgreSQL before 9.1.23, 9.2.x before 9.2.18, 9.3.x before 9.3.14, 9.4.x before 9.4.9, and 9.5.x before 9.5.4 might allow remote authenticated users with the CREATEDB or CREATEROLE role to gain superuser privileges via a (1) \" (double quote), (2) \\ (backslash), (3) carriage return, or (4) newline character in a (a) database or (b) role name that is mishandled during an administrative operation.",
      "Threats": [
        {
          "Type": "Impact",
          "Severity": "moderate"
        }
      ],
      "References": [
        {
          "URL": "https://www.suse.com/security/cve/CVE-2016-5424.html",
          "Description": "CVE-2016-5424"
        },
        {
          "URL": "https://bugzilla.suse.com/1041981",
          "Description": "SUSE Bug 1041981"
        },
        {
          "URL": "https://bugzilla.suse.com/1042497",
          "Description": "SUSE Bug 1042497"
        },
        {
          "URL": "https://bugzilla.suse.com/1052683",
          "Description": "SUSE Bug 1052683"
        },
        {
          "URL": "https://bugzilla.suse.com/993453",
          "Description": "SUSE Bug 993453"
        }
      ],
      "ProductStatuses": [
        {
          "Type": "Fixed",
          "ProductID": [
            "openSUSE Tumbleweed:postgresql93-9.3.15-1.1",
            "openSUSE Tumbleweed:postgresql93-contrib-9.3.15-1.1",
            "openSUSE Tumbleweed:postgresql93-devel-9.3.15-1.1",
            "openSUSE Tumbleweed:postgresql93-docs-9.3.15-1.1",
            "openSUSE Tumbleweed:postgresql93-plperl-9.3.15-1.1",
            "openSUSE Tumbleweed:postgresql93-plpython-9.3.15-1.1",
            "openSUSE Tumbleweed:postgresql93-pltcl-9.3.15-1.1",
            "openSUSE Tumbleweed:postgresql93-server-9.3.15-1.1",
            "openSUSE Tumbleweed:postgresql93-test-9.3.15-1.1"
          ]
        }
      ],
      "CVSSScoreSets": {
        "BaseScore": "6.6",
        "Vector": "AV:L/AC:M/Au:S/C:C/I:C/A:C"
      }
    }
  ]
}