{
  "Title": "liblua5_4-5-32bit-5.4.4-5.1 on GA media",
  "Tracking": {
    "ID": "openSUSE-SU-2024:12167-1",
    "Status": "Final",
    "Version": "1",
    "InitialReleaseDate": "2024-06-20T21:44:22Z",
    "CurrentReleaseDate": "2024-06-20T21:44:22Z",
    "RevisionHistory": [
      {
        "Number": "1",
        "Date": "2024-06-20T21:44:22Z",
        "Description": "current"
      }
    ]
  },
  "Notes": [
    {
      "Text": "liblua5_4-5-32bit-5.4.4-5.1 on GA media",
      "Title": "Topic",
      "Type": "Summary"
    },
    {
      "Text": "These are all security issues fixed in the liblua5_4-5-32bit-5.4.4-5.1 package on the GA media of openSUSE Tumbleweed.",
      "Title": "Details",
      "Type": "General"
    },
    {
      "Text": "The CVRF data is provided by SUSE under the Creative Commons License 4.0 with Attribution (CC-BY-4.0).",
      "Title": "Terms of Use",
      "Type": "Legal Disclaimer"
    },
    {
      "Text": "openSUSE-Tumbleweed-2024-12167",
      "Title": "Patchnames",
      "Type": "Details"
    }
  ],
  "ProductTree": {
    "Relationships": [
      {
        "ProductReference": "liblua5_4-5-5.4.4-5.1",
        "RelatesToProductReference": "openSUSE Tumbleweed",
        "RelationType": "Default Component Of"
      },
      {
        "ProductReference": "liblua5_4-5-32bit-5.4.4-5.1",
        "RelatesToProductReference": "openSUSE Tumbleweed",
        "RelationType": "Default Component Of"
      },
      {
        "ProductReference": "lua54-5.4.4-5.1",
        "RelatesToProductReference": "openSUSE Tumbleweed",
        "RelationType": "Default Component Of"
      },
      {
        "ProductReference": "lua54-devel-5.4.4-5.1",
        "RelatesToProductReference": "openSUSE Tumbleweed",
        "RelationType": "Default Component Of"
      },
      {
        "ProductReference": "lua54-doc-5.4.4-5.1",
        "RelatesToProductReference": "openSUSE Tumbleweed",
        "RelationType": "Default Component Of"
      }
    ]
  },
  "References": [
    {
      "URL": "https://www.suse.com/support/security/rating/",
      "Description": "SUSE Security Ratings"
    },
    {
      "URL": "https://www.suse.com/security/cve/CVE-2022-33099/",
      "Description": "SUSE CVE CVE-2022-33099 page"
    }
  ],
  "Vulnerabilities": [
    {
      "CVE": "CVE-2022-33099",
      "Description": "An issue in the component luaG_runerror of Lua v5.4.4 and below leads to a heap-buffer overflow when a recursive error occurs.",
      "Threats": [
        {
          "Type": "Impact",
          "Severity": "moderate"
        }
      ],
      "References": [
        {
          "URL": "https://www.suse.com/security/cve/CVE-2022-33099.html",
          "Description": "CVE-2022-33099"
        },
        {
          "URL": "https://bugzilla.suse.com/1201146",
          "Description": "SUSE Bug 1201146"
        }
      ],
      "ProductStatuses": [
        {
          "Type": "Fixed",
          "ProductID": [
            "openSUSE Tumbleweed:liblua5_4-5-32bit-5.4.4-5.1",
            "openSUSE Tumbleweed:liblua5_4-5-5.4.4-5.1",
            "openSUSE Tumbleweed:lua54-5.4.4-5.1",
            "openSUSE Tumbleweed:lua54-devel-5.4.4-5.1",
            "openSUSE Tumbleweed:lua54-doc-5.4.4-5.1"
          ]
        }
      ],
      "CVSSScoreSets": {}
    }
  ]
}