{
  "Title": "openttd-1.6.1-1.1 on GA media",
  "Tracking": {
    "ID": "openSUSE-SU-2024:10563-1",
    "Status": "Final",
    "Version": "1",
    "InitialReleaseDate": "2024-06-22T21:44:56Z",
    "CurrentReleaseDate": "2024-06-22T21:44:56Z",
    "RevisionHistory": [
      {
        "Number": "1",
        "Date": "2024-06-22T21:44:56Z",
        "Description": "current"
      }
    ]
  },
  "Notes": [
    {
      "Text": "openttd-1.6.1-1.1 on GA media",
      "Title": "Topic",
      "Type": "Summary"
    },
    {
      "Text": "These are all security issues fixed in the openttd-1.6.1-1.1 package on the GA media of openSUSE Tumbleweed.",
      "Title": "Details",
      "Type": "General"
    },
    {
      "Text": "The CVRF data is provided by SUSE under the Creative Commons License 4.0 with Attribution (CC-BY-4.0).",
      "Title": "Terms of Use",
      "Type": "Legal Disclaimer"
    },
    {
      "Text": "openSUSE-Tumbleweed-2024-10563",
      "Title": "Patchnames",
      "Type": "Details"
    }
  ],
  "ProductTree": {
    "Relationships": [
      {
        "ProductReference": "openttd-1.6.1-1.1",
        "RelatesToProductReference": "openSUSE Tumbleweed",
        "RelationType": "Default Component Of"
      },
      {
        "ProductReference": "openttd-data-1.6.1-1.1",
        "RelatesToProductReference": "openSUSE Tumbleweed",
        "RelationType": "Default Component Of"
      },
      {
        "ProductReference": "openttd-dedicated-1.6.1-1.1",
        "RelatesToProductReference": "openSUSE Tumbleweed",
        "RelationType": "Default Component Of"
      }
    ]
  },
  "References": [
    {
      "URL": "https://www.suse.com/support/security/rating/",
      "Description": "SUSE Security Ratings"
    },
    {
      "URL": "https://www.suse.com/security/cve/CVE-2010-4168/",
      "Description": "SUSE CVE CVE-2010-4168 page"
    },
    {
      "URL": "https://www.suse.com/security/cve/CVE-2012-0049/",
      "Description": "SUSE CVE CVE-2012-0049 page"
    },
    {
      "URL": "https://www.suse.com/security/cve/CVE-2012-3436/",
      "Description": "SUSE CVE CVE-2012-3436 page"
    },
    {
      "URL": "https://www.suse.com/security/cve/CVE-2013-6411/",
      "Description": "SUSE CVE CVE-2013-6411 page"
    }
  ],
  "Vulnerabilities": [
    {
      "CVE": "CVE-2010-4168",
      "Description": "Multiple use-after-free vulnerabilities in OpenTTD 1.0.x before 1.0.5 allow (1) remote attackers to cause a denial of service (invalid write and daemon crash) by abruptly disconnecting during transmission of the map from the server, related to network/network_server.cpp; (2) remote attackers to cause a denial of service (invalid read and daemon crash) by abruptly disconnecting, related to network/network_server.cpp; and (3) remote servers to cause a denial of service (invalid read and application crash) by forcing a disconnection during the join process, related to network/network.cpp.",
      "Threats": [
        {
          "Type": "Impact",
          "Severity": "moderate"
        }
      ],
      "References": [
        {
          "URL": "https://www.suse.com/security/cve/CVE-2010-4168.html",
          "Description": "CVE-2010-4168"
        }
      ],
      "ProductStatuses": [
        {
          "Type": "Fixed",
          "ProductID": [
            "openSUSE Tumbleweed:openttd-1.6.1-1.1",
            "openSUSE Tumbleweed:openttd-data-1.6.1-1.1",
            "openSUSE Tumbleweed:openttd-dedicated-1.6.1-1.1"
          ]
        }
      ],
      "CVSSScoreSets": {}
    },
    {
      "CVE": "CVE-2012-0049",
      "Description": "OpenTTD before 1.1.5 contains a Denial of Service (slow read attack) that prevents users from joining the server.",
      "Threats": [
        {
          "Type": "Impact",
          "Severity": "moderate"
        }
      ],
      "References": [
        {
          "URL": "https://www.suse.com/security/cve/CVE-2012-0049.html",
          "Description": "CVE-2012-0049"
        }
      ],
      "ProductStatuses": [
        {
          "Type": "Fixed",
          "ProductID": [
            "openSUSE Tumbleweed:openttd-1.6.1-1.1",
            "openSUSE Tumbleweed:openttd-data-1.6.1-1.1",
            "openSUSE Tumbleweed:openttd-dedicated-1.6.1-1.1"
          ]
        }
      ],
      "CVSSScoreSets": {}
    },
    {
      "CVE": "CVE-2012-3436",
      "Description": "OpenTTD 0.6.0 through 1.2.1 does not properly validate requests to clear a water tile, which allows remote attackers to cause a denial of service (NULL pointer dereference and server crash) via a certain sequence of steps related to \"the water/coast aspect of tiles which also have railtracks on one half.\"",
      "Threats": [
        {
          "Type": "Impact",
          "Severity": "moderate"
        }
      ],
      "References": [
        {
          "URL": "https://www.suse.com/security/cve/CVE-2012-3436.html",
          "Description": "CVE-2012-3436"
        },
        {
          "URL": "https://bugzilla.suse.com/775023",
          "Description": "SUSE Bug 775023"
        }
      ],
      "ProductStatuses": [
        {
          "Type": "Fixed",
          "ProductID": [
            "openSUSE Tumbleweed:openttd-1.6.1-1.1",
            "openSUSE Tumbleweed:openttd-data-1.6.1-1.1",
            "openSUSE Tumbleweed:openttd-dedicated-1.6.1-1.1"
          ]
        }
      ],
      "CVSSScoreSets": {}
    },
    {
      "CVE": "CVE-2013-6411",
      "Description": "The HandleCrashedAircraft function in aircraft_cmd.cpp in OpenTTD 0.3.6 through 1.3.2 allows remote attackers to cause a denial of service (out-of-bounds read and crash) by crashing an aircraft outside of the map.",
      "Threats": [
        {
          "Type": "Impact",
          "Severity": "moderate"
        }
      ],
      "References": [
        {
          "URL": "https://www.suse.com/security/cve/CVE-2013-6411.html",
          "Description": "CVE-2013-6411"
        },
        {
          "URL": "https://bugzilla.suse.com/853041",
          "Description": "SUSE Bug 853041"
        }
      ],
      "ProductStatuses": [
        {
          "Type": "Fixed",
          "ProductID": [
            "openSUSE Tumbleweed:openttd-1.6.1-1.1",
            "openSUSE Tumbleweed:openttd-data-1.6.1-1.1",
            "openSUSE Tumbleweed:openttd-dedicated-1.6.1-1.1"
          ]
        }
      ],
      "CVSSScoreSets": {}
    }
  ]
}