{
  "Title": "eog-40.3-1.2 on GA media",
  "Tracking": {
    "ID": "openSUSE-SU-2024:10738-1",
    "Status": "Final",
    "Version": "1",
    "InitialReleaseDate": "2024-06-22T21:44:56Z",
    "CurrentReleaseDate": "2024-06-22T21:44:56Z",
    "RevisionHistory": [
      {
        "Number": "1",
        "Date": "2024-06-22T21:44:56Z",
        "Description": "current"
      }
    ]
  },
  "Notes": [
    {
      "Text": "eog-40.3-1.2 on GA media",
      "Title": "Topic",
      "Type": "Summary"
    },
    {
      "Text": "These are all security issues fixed in the eog-40.3-1.2 package on the GA media of openSUSE Tumbleweed.",
      "Title": "Details",
      "Type": "General"
    },
    {
      "Text": "The CVRF data is provided by SUSE under the Creative Commons License 4.0 with Attribution (CC-BY-4.0).",
      "Title": "Terms of Use",
      "Type": "Legal Disclaimer"
    },
    {
      "Text": "openSUSE-Tumbleweed-2024-10738",
      "Title": "Patchnames",
      "Type": "Details"
    }
  ],
  "ProductTree": {
    "Relationships": [
      {
        "ProductReference": "eog-40.3-1.2",
        "RelatesToProductReference": "openSUSE Tumbleweed",
        "RelationType": "Default Component Of"
      },
      {
        "ProductReference": "eog-devel-40.3-1.2",
        "RelatesToProductReference": "openSUSE Tumbleweed",
        "RelationType": "Default Component Of"
      },
      {
        "ProductReference": "eog-lang-40.3-1.2",
        "RelatesToProductReference": "openSUSE Tumbleweed",
        "RelationType": "Default Component Of"
      }
    ]
  },
  "References": [
    {
      "URL": "https://www.suse.com/support/security/rating/",
      "Description": "SUSE Security Ratings"
    },
    {
      "URL": "https://www.suse.com/security/cve/CVE-2008-5978/",
      "Description": "SUSE CVE CVE-2008-5978 page"
    }
  ],
  "Vulnerabilities": [
    {
      "CVE": "CVE-2008-5978",
      "Description": "Multiple SQL injection vulnerabilities in Ocean12 Mailing List Manager Gold allow remote attackers to execute arbitrary SQL commands via the Email parameter to (1) default.asp and (2) s_edit.asp.",
      "Threats": [
        {
          "Type": "Impact",
          "Severity": "moderate"
        }
      ],
      "References": [
        {
          "URL": "https://www.suse.com/security/cve/CVE-2008-5978.html",
          "Description": "CVE-2008-5978"
        }
      ],
      "ProductStatuses": [
        {
          "Type": "Fixed",
          "ProductID": [
            "openSUSE Tumbleweed:eog-40.3-1.2",
            "openSUSE Tumbleweed:eog-devel-40.3-1.2",
            "openSUSE Tumbleweed:eog-lang-40.3-1.2"
          ]
        }
      ],
      "CVSSScoreSets": {}
    }
  ]
}