{
  "Title": "expat-2.6.0-1.1 on GA media",
  "Tracking": {
    "ID": "openSUSE-SU-2024:13695-1",
    "Status": "Final",
    "Version": "1",
    "InitialReleaseDate": "2024-06-20T21:44:22Z",
    "CurrentReleaseDate": "2024-06-20T21:44:22Z",
    "RevisionHistory": [
      {
        "Number": "1",
        "Date": "2024-06-20T21:44:22Z",
        "Description": "current"
      }
    ]
  },
  "Notes": [
    {
      "Text": "expat-2.6.0-1.1 on GA media",
      "Title": "Topic",
      "Type": "Summary"
    },
    {
      "Text": "These are all security issues fixed in the expat-2.6.0-1.1 package on the GA media of openSUSE Tumbleweed.",
      "Title": "Details",
      "Type": "General"
    },
    {
      "Text": "The CVRF data is provided by SUSE under the Creative Commons License 4.0 with Attribution (CC-BY-4.0).",
      "Title": "Terms of Use",
      "Type": "Legal Disclaimer"
    },
    {
      "Text": "openSUSE-Tumbleweed-2024-13695",
      "Title": "Patchnames",
      "Type": "Details"
    }
  ],
  "ProductTree": {
    "Relationships": [
      {
        "ProductReference": "expat-2.6.0-1.1",
        "RelatesToProductReference": "openSUSE Tumbleweed",
        "RelationType": "Default Component Of"
      },
      {
        "ProductReference": "libexpat-devel-2.6.0-1.1",
        "RelatesToProductReference": "openSUSE Tumbleweed",
        "RelationType": "Default Component Of"
      },
      {
        "ProductReference": "libexpat-devel-32bit-2.6.0-1.1",
        "RelatesToProductReference": "openSUSE Tumbleweed",
        "RelationType": "Default Component Of"
      },
      {
        "ProductReference": "libexpat1-2.6.0-1.1",
        "RelatesToProductReference": "openSUSE Tumbleweed",
        "RelationType": "Default Component Of"
      },
      {
        "ProductReference": "libexpat1-32bit-2.6.0-1.1",
        "RelatesToProductReference": "openSUSE Tumbleweed",
        "RelationType": "Default Component Of"
      }
    ]
  },
  "References": [
    {
      "URL": "https://www.suse.com/support/security/rating/",
      "Description": "SUSE Security Ratings"
    },
    {
      "URL": "https://www.suse.com/security/cve/CVE-2023-52425/",
      "Description": "SUSE CVE CVE-2023-52425 page"
    },
    {
      "URL": "https://www.suse.com/security/cve/CVE-2023-52426/",
      "Description": "SUSE CVE CVE-2023-52426 page"
    }
  ],
  "Vulnerabilities": [
    {
      "CVE": "CVE-2023-52425",
      "Description": "libexpat through 2.5.0 allows a denial of service (resource consumption) because many full reparsings are required in the case of a large token for which multiple buffer fills are needed.",
      "Threats": [
        {
          "Type": "Impact",
          "Severity": "moderate"
        }
      ],
      "References": [
        {
          "URL": "https://www.suse.com/security/cve/CVE-2023-52425.html",
          "Description": "CVE-2023-52425"
        },
        {
          "URL": "https://bugzilla.suse.com/1219559",
          "Description": "SUSE Bug 1219559"
        }
      ],
      "ProductStatuses": [
        {
          "Type": "Fixed",
          "ProductID": [
            "openSUSE Tumbleweed:expat-2.6.0-1.1",
            "openSUSE Tumbleweed:libexpat-devel-2.6.0-1.1",
            "openSUSE Tumbleweed:libexpat-devel-32bit-2.6.0-1.1",
            "openSUSE Tumbleweed:libexpat1-2.6.0-1.1",
            "openSUSE Tumbleweed:libexpat1-32bit-2.6.0-1.1"
          ]
        }
      ],
      "CVSSScoreSets": {}
    },
    {
      "CVE": "CVE-2023-52426",
      "Description": "libexpat through 2.5.0 allows recursive XML Entity Expansion if XML_DTD is undefined at compile time.",
      "Threats": [
        {
          "Type": "Impact",
          "Severity": "moderate"
        }
      ],
      "References": [
        {
          "URL": "https://www.suse.com/security/cve/CVE-2023-52426.html",
          "Description": "CVE-2023-52426"
        },
        {
          "URL": "https://bugzilla.suse.com/1219561",
          "Description": "SUSE Bug 1219561"
        }
      ],
      "ProductStatuses": [
        {
          "Type": "Fixed",
          "ProductID": [
            "openSUSE Tumbleweed:expat-2.6.0-1.1",
            "openSUSE Tumbleweed:libexpat-devel-2.6.0-1.1",
            "openSUSE Tumbleweed:libexpat-devel-32bit-2.6.0-1.1",
            "openSUSE Tumbleweed:libexpat1-2.6.0-1.1",
            "openSUSE Tumbleweed:libexpat1-32bit-2.6.0-1.1"
          ]
        }
      ],
      "CVSSScoreSets": {}
    }
  ]
}