{
  "Title": "libSDL2-2_0-0-2.0.16-2.3 on GA media",
  "Tracking": {
    "ID": "openSUSE-SU-2024:10607-1",
    "Status": "Final",
    "Version": "1",
    "InitialReleaseDate": "2024-06-22T21:44:56Z",
    "CurrentReleaseDate": "2024-06-22T21:44:56Z",
    "RevisionHistory": [
      {
        "Number": "1",
        "Date": "2024-06-22T21:44:56Z",
        "Description": "current"
      }
    ]
  },
  "Notes": [
    {
      "Text": "libSDL2-2_0-0-2.0.16-2.3 on GA media",
      "Title": "Topic",
      "Type": "Summary"
    },
    {
      "Text": "These are all security issues fixed in the libSDL2-2_0-0-2.0.16-2.3 package on the GA media of openSUSE Tumbleweed.",
      "Title": "Details",
      "Type": "General"
    },
    {
      "Text": "The CVRF data is provided by SUSE under the Creative Commons License 4.0 with Attribution (CC-BY-4.0).",
      "Title": "Terms of Use",
      "Type": "Legal Disclaimer"
    },
    {
      "Text": "openSUSE-Tumbleweed-2024-10607",
      "Title": "Patchnames",
      "Type": "Details"
    }
  ],
  "ProductTree": {
    "Relationships": [
      {
        "ProductReference": "libSDL2-2_0-0-2.0.16-2.3",
        "RelatesToProductReference": "openSUSE Tumbleweed",
        "RelationType": "Default Component Of"
      },
      {
        "ProductReference": "libSDL2-2_0-0-32bit-2.0.16-2.3",
        "RelatesToProductReference": "openSUSE Tumbleweed",
        "RelationType": "Default Component Of"
      },
      {
        "ProductReference": "libSDL2-devel-2.0.16-2.3",
        "RelatesToProductReference": "openSUSE Tumbleweed",
        "RelationType": "Default Component Of"
      },
      {
        "ProductReference": "libSDL2-devel-32bit-2.0.16-2.3",
        "RelatesToProductReference": "openSUSE Tumbleweed",
        "RelationType": "Default Component Of"
      }
    ]
  },
  "References": [
    {
      "URL": "https://www.suse.com/support/security/rating/",
      "Description": "SUSE Security Ratings"
    },
    {
      "URL": "https://www.suse.com/security/cve/CVE-2017-2888/",
      "Description": "SUSE CVE CVE-2017-2888 page"
    },
    {
      "URL": "https://www.suse.com/security/cve/CVE-2019-13616/",
      "Description": "SUSE CVE CVE-2019-13616 page"
    },
    {
      "URL": "https://www.suse.com/security/cve/CVE-2019-13626/",
      "Description": "SUSE CVE CVE-2019-13626 page"
    },
    {
      "URL": "https://www.suse.com/security/cve/CVE-2019-7635/",
      "Description": "SUSE CVE CVE-2019-7635 page"
    },
    {
      "URL": "https://www.suse.com/security/cve/CVE-2019-7638/",
      "Description": "SUSE CVE CVE-2019-7638 page"
    }
  ],
  "Vulnerabilities": [
    {
      "CVE": "CVE-2017-2888",
      "Description": "An exploitable integer overflow vulnerability exists when creating a new RGB Surface in SDL 2.0.5. A specially crafted file can cause an integer overflow resulting in too little memory being allocated which can lead to a buffer overflow and potential code execution. An attacker can provide a specially crafted image file to trigger this vulnerability.",
      "Threats": [
        {
          "Type": "Impact",
          "Severity": "important"
        }
      ],
      "References": [
        {
          "URL": "https://www.suse.com/security/cve/CVE-2017-2888.html",
          "Description": "CVE-2017-2888"
        },
        {
          "URL": "https://bugzilla.suse.com/1062777",
          "Description": "SUSE Bug 1062777"
        },
        {
          "URL": "https://bugzilla.suse.com/1062784",
          "Description": "SUSE Bug 1062784"
        }
      ],
      "ProductStatuses": [
        {
          "Type": "Fixed",
          "ProductID": [
            "openSUSE Tumbleweed:libSDL2-2_0-0-2.0.16-2.3",
            "openSUSE Tumbleweed:libSDL2-2_0-0-32bit-2.0.16-2.3",
            "openSUSE Tumbleweed:libSDL2-devel-2.0.16-2.3",
            "openSUSE Tumbleweed:libSDL2-devel-32bit-2.0.16-2.3"
          ]
        }
      ],
      "CVSSScoreSets": {
        "BaseScore": "7.2",
        "Vector": "AV:L/AC:L/Au:N/C:C/I:C/A:C"
      }
    },
    {
      "CVE": "CVE-2019-13616",
      "Description": "SDL (Simple DirectMedia Layer) through 1.2.15 and 2.x through 2.0.9 has a heap-based buffer over-read in BlitNtoN in video/SDL_blit_N.c when called from SDL_SoftBlit in video/SDL_blit.c.",
      "Threats": [
        {
          "Type": "Impact",
          "Severity": "moderate"
        }
      ],
      "References": [
        {
          "URL": "https://www.suse.com/security/cve/CVE-2019-13616.html",
          "Description": "CVE-2019-13616"
        },
        {
          "URL": "https://bugzilla.suse.com/1141844",
          "Description": "SUSE Bug 1141844"
        }
      ],
      "ProductStatuses": [
        {
          "Type": "Fixed",
          "ProductID": [
            "openSUSE Tumbleweed:libSDL2-2_0-0-2.0.16-2.3",
            "openSUSE Tumbleweed:libSDL2-2_0-0-32bit-2.0.16-2.3",
            "openSUSE Tumbleweed:libSDL2-devel-2.0.16-2.3",
            "openSUSE Tumbleweed:libSDL2-devel-32bit-2.0.16-2.3"
          ]
        }
      ],
      "CVSSScoreSets": {}
    },
    {
      "CVE": "CVE-2019-13626",
      "Description": "SDL (Simple DirectMedia Layer) 2.x through 2.0.9 has a heap-based buffer over-read in Fill_IMA_ADPCM_block, caused by an integer overflow in IMA_ADPCM_decode() in audio/SDL_wave.c.",
      "Threats": [
        {
          "Type": "Impact",
          "Severity": "moderate"
        }
      ],
      "References": [
        {
          "URL": "https://www.suse.com/security/cve/CVE-2019-13626.html",
          "Description": "CVE-2019-13626"
        },
        {
          "URL": "https://bugzilla.suse.com/1142031",
          "Description": "SUSE Bug 1142031"
        }
      ],
      "ProductStatuses": [
        {
          "Type": "Fixed",
          "ProductID": [
            "openSUSE Tumbleweed:libSDL2-2_0-0-2.0.16-2.3",
            "openSUSE Tumbleweed:libSDL2-2_0-0-32bit-2.0.16-2.3",
            "openSUSE Tumbleweed:libSDL2-devel-2.0.16-2.3",
            "openSUSE Tumbleweed:libSDL2-devel-32bit-2.0.16-2.3"
          ]
        }
      ],
      "CVSSScoreSets": {}
    },
    {
      "CVE": "CVE-2019-7635",
      "Description": "SDL (Simple DirectMedia Layer) through 1.2.15 and 2.x through 2.0.9 has a heap-based buffer over-read in Blit1to4 in video/SDL_blit_1.c.",
      "Threats": [
        {
          "Type": "Impact",
          "Severity": "moderate"
        }
      ],
      "References": [
        {
          "URL": "https://www.suse.com/security/cve/CVE-2019-7635.html",
          "Description": "CVE-2019-7635"
        },
        {
          "URL": "https://bugzilla.suse.com/1124827",
          "Description": "SUSE Bug 1124827"
        }
      ],
      "ProductStatuses": [
        {
          "Type": "Fixed",
          "ProductID": [
            "openSUSE Tumbleweed:libSDL2-2_0-0-2.0.16-2.3",
            "openSUSE Tumbleweed:libSDL2-2_0-0-32bit-2.0.16-2.3",
            "openSUSE Tumbleweed:libSDL2-devel-2.0.16-2.3",
            "openSUSE Tumbleweed:libSDL2-devel-32bit-2.0.16-2.3"
          ]
        }
      ],
      "CVSSScoreSets": {}
    },
    {
      "CVE": "CVE-2019-7638",
      "Description": "SDL (Simple DirectMedia Layer) through 1.2.15 and 2.x through 2.0.9 has a heap-based buffer over-read in Map1toN in video/SDL_pixels.c.",
      "Threats": [
        {
          "Type": "Impact",
          "Severity": "moderate"
        }
      ],
      "References": [
        {
          "URL": "https://www.suse.com/security/cve/CVE-2019-7638.html",
          "Description": "CVE-2019-7638"
        },
        {
          "URL": "https://bugzilla.suse.com/1124824",
          "Description": "SUSE Bug 1124824"
        }
      ],
      "ProductStatuses": [
        {
          "Type": "Fixed",
          "ProductID": [
            "openSUSE Tumbleweed:libSDL2-2_0-0-2.0.16-2.3",
            "openSUSE Tumbleweed:libSDL2-2_0-0-32bit-2.0.16-2.3",
            "openSUSE Tumbleweed:libSDL2-devel-2.0.16-2.3",
            "openSUSE Tumbleweed:libSDL2-devel-32bit-2.0.16-2.3"
          ]
        }
      ],
      "CVSSScoreSets": {}
    }
  ]
}