{
  "Title": "ruby3.1-rubygem-puma-5.6.2-1.1 on GA media",
  "Tracking": {
    "ID": "openSUSE-SU-2024:11847-1",
    "Status": "Final",
    "Version": "1",
    "InitialReleaseDate": "2024-06-22T21:44:56Z",
    "CurrentReleaseDate": "2024-06-22T21:44:56Z",
    "RevisionHistory": [
      {
        "Number": "1",
        "Date": "2024-06-22T21:44:56Z",
        "Description": "current"
      }
    ]
  },
  "Notes": [
    {
      "Text": "ruby3.1-rubygem-puma-5.6.2-1.1 on GA media",
      "Title": "Topic",
      "Type": "Summary"
    },
    {
      "Text": "These are all security issues fixed in the ruby3.1-rubygem-puma-5.6.2-1.1 package on the GA media of openSUSE Tumbleweed.",
      "Title": "Details",
      "Type": "General"
    },
    {
      "Text": "The CVRF data is provided by SUSE under the Creative Commons License 4.0 with Attribution (CC-BY-4.0).",
      "Title": "Terms of Use",
      "Type": "Legal Disclaimer"
    },
    {
      "Text": "openSUSE-Tumbleweed-2024-11847",
      "Title": "Patchnames",
      "Type": "Details"
    }
  ],
  "ProductTree": {
    "Relationships": [
      {
        "ProductReference": "ruby3.1-rubygem-puma-5.6.2-1.1",
        "RelatesToProductReference": "openSUSE Tumbleweed",
        "RelationType": "Default Component Of"
      }
    ]
  },
  "References": [
    {
      "URL": "https://www.suse.com/support/security/rating/",
      "Description": "SUSE Security Ratings"
    },
    {
      "URL": "https://www.suse.com/security/cve/CVE-2019-16770/",
      "Description": "SUSE CVE CVE-2019-16770 page"
    },
    {
      "URL": "https://www.suse.com/security/cve/CVE-2020-11076/",
      "Description": "SUSE CVE CVE-2020-11076 page"
    },
    {
      "URL": "https://www.suse.com/security/cve/CVE-2022-23634/",
      "Description": "SUSE CVE CVE-2022-23634 page"
    }
  ],
  "Vulnerabilities": [
    {
      "CVE": "CVE-2019-16770",
      "Description": "In Puma before versions 3.12.2 and 4.3.1, a poorly-behaved client could use keepalive requests to monopolize Puma's reactor and create a denial of service attack. If more keepalive connections to Puma are opened than there are threads available, additional connections will wait permanently if the attacker sends requests frequently enough. This vulnerability is patched in Puma 4.3.1 and 3.12.2.",
      "Threats": [
        {
          "Type": "Impact",
          "Severity": "important"
        }
      ],
      "References": [
        {
          "URL": "https://www.suse.com/security/cve/CVE-2019-16770.html",
          "Description": "CVE-2019-16770"
        },
        {
          "URL": "https://bugzilla.suse.com/1158675",
          "Description": "SUSE Bug 1158675"
        },
        {
          "URL": "https://bugzilla.suse.com/1188527",
          "Description": "SUSE Bug 1188527"
        }
      ],
      "ProductStatuses": [
        {
          "Type": "Fixed",
          "ProductID": [
            "openSUSE Tumbleweed:ruby3.1-rubygem-puma-5.6.2-1.1"
          ]
        }
      ],
      "CVSSScoreSets": {}
    },
    {
      "CVE": "CVE-2020-11076",
      "Description": "In Puma (RubyGem) before 4.3.4 and 3.12.5, an attacker could smuggle an HTTP response, by using an invalid transfer-encoding header. The problem has been fixed in Puma 3.12.5 and Puma 4.3.4.",
      "Threats": [
        {
          "Type": "Impact",
          "Severity": "moderate"
        }
      ],
      "References": [
        {
          "URL": "https://www.suse.com/security/cve/CVE-2020-11076.html",
          "Description": "CVE-2020-11076"
        },
        {
          "URL": "https://bugzilla.suse.com/1172175",
          "Description": "SUSE Bug 1172175"
        },
        {
          "URL": "https://bugzilla.suse.com/1172176",
          "Description": "SUSE Bug 1172176"
        }
      ],
      "ProductStatuses": [
        {
          "Type": "Fixed",
          "ProductID": [
            "openSUSE Tumbleweed:ruby3.1-rubygem-puma-5.6.2-1.1"
          ]
        }
      ],
      "CVSSScoreSets": {}
    },
    {
      "CVE": "CVE-2022-23634",
      "Description": "Puma is a Ruby/Rack web server built for parallelism. Prior to `puma` version `5.6.2`, `puma` may not always call `close` on the response body. Rails, prior to version `7.0.2.2`, depended on the response body being closed in order for its `CurrentAttributes` implementation to work correctly. The combination of these two behaviors (Puma not closing the body + Rails' Executor implementation) causes information leakage. This problem is fixed in Puma versions 5.6.2 and 4.3.11. This problem is fixed in Rails versions 7.02.2, 6.1.4.6, 6.0.4.6, and 5.2.6.2. Upgrading to a patched Rails _or_ Puma version fixes the vulnerability.",
      "Threats": [
        {
          "Type": "Impact",
          "Severity": "moderate"
        }
      ],
      "References": [
        {
          "URL": "https://www.suse.com/security/cve/CVE-2022-23634.html",
          "Description": "CVE-2022-23634"
        },
        {
          "URL": "https://bugzilla.suse.com/1196222",
          "Description": "SUSE Bug 1196222"
        }
      ],
      "ProductStatuses": [
        {
          "Type": "Fixed",
          "ProductID": [
            "openSUSE Tumbleweed:ruby3.1-rubygem-puma-5.6.2-1.1"
          ]
        }
      ],
      "CVSSScoreSets": {}
    }
  ]
}