{
  "Title": "libruby3_1-3_1-3.1.0-1.1 on GA media",
  "Tracking": {
    "ID": "openSUSE-SU-2024:11786-1",
    "Status": "Final",
    "Version": "1",
    "InitialReleaseDate": "2024-06-22T21:44:56Z",
    "CurrentReleaseDate": "2024-06-22T21:44:56Z",
    "RevisionHistory": [
      {
        "Number": "1",
        "Date": "2024-06-22T21:44:56Z",
        "Description": "current"
      }
    ]
  },
  "Notes": [
    {
      "Text": "libruby3_1-3_1-3.1.0-1.1 on GA media",
      "Title": "Topic",
      "Type": "Summary"
    },
    {
      "Text": "These are all security issues fixed in the libruby3_1-3_1-3.1.0-1.1 package on the GA media of openSUSE Tumbleweed.",
      "Title": "Details",
      "Type": "General"
    },
    {
      "Text": "The CVRF data is provided by SUSE under the Creative Commons License 4.0 with Attribution (CC-BY-4.0).",
      "Title": "Terms of Use",
      "Type": "Legal Disclaimer"
    },
    {
      "Text": "openSUSE-Tumbleweed-2024-11786",
      "Title": "Patchnames",
      "Type": "Details"
    }
  ],
  "ProductTree": {
    "Relationships": [
      {
        "ProductReference": "libruby3_1-3_1-3.1.0-1.1",
        "RelatesToProductReference": "openSUSE Tumbleweed",
        "RelationType": "Default Component Of"
      },
      {
        "ProductReference": "ruby3.1-3.1.0-1.1",
        "RelatesToProductReference": "openSUSE Tumbleweed",
        "RelationType": "Default Component Of"
      },
      {
        "ProductReference": "ruby3.1-devel-3.1.0-1.1",
        "RelatesToProductReference": "openSUSE Tumbleweed",
        "RelationType": "Default Component Of"
      },
      {
        "ProductReference": "ruby3.1-devel-extra-3.1.0-1.1",
        "RelatesToProductReference": "openSUSE Tumbleweed",
        "RelationType": "Default Component Of"
      },
      {
        "ProductReference": "ruby3.1-doc-3.1.0-1.1",
        "RelatesToProductReference": "openSUSE Tumbleweed",
        "RelationType": "Default Component Of"
      },
      {
        "ProductReference": "ruby3.1-doc-ri-3.1.0-1.1",
        "RelatesToProductReference": "openSUSE Tumbleweed",
        "RelationType": "Default Component Of"
      }
    ]
  },
  "References": [
    {
      "URL": "https://www.suse.com/support/security/rating/",
      "Description": "SUSE Security Ratings"
    },
    {
      "URL": "https://www.suse.com/security/cve/CVE-2020-10663/",
      "Description": "SUSE CVE CVE-2020-10663 page"
    },
    {
      "URL": "https://www.suse.com/security/cve/CVE-2020-10933/",
      "Description": "SUSE CVE CVE-2020-10933 page"
    },
    {
      "URL": "https://www.suse.com/security/cve/CVE-2021-28965/",
      "Description": "SUSE CVE CVE-2021-28965 page"
    },
    {
      "URL": "https://www.suse.com/security/cve/CVE-2021-31799/",
      "Description": "SUSE CVE CVE-2021-31799 page"
    },
    {
      "URL": "https://www.suse.com/security/cve/CVE-2021-31810/",
      "Description": "SUSE CVE CVE-2021-31810 page"
    },
    {
      "URL": "https://www.suse.com/security/cve/CVE-2021-32066/",
      "Description": "SUSE CVE CVE-2021-32066 page"
    },
    {
      "URL": "https://www.suse.com/security/cve/CVE-2021-41816/",
      "Description": "SUSE CVE CVE-2021-41816 page"
    },
    {
      "URL": "https://www.suse.com/security/cve/CVE-2021-41817/",
      "Description": "SUSE CVE CVE-2021-41817 page"
    },
    {
      "URL": "https://www.suse.com/security/cve/CVE-2021-41819/",
      "Description": "SUSE CVE CVE-2021-41819 page"
    }
  ],
  "Vulnerabilities": [
    {
      "CVE": "CVE-2020-10663",
      "Description": "The JSON gem through 2.2.0 for Ruby, as used in Ruby 2.4 through 2.4.9, 2.5 through 2.5.7, and 2.6 through 2.6.5, has an Unsafe Object Creation Vulnerability. This is quite similar to CVE-2013-0269, but does not rely on poor garbage-collection behavior within Ruby. Specifically, use of JSON parsing methods can lead to creation of a malicious object within the interpreter, with adverse effects that are application-dependent.",
      "Threats": [
        {
          "Type": "Impact",
          "Severity": "important"
        }
      ],
      "References": [
        {
          "URL": "https://www.suse.com/security/cve/CVE-2020-10663.html",
          "Description": "CVE-2020-10663"
        },
        {
          "URL": "https://bugzilla.suse.com/1167244",
          "Description": "SUSE Bug 1167244"
        },
        {
          "URL": "https://bugzilla.suse.com/1171517",
          "Description": "SUSE Bug 1171517"
        }
      ],
      "ProductStatuses": [
        {
          "Type": "Fixed",
          "ProductID": [
            "openSUSE Tumbleweed:libruby3_1-3_1-3.1.0-1.1",
            "openSUSE Tumbleweed:ruby3.1-3.1.0-1.1",
            "openSUSE Tumbleweed:ruby3.1-devel-3.1.0-1.1",
            "openSUSE Tumbleweed:ruby3.1-devel-extra-3.1.0-1.1",
            "openSUSE Tumbleweed:ruby3.1-doc-3.1.0-1.1",
            "openSUSE Tumbleweed:ruby3.1-doc-ri-3.1.0-1.1"
          ]
        }
      ],
      "CVSSScoreSets": {}
    },
    {
      "CVE": "CVE-2020-10933",
      "Description": "An issue was discovered in Ruby 2.5.x through 2.5.7, 2.6.x through 2.6.5, and 2.7.0. If a victim calls BasicSocket#read_nonblock(requested_size, buffer, exception: false), the method resizes the buffer to fit the requested size, but no data is copied. Thus, the buffer string provides the previous value of the heap. This may expose possibly sensitive data from the interpreter.",
      "Threats": [
        {
          "Type": "Impact",
          "Severity": "moderate"
        }
      ],
      "References": [
        {
          "URL": "https://www.suse.com/security/cve/CVE-2020-10933.html",
          "Description": "CVE-2020-10933"
        },
        {
          "URL": "https://bugzilla.suse.com/1168938",
          "Description": "SUSE Bug 1168938"
        }
      ],
      "ProductStatuses": [
        {
          "Type": "Fixed",
          "ProductID": [
            "openSUSE Tumbleweed:libruby3_1-3_1-3.1.0-1.1",
            "openSUSE Tumbleweed:ruby3.1-3.1.0-1.1",
            "openSUSE Tumbleweed:ruby3.1-devel-3.1.0-1.1",
            "openSUSE Tumbleweed:ruby3.1-devel-extra-3.1.0-1.1",
            "openSUSE Tumbleweed:ruby3.1-doc-3.1.0-1.1",
            "openSUSE Tumbleweed:ruby3.1-doc-ri-3.1.0-1.1"
          ]
        }
      ],
      "CVSSScoreSets": {}
    },
    {
      "CVE": "CVE-2021-28965",
      "Description": "The REXML gem before 3.2.5 in Ruby before 2.6.7, 2.7.x before 2.7.3, and 3.x before 3.0.1 does not properly address XML round-trip issues. An incorrect document can be produced after parsing and serializing.",
      "Threats": [
        {
          "Type": "Impact",
          "Severity": "moderate"
        }
      ],
      "References": [
        {
          "URL": "https://www.suse.com/security/cve/CVE-2021-28965.html",
          "Description": "CVE-2021-28965"
        },
        {
          "URL": "https://bugzilla.suse.com/1184644",
          "Description": "SUSE Bug 1184644"
        }
      ],
      "ProductStatuses": [
        {
          "Type": "Fixed",
          "ProductID": [
            "openSUSE Tumbleweed:libruby3_1-3_1-3.1.0-1.1",
            "openSUSE Tumbleweed:ruby3.1-3.1.0-1.1",
            "openSUSE Tumbleweed:ruby3.1-devel-3.1.0-1.1",
            "openSUSE Tumbleweed:ruby3.1-devel-extra-3.1.0-1.1",
            "openSUSE Tumbleweed:ruby3.1-doc-3.1.0-1.1",
            "openSUSE Tumbleweed:ruby3.1-doc-ri-3.1.0-1.1"
          ]
        }
      ],
      "CVSSScoreSets": {}
    },
    {
      "CVE": "CVE-2021-31799",
      "Description": "In RDoc 3.11 through 6.x before 6.3.1, as distributed with Ruby through 3.0.1, it is possible to execute arbitrary code via | and tags in a filename.",
      "Threats": [
        {
          "Type": "Impact",
          "Severity": "important"
        }
      ],
      "References": [
        {
          "URL": "https://www.suse.com/security/cve/CVE-2021-31799.html",
          "Description": "CVE-2021-31799"
        },
        {
          "URL": "https://bugzilla.suse.com/1190375",
          "Description": "SUSE Bug 1190375"
        },
        {
          "URL": "https://bugzilla.suse.com/1196771",
          "Description": "SUSE Bug 1196771"
        }
      ],
      "ProductStatuses": [
        {
          "Type": "Fixed",
          "ProductID": [
            "openSUSE Tumbleweed:libruby3_1-3_1-3.1.0-1.1",
            "openSUSE Tumbleweed:ruby3.1-3.1.0-1.1",
            "openSUSE Tumbleweed:ruby3.1-devel-3.1.0-1.1",
            "openSUSE Tumbleweed:ruby3.1-devel-extra-3.1.0-1.1",
            "openSUSE Tumbleweed:ruby3.1-doc-3.1.0-1.1",
            "openSUSE Tumbleweed:ruby3.1-doc-ri-3.1.0-1.1"
          ]
        }
      ],
      "CVSSScoreSets": {}
    },
    {
      "CVE": "CVE-2021-31810",
      "Description": "An issue was discovered in Ruby through 2.6.7, 2.7.x through 2.7.3, and 3.x through 3.0.1. A malicious FTP server can use the PASV response to trick Net::FTP into connecting back to a given IP address and port. This potentially makes curl extract information about services that are otherwise private and not disclosed (e.g., the attacker can conduct port scans and service banner extractions).",
      "Threats": [
        {
          "Type": "Impact",
          "Severity": "important"
        }
      ],
      "References": [
        {
          "URL": "https://www.suse.com/security/cve/CVE-2021-31810.html",
          "Description": "CVE-2021-31810"
        },
        {
          "URL": "https://bugzilla.suse.com/1188161",
          "Description": "SUSE Bug 1188161"
        },
        {
          "URL": "https://bugzilla.suse.com/1193383",
          "Description": "SUSE Bug 1193383"
        },
        {
          "URL": "https://bugzilla.suse.com/1205053",
          "Description": "SUSE Bug 1205053"
        }
      ],
      "ProductStatuses": [
        {
          "Type": "Fixed",
          "ProductID": [
            "openSUSE Tumbleweed:libruby3_1-3_1-3.1.0-1.1",
            "openSUSE Tumbleweed:ruby3.1-3.1.0-1.1",
            "openSUSE Tumbleweed:ruby3.1-devel-3.1.0-1.1",
            "openSUSE Tumbleweed:ruby3.1-devel-extra-3.1.0-1.1",
            "openSUSE Tumbleweed:ruby3.1-doc-3.1.0-1.1",
            "openSUSE Tumbleweed:ruby3.1-doc-ri-3.1.0-1.1"
          ]
        }
      ],
      "CVSSScoreSets": {}
    },
    {
      "CVE": "CVE-2021-32066",
      "Description": "An issue was discovered in Ruby through 2.6.7, 2.7.x through 2.7.3, and 3.x through 3.0.1. Net::IMAP does not raise an exception when StartTLS fails with an an unknown response, which might allow man-in-the-middle attackers to bypass the TLS protections by leveraging a network position between the client and the registry to block the StartTLS command, aka a \"StartTLS stripping attack.\"",
      "Threats": [
        {
          "Type": "Impact",
          "Severity": "important"
        }
      ],
      "References": [
        {
          "URL": "https://www.suse.com/security/cve/CVE-2021-32066.html",
          "Description": "CVE-2021-32066"
        },
        {
          "URL": "https://bugzilla.suse.com/1188160",
          "Description": "SUSE Bug 1188160"
        },
        {
          "URL": "https://bugzilla.suse.com/1196771",
          "Description": "SUSE Bug 1196771"
        },
        {
          "URL": "https://bugzilla.suse.com/1205053",
          "Description": "SUSE Bug 1205053"
        }
      ],
      "ProductStatuses": [
        {
          "Type": "Fixed",
          "ProductID": [
            "openSUSE Tumbleweed:libruby3_1-3_1-3.1.0-1.1",
            "openSUSE Tumbleweed:ruby3.1-3.1.0-1.1",
            "openSUSE Tumbleweed:ruby3.1-devel-3.1.0-1.1",
            "openSUSE Tumbleweed:ruby3.1-devel-extra-3.1.0-1.1",
            "openSUSE Tumbleweed:ruby3.1-doc-3.1.0-1.1",
            "openSUSE Tumbleweed:ruby3.1-doc-ri-3.1.0-1.1"
          ]
        }
      ],
      "CVSSScoreSets": {}
    },
    {
      "CVE": "CVE-2021-41816",
      "Description": "CGI.escape_html in Ruby before 2.7.5 and 3.x before 3.0.3 has an integer overflow and resultant buffer overflow via a long string on platforms (such as Windows) where size_t and long have different numbers of bytes. This also affects the CGI gem before 0.3.1 for Ruby.",
      "Threats": [
        {
          "Type": "Impact",
          "Severity": "critical"
        }
      ],
      "References": [
        {
          "URL": "https://www.suse.com/security/cve/CVE-2021-41816.html",
          "Description": "CVE-2021-41816"
        },
        {
          "URL": "https://bugzilla.suse.com/1193080",
          "Description": "SUSE Bug 1193080"
        }
      ],
      "ProductStatuses": [
        {
          "Type": "Fixed",
          "ProductID": [
            "openSUSE Tumbleweed:libruby3_1-3_1-3.1.0-1.1",
            "openSUSE Tumbleweed:ruby3.1-3.1.0-1.1",
            "openSUSE Tumbleweed:ruby3.1-devel-3.1.0-1.1",
            "openSUSE Tumbleweed:ruby3.1-devel-extra-3.1.0-1.1",
            "openSUSE Tumbleweed:ruby3.1-doc-3.1.0-1.1",
            "openSUSE Tumbleweed:ruby3.1-doc-ri-3.1.0-1.1"
          ]
        }
      ],
      "CVSSScoreSets": {}
    },
    {
      "CVE": "CVE-2021-41817",
      "Description": "Date.parse in the date gem through 3.2.0 for Ruby allows ReDoS (regular expression Denial of Service) via a long string. The fixed versions are 3.2.1, 3.1.2, 3.0.2, and 2.0.1.",
      "Threats": [
        {
          "Type": "Impact",
          "Severity": "moderate"
        }
      ],
      "References": [
        {
          "URL": "https://www.suse.com/security/cve/CVE-2021-41817.html",
          "Description": "CVE-2021-41817"
        },
        {
          "URL": "https://bugzilla.suse.com/1193035",
          "Description": "SUSE Bug 1193035"
        }
      ],
      "ProductStatuses": [
        {
          "Type": "Fixed",
          "ProductID": [
            "openSUSE Tumbleweed:libruby3_1-3_1-3.1.0-1.1",
            "openSUSE Tumbleweed:ruby3.1-3.1.0-1.1",
            "openSUSE Tumbleweed:ruby3.1-devel-3.1.0-1.1",
            "openSUSE Tumbleweed:ruby3.1-devel-extra-3.1.0-1.1",
            "openSUSE Tumbleweed:ruby3.1-doc-3.1.0-1.1",
            "openSUSE Tumbleweed:ruby3.1-doc-ri-3.1.0-1.1"
          ]
        }
      ],
      "CVSSScoreSets": {}
    },
    {
      "CVE": "CVE-2021-41819",
      "Description": "CGI::Cookie.parse in Ruby through 2.6.8 mishandles security prefixes in cookie names. This also affects the CGI gem through 0.3.0 for Ruby.",
      "Threats": [
        {
          "Type": "Impact",
          "Severity": "moderate"
        }
      ],
      "References": [
        {
          "URL": "https://www.suse.com/security/cve/CVE-2021-41819.html",
          "Description": "CVE-2021-41819"
        },
        {
          "URL": "https://bugzilla.suse.com/1193081",
          "Description": "SUSE Bug 1193081"
        }
      ],
      "ProductStatuses": [
        {
          "Type": "Fixed",
          "ProductID": [
            "openSUSE Tumbleweed:libruby3_1-3_1-3.1.0-1.1",
            "openSUSE Tumbleweed:ruby3.1-3.1.0-1.1",
            "openSUSE Tumbleweed:ruby3.1-devel-3.1.0-1.1",
            "openSUSE Tumbleweed:ruby3.1-devel-extra-3.1.0-1.1",
            "openSUSE Tumbleweed:ruby3.1-doc-3.1.0-1.1",
            "openSUSE Tumbleweed:ruby3.1-doc-ri-3.1.0-1.1"
          ]
        }
      ],
      "CVSSScoreSets": {}
    }
  ]
}