{
  "Title": "dcmtk-3.6.7-2.1 on GA media",
  "Tracking": {
    "ID": "openSUSE-SU-2024:12925-1",
    "Status": "Final",
    "Version": "1",
    "InitialReleaseDate": "2024-06-20T21:44:22Z",
    "CurrentReleaseDate": "2024-06-20T21:44:22Z",
    "RevisionHistory": [
      {
        "Number": "1",
        "Date": "2024-06-20T21:44:22Z",
        "Description": "current"
      }
    ]
  },
  "Notes": [
    {
      "Text": "dcmtk-3.6.7-2.1 on GA media",
      "Title": "Topic",
      "Type": "Summary"
    },
    {
      "Text": "These are all security issues fixed in the dcmtk-3.6.7-2.1 package on the GA media of openSUSE Tumbleweed.",
      "Title": "Details",
      "Type": "General"
    },
    {
      "Text": "The CVRF data is provided by SUSE under the Creative Commons License 4.0 with Attribution (CC-BY-4.0).",
      "Title": "Terms of Use",
      "Type": "Legal Disclaimer"
    },
    {
      "Text": "openSUSE-Tumbleweed-2024-12925",
      "Title": "Patchnames",
      "Type": "Details"
    }
  ],
  "ProductTree": {
    "Relationships": [
      {
        "ProductReference": "dcmtk-3.6.7-2.1",
        "RelatesToProductReference": "openSUSE Tumbleweed",
        "RelationType": "Default Component Of"
      },
      {
        "ProductReference": "dcmtk-devel-3.6.7-2.1",
        "RelatesToProductReference": "openSUSE Tumbleweed",
        "RelationType": "Default Component Of"
      },
      {
        "ProductReference": "libdcmtk17-3.6.7-2.1",
        "RelatesToProductReference": "openSUSE Tumbleweed",
        "RelationType": "Default Component Of"
      }
    ]
  },
  "References": [
    {
      "URL": "https://www.suse.com/support/security/rating/",
      "Description": "SUSE Security Ratings"
    },
    {
      "URL": "https://www.suse.com/security/cve/CVE-2022-2121/",
      "Description": "SUSE CVE CVE-2022-2121 page"
    },
    {
      "URL": "https://www.suse.com/security/cve/CVE-2022-43272/",
      "Description": "SUSE CVE CVE-2022-43272 page"
    }
  ],
  "Vulnerabilities": [
    {
      "CVE": "CVE-2022-2121",
      "Description": "OFFIS DCMTK's (All versions prior to 3.6.7) has a NULL pointer dereference vulnerability while processing DICOM files, which may result in a denial-of-service condition.",
      "Threats": [
        {
          "Type": "Impact",
          "Severity": "moderate"
        }
      ],
      "References": [
        {
          "URL": "https://www.suse.com/security/cve/CVE-2022-2121.html",
          "Description": "CVE-2022-2121"
        },
        {
          "URL": "https://bugzilla.suse.com/1208639",
          "Description": "SUSE Bug 1208639"
        }
      ],
      "ProductStatuses": [
        {
          "Type": "Fixed",
          "ProductID": [
            "openSUSE Tumbleweed:dcmtk-3.6.7-2.1",
            "openSUSE Tumbleweed:dcmtk-devel-3.6.7-2.1",
            "openSUSE Tumbleweed:libdcmtk17-3.6.7-2.1"
          ]
        }
      ],
      "CVSSScoreSets": {}
    },
    {
      "CVE": "CVE-2022-43272",
      "Description": "DCMTK v3.6.7 was discovered to contain a memory leak via the T_ASC_Association object.",
      "Threats": [
        {
          "Type": "Impact",
          "Severity": "moderate"
        }
      ],
      "References": [
        {
          "URL": "https://www.suse.com/security/cve/CVE-2022-43272.html",
          "Description": "CVE-2022-43272"
        },
        {
          "URL": "https://bugzilla.suse.com/1206070",
          "Description": "SUSE Bug 1206070"
        }
      ],
      "ProductStatuses": [
        {
          "Type": "Fixed",
          "ProductID": [
            "openSUSE Tumbleweed:dcmtk-3.6.7-2.1",
            "openSUSE Tumbleweed:dcmtk-devel-3.6.7-2.1",
            "openSUSE Tumbleweed:libdcmtk17-3.6.7-2.1"
          ]
        }
      ],
      "CVSSScoreSets": {}
    }
  ]
}