{
  "Title": "solanum-0~ch448-1.4 on GA media",
  "Tracking": {
    "ID": "openSUSE-SU-2024:11392-1",
    "Status": "Final",
    "Version": "1",
    "InitialReleaseDate": "2024-06-22T21:44:56Z",
    "CurrentReleaseDate": "2024-06-22T21:44:56Z",
    "RevisionHistory": [
      {
        "Number": "1",
        "Date": "2024-06-22T21:44:56Z",
        "Description": "current"
      }
    ]
  },
  "Notes": [
    {
      "Text": "solanum-0~ch448-1.4 on GA media",
      "Title": "Topic",
      "Type": "Summary"
    },
    {
      "Text": "These are all security issues fixed in the solanum-0~ch448-1.4 package on the GA media of openSUSE Tumbleweed.",
      "Title": "Details",
      "Type": "General"
    },
    {
      "Text": "The CVRF data is provided by SUSE under the Creative Commons License 4.0 with Attribution (CC-BY-4.0).",
      "Title": "Terms of Use",
      "Type": "Legal Disclaimer"
    },
    {
      "Text": "openSUSE-Tumbleweed-2024-11392",
      "Title": "Patchnames",
      "Type": "Details"
    }
  ],
  "ProductTree": {
    "Relationships": [
      {
        "ProductReference": "solanum-0~ch448-1.4",
        "RelatesToProductReference": "openSUSE Tumbleweed",
        "RelationType": "Default Component Of"
      }
    ]
  },
  "References": [
    {
      "URL": "https://www.suse.com/support/security/rating/",
      "Description": "SUSE Security Ratings"
    },
    {
      "URL": "https://www.suse.com/security/cve/CVE-2016-7143/",
      "Description": "SUSE CVE CVE-2016-7143 page"
    }
  ],
  "Vulnerabilities": [
    {
      "CVE": "CVE-2016-7143",
      "Description": "The m_authenticate function in modules/m_sasl.c in Charybdis before 3.5.3 allows remote attackers to spoof certificate fingerprints and consequently log in as another user via a crafted AUTHENTICATE parameter.",
      "Threats": [
        {
          "Type": "Impact",
          "Severity": "moderate"
        }
      ],
      "References": [
        {
          "URL": "https://www.suse.com/security/cve/CVE-2016-7143.html",
          "Description": "CVE-2016-7143"
        }
      ],
      "ProductStatuses": [
        {
          "Type": "Fixed",
          "ProductID": [
            "openSUSE Tumbleweed:solanum-0~ch448-1.4"
          ]
        }
      ],
      "CVSSScoreSets": {}
    }
  ]
}