{
  "Title": "libsharpyuv0-1.3.0-2.1 on GA media",
  "Tracking": {
    "ID": "openSUSE-SU-2024:13019-1",
    "Status": "Final",
    "Version": "1",
    "InitialReleaseDate": "2024-06-20T21:44:22Z",
    "CurrentReleaseDate": "2024-06-20T21:44:22Z",
    "RevisionHistory": [
      {
        "Number": "1",
        "Date": "2024-06-20T21:44:22Z",
        "Description": "current"
      }
    ]
  },
  "Notes": [
    {
      "Text": "libsharpyuv0-1.3.0-2.1 on GA media",
      "Title": "Topic",
      "Type": "Summary"
    },
    {
      "Text": "These are all security issues fixed in the libsharpyuv0-1.3.0-2.1 package on the GA media of openSUSE Tumbleweed.",
      "Title": "Details",
      "Type": "General"
    },
    {
      "Text": "The CVRF data is provided by SUSE under the Creative Commons License 4.0 with Attribution (CC-BY-4.0).",
      "Title": "Terms of Use",
      "Type": "Legal Disclaimer"
    },
    {
      "Text": "openSUSE-Tumbleweed-2024-13019",
      "Title": "Patchnames",
      "Type": "Details"
    }
  ],
  "ProductTree": {
    "Relationships": [
      {
        "ProductReference": "libsharpyuv0-1.3.0-2.1",
        "RelatesToProductReference": "openSUSE Tumbleweed",
        "RelationType": "Default Component Of"
      },
      {
        "ProductReference": "libsharpyuv0-32bit-1.3.0-2.1",
        "RelatesToProductReference": "openSUSE Tumbleweed",
        "RelationType": "Default Component Of"
      },
      {
        "ProductReference": "libwebp-devel-1.3.0-2.1",
        "RelatesToProductReference": "openSUSE Tumbleweed",
        "RelationType": "Default Component Of"
      },
      {
        "ProductReference": "libwebp-devel-32bit-1.3.0-2.1",
        "RelatesToProductReference": "openSUSE Tumbleweed",
        "RelationType": "Default Component Of"
      },
      {
        "ProductReference": "libwebp-tools-1.3.0-2.1",
        "RelatesToProductReference": "openSUSE Tumbleweed",
        "RelationType": "Default Component Of"
      },
      {
        "ProductReference": "libwebp7-1.3.0-2.1",
        "RelatesToProductReference": "openSUSE Tumbleweed",
        "RelationType": "Default Component Of"
      },
      {
        "ProductReference": "libwebp7-32bit-1.3.0-2.1",
        "RelatesToProductReference": "openSUSE Tumbleweed",
        "RelationType": "Default Component Of"
      },
      {
        "ProductReference": "libwebpdecoder3-1.3.0-2.1",
        "RelatesToProductReference": "openSUSE Tumbleweed",
        "RelationType": "Default Component Of"
      },
      {
        "ProductReference": "libwebpdecoder3-32bit-1.3.0-2.1",
        "RelatesToProductReference": "openSUSE Tumbleweed",
        "RelationType": "Default Component Of"
      },
      {
        "ProductReference": "libwebpdemux2-1.3.0-2.1",
        "RelatesToProductReference": "openSUSE Tumbleweed",
        "RelationType": "Default Component Of"
      },
      {
        "ProductReference": "libwebpdemux2-32bit-1.3.0-2.1",
        "RelatesToProductReference": "openSUSE Tumbleweed",
        "RelationType": "Default Component Of"
      },
      {
        "ProductReference": "libwebpmux3-1.3.0-2.1",
        "RelatesToProductReference": "openSUSE Tumbleweed",
        "RelationType": "Default Component Of"
      },
      {
        "ProductReference": "libwebpmux3-32bit-1.3.0-2.1",
        "RelatesToProductReference": "openSUSE Tumbleweed",
        "RelationType": "Default Component Of"
      }
    ]
  },
  "References": [
    {
      "URL": "https://www.suse.com/support/security/rating/",
      "Description": "SUSE Security Ratings"
    },
    {
      "URL": "https://www.suse.com/security/cve/CVE-2023-1999/",
      "Description": "SUSE CVE CVE-2023-1999 page"
    }
  ],
  "Vulnerabilities": [
    {
      "CVE": "CVE-2023-1999",
      "Description": "There exists a use after free/double free in libwebp. An attacker can use the ApplyFiltersAndEncode() function and loop through to free best.bw and assign best = trial pointer. The second loop will then return 0 because of an Out of memory error in VP8 encoder, the pointer is still assigned to trial and the AddressSanitizer will attempt a double free. \n",
      "Threats": [
        {
          "Type": "Impact",
          "Severity": "moderate"
        }
      ],
      "References": [
        {
          "URL": "https://www.suse.com/security/cve/CVE-2023-1999.html",
          "Description": "CVE-2023-1999"
        },
        {
          "URL": "https://bugzilla.suse.com/1213054",
          "Description": "SUSE Bug 1213054"
        },
        {
          "URL": "https://bugzilla.suse.com/1217159",
          "Description": "SUSE Bug 1217159"
        }
      ],
      "ProductStatuses": [
        {
          "Type": "Fixed",
          "ProductID": [
            "openSUSE Tumbleweed:libsharpyuv0-1.3.0-2.1",
            "openSUSE Tumbleweed:libsharpyuv0-32bit-1.3.0-2.1",
            "openSUSE Tumbleweed:libwebp-devel-1.3.0-2.1",
            "openSUSE Tumbleweed:libwebp-devel-32bit-1.3.0-2.1",
            "openSUSE Tumbleweed:libwebp-tools-1.3.0-2.1",
            "openSUSE Tumbleweed:libwebp7-1.3.0-2.1",
            "openSUSE Tumbleweed:libwebp7-32bit-1.3.0-2.1",
            "openSUSE Tumbleweed:libwebpdecoder3-1.3.0-2.1",
            "openSUSE Tumbleweed:libwebpdecoder3-32bit-1.3.0-2.1",
            "openSUSE Tumbleweed:libwebpdemux2-1.3.0-2.1",
            "openSUSE Tumbleweed:libwebpdemux2-32bit-1.3.0-2.1",
            "openSUSE Tumbleweed:libwebpmux3-1.3.0-2.1",
            "openSUSE Tumbleweed:libwebpmux3-32bit-1.3.0-2.1"
          ]
        }
      ],
      "CVSSScoreSets": {}
    }
  ]
}