{
  "Title": "squashfs-4.6.1-2.1 on GA media",
  "Tracking": {
    "ID": "openSUSE-SU-2024:13035-1",
    "Status": "Final",
    "Version": "1",
    "InitialReleaseDate": "2024-06-20T21:44:22Z",
    "CurrentReleaseDate": "2024-06-20T21:44:22Z",
    "RevisionHistory": [
      {
        "Number": "1",
        "Date": "2024-06-20T21:44:22Z",
        "Description": "current"
      }
    ]
  },
  "Notes": [
    {
      "Text": "squashfs-4.6.1-2.1 on GA media",
      "Title": "Topic",
      "Type": "Summary"
    },
    {
      "Text": "These are all security issues fixed in the squashfs-4.6.1-2.1 package on the GA media of openSUSE Tumbleweed.",
      "Title": "Details",
      "Type": "General"
    },
    {
      "Text": "The CVRF data is provided by SUSE under the Creative Commons License 4.0 with Attribution (CC-BY-4.0).",
      "Title": "Terms of Use",
      "Type": "Legal Disclaimer"
    },
    {
      "Text": "openSUSE-Tumbleweed-2024-13035",
      "Title": "Patchnames",
      "Type": "Details"
    }
  ],
  "ProductTree": {
    "Relationships": [
      {
        "ProductReference": "squashfs-4.6.1-2.1",
        "RelatesToProductReference": "openSUSE Tumbleweed",
        "RelationType": "Default Component Of"
      }
    ]
  },
  "References": [
    {
      "URL": "https://www.suse.com/support/security/rating/",
      "Description": "SUSE Security Ratings"
    },
    {
      "URL": "https://www.suse.com/security/cve/CVE-2021-40153/",
      "Description": "SUSE CVE CVE-2021-40153 page"
    }
  ],
  "Vulnerabilities": [
    {
      "CVE": "CVE-2021-40153",
      "Description": "squashfs_opendir in unsquash-1.c in Squashfs-Tools 4.5 stores the filename in the directory entry; this is then used by unsquashfs to create the new file during the unsquash. The filename is not validated for traversal outside of the destination directory, and thus allows writing to locations outside of the destination.",
      "Threats": [
        {
          "Type": "Impact",
          "Severity": "moderate"
        }
      ],
      "References": [
        {
          "URL": "https://www.suse.com/security/cve/CVE-2021-40153.html",
          "Description": "CVE-2021-40153"
        },
        {
          "URL": "https://bugzilla.suse.com/1189936",
          "Description": "SUSE Bug 1189936"
        }
      ],
      "ProductStatuses": [
        {
          "Type": "Fixed",
          "ProductID": [
            "openSUSE Tumbleweed:squashfs-4.6.1-2.1"
          ]
        }
      ],
      "CVSSScoreSets": {}
    }
  ]
}