{
  "Title": "ruby2.7-rubygem-json_pure-2.5.1-1.4 on GA media",
  "Tracking": {
    "ID": "openSUSE-SU-2024:11335-1",
    "Status": "Final",
    "Version": "1",
    "InitialReleaseDate": "2024-06-22T21:44:56Z",
    "CurrentReleaseDate": "2024-06-22T21:44:56Z",
    "RevisionHistory": [
      {
        "Number": "1",
        "Date": "2024-06-22T21:44:56Z",
        "Description": "current"
      }
    ]
  },
  "Notes": [
    {
      "Text": "ruby2.7-rubygem-json_pure-2.5.1-1.4 on GA media",
      "Title": "Topic",
      "Type": "Summary"
    },
    {
      "Text": "These are all security issues fixed in the ruby2.7-rubygem-json_pure-2.5.1-1.4 package on the GA media of openSUSE Tumbleweed.",
      "Title": "Details",
      "Type": "General"
    },
    {
      "Text": "The CVRF data is provided by SUSE under the Creative Commons License 4.0 with Attribution (CC-BY-4.0).",
      "Title": "Terms of Use",
      "Type": "Legal Disclaimer"
    },
    {
      "Text": "openSUSE-Tumbleweed-2024-11335",
      "Title": "Patchnames",
      "Type": "Details"
    }
  ],
  "ProductTree": {
    "Relationships": [
      {
        "ProductReference": "ruby2.7-rubygem-json_pure-2.5.1-1.4",
        "RelatesToProductReference": "openSUSE Tumbleweed",
        "RelationType": "Default Component Of"
      },
      {
        "ProductReference": "ruby3.0-rubygem-json_pure-2.5.1-1.4",
        "RelatesToProductReference": "openSUSE Tumbleweed",
        "RelationType": "Default Component Of"
      }
    ]
  },
  "References": [
    {
      "URL": "https://www.suse.com/support/security/rating/",
      "Description": "SUSE Security Ratings"
    },
    {
      "URL": "https://www.suse.com/security/cve/CVE-2020-10663/",
      "Description": "SUSE CVE CVE-2020-10663 page"
    }
  ],
  "Vulnerabilities": [
    {
      "CVE": "CVE-2020-10663",
      "Description": "The JSON gem through 2.2.0 for Ruby, as used in Ruby 2.4 through 2.4.9, 2.5 through 2.5.7, and 2.6 through 2.6.5, has an Unsafe Object Creation Vulnerability. This is quite similar to CVE-2013-0269, but does not rely on poor garbage-collection behavior within Ruby. Specifically, use of JSON parsing methods can lead to creation of a malicious object within the interpreter, with adverse effects that are application-dependent.",
      "Threats": [
        {
          "Type": "Impact",
          "Severity": "important"
        }
      ],
      "References": [
        {
          "URL": "https://www.suse.com/security/cve/CVE-2020-10663.html",
          "Description": "CVE-2020-10663"
        },
        {
          "URL": "https://bugzilla.suse.com/1167244",
          "Description": "SUSE Bug 1167244"
        },
        {
          "URL": "https://bugzilla.suse.com/1171517",
          "Description": "SUSE Bug 1171517"
        }
      ],
      "ProductStatuses": [
        {
          "Type": "Fixed",
          "ProductID": [
            "openSUSE Tumbleweed:ruby2.7-rubygem-json_pure-2.5.1-1.4",
            "openSUSE Tumbleweed:ruby3.0-rubygem-json_pure-2.5.1-1.4"
          ]
        }
      ],
      "CVSSScoreSets": {}
    }
  ]
}