{
  "Title": "libsoup-2_4-1-2.72.0-2.5 on GA media",
  "Tracking": {
    "ID": "openSUSE-SU-2024:10994-1",
    "Status": "Final",
    "Version": "1",
    "InitialReleaseDate": "2024-06-22T21:44:56Z",
    "CurrentReleaseDate": "2024-06-22T21:44:56Z",
    "RevisionHistory": [
      {
        "Number": "1",
        "Date": "2024-06-22T21:44:56Z",
        "Description": "current"
      }
    ]
  },
  "Notes": [
    {
      "Text": "libsoup-2_4-1-2.72.0-2.5 on GA media",
      "Title": "Topic",
      "Type": "Summary"
    },
    {
      "Text": "These are all security issues fixed in the libsoup-2_4-1-2.72.0-2.5 package on the GA media of openSUSE Tumbleweed.",
      "Title": "Details",
      "Type": "General"
    },
    {
      "Text": "The CVRF data is provided by SUSE under the Creative Commons License 4.0 with Attribution (CC-BY-4.0).",
      "Title": "Terms of Use",
      "Type": "Legal Disclaimer"
    },
    {
      "Text": "openSUSE-Tumbleweed-2024-10994",
      "Title": "Patchnames",
      "Type": "Details"
    }
  ],
  "ProductTree": {
    "Relationships": [
      {
        "ProductReference": "libsoup-2_4-1-2.72.0-2.5",
        "RelatesToProductReference": "openSUSE Tumbleweed",
        "RelationType": "Default Component Of"
      },
      {
        "ProductReference": "libsoup-2_4-1-32bit-2.72.0-2.5",
        "RelatesToProductReference": "openSUSE Tumbleweed",
        "RelationType": "Default Component Of"
      },
      {
        "ProductReference": "libsoup-devel-2.72.0-2.5",
        "RelatesToProductReference": "openSUSE Tumbleweed",
        "RelationType": "Default Component Of"
      },
      {
        "ProductReference": "libsoup-devel-32bit-2.72.0-2.5",
        "RelatesToProductReference": "openSUSE Tumbleweed",
        "RelationType": "Default Component Of"
      },
      {
        "ProductReference": "libsoup-lang-2.72.0-2.5",
        "RelatesToProductReference": "openSUSE Tumbleweed",
        "RelationType": "Default Component Of"
      },
      {
        "ProductReference": "typelib-1_0-Soup-2_4-2.72.0-2.5",
        "RelatesToProductReference": "openSUSE Tumbleweed",
        "RelationType": "Default Component Of"
      }
    ]
  },
  "References": [
    {
      "URL": "https://www.suse.com/support/security/rating/",
      "Description": "SUSE Security Ratings"
    },
    {
      "URL": "https://www.suse.com/security/cve/CVE-2006-5876/",
      "Description": "SUSE CVE CVE-2006-5876 page"
    },
    {
      "URL": "https://www.suse.com/security/cve/CVE-2017-2885/",
      "Description": "SUSE CVE CVE-2017-2885 page"
    },
    {
      "URL": "https://www.suse.com/security/cve/CVE-2018-12910/",
      "Description": "SUSE CVE CVE-2018-12910 page"
    }
  ],
  "Vulnerabilities": [
    {
      "CVE": "CVE-2006-5876",
      "Description": "The soup_headers_parse function in soup-headers.c for libsoup HTTP library before 2.2.99 allows remote attackers to cause a denial of service (crash) via malformed HTTP headers, probably involving missing fields or values.",
      "Threats": [
        {
          "Type": "Impact",
          "Severity": "moderate"
        }
      ],
      "References": [
        {
          "URL": "https://www.suse.com/security/cve/CVE-2006-5876.html",
          "Description": "CVE-2006-5876"
        },
        {
          "URL": "https://bugzilla.suse.com/235084",
          "Description": "SUSE Bug 235084"
        }
      ],
      "ProductStatuses": [
        {
          "Type": "Fixed",
          "ProductID": [
            "openSUSE Tumbleweed:libsoup-2_4-1-2.72.0-2.5",
            "openSUSE Tumbleweed:libsoup-2_4-1-32bit-2.72.0-2.5",
            "openSUSE Tumbleweed:libsoup-devel-2.72.0-2.5",
            "openSUSE Tumbleweed:libsoup-devel-32bit-2.72.0-2.5",
            "openSUSE Tumbleweed:libsoup-lang-2.72.0-2.5",
            "openSUSE Tumbleweed:typelib-1_0-Soup-2_4-2.72.0-2.5"
          ]
        }
      ],
      "CVSSScoreSets": {}
    },
    {
      "CVE": "CVE-2017-2885",
      "Description": "An exploitable stack based buffer overflow vulnerability exists in the GNOME libsoup 2.58. A specially crafted HTTP request can cause a stack overflow resulting in remote code execution. An attacker can send a special HTTP request to the vulnerable server to trigger this vulnerability.",
      "Threats": [
        {
          "Type": "Impact",
          "Severity": "important"
        }
      ],
      "References": [
        {
          "URL": "https://www.suse.com/security/cve/CVE-2017-2885.html",
          "Description": "CVE-2017-2885"
        },
        {
          "URL": "https://bugzilla.suse.com/1052916",
          "Description": "SUSE Bug 1052916"
        }
      ],
      "ProductStatuses": [
        {
          "Type": "Fixed",
          "ProductID": [
            "openSUSE Tumbleweed:libsoup-2_4-1-2.72.0-2.5",
            "openSUSE Tumbleweed:libsoup-2_4-1-32bit-2.72.0-2.5",
            "openSUSE Tumbleweed:libsoup-devel-2.72.0-2.5",
            "openSUSE Tumbleweed:libsoup-devel-32bit-2.72.0-2.5",
            "openSUSE Tumbleweed:libsoup-lang-2.72.0-2.5",
            "openSUSE Tumbleweed:typelib-1_0-Soup-2_4-2.72.0-2.5"
          ]
        }
      ],
      "CVSSScoreSets": {
        "BaseScore": "10",
        "Vector": "AV:N/AC:L/Au:N/C:C/I:C/A:C"
      }
    },
    {
      "CVE": "CVE-2018-12910",
      "Description": "The get_cookies function in soup-cookie-jar.c in libsoup 2.63.2 allows attackers to have unspecified impact via an empty hostname.",
      "Threats": [
        {
          "Type": "Impact",
          "Severity": "low"
        }
      ],
      "References": [
        {
          "URL": "https://www.suse.com/security/cve/CVE-2018-12910.html",
          "Description": "CVE-2018-12910"
        },
        {
          "URL": "https://bugzilla.suse.com/1100097",
          "Description": "SUSE Bug 1100097"
        }
      ],
      "ProductStatuses": [
        {
          "Type": "Fixed",
          "ProductID": [
            "openSUSE Tumbleweed:libsoup-2_4-1-2.72.0-2.5",
            "openSUSE Tumbleweed:libsoup-2_4-1-32bit-2.72.0-2.5",
            "openSUSE Tumbleweed:libsoup-devel-2.72.0-2.5",
            "openSUSE Tumbleweed:libsoup-devel-32bit-2.72.0-2.5",
            "openSUSE Tumbleweed:libsoup-lang-2.72.0-2.5",
            "openSUSE Tumbleweed:typelib-1_0-Soup-2_4-2.72.0-2.5"
          ]
        }
      ],
      "CVSSScoreSets": {}
    }
  ]
}