{
  "Title": "strongswan-5.9.5-1.1 on GA media",
  "Tracking": {
    "ID": "openSUSE-SU-2024:11808-1",
    "Status": "Final",
    "Version": "1",
    "InitialReleaseDate": "2024-06-22T21:44:56Z",
    "CurrentReleaseDate": "2024-06-22T21:44:56Z",
    "RevisionHistory": [
      {
        "Number": "1",
        "Date": "2024-06-22T21:44:56Z",
        "Description": "current"
      }
    ]
  },
  "Notes": [
    {
      "Text": "strongswan-5.9.5-1.1 on GA media",
      "Title": "Topic",
      "Type": "Summary"
    },
    {
      "Text": "These are all security issues fixed in the strongswan-5.9.5-1.1 package on the GA media of openSUSE Tumbleweed.",
      "Title": "Details",
      "Type": "General"
    },
    {
      "Text": "The CVRF data is provided by SUSE under the Creative Commons License 4.0 with Attribution (CC-BY-4.0).",
      "Title": "Terms of Use",
      "Type": "Legal Disclaimer"
    },
    {
      "Text": "openSUSE-Tumbleweed-2024-11808",
      "Title": "Patchnames",
      "Type": "Details"
    }
  ],
  "ProductTree": {
    "Relationships": [
      {
        "ProductReference": "strongswan-5.9.5-1.1",
        "RelatesToProductReference": "openSUSE Tumbleweed",
        "RelationType": "Default Component Of"
      },
      {
        "ProductReference": "strongswan-doc-5.9.5-1.1",
        "RelatesToProductReference": "openSUSE Tumbleweed",
        "RelationType": "Default Component Of"
      },
      {
        "ProductReference": "strongswan-hmac-5.9.5-1.1",
        "RelatesToProductReference": "openSUSE Tumbleweed",
        "RelationType": "Default Component Of"
      },
      {
        "ProductReference": "strongswan-ipsec-5.9.5-1.1",
        "RelatesToProductReference": "openSUSE Tumbleweed",
        "RelationType": "Default Component Of"
      },
      {
        "ProductReference": "strongswan-libs0-5.9.5-1.1",
        "RelatesToProductReference": "openSUSE Tumbleweed",
        "RelationType": "Default Component Of"
      },
      {
        "ProductReference": "strongswan-mysql-5.9.5-1.1",
        "RelatesToProductReference": "openSUSE Tumbleweed",
        "RelationType": "Default Component Of"
      },
      {
        "ProductReference": "strongswan-nm-5.9.5-1.1",
        "RelatesToProductReference": "openSUSE Tumbleweed",
        "RelationType": "Default Component Of"
      },
      {
        "ProductReference": "strongswan-sqlite-5.9.5-1.1",
        "RelatesToProductReference": "openSUSE Tumbleweed",
        "RelationType": "Default Component Of"
      }
    ]
  },
  "References": [
    {
      "URL": "https://www.suse.com/support/security/rating/",
      "Description": "SUSE Security Ratings"
    },
    {
      "URL": "https://www.suse.com/security/cve/CVE-2021-45079/",
      "Description": "SUSE CVE CVE-2021-45079 page"
    }
  ],
  "Vulnerabilities": [
    {
      "CVE": "CVE-2021-45079",
      "Description": "In strongSwan before 5.9.5, a malicious responder can send an EAP-Success message too early without actually authenticating the client and (in the case of EAP methods with mutual authentication and EAP-only authentication for IKEv2) even without server authentication.",
      "Threats": [
        {
          "Type": "Impact",
          "Severity": "moderate"
        }
      ],
      "References": [
        {
          "URL": "https://www.suse.com/security/cve/CVE-2021-45079.html",
          "Description": "CVE-2021-45079"
        },
        {
          "URL": "https://bugzilla.suse.com/1194471",
          "Description": "SUSE Bug 1194471"
        }
      ],
      "ProductStatuses": [
        {
          "Type": "Fixed",
          "ProductID": [
            "openSUSE Tumbleweed:strongswan-5.9.5-1.1",
            "openSUSE Tumbleweed:strongswan-doc-5.9.5-1.1",
            "openSUSE Tumbleweed:strongswan-hmac-5.9.5-1.1",
            "openSUSE Tumbleweed:strongswan-ipsec-5.9.5-1.1",
            "openSUSE Tumbleweed:strongswan-libs0-5.9.5-1.1",
            "openSUSE Tumbleweed:strongswan-mysql-5.9.5-1.1",
            "openSUSE Tumbleweed:strongswan-nm-5.9.5-1.1",
            "openSUSE Tumbleweed:strongswan-sqlite-5.9.5-1.1"
          ]
        }
      ],
      "CVSSScoreSets": {}
    }
  ]
}