{
  "Title": "ruby2.7-rubygem-actioncable-6.0-6.0.4-1.2 on GA media",
  "Tracking": {
    "ID": "openSUSE-SU-2024:11313-1",
    "Status": "Final",
    "Version": "1",
    "InitialReleaseDate": "2024-06-22T21:44:56Z",
    "CurrentReleaseDate": "2024-06-22T21:44:56Z",
    "RevisionHistory": [
      {
        "Number": "1",
        "Date": "2024-06-22T21:44:56Z",
        "Description": "current"
      }
    ]
  },
  "Notes": [
    {
      "Text": "ruby2.7-rubygem-actioncable-6.0-6.0.4-1.2 on GA media",
      "Title": "Topic",
      "Type": "Summary"
    },
    {
      "Text": "These are all security issues fixed in the ruby2.7-rubygem-actioncable-6.0-6.0.4-1.2 package on the GA media of openSUSE Tumbleweed.",
      "Title": "Details",
      "Type": "General"
    },
    {
      "Text": "The CVRF data is provided by SUSE under the Creative Commons License 4.0 with Attribution (CC-BY-4.0).",
      "Title": "Terms of Use",
      "Type": "Legal Disclaimer"
    },
    {
      "Text": "openSUSE-Tumbleweed-2024-11313",
      "Title": "Patchnames",
      "Type": "Details"
    }
  ],
  "ProductTree": {
    "Relationships": [
      {
        "ProductReference": "ruby2.7-rubygem-actioncable-6.0-6.0.4-1.2",
        "RelatesToProductReference": "openSUSE Tumbleweed",
        "RelationType": "Default Component Of"
      },
      {
        "ProductReference": "ruby3.0-rubygem-actioncable-6.0-6.0.4-1.2",
        "RelatesToProductReference": "openSUSE Tumbleweed",
        "RelationType": "Default Component Of"
      }
    ]
  },
  "References": [
    {
      "URL": "https://www.suse.com/support/security/rating/",
      "Description": "SUSE Security Ratings"
    },
    {
      "URL": "https://www.suse.com/security/cve/CVE-2019-5418/",
      "Description": "SUSE CVE CVE-2019-5418 page"
    },
    {
      "URL": "https://www.suse.com/security/cve/CVE-2020-8264/",
      "Description": "SUSE CVE CVE-2020-8264 page"
    }
  ],
  "Vulnerabilities": [
    {
      "CVE": "CVE-2019-5418",
      "Description": "There is a File Content Disclosure vulnerability in Action View \u003c5.2.2.1, \u003c5.1.6.2, \u003c5.0.7.2, \u003c4.2.11.1 and v3 where specially crafted accept headers can cause contents of arbitrary files on the target system's filesystem to be exposed.",
      "Threats": [
        {
          "Type": "Impact",
          "Severity": "moderate"
        }
      ],
      "References": [
        {
          "URL": "https://www.suse.com/security/cve/CVE-2019-5418.html",
          "Description": "CVE-2019-5418"
        },
        {
          "URL": "https://bugzilla.suse.com/1129272",
          "Description": "SUSE Bug 1129272"
        }
      ],
      "ProductStatuses": [
        {
          "Type": "Fixed",
          "ProductID": [
            "openSUSE Tumbleweed:ruby2.7-rubygem-actioncable-6.0-6.0.4-1.2",
            "openSUSE Tumbleweed:ruby3.0-rubygem-actioncable-6.0-6.0.4-1.2"
          ]
        }
      ],
      "CVSSScoreSets": {}
    },
    {
      "CVE": "CVE-2020-8264",
      "Description": "In actionpack gem \u003e= 6.0.0, a possible XSS vulnerability exists when an application is running in development mode allowing an attacker to send or embed (in another page) a specially crafted URL which can allow the attacker to execute JavaScript in the context of the local application. This vulnerability is in the Actionable Exceptions middleware.",
      "Threats": [
        {
          "Type": "Impact",
          "Severity": "moderate"
        }
      ],
      "References": [
        {
          "URL": "https://www.suse.com/security/cve/CVE-2020-8264.html",
          "Description": "CVE-2020-8264"
        },
        {
          "URL": "https://bugzilla.suse.com/1177521",
          "Description": "SUSE Bug 1177521"
        }
      ],
      "ProductStatuses": [
        {
          "Type": "Fixed",
          "ProductID": [
            "openSUSE Tumbleweed:ruby2.7-rubygem-actioncable-6.0-6.0.4-1.2",
            "openSUSE Tumbleweed:ruby3.0-rubygem-actioncable-6.0-6.0.4-1.2"
          ]
        }
      ],
      "CVSSScoreSets": {}
    }
  ]
}