{
  "Title": "python39-3.9.17-1.1 on GA media",
  "Tracking": {
    "ID": "openSUSE-SU-2024:13033-1",
    "Status": "Final",
    "Version": "1",
    "InitialReleaseDate": "2024-06-20T21:44:22Z",
    "CurrentReleaseDate": "2024-06-20T21:44:22Z",
    "RevisionHistory": [
      {
        "Number": "1",
        "Date": "2024-06-20T21:44:22Z",
        "Description": "current"
      }
    ]
  },
  "Notes": [
    {
      "Text": "python39-3.9.17-1.1 on GA media",
      "Title": "Topic",
      "Type": "Summary"
    },
    {
      "Text": "These are all security issues fixed in the python39-3.9.17-1.1 package on the GA media of openSUSE Tumbleweed.",
      "Title": "Details",
      "Type": "General"
    },
    {
      "Text": "The CVRF data is provided by SUSE under the Creative Commons License 4.0 with Attribution (CC-BY-4.0).",
      "Title": "Terms of Use",
      "Type": "Legal Disclaimer"
    },
    {
      "Text": "openSUSE-Tumbleweed-2024-13033",
      "Title": "Patchnames",
      "Type": "Details"
    }
  ],
  "ProductTree": {
    "Relationships": [
      {
        "ProductReference": "python39-3.9.17-1.1",
        "RelatesToProductReference": "openSUSE Tumbleweed",
        "RelationType": "Default Component Of"
      },
      {
        "ProductReference": "python39-32bit-3.9.17-1.1",
        "RelatesToProductReference": "openSUSE Tumbleweed",
        "RelationType": "Default Component Of"
      },
      {
        "ProductReference": "python39-curses-3.9.17-1.1",
        "RelatesToProductReference": "openSUSE Tumbleweed",
        "RelationType": "Default Component Of"
      },
      {
        "ProductReference": "python39-dbm-3.9.17-1.1",
        "RelatesToProductReference": "openSUSE Tumbleweed",
        "RelationType": "Default Component Of"
      },
      {
        "ProductReference": "python39-idle-3.9.17-1.1",
        "RelatesToProductReference": "openSUSE Tumbleweed",
        "RelationType": "Default Component Of"
      },
      {
        "ProductReference": "python39-tk-3.9.17-1.1",
        "RelatesToProductReference": "openSUSE Tumbleweed",
        "RelationType": "Default Component Of"
      }
    ]
  },
  "References": [
    {
      "URL": "https://www.suse.com/support/security/rating/",
      "Description": "SUSE Security Ratings"
    },
    {
      "URL": "https://www.suse.com/security/cve/CVE-2023-0286/",
      "Description": "SUSE CVE CVE-2023-0286 page"
    },
    {
      "URL": "https://www.suse.com/security/cve/CVE-2023-2650/",
      "Description": "SUSE CVE CVE-2023-2650 page"
    }
  ],
  "Vulnerabilities": [
    {
      "CVE": "CVE-2023-0286",
      "Description": "There is a type confusion vulnerability relating to X.400 address processing\ninside an X.509 GeneralName. X.400 addresses were parsed as an ASN1_STRING but\nthe public structure definition for GENERAL_NAME incorrectly specified the type\nof the x400Address field as ASN1_TYPE. This field is subsequently interpreted by\nthe OpenSSL function GENERAL_NAME_cmp as an ASN1_TYPE rather than an\nASN1_STRING.\n\nWhen CRL checking is enabled (i.e. the application sets the\nX509_V_FLAG_CRL_CHECK flag), this vulnerability may allow an attacker to pass\narbitrary pointers to a memcmp call, enabling them to read memory contents or\nenact a denial of service. In most cases, the attack requires the attacker to\nprovide both the certificate chain and CRL, neither of which need to have a\nvalid signature. If the attacker only controls one of these inputs, the other\ninput must already contain an X.400 address as a CRL distribution point, which\nis uncommon. As such, this vulnerability is most likely to only affect\napplications which have implemented their own functionality for retrieving CRLs\nover a network.\n\n",
      "Threats": [
        {
          "Type": "Impact",
          "Severity": "important"
        }
      ],
      "References": [
        {
          "URL": "https://www.suse.com/security/cve/CVE-2023-0286.html",
          "Description": "CVE-2023-0286"
        },
        {
          "URL": "https://bugzilla.suse.com/1207533",
          "Description": "SUSE Bug 1207533"
        },
        {
          "URL": "https://bugzilla.suse.com/1207569",
          "Description": "SUSE Bug 1207569"
        },
        {
          "URL": "https://bugzilla.suse.com/1211136",
          "Description": "SUSE Bug 1211136"
        },
        {
          "URL": "https://bugzilla.suse.com/1211503",
          "Description": "SUSE Bug 1211503"
        },
        {
          "URL": "https://bugzilla.suse.com/1213146",
          "Description": "SUSE Bug 1213146"
        },
        {
          "URL": "https://bugzilla.suse.com/1214269",
          "Description": "SUSE Bug 1214269"
        },
        {
          "URL": "https://bugzilla.suse.com/1218477",
          "Description": "SUSE Bug 1218477"
        },
        {
          "URL": "https://bugzilla.suse.com/1218967",
          "Description": "SUSE Bug 1218967"
        }
      ],
      "ProductStatuses": [
        {
          "Type": "Fixed",
          "ProductID": [
            "openSUSE Tumbleweed:python39-3.9.17-1.1",
            "openSUSE Tumbleweed:python39-32bit-3.9.17-1.1",
            "openSUSE Tumbleweed:python39-curses-3.9.17-1.1",
            "openSUSE Tumbleweed:python39-dbm-3.9.17-1.1",
            "openSUSE Tumbleweed:python39-idle-3.9.17-1.1",
            "openSUSE Tumbleweed:python39-tk-3.9.17-1.1"
          ]
        }
      ],
      "CVSSScoreSets": {}
    },
    {
      "CVE": "CVE-2023-2650",
      "Description": "Issue summary: Processing some specially crafted ASN.1 object identifiers or\ndata containing them may be very slow.\n\nImpact summary: Applications that use OBJ_obj2txt() directly, or use any of\nthe OpenSSL subsystems OCSP, PKCS7/SMIME, CMS, CMP/CRMF or TS with no message\nsize limit may experience notable to very long delays when processing those\nmessages, which may lead to a Denial of Service.\n\nAn OBJECT IDENTIFIER is composed of a series of numbers - sub-identifiers -\nmost of which have no size limit.  OBJ_obj2txt() may be used to translate\nan ASN.1 OBJECT IDENTIFIER given in DER encoding form (using the OpenSSL\ntype ASN1_OBJECT) to its canonical numeric text form, which are the\nsub-identifiers of the OBJECT IDENTIFIER in decimal form, separated by\nperiods.\n\nWhen one of the sub-identifiers in the OBJECT IDENTIFIER is very large\n(these are sizes that are seen as absurdly large, taking up tens or hundreds\nof KiBs), the translation to a decimal number in text may take a very long\ntime.  The time complexity is O(n^2) with 'n' being the size of the\nsub-identifiers in bytes (*).\n\nWith OpenSSL 3.0, support to fetch cryptographic algorithms using names /\nidentifiers in string form was introduced.  This includes using OBJECT\nIDENTIFIERs in canonical numeric text form as identifiers for fetching\nalgorithms.\n\nSuch OBJECT IDENTIFIERs may be received through the ASN.1 structure\nAlgorithmIdentifier, which is commonly used in multiple protocols to specify\nwhat cryptographic algorithm should be used to sign or verify, encrypt or\ndecrypt, or digest passed data.\n\nApplications that call OBJ_obj2txt() directly with untrusted data are\naffected, with any version of OpenSSL.  If the use is for the mere purpose\nof display, the severity is considered low.\n\nIn OpenSSL 3.0 and newer, this affects the subsystems OCSP, PKCS7/SMIME,\nCMS, CMP/CRMF or TS.  It also impacts anything that processes X.509\ncertificates, including simple things like verifying its signature.\n\nThe impact on TLS is relatively low, because all versions of OpenSSL have a\n100KiB limit on the peer's certificate chain.  Additionally, this only\nimpacts clients, or servers that have explicitly enabled client\nauthentication.\n\nIn OpenSSL 1.1.1 and 1.0.2, this only affects displaying diverse objects,\nsuch as X.509 certificates.  This is assumed to not happen in such a way\nthat it would cause a Denial of Service, so these versions are considered\nnot affected by this issue in such a way that it would be cause for concern,\nand the severity is therefore considered low.",
      "Threats": [
        {
          "Type": "Impact",
          "Severity": "moderate"
        }
      ],
      "References": [
        {
          "URL": "https://www.suse.com/security/cve/CVE-2023-2650.html",
          "Description": "CVE-2023-2650"
        },
        {
          "URL": "https://bugzilla.suse.com/1211430",
          "Description": "SUSE Bug 1211430"
        }
      ],
      "ProductStatuses": [
        {
          "Type": "Fixed",
          "ProductID": [
            "openSUSE Tumbleweed:python39-3.9.17-1.1",
            "openSUSE Tumbleweed:python39-32bit-3.9.17-1.1",
            "openSUSE Tumbleweed:python39-curses-3.9.17-1.1",
            "openSUSE Tumbleweed:python39-dbm-3.9.17-1.1",
            "openSUSE Tumbleweed:python39-idle-3.9.17-1.1",
            "openSUSE Tumbleweed:python39-tk-3.9.17-1.1"
          ]
        }
      ],
      "CVSSScoreSets": {}
    }
  ]
}