{
  "Title": "ntp-4.2.8p9-1.1 on GA media",
  "Tracking": {
    "ID": "openSUSE-SU-2024:10181-1",
    "Status": "Final",
    "Version": "1",
    "InitialReleaseDate": "2024-06-22T21:44:56Z",
    "CurrentReleaseDate": "2024-06-22T21:44:56Z",
    "RevisionHistory": [
      {
        "Number": "1",
        "Date": "2024-06-22T21:44:56Z",
        "Description": "current"
      }
    ]
  },
  "Notes": [
    {
      "Text": "ntp-4.2.8p9-1.1 on GA media",
      "Title": "Topic",
      "Type": "Summary"
    },
    {
      "Text": "These are all security issues fixed in the ntp-4.2.8p9-1.1 package on the GA media of openSUSE Tumbleweed.",
      "Title": "Details",
      "Type": "General"
    },
    {
      "Text": "The CVRF data is provided by SUSE under the Creative Commons License 4.0 with Attribution (CC-BY-4.0).",
      "Title": "Terms of Use",
      "Type": "Legal Disclaimer"
    },
    {
      "Text": "openSUSE-Tumbleweed-2024-10181",
      "Title": "Patchnames",
      "Type": "Details"
    }
  ],
  "ProductTree": {
    "Relationships": [
      {
        "ProductReference": "ntp-4.2.8p9-1.1",
        "RelatesToProductReference": "openSUSE Tumbleweed",
        "RelationType": "Default Component Of"
      },
      {
        "ProductReference": "ntp-doc-4.2.8p9-1.1",
        "RelatesToProductReference": "openSUSE Tumbleweed",
        "RelationType": "Default Component Of"
      }
    ]
  },
  "References": [
    {
      "URL": "https://www.suse.com/support/security/rating/",
      "Description": "SUSE Security Ratings"
    },
    {
      "URL": "https://www.suse.com/security/cve/CVE-2009-0159/",
      "Description": "SUSE CVE CVE-2009-0159 page"
    },
    {
      "URL": "https://www.suse.com/security/cve/CVE-2009-1252/",
      "Description": "SUSE CVE CVE-2009-1252 page"
    },
    {
      "URL": "https://www.suse.com/security/cve/CVE-2013-5211/",
      "Description": "SUSE CVE CVE-2013-5211 page"
    },
    {
      "URL": "https://www.suse.com/security/cve/CVE-2014-9293/",
      "Description": "SUSE CVE CVE-2014-9293 page"
    },
    {
      "URL": "https://www.suse.com/security/cve/CVE-2014-9294/",
      "Description": "SUSE CVE CVE-2014-9294 page"
    },
    {
      "URL": "https://www.suse.com/security/cve/CVE-2014-9295/",
      "Description": "SUSE CVE CVE-2014-9295 page"
    },
    {
      "URL": "https://www.suse.com/security/cve/CVE-2014-9296/",
      "Description": "SUSE CVE CVE-2014-9296 page"
    },
    {
      "URL": "https://www.suse.com/security/cve/CVE-2014-9297/",
      "Description": "SUSE CVE CVE-2014-9297 page"
    },
    {
      "URL": "https://www.suse.com/security/cve/CVE-2014-9298/",
      "Description": "SUSE CVE CVE-2014-9298 page"
    },
    {
      "URL": "https://www.suse.com/security/cve/CVE-2015-1798/",
      "Description": "SUSE CVE CVE-2015-1798 page"
    },
    {
      "URL": "https://www.suse.com/security/cve/CVE-2015-1799/",
      "Description": "SUSE CVE CVE-2015-1799 page"
    },
    {
      "URL": "https://www.suse.com/security/cve/CVE-2015-5300/",
      "Description": "SUSE CVE CVE-2015-5300 page"
    },
    {
      "URL": "https://www.suse.com/security/cve/CVE-2015-7691/",
      "Description": "SUSE CVE CVE-2015-7691 page"
    },
    {
      "URL": "https://www.suse.com/security/cve/CVE-2015-7692/",
      "Description": "SUSE CVE CVE-2015-7692 page"
    },
    {
      "URL": "https://www.suse.com/security/cve/CVE-2015-7701/",
      "Description": "SUSE CVE CVE-2015-7701 page"
    },
    {
      "URL": "https://www.suse.com/security/cve/CVE-2015-7702/",
      "Description": "SUSE CVE CVE-2015-7702 page"
    },
    {
      "URL": "https://www.suse.com/security/cve/CVE-2015-7703/",
      "Description": "SUSE CVE CVE-2015-7703 page"
    },
    {
      "URL": "https://www.suse.com/security/cve/CVE-2015-7704/",
      "Description": "SUSE CVE CVE-2015-7704 page"
    },
    {
      "URL": "https://www.suse.com/security/cve/CVE-2015-7705/",
      "Description": "SUSE CVE CVE-2015-7705 page"
    },
    {
      "URL": "https://www.suse.com/security/cve/CVE-2015-7848/",
      "Description": "SUSE CVE CVE-2015-7848 page"
    },
    {
      "URL": "https://www.suse.com/security/cve/CVE-2015-7849/",
      "Description": "SUSE CVE CVE-2015-7849 page"
    },
    {
      "URL": "https://www.suse.com/security/cve/CVE-2015-7850/",
      "Description": "SUSE CVE CVE-2015-7850 page"
    },
    {
      "URL": "https://www.suse.com/security/cve/CVE-2015-7851/",
      "Description": "SUSE CVE CVE-2015-7851 page"
    },
    {
      "URL": "https://www.suse.com/security/cve/CVE-2015-7852/",
      "Description": "SUSE CVE CVE-2015-7852 page"
    },
    {
      "URL": "https://www.suse.com/security/cve/CVE-2015-7853/",
      "Description": "SUSE CVE CVE-2015-7853 page"
    },
    {
      "URL": "https://www.suse.com/security/cve/CVE-2015-7854/",
      "Description": "SUSE CVE CVE-2015-7854 page"
    },
    {
      "URL": "https://www.suse.com/security/cve/CVE-2015-7855/",
      "Description": "SUSE CVE CVE-2015-7855 page"
    },
    {
      "URL": "https://www.suse.com/security/cve/CVE-2015-7871/",
      "Description": "SUSE CVE CVE-2015-7871 page"
    },
    {
      "URL": "https://www.suse.com/security/cve/CVE-2015-7973/",
      "Description": "SUSE CVE CVE-2015-7973 page"
    },
    {
      "URL": "https://www.suse.com/security/cve/CVE-2015-7974/",
      "Description": "SUSE CVE CVE-2015-7974 page"
    },
    {
      "URL": "https://www.suse.com/security/cve/CVE-2015-7975/",
      "Description": "SUSE CVE CVE-2015-7975 page"
    },
    {
      "URL": "https://www.suse.com/security/cve/CVE-2015-7976/",
      "Description": "SUSE CVE CVE-2015-7976 page"
    },
    {
      "URL": "https://www.suse.com/security/cve/CVE-2015-7977/",
      "Description": "SUSE CVE CVE-2015-7977 page"
    },
    {
      "URL": "https://www.suse.com/security/cve/CVE-2015-7978/",
      "Description": "SUSE CVE CVE-2015-7978 page"
    },
    {
      "URL": "https://www.suse.com/security/cve/CVE-2015-7979/",
      "Description": "SUSE CVE CVE-2015-7979 page"
    },
    {
      "URL": "https://www.suse.com/security/cve/CVE-2015-8138/",
      "Description": "SUSE CVE CVE-2015-8138 page"
    },
    {
      "URL": "https://www.suse.com/security/cve/CVE-2015-8158/",
      "Description": "SUSE CVE CVE-2015-8158 page"
    },
    {
      "URL": "https://www.suse.com/security/cve/CVE-2016-1547/",
      "Description": "SUSE CVE CVE-2016-1547 page"
    },
    {
      "URL": "https://www.suse.com/security/cve/CVE-2016-1548/",
      "Description": "SUSE CVE CVE-2016-1548 page"
    },
    {
      "URL": "https://www.suse.com/security/cve/CVE-2016-1549/",
      "Description": "SUSE CVE CVE-2016-1549 page"
    },
    {
      "URL": "https://www.suse.com/security/cve/CVE-2016-1550/",
      "Description": "SUSE CVE CVE-2016-1550 page"
    },
    {
      "URL": "https://www.suse.com/security/cve/CVE-2016-1551/",
      "Description": "SUSE CVE CVE-2016-1551 page"
    },
    {
      "URL": "https://www.suse.com/security/cve/CVE-2016-2516/",
      "Description": "SUSE CVE CVE-2016-2516 page"
    },
    {
      "URL": "https://www.suse.com/security/cve/CVE-2016-2517/",
      "Description": "SUSE CVE CVE-2016-2517 page"
    },
    {
      "URL": "https://www.suse.com/security/cve/CVE-2016-2518/",
      "Description": "SUSE CVE CVE-2016-2518 page"
    },
    {
      "URL": "https://www.suse.com/security/cve/CVE-2016-2519/",
      "Description": "SUSE CVE CVE-2016-2519 page"
    },
    {
      "URL": "https://www.suse.com/security/cve/CVE-2016-4953/",
      "Description": "SUSE CVE CVE-2016-4953 page"
    },
    {
      "URL": "https://www.suse.com/security/cve/CVE-2016-4954/",
      "Description": "SUSE CVE CVE-2016-4954 page"
    },
    {
      "URL": "https://www.suse.com/security/cve/CVE-2016-4955/",
      "Description": "SUSE CVE CVE-2016-4955 page"
    },
    {
      "URL": "https://www.suse.com/security/cve/CVE-2016-4956/",
      "Description": "SUSE CVE CVE-2016-4956 page"
    },
    {
      "URL": "https://www.suse.com/security/cve/CVE-2016-4957/",
      "Description": "SUSE CVE CVE-2016-4957 page"
    },
    {
      "URL": "https://www.suse.com/security/cve/CVE-2016-7426/",
      "Description": "SUSE CVE CVE-2016-7426 page"
    },
    {
      "URL": "https://www.suse.com/security/cve/CVE-2016-7427/",
      "Description": "SUSE CVE CVE-2016-7427 page"
    },
    {
      "URL": "https://www.suse.com/security/cve/CVE-2016-7428/",
      "Description": "SUSE CVE CVE-2016-7428 page"
    },
    {
      "URL": "https://www.suse.com/security/cve/CVE-2016-7429/",
      "Description": "SUSE CVE CVE-2016-7429 page"
    },
    {
      "URL": "https://www.suse.com/security/cve/CVE-2016-7431/",
      "Description": "SUSE CVE CVE-2016-7431 page"
    },
    {
      "URL": "https://www.suse.com/security/cve/CVE-2016-7433/",
      "Description": "SUSE CVE CVE-2016-7433 page"
    },
    {
      "URL": "https://www.suse.com/security/cve/CVE-2016-7434/",
      "Description": "SUSE CVE CVE-2016-7434 page"
    },
    {
      "URL": "https://www.suse.com/security/cve/CVE-2016-9310/",
      "Description": "SUSE CVE CVE-2016-9310 page"
    },
    {
      "URL": "https://www.suse.com/security/cve/CVE-2016-9311/",
      "Description": "SUSE CVE CVE-2016-9311 page"
    }
  ],
  "Vulnerabilities": [
    {
      "CVE": "CVE-2009-0159",
      "Description": "Stack-based buffer overflow in the cookedprint function in ntpq/ntpq.c in ntpq in NTP before 4.2.4p7-RC2 allows remote NTP servers to execute arbitrary code via a crafted response.",
      "Threats": [
        {
          "Type": "Impact",
          "Severity": "moderate"
        }
      ],
      "References": [
        {
          "URL": "https://www.suse.com/security/cve/CVE-2009-0159.html",
          "Description": "CVE-2009-0159"
        },
        {
          "URL": "https://bugzilla.suse.com/484653",
          "Description": "SUSE Bug 484653"
        },
        {
          "URL": "https://bugzilla.suse.com/501632",
          "Description": "SUSE Bug 501632"
        }
      ],
      "ProductStatuses": [
        {
          "Type": "Fixed",
          "ProductID": [
            "openSUSE Tumbleweed:ntp-4.2.8p9-1.1",
            "openSUSE Tumbleweed:ntp-doc-4.2.8p9-1.1"
          ]
        }
      ],
      "CVSSScoreSets": {}
    },
    {
      "CVE": "CVE-2009-1252",
      "Description": "Stack-based buffer overflow in the crypto_recv function in ntp_crypto.c in ntpd in NTP before 4.2.4p7 and 4.2.5 before 4.2.5p74, when OpenSSL and autokey are enabled, allows remote attackers to execute arbitrary code via a crafted packet containing an extension field.",
      "Threats": [
        {
          "Type": "Impact",
          "Severity": "moderate"
        }
      ],
      "References": [
        {
          "URL": "https://www.suse.com/security/cve/CVE-2009-1252.html",
          "Description": "CVE-2009-1252"
        },
        {
          "URL": "https://bugzilla.suse.com/501632",
          "Description": "SUSE Bug 501632"
        }
      ],
      "ProductStatuses": [
        {
          "Type": "Fixed",
          "ProductID": [
            "openSUSE Tumbleweed:ntp-4.2.8p9-1.1",
            "openSUSE Tumbleweed:ntp-doc-4.2.8p9-1.1"
          ]
        }
      ],
      "CVSSScoreSets": {}
    },
    {
      "CVE": "CVE-2013-5211",
      "Description": "The monlist feature in ntp_request.c in ntpd in NTP before 4.2.7p26 allows remote attackers to cause a denial of service (traffic amplification) via forged (1) REQ_MON_GETLIST or (2) REQ_MON_GETLIST_1 requests, as exploited in the wild in December 2013.",
      "Threats": [
        {
          "Type": "Impact",
          "Severity": "moderate"
        }
      ],
      "References": [
        {
          "URL": "https://www.suse.com/security/cve/CVE-2013-5211.html",
          "Description": "CVE-2013-5211"
        },
        {
          "URL": "https://bugzilla.suse.com/857195",
          "Description": "SUSE Bug 857195"
        },
        {
          "URL": "https://bugzilla.suse.com/889447",
          "Description": "SUSE Bug 889447"
        },
        {
          "URL": "https://bugzilla.suse.com/959243",
          "Description": "SUSE Bug 959243"
        }
      ],
      "ProductStatuses": [
        {
          "Type": "Fixed",
          "ProductID": [
            "openSUSE Tumbleweed:ntp-4.2.8p9-1.1",
            "openSUSE Tumbleweed:ntp-doc-4.2.8p9-1.1"
          ]
        }
      ],
      "CVSSScoreSets": {}
    },
    {
      "CVE": "CVE-2014-9293",
      "Description": "The config_auth function in ntpd in NTP before 4.2.7p11, when an auth key is not configured, improperly generates a key, which makes it easier for remote attackers to defeat cryptographic protection mechanisms via a brute-force attack.",
      "Threats": [
        {
          "Type": "Impact",
          "Severity": "important"
        }
      ],
      "References": [
        {
          "URL": "https://www.suse.com/security/cve/CVE-2014-9293.html",
          "Description": "CVE-2014-9293"
        },
        {
          "URL": "https://bugzilla.suse.com/910764",
          "Description": "SUSE Bug 910764"
        },
        {
          "URL": "https://bugzilla.suse.com/911053",
          "Description": "SUSE Bug 911053"
        },
        {
          "URL": "https://bugzilla.suse.com/911792",
          "Description": "SUSE Bug 911792"
        },
        {
          "URL": "https://bugzilla.suse.com/959243",
          "Description": "SUSE Bug 959243"
        }
      ],
      "ProductStatuses": [
        {
          "Type": "Fixed",
          "ProductID": [
            "openSUSE Tumbleweed:ntp-4.2.8p9-1.1",
            "openSUSE Tumbleweed:ntp-doc-4.2.8p9-1.1"
          ]
        }
      ],
      "CVSSScoreSets": {}
    },
    {
      "CVE": "CVE-2014-9294",
      "Description": "util/ntp-keygen.c in ntp-keygen in NTP before 4.2.7p230 uses a weak RNG seed, which makes it easier for remote attackers to defeat cryptographic protection mechanisms via a brute-force attack.",
      "Threats": [
        {
          "Type": "Impact",
          "Severity": "important"
        }
      ],
      "References": [
        {
          "URL": "https://www.suse.com/security/cve/CVE-2014-9294.html",
          "Description": "CVE-2014-9294"
        },
        {
          "URL": "https://bugzilla.suse.com/910764",
          "Description": "SUSE Bug 910764"
        },
        {
          "URL": "https://bugzilla.suse.com/911053",
          "Description": "SUSE Bug 911053"
        },
        {
          "URL": "https://bugzilla.suse.com/911792",
          "Description": "SUSE Bug 911792"
        },
        {
          "URL": "https://bugzilla.suse.com/959243",
          "Description": "SUSE Bug 959243"
        }
      ],
      "ProductStatuses": [
        {
          "Type": "Fixed",
          "ProductID": [
            "openSUSE Tumbleweed:ntp-4.2.8p9-1.1",
            "openSUSE Tumbleweed:ntp-doc-4.2.8p9-1.1"
          ]
        }
      ],
      "CVSSScoreSets": {}
    },
    {
      "CVE": "CVE-2014-9295",
      "Description": "Multiple stack-based buffer overflows in ntpd in NTP before 4.2.8 allow remote attackers to execute arbitrary code via a crafted packet, related to (1) the crypto_recv function when the Autokey Authentication feature is used, (2) the ctl_putdata function, and (3) the configure function.",
      "Threats": [
        {
          "Type": "Impact",
          "Severity": "important"
        }
      ],
      "References": [
        {
          "URL": "https://www.suse.com/security/cve/CVE-2014-9295.html",
          "Description": "CVE-2014-9295"
        },
        {
          "URL": "https://bugzilla.suse.com/910764",
          "Description": "SUSE Bug 910764"
        },
        {
          "URL": "https://bugzilla.suse.com/911053",
          "Description": "SUSE Bug 911053"
        },
        {
          "URL": "https://bugzilla.suse.com/911792",
          "Description": "SUSE Bug 911792"
        },
        {
          "URL": "https://bugzilla.suse.com/916239",
          "Description": "SUSE Bug 916239"
        },
        {
          "URL": "https://bugzilla.suse.com/959243",
          "Description": "SUSE Bug 959243"
        }
      ],
      "ProductStatuses": [
        {
          "Type": "Fixed",
          "ProductID": [
            "openSUSE Tumbleweed:ntp-4.2.8p9-1.1",
            "openSUSE Tumbleweed:ntp-doc-4.2.8p9-1.1"
          ]
        }
      ],
      "CVSSScoreSets": {}
    },
    {
      "CVE": "CVE-2014-9296",
      "Description": "The receive function in ntp_proto.c in ntpd in NTP before 4.2.8 continues to execute after detecting a certain authentication error, which might allow remote attackers to trigger an unintended association change via crafted packets.",
      "Threats": [
        {
          "Type": "Impact",
          "Severity": "moderate"
        }
      ],
      "References": [
        {
          "URL": "https://www.suse.com/security/cve/CVE-2014-9296.html",
          "Description": "CVE-2014-9296"
        },
        {
          "URL": "https://bugzilla.suse.com/910764",
          "Description": "SUSE Bug 910764"
        },
        {
          "URL": "https://bugzilla.suse.com/911053",
          "Description": "SUSE Bug 911053"
        },
        {
          "URL": "https://bugzilla.suse.com/911792",
          "Description": "SUSE Bug 911792"
        },
        {
          "URL": "https://bugzilla.suse.com/959243",
          "Description": "SUSE Bug 959243"
        },
        {
          "URL": "https://bugzilla.suse.com/992991",
          "Description": "SUSE Bug 992991"
        }
      ],
      "ProductStatuses": [
        {
          "Type": "Fixed",
          "ProductID": [
            "openSUSE Tumbleweed:ntp-4.2.8p9-1.1",
            "openSUSE Tumbleweed:ntp-doc-4.2.8p9-1.1"
          ]
        }
      ],
      "CVSSScoreSets": {}
    },
    {
      "CVE": "CVE-2014-9297",
      "Description": "** REJECT **  DO NOT USE THIS CANDIDATE NUMBER.  ConsultIDs: CVE-2014-9750, CVE-2014-9751.  Reason: this ID was intended for one issue, but was associated with two issues.  Notes: All CVE users should consult CVE-2014-9750 and CVE-2014-9751 to identify the ID or IDs of interest. All references and descriptions in this candidate have been removed to prevent accidental usage.",
      "Threats": [
        {
          "Type": "Impact",
          "Severity": "important"
        }
      ],
      "References": [
        {
          "URL": "https://www.suse.com/security/cve/CVE-2014-9297.html",
          "Description": "CVE-2014-9297"
        },
        {
          "URL": "https://bugzilla.suse.com/911792",
          "Description": "SUSE Bug 911792"
        },
        {
          "URL": "https://bugzilla.suse.com/948963",
          "Description": "SUSE Bug 948963"
        },
        {
          "URL": "https://bugzilla.suse.com/959243",
          "Description": "SUSE Bug 959243"
        }
      ],
      "ProductStatuses": [
        {
          "Type": "Fixed",
          "ProductID": [
            "openSUSE Tumbleweed:ntp-4.2.8p9-1.1",
            "openSUSE Tumbleweed:ntp-doc-4.2.8p9-1.1"
          ]
        }
      ],
      "CVSSScoreSets": {}
    },
    {
      "CVE": "CVE-2014-9298",
      "Description": "** REJECT **  DO NOT USE THIS CANDIDATE NUMBER.  ConsultIDs: CVE-2014-9750, CVE-2014-9751.  Reason: this ID was intended for one issue, but was associated with two issues.  Notes: All CVE users should consult CVE-2014-9750 and CVE-2014-9751 to identify the ID or IDs of interest. All references and descriptions in this candidate have been removed to prevent accidental usage.",
      "Threats": [
        {
          "Type": "Impact",
          "Severity": "important"
        }
      ],
      "References": [
        {
          "URL": "https://www.suse.com/security/cve/CVE-2014-9298.html",
          "Description": "CVE-2014-9298"
        },
        {
          "URL": "https://bugzilla.suse.com/911792",
          "Description": "SUSE Bug 911792"
        },
        {
          "URL": "https://bugzilla.suse.com/948963",
          "Description": "SUSE Bug 948963"
        },
        {
          "URL": "https://bugzilla.suse.com/959243",
          "Description": "SUSE Bug 959243"
        }
      ],
      "ProductStatuses": [
        {
          "Type": "Fixed",
          "ProductID": [
            "openSUSE Tumbleweed:ntp-4.2.8p9-1.1",
            "openSUSE Tumbleweed:ntp-doc-4.2.8p9-1.1"
          ]
        }
      ],
      "CVSSScoreSets": {}
    },
    {
      "CVE": "CVE-2015-1798",
      "Description": "The symmetric-key feature in the receive function in ntp_proto.c in ntpd in NTP 4.x before 4.2.8p2 requires a correct MAC only if the MAC field has a nonzero length, which makes it easier for man-in-the-middle attackers to spoof packets by omitting the MAC.",
      "Threats": [
        {
          "Type": "Impact",
          "Severity": "important"
        }
      ],
      "References": [
        {
          "URL": "https://www.suse.com/security/cve/CVE-2015-1798.html",
          "Description": "CVE-2015-1798"
        },
        {
          "URL": "https://bugzilla.suse.com/924202",
          "Description": "SUSE Bug 924202"
        },
        {
          "URL": "https://bugzilla.suse.com/927497",
          "Description": "SUSE Bug 927497"
        },
        {
          "URL": "https://bugzilla.suse.com/928321",
          "Description": "SUSE Bug 928321"
        },
        {
          "URL": "https://bugzilla.suse.com/936327",
          "Description": "SUSE Bug 936327"
        },
        {
          "URL": "https://bugzilla.suse.com/957163",
          "Description": "SUSE Bug 957163"
        }
      ],
      "ProductStatuses": [
        {
          "Type": "Fixed",
          "ProductID": [
            "openSUSE Tumbleweed:ntp-4.2.8p9-1.1",
            "openSUSE Tumbleweed:ntp-doc-4.2.8p9-1.1"
          ]
        }
      ],
      "CVSSScoreSets": {
        "BaseScore": "4",
        "Vector": "AV:N/AC:L/Au:S/C:N/I:P/A:N"
      }
    },
    {
      "CVE": "CVE-2015-1799",
      "Description": "The symmetric-key feature in the receive function in ntp_proto.c in ntpd in NTP 3.x and 4.x before 4.2.8p2 performs state-variable updates upon receiving certain invalid packets, which makes it easier for man-in-the-middle attackers to cause a denial of service (synchronization loss) by spoofing the source IP address of a peer.",
      "Threats": [
        {
          "Type": "Impact",
          "Severity": "important"
        }
      ],
      "References": [
        {
          "URL": "https://www.suse.com/security/cve/CVE-2015-1799.html",
          "Description": "CVE-2015-1799"
        },
        {
          "URL": "https://bugzilla.suse.com/924202",
          "Description": "SUSE Bug 924202"
        },
        {
          "URL": "https://bugzilla.suse.com/927497",
          "Description": "SUSE Bug 927497"
        },
        {
          "URL": "https://bugzilla.suse.com/928321",
          "Description": "SUSE Bug 928321"
        },
        {
          "URL": "https://bugzilla.suse.com/936327",
          "Description": "SUSE Bug 936327"
        },
        {
          "URL": "https://bugzilla.suse.com/943565",
          "Description": "SUSE Bug 943565"
        },
        {
          "URL": "https://bugzilla.suse.com/957163",
          "Description": "SUSE Bug 957163"
        },
        {
          "URL": "https://bugzilla.suse.com/959243",
          "Description": "SUSE Bug 959243"
        },
        {
          "URL": "https://bugzilla.suse.com/962624",
          "Description": "SUSE Bug 962624"
        }
      ],
      "ProductStatuses": [
        {
          "Type": "Fixed",
          "ProductID": [
            "openSUSE Tumbleweed:ntp-4.2.8p9-1.1",
            "openSUSE Tumbleweed:ntp-doc-4.2.8p9-1.1"
          ]
        }
      ],
      "CVSSScoreSets": {}
    },
    {
      "CVE": "CVE-2015-5300",
      "Description": "The panic_gate check in NTP before 4.2.8p5 is only re-enabled after the first change to the system clock that was greater than 128 milliseconds by default, which allows remote attackers to set NTP to an arbitrary time when started with the -g option, or to alter the time by up to 900 seconds otherwise by responding to an unspecified number of requests from trusted sources, and leveraging a resulting denial of service (abort and restart).",
      "Threats": [
        {
          "Type": "Impact",
          "Severity": "moderate"
        }
      ],
      "References": [
        {
          "URL": "https://www.suse.com/security/cve/CVE-2015-5300.html",
          "Description": "CVE-2015-5300"
        },
        {
          "URL": "https://bugzilla.suse.com/951629",
          "Description": "SUSE Bug 951629"
        },
        {
          "URL": "https://bugzilla.suse.com/959243",
          "Description": "SUSE Bug 959243"
        },
        {
          "URL": "https://bugzilla.suse.com/962624",
          "Description": "SUSE Bug 962624"
        }
      ],
      "ProductStatuses": [
        {
          "Type": "Fixed",
          "ProductID": [
            "openSUSE Tumbleweed:ntp-4.2.8p9-1.1",
            "openSUSE Tumbleweed:ntp-doc-4.2.8p9-1.1"
          ]
        }
      ],
      "CVSSScoreSets": {}
    },
    {
      "CVE": "CVE-2015-7691",
      "Description": "The crypto_xmit function in ntpd in NTP 4.2.x before 4.2.8p4, and 4.3.x before 4.3.77 allows remote attackers to cause a denial of service (crash) via crafted packets containing particular autokey operations.  NOTE: This vulnerability exists due to an incomplete fix for CVE-2014-9750.",
      "Threats": [
        {
          "Type": "Impact",
          "Severity": "important"
        }
      ],
      "References": [
        {
          "URL": "https://www.suse.com/security/cve/CVE-2015-7691.html",
          "Description": "CVE-2015-7691"
        },
        {
          "URL": "https://bugzilla.suse.com/1010964",
          "Description": "SUSE Bug 1010964"
        },
        {
          "URL": "https://bugzilla.suse.com/911792",
          "Description": "SUSE Bug 911792"
        },
        {
          "URL": "https://bugzilla.suse.com/951608",
          "Description": "SUSE Bug 951608"
        },
        {
          "URL": "https://bugzilla.suse.com/959243",
          "Description": "SUSE Bug 959243"
        },
        {
          "URL": "https://bugzilla.suse.com/992991",
          "Description": "SUSE Bug 992991"
        }
      ],
      "ProductStatuses": [
        {
          "Type": "Fixed",
          "ProductID": [
            "openSUSE Tumbleweed:ntp-4.2.8p9-1.1",
            "openSUSE Tumbleweed:ntp-doc-4.2.8p9-1.1"
          ]
        }
      ],
      "CVSSScoreSets": {}
    },
    {
      "CVE": "CVE-2015-7692",
      "Description": "The crypto_xmit function in ntpd in NTP 4.2.x before 4.2.8p4, and 4.3.x before 4.3.77 allows remote attackers to cause a denial of service (crash).  NOTE: This vulnerability exists due to an incomplete fix for CVE-2014-9750.",
      "Threats": [
        {
          "Type": "Impact",
          "Severity": "important"
        }
      ],
      "References": [
        {
          "URL": "https://www.suse.com/security/cve/CVE-2015-7692.html",
          "Description": "CVE-2015-7692"
        },
        {
          "URL": "https://bugzilla.suse.com/1010964",
          "Description": "SUSE Bug 1010964"
        },
        {
          "URL": "https://bugzilla.suse.com/911792",
          "Description": "SUSE Bug 911792"
        },
        {
          "URL": "https://bugzilla.suse.com/951608",
          "Description": "SUSE Bug 951608"
        },
        {
          "URL": "https://bugzilla.suse.com/959243",
          "Description": "SUSE Bug 959243"
        },
        {
          "URL": "https://bugzilla.suse.com/992991",
          "Description": "SUSE Bug 992991"
        }
      ],
      "ProductStatuses": [
        {
          "Type": "Fixed",
          "ProductID": [
            "openSUSE Tumbleweed:ntp-4.2.8p9-1.1",
            "openSUSE Tumbleweed:ntp-doc-4.2.8p9-1.1"
          ]
        }
      ],
      "CVSSScoreSets": {}
    },
    {
      "CVE": "CVE-2015-7701",
      "Description": "Memory leak in the CRYPTO_ASSOC function in ntpd in NTP 4.2.x before 4.2.8p4, and 4.3.x before 4.3.77 allows remote attackers to cause a denial of service (memory consumption).",
      "Threats": [
        {
          "Type": "Impact",
          "Severity": "important"
        }
      ],
      "References": [
        {
          "URL": "https://www.suse.com/security/cve/CVE-2015-7701.html",
          "Description": "CVE-2015-7701"
        },
        {
          "URL": "https://bugzilla.suse.com/1010964",
          "Description": "SUSE Bug 1010964"
        },
        {
          "URL": "https://bugzilla.suse.com/951608",
          "Description": "SUSE Bug 951608"
        },
        {
          "URL": "https://bugzilla.suse.com/959243",
          "Description": "SUSE Bug 959243"
        },
        {
          "URL": "https://bugzilla.suse.com/992991",
          "Description": "SUSE Bug 992991"
        }
      ],
      "ProductStatuses": [
        {
          "Type": "Fixed",
          "ProductID": [
            "openSUSE Tumbleweed:ntp-4.2.8p9-1.1",
            "openSUSE Tumbleweed:ntp-doc-4.2.8p9-1.1"
          ]
        }
      ],
      "CVSSScoreSets": {}
    },
    {
      "CVE": "CVE-2015-7702",
      "Description": "The crypto_xmit function in ntpd in NTP 4.2.x before 4.2.8p4, and 4.3.x before 4.3.77 allows remote attackers to cause a denial of service (crash).  NOTE: This vulnerability exists due to an incomplete fix for CVE-2014-9750.",
      "Threats": [
        {
          "Type": "Impact",
          "Severity": "important"
        }
      ],
      "References": [
        {
          "URL": "https://www.suse.com/security/cve/CVE-2015-7702.html",
          "Description": "CVE-2015-7702"
        },
        {
          "URL": "https://bugzilla.suse.com/1010964",
          "Description": "SUSE Bug 1010964"
        },
        {
          "URL": "https://bugzilla.suse.com/911792",
          "Description": "SUSE Bug 911792"
        },
        {
          "URL": "https://bugzilla.suse.com/951608",
          "Description": "SUSE Bug 951608"
        },
        {
          "URL": "https://bugzilla.suse.com/959243",
          "Description": "SUSE Bug 959243"
        },
        {
          "URL": "https://bugzilla.suse.com/992991",
          "Description": "SUSE Bug 992991"
        }
      ],
      "ProductStatuses": [
        {
          "Type": "Fixed",
          "ProductID": [
            "openSUSE Tumbleweed:ntp-4.2.8p9-1.1",
            "openSUSE Tumbleweed:ntp-doc-4.2.8p9-1.1"
          ]
        }
      ],
      "CVSSScoreSets": {}
    },
    {
      "CVE": "CVE-2015-7703",
      "Description": "The \"pidfile\" or \"driftfile\" directives in NTP ntpd 4.2.x before 4.2.8p4, and 4.3.x before 4.3.77, when ntpd is configured to allow remote configuration, allows remote attackers with an IP address that is allowed to send configuration requests, and with knowledge of the remote configuration password to write to arbitrary files via the :config command.",
      "Threats": [
        {
          "Type": "Impact",
          "Severity": "moderate"
        }
      ],
      "References": [
        {
          "URL": "https://www.suse.com/security/cve/CVE-2015-7703.html",
          "Description": "CVE-2015-7703"
        },
        {
          "URL": "https://bugzilla.suse.com/1010964",
          "Description": "SUSE Bug 1010964"
        },
        {
          "URL": "https://bugzilla.suse.com/943216",
          "Description": "SUSE Bug 943216"
        },
        {
          "URL": "https://bugzilla.suse.com/943218",
          "Description": "SUSE Bug 943218"
        },
        {
          "URL": "https://bugzilla.suse.com/943219",
          "Description": "SUSE Bug 943219"
        },
        {
          "URL": "https://bugzilla.suse.com/943221",
          "Description": "SUSE Bug 943221"
        },
        {
          "URL": "https://bugzilla.suse.com/951608",
          "Description": "SUSE Bug 951608"
        },
        {
          "URL": "https://bugzilla.suse.com/959243",
          "Description": "SUSE Bug 959243"
        }
      ],
      "ProductStatuses": [
        {
          "Type": "Fixed",
          "ProductID": [
            "openSUSE Tumbleweed:ntp-4.2.8p9-1.1",
            "openSUSE Tumbleweed:ntp-doc-4.2.8p9-1.1"
          ]
        }
      ],
      "CVSSScoreSets": {}
    },
    {
      "CVE": "CVE-2015-7704",
      "Description": "The ntpd client in NTP 4.x before 4.2.8p4 and 4.3.x before 4.3.77 allows remote attackers to cause a denial of service via a number of crafted \"KOD\" messages.",
      "Threats": [
        {
          "Type": "Impact",
          "Severity": "important"
        }
      ],
      "References": [
        {
          "URL": "https://www.suse.com/security/cve/CVE-2015-7704.html",
          "Description": "CVE-2015-7704"
        },
        {
          "URL": "https://bugzilla.suse.com/1010964",
          "Description": "SUSE Bug 1010964"
        },
        {
          "URL": "https://bugzilla.suse.com/951608",
          "Description": "SUSE Bug 951608"
        },
        {
          "URL": "https://bugzilla.suse.com/952611",
          "Description": "SUSE Bug 952611"
        },
        {
          "URL": "https://bugzilla.suse.com/959243",
          "Description": "SUSE Bug 959243"
        },
        {
          "URL": "https://bugzilla.suse.com/977446",
          "Description": "SUSE Bug 977446"
        }
      ],
      "ProductStatuses": [
        {
          "Type": "Fixed",
          "ProductID": [
            "openSUSE Tumbleweed:ntp-4.2.8p9-1.1",
            "openSUSE Tumbleweed:ntp-doc-4.2.8p9-1.1"
          ]
        }
      ],
      "CVSSScoreSets": {}
    },
    {
      "CVE": "CVE-2015-7705",
      "Description": "The rate limiting feature in NTP 4.x before 4.2.8p4 and 4.3.x before 4.3.77 allows remote attackers to have unspecified impact via a large number of crafted requests.",
      "Threats": [
        {
          "Type": "Impact",
          "Severity": "critical"
        }
      ],
      "References": [
        {
          "URL": "https://www.suse.com/security/cve/CVE-2015-7705.html",
          "Description": "CVE-2015-7705"
        },
        {
          "URL": "https://bugzilla.suse.com/1010964",
          "Description": "SUSE Bug 1010964"
        },
        {
          "URL": "https://bugzilla.suse.com/951608",
          "Description": "SUSE Bug 951608"
        },
        {
          "URL": "https://bugzilla.suse.com/952611",
          "Description": "SUSE Bug 952611"
        },
        {
          "URL": "https://bugzilla.suse.com/959243",
          "Description": "SUSE Bug 959243"
        }
      ],
      "ProductStatuses": [
        {
          "Type": "Fixed",
          "ProductID": [
            "openSUSE Tumbleweed:ntp-4.2.8p9-1.1",
            "openSUSE Tumbleweed:ntp-doc-4.2.8p9-1.1"
          ]
        }
      ],
      "CVSSScoreSets": {}
    },
    {
      "CVE": "CVE-2015-7848",
      "Description": "An integer overflow can occur in NTP-dev.4.3.70 leading to an out-of-bounds memory copy operation when processing a specially crafted private mode packet. The crafted packet needs to have the correct message authentication code and a valid timestamp. When processed by the NTP daemon, it leads to an immediate crash.",
      "Threats": [
        {
          "Type": "Impact",
          "Severity": "moderate"
        }
      ],
      "References": [
        {
          "URL": "https://www.suse.com/security/cve/CVE-2015-7848.html",
          "Description": "CVE-2015-7848"
        },
        {
          "URL": "https://bugzilla.suse.com/1010964",
          "Description": "SUSE Bug 1010964"
        },
        {
          "URL": "https://bugzilla.suse.com/951608",
          "Description": "SUSE Bug 951608"
        },
        {
          "URL": "https://bugzilla.suse.com/959243",
          "Description": "SUSE Bug 959243"
        },
        {
          "URL": "https://bugzilla.suse.com/992991",
          "Description": "SUSE Bug 992991"
        }
      ],
      "ProductStatuses": [
        {
          "Type": "Fixed",
          "ProductID": [
            "openSUSE Tumbleweed:ntp-4.2.8p9-1.1",
            "openSUSE Tumbleweed:ntp-doc-4.2.8p9-1.1"
          ]
        }
      ],
      "CVSSScoreSets": {}
    },
    {
      "CVE": "CVE-2015-7849",
      "Description": "Use-after-free vulnerability in ntpd in NTP 4.2.x before 4.2.8p4, and 4.3.x before 4.3.77 allows remote authenticated users to possibly execute arbitrary code or cause a denial of service (crash) via crafted packets.",
      "Threats": [
        {
          "Type": "Impact",
          "Severity": "important"
        }
      ],
      "References": [
        {
          "URL": "https://www.suse.com/security/cve/CVE-2015-7849.html",
          "Description": "CVE-2015-7849"
        },
        {
          "URL": "https://bugzilla.suse.com/1010964",
          "Description": "SUSE Bug 1010964"
        },
        {
          "URL": "https://bugzilla.suse.com/951608",
          "Description": "SUSE Bug 951608"
        },
        {
          "URL": "https://bugzilla.suse.com/959243",
          "Description": "SUSE Bug 959243"
        },
        {
          "URL": "https://bugzilla.suse.com/992991",
          "Description": "SUSE Bug 992991"
        }
      ],
      "ProductStatuses": [
        {
          "Type": "Fixed",
          "ProductID": [
            "openSUSE Tumbleweed:ntp-4.2.8p9-1.1",
            "openSUSE Tumbleweed:ntp-doc-4.2.8p9-1.1"
          ]
        }
      ],
      "CVSSScoreSets": {}
    },
    {
      "CVE": "CVE-2015-7850",
      "Description": "ntpd in NTP 4.2.x before 4.2.8p4, and 4.3.x before 4.3.77 allows remote authenticated users to cause a denial of service (infinite loop or crash) by pointing the key file at the log file.",
      "Threats": [
        {
          "Type": "Impact",
          "Severity": "moderate"
        }
      ],
      "References": [
        {
          "URL": "https://www.suse.com/security/cve/CVE-2015-7850.html",
          "Description": "CVE-2015-7850"
        },
        {
          "URL": "https://bugzilla.suse.com/1010964",
          "Description": "SUSE Bug 1010964"
        },
        {
          "URL": "https://bugzilla.suse.com/951608",
          "Description": "SUSE Bug 951608"
        },
        {
          "URL": "https://bugzilla.suse.com/959243",
          "Description": "SUSE Bug 959243"
        },
        {
          "URL": "https://bugzilla.suse.com/992991",
          "Description": "SUSE Bug 992991"
        }
      ],
      "ProductStatuses": [
        {
          "Type": "Fixed",
          "ProductID": [
            "openSUSE Tumbleweed:ntp-4.2.8p9-1.1",
            "openSUSE Tumbleweed:ntp-doc-4.2.8p9-1.1"
          ]
        }
      ],
      "CVSSScoreSets": {}
    },
    {
      "CVE": "CVE-2015-7851",
      "Description": "Directory traversal vulnerability in the save_config function in ntpd in ntp_control.c in NTP before 4.2.8p4, when used on systems that do not use '\\' or '/' characters for directory separation such as OpenVMS, allows remote authenticated users to overwrite arbitrary files.",
      "Threats": [
        {
          "Type": "Impact",
          "Severity": "moderate"
        }
      ],
      "References": [
        {
          "URL": "https://www.suse.com/security/cve/CVE-2015-7851.html",
          "Description": "CVE-2015-7851"
        },
        {
          "URL": "https://bugzilla.suse.com/1010964",
          "Description": "SUSE Bug 1010964"
        },
        {
          "URL": "https://bugzilla.suse.com/951608",
          "Description": "SUSE Bug 951608"
        },
        {
          "URL": "https://bugzilla.suse.com/959243",
          "Description": "SUSE Bug 959243"
        }
      ],
      "ProductStatuses": [
        {
          "Type": "Fixed",
          "ProductID": [
            "openSUSE Tumbleweed:ntp-4.2.8p9-1.1",
            "openSUSE Tumbleweed:ntp-doc-4.2.8p9-1.1"
          ]
        }
      ],
      "CVSSScoreSets": {}
    },
    {
      "CVE": "CVE-2015-7852",
      "Description": "ntpq in NTP 4.2.x before 4.2.8p4, and 4.3.x before 4.3.77 allows remote attackers to cause a denial of service (crash) via crafted mode 6 response packets.",
      "Threats": [
        {
          "Type": "Impact",
          "Severity": "moderate"
        }
      ],
      "References": [
        {
          "URL": "https://www.suse.com/security/cve/CVE-2015-7852.html",
          "Description": "CVE-2015-7852"
        },
        {
          "URL": "https://bugzilla.suse.com/1010964",
          "Description": "SUSE Bug 1010964"
        },
        {
          "URL": "https://bugzilla.suse.com/951608",
          "Description": "SUSE Bug 951608"
        },
        {
          "URL": "https://bugzilla.suse.com/959243",
          "Description": "SUSE Bug 959243"
        },
        {
          "URL": "https://bugzilla.suse.com/992991",
          "Description": "SUSE Bug 992991"
        }
      ],
      "ProductStatuses": [
        {
          "Type": "Fixed",
          "ProductID": [
            "openSUSE Tumbleweed:ntp-4.2.8p9-1.1",
            "openSUSE Tumbleweed:ntp-doc-4.2.8p9-1.1"
          ]
        }
      ],
      "CVSSScoreSets": {}
    },
    {
      "CVE": "CVE-2015-7853",
      "Description": "The datalen parameter in the refclock driver in NTP 4.2.x before 4.2.8p4, and 4.3.x before 4.3.77 allows remote attackers to execute arbitrary code or cause a denial of service (crash) via a negative input value.",
      "Threats": [
        {
          "Type": "Impact",
          "Severity": "critical"
        }
      ],
      "References": [
        {
          "URL": "https://www.suse.com/security/cve/CVE-2015-7853.html",
          "Description": "CVE-2015-7853"
        },
        {
          "URL": "https://bugzilla.suse.com/1010964",
          "Description": "SUSE Bug 1010964"
        },
        {
          "URL": "https://bugzilla.suse.com/951608",
          "Description": "SUSE Bug 951608"
        },
        {
          "URL": "https://bugzilla.suse.com/959243",
          "Description": "SUSE Bug 959243"
        },
        {
          "URL": "https://bugzilla.suse.com/992991",
          "Description": "SUSE Bug 992991"
        }
      ],
      "ProductStatuses": [
        {
          "Type": "Fixed",
          "ProductID": [
            "openSUSE Tumbleweed:ntp-4.2.8p9-1.1",
            "openSUSE Tumbleweed:ntp-doc-4.2.8p9-1.1"
          ]
        }
      ],
      "CVSSScoreSets": {}
    },
    {
      "CVE": "CVE-2015-7854",
      "Description": "Buffer overflow in the password management functionality in NTP 4.2.x before 4.2.8p4, and 4.3.x before 4.3.77 allows remote authenticated users to cause a denial of service (daemon crash) or possibly execute arbitrary code via a crafted key file.",
      "Threats": [
        {
          "Type": "Impact",
          "Severity": "important"
        }
      ],
      "References": [
        {
          "URL": "https://www.suse.com/security/cve/CVE-2015-7854.html",
          "Description": "CVE-2015-7854"
        },
        {
          "URL": "https://bugzilla.suse.com/1010964",
          "Description": "SUSE Bug 1010964"
        },
        {
          "URL": "https://bugzilla.suse.com/951608",
          "Description": "SUSE Bug 951608"
        },
        {
          "URL": "https://bugzilla.suse.com/959243",
          "Description": "SUSE Bug 959243"
        },
        {
          "URL": "https://bugzilla.suse.com/992991",
          "Description": "SUSE Bug 992991"
        }
      ],
      "ProductStatuses": [
        {
          "Type": "Fixed",
          "ProductID": [
            "openSUSE Tumbleweed:ntp-4.2.8p9-1.1",
            "openSUSE Tumbleweed:ntp-doc-4.2.8p9-1.1"
          ]
        }
      ],
      "CVSSScoreSets": {}
    },
    {
      "CVE": "CVE-2015-7855",
      "Description": "The decodenetnum function in ntpd in NTP 4.2.x before 4.2.8p4, and 4.3.x before 4.3.77 allows remote attackers to cause a denial of service (assertion failure) via a 6 or mode 7 packet containing a long data value.",
      "Threats": [
        {
          "Type": "Impact",
          "Severity": "moderate"
        }
      ],
      "References": [
        {
          "URL": "https://www.suse.com/security/cve/CVE-2015-7855.html",
          "Description": "CVE-2015-7855"
        },
        {
          "URL": "https://bugzilla.suse.com/1010964",
          "Description": "SUSE Bug 1010964"
        },
        {
          "URL": "https://bugzilla.suse.com/951608",
          "Description": "SUSE Bug 951608"
        },
        {
          "URL": "https://bugzilla.suse.com/959243",
          "Description": "SUSE Bug 959243"
        },
        {
          "URL": "https://bugzilla.suse.com/992991",
          "Description": "SUSE Bug 992991"
        }
      ],
      "ProductStatuses": [
        {
          "Type": "Fixed",
          "ProductID": [
            "openSUSE Tumbleweed:ntp-4.2.8p9-1.1",
            "openSUSE Tumbleweed:ntp-doc-4.2.8p9-1.1"
          ]
        }
      ],
      "CVSSScoreSets": {}
    },
    {
      "CVE": "CVE-2015-7871",
      "Description": "Crypto-NAK packets in ntpd in NTP 4.2.x before 4.2.8p4, and 4.3.x before 4.3.77 allows remote attackers to bypass authentication.",
      "Threats": [
        {
          "Type": "Impact",
          "Severity": "critical"
        }
      ],
      "References": [
        {
          "URL": "https://www.suse.com/security/cve/CVE-2015-7871.html",
          "Description": "CVE-2015-7871"
        },
        {
          "URL": "https://bugzilla.suse.com/1010964",
          "Description": "SUSE Bug 1010964"
        },
        {
          "URL": "https://bugzilla.suse.com/951608",
          "Description": "SUSE Bug 951608"
        },
        {
          "URL": "https://bugzilla.suse.com/952606",
          "Description": "SUSE Bug 952606"
        },
        {
          "URL": "https://bugzilla.suse.com/959243",
          "Description": "SUSE Bug 959243"
        }
      ],
      "ProductStatuses": [
        {
          "Type": "Fixed",
          "ProductID": [
            "openSUSE Tumbleweed:ntp-4.2.8p9-1.1",
            "openSUSE Tumbleweed:ntp-doc-4.2.8p9-1.1"
          ]
        }
      ],
      "CVSSScoreSets": {}
    },
    {
      "CVE": "CVE-2015-7973",
      "Description": "NTP before 4.2.8p6 and 4.3.x before 4.3.90, when configured in broadcast mode, allows man-in-the-middle attackers to conduct replay attacks by sniffing the network.",
      "Threats": [
        {
          "Type": "Impact",
          "Severity": "moderate"
        }
      ],
      "References": [
        {
          "URL": "https://www.suse.com/security/cve/CVE-2015-7973.html",
          "Description": "CVE-2015-7973"
        },
        {
          "URL": "https://bugzilla.suse.com/959243",
          "Description": "SUSE Bug 959243"
        },
        {
          "URL": "https://bugzilla.suse.com/962995",
          "Description": "SUSE Bug 962995"
        }
      ],
      "ProductStatuses": [
        {
          "Type": "Fixed",
          "ProductID": [
            "openSUSE Tumbleweed:ntp-4.2.8p9-1.1",
            "openSUSE Tumbleweed:ntp-doc-4.2.8p9-1.1"
          ]
        }
      ],
      "CVSSScoreSets": {
        "BaseScore": "4.3",
        "Vector": "AV:A/AC:M/Au:N/C:N/I:P/A:P"
      }
    },
    {
      "CVE": "CVE-2015-7974",
      "Description": "NTP 4.x before 4.2.8p6 and 4.3.x before 4.3.90 do not verify peer associations of symmetric keys when authenticating packets, which might allow remote attackers to conduct impersonation attacks via an arbitrary trusted key, aka a \"skeleton key.\"",
      "Threats": [
        {
          "Type": "Impact",
          "Severity": "low"
        }
      ],
      "References": [
        {
          "URL": "https://www.suse.com/security/cve/CVE-2015-7974.html",
          "Description": "CVE-2015-7974"
        },
        {
          "URL": "https://bugzilla.suse.com/959243",
          "Description": "SUSE Bug 959243"
        },
        {
          "URL": "https://bugzilla.suse.com/962960",
          "Description": "SUSE Bug 962960"
        },
        {
          "URL": "https://bugzilla.suse.com/962995",
          "Description": "SUSE Bug 962995"
        }
      ],
      "ProductStatuses": [
        {
          "Type": "Fixed",
          "ProductID": [
            "openSUSE Tumbleweed:ntp-4.2.8p9-1.1",
            "openSUSE Tumbleweed:ntp-doc-4.2.8p9-1.1"
          ]
        }
      ],
      "CVSSScoreSets": {
        "BaseScore": "2.1",
        "Vector": "AV:N/AC:H/Au:S/C:N/I:P/A:N"
      }
    },
    {
      "CVE": "CVE-2015-7975",
      "Description": "The nextvar function in NTP before 4.2.8p6 and 4.3.x before 4.3.90 does not properly validate the length of its input, which allows an attacker to cause a denial of service (application crash).",
      "Threats": [
        {
          "Type": "Impact",
          "Severity": "low"
        }
      ],
      "References": [
        {
          "URL": "https://www.suse.com/security/cve/CVE-2015-7975.html",
          "Description": "CVE-2015-7975"
        },
        {
          "URL": "https://bugzilla.suse.com/959243",
          "Description": "SUSE Bug 959243"
        },
        {
          "URL": "https://bugzilla.suse.com/962988",
          "Description": "SUSE Bug 962988"
        },
        {
          "URL": "https://bugzilla.suse.com/962995",
          "Description": "SUSE Bug 962995"
        }
      ],
      "ProductStatuses": [
        {
          "Type": "Fixed",
          "ProductID": [
            "openSUSE Tumbleweed:ntp-4.2.8p9-1.1",
            "openSUSE Tumbleweed:ntp-doc-4.2.8p9-1.1"
          ]
        }
      ],
      "CVSSScoreSets": {
        "BaseScore": "4",
        "Vector": "AV:L/AC:H/Au:N/C:N/I:N/A:C"
      }
    },
    {
      "CVE": "CVE-2015-7976",
      "Description": "The ntpq saveconfig command in NTP 4.1.2, 4.2.x before 4.2.8p6, 4.3, 4.3.25, 4.3.70, and 4.3.77 does not properly filter special characters, which allows attackers to cause unspecified impact via a crafted filename.",
      "Threats": [
        {
          "Type": "Impact",
          "Severity": "low"
        }
      ],
      "References": [
        {
          "URL": "https://www.suse.com/security/cve/CVE-2015-7976.html",
          "Description": "CVE-2015-7976"
        },
        {
          "URL": "https://bugzilla.suse.com/962802",
          "Description": "SUSE Bug 962802"
        },
        {
          "URL": "https://bugzilla.suse.com/962995",
          "Description": "SUSE Bug 962995"
        }
      ],
      "ProductStatuses": [
        {
          "Type": "Fixed",
          "ProductID": [
            "openSUSE Tumbleweed:ntp-4.2.8p9-1.1",
            "openSUSE Tumbleweed:ntp-doc-4.2.8p9-1.1"
          ]
        }
      ],
      "CVSSScoreSets": {
        "BaseScore": "4",
        "Vector": "AV:N/AC:L/Au:S/C:N/I:P/A:N"
      }
    },
    {
      "CVE": "CVE-2015-7977",
      "Description": "ntpd in NTP before 4.2.8p6 and 4.3.x before 4.3.90 allows remote attackers to cause a denial of service (NULL pointer dereference) via a ntpdc reslist command.",
      "Threats": [
        {
          "Type": "Impact",
          "Severity": "moderate"
        }
      ],
      "References": [
        {
          "URL": "https://www.suse.com/security/cve/CVE-2015-7977.html",
          "Description": "CVE-2015-7977"
        },
        {
          "URL": "https://bugzilla.suse.com/959243",
          "Description": "SUSE Bug 959243"
        },
        {
          "URL": "https://bugzilla.suse.com/962970",
          "Description": "SUSE Bug 962970"
        },
        {
          "URL": "https://bugzilla.suse.com/962995",
          "Description": "SUSE Bug 962995"
        }
      ],
      "ProductStatuses": [
        {
          "Type": "Fixed",
          "ProductID": [
            "openSUSE Tumbleweed:ntp-4.2.8p9-1.1",
            "openSUSE Tumbleweed:ntp-doc-4.2.8p9-1.1"
          ]
        }
      ],
      "CVSSScoreSets": {
        "BaseScore": "4.3",
        "Vector": "AV:N/AC:M/Au:N/C:N/I:N/A:P"
      }
    },
    {
      "CVE": "CVE-2015-7978",
      "Description": "NTP before 4.2.8p6 and 4.3.0 before 4.3.90 allows a remote attackers to cause a denial of service (stack exhaustion) via an ntpdc relist command, which triggers recursive traversal of the restriction list.",
      "Threats": [
        {
          "Type": "Impact",
          "Severity": "moderate"
        }
      ],
      "References": [
        {
          "URL": "https://www.suse.com/security/cve/CVE-2015-7978.html",
          "Description": "CVE-2015-7978"
        },
        {
          "URL": "https://bugzilla.suse.com/959243",
          "Description": "SUSE Bug 959243"
        },
        {
          "URL": "https://bugzilla.suse.com/962970",
          "Description": "SUSE Bug 962970"
        },
        {
          "URL": "https://bugzilla.suse.com/962995",
          "Description": "SUSE Bug 962995"
        },
        {
          "URL": "https://bugzilla.suse.com/963000",
          "Description": "SUSE Bug 963000"
        }
      ],
      "ProductStatuses": [
        {
          "Type": "Fixed",
          "ProductID": [
            "openSUSE Tumbleweed:ntp-4.2.8p9-1.1",
            "openSUSE Tumbleweed:ntp-doc-4.2.8p9-1.1"
          ]
        }
      ],
      "CVSSScoreSets": {}
    },
    {
      "CVE": "CVE-2015-7979",
      "Description": "NTP before 4.2.8p6 and 4.3.x before 4.3.90 allows remote attackers to cause a denial of service (client-server association tear down) by sending broadcast packets with invalid authentication to a broadcast client.",
      "Threats": [
        {
          "Type": "Impact",
          "Severity": "moderate"
        }
      ],
      "References": [
        {
          "URL": "https://www.suse.com/security/cve/CVE-2015-7979.html",
          "Description": "CVE-2015-7979"
        },
        {
          "URL": "https://bugzilla.suse.com/959243",
          "Description": "SUSE Bug 959243"
        },
        {
          "URL": "https://bugzilla.suse.com/962784",
          "Description": "SUSE Bug 962784"
        },
        {
          "URL": "https://bugzilla.suse.com/962995",
          "Description": "SUSE Bug 962995"
        },
        {
          "URL": "https://bugzilla.suse.com/977459",
          "Description": "SUSE Bug 977459"
        },
        {
          "URL": "https://bugzilla.suse.com/982065",
          "Description": "SUSE Bug 982065"
        }
      ],
      "ProductStatuses": [
        {
          "Type": "Fixed",
          "ProductID": [
            "openSUSE Tumbleweed:ntp-4.2.8p9-1.1",
            "openSUSE Tumbleweed:ntp-doc-4.2.8p9-1.1"
          ]
        }
      ],
      "CVSSScoreSets": {
        "BaseScore": "5.8",
        "Vector": "AV:N/AC:M/Au:N/C:N/I:P/A:P"
      }
    },
    {
      "CVE": "CVE-2015-8138",
      "Description": "NTP before 4.2.8p6 and 4.3.x before 4.3.90 allows remote attackers to bypass the origin timestamp validation via a packet with an origin timestamp set to zero.",
      "Threats": [
        {
          "Type": "Impact",
          "Severity": "moderate"
        }
      ],
      "References": [
        {
          "URL": "https://www.suse.com/security/cve/CVE-2015-8138.html",
          "Description": "CVE-2015-8138"
        },
        {
          "URL": "https://bugzilla.suse.com/951608",
          "Description": "SUSE Bug 951608"
        },
        {
          "URL": "https://bugzilla.suse.com/959243",
          "Description": "SUSE Bug 959243"
        },
        {
          "URL": "https://bugzilla.suse.com/963002",
          "Description": "SUSE Bug 963002"
        },
        {
          "URL": "https://bugzilla.suse.com/974668",
          "Description": "SUSE Bug 974668"
        },
        {
          "URL": "https://bugzilla.suse.com/977446",
          "Description": "SUSE Bug 977446"
        }
      ],
      "ProductStatuses": [
        {
          "Type": "Fixed",
          "ProductID": [
            "openSUSE Tumbleweed:ntp-4.2.8p9-1.1",
            "openSUSE Tumbleweed:ntp-doc-4.2.8p9-1.1"
          ]
        }
      ],
      "CVSSScoreSets": {}
    },
    {
      "CVE": "CVE-2015-8158",
      "Description": "The getresponse function in ntpq in NTP versions before 4.2.8p9 and 4.3.x before 4.3.90 allows remote attackers to cause a denial of service (infinite loop) via crafted packets with incorrect values.",
      "Threats": [
        {
          "Type": "Impact",
          "Severity": "low"
        }
      ],
      "References": [
        {
          "URL": "https://www.suse.com/security/cve/CVE-2015-8158.html",
          "Description": "CVE-2015-8158"
        },
        {
          "URL": "https://bugzilla.suse.com/959243",
          "Description": "SUSE Bug 959243"
        },
        {
          "URL": "https://bugzilla.suse.com/962966",
          "Description": "SUSE Bug 962966"
        }
      ],
      "ProductStatuses": [
        {
          "Type": "Fixed",
          "ProductID": [
            "openSUSE Tumbleweed:ntp-4.2.8p9-1.1",
            "openSUSE Tumbleweed:ntp-doc-4.2.8p9-1.1"
          ]
        }
      ],
      "CVSSScoreSets": {
        "BaseScore": "4.3",
        "Vector": "AV:N/AC:M/Au:N/C:N/I:N/A:P"
      }
    },
    {
      "CVE": "CVE-2016-1547",
      "Description": "An off-path attacker can cause a preemptible client association to be demobilized in NTP 4.2.8p4 and earlier and NTPSec a5fb34b9cc89b92a8fef2f459004865c93bb7f92 by sending a crypto NAK packet to a victim client with a spoofed source address of an existing associated peer. This is true even if authentication is enabled.",
      "Threats": [
        {
          "Type": "Impact",
          "Severity": "moderate"
        }
      ],
      "References": [
        {
          "URL": "https://www.suse.com/security/cve/CVE-2016-1547.html",
          "Description": "CVE-2016-1547"
        },
        {
          "URL": "https://bugzilla.suse.com/962784",
          "Description": "SUSE Bug 962784"
        },
        {
          "URL": "https://bugzilla.suse.com/977446",
          "Description": "SUSE Bug 977446"
        },
        {
          "URL": "https://bugzilla.suse.com/977459",
          "Description": "SUSE Bug 977459"
        },
        {
          "URL": "https://bugzilla.suse.com/982064",
          "Description": "SUSE Bug 982064"
        },
        {
          "URL": "https://bugzilla.suse.com/982065",
          "Description": "SUSE Bug 982065"
        }
      ],
      "ProductStatuses": [
        {
          "Type": "Fixed",
          "ProductID": [
            "openSUSE Tumbleweed:ntp-4.2.8p9-1.1",
            "openSUSE Tumbleweed:ntp-doc-4.2.8p9-1.1"
          ]
        }
      ],
      "CVSSScoreSets": {
        "BaseScore": "4.3",
        "Vector": "AV:N/AC:M/Au:N/C:N/I:N/A:P"
      }
    },
    {
      "CVE": "CVE-2016-1548",
      "Description": "An attacker can spoof a packet from a legitimate ntpd server with an origin timestamp that matches the peer-\u003edst timestamp recorded for that server. After making this switch, the client in NTP 4.2.8p4 and earlier and NTPSec aa48d001683e5b791a743ec9c575aaf7d867a2b0c will reject all future legitimate server responses. It is possible to force the victim client to move time after the mode has been changed. ntpq gives no indication that the mode has been switched.",
      "Threats": [
        {
          "Type": "Impact",
          "Severity": "moderate"
        }
      ],
      "References": [
        {
          "URL": "https://www.suse.com/security/cve/CVE-2016-1548.html",
          "Description": "CVE-2016-1548"
        },
        {
          "URL": "https://bugzilla.suse.com/959243",
          "Description": "SUSE Bug 959243"
        },
        {
          "URL": "https://bugzilla.suse.com/977446",
          "Description": "SUSE Bug 977446"
        },
        {
          "URL": "https://bugzilla.suse.com/977461",
          "Description": "SUSE Bug 977461"
        },
        {
          "URL": "https://bugzilla.suse.com/982068",
          "Description": "SUSE Bug 982068"
        }
      ],
      "ProductStatuses": [
        {
          "Type": "Fixed",
          "ProductID": [
            "openSUSE Tumbleweed:ntp-4.2.8p9-1.1",
            "openSUSE Tumbleweed:ntp-doc-4.2.8p9-1.1"
          ]
        }
      ],
      "CVSSScoreSets": {
        "BaseScore": "6.4",
        "Vector": "AV:N/AC:L/Au:N/C:N/I:P/A:P"
      }
    },
    {
      "CVE": "CVE-2016-1549",
      "Description": "A malicious authenticated peer can create arbitrarily-many ephemeral associations in order to win the clock selection algorithm in ntpd in NTP 4.2.8p4 and earlier and NTPsec 3e160db8dc248a0bcb053b56a80167dc742d2b74 and a5fb34b9cc89b92a8fef2f459004865c93bb7f92 and modify a victim's clock.",
      "Threats": [
        {
          "Type": "Impact",
          "Severity": "low"
        }
      ],
      "References": [
        {
          "URL": "https://www.suse.com/security/cve/CVE-2016-1549.html",
          "Description": "CVE-2016-1549"
        },
        {
          "URL": "https://bugzilla.suse.com/1083424",
          "Description": "SUSE Bug 1083424"
        },
        {
          "URL": "https://bugzilla.suse.com/977446",
          "Description": "SUSE Bug 977446"
        },
        {
          "URL": "https://bugzilla.suse.com/977451",
          "Description": "SUSE Bug 977451"
        }
      ],
      "ProductStatuses": [
        {
          "Type": "Fixed",
          "ProductID": [
            "openSUSE Tumbleweed:ntp-4.2.8p9-1.1",
            "openSUSE Tumbleweed:ntp-doc-4.2.8p9-1.1"
          ]
        }
      ],
      "CVSSScoreSets": {
        "BaseScore": "3.5",
        "Vector": "AV:N/AC:M/Au:S/C:N/I:P/A:N"
      }
    },
    {
      "CVE": "CVE-2016-1550",
      "Description": "An exploitable vulnerability exists in the message authentication functionality of libntp in ntp 4.2.8p4 and NTPSec a5fb34b9cc89b92a8fef2f459004865c93bb7f92. An attacker can send a series of crafted messages to attempt to recover the message digest key.",
      "Threats": [
        {
          "Type": "Impact",
          "Severity": "low"
        }
      ],
      "References": [
        {
          "URL": "https://www.suse.com/security/cve/CVE-2016-1550.html",
          "Description": "CVE-2016-1550"
        },
        {
          "URL": "https://bugzilla.suse.com/977446",
          "Description": "SUSE Bug 977446"
        },
        {
          "URL": "https://bugzilla.suse.com/977464",
          "Description": "SUSE Bug 977464"
        }
      ],
      "ProductStatuses": [
        {
          "Type": "Fixed",
          "ProductID": [
            "openSUSE Tumbleweed:ntp-4.2.8p9-1.1",
            "openSUSE Tumbleweed:ntp-doc-4.2.8p9-1.1"
          ]
        }
      ],
      "CVSSScoreSets": {
        "BaseScore": "2.6",
        "Vector": "AV:L/AC:H/Au:N/C:P/I:P/A:N"
      }
    },
    {
      "CVE": "CVE-2016-1551",
      "Description": "ntpd in NTP 4.2.8p3 and NTPsec a5fb34b9cc89b92a8fef2f459004865c93bb7f92 relies on the underlying operating system to protect it from requests that impersonate reference clocks. Because reference clocks are treated like other peers and stored in the same structure, any packet with a source ip address of a reference clock (127.127.1.1 for example) that reaches the receive() function will match that reference clock's peer record and will be treated as a trusted peer. Any system that lacks the typical martian packet filtering which would block these packets is in danger of having its time controlled by an attacker.",
      "Threats": [
        {
          "Type": "Impact",
          "Severity": "low"
        }
      ],
      "References": [
        {
          "URL": "https://www.suse.com/security/cve/CVE-2016-1551.html",
          "Description": "CVE-2016-1551"
        },
        {
          "URL": "https://bugzilla.suse.com/977446",
          "Description": "SUSE Bug 977446"
        },
        {
          "URL": "https://bugzilla.suse.com/977450",
          "Description": "SUSE Bug 977450"
        }
      ],
      "ProductStatuses": [
        {
          "Type": "Fixed",
          "ProductID": [
            "openSUSE Tumbleweed:ntp-4.2.8p9-1.1",
            "openSUSE Tumbleweed:ntp-doc-4.2.8p9-1.1"
          ]
        }
      ],
      "CVSSScoreSets": {
        "BaseScore": "2.6",
        "Vector": "AV:N/AC:H/Au:N/C:N/I:P/A:N"
      }
    },
    {
      "CVE": "CVE-2016-2516",
      "Description": "NTP before 4.2.8p7 and 4.3.x before 4.3.92, when mode7 is enabled, allows remote attackers to cause a denial of service (ntpd abort) by using the same IP address multiple times in an unconfig directive.",
      "Threats": [
        {
          "Type": "Impact",
          "Severity": "moderate"
        }
      ],
      "References": [
        {
          "URL": "https://www.suse.com/security/cve/CVE-2016-2516.html",
          "Description": "CVE-2016-2516"
        },
        {
          "URL": "https://bugzilla.suse.com/977446",
          "Description": "SUSE Bug 977446"
        },
        {
          "URL": "https://bugzilla.suse.com/977452",
          "Description": "SUSE Bug 977452"
        }
      ],
      "ProductStatuses": [
        {
          "Type": "Fixed",
          "ProductID": [
            "openSUSE Tumbleweed:ntp-4.2.8p9-1.1",
            "openSUSE Tumbleweed:ntp-doc-4.2.8p9-1.1"
          ]
        }
      ],
      "CVSSScoreSets": {
        "BaseScore": "6.3",
        "Vector": "AV:N/AC:M/Au:S/C:N/I:N/A:C"
      }
    },
    {
      "CVE": "CVE-2016-2517",
      "Description": "NTP before 4.2.8p7 and 4.3.x before 4.3.92 allows remote attackers to cause a denial of service (prevent subsequent authentication) by leveraging knowledge of the controlkey or requestkey and sending a crafted packet to ntpd, which changes the value of trustedkey, controlkey, or requestkey.  NOTE: this vulnerability exists because of a CVE-2016-2516 regression.",
      "Threats": [
        {
          "Type": "Impact",
          "Severity": "moderate"
        }
      ],
      "References": [
        {
          "URL": "https://www.suse.com/security/cve/CVE-2016-2517.html",
          "Description": "CVE-2016-2517"
        },
        {
          "URL": "https://bugzilla.suse.com/977446",
          "Description": "SUSE Bug 977446"
        },
        {
          "URL": "https://bugzilla.suse.com/977455",
          "Description": "SUSE Bug 977455"
        }
      ],
      "ProductStatuses": [
        {
          "Type": "Fixed",
          "ProductID": [
            "openSUSE Tumbleweed:ntp-4.2.8p9-1.1",
            "openSUSE Tumbleweed:ntp-doc-4.2.8p9-1.1"
          ]
        }
      ],
      "CVSSScoreSets": {
        "BaseScore": "4.9",
        "Vector": "AV:N/AC:H/Au:S/C:N/I:N/A:C"
      }
    },
    {
      "CVE": "CVE-2016-2518",
      "Description": "The MATCH_ASSOC function in NTP before version 4.2.8p9 and 4.3.x before 4.3.92 allows remote attackers to cause an out-of-bounds reference via an addpeer request with a large hmode value.",
      "Threats": [
        {
          "Type": "Impact",
          "Severity": "low"
        }
      ],
      "References": [
        {
          "URL": "https://www.suse.com/security/cve/CVE-2016-2518.html",
          "Description": "CVE-2016-2518"
        },
        {
          "URL": "https://bugzilla.suse.com/977446",
          "Description": "SUSE Bug 977446"
        },
        {
          "URL": "https://bugzilla.suse.com/977457",
          "Description": "SUSE Bug 977457"
        }
      ],
      "ProductStatuses": [
        {
          "Type": "Fixed",
          "ProductID": [
            "openSUSE Tumbleweed:ntp-4.2.8p9-1.1",
            "openSUSE Tumbleweed:ntp-doc-4.2.8p9-1.1"
          ]
        }
      ],
      "CVSSScoreSets": {
        "BaseScore": "2.1",
        "Vector": "AV:N/AC:H/Au:S/C:N/I:N/A:P"
      }
    },
    {
      "CVE": "CVE-2016-2519",
      "Description": "ntpd in NTP before 4.2.8p7 and 4.3.x before 4.3.92 allows remote attackers to cause a denial of service (ntpd abort) by a large request data value, which triggers the ctl_getitem function to return a NULL value.",
      "Threats": [
        {
          "Type": "Impact",
          "Severity": "moderate"
        }
      ],
      "References": [
        {
          "URL": "https://www.suse.com/security/cve/CVE-2016-2519.html",
          "Description": "CVE-2016-2519"
        },
        {
          "URL": "https://bugzilla.suse.com/959243",
          "Description": "SUSE Bug 959243"
        },
        {
          "URL": "https://bugzilla.suse.com/977446",
          "Description": "SUSE Bug 977446"
        },
        {
          "URL": "https://bugzilla.suse.com/977458",
          "Description": "SUSE Bug 977458"
        }
      ],
      "ProductStatuses": [
        {
          "Type": "Fixed",
          "ProductID": [
            "openSUSE Tumbleweed:ntp-4.2.8p9-1.1",
            "openSUSE Tumbleweed:ntp-doc-4.2.8p9-1.1"
          ]
        }
      ],
      "CVSSScoreSets": {
        "BaseScore": "4.9",
        "Vector": "AV:N/AC:H/Au:S/C:N/I:N/A:C"
      }
    },
    {
      "CVE": "CVE-2016-4953",
      "Description": "ntpd in NTP 4.x before 4.2.8p8 allows remote attackers to cause a denial of service (ephemeral-association demobilization) by sending a spoofed crypto-NAK packet with incorrect authentication data at a certain time.",
      "Threats": [
        {
          "Type": "Impact",
          "Severity": "moderate"
        }
      ],
      "References": [
        {
          "URL": "https://www.suse.com/security/cve/CVE-2016-4953.html",
          "Description": "CVE-2016-4953"
        },
        {
          "URL": "https://bugzilla.suse.com/962784",
          "Description": "SUSE Bug 962784"
        },
        {
          "URL": "https://bugzilla.suse.com/977459",
          "Description": "SUSE Bug 977459"
        },
        {
          "URL": "https://bugzilla.suse.com/982056",
          "Description": "SUSE Bug 982056"
        },
        {
          "URL": "https://bugzilla.suse.com/982065",
          "Description": "SUSE Bug 982065"
        }
      ],
      "ProductStatuses": [
        {
          "Type": "Fixed",
          "ProductID": [
            "openSUSE Tumbleweed:ntp-4.2.8p9-1.1",
            "openSUSE Tumbleweed:ntp-doc-4.2.8p9-1.1"
          ]
        }
      ],
      "CVSSScoreSets": {
        "BaseScore": "2.6",
        "Vector": "AV:N/AC:H/Au:N/C:N/I:N/A:P"
      }
    },
    {
      "CVE": "CVE-2016-4954",
      "Description": "The process_packet function in ntp_proto.c in ntpd in NTP 4.x before 4.2.8p8 allows remote attackers to cause a denial of service (peer-variable modification) by sending spoofed packets from many source IP addresses in a certain scenario, as demonstrated by triggering an incorrect leap indication.",
      "Threats": [
        {
          "Type": "Impact",
          "Severity": "low"
        }
      ],
      "References": [
        {
          "URL": "https://www.suse.com/security/cve/CVE-2016-4954.html",
          "Description": "CVE-2016-4954"
        },
        {
          "URL": "https://bugzilla.suse.com/982056",
          "Description": "SUSE Bug 982056"
        },
        {
          "URL": "https://bugzilla.suse.com/982066",
          "Description": "SUSE Bug 982066"
        }
      ],
      "ProductStatuses": [
        {
          "Type": "Fixed",
          "ProductID": [
            "openSUSE Tumbleweed:ntp-4.2.8p9-1.1",
            "openSUSE Tumbleweed:ntp-doc-4.2.8p9-1.1"
          ]
        }
      ],
      "CVSSScoreSets": {
        "BaseScore": "2.6",
        "Vector": "AV:N/AC:H/Au:N/C:N/I:N/A:P"
      }
    },
    {
      "CVE": "CVE-2016-4955",
      "Description": "ntpd in NTP 4.x before 4.2.8p8, when autokey is enabled, allows remote attackers to cause a denial of service (peer-variable clearing and association outage) by sending (1) a spoofed crypto-NAK packet or (2) a packet with an incorrect MAC value at a certain time.",
      "Threats": [
        {
          "Type": "Impact",
          "Severity": "low"
        }
      ],
      "References": [
        {
          "URL": "https://www.suse.com/security/cve/CVE-2016-4955.html",
          "Description": "CVE-2016-4955"
        },
        {
          "URL": "https://bugzilla.suse.com/982056",
          "Description": "SUSE Bug 982056"
        },
        {
          "URL": "https://bugzilla.suse.com/982067",
          "Description": "SUSE Bug 982067"
        }
      ],
      "ProductStatuses": [
        {
          "Type": "Fixed",
          "ProductID": [
            "openSUSE Tumbleweed:ntp-4.2.8p9-1.1",
            "openSUSE Tumbleweed:ntp-doc-4.2.8p9-1.1"
          ]
        }
      ],
      "CVSSScoreSets": {
        "BaseScore": "2.6",
        "Vector": "AV:N/AC:H/Au:N/C:N/I:N/A:P"
      }
    },
    {
      "CVE": "CVE-2016-4956",
      "Description": "ntpd in NTP 4.x before 4.2.8p8 allows remote attackers to cause a denial of service (interleaved-mode transition and time change) via a spoofed broadcast packet.  NOTE: this vulnerability exists because of an incomplete fix for CVE-2016-1548.",
      "Threats": [
        {
          "Type": "Impact",
          "Severity": "low"
        }
      ],
      "References": [
        {
          "URL": "https://www.suse.com/security/cve/CVE-2016-4956.html",
          "Description": "CVE-2016-4956"
        },
        {
          "URL": "https://bugzilla.suse.com/977461",
          "Description": "SUSE Bug 977461"
        },
        {
          "URL": "https://bugzilla.suse.com/982056",
          "Description": "SUSE Bug 982056"
        },
        {
          "URL": "https://bugzilla.suse.com/982068",
          "Description": "SUSE Bug 982068"
        }
      ],
      "ProductStatuses": [
        {
          "Type": "Fixed",
          "ProductID": [
            "openSUSE Tumbleweed:ntp-4.2.8p9-1.1",
            "openSUSE Tumbleweed:ntp-doc-4.2.8p9-1.1"
          ]
        }
      ],
      "CVSSScoreSets": {
        "BaseScore": "2.6",
        "Vector": "AV:N/AC:H/Au:N/C:N/I:N/A:P"
      }
    },
    {
      "CVE": "CVE-2016-4957",
      "Description": "ntpd in NTP before 4.2.8p8 allows remote attackers to cause a denial of service (daemon crash) via a crypto-NAK packet.  NOTE: this vulnerability exists because of an incorrect fix for CVE-2016-1547.",
      "Threats": [
        {
          "Type": "Impact",
          "Severity": "moderate"
        }
      ],
      "References": [
        {
          "URL": "https://www.suse.com/security/cve/CVE-2016-4957.html",
          "Description": "CVE-2016-4957"
        },
        {
          "URL": "https://bugzilla.suse.com/977459",
          "Description": "SUSE Bug 977459"
        },
        {
          "URL": "https://bugzilla.suse.com/982056",
          "Description": "SUSE Bug 982056"
        },
        {
          "URL": "https://bugzilla.suse.com/982064",
          "Description": "SUSE Bug 982064"
        }
      ],
      "ProductStatuses": [
        {
          "Type": "Fixed",
          "ProductID": [
            "openSUSE Tumbleweed:ntp-4.2.8p9-1.1",
            "openSUSE Tumbleweed:ntp-doc-4.2.8p9-1.1"
          ]
        }
      ],
      "CVSSScoreSets": {
        "BaseScore": "5",
        "Vector": "AV:N/AC:L/Au:N/C:N/I:N/A:P"
      }
    },
    {
      "CVE": "CVE-2016-7426",
      "Description": "NTP before 4.2.8p9 rate limits responses received from the configured sources when rate limiting for all associations is enabled, which allows remote attackers to cause a denial of service (prevent responses from the sources) by sending responses with a spoofed source address.",
      "Threats": [
        {
          "Type": "Impact",
          "Severity": "moderate"
        }
      ],
      "References": [
        {
          "URL": "https://www.suse.com/security/cve/CVE-2016-7426.html",
          "Description": "CVE-2016-7426"
        },
        {
          "URL": "https://bugzilla.suse.com/1011406",
          "Description": "SUSE Bug 1011406"
        },
        {
          "URL": "https://bugzilla.suse.com/1011421",
          "Description": "SUSE Bug 1011421"
        },
        {
          "URL": "https://bugzilla.suse.com/1012330",
          "Description": "SUSE Bug 1012330"
        }
      ],
      "ProductStatuses": [
        {
          "Type": "Fixed",
          "ProductID": [
            "openSUSE Tumbleweed:ntp-4.2.8p9-1.1",
            "openSUSE Tumbleweed:ntp-doc-4.2.8p9-1.1"
          ]
        }
      ],
      "CVSSScoreSets": {
        "BaseScore": "1",
        "Vector": "AV:L/AC:H/Au:S/C:N/I:N/A:P"
      }
    },
    {
      "CVE": "CVE-2016-7427",
      "Description": "The broadcast mode replay prevention functionality in ntpd in NTP before 4.2.8p9 allows remote attackers to cause a denial of service (reject broadcast mode packets) via a crafted broadcast mode packet.",
      "Threats": [
        {
          "Type": "Impact",
          "Severity": "low"
        }
      ],
      "References": [
        {
          "URL": "https://www.suse.com/security/cve/CVE-2016-7427.html",
          "Description": "CVE-2016-7427"
        },
        {
          "URL": "https://bugzilla.suse.com/1011390",
          "Description": "SUSE Bug 1011390"
        },
        {
          "URL": "https://bugzilla.suse.com/1011421",
          "Description": "SUSE Bug 1011421"
        },
        {
          "URL": "https://bugzilla.suse.com/1012330",
          "Description": "SUSE Bug 1012330"
        }
      ],
      "ProductStatuses": [
        {
          "Type": "Fixed",
          "ProductID": [
            "openSUSE Tumbleweed:ntp-4.2.8p9-1.1",
            "openSUSE Tumbleweed:ntp-doc-4.2.8p9-1.1"
          ]
        }
      ],
      "CVSSScoreSets": {
        "BaseScore": "2.9",
        "Vector": "AV:A/AC:M/Au:N/C:N/I:N/A:P"
      }
    },
    {
      "CVE": "CVE-2016-7428",
      "Description": "ntpd in NTP before 4.2.8p9 allows remote attackers to cause a denial of service (reject broadcast mode packets) via the poll interval in a broadcast packet.",
      "Threats": [
        {
          "Type": "Impact",
          "Severity": "moderate"
        }
      ],
      "References": [
        {
          "URL": "https://www.suse.com/security/cve/CVE-2016-7428.html",
          "Description": "CVE-2016-7428"
        },
        {
          "URL": "https://bugzilla.suse.com/1011417",
          "Description": "SUSE Bug 1011417"
        },
        {
          "URL": "https://bugzilla.suse.com/1011421",
          "Description": "SUSE Bug 1011421"
        },
        {
          "URL": "https://bugzilla.suse.com/1012330",
          "Description": "SUSE Bug 1012330"
        }
      ],
      "ProductStatuses": [
        {
          "Type": "Fixed",
          "ProductID": [
            "openSUSE Tumbleweed:ntp-4.2.8p9-1.1",
            "openSUSE Tumbleweed:ntp-doc-4.2.8p9-1.1"
          ]
        }
      ],
      "CVSSScoreSets": {
        "BaseScore": "2.9",
        "Vector": "AV:A/AC:M/Au:N/C:N/I:N/A:P"
      }
    },
    {
      "CVE": "CVE-2016-7429",
      "Description": "NTP before 4.2.8p9 changes the peer structure to the interface it receives the response from a source, which allows remote attackers to cause a denial of service (prevent communication with a source) by sending a response for a source to an interface the source does not use.",
      "Threats": [
        {
          "Type": "Impact",
          "Severity": "low"
        }
      ],
      "References": [
        {
          "URL": "https://www.suse.com/security/cve/CVE-2016-7429.html",
          "Description": "CVE-2016-7429"
        },
        {
          "URL": "https://bugzilla.suse.com/1011404",
          "Description": "SUSE Bug 1011404"
        },
        {
          "URL": "https://bugzilla.suse.com/1011421",
          "Description": "SUSE Bug 1011421"
        },
        {
          "URL": "https://bugzilla.suse.com/1012330",
          "Description": "SUSE Bug 1012330"
        }
      ],
      "ProductStatuses": [
        {
          "Type": "Fixed",
          "ProductID": [
            "openSUSE Tumbleweed:ntp-4.2.8p9-1.1",
            "openSUSE Tumbleweed:ntp-doc-4.2.8p9-1.1"
          ]
        }
      ],
      "CVSSScoreSets": {
        "BaseScore": "1",
        "Vector": "AV:L/AC:H/Au:S/C:N/I:N/A:P"
      }
    },
    {
      "CVE": "CVE-2016-7431",
      "Description": "NTP before 4.2.8p9 allows remote attackers to bypass the origin timestamp protection mechanism via an origin timestamp of zero.  NOTE: this vulnerability exists because of a CVE-2015-8138 regression.",
      "Threats": [
        {
          "Type": "Impact",
          "Severity": "moderate"
        }
      ],
      "References": [
        {
          "URL": "https://www.suse.com/security/cve/CVE-2016-7431.html",
          "Description": "CVE-2016-7431"
        },
        {
          "URL": "https://bugzilla.suse.com/1011395",
          "Description": "SUSE Bug 1011395"
        },
        {
          "URL": "https://bugzilla.suse.com/1011421",
          "Description": "SUSE Bug 1011421"
        },
        {
          "URL": "https://bugzilla.suse.com/1012330",
          "Description": "SUSE Bug 1012330"
        }
      ],
      "ProductStatuses": [
        {
          "Type": "Fixed",
          "ProductID": [
            "openSUSE Tumbleweed:ntp-4.2.8p9-1.1",
            "openSUSE Tumbleweed:ntp-doc-4.2.8p9-1.1"
          ]
        }
      ],
      "CVSSScoreSets": {
        "BaseScore": "5",
        "Vector": "AV:N/AC:L/Au:N/C:N/I:P/A:N"
      }
    },
    {
      "CVE": "CVE-2016-7433",
      "Description": "NTP before 4.2.8p9 does not properly perform the initial sync calculations, which allows remote attackers to unspecified impact via unknown vectors, related to a \"root distance that did not include the peer dispersion.\"",
      "Threats": [
        {
          "Type": "Impact",
          "Severity": "low"
        }
      ],
      "References": [
        {
          "URL": "https://www.suse.com/security/cve/CVE-2016-7433.html",
          "Description": "CVE-2016-7433"
        },
        {
          "URL": "https://bugzilla.suse.com/1011411",
          "Description": "SUSE Bug 1011411"
        },
        {
          "URL": "https://bugzilla.suse.com/1011421",
          "Description": "SUSE Bug 1011421"
        },
        {
          "URL": "https://bugzilla.suse.com/1012330",
          "Description": "SUSE Bug 1012330"
        }
      ],
      "ProductStatuses": [
        {
          "Type": "Fixed",
          "ProductID": [
            "openSUSE Tumbleweed:ntp-4.2.8p9-1.1",
            "openSUSE Tumbleweed:ntp-doc-4.2.8p9-1.1"
          ]
        }
      ],
      "CVSSScoreSets": {
        "BaseScore": "1.2",
        "Vector": "AV:L/AC:H/Au:N/C:N/I:N/A:P"
      }
    },
    {
      "CVE": "CVE-2016-7434",
      "Description": "The read_mru_list function in NTP before 4.2.8p9 allows remote attackers to cause a denial of service (crash) via a crafted mrulist query.",
      "Threats": [
        {
          "Type": "Impact",
          "Severity": "moderate"
        }
      ],
      "References": [
        {
          "URL": "https://www.suse.com/security/cve/CVE-2016-7434.html",
          "Description": "CVE-2016-7434"
        },
        {
          "URL": "https://bugzilla.suse.com/1011398",
          "Description": "SUSE Bug 1011398"
        },
        {
          "URL": "https://bugzilla.suse.com/1011421",
          "Description": "SUSE Bug 1011421"
        },
        {
          "URL": "https://bugzilla.suse.com/1012330",
          "Description": "SUSE Bug 1012330"
        }
      ],
      "ProductStatuses": [
        {
          "Type": "Fixed",
          "ProductID": [
            "openSUSE Tumbleweed:ntp-4.2.8p9-1.1",
            "openSUSE Tumbleweed:ntp-doc-4.2.8p9-1.1"
          ]
        }
      ],
      "CVSSScoreSets": {
        "BaseScore": "3.8",
        "Vector": "AV:L/AC:H/Au:S/C:N/I:N/A:C"
      }
    },
    {
      "CVE": "CVE-2016-9310",
      "Description": "The control mode (mode 6) functionality in ntpd in NTP before 4.2.8p9 allows remote attackers to set or unset traps via a crafted control mode packet.",
      "Threats": [
        {
          "Type": "Impact",
          "Severity": "moderate"
        }
      ],
      "References": [
        {
          "URL": "https://www.suse.com/security/cve/CVE-2016-9310.html",
          "Description": "CVE-2016-9310"
        },
        {
          "URL": "https://bugzilla.suse.com/1011377",
          "Description": "SUSE Bug 1011377"
        },
        {
          "URL": "https://bugzilla.suse.com/1011421",
          "Description": "SUSE Bug 1011421"
        },
        {
          "URL": "https://bugzilla.suse.com/1012330",
          "Description": "SUSE Bug 1012330"
        }
      ],
      "ProductStatuses": [
        {
          "Type": "Fixed",
          "ProductID": [
            "openSUSE Tumbleweed:ntp-4.2.8p9-1.1",
            "openSUSE Tumbleweed:ntp-doc-4.2.8p9-1.1"
          ]
        }
      ],
      "CVSSScoreSets": {}
    },
    {
      "CVE": "CVE-2016-9311",
      "Description": "ntpd in NTP before 4.2.8p9, when the trap service is enabled, allows remote attackers to cause a denial of service (NULL pointer dereference and crash) via a crafted packet.",
      "Threats": [
        {
          "Type": "Impact",
          "Severity": "moderate"
        }
      ],
      "References": [
        {
          "URL": "https://www.suse.com/security/cve/CVE-2016-9311.html",
          "Description": "CVE-2016-9311"
        },
        {
          "URL": "https://bugzilla.suse.com/1011377",
          "Description": "SUSE Bug 1011377"
        },
        {
          "URL": "https://bugzilla.suse.com/1011421",
          "Description": "SUSE Bug 1011421"
        },
        {
          "URL": "https://bugzilla.suse.com/1012330",
          "Description": "SUSE Bug 1012330"
        }
      ],
      "ProductStatuses": [
        {
          "Type": "Fixed",
          "ProductID": [
            "openSUSE Tumbleweed:ntp-4.2.8p9-1.1",
            "openSUSE Tumbleweed:ntp-doc-4.2.8p9-1.1"
          ]
        }
      ],
      "CVSSScoreSets": {
        "BaseScore": "7.8",
        "Vector": "AV:N/AC:M/Au:N/C:P/I:N/A:C"
      }
    }
  ]
}