{
  "Title": "texlive-biolett-bst-2021.186.svn42217-45.2 on GA media",
  "Tracking": {
    "ID": "openSUSE-SU-2024:11436-1",
    "Status": "Final",
    "Version": "1",
    "InitialReleaseDate": "2024-06-22T21:44:56Z",
    "CurrentReleaseDate": "2024-06-22T21:44:56Z",
    "RevisionHistory": [
      {
        "Number": "1",
        "Date": "2024-06-22T21:44:56Z",
        "Description": "current"
      }
    ]
  },
  "Notes": [
    {
      "Text": "texlive-biolett-bst-2021.186.svn42217-45.2 on GA media",
      "Title": "Topic",
      "Type": "Summary"
    },
    {
      "Text": "These are all security issues fixed in the texlive-biolett-bst-2021.186.svn42217-45.2 package on the GA media of openSUSE Tumbleweed.",
      "Title": "Details",
      "Type": "General"
    },
    {
      "Text": "The CVRF data is provided by SUSE under the Creative Commons License 4.0 with Attribution (CC-BY-4.0).",
      "Title": "Terms of Use",
      "Type": "Legal Disclaimer"
    },
    {
      "Text": "openSUSE-Tumbleweed-2024-11436",
      "Title": "Patchnames",
      "Type": "Details"
    }
  ],
  "ProductTree": {
    "Relationships": [
      {
        "ProductReference": "texlive-biolett-bst-2021.186.svn42217-45.2",
        "RelatesToProductReference": "openSUSE Tumbleweed",
        "RelationType": "Default Component Of"
      },
      {
        "ProductReference": "texlive-biolett-bst-doc-2021.186.svn42217-45.2",
        "RelatesToProductReference": "openSUSE Tumbleweed",
        "RelationType": "Default Component Of"
      },
      {
        "ProductReference": "texlive-bitelist-2021.186.0.0.1svn25779-45.2",
        "RelatesToProductReference": "openSUSE Tumbleweed",
        "RelationType": "Default Component Of"
      },
      {
        "ProductReference": "texlive-bitelist-doc-2021.186.0.0.1svn25779-45.2",
        "RelatesToProductReference": "openSUSE Tumbleweed",
        "RelationType": "Default Component Of"
      },
      {
        "ProductReference": "texlive-bithesis-2021.186.1.0.1svn57388-45.2",
        "RelatesToProductReference": "openSUSE Tumbleweed",
        "RelationType": "Default Component Of"
      },
      {
        "ProductReference": "texlive-bithesis-doc-2021.186.1.0.1svn57388-45.2",
        "RelatesToProductReference": "openSUSE Tumbleweed",
        "RelationType": "Default Component Of"
      },
      {
        "ProductReference": "texlive-bitpattern-2021.186.svn39073-45.2",
        "RelatesToProductReference": "openSUSE Tumbleweed",
        "RelationType": "Default Component Of"
      },
      {
        "ProductReference": "texlive-bitpattern-doc-2021.186.svn39073-45.2",
        "RelatesToProductReference": "openSUSE Tumbleweed",
        "RelationType": "Default Component Of"
      },
      {
        "ProductReference": "texlive-bitset-2021.186.1.3svn53837-45.2",
        "RelatesToProductReference": "openSUSE Tumbleweed",
        "RelationType": "Default Component Of"
      },
      {
        "ProductReference": "texlive-bitset-doc-2021.186.1.3svn53837-45.2",
        "RelatesToProductReference": "openSUSE Tumbleweed",
        "RelationType": "Default Component Of"
      },
      {
        "ProductReference": "texlive-bitter-2021.186.svn56026-45.2",
        "RelatesToProductReference": "openSUSE Tumbleweed",
        "RelationType": "Default Component Of"
      },
      {
        "ProductReference": "texlive-bitter-doc-2021.186.svn56026-45.2",
        "RelatesToProductReference": "openSUSE Tumbleweed",
        "RelationType": "Default Component Of"
      },
      {
        "ProductReference": "texlive-bitter-fonts-2021.186.svn56026-45.2",
        "RelatesToProductReference": "openSUSE Tumbleweed",
        "RelationType": "Default Component Of"
      },
      {
        "ProductReference": "texlive-bizcard-2021.186.1.1svn15878-45.2",
        "RelatesToProductReference": "openSUSE Tumbleweed",
        "RelationType": "Default Component Of"
      },
      {
        "ProductReference": "texlive-bizcard-doc-2021.186.1.1svn15878-45.2",
        "RelatesToProductReference": "openSUSE Tumbleweed",
        "RelationType": "Default Component Of"
      },
      {
        "ProductReference": "texlive-blacklettert1-2021.186.svn15878-45.2",
        "RelatesToProductReference": "openSUSE Tumbleweed",
        "RelationType": "Default Component Of"
      },
      {
        "ProductReference": "texlive-blacklettert1-doc-2021.186.svn15878-45.2",
        "RelatesToProductReference": "openSUSE Tumbleweed",
        "RelationType": "Default Component Of"
      },
      {
        "ProductReference": "texlive-blindtext-2021.186.2.0svn25039-45.2",
        "RelatesToProductReference": "openSUSE Tumbleweed",
        "RelationType": "Default Component Of"
      },
      {
        "ProductReference": "texlive-blindtext-doc-2021.186.2.0svn25039-45.2",
        "RelatesToProductReference": "openSUSE Tumbleweed",
        "RelationType": "Default Component Of"
      },
      {
        "ProductReference": "texlive-blkarray-2021.186.0.0.07svn36406-45.2",
        "RelatesToProductReference": "openSUSE Tumbleweed",
        "RelationType": "Default Component Of"
      },
      {
        "ProductReference": "texlive-blkarray-doc-2021.186.0.0.07svn36406-45.2",
        "RelatesToProductReference": "openSUSE Tumbleweed",
        "RelationType": "Default Component Of"
      },
      {
        "ProductReference": "texlive-blochsphere-2021.186.1.1svn38388-45.2",
        "RelatesToProductReference": "openSUSE Tumbleweed",
        "RelationType": "Default Component Of"
      },
      {
        "ProductReference": "texlive-blochsphere-doc-2021.186.1.1svn38388-45.2",
        "RelatesToProductReference": "openSUSE Tumbleweed",
        "RelationType": "Default Component Of"
      },
      {
        "ProductReference": "texlive-block-2021.186.svn17209-45.2",
        "RelatesToProductReference": "openSUSE Tumbleweed",
        "RelationType": "Default Component Of"
      },
      {
        "ProductReference": "texlive-block-doc-2021.186.svn17209-45.2",
        "RelatesToProductReference": "openSUSE Tumbleweed",
        "RelationType": "Default Component Of"
      },
      {
        "ProductReference": "texlive-blockdraw_mp-2021.186.svn15878-45.2",
        "RelatesToProductReference": "openSUSE Tumbleweed",
        "RelationType": "Default Component Of"
      },
      {
        "ProductReference": "texlive-blockdraw_mp-doc-2021.186.svn15878-45.2",
        "RelatesToProductReference": "openSUSE Tumbleweed",
        "RelationType": "Default Component Of"
      },
      {
        "ProductReference": "texlive-bloques-2021.186.1.0svn22490-45.2",
        "RelatesToProductReference": "openSUSE Tumbleweed",
        "RelationType": "Default Component Of"
      },
      {
        "ProductReference": "texlive-bloques-doc-2021.186.1.0svn22490-45.2",
        "RelatesToProductReference": "openSUSE Tumbleweed",
        "RelationType": "Default Component Of"
      },
      {
        "ProductReference": "texlive-blowup-2021.186.1.0svn46213-45.2",
        "RelatesToProductReference": "openSUSE Tumbleweed",
        "RelationType": "Default Component Of"
      },
      {
        "ProductReference": "texlive-blowup-doc-2021.186.1.0svn46213-45.2",
        "RelatesToProductReference": "openSUSE Tumbleweed",
        "RelationType": "Default Component Of"
      },
      {
        "ProductReference": "texlive-blox-2021.186.2.51svn57949-45.2",
        "RelatesToProductReference": "openSUSE Tumbleweed",
        "RelationType": "Default Component Of"
      },
      {
        "ProductReference": "texlive-blox-doc-2021.186.2.51svn57949-45.2",
        "RelatesToProductReference": "openSUSE Tumbleweed",
        "RelationType": "Default Component Of"
      },
      {
        "ProductReference": "texlive-bnumexpr-2021.186.1.2dsvn49643-45.2",
        "RelatesToProductReference": "openSUSE Tumbleweed",
        "RelationType": "Default Component Of"
      },
      {
        "ProductReference": "texlive-bnumexpr-doc-2021.186.1.2dsvn49643-45.2",
        "RelatesToProductReference": "openSUSE Tumbleweed",
        "RelationType": "Default Component Of"
      },
      {
        "ProductReference": "texlive-bodegraph-2021.186.1.4svn20047-45.2",
        "RelatesToProductReference": "openSUSE Tumbleweed",
        "RelationType": "Default Component Of"
      },
      {
        "ProductReference": "texlive-bodegraph-doc-2021.186.1.4svn20047-45.2",
        "RelatesToProductReference": "openSUSE Tumbleweed",
        "RelationType": "Default Component Of"
      },
      {
        "ProductReference": "texlive-bohr-2021.186.1.0svn54512-45.2",
        "RelatesToProductReference": "openSUSE Tumbleweed",
        "RelationType": "Default Component Of"
      },
      {
        "ProductReference": "texlive-bohr-doc-2021.186.1.0svn54512-45.2",
        "RelatesToProductReference": "openSUSE Tumbleweed",
        "RelationType": "Default Component Of"
      },
      {
        "ProductReference": "texlive-boisik-2021.186.0.0.5svn15878-45.2",
        "RelatesToProductReference": "openSUSE Tumbleweed",
        "RelationType": "Default Component Of"
      },
      {
        "ProductReference": "texlive-boisik-doc-2021.186.0.0.5svn15878-45.2",
        "RelatesToProductReference": "openSUSE Tumbleweed",
        "RelationType": "Default Component Of"
      },
      {
        "ProductReference": "texlive-boites-2021.186.1.1svn32235-45.2",
        "RelatesToProductReference": "openSUSE Tumbleweed",
        "RelationType": "Default Component Of"
      },
      {
        "ProductReference": "texlive-boites-doc-2021.186.1.1svn32235-45.2",
        "RelatesToProductReference": "openSUSE Tumbleweed",
        "RelationType": "Default Component Of"
      },
      {
        "ProductReference": "texlive-bold-extra-2021.186.0.0.1svn17076-45.2",
        "RelatesToProductReference": "openSUSE Tumbleweed",
        "RelationType": "Default Component Of"
      },
      {
        "ProductReference": "texlive-bold-extra-doc-2021.186.0.0.1svn17076-45.2",
        "RelatesToProductReference": "openSUSE Tumbleweed",
        "RelationType": "Default Component Of"
      },
      {
        "ProductReference": "texlive-boldtensors-2021.186.svn15878-45.2",
        "RelatesToProductReference": "openSUSE Tumbleweed",
        "RelationType": "Default Component Of"
      },
      {
        "ProductReference": "texlive-boldtensors-doc-2021.186.svn15878-45.2",
        "RelatesToProductReference": "openSUSE Tumbleweed",
        "RelationType": "Default Component Of"
      },
      {
        "ProductReference": "texlive-bondgraph-2021.186.1.0svn21670-45.2",
        "RelatesToProductReference": "openSUSE Tumbleweed",
        "RelationType": "Default Component Of"
      },
      {
        "ProductReference": "texlive-bondgraph-doc-2021.186.1.0svn21670-45.2",
        "RelatesToProductReference": "openSUSE Tumbleweed",
        "RelationType": "Default Component Of"
      },
      {
        "ProductReference": "texlive-bondgraphs-2021.186.1.0.1svn36605-45.2",
        "RelatesToProductReference": "openSUSE Tumbleweed",
        "RelationType": "Default Component Of"
      },
      {
        "ProductReference": "texlive-bondgraphs-doc-2021.186.1.0.1svn36605-45.2",
        "RelatesToProductReference": "openSUSE Tumbleweed",
        "RelationType": "Default Component Of"
      },
      {
        "ProductReference": "texlive-bookcover-2021.186.3.3svn57326-45.2",
        "RelatesToProductReference": "openSUSE Tumbleweed",
        "RelationType": "Default Component Of"
      },
      {
        "ProductReference": "texlive-bookcover-doc-2021.186.3.3svn57326-45.2",
        "RelatesToProductReference": "openSUSE Tumbleweed",
        "RelationType": "Default Component Of"
      },
      {
        "ProductReference": "texlive-bookdb-2021.186.0.0.2svn37536-45.2",
        "RelatesToProductReference": "openSUSE Tumbleweed",
        "RelationType": "Default Component Of"
      },
      {
        "ProductReference": "texlive-bookdb-doc-2021.186.0.0.2svn37536-45.2",
        "RelatesToProductReference": "openSUSE Tumbleweed",
        "RelationType": "Default Component Of"
      },
      {
        "ProductReference": "texlive-bookest-2021.186.1.1svn15878-45.2",
        "RelatesToProductReference": "openSUSE Tumbleweed",
        "RelationType": "Default Component Of"
      },
      {
        "ProductReference": "texlive-bookest-doc-2021.186.1.1svn15878-45.2",
        "RelatesToProductReference": "openSUSE Tumbleweed",
        "RelationType": "Default Component Of"
      },
      {
        "ProductReference": "texlive-bookhands-2021.186.svn46480-45.2",
        "RelatesToProductReference": "openSUSE Tumbleweed",
        "RelationType": "Default Component Of"
      },
      {
        "ProductReference": "texlive-bookhands-doc-2021.186.svn46480-45.2",
        "RelatesToProductReference": "openSUSE Tumbleweed",
        "RelationType": "Default Component Of"
      },
      {
        "ProductReference": "texlive-bookhands-fonts-2021.186.svn46480-45.2",
        "RelatesToProductReference": "openSUSE Tumbleweed",
        "RelationType": "Default Component Of"
      },
      {
        "ProductReference": "texlive-booklet-2021.186.0.0.7bsvn15878-45.2",
        "RelatesToProductReference": "openSUSE Tumbleweed",
        "RelationType": "Default Component Of"
      },
      {
        "ProductReference": "texlive-booklet-doc-2021.186.0.0.7bsvn15878-45.2",
        "RelatesToProductReference": "openSUSE Tumbleweed",
        "RelationType": "Default Component Of"
      },
      {
        "ProductReference": "texlive-bookman-2021.186.svn31835-45.2",
        "RelatesToProductReference": "openSUSE Tumbleweed",
        "RelationType": "Default Component Of"
      },
      {
        "ProductReference": "texlive-bookman-fonts-2021.186.svn31835-45.2",
        "RelatesToProductReference": "openSUSE Tumbleweed",
        "RelationType": "Default Component Of"
      },
      {
        "ProductReference": "texlive-bookmark-2021.186.1.29svn56885-45.2",
        "RelatesToProductReference": "openSUSE Tumbleweed",
        "RelationType": "Default Component Of"
      },
      {
        "ProductReference": "texlive-bookmark-doc-2021.186.1.29svn56885-45.2",
        "RelatesToProductReference": "openSUSE Tumbleweed",
        "RelationType": "Default Component Of"
      },
      {
        "ProductReference": "texlive-bookshelf-2021.186.0.0.5svn55475-45.2",
        "RelatesToProductReference": "openSUSE Tumbleweed",
        "RelationType": "Default Component Of"
      },
      {
        "ProductReference": "texlive-bookshelf-doc-2021.186.0.0.5svn55475-45.2",
        "RelatesToProductReference": "openSUSE Tumbleweed",
        "RelationType": "Default Component Of"
      },
      {
        "ProductReference": "texlive-booktabs-2021.186.1.61803398svn53402-45.2",
        "RelatesToProductReference": "openSUSE Tumbleweed",
        "RelationType": "Default Component Of"
      },
      {
        "ProductReference": "texlive-booktabs-de-2021.186.1.61803svn21907-45.2",
        "RelatesToProductReference": "openSUSE Tumbleweed",
        "RelationType": "Default Component Of"
      },
      {
        "ProductReference": "texlive-booktabs-doc-2021.186.1.61803398svn53402-45.2",
        "RelatesToProductReference": "openSUSE Tumbleweed",
        "RelationType": "Default Component Of"
      },
      {
        "ProductReference": "texlive-booktabs-fr-2021.186.1.00svn21948-45.2",
        "RelatesToProductReference": "openSUSE Tumbleweed",
        "RelationType": "Default Component Of"
      },
      {
        "ProductReference": "texlive-boolexpr-2021.186.3.14svn17830-45.2",
        "RelatesToProductReference": "openSUSE Tumbleweed",
        "RelationType": "Default Component Of"
      },
      {
        "ProductReference": "texlive-boolexpr-doc-2021.186.3.14svn17830-45.2",
        "RelatesToProductReference": "openSUSE Tumbleweed",
        "RelationType": "Default Component Of"
      },
      {
        "ProductReference": "texlive-boondox-2021.186.1.02dsvn54512-45.2",
        "RelatesToProductReference": "openSUSE Tumbleweed",
        "RelationType": "Default Component Of"
      },
      {
        "ProductReference": "texlive-boondox-doc-2021.186.1.02dsvn54512-45.2",
        "RelatesToProductReference": "openSUSE Tumbleweed",
        "RelationType": "Default Component Of"
      },
      {
        "ProductReference": "texlive-boondox-fonts-2021.186.1.02dsvn54512-45.2",
        "RelatesToProductReference": "openSUSE Tumbleweed",
        "RelationType": "Default Component Of"
      },
      {
        "ProductReference": "texlive-bophook-2021.186.0.0.02svn17062-45.2",
        "RelatesToProductReference": "openSUSE Tumbleweed",
        "RelationType": "Default Component Of"
      },
      {
        "ProductReference": "texlive-bophook-doc-2021.186.0.0.02svn17062-45.2",
        "RelatesToProductReference": "openSUSE Tumbleweed",
        "RelationType": "Default Component Of"
      },
      {
        "ProductReference": "texlive-borceux-2021.186.svn21047-45.2",
        "RelatesToProductReference": "openSUSE Tumbleweed",
        "RelationType": "Default Component Of"
      },
      {
        "ProductReference": "texlive-borceux-doc-2021.186.svn21047-45.2",
        "RelatesToProductReference": "openSUSE Tumbleweed",
        "RelationType": "Default Component Of"
      },
      {
        "ProductReference": "texlive-bosisio-2021.186.svn16989-45.2",
        "RelatesToProductReference": "openSUSE Tumbleweed",
        "RelationType": "Default Component Of"
      },
      {
        "ProductReference": "texlive-bosisio-doc-2021.186.svn16989-45.2",
        "RelatesToProductReference": "openSUSE Tumbleweed",
        "RelationType": "Default Component Of"
      },
      {
        "ProductReference": "texlive-boxedminipage-2021.186.1.1svn54827-45.2",
        "RelatesToProductReference": "openSUSE Tumbleweed",
        "RelationType": "Default Component Of"
      },
      {
        "ProductReference": "texlive-boxedminipage-doc-2021.186.1.1svn54827-45.2",
        "RelatesToProductReference": "openSUSE Tumbleweed",
        "RelationType": "Default Component Of"
      },
      {
        "ProductReference": "texlive-boxhandler-2021.186.1.30svn28031-45.2",
        "RelatesToProductReference": "openSUSE Tumbleweed",
        "RelationType": "Default Component Of"
      },
      {
        "ProductReference": "texlive-boxhandler-doc-2021.186.1.30svn28031-45.2",
        "RelatesToProductReference": "openSUSE Tumbleweed",
        "RelationType": "Default Component Of"
      },
      {
        "ProductReference": "texlive-bpchem-2021.186.1.1svn45120-45.2",
        "RelatesToProductReference": "openSUSE Tumbleweed",
        "RelationType": "Default Component Of"
      },
      {
        "ProductReference": "texlive-bpchem-doc-2021.186.1.1svn45120-45.2",
        "RelatesToProductReference": "openSUSE Tumbleweed",
        "RelationType": "Default Component Of"
      },
      {
        "ProductReference": "texlive-bpolynomial-2021.186.0.0.5svn15878-45.2",
        "RelatesToProductReference": "openSUSE Tumbleweed",
        "RelationType": "Default Component Of"
      },
      {
        "ProductReference": "texlive-bpolynomial-doc-2021.186.0.0.5svn15878-45.2",
        "RelatesToProductReference": "openSUSE Tumbleweed",
        "RelationType": "Default Component Of"
      },
      {
        "ProductReference": "texlive-br-lex-2021.186.svn44939-45.2",
        "RelatesToProductReference": "openSUSE Tumbleweed",
        "RelationType": "Default Component Of"
      },
      {
        "ProductReference": "texlive-br-lex-doc-2021.186.svn44939-45.2",
        "RelatesToProductReference": "openSUSE Tumbleweed",
        "RelationType": "Default Component Of"
      },
      {
        "ProductReference": "texlive-bracketkey-2021.186.1.0svn17129-45.2",
        "RelatesToProductReference": "openSUSE Tumbleweed",
        "RelationType": "Default Component Of"
      },
      {
        "ProductReference": "texlive-bracketkey-doc-2021.186.1.0svn17129-45.2",
        "RelatesToProductReference": "openSUSE Tumbleweed",
        "RelationType": "Default Component Of"
      },
      {
        "ProductReference": "texlive-braids-2021.186.2.0svn54080-45.2",
        "RelatesToProductReference": "openSUSE Tumbleweed",
        "RelationType": "Default Component Of"
      },
      {
        "ProductReference": "texlive-braids-doc-2021.186.2.0svn54080-45.2",
        "RelatesToProductReference": "openSUSE Tumbleweed",
        "RelationType": "Default Component Of"
      },
      {
        "ProductReference": "texlive-braille-2021.186.svn20655-45.2",
        "RelatesToProductReference": "openSUSE Tumbleweed",
        "RelationType": "Default Component Of"
      },
      {
        "ProductReference": "texlive-braille-doc-2021.186.svn20655-45.2",
        "RelatesToProductReference": "openSUSE Tumbleweed",
        "RelationType": "Default Component Of"
      },
      {
        "ProductReference": "texlive-braket-2021.186.svn17127-45.2",
        "RelatesToProductReference": "openSUSE Tumbleweed",
        "RelationType": "Default Component Of"
      },
      {
        "ProductReference": "texlive-braket-doc-2021.186.svn17127-45.2",
        "RelatesToProductReference": "openSUSE Tumbleweed",
        "RelationType": "Default Component Of"
      },
      {
        "ProductReference": "texlive-brandeis-dissertation-2021.186.3.11svn54758-45.2",
        "RelatesToProductReference": "openSUSE Tumbleweed",
        "RelationType": "Default Component Of"
      },
      {
        "ProductReference": "texlive-brandeis-dissertation-doc-2021.186.3.11svn54758-45.2",
        "RelatesToProductReference": "openSUSE Tumbleweed",
        "RelationType": "Default Component Of"
      },
      {
        "ProductReference": "texlive-brandeis-problemset-2021.186.0.0.5.5svn50991-45.2",
        "RelatesToProductReference": "openSUSE Tumbleweed",
        "RelationType": "Default Component Of"
      },
      {
        "ProductReference": "texlive-brandeis-problemset-doc-2021.186.0.0.5.5svn50991-45.2",
        "RelatesToProductReference": "openSUSE Tumbleweed",
        "RelationType": "Default Component Of"
      },
      {
        "ProductReference": "texlive-brandeis-thesis-2021.186.3.1svn54758-45.2",
        "RelatesToProductReference": "openSUSE Tumbleweed",
        "RelationType": "Default Component Of"
      },
      {
        "ProductReference": "texlive-brandeis-thesis-doc-2021.186.3.1svn54758-45.2",
        "RelatesToProductReference": "openSUSE Tumbleweed",
        "RelationType": "Default Component Of"
      },
      {
        "ProductReference": "texlive-breakcites-2021.186.svn21014-45.2",
        "RelatesToProductReference": "openSUSE Tumbleweed",
        "RelationType": "Default Component Of"
      },
      {
        "ProductReference": "texlive-breakcites-doc-2021.186.svn21014-45.2",
        "RelatesToProductReference": "openSUSE Tumbleweed",
        "RelationType": "Default Component Of"
      },
      {
        "ProductReference": "texlive-breakurl-2021.186.1.40svn29901-45.2",
        "RelatesToProductReference": "openSUSE Tumbleweed",
        "RelationType": "Default Component Of"
      },
      {
        "ProductReference": "texlive-breakurl-doc-2021.186.1.40svn29901-45.2",
        "RelatesToProductReference": "openSUSE Tumbleweed",
        "RelationType": "Default Component Of"
      },
      {
        "ProductReference": "texlive-bredzenie-2021.186.1.0svn44371-45.2",
        "RelatesToProductReference": "openSUSE Tumbleweed",
        "RelationType": "Default Component Of"
      },
      {
        "ProductReference": "texlive-bredzenie-doc-2021.186.1.0svn44371-45.2",
        "RelatesToProductReference": "openSUSE Tumbleweed",
        "RelationType": "Default Component Of"
      },
      {
        "ProductReference": "texlive-breqn-2021.186.0.0.98ksvn56422-45.2",
        "RelatesToProductReference": "openSUSE Tumbleweed",
        "RelationType": "Default Component Of"
      },
      {
        "ProductReference": "texlive-breqn-doc-2021.186.0.0.98ksvn56422-45.2",
        "RelatesToProductReference": "openSUSE Tumbleweed",
        "RelationType": "Default Component Of"
      },
      {
        "ProductReference": "texlive-bropd-2021.186.1.2svn35383-45.2",
        "RelatesToProductReference": "openSUSE Tumbleweed",
        "RelationType": "Default Component Of"
      },
      {
        "ProductReference": "texlive-bropd-doc-2021.186.1.2svn35383-45.2",
        "RelatesToProductReference": "openSUSE Tumbleweed",
        "RelationType": "Default Component Of"
      },
      {
        "ProductReference": "texlive-brushscr-2021.186.svn28363-45.2",
        "RelatesToProductReference": "openSUSE Tumbleweed",
        "RelationType": "Default Component Of"
      },
      {
        "ProductReference": "texlive-brushscr-doc-2021.186.svn28363-45.2",
        "RelatesToProductReference": "openSUSE Tumbleweed",
        "RelationType": "Default Component Of"
      },
      {
        "ProductReference": "texlive-brushscr-fonts-2021.186.svn28363-45.2",
        "RelatesToProductReference": "openSUSE Tumbleweed",
        "RelationType": "Default Component Of"
      },
      {
        "ProductReference": "texlive-bubblesort-2021.186.1.0svn56070-45.2",
        "RelatesToProductReference": "openSUSE Tumbleweed",
        "RelationType": "Default Component Of"
      },
      {
        "ProductReference": "texlive-bubblesort-doc-2021.186.1.0svn56070-45.2",
        "RelatesToProductReference": "openSUSE Tumbleweed",
        "RelationType": "Default Component Of"
      },
      {
        "ProductReference": "texlive-bullcntr-2021.186.0.0.04svn15878-45.2",
        "RelatesToProductReference": "openSUSE Tumbleweed",
        "RelationType": "Default Component Of"
      },
      {
        "ProductReference": "texlive-bullcntr-doc-2021.186.0.0.04svn15878-45.2",
        "RelatesToProductReference": "openSUSE Tumbleweed",
        "RelationType": "Default Component Of"
      },
      {
        "ProductReference": "texlive-bundledoc-2021.186.3.4svn55064-45.2",
        "RelatesToProductReference": "openSUSE Tumbleweed",
        "RelationType": "Default Component Of"
      },
      {
        "ProductReference": "texlive-bundledoc-doc-2021.186.3.4svn55064-45.2",
        "RelatesToProductReference": "openSUSE Tumbleweed",
        "RelationType": "Default Component Of"
      },
      {
        "ProductReference": "texlive-burmese-2021.186.svn25185-45.2",
        "RelatesToProductReference": "openSUSE Tumbleweed",
        "RelationType": "Default Component Of"
      },
      {
        "ProductReference": "texlive-burmese-doc-2021.186.svn25185-45.2",
        "RelatesToProductReference": "openSUSE Tumbleweed",
        "RelationType": "Default Component Of"
      },
      {
        "ProductReference": "texlive-burmese-fonts-2021.186.svn25185-45.2",
        "RelatesToProductReference": "openSUSE Tumbleweed",
        "RelationType": "Default Component Of"
      },
      {
        "ProductReference": "texlive-businesscard-qrcode-2021.186.1.2svn54080-45.2",
        "RelatesToProductReference": "openSUSE Tumbleweed",
        "RelationType": "Default Component Of"
      },
      {
        "ProductReference": "texlive-businesscard-qrcode-doc-2021.186.1.2svn54080-45.2",
        "RelatesToProductReference": "openSUSE Tumbleweed",
        "RelationType": "Default Component Of"
      },
      {
        "ProductReference": "texlive-bussproofs-2021.186.1.1svn54080-45.2",
        "RelatesToProductReference": "openSUSE Tumbleweed",
        "RelationType": "Default Component Of"
      },
      {
        "ProductReference": "texlive-bussproofs-doc-2021.186.1.1svn54080-45.2",
        "RelatesToProductReference": "openSUSE Tumbleweed",
        "RelationType": "Default Component Of"
      },
      {
        "ProductReference": "texlive-bussproofs-extra-2021.186.0.0.4svn51299-45.2",
        "RelatesToProductReference": "openSUSE Tumbleweed",
        "RelationType": "Default Component Of"
      },
      {
        "ProductReference": "texlive-bussproofs-extra-doc-2021.186.0.0.4svn51299-45.2",
        "RelatesToProductReference": "openSUSE Tumbleweed",
        "RelationType": "Default Component Of"
      },
      {
        "ProductReference": "texlive-bxbase-2021.186.1.2svn56528-45.2",
        "RelatesToProductReference": "openSUSE Tumbleweed",
        "RelationType": "Default Component Of"
      },
      {
        "ProductReference": "texlive-bxbase-doc-2021.186.1.2svn56528-45.2",
        "RelatesToProductReference": "openSUSE Tumbleweed",
        "RelationType": "Default Component Of"
      },
      {
        "ProductReference": "texlive-bxcalc-2021.186.1.1svn56431-45.2",
        "RelatesToProductReference": "openSUSE Tumbleweed",
        "RelationType": "Default Component Of"
      },
      {
        "ProductReference": "texlive-bxcalc-doc-2021.186.1.1svn56431-45.2",
        "RelatesToProductReference": "openSUSE Tumbleweed",
        "RelationType": "Default Component Of"
      },
      {
        "ProductReference": "texlive-bxcjkjatype-2021.186.0.0.3svn54080-45.2",
        "RelatesToProductReference": "openSUSE Tumbleweed",
        "RelationType": "Default Component Of"
      },
      {
        "ProductReference": "texlive-bxcjkjatype-doc-2021.186.0.0.3svn54080-45.2",
        "RelatesToProductReference": "openSUSE Tumbleweed",
        "RelationType": "Default Component Of"
      },
      {
        "ProductReference": "texlive-bxdpx-beamer-2021.186.0.0.3svn41813-45.2",
        "RelatesToProductReference": "openSUSE Tumbleweed",
        "RelationType": "Default Component Of"
      },
      {
        "ProductReference": "texlive-bxdpx-beamer-doc-2021.186.0.0.3svn41813-45.2",
        "RelatesToProductReference": "openSUSE Tumbleweed",
        "RelationType": "Default Component Of"
      },
      {
        "ProductReference": "texlive-bxdvidriver-2021.186.0.0.2asvn43219-45.2",
        "RelatesToProductReference": "openSUSE Tumbleweed",
        "RelationType": "Default Component Of"
      },
      {
        "ProductReference": "texlive-bxdvidriver-doc-2021.186.0.0.2asvn43219-45.2",
        "RelatesToProductReference": "openSUSE Tumbleweed",
        "RelationType": "Default Component Of"
      },
      {
        "ProductReference": "texlive-bxeepic-2021.186.0.0.2svn30559-45.2",
        "RelatesToProductReference": "openSUSE Tumbleweed",
        "RelationType": "Default Component Of"
      },
      {
        "ProductReference": "texlive-bxeepic-doc-2021.186.0.0.2svn30559-45.2",
        "RelatesToProductReference": "openSUSE Tumbleweed",
        "RelationType": "Default Component Of"
      },
      {
        "ProductReference": "texlive-bxenclose-2021.186.0.0.2svn40213-45.2",
        "RelatesToProductReference": "openSUSE Tumbleweed",
        "RelationType": "Default Component Of"
      },
      {
        "ProductReference": "texlive-bxenclose-doc-2021.186.0.0.2svn40213-45.2",
        "RelatesToProductReference": "openSUSE Tumbleweed",
        "RelationType": "Default Component Of"
      },
      {
        "ProductReference": "texlive-bxghost-2021.186.0.0.3.0svn53606-45.2",
        "RelatesToProductReference": "openSUSE Tumbleweed",
        "RelationType": "Default Component Of"
      },
      {
        "ProductReference": "texlive-bxghost-doc-2021.186.0.0.3.0svn53606-45.2",
        "RelatesToProductReference": "openSUSE Tumbleweed",
        "RelationType": "Default Component Of"
      },
      {
        "ProductReference": "texlive-bxjaholiday-2021.186.1.1.0svn57025-45.2",
        "RelatesToProductReference": "openSUSE Tumbleweed",
        "RelationType": "Default Component Of"
      },
      {
        "ProductReference": "texlive-bxjaholiday-doc-2021.186.1.1.0svn57025-45.2",
        "RelatesToProductReference": "openSUSE Tumbleweed",
        "RelationType": "Default Component Of"
      },
      {
        "ProductReference": "texlive-bxjalipsum-2021.186.0.0.3asvn43369-45.2",
        "RelatesToProductReference": "openSUSE Tumbleweed",
        "RelationType": "Default Component Of"
      },
      {
        "ProductReference": "texlive-bxjalipsum-doc-2021.186.0.0.3asvn43369-45.2",
        "RelatesToProductReference": "openSUSE Tumbleweed",
        "RelationType": "Default Component Of"
      },
      {
        "ProductReference": "texlive-bxjaprnind-2021.186.0.0.3bsvn45291-45.2",
        "RelatesToProductReference": "openSUSE Tumbleweed",
        "RelationType": "Default Component Of"
      },
      {
        "ProductReference": "texlive-bxjaprnind-doc-2021.186.0.0.3bsvn45291-45.2",
        "RelatesToProductReference": "openSUSE Tumbleweed",
        "RelationType": "Default Component Of"
      },
      {
        "ProductReference": "texlive-bxjatoucs-2021.186.0.0.2svn52509-45.2",
        "RelatesToProductReference": "openSUSE Tumbleweed",
        "RelationType": "Default Component Of"
      },
      {
        "ProductReference": "texlive-bxjatoucs-doc-2021.186.0.0.2svn52509-45.2",
        "RelatesToProductReference": "openSUSE Tumbleweed",
        "RelationType": "Default Component Of"
      },
      {
        "ProductReference": "texlive-bxjscls-2021.186.2.5svn57625-45.2",
        "RelatesToProductReference": "openSUSE Tumbleweed",
        "RelationType": "Default Component Of"
      },
      {
        "ProductReference": "texlive-bxjscls-doc-2021.186.2.5svn57625-45.2",
        "RelatesToProductReference": "openSUSE Tumbleweed",
        "RelationType": "Default Component Of"
      },
      {
        "ProductReference": "texlive-bxnewfont-2021.186.0.0.2bsvn44173-45.2",
        "RelatesToProductReference": "openSUSE Tumbleweed",
        "RelationType": "Default Component Of"
      },
      {
        "ProductReference": "texlive-bxnewfont-doc-2021.186.0.0.2bsvn44173-45.2",
        "RelatesToProductReference": "openSUSE Tumbleweed",
        "RelationType": "Default Component Of"
      },
      {
        "ProductReference": "texlive-bxorigcapt-2021.186.0.0.3svn48606-45.2",
        "RelatesToProductReference": "openSUSE Tumbleweed",
        "RelationType": "Default Component Of"
      },
      {
        "ProductReference": "texlive-bxorigcapt-doc-2021.186.0.0.3svn48606-45.2",
        "RelatesToProductReference": "openSUSE Tumbleweed",
        "RelationType": "Default Component Of"
      },
      {
        "ProductReference": "texlive-bxpapersize-2021.186.0.0.5svn56491-45.2",
        "RelatesToProductReference": "openSUSE Tumbleweed",
        "RelationType": "Default Component Of"
      },
      {
        "ProductReference": "texlive-bxpapersize-doc-2021.186.0.0.5svn56491-45.2",
        "RelatesToProductReference": "openSUSE Tumbleweed",
        "RelationType": "Default Component Of"
      },
      {
        "ProductReference": "texlive-bxpdfver-2021.186.0.0.5asvn57755-45.2",
        "RelatesToProductReference": "openSUSE Tumbleweed",
        "RelationType": "Default Component Of"
      },
      {
        "ProductReference": "texlive-bxpdfver-doc-2021.186.0.0.5asvn57755-45.2",
        "RelatesToProductReference": "openSUSE Tumbleweed",
        "RelationType": "Default Component Of"
      },
      {
        "ProductReference": "texlive-bxtexlogo-2021.186.0.0.4svn47230-45.2",
        "RelatesToProductReference": "openSUSE Tumbleweed",
        "RelationType": "Default Component Of"
      },
      {
        "ProductReference": "texlive-bxtexlogo-doc-2021.186.0.0.4svn47230-45.2",
        "RelatesToProductReference": "openSUSE Tumbleweed",
        "RelationType": "Default Component Of"
      },
      {
        "ProductReference": "texlive-bxwareki-2021.186.0.0.6svn51286-45.2",
        "RelatesToProductReference": "openSUSE Tumbleweed",
        "RelationType": "Default Component Of"
      },
      {
        "ProductReference": "texlive-bxwareki-doc-2021.186.0.0.6svn51286-45.2",
        "RelatesToProductReference": "openSUSE Tumbleweed",
        "RelationType": "Default Component Of"
      },
      {
        "ProductReference": "texlive-bytefield-2021.186.2.6svn56821-45.2",
        "RelatesToProductReference": "openSUSE Tumbleweed",
        "RelationType": "Default Component Of"
      },
      {
        "ProductReference": "texlive-bytefield-doc-2021.186.2.6svn56821-45.2",
        "RelatesToProductReference": "openSUSE Tumbleweed",
        "RelationType": "Default Component Of"
      },
      {
        "ProductReference": "texlive-c-pascal-2021.186.1.2svn18337-45.2",
        "RelatesToProductReference": "openSUSE Tumbleweed",
        "RelationType": "Default Component Of"
      },
      {
        "ProductReference": "texlive-c-pascal-doc-2021.186.1.2svn18337-45.2",
        "RelatesToProductReference": "openSUSE Tumbleweed",
        "RelationType": "Default Component Of"
      },
      {
        "ProductReference": "texlive-c90-2021.186.svn54074-45.2",
        "RelatesToProductReference": "openSUSE Tumbleweed",
        "RelationType": "Default Component Of"
      },
      {
        "ProductReference": "texlive-c90-doc-2021.186.svn54074-45.2",
        "RelatesToProductReference": "openSUSE Tumbleweed",
        "RelationType": "Default Component Of"
      },
      {
        "ProductReference": "texlive-cabin-2021.186.svn55907-45.2",
        "RelatesToProductReference": "openSUSE Tumbleweed",
        "RelationType": "Default Component Of"
      },
      {
        "ProductReference": "texlive-cabin-doc-2021.186.svn55907-45.2",
        "RelatesToProductReference": "openSUSE Tumbleweed",
        "RelationType": "Default Component Of"
      },
      {
        "ProductReference": "texlive-cabin-fonts-2021.186.svn55907-45.2",
        "RelatesToProductReference": "openSUSE Tumbleweed",
        "RelationType": "Default Component Of"
      },
      {
        "ProductReference": "texlive-cachepic-2021.186.1.0svn26313-45.2",
        "RelatesToProductReference": "openSUSE Tumbleweed",
        "RelationType": "Default Component Of"
      },
      {
        "ProductReference": "texlive-cachepic-doc-2021.186.1.0svn26313-45.2",
        "RelatesToProductReference": "openSUSE Tumbleweed",
        "RelationType": "Default Component Of"
      },
      {
        "ProductReference": "texlive-caladea-2021.186.svn34991-45.2",
        "RelatesToProductReference": "openSUSE Tumbleweed",
        "RelationType": "Default Component Of"
      },
      {
        "ProductReference": "texlive-caladea-doc-2021.186.svn34991-45.2",
        "RelatesToProductReference": "openSUSE Tumbleweed",
        "RelationType": "Default Component Of"
      },
      {
        "ProductReference": "texlive-caladea-fonts-2021.186.svn34991-45.2",
        "RelatesToProductReference": "openSUSE Tumbleweed",
        "RelationType": "Default Component Of"
      },
      {
        "ProductReference": "texlive-calcage-2021.186.0.0.90svn27725-45.2",
        "RelatesToProductReference": "openSUSE Tumbleweed",
        "RelationType": "Default Component Of"
      },
      {
        "ProductReference": "texlive-calcage-doc-2021.186.0.0.90svn27725-45.2",
        "RelatesToProductReference": "openSUSE Tumbleweed",
        "RelationType": "Default Component Of"
      },
      {
        "ProductReference": "texlive-calctab-2021.186.0.0.6.1svn15878-45.2",
        "RelatesToProductReference": "openSUSE Tumbleweed",
        "RelationType": "Default Component Of"
      },
      {
        "ProductReference": "texlive-calctab-doc-2021.186.0.0.6.1svn15878-45.2",
        "RelatesToProductReference": "openSUSE Tumbleweed",
        "RelationType": "Default Component Of"
      },
      {
        "ProductReference": "texlive-calculation-2021.186.1.0svn35973-45.2",
        "RelatesToProductReference": "openSUSE Tumbleweed",
        "RelationType": "Default Component Of"
      },
      {
        "ProductReference": "texlive-calculation-doc-2021.186.1.0svn35973-45.2",
        "RelatesToProductReference": "openSUSE Tumbleweed",
        "RelationType": "Default Component Of"
      },
      {
        "ProductReference": "texlive-calculator-2021.186.2.0svn33041-45.2",
        "RelatesToProductReference": "openSUSE Tumbleweed",
        "RelationType": "Default Component Of"
      },
      {
        "ProductReference": "texlive-calculator-doc-2021.186.2.0svn33041-45.2",
        "RelatesToProductReference": "openSUSE Tumbleweed",
        "RelationType": "Default Component Of"
      },
      {
        "ProductReference": "texlive-calligra-2021.186.svn15878-45.2",
        "RelatesToProductReference": "openSUSE Tumbleweed",
        "RelationType": "Default Component Of"
      },
      {
        "ProductReference": "texlive-calligra-doc-2021.186.svn15878-45.2",
        "RelatesToProductReference": "openSUSE Tumbleweed",
        "RelationType": "Default Component Of"
      },
      {
        "ProductReference": "texlive-calligra-type1-2021.186.001.000svn24302-45.2",
        "RelatesToProductReference": "openSUSE Tumbleweed",
        "RelationType": "Default Component Of"
      },
      {
        "ProductReference": "texlive-calligra-type1-doc-2021.186.001.000svn24302-45.2",
        "RelatesToProductReference": "openSUSE Tumbleweed",
        "RelationType": "Default Component Of"
      },
      {
        "ProductReference": "texlive-calligra-type1-fonts-2021.186.001.000svn24302-45.2",
        "RelatesToProductReference": "openSUSE Tumbleweed",
        "RelationType": "Default Component Of"
      },
      {
        "ProductReference": "texlive-callouts-2021.186.svn44899-45.2",
        "RelatesToProductReference": "openSUSE Tumbleweed",
        "RelationType": "Default Component Of"
      },
      {
        "ProductReference": "texlive-callouts-doc-2021.186.svn44899-45.2",
        "RelatesToProductReference": "openSUSE Tumbleweed",
        "RelationType": "Default Component Of"
      },
      {
        "ProductReference": "texlive-calrsfs-2021.186.svn17125-45.2",
        "RelatesToProductReference": "openSUSE Tumbleweed",
        "RelationType": "Default Component Of"
      },
      {
        "ProductReference": "texlive-calrsfs-doc-2021.186.svn17125-45.2",
        "RelatesToProductReference": "openSUSE Tumbleweed",
        "RelationType": "Default Component Of"
      },
      {
        "ProductReference": "texlive-cals-2021.186.2.4.2svn43003-45.2",
        "RelatesToProductReference": "openSUSE Tumbleweed",
        "RelationType": "Default Component Of"
      },
      {
        "ProductReference": "texlive-cals-doc-2021.186.2.4.2svn43003-45.2",
        "RelatesToProductReference": "openSUSE Tumbleweed",
        "RelationType": "Default Component Of"
      },
      {
        "ProductReference": "texlive-calxxxx-yyyy-2021.186.20.21asvn57282-45.2",
        "RelatesToProductReference": "openSUSE Tumbleweed",
        "RelationType": "Default Component Of"
      },
      {
        "ProductReference": "texlive-calxxxx-yyyy-doc-2021.186.20.21asvn57282-45.2",
        "RelatesToProductReference": "openSUSE Tumbleweed",
        "RelationType": "Default Component Of"
      },
      {
        "ProductReference": "texlive-cancel-2021.186.2.2svn32508-45.2",
        "RelatesToProductReference": "openSUSE Tumbleweed",
        "RelationType": "Default Component Of"
      },
      {
        "ProductReference": "texlive-cancel-doc-2021.186.2.2svn32508-45.2",
        "RelatesToProductReference": "openSUSE Tumbleweed",
        "RelationType": "Default Component Of"
      },
      {
        "ProductReference": "texlive-canoniclayout-2021.186.0.0.5svn54758-45.2",
        "RelatesToProductReference": "openSUSE Tumbleweed",
        "RelationType": "Default Component Of"
      },
      {
        "ProductReference": "texlive-canoniclayout-doc-2021.186.0.0.5svn54758-45.2",
        "RelatesToProductReference": "openSUSE Tumbleweed",
        "RelationType": "Default Component Of"
      },
      {
        "ProductReference": "texlive-cantarell-2021.186.3.2svn54512-45.2",
        "RelatesToProductReference": "openSUSE Tumbleweed",
        "RelationType": "Default Component Of"
      },
      {
        "ProductReference": "texlive-cantarell-doc-2021.186.3.2svn54512-45.2",
        "RelatesToProductReference": "openSUSE Tumbleweed",
        "RelationType": "Default Component Of"
      },
      {
        "ProductReference": "texlive-cantarell-fonts-2021.186.3.2svn54512-45.2",
        "RelatesToProductReference": "openSUSE Tumbleweed",
        "RelationType": "Default Component Of"
      },
      {
        "ProductReference": "texlive-capt-of-2021.186.svn29803-45.2",
        "RelatesToProductReference": "openSUSE Tumbleweed",
        "RelationType": "Default Component Of"
      },
      {
        "ProductReference": "texlive-capt-of-doc-2021.186.svn29803-45.2",
        "RelatesToProductReference": "openSUSE Tumbleweed",
        "RelationType": "Default Component Of"
      },
      {
        "ProductReference": "texlive-captcont-2021.186.2.0svn15878-45.2",
        "RelatesToProductReference": "openSUSE Tumbleweed",
        "RelationType": "Default Component Of"
      },
      {
        "ProductReference": "texlive-captcont-doc-2021.186.2.0svn15878-45.2",
        "RelatesToProductReference": "openSUSE Tumbleweed",
        "RelationType": "Default Component Of"
      },
      {
        "ProductReference": "texlive-captdef-2021.186.svn17353-45.2",
        "RelatesToProductReference": "openSUSE Tumbleweed",
        "RelationType": "Default Component Of"
      },
      {
        "ProductReference": "texlive-captdef-doc-2021.186.svn17353-45.2",
        "RelatesToProductReference": "openSUSE Tumbleweed",
        "RelationType": "Default Component Of"
      },
      {
        "ProductReference": "texlive-caption-2021.186.svn56771-45.2",
        "RelatesToProductReference": "openSUSE Tumbleweed",
        "RelationType": "Default Component Of"
      },
      {
        "ProductReference": "texlive-caption-doc-2021.186.svn56771-45.2",
        "RelatesToProductReference": "openSUSE Tumbleweed",
        "RelationType": "Default Component Of"
      },
      {
        "ProductReference": "texlive-carbohydrates-2021.186.0.0.1svn39000-45.2",
        "RelatesToProductReference": "openSUSE Tumbleweed",
        "RelationType": "Default Component Of"
      },
      {
        "ProductReference": "texlive-carbohydrates-doc-2021.186.0.0.1svn39000-45.2",
        "RelatesToProductReference": "openSUSE Tumbleweed",
        "RelationType": "Default Component Of"
      },
      {
        "ProductReference": "texlive-carlisle-2021.186.svn56753-45.2",
        "RelatesToProductReference": "openSUSE Tumbleweed",
        "RelationType": "Default Component Of"
      },
      {
        "ProductReference": "texlive-carlisle-doc-2021.186.svn56753-45.2",
        "RelatesToProductReference": "openSUSE Tumbleweed",
        "RelationType": "Default Component Of"
      },
      {
        "ProductReference": "texlive-carlito-2021.186.svn35002-45.2",
        "RelatesToProductReference": "openSUSE Tumbleweed",
        "RelationType": "Default Component Of"
      },
      {
        "ProductReference": "texlive-carlito-doc-2021.186.svn35002-45.2",
        "RelatesToProductReference": "openSUSE Tumbleweed",
        "RelationType": "Default Component Of"
      },
      {
        "ProductReference": "texlive-carlito-fonts-2021.186.svn35002-45.2",
        "RelatesToProductReference": "openSUSE Tumbleweed",
        "RelationType": "Default Component Of"
      },
      {
        "ProductReference": "texlive-carolmin-ps-2021.186.svn15878-45.2",
        "RelatesToProductReference": "openSUSE Tumbleweed",
        "RelationType": "Default Component Of"
      },
      {
        "ProductReference": "texlive-carolmin-ps-doc-2021.186.svn15878-45.2",
        "RelatesToProductReference": "openSUSE Tumbleweed",
        "RelationType": "Default Component Of"
      },
      {
        "ProductReference": "texlive-carolmin-ps-fonts-2021.186.svn15878-45.2",
        "RelatesToProductReference": "openSUSE Tumbleweed",
        "RelationType": "Default Component Of"
      },
      {
        "ProductReference": "texlive-cascade-2021.186.1.1svn55759-45.2",
        "RelatesToProductReference": "openSUSE Tumbleweed",
        "RelationType": "Default Component Of"
      },
      {
        "ProductReference": "texlive-cascade-doc-2021.186.1.1svn55759-45.2",
        "RelatesToProductReference": "openSUSE Tumbleweed",
        "RelationType": "Default Component Of"
      },
      {
        "ProductReference": "texlive-cascadia-code-2021.186.0.0.0.1svn57478-45.2",
        "RelatesToProductReference": "openSUSE Tumbleweed",
        "RelationType": "Default Component Of"
      },
      {
        "ProductReference": "texlive-cascadia-code-doc-2021.186.0.0.0.1svn57478-45.2",
        "RelatesToProductReference": "openSUSE Tumbleweed",
        "RelationType": "Default Component Of"
      },
      {
        "ProductReference": "texlive-cascadia-code-fonts-2021.186.0.0.0.1svn57478-45.2",
        "RelatesToProductReference": "openSUSE Tumbleweed",
        "RelationType": "Default Component Of"
      },
      {
        "ProductReference": "texlive-cascadilla-2021.186.1.8.2svn25144-45.2",
        "RelatesToProductReference": "openSUSE Tumbleweed",
        "RelationType": "Default Component Of"
      },
      {
        "ProductReference": "texlive-cascadilla-doc-2021.186.1.8.2svn25144-45.2",
        "RelatesToProductReference": "openSUSE Tumbleweed",
        "RelationType": "Default Component Of"
      },
      {
        "ProductReference": "texlive-cases-2021.186.3.2svn54682-45.2",
        "RelatesToProductReference": "openSUSE Tumbleweed",
        "RelationType": "Default Component Of"
      },
      {
        "ProductReference": "texlive-cases-doc-2021.186.3.2svn54682-45.2",
        "RelatesToProductReference": "openSUSE Tumbleweed",
        "RelationType": "Default Component Of"
      },
      {
        "ProductReference": "texlive-casyl-2021.186.2.0svn15878-45.2",
        "RelatesToProductReference": "openSUSE Tumbleweed",
        "RelationType": "Default Component Of"
      },
      {
        "ProductReference": "texlive-casyl-doc-2021.186.2.0svn15878-45.2",
        "RelatesToProductReference": "openSUSE Tumbleweed",
        "RelationType": "Default Component Of"
      },
      {
        "ProductReference": "texlive-catchfile-2021.186.1.8svn53084-45.2",
        "RelatesToProductReference": "openSUSE Tumbleweed",
        "RelationType": "Default Component Of"
      },
      {
        "ProductReference": "texlive-catchfile-doc-2021.186.1.8svn53084-45.2",
        "RelatesToProductReference": "openSUSE Tumbleweed",
        "RelationType": "Default Component Of"
      },
      {
        "ProductReference": "texlive-catchfilebetweentags-2021.186.1.1svn21476-45.2",
        "RelatesToProductReference": "openSUSE Tumbleweed",
        "RelationType": "Default Component Of"
      },
      {
        "ProductReference": "texlive-catchfilebetweentags-doc-2021.186.1.1svn21476-45.2",
        "RelatesToProductReference": "openSUSE Tumbleweed",
        "RelationType": "Default Component Of"
      },
      {
        "ProductReference": "texlive-catcodes-2021.186.r0.2svn38859-45.2",
        "RelatesToProductReference": "openSUSE Tumbleweed",
        "RelationType": "Default Component Of"
      },
      {
        "ProductReference": "texlive-catcodes-doc-2021.186.r0.2svn38859-45.2",
        "RelatesToProductReference": "openSUSE Tumbleweed",
        "RelationType": "Default Component Of"
      },
      {
        "ProductReference": "texlive-catechis-2021.186.2.5svn49061-45.2",
        "RelatesToProductReference": "openSUSE Tumbleweed",
        "RelationType": "Default Component Of"
      },
      {
        "ProductReference": "texlive-catechis-doc-2021.186.2.5svn49061-45.2",
        "RelatesToProductReference": "openSUSE Tumbleweed",
        "RelationType": "Default Component Of"
      },
      {
        "ProductReference": "texlive-catoptions-2021.186.0.0.2.7hsvn35069-45.2",
        "RelatesToProductReference": "openSUSE Tumbleweed",
        "RelationType": "Default Component Of"
      },
      {
        "ProductReference": "texlive-catoptions-doc-2021.186.0.0.2.7hsvn35069-45.2",
        "RelatesToProductReference": "openSUSE Tumbleweed",
        "RelationType": "Default Component Of"
      },
      {
        "ProductReference": "texlive-causets-2021.186.1.1svn57139-45.2",
        "RelatesToProductReference": "openSUSE Tumbleweed",
        "RelationType": "Default Component Of"
      },
      {
        "ProductReference": "texlive-causets-doc-2021.186.1.1svn57139-45.2",
        "RelatesToProductReference": "openSUSE Tumbleweed",
        "RelationType": "Default Component Of"
      },
      {
        "ProductReference": "texlive-cbcoptic-2021.186.0.0.2svn16666-45.2",
        "RelatesToProductReference": "openSUSE Tumbleweed",
        "RelationType": "Default Component Of"
      },
      {
        "ProductReference": "texlive-cbcoptic-doc-2021.186.0.0.2svn16666-45.2",
        "RelatesToProductReference": "openSUSE Tumbleweed",
        "RelationType": "Default Component Of"
      },
      {
        "ProductReference": "texlive-cbcoptic-fonts-2021.186.0.0.2svn16666-45.2",
        "RelatesToProductReference": "openSUSE Tumbleweed",
        "RelationType": "Default Component Of"
      },
      {
        "ProductReference": "texlive-cbfonts-2021.186.svn54080-45.2",
        "RelatesToProductReference": "openSUSE Tumbleweed",
        "RelationType": "Default Component Of"
      },
      {
        "ProductReference": "texlive-cbfonts-doc-2021.186.svn54080-45.2",
        "RelatesToProductReference": "openSUSE Tumbleweed",
        "RelationType": "Default Component Of"
      },
      {
        "ProductReference": "texlive-cbfonts-fd-2021.186.1.2svn54080-45.2",
        "RelatesToProductReference": "openSUSE Tumbleweed",
        "RelationType": "Default Component Of"
      },
      {
        "ProductReference": "texlive-cbfonts-fd-doc-2021.186.1.2svn54080-45.2",
        "RelatesToProductReference": "openSUSE Tumbleweed",
        "RelationType": "Default Component Of"
      },
      {
        "ProductReference": "texlive-cbfonts-fonts-2021.186.svn54080-45.2",
        "RelatesToProductReference": "openSUSE Tumbleweed",
        "RelationType": "Default Component Of"
      },
      {
        "ProductReference": "texlive-cc-pl-2021.186.1.02.3svn58602-45.2",
        "RelatesToProductReference": "openSUSE Tumbleweed",
        "RelationType": "Default Component Of"
      },
      {
        "ProductReference": "texlive-cc-pl-doc-2021.186.1.02.3svn58602-45.2",
        "RelatesToProductReference": "openSUSE Tumbleweed",
        "RelationType": "Default Component Of"
      },
      {
        "ProductReference": "texlive-cc-pl-fonts-2021.186.1.02.3svn58602-45.2",
        "RelatesToProductReference": "openSUSE Tumbleweed",
        "RelationType": "Default Component Of"
      },
      {
        "ProductReference": "texlive-ccaption-2021.186.3.2csvn23443-45.2",
        "RelatesToProductReference": "openSUSE Tumbleweed",
        "RelationType": "Default Component Of"
      },
      {
        "ProductReference": "texlive-ccaption-doc-2021.186.3.2csvn23443-45.2",
        "RelatesToProductReference": "openSUSE Tumbleweed",
        "RelationType": "Default Component Of"
      },
      {
        "ProductReference": "texlive-ccfonts-2021.186.1.2svn54686-45.2",
        "RelatesToProductReference": "openSUSE Tumbleweed",
        "RelationType": "Default Component Of"
      },
      {
        "ProductReference": "texlive-ccfonts-doc-2021.186.1.2svn54686-45.2",
        "RelatesToProductReference": "openSUSE Tumbleweed",
        "RelationType": "Default Component Of"
      },
      {
        "ProductReference": "texlive-ccicons-2021.186.1.6svn54512-45.2",
        "RelatesToProductReference": "openSUSE Tumbleweed",
        "RelationType": "Default Component Of"
      },
      {
        "ProductReference": "texlive-ccicons-doc-2021.186.1.6svn54512-45.2",
        "RelatesToProductReference": "openSUSE Tumbleweed",
        "RelationType": "Default Component Of"
      },
      {
        "ProductReference": "texlive-ccicons-fonts-2021.186.1.6svn54512-45.2",
        "RelatesToProductReference": "openSUSE Tumbleweed",
        "RelationType": "Default Component Of"
      },
      {
        "ProductReference": "texlive-cclicenses-2021.186.svn15878-45.2",
        "RelatesToProductReference": "openSUSE Tumbleweed",
        "RelationType": "Default Component Of"
      },
      {
        "ProductReference": "texlive-cclicenses-doc-2021.186.svn15878-45.2",
        "RelatesToProductReference": "openSUSE Tumbleweed",
        "RelationType": "Default Component Of"
      },
      {
        "ProductReference": "texlive-ccool-2021.186.3.1svn56636-45.2",
        "RelatesToProductReference": "openSUSE Tumbleweed",
        "RelationType": "Default Component Of"
      },
      {
        "ProductReference": "texlive-ccool-doc-2021.186.3.1svn56636-45.2",
        "RelatesToProductReference": "openSUSE Tumbleweed",
        "RelationType": "Default Component Of"
      },
      {
        "ProductReference": "texlive-cd-2021.186.1.4svn34452-45.2",
        "RelatesToProductReference": "openSUSE Tumbleweed",
        "RelationType": "Default Component Of"
      },
      {
        "ProductReference": "texlive-cd-cover-2021.186.1.0svn17121-45.2",
        "RelatesToProductReference": "openSUSE Tumbleweed",
        "RelationType": "Default Component Of"
      },
      {
        "ProductReference": "texlive-cd-cover-doc-2021.186.1.0svn17121-45.2",
        "RelatesToProductReference": "openSUSE Tumbleweed",
        "RelationType": "Default Component Of"
      },
      {
        "ProductReference": "texlive-cd-doc-2021.186.1.4svn34452-45.2",
        "RelatesToProductReference": "openSUSE Tumbleweed",
        "RelationType": "Default Component Of"
      },
      {
        "ProductReference": "texlive-cdpbundl-2021.186.0.0.36dsvn46613-45.2",
        "RelatesToProductReference": "openSUSE Tumbleweed",
        "RelationType": "Default Component Of"
      },
      {
        "ProductReference": "texlive-cdpbundl-doc-2021.186.0.0.36dsvn46613-45.2",
        "RelatesToProductReference": "openSUSE Tumbleweed",
        "RelationType": "Default Component Of"
      },
      {
        "ProductReference": "texlive-cell-2021.186.svn42428-45.2",
        "RelatesToProductReference": "openSUSE Tumbleweed",
        "RelationType": "Default Component Of"
      },
      {
        "ProductReference": "texlive-cell-doc-2021.186.svn42428-45.2",
        "RelatesToProductReference": "openSUSE Tumbleweed",
        "RelationType": "Default Component Of"
      },
      {
        "ProductReference": "texlive-cellprops-2021.186.2.0svn57599-45.2",
        "RelatesToProductReference": "openSUSE Tumbleweed",
        "RelationType": "Default Component Of"
      },
      {
        "ProductReference": "texlive-cellprops-doc-2021.186.2.0svn57599-45.2",
        "RelatesToProductReference": "openSUSE Tumbleweed",
        "RelationType": "Default Component Of"
      },
      {
        "ProductReference": "texlive-cellspace-2021.186.1.8.1svn50374-45.2",
        "RelatesToProductReference": "openSUSE Tumbleweed",
        "RelationType": "Default Component Of"
      },
      {
        "ProductReference": "texlive-cellspace-doc-2021.186.1.8.1svn50374-45.2",
        "RelatesToProductReference": "openSUSE Tumbleweed",
        "RelationType": "Default Component Of"
      },
      {
        "ProductReference": "texlive-celtic-2021.186.1.1svn39797-45.2",
        "RelatesToProductReference": "openSUSE Tumbleweed",
        "RelationType": "Default Component Of"
      },
      {
        "ProductReference": "texlive-celtic-doc-2021.186.1.1svn39797-45.2",
        "RelatesToProductReference": "openSUSE Tumbleweed",
        "RelationType": "Default Component Of"
      },
      {
        "ProductReference": "texlive-censor-2021.186.3.22svn49168-45.2",
        "RelatesToProductReference": "openSUSE Tumbleweed",
        "RelationType": "Default Component Of"
      },
      {
        "ProductReference": "texlive-censor-doc-2021.186.3.22svn49168-45.2",
        "RelatesToProductReference": "openSUSE Tumbleweed",
        "RelationType": "Default Component Of"
      },
      {
        "ProductReference": "texlive-centeredline-2021.186.1.1svn50971-45.2",
        "RelatesToProductReference": "openSUSE Tumbleweed",
        "RelationType": "Default Component Of"
      },
      {
        "ProductReference": "texlive-centeredline-doc-2021.186.1.1svn50971-45.2",
        "RelatesToProductReference": "openSUSE Tumbleweed",
        "RelationType": "Default Component Of"
      },
      {
        "ProductReference": "texlive-centerlastline-2021.186.1.0svn56644-45.2",
        "RelatesToProductReference": "openSUSE Tumbleweed",
        "RelationType": "Default Component Of"
      },
      {
        "ProductReference": "texlive-centerlastline-doc-2021.186.1.0svn56644-45.2",
        "RelatesToProductReference": "openSUSE Tumbleweed",
        "RelationType": "Default Component Of"
      },
      {
        "ProductReference": "texlive-cesenaexam-2021.186.0.0.2svn44960-45.2",
        "RelatesToProductReference": "openSUSE Tumbleweed",
        "RelationType": "Default Component Of"
      },
      {
        "ProductReference": "texlive-cesenaexam-doc-2021.186.0.0.2svn44960-45.2",
        "RelatesToProductReference": "openSUSE Tumbleweed",
        "RelationType": "Default Component Of"
      },
      {
        "ProductReference": "texlive-cfr-initials-2021.186.1.01svn36728-45.2",
        "RelatesToProductReference": "openSUSE Tumbleweed",
        "RelationType": "Default Component Of"
      },
      {
        "ProductReference": "texlive-cfr-initials-doc-2021.186.1.01svn36728-45.2",
        "RelatesToProductReference": "openSUSE Tumbleweed",
        "RelationType": "Default Component Of"
      },
      {
        "ProductReference": "texlive-cfr-lm-2021.186.1.5svn36195-45.2",
        "RelatesToProductReference": "openSUSE Tumbleweed",
        "RelationType": "Default Component Of"
      },
      {
        "ProductReference": "texlive-cfr-lm-doc-2021.186.1.5svn36195-45.2",
        "RelatesToProductReference": "openSUSE Tumbleweed",
        "RelationType": "Default Component Of"
      },
      {
        "ProductReference": "texlive-changebar-2021.186.3.6csvn46919-45.2",
        "RelatesToProductReference": "openSUSE Tumbleweed",
        "RelationType": "Default Component Of"
      },
      {
        "ProductReference": "texlive-changebar-doc-2021.186.3.6csvn46919-45.2",
        "RelatesToProductReference": "openSUSE Tumbleweed",
        "RelationType": "Default Component Of"
      },
      {
        "ProductReference": "texlive-changelayout-2021.186.1.0svn16094-45.2",
        "RelatesToProductReference": "openSUSE Tumbleweed",
        "RelationType": "Default Component Of"
      },
      {
        "ProductReference": "texlive-changelayout-doc-2021.186.1.0svn16094-45.2",
        "RelatesToProductReference": "openSUSE Tumbleweed",
        "RelationType": "Default Component Of"
      },
      {
        "ProductReference": "texlive-changelog-2021.186.2.4.0svn56338-45.2",
        "RelatesToProductReference": "openSUSE Tumbleweed",
        "RelationType": "Default Component Of"
      },
      {
        "ProductReference": "texlive-changelog-doc-2021.186.2.4.0svn56338-45.2",
        "RelatesToProductReference": "openSUSE Tumbleweed",
        "RelationType": "Default Component Of"
      },
      {
        "ProductReference": "texlive-changepage-2021.186.1.0csvn15878-45.2",
        "RelatesToProductReference": "openSUSE Tumbleweed",
        "RelationType": "Default Component Of"
      },
      {
        "ProductReference": "texlive-changepage-doc-2021.186.1.0csvn15878-45.2",
        "RelatesToProductReference": "openSUSE Tumbleweed",
        "RelationType": "Default Component Of"
      },
      {
        "ProductReference": "texlive-changes-2021.186.4.0.1svn57756-45.2",
        "RelatesToProductReference": "openSUSE Tumbleweed",
        "RelationType": "Default Component Of"
      },
      {
        "ProductReference": "texlive-changes-doc-2021.186.4.0.1svn57756-45.2",
        "RelatesToProductReference": "openSUSE Tumbleweed",
        "RelationType": "Default Component Of"
      },
      {
        "ProductReference": "texlive-chappg-2021.186.2.1bsvn15878-45.2",
        "RelatesToProductReference": "openSUSE Tumbleweed",
        "RelationType": "Default Component Of"
      },
      {
        "ProductReference": "texlive-chappg-doc-2021.186.2.1bsvn15878-45.2",
        "RelatesToProductReference": "openSUSE Tumbleweed",
        "RelationType": "Default Component Of"
      }
    ]
  },
  "References": [
    {
      "URL": "https://www.suse.com/support/security/rating/",
      "Description": "SUSE Security Ratings"
    },
    {
      "URL": "https://www.suse.com/security/cve/CVE-2016-10243/",
      "Description": "SUSE CVE CVE-2016-10243 page"
    }
  ],
  "Vulnerabilities": [
    {
      "CVE": "CVE-2016-10243",
      "Description": "TeX Live allows remote attackers to execute arbitrary commands by leveraging inclusion of mpost in shell_escape_commands in the texmf.cnf config file.",
      "Threats": [
        {
          "Type": "Impact",
          "Severity": "important"
        }
      ],
      "References": [
        {
          "URL": "https://www.suse.com/security/cve/CVE-2016-10243.html",
          "Description": "CVE-2016-10243"
        },
        {
          "URL": "https://bugzilla.suse.com/1028271",
          "Description": "SUSE Bug 1028271"
        }
      ],
      "ProductStatuses": [
        {
          "Type": "Fixed",
          "ProductID": [
            "openSUSE Tumbleweed:texlive-biolett-bst-2021.186.svn42217-45.2",
            "openSUSE Tumbleweed:texlive-biolett-bst-doc-2021.186.svn42217-45.2",
            "openSUSE Tumbleweed:texlive-bitelist-2021.186.0.0.1svn25779-45.2",
            "openSUSE Tumbleweed:texlive-bitelist-doc-2021.186.0.0.1svn25779-45.2",
            "openSUSE Tumbleweed:texlive-bithesis-2021.186.1.0.1svn57388-45.2",
            "openSUSE Tumbleweed:texlive-bithesis-doc-2021.186.1.0.1svn57388-45.2",
            "openSUSE Tumbleweed:texlive-bitpattern-2021.186.svn39073-45.2",
            "openSUSE Tumbleweed:texlive-bitpattern-doc-2021.186.svn39073-45.2",
            "openSUSE Tumbleweed:texlive-bitset-2021.186.1.3svn53837-45.2",
            "openSUSE Tumbleweed:texlive-bitset-doc-2021.186.1.3svn53837-45.2",
            "openSUSE Tumbleweed:texlive-bitter-2021.186.svn56026-45.2",
            "openSUSE Tumbleweed:texlive-bitter-doc-2021.186.svn56026-45.2",
            "openSUSE Tumbleweed:texlive-bitter-fonts-2021.186.svn56026-45.2",
            "openSUSE Tumbleweed:texlive-bizcard-2021.186.1.1svn15878-45.2",
            "openSUSE Tumbleweed:texlive-bizcard-doc-2021.186.1.1svn15878-45.2",
            "openSUSE Tumbleweed:texlive-blacklettert1-2021.186.svn15878-45.2",
            "openSUSE Tumbleweed:texlive-blacklettert1-doc-2021.186.svn15878-45.2",
            "openSUSE Tumbleweed:texlive-blindtext-2021.186.2.0svn25039-45.2",
            "openSUSE Tumbleweed:texlive-blindtext-doc-2021.186.2.0svn25039-45.2",
            "openSUSE Tumbleweed:texlive-blkarray-2021.186.0.0.07svn36406-45.2",
            "openSUSE Tumbleweed:texlive-blkarray-doc-2021.186.0.0.07svn36406-45.2",
            "openSUSE Tumbleweed:texlive-blochsphere-2021.186.1.1svn38388-45.2",
            "openSUSE Tumbleweed:texlive-blochsphere-doc-2021.186.1.1svn38388-45.2",
            "openSUSE Tumbleweed:texlive-block-2021.186.svn17209-45.2",
            "openSUSE Tumbleweed:texlive-block-doc-2021.186.svn17209-45.2",
            "openSUSE Tumbleweed:texlive-blockdraw_mp-2021.186.svn15878-45.2",
            "openSUSE Tumbleweed:texlive-blockdraw_mp-doc-2021.186.svn15878-45.2",
            "openSUSE Tumbleweed:texlive-bloques-2021.186.1.0svn22490-45.2",
            "openSUSE Tumbleweed:texlive-bloques-doc-2021.186.1.0svn22490-45.2",
            "openSUSE Tumbleweed:texlive-blowup-2021.186.1.0svn46213-45.2",
            "openSUSE Tumbleweed:texlive-blowup-doc-2021.186.1.0svn46213-45.2",
            "openSUSE Tumbleweed:texlive-blox-2021.186.2.51svn57949-45.2",
            "openSUSE Tumbleweed:texlive-blox-doc-2021.186.2.51svn57949-45.2",
            "openSUSE Tumbleweed:texlive-bnumexpr-2021.186.1.2dsvn49643-45.2",
            "openSUSE Tumbleweed:texlive-bnumexpr-doc-2021.186.1.2dsvn49643-45.2",
            "openSUSE Tumbleweed:texlive-bodegraph-2021.186.1.4svn20047-45.2",
            "openSUSE Tumbleweed:texlive-bodegraph-doc-2021.186.1.4svn20047-45.2",
            "openSUSE Tumbleweed:texlive-bohr-2021.186.1.0svn54512-45.2",
            "openSUSE Tumbleweed:texlive-bohr-doc-2021.186.1.0svn54512-45.2",
            "openSUSE Tumbleweed:texlive-boisik-2021.186.0.0.5svn15878-45.2",
            "openSUSE Tumbleweed:texlive-boisik-doc-2021.186.0.0.5svn15878-45.2",
            "openSUSE Tumbleweed:texlive-boites-2021.186.1.1svn32235-45.2",
            "openSUSE Tumbleweed:texlive-boites-doc-2021.186.1.1svn32235-45.2",
            "openSUSE Tumbleweed:texlive-bold-extra-2021.186.0.0.1svn17076-45.2",
            "openSUSE Tumbleweed:texlive-bold-extra-doc-2021.186.0.0.1svn17076-45.2",
            "openSUSE Tumbleweed:texlive-boldtensors-2021.186.svn15878-45.2",
            "openSUSE Tumbleweed:texlive-boldtensors-doc-2021.186.svn15878-45.2",
            "openSUSE Tumbleweed:texlive-bondgraph-2021.186.1.0svn21670-45.2",
            "openSUSE Tumbleweed:texlive-bondgraph-doc-2021.186.1.0svn21670-45.2",
            "openSUSE Tumbleweed:texlive-bondgraphs-2021.186.1.0.1svn36605-45.2",
            "openSUSE Tumbleweed:texlive-bondgraphs-doc-2021.186.1.0.1svn36605-45.2",
            "openSUSE Tumbleweed:texlive-bookcover-2021.186.3.3svn57326-45.2",
            "openSUSE Tumbleweed:texlive-bookcover-doc-2021.186.3.3svn57326-45.2",
            "openSUSE Tumbleweed:texlive-bookdb-2021.186.0.0.2svn37536-45.2",
            "openSUSE Tumbleweed:texlive-bookdb-doc-2021.186.0.0.2svn37536-45.2",
            "openSUSE Tumbleweed:texlive-bookest-2021.186.1.1svn15878-45.2",
            "openSUSE Tumbleweed:texlive-bookest-doc-2021.186.1.1svn15878-45.2",
            "openSUSE Tumbleweed:texlive-bookhands-2021.186.svn46480-45.2",
            "openSUSE Tumbleweed:texlive-bookhands-doc-2021.186.svn46480-45.2",
            "openSUSE Tumbleweed:texlive-bookhands-fonts-2021.186.svn46480-45.2",
            "openSUSE Tumbleweed:texlive-booklet-2021.186.0.0.7bsvn15878-45.2",
            "openSUSE Tumbleweed:texlive-booklet-doc-2021.186.0.0.7bsvn15878-45.2",
            "openSUSE Tumbleweed:texlive-bookman-2021.186.svn31835-45.2",
            "openSUSE Tumbleweed:texlive-bookman-fonts-2021.186.svn31835-45.2",
            "openSUSE Tumbleweed:texlive-bookmark-2021.186.1.29svn56885-45.2",
            "openSUSE Tumbleweed:texlive-bookmark-doc-2021.186.1.29svn56885-45.2",
            "openSUSE Tumbleweed:texlive-bookshelf-2021.186.0.0.5svn55475-45.2",
            "openSUSE Tumbleweed:texlive-bookshelf-doc-2021.186.0.0.5svn55475-45.2",
            "openSUSE Tumbleweed:texlive-booktabs-2021.186.1.61803398svn53402-45.2",
            "openSUSE Tumbleweed:texlive-booktabs-de-2021.186.1.61803svn21907-45.2",
            "openSUSE Tumbleweed:texlive-booktabs-doc-2021.186.1.61803398svn53402-45.2",
            "openSUSE Tumbleweed:texlive-booktabs-fr-2021.186.1.00svn21948-45.2",
            "openSUSE Tumbleweed:texlive-boolexpr-2021.186.3.14svn17830-45.2",
            "openSUSE Tumbleweed:texlive-boolexpr-doc-2021.186.3.14svn17830-45.2",
            "openSUSE Tumbleweed:texlive-boondox-2021.186.1.02dsvn54512-45.2",
            "openSUSE Tumbleweed:texlive-boondox-doc-2021.186.1.02dsvn54512-45.2",
            "openSUSE Tumbleweed:texlive-boondox-fonts-2021.186.1.02dsvn54512-45.2",
            "openSUSE Tumbleweed:texlive-bophook-2021.186.0.0.02svn17062-45.2",
            "openSUSE Tumbleweed:texlive-bophook-doc-2021.186.0.0.02svn17062-45.2",
            "openSUSE Tumbleweed:texlive-borceux-2021.186.svn21047-45.2",
            "openSUSE Tumbleweed:texlive-borceux-doc-2021.186.svn21047-45.2",
            "openSUSE Tumbleweed:texlive-bosisio-2021.186.svn16989-45.2",
            "openSUSE Tumbleweed:texlive-bosisio-doc-2021.186.svn16989-45.2",
            "openSUSE Tumbleweed:texlive-boxedminipage-2021.186.1.1svn54827-45.2",
            "openSUSE Tumbleweed:texlive-boxedminipage-doc-2021.186.1.1svn54827-45.2",
            "openSUSE Tumbleweed:texlive-boxhandler-2021.186.1.30svn28031-45.2",
            "openSUSE Tumbleweed:texlive-boxhandler-doc-2021.186.1.30svn28031-45.2",
            "openSUSE Tumbleweed:texlive-bpchem-2021.186.1.1svn45120-45.2",
            "openSUSE Tumbleweed:texlive-bpchem-doc-2021.186.1.1svn45120-45.2",
            "openSUSE Tumbleweed:texlive-bpolynomial-2021.186.0.0.5svn15878-45.2",
            "openSUSE Tumbleweed:texlive-bpolynomial-doc-2021.186.0.0.5svn15878-45.2",
            "openSUSE Tumbleweed:texlive-br-lex-2021.186.svn44939-45.2",
            "openSUSE Tumbleweed:texlive-br-lex-doc-2021.186.svn44939-45.2",
            "openSUSE Tumbleweed:texlive-bracketkey-2021.186.1.0svn17129-45.2",
            "openSUSE Tumbleweed:texlive-bracketkey-doc-2021.186.1.0svn17129-45.2",
            "openSUSE Tumbleweed:texlive-braids-2021.186.2.0svn54080-45.2",
            "openSUSE Tumbleweed:texlive-braids-doc-2021.186.2.0svn54080-45.2",
            "openSUSE Tumbleweed:texlive-braille-2021.186.svn20655-45.2",
            "openSUSE Tumbleweed:texlive-braille-doc-2021.186.svn20655-45.2",
            "openSUSE Tumbleweed:texlive-braket-2021.186.svn17127-45.2",
            "openSUSE Tumbleweed:texlive-braket-doc-2021.186.svn17127-45.2",
            "openSUSE Tumbleweed:texlive-brandeis-dissertation-2021.186.3.11svn54758-45.2",
            "openSUSE Tumbleweed:texlive-brandeis-dissertation-doc-2021.186.3.11svn54758-45.2",
            "openSUSE Tumbleweed:texlive-brandeis-problemset-2021.186.0.0.5.5svn50991-45.2",
            "openSUSE Tumbleweed:texlive-brandeis-problemset-doc-2021.186.0.0.5.5svn50991-45.2",
            "openSUSE Tumbleweed:texlive-brandeis-thesis-2021.186.3.1svn54758-45.2",
            "openSUSE Tumbleweed:texlive-brandeis-thesis-doc-2021.186.3.1svn54758-45.2",
            "openSUSE Tumbleweed:texlive-breakcites-2021.186.svn21014-45.2",
            "openSUSE Tumbleweed:texlive-breakcites-doc-2021.186.svn21014-45.2",
            "openSUSE Tumbleweed:texlive-breakurl-2021.186.1.40svn29901-45.2",
            "openSUSE Tumbleweed:texlive-breakurl-doc-2021.186.1.40svn29901-45.2",
            "openSUSE Tumbleweed:texlive-bredzenie-2021.186.1.0svn44371-45.2",
            "openSUSE Tumbleweed:texlive-bredzenie-doc-2021.186.1.0svn44371-45.2",
            "openSUSE Tumbleweed:texlive-breqn-2021.186.0.0.98ksvn56422-45.2",
            "openSUSE Tumbleweed:texlive-breqn-doc-2021.186.0.0.98ksvn56422-45.2",
            "openSUSE Tumbleweed:texlive-bropd-2021.186.1.2svn35383-45.2",
            "openSUSE Tumbleweed:texlive-bropd-doc-2021.186.1.2svn35383-45.2",
            "openSUSE Tumbleweed:texlive-brushscr-2021.186.svn28363-45.2",
            "openSUSE Tumbleweed:texlive-brushscr-doc-2021.186.svn28363-45.2",
            "openSUSE Tumbleweed:texlive-brushscr-fonts-2021.186.svn28363-45.2",
            "openSUSE Tumbleweed:texlive-bubblesort-2021.186.1.0svn56070-45.2",
            "openSUSE Tumbleweed:texlive-bubblesort-doc-2021.186.1.0svn56070-45.2",
            "openSUSE Tumbleweed:texlive-bullcntr-2021.186.0.0.04svn15878-45.2",
            "openSUSE Tumbleweed:texlive-bullcntr-doc-2021.186.0.0.04svn15878-45.2",
            "openSUSE Tumbleweed:texlive-bundledoc-2021.186.3.4svn55064-45.2",
            "openSUSE Tumbleweed:texlive-bundledoc-doc-2021.186.3.4svn55064-45.2",
            "openSUSE Tumbleweed:texlive-burmese-2021.186.svn25185-45.2",
            "openSUSE Tumbleweed:texlive-burmese-doc-2021.186.svn25185-45.2",
            "openSUSE Tumbleweed:texlive-burmese-fonts-2021.186.svn25185-45.2",
            "openSUSE Tumbleweed:texlive-businesscard-qrcode-2021.186.1.2svn54080-45.2",
            "openSUSE Tumbleweed:texlive-businesscard-qrcode-doc-2021.186.1.2svn54080-45.2",
            "openSUSE Tumbleweed:texlive-bussproofs-2021.186.1.1svn54080-45.2",
            "openSUSE Tumbleweed:texlive-bussproofs-doc-2021.186.1.1svn54080-45.2",
            "openSUSE Tumbleweed:texlive-bussproofs-extra-2021.186.0.0.4svn51299-45.2",
            "openSUSE Tumbleweed:texlive-bussproofs-extra-doc-2021.186.0.0.4svn51299-45.2",
            "openSUSE Tumbleweed:texlive-bxbase-2021.186.1.2svn56528-45.2",
            "openSUSE Tumbleweed:texlive-bxbase-doc-2021.186.1.2svn56528-45.2",
            "openSUSE Tumbleweed:texlive-bxcalc-2021.186.1.1svn56431-45.2",
            "openSUSE Tumbleweed:texlive-bxcalc-doc-2021.186.1.1svn56431-45.2",
            "openSUSE Tumbleweed:texlive-bxcjkjatype-2021.186.0.0.3svn54080-45.2",
            "openSUSE Tumbleweed:texlive-bxcjkjatype-doc-2021.186.0.0.3svn54080-45.2",
            "openSUSE Tumbleweed:texlive-bxdpx-beamer-2021.186.0.0.3svn41813-45.2",
            "openSUSE Tumbleweed:texlive-bxdpx-beamer-doc-2021.186.0.0.3svn41813-45.2",
            "openSUSE Tumbleweed:texlive-bxdvidriver-2021.186.0.0.2asvn43219-45.2",
            "openSUSE Tumbleweed:texlive-bxdvidriver-doc-2021.186.0.0.2asvn43219-45.2",
            "openSUSE Tumbleweed:texlive-bxeepic-2021.186.0.0.2svn30559-45.2",
            "openSUSE Tumbleweed:texlive-bxeepic-doc-2021.186.0.0.2svn30559-45.2",
            "openSUSE Tumbleweed:texlive-bxenclose-2021.186.0.0.2svn40213-45.2",
            "openSUSE Tumbleweed:texlive-bxenclose-doc-2021.186.0.0.2svn40213-45.2",
            "openSUSE Tumbleweed:texlive-bxghost-2021.186.0.0.3.0svn53606-45.2",
            "openSUSE Tumbleweed:texlive-bxghost-doc-2021.186.0.0.3.0svn53606-45.2",
            "openSUSE Tumbleweed:texlive-bxjaholiday-2021.186.1.1.0svn57025-45.2",
            "openSUSE Tumbleweed:texlive-bxjaholiday-doc-2021.186.1.1.0svn57025-45.2",
            "openSUSE Tumbleweed:texlive-bxjalipsum-2021.186.0.0.3asvn43369-45.2",
            "openSUSE Tumbleweed:texlive-bxjalipsum-doc-2021.186.0.0.3asvn43369-45.2",
            "openSUSE Tumbleweed:texlive-bxjaprnind-2021.186.0.0.3bsvn45291-45.2",
            "openSUSE Tumbleweed:texlive-bxjaprnind-doc-2021.186.0.0.3bsvn45291-45.2",
            "openSUSE Tumbleweed:texlive-bxjatoucs-2021.186.0.0.2svn52509-45.2",
            "openSUSE Tumbleweed:texlive-bxjatoucs-doc-2021.186.0.0.2svn52509-45.2",
            "openSUSE Tumbleweed:texlive-bxjscls-2021.186.2.5svn57625-45.2",
            "openSUSE Tumbleweed:texlive-bxjscls-doc-2021.186.2.5svn57625-45.2",
            "openSUSE Tumbleweed:texlive-bxnewfont-2021.186.0.0.2bsvn44173-45.2",
            "openSUSE Tumbleweed:texlive-bxnewfont-doc-2021.186.0.0.2bsvn44173-45.2",
            "openSUSE Tumbleweed:texlive-bxorigcapt-2021.186.0.0.3svn48606-45.2",
            "openSUSE Tumbleweed:texlive-bxorigcapt-doc-2021.186.0.0.3svn48606-45.2",
            "openSUSE Tumbleweed:texlive-bxpapersize-2021.186.0.0.5svn56491-45.2",
            "openSUSE Tumbleweed:texlive-bxpapersize-doc-2021.186.0.0.5svn56491-45.2",
            "openSUSE Tumbleweed:texlive-bxpdfver-2021.186.0.0.5asvn57755-45.2",
            "openSUSE Tumbleweed:texlive-bxpdfver-doc-2021.186.0.0.5asvn57755-45.2",
            "openSUSE Tumbleweed:texlive-bxtexlogo-2021.186.0.0.4svn47230-45.2",
            "openSUSE Tumbleweed:texlive-bxtexlogo-doc-2021.186.0.0.4svn47230-45.2",
            "openSUSE Tumbleweed:texlive-bxwareki-2021.186.0.0.6svn51286-45.2",
            "openSUSE Tumbleweed:texlive-bxwareki-doc-2021.186.0.0.6svn51286-45.2",
            "openSUSE Tumbleweed:texlive-bytefield-2021.186.2.6svn56821-45.2",
            "openSUSE Tumbleweed:texlive-bytefield-doc-2021.186.2.6svn56821-45.2",
            "openSUSE Tumbleweed:texlive-c-pascal-2021.186.1.2svn18337-45.2",
            "openSUSE Tumbleweed:texlive-c-pascal-doc-2021.186.1.2svn18337-45.2",
            "openSUSE Tumbleweed:texlive-c90-2021.186.svn54074-45.2",
            "openSUSE Tumbleweed:texlive-c90-doc-2021.186.svn54074-45.2",
            "openSUSE Tumbleweed:texlive-cabin-2021.186.svn55907-45.2",
            "openSUSE Tumbleweed:texlive-cabin-doc-2021.186.svn55907-45.2",
            "openSUSE Tumbleweed:texlive-cabin-fonts-2021.186.svn55907-45.2",
            "openSUSE Tumbleweed:texlive-cachepic-2021.186.1.0svn26313-45.2",
            "openSUSE Tumbleweed:texlive-cachepic-doc-2021.186.1.0svn26313-45.2",
            "openSUSE Tumbleweed:texlive-caladea-2021.186.svn34991-45.2",
            "openSUSE Tumbleweed:texlive-caladea-doc-2021.186.svn34991-45.2",
            "openSUSE Tumbleweed:texlive-caladea-fonts-2021.186.svn34991-45.2",
            "openSUSE Tumbleweed:texlive-calcage-2021.186.0.0.90svn27725-45.2",
            "openSUSE Tumbleweed:texlive-calcage-doc-2021.186.0.0.90svn27725-45.2",
            "openSUSE Tumbleweed:texlive-calctab-2021.186.0.0.6.1svn15878-45.2",
            "openSUSE Tumbleweed:texlive-calctab-doc-2021.186.0.0.6.1svn15878-45.2",
            "openSUSE Tumbleweed:texlive-calculation-2021.186.1.0svn35973-45.2",
            "openSUSE Tumbleweed:texlive-calculation-doc-2021.186.1.0svn35973-45.2",
            "openSUSE Tumbleweed:texlive-calculator-2021.186.2.0svn33041-45.2",
            "openSUSE Tumbleweed:texlive-calculator-doc-2021.186.2.0svn33041-45.2",
            "openSUSE Tumbleweed:texlive-calligra-2021.186.svn15878-45.2",
            "openSUSE Tumbleweed:texlive-calligra-doc-2021.186.svn15878-45.2",
            "openSUSE Tumbleweed:texlive-calligra-type1-2021.186.001.000svn24302-45.2",
            "openSUSE Tumbleweed:texlive-calligra-type1-doc-2021.186.001.000svn24302-45.2",
            "openSUSE Tumbleweed:texlive-calligra-type1-fonts-2021.186.001.000svn24302-45.2",
            "openSUSE Tumbleweed:texlive-callouts-2021.186.svn44899-45.2",
            "openSUSE Tumbleweed:texlive-callouts-doc-2021.186.svn44899-45.2",
            "openSUSE Tumbleweed:texlive-calrsfs-2021.186.svn17125-45.2",
            "openSUSE Tumbleweed:texlive-calrsfs-doc-2021.186.svn17125-45.2",
            "openSUSE Tumbleweed:texlive-cals-2021.186.2.4.2svn43003-45.2",
            "openSUSE Tumbleweed:texlive-cals-doc-2021.186.2.4.2svn43003-45.2",
            "openSUSE Tumbleweed:texlive-calxxxx-yyyy-2021.186.20.21asvn57282-45.2",
            "openSUSE Tumbleweed:texlive-calxxxx-yyyy-doc-2021.186.20.21asvn57282-45.2",
            "openSUSE Tumbleweed:texlive-cancel-2021.186.2.2svn32508-45.2",
            "openSUSE Tumbleweed:texlive-cancel-doc-2021.186.2.2svn32508-45.2",
            "openSUSE Tumbleweed:texlive-canoniclayout-2021.186.0.0.5svn54758-45.2",
            "openSUSE Tumbleweed:texlive-canoniclayout-doc-2021.186.0.0.5svn54758-45.2",
            "openSUSE Tumbleweed:texlive-cantarell-2021.186.3.2svn54512-45.2",
            "openSUSE Tumbleweed:texlive-cantarell-doc-2021.186.3.2svn54512-45.2",
            "openSUSE Tumbleweed:texlive-cantarell-fonts-2021.186.3.2svn54512-45.2",
            "openSUSE Tumbleweed:texlive-capt-of-2021.186.svn29803-45.2",
            "openSUSE Tumbleweed:texlive-capt-of-doc-2021.186.svn29803-45.2",
            "openSUSE Tumbleweed:texlive-captcont-2021.186.2.0svn15878-45.2",
            "openSUSE Tumbleweed:texlive-captcont-doc-2021.186.2.0svn15878-45.2",
            "openSUSE Tumbleweed:texlive-captdef-2021.186.svn17353-45.2",
            "openSUSE Tumbleweed:texlive-captdef-doc-2021.186.svn17353-45.2",
            "openSUSE Tumbleweed:texlive-caption-2021.186.svn56771-45.2",
            "openSUSE Tumbleweed:texlive-caption-doc-2021.186.svn56771-45.2",
            "openSUSE Tumbleweed:texlive-carbohydrates-2021.186.0.0.1svn39000-45.2",
            "openSUSE Tumbleweed:texlive-carbohydrates-doc-2021.186.0.0.1svn39000-45.2",
            "openSUSE Tumbleweed:texlive-carlisle-2021.186.svn56753-45.2",
            "openSUSE Tumbleweed:texlive-carlisle-doc-2021.186.svn56753-45.2",
            "openSUSE Tumbleweed:texlive-carlito-2021.186.svn35002-45.2",
            "openSUSE Tumbleweed:texlive-carlito-doc-2021.186.svn35002-45.2",
            "openSUSE Tumbleweed:texlive-carlito-fonts-2021.186.svn35002-45.2",
            "openSUSE Tumbleweed:texlive-carolmin-ps-2021.186.svn15878-45.2",
            "openSUSE Tumbleweed:texlive-carolmin-ps-doc-2021.186.svn15878-45.2",
            "openSUSE Tumbleweed:texlive-carolmin-ps-fonts-2021.186.svn15878-45.2",
            "openSUSE Tumbleweed:texlive-cascade-2021.186.1.1svn55759-45.2",
            "openSUSE Tumbleweed:texlive-cascade-doc-2021.186.1.1svn55759-45.2",
            "openSUSE Tumbleweed:texlive-cascadia-code-2021.186.0.0.0.1svn57478-45.2",
            "openSUSE Tumbleweed:texlive-cascadia-code-doc-2021.186.0.0.0.1svn57478-45.2",
            "openSUSE Tumbleweed:texlive-cascadia-code-fonts-2021.186.0.0.0.1svn57478-45.2",
            "openSUSE Tumbleweed:texlive-cascadilla-2021.186.1.8.2svn25144-45.2",
            "openSUSE Tumbleweed:texlive-cascadilla-doc-2021.186.1.8.2svn25144-45.2",
            "openSUSE Tumbleweed:texlive-cases-2021.186.3.2svn54682-45.2",
            "openSUSE Tumbleweed:texlive-cases-doc-2021.186.3.2svn54682-45.2",
            "openSUSE Tumbleweed:texlive-casyl-2021.186.2.0svn15878-45.2",
            "openSUSE Tumbleweed:texlive-casyl-doc-2021.186.2.0svn15878-45.2",
            "openSUSE Tumbleweed:texlive-catchfile-2021.186.1.8svn53084-45.2",
            "openSUSE Tumbleweed:texlive-catchfile-doc-2021.186.1.8svn53084-45.2",
            "openSUSE Tumbleweed:texlive-catchfilebetweentags-2021.186.1.1svn21476-45.2",
            "openSUSE Tumbleweed:texlive-catchfilebetweentags-doc-2021.186.1.1svn21476-45.2",
            "openSUSE Tumbleweed:texlive-catcodes-2021.186.r0.2svn38859-45.2",
            "openSUSE Tumbleweed:texlive-catcodes-doc-2021.186.r0.2svn38859-45.2",
            "openSUSE Tumbleweed:texlive-catechis-2021.186.2.5svn49061-45.2",
            "openSUSE Tumbleweed:texlive-catechis-doc-2021.186.2.5svn49061-45.2",
            "openSUSE Tumbleweed:texlive-catoptions-2021.186.0.0.2.7hsvn35069-45.2",
            "openSUSE Tumbleweed:texlive-catoptions-doc-2021.186.0.0.2.7hsvn35069-45.2",
            "openSUSE Tumbleweed:texlive-causets-2021.186.1.1svn57139-45.2",
            "openSUSE Tumbleweed:texlive-causets-doc-2021.186.1.1svn57139-45.2",
            "openSUSE Tumbleweed:texlive-cbcoptic-2021.186.0.0.2svn16666-45.2",
            "openSUSE Tumbleweed:texlive-cbcoptic-doc-2021.186.0.0.2svn16666-45.2",
            "openSUSE Tumbleweed:texlive-cbcoptic-fonts-2021.186.0.0.2svn16666-45.2",
            "openSUSE Tumbleweed:texlive-cbfonts-2021.186.svn54080-45.2",
            "openSUSE Tumbleweed:texlive-cbfonts-doc-2021.186.svn54080-45.2",
            "openSUSE Tumbleweed:texlive-cbfonts-fd-2021.186.1.2svn54080-45.2",
            "openSUSE Tumbleweed:texlive-cbfonts-fd-doc-2021.186.1.2svn54080-45.2",
            "openSUSE Tumbleweed:texlive-cbfonts-fonts-2021.186.svn54080-45.2",
            "openSUSE Tumbleweed:texlive-cc-pl-2021.186.1.02.3svn58602-45.2",
            "openSUSE Tumbleweed:texlive-cc-pl-doc-2021.186.1.02.3svn58602-45.2",
            "openSUSE Tumbleweed:texlive-cc-pl-fonts-2021.186.1.02.3svn58602-45.2",
            "openSUSE Tumbleweed:texlive-ccaption-2021.186.3.2csvn23443-45.2",
            "openSUSE Tumbleweed:texlive-ccaption-doc-2021.186.3.2csvn23443-45.2",
            "openSUSE Tumbleweed:texlive-ccfonts-2021.186.1.2svn54686-45.2",
            "openSUSE Tumbleweed:texlive-ccfonts-doc-2021.186.1.2svn54686-45.2",
            "openSUSE Tumbleweed:texlive-ccicons-2021.186.1.6svn54512-45.2",
            "openSUSE Tumbleweed:texlive-ccicons-doc-2021.186.1.6svn54512-45.2",
            "openSUSE Tumbleweed:texlive-ccicons-fonts-2021.186.1.6svn54512-45.2",
            "openSUSE Tumbleweed:texlive-cclicenses-2021.186.svn15878-45.2",
            "openSUSE Tumbleweed:texlive-cclicenses-doc-2021.186.svn15878-45.2",
            "openSUSE Tumbleweed:texlive-ccool-2021.186.3.1svn56636-45.2",
            "openSUSE Tumbleweed:texlive-ccool-doc-2021.186.3.1svn56636-45.2",
            "openSUSE Tumbleweed:texlive-cd-2021.186.1.4svn34452-45.2",
            "openSUSE Tumbleweed:texlive-cd-cover-2021.186.1.0svn17121-45.2",
            "openSUSE Tumbleweed:texlive-cd-cover-doc-2021.186.1.0svn17121-45.2",
            "openSUSE Tumbleweed:texlive-cd-doc-2021.186.1.4svn34452-45.2",
            "openSUSE Tumbleweed:texlive-cdpbundl-2021.186.0.0.36dsvn46613-45.2",
            "openSUSE Tumbleweed:texlive-cdpbundl-doc-2021.186.0.0.36dsvn46613-45.2",
            "openSUSE Tumbleweed:texlive-cell-2021.186.svn42428-45.2",
            "openSUSE Tumbleweed:texlive-cell-doc-2021.186.svn42428-45.2",
            "openSUSE Tumbleweed:texlive-cellprops-2021.186.2.0svn57599-45.2",
            "openSUSE Tumbleweed:texlive-cellprops-doc-2021.186.2.0svn57599-45.2",
            "openSUSE Tumbleweed:texlive-cellspace-2021.186.1.8.1svn50374-45.2",
            "openSUSE Tumbleweed:texlive-cellspace-doc-2021.186.1.8.1svn50374-45.2",
            "openSUSE Tumbleweed:texlive-celtic-2021.186.1.1svn39797-45.2",
            "openSUSE Tumbleweed:texlive-celtic-doc-2021.186.1.1svn39797-45.2",
            "openSUSE Tumbleweed:texlive-censor-2021.186.3.22svn49168-45.2",
            "openSUSE Tumbleweed:texlive-censor-doc-2021.186.3.22svn49168-45.2",
            "openSUSE Tumbleweed:texlive-centeredline-2021.186.1.1svn50971-45.2",
            "openSUSE Tumbleweed:texlive-centeredline-doc-2021.186.1.1svn50971-45.2",
            "openSUSE Tumbleweed:texlive-centerlastline-2021.186.1.0svn56644-45.2",
            "openSUSE Tumbleweed:texlive-centerlastline-doc-2021.186.1.0svn56644-45.2",
            "openSUSE Tumbleweed:texlive-cesenaexam-2021.186.0.0.2svn44960-45.2",
            "openSUSE Tumbleweed:texlive-cesenaexam-doc-2021.186.0.0.2svn44960-45.2",
            "openSUSE Tumbleweed:texlive-cfr-initials-2021.186.1.01svn36728-45.2",
            "openSUSE Tumbleweed:texlive-cfr-initials-doc-2021.186.1.01svn36728-45.2",
            "openSUSE Tumbleweed:texlive-cfr-lm-2021.186.1.5svn36195-45.2",
            "openSUSE Tumbleweed:texlive-cfr-lm-doc-2021.186.1.5svn36195-45.2",
            "openSUSE Tumbleweed:texlive-changebar-2021.186.3.6csvn46919-45.2",
            "openSUSE Tumbleweed:texlive-changebar-doc-2021.186.3.6csvn46919-45.2",
            "openSUSE Tumbleweed:texlive-changelayout-2021.186.1.0svn16094-45.2",
            "openSUSE Tumbleweed:texlive-changelayout-doc-2021.186.1.0svn16094-45.2",
            "openSUSE Tumbleweed:texlive-changelog-2021.186.2.4.0svn56338-45.2",
            "openSUSE Tumbleweed:texlive-changelog-doc-2021.186.2.4.0svn56338-45.2",
            "openSUSE Tumbleweed:texlive-changepage-2021.186.1.0csvn15878-45.2",
            "openSUSE Tumbleweed:texlive-changepage-doc-2021.186.1.0csvn15878-45.2",
            "openSUSE Tumbleweed:texlive-changes-2021.186.4.0.1svn57756-45.2",
            "openSUSE Tumbleweed:texlive-changes-doc-2021.186.4.0.1svn57756-45.2",
            "openSUSE Tumbleweed:texlive-chappg-2021.186.2.1bsvn15878-45.2",
            "openSUSE Tumbleweed:texlive-chappg-doc-2021.186.2.1bsvn15878-45.2"
          ]
        }
      ],
      "CVSSScoreSets": {
        "BaseScore": "4.3",
        "Vector": "AV:L/AC:L/Au:S/C:P/I:P/A:P"
      }
    }
  ]
}