{
  "Title": "kitty-0.21.2-1.2 on GA media",
  "Tracking": {
    "ID": "openSUSE-SU-2024:10896-1",
    "Status": "Final",
    "Version": "1",
    "InitialReleaseDate": "2024-06-22T21:44:56Z",
    "CurrentReleaseDate": "2024-06-22T21:44:56Z",
    "RevisionHistory": [
      {
        "Number": "1",
        "Date": "2024-06-22T21:44:56Z",
        "Description": "current"
      }
    ]
  },
  "Notes": [
    {
      "Text": "kitty-0.21.2-1.2 on GA media",
      "Title": "Topic",
      "Type": "Summary"
    },
    {
      "Text": "These are all security issues fixed in the kitty-0.21.2-1.2 package on the GA media of openSUSE Tumbleweed.",
      "Title": "Details",
      "Type": "General"
    },
    {
      "Text": "The CVRF data is provided by SUSE under the Creative Commons License 4.0 with Attribution (CC-BY-4.0).",
      "Title": "Terms of Use",
      "Type": "Legal Disclaimer"
    },
    {
      "Text": "openSUSE-Tumbleweed-2024-10896",
      "Title": "Patchnames",
      "Type": "Details"
    }
  ],
  "ProductTree": {
    "Relationships": [
      {
        "ProductReference": "kitty-0.21.2-1.2",
        "RelatesToProductReference": "openSUSE Tumbleweed",
        "RelationType": "Default Component Of"
      }
    ]
  },
  "References": [
    {
      "URL": "https://www.suse.com/support/security/rating/",
      "Description": "SUSE Security Ratings"
    },
    {
      "URL": "https://www.suse.com/security/cve/CVE-2020-35605/",
      "Description": "SUSE CVE CVE-2020-35605 page"
    }
  ],
  "Vulnerabilities": [
    {
      "CVE": "CVE-2020-35605",
      "Description": "The Graphics Protocol feature in graphics.c in kitty before 0.19.3 allows remote attackers to execute arbitrary code because a filename containing special characters can be included in an error message.",
      "Threats": [
        {
          "Type": "Impact",
          "Severity": "critical"
        }
      ],
      "References": [
        {
          "URL": "https://www.suse.com/security/cve/CVE-2020-35605.html",
          "Description": "CVE-2020-35605"
        },
        {
          "URL": "https://bugzilla.suse.com/1180298",
          "Description": "SUSE Bug 1180298"
        }
      ],
      "ProductStatuses": [
        {
          "Type": "Fixed",
          "ProductID": [
            "openSUSE Tumbleweed:kitty-0.21.2-1.2"
          ]
        }
      ],
      "CVSSScoreSets": {}
    }
  ]
}