{
  "Title": "gvim-9.0.0032-1.2 on GA media",
  "Tracking": {
    "ID": "openSUSE-SU-2024:12213-1",
    "Status": "Final",
    "Version": "1",
    "InitialReleaseDate": "2024-06-20T21:44:22Z",
    "CurrentReleaseDate": "2024-06-20T21:44:22Z",
    "RevisionHistory": [
      {
        "Number": "1",
        "Date": "2024-06-20T21:44:22Z",
        "Description": "current"
      }
    ]
  },
  "Notes": [
    {
      "Text": "gvim-9.0.0032-1.2 on GA media",
      "Title": "Topic",
      "Type": "Summary"
    },
    {
      "Text": "These are all security issues fixed in the gvim-9.0.0032-1.2 package on the GA media of openSUSE Tumbleweed.",
      "Title": "Details",
      "Type": "General"
    },
    {
      "Text": "The CVRF data is provided by SUSE under the Creative Commons License 4.0 with Attribution (CC-BY-4.0).",
      "Title": "Terms of Use",
      "Type": "Legal Disclaimer"
    },
    {
      "Text": "openSUSE-Tumbleweed-2024-12213",
      "Title": "Patchnames",
      "Type": "Details"
    }
  ],
  "ProductTree": {
    "Relationships": [
      {
        "ProductReference": "gvim-9.0.0032-1.2",
        "RelatesToProductReference": "openSUSE Tumbleweed",
        "RelationType": "Default Component Of"
      },
      {
        "ProductReference": "vim-9.0.0032-1.2",
        "RelatesToProductReference": "openSUSE Tumbleweed",
        "RelationType": "Default Component Of"
      },
      {
        "ProductReference": "vim-data-9.0.0032-1.2",
        "RelatesToProductReference": "openSUSE Tumbleweed",
        "RelationType": "Default Component Of"
      },
      {
        "ProductReference": "vim-data-common-9.0.0032-1.2",
        "RelatesToProductReference": "openSUSE Tumbleweed",
        "RelationType": "Default Component Of"
      },
      {
        "ProductReference": "vim-small-9.0.0032-1.2",
        "RelatesToProductReference": "openSUSE Tumbleweed",
        "RelationType": "Default Component Of"
      }
    ]
  },
  "References": [
    {
      "URL": "https://www.suse.com/support/security/rating/",
      "Description": "SUSE Security Ratings"
    },
    {
      "URL": "https://www.suse.com/security/cve/CVE-2022-2522/",
      "Description": "SUSE CVE CVE-2022-2522 page"
    }
  ],
  "Vulnerabilities": [
    {
      "CVE": "CVE-2022-2522",
      "Description": "Heap-based Buffer Overflow in GitHub repository vim/vim prior to 9.0.0061.",
      "Threats": [
        {
          "Type": "Impact",
          "Severity": "moderate"
        }
      ],
      "References": [
        {
          "URL": "https://www.suse.com/security/cve/CVE-2022-2522.html",
          "Description": "CVE-2022-2522"
        },
        {
          "URL": "https://bugzilla.suse.com/1201863",
          "Description": "SUSE Bug 1201863"
        }
      ],
      "ProductStatuses": [
        {
          "Type": "Fixed",
          "ProductID": [
            "openSUSE Tumbleweed:gvim-9.0.0032-1.2",
            "openSUSE Tumbleweed:vim-9.0.0032-1.2",
            "openSUSE Tumbleweed:vim-data-9.0.0032-1.2",
            "openSUSE Tumbleweed:vim-data-common-9.0.0032-1.2",
            "openSUSE Tumbleweed:vim-small-9.0.0032-1.2"
          ]
        }
      ],
      "CVSSScoreSets": {}
    }
  ]
}