{
  "Title": "gitoxide-0.36.0-1.1 on GA media",
  "Tracking": {
    "ID": "openSUSE-SU-2024:13987-1",
    "Status": "Final",
    "Version": "1",
    "InitialReleaseDate": "2024-06-20T21:44:22Z",
    "CurrentReleaseDate": "2024-06-20T21:44:22Z",
    "RevisionHistory": [
      {
        "Number": "1",
        "Date": "2024-06-20T21:44:22Z",
        "Description": "current"
      }
    ]
  },
  "Notes": [
    {
      "Text": "gitoxide-0.36.0-1.1 on GA media",
      "Title": "Topic",
      "Type": "Summary"
    },
    {
      "Text": "These are all security issues fixed in the gitoxide-0.36.0-1.1 package on the GA media of openSUSE Tumbleweed.",
      "Title": "Details",
      "Type": "General"
    },
    {
      "Text": "The CVRF data is provided by SUSE under the Creative Commons License 4.0 with Attribution (CC-BY-4.0).",
      "Title": "Terms of Use",
      "Type": "Legal Disclaimer"
    },
    {
      "Text": "openSUSE-Tumbleweed-2024-13987",
      "Title": "Patchnames",
      "Type": "Details"
    }
  ],
  "ProductTree": {
    "Relationships": [
      {
        "ProductReference": "gitoxide-0.36.0-1.1",
        "RelatesToProductReference": "openSUSE Tumbleweed",
        "RelationType": "Default Component Of"
      }
    ]
  },
  "References": [
    {
      "URL": "https://www.suse.com/support/security/rating/",
      "Description": "SUSE Security Ratings"
    },
    {
      "URL": "https://www.suse.com/security/cve/CVE-2024-35186/",
      "Description": "SUSE CVE CVE-2024-35186 page"
    }
  ],
  "Vulnerabilities": [
    {
      "CVE": "CVE-2024-35186",
      "Description": "gitoxide is a pure Rust implementation of Git. During checkout, `gix-worktree-state` does not verify that paths point to locations in the working tree. A specially crafted repository can, when cloned, place new files anywhere writable by the application. This vulnerability leads to a major loss of confidentiality, integrity, and availability, but creating files outside a working tree without attempting to execute code can directly impact integrity as well. This vulnerability has been patched in version(s) 0.36.0.",
      "Threats": [
        {
          "Type": "Impact",
          "Severity": "moderate"
        }
      ],
      "References": [
        {
          "URL": "https://www.suse.com/security/cve/CVE-2024-35186.html",
          "Description": "CVE-2024-35186"
        },
        {
          "URL": "https://bugzilla.suse.com/1225023",
          "Description": "SUSE Bug 1225023"
        }
      ],
      "ProductStatuses": [
        {
          "Type": "Fixed",
          "ProductID": [
            "openSUSE Tumbleweed:gitoxide-0.36.0-1.1"
          ]
        }
      ],
      "CVSSScoreSets": {}
    }
  ]
}