{
  "Title": "rmt-server-2.12-1.1 on GA media",
  "Tracking": {
    "ID": "openSUSE-SU-2024:12886-1",
    "Status": "Final",
    "Version": "1",
    "InitialReleaseDate": "2024-06-20T21:44:22Z",
    "CurrentReleaseDate": "2024-06-20T21:44:22Z",
    "RevisionHistory": [
      {
        "Number": "1",
        "Date": "2024-06-20T21:44:22Z",
        "Description": "current"
      }
    ]
  },
  "Notes": [
    {
      "Text": "rmt-server-2.12-1.1 on GA media",
      "Title": "Topic",
      "Type": "Summary"
    },
    {
      "Text": "These are all security issues fixed in the rmt-server-2.12-1.1 package on the GA media of openSUSE Tumbleweed.",
      "Title": "Details",
      "Type": "General"
    },
    {
      "Text": "The CVRF data is provided by SUSE under the Creative Commons License 4.0 with Attribution (CC-BY-4.0).",
      "Title": "Terms of Use",
      "Type": "Legal Disclaimer"
    },
    {
      "Text": "openSUSE-Tumbleweed-2024-12886",
      "Title": "Patchnames",
      "Type": "Details"
    }
  ],
  "ProductTree": {
    "Relationships": [
      {
        "ProductReference": "rmt-server-2.12-1.1",
        "RelatesToProductReference": "openSUSE Tumbleweed",
        "RelationType": "Default Component Of"
      },
      {
        "ProductReference": "rmt-server-config-2.12-1.1",
        "RelatesToProductReference": "openSUSE Tumbleweed",
        "RelationType": "Default Component Of"
      },
      {
        "ProductReference": "rmt-server-pubcloud-2.12-1.1",
        "RelatesToProductReference": "openSUSE Tumbleweed",
        "RelationType": "Default Component Of"
      }
    ]
  },
  "References": [
    {
      "URL": "https://www.suse.com/support/security/rating/",
      "Description": "SUSE Security Ratings"
    },
    {
      "URL": "https://www.suse.com/security/cve/CVE-2022-31254/",
      "Description": "SUSE CVE CVE-2022-31254 page"
    },
    {
      "URL": "https://www.suse.com/security/cve/CVE-2023-27530/",
      "Description": "SUSE CVE CVE-2023-27530 page"
    },
    {
      "URL": "https://www.suse.com/security/cve/CVE-2023-28120/",
      "Description": "SUSE CVE CVE-2023-28120 page"
    }
  ],
  "Vulnerabilities": [
    {
      "CVE": "CVE-2022-31254",
      "Description": "A Incorrect Default Permissions vulnerability in rmt-server-regsharing service of SUSE Linux Enterprise Server for SAP 15, SUSE Linux Enterprise Server for SAP 15-SP1, SUSE Manager Server 4.1; openSUSE Leap 15.3, openSUSE Leap 15.4 allows local attackers with access to the _rmt user to escalate to root. This issue affects: SUSE Linux Enterprise Server for SAP 15 rmt-server versions prior to 2.10. SUSE Linux Enterprise Server for SAP 15-SP1 rmt-server versions prior to 2.10. SUSE Manager Server 4.1 rmt-server versions prior to 2.10. openSUSE Leap 15.3 rmt-server versions prior to 2.10. openSUSE Leap 15.4 rmt-server versions prior to 2.10.",
      "Threats": [
        {
          "Type": "Impact",
          "Severity": "moderate"
        }
      ],
      "References": [
        {
          "URL": "https://www.suse.com/security/cve/CVE-2022-31254.html",
          "Description": "CVE-2022-31254"
        },
        {
          "URL": "https://bugzilla.suse.com/1204285",
          "Description": "SUSE Bug 1204285"
        },
        {
          "URL": "https://bugzilla.suse.com/1207670",
          "Description": "SUSE Bug 1207670"
        }
      ],
      "ProductStatuses": [
        {
          "Type": "Fixed",
          "ProductID": [
            "openSUSE Tumbleweed:rmt-server-2.12-1.1",
            "openSUSE Tumbleweed:rmt-server-config-2.12-1.1",
            "openSUSE Tumbleweed:rmt-server-pubcloud-2.12-1.1"
          ]
        }
      ],
      "CVSSScoreSets": {}
    },
    {
      "CVE": "CVE-2023-27530",
      "Description": "A DoS vulnerability exists in Rack \u003cv3.0.4.2, \u003cv2.2.6.3, \u003cv2.1.4.3 and \u003cv2.0.9.3 within in the Multipart MIME parsing code in which could allow an attacker to craft requests that can be abuse to cause multipart parsing to take longer than expected.",
      "Threats": [
        {
          "Type": "Impact",
          "Severity": "important"
        }
      ],
      "References": [
        {
          "URL": "https://www.suse.com/security/cve/CVE-2023-27530.html",
          "Description": "CVE-2023-27530"
        },
        {
          "URL": "https://bugzilla.suse.com/1209095",
          "Description": "SUSE Bug 1209095"
        }
      ],
      "ProductStatuses": [
        {
          "Type": "Fixed",
          "ProductID": [
            "openSUSE Tumbleweed:rmt-server-2.12-1.1",
            "openSUSE Tumbleweed:rmt-server-config-2.12-1.1",
            "openSUSE Tumbleweed:rmt-server-pubcloud-2.12-1.1"
          ]
        }
      ],
      "CVSSScoreSets": {}
    },
    {
      "CVE": "CVE-2023-28120",
      "Description": "** RESERVED ** This candidate has been reserved by an organization or individual that will use it when announcing a new security problem. When the candidate has been publicized, the details for this candidate will be provided.",
      "Threats": [
        {
          "Type": "Impact",
          "Severity": "moderate"
        }
      ],
      "References": [
        {
          "URL": "https://www.suse.com/security/cve/CVE-2023-28120.html",
          "Description": "CVE-2023-28120"
        },
        {
          "URL": "https://bugzilla.suse.com/1209505",
          "Description": "SUSE Bug 1209505"
        }
      ],
      "ProductStatuses": [
        {
          "Type": "Fixed",
          "ProductID": [
            "openSUSE Tumbleweed:rmt-server-2.12-1.1",
            "openSUSE Tumbleweed:rmt-server-config-2.12-1.1",
            "openSUSE Tumbleweed:rmt-server-pubcloud-2.12-1.1"
          ]
        }
      ],
      "CVSSScoreSets": {}
    }
  ]
}