{
  "Title": "buildah-1.23.0-1.1 on GA media",
  "Tracking": {
    "ID": "openSUSE-SU-2024:10666-1",
    "Status": "Final",
    "Version": "1",
    "InitialReleaseDate": "2024-06-22T21:44:56Z",
    "CurrentReleaseDate": "2024-06-22T21:44:56Z",
    "RevisionHistory": [
      {
        "Number": "1",
        "Date": "2024-06-22T21:44:56Z",
        "Description": "current"
      }
    ]
  },
  "Notes": [
    {
      "Text": "buildah-1.23.0-1.1 on GA media",
      "Title": "Topic",
      "Type": "Summary"
    },
    {
      "Text": "These are all security issues fixed in the buildah-1.23.0-1.1 package on the GA media of openSUSE Tumbleweed.",
      "Title": "Details",
      "Type": "General"
    },
    {
      "Text": "The CVRF data is provided by SUSE under the Creative Commons License 4.0 with Attribution (CC-BY-4.0).",
      "Title": "Terms of Use",
      "Type": "Legal Disclaimer"
    },
    {
      "Text": "openSUSE-Tumbleweed-2024-10666",
      "Title": "Patchnames",
      "Type": "Details"
    }
  ],
  "ProductTree": {
    "Relationships": [
      {
        "ProductReference": "buildah-1.23.0-1.1",
        "RelatesToProductReference": "openSUSE Tumbleweed",
        "RelationType": "Default Component Of"
      }
    ]
  },
  "References": [
    {
      "URL": "https://www.suse.com/support/security/rating/",
      "Description": "SUSE Security Ratings"
    },
    {
      "URL": "https://www.suse.com/security/cve/CVE-2019-10214/",
      "Description": "SUSE CVE CVE-2019-10214 page"
    },
    {
      "URL": "https://www.suse.com/security/cve/CVE-2020-10696/",
      "Description": "SUSE CVE CVE-2020-10696 page"
    },
    {
      "URL": "https://www.suse.com/security/cve/CVE-2021-20206/",
      "Description": "SUSE CVE CVE-2021-20206 page"
    }
  ],
  "Vulnerabilities": [
    {
      "CVE": "CVE-2019-10214",
      "Description": "The containers/image library used by the container tools Podman, Buildah, and Skopeo in Red Hat Enterprise Linux version 8 and CRI-O in OpenShift Container Platform, does not enforce TLS connections to the container registry authorization service. An attacker could use this vulnerability to launch a MiTM attack and steal login credentials or bearer tokens.",
      "Threats": [
        {
          "Type": "Impact",
          "Severity": "important"
        }
      ],
      "References": [
        {
          "URL": "https://www.suse.com/security/cve/CVE-2019-10214.html",
          "Description": "CVE-2019-10214"
        },
        {
          "URL": "https://bugzilla.suse.com/1144065",
          "Description": "SUSE Bug 1144065"
        }
      ],
      "ProductStatuses": [
        {
          "Type": "Fixed",
          "ProductID": [
            "openSUSE Tumbleweed:buildah-1.23.0-1.1"
          ]
        }
      ],
      "CVSSScoreSets": {}
    },
    {
      "CVE": "CVE-2020-10696",
      "Description": "A path traversal flaw was found in Buildah in versions before 1.14.5. This flaw allows an attacker to trick a user into building a malicious container image hosted on an HTTP(s) server and then write files to the user's system anywhere that the user has permissions.",
      "Threats": [
        {
          "Type": "Impact",
          "Severity": "important"
        }
      ],
      "References": [
        {
          "URL": "https://www.suse.com/security/cve/CVE-2020-10696.html",
          "Description": "CVE-2020-10696"
        },
        {
          "URL": "https://bugzilla.suse.com/1167864",
          "Description": "SUSE Bug 1167864"
        }
      ],
      "ProductStatuses": [
        {
          "Type": "Fixed",
          "ProductID": [
            "openSUSE Tumbleweed:buildah-1.23.0-1.1"
          ]
        }
      ],
      "CVSSScoreSets": {}
    },
    {
      "CVE": "CVE-2021-20206",
      "Description": "An improper limitation of path name flaw was found in containernetworking/cni in versions before 0.8.1. When specifying the plugin to load in the 'type' field in the network configuration, it is possible to use special elements such as \"../\" separators to reference binaries elsewhere on the system. This flaw allows an attacker to execute other existing binaries other than the cni plugins/types, such as 'reboot'. The highest threat from this vulnerability is to confidentiality, integrity, as well as system availability.",
      "Threats": [
        {
          "Type": "Impact",
          "Severity": "important"
        }
      ],
      "References": [
        {
          "URL": "https://www.suse.com/security/cve/CVE-2021-20206.html",
          "Description": "CVE-2021-20206"
        },
        {
          "URL": "https://bugzilla.suse.com/1181961",
          "Description": "SUSE Bug 1181961"
        }
      ],
      "ProductStatuses": [
        {
          "Type": "Fixed",
          "ProductID": [
            "openSUSE Tumbleweed:buildah-1.23.0-1.1"
          ]
        }
      ],
      "CVSSScoreSets": {}
    }
  ]
}