{
  "Title": "libgit2-24-0.24.3-1.1 on GA media",
  "Tracking": {
    "ID": "openSUSE-SU-2024:10249-1",
    "Status": "Final",
    "Version": "1",
    "InitialReleaseDate": "2024-06-22T21:44:56Z",
    "CurrentReleaseDate": "2024-06-22T21:44:56Z",
    "RevisionHistory": [
      {
        "Number": "1",
        "Date": "2024-06-22T21:44:56Z",
        "Description": "current"
      }
    ]
  },
  "Notes": [
    {
      "Text": "libgit2-24-0.24.3-1.1 on GA media",
      "Title": "Topic",
      "Type": "Summary"
    },
    {
      "Text": "These are all security issues fixed in the libgit2-24-0.24.3-1.1 package on the GA media of openSUSE Tumbleweed.",
      "Title": "Details",
      "Type": "General"
    },
    {
      "Text": "The CVRF data is provided by SUSE under the Creative Commons License 4.0 with Attribution (CC-BY-4.0).",
      "Title": "Terms of Use",
      "Type": "Legal Disclaimer"
    },
    {
      "Text": "openSUSE-Tumbleweed-2024-10249",
      "Title": "Patchnames",
      "Type": "Details"
    }
  ],
  "ProductTree": {
    "Relationships": [
      {
        "ProductReference": "libgit2-24-0.24.3-1.1",
        "RelatesToProductReference": "openSUSE Tumbleweed",
        "RelationType": "Default Component Of"
      },
      {
        "ProductReference": "libgit2-24-32bit-0.24.3-1.1",
        "RelatesToProductReference": "openSUSE Tumbleweed",
        "RelationType": "Default Component Of"
      },
      {
        "ProductReference": "libgit2-devel-0.24.3-1.1",
        "RelatesToProductReference": "openSUSE Tumbleweed",
        "RelationType": "Default Component Of"
      }
    ]
  },
  "References": [
    {
      "URL": "https://www.suse.com/support/security/rating/",
      "Description": "SUSE Security Ratings"
    },
    {
      "URL": "https://www.suse.com/security/cve/CVE-2016-8568/",
      "Description": "SUSE CVE CVE-2016-8568 page"
    },
    {
      "URL": "https://www.suse.com/security/cve/CVE-2016-8569/",
      "Description": "SUSE CVE CVE-2016-8569 page"
    }
  ],
  "Vulnerabilities": [
    {
      "CVE": "CVE-2016-8568",
      "Description": "The git_commit_message function in oid.c in libgit2 before 0.24.3 allows remote attackers to cause a denial of service (out-of-bounds read) via a cat-file command with a crafted object file.",
      "Threats": [
        {
          "Type": "Impact",
          "Severity": "moderate"
        }
      ],
      "References": [
        {
          "URL": "https://www.suse.com/security/cve/CVE-2016-8568.html",
          "Description": "CVE-2016-8568"
        },
        {
          "URL": "https://bugzilla.suse.com/1003810",
          "Description": "SUSE Bug 1003810"
        },
        {
          "URL": "https://bugzilla.suse.com/1019036",
          "Description": "SUSE Bug 1019036"
        },
        {
          "URL": "https://bugzilla.suse.com/1019037",
          "Description": "SUSE Bug 1019037"
        }
      ],
      "ProductStatuses": [
        {
          "Type": "Fixed",
          "ProductID": [
            "openSUSE Tumbleweed:libgit2-24-0.24.3-1.1",
            "openSUSE Tumbleweed:libgit2-24-32bit-0.24.3-1.1",
            "openSUSE Tumbleweed:libgit2-devel-0.24.3-1.1"
          ]
        }
      ],
      "CVSSScoreSets": {}
    },
    {
      "CVE": "CVE-2016-8569",
      "Description": "The git_oid_nfmt function in commit.c in libgit2 before 0.24.3 allows remote attackers to cause a denial of service (NULL pointer dereference) via a cat-file command with a crafted object file.",
      "Threats": [
        {
          "Type": "Impact",
          "Severity": "moderate"
        }
      ],
      "References": [
        {
          "URL": "https://www.suse.com/security/cve/CVE-2016-8569.html",
          "Description": "CVE-2016-8569"
        },
        {
          "URL": "https://bugzilla.suse.com/1003810",
          "Description": "SUSE Bug 1003810"
        },
        {
          "URL": "https://bugzilla.suse.com/1019036",
          "Description": "SUSE Bug 1019036"
        },
        {
          "URL": "https://bugzilla.suse.com/1019037",
          "Description": "SUSE Bug 1019037"
        }
      ],
      "ProductStatuses": [
        {
          "Type": "Fixed",
          "ProductID": [
            "openSUSE Tumbleweed:libgit2-24-0.24.3-1.1",
            "openSUSE Tumbleweed:libgit2-24-32bit-0.24.3-1.1",
            "openSUSE Tumbleweed:libgit2-devel-0.24.3-1.1"
          ]
        }
      ],
      "CVSSScoreSets": {}
    }
  ]
}