{
  "Title": "grilo-devel-0.3.13-2.2 on GA media",
  "Tracking": {
    "ID": "openSUSE-SU-2024:10822-1",
    "Status": "Final",
    "Version": "1",
    "InitialReleaseDate": "2024-06-22T21:44:56Z",
    "CurrentReleaseDate": "2024-06-22T21:44:56Z",
    "RevisionHistory": [
      {
        "Number": "1",
        "Date": "2024-06-22T21:44:56Z",
        "Description": "current"
      }
    ]
  },
  "Notes": [
    {
      "Text": "grilo-devel-0.3.13-2.2 on GA media",
      "Title": "Topic",
      "Type": "Summary"
    },
    {
      "Text": "These are all security issues fixed in the grilo-devel-0.3.13-2.2 package on the GA media of openSUSE Tumbleweed.",
      "Title": "Details",
      "Type": "General"
    },
    {
      "Text": "The CVRF data is provided by SUSE under the Creative Commons License 4.0 with Attribution (CC-BY-4.0).",
      "Title": "Terms of Use",
      "Type": "Legal Disclaimer"
    },
    {
      "Text": "openSUSE-Tumbleweed-2024-10822",
      "Title": "Patchnames",
      "Type": "Details"
    }
  ],
  "ProductTree": {
    "Relationships": [
      {
        "ProductReference": "grilo-devel-0.3.13-2.2",
        "RelatesToProductReference": "openSUSE Tumbleweed",
        "RelationType": "Default Component Of"
      },
      {
        "ProductReference": "grilo-lang-0.3.13-2.2",
        "RelatesToProductReference": "openSUSE Tumbleweed",
        "RelationType": "Default Component Of"
      },
      {
        "ProductReference": "grilo-tools-0.3.13-2.2",
        "RelatesToProductReference": "openSUSE Tumbleweed",
        "RelationType": "Default Component Of"
      },
      {
        "ProductReference": "libgrilo-0_3-0-0.3.13-2.2",
        "RelatesToProductReference": "openSUSE Tumbleweed",
        "RelationType": "Default Component Of"
      },
      {
        "ProductReference": "libgrlnet-0_3-0-0.3.13-2.2",
        "RelatesToProductReference": "openSUSE Tumbleweed",
        "RelationType": "Default Component Of"
      },
      {
        "ProductReference": "libgrlpls-0_3-0-0.3.13-2.2",
        "RelatesToProductReference": "openSUSE Tumbleweed",
        "RelationType": "Default Component Of"
      },
      {
        "ProductReference": "typelib-1_0-Grl-0_3-0.3.13-2.2",
        "RelatesToProductReference": "openSUSE Tumbleweed",
        "RelationType": "Default Component Of"
      },
      {
        "ProductReference": "typelib-1_0-GrlNet-0_3-0.3.13-2.2",
        "RelatesToProductReference": "openSUSE Tumbleweed",
        "RelationType": "Default Component Of"
      },
      {
        "ProductReference": "typelib-1_0-GrlPls-0_3-0.3.13-2.2",
        "RelatesToProductReference": "openSUSE Tumbleweed",
        "RelationType": "Default Component Of"
      }
    ]
  },
  "References": [
    {
      "URL": "https://www.suse.com/support/security/rating/",
      "Description": "SUSE Security Ratings"
    },
    {
      "URL": "https://www.suse.com/security/cve/CVE-2021-39365/",
      "Description": "SUSE CVE CVE-2021-39365 page"
    }
  ],
  "Vulnerabilities": [
    {
      "CVE": "CVE-2021-39365",
      "Description": "In GNOME grilo though 0.3.13, grl-net-wc.c does not enable TLS certificate verification on the SoupSessionAsync objects it creates, leaving users vulnerable to network MITM attacks. NOTE: this is similar to CVE-2016-20011.",
      "Threats": [
        {
          "Type": "Impact",
          "Severity": "important"
        }
      ],
      "References": [
        {
          "URL": "https://www.suse.com/security/cve/CVE-2021-39365.html",
          "Description": "CVE-2021-39365"
        },
        {
          "URL": "https://bugzilla.suse.com/1189839",
          "Description": "SUSE Bug 1189839"
        }
      ],
      "ProductStatuses": [
        {
          "Type": "Fixed",
          "ProductID": [
            "openSUSE Tumbleweed:grilo-devel-0.3.13-2.2",
            "openSUSE Tumbleweed:grilo-lang-0.3.13-2.2",
            "openSUSE Tumbleweed:grilo-tools-0.3.13-2.2",
            "openSUSE Tumbleweed:libgrilo-0_3-0-0.3.13-2.2",
            "openSUSE Tumbleweed:libgrlnet-0_3-0-0.3.13-2.2",
            "openSUSE Tumbleweed:libgrlpls-0_3-0-0.3.13-2.2",
            "openSUSE Tumbleweed:typelib-1_0-Grl-0_3-0.3.13-2.2",
            "openSUSE Tumbleweed:typelib-1_0-GrlNet-0_3-0.3.13-2.2",
            "openSUSE Tumbleweed:typelib-1_0-GrlPls-0_3-0.3.13-2.2"
          ]
        }
      ],
      "CVSSScoreSets": {}
    }
  ]
}