{
  "Title": "redis-7.2.4-1.1 on GA media",
  "Tracking": {
    "ID": "openSUSE-SU-2024:13572-1",
    "Status": "Final",
    "Version": "1",
    "InitialReleaseDate": "2024-06-20T21:44:22Z",
    "CurrentReleaseDate": "2024-06-20T21:44:22Z",
    "RevisionHistory": [
      {
        "Number": "1",
        "Date": "2024-06-20T21:44:22Z",
        "Description": "current"
      }
    ]
  },
  "Notes": [
    {
      "Text": "redis-7.2.4-1.1 on GA media",
      "Title": "Topic",
      "Type": "Summary"
    },
    {
      "Text": "These are all security issues fixed in the redis-7.2.4-1.1 package on the GA media of openSUSE Tumbleweed.",
      "Title": "Details",
      "Type": "General"
    },
    {
      "Text": "The CVRF data is provided by SUSE under the Creative Commons License 4.0 with Attribution (CC-BY-4.0).",
      "Title": "Terms of Use",
      "Type": "Legal Disclaimer"
    },
    {
      "Text": "openSUSE-Tumbleweed-2024-13572",
      "Title": "Patchnames",
      "Type": "Details"
    }
  ],
  "ProductTree": {
    "Relationships": [
      {
        "ProductReference": "redis-7.2.4-1.1",
        "RelatesToProductReference": "openSUSE Tumbleweed",
        "RelationType": "Default Component Of"
      }
    ]
  },
  "References": [
    {
      "URL": "https://www.suse.com/support/security/rating/",
      "Description": "SUSE Security Ratings"
    },
    {
      "URL": "https://www.suse.com/security/cve/CVE-2023-41056/",
      "Description": "SUSE CVE CVE-2023-41056 page"
    }
  ],
  "Vulnerabilities": [
    {
      "CVE": "CVE-2023-41056",
      "Description": "Redis is an in-memory database that persists on disk. Redis incorrectly handles resizing of memory buffers which can result in integer overflow that leads to heap overflow and potential remote code execution. This issue has been patched in version 7.0.15 and 7.2.4.",
      "Threats": [
        {
          "Type": "Impact",
          "Severity": "moderate"
        }
      ],
      "References": [
        {
          "URL": "https://www.suse.com/security/cve/CVE-2023-41056.html",
          "Description": "CVE-2023-41056"
        },
        {
          "URL": "https://bugzilla.suse.com/1218646",
          "Description": "SUSE Bug 1218646"
        }
      ],
      "ProductStatuses": [
        {
          "Type": "Fixed",
          "ProductID": [
            "openSUSE Tumbleweed:redis-7.2.4-1.1"
          ]
        }
      ],
      "CVSSScoreSets": {}
    }
  ]
}