{
  "Title": "golang-github-prometheus-node_exporter-1.5.0-1.1 on GA media",
  "Tracking": {
    "ID": "openSUSE-SU-2024:12637-1",
    "Status": "Final",
    "Version": "1",
    "InitialReleaseDate": "2024-06-20T21:44:22Z",
    "CurrentReleaseDate": "2024-06-20T21:44:22Z",
    "RevisionHistory": [
      {
        "Number": "1",
        "Date": "2024-06-20T21:44:22Z",
        "Description": "current"
      }
    ]
  },
  "Notes": [
    {
      "Text": "golang-github-prometheus-node_exporter-1.5.0-1.1 on GA media",
      "Title": "Topic",
      "Type": "Summary"
    },
    {
      "Text": "These are all security issues fixed in the golang-github-prometheus-node_exporter-1.5.0-1.1 package on the GA media of openSUSE Tumbleweed.",
      "Title": "Details",
      "Type": "General"
    },
    {
      "Text": "The CVRF data is provided by SUSE under the Creative Commons License 4.0 with Attribution (CC-BY-4.0).",
      "Title": "Terms of Use",
      "Type": "Legal Disclaimer"
    },
    {
      "Text": "openSUSE-Tumbleweed-2024-12637",
      "Title": "Patchnames",
      "Type": "Details"
    }
  ],
  "ProductTree": {
    "Relationships": [
      {
        "ProductReference": "golang-github-prometheus-node_exporter-1.5.0-1.1",
        "RelatesToProductReference": "openSUSE Tumbleweed",
        "RelationType": "Default Component Of"
      }
    ]
  },
  "References": [
    {
      "URL": "https://www.suse.com/support/security/rating/",
      "Description": "SUSE Security Ratings"
    },
    {
      "URL": "https://www.suse.com/security/cve/CVE-2022-27191/",
      "Description": "SUSE CVE CVE-2022-27191 page"
    },
    {
      "URL": "https://www.suse.com/security/cve/CVE-2022-46146/",
      "Description": "SUSE CVE CVE-2022-46146 page"
    }
  ],
  "Vulnerabilities": [
    {
      "CVE": "CVE-2022-27191",
      "Description": "The golang.org/x/crypto/ssh package before 0.0.0-20220314234659-1baeb1ce4c0b for Go allows an attacker to crash a server in certain circumstances involving AddHostKey.",
      "Threats": [
        {
          "Type": "Impact",
          "Severity": "important"
        }
      ],
      "References": [
        {
          "URL": "https://www.suse.com/security/cve/CVE-2022-27191.html",
          "Description": "CVE-2022-27191"
        },
        {
          "URL": "https://bugzilla.suse.com/1197284",
          "Description": "SUSE Bug 1197284"
        }
      ],
      "ProductStatuses": [
        {
          "Type": "Fixed",
          "ProductID": [
            "openSUSE Tumbleweed:golang-github-prometheus-node_exporter-1.5.0-1.1"
          ]
        }
      ],
      "CVSSScoreSets": {}
    },
    {
      "CVE": "CVE-2022-46146",
      "Description": "Prometheus Exporter Toolkit is a utility package to build exporters. Prior to versions 0.7.2 and 0.8.2, if someone has access to a Prometheus web.yml file and users' bcrypted passwords, they can bypass security by poisoning the built-in authentication cache. Versions 0.7.2 and 0.8.2 contain a fix for the issue. There is no workaround, but attacker must have access to the hashed password to use this functionality.",
      "Threats": [
        {
          "Type": "Impact",
          "Severity": "moderate"
        }
      ],
      "References": [
        {
          "URL": "https://www.suse.com/security/cve/CVE-2022-46146.html",
          "Description": "CVE-2022-46146"
        },
        {
          "URL": "https://bugzilla.suse.com/1208046",
          "Description": "SUSE Bug 1208046"
        }
      ],
      "ProductStatuses": [
        {
          "Type": "Fixed",
          "ProductID": [
            "openSUSE Tumbleweed:golang-github-prometheus-node_exporter-1.5.0-1.1"
          ]
        }
      ],
      "CVSSScoreSets": {}
    }
  ]
}