{
  "Title": "389-ds-2.0.14~git25.e6431d959-1.1 on GA media",
  "Tracking": {
    "ID": "openSUSE-SU-2024:11952-1",
    "Status": "Final",
    "Version": "1",
    "InitialReleaseDate": "2024-06-20T21:44:22Z",
    "CurrentReleaseDate": "2024-06-20T21:44:22Z",
    "RevisionHistory": [
      {
        "Number": "1",
        "Date": "2024-06-20T21:44:22Z",
        "Description": "current"
      }
    ]
  },
  "Notes": [
    {
      "Text": "389-ds-2.0.14~git25.e6431d959-1.1 on GA media",
      "Title": "Topic",
      "Type": "Summary"
    },
    {
      "Text": "These are all security issues fixed in the 389-ds-2.0.14~git25.e6431d959-1.1 package on the GA media of openSUSE Tumbleweed.",
      "Title": "Details",
      "Type": "General"
    },
    {
      "Text": "The CVRF data is provided by SUSE under the Creative Commons License 4.0 with Attribution (CC-BY-4.0).",
      "Title": "Terms of Use",
      "Type": "Legal Disclaimer"
    },
    {
      "Text": "openSUSE-Tumbleweed-2024-11952",
      "Title": "Patchnames",
      "Type": "Details"
    }
  ],
  "ProductTree": {
    "Relationships": [
      {
        "ProductReference": "389-ds-2.0.14~git25.e6431d959-1.1",
        "RelatesToProductReference": "openSUSE Tumbleweed",
        "RelationType": "Default Component Of"
      },
      {
        "ProductReference": "389-ds-devel-2.0.14~git25.e6431d959-1.1",
        "RelatesToProductReference": "openSUSE Tumbleweed",
        "RelationType": "Default Component Of"
      },
      {
        "ProductReference": "389-ds-snmp-2.0.14~git25.e6431d959-1.1",
        "RelatesToProductReference": "openSUSE Tumbleweed",
        "RelationType": "Default Component Of"
      },
      {
        "ProductReference": "lib389-2.0.14~git25.e6431d959-1.1",
        "RelatesToProductReference": "openSUSE Tumbleweed",
        "RelationType": "Default Component Of"
      },
      {
        "ProductReference": "libsvrcore0-2.0.14~git25.e6431d959-1.1",
        "RelatesToProductReference": "openSUSE Tumbleweed",
        "RelationType": "Default Component Of"
      }
    ]
  },
  "References": [
    {
      "URL": "https://www.suse.com/support/security/rating/",
      "Description": "SUSE Security Ratings"
    },
    {
      "URL": "https://www.suse.com/security/cve/CVE-2022-0996/",
      "Description": "SUSE CVE CVE-2022-0996 page"
    }
  ],
  "Vulnerabilities": [
    {
      "CVE": "CVE-2022-0996",
      "Description": "A vulnerability was found in the 389 Directory Server that allows expired passwords to access the database to cause improper authentication.",
      "Threats": [
        {
          "Type": "Impact",
          "Severity": "moderate"
        }
      ],
      "References": [
        {
          "URL": "https://www.suse.com/security/cve/CVE-2022-0996.html",
          "Description": "CVE-2022-0996"
        },
        {
          "URL": "https://bugzilla.suse.com/1197345",
          "Description": "SUSE Bug 1197345"
        }
      ],
      "ProductStatuses": [
        {
          "Type": "Fixed",
          "ProductID": [
            "openSUSE Tumbleweed:389-ds-2.0.14~git25.e6431d959-1.1",
            "openSUSE Tumbleweed:389-ds-devel-2.0.14~git25.e6431d959-1.1",
            "openSUSE Tumbleweed:389-ds-snmp-2.0.14~git25.e6431d959-1.1",
            "openSUSE Tumbleweed:lib389-2.0.14~git25.e6431d959-1.1",
            "openSUSE Tumbleweed:libsvrcore0-2.0.14~git25.e6431d959-1.1"
          ]
        }
      ],
      "CVSSScoreSets": {}
    }
  ]
}