{
  "Title": "mutt-2.2.3-1.1 on GA media",
  "Tracking": {
    "ID": "openSUSE-SU-2024:12010-1",
    "Status": "Final",
    "Version": "1",
    "InitialReleaseDate": "2024-06-20T21:44:22Z",
    "CurrentReleaseDate": "2024-06-20T21:44:22Z",
    "RevisionHistory": [
      {
        "Number": "1",
        "Date": "2024-06-20T21:44:22Z",
        "Description": "current"
      }
    ]
  },
  "Notes": [
    {
      "Text": "mutt-2.2.3-1.1 on GA media",
      "Title": "Topic",
      "Type": "Summary"
    },
    {
      "Text": "These are all security issues fixed in the mutt-2.2.3-1.1 package on the GA media of openSUSE Tumbleweed.",
      "Title": "Details",
      "Type": "General"
    },
    {
      "Text": "The CVRF data is provided by SUSE under the Creative Commons License 4.0 with Attribution (CC-BY-4.0).",
      "Title": "Terms of Use",
      "Type": "Legal Disclaimer"
    },
    {
      "Text": "openSUSE-Tumbleweed-2024-12010",
      "Title": "Patchnames",
      "Type": "Details"
    }
  ],
  "ProductTree": {
    "Relationships": [
      {
        "ProductReference": "mutt-2.2.3-1.1",
        "RelatesToProductReference": "openSUSE Tumbleweed",
        "RelationType": "Default Component Of"
      },
      {
        "ProductReference": "mutt-doc-2.2.3-1.1",
        "RelatesToProductReference": "openSUSE Tumbleweed",
        "RelationType": "Default Component Of"
      },
      {
        "ProductReference": "mutt-lang-2.2.3-1.1",
        "RelatesToProductReference": "openSUSE Tumbleweed",
        "RelationType": "Default Component Of"
      }
    ]
  },
  "References": [
    {
      "URL": "https://www.suse.com/support/security/rating/",
      "Description": "SUSE Security Ratings"
    },
    {
      "URL": "https://www.suse.com/security/cve/CVE-2022-1328/",
      "Description": "SUSE CVE CVE-2022-1328 page"
    }
  ],
  "Vulnerabilities": [
    {
      "CVE": "CVE-2022-1328",
      "Description": "Buffer Overflow in uudecoder in Mutt affecting all versions starting from 0.94.13 before 2.2.3 allows read past end of input line",
      "Threats": [
        {
          "Type": "Impact",
          "Severity": "moderate"
        }
      ],
      "References": [
        {
          "URL": "https://www.suse.com/security/cve/CVE-2022-1328.html",
          "Description": "CVE-2022-1328"
        },
        {
          "URL": "https://bugzilla.suse.com/1198518",
          "Description": "SUSE Bug 1198518"
        }
      ],
      "ProductStatuses": [
        {
          "Type": "Fixed",
          "ProductID": [
            "openSUSE Tumbleweed:mutt-2.2.3-1.1",
            "openSUSE Tumbleweed:mutt-doc-2.2.3-1.1",
            "openSUSE Tumbleweed:mutt-lang-2.2.3-1.1"
          ]
        }
      ],
      "CVSSScoreSets": {}
    }
  ]
}