{
  "Title": "python-2.7.18-37.1 on GA media",
  "Tracking": {
    "ID": "openSUSE-SU-2024:13135-1",
    "Status": "Final",
    "Version": "1",
    "InitialReleaseDate": "2024-06-20T21:44:22Z",
    "CurrentReleaseDate": "2024-06-20T21:44:22Z",
    "RevisionHistory": [
      {
        "Number": "1",
        "Date": "2024-06-20T21:44:22Z",
        "Description": "current"
      }
    ]
  },
  "Notes": [
    {
      "Text": "python-2.7.18-37.1 on GA media",
      "Title": "Topic",
      "Type": "Summary"
    },
    {
      "Text": "These are all security issues fixed in the python-2.7.18-37.1 package on the GA media of openSUSE Tumbleweed.",
      "Title": "Details",
      "Type": "General"
    },
    {
      "Text": "The CVRF data is provided by SUSE under the Creative Commons License 4.0 with Attribution (CC-BY-4.0).",
      "Title": "Terms of Use",
      "Type": "Legal Disclaimer"
    },
    {
      "Text": "openSUSE-Tumbleweed-2024-13135",
      "Title": "Patchnames",
      "Type": "Details"
    }
  ],
  "ProductTree": {
    "Relationships": [
      {
        "ProductReference": "python-2.7.18-37.1",
        "RelatesToProductReference": "openSUSE Tumbleweed",
        "RelationType": "Default Component Of"
      },
      {
        "ProductReference": "python-32bit-2.7.18-37.1",
        "RelatesToProductReference": "openSUSE Tumbleweed",
        "RelationType": "Default Component Of"
      },
      {
        "ProductReference": "python-curses-2.7.18-37.1",
        "RelatesToProductReference": "openSUSE Tumbleweed",
        "RelationType": "Default Component Of"
      },
      {
        "ProductReference": "python-demo-2.7.18-37.1",
        "RelatesToProductReference": "openSUSE Tumbleweed",
        "RelationType": "Default Component Of"
      },
      {
        "ProductReference": "python-gdbm-2.7.18-37.1",
        "RelatesToProductReference": "openSUSE Tumbleweed",
        "RelationType": "Default Component Of"
      },
      {
        "ProductReference": "python-idle-2.7.18-37.1",
        "RelatesToProductReference": "openSUSE Tumbleweed",
        "RelationType": "Default Component Of"
      },
      {
        "ProductReference": "python-tk-2.7.18-37.1",
        "RelatesToProductReference": "openSUSE Tumbleweed",
        "RelationType": "Default Component Of"
      }
    ]
  },
  "References": [
    {
      "URL": "https://www.suse.com/support/security/rating/",
      "Description": "SUSE Security Ratings"
    },
    {
      "URL": "https://www.suse.com/security/cve/CVE-2023-27043/",
      "Description": "SUSE CVE CVE-2023-27043 page"
    }
  ],
  "Vulnerabilities": [
    {
      "CVE": "CVE-2023-27043",
      "Description": "The email module of Python through 3.11.3 incorrectly parses e-mail addresses that contain a special character. The wrong portion of an RFC2822 header is identified as the value of the addr-spec. In some applications, an attacker can bypass a protection mechanism in which application access is granted only after verifying receipt of e-mail to a specific domain (e.g., only @company.example.com addresses may be used for signup). This occurs in email/_parseaddr.py in recent versions of Python.",
      "Threats": [
        {
          "Type": "Impact",
          "Severity": "moderate"
        }
      ],
      "References": [
        {
          "URL": "https://www.suse.com/security/cve/CVE-2023-27043.html",
          "Description": "CVE-2023-27043"
        },
        {
          "URL": "https://bugzilla.suse.com/1210638",
          "Description": "SUSE Bug 1210638"
        },
        {
          "URL": "https://bugzilla.suse.com/1222537",
          "Description": "SUSE Bug 1222537"
        }
      ],
      "ProductStatuses": [
        {
          "Type": "Fixed",
          "ProductID": [
            "openSUSE Tumbleweed:python-2.7.18-37.1",
            "openSUSE Tumbleweed:python-32bit-2.7.18-37.1",
            "openSUSE Tumbleweed:python-curses-2.7.18-37.1",
            "openSUSE Tumbleweed:python-demo-2.7.18-37.1",
            "openSUSE Tumbleweed:python-gdbm-2.7.18-37.1",
            "openSUSE Tumbleweed:python-idle-2.7.18-37.1",
            "openSUSE Tumbleweed:python-tk-2.7.18-37.1"
          ]
        }
      ],
      "CVSSScoreSets": {}
    }
  ]
}