{
  "Title": "ctdb-4.15.2+git.193.a4d6307f1fd-1.1 on GA media",
  "Tracking": {
    "ID": "openSUSE-SU-2024:11631-1",
    "Status": "Final",
    "Version": "1",
    "InitialReleaseDate": "2024-06-22T21:44:56Z",
    "CurrentReleaseDate": "2024-06-22T21:44:56Z",
    "RevisionHistory": [
      {
        "Number": "1",
        "Date": "2024-06-22T21:44:56Z",
        "Description": "current"
      }
    ]
  },
  "Notes": [
    {
      "Text": "ctdb-4.15.2+git.193.a4d6307f1fd-1.1 on GA media",
      "Title": "Topic",
      "Type": "Summary"
    },
    {
      "Text": "These are all security issues fixed in the ctdb-4.15.2+git.193.a4d6307f1fd-1.1 package on the GA media of openSUSE Tumbleweed.",
      "Title": "Details",
      "Type": "General"
    },
    {
      "Text": "The CVRF data is provided by SUSE under the Creative Commons License 4.0 with Attribution (CC-BY-4.0).",
      "Title": "Terms of Use",
      "Type": "Legal Disclaimer"
    },
    {
      "Text": "openSUSE-Tumbleweed-2024-11631",
      "Title": "Patchnames",
      "Type": "Details"
    }
  ],
  "ProductTree": {
    "Relationships": [
      {
        "ProductReference": "ctdb-4.15.2+git.193.a4d6307f1fd-1.1",
        "RelatesToProductReference": "openSUSE Tumbleweed",
        "RelationType": "Default Component Of"
      },
      {
        "ProductReference": "ctdb-pcp-pmda-4.15.2+git.193.a4d6307f1fd-1.1",
        "RelatesToProductReference": "openSUSE Tumbleweed",
        "RelationType": "Default Component Of"
      },
      {
        "ProductReference": "libdcerpc-binding0-4.15.2+git.193.a4d6307f1fd-1.1",
        "RelatesToProductReference": "openSUSE Tumbleweed",
        "RelationType": "Default Component Of"
      },
      {
        "ProductReference": "libdcerpc-binding0-32bit-4.15.2+git.193.a4d6307f1fd-1.1",
        "RelatesToProductReference": "openSUSE Tumbleweed",
        "RelationType": "Default Component Of"
      },
      {
        "ProductReference": "libdcerpc-devel-4.15.2+git.193.a4d6307f1fd-1.1",
        "RelatesToProductReference": "openSUSE Tumbleweed",
        "RelationType": "Default Component Of"
      },
      {
        "ProductReference": "libdcerpc-samr-devel-4.15.2+git.193.a4d6307f1fd-1.1",
        "RelatesToProductReference": "openSUSE Tumbleweed",
        "RelationType": "Default Component Of"
      },
      {
        "ProductReference": "libdcerpc-samr0-4.15.2+git.193.a4d6307f1fd-1.1",
        "RelatesToProductReference": "openSUSE Tumbleweed",
        "RelationType": "Default Component Of"
      },
      {
        "ProductReference": "libdcerpc-samr0-32bit-4.15.2+git.193.a4d6307f1fd-1.1",
        "RelatesToProductReference": "openSUSE Tumbleweed",
        "RelationType": "Default Component Of"
      },
      {
        "ProductReference": "libdcerpc0-4.15.2+git.193.a4d6307f1fd-1.1",
        "RelatesToProductReference": "openSUSE Tumbleweed",
        "RelationType": "Default Component Of"
      },
      {
        "ProductReference": "libdcerpc0-32bit-4.15.2+git.193.a4d6307f1fd-1.1",
        "RelatesToProductReference": "openSUSE Tumbleweed",
        "RelationType": "Default Component Of"
      },
      {
        "ProductReference": "libndr-devel-4.15.2+git.193.a4d6307f1fd-1.1",
        "RelatesToProductReference": "openSUSE Tumbleweed",
        "RelationType": "Default Component Of"
      },
      {
        "ProductReference": "libndr-krb5pac-devel-4.15.2+git.193.a4d6307f1fd-1.1",
        "RelatesToProductReference": "openSUSE Tumbleweed",
        "RelationType": "Default Component Of"
      },
      {
        "ProductReference": "libndr-krb5pac0-4.15.2+git.193.a4d6307f1fd-1.1",
        "RelatesToProductReference": "openSUSE Tumbleweed",
        "RelationType": "Default Component Of"
      },
      {
        "ProductReference": "libndr-krb5pac0-32bit-4.15.2+git.193.a4d6307f1fd-1.1",
        "RelatesToProductReference": "openSUSE Tumbleweed",
        "RelationType": "Default Component Of"
      },
      {
        "ProductReference": "libndr-nbt-devel-4.15.2+git.193.a4d6307f1fd-1.1",
        "RelatesToProductReference": "openSUSE Tumbleweed",
        "RelationType": "Default Component Of"
      },
      {
        "ProductReference": "libndr-nbt0-4.15.2+git.193.a4d6307f1fd-1.1",
        "RelatesToProductReference": "openSUSE Tumbleweed",
        "RelationType": "Default Component Of"
      },
      {
        "ProductReference": "libndr-nbt0-32bit-4.15.2+git.193.a4d6307f1fd-1.1",
        "RelatesToProductReference": "openSUSE Tumbleweed",
        "RelationType": "Default Component Of"
      },
      {
        "ProductReference": "libndr-standard-devel-4.15.2+git.193.a4d6307f1fd-1.1",
        "RelatesToProductReference": "openSUSE Tumbleweed",
        "RelationType": "Default Component Of"
      },
      {
        "ProductReference": "libndr-standard0-4.15.2+git.193.a4d6307f1fd-1.1",
        "RelatesToProductReference": "openSUSE Tumbleweed",
        "RelationType": "Default Component Of"
      },
      {
        "ProductReference": "libndr-standard0-32bit-4.15.2+git.193.a4d6307f1fd-1.1",
        "RelatesToProductReference": "openSUSE Tumbleweed",
        "RelationType": "Default Component Of"
      },
      {
        "ProductReference": "libndr2-4.15.2+git.193.a4d6307f1fd-1.1",
        "RelatesToProductReference": "openSUSE Tumbleweed",
        "RelationType": "Default Component Of"
      },
      {
        "ProductReference": "libndr2-32bit-4.15.2+git.193.a4d6307f1fd-1.1",
        "RelatesToProductReference": "openSUSE Tumbleweed",
        "RelationType": "Default Component Of"
      },
      {
        "ProductReference": "libnetapi-devel-4.15.2+git.193.a4d6307f1fd-1.1",
        "RelatesToProductReference": "openSUSE Tumbleweed",
        "RelationType": "Default Component Of"
      },
      {
        "ProductReference": "libnetapi-devel-32bit-4.15.2+git.193.a4d6307f1fd-1.1",
        "RelatesToProductReference": "openSUSE Tumbleweed",
        "RelationType": "Default Component Of"
      },
      {
        "ProductReference": "libnetapi0-4.15.2+git.193.a4d6307f1fd-1.1",
        "RelatesToProductReference": "openSUSE Tumbleweed",
        "RelationType": "Default Component Of"
      },
      {
        "ProductReference": "libnetapi0-32bit-4.15.2+git.193.a4d6307f1fd-1.1",
        "RelatesToProductReference": "openSUSE Tumbleweed",
        "RelationType": "Default Component Of"
      },
      {
        "ProductReference": "libsamba-credentials-devel-4.15.2+git.193.a4d6307f1fd-1.1",
        "RelatesToProductReference": "openSUSE Tumbleweed",
        "RelationType": "Default Component Of"
      },
      {
        "ProductReference": "libsamba-credentials1-4.15.2+git.193.a4d6307f1fd-1.1",
        "RelatesToProductReference": "openSUSE Tumbleweed",
        "RelationType": "Default Component Of"
      },
      {
        "ProductReference": "libsamba-credentials1-32bit-4.15.2+git.193.a4d6307f1fd-1.1",
        "RelatesToProductReference": "openSUSE Tumbleweed",
        "RelationType": "Default Component Of"
      },
      {
        "ProductReference": "libsamba-errors-devel-4.15.2+git.193.a4d6307f1fd-1.1",
        "RelatesToProductReference": "openSUSE Tumbleweed",
        "RelationType": "Default Component Of"
      },
      {
        "ProductReference": "libsamba-errors0-4.15.2+git.193.a4d6307f1fd-1.1",
        "RelatesToProductReference": "openSUSE Tumbleweed",
        "RelationType": "Default Component Of"
      },
      {
        "ProductReference": "libsamba-errors0-32bit-4.15.2+git.193.a4d6307f1fd-1.1",
        "RelatesToProductReference": "openSUSE Tumbleweed",
        "RelationType": "Default Component Of"
      },
      {
        "ProductReference": "libsamba-hostconfig-devel-4.15.2+git.193.a4d6307f1fd-1.1",
        "RelatesToProductReference": "openSUSE Tumbleweed",
        "RelationType": "Default Component Of"
      },
      {
        "ProductReference": "libsamba-hostconfig0-4.15.2+git.193.a4d6307f1fd-1.1",
        "RelatesToProductReference": "openSUSE Tumbleweed",
        "RelationType": "Default Component Of"
      },
      {
        "ProductReference": "libsamba-hostconfig0-32bit-4.15.2+git.193.a4d6307f1fd-1.1",
        "RelatesToProductReference": "openSUSE Tumbleweed",
        "RelationType": "Default Component Of"
      },
      {
        "ProductReference": "libsamba-passdb-devel-4.15.2+git.193.a4d6307f1fd-1.1",
        "RelatesToProductReference": "openSUSE Tumbleweed",
        "RelationType": "Default Component Of"
      },
      {
        "ProductReference": "libsamba-passdb0-4.15.2+git.193.a4d6307f1fd-1.1",
        "RelatesToProductReference": "openSUSE Tumbleweed",
        "RelationType": "Default Component Of"
      },
      {
        "ProductReference": "libsamba-passdb0-32bit-4.15.2+git.193.a4d6307f1fd-1.1",
        "RelatesToProductReference": "openSUSE Tumbleweed",
        "RelationType": "Default Component Of"
      },
      {
        "ProductReference": "libsamba-policy-devel-4.15.2+git.193.a4d6307f1fd-1.1",
        "RelatesToProductReference": "openSUSE Tumbleweed",
        "RelationType": "Default Component Of"
      },
      {
        "ProductReference": "libsamba-policy-python3-devel-4.15.2+git.193.a4d6307f1fd-1.1",
        "RelatesToProductReference": "openSUSE Tumbleweed",
        "RelationType": "Default Component Of"
      },
      {
        "ProductReference": "libsamba-policy0-python3-4.15.2+git.193.a4d6307f1fd-1.1",
        "RelatesToProductReference": "openSUSE Tumbleweed",
        "RelationType": "Default Component Of"
      },
      {
        "ProductReference": "libsamba-policy0-python3-32bit-4.15.2+git.193.a4d6307f1fd-1.1",
        "RelatesToProductReference": "openSUSE Tumbleweed",
        "RelationType": "Default Component Of"
      },
      {
        "ProductReference": "libsamba-util-devel-4.15.2+git.193.a4d6307f1fd-1.1",
        "RelatesToProductReference": "openSUSE Tumbleweed",
        "RelationType": "Default Component Of"
      },
      {
        "ProductReference": "libsamba-util0-4.15.2+git.193.a4d6307f1fd-1.1",
        "RelatesToProductReference": "openSUSE Tumbleweed",
        "RelationType": "Default Component Of"
      },
      {
        "ProductReference": "libsamba-util0-32bit-4.15.2+git.193.a4d6307f1fd-1.1",
        "RelatesToProductReference": "openSUSE Tumbleweed",
        "RelationType": "Default Component Of"
      },
      {
        "ProductReference": "libsamdb-devel-4.15.2+git.193.a4d6307f1fd-1.1",
        "RelatesToProductReference": "openSUSE Tumbleweed",
        "RelationType": "Default Component Of"
      },
      {
        "ProductReference": "libsamdb0-4.15.2+git.193.a4d6307f1fd-1.1",
        "RelatesToProductReference": "openSUSE Tumbleweed",
        "RelationType": "Default Component Of"
      },
      {
        "ProductReference": "libsamdb0-32bit-4.15.2+git.193.a4d6307f1fd-1.1",
        "RelatesToProductReference": "openSUSE Tumbleweed",
        "RelationType": "Default Component Of"
      },
      {
        "ProductReference": "libsmbclient-devel-4.15.2+git.193.a4d6307f1fd-1.1",
        "RelatesToProductReference": "openSUSE Tumbleweed",
        "RelationType": "Default Component Of"
      },
      {
        "ProductReference": "libsmbclient0-4.15.2+git.193.a4d6307f1fd-1.1",
        "RelatesToProductReference": "openSUSE Tumbleweed",
        "RelationType": "Default Component Of"
      },
      {
        "ProductReference": "libsmbclient0-32bit-4.15.2+git.193.a4d6307f1fd-1.1",
        "RelatesToProductReference": "openSUSE Tumbleweed",
        "RelationType": "Default Component Of"
      },
      {
        "ProductReference": "libsmbconf-devel-4.15.2+git.193.a4d6307f1fd-1.1",
        "RelatesToProductReference": "openSUSE Tumbleweed",
        "RelationType": "Default Component Of"
      },
      {
        "ProductReference": "libsmbconf0-4.15.2+git.193.a4d6307f1fd-1.1",
        "RelatesToProductReference": "openSUSE Tumbleweed",
        "RelationType": "Default Component Of"
      },
      {
        "ProductReference": "libsmbconf0-32bit-4.15.2+git.193.a4d6307f1fd-1.1",
        "RelatesToProductReference": "openSUSE Tumbleweed",
        "RelationType": "Default Component Of"
      },
      {
        "ProductReference": "libsmbldap-devel-4.15.2+git.193.a4d6307f1fd-1.1",
        "RelatesToProductReference": "openSUSE Tumbleweed",
        "RelationType": "Default Component Of"
      },
      {
        "ProductReference": "libsmbldap2-4.15.2+git.193.a4d6307f1fd-1.1",
        "RelatesToProductReference": "openSUSE Tumbleweed",
        "RelationType": "Default Component Of"
      },
      {
        "ProductReference": "libsmbldap2-32bit-4.15.2+git.193.a4d6307f1fd-1.1",
        "RelatesToProductReference": "openSUSE Tumbleweed",
        "RelationType": "Default Component Of"
      },
      {
        "ProductReference": "libtevent-util-devel-4.15.2+git.193.a4d6307f1fd-1.1",
        "RelatesToProductReference": "openSUSE Tumbleweed",
        "RelationType": "Default Component Of"
      },
      {
        "ProductReference": "libtevent-util0-4.15.2+git.193.a4d6307f1fd-1.1",
        "RelatesToProductReference": "openSUSE Tumbleweed",
        "RelationType": "Default Component Of"
      },
      {
        "ProductReference": "libtevent-util0-32bit-4.15.2+git.193.a4d6307f1fd-1.1",
        "RelatesToProductReference": "openSUSE Tumbleweed",
        "RelationType": "Default Component Of"
      },
      {
        "ProductReference": "libwbclient-devel-4.15.2+git.193.a4d6307f1fd-1.1",
        "RelatesToProductReference": "openSUSE Tumbleweed",
        "RelationType": "Default Component Of"
      },
      {
        "ProductReference": "libwbclient0-4.15.2+git.193.a4d6307f1fd-1.1",
        "RelatesToProductReference": "openSUSE Tumbleweed",
        "RelationType": "Default Component Of"
      },
      {
        "ProductReference": "libwbclient0-32bit-4.15.2+git.193.a4d6307f1fd-1.1",
        "RelatesToProductReference": "openSUSE Tumbleweed",
        "RelationType": "Default Component Of"
      },
      {
        "ProductReference": "samba-4.15.2+git.193.a4d6307f1fd-1.1",
        "RelatesToProductReference": "openSUSE Tumbleweed",
        "RelationType": "Default Component Of"
      },
      {
        "ProductReference": "samba-ad-dc-4.15.2+git.193.a4d6307f1fd-1.1",
        "RelatesToProductReference": "openSUSE Tumbleweed",
        "RelationType": "Default Component Of"
      },
      {
        "ProductReference": "samba-ad-dc-32bit-4.15.2+git.193.a4d6307f1fd-1.1",
        "RelatesToProductReference": "openSUSE Tumbleweed",
        "RelationType": "Default Component Of"
      },
      {
        "ProductReference": "samba-ceph-4.15.2+git.193.a4d6307f1fd-1.1",
        "RelatesToProductReference": "openSUSE Tumbleweed",
        "RelationType": "Default Component Of"
      },
      {
        "ProductReference": "samba-client-4.15.2+git.193.a4d6307f1fd-1.1",
        "RelatesToProductReference": "openSUSE Tumbleweed",
        "RelationType": "Default Component Of"
      },
      {
        "ProductReference": "samba-client-32bit-4.15.2+git.193.a4d6307f1fd-1.1",
        "RelatesToProductReference": "openSUSE Tumbleweed",
        "RelationType": "Default Component Of"
      },
      {
        "ProductReference": "samba-core-devel-4.15.2+git.193.a4d6307f1fd-1.1",
        "RelatesToProductReference": "openSUSE Tumbleweed",
        "RelationType": "Default Component Of"
      },
      {
        "ProductReference": "samba-doc-4.15.2+git.193.a4d6307f1fd-1.1",
        "RelatesToProductReference": "openSUSE Tumbleweed",
        "RelationType": "Default Component Of"
      },
      {
        "ProductReference": "samba-dsdb-modules-4.15.2+git.193.a4d6307f1fd-1.1",
        "RelatesToProductReference": "openSUSE Tumbleweed",
        "RelationType": "Default Component Of"
      },
      {
        "ProductReference": "samba-gpupdate-4.15.2+git.193.a4d6307f1fd-1.1",
        "RelatesToProductReference": "openSUSE Tumbleweed",
        "RelationType": "Default Component Of"
      },
      {
        "ProductReference": "samba-ldb-ldap-4.15.2+git.193.a4d6307f1fd-1.1",
        "RelatesToProductReference": "openSUSE Tumbleweed",
        "RelationType": "Default Component Of"
      },
      {
        "ProductReference": "samba-libs-4.15.2+git.193.a4d6307f1fd-1.1",
        "RelatesToProductReference": "openSUSE Tumbleweed",
        "RelationType": "Default Component Of"
      },
      {
        "ProductReference": "samba-libs-32bit-4.15.2+git.193.a4d6307f1fd-1.1",
        "RelatesToProductReference": "openSUSE Tumbleweed",
        "RelationType": "Default Component Of"
      },
      {
        "ProductReference": "samba-libs-python3-4.15.2+git.193.a4d6307f1fd-1.1",
        "RelatesToProductReference": "openSUSE Tumbleweed",
        "RelationType": "Default Component Of"
      },
      {
        "ProductReference": "samba-libs-python3-32bit-4.15.2+git.193.a4d6307f1fd-1.1",
        "RelatesToProductReference": "openSUSE Tumbleweed",
        "RelationType": "Default Component Of"
      },
      {
        "ProductReference": "samba-python3-4.15.2+git.193.a4d6307f1fd-1.1",
        "RelatesToProductReference": "openSUSE Tumbleweed",
        "RelationType": "Default Component Of"
      },
      {
        "ProductReference": "samba-test-4.15.2+git.193.a4d6307f1fd-1.1",
        "RelatesToProductReference": "openSUSE Tumbleweed",
        "RelationType": "Default Component Of"
      },
      {
        "ProductReference": "samba-tool-4.15.2+git.193.a4d6307f1fd-1.1",
        "RelatesToProductReference": "openSUSE Tumbleweed",
        "RelationType": "Default Component Of"
      },
      {
        "ProductReference": "samba-winbind-4.15.2+git.193.a4d6307f1fd-1.1",
        "RelatesToProductReference": "openSUSE Tumbleweed",
        "RelationType": "Default Component Of"
      },
      {
        "ProductReference": "samba-winbind-32bit-4.15.2+git.193.a4d6307f1fd-1.1",
        "RelatesToProductReference": "openSUSE Tumbleweed",
        "RelationType": "Default Component Of"
      }
    ]
  },
  "References": [
    {
      "URL": "https://www.suse.com/support/security/rating/",
      "Description": "SUSE Security Ratings"
    },
    {
      "URL": "https://www.suse.com/security/cve/CVE-2016-2124/",
      "Description": "SUSE CVE CVE-2016-2124 page"
    },
    {
      "URL": "https://www.suse.com/security/cve/CVE-2020-17049/",
      "Description": "SUSE CVE CVE-2020-17049 page"
    },
    {
      "URL": "https://www.suse.com/security/cve/CVE-2020-25717/",
      "Description": "SUSE CVE CVE-2020-25717 page"
    },
    {
      "URL": "https://www.suse.com/security/cve/CVE-2020-25718/",
      "Description": "SUSE CVE CVE-2020-25718 page"
    },
    {
      "URL": "https://www.suse.com/security/cve/CVE-2020-25719/",
      "Description": "SUSE CVE CVE-2020-25719 page"
    },
    {
      "URL": "https://www.suse.com/security/cve/CVE-2020-25721/",
      "Description": "SUSE CVE CVE-2020-25721 page"
    },
    {
      "URL": "https://www.suse.com/security/cve/CVE-2020-25722/",
      "Description": "SUSE CVE CVE-2020-25722 page"
    },
    {
      "URL": "https://www.suse.com/security/cve/CVE-2021-23192/",
      "Description": "SUSE CVE CVE-2021-23192 page"
    },
    {
      "URL": "https://www.suse.com/security/cve/CVE-2021-3738/",
      "Description": "SUSE CVE CVE-2021-3738 page"
    }
  ],
  "Vulnerabilities": [
    {
      "CVE": "CVE-2016-2124",
      "Description": "A flaw was found in the way samba implemented SMB1 authentication. An attacker could use this flaw to retrieve the plaintext password sent over the wire even if Kerberos authentication was required.",
      "Threats": [
        {
          "Type": "Impact",
          "Severity": "moderate"
        }
      ],
      "References": [
        {
          "URL": "https://www.suse.com/security/cve/CVE-2016-2124.html",
          "Description": "CVE-2016-2124"
        },
        {
          "URL": "https://bugzilla.suse.com/1014440",
          "Description": "SUSE Bug 1014440"
        }
      ],
      "ProductStatuses": [
        {
          "Type": "Fixed",
          "ProductID": [
            "openSUSE Tumbleweed:ctdb-4.15.2+git.193.a4d6307f1fd-1.1",
            "openSUSE Tumbleweed:ctdb-pcp-pmda-4.15.2+git.193.a4d6307f1fd-1.1",
            "openSUSE Tumbleweed:libdcerpc-binding0-32bit-4.15.2+git.193.a4d6307f1fd-1.1",
            "openSUSE Tumbleweed:libdcerpc-binding0-4.15.2+git.193.a4d6307f1fd-1.1",
            "openSUSE Tumbleweed:libdcerpc-devel-4.15.2+git.193.a4d6307f1fd-1.1",
            "openSUSE Tumbleweed:libdcerpc-samr-devel-4.15.2+git.193.a4d6307f1fd-1.1",
            "openSUSE Tumbleweed:libdcerpc-samr0-32bit-4.15.2+git.193.a4d6307f1fd-1.1",
            "openSUSE Tumbleweed:libdcerpc-samr0-4.15.2+git.193.a4d6307f1fd-1.1",
            "openSUSE Tumbleweed:libdcerpc0-32bit-4.15.2+git.193.a4d6307f1fd-1.1",
            "openSUSE Tumbleweed:libdcerpc0-4.15.2+git.193.a4d6307f1fd-1.1",
            "openSUSE Tumbleweed:libndr-devel-4.15.2+git.193.a4d6307f1fd-1.1",
            "openSUSE Tumbleweed:libndr-krb5pac-devel-4.15.2+git.193.a4d6307f1fd-1.1",
            "openSUSE Tumbleweed:libndr-krb5pac0-32bit-4.15.2+git.193.a4d6307f1fd-1.1",
            "openSUSE Tumbleweed:libndr-krb5pac0-4.15.2+git.193.a4d6307f1fd-1.1",
            "openSUSE Tumbleweed:libndr-nbt-devel-4.15.2+git.193.a4d6307f1fd-1.1",
            "openSUSE Tumbleweed:libndr-nbt0-32bit-4.15.2+git.193.a4d6307f1fd-1.1",
            "openSUSE Tumbleweed:libndr-nbt0-4.15.2+git.193.a4d6307f1fd-1.1",
            "openSUSE Tumbleweed:libndr-standard-devel-4.15.2+git.193.a4d6307f1fd-1.1",
            "openSUSE Tumbleweed:libndr-standard0-32bit-4.15.2+git.193.a4d6307f1fd-1.1",
            "openSUSE Tumbleweed:libndr-standard0-4.15.2+git.193.a4d6307f1fd-1.1",
            "openSUSE Tumbleweed:libndr2-32bit-4.15.2+git.193.a4d6307f1fd-1.1",
            "openSUSE Tumbleweed:libndr2-4.15.2+git.193.a4d6307f1fd-1.1",
            "openSUSE Tumbleweed:libnetapi-devel-32bit-4.15.2+git.193.a4d6307f1fd-1.1",
            "openSUSE Tumbleweed:libnetapi-devel-4.15.2+git.193.a4d6307f1fd-1.1",
            "openSUSE Tumbleweed:libnetapi0-32bit-4.15.2+git.193.a4d6307f1fd-1.1",
            "openSUSE Tumbleweed:libnetapi0-4.15.2+git.193.a4d6307f1fd-1.1",
            "openSUSE Tumbleweed:libsamba-credentials-devel-4.15.2+git.193.a4d6307f1fd-1.1",
            "openSUSE Tumbleweed:libsamba-credentials1-32bit-4.15.2+git.193.a4d6307f1fd-1.1",
            "openSUSE Tumbleweed:libsamba-credentials1-4.15.2+git.193.a4d6307f1fd-1.1",
            "openSUSE Tumbleweed:libsamba-errors-devel-4.15.2+git.193.a4d6307f1fd-1.1",
            "openSUSE Tumbleweed:libsamba-errors0-32bit-4.15.2+git.193.a4d6307f1fd-1.1",
            "openSUSE Tumbleweed:libsamba-errors0-4.15.2+git.193.a4d6307f1fd-1.1",
            "openSUSE Tumbleweed:libsamba-hostconfig-devel-4.15.2+git.193.a4d6307f1fd-1.1",
            "openSUSE Tumbleweed:libsamba-hostconfig0-32bit-4.15.2+git.193.a4d6307f1fd-1.1",
            "openSUSE Tumbleweed:libsamba-hostconfig0-4.15.2+git.193.a4d6307f1fd-1.1",
            "openSUSE Tumbleweed:libsamba-passdb-devel-4.15.2+git.193.a4d6307f1fd-1.1",
            "openSUSE Tumbleweed:libsamba-passdb0-32bit-4.15.2+git.193.a4d6307f1fd-1.1",
            "openSUSE Tumbleweed:libsamba-passdb0-4.15.2+git.193.a4d6307f1fd-1.1",
            "openSUSE Tumbleweed:libsamba-policy-devel-4.15.2+git.193.a4d6307f1fd-1.1",
            "openSUSE Tumbleweed:libsamba-policy-python3-devel-4.15.2+git.193.a4d6307f1fd-1.1",
            "openSUSE Tumbleweed:libsamba-policy0-python3-32bit-4.15.2+git.193.a4d6307f1fd-1.1",
            "openSUSE Tumbleweed:libsamba-policy0-python3-4.15.2+git.193.a4d6307f1fd-1.1",
            "openSUSE Tumbleweed:libsamba-util-devel-4.15.2+git.193.a4d6307f1fd-1.1",
            "openSUSE Tumbleweed:libsamba-util0-32bit-4.15.2+git.193.a4d6307f1fd-1.1",
            "openSUSE Tumbleweed:libsamba-util0-4.15.2+git.193.a4d6307f1fd-1.1",
            "openSUSE Tumbleweed:libsamdb-devel-4.15.2+git.193.a4d6307f1fd-1.1",
            "openSUSE Tumbleweed:libsamdb0-32bit-4.15.2+git.193.a4d6307f1fd-1.1",
            "openSUSE Tumbleweed:libsamdb0-4.15.2+git.193.a4d6307f1fd-1.1",
            "openSUSE Tumbleweed:libsmbclient-devel-4.15.2+git.193.a4d6307f1fd-1.1",
            "openSUSE Tumbleweed:libsmbclient0-32bit-4.15.2+git.193.a4d6307f1fd-1.1",
            "openSUSE Tumbleweed:libsmbclient0-4.15.2+git.193.a4d6307f1fd-1.1",
            "openSUSE Tumbleweed:libsmbconf-devel-4.15.2+git.193.a4d6307f1fd-1.1",
            "openSUSE Tumbleweed:libsmbconf0-32bit-4.15.2+git.193.a4d6307f1fd-1.1",
            "openSUSE Tumbleweed:libsmbconf0-4.15.2+git.193.a4d6307f1fd-1.1",
            "openSUSE Tumbleweed:libsmbldap-devel-4.15.2+git.193.a4d6307f1fd-1.1",
            "openSUSE Tumbleweed:libsmbldap2-32bit-4.15.2+git.193.a4d6307f1fd-1.1",
            "openSUSE Tumbleweed:libsmbldap2-4.15.2+git.193.a4d6307f1fd-1.1",
            "openSUSE Tumbleweed:libtevent-util-devel-4.15.2+git.193.a4d6307f1fd-1.1",
            "openSUSE Tumbleweed:libtevent-util0-32bit-4.15.2+git.193.a4d6307f1fd-1.1",
            "openSUSE Tumbleweed:libtevent-util0-4.15.2+git.193.a4d6307f1fd-1.1",
            "openSUSE Tumbleweed:libwbclient-devel-4.15.2+git.193.a4d6307f1fd-1.1",
            "openSUSE Tumbleweed:libwbclient0-32bit-4.15.2+git.193.a4d6307f1fd-1.1",
            "openSUSE Tumbleweed:libwbclient0-4.15.2+git.193.a4d6307f1fd-1.1",
            "openSUSE Tumbleweed:samba-4.15.2+git.193.a4d6307f1fd-1.1",
            "openSUSE Tumbleweed:samba-ad-dc-32bit-4.15.2+git.193.a4d6307f1fd-1.1",
            "openSUSE Tumbleweed:samba-ad-dc-4.15.2+git.193.a4d6307f1fd-1.1",
            "openSUSE Tumbleweed:samba-ceph-4.15.2+git.193.a4d6307f1fd-1.1",
            "openSUSE Tumbleweed:samba-client-32bit-4.15.2+git.193.a4d6307f1fd-1.1",
            "openSUSE Tumbleweed:samba-client-4.15.2+git.193.a4d6307f1fd-1.1",
            "openSUSE Tumbleweed:samba-core-devel-4.15.2+git.193.a4d6307f1fd-1.1",
            "openSUSE Tumbleweed:samba-doc-4.15.2+git.193.a4d6307f1fd-1.1",
            "openSUSE Tumbleweed:samba-dsdb-modules-4.15.2+git.193.a4d6307f1fd-1.1",
            "openSUSE Tumbleweed:samba-gpupdate-4.15.2+git.193.a4d6307f1fd-1.1",
            "openSUSE Tumbleweed:samba-ldb-ldap-4.15.2+git.193.a4d6307f1fd-1.1",
            "openSUSE Tumbleweed:samba-libs-32bit-4.15.2+git.193.a4d6307f1fd-1.1",
            "openSUSE Tumbleweed:samba-libs-4.15.2+git.193.a4d6307f1fd-1.1",
            "openSUSE Tumbleweed:samba-libs-python3-32bit-4.15.2+git.193.a4d6307f1fd-1.1",
            "openSUSE Tumbleweed:samba-libs-python3-4.15.2+git.193.a4d6307f1fd-1.1",
            "openSUSE Tumbleweed:samba-python3-4.15.2+git.193.a4d6307f1fd-1.1",
            "openSUSE Tumbleweed:samba-test-4.15.2+git.193.a4d6307f1fd-1.1",
            "openSUSE Tumbleweed:samba-tool-4.15.2+git.193.a4d6307f1fd-1.1",
            "openSUSE Tumbleweed:samba-winbind-32bit-4.15.2+git.193.a4d6307f1fd-1.1",
            "openSUSE Tumbleweed:samba-winbind-4.15.2+git.193.a4d6307f1fd-1.1"
          ]
        }
      ],
      "CVSSScoreSets": {
        "BaseScore": "2.9",
        "Vector": "AV:A/AC:M/Au:N/C:P/I:N/A:N"
      }
    },
    {
      "CVE": "CVE-2020-17049",
      "Description": "\u003cp\u003eA security feature bypass vulnerability exists in the way Key Distribution Center (KDC) determines if a service ticket can be used for delegation via Kerberos Constrained Delegation (KCD).\u003c/p\u003e\n\u003cp\u003eTo exploit the vulnerability, a compromised service that is configured to use KCD could tamper with a service ticket that is not valid for delegation to force the KDC to accept it.\u003c/p\u003e\n\u003cp\u003eThe update addresses this vulnerability by changing how the KDC validates service tickets used with KCD.\u003c/p\u003e\n",
      "Threats": [
        {
          "Type": "Impact",
          "Severity": "important"
        }
      ],
      "References": [
        {
          "URL": "https://www.suse.com/security/cve/CVE-2020-17049.html",
          "Description": "CVE-2020-17049"
        },
        {
          "URL": "https://bugzilla.suse.com/1178754",
          "Description": "SUSE Bug 1178754"
        },
        {
          "URL": "https://bugzilla.suse.com/1178764",
          "Description": "SUSE Bug 1178764"
        }
      ],
      "ProductStatuses": [
        {
          "Type": "Fixed",
          "ProductID": [
            "openSUSE Tumbleweed:ctdb-4.15.2+git.193.a4d6307f1fd-1.1",
            "openSUSE Tumbleweed:ctdb-pcp-pmda-4.15.2+git.193.a4d6307f1fd-1.1",
            "openSUSE Tumbleweed:libdcerpc-binding0-32bit-4.15.2+git.193.a4d6307f1fd-1.1",
            "openSUSE Tumbleweed:libdcerpc-binding0-4.15.2+git.193.a4d6307f1fd-1.1",
            "openSUSE Tumbleweed:libdcerpc-devel-4.15.2+git.193.a4d6307f1fd-1.1",
            "openSUSE Tumbleweed:libdcerpc-samr-devel-4.15.2+git.193.a4d6307f1fd-1.1",
            "openSUSE Tumbleweed:libdcerpc-samr0-32bit-4.15.2+git.193.a4d6307f1fd-1.1",
            "openSUSE Tumbleweed:libdcerpc-samr0-4.15.2+git.193.a4d6307f1fd-1.1",
            "openSUSE Tumbleweed:libdcerpc0-32bit-4.15.2+git.193.a4d6307f1fd-1.1",
            "openSUSE Tumbleweed:libdcerpc0-4.15.2+git.193.a4d6307f1fd-1.1",
            "openSUSE Tumbleweed:libndr-devel-4.15.2+git.193.a4d6307f1fd-1.1",
            "openSUSE Tumbleweed:libndr-krb5pac-devel-4.15.2+git.193.a4d6307f1fd-1.1",
            "openSUSE Tumbleweed:libndr-krb5pac0-32bit-4.15.2+git.193.a4d6307f1fd-1.1",
            "openSUSE Tumbleweed:libndr-krb5pac0-4.15.2+git.193.a4d6307f1fd-1.1",
            "openSUSE Tumbleweed:libndr-nbt-devel-4.15.2+git.193.a4d6307f1fd-1.1",
            "openSUSE Tumbleweed:libndr-nbt0-32bit-4.15.2+git.193.a4d6307f1fd-1.1",
            "openSUSE Tumbleweed:libndr-nbt0-4.15.2+git.193.a4d6307f1fd-1.1",
            "openSUSE Tumbleweed:libndr-standard-devel-4.15.2+git.193.a4d6307f1fd-1.1",
            "openSUSE Tumbleweed:libndr-standard0-32bit-4.15.2+git.193.a4d6307f1fd-1.1",
            "openSUSE Tumbleweed:libndr-standard0-4.15.2+git.193.a4d6307f1fd-1.1",
            "openSUSE Tumbleweed:libndr2-32bit-4.15.2+git.193.a4d6307f1fd-1.1",
            "openSUSE Tumbleweed:libndr2-4.15.2+git.193.a4d6307f1fd-1.1",
            "openSUSE Tumbleweed:libnetapi-devel-32bit-4.15.2+git.193.a4d6307f1fd-1.1",
            "openSUSE Tumbleweed:libnetapi-devel-4.15.2+git.193.a4d6307f1fd-1.1",
            "openSUSE Tumbleweed:libnetapi0-32bit-4.15.2+git.193.a4d6307f1fd-1.1",
            "openSUSE Tumbleweed:libnetapi0-4.15.2+git.193.a4d6307f1fd-1.1",
            "openSUSE Tumbleweed:libsamba-credentials-devel-4.15.2+git.193.a4d6307f1fd-1.1",
            "openSUSE Tumbleweed:libsamba-credentials1-32bit-4.15.2+git.193.a4d6307f1fd-1.1",
            "openSUSE Tumbleweed:libsamba-credentials1-4.15.2+git.193.a4d6307f1fd-1.1",
            "openSUSE Tumbleweed:libsamba-errors-devel-4.15.2+git.193.a4d6307f1fd-1.1",
            "openSUSE Tumbleweed:libsamba-errors0-32bit-4.15.2+git.193.a4d6307f1fd-1.1",
            "openSUSE Tumbleweed:libsamba-errors0-4.15.2+git.193.a4d6307f1fd-1.1",
            "openSUSE Tumbleweed:libsamba-hostconfig-devel-4.15.2+git.193.a4d6307f1fd-1.1",
            "openSUSE Tumbleweed:libsamba-hostconfig0-32bit-4.15.2+git.193.a4d6307f1fd-1.1",
            "openSUSE Tumbleweed:libsamba-hostconfig0-4.15.2+git.193.a4d6307f1fd-1.1",
            "openSUSE Tumbleweed:libsamba-passdb-devel-4.15.2+git.193.a4d6307f1fd-1.1",
            "openSUSE Tumbleweed:libsamba-passdb0-32bit-4.15.2+git.193.a4d6307f1fd-1.1",
            "openSUSE Tumbleweed:libsamba-passdb0-4.15.2+git.193.a4d6307f1fd-1.1",
            "openSUSE Tumbleweed:libsamba-policy-devel-4.15.2+git.193.a4d6307f1fd-1.1",
            "openSUSE Tumbleweed:libsamba-policy-python3-devel-4.15.2+git.193.a4d6307f1fd-1.1",
            "openSUSE Tumbleweed:libsamba-policy0-python3-32bit-4.15.2+git.193.a4d6307f1fd-1.1",
            "openSUSE Tumbleweed:libsamba-policy0-python3-4.15.2+git.193.a4d6307f1fd-1.1",
            "openSUSE Tumbleweed:libsamba-util-devel-4.15.2+git.193.a4d6307f1fd-1.1",
            "openSUSE Tumbleweed:libsamba-util0-32bit-4.15.2+git.193.a4d6307f1fd-1.1",
            "openSUSE Tumbleweed:libsamba-util0-4.15.2+git.193.a4d6307f1fd-1.1",
            "openSUSE Tumbleweed:libsamdb-devel-4.15.2+git.193.a4d6307f1fd-1.1",
            "openSUSE Tumbleweed:libsamdb0-32bit-4.15.2+git.193.a4d6307f1fd-1.1",
            "openSUSE Tumbleweed:libsamdb0-4.15.2+git.193.a4d6307f1fd-1.1",
            "openSUSE Tumbleweed:libsmbclient-devel-4.15.2+git.193.a4d6307f1fd-1.1",
            "openSUSE Tumbleweed:libsmbclient0-32bit-4.15.2+git.193.a4d6307f1fd-1.1",
            "openSUSE Tumbleweed:libsmbclient0-4.15.2+git.193.a4d6307f1fd-1.1",
            "openSUSE Tumbleweed:libsmbconf-devel-4.15.2+git.193.a4d6307f1fd-1.1",
            "openSUSE Tumbleweed:libsmbconf0-32bit-4.15.2+git.193.a4d6307f1fd-1.1",
            "openSUSE Tumbleweed:libsmbconf0-4.15.2+git.193.a4d6307f1fd-1.1",
            "openSUSE Tumbleweed:libsmbldap-devel-4.15.2+git.193.a4d6307f1fd-1.1",
            "openSUSE Tumbleweed:libsmbldap2-32bit-4.15.2+git.193.a4d6307f1fd-1.1",
            "openSUSE Tumbleweed:libsmbldap2-4.15.2+git.193.a4d6307f1fd-1.1",
            "openSUSE Tumbleweed:libtevent-util-devel-4.15.2+git.193.a4d6307f1fd-1.1",
            "openSUSE Tumbleweed:libtevent-util0-32bit-4.15.2+git.193.a4d6307f1fd-1.1",
            "openSUSE Tumbleweed:libtevent-util0-4.15.2+git.193.a4d6307f1fd-1.1",
            "openSUSE Tumbleweed:libwbclient-devel-4.15.2+git.193.a4d6307f1fd-1.1",
            "openSUSE Tumbleweed:libwbclient0-32bit-4.15.2+git.193.a4d6307f1fd-1.1",
            "openSUSE Tumbleweed:libwbclient0-4.15.2+git.193.a4d6307f1fd-1.1",
            "openSUSE Tumbleweed:samba-4.15.2+git.193.a4d6307f1fd-1.1",
            "openSUSE Tumbleweed:samba-ad-dc-32bit-4.15.2+git.193.a4d6307f1fd-1.1",
            "openSUSE Tumbleweed:samba-ad-dc-4.15.2+git.193.a4d6307f1fd-1.1",
            "openSUSE Tumbleweed:samba-ceph-4.15.2+git.193.a4d6307f1fd-1.1",
            "openSUSE Tumbleweed:samba-client-32bit-4.15.2+git.193.a4d6307f1fd-1.1",
            "openSUSE Tumbleweed:samba-client-4.15.2+git.193.a4d6307f1fd-1.1",
            "openSUSE Tumbleweed:samba-core-devel-4.15.2+git.193.a4d6307f1fd-1.1",
            "openSUSE Tumbleweed:samba-doc-4.15.2+git.193.a4d6307f1fd-1.1",
            "openSUSE Tumbleweed:samba-dsdb-modules-4.15.2+git.193.a4d6307f1fd-1.1",
            "openSUSE Tumbleweed:samba-gpupdate-4.15.2+git.193.a4d6307f1fd-1.1",
            "openSUSE Tumbleweed:samba-ldb-ldap-4.15.2+git.193.a4d6307f1fd-1.1",
            "openSUSE Tumbleweed:samba-libs-32bit-4.15.2+git.193.a4d6307f1fd-1.1",
            "openSUSE Tumbleweed:samba-libs-4.15.2+git.193.a4d6307f1fd-1.1",
            "openSUSE Tumbleweed:samba-libs-python3-32bit-4.15.2+git.193.a4d6307f1fd-1.1",
            "openSUSE Tumbleweed:samba-libs-python3-4.15.2+git.193.a4d6307f1fd-1.1",
            "openSUSE Tumbleweed:samba-python3-4.15.2+git.193.a4d6307f1fd-1.1",
            "openSUSE Tumbleweed:samba-test-4.15.2+git.193.a4d6307f1fd-1.1",
            "openSUSE Tumbleweed:samba-tool-4.15.2+git.193.a4d6307f1fd-1.1",
            "openSUSE Tumbleweed:samba-winbind-32bit-4.15.2+git.193.a4d6307f1fd-1.1",
            "openSUSE Tumbleweed:samba-winbind-4.15.2+git.193.a4d6307f1fd-1.1"
          ]
        }
      ],
      "CVSSScoreSets": {}
    },
    {
      "CVE": "CVE-2020-25717",
      "Description": "A flaw was found in the way Samba maps domain users to local users. An authenticated attacker could use this flaw to cause possible privilege escalation.",
      "Threats": [
        {
          "Type": "Impact",
          "Severity": "important"
        }
      ],
      "References": [
        {
          "URL": "https://www.suse.com/security/cve/CVE-2020-25717.html",
          "Description": "CVE-2020-25717"
        },
        {
          "URL": "https://bugzilla.suse.com/1192284",
          "Description": "SUSE Bug 1192284"
        },
        {
          "URL": "https://bugzilla.suse.com/1192505",
          "Description": "SUSE Bug 1192505"
        },
        {
          "URL": "https://bugzilla.suse.com/1192601",
          "Description": "SUSE Bug 1192601"
        },
        {
          "URL": "https://bugzilla.suse.com/1192849",
          "Description": "SUSE Bug 1192849"
        },
        {
          "URL": "https://bugzilla.suse.com/1193011",
          "Description": "SUSE Bug 1193011"
        },
        {
          "URL": "https://bugzilla.suse.com/1194049",
          "Description": "SUSE Bug 1194049"
        },
        {
          "URL": "https://bugzilla.suse.com/1194307",
          "Description": "SUSE Bug 1194307"
        },
        {
          "URL": "https://bugzilla.suse.com/1195815",
          "Description": "SUSE Bug 1195815"
        },
        {
          "URL": "https://bugzilla.suse.com/1196344",
          "Description": "SUSE Bug 1196344"
        },
        {
          "URL": "https://bugzilla.suse.com/1196717",
          "Description": "SUSE Bug 1196717"
        },
        {
          "URL": "https://bugzilla.suse.com/1196920",
          "Description": "SUSE Bug 1196920"
        },
        {
          "URL": "https://bugzilla.suse.com/1205061",
          "Description": "SUSE Bug 1205061"
        }
      ],
      "ProductStatuses": [
        {
          "Type": "Fixed",
          "ProductID": [
            "openSUSE Tumbleweed:ctdb-4.15.2+git.193.a4d6307f1fd-1.1",
            "openSUSE Tumbleweed:ctdb-pcp-pmda-4.15.2+git.193.a4d6307f1fd-1.1",
            "openSUSE Tumbleweed:libdcerpc-binding0-32bit-4.15.2+git.193.a4d6307f1fd-1.1",
            "openSUSE Tumbleweed:libdcerpc-binding0-4.15.2+git.193.a4d6307f1fd-1.1",
            "openSUSE Tumbleweed:libdcerpc-devel-4.15.2+git.193.a4d6307f1fd-1.1",
            "openSUSE Tumbleweed:libdcerpc-samr-devel-4.15.2+git.193.a4d6307f1fd-1.1",
            "openSUSE Tumbleweed:libdcerpc-samr0-32bit-4.15.2+git.193.a4d6307f1fd-1.1",
            "openSUSE Tumbleweed:libdcerpc-samr0-4.15.2+git.193.a4d6307f1fd-1.1",
            "openSUSE Tumbleweed:libdcerpc0-32bit-4.15.2+git.193.a4d6307f1fd-1.1",
            "openSUSE Tumbleweed:libdcerpc0-4.15.2+git.193.a4d6307f1fd-1.1",
            "openSUSE Tumbleweed:libndr-devel-4.15.2+git.193.a4d6307f1fd-1.1",
            "openSUSE Tumbleweed:libndr-krb5pac-devel-4.15.2+git.193.a4d6307f1fd-1.1",
            "openSUSE Tumbleweed:libndr-krb5pac0-32bit-4.15.2+git.193.a4d6307f1fd-1.1",
            "openSUSE Tumbleweed:libndr-krb5pac0-4.15.2+git.193.a4d6307f1fd-1.1",
            "openSUSE Tumbleweed:libndr-nbt-devel-4.15.2+git.193.a4d6307f1fd-1.1",
            "openSUSE Tumbleweed:libndr-nbt0-32bit-4.15.2+git.193.a4d6307f1fd-1.1",
            "openSUSE Tumbleweed:libndr-nbt0-4.15.2+git.193.a4d6307f1fd-1.1",
            "openSUSE Tumbleweed:libndr-standard-devel-4.15.2+git.193.a4d6307f1fd-1.1",
            "openSUSE Tumbleweed:libndr-standard0-32bit-4.15.2+git.193.a4d6307f1fd-1.1",
            "openSUSE Tumbleweed:libndr-standard0-4.15.2+git.193.a4d6307f1fd-1.1",
            "openSUSE Tumbleweed:libndr2-32bit-4.15.2+git.193.a4d6307f1fd-1.1",
            "openSUSE Tumbleweed:libndr2-4.15.2+git.193.a4d6307f1fd-1.1",
            "openSUSE Tumbleweed:libnetapi-devel-32bit-4.15.2+git.193.a4d6307f1fd-1.1",
            "openSUSE Tumbleweed:libnetapi-devel-4.15.2+git.193.a4d6307f1fd-1.1",
            "openSUSE Tumbleweed:libnetapi0-32bit-4.15.2+git.193.a4d6307f1fd-1.1",
            "openSUSE Tumbleweed:libnetapi0-4.15.2+git.193.a4d6307f1fd-1.1",
            "openSUSE Tumbleweed:libsamba-credentials-devel-4.15.2+git.193.a4d6307f1fd-1.1",
            "openSUSE Tumbleweed:libsamba-credentials1-32bit-4.15.2+git.193.a4d6307f1fd-1.1",
            "openSUSE Tumbleweed:libsamba-credentials1-4.15.2+git.193.a4d6307f1fd-1.1",
            "openSUSE Tumbleweed:libsamba-errors-devel-4.15.2+git.193.a4d6307f1fd-1.1",
            "openSUSE Tumbleweed:libsamba-errors0-32bit-4.15.2+git.193.a4d6307f1fd-1.1",
            "openSUSE Tumbleweed:libsamba-errors0-4.15.2+git.193.a4d6307f1fd-1.1",
            "openSUSE Tumbleweed:libsamba-hostconfig-devel-4.15.2+git.193.a4d6307f1fd-1.1",
            "openSUSE Tumbleweed:libsamba-hostconfig0-32bit-4.15.2+git.193.a4d6307f1fd-1.1",
            "openSUSE Tumbleweed:libsamba-hostconfig0-4.15.2+git.193.a4d6307f1fd-1.1",
            "openSUSE Tumbleweed:libsamba-passdb-devel-4.15.2+git.193.a4d6307f1fd-1.1",
            "openSUSE Tumbleweed:libsamba-passdb0-32bit-4.15.2+git.193.a4d6307f1fd-1.1",
            "openSUSE Tumbleweed:libsamba-passdb0-4.15.2+git.193.a4d6307f1fd-1.1",
            "openSUSE Tumbleweed:libsamba-policy-devel-4.15.2+git.193.a4d6307f1fd-1.1",
            "openSUSE Tumbleweed:libsamba-policy-python3-devel-4.15.2+git.193.a4d6307f1fd-1.1",
            "openSUSE Tumbleweed:libsamba-policy0-python3-32bit-4.15.2+git.193.a4d6307f1fd-1.1",
            "openSUSE Tumbleweed:libsamba-policy0-python3-4.15.2+git.193.a4d6307f1fd-1.1",
            "openSUSE Tumbleweed:libsamba-util-devel-4.15.2+git.193.a4d6307f1fd-1.1",
            "openSUSE Tumbleweed:libsamba-util0-32bit-4.15.2+git.193.a4d6307f1fd-1.1",
            "openSUSE Tumbleweed:libsamba-util0-4.15.2+git.193.a4d6307f1fd-1.1",
            "openSUSE Tumbleweed:libsamdb-devel-4.15.2+git.193.a4d6307f1fd-1.1",
            "openSUSE Tumbleweed:libsamdb0-32bit-4.15.2+git.193.a4d6307f1fd-1.1",
            "openSUSE Tumbleweed:libsamdb0-4.15.2+git.193.a4d6307f1fd-1.1",
            "openSUSE Tumbleweed:libsmbclient-devel-4.15.2+git.193.a4d6307f1fd-1.1",
            "openSUSE Tumbleweed:libsmbclient0-32bit-4.15.2+git.193.a4d6307f1fd-1.1",
            "openSUSE Tumbleweed:libsmbclient0-4.15.2+git.193.a4d6307f1fd-1.1",
            "openSUSE Tumbleweed:libsmbconf-devel-4.15.2+git.193.a4d6307f1fd-1.1",
            "openSUSE Tumbleweed:libsmbconf0-32bit-4.15.2+git.193.a4d6307f1fd-1.1",
            "openSUSE Tumbleweed:libsmbconf0-4.15.2+git.193.a4d6307f1fd-1.1",
            "openSUSE Tumbleweed:libsmbldap-devel-4.15.2+git.193.a4d6307f1fd-1.1",
            "openSUSE Tumbleweed:libsmbldap2-32bit-4.15.2+git.193.a4d6307f1fd-1.1",
            "openSUSE Tumbleweed:libsmbldap2-4.15.2+git.193.a4d6307f1fd-1.1",
            "openSUSE Tumbleweed:libtevent-util-devel-4.15.2+git.193.a4d6307f1fd-1.1",
            "openSUSE Tumbleweed:libtevent-util0-32bit-4.15.2+git.193.a4d6307f1fd-1.1",
            "openSUSE Tumbleweed:libtevent-util0-4.15.2+git.193.a4d6307f1fd-1.1",
            "openSUSE Tumbleweed:libwbclient-devel-4.15.2+git.193.a4d6307f1fd-1.1",
            "openSUSE Tumbleweed:libwbclient0-32bit-4.15.2+git.193.a4d6307f1fd-1.1",
            "openSUSE Tumbleweed:libwbclient0-4.15.2+git.193.a4d6307f1fd-1.1",
            "openSUSE Tumbleweed:samba-4.15.2+git.193.a4d6307f1fd-1.1",
            "openSUSE Tumbleweed:samba-ad-dc-32bit-4.15.2+git.193.a4d6307f1fd-1.1",
            "openSUSE Tumbleweed:samba-ad-dc-4.15.2+git.193.a4d6307f1fd-1.1",
            "openSUSE Tumbleweed:samba-ceph-4.15.2+git.193.a4d6307f1fd-1.1",
            "openSUSE Tumbleweed:samba-client-32bit-4.15.2+git.193.a4d6307f1fd-1.1",
            "openSUSE Tumbleweed:samba-client-4.15.2+git.193.a4d6307f1fd-1.1",
            "openSUSE Tumbleweed:samba-core-devel-4.15.2+git.193.a4d6307f1fd-1.1",
            "openSUSE Tumbleweed:samba-doc-4.15.2+git.193.a4d6307f1fd-1.1",
            "openSUSE Tumbleweed:samba-dsdb-modules-4.15.2+git.193.a4d6307f1fd-1.1",
            "openSUSE Tumbleweed:samba-gpupdate-4.15.2+git.193.a4d6307f1fd-1.1",
            "openSUSE Tumbleweed:samba-ldb-ldap-4.15.2+git.193.a4d6307f1fd-1.1",
            "openSUSE Tumbleweed:samba-libs-32bit-4.15.2+git.193.a4d6307f1fd-1.1",
            "openSUSE Tumbleweed:samba-libs-4.15.2+git.193.a4d6307f1fd-1.1",
            "openSUSE Tumbleweed:samba-libs-python3-32bit-4.15.2+git.193.a4d6307f1fd-1.1",
            "openSUSE Tumbleweed:samba-libs-python3-4.15.2+git.193.a4d6307f1fd-1.1",
            "openSUSE Tumbleweed:samba-python3-4.15.2+git.193.a4d6307f1fd-1.1",
            "openSUSE Tumbleweed:samba-test-4.15.2+git.193.a4d6307f1fd-1.1",
            "openSUSE Tumbleweed:samba-tool-4.15.2+git.193.a4d6307f1fd-1.1",
            "openSUSE Tumbleweed:samba-winbind-32bit-4.15.2+git.193.a4d6307f1fd-1.1",
            "openSUSE Tumbleweed:samba-winbind-4.15.2+git.193.a4d6307f1fd-1.1"
          ]
        }
      ],
      "CVSSScoreSets": {}
    },
    {
      "CVE": "CVE-2020-25718",
      "Description": "A flaw was found in the way samba, as an Active Directory Domain Controller, is able to support an RODC (read-only domain controller). This would allow an RODC to print administrator tickets.",
      "Threats": [
        {
          "Type": "Impact",
          "Severity": "important"
        }
      ],
      "References": [
        {
          "URL": "https://www.suse.com/security/cve/CVE-2020-25718.html",
          "Description": "CVE-2020-25718"
        },
        {
          "URL": "https://bugzilla.suse.com/1192246",
          "Description": "SUSE Bug 1192246"
        }
      ],
      "ProductStatuses": [
        {
          "Type": "Fixed",
          "ProductID": [
            "openSUSE Tumbleweed:ctdb-4.15.2+git.193.a4d6307f1fd-1.1",
            "openSUSE Tumbleweed:ctdb-pcp-pmda-4.15.2+git.193.a4d6307f1fd-1.1",
            "openSUSE Tumbleweed:libdcerpc-binding0-32bit-4.15.2+git.193.a4d6307f1fd-1.1",
            "openSUSE Tumbleweed:libdcerpc-binding0-4.15.2+git.193.a4d6307f1fd-1.1",
            "openSUSE Tumbleweed:libdcerpc-devel-4.15.2+git.193.a4d6307f1fd-1.1",
            "openSUSE Tumbleweed:libdcerpc-samr-devel-4.15.2+git.193.a4d6307f1fd-1.1",
            "openSUSE Tumbleweed:libdcerpc-samr0-32bit-4.15.2+git.193.a4d6307f1fd-1.1",
            "openSUSE Tumbleweed:libdcerpc-samr0-4.15.2+git.193.a4d6307f1fd-1.1",
            "openSUSE Tumbleweed:libdcerpc0-32bit-4.15.2+git.193.a4d6307f1fd-1.1",
            "openSUSE Tumbleweed:libdcerpc0-4.15.2+git.193.a4d6307f1fd-1.1",
            "openSUSE Tumbleweed:libndr-devel-4.15.2+git.193.a4d6307f1fd-1.1",
            "openSUSE Tumbleweed:libndr-krb5pac-devel-4.15.2+git.193.a4d6307f1fd-1.1",
            "openSUSE Tumbleweed:libndr-krb5pac0-32bit-4.15.2+git.193.a4d6307f1fd-1.1",
            "openSUSE Tumbleweed:libndr-krb5pac0-4.15.2+git.193.a4d6307f1fd-1.1",
            "openSUSE Tumbleweed:libndr-nbt-devel-4.15.2+git.193.a4d6307f1fd-1.1",
            "openSUSE Tumbleweed:libndr-nbt0-32bit-4.15.2+git.193.a4d6307f1fd-1.1",
            "openSUSE Tumbleweed:libndr-nbt0-4.15.2+git.193.a4d6307f1fd-1.1",
            "openSUSE Tumbleweed:libndr-standard-devel-4.15.2+git.193.a4d6307f1fd-1.1",
            "openSUSE Tumbleweed:libndr-standard0-32bit-4.15.2+git.193.a4d6307f1fd-1.1",
            "openSUSE Tumbleweed:libndr-standard0-4.15.2+git.193.a4d6307f1fd-1.1",
            "openSUSE Tumbleweed:libndr2-32bit-4.15.2+git.193.a4d6307f1fd-1.1",
            "openSUSE Tumbleweed:libndr2-4.15.2+git.193.a4d6307f1fd-1.1",
            "openSUSE Tumbleweed:libnetapi-devel-32bit-4.15.2+git.193.a4d6307f1fd-1.1",
            "openSUSE Tumbleweed:libnetapi-devel-4.15.2+git.193.a4d6307f1fd-1.1",
            "openSUSE Tumbleweed:libnetapi0-32bit-4.15.2+git.193.a4d6307f1fd-1.1",
            "openSUSE Tumbleweed:libnetapi0-4.15.2+git.193.a4d6307f1fd-1.1",
            "openSUSE Tumbleweed:libsamba-credentials-devel-4.15.2+git.193.a4d6307f1fd-1.1",
            "openSUSE Tumbleweed:libsamba-credentials1-32bit-4.15.2+git.193.a4d6307f1fd-1.1",
            "openSUSE Tumbleweed:libsamba-credentials1-4.15.2+git.193.a4d6307f1fd-1.1",
            "openSUSE Tumbleweed:libsamba-errors-devel-4.15.2+git.193.a4d6307f1fd-1.1",
            "openSUSE Tumbleweed:libsamba-errors0-32bit-4.15.2+git.193.a4d6307f1fd-1.1",
            "openSUSE Tumbleweed:libsamba-errors0-4.15.2+git.193.a4d6307f1fd-1.1",
            "openSUSE Tumbleweed:libsamba-hostconfig-devel-4.15.2+git.193.a4d6307f1fd-1.1",
            "openSUSE Tumbleweed:libsamba-hostconfig0-32bit-4.15.2+git.193.a4d6307f1fd-1.1",
            "openSUSE Tumbleweed:libsamba-hostconfig0-4.15.2+git.193.a4d6307f1fd-1.1",
            "openSUSE Tumbleweed:libsamba-passdb-devel-4.15.2+git.193.a4d6307f1fd-1.1",
            "openSUSE Tumbleweed:libsamba-passdb0-32bit-4.15.2+git.193.a4d6307f1fd-1.1",
            "openSUSE Tumbleweed:libsamba-passdb0-4.15.2+git.193.a4d6307f1fd-1.1",
            "openSUSE Tumbleweed:libsamba-policy-devel-4.15.2+git.193.a4d6307f1fd-1.1",
            "openSUSE Tumbleweed:libsamba-policy-python3-devel-4.15.2+git.193.a4d6307f1fd-1.1",
            "openSUSE Tumbleweed:libsamba-policy0-python3-32bit-4.15.2+git.193.a4d6307f1fd-1.1",
            "openSUSE Tumbleweed:libsamba-policy0-python3-4.15.2+git.193.a4d6307f1fd-1.1",
            "openSUSE Tumbleweed:libsamba-util-devel-4.15.2+git.193.a4d6307f1fd-1.1",
            "openSUSE Tumbleweed:libsamba-util0-32bit-4.15.2+git.193.a4d6307f1fd-1.1",
            "openSUSE Tumbleweed:libsamba-util0-4.15.2+git.193.a4d6307f1fd-1.1",
            "openSUSE Tumbleweed:libsamdb-devel-4.15.2+git.193.a4d6307f1fd-1.1",
            "openSUSE Tumbleweed:libsamdb0-32bit-4.15.2+git.193.a4d6307f1fd-1.1",
            "openSUSE Tumbleweed:libsamdb0-4.15.2+git.193.a4d6307f1fd-1.1",
            "openSUSE Tumbleweed:libsmbclient-devel-4.15.2+git.193.a4d6307f1fd-1.1",
            "openSUSE Tumbleweed:libsmbclient0-32bit-4.15.2+git.193.a4d6307f1fd-1.1",
            "openSUSE Tumbleweed:libsmbclient0-4.15.2+git.193.a4d6307f1fd-1.1",
            "openSUSE Tumbleweed:libsmbconf-devel-4.15.2+git.193.a4d6307f1fd-1.1",
            "openSUSE Tumbleweed:libsmbconf0-32bit-4.15.2+git.193.a4d6307f1fd-1.1",
            "openSUSE Tumbleweed:libsmbconf0-4.15.2+git.193.a4d6307f1fd-1.1",
            "openSUSE Tumbleweed:libsmbldap-devel-4.15.2+git.193.a4d6307f1fd-1.1",
            "openSUSE Tumbleweed:libsmbldap2-32bit-4.15.2+git.193.a4d6307f1fd-1.1",
            "openSUSE Tumbleweed:libsmbldap2-4.15.2+git.193.a4d6307f1fd-1.1",
            "openSUSE Tumbleweed:libtevent-util-devel-4.15.2+git.193.a4d6307f1fd-1.1",
            "openSUSE Tumbleweed:libtevent-util0-32bit-4.15.2+git.193.a4d6307f1fd-1.1",
            "openSUSE Tumbleweed:libtevent-util0-4.15.2+git.193.a4d6307f1fd-1.1",
            "openSUSE Tumbleweed:libwbclient-devel-4.15.2+git.193.a4d6307f1fd-1.1",
            "openSUSE Tumbleweed:libwbclient0-32bit-4.15.2+git.193.a4d6307f1fd-1.1",
            "openSUSE Tumbleweed:libwbclient0-4.15.2+git.193.a4d6307f1fd-1.1",
            "openSUSE Tumbleweed:samba-4.15.2+git.193.a4d6307f1fd-1.1",
            "openSUSE Tumbleweed:samba-ad-dc-32bit-4.15.2+git.193.a4d6307f1fd-1.1",
            "openSUSE Tumbleweed:samba-ad-dc-4.15.2+git.193.a4d6307f1fd-1.1",
            "openSUSE Tumbleweed:samba-ceph-4.15.2+git.193.a4d6307f1fd-1.1",
            "openSUSE Tumbleweed:samba-client-32bit-4.15.2+git.193.a4d6307f1fd-1.1",
            "openSUSE Tumbleweed:samba-client-4.15.2+git.193.a4d6307f1fd-1.1",
            "openSUSE Tumbleweed:samba-core-devel-4.15.2+git.193.a4d6307f1fd-1.1",
            "openSUSE Tumbleweed:samba-doc-4.15.2+git.193.a4d6307f1fd-1.1",
            "openSUSE Tumbleweed:samba-dsdb-modules-4.15.2+git.193.a4d6307f1fd-1.1",
            "openSUSE Tumbleweed:samba-gpupdate-4.15.2+git.193.a4d6307f1fd-1.1",
            "openSUSE Tumbleweed:samba-ldb-ldap-4.15.2+git.193.a4d6307f1fd-1.1",
            "openSUSE Tumbleweed:samba-libs-32bit-4.15.2+git.193.a4d6307f1fd-1.1",
            "openSUSE Tumbleweed:samba-libs-4.15.2+git.193.a4d6307f1fd-1.1",
            "openSUSE Tumbleweed:samba-libs-python3-32bit-4.15.2+git.193.a4d6307f1fd-1.1",
            "openSUSE Tumbleweed:samba-libs-python3-4.15.2+git.193.a4d6307f1fd-1.1",
            "openSUSE Tumbleweed:samba-python3-4.15.2+git.193.a4d6307f1fd-1.1",
            "openSUSE Tumbleweed:samba-test-4.15.2+git.193.a4d6307f1fd-1.1",
            "openSUSE Tumbleweed:samba-tool-4.15.2+git.193.a4d6307f1fd-1.1",
            "openSUSE Tumbleweed:samba-winbind-32bit-4.15.2+git.193.a4d6307f1fd-1.1",
            "openSUSE Tumbleweed:samba-winbind-4.15.2+git.193.a4d6307f1fd-1.1"
          ]
        }
      ],
      "CVSSScoreSets": {}
    },
    {
      "CVE": "CVE-2020-25719",
      "Description": "A flaw was found in the way Samba, as an Active Directory Domain Controller, implemented Kerberos name-based authentication. The Samba AD DC, could become confused about the user a ticket represents if it did not strictly require a Kerberos PAC and always use the SIDs found within. The result could include total domain compromise.",
      "Threats": [
        {
          "Type": "Impact",
          "Severity": "important"
        }
      ],
      "References": [
        {
          "URL": "https://www.suse.com/security/cve/CVE-2020-25719.html",
          "Description": "CVE-2020-25719"
        },
        {
          "URL": "https://bugzilla.suse.com/1192247",
          "Description": "SUSE Bug 1192247"
        }
      ],
      "ProductStatuses": [
        {
          "Type": "Fixed",
          "ProductID": [
            "openSUSE Tumbleweed:ctdb-4.15.2+git.193.a4d6307f1fd-1.1",
            "openSUSE Tumbleweed:ctdb-pcp-pmda-4.15.2+git.193.a4d6307f1fd-1.1",
            "openSUSE Tumbleweed:libdcerpc-binding0-32bit-4.15.2+git.193.a4d6307f1fd-1.1",
            "openSUSE Tumbleweed:libdcerpc-binding0-4.15.2+git.193.a4d6307f1fd-1.1",
            "openSUSE Tumbleweed:libdcerpc-devel-4.15.2+git.193.a4d6307f1fd-1.1",
            "openSUSE Tumbleweed:libdcerpc-samr-devel-4.15.2+git.193.a4d6307f1fd-1.1",
            "openSUSE Tumbleweed:libdcerpc-samr0-32bit-4.15.2+git.193.a4d6307f1fd-1.1",
            "openSUSE Tumbleweed:libdcerpc-samr0-4.15.2+git.193.a4d6307f1fd-1.1",
            "openSUSE Tumbleweed:libdcerpc0-32bit-4.15.2+git.193.a4d6307f1fd-1.1",
            "openSUSE Tumbleweed:libdcerpc0-4.15.2+git.193.a4d6307f1fd-1.1",
            "openSUSE Tumbleweed:libndr-devel-4.15.2+git.193.a4d6307f1fd-1.1",
            "openSUSE Tumbleweed:libndr-krb5pac-devel-4.15.2+git.193.a4d6307f1fd-1.1",
            "openSUSE Tumbleweed:libndr-krb5pac0-32bit-4.15.2+git.193.a4d6307f1fd-1.1",
            "openSUSE Tumbleweed:libndr-krb5pac0-4.15.2+git.193.a4d6307f1fd-1.1",
            "openSUSE Tumbleweed:libndr-nbt-devel-4.15.2+git.193.a4d6307f1fd-1.1",
            "openSUSE Tumbleweed:libndr-nbt0-32bit-4.15.2+git.193.a4d6307f1fd-1.1",
            "openSUSE Tumbleweed:libndr-nbt0-4.15.2+git.193.a4d6307f1fd-1.1",
            "openSUSE Tumbleweed:libndr-standard-devel-4.15.2+git.193.a4d6307f1fd-1.1",
            "openSUSE Tumbleweed:libndr-standard0-32bit-4.15.2+git.193.a4d6307f1fd-1.1",
            "openSUSE Tumbleweed:libndr-standard0-4.15.2+git.193.a4d6307f1fd-1.1",
            "openSUSE Tumbleweed:libndr2-32bit-4.15.2+git.193.a4d6307f1fd-1.1",
            "openSUSE Tumbleweed:libndr2-4.15.2+git.193.a4d6307f1fd-1.1",
            "openSUSE Tumbleweed:libnetapi-devel-32bit-4.15.2+git.193.a4d6307f1fd-1.1",
            "openSUSE Tumbleweed:libnetapi-devel-4.15.2+git.193.a4d6307f1fd-1.1",
            "openSUSE Tumbleweed:libnetapi0-32bit-4.15.2+git.193.a4d6307f1fd-1.1",
            "openSUSE Tumbleweed:libnetapi0-4.15.2+git.193.a4d6307f1fd-1.1",
            "openSUSE Tumbleweed:libsamba-credentials-devel-4.15.2+git.193.a4d6307f1fd-1.1",
            "openSUSE Tumbleweed:libsamba-credentials1-32bit-4.15.2+git.193.a4d6307f1fd-1.1",
            "openSUSE Tumbleweed:libsamba-credentials1-4.15.2+git.193.a4d6307f1fd-1.1",
            "openSUSE Tumbleweed:libsamba-errors-devel-4.15.2+git.193.a4d6307f1fd-1.1",
            "openSUSE Tumbleweed:libsamba-errors0-32bit-4.15.2+git.193.a4d6307f1fd-1.1",
            "openSUSE Tumbleweed:libsamba-errors0-4.15.2+git.193.a4d6307f1fd-1.1",
            "openSUSE Tumbleweed:libsamba-hostconfig-devel-4.15.2+git.193.a4d6307f1fd-1.1",
            "openSUSE Tumbleweed:libsamba-hostconfig0-32bit-4.15.2+git.193.a4d6307f1fd-1.1",
            "openSUSE Tumbleweed:libsamba-hostconfig0-4.15.2+git.193.a4d6307f1fd-1.1",
            "openSUSE Tumbleweed:libsamba-passdb-devel-4.15.2+git.193.a4d6307f1fd-1.1",
            "openSUSE Tumbleweed:libsamba-passdb0-32bit-4.15.2+git.193.a4d6307f1fd-1.1",
            "openSUSE Tumbleweed:libsamba-passdb0-4.15.2+git.193.a4d6307f1fd-1.1",
            "openSUSE Tumbleweed:libsamba-policy-devel-4.15.2+git.193.a4d6307f1fd-1.1",
            "openSUSE Tumbleweed:libsamba-policy-python3-devel-4.15.2+git.193.a4d6307f1fd-1.1",
            "openSUSE Tumbleweed:libsamba-policy0-python3-32bit-4.15.2+git.193.a4d6307f1fd-1.1",
            "openSUSE Tumbleweed:libsamba-policy0-python3-4.15.2+git.193.a4d6307f1fd-1.1",
            "openSUSE Tumbleweed:libsamba-util-devel-4.15.2+git.193.a4d6307f1fd-1.1",
            "openSUSE Tumbleweed:libsamba-util0-32bit-4.15.2+git.193.a4d6307f1fd-1.1",
            "openSUSE Tumbleweed:libsamba-util0-4.15.2+git.193.a4d6307f1fd-1.1",
            "openSUSE Tumbleweed:libsamdb-devel-4.15.2+git.193.a4d6307f1fd-1.1",
            "openSUSE Tumbleweed:libsamdb0-32bit-4.15.2+git.193.a4d6307f1fd-1.1",
            "openSUSE Tumbleweed:libsamdb0-4.15.2+git.193.a4d6307f1fd-1.1",
            "openSUSE Tumbleweed:libsmbclient-devel-4.15.2+git.193.a4d6307f1fd-1.1",
            "openSUSE Tumbleweed:libsmbclient0-32bit-4.15.2+git.193.a4d6307f1fd-1.1",
            "openSUSE Tumbleweed:libsmbclient0-4.15.2+git.193.a4d6307f1fd-1.1",
            "openSUSE Tumbleweed:libsmbconf-devel-4.15.2+git.193.a4d6307f1fd-1.1",
            "openSUSE Tumbleweed:libsmbconf0-32bit-4.15.2+git.193.a4d6307f1fd-1.1",
            "openSUSE Tumbleweed:libsmbconf0-4.15.2+git.193.a4d6307f1fd-1.1",
            "openSUSE Tumbleweed:libsmbldap-devel-4.15.2+git.193.a4d6307f1fd-1.1",
            "openSUSE Tumbleweed:libsmbldap2-32bit-4.15.2+git.193.a4d6307f1fd-1.1",
            "openSUSE Tumbleweed:libsmbldap2-4.15.2+git.193.a4d6307f1fd-1.1",
            "openSUSE Tumbleweed:libtevent-util-devel-4.15.2+git.193.a4d6307f1fd-1.1",
            "openSUSE Tumbleweed:libtevent-util0-32bit-4.15.2+git.193.a4d6307f1fd-1.1",
            "openSUSE Tumbleweed:libtevent-util0-4.15.2+git.193.a4d6307f1fd-1.1",
            "openSUSE Tumbleweed:libwbclient-devel-4.15.2+git.193.a4d6307f1fd-1.1",
            "openSUSE Tumbleweed:libwbclient0-32bit-4.15.2+git.193.a4d6307f1fd-1.1",
            "openSUSE Tumbleweed:libwbclient0-4.15.2+git.193.a4d6307f1fd-1.1",
            "openSUSE Tumbleweed:samba-4.15.2+git.193.a4d6307f1fd-1.1",
            "openSUSE Tumbleweed:samba-ad-dc-32bit-4.15.2+git.193.a4d6307f1fd-1.1",
            "openSUSE Tumbleweed:samba-ad-dc-4.15.2+git.193.a4d6307f1fd-1.1",
            "openSUSE Tumbleweed:samba-ceph-4.15.2+git.193.a4d6307f1fd-1.1",
            "openSUSE Tumbleweed:samba-client-32bit-4.15.2+git.193.a4d6307f1fd-1.1",
            "openSUSE Tumbleweed:samba-client-4.15.2+git.193.a4d6307f1fd-1.1",
            "openSUSE Tumbleweed:samba-core-devel-4.15.2+git.193.a4d6307f1fd-1.1",
            "openSUSE Tumbleweed:samba-doc-4.15.2+git.193.a4d6307f1fd-1.1",
            "openSUSE Tumbleweed:samba-dsdb-modules-4.15.2+git.193.a4d6307f1fd-1.1",
            "openSUSE Tumbleweed:samba-gpupdate-4.15.2+git.193.a4d6307f1fd-1.1",
            "openSUSE Tumbleweed:samba-ldb-ldap-4.15.2+git.193.a4d6307f1fd-1.1",
            "openSUSE Tumbleweed:samba-libs-32bit-4.15.2+git.193.a4d6307f1fd-1.1",
            "openSUSE Tumbleweed:samba-libs-4.15.2+git.193.a4d6307f1fd-1.1",
            "openSUSE Tumbleweed:samba-libs-python3-32bit-4.15.2+git.193.a4d6307f1fd-1.1",
            "openSUSE Tumbleweed:samba-libs-python3-4.15.2+git.193.a4d6307f1fd-1.1",
            "openSUSE Tumbleweed:samba-python3-4.15.2+git.193.a4d6307f1fd-1.1",
            "openSUSE Tumbleweed:samba-test-4.15.2+git.193.a4d6307f1fd-1.1",
            "openSUSE Tumbleweed:samba-tool-4.15.2+git.193.a4d6307f1fd-1.1",
            "openSUSE Tumbleweed:samba-winbind-32bit-4.15.2+git.193.a4d6307f1fd-1.1",
            "openSUSE Tumbleweed:samba-winbind-4.15.2+git.193.a4d6307f1fd-1.1"
          ]
        }
      ],
      "CVSSScoreSets": {}
    },
    {
      "CVE": "CVE-2020-25721",
      "Description": "Kerberos acceptors need easy access to stable AD identifiers (eg objectSid). Samba as an AD DC now provides a way for Linux applications to obtain a reliable SID (and samAccountName) in issued tickets.",
      "Threats": [
        {
          "Type": "Impact",
          "Severity": "important"
        }
      ],
      "References": [
        {
          "URL": "https://www.suse.com/security/cve/CVE-2020-25721.html",
          "Description": "CVE-2020-25721"
        },
        {
          "URL": "https://bugzilla.suse.com/1192505",
          "Description": "SUSE Bug 1192505"
        },
        {
          "URL": "https://bugzilla.suse.com/1195833",
          "Description": "SUSE Bug 1195833"
        }
      ],
      "ProductStatuses": [
        {
          "Type": "Fixed",
          "ProductID": [
            "openSUSE Tumbleweed:ctdb-4.15.2+git.193.a4d6307f1fd-1.1",
            "openSUSE Tumbleweed:ctdb-pcp-pmda-4.15.2+git.193.a4d6307f1fd-1.1",
            "openSUSE Tumbleweed:libdcerpc-binding0-32bit-4.15.2+git.193.a4d6307f1fd-1.1",
            "openSUSE Tumbleweed:libdcerpc-binding0-4.15.2+git.193.a4d6307f1fd-1.1",
            "openSUSE Tumbleweed:libdcerpc-devel-4.15.2+git.193.a4d6307f1fd-1.1",
            "openSUSE Tumbleweed:libdcerpc-samr-devel-4.15.2+git.193.a4d6307f1fd-1.1",
            "openSUSE Tumbleweed:libdcerpc-samr0-32bit-4.15.2+git.193.a4d6307f1fd-1.1",
            "openSUSE Tumbleweed:libdcerpc-samr0-4.15.2+git.193.a4d6307f1fd-1.1",
            "openSUSE Tumbleweed:libdcerpc0-32bit-4.15.2+git.193.a4d6307f1fd-1.1",
            "openSUSE Tumbleweed:libdcerpc0-4.15.2+git.193.a4d6307f1fd-1.1",
            "openSUSE Tumbleweed:libndr-devel-4.15.2+git.193.a4d6307f1fd-1.1",
            "openSUSE Tumbleweed:libndr-krb5pac-devel-4.15.2+git.193.a4d6307f1fd-1.1",
            "openSUSE Tumbleweed:libndr-krb5pac0-32bit-4.15.2+git.193.a4d6307f1fd-1.1",
            "openSUSE Tumbleweed:libndr-krb5pac0-4.15.2+git.193.a4d6307f1fd-1.1",
            "openSUSE Tumbleweed:libndr-nbt-devel-4.15.2+git.193.a4d6307f1fd-1.1",
            "openSUSE Tumbleweed:libndr-nbt0-32bit-4.15.2+git.193.a4d6307f1fd-1.1",
            "openSUSE Tumbleweed:libndr-nbt0-4.15.2+git.193.a4d6307f1fd-1.1",
            "openSUSE Tumbleweed:libndr-standard-devel-4.15.2+git.193.a4d6307f1fd-1.1",
            "openSUSE Tumbleweed:libndr-standard0-32bit-4.15.2+git.193.a4d6307f1fd-1.1",
            "openSUSE Tumbleweed:libndr-standard0-4.15.2+git.193.a4d6307f1fd-1.1",
            "openSUSE Tumbleweed:libndr2-32bit-4.15.2+git.193.a4d6307f1fd-1.1",
            "openSUSE Tumbleweed:libndr2-4.15.2+git.193.a4d6307f1fd-1.1",
            "openSUSE Tumbleweed:libnetapi-devel-32bit-4.15.2+git.193.a4d6307f1fd-1.1",
            "openSUSE Tumbleweed:libnetapi-devel-4.15.2+git.193.a4d6307f1fd-1.1",
            "openSUSE Tumbleweed:libnetapi0-32bit-4.15.2+git.193.a4d6307f1fd-1.1",
            "openSUSE Tumbleweed:libnetapi0-4.15.2+git.193.a4d6307f1fd-1.1",
            "openSUSE Tumbleweed:libsamba-credentials-devel-4.15.2+git.193.a4d6307f1fd-1.1",
            "openSUSE Tumbleweed:libsamba-credentials1-32bit-4.15.2+git.193.a4d6307f1fd-1.1",
            "openSUSE Tumbleweed:libsamba-credentials1-4.15.2+git.193.a4d6307f1fd-1.1",
            "openSUSE Tumbleweed:libsamba-errors-devel-4.15.2+git.193.a4d6307f1fd-1.1",
            "openSUSE Tumbleweed:libsamba-errors0-32bit-4.15.2+git.193.a4d6307f1fd-1.1",
            "openSUSE Tumbleweed:libsamba-errors0-4.15.2+git.193.a4d6307f1fd-1.1",
            "openSUSE Tumbleweed:libsamba-hostconfig-devel-4.15.2+git.193.a4d6307f1fd-1.1",
            "openSUSE Tumbleweed:libsamba-hostconfig0-32bit-4.15.2+git.193.a4d6307f1fd-1.1",
            "openSUSE Tumbleweed:libsamba-hostconfig0-4.15.2+git.193.a4d6307f1fd-1.1",
            "openSUSE Tumbleweed:libsamba-passdb-devel-4.15.2+git.193.a4d6307f1fd-1.1",
            "openSUSE Tumbleweed:libsamba-passdb0-32bit-4.15.2+git.193.a4d6307f1fd-1.1",
            "openSUSE Tumbleweed:libsamba-passdb0-4.15.2+git.193.a4d6307f1fd-1.1",
            "openSUSE Tumbleweed:libsamba-policy-devel-4.15.2+git.193.a4d6307f1fd-1.1",
            "openSUSE Tumbleweed:libsamba-policy-python3-devel-4.15.2+git.193.a4d6307f1fd-1.1",
            "openSUSE Tumbleweed:libsamba-policy0-python3-32bit-4.15.2+git.193.a4d6307f1fd-1.1",
            "openSUSE Tumbleweed:libsamba-policy0-python3-4.15.2+git.193.a4d6307f1fd-1.1",
            "openSUSE Tumbleweed:libsamba-util-devel-4.15.2+git.193.a4d6307f1fd-1.1",
            "openSUSE Tumbleweed:libsamba-util0-32bit-4.15.2+git.193.a4d6307f1fd-1.1",
            "openSUSE Tumbleweed:libsamba-util0-4.15.2+git.193.a4d6307f1fd-1.1",
            "openSUSE Tumbleweed:libsamdb-devel-4.15.2+git.193.a4d6307f1fd-1.1",
            "openSUSE Tumbleweed:libsamdb0-32bit-4.15.2+git.193.a4d6307f1fd-1.1",
            "openSUSE Tumbleweed:libsamdb0-4.15.2+git.193.a4d6307f1fd-1.1",
            "openSUSE Tumbleweed:libsmbclient-devel-4.15.2+git.193.a4d6307f1fd-1.1",
            "openSUSE Tumbleweed:libsmbclient0-32bit-4.15.2+git.193.a4d6307f1fd-1.1",
            "openSUSE Tumbleweed:libsmbclient0-4.15.2+git.193.a4d6307f1fd-1.1",
            "openSUSE Tumbleweed:libsmbconf-devel-4.15.2+git.193.a4d6307f1fd-1.1",
            "openSUSE Tumbleweed:libsmbconf0-32bit-4.15.2+git.193.a4d6307f1fd-1.1",
            "openSUSE Tumbleweed:libsmbconf0-4.15.2+git.193.a4d6307f1fd-1.1",
            "openSUSE Tumbleweed:libsmbldap-devel-4.15.2+git.193.a4d6307f1fd-1.1",
            "openSUSE Tumbleweed:libsmbldap2-32bit-4.15.2+git.193.a4d6307f1fd-1.1",
            "openSUSE Tumbleweed:libsmbldap2-4.15.2+git.193.a4d6307f1fd-1.1",
            "openSUSE Tumbleweed:libtevent-util-devel-4.15.2+git.193.a4d6307f1fd-1.1",
            "openSUSE Tumbleweed:libtevent-util0-32bit-4.15.2+git.193.a4d6307f1fd-1.1",
            "openSUSE Tumbleweed:libtevent-util0-4.15.2+git.193.a4d6307f1fd-1.1",
            "openSUSE Tumbleweed:libwbclient-devel-4.15.2+git.193.a4d6307f1fd-1.1",
            "openSUSE Tumbleweed:libwbclient0-32bit-4.15.2+git.193.a4d6307f1fd-1.1",
            "openSUSE Tumbleweed:libwbclient0-4.15.2+git.193.a4d6307f1fd-1.1",
            "openSUSE Tumbleweed:samba-4.15.2+git.193.a4d6307f1fd-1.1",
            "openSUSE Tumbleweed:samba-ad-dc-32bit-4.15.2+git.193.a4d6307f1fd-1.1",
            "openSUSE Tumbleweed:samba-ad-dc-4.15.2+git.193.a4d6307f1fd-1.1",
            "openSUSE Tumbleweed:samba-ceph-4.15.2+git.193.a4d6307f1fd-1.1",
            "openSUSE Tumbleweed:samba-client-32bit-4.15.2+git.193.a4d6307f1fd-1.1",
            "openSUSE Tumbleweed:samba-client-4.15.2+git.193.a4d6307f1fd-1.1",
            "openSUSE Tumbleweed:samba-core-devel-4.15.2+git.193.a4d6307f1fd-1.1",
            "openSUSE Tumbleweed:samba-doc-4.15.2+git.193.a4d6307f1fd-1.1",
            "openSUSE Tumbleweed:samba-dsdb-modules-4.15.2+git.193.a4d6307f1fd-1.1",
            "openSUSE Tumbleweed:samba-gpupdate-4.15.2+git.193.a4d6307f1fd-1.1",
            "openSUSE Tumbleweed:samba-ldb-ldap-4.15.2+git.193.a4d6307f1fd-1.1",
            "openSUSE Tumbleweed:samba-libs-32bit-4.15.2+git.193.a4d6307f1fd-1.1",
            "openSUSE Tumbleweed:samba-libs-4.15.2+git.193.a4d6307f1fd-1.1",
            "openSUSE Tumbleweed:samba-libs-python3-32bit-4.15.2+git.193.a4d6307f1fd-1.1",
            "openSUSE Tumbleweed:samba-libs-python3-4.15.2+git.193.a4d6307f1fd-1.1",
            "openSUSE Tumbleweed:samba-python3-4.15.2+git.193.a4d6307f1fd-1.1",
            "openSUSE Tumbleweed:samba-test-4.15.2+git.193.a4d6307f1fd-1.1",
            "openSUSE Tumbleweed:samba-tool-4.15.2+git.193.a4d6307f1fd-1.1",
            "openSUSE Tumbleweed:samba-winbind-32bit-4.15.2+git.193.a4d6307f1fd-1.1",
            "openSUSE Tumbleweed:samba-winbind-4.15.2+git.193.a4d6307f1fd-1.1"
          ]
        }
      ],
      "CVSSScoreSets": {}
    },
    {
      "CVE": "CVE-2020-25722",
      "Description": "Multiple flaws were found in the way samba AD DC implemented access and conformance checking of stored data. An attacker could use this flaw to cause total domain compromise.",
      "Threats": [
        {
          "Type": "Impact",
          "Severity": "important"
        }
      ],
      "References": [
        {
          "URL": "https://www.suse.com/security/cve/CVE-2020-25722.html",
          "Description": "CVE-2020-25722"
        },
        {
          "URL": "https://bugzilla.suse.com/1192283",
          "Description": "SUSE Bug 1192283"
        }
      ],
      "ProductStatuses": [
        {
          "Type": "Fixed",
          "ProductID": [
            "openSUSE Tumbleweed:ctdb-4.15.2+git.193.a4d6307f1fd-1.1",
            "openSUSE Tumbleweed:ctdb-pcp-pmda-4.15.2+git.193.a4d6307f1fd-1.1",
            "openSUSE Tumbleweed:libdcerpc-binding0-32bit-4.15.2+git.193.a4d6307f1fd-1.1",
            "openSUSE Tumbleweed:libdcerpc-binding0-4.15.2+git.193.a4d6307f1fd-1.1",
            "openSUSE Tumbleweed:libdcerpc-devel-4.15.2+git.193.a4d6307f1fd-1.1",
            "openSUSE Tumbleweed:libdcerpc-samr-devel-4.15.2+git.193.a4d6307f1fd-1.1",
            "openSUSE Tumbleweed:libdcerpc-samr0-32bit-4.15.2+git.193.a4d6307f1fd-1.1",
            "openSUSE Tumbleweed:libdcerpc-samr0-4.15.2+git.193.a4d6307f1fd-1.1",
            "openSUSE Tumbleweed:libdcerpc0-32bit-4.15.2+git.193.a4d6307f1fd-1.1",
            "openSUSE Tumbleweed:libdcerpc0-4.15.2+git.193.a4d6307f1fd-1.1",
            "openSUSE Tumbleweed:libndr-devel-4.15.2+git.193.a4d6307f1fd-1.1",
            "openSUSE Tumbleweed:libndr-krb5pac-devel-4.15.2+git.193.a4d6307f1fd-1.1",
            "openSUSE Tumbleweed:libndr-krb5pac0-32bit-4.15.2+git.193.a4d6307f1fd-1.1",
            "openSUSE Tumbleweed:libndr-krb5pac0-4.15.2+git.193.a4d6307f1fd-1.1",
            "openSUSE Tumbleweed:libndr-nbt-devel-4.15.2+git.193.a4d6307f1fd-1.1",
            "openSUSE Tumbleweed:libndr-nbt0-32bit-4.15.2+git.193.a4d6307f1fd-1.1",
            "openSUSE Tumbleweed:libndr-nbt0-4.15.2+git.193.a4d6307f1fd-1.1",
            "openSUSE Tumbleweed:libndr-standard-devel-4.15.2+git.193.a4d6307f1fd-1.1",
            "openSUSE Tumbleweed:libndr-standard0-32bit-4.15.2+git.193.a4d6307f1fd-1.1",
            "openSUSE Tumbleweed:libndr-standard0-4.15.2+git.193.a4d6307f1fd-1.1",
            "openSUSE Tumbleweed:libndr2-32bit-4.15.2+git.193.a4d6307f1fd-1.1",
            "openSUSE Tumbleweed:libndr2-4.15.2+git.193.a4d6307f1fd-1.1",
            "openSUSE Tumbleweed:libnetapi-devel-32bit-4.15.2+git.193.a4d6307f1fd-1.1",
            "openSUSE Tumbleweed:libnetapi-devel-4.15.2+git.193.a4d6307f1fd-1.1",
            "openSUSE Tumbleweed:libnetapi0-32bit-4.15.2+git.193.a4d6307f1fd-1.1",
            "openSUSE Tumbleweed:libnetapi0-4.15.2+git.193.a4d6307f1fd-1.1",
            "openSUSE Tumbleweed:libsamba-credentials-devel-4.15.2+git.193.a4d6307f1fd-1.1",
            "openSUSE Tumbleweed:libsamba-credentials1-32bit-4.15.2+git.193.a4d6307f1fd-1.1",
            "openSUSE Tumbleweed:libsamba-credentials1-4.15.2+git.193.a4d6307f1fd-1.1",
            "openSUSE Tumbleweed:libsamba-errors-devel-4.15.2+git.193.a4d6307f1fd-1.1",
            "openSUSE Tumbleweed:libsamba-errors0-32bit-4.15.2+git.193.a4d6307f1fd-1.1",
            "openSUSE Tumbleweed:libsamba-errors0-4.15.2+git.193.a4d6307f1fd-1.1",
            "openSUSE Tumbleweed:libsamba-hostconfig-devel-4.15.2+git.193.a4d6307f1fd-1.1",
            "openSUSE Tumbleweed:libsamba-hostconfig0-32bit-4.15.2+git.193.a4d6307f1fd-1.1",
            "openSUSE Tumbleweed:libsamba-hostconfig0-4.15.2+git.193.a4d6307f1fd-1.1",
            "openSUSE Tumbleweed:libsamba-passdb-devel-4.15.2+git.193.a4d6307f1fd-1.1",
            "openSUSE Tumbleweed:libsamba-passdb0-32bit-4.15.2+git.193.a4d6307f1fd-1.1",
            "openSUSE Tumbleweed:libsamba-passdb0-4.15.2+git.193.a4d6307f1fd-1.1",
            "openSUSE Tumbleweed:libsamba-policy-devel-4.15.2+git.193.a4d6307f1fd-1.1",
            "openSUSE Tumbleweed:libsamba-policy-python3-devel-4.15.2+git.193.a4d6307f1fd-1.1",
            "openSUSE Tumbleweed:libsamba-policy0-python3-32bit-4.15.2+git.193.a4d6307f1fd-1.1",
            "openSUSE Tumbleweed:libsamba-policy0-python3-4.15.2+git.193.a4d6307f1fd-1.1",
            "openSUSE Tumbleweed:libsamba-util-devel-4.15.2+git.193.a4d6307f1fd-1.1",
            "openSUSE Tumbleweed:libsamba-util0-32bit-4.15.2+git.193.a4d6307f1fd-1.1",
            "openSUSE Tumbleweed:libsamba-util0-4.15.2+git.193.a4d6307f1fd-1.1",
            "openSUSE Tumbleweed:libsamdb-devel-4.15.2+git.193.a4d6307f1fd-1.1",
            "openSUSE Tumbleweed:libsamdb0-32bit-4.15.2+git.193.a4d6307f1fd-1.1",
            "openSUSE Tumbleweed:libsamdb0-4.15.2+git.193.a4d6307f1fd-1.1",
            "openSUSE Tumbleweed:libsmbclient-devel-4.15.2+git.193.a4d6307f1fd-1.1",
            "openSUSE Tumbleweed:libsmbclient0-32bit-4.15.2+git.193.a4d6307f1fd-1.1",
            "openSUSE Tumbleweed:libsmbclient0-4.15.2+git.193.a4d6307f1fd-1.1",
            "openSUSE Tumbleweed:libsmbconf-devel-4.15.2+git.193.a4d6307f1fd-1.1",
            "openSUSE Tumbleweed:libsmbconf0-32bit-4.15.2+git.193.a4d6307f1fd-1.1",
            "openSUSE Tumbleweed:libsmbconf0-4.15.2+git.193.a4d6307f1fd-1.1",
            "openSUSE Tumbleweed:libsmbldap-devel-4.15.2+git.193.a4d6307f1fd-1.1",
            "openSUSE Tumbleweed:libsmbldap2-32bit-4.15.2+git.193.a4d6307f1fd-1.1",
            "openSUSE Tumbleweed:libsmbldap2-4.15.2+git.193.a4d6307f1fd-1.1",
            "openSUSE Tumbleweed:libtevent-util-devel-4.15.2+git.193.a4d6307f1fd-1.1",
            "openSUSE Tumbleweed:libtevent-util0-32bit-4.15.2+git.193.a4d6307f1fd-1.1",
            "openSUSE Tumbleweed:libtevent-util0-4.15.2+git.193.a4d6307f1fd-1.1",
            "openSUSE Tumbleweed:libwbclient-devel-4.15.2+git.193.a4d6307f1fd-1.1",
            "openSUSE Tumbleweed:libwbclient0-32bit-4.15.2+git.193.a4d6307f1fd-1.1",
            "openSUSE Tumbleweed:libwbclient0-4.15.2+git.193.a4d6307f1fd-1.1",
            "openSUSE Tumbleweed:samba-4.15.2+git.193.a4d6307f1fd-1.1",
            "openSUSE Tumbleweed:samba-ad-dc-32bit-4.15.2+git.193.a4d6307f1fd-1.1",
            "openSUSE Tumbleweed:samba-ad-dc-4.15.2+git.193.a4d6307f1fd-1.1",
            "openSUSE Tumbleweed:samba-ceph-4.15.2+git.193.a4d6307f1fd-1.1",
            "openSUSE Tumbleweed:samba-client-32bit-4.15.2+git.193.a4d6307f1fd-1.1",
            "openSUSE Tumbleweed:samba-client-4.15.2+git.193.a4d6307f1fd-1.1",
            "openSUSE Tumbleweed:samba-core-devel-4.15.2+git.193.a4d6307f1fd-1.1",
            "openSUSE Tumbleweed:samba-doc-4.15.2+git.193.a4d6307f1fd-1.1",
            "openSUSE Tumbleweed:samba-dsdb-modules-4.15.2+git.193.a4d6307f1fd-1.1",
            "openSUSE Tumbleweed:samba-gpupdate-4.15.2+git.193.a4d6307f1fd-1.1",
            "openSUSE Tumbleweed:samba-ldb-ldap-4.15.2+git.193.a4d6307f1fd-1.1",
            "openSUSE Tumbleweed:samba-libs-32bit-4.15.2+git.193.a4d6307f1fd-1.1",
            "openSUSE Tumbleweed:samba-libs-4.15.2+git.193.a4d6307f1fd-1.1",
            "openSUSE Tumbleweed:samba-libs-python3-32bit-4.15.2+git.193.a4d6307f1fd-1.1",
            "openSUSE Tumbleweed:samba-libs-python3-4.15.2+git.193.a4d6307f1fd-1.1",
            "openSUSE Tumbleweed:samba-python3-4.15.2+git.193.a4d6307f1fd-1.1",
            "openSUSE Tumbleweed:samba-test-4.15.2+git.193.a4d6307f1fd-1.1",
            "openSUSE Tumbleweed:samba-tool-4.15.2+git.193.a4d6307f1fd-1.1",
            "openSUSE Tumbleweed:samba-winbind-32bit-4.15.2+git.193.a4d6307f1fd-1.1",
            "openSUSE Tumbleweed:samba-winbind-4.15.2+git.193.a4d6307f1fd-1.1"
          ]
        }
      ],
      "CVSSScoreSets": {}
    },
    {
      "CVE": "CVE-2021-23192",
      "Description": "A flaw was found in the way samba implemented DCE/RPC. If a client to a Samba server sent a very large DCE/RPC request, and chose to fragment it, an attacker could replace later fragments with their own data, bypassing the signature requirements.",
      "Threats": [
        {
          "Type": "Impact",
          "Severity": "moderate"
        }
      ],
      "References": [
        {
          "URL": "https://www.suse.com/security/cve/CVE-2021-23192.html",
          "Description": "CVE-2021-23192"
        },
        {
          "URL": "https://bugzilla.suse.com/1192214",
          "Description": "SUSE Bug 1192214"
        }
      ],
      "ProductStatuses": [
        {
          "Type": "Fixed",
          "ProductID": [
            "openSUSE Tumbleweed:ctdb-4.15.2+git.193.a4d6307f1fd-1.1",
            "openSUSE Tumbleweed:ctdb-pcp-pmda-4.15.2+git.193.a4d6307f1fd-1.1",
            "openSUSE Tumbleweed:libdcerpc-binding0-32bit-4.15.2+git.193.a4d6307f1fd-1.1",
            "openSUSE Tumbleweed:libdcerpc-binding0-4.15.2+git.193.a4d6307f1fd-1.1",
            "openSUSE Tumbleweed:libdcerpc-devel-4.15.2+git.193.a4d6307f1fd-1.1",
            "openSUSE Tumbleweed:libdcerpc-samr-devel-4.15.2+git.193.a4d6307f1fd-1.1",
            "openSUSE Tumbleweed:libdcerpc-samr0-32bit-4.15.2+git.193.a4d6307f1fd-1.1",
            "openSUSE Tumbleweed:libdcerpc-samr0-4.15.2+git.193.a4d6307f1fd-1.1",
            "openSUSE Tumbleweed:libdcerpc0-32bit-4.15.2+git.193.a4d6307f1fd-1.1",
            "openSUSE Tumbleweed:libdcerpc0-4.15.2+git.193.a4d6307f1fd-1.1",
            "openSUSE Tumbleweed:libndr-devel-4.15.2+git.193.a4d6307f1fd-1.1",
            "openSUSE Tumbleweed:libndr-krb5pac-devel-4.15.2+git.193.a4d6307f1fd-1.1",
            "openSUSE Tumbleweed:libndr-krb5pac0-32bit-4.15.2+git.193.a4d6307f1fd-1.1",
            "openSUSE Tumbleweed:libndr-krb5pac0-4.15.2+git.193.a4d6307f1fd-1.1",
            "openSUSE Tumbleweed:libndr-nbt-devel-4.15.2+git.193.a4d6307f1fd-1.1",
            "openSUSE Tumbleweed:libndr-nbt0-32bit-4.15.2+git.193.a4d6307f1fd-1.1",
            "openSUSE Tumbleweed:libndr-nbt0-4.15.2+git.193.a4d6307f1fd-1.1",
            "openSUSE Tumbleweed:libndr-standard-devel-4.15.2+git.193.a4d6307f1fd-1.1",
            "openSUSE Tumbleweed:libndr-standard0-32bit-4.15.2+git.193.a4d6307f1fd-1.1",
            "openSUSE Tumbleweed:libndr-standard0-4.15.2+git.193.a4d6307f1fd-1.1",
            "openSUSE Tumbleweed:libndr2-32bit-4.15.2+git.193.a4d6307f1fd-1.1",
            "openSUSE Tumbleweed:libndr2-4.15.2+git.193.a4d6307f1fd-1.1",
            "openSUSE Tumbleweed:libnetapi-devel-32bit-4.15.2+git.193.a4d6307f1fd-1.1",
            "openSUSE Tumbleweed:libnetapi-devel-4.15.2+git.193.a4d6307f1fd-1.1",
            "openSUSE Tumbleweed:libnetapi0-32bit-4.15.2+git.193.a4d6307f1fd-1.1",
            "openSUSE Tumbleweed:libnetapi0-4.15.2+git.193.a4d6307f1fd-1.1",
            "openSUSE Tumbleweed:libsamba-credentials-devel-4.15.2+git.193.a4d6307f1fd-1.1",
            "openSUSE Tumbleweed:libsamba-credentials1-32bit-4.15.2+git.193.a4d6307f1fd-1.1",
            "openSUSE Tumbleweed:libsamba-credentials1-4.15.2+git.193.a4d6307f1fd-1.1",
            "openSUSE Tumbleweed:libsamba-errors-devel-4.15.2+git.193.a4d6307f1fd-1.1",
            "openSUSE Tumbleweed:libsamba-errors0-32bit-4.15.2+git.193.a4d6307f1fd-1.1",
            "openSUSE Tumbleweed:libsamba-errors0-4.15.2+git.193.a4d6307f1fd-1.1",
            "openSUSE Tumbleweed:libsamba-hostconfig-devel-4.15.2+git.193.a4d6307f1fd-1.1",
            "openSUSE Tumbleweed:libsamba-hostconfig0-32bit-4.15.2+git.193.a4d6307f1fd-1.1",
            "openSUSE Tumbleweed:libsamba-hostconfig0-4.15.2+git.193.a4d6307f1fd-1.1",
            "openSUSE Tumbleweed:libsamba-passdb-devel-4.15.2+git.193.a4d6307f1fd-1.1",
            "openSUSE Tumbleweed:libsamba-passdb0-32bit-4.15.2+git.193.a4d6307f1fd-1.1",
            "openSUSE Tumbleweed:libsamba-passdb0-4.15.2+git.193.a4d6307f1fd-1.1",
            "openSUSE Tumbleweed:libsamba-policy-devel-4.15.2+git.193.a4d6307f1fd-1.1",
            "openSUSE Tumbleweed:libsamba-policy-python3-devel-4.15.2+git.193.a4d6307f1fd-1.1",
            "openSUSE Tumbleweed:libsamba-policy0-python3-32bit-4.15.2+git.193.a4d6307f1fd-1.1",
            "openSUSE Tumbleweed:libsamba-policy0-python3-4.15.2+git.193.a4d6307f1fd-1.1",
            "openSUSE Tumbleweed:libsamba-util-devel-4.15.2+git.193.a4d6307f1fd-1.1",
            "openSUSE Tumbleweed:libsamba-util0-32bit-4.15.2+git.193.a4d6307f1fd-1.1",
            "openSUSE Tumbleweed:libsamba-util0-4.15.2+git.193.a4d6307f1fd-1.1",
            "openSUSE Tumbleweed:libsamdb-devel-4.15.2+git.193.a4d6307f1fd-1.1",
            "openSUSE Tumbleweed:libsamdb0-32bit-4.15.2+git.193.a4d6307f1fd-1.1",
            "openSUSE Tumbleweed:libsamdb0-4.15.2+git.193.a4d6307f1fd-1.1",
            "openSUSE Tumbleweed:libsmbclient-devel-4.15.2+git.193.a4d6307f1fd-1.1",
            "openSUSE Tumbleweed:libsmbclient0-32bit-4.15.2+git.193.a4d6307f1fd-1.1",
            "openSUSE Tumbleweed:libsmbclient0-4.15.2+git.193.a4d6307f1fd-1.1",
            "openSUSE Tumbleweed:libsmbconf-devel-4.15.2+git.193.a4d6307f1fd-1.1",
            "openSUSE Tumbleweed:libsmbconf0-32bit-4.15.2+git.193.a4d6307f1fd-1.1",
            "openSUSE Tumbleweed:libsmbconf0-4.15.2+git.193.a4d6307f1fd-1.1",
            "openSUSE Tumbleweed:libsmbldap-devel-4.15.2+git.193.a4d6307f1fd-1.1",
            "openSUSE Tumbleweed:libsmbldap2-32bit-4.15.2+git.193.a4d6307f1fd-1.1",
            "openSUSE Tumbleweed:libsmbldap2-4.15.2+git.193.a4d6307f1fd-1.1",
            "openSUSE Tumbleweed:libtevent-util-devel-4.15.2+git.193.a4d6307f1fd-1.1",
            "openSUSE Tumbleweed:libtevent-util0-32bit-4.15.2+git.193.a4d6307f1fd-1.1",
            "openSUSE Tumbleweed:libtevent-util0-4.15.2+git.193.a4d6307f1fd-1.1",
            "openSUSE Tumbleweed:libwbclient-devel-4.15.2+git.193.a4d6307f1fd-1.1",
            "openSUSE Tumbleweed:libwbclient0-32bit-4.15.2+git.193.a4d6307f1fd-1.1",
            "openSUSE Tumbleweed:libwbclient0-4.15.2+git.193.a4d6307f1fd-1.1",
            "openSUSE Tumbleweed:samba-4.15.2+git.193.a4d6307f1fd-1.1",
            "openSUSE Tumbleweed:samba-ad-dc-32bit-4.15.2+git.193.a4d6307f1fd-1.1",
            "openSUSE Tumbleweed:samba-ad-dc-4.15.2+git.193.a4d6307f1fd-1.1",
            "openSUSE Tumbleweed:samba-ceph-4.15.2+git.193.a4d6307f1fd-1.1",
            "openSUSE Tumbleweed:samba-client-32bit-4.15.2+git.193.a4d6307f1fd-1.1",
            "openSUSE Tumbleweed:samba-client-4.15.2+git.193.a4d6307f1fd-1.1",
            "openSUSE Tumbleweed:samba-core-devel-4.15.2+git.193.a4d6307f1fd-1.1",
            "openSUSE Tumbleweed:samba-doc-4.15.2+git.193.a4d6307f1fd-1.1",
            "openSUSE Tumbleweed:samba-dsdb-modules-4.15.2+git.193.a4d6307f1fd-1.1",
            "openSUSE Tumbleweed:samba-gpupdate-4.15.2+git.193.a4d6307f1fd-1.1",
            "openSUSE Tumbleweed:samba-ldb-ldap-4.15.2+git.193.a4d6307f1fd-1.1",
            "openSUSE Tumbleweed:samba-libs-32bit-4.15.2+git.193.a4d6307f1fd-1.1",
            "openSUSE Tumbleweed:samba-libs-4.15.2+git.193.a4d6307f1fd-1.1",
            "openSUSE Tumbleweed:samba-libs-python3-32bit-4.15.2+git.193.a4d6307f1fd-1.1",
            "openSUSE Tumbleweed:samba-libs-python3-4.15.2+git.193.a4d6307f1fd-1.1",
            "openSUSE Tumbleweed:samba-python3-4.15.2+git.193.a4d6307f1fd-1.1",
            "openSUSE Tumbleweed:samba-test-4.15.2+git.193.a4d6307f1fd-1.1",
            "openSUSE Tumbleweed:samba-tool-4.15.2+git.193.a4d6307f1fd-1.1",
            "openSUSE Tumbleweed:samba-winbind-32bit-4.15.2+git.193.a4d6307f1fd-1.1",
            "openSUSE Tumbleweed:samba-winbind-4.15.2+git.193.a4d6307f1fd-1.1"
          ]
        }
      ],
      "CVSSScoreSets": {}
    },
    {
      "CVE": "CVE-2021-3738",
      "Description": "In DCE/RPC it is possible to share the handles (cookies for resource state) between multiple connections via a mechanism called 'association groups'. These handles can reference connections to our sam.ldb database. However while the database was correctly shared, the user credentials state was only pointed at, and when one connection within that association group ended, the database would be left pointing at an invalid 'struct session_info'. The most likely outcome here is a crash, but it is possible that the use-after-free could instead allow different user state to be pointed at and this might allow more privileged access.",
      "Threats": [
        {
          "Type": "Impact",
          "Severity": "important"
        }
      ],
      "References": [
        {
          "URL": "https://www.suse.com/security/cve/CVE-2021-3738.html",
          "Description": "CVE-2021-3738"
        },
        {
          "URL": "https://bugzilla.suse.com/1192215",
          "Description": "SUSE Bug 1192215"
        }
      ],
      "ProductStatuses": [
        {
          "Type": "Fixed",
          "ProductID": [
            "openSUSE Tumbleweed:ctdb-4.15.2+git.193.a4d6307f1fd-1.1",
            "openSUSE Tumbleweed:ctdb-pcp-pmda-4.15.2+git.193.a4d6307f1fd-1.1",
            "openSUSE Tumbleweed:libdcerpc-binding0-32bit-4.15.2+git.193.a4d6307f1fd-1.1",
            "openSUSE Tumbleweed:libdcerpc-binding0-4.15.2+git.193.a4d6307f1fd-1.1",
            "openSUSE Tumbleweed:libdcerpc-devel-4.15.2+git.193.a4d6307f1fd-1.1",
            "openSUSE Tumbleweed:libdcerpc-samr-devel-4.15.2+git.193.a4d6307f1fd-1.1",
            "openSUSE Tumbleweed:libdcerpc-samr0-32bit-4.15.2+git.193.a4d6307f1fd-1.1",
            "openSUSE Tumbleweed:libdcerpc-samr0-4.15.2+git.193.a4d6307f1fd-1.1",
            "openSUSE Tumbleweed:libdcerpc0-32bit-4.15.2+git.193.a4d6307f1fd-1.1",
            "openSUSE Tumbleweed:libdcerpc0-4.15.2+git.193.a4d6307f1fd-1.1",
            "openSUSE Tumbleweed:libndr-devel-4.15.2+git.193.a4d6307f1fd-1.1",
            "openSUSE Tumbleweed:libndr-krb5pac-devel-4.15.2+git.193.a4d6307f1fd-1.1",
            "openSUSE Tumbleweed:libndr-krb5pac0-32bit-4.15.2+git.193.a4d6307f1fd-1.1",
            "openSUSE Tumbleweed:libndr-krb5pac0-4.15.2+git.193.a4d6307f1fd-1.1",
            "openSUSE Tumbleweed:libndr-nbt-devel-4.15.2+git.193.a4d6307f1fd-1.1",
            "openSUSE Tumbleweed:libndr-nbt0-32bit-4.15.2+git.193.a4d6307f1fd-1.1",
            "openSUSE Tumbleweed:libndr-nbt0-4.15.2+git.193.a4d6307f1fd-1.1",
            "openSUSE Tumbleweed:libndr-standard-devel-4.15.2+git.193.a4d6307f1fd-1.1",
            "openSUSE Tumbleweed:libndr-standard0-32bit-4.15.2+git.193.a4d6307f1fd-1.1",
            "openSUSE Tumbleweed:libndr-standard0-4.15.2+git.193.a4d6307f1fd-1.1",
            "openSUSE Tumbleweed:libndr2-32bit-4.15.2+git.193.a4d6307f1fd-1.1",
            "openSUSE Tumbleweed:libndr2-4.15.2+git.193.a4d6307f1fd-1.1",
            "openSUSE Tumbleweed:libnetapi-devel-32bit-4.15.2+git.193.a4d6307f1fd-1.1",
            "openSUSE Tumbleweed:libnetapi-devel-4.15.2+git.193.a4d6307f1fd-1.1",
            "openSUSE Tumbleweed:libnetapi0-32bit-4.15.2+git.193.a4d6307f1fd-1.1",
            "openSUSE Tumbleweed:libnetapi0-4.15.2+git.193.a4d6307f1fd-1.1",
            "openSUSE Tumbleweed:libsamba-credentials-devel-4.15.2+git.193.a4d6307f1fd-1.1",
            "openSUSE Tumbleweed:libsamba-credentials1-32bit-4.15.2+git.193.a4d6307f1fd-1.1",
            "openSUSE Tumbleweed:libsamba-credentials1-4.15.2+git.193.a4d6307f1fd-1.1",
            "openSUSE Tumbleweed:libsamba-errors-devel-4.15.2+git.193.a4d6307f1fd-1.1",
            "openSUSE Tumbleweed:libsamba-errors0-32bit-4.15.2+git.193.a4d6307f1fd-1.1",
            "openSUSE Tumbleweed:libsamba-errors0-4.15.2+git.193.a4d6307f1fd-1.1",
            "openSUSE Tumbleweed:libsamba-hostconfig-devel-4.15.2+git.193.a4d6307f1fd-1.1",
            "openSUSE Tumbleweed:libsamba-hostconfig0-32bit-4.15.2+git.193.a4d6307f1fd-1.1",
            "openSUSE Tumbleweed:libsamba-hostconfig0-4.15.2+git.193.a4d6307f1fd-1.1",
            "openSUSE Tumbleweed:libsamba-passdb-devel-4.15.2+git.193.a4d6307f1fd-1.1",
            "openSUSE Tumbleweed:libsamba-passdb0-32bit-4.15.2+git.193.a4d6307f1fd-1.1",
            "openSUSE Tumbleweed:libsamba-passdb0-4.15.2+git.193.a4d6307f1fd-1.1",
            "openSUSE Tumbleweed:libsamba-policy-devel-4.15.2+git.193.a4d6307f1fd-1.1",
            "openSUSE Tumbleweed:libsamba-policy-python3-devel-4.15.2+git.193.a4d6307f1fd-1.1",
            "openSUSE Tumbleweed:libsamba-policy0-python3-32bit-4.15.2+git.193.a4d6307f1fd-1.1",
            "openSUSE Tumbleweed:libsamba-policy0-python3-4.15.2+git.193.a4d6307f1fd-1.1",
            "openSUSE Tumbleweed:libsamba-util-devel-4.15.2+git.193.a4d6307f1fd-1.1",
            "openSUSE Tumbleweed:libsamba-util0-32bit-4.15.2+git.193.a4d6307f1fd-1.1",
            "openSUSE Tumbleweed:libsamba-util0-4.15.2+git.193.a4d6307f1fd-1.1",
            "openSUSE Tumbleweed:libsamdb-devel-4.15.2+git.193.a4d6307f1fd-1.1",
            "openSUSE Tumbleweed:libsamdb0-32bit-4.15.2+git.193.a4d6307f1fd-1.1",
            "openSUSE Tumbleweed:libsamdb0-4.15.2+git.193.a4d6307f1fd-1.1",
            "openSUSE Tumbleweed:libsmbclient-devel-4.15.2+git.193.a4d6307f1fd-1.1",
            "openSUSE Tumbleweed:libsmbclient0-32bit-4.15.2+git.193.a4d6307f1fd-1.1",
            "openSUSE Tumbleweed:libsmbclient0-4.15.2+git.193.a4d6307f1fd-1.1",
            "openSUSE Tumbleweed:libsmbconf-devel-4.15.2+git.193.a4d6307f1fd-1.1",
            "openSUSE Tumbleweed:libsmbconf0-32bit-4.15.2+git.193.a4d6307f1fd-1.1",
            "openSUSE Tumbleweed:libsmbconf0-4.15.2+git.193.a4d6307f1fd-1.1",
            "openSUSE Tumbleweed:libsmbldap-devel-4.15.2+git.193.a4d6307f1fd-1.1",
            "openSUSE Tumbleweed:libsmbldap2-32bit-4.15.2+git.193.a4d6307f1fd-1.1",
            "openSUSE Tumbleweed:libsmbldap2-4.15.2+git.193.a4d6307f1fd-1.1",
            "openSUSE Tumbleweed:libtevent-util-devel-4.15.2+git.193.a4d6307f1fd-1.1",
            "openSUSE Tumbleweed:libtevent-util0-32bit-4.15.2+git.193.a4d6307f1fd-1.1",
            "openSUSE Tumbleweed:libtevent-util0-4.15.2+git.193.a4d6307f1fd-1.1",
            "openSUSE Tumbleweed:libwbclient-devel-4.15.2+git.193.a4d6307f1fd-1.1",
            "openSUSE Tumbleweed:libwbclient0-32bit-4.15.2+git.193.a4d6307f1fd-1.1",
            "openSUSE Tumbleweed:libwbclient0-4.15.2+git.193.a4d6307f1fd-1.1",
            "openSUSE Tumbleweed:samba-4.15.2+git.193.a4d6307f1fd-1.1",
            "openSUSE Tumbleweed:samba-ad-dc-32bit-4.15.2+git.193.a4d6307f1fd-1.1",
            "openSUSE Tumbleweed:samba-ad-dc-4.15.2+git.193.a4d6307f1fd-1.1",
            "openSUSE Tumbleweed:samba-ceph-4.15.2+git.193.a4d6307f1fd-1.1",
            "openSUSE Tumbleweed:samba-client-32bit-4.15.2+git.193.a4d6307f1fd-1.1",
            "openSUSE Tumbleweed:samba-client-4.15.2+git.193.a4d6307f1fd-1.1",
            "openSUSE Tumbleweed:samba-core-devel-4.15.2+git.193.a4d6307f1fd-1.1",
            "openSUSE Tumbleweed:samba-doc-4.15.2+git.193.a4d6307f1fd-1.1",
            "openSUSE Tumbleweed:samba-dsdb-modules-4.15.2+git.193.a4d6307f1fd-1.1",
            "openSUSE Tumbleweed:samba-gpupdate-4.15.2+git.193.a4d6307f1fd-1.1",
            "openSUSE Tumbleweed:samba-ldb-ldap-4.15.2+git.193.a4d6307f1fd-1.1",
            "openSUSE Tumbleweed:samba-libs-32bit-4.15.2+git.193.a4d6307f1fd-1.1",
            "openSUSE Tumbleweed:samba-libs-4.15.2+git.193.a4d6307f1fd-1.1",
            "openSUSE Tumbleweed:samba-libs-python3-32bit-4.15.2+git.193.a4d6307f1fd-1.1",
            "openSUSE Tumbleweed:samba-libs-python3-4.15.2+git.193.a4d6307f1fd-1.1",
            "openSUSE Tumbleweed:samba-python3-4.15.2+git.193.a4d6307f1fd-1.1",
            "openSUSE Tumbleweed:samba-test-4.15.2+git.193.a4d6307f1fd-1.1",
            "openSUSE Tumbleweed:samba-tool-4.15.2+git.193.a4d6307f1fd-1.1",
            "openSUSE Tumbleweed:samba-winbind-32bit-4.15.2+git.193.a4d6307f1fd-1.1",
            "openSUSE Tumbleweed:samba-winbind-4.15.2+git.193.a4d6307f1fd-1.1"
          ]
        }
      ],
      "CVSSScoreSets": {}
    }
  ]
}