{
  "Title": "audiofile-0.3.6-9.5 on GA media",
  "Tracking": {
    "ID": "openSUSE-SU-2024:10267-1",
    "Status": "Final",
    "Version": "1",
    "InitialReleaseDate": "2024-06-22T21:44:56Z",
    "CurrentReleaseDate": "2024-06-22T21:44:56Z",
    "RevisionHistory": [
      {
        "Number": "1",
        "Date": "2024-06-22T21:44:56Z",
        "Description": "current"
      }
    ]
  },
  "Notes": [
    {
      "Text": "audiofile-0.3.6-9.5 on GA media",
      "Title": "Topic",
      "Type": "Summary"
    },
    {
      "Text": "These are all security issues fixed in the audiofile-0.3.6-9.5 package on the GA media of openSUSE Tumbleweed.",
      "Title": "Details",
      "Type": "General"
    },
    {
      "Text": "The CVRF data is provided by SUSE under the Creative Commons License 4.0 with Attribution (CC-BY-4.0).",
      "Title": "Terms of Use",
      "Type": "Legal Disclaimer"
    },
    {
      "Text": "openSUSE-Tumbleweed-2024-10267",
      "Title": "Patchnames",
      "Type": "Details"
    }
  ],
  "ProductTree": {
    "Relationships": [
      {
        "ProductReference": "audiofile-0.3.6-9.5",
        "RelatesToProductReference": "openSUSE Tumbleweed",
        "RelationType": "Default Component Of"
      },
      {
        "ProductReference": "audiofile-devel-0.3.6-9.5",
        "RelatesToProductReference": "openSUSE Tumbleweed",
        "RelationType": "Default Component Of"
      },
      {
        "ProductReference": "audiofile-devel-32bit-0.3.6-9.5",
        "RelatesToProductReference": "openSUSE Tumbleweed",
        "RelationType": "Default Component Of"
      },
      {
        "ProductReference": "audiofile-doc-0.3.6-9.5",
        "RelatesToProductReference": "openSUSE Tumbleweed",
        "RelationType": "Default Component Of"
      },
      {
        "ProductReference": "libaudiofile1-0.3.6-9.5",
        "RelatesToProductReference": "openSUSE Tumbleweed",
        "RelationType": "Default Component Of"
      },
      {
        "ProductReference": "libaudiofile1-32bit-0.3.6-9.5",
        "RelatesToProductReference": "openSUSE Tumbleweed",
        "RelationType": "Default Component Of"
      }
    ]
  },
  "References": [
    {
      "URL": "https://www.suse.com/support/security/rating/",
      "Description": "SUSE Security Ratings"
    },
    {
      "URL": "https://www.suse.com/security/cve/CVE-2015-7747/",
      "Description": "SUSE CVE CVE-2015-7747 page"
    }
  ],
  "Vulnerabilities": [
    {
      "CVE": "CVE-2015-7747",
      "Description": "Buffer overflow in the afReadFrames function in audiofile (aka libaudiofile and Audio File Library) allows user-assisted remote attackers to cause a denial of service (program crash) or possibly execute arbitrary code via a crafted audio file, as demonstrated by sixteen-stereo-to-eight-mono.c.",
      "Threats": [
        {
          "Type": "Impact",
          "Severity": "important"
        }
      ],
      "References": [
        {
          "URL": "https://www.suse.com/security/cve/CVE-2015-7747.html",
          "Description": "CVE-2015-7747"
        },
        {
          "URL": "https://bugzilla.suse.com/949399",
          "Description": "SUSE Bug 949399"
        }
      ],
      "ProductStatuses": [
        {
          "Type": "Fixed",
          "ProductID": [
            "openSUSE Tumbleweed:audiofile-0.3.6-9.5",
            "openSUSE Tumbleweed:audiofile-devel-0.3.6-9.5",
            "openSUSE Tumbleweed:audiofile-devel-32bit-0.3.6-9.5",
            "openSUSE Tumbleweed:audiofile-doc-0.3.6-9.5",
            "openSUSE Tumbleweed:libaudiofile1-0.3.6-9.5",
            "openSUSE Tumbleweed:libaudiofile1-32bit-0.3.6-9.5"
          ]
        }
      ],
      "CVSSScoreSets": {}
    }
  ]
}