{
  "Title": "postgresql13-13.7-1.1 on GA media",
  "Tracking": {
    "ID": "openSUSE-SU-2024:12077-1",
    "Status": "Final",
    "Version": "1",
    "InitialReleaseDate": "2024-06-20T21:44:22Z",
    "CurrentReleaseDate": "2024-06-20T21:44:22Z",
    "RevisionHistory": [
      {
        "Number": "1",
        "Date": "2024-06-20T21:44:22Z",
        "Description": "current"
      }
    ]
  },
  "Notes": [
    {
      "Text": "postgresql13-13.7-1.1 on GA media",
      "Title": "Topic",
      "Type": "Summary"
    },
    {
      "Text": "These are all security issues fixed in the postgresql13-13.7-1.1 package on the GA media of openSUSE Tumbleweed.",
      "Title": "Details",
      "Type": "General"
    },
    {
      "Text": "The CVRF data is provided by SUSE under the Creative Commons License 4.0 with Attribution (CC-BY-4.0).",
      "Title": "Terms of Use",
      "Type": "Legal Disclaimer"
    },
    {
      "Text": "openSUSE-Tumbleweed-2024-12077",
      "Title": "Patchnames",
      "Type": "Details"
    }
  ],
  "ProductTree": {
    "Relationships": [
      {
        "ProductReference": "postgresql13-13.7-1.1",
        "RelatesToProductReference": "openSUSE Tumbleweed",
        "RelationType": "Default Component Of"
      },
      {
        "ProductReference": "postgresql13-contrib-13.7-1.1",
        "RelatesToProductReference": "openSUSE Tumbleweed",
        "RelationType": "Default Component Of"
      },
      {
        "ProductReference": "postgresql13-devel-13.7-1.1",
        "RelatesToProductReference": "openSUSE Tumbleweed",
        "RelationType": "Default Component Of"
      },
      {
        "ProductReference": "postgresql13-docs-13.7-1.1",
        "RelatesToProductReference": "openSUSE Tumbleweed",
        "RelationType": "Default Component Of"
      },
      {
        "ProductReference": "postgresql13-llvmjit-13.7-1.1",
        "RelatesToProductReference": "openSUSE Tumbleweed",
        "RelationType": "Default Component Of"
      },
      {
        "ProductReference": "postgresql13-llvmjit-devel-13.7-1.1",
        "RelatesToProductReference": "openSUSE Tumbleweed",
        "RelationType": "Default Component Of"
      },
      {
        "ProductReference": "postgresql13-plperl-13.7-1.1",
        "RelatesToProductReference": "openSUSE Tumbleweed",
        "RelationType": "Default Component Of"
      },
      {
        "ProductReference": "postgresql13-plpython-13.7-1.1",
        "RelatesToProductReference": "openSUSE Tumbleweed",
        "RelationType": "Default Component Of"
      },
      {
        "ProductReference": "postgresql13-pltcl-13.7-1.1",
        "RelatesToProductReference": "openSUSE Tumbleweed",
        "RelationType": "Default Component Of"
      },
      {
        "ProductReference": "postgresql13-server-13.7-1.1",
        "RelatesToProductReference": "openSUSE Tumbleweed",
        "RelationType": "Default Component Of"
      },
      {
        "ProductReference": "postgresql13-server-devel-13.7-1.1",
        "RelatesToProductReference": "openSUSE Tumbleweed",
        "RelationType": "Default Component Of"
      },
      {
        "ProductReference": "postgresql13-test-13.7-1.1",
        "RelatesToProductReference": "openSUSE Tumbleweed",
        "RelationType": "Default Component Of"
      }
    ]
  },
  "References": [
    {
      "URL": "https://www.suse.com/support/security/rating/",
      "Description": "SUSE Security Ratings"
    },
    {
      "URL": "https://www.suse.com/security/cve/CVE-2022-1552/",
      "Description": "SUSE CVE CVE-2022-1552 page"
    }
  ],
  "Vulnerabilities": [
    {
      "CVE": "CVE-2022-1552",
      "Description": "A flaw was found in PostgreSQL. There is an issue with incomplete efforts to operate safely when a privileged user is maintaining another user's objects. The Autovacuum, REINDEX, CREATE INDEX, REFRESH MATERIALIZED VIEW, CLUSTER, and pg_amcheck commands activated relevant protections too late or not at all during the process. This flaw allows an attacker with permission to create non-temporary objects in at least one schema to execute arbitrary SQL functions under a superuser identity.",
      "Threats": [
        {
          "Type": "Impact",
          "Severity": "important"
        }
      ],
      "References": [
        {
          "URL": "https://www.suse.com/security/cve/CVE-2022-1552.html",
          "Description": "CVE-2022-1552"
        },
        {
          "URL": "https://bugzilla.suse.com/1199475",
          "Description": "SUSE Bug 1199475"
        }
      ],
      "ProductStatuses": [
        {
          "Type": "Fixed",
          "ProductID": [
            "openSUSE Tumbleweed:postgresql13-13.7-1.1",
            "openSUSE Tumbleweed:postgresql13-contrib-13.7-1.1",
            "openSUSE Tumbleweed:postgresql13-devel-13.7-1.1",
            "openSUSE Tumbleweed:postgresql13-docs-13.7-1.1",
            "openSUSE Tumbleweed:postgresql13-llvmjit-13.7-1.1",
            "openSUSE Tumbleweed:postgresql13-llvmjit-devel-13.7-1.1",
            "openSUSE Tumbleweed:postgresql13-plperl-13.7-1.1",
            "openSUSE Tumbleweed:postgresql13-plpython-13.7-1.1",
            "openSUSE Tumbleweed:postgresql13-pltcl-13.7-1.1",
            "openSUSE Tumbleweed:postgresql13-server-13.7-1.1",
            "openSUSE Tumbleweed:postgresql13-server-devel-13.7-1.1",
            "openSUSE Tumbleweed:postgresql13-test-13.7-1.1"
          ]
        }
      ],
      "CVSSScoreSets": {}
    }
  ]
}