{
  "Title": "libvorbis-devel-1.3.5-2.1 on GA media",
  "Tracking": {
    "ID": "openSUSE-SU-2024:10024-1",
    "Status": "Final",
    "Version": "1",
    "InitialReleaseDate": "2024-06-22T21:44:56Z",
    "CurrentReleaseDate": "2024-06-22T21:44:56Z",
    "RevisionHistory": [
      {
        "Number": "1",
        "Date": "2024-06-22T21:44:56Z",
        "Description": "current"
      }
    ]
  },
  "Notes": [
    {
      "Text": "libvorbis-devel-1.3.5-2.1 on GA media",
      "Title": "Topic",
      "Type": "Summary"
    },
    {
      "Text": "These are all security issues fixed in the libvorbis-devel-1.3.5-2.1 package on the GA media of openSUSE Tumbleweed.",
      "Title": "Details",
      "Type": "General"
    },
    {
      "Text": "The CVRF data is provided by SUSE under the Creative Commons License 4.0 with Attribution (CC-BY-4.0).",
      "Title": "Terms of Use",
      "Type": "Legal Disclaimer"
    },
    {
      "Text": "openSUSE-Tumbleweed-2024-10024",
      "Title": "Patchnames",
      "Type": "Details"
    }
  ],
  "ProductTree": {
    "Relationships": [
      {
        "ProductReference": "libvorbis-devel-1.3.5-2.1",
        "RelatesToProductReference": "openSUSE Tumbleweed",
        "RelationType": "Default Component Of"
      },
      {
        "ProductReference": "libvorbis-devel-32bit-1.3.5-2.1",
        "RelatesToProductReference": "openSUSE Tumbleweed",
        "RelationType": "Default Component Of"
      },
      {
        "ProductReference": "libvorbis-doc-1.3.5-2.1",
        "RelatesToProductReference": "openSUSE Tumbleweed",
        "RelationType": "Default Component Of"
      },
      {
        "ProductReference": "libvorbis0-1.3.5-2.1",
        "RelatesToProductReference": "openSUSE Tumbleweed",
        "RelationType": "Default Component Of"
      },
      {
        "ProductReference": "libvorbis0-32bit-1.3.5-2.1",
        "RelatesToProductReference": "openSUSE Tumbleweed",
        "RelationType": "Default Component Of"
      },
      {
        "ProductReference": "libvorbisenc2-1.3.5-2.1",
        "RelatesToProductReference": "openSUSE Tumbleweed",
        "RelationType": "Default Component Of"
      },
      {
        "ProductReference": "libvorbisenc2-32bit-1.3.5-2.1",
        "RelatesToProductReference": "openSUSE Tumbleweed",
        "RelationType": "Default Component Of"
      },
      {
        "ProductReference": "libvorbisfile3-1.3.5-2.1",
        "RelatesToProductReference": "openSUSE Tumbleweed",
        "RelationType": "Default Component Of"
      },
      {
        "ProductReference": "libvorbisfile3-32bit-1.3.5-2.1",
        "RelatesToProductReference": "openSUSE Tumbleweed",
        "RelationType": "Default Component Of"
      }
    ]
  },
  "References": [
    {
      "URL": "https://www.suse.com/support/security/rating/",
      "Description": "SUSE Security Ratings"
    },
    {
      "URL": "https://www.suse.com/security/cve/CVE-2008-1420/",
      "Description": "SUSE CVE CVE-2008-1420 page"
    },
    {
      "URL": "https://www.suse.com/security/cve/CVE-2009-3379/",
      "Description": "SUSE CVE CVE-2009-3379 page"
    },
    {
      "URL": "https://www.suse.com/security/cve/CVE-2012-0444/",
      "Description": "SUSE CVE CVE-2012-0444 page"
    }
  ],
  "Vulnerabilities": [
    {
      "CVE": "CVE-2008-1420",
      "Description": "Integer overflow in residue partition value (aka partvals) evaluation in Xiph.org libvorbis 1.2.0 and earlier allows remote attackers to execute arbitrary code via a crafted OGG file, which triggers a heap overflow.",
      "Threats": [
        {
          "Type": "Impact",
          "Severity": "moderate"
        }
      ],
      "References": [
        {
          "URL": "https://www.suse.com/security/cve/CVE-2008-1420.html",
          "Description": "CVE-2008-1420"
        },
        {
          "URL": "https://bugzilla.suse.com/372246",
          "Description": "SUSE Bug 372246"
        }
      ],
      "ProductStatuses": [
        {
          "Type": "Fixed",
          "ProductID": [
            "openSUSE Tumbleweed:libvorbis-devel-1.3.5-2.1",
            "openSUSE Tumbleweed:libvorbis-devel-32bit-1.3.5-2.1",
            "openSUSE Tumbleweed:libvorbis-doc-1.3.5-2.1",
            "openSUSE Tumbleweed:libvorbis0-1.3.5-2.1",
            "openSUSE Tumbleweed:libvorbis0-32bit-1.3.5-2.1",
            "openSUSE Tumbleweed:libvorbisenc2-1.3.5-2.1",
            "openSUSE Tumbleweed:libvorbisenc2-32bit-1.3.5-2.1",
            "openSUSE Tumbleweed:libvorbisfile3-1.3.5-2.1",
            "openSUSE Tumbleweed:libvorbisfile3-32bit-1.3.5-2.1"
          ]
        }
      ],
      "CVSSScoreSets": {}
    },
    {
      "CVE": "CVE-2009-3379",
      "Description": "Multiple unspecified vulnerabilities in libvorbis, as used in Mozilla Firefox 3.5.x before 3.5.4, allow remote attackers to cause a denial of service (application crash) or possibly execute arbitrary code via unknown vectors.  NOTE: this might overlap CVE-2009-2663.",
      "Threats": [
        {
          "Type": "Impact",
          "Severity": "moderate"
        }
      ],
      "References": [
        {
          "URL": "https://www.suse.com/security/cve/CVE-2009-3379.html",
          "Description": "CVE-2009-3379"
        },
        {
          "URL": "https://bugzilla.suse.com/522109",
          "Description": "SUSE Bug 522109"
        },
        {
          "URL": "https://bugzilla.suse.com/545277",
          "Description": "SUSE Bug 545277"
        },
        {
          "URL": "https://bugzilla.suse.com/608192",
          "Description": "SUSE Bug 608192"
        }
      ],
      "ProductStatuses": [
        {
          "Type": "Fixed",
          "ProductID": [
            "openSUSE Tumbleweed:libvorbis-devel-1.3.5-2.1",
            "openSUSE Tumbleweed:libvorbis-devel-32bit-1.3.5-2.1",
            "openSUSE Tumbleweed:libvorbis-doc-1.3.5-2.1",
            "openSUSE Tumbleweed:libvorbis0-1.3.5-2.1",
            "openSUSE Tumbleweed:libvorbis0-32bit-1.3.5-2.1",
            "openSUSE Tumbleweed:libvorbisenc2-1.3.5-2.1",
            "openSUSE Tumbleweed:libvorbisenc2-32bit-1.3.5-2.1",
            "openSUSE Tumbleweed:libvorbisfile3-1.3.5-2.1",
            "openSUSE Tumbleweed:libvorbisfile3-32bit-1.3.5-2.1"
          ]
        }
      ],
      "CVSSScoreSets": {}
    },
    {
      "CVE": "CVE-2012-0444",
      "Description": "Mozilla Firefox before 3.6.26 and 4.x through 9.0, Thunderbird before 3.1.18 and 5.0 through 9.0, and SeaMonkey before 2.7 do not properly initialize nsChildView data structures, which allows remote attackers to cause a denial of service (memory corruption and application crash) or possibly execute arbitrary code via a crafted Ogg Vorbis file.",
      "Threats": [
        {
          "Type": "Impact",
          "Severity": "moderate"
        }
      ],
      "References": [
        {
          "URL": "https://www.suse.com/security/cve/CVE-2012-0444.html",
          "Description": "CVE-2012-0444"
        },
        {
          "URL": "https://bugzilla.suse.com/744275",
          "Description": "SUSE Bug 744275"
        },
        {
          "URL": "https://bugzilla.suse.com/747912",
          "Description": "SUSE Bug 747912"
        }
      ],
      "ProductStatuses": [
        {
          "Type": "Fixed",
          "ProductID": [
            "openSUSE Tumbleweed:libvorbis-devel-1.3.5-2.1",
            "openSUSE Tumbleweed:libvorbis-devel-32bit-1.3.5-2.1",
            "openSUSE Tumbleweed:libvorbis-doc-1.3.5-2.1",
            "openSUSE Tumbleweed:libvorbis0-1.3.5-2.1",
            "openSUSE Tumbleweed:libvorbis0-32bit-1.3.5-2.1",
            "openSUSE Tumbleweed:libvorbisenc2-1.3.5-2.1",
            "openSUSE Tumbleweed:libvorbisenc2-32bit-1.3.5-2.1",
            "openSUSE Tumbleweed:libvorbisfile3-1.3.5-2.1",
            "openSUSE Tumbleweed:libvorbisfile3-32bit-1.3.5-2.1"
          ]
        }
      ],
      "CVSSScoreSets": {}
    }
  ]
}