{
  "Title": "groff-1.22.3-2.5 on GA media",
  "Tracking": {
    "ID": "openSUSE-SU-2024:10031-1",
    "Status": "Final",
    "Version": "1",
    "InitialReleaseDate": "2024-06-22T21:44:56Z",
    "CurrentReleaseDate": "2024-06-22T21:44:56Z",
    "RevisionHistory": [
      {
        "Number": "1",
        "Date": "2024-06-22T21:44:56Z",
        "Description": "current"
      }
    ]
  },
  "Notes": [
    {
      "Text": "groff-1.22.3-2.5 on GA media",
      "Title": "Topic",
      "Type": "Summary"
    },
    {
      "Text": "These are all security issues fixed in the groff-1.22.3-2.5 package on the GA media of openSUSE Tumbleweed.",
      "Title": "Details",
      "Type": "General"
    },
    {
      "Text": "The CVRF data is provided by SUSE under the Creative Commons License 4.0 with Attribution (CC-BY-4.0).",
      "Title": "Terms of Use",
      "Type": "Legal Disclaimer"
    },
    {
      "Text": "openSUSE-Tumbleweed-2024-10031",
      "Title": "Patchnames",
      "Type": "Details"
    }
  ],
  "ProductTree": {
    "Relationships": [
      {
        "ProductReference": "groff-1.22.3-2.5",
        "RelatesToProductReference": "openSUSE Tumbleweed",
        "RelationType": "Default Component Of"
      },
      {
        "ProductReference": "groff-doc-1.22.3-2.5",
        "RelatesToProductReference": "openSUSE Tumbleweed",
        "RelationType": "Default Component Of"
      },
      {
        "ProductReference": "groff-full-1.22.3-2.5",
        "RelatesToProductReference": "openSUSE Tumbleweed",
        "RelationType": "Default Component Of"
      },
      {
        "ProductReference": "gxditview-1.22.3-2.5",
        "RelatesToProductReference": "openSUSE Tumbleweed",
        "RelationType": "Default Component Of"
      }
    ]
  },
  "References": [
    {
      "URL": "https://www.suse.com/support/security/rating/",
      "Description": "SUSE Security Ratings"
    },
    {
      "URL": "https://www.suse.com/security/cve/CVE-2009-5044/",
      "Description": "SUSE CVE CVE-2009-5044 page"
    },
    {
      "URL": "https://www.suse.com/security/cve/CVE-2009-5080/",
      "Description": "SUSE CVE CVE-2009-5080 page"
    },
    {
      "URL": "https://www.suse.com/security/cve/CVE-2009-5081/",
      "Description": "SUSE CVE CVE-2009-5081 page"
    }
  ],
  "Vulnerabilities": [
    {
      "CVE": "CVE-2009-5044",
      "Description": "contrib/pdfmark/pdfroff.sh in GNU troff (aka groff) before 1.21 allows local users to overwrite arbitrary files via a symlink attack on a pdf#####.tmp temporary file.",
      "Threats": [
        {
          "Type": "Impact",
          "Severity": "moderate"
        }
      ],
      "References": [
        {
          "URL": "https://www.suse.com/security/cve/CVE-2009-5044.html",
          "Description": "CVE-2009-5044"
        },
        {
          "URL": "https://bugzilla.suse.com/698290",
          "Description": "SUSE Bug 698290"
        },
        {
          "URL": "https://bugzilla.suse.com/703666",
          "Description": "SUSE Bug 703666"
        }
      ],
      "ProductStatuses": [
        {
          "Type": "Fixed",
          "ProductID": [
            "openSUSE Tumbleweed:groff-1.22.3-2.5",
            "openSUSE Tumbleweed:groff-doc-1.22.3-2.5",
            "openSUSE Tumbleweed:groff-full-1.22.3-2.5",
            "openSUSE Tumbleweed:gxditview-1.22.3-2.5"
          ]
        }
      ],
      "CVSSScoreSets": {}
    },
    {
      "CVE": "CVE-2009-5080",
      "Description": "The (1) contrib/eqn2graph/eqn2graph.sh, (2) contrib/grap2graph/grap2graph.sh, and (3) contrib/pic2graph/pic2graph.sh scripts in GNU troff (aka groff) 1.21 and earlier do not properly handle certain failed attempts to create temporary directories, which might allow local users to overwrite arbitrary files via a symlink attack on a file in a temporary directory, a different vulnerability than CVE-2004-1296.",
      "Threats": [
        {
          "Type": "Impact",
          "Severity": "moderate"
        }
      ],
      "References": [
        {
          "URL": "https://www.suse.com/security/cve/CVE-2009-5080.html",
          "Description": "CVE-2009-5080"
        },
        {
          "URL": "https://bugzilla.suse.com/703665",
          "Description": "SUSE Bug 703665"
        }
      ],
      "ProductStatuses": [
        {
          "Type": "Fixed",
          "ProductID": [
            "openSUSE Tumbleweed:groff-1.22.3-2.5",
            "openSUSE Tumbleweed:groff-doc-1.22.3-2.5",
            "openSUSE Tumbleweed:groff-full-1.22.3-2.5",
            "openSUSE Tumbleweed:gxditview-1.22.3-2.5"
          ]
        }
      ],
      "CVSSScoreSets": {}
    },
    {
      "CVE": "CVE-2009-5081",
      "Description": "The (1) config.guess, (2) contrib/groffer/perl/groffer.pl, and (3) contrib/groffer/perl/roff2.pl scripts in GNU troff (aka groff) 1.21 and earlier use an insufficient number of X characters in the template argument to the tempfile function, which makes it easier for local users to overwrite arbitrary files via a symlink attack on a temporary file, a different vulnerability than CVE-2004-0969.",
      "Threats": [
        {
          "Type": "Impact",
          "Severity": "moderate"
        }
      ],
      "References": [
        {
          "URL": "https://www.suse.com/security/cve/CVE-2009-5081.html",
          "Description": "CVE-2009-5081"
        },
        {
          "URL": "https://bugzilla.suse.com/703666",
          "Description": "SUSE Bug 703666"
        }
      ],
      "ProductStatuses": [
        {
          "Type": "Fixed",
          "ProductID": [
            "openSUSE Tumbleweed:groff-1.22.3-2.5",
            "openSUSE Tumbleweed:groff-doc-1.22.3-2.5",
            "openSUSE Tumbleweed:groff-full-1.22.3-2.5",
            "openSUSE Tumbleweed:gxditview-1.22.3-2.5"
          ]
        }
      ],
      "CVSSScoreSets": {}
    }
  ]
}