{
  "Title": "libgsasl-devel-1.10.0-3.1 on GA media",
  "Tracking": {
    "ID": "openSUSE-SU-2024:12325-1",
    "Status": "Final",
    "Version": "1",
    "InitialReleaseDate": "2024-06-20T21:44:22Z",
    "CurrentReleaseDate": "2024-06-20T21:44:22Z",
    "RevisionHistory": [
      {
        "Number": "1",
        "Date": "2024-06-20T21:44:22Z",
        "Description": "current"
      }
    ]
  },
  "Notes": [
    {
      "Text": "libgsasl-devel-1.10.0-3.1 on GA media",
      "Title": "Topic",
      "Type": "Summary"
    },
    {
      "Text": "These are all security issues fixed in the libgsasl-devel-1.10.0-3.1 package on the GA media of openSUSE Tumbleweed.",
      "Title": "Details",
      "Type": "General"
    },
    {
      "Text": "The CVRF data is provided by SUSE under the Creative Commons License 4.0 with Attribution (CC-BY-4.0).",
      "Title": "Terms of Use",
      "Type": "Legal Disclaimer"
    },
    {
      "Text": "openSUSE-Tumbleweed-2024-12325",
      "Title": "Patchnames",
      "Type": "Details"
    }
  ],
  "ProductTree": {
    "Relationships": [
      {
        "ProductReference": "libgsasl-devel-1.10.0-3.1",
        "RelatesToProductReference": "openSUSE Tumbleweed",
        "RelationType": "Default Component Of"
      },
      {
        "ProductReference": "libgsasl-lang-1.10.0-3.1",
        "RelatesToProductReference": "openSUSE Tumbleweed",
        "RelationType": "Default Component Of"
      },
      {
        "ProductReference": "libgsasl7-1.10.0-3.1",
        "RelatesToProductReference": "openSUSE Tumbleweed",
        "RelationType": "Default Component Of"
      }
    ]
  },
  "References": [
    {
      "URL": "https://www.suse.com/support/security/rating/",
      "Description": "SUSE Security Ratings"
    },
    {
      "URL": "https://www.suse.com/security/cve/CVE-2022-2469/",
      "Description": "SUSE CVE CVE-2022-2469 page"
    }
  ],
  "Vulnerabilities": [
    {
      "CVE": "CVE-2022-2469",
      "Description": "GNU SASL libgsasl server-side read-out-of-bounds with malicious authenticated GSS-API client",
      "Threats": [
        {
          "Type": "Impact",
          "Severity": "moderate"
        }
      ],
      "References": [
        {
          "URL": "https://www.suse.com/security/cve/CVE-2022-2469.html",
          "Description": "CVE-2022-2469"
        },
        {
          "URL": "https://bugzilla.suse.com/1201715",
          "Description": "SUSE Bug 1201715"
        }
      ],
      "ProductStatuses": [
        {
          "Type": "Fixed",
          "ProductID": [
            "openSUSE Tumbleweed:libgsasl-devel-1.10.0-3.1",
            "openSUSE Tumbleweed:libgsasl-lang-1.10.0-3.1",
            "openSUSE Tumbleweed:libgsasl7-1.10.0-3.1"
          ]
        }
      ],
      "CVSSScoreSets": {}
    }
  ]
}