{
  "Title": "sevctl-0.4.3-2.1 on GA media",
  "Tracking": {
    "ID": "openSUSE-SU-2024:13624-1",
    "Status": "Final",
    "Version": "1",
    "InitialReleaseDate": "2024-06-20T21:44:22Z",
    "CurrentReleaseDate": "2024-06-20T21:44:22Z",
    "RevisionHistory": [
      {
        "Number": "1",
        "Date": "2024-06-20T21:44:22Z",
        "Description": "current"
      }
    ]
  },
  "Notes": [
    {
      "Text": "sevctl-0.4.3-2.1 on GA media",
      "Title": "Topic",
      "Type": "Summary"
    },
    {
      "Text": "These are all security issues fixed in the sevctl-0.4.3-2.1 package on the GA media of openSUSE Tumbleweed.",
      "Title": "Details",
      "Type": "General"
    },
    {
      "Text": "The CVRF data is provided by SUSE under the Creative Commons License 4.0 with Attribution (CC-BY-4.0).",
      "Title": "Terms of Use",
      "Type": "Legal Disclaimer"
    },
    {
      "Text": "openSUSE-Tumbleweed-2024-13624",
      "Title": "Patchnames",
      "Type": "Details"
    }
  ],
  "ProductTree": {
    "Relationships": [
      {
        "ProductReference": "sevctl-0.4.3-2.1",
        "RelatesToProductReference": "openSUSE Tumbleweed",
        "RelationType": "Default Component Of"
      }
    ]
  },
  "References": [
    {
      "URL": "https://www.suse.com/support/security/rating/",
      "Description": "SUSE Security Ratings"
    },
    {
      "URL": "https://www.suse.com/security/cve/CVE-2023-50711/",
      "Description": "SUSE CVE CVE-2023-50711 page"
    }
  ],
  "Vulnerabilities": [
    {
      "CVE": "CVE-2023-50711",
      "Description": "vmm-sys-util is a collection of modules that provides helpers and utilities used by multiple rust-vmm components. Starting in version 0.5.0 and prior to version 0.12.0, an issue in the `FamStructWrapper::deserialize` implementation provided by the crate for `vmm_sys_util::fam::FamStructWrapper` can lead to out of bounds memory accesses. The deserialization does not check that the length stored in the header matches the flexible array length. Mismatch in the lengths might allow out of bounds memory access through Rust-safe methods. The issue was corrected in version 0.12.0 by inserting a check that verifies the lengths of compared flexible arrays are equal for any deserialized header and aborting deserialization otherwise. Moreover, the API was changed so that header length can only be modified through Rust-unsafe code. This ensures that users cannot trigger out-of-bounds memory access from Rust-safe code.",
      "Threats": [
        {
          "Type": "Impact",
          "Severity": "moderate"
        }
      ],
      "References": [
        {
          "URL": "https://www.suse.com/security/cve/CVE-2023-50711.html",
          "Description": "CVE-2023-50711"
        },
        {
          "URL": "https://bugzilla.suse.com/1218499",
          "Description": "SUSE Bug 1218499"
        }
      ],
      "ProductStatuses": [
        {
          "Type": "Fixed",
          "ProductID": [
            "openSUSE Tumbleweed:sevctl-0.4.3-2.1"
          ]
        }
      ],
      "CVSSScoreSets": {}
    }
  ]
}