{
  "Title": "mailx-12.5-24.4 on GA media",
  "Tracking": {
    "ID": "openSUSE-SU-2024:10561-1",
    "Status": "Final",
    "Version": "1",
    "InitialReleaseDate": "2024-06-22T21:44:56Z",
    "CurrentReleaseDate": "2024-06-22T21:44:56Z",
    "RevisionHistory": [
      {
        "Number": "1",
        "Date": "2024-06-22T21:44:56Z",
        "Description": "current"
      }
    ]
  },
  "Notes": [
    {
      "Text": "mailx-12.5-24.4 on GA media",
      "Title": "Topic",
      "Type": "Summary"
    },
    {
      "Text": "These are all security issues fixed in the mailx-12.5-24.4 package on the GA media of openSUSE Tumbleweed.",
      "Title": "Details",
      "Type": "General"
    },
    {
      "Text": "The CVRF data is provided by SUSE under the Creative Commons License 4.0 with Attribution (CC-BY-4.0).",
      "Title": "Terms of Use",
      "Type": "Legal Disclaimer"
    },
    {
      "Text": "openSUSE-Tumbleweed-2024-10561",
      "Title": "Patchnames",
      "Type": "Details"
    }
  ],
  "ProductTree": {
    "Relationships": [
      {
        "ProductReference": "mailx-12.5-24.4",
        "RelatesToProductReference": "openSUSE Tumbleweed",
        "RelationType": "Default Component Of"
      }
    ]
  },
  "References": [
    {
      "URL": "https://www.suse.com/support/security/rating/",
      "Description": "SUSE Security Ratings"
    },
    {
      "URL": "https://www.suse.com/security/cve/CVE-2004-2771/",
      "Description": "SUSE CVE CVE-2004-2771 page"
    },
    {
      "URL": "https://www.suse.com/security/cve/CVE-2014-7844/",
      "Description": "SUSE CVE CVE-2014-7844 page"
    }
  ],
  "Vulnerabilities": [
    {
      "CVE": "CVE-2004-2771",
      "Description": "The expand function in fio.c in Heirloom mailx 12.5 and earlier and BSD mailx 8.1.2 and earlier allows remote attackers to execute arbitrary commands via shell metacharacters in an email address.",
      "Threats": [
        {
          "Type": "Impact",
          "Severity": "important"
        }
      ],
      "References": [
        {
          "URL": "https://www.suse.com/security/cve/CVE-2004-2771.html",
          "Description": "CVE-2004-2771"
        },
        {
          "URL": "https://bugzilla.suse.com/909208",
          "Description": "SUSE Bug 909208"
        }
      ],
      "ProductStatuses": [
        {
          "Type": "Fixed",
          "ProductID": [
            "openSUSE Tumbleweed:mailx-12.5-24.4"
          ]
        }
      ],
      "CVSSScoreSets": {}
    },
    {
      "CVE": "CVE-2014-7844",
      "Description": "BSD mailx 8.1.2 and earlier allows remote attackers to execute arbitrary commands via a crafted email address.",
      "Threats": [
        {
          "Type": "Impact",
          "Severity": "important"
        }
      ],
      "References": [
        {
          "URL": "https://www.suse.com/security/cve/CVE-2014-7844.html",
          "Description": "CVE-2014-7844"
        },
        {
          "URL": "https://bugzilla.suse.com/909208",
          "Description": "SUSE Bug 909208"
        }
      ],
      "ProductStatuses": [
        {
          "Type": "Fixed",
          "ProductID": [
            "openSUSE Tumbleweed:mailx-12.5-24.4"
          ]
        }
      ],
      "CVSSScoreSets": {}
    }
  ]
}