{
  "Title": "keylime-agent-6.4.1-2.1 on GA media",
  "Tracking": {
    "ID": "openSUSE-SU-2024:12153-1",
    "Status": "Final",
    "Version": "1",
    "InitialReleaseDate": "2024-06-20T21:44:22Z",
    "CurrentReleaseDate": "2024-06-20T21:44:22Z",
    "RevisionHistory": [
      {
        "Number": "1",
        "Date": "2024-06-20T21:44:22Z",
        "Description": "current"
      }
    ]
  },
  "Notes": [
    {
      "Text": "keylime-agent-6.4.1-2.1 on GA media",
      "Title": "Topic",
      "Type": "Summary"
    },
    {
      "Text": "These are all security issues fixed in the keylime-agent-6.4.1-2.1 package on the GA media of openSUSE Tumbleweed.",
      "Title": "Details",
      "Type": "General"
    },
    {
      "Text": "The CVRF data is provided by SUSE under the Creative Commons License 4.0 with Attribution (CC-BY-4.0).",
      "Title": "Terms of Use",
      "Type": "Legal Disclaimer"
    },
    {
      "Text": "openSUSE-Tumbleweed-2024-12153",
      "Title": "Patchnames",
      "Type": "Details"
    }
  ],
  "ProductTree": {
    "Relationships": [
      {
        "ProductReference": "keylime-agent-6.4.1-2.1",
        "RelatesToProductReference": "openSUSE Tumbleweed",
        "RelationType": "Default Component Of"
      },
      {
        "ProductReference": "keylime-config-6.4.1-2.1",
        "RelatesToProductReference": "openSUSE Tumbleweed",
        "RelationType": "Default Component Of"
      },
      {
        "ProductReference": "keylime-firewalld-6.4.1-2.1",
        "RelatesToProductReference": "openSUSE Tumbleweed",
        "RelationType": "Default Component Of"
      },
      {
        "ProductReference": "keylime-logrotate-6.4.1-2.1",
        "RelatesToProductReference": "openSUSE Tumbleweed",
        "RelationType": "Default Component Of"
      },
      {
        "ProductReference": "keylime-registrar-6.4.1-2.1",
        "RelatesToProductReference": "openSUSE Tumbleweed",
        "RelationType": "Default Component Of"
      },
      {
        "ProductReference": "keylime-tpm_cert_store-6.4.1-2.1",
        "RelatesToProductReference": "openSUSE Tumbleweed",
        "RelationType": "Default Component Of"
      },
      {
        "ProductReference": "keylime-verifier-6.4.1-2.1",
        "RelatesToProductReference": "openSUSE Tumbleweed",
        "RelationType": "Default Component Of"
      },
      {
        "ProductReference": "python310-keylime-6.4.1-2.1",
        "RelatesToProductReference": "openSUSE Tumbleweed",
        "RelationType": "Default Component Of"
      },
      {
        "ProductReference": "python38-keylime-6.4.1-2.1",
        "RelatesToProductReference": "openSUSE Tumbleweed",
        "RelationType": "Default Component Of"
      },
      {
        "ProductReference": "python39-keylime-6.4.1-2.1",
        "RelatesToProductReference": "openSUSE Tumbleweed",
        "RelationType": "Default Component Of"
      }
    ]
  },
  "References": [
    {
      "URL": "https://www.suse.com/support/security/rating/",
      "Description": "SUSE Security Ratings"
    },
    {
      "URL": "https://www.suse.com/security/cve/CVE-2022-31250/",
      "Description": "SUSE CVE CVE-2022-31250 page"
    }
  ],
  "Vulnerabilities": [
    {
      "CVE": "CVE-2022-31250",
      "Description": "A UNIX Symbolic Link (Symlink) Following vulnerability in keylime of openSUSE Tumbleweed allows local attackers to escalate from the keylime user to root. This issue affects: openSUSE Tumbleweed keylime versions prior to 6.4.2-1.1.",
      "Threats": [
        {
          "Type": "Impact",
          "Severity": "moderate"
        }
      ],
      "References": [
        {
          "URL": "https://www.suse.com/security/cve/CVE-2022-31250.html",
          "Description": "CVE-2022-31250"
        },
        {
          "URL": "https://bugzilla.suse.com/1200885",
          "Description": "SUSE Bug 1200885"
        }
      ],
      "ProductStatuses": [
        {
          "Type": "Fixed",
          "ProductID": [
            "openSUSE Tumbleweed:keylime-agent-6.4.1-2.1",
            "openSUSE Tumbleweed:keylime-config-6.4.1-2.1",
            "openSUSE Tumbleweed:keylime-firewalld-6.4.1-2.1",
            "openSUSE Tumbleweed:keylime-logrotate-6.4.1-2.1",
            "openSUSE Tumbleweed:keylime-registrar-6.4.1-2.1",
            "openSUSE Tumbleweed:keylime-tpm_cert_store-6.4.1-2.1",
            "openSUSE Tumbleweed:keylime-verifier-6.4.1-2.1",
            "openSUSE Tumbleweed:python310-keylime-6.4.1-2.1",
            "openSUSE Tumbleweed:python38-keylime-6.4.1-2.1",
            "openSUSE Tumbleweed:python39-keylime-6.4.1-2.1"
          ]
        }
      ],
      "CVSSScoreSets": {}
    }
  ]
}