{
  "Title": "deluge-2.0.3-4.7 on GA media",
  "Tracking": {
    "ID": "openSUSE-SU-2024:10713-1",
    "Status": "Final",
    "Version": "1",
    "InitialReleaseDate": "2024-06-22T21:44:56Z",
    "CurrentReleaseDate": "2024-06-22T21:44:56Z",
    "RevisionHistory": [
      {
        "Number": "1",
        "Date": "2024-06-22T21:44:56Z",
        "Description": "current"
      }
    ]
  },
  "Notes": [
    {
      "Text": "deluge-2.0.3-4.7 on GA media",
      "Title": "Topic",
      "Type": "Summary"
    },
    {
      "Text": "These are all security issues fixed in the deluge-2.0.3-4.7 package on the GA media of openSUSE Tumbleweed.",
      "Title": "Details",
      "Type": "General"
    },
    {
      "Text": "The CVRF data is provided by SUSE under the Creative Commons License 4.0 with Attribution (CC-BY-4.0).",
      "Title": "Terms of Use",
      "Type": "Legal Disclaimer"
    },
    {
      "Text": "openSUSE-Tumbleweed-2024-10713",
      "Title": "Patchnames",
      "Type": "Details"
    }
  ],
  "ProductTree": {
    "Relationships": [
      {
        "ProductReference": "deluge-2.0.3-4.7",
        "RelatesToProductReference": "openSUSE Tumbleweed",
        "RelationType": "Default Component Of"
      },
      {
        "ProductReference": "deluge-lang-2.0.3-4.7",
        "RelatesToProductReference": "openSUSE Tumbleweed",
        "RelationType": "Default Component Of"
      }
    ]
  },
  "References": [
    {
      "URL": "https://www.suse.com/support/security/rating/",
      "Description": "SUSE Security Ratings"
    },
    {
      "URL": "https://www.suse.com/security/cve/CVE-2017-9031/",
      "Description": "SUSE CVE CVE-2017-9031 page"
    }
  ],
  "Vulnerabilities": [
    {
      "CVE": "CVE-2017-9031",
      "Description": "The WebUI component in Deluge before 1.3.15 contains a directory traversal vulnerability involving a request in which the name of the render file is not associated with any template file.",
      "Threats": [
        {
          "Type": "Impact",
          "Severity": "moderate"
        }
      ],
      "References": [
        {
          "URL": "https://www.suse.com/security/cve/CVE-2017-9031.html",
          "Description": "CVE-2017-9031"
        },
        {
          "URL": "https://bugzilla.suse.com/1039815",
          "Description": "SUSE Bug 1039815"
        },
        {
          "URL": "https://bugzilla.suse.com/1039958",
          "Description": "SUSE Bug 1039958"
        }
      ],
      "ProductStatuses": [
        {
          "Type": "Fixed",
          "ProductID": [
            "openSUSE Tumbleweed:deluge-2.0.3-4.7",
            "openSUSE Tumbleweed:deluge-lang-2.0.3-4.7"
          ]
        }
      ],
      "CVSSScoreSets": {}
    }
  ]
}