{
  "Title": "libpoppler-cpp0-21.08.0-1.3 on GA media",
  "Tracking": {
    "ID": "openSUSE-SU-2024:11181-1",
    "Status": "Final",
    "Version": "1",
    "InitialReleaseDate": "2024-06-22T21:44:56Z",
    "CurrentReleaseDate": "2024-06-22T21:44:56Z",
    "RevisionHistory": [
      {
        "Number": "1",
        "Date": "2024-06-22T21:44:56Z",
        "Description": "current"
      }
    ]
  },
  "Notes": [
    {
      "Text": "libpoppler-cpp0-21.08.0-1.3 on GA media",
      "Title": "Topic",
      "Type": "Summary"
    },
    {
      "Text": "These are all security issues fixed in the libpoppler-cpp0-21.08.0-1.3 package on the GA media of openSUSE Tumbleweed.",
      "Title": "Details",
      "Type": "General"
    },
    {
      "Text": "The CVRF data is provided by SUSE under the Creative Commons License 4.0 with Attribution (CC-BY-4.0).",
      "Title": "Terms of Use",
      "Type": "Legal Disclaimer"
    },
    {
      "Text": "openSUSE-Tumbleweed-2024-11181",
      "Title": "Patchnames",
      "Type": "Details"
    }
  ],
  "ProductTree": {
    "Relationships": [
      {
        "ProductReference": "libpoppler-cpp0-21.08.0-1.3",
        "RelatesToProductReference": "openSUSE Tumbleweed",
        "RelationType": "Default Component Of"
      },
      {
        "ProductReference": "libpoppler-cpp0-32bit-21.08.0-1.3",
        "RelatesToProductReference": "openSUSE Tumbleweed",
        "RelationType": "Default Component Of"
      },
      {
        "ProductReference": "libpoppler-devel-21.08.0-1.3",
        "RelatesToProductReference": "openSUSE Tumbleweed",
        "RelationType": "Default Component Of"
      },
      {
        "ProductReference": "libpoppler-glib-devel-21.08.0-1.3",
        "RelatesToProductReference": "openSUSE Tumbleweed",
        "RelationType": "Default Component Of"
      },
      {
        "ProductReference": "libpoppler-glib8-21.08.0-1.3",
        "RelatesToProductReference": "openSUSE Tumbleweed",
        "RelationType": "Default Component Of"
      },
      {
        "ProductReference": "libpoppler-glib8-32bit-21.08.0-1.3",
        "RelatesToProductReference": "openSUSE Tumbleweed",
        "RelationType": "Default Component Of"
      },
      {
        "ProductReference": "libpoppler112-21.08.0-1.3",
        "RelatesToProductReference": "openSUSE Tumbleweed",
        "RelationType": "Default Component Of"
      },
      {
        "ProductReference": "libpoppler112-32bit-21.08.0-1.3",
        "RelatesToProductReference": "openSUSE Tumbleweed",
        "RelationType": "Default Component Of"
      },
      {
        "ProductReference": "poppler-tools-21.08.0-1.3",
        "RelatesToProductReference": "openSUSE Tumbleweed",
        "RelationType": "Default Component Of"
      },
      {
        "ProductReference": "typelib-1_0-Poppler-0_18-21.08.0-1.3",
        "RelatesToProductReference": "openSUSE Tumbleweed",
        "RelationType": "Default Component Of"
      }
    ]
  },
  "References": [
    {
      "URL": "https://www.suse.com/support/security/rating/",
      "Description": "SUSE Security Ratings"
    },
    {
      "URL": "https://www.suse.com/security/cve/CVE-2006-0301/",
      "Description": "SUSE CVE CVE-2006-0301 page"
    },
    {
      "URL": "https://www.suse.com/security/cve/CVE-2007-0104/",
      "Description": "SUSE CVE CVE-2007-0104 page"
    },
    {
      "URL": "https://www.suse.com/security/cve/CVE-2007-4352/",
      "Description": "SUSE CVE CVE-2007-4352 page"
    },
    {
      "URL": "https://www.suse.com/security/cve/CVE-2007-5392/",
      "Description": "SUSE CVE CVE-2007-5392 page"
    },
    {
      "URL": "https://www.suse.com/security/cve/CVE-2007-5393/",
      "Description": "SUSE CVE CVE-2007-5393 page"
    },
    {
      "URL": "https://www.suse.com/security/cve/CVE-2008-2950/",
      "Description": "SUSE CVE CVE-2008-2950 page"
    },
    {
      "URL": "https://www.suse.com/security/cve/CVE-2017-14517/",
      "Description": "SUSE CVE CVE-2017-14517 page"
    },
    {
      "URL": "https://www.suse.com/security/cve/CVE-2017-14518/",
      "Description": "SUSE CVE CVE-2017-14518 page"
    },
    {
      "URL": "https://www.suse.com/security/cve/CVE-2017-7515/",
      "Description": "SUSE CVE CVE-2017-7515 page"
    }
  ],
  "Vulnerabilities": [
    {
      "CVE": "CVE-2006-0301",
      "Description": "Heap-based buffer overflow in Splash.cc in xpdf, as used in other products such as (1) poppler, (2) kdegraphics, (3) gpdf, (4) pdfkit.framework, and others, allows attackers to cause a denial of service and possibly execute arbitrary code via crafted splash images that produce certain values that exceed the width or height of the associated bitmap.",
      "Threats": [
        {
          "Type": "Impact",
          "Severity": "moderate"
        }
      ],
      "References": [
        {
          "URL": "https://www.suse.com/security/cve/CVE-2006-0301.html",
          "Description": "CVE-2006-0301"
        },
        {
          "URL": "https://bugzilla.suse.com/141242",
          "Description": "SUSE Bug 141242"
        },
        {
          "URL": "https://bugzilla.suse.com/233113",
          "Description": "SUSE Bug 233113"
        },
        {
          "URL": "https://bugzilla.suse.com/243010",
          "Description": "SUSE Bug 243010"
        }
      ],
      "ProductStatuses": [
        {
          "Type": "Fixed",
          "ProductID": [
            "openSUSE Tumbleweed:libpoppler-cpp0-21.08.0-1.3",
            "openSUSE Tumbleweed:libpoppler-cpp0-32bit-21.08.0-1.3",
            "openSUSE Tumbleweed:libpoppler-devel-21.08.0-1.3",
            "openSUSE Tumbleweed:libpoppler-glib-devel-21.08.0-1.3",
            "openSUSE Tumbleweed:libpoppler-glib8-21.08.0-1.3",
            "openSUSE Tumbleweed:libpoppler-glib8-32bit-21.08.0-1.3",
            "openSUSE Tumbleweed:libpoppler112-21.08.0-1.3",
            "openSUSE Tumbleweed:libpoppler112-32bit-21.08.0-1.3",
            "openSUSE Tumbleweed:poppler-tools-21.08.0-1.3",
            "openSUSE Tumbleweed:typelib-1_0-Poppler-0_18-21.08.0-1.3"
          ]
        }
      ],
      "CVSSScoreSets": {}
    },
    {
      "CVE": "CVE-2007-0104",
      "Description": "The Adobe PDF specification 1.3, as implemented by (a) xpdf 3.0.1 patch 2, (b) kpdf in KDE before 3.5.5, (c) poppler before 0.5.4, and other products, allows remote attackers to have an unknown impact, possibly including denial of service (infinite loop), arbitrary code execution, or memory corruption, via a PDF file with a (1) crafted catalog dictionary or (2) a crafted Pages attribute that references an invalid page tree node.",
      "Threats": [
        {
          "Type": "Impact",
          "Severity": "moderate"
        }
      ],
      "References": [
        {
          "URL": "https://www.suse.com/security/cve/CVE-2007-0104.html",
          "Description": "CVE-2007-0104"
        },
        {
          "URL": "https://bugzilla.suse.com/233113",
          "Description": "SUSE Bug 233113"
        },
        {
          "URL": "https://bugzilla.suse.com/234492",
          "Description": "SUSE Bug 234492"
        }
      ],
      "ProductStatuses": [
        {
          "Type": "Fixed",
          "ProductID": [
            "openSUSE Tumbleweed:libpoppler-cpp0-21.08.0-1.3",
            "openSUSE Tumbleweed:libpoppler-cpp0-32bit-21.08.0-1.3",
            "openSUSE Tumbleweed:libpoppler-devel-21.08.0-1.3",
            "openSUSE Tumbleweed:libpoppler-glib-devel-21.08.0-1.3",
            "openSUSE Tumbleweed:libpoppler-glib8-21.08.0-1.3",
            "openSUSE Tumbleweed:libpoppler-glib8-32bit-21.08.0-1.3",
            "openSUSE Tumbleweed:libpoppler112-21.08.0-1.3",
            "openSUSE Tumbleweed:libpoppler112-32bit-21.08.0-1.3",
            "openSUSE Tumbleweed:poppler-tools-21.08.0-1.3",
            "openSUSE Tumbleweed:typelib-1_0-Poppler-0_18-21.08.0-1.3"
          ]
        }
      ],
      "CVSSScoreSets": {}
    },
    {
      "CVE": "CVE-2007-4352",
      "Description": "Array index error in the DCTStream::readProgressiveDataUnit method in xpdf/Stream.cc in Xpdf 3.02pl1, as used in poppler, teTeX, KDE, KOffice, CUPS, and other products, allows remote attackers to trigger memory corruption and execute arbitrary code via a crafted PDF file.",
      "Threats": [
        {
          "Type": "Impact",
          "Severity": "important"
        }
      ],
      "References": [
        {
          "URL": "https://www.suse.com/security/cve/CVE-2007-4352.html",
          "Description": "CVE-2007-4352"
        },
        {
          "URL": "https://bugzilla.suse.com/335637",
          "Description": "SUSE Bug 335637"
        }
      ],
      "ProductStatuses": [
        {
          "Type": "Fixed",
          "ProductID": [
            "openSUSE Tumbleweed:libpoppler-cpp0-21.08.0-1.3",
            "openSUSE Tumbleweed:libpoppler-cpp0-32bit-21.08.0-1.3",
            "openSUSE Tumbleweed:libpoppler-devel-21.08.0-1.3",
            "openSUSE Tumbleweed:libpoppler-glib-devel-21.08.0-1.3",
            "openSUSE Tumbleweed:libpoppler-glib8-21.08.0-1.3",
            "openSUSE Tumbleweed:libpoppler-glib8-32bit-21.08.0-1.3",
            "openSUSE Tumbleweed:libpoppler112-21.08.0-1.3",
            "openSUSE Tumbleweed:libpoppler112-32bit-21.08.0-1.3",
            "openSUSE Tumbleweed:poppler-tools-21.08.0-1.3",
            "openSUSE Tumbleweed:typelib-1_0-Poppler-0_18-21.08.0-1.3"
          ]
        }
      ],
      "CVSSScoreSets": {}
    },
    {
      "CVE": "CVE-2007-5392",
      "Description": "Integer overflow in the DCTStream::reset method in xpdf/Stream.cc in Xpdf 3.02p11 allows remote attackers to execute arbitrary code via a crafted PDF file, resulting in a heap-based buffer overflow.",
      "Threats": [
        {
          "Type": "Impact",
          "Severity": "moderate"
        }
      ],
      "References": [
        {
          "URL": "https://www.suse.com/security/cve/CVE-2007-5392.html",
          "Description": "CVE-2007-5392"
        },
        {
          "URL": "https://bugzilla.suse.com/335637",
          "Description": "SUSE Bug 335637"
        }
      ],
      "ProductStatuses": [
        {
          "Type": "Fixed",
          "ProductID": [
            "openSUSE Tumbleweed:libpoppler-cpp0-21.08.0-1.3",
            "openSUSE Tumbleweed:libpoppler-cpp0-32bit-21.08.0-1.3",
            "openSUSE Tumbleweed:libpoppler-devel-21.08.0-1.3",
            "openSUSE Tumbleweed:libpoppler-glib-devel-21.08.0-1.3",
            "openSUSE Tumbleweed:libpoppler-glib8-21.08.0-1.3",
            "openSUSE Tumbleweed:libpoppler-glib8-32bit-21.08.0-1.3",
            "openSUSE Tumbleweed:libpoppler112-21.08.0-1.3",
            "openSUSE Tumbleweed:libpoppler112-32bit-21.08.0-1.3",
            "openSUSE Tumbleweed:poppler-tools-21.08.0-1.3",
            "openSUSE Tumbleweed:typelib-1_0-Poppler-0_18-21.08.0-1.3"
          ]
        }
      ],
      "CVSSScoreSets": {}
    },
    {
      "CVE": "CVE-2007-5393",
      "Description": "Heap-based buffer overflow in the CCITTFaxStream::lookChar method in xpdf/Stream.cc in Xpdf 3.02p11 allows remote attackers to execute arbitrary code via a PDF file that contains a crafted CCITTFaxDecode filter.",
      "Threats": [
        {
          "Type": "Impact",
          "Severity": "critical"
        }
      ],
      "References": [
        {
          "URL": "https://www.suse.com/security/cve/CVE-2007-5393.html",
          "Description": "CVE-2007-5393"
        },
        {
          "URL": "https://bugzilla.suse.com/335637",
          "Description": "SUSE Bug 335637"
        }
      ],
      "ProductStatuses": [
        {
          "Type": "Fixed",
          "ProductID": [
            "openSUSE Tumbleweed:libpoppler-cpp0-21.08.0-1.3",
            "openSUSE Tumbleweed:libpoppler-cpp0-32bit-21.08.0-1.3",
            "openSUSE Tumbleweed:libpoppler-devel-21.08.0-1.3",
            "openSUSE Tumbleweed:libpoppler-glib-devel-21.08.0-1.3",
            "openSUSE Tumbleweed:libpoppler-glib8-21.08.0-1.3",
            "openSUSE Tumbleweed:libpoppler-glib8-32bit-21.08.0-1.3",
            "openSUSE Tumbleweed:libpoppler112-21.08.0-1.3",
            "openSUSE Tumbleweed:libpoppler112-32bit-21.08.0-1.3",
            "openSUSE Tumbleweed:poppler-tools-21.08.0-1.3",
            "openSUSE Tumbleweed:typelib-1_0-Poppler-0_18-21.08.0-1.3"
          ]
        }
      ],
      "CVSSScoreSets": {}
    },
    {
      "CVE": "CVE-2008-2950",
      "Description": "The Page destructor in Page.cc in libpoppler in Poppler 0.8.4 and earlier deletes a pageWidgets object even if it is not initialized by a Page constructor, which allows remote attackers to execute arbitrary code via a crafted PDF document.",
      "Threats": [
        {
          "Type": "Impact",
          "Severity": "moderate"
        }
      ],
      "References": [
        {
          "URL": "https://www.suse.com/security/cve/CVE-2008-2950.html",
          "Description": "CVE-2008-2950"
        },
        {
          "URL": "https://bugzilla.suse.com/404955",
          "Description": "SUSE Bug 404955"
        }
      ],
      "ProductStatuses": [
        {
          "Type": "Fixed",
          "ProductID": [
            "openSUSE Tumbleweed:libpoppler-cpp0-21.08.0-1.3",
            "openSUSE Tumbleweed:libpoppler-cpp0-32bit-21.08.0-1.3",
            "openSUSE Tumbleweed:libpoppler-devel-21.08.0-1.3",
            "openSUSE Tumbleweed:libpoppler-glib-devel-21.08.0-1.3",
            "openSUSE Tumbleweed:libpoppler-glib8-21.08.0-1.3",
            "openSUSE Tumbleweed:libpoppler-glib8-32bit-21.08.0-1.3",
            "openSUSE Tumbleweed:libpoppler112-21.08.0-1.3",
            "openSUSE Tumbleweed:libpoppler112-32bit-21.08.0-1.3",
            "openSUSE Tumbleweed:poppler-tools-21.08.0-1.3",
            "openSUSE Tumbleweed:typelib-1_0-Poppler-0_18-21.08.0-1.3"
          ]
        }
      ],
      "CVSSScoreSets": {}
    },
    {
      "CVE": "CVE-2017-14517",
      "Description": "In Poppler 0.59.0, a NULL Pointer Dereference exists in the XRef::parseEntry() function in XRef.cc via a crafted PDF document.",
      "Threats": [
        {
          "Type": "Impact",
          "Severity": "moderate"
        }
      ],
      "References": [
        {
          "URL": "https://www.suse.com/security/cve/CVE-2017-14517.html",
          "Description": "CVE-2017-14517"
        },
        {
          "URL": "https://bugzilla.suse.com/1059066",
          "Description": "SUSE Bug 1059066"
        }
      ],
      "ProductStatuses": [
        {
          "Type": "Fixed",
          "ProductID": [
            "openSUSE Tumbleweed:libpoppler-cpp0-21.08.0-1.3",
            "openSUSE Tumbleweed:libpoppler-cpp0-32bit-21.08.0-1.3",
            "openSUSE Tumbleweed:libpoppler-devel-21.08.0-1.3",
            "openSUSE Tumbleweed:libpoppler-glib-devel-21.08.0-1.3",
            "openSUSE Tumbleweed:libpoppler-glib8-21.08.0-1.3",
            "openSUSE Tumbleweed:libpoppler-glib8-32bit-21.08.0-1.3",
            "openSUSE Tumbleweed:libpoppler112-21.08.0-1.3",
            "openSUSE Tumbleweed:libpoppler112-32bit-21.08.0-1.3",
            "openSUSE Tumbleweed:poppler-tools-21.08.0-1.3",
            "openSUSE Tumbleweed:typelib-1_0-Poppler-0_18-21.08.0-1.3"
          ]
        }
      ],
      "CVSSScoreSets": {
        "BaseScore": "5",
        "Vector": "AV:N/AC:L/Au:N/C:N/I:N/A:P"
      }
    },
    {
      "CVE": "CVE-2017-14518",
      "Description": "In Poppler 0.59.0, a floating point exception exists in the isImageInterpolationRequired() function in Splash.cc via a crafted PDF document.",
      "Threats": [
        {
          "Type": "Impact",
          "Severity": "moderate"
        }
      ],
      "References": [
        {
          "URL": "https://www.suse.com/security/cve/CVE-2017-14518.html",
          "Description": "CVE-2017-14518"
        },
        {
          "URL": "https://bugzilla.suse.com/1059101",
          "Description": "SUSE Bug 1059101"
        }
      ],
      "ProductStatuses": [
        {
          "Type": "Fixed",
          "ProductID": [
            "openSUSE Tumbleweed:libpoppler-cpp0-21.08.0-1.3",
            "openSUSE Tumbleweed:libpoppler-cpp0-32bit-21.08.0-1.3",
            "openSUSE Tumbleweed:libpoppler-devel-21.08.0-1.3",
            "openSUSE Tumbleweed:libpoppler-glib-devel-21.08.0-1.3",
            "openSUSE Tumbleweed:libpoppler-glib8-21.08.0-1.3",
            "openSUSE Tumbleweed:libpoppler-glib8-32bit-21.08.0-1.3",
            "openSUSE Tumbleweed:libpoppler112-21.08.0-1.3",
            "openSUSE Tumbleweed:libpoppler112-32bit-21.08.0-1.3",
            "openSUSE Tumbleweed:poppler-tools-21.08.0-1.3",
            "openSUSE Tumbleweed:typelib-1_0-Poppler-0_18-21.08.0-1.3"
          ]
        }
      ],
      "CVSSScoreSets": {
        "BaseScore": "5",
        "Vector": "AV:N/AC:L/Au:N/C:N/I:N/A:P"
      }
    },
    {
      "CVE": "CVE-2017-7515",
      "Description": "poppler through version 0.55.0 is vulnerable to an uncontrolled recursion in pdfunite resulting into potential denial-of-service.",
      "Threats": [
        {
          "Type": "Impact",
          "Severity": "low"
        }
      ],
      "References": [
        {
          "URL": "https://www.suse.com/security/cve/CVE-2017-7515.html",
          "Description": "CVE-2017-7515"
        },
        {
          "URL": "https://bugzilla.suse.com/1043088",
          "Description": "SUSE Bug 1043088"
        }
      ],
      "ProductStatuses": [
        {
          "Type": "Fixed",
          "ProductID": [
            "openSUSE Tumbleweed:libpoppler-cpp0-21.08.0-1.3",
            "openSUSE Tumbleweed:libpoppler-cpp0-32bit-21.08.0-1.3",
            "openSUSE Tumbleweed:libpoppler-devel-21.08.0-1.3",
            "openSUSE Tumbleweed:libpoppler-glib-devel-21.08.0-1.3",
            "openSUSE Tumbleweed:libpoppler-glib8-21.08.0-1.3",
            "openSUSE Tumbleweed:libpoppler-glib8-32bit-21.08.0-1.3",
            "openSUSE Tumbleweed:libpoppler112-21.08.0-1.3",
            "openSUSE Tumbleweed:libpoppler112-32bit-21.08.0-1.3",
            "openSUSE Tumbleweed:poppler-tools-21.08.0-1.3",
            "openSUSE Tumbleweed:typelib-1_0-Poppler-0_18-21.08.0-1.3"
          ]
        }
      ],
      "CVSSScoreSets": {
        "BaseScore": "1.7",
        "Vector": "AV:L/AC:L/Au:S/C:N/I:N/A:P"
      }
    }
  ]
}