{
  "Title": "grafana-9.5.1-1.1 on GA media",
  "Tracking": {
    "ID": "openSUSE-SU-2024:12890-1",
    "Status": "Final",
    "Version": "1",
    "InitialReleaseDate": "2024-06-20T21:44:22Z",
    "CurrentReleaseDate": "2024-06-20T21:44:22Z",
    "RevisionHistory": [
      {
        "Number": "1",
        "Date": "2024-06-20T21:44:22Z",
        "Description": "current"
      }
    ]
  },
  "Notes": [
    {
      "Text": "grafana-9.5.1-1.1 on GA media",
      "Title": "Topic",
      "Type": "Summary"
    },
    {
      "Text": "These are all security issues fixed in the grafana-9.5.1-1.1 package on the GA media of openSUSE Tumbleweed.",
      "Title": "Details",
      "Type": "General"
    },
    {
      "Text": "The CVRF data is provided by SUSE under the Creative Commons License 4.0 with Attribution (CC-BY-4.0).",
      "Title": "Terms of Use",
      "Type": "Legal Disclaimer"
    },
    {
      "Text": "openSUSE-Tumbleweed-2024-12890",
      "Title": "Patchnames",
      "Type": "Details"
    }
  ],
  "ProductTree": {
    "Relationships": [
      {
        "ProductReference": "grafana-9.5.1-1.1",
        "RelatesToProductReference": "openSUSE Tumbleweed",
        "RelationType": "Default Component Of"
      }
    ]
  },
  "References": [
    {
      "URL": "https://www.suse.com/support/security/rating/",
      "Description": "SUSE Security Ratings"
    },
    {
      "URL": "https://www.suse.com/security/cve/CVE-2023-1387/",
      "Description": "SUSE CVE CVE-2023-1387 page"
    }
  ],
  "Vulnerabilities": [
    {
      "CVE": "CVE-2023-1387",
      "Description": "Grafana is an open-source platform for monitoring and observability. \n\nStarting with the 9.1 branch, Grafana introduced the ability to search for a JWT in the URL query parameter auth_token and use it as the authentication token. \n\nBy enabling the \"url_login\" configuration option (disabled by default), a JWT might be sent to data sources. If an attacker has access to the data source, the leaked token could be used to authenticate to Grafana.\n\n",
      "Threats": [
        {
          "Type": "Impact",
          "Severity": "moderate"
        }
      ],
      "References": [
        {
          "URL": "https://www.suse.com/security/cve/CVE-2023-1387.html",
          "Description": "CVE-2023-1387"
        },
        {
          "URL": "https://bugzilla.suse.com/1210907",
          "Description": "SUSE Bug 1210907"
        }
      ],
      "ProductStatuses": [
        {
          "Type": "Fixed",
          "ProductID": [
            "openSUSE Tumbleweed:grafana-9.5.1-1.1"
          ]
        }
      ],
      "CVSSScoreSets": {}
    }
  ]
}