{
  "Title": "mumble-1.3.4-2.7 on GA media",
  "Tracking": {
    "ID": "openSUSE-SU-2024:11065-1",
    "Status": "Final",
    "Version": "1",
    "InitialReleaseDate": "2024-06-22T21:44:56Z",
    "CurrentReleaseDate": "2024-06-22T21:44:56Z",
    "RevisionHistory": [
      {
        "Number": "1",
        "Date": "2024-06-22T21:44:56Z",
        "Description": "current"
      }
    ]
  },
  "Notes": [
    {
      "Text": "mumble-1.3.4-2.7 on GA media",
      "Title": "Topic",
      "Type": "Summary"
    },
    {
      "Text": "These are all security issues fixed in the mumble-1.3.4-2.7 package on the GA media of openSUSE Tumbleweed.",
      "Title": "Details",
      "Type": "General"
    },
    {
      "Text": "The CVRF data is provided by SUSE under the Creative Commons License 4.0 with Attribution (CC-BY-4.0).",
      "Title": "Terms of Use",
      "Type": "Legal Disclaimer"
    },
    {
      "Text": "openSUSE-Tumbleweed-2024-11065",
      "Title": "Patchnames",
      "Type": "Details"
    }
  ],
  "ProductTree": {
    "Relationships": [
      {
        "ProductReference": "mumble-1.3.4-2.7",
        "RelatesToProductReference": "openSUSE Tumbleweed",
        "RelationType": "Default Component Of"
      },
      {
        "ProductReference": "mumble-32bit-1.3.4-2.7",
        "RelatesToProductReference": "openSUSE Tumbleweed",
        "RelationType": "Default Component Of"
      },
      {
        "ProductReference": "mumble-server-1.3.4-2.7",
        "RelatesToProductReference": "openSUSE Tumbleweed",
        "RelationType": "Default Component Of"
      }
    ]
  },
  "References": [
    {
      "URL": "https://www.suse.com/support/security/rating/",
      "Description": "SUSE Security Ratings"
    },
    {
      "URL": "https://www.suse.com/security/cve/CVE-2018-20743/",
      "Description": "SUSE CVE CVE-2018-20743 page"
    },
    {
      "URL": "https://www.suse.com/security/cve/CVE-2021-27229/",
      "Description": "SUSE CVE CVE-2021-27229 page"
    }
  ],
  "Vulnerabilities": [
    {
      "CVE": "CVE-2018-20743",
      "Description": "murmur in Mumble through 1.2.19 before 2018-08-31 mishandles multiple concurrent requests that are persisted in the database, which allows remote attackers to cause a denial of service (daemon hang or crash) via a message flood.",
      "Threats": [
        {
          "Type": "Impact",
          "Severity": "important"
        }
      ],
      "References": [
        {
          "URL": "https://www.suse.com/security/cve/CVE-2018-20743.html",
          "Description": "CVE-2018-20743"
        },
        {
          "URL": "https://bugzilla.suse.com/1123334",
          "Description": "SUSE Bug 1123334"
        }
      ],
      "ProductStatuses": [
        {
          "Type": "Fixed",
          "ProductID": [
            "openSUSE Tumbleweed:mumble-1.3.4-2.7",
            "openSUSE Tumbleweed:mumble-32bit-1.3.4-2.7",
            "openSUSE Tumbleweed:mumble-server-1.3.4-2.7"
          ]
        }
      ],
      "CVSSScoreSets": {}
    },
    {
      "CVE": "CVE-2021-27229",
      "Description": "Mumble before 1.3.4 allows remote code execution if a victim navigates to a crafted URL on a server list and clicks on the Open Webpage text.",
      "Threats": [
        {
          "Type": "Impact",
          "Severity": "moderate"
        }
      ],
      "References": [
        {
          "URL": "https://www.suse.com/security/cve/CVE-2021-27229.html",
          "Description": "CVE-2021-27229"
        },
        {
          "URL": "https://bugzilla.suse.com/1182123",
          "Description": "SUSE Bug 1182123"
        }
      ],
      "ProductStatuses": [
        {
          "Type": "Fixed",
          "ProductID": [
            "openSUSE Tumbleweed:mumble-1.3.4-2.7",
            "openSUSE Tumbleweed:mumble-32bit-1.3.4-2.7",
            "openSUSE Tumbleweed:mumble-server-1.3.4-2.7"
          ]
        }
      ],
      "CVSSScoreSets": {}
    }
  ]
}