{
  "Title": "java-1_8_0-openjdk-1.8.0.322-1.1 on GA media",
  "Tracking": {
    "ID": "openSUSE-SU-2024:11895-1",
    "Status": "Final",
    "Version": "1",
    "InitialReleaseDate": "2024-06-22T21:44:56Z",
    "CurrentReleaseDate": "2024-06-22T21:44:56Z",
    "RevisionHistory": [
      {
        "Number": "1",
        "Date": "2024-06-22T21:44:56Z",
        "Description": "current"
      }
    ]
  },
  "Notes": [
    {
      "Text": "java-1_8_0-openjdk-1.8.0.322-1.1 on GA media",
      "Title": "Topic",
      "Type": "Summary"
    },
    {
      "Text": "These are all security issues fixed in the java-1_8_0-openjdk-1.8.0.322-1.1 package on the GA media of openSUSE Tumbleweed.",
      "Title": "Details",
      "Type": "General"
    },
    {
      "Text": "The CVRF data is provided by SUSE under the Creative Commons License 4.0 with Attribution (CC-BY-4.0).",
      "Title": "Terms of Use",
      "Type": "Legal Disclaimer"
    },
    {
      "Text": "openSUSE-Tumbleweed-2024-11895",
      "Title": "Patchnames",
      "Type": "Details"
    }
  ],
  "ProductTree": {
    "Relationships": [
      {
        "ProductReference": "java-1_8_0-openjdk-1.8.0.322-1.1",
        "RelatesToProductReference": "openSUSE Tumbleweed",
        "RelationType": "Default Component Of"
      },
      {
        "ProductReference": "java-1_8_0-openjdk-accessibility-1.8.0.322-1.1",
        "RelatesToProductReference": "openSUSE Tumbleweed",
        "RelationType": "Default Component Of"
      },
      {
        "ProductReference": "java-1_8_0-openjdk-demo-1.8.0.322-1.1",
        "RelatesToProductReference": "openSUSE Tumbleweed",
        "RelationType": "Default Component Of"
      },
      {
        "ProductReference": "java-1_8_0-openjdk-devel-1.8.0.322-1.1",
        "RelatesToProductReference": "openSUSE Tumbleweed",
        "RelationType": "Default Component Of"
      },
      {
        "ProductReference": "java-1_8_0-openjdk-headless-1.8.0.322-1.1",
        "RelatesToProductReference": "openSUSE Tumbleweed",
        "RelationType": "Default Component Of"
      },
      {
        "ProductReference": "java-1_8_0-openjdk-javadoc-1.8.0.322-1.1",
        "RelatesToProductReference": "openSUSE Tumbleweed",
        "RelationType": "Default Component Of"
      },
      {
        "ProductReference": "java-1_8_0-openjdk-src-1.8.0.322-1.1",
        "RelatesToProductReference": "openSUSE Tumbleweed",
        "RelationType": "Default Component Of"
      }
    ]
  },
  "References": [
    {
      "URL": "https://www.suse.com/support/security/rating/",
      "Description": "SUSE Security Ratings"
    },
    {
      "URL": "https://www.suse.com/security/cve/CVE-2022-21248/",
      "Description": "SUSE CVE CVE-2022-21248 page"
    },
    {
      "URL": "https://www.suse.com/security/cve/CVE-2022-21282/",
      "Description": "SUSE CVE CVE-2022-21282 page"
    },
    {
      "URL": "https://www.suse.com/security/cve/CVE-2022-21283/",
      "Description": "SUSE CVE CVE-2022-21283 page"
    },
    {
      "URL": "https://www.suse.com/security/cve/CVE-2022-21293/",
      "Description": "SUSE CVE CVE-2022-21293 page"
    },
    {
      "URL": "https://www.suse.com/security/cve/CVE-2022-21294/",
      "Description": "SUSE CVE CVE-2022-21294 page"
    },
    {
      "URL": "https://www.suse.com/security/cve/CVE-2022-21296/",
      "Description": "SUSE CVE CVE-2022-21296 page"
    },
    {
      "URL": "https://www.suse.com/security/cve/CVE-2022-21299/",
      "Description": "SUSE CVE CVE-2022-21299 page"
    },
    {
      "URL": "https://www.suse.com/security/cve/CVE-2022-21305/",
      "Description": "SUSE CVE CVE-2022-21305 page"
    },
    {
      "URL": "https://www.suse.com/security/cve/CVE-2022-21340/",
      "Description": "SUSE CVE CVE-2022-21340 page"
    },
    {
      "URL": "https://www.suse.com/security/cve/CVE-2022-21341/",
      "Description": "SUSE CVE CVE-2022-21341 page"
    },
    {
      "URL": "https://www.suse.com/security/cve/CVE-2022-21349/",
      "Description": "SUSE CVE CVE-2022-21349 page"
    },
    {
      "URL": "https://www.suse.com/security/cve/CVE-2022-21360/",
      "Description": "SUSE CVE CVE-2022-21360 page"
    },
    {
      "URL": "https://www.suse.com/security/cve/CVE-2022-21365/",
      "Description": "SUSE CVE CVE-2022-21365 page"
    }
  ],
  "Vulnerabilities": [
    {
      "CVE": "CVE-2022-21248",
      "Description": "Vulnerability in the Oracle Java SE, Oracle GraalVM Enterprise Edition product of Oracle Java SE (component: Serialization). Supported versions that are affected are Oracle Java SE: 7u321, 8u311, 11.0.13, 17.0.1; Oracle GraalVM Enterprise Edition: 20.3.4 and 21.3.0. Difficult to exploit vulnerability allows unauthenticated attacker with network access via multiple protocols to compromise Oracle Java SE, Oracle GraalVM Enterprise Edition. Successful attacks of this vulnerability can result in unauthorized update, insert or delete access to some of Oracle Java SE, Oracle GraalVM Enterprise Edition accessible data. Note: This vulnerability applies to Java deployments, typically in clients running sandboxed Java Web Start applications or sandboxed Java applets, that load and run untrusted code (e.g., code that comes from the internet) and rely on the Java sandbox for security. This vulnerability can also be exploited by using APIs in the specified Component, e.g., through a web service which supplies data to the APIs. CVSS 3.1 Base Score 3.7 (Integrity impacts). CVSS Vector: (CVSS:3.1/AV:N/AC:H/PR:N/UI:N/S:U/C:N/I:L/A:N).",
      "Threats": [
        {
          "Type": "Impact",
          "Severity": "low"
        }
      ],
      "References": [
        {
          "URL": "https://www.suse.com/security/cve/CVE-2022-21248.html",
          "Description": "CVE-2022-21248"
        },
        {
          "URL": "https://bugzilla.suse.com/1194926",
          "Description": "SUSE Bug 1194926"
        },
        {
          "URL": "https://bugzilla.suse.com/1197126",
          "Description": "SUSE Bug 1197126"
        }
      ],
      "ProductStatuses": [
        {
          "Type": "Fixed",
          "ProductID": [
            "openSUSE Tumbleweed:java-1_8_0-openjdk-1.8.0.322-1.1",
            "openSUSE Tumbleweed:java-1_8_0-openjdk-accessibility-1.8.0.322-1.1",
            "openSUSE Tumbleweed:java-1_8_0-openjdk-demo-1.8.0.322-1.1",
            "openSUSE Tumbleweed:java-1_8_0-openjdk-devel-1.8.0.322-1.1",
            "openSUSE Tumbleweed:java-1_8_0-openjdk-headless-1.8.0.322-1.1",
            "openSUSE Tumbleweed:java-1_8_0-openjdk-javadoc-1.8.0.322-1.1",
            "openSUSE Tumbleweed:java-1_8_0-openjdk-src-1.8.0.322-1.1"
          ]
        }
      ],
      "CVSSScoreSets": {}
    },
    {
      "CVE": "CVE-2022-21282",
      "Description": "Vulnerability in the Oracle Java SE, Oracle GraalVM Enterprise Edition product of Oracle Java SE (component: JAXP). Supported versions that are affected are Oracle Java SE: 7u321, 8u311, 11.0.13, 17.0.1; Oracle GraalVM Enterprise Edition: 20.3.4 and 21.3.0. Easily exploitable vulnerability allows unauthenticated attacker with network access via multiple protocols to compromise Oracle Java SE, Oracle GraalVM Enterprise Edition. Successful attacks of this vulnerability can result in unauthorized read access to a subset of Oracle Java SE, Oracle GraalVM Enterprise Edition accessible data. Note: This vulnerability applies to Java deployments, typically in clients running sandboxed Java Web Start applications or sandboxed Java applets, that load and run untrusted code (e.g., code that comes from the internet) and rely on the Java sandbox for security. This vulnerability can also be exploited by using APIs in the specified Component, e.g., through a web service which supplies data to the APIs. CVSS 3.1 Base Score 5.3 (Confidentiality impacts). CVSS Vector: (CVSS:3.1/AV:N/AC:L/PR:N/UI:N/S:U/C:L/I:N/A:N).",
      "Threats": [
        {
          "Type": "Impact",
          "Severity": "moderate"
        }
      ],
      "References": [
        {
          "URL": "https://www.suse.com/security/cve/CVE-2022-21282.html",
          "Description": "CVE-2022-21282"
        },
        {
          "URL": "https://bugzilla.suse.com/1194933",
          "Description": "SUSE Bug 1194933"
        },
        {
          "URL": "https://bugzilla.suse.com/1197126",
          "Description": "SUSE Bug 1197126"
        }
      ],
      "ProductStatuses": [
        {
          "Type": "Fixed",
          "ProductID": [
            "openSUSE Tumbleweed:java-1_8_0-openjdk-1.8.0.322-1.1",
            "openSUSE Tumbleweed:java-1_8_0-openjdk-accessibility-1.8.0.322-1.1",
            "openSUSE Tumbleweed:java-1_8_0-openjdk-demo-1.8.0.322-1.1",
            "openSUSE Tumbleweed:java-1_8_0-openjdk-devel-1.8.0.322-1.1",
            "openSUSE Tumbleweed:java-1_8_0-openjdk-headless-1.8.0.322-1.1",
            "openSUSE Tumbleweed:java-1_8_0-openjdk-javadoc-1.8.0.322-1.1",
            "openSUSE Tumbleweed:java-1_8_0-openjdk-src-1.8.0.322-1.1"
          ]
        }
      ],
      "CVSSScoreSets": {}
    },
    {
      "CVE": "CVE-2022-21283",
      "Description": "Vulnerability in the Oracle Java SE, Oracle GraalVM Enterprise Edition product of Oracle Java SE (component: Libraries). Supported versions that are affected are Oracle Java SE: 11.0.13, 17.0.1; Oracle GraalVM Enterprise Edition: 20.3.4 and 21.3.0. Easily exploitable vulnerability allows unauthenticated attacker with network access via multiple protocols to compromise Oracle Java SE, Oracle GraalVM Enterprise Edition. Successful attacks of this vulnerability can result in unauthorized ability to cause a partial denial of service (partial DOS) of Oracle Java SE, Oracle GraalVM Enterprise Edition. Note: This vulnerability applies to Java deployments, typically in clients running sandboxed Java Web Start applications or sandboxed Java applets, that load and run untrusted code (e.g., code that comes from the internet) and rely on the Java sandbox for security. This vulnerability can also be exploited by using APIs in the specified Component, e.g., through a web service which supplies data to the APIs. CVSS 3.1 Base Score 5.3 (Availability impacts). CVSS Vector: (CVSS:3.1/AV:N/AC:L/PR:N/UI:N/S:U/C:N/I:N/A:L).",
      "Threats": [
        {
          "Type": "Impact",
          "Severity": "moderate"
        }
      ],
      "References": [
        {
          "URL": "https://www.suse.com/security/cve/CVE-2022-21283.html",
          "Description": "CVE-2022-21283"
        },
        {
          "URL": "https://bugzilla.suse.com/1194937",
          "Description": "SUSE Bug 1194937"
        },
        {
          "URL": "https://bugzilla.suse.com/1197126",
          "Description": "SUSE Bug 1197126"
        }
      ],
      "ProductStatuses": [
        {
          "Type": "Fixed",
          "ProductID": [
            "openSUSE Tumbleweed:java-1_8_0-openjdk-1.8.0.322-1.1",
            "openSUSE Tumbleweed:java-1_8_0-openjdk-accessibility-1.8.0.322-1.1",
            "openSUSE Tumbleweed:java-1_8_0-openjdk-demo-1.8.0.322-1.1",
            "openSUSE Tumbleweed:java-1_8_0-openjdk-devel-1.8.0.322-1.1",
            "openSUSE Tumbleweed:java-1_8_0-openjdk-headless-1.8.0.322-1.1",
            "openSUSE Tumbleweed:java-1_8_0-openjdk-javadoc-1.8.0.322-1.1",
            "openSUSE Tumbleweed:java-1_8_0-openjdk-src-1.8.0.322-1.1"
          ]
        }
      ],
      "CVSSScoreSets": {}
    },
    {
      "CVE": "CVE-2022-21293",
      "Description": "Vulnerability in the Oracle Java SE, Oracle GraalVM Enterprise Edition product of Oracle Java SE (component: Libraries). Supported versions that are affected are Oracle Java SE: 7u321, 8u311, 11.0.13, 17.0.1; Oracle GraalVM Enterprise Edition: 20.3.4 and 21.3.0. Easily exploitable vulnerability allows unauthenticated attacker with network access via multiple protocols to compromise Oracle Java SE, Oracle GraalVM Enterprise Edition. Successful attacks of this vulnerability can result in unauthorized ability to cause a partial denial of service (partial DOS) of Oracle Java SE, Oracle GraalVM Enterprise Edition. Note: This vulnerability applies to Java deployments, typically in clients running sandboxed Java Web Start applications or sandboxed Java applets, that load and run untrusted code (e.g., code that comes from the internet) and rely on the Java sandbox for security. This vulnerability can also be exploited by using APIs in the specified Component, e.g., through a web service which supplies data to the APIs. CVSS 3.1 Base Score 5.3 (Availability impacts). CVSS Vector: (CVSS:3.1/AV:N/AC:L/PR:N/UI:N/S:U/C:N/I:N/A:L).",
      "Threats": [
        {
          "Type": "Impact",
          "Severity": "moderate"
        }
      ],
      "References": [
        {
          "URL": "https://www.suse.com/security/cve/CVE-2022-21293.html",
          "Description": "CVE-2022-21293"
        },
        {
          "URL": "https://bugzilla.suse.com/1194935",
          "Description": "SUSE Bug 1194935"
        },
        {
          "URL": "https://bugzilla.suse.com/1197126",
          "Description": "SUSE Bug 1197126"
        }
      ],
      "ProductStatuses": [
        {
          "Type": "Fixed",
          "ProductID": [
            "openSUSE Tumbleweed:java-1_8_0-openjdk-1.8.0.322-1.1",
            "openSUSE Tumbleweed:java-1_8_0-openjdk-accessibility-1.8.0.322-1.1",
            "openSUSE Tumbleweed:java-1_8_0-openjdk-demo-1.8.0.322-1.1",
            "openSUSE Tumbleweed:java-1_8_0-openjdk-devel-1.8.0.322-1.1",
            "openSUSE Tumbleweed:java-1_8_0-openjdk-headless-1.8.0.322-1.1",
            "openSUSE Tumbleweed:java-1_8_0-openjdk-javadoc-1.8.0.322-1.1",
            "openSUSE Tumbleweed:java-1_8_0-openjdk-src-1.8.0.322-1.1"
          ]
        }
      ],
      "CVSSScoreSets": {}
    },
    {
      "CVE": "CVE-2022-21294",
      "Description": "Vulnerability in the Oracle Java SE, Oracle GraalVM Enterprise Edition product of Oracle Java SE (component: Libraries). Supported versions that are affected are Oracle Java SE: 7u321, 8u311, 11.0.13, 17.0.1; Oracle GraalVM Enterprise Edition: 20.3.4 and 21.3.0. Easily exploitable vulnerability allows unauthenticated attacker with network access via multiple protocols to compromise Oracle Java SE, Oracle GraalVM Enterprise Edition. Successful attacks of this vulnerability can result in unauthorized ability to cause a partial denial of service (partial DOS) of Oracle Java SE, Oracle GraalVM Enterprise Edition. Note: This vulnerability applies to Java deployments, typically in clients running sandboxed Java Web Start applications or sandboxed Java applets, that load and run untrusted code (e.g., code that comes from the internet) and rely on the Java sandbox for security. This vulnerability can also be exploited by using APIs in the specified Component, e.g., through a web service which supplies data to the APIs. CVSS 3.1 Base Score 5.3 (Availability impacts). CVSS Vector: (CVSS:3.1/AV:N/AC:L/PR:N/UI:N/S:U/C:N/I:N/A:L).",
      "Threats": [
        {
          "Type": "Impact",
          "Severity": "moderate"
        }
      ],
      "References": [
        {
          "URL": "https://www.suse.com/security/cve/CVE-2022-21294.html",
          "Description": "CVE-2022-21294"
        },
        {
          "URL": "https://bugzilla.suse.com/1194934",
          "Description": "SUSE Bug 1194934"
        },
        {
          "URL": "https://bugzilla.suse.com/1197126",
          "Description": "SUSE Bug 1197126"
        }
      ],
      "ProductStatuses": [
        {
          "Type": "Fixed",
          "ProductID": [
            "openSUSE Tumbleweed:java-1_8_0-openjdk-1.8.0.322-1.1",
            "openSUSE Tumbleweed:java-1_8_0-openjdk-accessibility-1.8.0.322-1.1",
            "openSUSE Tumbleweed:java-1_8_0-openjdk-demo-1.8.0.322-1.1",
            "openSUSE Tumbleweed:java-1_8_0-openjdk-devel-1.8.0.322-1.1",
            "openSUSE Tumbleweed:java-1_8_0-openjdk-headless-1.8.0.322-1.1",
            "openSUSE Tumbleweed:java-1_8_0-openjdk-javadoc-1.8.0.322-1.1",
            "openSUSE Tumbleweed:java-1_8_0-openjdk-src-1.8.0.322-1.1"
          ]
        }
      ],
      "CVSSScoreSets": {}
    },
    {
      "CVE": "CVE-2022-21296",
      "Description": "Vulnerability in the Oracle Java SE, Oracle GraalVM Enterprise Edition product of Oracle Java SE (component: JAXP). Supported versions that are affected are Oracle Java SE: 7u321, 8u311, 11.0.13, 17.0.1; Oracle GraalVM Enterprise Edition: 20.3.4 and 21.3.0. Easily exploitable vulnerability allows unauthenticated attacker with network access via multiple protocols to compromise Oracle Java SE, Oracle GraalVM Enterprise Edition. Successful attacks of this vulnerability can result in unauthorized read access to a subset of Oracle Java SE, Oracle GraalVM Enterprise Edition accessible data. Note: This vulnerability applies to Java deployments, typically in clients running sandboxed Java Web Start applications or sandboxed Java applets, that load and run untrusted code (e.g., code that comes from the internet) and rely on the Java sandbox for security. This vulnerability can also be exploited by using APIs in the specified Component, e.g., through a web service which supplies data to the APIs. CVSS 3.1 Base Score 5.3 (Confidentiality impacts). CVSS Vector: (CVSS:3.1/AV:N/AC:L/PR:N/UI:N/S:U/C:L/I:N/A:N).",
      "Threats": [
        {
          "Type": "Impact",
          "Severity": "moderate"
        }
      ],
      "References": [
        {
          "URL": "https://www.suse.com/security/cve/CVE-2022-21296.html",
          "Description": "CVE-2022-21296"
        },
        {
          "URL": "https://bugzilla.suse.com/1194932",
          "Description": "SUSE Bug 1194932"
        },
        {
          "URL": "https://bugzilla.suse.com/1197126",
          "Description": "SUSE Bug 1197126"
        }
      ],
      "ProductStatuses": [
        {
          "Type": "Fixed",
          "ProductID": [
            "openSUSE Tumbleweed:java-1_8_0-openjdk-1.8.0.322-1.1",
            "openSUSE Tumbleweed:java-1_8_0-openjdk-accessibility-1.8.0.322-1.1",
            "openSUSE Tumbleweed:java-1_8_0-openjdk-demo-1.8.0.322-1.1",
            "openSUSE Tumbleweed:java-1_8_0-openjdk-devel-1.8.0.322-1.1",
            "openSUSE Tumbleweed:java-1_8_0-openjdk-headless-1.8.0.322-1.1",
            "openSUSE Tumbleweed:java-1_8_0-openjdk-javadoc-1.8.0.322-1.1",
            "openSUSE Tumbleweed:java-1_8_0-openjdk-src-1.8.0.322-1.1"
          ]
        }
      ],
      "CVSSScoreSets": {}
    },
    {
      "CVE": "CVE-2022-21299",
      "Description": "Vulnerability in the Oracle Java SE, Oracle GraalVM Enterprise Edition product of Oracle Java SE (component: JAXP). Supported versions that are affected are Oracle Java SE: 7u321, 8u311, 11.0.13, 17.0.1; Oracle GraalVM Enterprise Edition: 20.3.4 and 21.3.0. Easily exploitable vulnerability allows unauthenticated attacker with network access via multiple protocols to compromise Oracle Java SE, Oracle GraalVM Enterprise Edition. Successful attacks of this vulnerability can result in unauthorized ability to cause a partial denial of service (partial DOS) of Oracle Java SE, Oracle GraalVM Enterprise Edition. Note: This vulnerability applies to Java deployments, typically in clients running sandboxed Java Web Start applications or sandboxed Java applets, that load and run untrusted code (e.g., code that comes from the internet) and rely on the Java sandbox for security. This vulnerability can also be exploited by using APIs in the specified Component, e.g., through a web service which supplies data to the APIs. CVSS 3.1 Base Score 5.3 (Availability impacts). CVSS Vector: (CVSS:3.1/AV:N/AC:L/PR:N/UI:N/S:U/C:N/I:N/A:L).",
      "Threats": [
        {
          "Type": "Impact",
          "Severity": "moderate"
        }
      ],
      "References": [
        {
          "URL": "https://www.suse.com/security/cve/CVE-2022-21299.html",
          "Description": "CVE-2022-21299"
        },
        {
          "URL": "https://bugzilla.suse.com/1194931",
          "Description": "SUSE Bug 1194931"
        },
        {
          "URL": "https://bugzilla.suse.com/1197126",
          "Description": "SUSE Bug 1197126"
        }
      ],
      "ProductStatuses": [
        {
          "Type": "Fixed",
          "ProductID": [
            "openSUSE Tumbleweed:java-1_8_0-openjdk-1.8.0.322-1.1",
            "openSUSE Tumbleweed:java-1_8_0-openjdk-accessibility-1.8.0.322-1.1",
            "openSUSE Tumbleweed:java-1_8_0-openjdk-demo-1.8.0.322-1.1",
            "openSUSE Tumbleweed:java-1_8_0-openjdk-devel-1.8.0.322-1.1",
            "openSUSE Tumbleweed:java-1_8_0-openjdk-headless-1.8.0.322-1.1",
            "openSUSE Tumbleweed:java-1_8_0-openjdk-javadoc-1.8.0.322-1.1",
            "openSUSE Tumbleweed:java-1_8_0-openjdk-src-1.8.0.322-1.1"
          ]
        }
      ],
      "CVSSScoreSets": {}
    },
    {
      "CVE": "CVE-2022-21305",
      "Description": "Vulnerability in the Oracle Java SE, Oracle GraalVM Enterprise Edition product of Oracle Java SE (component: Hotspot). Supported versions that are affected are Oracle Java SE: 7u321, 8u311, 11.0.13, 17.0.1; Oracle GraalVM Enterprise Edition: 20.3.4 and 21.3.0. Easily exploitable vulnerability allows unauthenticated attacker with network access via multiple protocols to compromise Oracle Java SE, Oracle GraalVM Enterprise Edition. Successful attacks of this vulnerability can result in unauthorized update, insert or delete access to some of Oracle Java SE, Oracle GraalVM Enterprise Edition accessible data. Note: This vulnerability applies to Java deployments, typically in clients running sandboxed Java Web Start applications or sandboxed Java applets, that load and run untrusted code (e.g., code that comes from the internet) and rely on the Java sandbox for security. This vulnerability can also be exploited by using APIs in the specified Component, e.g., through a web service which supplies data to the APIs. CVSS 3.1 Base Score 5.3 (Integrity impacts). CVSS Vector: (CVSS:3.1/AV:N/AC:L/PR:N/UI:N/S:U/C:N/I:L/A:N).",
      "Threats": [
        {
          "Type": "Impact",
          "Severity": "moderate"
        }
      ],
      "References": [
        {
          "URL": "https://www.suse.com/security/cve/CVE-2022-21305.html",
          "Description": "CVE-2022-21305"
        },
        {
          "URL": "https://bugzilla.suse.com/1194939",
          "Description": "SUSE Bug 1194939"
        },
        {
          "URL": "https://bugzilla.suse.com/1197126",
          "Description": "SUSE Bug 1197126"
        }
      ],
      "ProductStatuses": [
        {
          "Type": "Fixed",
          "ProductID": [
            "openSUSE Tumbleweed:java-1_8_0-openjdk-1.8.0.322-1.1",
            "openSUSE Tumbleweed:java-1_8_0-openjdk-accessibility-1.8.0.322-1.1",
            "openSUSE Tumbleweed:java-1_8_0-openjdk-demo-1.8.0.322-1.1",
            "openSUSE Tumbleweed:java-1_8_0-openjdk-devel-1.8.0.322-1.1",
            "openSUSE Tumbleweed:java-1_8_0-openjdk-headless-1.8.0.322-1.1",
            "openSUSE Tumbleweed:java-1_8_0-openjdk-javadoc-1.8.0.322-1.1",
            "openSUSE Tumbleweed:java-1_8_0-openjdk-src-1.8.0.322-1.1"
          ]
        }
      ],
      "CVSSScoreSets": {}
    },
    {
      "CVE": "CVE-2022-21340",
      "Description": "Vulnerability in the Oracle Java SE, Oracle GraalVM Enterprise Edition product of Oracle Java SE (component: Libraries). Supported versions that are affected are Oracle Java SE: 7u321, 8u311, 11.0.13, 17.0.1; Oracle GraalVM Enterprise Edition: 20.3.4 and 21.3.0. Easily exploitable vulnerability allows unauthenticated attacker with network access via multiple protocols to compromise Oracle Java SE, Oracle GraalVM Enterprise Edition. Successful attacks of this vulnerability can result in unauthorized ability to cause a partial denial of service (partial DOS) of Oracle Java SE, Oracle GraalVM Enterprise Edition. Note: This vulnerability applies to Java deployments, typically in clients running sandboxed Java Web Start applications or sandboxed Java applets, that load and run untrusted code (e.g., code that comes from the internet) and rely on the Java sandbox for security. This vulnerability can also be exploited by using APIs in the specified Component, e.g., through a web service which supplies data to the APIs. CVSS 3.1 Base Score 5.3 (Availability impacts). CVSS Vector: (CVSS:3.1/AV:N/AC:L/PR:N/UI:N/S:U/C:N/I:N/A:L).",
      "Threats": [
        {
          "Type": "Impact",
          "Severity": "moderate"
        }
      ],
      "References": [
        {
          "URL": "https://www.suse.com/security/cve/CVE-2022-21340.html",
          "Description": "CVE-2022-21340"
        },
        {
          "URL": "https://bugzilla.suse.com/1194940",
          "Description": "SUSE Bug 1194940"
        },
        {
          "URL": "https://bugzilla.suse.com/1197126",
          "Description": "SUSE Bug 1197126"
        }
      ],
      "ProductStatuses": [
        {
          "Type": "Fixed",
          "ProductID": [
            "openSUSE Tumbleweed:java-1_8_0-openjdk-1.8.0.322-1.1",
            "openSUSE Tumbleweed:java-1_8_0-openjdk-accessibility-1.8.0.322-1.1",
            "openSUSE Tumbleweed:java-1_8_0-openjdk-demo-1.8.0.322-1.1",
            "openSUSE Tumbleweed:java-1_8_0-openjdk-devel-1.8.0.322-1.1",
            "openSUSE Tumbleweed:java-1_8_0-openjdk-headless-1.8.0.322-1.1",
            "openSUSE Tumbleweed:java-1_8_0-openjdk-javadoc-1.8.0.322-1.1",
            "openSUSE Tumbleweed:java-1_8_0-openjdk-src-1.8.0.322-1.1"
          ]
        }
      ],
      "CVSSScoreSets": {}
    },
    {
      "CVE": "CVE-2022-21341",
      "Description": "Vulnerability in the Oracle Java SE, Oracle GraalVM Enterprise Edition product of Oracle Java SE (component: Serialization). Supported versions that are affected are Oracle Java SE: 7u321, 8u311, 11.0.13, 17.0.1; Oracle GraalVM Enterprise Edition: 20.3.4 and 21.3.0. Easily exploitable vulnerability allows unauthenticated attacker with network access via multiple protocols to compromise Oracle Java SE, Oracle GraalVM Enterprise Edition. Successful attacks of this vulnerability can result in unauthorized ability to cause a partial denial of service (partial DOS) of Oracle Java SE, Oracle GraalVM Enterprise Edition. Note: This vulnerability applies to Java deployments, typically in clients running sandboxed Java Web Start applications or sandboxed Java applets, that load and run untrusted code (e.g., code that comes from the internet) and rely on the Java sandbox for security. This vulnerability can also be exploited by using APIs in the specified Component, e.g., through a web service which supplies data to the APIs. CVSS 3.1 Base Score 5.3 (Availability impacts). CVSS Vector: (CVSS:3.1/AV:N/AC:L/PR:N/UI:N/S:U/C:N/I:N/A:L).",
      "Threats": [
        {
          "Type": "Impact",
          "Severity": "moderate"
        }
      ],
      "References": [
        {
          "URL": "https://www.suse.com/security/cve/CVE-2022-21341.html",
          "Description": "CVE-2022-21341"
        },
        {
          "URL": "https://bugzilla.suse.com/1194941",
          "Description": "SUSE Bug 1194941"
        },
        {
          "URL": "https://bugzilla.suse.com/1197126",
          "Description": "SUSE Bug 1197126"
        }
      ],
      "ProductStatuses": [
        {
          "Type": "Fixed",
          "ProductID": [
            "openSUSE Tumbleweed:java-1_8_0-openjdk-1.8.0.322-1.1",
            "openSUSE Tumbleweed:java-1_8_0-openjdk-accessibility-1.8.0.322-1.1",
            "openSUSE Tumbleweed:java-1_8_0-openjdk-demo-1.8.0.322-1.1",
            "openSUSE Tumbleweed:java-1_8_0-openjdk-devel-1.8.0.322-1.1",
            "openSUSE Tumbleweed:java-1_8_0-openjdk-headless-1.8.0.322-1.1",
            "openSUSE Tumbleweed:java-1_8_0-openjdk-javadoc-1.8.0.322-1.1",
            "openSUSE Tumbleweed:java-1_8_0-openjdk-src-1.8.0.322-1.1"
          ]
        }
      ],
      "CVSSScoreSets": {}
    },
    {
      "CVE": "CVE-2022-21349",
      "Description": "Vulnerability in the Oracle Java SE, Oracle GraalVM Enterprise Edition product of Oracle Java SE (component: 2D). Supported versions that are affected are Oracle Java SE: 7u321, 8u311; Oracle GraalVM Enterprise Edition: 20.3.4 and 21.3.0. Easily exploitable vulnerability allows unauthenticated attacker with network access via multiple protocols to compromise Oracle Java SE, Oracle GraalVM Enterprise Edition. Successful attacks of this vulnerability can result in unauthorized ability to cause a partial denial of service (partial DOS) of Oracle Java SE, Oracle GraalVM Enterprise Edition. Note: This vulnerability applies to Java deployments, typically in clients running sandboxed Java Web Start applications or sandboxed Java applets, that load and run untrusted code (e.g., code that comes from the internet) and rely on the Java sandbox for security. This vulnerability can also be exploited by using APIs in the specified Component, e.g., through a web service which supplies data to the APIs. CVSS 3.1 Base Score 5.3 (Availability impacts). CVSS Vector: (CVSS:3.1/AV:N/AC:L/PR:N/UI:N/S:U/C:N/I:N/A:L).",
      "Threats": [
        {
          "Type": "Impact",
          "Severity": "moderate"
        }
      ],
      "References": [
        {
          "URL": "https://www.suse.com/security/cve/CVE-2022-21349.html",
          "Description": "CVE-2022-21349"
        },
        {
          "URL": "https://bugzilla.suse.com/1196500",
          "Description": "SUSE Bug 1196500"
        },
        {
          "URL": "https://bugzilla.suse.com/1197126",
          "Description": "SUSE Bug 1197126"
        }
      ],
      "ProductStatuses": [
        {
          "Type": "Fixed",
          "ProductID": [
            "openSUSE Tumbleweed:java-1_8_0-openjdk-1.8.0.322-1.1",
            "openSUSE Tumbleweed:java-1_8_0-openjdk-accessibility-1.8.0.322-1.1",
            "openSUSE Tumbleweed:java-1_8_0-openjdk-demo-1.8.0.322-1.1",
            "openSUSE Tumbleweed:java-1_8_0-openjdk-devel-1.8.0.322-1.1",
            "openSUSE Tumbleweed:java-1_8_0-openjdk-headless-1.8.0.322-1.1",
            "openSUSE Tumbleweed:java-1_8_0-openjdk-javadoc-1.8.0.322-1.1",
            "openSUSE Tumbleweed:java-1_8_0-openjdk-src-1.8.0.322-1.1"
          ]
        }
      ],
      "CVSSScoreSets": {}
    },
    {
      "CVE": "CVE-2022-21360",
      "Description": "Vulnerability in the Oracle Java SE, Oracle GraalVM Enterprise Edition product of Oracle Java SE (component: ImageIO). Supported versions that are affected are Oracle Java SE: 7u321, 8u311, 11.0.13, 17.0.1; Oracle GraalVM Enterprise Edition: 20.3.4 and 21.3.0. Easily exploitable vulnerability allows unauthenticated attacker with network access via multiple protocols to compromise Oracle Java SE, Oracle GraalVM Enterprise Edition. Successful attacks of this vulnerability can result in unauthorized ability to cause a partial denial of service (partial DOS) of Oracle Java SE, Oracle GraalVM Enterprise Edition. Note: This vulnerability applies to Java deployments, typically in clients running sandboxed Java Web Start applications or sandboxed Java applets, that load and run untrusted code (e.g., code that comes from the internet) and rely on the Java sandbox for security. This vulnerability can also be exploited by using APIs in the specified Component, e.g., through a web service which supplies data to the APIs. CVSS 3.1 Base Score 5.3 (Availability impacts). CVSS Vector: (CVSS:3.1/AV:N/AC:L/PR:N/UI:N/S:U/C:N/I:N/A:L).",
      "Threats": [
        {
          "Type": "Impact",
          "Severity": "moderate"
        }
      ],
      "References": [
        {
          "URL": "https://www.suse.com/security/cve/CVE-2022-21360.html",
          "Description": "CVE-2022-21360"
        },
        {
          "URL": "https://bugzilla.suse.com/1194929",
          "Description": "SUSE Bug 1194929"
        },
        {
          "URL": "https://bugzilla.suse.com/1197126",
          "Description": "SUSE Bug 1197126"
        }
      ],
      "ProductStatuses": [
        {
          "Type": "Fixed",
          "ProductID": [
            "openSUSE Tumbleweed:java-1_8_0-openjdk-1.8.0.322-1.1",
            "openSUSE Tumbleweed:java-1_8_0-openjdk-accessibility-1.8.0.322-1.1",
            "openSUSE Tumbleweed:java-1_8_0-openjdk-demo-1.8.0.322-1.1",
            "openSUSE Tumbleweed:java-1_8_0-openjdk-devel-1.8.0.322-1.1",
            "openSUSE Tumbleweed:java-1_8_0-openjdk-headless-1.8.0.322-1.1",
            "openSUSE Tumbleweed:java-1_8_0-openjdk-javadoc-1.8.0.322-1.1",
            "openSUSE Tumbleweed:java-1_8_0-openjdk-src-1.8.0.322-1.1"
          ]
        }
      ],
      "CVSSScoreSets": {}
    },
    {
      "CVE": "CVE-2022-21365",
      "Description": "Vulnerability in the Oracle Java SE, Oracle GraalVM Enterprise Edition product of Oracle Java SE (component: ImageIO). Supported versions that are affected are Oracle Java SE: 7u321, 8u311, 11.0.13, 17.0.1; Oracle GraalVM Enterprise Edition: 20.3.4 and 21.3.0. Easily exploitable vulnerability allows unauthenticated attacker with network access via multiple protocols to compromise Oracle Java SE, Oracle GraalVM Enterprise Edition. Successful attacks of this vulnerability can result in unauthorized ability to cause a partial denial of service (partial DOS) of Oracle Java SE, Oracle GraalVM Enterprise Edition. Note: This vulnerability applies to Java deployments, typically in clients running sandboxed Java Web Start applications or sandboxed Java applets, that load and run untrusted code (e.g., code that comes from the internet) and rely on the Java sandbox for security. This vulnerability can also be exploited by using APIs in the specified Component, e.g., through a web service which supplies data to the APIs. CVSS 3.1 Base Score 5.3 (Availability impacts). CVSS Vector: (CVSS:3.1/AV:N/AC:L/PR:N/UI:N/S:U/C:N/I:N/A:L).",
      "Threats": [
        {
          "Type": "Impact",
          "Severity": "moderate"
        }
      ],
      "References": [
        {
          "URL": "https://www.suse.com/security/cve/CVE-2022-21365.html",
          "Description": "CVE-2022-21365"
        },
        {
          "URL": "https://bugzilla.suse.com/1194928",
          "Description": "SUSE Bug 1194928"
        },
        {
          "URL": "https://bugzilla.suse.com/1197126",
          "Description": "SUSE Bug 1197126"
        }
      ],
      "ProductStatuses": [
        {
          "Type": "Fixed",
          "ProductID": [
            "openSUSE Tumbleweed:java-1_8_0-openjdk-1.8.0.322-1.1",
            "openSUSE Tumbleweed:java-1_8_0-openjdk-accessibility-1.8.0.322-1.1",
            "openSUSE Tumbleweed:java-1_8_0-openjdk-demo-1.8.0.322-1.1",
            "openSUSE Tumbleweed:java-1_8_0-openjdk-devel-1.8.0.322-1.1",
            "openSUSE Tumbleweed:java-1_8_0-openjdk-headless-1.8.0.322-1.1",
            "openSUSE Tumbleweed:java-1_8_0-openjdk-javadoc-1.8.0.322-1.1",
            "openSUSE Tumbleweed:java-1_8_0-openjdk-src-1.8.0.322-1.1"
          ]
        }
      ],
      "CVSSScoreSets": {}
    }
  ]
}