{
  "Title": "libIlmImf-2_2-22-2.2.0-1.8 on GA media",
  "Tracking": {
    "ID": "openSUSE-SU-2024:10160-1",
    "Status": "Final",
    "Version": "1",
    "InitialReleaseDate": "2024-06-22T21:44:56Z",
    "CurrentReleaseDate": "2024-06-22T21:44:56Z",
    "RevisionHistory": [
      {
        "Number": "1",
        "Date": "2024-06-22T21:44:56Z",
        "Description": "current"
      }
    ]
  },
  "Notes": [
    {
      "Text": "libIlmImf-2_2-22-2.2.0-1.8 on GA media",
      "Title": "Topic",
      "Type": "Summary"
    },
    {
      "Text": "These are all security issues fixed in the libIlmImf-2_2-22-2.2.0-1.8 package on the GA media of openSUSE Tumbleweed.",
      "Title": "Details",
      "Type": "General"
    },
    {
      "Text": "The CVRF data is provided by SUSE under the Creative Commons License 4.0 with Attribution (CC-BY-4.0).",
      "Title": "Terms of Use",
      "Type": "Legal Disclaimer"
    },
    {
      "Text": "openSUSE-Tumbleweed-2024-10160",
      "Title": "Patchnames",
      "Type": "Details"
    }
  ],
  "ProductTree": {
    "Relationships": [
      {
        "ProductReference": "libIlmImf-2_2-22-2.2.0-1.8",
        "RelatesToProductReference": "openSUSE Tumbleweed",
        "RelationType": "Default Component Of"
      },
      {
        "ProductReference": "libIlmImf-2_2-22-32bit-2.2.0-1.8",
        "RelatesToProductReference": "openSUSE Tumbleweed",
        "RelationType": "Default Component Of"
      },
      {
        "ProductReference": "libIlmImfUtil-2_2-22-2.2.0-1.8",
        "RelatesToProductReference": "openSUSE Tumbleweed",
        "RelationType": "Default Component Of"
      },
      {
        "ProductReference": "libIlmImfUtil-2_2-22-32bit-2.2.0-1.8",
        "RelatesToProductReference": "openSUSE Tumbleweed",
        "RelationType": "Default Component Of"
      },
      {
        "ProductReference": "openexr-2.2.0-1.8",
        "RelatesToProductReference": "openSUSE Tumbleweed",
        "RelationType": "Default Component Of"
      },
      {
        "ProductReference": "openexr-devel-2.2.0-1.8",
        "RelatesToProductReference": "openSUSE Tumbleweed",
        "RelationType": "Default Component Of"
      },
      {
        "ProductReference": "openexr-doc-2.2.0-1.8",
        "RelatesToProductReference": "openSUSE Tumbleweed",
        "RelationType": "Default Component Of"
      }
    ]
  },
  "References": [
    {
      "URL": "https://www.suse.com/support/security/rating/",
      "Description": "SUSE Security Ratings"
    },
    {
      "URL": "https://www.suse.com/security/cve/CVE-2009-1720/",
      "Description": "SUSE CVE CVE-2009-1720 page"
    },
    {
      "URL": "https://www.suse.com/security/cve/CVE-2009-1721/",
      "Description": "SUSE CVE CVE-2009-1721 page"
    }
  ],
  "Vulnerabilities": [
    {
      "CVE": "CVE-2009-1720",
      "Description": "Multiple integer overflows in OpenEXR 1.2.2 and 1.6.1 allow context-dependent attackers to cause a denial of service (application crash) or possibly execute arbitrary code via unspecified vectors that trigger heap-based buffer overflows, related to (1) the Imf::PreviewImage::PreviewImage function and (2) compressor constructors.  NOTE: some of these details are obtained from third party information.",
      "Threats": [
        {
          "Type": "Impact",
          "Severity": "moderate"
        }
      ],
      "References": [
        {
          "URL": "https://www.suse.com/security/cve/CVE-2009-1720.html",
          "Description": "CVE-2009-1720"
        },
        {
          "URL": "https://bugzilla.suse.com/527538",
          "Description": "SUSE Bug 527538"
        },
        {
          "URL": "https://bugzilla.suse.com/527539",
          "Description": "SUSE Bug 527539"
        }
      ],
      "ProductStatuses": [
        {
          "Type": "Fixed",
          "ProductID": [
            "openSUSE Tumbleweed:libIlmImf-2_2-22-2.2.0-1.8",
            "openSUSE Tumbleweed:libIlmImf-2_2-22-32bit-2.2.0-1.8",
            "openSUSE Tumbleweed:libIlmImfUtil-2_2-22-2.2.0-1.8",
            "openSUSE Tumbleweed:libIlmImfUtil-2_2-22-32bit-2.2.0-1.8",
            "openSUSE Tumbleweed:openexr-2.2.0-1.8",
            "openSUSE Tumbleweed:openexr-devel-2.2.0-1.8",
            "openSUSE Tumbleweed:openexr-doc-2.2.0-1.8"
          ]
        }
      ],
      "CVSSScoreSets": {}
    },
    {
      "CVE": "CVE-2009-1721",
      "Description": "The decompression implementation in the Imf::hufUncompress function in OpenEXR 1.2.2 and 1.6.1 allows context-dependent attackers to cause a denial of service (application crash) or possibly execute arbitrary code via vectors that trigger a free of an uninitialized pointer.",
      "Threats": [
        {
          "Type": "Impact",
          "Severity": "moderate"
        }
      ],
      "References": [
        {
          "URL": "https://www.suse.com/security/cve/CVE-2009-1721.html",
          "Description": "CVE-2009-1721"
        },
        {
          "URL": "https://bugzilla.suse.com/527538",
          "Description": "SUSE Bug 527538"
        },
        {
          "URL": "https://bugzilla.suse.com/527539",
          "Description": "SUSE Bug 527539"
        }
      ],
      "ProductStatuses": [
        {
          "Type": "Fixed",
          "ProductID": [
            "openSUSE Tumbleweed:libIlmImf-2_2-22-2.2.0-1.8",
            "openSUSE Tumbleweed:libIlmImf-2_2-22-32bit-2.2.0-1.8",
            "openSUSE Tumbleweed:libIlmImfUtil-2_2-22-2.2.0-1.8",
            "openSUSE Tumbleweed:libIlmImfUtil-2_2-22-32bit-2.2.0-1.8",
            "openSUSE Tumbleweed:openexr-2.2.0-1.8",
            "openSUSE Tumbleweed:openexr-devel-2.2.0-1.8",
            "openSUSE Tumbleweed:openexr-doc-2.2.0-1.8"
          ]
        }
      ],
      "CVSSScoreSets": {}
    }
  ]
}