{
  "Title": "abcm2ps-8.14.13-2.1 on GA media",
  "Tracking": {
    "ID": "openSUSE-SU-2024:11943-1",
    "Status": "Final",
    "Version": "1",
    "InitialReleaseDate": "2024-06-22T21:44:56Z",
    "CurrentReleaseDate": "2024-06-22T21:44:56Z",
    "RevisionHistory": [
      {
        "Number": "1",
        "Date": "2024-06-22T21:44:56Z",
        "Description": "current"
      }
    ]
  },
  "Notes": [
    {
      "Text": "abcm2ps-8.14.13-2.1 on GA media",
      "Title": "Topic",
      "Type": "Summary"
    },
    {
      "Text": "These are all security issues fixed in the abcm2ps-8.14.13-2.1 package on the GA media of openSUSE Tumbleweed.",
      "Title": "Details",
      "Type": "General"
    },
    {
      "Text": "The CVRF data is provided by SUSE under the Creative Commons License 4.0 with Attribution (CC-BY-4.0).",
      "Title": "Terms of Use",
      "Type": "Legal Disclaimer"
    },
    {
      "Text": "openSUSE-Tumbleweed-2024-11943",
      "Title": "Patchnames",
      "Type": "Details"
    }
  ],
  "ProductTree": {
    "Relationships": [
      {
        "ProductReference": "abcm2ps-8.14.13-2.1",
        "RelatesToProductReference": "openSUSE Tumbleweed",
        "RelationType": "Default Component Of"
      }
    ]
  },
  "References": [
    {
      "URL": "https://www.suse.com/support/security/rating/",
      "Description": "SUSE Security Ratings"
    },
    {
      "URL": "https://www.suse.com/security/cve/CVE-2021-32434/",
      "Description": "SUSE CVE CVE-2021-32434 page"
    },
    {
      "URL": "https://www.suse.com/security/cve/CVE-2021-32435/",
      "Description": "SUSE CVE CVE-2021-32435 page"
    }
  ],
  "Vulnerabilities": [
    {
      "CVE": "CVE-2021-32434",
      "Description": "abcm2ps v8.14.11 was discovered to contain an out-of-bounds read in the function calculate_beam at draw.c.",
      "Threats": [
        {
          "Type": "Impact",
          "Severity": "moderate"
        }
      ],
      "References": [
        {
          "URL": "https://www.suse.com/security/cve/CVE-2021-32434.html",
          "Description": "CVE-2021-32434"
        },
        {
          "URL": "https://bugzilla.suse.com/1197355",
          "Description": "SUSE Bug 1197355"
        }
      ],
      "ProductStatuses": [
        {
          "Type": "Fixed",
          "ProductID": [
            "openSUSE Tumbleweed:abcm2ps-8.14.13-2.1"
          ]
        }
      ],
      "CVSSScoreSets": {}
    },
    {
      "CVE": "CVE-2021-32435",
      "Description": "Stack-based buffer overflow in the function get_key in parse.c of abcm2ps v8.14.11 allows remote attackers to cause a Denial of Service (DoS) via unspecified vectors.",
      "Threats": [
        {
          "Type": "Impact",
          "Severity": "moderate"
        }
      ],
      "References": [
        {
          "URL": "https://www.suse.com/security/cve/CVE-2021-32435.html",
          "Description": "CVE-2021-32435"
        },
        {
          "URL": "https://bugzilla.suse.com/1197355",
          "Description": "SUSE Bug 1197355"
        }
      ],
      "ProductStatuses": [
        {
          "Type": "Fixed",
          "ProductID": [
            "openSUSE Tumbleweed:abcm2ps-8.14.13-2.1"
          ]
        }
      ],
      "CVSSScoreSets": {}
    }
  ]
}