{
  "Title": "libudisks2-0-2.9.2-1.6 on GA media",
  "Tracking": {
    "ID": "openSUSE-SU-2024:11479-1",
    "Status": "Final",
    "Version": "1",
    "InitialReleaseDate": "2024-06-22T21:44:56Z",
    "CurrentReleaseDate": "2024-06-22T21:44:56Z",
    "RevisionHistory": [
      {
        "Number": "1",
        "Date": "2024-06-22T21:44:56Z",
        "Description": "current"
      }
    ]
  },
  "Notes": [
    {
      "Text": "libudisks2-0-2.9.2-1.6 on GA media",
      "Title": "Topic",
      "Type": "Summary"
    },
    {
      "Text": "These are all security issues fixed in the libudisks2-0-2.9.2-1.6 package on the GA media of openSUSE Tumbleweed.",
      "Title": "Details",
      "Type": "General"
    },
    {
      "Text": "The CVRF data is provided by SUSE under the Creative Commons License 4.0 with Attribution (CC-BY-4.0).",
      "Title": "Terms of Use",
      "Type": "Legal Disclaimer"
    },
    {
      "Text": "openSUSE-Tumbleweed-2024-11479",
      "Title": "Patchnames",
      "Type": "Details"
    }
  ],
  "ProductTree": {
    "Relationships": [
      {
        "ProductReference": "libudisks2-0-2.9.2-1.6",
        "RelatesToProductReference": "openSUSE Tumbleweed",
        "RelationType": "Default Component Of"
      },
      {
        "ProductReference": "libudisks2-0-devel-2.9.2-1.6",
        "RelatesToProductReference": "openSUSE Tumbleweed",
        "RelationType": "Default Component Of"
      },
      {
        "ProductReference": "libudisks2-0_bcache-2.9.2-1.6",
        "RelatesToProductReference": "openSUSE Tumbleweed",
        "RelationType": "Default Component Of"
      },
      {
        "ProductReference": "libudisks2-0_btrfs-2.9.2-1.6",
        "RelatesToProductReference": "openSUSE Tumbleweed",
        "RelationType": "Default Component Of"
      },
      {
        "ProductReference": "libudisks2-0_lsm-2.9.2-1.6",
        "RelatesToProductReference": "openSUSE Tumbleweed",
        "RelationType": "Default Component Of"
      },
      {
        "ProductReference": "libudisks2-0_lvm2-2.9.2-1.6",
        "RelatesToProductReference": "openSUSE Tumbleweed",
        "RelationType": "Default Component Of"
      },
      {
        "ProductReference": "libudisks2-0_vdo-2.9.2-1.6",
        "RelatesToProductReference": "openSUSE Tumbleweed",
        "RelationType": "Default Component Of"
      },
      {
        "ProductReference": "libudisks2-0_zram-2.9.2-1.6",
        "RelatesToProductReference": "openSUSE Tumbleweed",
        "RelationType": "Default Component Of"
      },
      {
        "ProductReference": "typelib-1_0-UDisks-2_0-2.9.2-1.6",
        "RelatesToProductReference": "openSUSE Tumbleweed",
        "RelationType": "Default Component Of"
      },
      {
        "ProductReference": "udisks2-2.9.2-1.6",
        "RelatesToProductReference": "openSUSE Tumbleweed",
        "RelationType": "Default Component Of"
      },
      {
        "ProductReference": "udisks2-lang-2.9.2-1.6",
        "RelatesToProductReference": "openSUSE Tumbleweed",
        "RelationType": "Default Component Of"
      }
    ]
  },
  "References": [
    {
      "URL": "https://www.suse.com/support/security/rating/",
      "Description": "SUSE Security Ratings"
    },
    {
      "URL": "https://www.suse.com/security/cve/CVE-2018-17336/",
      "Description": "SUSE CVE CVE-2018-17336 page"
    }
  ],
  "Vulnerabilities": [
    {
      "CVE": "CVE-2018-17336",
      "Description": "UDisks 2.8.0 has a format string vulnerability in udisks_log in udiskslogging.c, allowing attackers to obtain sensitive information (stack contents), cause a denial of service (memory corruption), or possibly have unspecified other impact via a malformed filesystem label, as demonstrated by %d or %n substrings.",
      "Threats": [
        {
          "Type": "Impact",
          "Severity": "important"
        }
      ],
      "References": [
        {
          "URL": "https://www.suse.com/security/cve/CVE-2018-17336.html",
          "Description": "CVE-2018-17336"
        },
        {
          "URL": "https://bugzilla.suse.com/1109406",
          "Description": "SUSE Bug 1109406"
        }
      ],
      "ProductStatuses": [
        {
          "Type": "Fixed",
          "ProductID": [
            "openSUSE Tumbleweed:libudisks2-0-2.9.2-1.6",
            "openSUSE Tumbleweed:libudisks2-0-devel-2.9.2-1.6",
            "openSUSE Tumbleweed:libudisks2-0_bcache-2.9.2-1.6",
            "openSUSE Tumbleweed:libudisks2-0_btrfs-2.9.2-1.6",
            "openSUSE Tumbleweed:libudisks2-0_lsm-2.9.2-1.6",
            "openSUSE Tumbleweed:libudisks2-0_lvm2-2.9.2-1.6",
            "openSUSE Tumbleweed:libudisks2-0_vdo-2.9.2-1.6",
            "openSUSE Tumbleweed:libudisks2-0_zram-2.9.2-1.6",
            "openSUSE Tumbleweed:typelib-1_0-UDisks-2_0-2.9.2-1.6",
            "openSUSE Tumbleweed:udisks2-2.9.2-1.6",
            "openSUSE Tumbleweed:udisks2-lang-2.9.2-1.6"
          ]
        }
      ],
      "CVSSScoreSets": {}
    }
  ]
}