{
  "Title": "libgit2-1_1-1.1.1-1.2 on GA media",
  "Tracking": {
    "ID": "openSUSE-SU-2024:10943-1",
    "Status": "Final",
    "Version": "1",
    "InitialReleaseDate": "2024-06-22T21:44:56Z",
    "CurrentReleaseDate": "2024-06-22T21:44:56Z",
    "RevisionHistory": [
      {
        "Number": "1",
        "Date": "2024-06-22T21:44:56Z",
        "Description": "current"
      }
    ]
  },
  "Notes": [
    {
      "Text": "libgit2-1_1-1.1.1-1.2 on GA media",
      "Title": "Topic",
      "Type": "Summary"
    },
    {
      "Text": "These are all security issues fixed in the libgit2-1_1-1.1.1-1.2 package on the GA media of openSUSE Tumbleweed.",
      "Title": "Details",
      "Type": "General"
    },
    {
      "Text": "The CVRF data is provided by SUSE under the Creative Commons License 4.0 with Attribution (CC-BY-4.0).",
      "Title": "Terms of Use",
      "Type": "Legal Disclaimer"
    },
    {
      "Text": "openSUSE-Tumbleweed-2024-10943",
      "Title": "Patchnames",
      "Type": "Details"
    }
  ],
  "ProductTree": {
    "Relationships": [
      {
        "ProductReference": "libgit2-1_1-1.1.1-1.2",
        "RelatesToProductReference": "openSUSE Tumbleweed",
        "RelationType": "Default Component Of"
      },
      {
        "ProductReference": "libgit2-1_1-32bit-1.1.1-1.2",
        "RelatesToProductReference": "openSUSE Tumbleweed",
        "RelationType": "Default Component Of"
      },
      {
        "ProductReference": "libgit2-devel-1.1.1-1.2",
        "RelatesToProductReference": "openSUSE Tumbleweed",
        "RelationType": "Default Component Of"
      }
    ]
  },
  "References": [
    {
      "URL": "https://www.suse.com/support/security/rating/",
      "Description": "SUSE Security Ratings"
    },
    {
      "URL": "https://www.suse.com/security/cve/CVE-2005-4900/",
      "Description": "SUSE CVE CVE-2005-4900 page"
    },
    {
      "URL": "https://www.suse.com/security/cve/CVE-2016-10128/",
      "Description": "SUSE CVE CVE-2016-10128 page"
    },
    {
      "URL": "https://www.suse.com/security/cve/CVE-2016-10130/",
      "Description": "SUSE CVE CVE-2016-10130 page"
    },
    {
      "URL": "https://www.suse.com/security/cve/CVE-2018-10887/",
      "Description": "SUSE CVE CVE-2018-10887 page"
    },
    {
      "URL": "https://www.suse.com/security/cve/CVE-2018-11235/",
      "Description": "SUSE CVE CVE-2018-11235 page"
    },
    {
      "URL": "https://www.suse.com/security/cve/CVE-2018-17456/",
      "Description": "SUSE CVE CVE-2018-17456 page"
    },
    {
      "URL": "https://www.suse.com/security/cve/CVE-2018-8098/",
      "Description": "SUSE CVE CVE-2018-8098 page"
    },
    {
      "URL": "https://www.suse.com/security/cve/CVE-2019-1348/",
      "Description": "SUSE CVE CVE-2019-1348 page"
    },
    {
      "URL": "https://www.suse.com/security/cve/CVE-2019-1349/",
      "Description": "SUSE CVE CVE-2019-1349 page"
    },
    {
      "URL": "https://www.suse.com/security/cve/CVE-2019-1350/",
      "Description": "SUSE CVE CVE-2019-1350 page"
    },
    {
      "URL": "https://www.suse.com/security/cve/CVE-2019-1351/",
      "Description": "SUSE CVE CVE-2019-1351 page"
    },
    {
      "URL": "https://www.suse.com/security/cve/CVE-2019-1352/",
      "Description": "SUSE CVE CVE-2019-1352 page"
    },
    {
      "URL": "https://www.suse.com/security/cve/CVE-2019-1353/",
      "Description": "SUSE CVE CVE-2019-1353 page"
    },
    {
      "URL": "https://www.suse.com/security/cve/CVE-2019-1354/",
      "Description": "SUSE CVE CVE-2019-1354 page"
    },
    {
      "URL": "https://www.suse.com/security/cve/CVE-2019-1387/",
      "Description": "SUSE CVE CVE-2019-1387 page"
    }
  ],
  "Vulnerabilities": [
    {
      "CVE": "CVE-2005-4900",
      "Description": "SHA-1 is not collision resistant, which makes it easier for context-dependent attackers to conduct spoofing attacks, as demonstrated by attacks on the use of SHA-1 in TLS 1.2.  NOTE: this CVE exists to provide a common identifier for referencing this SHA-1 issue; the existence of an identifier is not, by itself, a technology recommendation.",
      "Threats": [
        {
          "Type": "Impact",
          "Severity": "moderate"
        }
      ],
      "References": [
        {
          "URL": "https://www.suse.com/security/cve/CVE-2005-4900.html",
          "Description": "CVE-2005-4900"
        },
        {
          "URL": "https://bugzilla.suse.com/1026646",
          "Description": "SUSE Bug 1026646"
        },
        {
          "URL": "https://bugzilla.suse.com/1026936",
          "Description": "SUSE Bug 1026936"
        },
        {
          "URL": "https://bugzilla.suse.com/1042640",
          "Description": "SUSE Bug 1042640"
        },
        {
          "URL": "https://bugzilla.suse.com/1150998",
          "Description": "SUSE Bug 1150998"
        }
      ],
      "ProductStatuses": [
        {
          "Type": "Fixed",
          "ProductID": [
            "openSUSE Tumbleweed:libgit2-1_1-1.1.1-1.2",
            "openSUSE Tumbleweed:libgit2-1_1-32bit-1.1.1-1.2",
            "openSUSE Tumbleweed:libgit2-devel-1.1.1-1.2"
          ]
        }
      ],
      "CVSSScoreSets": {}
    },
    {
      "CVE": "CVE-2016-10128",
      "Description": "Buffer overflow in the git_pkt_parse_line function in transports/smart_pkt.c in the Git Smart Protocol support in libgit2 before 0.24.6 and 0.25.x before 0.25.1 allows remote attackers to have unspecified impact via a crafted non-flush packet.",
      "Threats": [
        {
          "Type": "Impact",
          "Severity": "moderate"
        }
      ],
      "References": [
        {
          "URL": "https://www.suse.com/security/cve/CVE-2016-10128.html",
          "Description": "CVE-2016-10128"
        },
        {
          "URL": "https://bugzilla.suse.com/1019036",
          "Description": "SUSE Bug 1019036"
        }
      ],
      "ProductStatuses": [
        {
          "Type": "Fixed",
          "ProductID": [
            "openSUSE Tumbleweed:libgit2-1_1-1.1.1-1.2",
            "openSUSE Tumbleweed:libgit2-1_1-32bit-1.1.1-1.2",
            "openSUSE Tumbleweed:libgit2-devel-1.1.1-1.2"
          ]
        }
      ],
      "CVSSScoreSets": {
        "BaseScore": "5.8",
        "Vector": "AV:N/AC:M/Au:N/C:P/I:N/A:P"
      }
    },
    {
      "CVE": "CVE-2016-10130",
      "Description": "The http_connect function in transports/http.c in libgit2 before 0.24.6 and 0.25.x before 0.25.1 might allow man-in-the-middle attackers to spoof servers by leveraging clobbering of the error variable.",
      "Threats": [
        {
          "Type": "Impact",
          "Severity": "moderate"
        }
      ],
      "References": [
        {
          "URL": "https://www.suse.com/security/cve/CVE-2016-10130.html",
          "Description": "CVE-2016-10130"
        },
        {
          "URL": "https://bugzilla.suse.com/1019037",
          "Description": "SUSE Bug 1019037"
        }
      ],
      "ProductStatuses": [
        {
          "Type": "Fixed",
          "ProductID": [
            "openSUSE Tumbleweed:libgit2-1_1-1.1.1-1.2",
            "openSUSE Tumbleweed:libgit2-1_1-32bit-1.1.1-1.2",
            "openSUSE Tumbleweed:libgit2-devel-1.1.1-1.2"
          ]
        }
      ],
      "CVSSScoreSets": {
        "BaseScore": "5.1",
        "Vector": "AV:N/AC:H/Au:N/C:P/I:P/A:P"
      }
    },
    {
      "CVE": "CVE-2018-10887",
      "Description": "A flaw was found in libgit2 before version 0.27.3. It has been discovered that an unexpected sign extension in git_delta_apply function in delta.c file may lead to an integer overflow which in turn leads to an out of bound read, allowing to read before the base object. An attacker may use this flaw to leak memory addresses or cause a Denial of Service.",
      "Threats": [
        {
          "Type": "Impact",
          "Severity": "moderate"
        }
      ],
      "References": [
        {
          "URL": "https://www.suse.com/security/cve/CVE-2018-10887.html",
          "Description": "CVE-2018-10887"
        },
        {
          "URL": "https://bugzilla.suse.com/1100613",
          "Description": "SUSE Bug 1100613"
        }
      ],
      "ProductStatuses": [
        {
          "Type": "Fixed",
          "ProductID": [
            "openSUSE Tumbleweed:libgit2-1_1-1.1.1-1.2",
            "openSUSE Tumbleweed:libgit2-1_1-32bit-1.1.1-1.2",
            "openSUSE Tumbleweed:libgit2-devel-1.1.1-1.2"
          ]
        }
      ],
      "CVSSScoreSets": {}
    },
    {
      "CVE": "CVE-2018-11235",
      "Description": "In Git before 2.13.7, 2.14.x before 2.14.4, 2.15.x before 2.15.2, 2.16.x before 2.16.4, and 2.17.x before 2.17.1, remote code execution can occur. With a crafted .gitmodules file, a malicious project can execute an arbitrary script on a machine that runs \"git clone --recurse-submodules\" because submodule \"names\" are obtained from this file, and then appended to $GIT_DIR/modules, leading to directory traversal with \"../\" in a name. Finally, post-checkout hooks from a submodule are executed, bypassing the intended design in which hooks are not obtained from a remote server.",
      "Threats": [
        {
          "Type": "Impact",
          "Severity": "important"
        }
      ],
      "References": [
        {
          "URL": "https://www.suse.com/security/cve/CVE-2018-11235.html",
          "Description": "CVE-2018-11235"
        },
        {
          "URL": "https://bugzilla.suse.com/1095219",
          "Description": "SUSE Bug 1095219"
        }
      ],
      "ProductStatuses": [
        {
          "Type": "Fixed",
          "ProductID": [
            "openSUSE Tumbleweed:libgit2-1_1-1.1.1-1.2",
            "openSUSE Tumbleweed:libgit2-1_1-32bit-1.1.1-1.2",
            "openSUSE Tumbleweed:libgit2-devel-1.1.1-1.2"
          ]
        }
      ],
      "CVSSScoreSets": {}
    },
    {
      "CVE": "CVE-2018-17456",
      "Description": "Git before 2.14.5, 2.15.x before 2.15.3, 2.16.x before 2.16.5, 2.17.x before 2.17.2, 2.18.x before 2.18.1, and 2.19.x before 2.19.1 allows remote code execution during processing of a recursive \"git clone\" of a superproject if a .gitmodules file has a URL field beginning with a '-' character.",
      "Threats": [
        {
          "Type": "Impact",
          "Severity": "important"
        }
      ],
      "References": [
        {
          "URL": "https://www.suse.com/security/cve/CVE-2018-17456.html",
          "Description": "CVE-2018-17456"
        },
        {
          "URL": "https://bugzilla.suse.com/1110949",
          "Description": "SUSE Bug 1110949"
        }
      ],
      "ProductStatuses": [
        {
          "Type": "Fixed",
          "ProductID": [
            "openSUSE Tumbleweed:libgit2-1_1-1.1.1-1.2",
            "openSUSE Tumbleweed:libgit2-1_1-32bit-1.1.1-1.2",
            "openSUSE Tumbleweed:libgit2-devel-1.1.1-1.2"
          ]
        }
      ],
      "CVSSScoreSets": {}
    },
    {
      "CVE": "CVE-2018-8098",
      "Description": "Integer overflow in the index.c:read_entry() function while decompressing a compressed prefix length in libgit2 before v0.26.2 allows an attacker to cause a denial of service (out-of-bounds read) via a crafted repository index file.",
      "Threats": [
        {
          "Type": "Impact",
          "Severity": "moderate"
        }
      ],
      "References": [
        {
          "URL": "https://www.suse.com/security/cve/CVE-2018-8098.html",
          "Description": "CVE-2018-8098"
        },
        {
          "URL": "https://bugzilla.suse.com/1085256",
          "Description": "SUSE Bug 1085256"
        },
        {
          "URL": "https://bugzilla.suse.com/1085257",
          "Description": "SUSE Bug 1085257"
        }
      ],
      "ProductStatuses": [
        {
          "Type": "Fixed",
          "ProductID": [
            "openSUSE Tumbleweed:libgit2-1_1-1.1.1-1.2",
            "openSUSE Tumbleweed:libgit2-1_1-32bit-1.1.1-1.2",
            "openSUSE Tumbleweed:libgit2-devel-1.1.1-1.2"
          ]
        }
      ],
      "CVSSScoreSets": {}
    },
    {
      "CVE": "CVE-2019-1348",
      "Description": "An issue was found in Git before v2.24.1, v2.23.1, v2.22.2, v2.21.1, v2.20.2, v2.19.3, v2.18.2, v2.17.3, v2.16.6, v2.15.4, and v2.14.6. The --export-marks option of git fast-import is exposed also via the in-stream command feature export-marks=... and it allows overwriting arbitrary paths.",
      "Threats": [
        {
          "Type": "Impact",
          "Severity": "low"
        }
      ],
      "References": [
        {
          "URL": "https://www.suse.com/security/cve/CVE-2019-1348.html",
          "Description": "CVE-2019-1348"
        },
        {
          "URL": "https://bugzilla.suse.com/1158785",
          "Description": "SUSE Bug 1158785"
        }
      ],
      "ProductStatuses": [
        {
          "Type": "Fixed",
          "ProductID": [
            "openSUSE Tumbleweed:libgit2-1_1-1.1.1-1.2",
            "openSUSE Tumbleweed:libgit2-1_1-32bit-1.1.1-1.2",
            "openSUSE Tumbleweed:libgit2-devel-1.1.1-1.2"
          ]
        }
      ],
      "CVSSScoreSets": {}
    },
    {
      "CVE": "CVE-2019-1349",
      "Description": "A remote code execution vulnerability exists when Git for Visual Studio improperly sanitizes input, aka 'Git for Visual Studio Remote Code Execution Vulnerability'. This CVE ID is unique from CVE-2019-1350, CVE-2019-1352, CVE-2019-1354, CVE-2019-1387.",
      "Threats": [
        {
          "Type": "Impact",
          "Severity": "critical"
        }
      ],
      "References": [
        {
          "URL": "https://www.suse.com/security/cve/CVE-2019-1349.html",
          "Description": "CVE-2019-1349"
        },
        {
          "URL": "https://bugzilla.suse.com/1158785",
          "Description": "SUSE Bug 1158785"
        },
        {
          "URL": "https://bugzilla.suse.com/1158787",
          "Description": "SUSE Bug 1158787"
        }
      ],
      "ProductStatuses": [
        {
          "Type": "Fixed",
          "ProductID": [
            "openSUSE Tumbleweed:libgit2-1_1-1.1.1-1.2",
            "openSUSE Tumbleweed:libgit2-1_1-32bit-1.1.1-1.2",
            "openSUSE Tumbleweed:libgit2-devel-1.1.1-1.2"
          ]
        }
      ],
      "CVSSScoreSets": {}
    },
    {
      "CVE": "CVE-2019-1350",
      "Description": "A remote code execution vulnerability exists when Git for Visual Studio improperly sanitizes input, aka 'Git for Visual Studio Remote Code Execution Vulnerability'. This CVE ID is unique from CVE-2019-1349, CVE-2019-1352, CVE-2019-1354, CVE-2019-1387.",
      "Threats": [
        {
          "Type": "Impact",
          "Severity": "critical"
        }
      ],
      "References": [
        {
          "URL": "https://www.suse.com/security/cve/CVE-2019-1350.html",
          "Description": "CVE-2019-1350"
        },
        {
          "URL": "https://bugzilla.suse.com/1158785",
          "Description": "SUSE Bug 1158785"
        },
        {
          "URL": "https://bugzilla.suse.com/1158788",
          "Description": "SUSE Bug 1158788"
        }
      ],
      "ProductStatuses": [
        {
          "Type": "Fixed",
          "ProductID": [
            "openSUSE Tumbleweed:libgit2-1_1-1.1.1-1.2",
            "openSUSE Tumbleweed:libgit2-1_1-32bit-1.1.1-1.2",
            "openSUSE Tumbleweed:libgit2-devel-1.1.1-1.2"
          ]
        }
      ],
      "CVSSScoreSets": {}
    },
    {
      "CVE": "CVE-2019-1351",
      "Description": "A tampering vulnerability exists when Git for Visual Studio improperly handles virtual drive paths, aka 'Git for Visual Studio Tampering Vulnerability'.",
      "Threats": [
        {
          "Type": "Impact",
          "Severity": "important"
        }
      ],
      "References": [
        {
          "URL": "https://www.suse.com/security/cve/CVE-2019-1351.html",
          "Description": "CVE-2019-1351"
        },
        {
          "URL": "https://bugzilla.suse.com/1158785",
          "Description": "SUSE Bug 1158785"
        },
        {
          "URL": "https://bugzilla.suse.com/1158789",
          "Description": "SUSE Bug 1158789"
        }
      ],
      "ProductStatuses": [
        {
          "Type": "Fixed",
          "ProductID": [
            "openSUSE Tumbleweed:libgit2-1_1-1.1.1-1.2",
            "openSUSE Tumbleweed:libgit2-1_1-32bit-1.1.1-1.2",
            "openSUSE Tumbleweed:libgit2-devel-1.1.1-1.2"
          ]
        }
      ],
      "CVSSScoreSets": {}
    },
    {
      "CVE": "CVE-2019-1352",
      "Description": "A remote code execution vulnerability exists when Git for Visual Studio improperly sanitizes input, aka 'Git for Visual Studio Remote Code Execution Vulnerability'. This CVE ID is unique from CVE-2019-1349, CVE-2019-1350, CVE-2019-1354, CVE-2019-1387.",
      "Threats": [
        {
          "Type": "Impact",
          "Severity": "critical"
        }
      ],
      "References": [
        {
          "URL": "https://www.suse.com/security/cve/CVE-2019-1352.html",
          "Description": "CVE-2019-1352"
        },
        {
          "URL": "https://bugzilla.suse.com/1158785",
          "Description": "SUSE Bug 1158785"
        },
        {
          "URL": "https://bugzilla.suse.com/1158787",
          "Description": "SUSE Bug 1158787"
        },
        {
          "URL": "https://bugzilla.suse.com/1158790",
          "Description": "SUSE Bug 1158790"
        }
      ],
      "ProductStatuses": [
        {
          "Type": "Fixed",
          "ProductID": [
            "openSUSE Tumbleweed:libgit2-1_1-1.1.1-1.2",
            "openSUSE Tumbleweed:libgit2-1_1-32bit-1.1.1-1.2",
            "openSUSE Tumbleweed:libgit2-devel-1.1.1-1.2"
          ]
        }
      ],
      "CVSSScoreSets": {}
    },
    {
      "CVE": "CVE-2019-1353",
      "Description": "An issue was found in Git before v2.24.1, v2.23.1, v2.22.2, v2.21.1, v2.20.2, v2.19.3, v2.18.2, v2.17.3, v2.16.6, v2.15.4, and v2.14.6. When running Git in the Windows Subsystem for Linux (also known as \"WSL\") while accessing a working directory on a regular Windows drive, none of the NTFS protections were active.",
      "Threats": [
        {
          "Type": "Impact",
          "Severity": "critical"
        }
      ],
      "References": [
        {
          "URL": "https://www.suse.com/security/cve/CVE-2019-1353.html",
          "Description": "CVE-2019-1353"
        },
        {
          "URL": "https://bugzilla.suse.com/1158785",
          "Description": "SUSE Bug 1158785"
        },
        {
          "URL": "https://bugzilla.suse.com/1158791",
          "Description": "SUSE Bug 1158791"
        }
      ],
      "ProductStatuses": [
        {
          "Type": "Fixed",
          "ProductID": [
            "openSUSE Tumbleweed:libgit2-1_1-1.1.1-1.2",
            "openSUSE Tumbleweed:libgit2-1_1-32bit-1.1.1-1.2",
            "openSUSE Tumbleweed:libgit2-devel-1.1.1-1.2"
          ]
        }
      ],
      "CVSSScoreSets": {}
    },
    {
      "CVE": "CVE-2019-1354",
      "Description": "A remote code execution vulnerability exists when Git for Visual Studio improperly sanitizes input, aka 'Git for Visual Studio Remote Code Execution Vulnerability'. This CVE ID is unique from CVE-2019-1349, CVE-2019-1350, CVE-2019-1352, CVE-2019-1387.",
      "Threats": [
        {
          "Type": "Impact",
          "Severity": "low"
        }
      ],
      "References": [
        {
          "URL": "https://www.suse.com/security/cve/CVE-2019-1354.html",
          "Description": "CVE-2019-1354"
        },
        {
          "URL": "https://bugzilla.suse.com/1158785",
          "Description": "SUSE Bug 1158785"
        },
        {
          "URL": "https://bugzilla.suse.com/1158792",
          "Description": "SUSE Bug 1158792"
        }
      ],
      "ProductStatuses": [
        {
          "Type": "Fixed",
          "ProductID": [
            "openSUSE Tumbleweed:libgit2-1_1-1.1.1-1.2",
            "openSUSE Tumbleweed:libgit2-1_1-32bit-1.1.1-1.2",
            "openSUSE Tumbleweed:libgit2-devel-1.1.1-1.2"
          ]
        }
      ],
      "CVSSScoreSets": {}
    },
    {
      "CVE": "CVE-2019-1387",
      "Description": "An issue was found in Git before v2.24.1, v2.23.1, v2.22.2, v2.21.1, v2.20.2, v2.19.3, v2.18.2, v2.17.3, v2.16.6, v2.15.4, and v2.14.6. Recursive clones are currently affected by a vulnerability that is caused by too-lax validation of submodule names, allowing very targeted attacks via remote code execution in recursive clones.",
      "Threats": [
        {
          "Type": "Impact",
          "Severity": "important"
        }
      ],
      "References": [
        {
          "URL": "https://www.suse.com/security/cve/CVE-2019-1387.html",
          "Description": "CVE-2019-1387"
        },
        {
          "URL": "https://bugzilla.suse.com/1158785",
          "Description": "SUSE Bug 1158785"
        },
        {
          "URL": "https://bugzilla.suse.com/1158793",
          "Description": "SUSE Bug 1158793"
        }
      ],
      "ProductStatuses": [
        {
          "Type": "Fixed",
          "ProductID": [
            "openSUSE Tumbleweed:libgit2-1_1-1.1.1-1.2",
            "openSUSE Tumbleweed:libgit2-1_1-32bit-1.1.1-1.2",
            "openSUSE Tumbleweed:libgit2-devel-1.1.1-1.2"
          ]
        }
      ],
      "CVSSScoreSets": {}
    }
  ]
}