{
  "Title": "buildkit-0.12.5-2.1 on GA media",
  "Tracking": {
    "ID": "openSUSE-SU-2024:13688-1",
    "Status": "Final",
    "Version": "1",
    "InitialReleaseDate": "2024-06-20T21:44:22Z",
    "CurrentReleaseDate": "2024-06-20T21:44:22Z",
    "RevisionHistory": [
      {
        "Number": "1",
        "Date": "2024-06-20T21:44:22Z",
        "Description": "current"
      }
    ]
  },
  "Notes": [
    {
      "Text": "buildkit-0.12.5-2.1 on GA media",
      "Title": "Topic",
      "Type": "Summary"
    },
    {
      "Text": "These are all security issues fixed in the buildkit-0.12.5-2.1 package on the GA media of openSUSE Tumbleweed.",
      "Title": "Details",
      "Type": "General"
    },
    {
      "Text": "The CVRF data is provided by SUSE under the Creative Commons License 4.0 with Attribution (CC-BY-4.0).",
      "Title": "Terms of Use",
      "Type": "Legal Disclaimer"
    },
    {
      "Text": "openSUSE-Tumbleweed-2024-13688",
      "Title": "Patchnames",
      "Type": "Details"
    }
  ],
  "ProductTree": {
    "Relationships": [
      {
        "ProductReference": "buildkit-0.12.5-2.1",
        "RelatesToProductReference": "openSUSE Tumbleweed",
        "RelationType": "Default Component Of"
      }
    ]
  },
  "References": [
    {
      "URL": "https://www.suse.com/support/security/rating/",
      "Description": "SUSE Security Ratings"
    },
    {
      "URL": "https://www.suse.com/security/cve/CVE-2024-23653/",
      "Description": "SUSE CVE CVE-2024-23653 page"
    }
  ],
  "Vulnerabilities": [
    {
      "CVE": "CVE-2024-23653",
      "Description": "BuildKit is a toolkit for converting source code to build artifacts in an efficient, expressive and repeatable manner. In addition to running containers as build steps, BuildKit also provides APIs for running interactive containers based on built images. It was possible to use these APIs to ask BuildKit to run a container with elevated privileges. Normally, running such containers is only allowed if special `security.insecure` entitlement is enabled both by buildkitd configuration and allowed by the user initializing the build request. The issue has been fixed in v0.12.5 . Avoid using BuildKit frontends from untrusted sources. \n",
      "Threats": [
        {
          "Type": "Impact",
          "Severity": "moderate"
        }
      ],
      "References": [
        {
          "URL": "https://www.suse.com/security/cve/CVE-2024-23653.html",
          "Description": "CVE-2024-23653"
        },
        {
          "URL": "https://bugzilla.suse.com/1219438",
          "Description": "SUSE Bug 1219438"
        }
      ],
      "ProductStatuses": [
        {
          "Type": "Fixed",
          "ProductID": [
            "openSUSE Tumbleweed:buildkit-0.12.5-2.1"
          ]
        }
      ],
      "CVSSScoreSets": {}
    }
  ]
}