{
  "Title": "aom-tools-3.2.0-2.1 on GA media",
  "Tracking": {
    "ID": "openSUSE-SU-2024:11642-1",
    "Status": "Final",
    "Version": "1",
    "InitialReleaseDate": "2024-06-22T21:44:56Z",
    "CurrentReleaseDate": "2024-06-22T21:44:56Z",
    "RevisionHistory": [
      {
        "Number": "1",
        "Date": "2024-06-22T21:44:56Z",
        "Description": "current"
      }
    ]
  },
  "Notes": [
    {
      "Text": "aom-tools-3.2.0-2.1 on GA media",
      "Title": "Topic",
      "Type": "Summary"
    },
    {
      "Text": "These are all security issues fixed in the aom-tools-3.2.0-2.1 package on the GA media of openSUSE Tumbleweed.",
      "Title": "Details",
      "Type": "General"
    },
    {
      "Text": "The CVRF data is provided by SUSE under the Creative Commons License 4.0 with Attribution (CC-BY-4.0).",
      "Title": "Terms of Use",
      "Type": "Legal Disclaimer"
    },
    {
      "Text": "openSUSE-Tumbleweed-2024-11642",
      "Title": "Patchnames",
      "Type": "Details"
    }
  ],
  "ProductTree": {
    "Relationships": [
      {
        "ProductReference": "aom-tools-3.2.0-2.1",
        "RelatesToProductReference": "openSUSE Tumbleweed",
        "RelationType": "Default Component Of"
      },
      {
        "ProductReference": "libaom-devel-3.2.0-2.1",
        "RelatesToProductReference": "openSUSE Tumbleweed",
        "RelationType": "Default Component Of"
      },
      {
        "ProductReference": "libaom-devel-doc-3.2.0-2.1",
        "RelatesToProductReference": "openSUSE Tumbleweed",
        "RelationType": "Default Component Of"
      },
      {
        "ProductReference": "libaom3-3.2.0-2.1",
        "RelatesToProductReference": "openSUSE Tumbleweed",
        "RelationType": "Default Component Of"
      },
      {
        "ProductReference": "libaom3-32bit-3.2.0-2.1",
        "RelatesToProductReference": "openSUSE Tumbleweed",
        "RelationType": "Default Component Of"
      }
    ]
  },
  "References": [
    {
      "URL": "https://www.suse.com/support/security/rating/",
      "Description": "SUSE Security Ratings"
    },
    {
      "URL": "https://www.suse.com/security/cve/CVE-2021-30474/",
      "Description": "SUSE CVE CVE-2021-30474 page"
    }
  ],
  "Vulnerabilities": [
    {
      "CVE": "CVE-2021-30474",
      "Description": "aom_dsp/grain_table.c in libaom in AOMedia before 2021-03-30 has a use-after-free.",
      "Threats": [
        {
          "Type": "Impact",
          "Severity": "moderate"
        }
      ],
      "References": [
        {
          "URL": "https://www.suse.com/security/cve/CVE-2021-30474.html",
          "Description": "CVE-2021-30474"
        },
        {
          "URL": "https://bugzilla.suse.com/1186799",
          "Description": "SUSE Bug 1186799"
        }
      ],
      "ProductStatuses": [
        {
          "Type": "Fixed",
          "ProductID": [
            "openSUSE Tumbleweed:aom-tools-3.2.0-2.1",
            "openSUSE Tumbleweed:libaom-devel-3.2.0-2.1",
            "openSUSE Tumbleweed:libaom-devel-doc-3.2.0-2.1",
            "openSUSE Tumbleweed:libaom3-3.2.0-2.1",
            "openSUSE Tumbleweed:libaom3-32bit-3.2.0-2.1"
          ]
        }
      ],
      "CVSSScoreSets": {}
    }
  ]
}