{
  "Title": "nano-8.0-2.1 on GA media",
  "Tracking": {
    "ID": "openSUSE-SU-2024:14034-1",
    "Status": "Final",
    "Version": "1",
    "InitialReleaseDate": "2024-06-20T21:44:22Z",
    "CurrentReleaseDate": "2024-06-20T21:44:22Z",
    "RevisionHistory": [
      {
        "Number": "1",
        "Date": "2024-06-20T21:44:22Z",
        "Description": "current"
      }
    ]
  },
  "Notes": [
    {
      "Text": "nano-8.0-2.1 on GA media",
      "Title": "Topic",
      "Type": "Summary"
    },
    {
      "Text": "These are all security issues fixed in the nano-8.0-2.1 package on the GA media of openSUSE Tumbleweed.",
      "Title": "Details",
      "Type": "General"
    },
    {
      "Text": "The CVRF data is provided by SUSE under the Creative Commons License 4.0 with Attribution (CC-BY-4.0).",
      "Title": "Terms of Use",
      "Type": "Legal Disclaimer"
    },
    {
      "Text": "openSUSE-Tumbleweed-2024-14034",
      "Title": "Patchnames",
      "Type": "Details"
    }
  ],
  "ProductTree": {
    "Relationships": [
      {
        "ProductReference": "nano-8.0-2.1",
        "RelatesToProductReference": "openSUSE Tumbleweed",
        "RelationType": "Default Component Of"
      },
      {
        "ProductReference": "nano-lang-8.0-2.1",
        "RelatesToProductReference": "openSUSE Tumbleweed",
        "RelationType": "Default Component Of"
      }
    ]
  },
  "References": [
    {
      "URL": "https://www.suse.com/support/security/rating/",
      "Description": "SUSE Security Ratings"
    },
    {
      "URL": "https://www.suse.com/security/cve/CVE-2024-5742/",
      "Description": "SUSE CVE CVE-2024-5742 page"
    }
  ],
  "Vulnerabilities": [
    {
      "CVE": "CVE-2024-5742",
      "Description": "A vulnerability was found in GNU Nano that allows a possible privilege escalation through an insecure temporary file. If Nano is killed while editing, a file it saves to an emergency file with the permissions of the running user provides a window of opportunity for attackers to escalate privileges through a malicious symlink.",
      "Threats": [
        {
          "Type": "Impact",
          "Severity": "moderate"
        }
      ],
      "References": [
        {
          "URL": "https://www.suse.com/security/cve/CVE-2024-5742.html",
          "Description": "CVE-2024-5742"
        },
        {
          "URL": "https://bugzilla.suse.com/1226099",
          "Description": "SUSE Bug 1226099"
        }
      ],
      "ProductStatuses": [
        {
          "Type": "Fixed",
          "ProductID": [
            "openSUSE Tumbleweed:nano-8.0-2.1",
            "openSUSE Tumbleweed:nano-lang-8.0-2.1"
          ]
        }
      ],
      "CVSSScoreSets": {}
    }
  ]
}