{
  "Title": "gstreamer-plugins-bad-1.22.6-2.1 on GA media",
  "Tracking": {
    "ID": "openSUSE-SU-2024:13396-1",
    "Status": "Final",
    "Version": "1",
    "InitialReleaseDate": "2024-06-20T21:44:22Z",
    "CurrentReleaseDate": "2024-06-20T21:44:22Z",
    "RevisionHistory": [
      {
        "Number": "1",
        "Date": "2024-06-20T21:44:22Z",
        "Description": "current"
      }
    ]
  },
  "Notes": [
    {
      "Text": "gstreamer-plugins-bad-1.22.6-2.1 on GA media",
      "Title": "Topic",
      "Type": "Summary"
    },
    {
      "Text": "These are all security issues fixed in the gstreamer-plugins-bad-1.22.6-2.1 package on the GA media of openSUSE Tumbleweed.",
      "Title": "Details",
      "Type": "General"
    },
    {
      "Text": "The CVRF data is provided by SUSE under the Creative Commons License 4.0 with Attribution (CC-BY-4.0).",
      "Title": "Terms of Use",
      "Type": "Legal Disclaimer"
    },
    {
      "Text": "openSUSE-Tumbleweed-2024-13396",
      "Title": "Patchnames",
      "Type": "Details"
    }
  ],
  "ProductTree": {
    "Relationships": [
      {
        "ProductReference": "gstreamer-plugins-bad-1.22.6-2.1",
        "RelatesToProductReference": "openSUSE Tumbleweed",
        "RelationType": "Default Component Of"
      },
      {
        "ProductReference": "gstreamer-plugins-bad-32bit-1.22.6-2.1",
        "RelatesToProductReference": "openSUSE Tumbleweed",
        "RelationType": "Default Component Of"
      },
      {
        "ProductReference": "gstreamer-plugins-bad-chromaprint-1.22.6-2.1",
        "RelatesToProductReference": "openSUSE Tumbleweed",
        "RelationType": "Default Component Of"
      },
      {
        "ProductReference": "gstreamer-plugins-bad-chromaprint-32bit-1.22.6-2.1",
        "RelatesToProductReference": "openSUSE Tumbleweed",
        "RelationType": "Default Component Of"
      },
      {
        "ProductReference": "gstreamer-plugins-bad-devel-1.22.6-2.1",
        "RelatesToProductReference": "openSUSE Tumbleweed",
        "RelationType": "Default Component Of"
      },
      {
        "ProductReference": "gstreamer-plugins-bad-fluidsynth-1.22.6-2.1",
        "RelatesToProductReference": "openSUSE Tumbleweed",
        "RelationType": "Default Component Of"
      },
      {
        "ProductReference": "gstreamer-plugins-bad-fluidsynth-32bit-1.22.6-2.1",
        "RelatesToProductReference": "openSUSE Tumbleweed",
        "RelationType": "Default Component Of"
      },
      {
        "ProductReference": "gstreamer-plugins-bad-lang-1.22.6-2.1",
        "RelatesToProductReference": "openSUSE Tumbleweed",
        "RelationType": "Default Component Of"
      },
      {
        "ProductReference": "gstreamer-transcoder-1.22.6-2.1",
        "RelatesToProductReference": "openSUSE Tumbleweed",
        "RelationType": "Default Component Of"
      },
      {
        "ProductReference": "gstreamer-transcoder-devel-1.22.6-2.1",
        "RelatesToProductReference": "openSUSE Tumbleweed",
        "RelationType": "Default Component Of"
      },
      {
        "ProductReference": "libgstadaptivedemux-1_0-0-1.22.6-2.1",
        "RelatesToProductReference": "openSUSE Tumbleweed",
        "RelationType": "Default Component Of"
      },
      {
        "ProductReference": "libgstadaptivedemux-1_0-0-32bit-1.22.6-2.1",
        "RelatesToProductReference": "openSUSE Tumbleweed",
        "RelationType": "Default Component Of"
      },
      {
        "ProductReference": "libgstbadaudio-1_0-0-1.22.6-2.1",
        "RelatesToProductReference": "openSUSE Tumbleweed",
        "RelationType": "Default Component Of"
      },
      {
        "ProductReference": "libgstbadaudio-1_0-0-32bit-1.22.6-2.1",
        "RelatesToProductReference": "openSUSE Tumbleweed",
        "RelationType": "Default Component Of"
      },
      {
        "ProductReference": "libgstbasecamerabinsrc-1_0-0-1.22.6-2.1",
        "RelatesToProductReference": "openSUSE Tumbleweed",
        "RelationType": "Default Component Of"
      },
      {
        "ProductReference": "libgstbasecamerabinsrc-1_0-0-32bit-1.22.6-2.1",
        "RelatesToProductReference": "openSUSE Tumbleweed",
        "RelationType": "Default Component Of"
      },
      {
        "ProductReference": "libgstcodecparsers-1_0-0-1.22.6-2.1",
        "RelatesToProductReference": "openSUSE Tumbleweed",
        "RelationType": "Default Component Of"
      },
      {
        "ProductReference": "libgstcodecparsers-1_0-0-32bit-1.22.6-2.1",
        "RelatesToProductReference": "openSUSE Tumbleweed",
        "RelationType": "Default Component Of"
      },
      {
        "ProductReference": "libgstcodecs-1_0-0-1.22.6-2.1",
        "RelatesToProductReference": "openSUSE Tumbleweed",
        "RelationType": "Default Component Of"
      },
      {
        "ProductReference": "libgstcodecs-1_0-0-32bit-1.22.6-2.1",
        "RelatesToProductReference": "openSUSE Tumbleweed",
        "RelationType": "Default Component Of"
      },
      {
        "ProductReference": "libgstcuda-1_0-0-1.22.6-2.1",
        "RelatesToProductReference": "openSUSE Tumbleweed",
        "RelationType": "Default Component Of"
      },
      {
        "ProductReference": "libgstcuda-1_0-0-32bit-1.22.6-2.1",
        "RelatesToProductReference": "openSUSE Tumbleweed",
        "RelationType": "Default Component Of"
      },
      {
        "ProductReference": "libgstinsertbin-1_0-0-1.22.6-2.1",
        "RelatesToProductReference": "openSUSE Tumbleweed",
        "RelationType": "Default Component Of"
      },
      {
        "ProductReference": "libgstinsertbin-1_0-0-32bit-1.22.6-2.1",
        "RelatesToProductReference": "openSUSE Tumbleweed",
        "RelationType": "Default Component Of"
      },
      {
        "ProductReference": "libgstisoff-1_0-0-1.22.6-2.1",
        "RelatesToProductReference": "openSUSE Tumbleweed",
        "RelationType": "Default Component Of"
      },
      {
        "ProductReference": "libgstisoff-1_0-0-32bit-1.22.6-2.1",
        "RelatesToProductReference": "openSUSE Tumbleweed",
        "RelationType": "Default Component Of"
      },
      {
        "ProductReference": "libgstmpegts-1_0-0-1.22.6-2.1",
        "RelatesToProductReference": "openSUSE Tumbleweed",
        "RelationType": "Default Component Of"
      },
      {
        "ProductReference": "libgstmpegts-1_0-0-32bit-1.22.6-2.1",
        "RelatesToProductReference": "openSUSE Tumbleweed",
        "RelationType": "Default Component Of"
      },
      {
        "ProductReference": "libgstphotography-1_0-0-1.22.6-2.1",
        "RelatesToProductReference": "openSUSE Tumbleweed",
        "RelationType": "Default Component Of"
      },
      {
        "ProductReference": "libgstphotography-1_0-0-32bit-1.22.6-2.1",
        "RelatesToProductReference": "openSUSE Tumbleweed",
        "RelationType": "Default Component Of"
      },
      {
        "ProductReference": "libgstplay-1_0-0-1.22.6-2.1",
        "RelatesToProductReference": "openSUSE Tumbleweed",
        "RelationType": "Default Component Of"
      },
      {
        "ProductReference": "libgstplay-1_0-0-32bit-1.22.6-2.1",
        "RelatesToProductReference": "openSUSE Tumbleweed",
        "RelationType": "Default Component Of"
      },
      {
        "ProductReference": "libgstplayer-1_0-0-1.22.6-2.1",
        "RelatesToProductReference": "openSUSE Tumbleweed",
        "RelationType": "Default Component Of"
      },
      {
        "ProductReference": "libgstplayer-1_0-0-32bit-1.22.6-2.1",
        "RelatesToProductReference": "openSUSE Tumbleweed",
        "RelationType": "Default Component Of"
      },
      {
        "ProductReference": "libgstsctp-1_0-0-1.22.6-2.1",
        "RelatesToProductReference": "openSUSE Tumbleweed",
        "RelationType": "Default Component Of"
      },
      {
        "ProductReference": "libgstsctp-1_0-0-32bit-1.22.6-2.1",
        "RelatesToProductReference": "openSUSE Tumbleweed",
        "RelationType": "Default Component Of"
      },
      {
        "ProductReference": "libgsttranscoder-1_0-0-1.22.6-2.1",
        "RelatesToProductReference": "openSUSE Tumbleweed",
        "RelationType": "Default Component Of"
      },
      {
        "ProductReference": "libgsttranscoder-1_0-0-32bit-1.22.6-2.1",
        "RelatesToProductReference": "openSUSE Tumbleweed",
        "RelationType": "Default Component Of"
      },
      {
        "ProductReference": "libgsturidownloader-1_0-0-1.22.6-2.1",
        "RelatesToProductReference": "openSUSE Tumbleweed",
        "RelationType": "Default Component Of"
      },
      {
        "ProductReference": "libgsturidownloader-1_0-0-32bit-1.22.6-2.1",
        "RelatesToProductReference": "openSUSE Tumbleweed",
        "RelationType": "Default Component Of"
      },
      {
        "ProductReference": "libgstva-1_0-0-1.22.6-2.1",
        "RelatesToProductReference": "openSUSE Tumbleweed",
        "RelationType": "Default Component Of"
      },
      {
        "ProductReference": "libgstva-1_0-0-32bit-1.22.6-2.1",
        "RelatesToProductReference": "openSUSE Tumbleweed",
        "RelationType": "Default Component Of"
      },
      {
        "ProductReference": "libgstvulkan-1_0-0-1.22.6-2.1",
        "RelatesToProductReference": "openSUSE Tumbleweed",
        "RelationType": "Default Component Of"
      },
      {
        "ProductReference": "libgstvulkan-1_0-0-32bit-1.22.6-2.1",
        "RelatesToProductReference": "openSUSE Tumbleweed",
        "RelationType": "Default Component Of"
      },
      {
        "ProductReference": "libgstwayland-1_0-0-1.22.6-2.1",
        "RelatesToProductReference": "openSUSE Tumbleweed",
        "RelationType": "Default Component Of"
      },
      {
        "ProductReference": "libgstwayland-1_0-0-32bit-1.22.6-2.1",
        "RelatesToProductReference": "openSUSE Tumbleweed",
        "RelationType": "Default Component Of"
      },
      {
        "ProductReference": "libgstwebrtc-1_0-0-1.22.6-2.1",
        "RelatesToProductReference": "openSUSE Tumbleweed",
        "RelationType": "Default Component Of"
      },
      {
        "ProductReference": "libgstwebrtc-1_0-0-32bit-1.22.6-2.1",
        "RelatesToProductReference": "openSUSE Tumbleweed",
        "RelationType": "Default Component Of"
      },
      {
        "ProductReference": "libgstwebrtcnice-1_0-0-1.22.6-2.1",
        "RelatesToProductReference": "openSUSE Tumbleweed",
        "RelationType": "Default Component Of"
      },
      {
        "ProductReference": "libgstwebrtcnice-1_0-0-32bit-1.22.6-2.1",
        "RelatesToProductReference": "openSUSE Tumbleweed",
        "RelationType": "Default Component Of"
      },
      {
        "ProductReference": "typelib-1_0-CudaGst-1_0-1.22.6-2.1",
        "RelatesToProductReference": "openSUSE Tumbleweed",
        "RelationType": "Default Component Of"
      },
      {
        "ProductReference": "typelib-1_0-GstBadAudio-1_0-1.22.6-2.1",
        "RelatesToProductReference": "openSUSE Tumbleweed",
        "RelationType": "Default Component Of"
      },
      {
        "ProductReference": "typelib-1_0-GstCodecs-1_0-1.22.6-2.1",
        "RelatesToProductReference": "openSUSE Tumbleweed",
        "RelationType": "Default Component Of"
      },
      {
        "ProductReference": "typelib-1_0-GstCuda-1_0-1.22.6-2.1",
        "RelatesToProductReference": "openSUSE Tumbleweed",
        "RelationType": "Default Component Of"
      },
      {
        "ProductReference": "typelib-1_0-GstInsertBin-1_0-1.22.6-2.1",
        "RelatesToProductReference": "openSUSE Tumbleweed",
        "RelationType": "Default Component Of"
      },
      {
        "ProductReference": "typelib-1_0-GstMpegts-1_0-1.22.6-2.1",
        "RelatesToProductReference": "openSUSE Tumbleweed",
        "RelationType": "Default Component Of"
      },
      {
        "ProductReference": "typelib-1_0-GstPlay-1_0-1.22.6-2.1",
        "RelatesToProductReference": "openSUSE Tumbleweed",
        "RelationType": "Default Component Of"
      },
      {
        "ProductReference": "typelib-1_0-GstPlayer-1_0-1.22.6-2.1",
        "RelatesToProductReference": "openSUSE Tumbleweed",
        "RelationType": "Default Component Of"
      },
      {
        "ProductReference": "typelib-1_0-GstTranscoder-1_0-1.22.6-2.1",
        "RelatesToProductReference": "openSUSE Tumbleweed",
        "RelationType": "Default Component Of"
      },
      {
        "ProductReference": "typelib-1_0-GstVa-1_0-1.22.6-2.1",
        "RelatesToProductReference": "openSUSE Tumbleweed",
        "RelationType": "Default Component Of"
      },
      {
        "ProductReference": "typelib-1_0-GstVulkan-1_0-1.22.6-2.1",
        "RelatesToProductReference": "openSUSE Tumbleweed",
        "RelationType": "Default Component Of"
      },
      {
        "ProductReference": "typelib-1_0-GstVulkanWayland-1_0-1.22.6-2.1",
        "RelatesToProductReference": "openSUSE Tumbleweed",
        "RelationType": "Default Component Of"
      },
      {
        "ProductReference": "typelib-1_0-GstVulkanXCB-1_0-1.22.6-2.1",
        "RelatesToProductReference": "openSUSE Tumbleweed",
        "RelationType": "Default Component Of"
      },
      {
        "ProductReference": "typelib-1_0-GstWebRTC-1_0-1.22.6-2.1",
        "RelatesToProductReference": "openSUSE Tumbleweed",
        "RelationType": "Default Component Of"
      }
    ]
  },
  "References": [
    {
      "URL": "https://www.suse.com/support/security/rating/",
      "Description": "SUSE Security Ratings"
    },
    {
      "URL": "https://www.suse.com/security/cve/CVE-2023-40474/",
      "Description": "SUSE CVE CVE-2023-40474 page"
    },
    {
      "URL": "https://www.suse.com/security/cve/CVE-2023-40476/",
      "Description": "SUSE CVE CVE-2023-40476 page"
    }
  ],
  "Vulnerabilities": [
    {
      "CVE": "CVE-2023-40474",
      "Description": "GStreamer MXF File Parsing Integer Overflow Remote Code Execution Vulnerability. This vulnerability allows remote attackers to execute arbitrary code on affected installations of GStreamer. Interaction with this library is required to exploit this vulnerability but attack vectors may vary depending on the implementation.\n\nThe specific flaw exists within the parsing of MXF video files. The issue results from the lack of proper validation of user-supplied data, which can result in an integer overflow before allocating a buffer. An attacker can leverage this vulnerability to execute code in the context of the current process. Was ZDI-CAN-21660.",
      "Threats": [
        {
          "Type": "Impact",
          "Severity": "moderate"
        }
      ],
      "References": [
        {
          "URL": "https://www.suse.com/security/cve/CVE-2023-40474.html",
          "Description": "CVE-2023-40474"
        },
        {
          "URL": "https://bugzilla.suse.com/1215796",
          "Description": "SUSE Bug 1215796"
        }
      ],
      "ProductStatuses": [
        {
          "Type": "Fixed",
          "ProductID": [
            "openSUSE Tumbleweed:gstreamer-plugins-bad-1.22.6-2.1",
            "openSUSE Tumbleweed:gstreamer-plugins-bad-32bit-1.22.6-2.1",
            "openSUSE Tumbleweed:gstreamer-plugins-bad-chromaprint-1.22.6-2.1",
            "openSUSE Tumbleweed:gstreamer-plugins-bad-chromaprint-32bit-1.22.6-2.1",
            "openSUSE Tumbleweed:gstreamer-plugins-bad-devel-1.22.6-2.1",
            "openSUSE Tumbleweed:gstreamer-plugins-bad-fluidsynth-1.22.6-2.1",
            "openSUSE Tumbleweed:gstreamer-plugins-bad-fluidsynth-32bit-1.22.6-2.1",
            "openSUSE Tumbleweed:gstreamer-plugins-bad-lang-1.22.6-2.1",
            "openSUSE Tumbleweed:gstreamer-transcoder-1.22.6-2.1",
            "openSUSE Tumbleweed:gstreamer-transcoder-devel-1.22.6-2.1",
            "openSUSE Tumbleweed:libgstadaptivedemux-1_0-0-1.22.6-2.1",
            "openSUSE Tumbleweed:libgstadaptivedemux-1_0-0-32bit-1.22.6-2.1",
            "openSUSE Tumbleweed:libgstbadaudio-1_0-0-1.22.6-2.1",
            "openSUSE Tumbleweed:libgstbadaudio-1_0-0-32bit-1.22.6-2.1",
            "openSUSE Tumbleweed:libgstbasecamerabinsrc-1_0-0-1.22.6-2.1",
            "openSUSE Tumbleweed:libgstbasecamerabinsrc-1_0-0-32bit-1.22.6-2.1",
            "openSUSE Tumbleweed:libgstcodecparsers-1_0-0-1.22.6-2.1",
            "openSUSE Tumbleweed:libgstcodecparsers-1_0-0-32bit-1.22.6-2.1",
            "openSUSE Tumbleweed:libgstcodecs-1_0-0-1.22.6-2.1",
            "openSUSE Tumbleweed:libgstcodecs-1_0-0-32bit-1.22.6-2.1",
            "openSUSE Tumbleweed:libgstcuda-1_0-0-1.22.6-2.1",
            "openSUSE Tumbleweed:libgstcuda-1_0-0-32bit-1.22.6-2.1",
            "openSUSE Tumbleweed:libgstinsertbin-1_0-0-1.22.6-2.1",
            "openSUSE Tumbleweed:libgstinsertbin-1_0-0-32bit-1.22.6-2.1",
            "openSUSE Tumbleweed:libgstisoff-1_0-0-1.22.6-2.1",
            "openSUSE Tumbleweed:libgstisoff-1_0-0-32bit-1.22.6-2.1",
            "openSUSE Tumbleweed:libgstmpegts-1_0-0-1.22.6-2.1",
            "openSUSE Tumbleweed:libgstmpegts-1_0-0-32bit-1.22.6-2.1",
            "openSUSE Tumbleweed:libgstphotography-1_0-0-1.22.6-2.1",
            "openSUSE Tumbleweed:libgstphotography-1_0-0-32bit-1.22.6-2.1",
            "openSUSE Tumbleweed:libgstplay-1_0-0-1.22.6-2.1",
            "openSUSE Tumbleweed:libgstplay-1_0-0-32bit-1.22.6-2.1",
            "openSUSE Tumbleweed:libgstplayer-1_0-0-1.22.6-2.1",
            "openSUSE Tumbleweed:libgstplayer-1_0-0-32bit-1.22.6-2.1",
            "openSUSE Tumbleweed:libgstsctp-1_0-0-1.22.6-2.1",
            "openSUSE Tumbleweed:libgstsctp-1_0-0-32bit-1.22.6-2.1",
            "openSUSE Tumbleweed:libgsttranscoder-1_0-0-1.22.6-2.1",
            "openSUSE Tumbleweed:libgsttranscoder-1_0-0-32bit-1.22.6-2.1",
            "openSUSE Tumbleweed:libgsturidownloader-1_0-0-1.22.6-2.1",
            "openSUSE Tumbleweed:libgsturidownloader-1_0-0-32bit-1.22.6-2.1",
            "openSUSE Tumbleweed:libgstva-1_0-0-1.22.6-2.1",
            "openSUSE Tumbleweed:libgstva-1_0-0-32bit-1.22.6-2.1",
            "openSUSE Tumbleweed:libgstvulkan-1_0-0-1.22.6-2.1",
            "openSUSE Tumbleweed:libgstvulkan-1_0-0-32bit-1.22.6-2.1",
            "openSUSE Tumbleweed:libgstwayland-1_0-0-1.22.6-2.1",
            "openSUSE Tumbleweed:libgstwayland-1_0-0-32bit-1.22.6-2.1",
            "openSUSE Tumbleweed:libgstwebrtc-1_0-0-1.22.6-2.1",
            "openSUSE Tumbleweed:libgstwebrtc-1_0-0-32bit-1.22.6-2.1",
            "openSUSE Tumbleweed:libgstwebrtcnice-1_0-0-1.22.6-2.1",
            "openSUSE Tumbleweed:libgstwebrtcnice-1_0-0-32bit-1.22.6-2.1",
            "openSUSE Tumbleweed:typelib-1_0-CudaGst-1_0-1.22.6-2.1",
            "openSUSE Tumbleweed:typelib-1_0-GstBadAudio-1_0-1.22.6-2.1",
            "openSUSE Tumbleweed:typelib-1_0-GstCodecs-1_0-1.22.6-2.1",
            "openSUSE Tumbleweed:typelib-1_0-GstCuda-1_0-1.22.6-2.1",
            "openSUSE Tumbleweed:typelib-1_0-GstInsertBin-1_0-1.22.6-2.1",
            "openSUSE Tumbleweed:typelib-1_0-GstMpegts-1_0-1.22.6-2.1",
            "openSUSE Tumbleweed:typelib-1_0-GstPlay-1_0-1.22.6-2.1",
            "openSUSE Tumbleweed:typelib-1_0-GstPlayer-1_0-1.22.6-2.1",
            "openSUSE Tumbleweed:typelib-1_0-GstTranscoder-1_0-1.22.6-2.1",
            "openSUSE Tumbleweed:typelib-1_0-GstVa-1_0-1.22.6-2.1",
            "openSUSE Tumbleweed:typelib-1_0-GstVulkan-1_0-1.22.6-2.1",
            "openSUSE Tumbleweed:typelib-1_0-GstVulkanWayland-1_0-1.22.6-2.1",
            "openSUSE Tumbleweed:typelib-1_0-GstVulkanXCB-1_0-1.22.6-2.1",
            "openSUSE Tumbleweed:typelib-1_0-GstWebRTC-1_0-1.22.6-2.1"
          ]
        }
      ],
      "CVSSScoreSets": {}
    },
    {
      "CVE": "CVE-2023-40476",
      "Description": "GStreamer H265 Parsing Stack-based Buffer Overflow Remote Code Execution Vulnerability. This vulnerability allows remote attackers to execute arbitrary code on affected installations of GStreamer. Interaction with this library is required to exploit this vulnerability but attack vectors may vary depending on the implementation.\n\nThe specific flaw exists within the parsing of H265 encoded video files. The issue results from the lack of proper validation of the length of user-supplied data prior to copying it to a fixed-length stack-based buffer. An attacker can leverage this vulnerability to execute code in the context of the current process. Was ZDI-CAN-21768.",
      "Threats": [
        {
          "Type": "Impact",
          "Severity": "moderate"
        }
      ],
      "References": [
        {
          "URL": "https://www.suse.com/security/cve/CVE-2023-40476.html",
          "Description": "CVE-2023-40476"
        },
        {
          "URL": "https://bugzilla.suse.com/1215793",
          "Description": "SUSE Bug 1215793"
        }
      ],
      "ProductStatuses": [
        {
          "Type": "Fixed",
          "ProductID": [
            "openSUSE Tumbleweed:gstreamer-plugins-bad-1.22.6-2.1",
            "openSUSE Tumbleweed:gstreamer-plugins-bad-32bit-1.22.6-2.1",
            "openSUSE Tumbleweed:gstreamer-plugins-bad-chromaprint-1.22.6-2.1",
            "openSUSE Tumbleweed:gstreamer-plugins-bad-chromaprint-32bit-1.22.6-2.1",
            "openSUSE Tumbleweed:gstreamer-plugins-bad-devel-1.22.6-2.1",
            "openSUSE Tumbleweed:gstreamer-plugins-bad-fluidsynth-1.22.6-2.1",
            "openSUSE Tumbleweed:gstreamer-plugins-bad-fluidsynth-32bit-1.22.6-2.1",
            "openSUSE Tumbleweed:gstreamer-plugins-bad-lang-1.22.6-2.1",
            "openSUSE Tumbleweed:gstreamer-transcoder-1.22.6-2.1",
            "openSUSE Tumbleweed:gstreamer-transcoder-devel-1.22.6-2.1",
            "openSUSE Tumbleweed:libgstadaptivedemux-1_0-0-1.22.6-2.1",
            "openSUSE Tumbleweed:libgstadaptivedemux-1_0-0-32bit-1.22.6-2.1",
            "openSUSE Tumbleweed:libgstbadaudio-1_0-0-1.22.6-2.1",
            "openSUSE Tumbleweed:libgstbadaudio-1_0-0-32bit-1.22.6-2.1",
            "openSUSE Tumbleweed:libgstbasecamerabinsrc-1_0-0-1.22.6-2.1",
            "openSUSE Tumbleweed:libgstbasecamerabinsrc-1_0-0-32bit-1.22.6-2.1",
            "openSUSE Tumbleweed:libgstcodecparsers-1_0-0-1.22.6-2.1",
            "openSUSE Tumbleweed:libgstcodecparsers-1_0-0-32bit-1.22.6-2.1",
            "openSUSE Tumbleweed:libgstcodecs-1_0-0-1.22.6-2.1",
            "openSUSE Tumbleweed:libgstcodecs-1_0-0-32bit-1.22.6-2.1",
            "openSUSE Tumbleweed:libgstcuda-1_0-0-1.22.6-2.1",
            "openSUSE Tumbleweed:libgstcuda-1_0-0-32bit-1.22.6-2.1",
            "openSUSE Tumbleweed:libgstinsertbin-1_0-0-1.22.6-2.1",
            "openSUSE Tumbleweed:libgstinsertbin-1_0-0-32bit-1.22.6-2.1",
            "openSUSE Tumbleweed:libgstisoff-1_0-0-1.22.6-2.1",
            "openSUSE Tumbleweed:libgstisoff-1_0-0-32bit-1.22.6-2.1",
            "openSUSE Tumbleweed:libgstmpegts-1_0-0-1.22.6-2.1",
            "openSUSE Tumbleweed:libgstmpegts-1_0-0-32bit-1.22.6-2.1",
            "openSUSE Tumbleweed:libgstphotography-1_0-0-1.22.6-2.1",
            "openSUSE Tumbleweed:libgstphotography-1_0-0-32bit-1.22.6-2.1",
            "openSUSE Tumbleweed:libgstplay-1_0-0-1.22.6-2.1",
            "openSUSE Tumbleweed:libgstplay-1_0-0-32bit-1.22.6-2.1",
            "openSUSE Tumbleweed:libgstplayer-1_0-0-1.22.6-2.1",
            "openSUSE Tumbleweed:libgstplayer-1_0-0-32bit-1.22.6-2.1",
            "openSUSE Tumbleweed:libgstsctp-1_0-0-1.22.6-2.1",
            "openSUSE Tumbleweed:libgstsctp-1_0-0-32bit-1.22.6-2.1",
            "openSUSE Tumbleweed:libgsttranscoder-1_0-0-1.22.6-2.1",
            "openSUSE Tumbleweed:libgsttranscoder-1_0-0-32bit-1.22.6-2.1",
            "openSUSE Tumbleweed:libgsturidownloader-1_0-0-1.22.6-2.1",
            "openSUSE Tumbleweed:libgsturidownloader-1_0-0-32bit-1.22.6-2.1",
            "openSUSE Tumbleweed:libgstva-1_0-0-1.22.6-2.1",
            "openSUSE Tumbleweed:libgstva-1_0-0-32bit-1.22.6-2.1",
            "openSUSE Tumbleweed:libgstvulkan-1_0-0-1.22.6-2.1",
            "openSUSE Tumbleweed:libgstvulkan-1_0-0-32bit-1.22.6-2.1",
            "openSUSE Tumbleweed:libgstwayland-1_0-0-1.22.6-2.1",
            "openSUSE Tumbleweed:libgstwayland-1_0-0-32bit-1.22.6-2.1",
            "openSUSE Tumbleweed:libgstwebrtc-1_0-0-1.22.6-2.1",
            "openSUSE Tumbleweed:libgstwebrtc-1_0-0-32bit-1.22.6-2.1",
            "openSUSE Tumbleweed:libgstwebrtcnice-1_0-0-1.22.6-2.1",
            "openSUSE Tumbleweed:libgstwebrtcnice-1_0-0-32bit-1.22.6-2.1",
            "openSUSE Tumbleweed:typelib-1_0-CudaGst-1_0-1.22.6-2.1",
            "openSUSE Tumbleweed:typelib-1_0-GstBadAudio-1_0-1.22.6-2.1",
            "openSUSE Tumbleweed:typelib-1_0-GstCodecs-1_0-1.22.6-2.1",
            "openSUSE Tumbleweed:typelib-1_0-GstCuda-1_0-1.22.6-2.1",
            "openSUSE Tumbleweed:typelib-1_0-GstInsertBin-1_0-1.22.6-2.1",
            "openSUSE Tumbleweed:typelib-1_0-GstMpegts-1_0-1.22.6-2.1",
            "openSUSE Tumbleweed:typelib-1_0-GstPlay-1_0-1.22.6-2.1",
            "openSUSE Tumbleweed:typelib-1_0-GstPlayer-1_0-1.22.6-2.1",
            "openSUSE Tumbleweed:typelib-1_0-GstTranscoder-1_0-1.22.6-2.1",
            "openSUSE Tumbleweed:typelib-1_0-GstVa-1_0-1.22.6-2.1",
            "openSUSE Tumbleweed:typelib-1_0-GstVulkan-1_0-1.22.6-2.1",
            "openSUSE Tumbleweed:typelib-1_0-GstVulkanWayland-1_0-1.22.6-2.1",
            "openSUSE Tumbleweed:typelib-1_0-GstVulkanXCB-1_0-1.22.6-2.1",
            "openSUSE Tumbleweed:typelib-1_0-GstWebRTC-1_0-1.22.6-2.1"
          ]
        }
      ],
      "CVSSScoreSets": {}
    }
  ]
}