{
  "Title": "htmldoc-1.9.15-2.1 on GA media",
  "Tracking": {
    "ID": "openSUSE-SU-2024:12035-1",
    "Status": "Final",
    "Version": "1",
    "InitialReleaseDate": "2024-06-20T21:44:22Z",
    "CurrentReleaseDate": "2024-06-20T21:44:22Z",
    "RevisionHistory": [
      {
        "Number": "1",
        "Date": "2024-06-20T21:44:22Z",
        "Description": "current"
      }
    ]
  },
  "Notes": [
    {
      "Text": "htmldoc-1.9.15-2.1 on GA media",
      "Title": "Topic",
      "Type": "Summary"
    },
    {
      "Text": "These are all security issues fixed in the htmldoc-1.9.15-2.1 package on the GA media of openSUSE Tumbleweed.",
      "Title": "Details",
      "Type": "General"
    },
    {
      "Text": "The CVRF data is provided by SUSE under the Creative Commons License 4.0 with Attribution (CC-BY-4.0).",
      "Title": "Terms of Use",
      "Type": "Legal Disclaimer"
    },
    {
      "Text": "openSUSE-Tumbleweed-2024-12035",
      "Title": "Patchnames",
      "Type": "Details"
    }
  ],
  "ProductTree": {
    "Relationships": [
      {
        "ProductReference": "htmldoc-1.9.15-2.1",
        "RelatesToProductReference": "openSUSE Tumbleweed",
        "RelationType": "Default Component Of"
      }
    ]
  },
  "References": [
    {
      "URL": "https://www.suse.com/support/security/rating/",
      "Description": "SUSE Security Ratings"
    },
    {
      "URL": "https://www.suse.com/security/cve/CVE-2022-28085/",
      "Description": "SUSE CVE CVE-2022-28085 page"
    }
  ],
  "Vulnerabilities": [
    {
      "CVE": "CVE-2022-28085",
      "Description": "A flaw was found in htmldoc commit 31f7804. A heap buffer overflow in the function pdf_write_names in ps-pdf.cxx may lead to arbitrary code execution and Denial of Service (DoS).",
      "Threats": [
        {
          "Type": "Impact",
          "Severity": "moderate"
        }
      ],
      "References": [
        {
          "URL": "https://www.suse.com/security/cve/CVE-2022-28085.html",
          "Description": "CVE-2022-28085"
        },
        {
          "URL": "https://bugzilla.suse.com/1198933",
          "Description": "SUSE Bug 1198933"
        }
      ],
      "ProductStatuses": [
        {
          "Type": "Fixed",
          "ProductID": [
            "openSUSE Tumbleweed:htmldoc-1.9.15-2.1"
          ]
        }
      ],
      "CVSSScoreSets": {}
    }
  ]
}