{
  "Title": "kernel-devel-6.0.7-1.1 on GA media",
  "Tracking": {
    "ID": "openSUSE-SU-2024:12484-1",
    "Status": "Final",
    "Version": "1",
    "InitialReleaseDate": "2024-06-20T21:44:22Z",
    "CurrentReleaseDate": "2024-06-20T21:44:22Z",
    "RevisionHistory": [
      {
        "Number": "1",
        "Date": "2024-06-20T21:44:22Z",
        "Description": "current"
      }
    ]
  },
  "Notes": [
    {
      "Text": "kernel-devel-6.0.7-1.1 on GA media",
      "Title": "Topic",
      "Type": "Summary"
    },
    {
      "Text": "These are all security issues fixed in the kernel-devel-6.0.7-1.1 package on the GA media of openSUSE Tumbleweed.",
      "Title": "Details",
      "Type": "General"
    },
    {
      "Text": "The CVRF data is provided by SUSE under the Creative Commons License 4.0 with Attribution (CC-BY-4.0).",
      "Title": "Terms of Use",
      "Type": "Legal Disclaimer"
    },
    {
      "Text": "openSUSE-Tumbleweed-2024-12484",
      "Title": "Patchnames",
      "Type": "Details"
    }
  ],
  "ProductTree": {
    "Relationships": [
      {
        "ProductReference": "kernel-devel-6.0.7-1.1",
        "RelatesToProductReference": "openSUSE Tumbleweed",
        "RelationType": "Default Component Of"
      },
      {
        "ProductReference": "kernel-macros-6.0.7-1.1",
        "RelatesToProductReference": "openSUSE Tumbleweed",
        "RelationType": "Default Component Of"
      },
      {
        "ProductReference": "kernel-source-6.0.7-1.1",
        "RelatesToProductReference": "openSUSE Tumbleweed",
        "RelationType": "Default Component Of"
      },
      {
        "ProductReference": "kernel-source-vanilla-6.0.7-1.1",
        "RelatesToProductReference": "openSUSE Tumbleweed",
        "RelationType": "Default Component Of"
      }
    ]
  },
  "References": [
    {
      "URL": "https://www.suse.com/support/security/rating/",
      "Description": "SUSE Security Ratings"
    },
    {
      "URL": "https://www.suse.com/security/cve/CVE-2022-3628/",
      "Description": "SUSE CVE CVE-2022-3628 page"
    }
  ],
  "Vulnerabilities": [
    {
      "CVE": "CVE-2022-3628",
      "Description": "A buffer overflow flaw was found in the Linux kernel Broadcom Full MAC Wi-Fi driver. This issue occurs when a user connects to a malicious USB device. This can allow a local user to crash the system or escalate their privileges.",
      "Threats": [
        {
          "Type": "Impact",
          "Severity": "moderate"
        }
      ],
      "References": [
        {
          "URL": "https://www.suse.com/security/cve/CVE-2022-3628.html",
          "Description": "CVE-2022-3628"
        },
        {
          "URL": "https://bugzilla.suse.com/1204868",
          "Description": "SUSE Bug 1204868"
        }
      ],
      "ProductStatuses": [
        {
          "Type": "Fixed",
          "ProductID": [
            "openSUSE Tumbleweed:kernel-devel-6.0.7-1.1",
            "openSUSE Tumbleweed:kernel-macros-6.0.7-1.1",
            "openSUSE Tumbleweed:kernel-source-6.0.7-1.1",
            "openSUSE Tumbleweed:kernel-source-vanilla-6.0.7-1.1"
          ]
        }
      ],
      "CVSSScoreSets": {}
    }
  ]
}