{
  "Title": "debuginfod-dummy-client-0.185-3.1 on GA media",
  "Tracking": {
    "ID": "openSUSE-SU-2024:10733-1",
    "Status": "Final",
    "Version": "1",
    "InitialReleaseDate": "2024-06-22T21:44:56Z",
    "CurrentReleaseDate": "2024-06-22T21:44:56Z",
    "RevisionHistory": [
      {
        "Number": "1",
        "Date": "2024-06-22T21:44:56Z",
        "Description": "current"
      }
    ]
  },
  "Notes": [
    {
      "Text": "debuginfod-dummy-client-0.185-3.1 on GA media",
      "Title": "Topic",
      "Type": "Summary"
    },
    {
      "Text": "These are all security issues fixed in the debuginfod-dummy-client-0.185-3.1 package on the GA media of openSUSE Tumbleweed.",
      "Title": "Details",
      "Type": "General"
    },
    {
      "Text": "The CVRF data is provided by SUSE under the Creative Commons License 4.0 with Attribution (CC-BY-4.0).",
      "Title": "Terms of Use",
      "Type": "Legal Disclaimer"
    },
    {
      "Text": "openSUSE-Tumbleweed-2024-10733",
      "Title": "Patchnames",
      "Type": "Details"
    }
  ],
  "ProductTree": {
    "Relationships": [
      {
        "ProductReference": "debuginfod-dummy-client-0.185-3.1",
        "RelatesToProductReference": "openSUSE Tumbleweed",
        "RelationType": "Default Component Of"
      },
      {
        "ProductReference": "elfutils-0.185-3.1",
        "RelatesToProductReference": "openSUSE Tumbleweed",
        "RelationType": "Default Component Of"
      },
      {
        "ProductReference": "elfutils-lang-0.185-3.1",
        "RelatesToProductReference": "openSUSE Tumbleweed",
        "RelationType": "Default Component Of"
      },
      {
        "ProductReference": "libasm-devel-0.185-3.1",
        "RelatesToProductReference": "openSUSE Tumbleweed",
        "RelationType": "Default Component Of"
      },
      {
        "ProductReference": "libasm1-0.185-3.1",
        "RelatesToProductReference": "openSUSE Tumbleweed",
        "RelationType": "Default Component Of"
      },
      {
        "ProductReference": "libasm1-32bit-0.185-3.1",
        "RelatesToProductReference": "openSUSE Tumbleweed",
        "RelationType": "Default Component Of"
      },
      {
        "ProductReference": "libdebuginfod-dummy-devel-0.185-3.1",
        "RelatesToProductReference": "openSUSE Tumbleweed",
        "RelationType": "Default Component Of"
      },
      {
        "ProductReference": "libdebuginfod1-dummy-0.185-3.1",
        "RelatesToProductReference": "openSUSE Tumbleweed",
        "RelationType": "Default Component Of"
      },
      {
        "ProductReference": "libdw-devel-0.185-3.1",
        "RelatesToProductReference": "openSUSE Tumbleweed",
        "RelationType": "Default Component Of"
      },
      {
        "ProductReference": "libdw1-0.185-3.1",
        "RelatesToProductReference": "openSUSE Tumbleweed",
        "RelationType": "Default Component Of"
      },
      {
        "ProductReference": "libdw1-32bit-0.185-3.1",
        "RelatesToProductReference": "openSUSE Tumbleweed",
        "RelationType": "Default Component Of"
      },
      {
        "ProductReference": "libelf-devel-0.185-3.1",
        "RelatesToProductReference": "openSUSE Tumbleweed",
        "RelationType": "Default Component Of"
      },
      {
        "ProductReference": "libelf-devel-32bit-0.185-3.1",
        "RelatesToProductReference": "openSUSE Tumbleweed",
        "RelationType": "Default Component Of"
      },
      {
        "ProductReference": "libelf1-0.185-3.1",
        "RelatesToProductReference": "openSUSE Tumbleweed",
        "RelationType": "Default Component Of"
      },
      {
        "ProductReference": "libelf1-32bit-0.185-3.1",
        "RelatesToProductReference": "openSUSE Tumbleweed",
        "RelationType": "Default Component Of"
      }
    ]
  },
  "References": [
    {
      "URL": "https://www.suse.com/support/security/rating/",
      "Description": "SUSE Security Ratings"
    },
    {
      "URL": "https://www.suse.com/security/cve/CVE-2018-18310/",
      "Description": "SUSE CVE CVE-2018-18310 page"
    },
    {
      "URL": "https://www.suse.com/security/cve/CVE-2019-7146/",
      "Description": "SUSE CVE CVE-2019-7146 page"
    },
    {
      "URL": "https://www.suse.com/security/cve/CVE-2019-7664/",
      "Description": "SUSE CVE CVE-2019-7664 page"
    }
  ],
  "Vulnerabilities": [
    {
      "CVE": "CVE-2018-18310",
      "Description": "An invalid memory address dereference was discovered in dwfl_segment_report_module.c in libdwfl in elfutils through v0.174. The vulnerability allows attackers to cause a denial of service (application crash) with a crafted ELF file, as demonstrated by consider_notes.",
      "Threats": [
        {
          "Type": "Impact",
          "Severity": "low"
        }
      ],
      "References": [
        {
          "URL": "https://www.suse.com/security/cve/CVE-2018-18310.html",
          "Description": "CVE-2018-18310"
        },
        {
          "URL": "https://bugzilla.suse.com/1111973",
          "Description": "SUSE Bug 1111973"
        }
      ],
      "ProductStatuses": [
        {
          "Type": "Fixed",
          "ProductID": [
            "openSUSE Tumbleweed:debuginfod-dummy-client-0.185-3.1",
            "openSUSE Tumbleweed:elfutils-0.185-3.1",
            "openSUSE Tumbleweed:elfutils-lang-0.185-3.1",
            "openSUSE Tumbleweed:libasm-devel-0.185-3.1",
            "openSUSE Tumbleweed:libasm1-0.185-3.1",
            "openSUSE Tumbleweed:libasm1-32bit-0.185-3.1",
            "openSUSE Tumbleweed:libdebuginfod-dummy-devel-0.185-3.1",
            "openSUSE Tumbleweed:libdebuginfod1-dummy-0.185-3.1",
            "openSUSE Tumbleweed:libdw-devel-0.185-3.1",
            "openSUSE Tumbleweed:libdw1-0.185-3.1",
            "openSUSE Tumbleweed:libdw1-32bit-0.185-3.1",
            "openSUSE Tumbleweed:libelf-devel-0.185-3.1",
            "openSUSE Tumbleweed:libelf-devel-32bit-0.185-3.1",
            "openSUSE Tumbleweed:libelf1-0.185-3.1",
            "openSUSE Tumbleweed:libelf1-32bit-0.185-3.1"
          ]
        }
      ],
      "CVSSScoreSets": {}
    },
    {
      "CVE": "CVE-2019-7146",
      "Description": "In elfutils 0.175, there is a buffer over-read in the ebl_object_note function in eblobjnote.c in libebl. Remote attackers could leverage this vulnerability to cause a denial-of-service via a crafted elf file, as demonstrated by eu-readelf.",
      "Threats": [
        {
          "Type": "Impact",
          "Severity": "low"
        }
      ],
      "References": [
        {
          "URL": "https://www.suse.com/security/cve/CVE-2019-7146.html",
          "Description": "CVE-2019-7146"
        },
        {
          "URL": "https://bugzilla.suse.com/1123545",
          "Description": "SUSE Bug 1123545"
        }
      ],
      "ProductStatuses": [
        {
          "Type": "Fixed",
          "ProductID": [
            "openSUSE Tumbleweed:debuginfod-dummy-client-0.185-3.1",
            "openSUSE Tumbleweed:elfutils-0.185-3.1",
            "openSUSE Tumbleweed:elfutils-lang-0.185-3.1",
            "openSUSE Tumbleweed:libasm-devel-0.185-3.1",
            "openSUSE Tumbleweed:libasm1-0.185-3.1",
            "openSUSE Tumbleweed:libasm1-32bit-0.185-3.1",
            "openSUSE Tumbleweed:libdebuginfod-dummy-devel-0.185-3.1",
            "openSUSE Tumbleweed:libdebuginfod1-dummy-0.185-3.1",
            "openSUSE Tumbleweed:libdw-devel-0.185-3.1",
            "openSUSE Tumbleweed:libdw1-0.185-3.1",
            "openSUSE Tumbleweed:libdw1-32bit-0.185-3.1",
            "openSUSE Tumbleweed:libelf-devel-0.185-3.1",
            "openSUSE Tumbleweed:libelf-devel-32bit-0.185-3.1",
            "openSUSE Tumbleweed:libelf1-0.185-3.1",
            "openSUSE Tumbleweed:libelf1-32bit-0.185-3.1"
          ]
        }
      ],
      "CVSSScoreSets": {}
    },
    {
      "CVE": "CVE-2019-7664",
      "Description": "In elfutils 0.175, a negative-sized memcpy is attempted in elf_cvt_note in libelf/note_xlate.h because of an incorrect overflow check. Crafted elf input causes a segmentation fault, leading to denial of service (program crash).",
      "Threats": [
        {
          "Type": "Impact",
          "Severity": "low"
        }
      ],
      "References": [
        {
          "URL": "https://www.suse.com/security/cve/CVE-2019-7664.html",
          "Description": "CVE-2019-7664"
        },
        {
          "URL": "https://bugzilla.suse.com/1125008",
          "Description": "SUSE Bug 1125008"
        }
      ],
      "ProductStatuses": [
        {
          "Type": "Fixed",
          "ProductID": [
            "openSUSE Tumbleweed:debuginfod-dummy-client-0.185-3.1",
            "openSUSE Tumbleweed:elfutils-0.185-3.1",
            "openSUSE Tumbleweed:elfutils-lang-0.185-3.1",
            "openSUSE Tumbleweed:libasm-devel-0.185-3.1",
            "openSUSE Tumbleweed:libasm1-0.185-3.1",
            "openSUSE Tumbleweed:libasm1-32bit-0.185-3.1",
            "openSUSE Tumbleweed:libdebuginfod-dummy-devel-0.185-3.1",
            "openSUSE Tumbleweed:libdebuginfod1-dummy-0.185-3.1",
            "openSUSE Tumbleweed:libdw-devel-0.185-3.1",
            "openSUSE Tumbleweed:libdw1-0.185-3.1",
            "openSUSE Tumbleweed:libdw1-32bit-0.185-3.1",
            "openSUSE Tumbleweed:libelf-devel-0.185-3.1",
            "openSUSE Tumbleweed:libelf-devel-32bit-0.185-3.1",
            "openSUSE Tumbleweed:libelf1-0.185-3.1",
            "openSUSE Tumbleweed:libelf1-32bit-0.185-3.1"
          ]
        }
      ],
      "CVSSScoreSets": {}
    }
  ]
}