{
  "Title": "harfbuzz-devel-4.4.1-1.1 on GA media",
  "Tracking": {
    "ID": "openSUSE-SU-2024:12168-1",
    "Status": "Final",
    "Version": "1",
    "InitialReleaseDate": "2024-06-20T21:44:22Z",
    "CurrentReleaseDate": "2024-06-20T21:44:22Z",
    "RevisionHistory": [
      {
        "Number": "1",
        "Date": "2024-06-20T21:44:22Z",
        "Description": "current"
      }
    ]
  },
  "Notes": [
    {
      "Text": "harfbuzz-devel-4.4.1-1.1 on GA media",
      "Title": "Topic",
      "Type": "Summary"
    },
    {
      "Text": "These are all security issues fixed in the harfbuzz-devel-4.4.1-1.1 package on the GA media of openSUSE Tumbleweed.",
      "Title": "Details",
      "Type": "General"
    },
    {
      "Text": "The CVRF data is provided by SUSE under the Creative Commons License 4.0 with Attribution (CC-BY-4.0).",
      "Title": "Terms of Use",
      "Type": "Legal Disclaimer"
    },
    {
      "Text": "openSUSE-Tumbleweed-2024-12168",
      "Title": "Patchnames",
      "Type": "Details"
    }
  ],
  "ProductTree": {
    "Relationships": [
      {
        "ProductReference": "harfbuzz-devel-4.4.1-1.1",
        "RelatesToProductReference": "openSUSE Tumbleweed",
        "RelationType": "Default Component Of"
      },
      {
        "ProductReference": "harfbuzz-tools-4.4.1-1.1",
        "RelatesToProductReference": "openSUSE Tumbleweed",
        "RelationType": "Default Component Of"
      },
      {
        "ProductReference": "libharfbuzz-gobject0-4.4.1-1.1",
        "RelatesToProductReference": "openSUSE Tumbleweed",
        "RelationType": "Default Component Of"
      },
      {
        "ProductReference": "libharfbuzz-gobject0-32bit-4.4.1-1.1",
        "RelatesToProductReference": "openSUSE Tumbleweed",
        "RelationType": "Default Component Of"
      },
      {
        "ProductReference": "libharfbuzz-icu0-4.4.1-1.1",
        "RelatesToProductReference": "openSUSE Tumbleweed",
        "RelationType": "Default Component Of"
      },
      {
        "ProductReference": "libharfbuzz-icu0-32bit-4.4.1-1.1",
        "RelatesToProductReference": "openSUSE Tumbleweed",
        "RelationType": "Default Component Of"
      },
      {
        "ProductReference": "libharfbuzz-subset0-4.4.1-1.1",
        "RelatesToProductReference": "openSUSE Tumbleweed",
        "RelationType": "Default Component Of"
      },
      {
        "ProductReference": "libharfbuzz-subset0-32bit-4.4.1-1.1",
        "RelatesToProductReference": "openSUSE Tumbleweed",
        "RelationType": "Default Component Of"
      },
      {
        "ProductReference": "libharfbuzz0-4.4.1-1.1",
        "RelatesToProductReference": "openSUSE Tumbleweed",
        "RelationType": "Default Component Of"
      },
      {
        "ProductReference": "libharfbuzz0-32bit-4.4.1-1.1",
        "RelatesToProductReference": "openSUSE Tumbleweed",
        "RelationType": "Default Component Of"
      },
      {
        "ProductReference": "typelib-1_0-HarfBuzz-0_0-4.4.1-1.1",
        "RelatesToProductReference": "openSUSE Tumbleweed",
        "RelationType": "Default Component Of"
      }
    ]
  },
  "References": [
    {
      "URL": "https://www.suse.com/support/security/rating/",
      "Description": "SUSE Security Ratings"
    },
    {
      "URL": "https://www.suse.com/security/cve/CVE-2022-33068/",
      "Description": "SUSE CVE CVE-2022-33068 page"
    }
  ],
  "Vulnerabilities": [
    {
      "CVE": "CVE-2022-33068",
      "Description": "An integer overflow in the component hb-ot-shape-fallback.cc of Harfbuzz v4.3.0 allows attackers to cause a Denial of Service (DoS) via unspecified vectors.",
      "Threats": [
        {
          "Type": "Impact",
          "Severity": "moderate"
        }
      ],
      "References": [
        {
          "URL": "https://www.suse.com/security/cve/CVE-2022-33068.html",
          "Description": "CVE-2022-33068"
        },
        {
          "URL": "https://bugzilla.suse.com/1200900",
          "Description": "SUSE Bug 1200900"
        }
      ],
      "ProductStatuses": [
        {
          "Type": "Fixed",
          "ProductID": [
            "openSUSE Tumbleweed:harfbuzz-devel-4.4.1-1.1",
            "openSUSE Tumbleweed:harfbuzz-tools-4.4.1-1.1",
            "openSUSE Tumbleweed:libharfbuzz-gobject0-32bit-4.4.1-1.1",
            "openSUSE Tumbleweed:libharfbuzz-gobject0-4.4.1-1.1",
            "openSUSE Tumbleweed:libharfbuzz-icu0-32bit-4.4.1-1.1",
            "openSUSE Tumbleweed:libharfbuzz-icu0-4.4.1-1.1",
            "openSUSE Tumbleweed:libharfbuzz-subset0-32bit-4.4.1-1.1",
            "openSUSE Tumbleweed:libharfbuzz-subset0-4.4.1-1.1",
            "openSUSE Tumbleweed:libharfbuzz0-32bit-4.4.1-1.1",
            "openSUSE Tumbleweed:libharfbuzz0-4.4.1-1.1",
            "openSUSE Tumbleweed:typelib-1_0-HarfBuzz-0_0-4.4.1-1.1"
          ]
        }
      ],
      "CVSSScoreSets": {}
    }
  ]
}