{
  "Title": "libmozjs-115-0-115.2.1-1.1 on GA media",
  "Tracking": {
    "ID": "openSUSE-SU-2024:13271-1",
    "Status": "Final",
    "Version": "1",
    "InitialReleaseDate": "2024-06-20T21:44:22Z",
    "CurrentReleaseDate": "2024-06-20T21:44:22Z",
    "RevisionHistory": [
      {
        "Number": "1",
        "Date": "2024-06-20T21:44:22Z",
        "Description": "current"
      }
    ]
  },
  "Notes": [
    {
      "Text": "libmozjs-115-0-115.2.1-1.1 on GA media",
      "Title": "Topic",
      "Type": "Summary"
    },
    {
      "Text": "These are all security issues fixed in the libmozjs-115-0-115.2.1-1.1 package on the GA media of openSUSE Tumbleweed.",
      "Title": "Details",
      "Type": "General"
    },
    {
      "Text": "The CVRF data is provided by SUSE under the Creative Commons License 4.0 with Attribution (CC-BY-4.0).",
      "Title": "Terms of Use",
      "Type": "Legal Disclaimer"
    },
    {
      "Text": "openSUSE-Tumbleweed-2024-13271",
      "Title": "Patchnames",
      "Type": "Details"
    }
  ],
  "ProductTree": {
    "Relationships": [
      {
        "ProductReference": "libmozjs-115-0-115.2.1-1.1",
        "RelatesToProductReference": "openSUSE Tumbleweed",
        "RelationType": "Default Component Of"
      },
      {
        "ProductReference": "mozjs115-115.2.1-1.1",
        "RelatesToProductReference": "openSUSE Tumbleweed",
        "RelationType": "Default Component Of"
      },
      {
        "ProductReference": "mozjs115-devel-115.2.1-1.1",
        "RelatesToProductReference": "openSUSE Tumbleweed",
        "RelationType": "Default Component Of"
      }
    ]
  },
  "References": [
    {
      "URL": "https://www.suse.com/support/security/rating/",
      "Description": "SUSE Security Ratings"
    },
    {
      "URL": "https://www.suse.com/security/cve/CVE-2023-4863/",
      "Description": "SUSE CVE CVE-2023-4863 page"
    }
  ],
  "Vulnerabilities": [
    {
      "CVE": "CVE-2023-4863",
      "Description": "Heap buffer overflow in libwebp in Google Chrome prior to 116.0.5845.187 and libwebp 1.3.2 allowed a remote attacker to perform an out of bounds memory write via a crafted HTML page. (Chromium security severity: Critical)",
      "Threats": [
        {
          "Type": "Impact",
          "Severity": "important"
        }
      ],
      "References": [
        {
          "URL": "https://www.suse.com/security/cve/CVE-2023-4863.html",
          "Description": "CVE-2023-4863"
        },
        {
          "URL": "https://bugzilla.suse.com/1215231",
          "Description": "SUSE Bug 1215231"
        },
        {
          "URL": "https://bugzilla.suse.com/1217115",
          "Description": "SUSE Bug 1217115"
        },
        {
          "URL": "https://bugzilla.suse.com/1217117",
          "Description": "SUSE Bug 1217117"
        }
      ],
      "ProductStatuses": [
        {
          "Type": "Fixed",
          "ProductID": [
            "openSUSE Tumbleweed:libmozjs-115-0-115.2.1-1.1",
            "openSUSE Tumbleweed:mozjs115-115.2.1-1.1",
            "openSUSE Tumbleweed:mozjs115-devel-115.2.1-1.1"
          ]
        }
      ],
      "CVSSScoreSets": {}
    }
  ]
}