{
  "Title": "perl-YAML-LibYAML-0.59-2.11 on GA media",
  "Tracking": {
    "ID": "openSUSE-SU-2024:10520-1",
    "Status": "Final",
    "Version": "1",
    "InitialReleaseDate": "2024-06-22T21:44:56Z",
    "CurrentReleaseDate": "2024-06-22T21:44:56Z",
    "RevisionHistory": [
      {
        "Number": "1",
        "Date": "2024-06-22T21:44:56Z",
        "Description": "current"
      }
    ]
  },
  "Notes": [
    {
      "Text": "perl-YAML-LibYAML-0.59-2.11 on GA media",
      "Title": "Topic",
      "Type": "Summary"
    },
    {
      "Text": "These are all security issues fixed in the perl-YAML-LibYAML-0.59-2.11 package on the GA media of openSUSE Tumbleweed.",
      "Title": "Details",
      "Type": "General"
    },
    {
      "Text": "The CVRF data is provided by SUSE under the Creative Commons License 4.0 with Attribution (CC-BY-4.0).",
      "Title": "Terms of Use",
      "Type": "Legal Disclaimer"
    },
    {
      "Text": "openSUSE-Tumbleweed-2024-10520",
      "Title": "Patchnames",
      "Type": "Details"
    }
  ],
  "ProductTree": {
    "Relationships": [
      {
        "ProductReference": "perl-YAML-LibYAML-0.59-2.11",
        "RelatesToProductReference": "openSUSE Tumbleweed",
        "RelationType": "Default Component Of"
      }
    ]
  },
  "References": [
    {
      "URL": "https://www.suse.com/support/security/rating/",
      "Description": "SUSE Security Ratings"
    },
    {
      "URL": "https://www.suse.com/security/cve/CVE-2012-1152/",
      "Description": "SUSE CVE CVE-2012-1152 page"
    },
    {
      "URL": "https://www.suse.com/security/cve/CVE-2013-6393/",
      "Description": "SUSE CVE CVE-2013-6393 page"
    },
    {
      "URL": "https://www.suse.com/security/cve/CVE-2014-2525/",
      "Description": "SUSE CVE CVE-2014-2525 page"
    },
    {
      "URL": "https://www.suse.com/security/cve/CVE-2014-9130/",
      "Description": "SUSE CVE CVE-2014-9130 page"
    }
  ],
  "Vulnerabilities": [
    {
      "CVE": "CVE-2012-1152",
      "Description": "Multiple format string vulnerabilities in the error reporting functionality in the YAML::LibYAML (aka YAML-LibYAML and perl-YAML-LibYAML) module 0.38 for Perl allow remote attackers to cause a denial of service (process crash) via format string specifiers in a (1) YAML stream to the Load function, (2) YAML node to the load_node function, (3) YAML mapping to the load_mapping function, or (4) YAML sequence to the load_sequence function.",
      "Threats": [
        {
          "Type": "Impact",
          "Severity": "moderate"
        }
      ],
      "References": [
        {
          "URL": "https://www.suse.com/security/cve/CVE-2012-1152.html",
          "Description": "CVE-2012-1152"
        },
        {
          "URL": "https://bugzilla.suse.com/751503",
          "Description": "SUSE Bug 751503"
        }
      ],
      "ProductStatuses": [
        {
          "Type": "Fixed",
          "ProductID": [
            "openSUSE Tumbleweed:perl-YAML-LibYAML-0.59-2.11"
          ]
        }
      ],
      "CVSSScoreSets": {}
    },
    {
      "CVE": "CVE-2013-6393",
      "Description": "The yaml_parser_scan_tag_uri function in scanner.c in LibYAML before 0.1.5 performs an incorrect cast, which allows remote attackers to cause a denial of service (application crash) and possibly execute arbitrary code via crafted tags in a YAML document, which triggers a heap-based buffer overflow.",
      "Threats": [
        {
          "Type": "Impact",
          "Severity": "moderate"
        }
      ],
      "References": [
        {
          "URL": "https://www.suse.com/security/cve/CVE-2013-6393.html",
          "Description": "CVE-2013-6393"
        },
        {
          "URL": "https://bugzilla.suse.com/860617",
          "Description": "SUSE Bug 860617"
        },
        {
          "URL": "https://bugzilla.suse.com/911782",
          "Description": "SUSE Bug 911782"
        }
      ],
      "ProductStatuses": [
        {
          "Type": "Fixed",
          "ProductID": [
            "openSUSE Tumbleweed:perl-YAML-LibYAML-0.59-2.11"
          ]
        }
      ],
      "CVSSScoreSets": {}
    },
    {
      "CVE": "CVE-2014-2525",
      "Description": "Heap-based buffer overflow in the yaml_parser_scan_uri_escapes function in LibYAML before 0.1.6 allows context-dependent attackers to execute arbitrary code via a long sequence of percent-encoded characters in a URI in a YAML file.",
      "Threats": [
        {
          "Type": "Impact",
          "Severity": "moderate"
        }
      ],
      "References": [
        {
          "URL": "https://www.suse.com/security/cve/CVE-2014-2525.html",
          "Description": "CVE-2014-2525"
        },
        {
          "URL": "https://bugzilla.suse.com/868944",
          "Description": "SUSE Bug 868944"
        },
        {
          "URL": "https://bugzilla.suse.com/911782",
          "Description": "SUSE Bug 911782"
        }
      ],
      "ProductStatuses": [
        {
          "Type": "Fixed",
          "ProductID": [
            "openSUSE Tumbleweed:perl-YAML-LibYAML-0.59-2.11"
          ]
        }
      ],
      "CVSSScoreSets": {}
    },
    {
      "CVE": "CVE-2014-9130",
      "Description": "scanner.c in LibYAML 0.1.5 and 0.1.6, as used in the YAML-LibYAML (aka YAML-XS) module for Perl, allows context-dependent attackers to cause a denial of service (assertion failure and crash) via vectors involving line-wrapping.",
      "Threats": [
        {
          "Type": "Impact",
          "Severity": "moderate"
        }
      ],
      "References": [
        {
          "URL": "https://www.suse.com/security/cve/CVE-2014-9130.html",
          "Description": "CVE-2014-9130"
        },
        {
          "URL": "https://bugzilla.suse.com/907809",
          "Description": "SUSE Bug 907809"
        },
        {
          "URL": "https://bugzilla.suse.com/911782",
          "Description": "SUSE Bug 911782"
        },
        {
          "URL": "https://bugzilla.suse.com/921588",
          "Description": "SUSE Bug 921588"
        }
      ],
      "ProductStatuses": [
        {
          "Type": "Fixed",
          "ProductID": [
            "openSUSE Tumbleweed:perl-YAML-LibYAML-0.59-2.11"
          ]
        }
      ],
      "CVSSScoreSets": {}
    }
  ]
}