{
  "Title": "java-17-openjdk-17.0.3.0-1.1 on GA media",
  "Tracking": {
    "ID": "openSUSE-SU-2024:12019-1",
    "Status": "Final",
    "Version": "1",
    "InitialReleaseDate": "2024-06-20T21:44:22Z",
    "CurrentReleaseDate": "2024-06-20T21:44:22Z",
    "RevisionHistory": [
      {
        "Number": "1",
        "Date": "2024-06-20T21:44:22Z",
        "Description": "current"
      }
    ]
  },
  "Notes": [
    {
      "Text": "java-17-openjdk-17.0.3.0-1.1 on GA media",
      "Title": "Topic",
      "Type": "Summary"
    },
    {
      "Text": "These are all security issues fixed in the java-17-openjdk-17.0.3.0-1.1 package on the GA media of openSUSE Tumbleweed.",
      "Title": "Details",
      "Type": "General"
    },
    {
      "Text": "The CVRF data is provided by SUSE under the Creative Commons License 4.0 with Attribution (CC-BY-4.0).",
      "Title": "Terms of Use",
      "Type": "Legal Disclaimer"
    },
    {
      "Text": "openSUSE-Tumbleweed-2024-12019",
      "Title": "Patchnames",
      "Type": "Details"
    }
  ],
  "ProductTree": {
    "Relationships": [
      {
        "ProductReference": "java-17-openjdk-17.0.3.0-1.1",
        "RelatesToProductReference": "openSUSE Tumbleweed",
        "RelationType": "Default Component Of"
      },
      {
        "ProductReference": "java-17-openjdk-accessibility-17.0.3.0-1.1",
        "RelatesToProductReference": "openSUSE Tumbleweed",
        "RelationType": "Default Component Of"
      },
      {
        "ProductReference": "java-17-openjdk-demo-17.0.3.0-1.1",
        "RelatesToProductReference": "openSUSE Tumbleweed",
        "RelationType": "Default Component Of"
      },
      {
        "ProductReference": "java-17-openjdk-devel-17.0.3.0-1.1",
        "RelatesToProductReference": "openSUSE Tumbleweed",
        "RelationType": "Default Component Of"
      },
      {
        "ProductReference": "java-17-openjdk-headless-17.0.3.0-1.1",
        "RelatesToProductReference": "openSUSE Tumbleweed",
        "RelationType": "Default Component Of"
      },
      {
        "ProductReference": "java-17-openjdk-javadoc-17.0.3.0-1.1",
        "RelatesToProductReference": "openSUSE Tumbleweed",
        "RelationType": "Default Component Of"
      },
      {
        "ProductReference": "java-17-openjdk-jmods-17.0.3.0-1.1",
        "RelatesToProductReference": "openSUSE Tumbleweed",
        "RelationType": "Default Component Of"
      },
      {
        "ProductReference": "java-17-openjdk-src-17.0.3.0-1.1",
        "RelatesToProductReference": "openSUSE Tumbleweed",
        "RelationType": "Default Component Of"
      }
    ]
  },
  "References": [
    {
      "URL": "https://www.suse.com/support/security/rating/",
      "Description": "SUSE Security Ratings"
    },
    {
      "URL": "https://www.suse.com/security/cve/CVE-2022-21426/",
      "Description": "SUSE CVE CVE-2022-21426 page"
    },
    {
      "URL": "https://www.suse.com/security/cve/CVE-2022-21434/",
      "Description": "SUSE CVE CVE-2022-21434 page"
    },
    {
      "URL": "https://www.suse.com/security/cve/CVE-2022-21443/",
      "Description": "SUSE CVE CVE-2022-21443 page"
    },
    {
      "URL": "https://www.suse.com/security/cve/CVE-2022-21449/",
      "Description": "SUSE CVE CVE-2022-21449 page"
    },
    {
      "URL": "https://www.suse.com/security/cve/CVE-2022-21476/",
      "Description": "SUSE CVE CVE-2022-21476 page"
    },
    {
      "URL": "https://www.suse.com/security/cve/CVE-2022-21496/",
      "Description": "SUSE CVE CVE-2022-21496 page"
    }
  ],
  "Vulnerabilities": [
    {
      "CVE": "CVE-2022-21426",
      "Description": "Vulnerability in the Oracle Java SE, Oracle GraalVM Enterprise Edition product of Oracle Java SE (component: JAXP). Supported versions that are affected are Oracle Java SE: 7u331, 8u321, 11.0.14, 17.0.2, 18; Oracle GraalVM Enterprise Edition: 20.3.5, 21.3.1 and 22.0.0.2. Easily exploitable vulnerability allows unauthenticated attacker with network access via multiple protocols to compromise Oracle Java SE, Oracle GraalVM Enterprise Edition. Successful attacks of this vulnerability can result in unauthorized ability to cause a partial denial of service (partial DOS) of Oracle Java SE, Oracle GraalVM Enterprise Edition. Note: This vulnerability applies to Java deployments, typically in clients running sandboxed Java Web Start applications or sandboxed Java applets, that load and run untrusted code (e.g., code that comes from the internet) and rely on the Java sandbox for security. This vulnerability can also be exploited by using APIs in the specified Component, e.g., through a web service which supplies data to the APIs. CVSS 3.1 Base Score 5.3 (Availability impacts). CVSS Vector: (CVSS:3.1/AV:N/AC:L/PR:N/UI:N/S:U/C:N/I:N/A:L).",
      "Threats": [
        {
          "Type": "Impact",
          "Severity": "moderate"
        }
      ],
      "References": [
        {
          "URL": "https://www.suse.com/security/cve/CVE-2022-21426.html",
          "Description": "CVE-2022-21426"
        },
        {
          "URL": "https://bugzilla.suse.com/1198672",
          "Description": "SUSE Bug 1198672"
        },
        {
          "URL": "https://bugzilla.suse.com/1201643",
          "Description": "SUSE Bug 1201643"
        }
      ],
      "ProductStatuses": [
        {
          "Type": "Fixed",
          "ProductID": [
            "openSUSE Tumbleweed:java-17-openjdk-17.0.3.0-1.1",
            "openSUSE Tumbleweed:java-17-openjdk-accessibility-17.0.3.0-1.1",
            "openSUSE Tumbleweed:java-17-openjdk-demo-17.0.3.0-1.1",
            "openSUSE Tumbleweed:java-17-openjdk-devel-17.0.3.0-1.1",
            "openSUSE Tumbleweed:java-17-openjdk-headless-17.0.3.0-1.1",
            "openSUSE Tumbleweed:java-17-openjdk-javadoc-17.0.3.0-1.1",
            "openSUSE Tumbleweed:java-17-openjdk-jmods-17.0.3.0-1.1",
            "openSUSE Tumbleweed:java-17-openjdk-src-17.0.3.0-1.1"
          ]
        }
      ],
      "CVSSScoreSets": {}
    },
    {
      "CVE": "CVE-2022-21434",
      "Description": "Vulnerability in the Oracle Java SE, Oracle GraalVM Enterprise Edition product of Oracle Java SE (component: Libraries). Supported versions that are affected are Oracle Java SE: 7u331, 8u321, 11.0.14, 17.0.2, 18; Oracle GraalVM Enterprise Edition: 20.3.5, 21.3.1 and 22.0.0.2. Easily exploitable vulnerability allows unauthenticated attacker with network access via multiple protocols to compromise Oracle Java SE, Oracle GraalVM Enterprise Edition. Successful attacks of this vulnerability can result in unauthorized update, insert or delete access to some of Oracle Java SE, Oracle GraalVM Enterprise Edition accessible data. Note: This vulnerability applies to Java deployments, typically in clients running sandboxed Java Web Start applications or sandboxed Java applets, that load and run untrusted code (e.g., code that comes from the internet) and rely on the Java sandbox for security. This vulnerability can also be exploited by using APIs in the specified Component, e.g., through a web service which supplies data to the APIs. CVSS 3.1 Base Score 5.3 (Integrity impacts). CVSS Vector: (CVSS:3.1/AV:N/AC:L/PR:N/UI:N/S:U/C:N/I:L/A:N).",
      "Threats": [
        {
          "Type": "Impact",
          "Severity": "moderate"
        }
      ],
      "References": [
        {
          "URL": "https://www.suse.com/security/cve/CVE-2022-21434.html",
          "Description": "CVE-2022-21434"
        },
        {
          "URL": "https://bugzilla.suse.com/1198674",
          "Description": "SUSE Bug 1198674"
        },
        {
          "URL": "https://bugzilla.suse.com/1201643",
          "Description": "SUSE Bug 1201643"
        }
      ],
      "ProductStatuses": [
        {
          "Type": "Fixed",
          "ProductID": [
            "openSUSE Tumbleweed:java-17-openjdk-17.0.3.0-1.1",
            "openSUSE Tumbleweed:java-17-openjdk-accessibility-17.0.3.0-1.1",
            "openSUSE Tumbleweed:java-17-openjdk-demo-17.0.3.0-1.1",
            "openSUSE Tumbleweed:java-17-openjdk-devel-17.0.3.0-1.1",
            "openSUSE Tumbleweed:java-17-openjdk-headless-17.0.3.0-1.1",
            "openSUSE Tumbleweed:java-17-openjdk-javadoc-17.0.3.0-1.1",
            "openSUSE Tumbleweed:java-17-openjdk-jmods-17.0.3.0-1.1",
            "openSUSE Tumbleweed:java-17-openjdk-src-17.0.3.0-1.1"
          ]
        }
      ],
      "CVSSScoreSets": {}
    },
    {
      "CVE": "CVE-2022-21443",
      "Description": "Vulnerability in the Oracle Java SE, Oracle GraalVM Enterprise Edition product of Oracle Java SE (component: Libraries). Supported versions that are affected are Oracle Java SE: 7u331, 8u321, 11.0.14, 17.0.2, 18; Oracle GraalVM Enterprise Edition: 20.3.5, 21.3.1 and 22.0.0.2. Difficult to exploit vulnerability allows unauthenticated attacker with network access via multiple protocols to compromise Oracle Java SE, Oracle GraalVM Enterprise Edition. Successful attacks of this vulnerability can result in unauthorized ability to cause a partial denial of service (partial DOS) of Oracle Java SE, Oracle GraalVM Enterprise Edition. Note: This vulnerability applies to Java deployments, typically in clients running sandboxed Java Web Start applications or sandboxed Java applets, that load and run untrusted code (e.g., code that comes from the internet) and rely on the Java sandbox for security. This vulnerability can also be exploited by using APIs in the specified Component, e.g., through a web service which supplies data to the APIs. CVSS 3.1 Base Score 3.7 (Availability impacts). CVSS Vector: (CVSS:3.1/AV:N/AC:H/PR:N/UI:N/S:U/C:N/I:N/A:L).",
      "Threats": [
        {
          "Type": "Impact",
          "Severity": "low"
        }
      ],
      "References": [
        {
          "URL": "https://www.suse.com/security/cve/CVE-2022-21443.html",
          "Description": "CVE-2022-21443"
        },
        {
          "URL": "https://bugzilla.suse.com/1198675",
          "Description": "SUSE Bug 1198675"
        },
        {
          "URL": "https://bugzilla.suse.com/1201643",
          "Description": "SUSE Bug 1201643"
        }
      ],
      "ProductStatuses": [
        {
          "Type": "Fixed",
          "ProductID": [
            "openSUSE Tumbleweed:java-17-openjdk-17.0.3.0-1.1",
            "openSUSE Tumbleweed:java-17-openjdk-accessibility-17.0.3.0-1.1",
            "openSUSE Tumbleweed:java-17-openjdk-demo-17.0.3.0-1.1",
            "openSUSE Tumbleweed:java-17-openjdk-devel-17.0.3.0-1.1",
            "openSUSE Tumbleweed:java-17-openjdk-headless-17.0.3.0-1.1",
            "openSUSE Tumbleweed:java-17-openjdk-javadoc-17.0.3.0-1.1",
            "openSUSE Tumbleweed:java-17-openjdk-jmods-17.0.3.0-1.1",
            "openSUSE Tumbleweed:java-17-openjdk-src-17.0.3.0-1.1"
          ]
        }
      ],
      "CVSSScoreSets": {}
    },
    {
      "CVE": "CVE-2022-21449",
      "Description": "Vulnerability in the Oracle Java SE, Oracle GraalVM Enterprise Edition product of Oracle Java SE (component: Libraries). Supported versions that are affected are Oracle Java SE: 17.0.2 and 18; Oracle GraalVM Enterprise Edition: 21.3.1 and 22.0.0.2. Easily exploitable vulnerability allows unauthenticated attacker with network access via multiple protocols to compromise Oracle Java SE, Oracle GraalVM Enterprise Edition. Successful attacks of this vulnerability can result in unauthorized creation, deletion or modification access to critical data or all Oracle Java SE, Oracle GraalVM Enterprise Edition accessible data. Note: This vulnerability applies to Java deployments, typically in clients running sandboxed Java Web Start applications or sandboxed Java applets, that load and run untrusted code (e.g., code that comes from the internet) and rely on the Java sandbox for security. This vulnerability can also be exploited by using APIs in the specified Component, e.g., through a web service which supplies data to the APIs. CVSS 3.1 Base Score 7.5 (Integrity impacts). CVSS Vector: (CVSS:3.1/AV:N/AC:L/PR:N/UI:N/S:U/C:N/I:H/A:N).",
      "Threats": [
        {
          "Type": "Impact",
          "Severity": "important"
        }
      ],
      "References": [
        {
          "URL": "https://www.suse.com/security/cve/CVE-2022-21449.html",
          "Description": "CVE-2022-21449"
        },
        {
          "URL": "https://bugzilla.suse.com/1198670",
          "Description": "SUSE Bug 1198670"
        },
        {
          "URL": "https://bugzilla.suse.com/1201643",
          "Description": "SUSE Bug 1201643"
        }
      ],
      "ProductStatuses": [
        {
          "Type": "Fixed",
          "ProductID": [
            "openSUSE Tumbleweed:java-17-openjdk-17.0.3.0-1.1",
            "openSUSE Tumbleweed:java-17-openjdk-accessibility-17.0.3.0-1.1",
            "openSUSE Tumbleweed:java-17-openjdk-demo-17.0.3.0-1.1",
            "openSUSE Tumbleweed:java-17-openjdk-devel-17.0.3.0-1.1",
            "openSUSE Tumbleweed:java-17-openjdk-headless-17.0.3.0-1.1",
            "openSUSE Tumbleweed:java-17-openjdk-javadoc-17.0.3.0-1.1",
            "openSUSE Tumbleweed:java-17-openjdk-jmods-17.0.3.0-1.1",
            "openSUSE Tumbleweed:java-17-openjdk-src-17.0.3.0-1.1"
          ]
        }
      ],
      "CVSSScoreSets": {}
    },
    {
      "CVE": "CVE-2022-21476",
      "Description": "Vulnerability in the Oracle Java SE, Oracle GraalVM Enterprise Edition product of Oracle Java SE (component: Libraries). Supported versions that are affected are Oracle Java SE: 7u331, 8u321, 11.0.14, 17.0.2, 18; Oracle GraalVM Enterprise Edition: 20.3.5, 21.3.1 and 22.0.0.2. Easily exploitable vulnerability allows unauthenticated attacker with network access via multiple protocols to compromise Oracle Java SE, Oracle GraalVM Enterprise Edition. Successful attacks of this vulnerability can result in unauthorized access to critical data or complete access to all Oracle Java SE, Oracle GraalVM Enterprise Edition accessible data. Note: This vulnerability applies to Java deployments, typically in clients running sandboxed Java Web Start applications or sandboxed Java applets, that load and run untrusted code (e.g., code that comes from the internet) and rely on the Java sandbox for security. This vulnerability can also be exploited by using APIs in the specified Component, e.g., through a web service which supplies data to the APIs. CVSS 3.1 Base Score 7.5 (Confidentiality impacts). CVSS Vector: (CVSS:3.1/AV:N/AC:L/PR:N/UI:N/S:U/C:H/I:N/A:N).",
      "Threats": [
        {
          "Type": "Impact",
          "Severity": "important"
        }
      ],
      "References": [
        {
          "URL": "https://www.suse.com/security/cve/CVE-2022-21476.html",
          "Description": "CVE-2022-21476"
        },
        {
          "URL": "https://bugzilla.suse.com/1198671",
          "Description": "SUSE Bug 1198671"
        },
        {
          "URL": "https://bugzilla.suse.com/1201643",
          "Description": "SUSE Bug 1201643"
        }
      ],
      "ProductStatuses": [
        {
          "Type": "Fixed",
          "ProductID": [
            "openSUSE Tumbleweed:java-17-openjdk-17.0.3.0-1.1",
            "openSUSE Tumbleweed:java-17-openjdk-accessibility-17.0.3.0-1.1",
            "openSUSE Tumbleweed:java-17-openjdk-demo-17.0.3.0-1.1",
            "openSUSE Tumbleweed:java-17-openjdk-devel-17.0.3.0-1.1",
            "openSUSE Tumbleweed:java-17-openjdk-headless-17.0.3.0-1.1",
            "openSUSE Tumbleweed:java-17-openjdk-javadoc-17.0.3.0-1.1",
            "openSUSE Tumbleweed:java-17-openjdk-jmods-17.0.3.0-1.1",
            "openSUSE Tumbleweed:java-17-openjdk-src-17.0.3.0-1.1"
          ]
        }
      ],
      "CVSSScoreSets": {}
    },
    {
      "CVE": "CVE-2022-21496",
      "Description": "Vulnerability in the Oracle Java SE, Oracle GraalVM Enterprise Edition product of Oracle Java SE (component: JNDI). Supported versions that are affected are Oracle Java SE: 7u331, 8u321, 11.0.14, 17.0.2, 18; Oracle GraalVM Enterprise Edition: 20.3.5, 21.3.1 and 22.0.0.2. Easily exploitable vulnerability allows unauthenticated attacker with network access via multiple protocols to compromise Oracle Java SE, Oracle GraalVM Enterprise Edition. Successful attacks of this vulnerability can result in unauthorized update, insert or delete access to some of Oracle Java SE, Oracle GraalVM Enterprise Edition accessible data. Note: This vulnerability applies to Java deployments, typically in clients running sandboxed Java Web Start applications or sandboxed Java applets, that load and run untrusted code (e.g., code that comes from the internet) and rely on the Java sandbox for security. This vulnerability can also be exploited by using APIs in the specified Component, e.g., through a web service which supplies data to the APIs. CVSS 3.1 Base Score 5.3 (Integrity impacts). CVSS Vector: (CVSS:3.1/AV:N/AC:L/PR:N/UI:N/S:U/C:N/I:L/A:N).",
      "Threats": [
        {
          "Type": "Impact",
          "Severity": "moderate"
        }
      ],
      "References": [
        {
          "URL": "https://www.suse.com/security/cve/CVE-2022-21496.html",
          "Description": "CVE-2022-21496"
        },
        {
          "URL": "https://bugzilla.suse.com/1198673",
          "Description": "SUSE Bug 1198673"
        },
        {
          "URL": "https://bugzilla.suse.com/1201643",
          "Description": "SUSE Bug 1201643"
        }
      ],
      "ProductStatuses": [
        {
          "Type": "Fixed",
          "ProductID": [
            "openSUSE Tumbleweed:java-17-openjdk-17.0.3.0-1.1",
            "openSUSE Tumbleweed:java-17-openjdk-accessibility-17.0.3.0-1.1",
            "openSUSE Tumbleweed:java-17-openjdk-demo-17.0.3.0-1.1",
            "openSUSE Tumbleweed:java-17-openjdk-devel-17.0.3.0-1.1",
            "openSUSE Tumbleweed:java-17-openjdk-headless-17.0.3.0-1.1",
            "openSUSE Tumbleweed:java-17-openjdk-javadoc-17.0.3.0-1.1",
            "openSUSE Tumbleweed:java-17-openjdk-jmods-17.0.3.0-1.1",
            "openSUSE Tumbleweed:java-17-openjdk-src-17.0.3.0-1.1"
          ]
        }
      ],
      "CVSSScoreSets": {}
    }
  ]
}