{
  "Title": "rke-1.3.10-1.1 on GA media",
  "Tracking": {
    "ID": "openSUSE-SU-2024:12031-1",
    "Status": "Final",
    "Version": "1",
    "InitialReleaseDate": "2024-06-20T21:44:22Z",
    "CurrentReleaseDate": "2024-06-20T21:44:22Z",
    "RevisionHistory": [
      {
        "Number": "1",
        "Date": "2024-06-20T21:44:22Z",
        "Description": "current"
      }
    ]
  },
  "Notes": [
    {
      "Text": "rke-1.3.10-1.1 on GA media",
      "Title": "Topic",
      "Type": "Summary"
    },
    {
      "Text": "These are all security issues fixed in the rke-1.3.10-1.1 package on the GA media of openSUSE Tumbleweed.",
      "Title": "Details",
      "Type": "General"
    },
    {
      "Text": "The CVRF data is provided by SUSE under the Creative Commons License 4.0 with Attribution (CC-BY-4.0).",
      "Title": "Terms of Use",
      "Type": "Legal Disclaimer"
    },
    {
      "Text": "openSUSE-Tumbleweed-2024-12031",
      "Title": "Patchnames",
      "Type": "Details"
    }
  ],
  "ProductTree": {
    "Relationships": [
      {
        "ProductReference": "rke-1.3.10-1.1",
        "RelatesToProductReference": "openSUSE Tumbleweed",
        "RelationType": "Default Component Of"
      }
    ]
  },
  "References": [
    {
      "URL": "https://www.suse.com/support/security/rating/",
      "Description": "SUSE Security Ratings"
    },
    {
      "URL": "https://www.suse.com/security/cve/CVE-2021-25745/",
      "Description": "SUSE CVE CVE-2021-25745 page"
    }
  ],
  "Vulnerabilities": [
    {
      "CVE": "CVE-2021-25745",
      "Description": "A security issue was discovered in ingress-nginx where a user that can create or update ingress objects can use the spec.rules[].http.paths[].path field of an Ingress object (in the networking.k8s.io or extensions API group) to obtain the credentials of the ingress-nginx controller. In the default configuration, that credential has access to all secrets in the cluster.",
      "Threats": [
        {
          "Type": "Impact",
          "Severity": "moderate"
        }
      ],
      "References": [
        {
          "URL": "https://www.suse.com/security/cve/CVE-2021-25745.html",
          "Description": "CVE-2021-25745"
        },
        {
          "URL": "https://bugzilla.suse.com/1199374",
          "Description": "SUSE Bug 1199374"
        }
      ],
      "ProductStatuses": [
        {
          "Type": "Fixed",
          "ProductID": [
            "openSUSE Tumbleweed:rke-1.3.10-1.1"
          ]
        }
      ],
      "CVSSScoreSets": {}
    }
  ]
}