{
  "Title": "chromedriver-100.0.4896.75-1.1 on GA media",
  "Tracking": {
    "ID": "openSUSE-SU-2024:11971-1",
    "Status": "Final",
    "Version": "1",
    "InitialReleaseDate": "2024-06-20T21:44:22Z",
    "CurrentReleaseDate": "2024-06-20T21:44:22Z",
    "RevisionHistory": [
      {
        "Number": "1",
        "Date": "2024-06-20T21:44:22Z",
        "Description": "current"
      }
    ]
  },
  "Notes": [
    {
      "Text": "chromedriver-100.0.4896.75-1.1 on GA media",
      "Title": "Topic",
      "Type": "Summary"
    },
    {
      "Text": "These are all security issues fixed in the chromedriver-100.0.4896.75-1.1 package on the GA media of openSUSE Tumbleweed.",
      "Title": "Details",
      "Type": "General"
    },
    {
      "Text": "The CVRF data is provided by SUSE under the Creative Commons License 4.0 with Attribution (CC-BY-4.0).",
      "Title": "Terms of Use",
      "Type": "Legal Disclaimer"
    },
    {
      "Text": "openSUSE-Tumbleweed-2024-11971",
      "Title": "Patchnames",
      "Type": "Details"
    }
  ],
  "ProductTree": {
    "Relationships": [
      {
        "ProductReference": "chromedriver-100.0.4896.75-1.1",
        "RelatesToProductReference": "openSUSE Tumbleweed",
        "RelationType": "Default Component Of"
      },
      {
        "ProductReference": "chromium-100.0.4896.75-1.1",
        "RelatesToProductReference": "openSUSE Tumbleweed",
        "RelationType": "Default Component Of"
      }
    ]
  },
  "References": [
    {
      "URL": "https://www.suse.com/support/security/rating/",
      "Description": "SUSE Security Ratings"
    },
    {
      "URL": "https://www.suse.com/security/cve/CVE-2022-1232/",
      "Description": "SUSE CVE CVE-2022-1232 page"
    }
  ],
  "Vulnerabilities": [
    {
      "CVE": "CVE-2022-1232",
      "Description": "Type confusion in V8 in Google Chrome prior to 100.0.4896.75 allowed a remote attacker to potentially exploit heap corruption via a crafted HTML page.",
      "Threats": [
        {
          "Type": "Impact",
          "Severity": "moderate"
        }
      ],
      "References": [
        {
          "URL": "https://www.suse.com/security/cve/CVE-2022-1232.html",
          "Description": "CVE-2022-1232"
        },
        {
          "URL": "https://bugzilla.suse.com/1198053",
          "Description": "SUSE Bug 1198053"
        }
      ],
      "ProductStatuses": [
        {
          "Type": "Fixed",
          "ProductID": [
            "openSUSE Tumbleweed:chromedriver-100.0.4896.75-1.1",
            "openSUSE Tumbleweed:chromium-100.0.4896.75-1.1"
          ]
        }
      ],
      "CVSSScoreSets": {}
    }
  ]
}