{
  "Title": "kafka-kit-2.1.0-2.1 on GA media",
  "Tracking": {
    "ID": "openSUSE-SU-2024:11696-1",
    "Status": "Final",
    "Version": "1",
    "InitialReleaseDate": "2024-06-22T21:44:56Z",
    "CurrentReleaseDate": "2024-06-22T21:44:56Z",
    "RevisionHistory": [
      {
        "Number": "1",
        "Date": "2024-06-22T21:44:56Z",
        "Description": "current"
      }
    ]
  },
  "Notes": [
    {
      "Text": "kafka-kit-2.1.0-2.1 on GA media",
      "Title": "Topic",
      "Type": "Summary"
    },
    {
      "Text": "These are all security issues fixed in the kafka-kit-2.1.0-2.1 package on the GA media of openSUSE Tumbleweed.",
      "Title": "Details",
      "Type": "General"
    },
    {
      "Text": "The CVRF data is provided by SUSE under the Creative Commons License 4.0 with Attribution (CC-BY-4.0).",
      "Title": "Terms of Use",
      "Type": "Legal Disclaimer"
    },
    {
      "Text": "openSUSE-Tumbleweed-2024-11696",
      "Title": "Patchnames",
      "Type": "Details"
    }
  ],
  "ProductTree": {
    "Relationships": [
      {
        "ProductReference": "kafka-kit-2.1.0-2.1",
        "RelatesToProductReference": "openSUSE Tumbleweed",
        "RelationType": "Default Component Of"
      }
    ]
  },
  "References": [
    {
      "URL": "https://www.suse.com/support/security/rating/",
      "Description": "SUSE Security Ratings"
    },
    {
      "URL": "https://www.suse.com/security/cve/CVE-2021-4104/",
      "Description": "SUSE CVE CVE-2021-4104 page"
    }
  ],
  "Vulnerabilities": [
    {
      "CVE": "CVE-2021-4104",
      "Description": "JMSAppender in Log4j 1.2 is vulnerable to deserialization of untrusted data when the attacker has write access to the Log4j configuration. The attacker can provide TopicBindingName and TopicConnectionFactoryBindingName configurations causing JMSAppender to perform JNDI requests that result in remote code execution in a similar fashion to CVE-2021-44228. Note this issue only affects Log4j 1.2 when specifically configured to use JMSAppender, which is not the default. Apache Log4j 1.2 reached end of life in August 2015. Users should upgrade to Log4j 2 as it addresses numerous other issues from the previous versions.",
      "Threats": [
        {
          "Type": "Impact",
          "Severity": "moderate"
        }
      ],
      "References": [
        {
          "URL": "https://www.suse.com/security/cve/CVE-2021-4104.html",
          "Description": "CVE-2021-4104"
        },
        {
          "URL": "https://bugzilla.suse.com/1193662",
          "Description": "SUSE Bug 1193662"
        },
        {
          "URL": "https://bugzilla.suse.com/1193978",
          "Description": "SUSE Bug 1193978"
        },
        {
          "URL": "https://bugzilla.suse.com/1194016",
          "Description": "SUSE Bug 1194016"
        },
        {
          "URL": "https://bugzilla.suse.com/1194842",
          "Description": "SUSE Bug 1194842"
        }
      ],
      "ProductStatuses": [
        {
          "Type": "Fixed",
          "ProductID": [
            "openSUSE Tumbleweed:kafka-kit-2.1.0-2.1"
          ]
        }
      ],
      "CVSSScoreSets": {}
    }
  ]
}