{
  "Title": "openvpn-2.5.6-1.1 on GA media",
  "Tracking": {
    "ID": "openSUSE-SU-2024:11968-1",
    "Status": "Final",
    "Version": "1",
    "InitialReleaseDate": "2024-06-20T21:44:22Z",
    "CurrentReleaseDate": "2024-06-20T21:44:22Z",
    "RevisionHistory": [
      {
        "Number": "1",
        "Date": "2024-06-20T21:44:22Z",
        "Description": "current"
      }
    ]
  },
  "Notes": [
    {
      "Text": "openvpn-2.5.6-1.1 on GA media",
      "Title": "Topic",
      "Type": "Summary"
    },
    {
      "Text": "These are all security issues fixed in the openvpn-2.5.6-1.1 package on the GA media of openSUSE Tumbleweed.",
      "Title": "Details",
      "Type": "General"
    },
    {
      "Text": "The CVRF data is provided by SUSE under the Creative Commons License 4.0 with Attribution (CC-BY-4.0).",
      "Title": "Terms of Use",
      "Type": "Legal Disclaimer"
    },
    {
      "Text": "openSUSE-Tumbleweed-2024-11968",
      "Title": "Patchnames",
      "Type": "Details"
    }
  ],
  "ProductTree": {
    "Relationships": [
      {
        "ProductReference": "openvpn-2.5.6-1.1",
        "RelatesToProductReference": "openSUSE Tumbleweed",
        "RelationType": "Default Component Of"
      },
      {
        "ProductReference": "openvpn-auth-pam-plugin-2.5.6-1.1",
        "RelatesToProductReference": "openSUSE Tumbleweed",
        "RelationType": "Default Component Of"
      },
      {
        "ProductReference": "openvpn-devel-2.5.6-1.1",
        "RelatesToProductReference": "openSUSE Tumbleweed",
        "RelationType": "Default Component Of"
      },
      {
        "ProductReference": "openvpn-down-root-plugin-2.5.6-1.1",
        "RelatesToProductReference": "openSUSE Tumbleweed",
        "RelationType": "Default Component Of"
      }
    ]
  },
  "References": [
    {
      "URL": "https://www.suse.com/support/security/rating/",
      "Description": "SUSE Security Ratings"
    },
    {
      "URL": "https://www.suse.com/security/cve/CVE-2022-0547/",
      "Description": "SUSE CVE CVE-2022-0547 page"
    }
  ],
  "Vulnerabilities": [
    {
      "CVE": "CVE-2022-0547",
      "Description": "OpenVPN 2.1 until v2.4.12 and v2.5.6 may enable authentication bypass in external authentication plug-ins when more than one of them makes use of deferred authentication replies, which allows an external user to be granted access with only partially correct credentials.",
      "Threats": [
        {
          "Type": "Impact",
          "Severity": "moderate"
        }
      ],
      "References": [
        {
          "URL": "https://www.suse.com/security/cve/CVE-2022-0547.html",
          "Description": "CVE-2022-0547"
        },
        {
          "URL": "https://bugzilla.suse.com/1197341",
          "Description": "SUSE Bug 1197341"
        },
        {
          "URL": "https://bugzilla.suse.com/1199103",
          "Description": "SUSE Bug 1199103"
        }
      ],
      "ProductStatuses": [
        {
          "Type": "Fixed",
          "ProductID": [
            "openSUSE Tumbleweed:openvpn-2.5.6-1.1",
            "openSUSE Tumbleweed:openvpn-auth-pam-plugin-2.5.6-1.1",
            "openSUSE Tumbleweed:openvpn-devel-2.5.6-1.1",
            "openSUSE Tumbleweed:openvpn-down-root-plugin-2.5.6-1.1"
          ]
        }
      ],
      "CVSSScoreSets": {}
    }
  ]
}