{
  "Title": "velero-plugin-for-microsoft-azure-1.3.1-1.1 on GA media",
  "Tracking": {
    "ID": "openSUSE-SU-2024:11668-1",
    "Status": "Final",
    "Version": "1",
    "InitialReleaseDate": "2024-06-22T21:44:56Z",
    "CurrentReleaseDate": "2024-06-22T21:44:56Z",
    "RevisionHistory": [
      {
        "Number": "1",
        "Date": "2024-06-22T21:44:56Z",
        "Description": "current"
      }
    ]
  },
  "Notes": [
    {
      "Text": "velero-plugin-for-microsoft-azure-1.3.1-1.1 on GA media",
      "Title": "Topic",
      "Type": "Summary"
    },
    {
      "Text": "These are all security issues fixed in the velero-plugin-for-microsoft-azure-1.3.1-1.1 package on the GA media of openSUSE Tumbleweed.",
      "Title": "Details",
      "Type": "General"
    },
    {
      "Text": "The CVRF data is provided by SUSE under the Creative Commons License 4.0 with Attribution (CC-BY-4.0).",
      "Title": "Terms of Use",
      "Type": "Legal Disclaimer"
    },
    {
      "Text": "openSUSE-Tumbleweed-2024-11668",
      "Title": "Patchnames",
      "Type": "Details"
    }
  ],
  "ProductTree": {
    "Relationships": [
      {
        "ProductReference": "velero-plugin-for-microsoft-azure-1.3.1-1.1",
        "RelatesToProductReference": "openSUSE Tumbleweed",
        "RelationType": "Default Component Of"
      }
    ]
  },
  "References": [
    {
      "URL": "https://www.suse.com/support/security/rating/",
      "Description": "SUSE Security Ratings"
    },
    {
      "URL": "https://www.suse.com/security/cve/CVE-2020-26160/",
      "Description": "SUSE CVE CVE-2020-26160 page"
    }
  ],
  "Vulnerabilities": [
    {
      "CVE": "CVE-2020-26160",
      "Description": "jwt-go before 4.0.0-preview1 allows attackers to bypass intended access restrictions in situations with []string{} for m[\"aud\"] (which is allowed by the specification). Because the type assertion fails, \"\" is the value of aud. This is a security problem if the JWT token is presented to a service that lacks its own audience check.",
      "Threats": [
        {
          "Type": "Impact",
          "Severity": "moderate"
        }
      ],
      "References": [
        {
          "URL": "https://www.suse.com/security/cve/CVE-2020-26160.html",
          "Description": "CVE-2020-26160"
        }
      ],
      "ProductStatuses": [
        {
          "Type": "Fixed",
          "ProductID": [
            "openSUSE Tumbleweed:velero-plugin-for-microsoft-azure-1.3.1-1.1"
          ]
        }
      ],
      "CVSSScoreSets": {}
    }
  ]
}