{
  "Title": "okular-21.08.1-1.2 on GA media",
  "Tracking": {
    "ID": "openSUSE-SU-2024:11110-1",
    "Status": "Final",
    "Version": "1",
    "InitialReleaseDate": "2024-06-22T21:44:56Z",
    "CurrentReleaseDate": "2024-06-22T21:44:56Z",
    "RevisionHistory": [
      {
        "Number": "1",
        "Date": "2024-06-22T21:44:56Z",
        "Description": "current"
      }
    ]
  },
  "Notes": [
    {
      "Text": "okular-21.08.1-1.2 on GA media",
      "Title": "Topic",
      "Type": "Summary"
    },
    {
      "Text": "These are all security issues fixed in the okular-21.08.1-1.2 package on the GA media of openSUSE Tumbleweed.",
      "Title": "Details",
      "Type": "General"
    },
    {
      "Text": "The CVRF data is provided by SUSE under the Creative Commons License 4.0 with Attribution (CC-BY-4.0).",
      "Title": "Terms of Use",
      "Type": "Legal Disclaimer"
    },
    {
      "Text": "openSUSE-Tumbleweed-2024-11110",
      "Title": "Patchnames",
      "Type": "Details"
    }
  ],
  "ProductTree": {
    "Relationships": [
      {
        "ProductReference": "okular-21.08.1-1.2",
        "RelatesToProductReference": "openSUSE Tumbleweed",
        "RelationType": "Default Component Of"
      },
      {
        "ProductReference": "okular-devel-21.08.1-1.2",
        "RelatesToProductReference": "openSUSE Tumbleweed",
        "RelationType": "Default Component Of"
      },
      {
        "ProductReference": "okular-lang-21.08.1-1.2",
        "RelatesToProductReference": "openSUSE Tumbleweed",
        "RelationType": "Default Component Of"
      },
      {
        "ProductReference": "okular-mobile-21.08.1-1.2",
        "RelatesToProductReference": "openSUSE Tumbleweed",
        "RelationType": "Default Component Of"
      },
      {
        "ProductReference": "okular-spectre-21.08.1-1.2",
        "RelatesToProductReference": "openSUSE Tumbleweed",
        "RelationType": "Default Component Of"
      }
    ]
  },
  "References": [
    {
      "URL": "https://www.suse.com/support/security/rating/",
      "Description": "SUSE Security Ratings"
    },
    {
      "URL": "https://www.suse.com/security/cve/CVE-2018-1000801/",
      "Description": "SUSE CVE CVE-2018-1000801 page"
    },
    {
      "URL": "https://www.suse.com/security/cve/CVE-2020-9359/",
      "Description": "SUSE CVE CVE-2020-9359 page"
    }
  ],
  "Vulnerabilities": [
    {
      "CVE": "CVE-2018-1000801",
      "Description": "okular version 18.08 and earlier contains a Directory Traversal vulnerability in function \"unpackDocumentArchive(...)\" in \"core/document.cpp\" that can result in Arbitrary file creation on the user workstation. This attack appear to be exploitable via he victim must open a specially crafted Okular archive. This issue appears to have been corrected in version 18.08.1",
      "Threats": [
        {
          "Type": "Impact",
          "Severity": "moderate"
        }
      ],
      "References": [
        {
          "URL": "https://www.suse.com/security/cve/CVE-2018-1000801.html",
          "Description": "CVE-2018-1000801"
        },
        {
          "URL": "https://bugzilla.suse.com/1107591",
          "Description": "SUSE Bug 1107591"
        }
      ],
      "ProductStatuses": [
        {
          "Type": "Fixed",
          "ProductID": [
            "openSUSE Tumbleweed:okular-21.08.1-1.2",
            "openSUSE Tumbleweed:okular-devel-21.08.1-1.2",
            "openSUSE Tumbleweed:okular-lang-21.08.1-1.2",
            "openSUSE Tumbleweed:okular-mobile-21.08.1-1.2",
            "openSUSE Tumbleweed:okular-spectre-21.08.1-1.2"
          ]
        }
      ],
      "CVSSScoreSets": {}
    },
    {
      "CVE": "CVE-2020-9359",
      "Description": "KDE Okular before 1.10.0 allows code execution via an action link in a PDF document.",
      "Threats": [
        {
          "Type": "Impact",
          "Severity": "moderate"
        }
      ],
      "References": [
        {
          "URL": "https://www.suse.com/security/cve/CVE-2020-9359.html",
          "Description": "CVE-2020-9359"
        },
        {
          "URL": "https://bugzilla.suse.com/1167435",
          "Description": "SUSE Bug 1167435"
        }
      ],
      "ProductStatuses": [
        {
          "Type": "Fixed",
          "ProductID": [
            "openSUSE Tumbleweed:okular-21.08.1-1.2",
            "openSUSE Tumbleweed:okular-devel-21.08.1-1.2",
            "openSUSE Tumbleweed:okular-lang-21.08.1-1.2",
            "openSUSE Tumbleweed:okular-mobile-21.08.1-1.2",
            "openSUSE Tumbleweed:okular-spectre-21.08.1-1.2"
          ]
        }
      ],
      "CVSSScoreSets": {}
    }
  ]
}