{
  "Title": "gdk-pixbuf-loader-rsvg-2.50.7-1.5 on GA media",
  "Tracking": {
    "ID": "openSUSE-SU-2024:10986-1",
    "Status": "Final",
    "Version": "1",
    "InitialReleaseDate": "2024-06-22T21:44:56Z",
    "CurrentReleaseDate": "2024-06-22T21:44:56Z",
    "RevisionHistory": [
      {
        "Number": "1",
        "Date": "2024-06-22T21:44:56Z",
        "Description": "current"
      }
    ]
  },
  "Notes": [
    {
      "Text": "gdk-pixbuf-loader-rsvg-2.50.7-1.5 on GA media",
      "Title": "Topic",
      "Type": "Summary"
    },
    {
      "Text": "These are all security issues fixed in the gdk-pixbuf-loader-rsvg-2.50.7-1.5 package on the GA media of openSUSE Tumbleweed.",
      "Title": "Details",
      "Type": "General"
    },
    {
      "Text": "The CVRF data is provided by SUSE under the Creative Commons License 4.0 with Attribution (CC-BY-4.0).",
      "Title": "Terms of Use",
      "Type": "Legal Disclaimer"
    },
    {
      "Text": "openSUSE-Tumbleweed-2024-10986",
      "Title": "Patchnames",
      "Type": "Details"
    }
  ],
  "ProductTree": {
    "Relationships": [
      {
        "ProductReference": "gdk-pixbuf-loader-rsvg-2.50.7-1.5",
        "RelatesToProductReference": "openSUSE Tumbleweed",
        "RelationType": "Default Component Of"
      },
      {
        "ProductReference": "gdk-pixbuf-loader-rsvg-32bit-2.50.7-1.5",
        "RelatesToProductReference": "openSUSE Tumbleweed",
        "RelationType": "Default Component Of"
      },
      {
        "ProductReference": "librsvg-2-2-2.50.7-1.5",
        "RelatesToProductReference": "openSUSE Tumbleweed",
        "RelationType": "Default Component Of"
      },
      {
        "ProductReference": "librsvg-2-2-32bit-2.50.7-1.5",
        "RelatesToProductReference": "openSUSE Tumbleweed",
        "RelationType": "Default Component Of"
      },
      {
        "ProductReference": "librsvg-devel-2.50.7-1.5",
        "RelatesToProductReference": "openSUSE Tumbleweed",
        "RelationType": "Default Component Of"
      },
      {
        "ProductReference": "librsvg-lang-2.50.7-1.5",
        "RelatesToProductReference": "openSUSE Tumbleweed",
        "RelationType": "Default Component Of"
      },
      {
        "ProductReference": "rsvg-convert-2.50.7-1.5",
        "RelatesToProductReference": "openSUSE Tumbleweed",
        "RelationType": "Default Component Of"
      },
      {
        "ProductReference": "rsvg-thumbnailer-2.50.7-1.5",
        "RelatesToProductReference": "openSUSE Tumbleweed",
        "RelationType": "Default Component Of"
      },
      {
        "ProductReference": "typelib-1_0-Rsvg-2_0-2.50.7-1.5",
        "RelatesToProductReference": "openSUSE Tumbleweed",
        "RelationType": "Default Component Of"
      }
    ]
  },
  "References": [
    {
      "URL": "https://www.suse.com/support/security/rating/",
      "Description": "SUSE Security Ratings"
    },
    {
      "URL": "https://www.suse.com/security/cve/CVE-2017-11464/",
      "Description": "SUSE CVE CVE-2017-11464 page"
    },
    {
      "URL": "https://www.suse.com/security/cve/CVE-2019-20446/",
      "Description": "SUSE CVE CVE-2019-20446 page"
    }
  ],
  "Vulnerabilities": [
    {
      "CVE": "CVE-2017-11464",
      "Description": "A SIGFPE is raised in the function box_blur_line of rsvg-filter.c in GNOME librsvg 2.40.17 during an attempted parse of a crafted SVG file, because of incorrect protection against division by zero.",
      "Threats": [
        {
          "Type": "Impact",
          "Severity": "low"
        }
      ],
      "References": [
        {
          "URL": "https://www.suse.com/security/cve/CVE-2017-11464.html",
          "Description": "CVE-2017-11464"
        },
        {
          "URL": "https://bugzilla.suse.com/1049607",
          "Description": "SUSE Bug 1049607"
        }
      ],
      "ProductStatuses": [
        {
          "Type": "Fixed",
          "ProductID": [
            "openSUSE Tumbleweed:gdk-pixbuf-loader-rsvg-2.50.7-1.5",
            "openSUSE Tumbleweed:gdk-pixbuf-loader-rsvg-32bit-2.50.7-1.5",
            "openSUSE Tumbleweed:librsvg-2-2-2.50.7-1.5",
            "openSUSE Tumbleweed:librsvg-2-2-32bit-2.50.7-1.5",
            "openSUSE Tumbleweed:librsvg-devel-2.50.7-1.5",
            "openSUSE Tumbleweed:librsvg-lang-2.50.7-1.5",
            "openSUSE Tumbleweed:rsvg-convert-2.50.7-1.5",
            "openSUSE Tumbleweed:rsvg-thumbnailer-2.50.7-1.5",
            "openSUSE Tumbleweed:typelib-1_0-Rsvg-2_0-2.50.7-1.5"
          ]
        }
      ],
      "CVSSScoreSets": {
        "BaseScore": "4.3",
        "Vector": "AV:N/AC:M/Au:N/C:N/I:N/A:P"
      }
    },
    {
      "CVE": "CVE-2019-20446",
      "Description": "In xml.rs in GNOME librsvg before 2.46.2, a crafted SVG file with nested patterns can cause denial of service when passed to the library for processing. The attacker constructs pattern elements so that the number of final rendered objects grows exponentially.",
      "Threats": [
        {
          "Type": "Impact",
          "Severity": "moderate"
        }
      ],
      "References": [
        {
          "URL": "https://www.suse.com/security/cve/CVE-2019-20446.html",
          "Description": "CVE-2019-20446"
        },
        {
          "URL": "https://bugzilla.suse.com/1162501",
          "Description": "SUSE Bug 1162501"
        }
      ],
      "ProductStatuses": [
        {
          "Type": "Fixed",
          "ProductID": [
            "openSUSE Tumbleweed:gdk-pixbuf-loader-rsvg-2.50.7-1.5",
            "openSUSE Tumbleweed:gdk-pixbuf-loader-rsvg-32bit-2.50.7-1.5",
            "openSUSE Tumbleweed:librsvg-2-2-2.50.7-1.5",
            "openSUSE Tumbleweed:librsvg-2-2-32bit-2.50.7-1.5",
            "openSUSE Tumbleweed:librsvg-devel-2.50.7-1.5",
            "openSUSE Tumbleweed:librsvg-lang-2.50.7-1.5",
            "openSUSE Tumbleweed:rsvg-convert-2.50.7-1.5",
            "openSUSE Tumbleweed:rsvg-thumbnailer-2.50.7-1.5",
            "openSUSE Tumbleweed:typelib-1_0-Rsvg-2_0-2.50.7-1.5"
          ]
        }
      ],
      "CVSSScoreSets": {}
    }
  ]
}