{
  "Title": "frr-8.4-1.1 on GA media",
  "Tracking": {
    "ID": "openSUSE-SU-2024:12516-1",
    "Status": "Final",
    "Version": "1",
    "InitialReleaseDate": "2024-06-20T21:44:22Z",
    "CurrentReleaseDate": "2024-06-20T21:44:22Z",
    "RevisionHistory": [
      {
        "Number": "1",
        "Date": "2024-06-20T21:44:22Z",
        "Description": "current"
      }
    ]
  },
  "Notes": [
    {
      "Text": "frr-8.4-1.1 on GA media",
      "Title": "Topic",
      "Type": "Summary"
    },
    {
      "Text": "These are all security issues fixed in the frr-8.4-1.1 package on the GA media of openSUSE Tumbleweed.",
      "Title": "Details",
      "Type": "General"
    },
    {
      "Text": "The CVRF data is provided by SUSE under the Creative Commons License 4.0 with Attribution (CC-BY-4.0).",
      "Title": "Terms of Use",
      "Type": "Legal Disclaimer"
    },
    {
      "Text": "openSUSE-Tumbleweed-2024-12516",
      "Title": "Patchnames",
      "Type": "Details"
    }
  ],
  "ProductTree": {
    "Relationships": [
      {
        "ProductReference": "frr-8.4-1.1",
        "RelatesToProductReference": "openSUSE Tumbleweed",
        "RelationType": "Default Component Of"
      },
      {
        "ProductReference": "frr-devel-8.4-1.1",
        "RelatesToProductReference": "openSUSE Tumbleweed",
        "RelationType": "Default Component Of"
      },
      {
        "ProductReference": "libfrr0-8.4-1.1",
        "RelatesToProductReference": "openSUSE Tumbleweed",
        "RelationType": "Default Component Of"
      },
      {
        "ProductReference": "libfrr_pb0-8.4-1.1",
        "RelatesToProductReference": "openSUSE Tumbleweed",
        "RelationType": "Default Component Of"
      },
      {
        "ProductReference": "libfrrcares0-8.4-1.1",
        "RelatesToProductReference": "openSUSE Tumbleweed",
        "RelationType": "Default Component Of"
      },
      {
        "ProductReference": "libfrrfpm_pb0-8.4-1.1",
        "RelatesToProductReference": "openSUSE Tumbleweed",
        "RelationType": "Default Component Of"
      },
      {
        "ProductReference": "libfrrospfapiclient0-8.4-1.1",
        "RelatesToProductReference": "openSUSE Tumbleweed",
        "RelationType": "Default Component Of"
      },
      {
        "ProductReference": "libfrrsnmp0-8.4-1.1",
        "RelatesToProductReference": "openSUSE Tumbleweed",
        "RelationType": "Default Component Of"
      },
      {
        "ProductReference": "libfrrzmq0-8.4-1.1",
        "RelatesToProductReference": "openSUSE Tumbleweed",
        "RelationType": "Default Component Of"
      },
      {
        "ProductReference": "libmlag_pb0-8.4-1.1",
        "RelatesToProductReference": "openSUSE Tumbleweed",
        "RelationType": "Default Component Of"
      }
    ]
  },
  "References": [
    {
      "URL": "https://www.suse.com/support/security/rating/",
      "Description": "SUSE Security Ratings"
    },
    {
      "URL": "https://www.suse.com/security/cve/CVE-2022-37035/",
      "Description": "SUSE CVE CVE-2022-37035 page"
    },
    {
      "URL": "https://www.suse.com/security/cve/CVE-2022-42917/",
      "Description": "SUSE CVE CVE-2022-42917 page"
    }
  ],
  "Vulnerabilities": [
    {
      "CVE": "CVE-2022-37035",
      "Description": "An issue was discovered in bgpd in FRRouting (FRR) 8.3. In bgp_notify_send_with_data() and bgp_process_packet() in bgp_packet.c, there is a possible use-after-free due to a race condition. This could lead to Remote Code Execution or Information Disclosure by sending crafted BGP packets. User interaction is not needed for exploitation.",
      "Threats": [
        {
          "Type": "Impact",
          "Severity": "moderate"
        }
      ],
      "References": [
        {
          "URL": "https://www.suse.com/security/cve/CVE-2022-37035.html",
          "Description": "CVE-2022-37035"
        },
        {
          "URL": "https://bugzilla.suse.com/1202085",
          "Description": "SUSE Bug 1202085"
        }
      ],
      "ProductStatuses": [
        {
          "Type": "Fixed",
          "ProductID": [
            "openSUSE Tumbleweed:frr-8.4-1.1",
            "openSUSE Tumbleweed:frr-devel-8.4-1.1",
            "openSUSE Tumbleweed:libfrr0-8.4-1.1",
            "openSUSE Tumbleweed:libfrr_pb0-8.4-1.1",
            "openSUSE Tumbleweed:libfrrcares0-8.4-1.1",
            "openSUSE Tumbleweed:libfrrfpm_pb0-8.4-1.1",
            "openSUSE Tumbleweed:libfrrospfapiclient0-8.4-1.1",
            "openSUSE Tumbleweed:libfrrsnmp0-8.4-1.1",
            "openSUSE Tumbleweed:libfrrzmq0-8.4-1.1",
            "openSUSE Tumbleweed:libmlag_pb0-8.4-1.1"
          ]
        }
      ],
      "CVSSScoreSets": {}
    },
    {
      "CVE": "CVE-2022-42917",
      "Description": "** RESERVED ** This candidate has been reserved by an organization or individual that will use it when announcing a new security problem. When the candidate has been publicized, the details for this candidate will be provided.",
      "Threats": [
        {
          "Type": "Impact",
          "Severity": "moderate"
        }
      ],
      "References": [
        {
          "URL": "https://www.suse.com/security/cve/CVE-2022-42917.html",
          "Description": "CVE-2022-42917"
        },
        {
          "URL": "https://bugzilla.suse.com/1204124",
          "Description": "SUSE Bug 1204124"
        }
      ],
      "ProductStatuses": [
        {
          "Type": "Fixed",
          "ProductID": [
            "openSUSE Tumbleweed:frr-8.4-1.1",
            "openSUSE Tumbleweed:frr-devel-8.4-1.1",
            "openSUSE Tumbleweed:libfrr0-8.4-1.1",
            "openSUSE Tumbleweed:libfrr_pb0-8.4-1.1",
            "openSUSE Tumbleweed:libfrrcares0-8.4-1.1",
            "openSUSE Tumbleweed:libfrrfpm_pb0-8.4-1.1",
            "openSUSE Tumbleweed:libfrrospfapiclient0-8.4-1.1",
            "openSUSE Tumbleweed:libfrrsnmp0-8.4-1.1",
            "openSUSE Tumbleweed:libfrrzmq0-8.4-1.1",
            "openSUSE Tumbleweed:libmlag_pb0-8.4-1.1"
          ]
        }
      ],
      "CVSSScoreSets": {}
    }
  ]
}