{
  "Title": "libmariadbd-devel-10.6.5-3.1 on GA media",
  "Tracking": {
    "ID": "openSUSE-SU-2024:11648-1",
    "Status": "Final",
    "Version": "1",
    "InitialReleaseDate": "2024-06-22T21:44:56Z",
    "CurrentReleaseDate": "2024-06-22T21:44:56Z",
    "RevisionHistory": [
      {
        "Number": "1",
        "Date": "2024-06-22T21:44:56Z",
        "Description": "current"
      }
    ]
  },
  "Notes": [
    {
      "Text": "libmariadbd-devel-10.6.5-3.1 on GA media",
      "Title": "Topic",
      "Type": "Summary"
    },
    {
      "Text": "These are all security issues fixed in the libmariadbd-devel-10.6.5-3.1 package on the GA media of openSUSE Tumbleweed.",
      "Title": "Details",
      "Type": "General"
    },
    {
      "Text": "The CVRF data is provided by SUSE under the Creative Commons License 4.0 with Attribution (CC-BY-4.0).",
      "Title": "Terms of Use",
      "Type": "Legal Disclaimer"
    },
    {
      "Text": "openSUSE-Tumbleweed-2024-11648",
      "Title": "Patchnames",
      "Type": "Details"
    }
  ],
  "ProductTree": {
    "Relationships": [
      {
        "ProductReference": "libmariadbd-devel-10.6.5-3.1",
        "RelatesToProductReference": "openSUSE Tumbleweed",
        "RelationType": "Default Component Of"
      },
      {
        "ProductReference": "libmariadbd19-10.6.5-3.1",
        "RelatesToProductReference": "openSUSE Tumbleweed",
        "RelationType": "Default Component Of"
      },
      {
        "ProductReference": "mariadb-10.6.5-3.1",
        "RelatesToProductReference": "openSUSE Tumbleweed",
        "RelationType": "Default Component Of"
      },
      {
        "ProductReference": "mariadb-bench-10.6.5-3.1",
        "RelatesToProductReference": "openSUSE Tumbleweed",
        "RelationType": "Default Component Of"
      },
      {
        "ProductReference": "mariadb-client-10.6.5-3.1",
        "RelatesToProductReference": "openSUSE Tumbleweed",
        "RelationType": "Default Component Of"
      },
      {
        "ProductReference": "mariadb-errormessages-10.6.5-3.1",
        "RelatesToProductReference": "openSUSE Tumbleweed",
        "RelationType": "Default Component Of"
      },
      {
        "ProductReference": "mariadb-galera-10.6.5-3.1",
        "RelatesToProductReference": "openSUSE Tumbleweed",
        "RelationType": "Default Component Of"
      },
      {
        "ProductReference": "mariadb-rpm-macros-10.6.5-3.1",
        "RelatesToProductReference": "openSUSE Tumbleweed",
        "RelationType": "Default Component Of"
      },
      {
        "ProductReference": "mariadb-test-10.6.5-3.1",
        "RelatesToProductReference": "openSUSE Tumbleweed",
        "RelationType": "Default Component Of"
      },
      {
        "ProductReference": "mariadb-tools-10.6.5-3.1",
        "RelatesToProductReference": "openSUSE Tumbleweed",
        "RelationType": "Default Component Of"
      }
    ]
  },
  "References": [
    {
      "URL": "https://www.suse.com/support/security/rating/",
      "Description": "SUSE Security Ratings"
    },
    {
      "URL": "https://www.suse.com/security/cve/CVE-2021-2154/",
      "Description": "SUSE CVE CVE-2021-2154 page"
    },
    {
      "URL": "https://www.suse.com/security/cve/CVE-2021-2166/",
      "Description": "SUSE CVE CVE-2021-2166 page"
    },
    {
      "URL": "https://www.suse.com/security/cve/CVE-2021-27928/",
      "Description": "SUSE CVE CVE-2021-27928 page"
    }
  ],
  "Vulnerabilities": [
    {
      "CVE": "CVE-2021-2154",
      "Description": "Vulnerability in the MySQL Server product of Oracle MySQL (component: Server: DML). Supported versions that are affected are 5.7.33 and prior. Easily exploitable vulnerability allows high privileged attacker with network access via multiple protocols to compromise MySQL Server. Successful attacks of this vulnerability can result in unauthorized ability to cause a hang or frequently repeatable crash (complete DOS) of MySQL Server. CVSS 3.1 Base Score 4.9 (Availability impacts). CVSS Vector: (CVSS:3.1/AV:N/AC:L/PR:H/UI:N/S:U/C:N/I:N/A:H).",
      "Threats": [
        {
          "Type": "Impact",
          "Severity": "moderate"
        }
      ],
      "References": [
        {
          "URL": "https://www.suse.com/security/cve/CVE-2021-2154.html",
          "Description": "CVE-2021-2154"
        },
        {
          "URL": "https://bugzilla.suse.com/1185872",
          "Description": "SUSE Bug 1185872"
        },
        {
          "URL": "https://bugzilla.suse.com/1199955",
          "Description": "SUSE Bug 1199955"
        }
      ],
      "ProductStatuses": [
        {
          "Type": "Fixed",
          "ProductID": [
            "openSUSE Tumbleweed:libmariadbd-devel-10.6.5-3.1",
            "openSUSE Tumbleweed:libmariadbd19-10.6.5-3.1",
            "openSUSE Tumbleweed:mariadb-10.6.5-3.1",
            "openSUSE Tumbleweed:mariadb-bench-10.6.5-3.1",
            "openSUSE Tumbleweed:mariadb-client-10.6.5-3.1",
            "openSUSE Tumbleweed:mariadb-errormessages-10.6.5-3.1",
            "openSUSE Tumbleweed:mariadb-galera-10.6.5-3.1",
            "openSUSE Tumbleweed:mariadb-rpm-macros-10.6.5-3.1",
            "openSUSE Tumbleweed:mariadb-test-10.6.5-3.1",
            "openSUSE Tumbleweed:mariadb-tools-10.6.5-3.1"
          ]
        }
      ],
      "CVSSScoreSets": {}
    },
    {
      "CVE": "CVE-2021-2166",
      "Description": "Vulnerability in the MySQL Server product of Oracle MySQL (component: Server: DML). Supported versions that are affected are 5.7.33 and prior and 8.0.23 and prior. Easily exploitable vulnerability allows high privileged attacker with network access via multiple protocols to compromise MySQL Server. Successful attacks of this vulnerability can result in unauthorized ability to cause a hang or frequently repeatable crash (complete DOS) of MySQL Server. CVSS 3.1 Base Score 4.9 (Availability impacts). CVSS Vector: (CVSS:3.1/AV:N/AC:L/PR:H/UI:N/S:U/C:N/I:N/A:H).",
      "Threats": [
        {
          "Type": "Impact",
          "Severity": "moderate"
        }
      ],
      "References": [
        {
          "URL": "https://www.suse.com/security/cve/CVE-2021-2166.html",
          "Description": "CVE-2021-2166"
        },
        {
          "URL": "https://bugzilla.suse.com/1185870",
          "Description": "SUSE Bug 1185870"
        },
        {
          "URL": "https://bugzilla.suse.com/1199955",
          "Description": "SUSE Bug 1199955"
        }
      ],
      "ProductStatuses": [
        {
          "Type": "Fixed",
          "ProductID": [
            "openSUSE Tumbleweed:libmariadbd-devel-10.6.5-3.1",
            "openSUSE Tumbleweed:libmariadbd19-10.6.5-3.1",
            "openSUSE Tumbleweed:mariadb-10.6.5-3.1",
            "openSUSE Tumbleweed:mariadb-bench-10.6.5-3.1",
            "openSUSE Tumbleweed:mariadb-client-10.6.5-3.1",
            "openSUSE Tumbleweed:mariadb-errormessages-10.6.5-3.1",
            "openSUSE Tumbleweed:mariadb-galera-10.6.5-3.1",
            "openSUSE Tumbleweed:mariadb-rpm-macros-10.6.5-3.1",
            "openSUSE Tumbleweed:mariadb-test-10.6.5-3.1",
            "openSUSE Tumbleweed:mariadb-tools-10.6.5-3.1"
          ]
        }
      ],
      "CVSSScoreSets": {}
    },
    {
      "CVE": "CVE-2021-27928",
      "Description": "A remote code execution issue was discovered in MariaDB 10.2 before 10.2.37, 10.3 before 10.3.28, 10.4 before 10.4.18, and 10.5 before 10.5.9; Percona Server through 2021-03-03; and the wsrep patch through 2021-03-03 for MySQL. An untrusted search path leads to eval injection, in which a database SUPER user can execute OS commands after modifying wsrep_provider and wsrep_notify_cmd. NOTE: this does not affect an Oracle product.",
      "Threats": [
        {
          "Type": "Impact",
          "Severity": "important"
        }
      ],
      "References": [
        {
          "URL": "https://www.suse.com/security/cve/CVE-2021-27928.html",
          "Description": "CVE-2021-27928"
        },
        {
          "URL": "https://bugzilla.suse.com/1183770",
          "Description": "SUSE Bug 1183770"
        }
      ],
      "ProductStatuses": [
        {
          "Type": "Fixed",
          "ProductID": [
            "openSUSE Tumbleweed:libmariadbd-devel-10.6.5-3.1",
            "openSUSE Tumbleweed:libmariadbd19-10.6.5-3.1",
            "openSUSE Tumbleweed:mariadb-10.6.5-3.1",
            "openSUSE Tumbleweed:mariadb-bench-10.6.5-3.1",
            "openSUSE Tumbleweed:mariadb-client-10.6.5-3.1",
            "openSUSE Tumbleweed:mariadb-errormessages-10.6.5-3.1",
            "openSUSE Tumbleweed:mariadb-galera-10.6.5-3.1",
            "openSUSE Tumbleweed:mariadb-rpm-macros-10.6.5-3.1",
            "openSUSE Tumbleweed:mariadb-test-10.6.5-3.1",
            "openSUSE Tumbleweed:mariadb-tools-10.6.5-3.1"
          ]
        }
      ],
      "CVSSScoreSets": {}
    }
  ]
}