{
  "Title": "k9s-0.32.4-2.1 on GA media",
  "Tracking": {
    "ID": "openSUSE-SU-2024:13918-1",
    "Status": "Final",
    "Version": "1",
    "InitialReleaseDate": "2024-06-20T21:44:22Z",
    "CurrentReleaseDate": "2024-06-20T21:44:22Z",
    "RevisionHistory": [
      {
        "Number": "1",
        "Date": "2024-06-20T21:44:22Z",
        "Description": "current"
      }
    ]
  },
  "Notes": [
    {
      "Text": "k9s-0.32.4-2.1 on GA media",
      "Title": "Topic",
      "Type": "Summary"
    },
    {
      "Text": "These are all security issues fixed in the k9s-0.32.4-2.1 package on the GA media of openSUSE Tumbleweed.",
      "Title": "Details",
      "Type": "General"
    },
    {
      "Text": "The CVRF data is provided by SUSE under the Creative Commons License 4.0 with Attribution (CC-BY-4.0).",
      "Title": "Terms of Use",
      "Type": "Legal Disclaimer"
    },
    {
      "Text": "openSUSE-Tumbleweed-2024-13918",
      "Title": "Patchnames",
      "Type": "Details"
    }
  ],
  "ProductTree": {
    "Relationships": [
      {
        "ProductReference": "k9s-0.32.4-2.1",
        "RelatesToProductReference": "openSUSE Tumbleweed",
        "RelationType": "Default Component Of"
      }
    ]
  },
  "References": [
    {
      "URL": "https://www.suse.com/support/security/rating/",
      "Description": "SUSE Security Ratings"
    },
    {
      "URL": "https://www.suse.com/security/cve/CVE-2024-26147/",
      "Description": "SUSE CVE CVE-2024-26147 page"
    }
  ],
  "Vulnerabilities": [
    {
      "CVE": "CVE-2024-26147",
      "Description": "Helm is a package manager for Charts for Kubernetes. Versions prior to 3.14.2 contain an uninitialized variable vulnerability when Helm parses index and plugin yaml files missing expected content. When either an `index.yaml` file or a plugins `plugin.yaml` file were missing all metadata a panic would occur in Helm. In the Helm SDK, this is found when using the `LoadIndexFile` or `DownloadIndexFile` functions in the `repo` package or the `LoadDir` function in the `plugin` package. For the Helm client this impacts functions around adding a repository and all Helm functions if a malicious plugin is added as Helm inspects all known plugins on each invocation. This issue has been resolved in Helm v3.14.2. If a malicious plugin has been added which is causing all Helm client commands to panic, the malicious plugin can be manually removed from the filesystem. If using Helm SDK versions prior to 3.14.2, calls to affected functions can use `recover` to catch the panic.",
      "Threats": [
        {
          "Type": "Impact",
          "Severity": "moderate"
        }
      ],
      "References": [
        {
          "URL": "https://www.suse.com/security/cve/CVE-2024-26147.html",
          "Description": "CVE-2024-26147"
        },
        {
          "URL": "https://bugzilla.suse.com/1220207",
          "Description": "SUSE Bug 1220207"
        }
      ],
      "ProductStatuses": [
        {
          "Type": "Fixed",
          "ProductID": [
            "openSUSE Tumbleweed:k9s-0.32.4-2.1"
          ]
        }
      ],
      "CVSSScoreSets": {}
    }
  ]
}