{
  "Title": "cargo1.57-1.57.0-3.1 on GA media",
  "Tracking": {
    "ID": "openSUSE-SU-2024:11768-1",
    "Status": "Final",
    "Version": "1",
    "InitialReleaseDate": "2024-06-22T21:44:56Z",
    "CurrentReleaseDate": "2024-06-22T21:44:56Z",
    "RevisionHistory": [
      {
        "Number": "1",
        "Date": "2024-06-22T21:44:56Z",
        "Description": "current"
      }
    ]
  },
  "Notes": [
    {
      "Text": "cargo1.57-1.57.0-3.1 on GA media",
      "Title": "Topic",
      "Type": "Summary"
    },
    {
      "Text": "These are all security issues fixed in the cargo1.57-1.57.0-3.1 package on the GA media of openSUSE Tumbleweed.",
      "Title": "Details",
      "Type": "General"
    },
    {
      "Text": "The CVRF data is provided by SUSE under the Creative Commons License 4.0 with Attribution (CC-BY-4.0).",
      "Title": "Terms of Use",
      "Type": "Legal Disclaimer"
    },
    {
      "Text": "openSUSE-Tumbleweed-2024-11768",
      "Title": "Patchnames",
      "Type": "Details"
    }
  ],
  "ProductTree": {
    "Relationships": [
      {
        "ProductReference": "cargo1.57-1.57.0-3.1",
        "RelatesToProductReference": "openSUSE Tumbleweed",
        "RelationType": "Default Component Of"
      },
      {
        "ProductReference": "rust1.57-1.57.0-3.1",
        "RelatesToProductReference": "openSUSE Tumbleweed",
        "RelationType": "Default Component Of"
      }
    ]
  },
  "References": [
    {
      "URL": "https://www.suse.com/support/security/rating/",
      "Description": "SUSE Security Ratings"
    },
    {
      "URL": "https://www.suse.com/security/cve/CVE-2022-21658/",
      "Description": "SUSE CVE CVE-2022-21658 page"
    }
  ],
  "Vulnerabilities": [
    {
      "CVE": "CVE-2022-21658",
      "Description": "Rust is a multi-paradigm, general-purpose programming language designed for performance and safety, especially safe concurrency. The Rust Security Response WG was notified that the `std::fs::remove_dir_all` standard library function is vulnerable a race condition enabling symlink following (CWE-363). An attacker could use this security issue to trick a privileged program into deleting files and directories the attacker couldn't otherwise access or delete. Rust 1.0.0 through Rust 1.58.0 is affected by this vulnerability with 1.58.1 containing a patch. Note that the following build targets don't have usable APIs to properly mitigate the attack, and are thus still vulnerable even with a patched toolchain: macOS before version 10.10 (Yosemite) and REDOX. We recommend everyone to update to Rust 1.58.1 as soon as possible, especially people developing programs expected to run in privileged contexts (including system daemons and setuid binaries), as those have the highest risk of being affected by this. Note that adding checks in your codebase before calling remove_dir_all will not mitigate the vulnerability, as they would also be vulnerable to race conditions like remove_dir_all itself. The existing mitigation is working as intended outside of race conditions.",
      "Threats": [
        {
          "Type": "Impact",
          "Severity": "moderate"
        }
      ],
      "References": [
        {
          "URL": "https://www.suse.com/security/cve/CVE-2022-21658.html",
          "Description": "CVE-2022-21658"
        },
        {
          "URL": "https://bugzilla.suse.com/1194767",
          "Description": "SUSE Bug 1194767"
        }
      ],
      "ProductStatuses": [
        {
          "Type": "Fixed",
          "ProductID": [
            "openSUSE Tumbleweed:cargo1.57-1.57.0-3.1",
            "openSUSE Tumbleweed:rust1.57-1.57.0-3.1"
          ]
        }
      ],
      "CVSSScoreSets": {}
    }
  ]
}