{
  "Title": "libXrandr-devel-1.5.2-1.11 on GA media",
  "Tracking": {
    "ID": "openSUSE-SU-2024:10923-1",
    "Status": "Final",
    "Version": "1",
    "InitialReleaseDate": "2024-06-22T21:44:56Z",
    "CurrentReleaseDate": "2024-06-22T21:44:56Z",
    "RevisionHistory": [
      {
        "Number": "1",
        "Date": "2024-06-22T21:44:56Z",
        "Description": "current"
      }
    ]
  },
  "Notes": [
    {
      "Text": "libXrandr-devel-1.5.2-1.11 on GA media",
      "Title": "Topic",
      "Type": "Summary"
    },
    {
      "Text": "These are all security issues fixed in the libXrandr-devel-1.5.2-1.11 package on the GA media of openSUSE Tumbleweed.",
      "Title": "Details",
      "Type": "General"
    },
    {
      "Text": "The CVRF data is provided by SUSE under the Creative Commons License 4.0 with Attribution (CC-BY-4.0).",
      "Title": "Terms of Use",
      "Type": "Legal Disclaimer"
    },
    {
      "Text": "openSUSE-Tumbleweed-2024-10923",
      "Title": "Patchnames",
      "Type": "Details"
    }
  ],
  "ProductTree": {
    "Relationships": [
      {
        "ProductReference": "libXrandr-devel-1.5.2-1.11",
        "RelatesToProductReference": "openSUSE Tumbleweed",
        "RelationType": "Default Component Of"
      },
      {
        "ProductReference": "libXrandr-devel-32bit-1.5.2-1.11",
        "RelatesToProductReference": "openSUSE Tumbleweed",
        "RelationType": "Default Component Of"
      },
      {
        "ProductReference": "libXrandr2-1.5.2-1.11",
        "RelatesToProductReference": "openSUSE Tumbleweed",
        "RelationType": "Default Component Of"
      },
      {
        "ProductReference": "libXrandr2-32bit-1.5.2-1.11",
        "RelatesToProductReference": "openSUSE Tumbleweed",
        "RelationType": "Default Component Of"
      }
    ]
  },
  "References": [
    {
      "URL": "https://www.suse.com/support/security/rating/",
      "Description": "SUSE Security Ratings"
    },
    {
      "URL": "https://www.suse.com/security/cve/CVE-2016-7947/",
      "Description": "SUSE CVE CVE-2016-7947 page"
    }
  ],
  "Vulnerabilities": [
    {
      "CVE": "CVE-2016-7947",
      "Description": "Multiple integer overflows in X.org libXrandr before 1.5.1 allow remote X servers to trigger out-of-bounds write operations via a crafted response.",
      "Threats": [
        {
          "Type": "Impact",
          "Severity": "moderate"
        }
      ],
      "References": [
        {
          "URL": "https://www.suse.com/security/cve/CVE-2016-7947.html",
          "Description": "CVE-2016-7947"
        },
        {
          "URL": "https://bugzilla.suse.com/1003000",
          "Description": "SUSE Bug 1003000"
        },
        {
          "URL": "https://bugzilla.suse.com/1159415",
          "Description": "SUSE Bug 1159415"
        }
      ],
      "ProductStatuses": [
        {
          "Type": "Fixed",
          "ProductID": [
            "openSUSE Tumbleweed:libXrandr-devel-1.5.2-1.11",
            "openSUSE Tumbleweed:libXrandr-devel-32bit-1.5.2-1.11",
            "openSUSE Tumbleweed:libXrandr2-1.5.2-1.11",
            "openSUSE Tumbleweed:libXrandr2-32bit-1.5.2-1.11"
          ]
        }
      ],
      "CVSSScoreSets": {
        "BaseScore": "5.1",
        "Vector": "AV:N/AC:H/Au:N/C:P/I:P/A:P"
      }
    }
  ]
}