{
  "Title": "ImageMagick-7.1.1.12-1.1 on GA media",
  "Tracking": {
    "ID": "openSUSE-SU-2024:13030-1",
    "Status": "Final",
    "Version": "1",
    "InitialReleaseDate": "2024-06-20T21:44:22Z",
    "CurrentReleaseDate": "2024-06-20T21:44:22Z",
    "RevisionHistory": [
      {
        "Number": "1",
        "Date": "2024-06-20T21:44:22Z",
        "Description": "current"
      }
    ]
  },
  "Notes": [
    {
      "Text": "ImageMagick-7.1.1.12-1.1 on GA media",
      "Title": "Topic",
      "Type": "Summary"
    },
    {
      "Text": "These are all security issues fixed in the ImageMagick-7.1.1.12-1.1 package on the GA media of openSUSE Tumbleweed.",
      "Title": "Details",
      "Type": "General"
    },
    {
      "Text": "The CVRF data is provided by SUSE under the Creative Commons License 4.0 with Attribution (CC-BY-4.0).",
      "Title": "Terms of Use",
      "Type": "Legal Disclaimer"
    },
    {
      "Text": "openSUSE-Tumbleweed-2024-13030",
      "Title": "Patchnames",
      "Type": "Details"
    }
  ],
  "ProductTree": {
    "Relationships": [
      {
        "ProductReference": "ImageMagick-7.1.1.12-1.1",
        "RelatesToProductReference": "openSUSE Tumbleweed",
        "RelationType": "Default Component Of"
      },
      {
        "ProductReference": "ImageMagick-config-7-SUSE-7.1.1.12-1.1",
        "RelatesToProductReference": "openSUSE Tumbleweed",
        "RelationType": "Default Component Of"
      },
      {
        "ProductReference": "ImageMagick-config-7-upstream-7.1.1.12-1.1",
        "RelatesToProductReference": "openSUSE Tumbleweed",
        "RelationType": "Default Component Of"
      },
      {
        "ProductReference": "ImageMagick-devel-7.1.1.12-1.1",
        "RelatesToProductReference": "openSUSE Tumbleweed",
        "RelationType": "Default Component Of"
      },
      {
        "ProductReference": "ImageMagick-devel-32bit-7.1.1.12-1.1",
        "RelatesToProductReference": "openSUSE Tumbleweed",
        "RelationType": "Default Component Of"
      },
      {
        "ProductReference": "ImageMagick-doc-7.1.1.12-1.1",
        "RelatesToProductReference": "openSUSE Tumbleweed",
        "RelationType": "Default Component Of"
      },
      {
        "ProductReference": "ImageMagick-extra-7.1.1.12-1.1",
        "RelatesToProductReference": "openSUSE Tumbleweed",
        "RelationType": "Default Component Of"
      },
      {
        "ProductReference": "libMagick++-7_Q16HDRI5-7.1.1.12-1.1",
        "RelatesToProductReference": "openSUSE Tumbleweed",
        "RelationType": "Default Component Of"
      },
      {
        "ProductReference": "libMagick++-7_Q16HDRI5-32bit-7.1.1.12-1.1",
        "RelatesToProductReference": "openSUSE Tumbleweed",
        "RelationType": "Default Component Of"
      },
      {
        "ProductReference": "libMagick++-devel-7.1.1.12-1.1",
        "RelatesToProductReference": "openSUSE Tumbleweed",
        "RelationType": "Default Component Of"
      },
      {
        "ProductReference": "libMagick++-devel-32bit-7.1.1.12-1.1",
        "RelatesToProductReference": "openSUSE Tumbleweed",
        "RelationType": "Default Component Of"
      },
      {
        "ProductReference": "libMagickCore-7_Q16HDRI10-7.1.1.12-1.1",
        "RelatesToProductReference": "openSUSE Tumbleweed",
        "RelationType": "Default Component Of"
      },
      {
        "ProductReference": "libMagickCore-7_Q16HDRI10-32bit-7.1.1.12-1.1",
        "RelatesToProductReference": "openSUSE Tumbleweed",
        "RelationType": "Default Component Of"
      },
      {
        "ProductReference": "libMagickWand-7_Q16HDRI10-7.1.1.12-1.1",
        "RelatesToProductReference": "openSUSE Tumbleweed",
        "RelationType": "Default Component Of"
      },
      {
        "ProductReference": "libMagickWand-7_Q16HDRI10-32bit-7.1.1.12-1.1",
        "RelatesToProductReference": "openSUSE Tumbleweed",
        "RelationType": "Default Component Of"
      },
      {
        "ProductReference": "perl-PerlMagick-7.1.1.12-1.1",
        "RelatesToProductReference": "openSUSE Tumbleweed",
        "RelationType": "Default Component Of"
      }
    ]
  },
  "References": [
    {
      "URL": "https://www.suse.com/support/security/rating/",
      "Description": "SUSE Security Ratings"
    },
    {
      "URL": "https://www.suse.com/security/cve/CVE-2023-3428/",
      "Description": "SUSE CVE CVE-2023-3428 page"
    }
  ],
  "Vulnerabilities": [
    {
      "CVE": "CVE-2023-3428",
      "Description": "A heap-based buffer overflow vulnerability was found  in coders/tiff.c in ImageMagick. This issue may allow a local attacker to trick the user into opening a specially crafted file, resulting in an application crash and denial of service.",
      "Threats": [
        {
          "Type": "Impact",
          "Severity": "moderate"
        }
      ],
      "References": [
        {
          "URL": "https://www.suse.com/security/cve/CVE-2023-3428.html",
          "Description": "CVE-2023-3428"
        },
        {
          "URL": "https://bugzilla.suse.com/1212847",
          "Description": "SUSE Bug 1212847"
        }
      ],
      "ProductStatuses": [
        {
          "Type": "Fixed",
          "ProductID": [
            "openSUSE Tumbleweed:ImageMagick-7.1.1.12-1.1",
            "openSUSE Tumbleweed:ImageMagick-config-7-SUSE-7.1.1.12-1.1",
            "openSUSE Tumbleweed:ImageMagick-config-7-upstream-7.1.1.12-1.1",
            "openSUSE Tumbleweed:ImageMagick-devel-32bit-7.1.1.12-1.1",
            "openSUSE Tumbleweed:ImageMagick-devel-7.1.1.12-1.1",
            "openSUSE Tumbleweed:ImageMagick-doc-7.1.1.12-1.1",
            "openSUSE Tumbleweed:ImageMagick-extra-7.1.1.12-1.1",
            "openSUSE Tumbleweed:libMagick++-7_Q16HDRI5-32bit-7.1.1.12-1.1",
            "openSUSE Tumbleweed:libMagick++-7_Q16HDRI5-7.1.1.12-1.1",
            "openSUSE Tumbleweed:libMagick++-devel-32bit-7.1.1.12-1.1",
            "openSUSE Tumbleweed:libMagick++-devel-7.1.1.12-1.1",
            "openSUSE Tumbleweed:libMagickCore-7_Q16HDRI10-32bit-7.1.1.12-1.1",
            "openSUSE Tumbleweed:libMagickCore-7_Q16HDRI10-7.1.1.12-1.1",
            "openSUSE Tumbleweed:libMagickWand-7_Q16HDRI10-32bit-7.1.1.12-1.1",
            "openSUSE Tumbleweed:libMagickWand-7_Q16HDRI10-7.1.1.12-1.1",
            "openSUSE Tumbleweed:perl-PerlMagick-7.1.1.12-1.1"
          ]
        }
      ],
      "CVSSScoreSets": {}
    }
  ]
}