{
  "Title": "caddy-2.6.3-1.1 on GA media",
  "Tracking": {
    "ID": "openSUSE-SU-2024:12666-1",
    "Status": "Final",
    "Version": "1",
    "InitialReleaseDate": "2024-06-20T21:44:22Z",
    "CurrentReleaseDate": "2024-06-20T21:44:22Z",
    "RevisionHistory": [
      {
        "Number": "1",
        "Date": "2024-06-20T21:44:22Z",
        "Description": "current"
      }
    ]
  },
  "Notes": [
    {
      "Text": "caddy-2.6.3-1.1 on GA media",
      "Title": "Topic",
      "Type": "Summary"
    },
    {
      "Text": "These are all security issues fixed in the caddy-2.6.3-1.1 package on the GA media of openSUSE Tumbleweed.",
      "Title": "Details",
      "Type": "General"
    },
    {
      "Text": "The CVRF data is provided by SUSE under the Creative Commons License 4.0 with Attribution (CC-BY-4.0).",
      "Title": "Terms of Use",
      "Type": "Legal Disclaimer"
    },
    {
      "Text": "openSUSE-Tumbleweed-2024-12666",
      "Title": "Patchnames",
      "Type": "Details"
    }
  ],
  "ProductTree": {
    "Relationships": [
      {
        "ProductReference": "caddy-2.6.3-1.1",
        "RelatesToProductReference": "openSUSE Tumbleweed",
        "RelationType": "Default Component Of"
      }
    ]
  },
  "References": [
    {
      "URL": "https://www.suse.com/support/security/rating/",
      "Description": "SUSE Security Ratings"
    },
    {
      "URL": "https://www.suse.com/security/cve/CVE-2022-41721/",
      "Description": "SUSE CVE CVE-2022-41721 page"
    }
  ],
  "Vulnerabilities": [
    {
      "CVE": "CVE-2022-41721",
      "Description": "A request smuggling attack is possible when using MaxBytesHandler. When using MaxBytesHandler, the body of an HTTP request is not fully consumed. When the server attempts to read HTTP2 frames from the connection, it will instead be reading the body of the HTTP request, which could be attacker-manipulated to represent arbitrary HTTP2 requests.",
      "Threats": [
        {
          "Type": "Impact",
          "Severity": "moderate"
        }
      ],
      "References": [
        {
          "URL": "https://www.suse.com/security/cve/CVE-2022-41721.html",
          "Description": "CVE-2022-41721"
        },
        {
          "URL": "https://bugzilla.suse.com/1207206",
          "Description": "SUSE Bug 1207206"
        }
      ],
      "ProductStatuses": [
        {
          "Type": "Fixed",
          "ProductID": [
            "openSUSE Tumbleweed:caddy-2.6.3-1.1"
          ]
        }
      ],
      "CVSSScoreSets": {}
    }
  ]
}