{
  "Title": "atril-1.26.1-2.1 on GA media",
  "Tracking": {
    "ID": "openSUSE-SU-2024:13614-1",
    "Status": "Final",
    "Version": "1",
    "InitialReleaseDate": "2024-06-20T21:44:22Z",
    "CurrentReleaseDate": "2024-06-20T21:44:22Z",
    "RevisionHistory": [
      {
        "Number": "1",
        "Date": "2024-06-20T21:44:22Z",
        "Description": "current"
      }
    ]
  },
  "Notes": [
    {
      "Text": "atril-1.26.1-2.1 on GA media",
      "Title": "Topic",
      "Type": "Summary"
    },
    {
      "Text": "These are all security issues fixed in the atril-1.26.1-2.1 package on the GA media of openSUSE Tumbleweed.",
      "Title": "Details",
      "Type": "General"
    },
    {
      "Text": "The CVRF data is provided by SUSE under the Creative Commons License 4.0 with Attribution (CC-BY-4.0).",
      "Title": "Terms of Use",
      "Type": "Legal Disclaimer"
    },
    {
      "Text": "openSUSE-Tumbleweed-2024-13614",
      "Title": "Patchnames",
      "Type": "Details"
    }
  ],
  "ProductTree": {
    "Relationships": [
      {
        "ProductReference": "atril-1.26.1-2.1",
        "RelatesToProductReference": "openSUSE Tumbleweed",
        "RelationType": "Default Component Of"
      },
      {
        "ProductReference": "atril-backends-1.26.1-2.1",
        "RelatesToProductReference": "openSUSE Tumbleweed",
        "RelationType": "Default Component Of"
      },
      {
        "ProductReference": "atril-devel-1.26.1-2.1",
        "RelatesToProductReference": "openSUSE Tumbleweed",
        "RelationType": "Default Component Of"
      },
      {
        "ProductReference": "atril-doc-1.26.1-2.1",
        "RelatesToProductReference": "openSUSE Tumbleweed",
        "RelationType": "Default Component Of"
      },
      {
        "ProductReference": "atril-lang-1.26.1-2.1",
        "RelatesToProductReference": "openSUSE Tumbleweed",
        "RelationType": "Default Component Of"
      },
      {
        "ProductReference": "atril-thumbnailer-1.26.1-2.1",
        "RelatesToProductReference": "openSUSE Tumbleweed",
        "RelationType": "Default Component Of"
      },
      {
        "ProductReference": "caja-extension-atril-1.26.1-2.1",
        "RelatesToProductReference": "openSUSE Tumbleweed",
        "RelationType": "Default Component Of"
      },
      {
        "ProductReference": "libatrildocument3-1.26.1-2.1",
        "RelatesToProductReference": "openSUSE Tumbleweed",
        "RelationType": "Default Component Of"
      },
      {
        "ProductReference": "libatrilview3-1.26.1-2.1",
        "RelatesToProductReference": "openSUSE Tumbleweed",
        "RelationType": "Default Component Of"
      },
      {
        "ProductReference": "typelib-1_0-AtrilDocument-1_5_0-1.26.1-2.1",
        "RelatesToProductReference": "openSUSE Tumbleweed",
        "RelationType": "Default Component Of"
      },
      {
        "ProductReference": "typelib-1_0-AtrilView-1_5_0-1.26.1-2.1",
        "RelatesToProductReference": "openSUSE Tumbleweed",
        "RelationType": "Default Component Of"
      }
    ]
  },
  "References": [
    {
      "URL": "https://www.suse.com/support/security/rating/",
      "Description": "SUSE Security Ratings"
    },
    {
      "URL": "https://www.suse.com/security/cve/CVE-2023-51698/",
      "Description": "SUSE CVE CVE-2023-51698 page"
    }
  ],
  "Vulnerabilities": [
    {
      "CVE": "CVE-2023-51698",
      "Description": "Atril is a simple multi-page document viewer. Atril is vulnerable to a critical Command Injection Vulnerability. This vulnerability gives the attacker immediate access to the target system when the target user opens a crafted document or clicks on a crafted link/URL using a maliciously crafted CBT document which is a TAR archive. A patch is available at commit ce41df6.\n",
      "Threats": [
        {
          "Type": "Impact",
          "Severity": "moderate"
        }
      ],
      "References": [
        {
          "URL": "https://www.suse.com/security/cve/CVE-2023-51698.html",
          "Description": "CVE-2023-51698"
        },
        {
          "URL": "https://bugzilla.suse.com/1218806",
          "Description": "SUSE Bug 1218806"
        }
      ],
      "ProductStatuses": [
        {
          "Type": "Fixed",
          "ProductID": [
            "openSUSE Tumbleweed:atril-1.26.1-2.1",
            "openSUSE Tumbleweed:atril-backends-1.26.1-2.1",
            "openSUSE Tumbleweed:atril-devel-1.26.1-2.1",
            "openSUSE Tumbleweed:atril-doc-1.26.1-2.1",
            "openSUSE Tumbleweed:atril-lang-1.26.1-2.1",
            "openSUSE Tumbleweed:atril-thumbnailer-1.26.1-2.1",
            "openSUSE Tumbleweed:caja-extension-atril-1.26.1-2.1",
            "openSUSE Tumbleweed:libatrildocument3-1.26.1-2.1",
            "openSUSE Tumbleweed:libatrilview3-1.26.1-2.1",
            "openSUSE Tumbleweed:typelib-1_0-AtrilDocument-1_5_0-1.26.1-2.1",
            "openSUSE Tumbleweed:typelib-1_0-AtrilView-1_5_0-1.26.1-2.1"
          ]
        }
      ],
      "CVSSScoreSets": {}
    }
  ]
}