{
  "Title": "suse-module-tools-16.0.36-2.1 on GA media",
  "Tracking": {
    "ID": "openSUSE-SU-2024:13339-1",
    "Status": "Final",
    "Version": "1",
    "InitialReleaseDate": "2024-06-20T21:44:22Z",
    "CurrentReleaseDate": "2024-06-20T21:44:22Z",
    "RevisionHistory": [
      {
        "Number": "1",
        "Date": "2024-06-20T21:44:22Z",
        "Description": "current"
      }
    ]
  },
  "Notes": [
    {
      "Text": "suse-module-tools-16.0.36-2.1 on GA media",
      "Title": "Topic",
      "Type": "Summary"
    },
    {
      "Text": "These are all security issues fixed in the suse-module-tools-16.0.36-2.1 package on the GA media of openSUSE Tumbleweed.",
      "Title": "Details",
      "Type": "General"
    },
    {
      "Text": "The CVRF data is provided by SUSE under the Creative Commons License 4.0 with Attribution (CC-BY-4.0).",
      "Title": "Terms of Use",
      "Type": "Legal Disclaimer"
    },
    {
      "Text": "openSUSE-Tumbleweed-2024-13339",
      "Title": "Patchnames",
      "Type": "Details"
    }
  ],
  "ProductTree": {
    "Relationships": [
      {
        "ProductReference": "suse-module-tools-16.0.36-2.1",
        "RelatesToProductReference": "openSUSE Tumbleweed",
        "RelationType": "Default Component Of"
      },
      {
        "ProductReference": "suse-module-tools-scriptlets-16.0.36-2.1",
        "RelatesToProductReference": "openSUSE Tumbleweed",
        "RelationType": "Default Component Of"
      }
    ]
  },
  "References": [
    {
      "URL": "https://www.suse.com/support/security/rating/",
      "Description": "SUSE Security Ratings"
    },
    {
      "URL": "https://www.suse.com/security/cve/CVE-2023-23559/",
      "Description": "SUSE CVE CVE-2023-23559 page"
    }
  ],
  "Vulnerabilities": [
    {
      "CVE": "CVE-2023-23559",
      "Description": "In rndis_query_oid in drivers/net/wireless/rndis_wlan.c in the Linux kernel through 6.1.5, there is an integer overflow in an addition.",
      "Threats": [
        {
          "Type": "Impact",
          "Severity": "moderate"
        }
      ],
      "References": [
        {
          "URL": "https://www.suse.com/security/cve/CVE-2023-23559.html",
          "Description": "CVE-2023-23559"
        },
        {
          "URL": "https://bugzilla.suse.com/1207051",
          "Description": "SUSE Bug 1207051"
        }
      ],
      "ProductStatuses": [
        {
          "Type": "Fixed",
          "ProductID": [
            "openSUSE Tumbleweed:suse-module-tools-16.0.36-2.1",
            "openSUSE Tumbleweed:suse-module-tools-scriptlets-16.0.36-2.1"
          ]
        }
      ],
      "CVSSScoreSets": {}
    }
  ]
}