{
  "Title": "axel-2.17.10-1.6 on GA media",
  "Tracking": {
    "ID": "openSUSE-SU-2024:10645-1",
    "Status": "Final",
    "Version": "1",
    "InitialReleaseDate": "2024-06-22T21:44:56Z",
    "CurrentReleaseDate": "2024-06-22T21:44:56Z",
    "RevisionHistory": [
      {
        "Number": "1",
        "Date": "2024-06-22T21:44:56Z",
        "Description": "current"
      }
    ]
  },
  "Notes": [
    {
      "Text": "axel-2.17.10-1.6 on GA media",
      "Title": "Topic",
      "Type": "Summary"
    },
    {
      "Text": "These are all security issues fixed in the axel-2.17.10-1.6 package on the GA media of openSUSE Tumbleweed.",
      "Title": "Details",
      "Type": "General"
    },
    {
      "Text": "The CVRF data is provided by SUSE under the Creative Commons License 4.0 with Attribution (CC-BY-4.0).",
      "Title": "Terms of Use",
      "Type": "Legal Disclaimer"
    },
    {
      "Text": "openSUSE-Tumbleweed-2024-10645",
      "Title": "Patchnames",
      "Type": "Details"
    }
  ],
  "ProductTree": {
    "Relationships": [
      {
        "ProductReference": "axel-2.17.10-1.6",
        "RelatesToProductReference": "openSUSE Tumbleweed",
        "RelationType": "Default Component Of"
      }
    ]
  },
  "References": [
    {
      "URL": "https://www.suse.com/support/security/rating/",
      "Description": "SUSE Security Ratings"
    },
    {
      "URL": "https://www.suse.com/security/cve/CVE-2020-13614/",
      "Description": "SUSE CVE CVE-2020-13614 page"
    }
  ],
  "Vulnerabilities": [
    {
      "CVE": "CVE-2020-13614",
      "Description": "An issue was discovered in ssl.c in Axel before 2.17.8. The TLS implementation lacks hostname verification.",
      "Threats": [
        {
          "Type": "Impact",
          "Severity": "moderate"
        }
      ],
      "References": [
        {
          "URL": "https://www.suse.com/security/cve/CVE-2020-13614.html",
          "Description": "CVE-2020-13614"
        },
        {
          "URL": "https://bugzilla.suse.com/1172159",
          "Description": "SUSE Bug 1172159"
        }
      ],
      "ProductStatuses": [
        {
          "Type": "Fixed",
          "ProductID": [
            "openSUSE Tumbleweed:axel-2.17.10-1.6"
          ]
        }
      ],
      "CVSSScoreSets": {}
    }
  ]
}