{
  "Title": "xen-4.17.0_06-1.1 on GA media",
  "Tracking": {
    "ID": "openSUSE-SU-2024:12833-1",
    "Status": "Final",
    "Version": "1",
    "InitialReleaseDate": "2024-06-20T21:44:22Z",
    "CurrentReleaseDate": "2024-06-20T21:44:22Z",
    "RevisionHistory": [
      {
        "Number": "1",
        "Date": "2024-06-20T21:44:22Z",
        "Description": "current"
      }
    ]
  },
  "Notes": [
    {
      "Text": "xen-4.17.0_06-1.1 on GA media",
      "Title": "Topic",
      "Type": "Summary"
    },
    {
      "Text": "These are all security issues fixed in the xen-4.17.0_06-1.1 package on the GA media of openSUSE Tumbleweed.",
      "Title": "Details",
      "Type": "General"
    },
    {
      "Text": "The CVRF data is provided by SUSE under the Creative Commons License 4.0 with Attribution (CC-BY-4.0).",
      "Title": "Terms of Use",
      "Type": "Legal Disclaimer"
    },
    {
      "Text": "openSUSE-Tumbleweed-2024-12833",
      "Title": "Patchnames",
      "Type": "Details"
    }
  ],
  "ProductTree": {
    "Relationships": [
      {
        "ProductReference": "xen-4.17.0_06-1.1",
        "RelatesToProductReference": "openSUSE Tumbleweed",
        "RelationType": "Default Component Of"
      },
      {
        "ProductReference": "xen-devel-4.17.0_06-1.1",
        "RelatesToProductReference": "openSUSE Tumbleweed",
        "RelationType": "Default Component Of"
      },
      {
        "ProductReference": "xen-doc-html-4.17.0_06-1.1",
        "RelatesToProductReference": "openSUSE Tumbleweed",
        "RelationType": "Default Component Of"
      },
      {
        "ProductReference": "xen-libs-4.17.0_06-1.1",
        "RelatesToProductReference": "openSUSE Tumbleweed",
        "RelationType": "Default Component Of"
      },
      {
        "ProductReference": "xen-libs-32bit-4.17.0_06-1.1",
        "RelatesToProductReference": "openSUSE Tumbleweed",
        "RelationType": "Default Component Of"
      },
      {
        "ProductReference": "xen-tools-4.17.0_06-1.1",
        "RelatesToProductReference": "openSUSE Tumbleweed",
        "RelationType": "Default Component Of"
      },
      {
        "ProductReference": "xen-tools-domU-4.17.0_06-1.1",
        "RelatesToProductReference": "openSUSE Tumbleweed",
        "RelationType": "Default Component Of"
      },
      {
        "ProductReference": "xen-tools-xendomains-wait-disk-4.17.0_06-1.1",
        "RelatesToProductReference": "openSUSE Tumbleweed",
        "RelationType": "Default Component Of"
      }
    ]
  },
  "References": [
    {
      "URL": "https://www.suse.com/support/security/rating/",
      "Description": "SUSE Security Ratings"
    },
    {
      "URL": "https://www.suse.com/security/cve/CVE-2022-42331/",
      "Description": "SUSE CVE CVE-2022-42331 page"
    },
    {
      "URL": "https://www.suse.com/security/cve/CVE-2022-42332/",
      "Description": "SUSE CVE CVE-2022-42332 page"
    },
    {
      "URL": "https://www.suse.com/security/cve/CVE-2022-42333/",
      "Description": "SUSE CVE CVE-2022-42333 page"
    }
  ],
  "Vulnerabilities": [
    {
      "CVE": "CVE-2022-42331",
      "Description": "x86: speculative vulnerability in 32bit SYSCALL path Due to an oversight in the very original Spectre/Meltdown security work (XSA-254), one entrypath performs its speculation-safety actions too late. In some configurations, there is an unprotected RET instruction which can be attacked with a variety of speculative attacks.",
      "Threats": [
        {
          "Type": "Impact",
          "Severity": "moderate"
        }
      ],
      "References": [
        {
          "URL": "https://www.suse.com/security/cve/CVE-2022-42331.html",
          "Description": "CVE-2022-42331"
        },
        {
          "URL": "https://bugzilla.suse.com/1209019",
          "Description": "SUSE Bug 1209019"
        }
      ],
      "ProductStatuses": [
        {
          "Type": "Fixed",
          "ProductID": [
            "openSUSE Tumbleweed:xen-4.17.0_06-1.1",
            "openSUSE Tumbleweed:xen-devel-4.17.0_06-1.1",
            "openSUSE Tumbleweed:xen-doc-html-4.17.0_06-1.1",
            "openSUSE Tumbleweed:xen-libs-32bit-4.17.0_06-1.1",
            "openSUSE Tumbleweed:xen-libs-4.17.0_06-1.1",
            "openSUSE Tumbleweed:xen-tools-4.17.0_06-1.1",
            "openSUSE Tumbleweed:xen-tools-domU-4.17.0_06-1.1",
            "openSUSE Tumbleweed:xen-tools-xendomains-wait-disk-4.17.0_06-1.1"
          ]
        }
      ],
      "CVSSScoreSets": {}
    },
    {
      "CVE": "CVE-2022-42332",
      "Description": "x86 shadow plus log-dirty mode use-after-free In environments where host assisted address translation is necessary but Hardware Assisted Paging (HAP) is unavailable, Xen will run guests in so called shadow mode. Shadow mode maintains a pool of memory used for both shadow page tables as well as auxiliary data structures. To migrate or snapshot guests, Xen additionally runs them in so called log-dirty mode. The data structures needed by the log-dirty tracking are part of aformentioned auxiliary data. In order to keep error handling efforts within reasonable bounds, for operations which may require memory allocations shadow mode logic ensures up front that enough memory is available for the worst case requirements. Unfortunately, while page table memory is properly accounted for on the code path requiring the potential establishing of new shadows, demands by the log-dirty infrastructure were not taken into consideration. As a result, just established shadow page tables could be freed again immediately, while other code is still accessing them on the assumption that they would remain allocated.",
      "Threats": [
        {
          "Type": "Impact",
          "Severity": "moderate"
        }
      ],
      "References": [
        {
          "URL": "https://www.suse.com/security/cve/CVE-2022-42332.html",
          "Description": "CVE-2022-42332"
        },
        {
          "URL": "https://bugzilla.suse.com/1209017",
          "Description": "SUSE Bug 1209017"
        }
      ],
      "ProductStatuses": [
        {
          "Type": "Fixed",
          "ProductID": [
            "openSUSE Tumbleweed:xen-4.17.0_06-1.1",
            "openSUSE Tumbleweed:xen-devel-4.17.0_06-1.1",
            "openSUSE Tumbleweed:xen-doc-html-4.17.0_06-1.1",
            "openSUSE Tumbleweed:xen-libs-32bit-4.17.0_06-1.1",
            "openSUSE Tumbleweed:xen-libs-4.17.0_06-1.1",
            "openSUSE Tumbleweed:xen-tools-4.17.0_06-1.1",
            "openSUSE Tumbleweed:xen-tools-domU-4.17.0_06-1.1",
            "openSUSE Tumbleweed:xen-tools-xendomains-wait-disk-4.17.0_06-1.1"
          ]
        }
      ],
      "CVSSScoreSets": {}
    },
    {
      "CVE": "CVE-2022-42333",
      "Description": "x86/HVM pinned cache attributes mis-handling T[his CNA information record relates to multiple CVEs; the text explains which aspects/vulnerabilities correspond to which CVE.] To allow cachability control for HVM guests with passed through devices, an interface exists to explicitly override defaults which would otherwise be put in place. While not exposed to the affected guests themselves, the interface specifically exists for domains controlling such guests. This interface may therefore be used by not fully privileged entities, e.g. qemu running deprivileged in Dom0 or qemu running in a so called stub-domain. With this exposure it is an issue that - the number of the such controlled regions was unbounded (CVE-2022-42333), - installation and removal of such regions was not properly serialized (CVE-2022-42334).",
      "Threats": [
        {
          "Type": "Impact",
          "Severity": "moderate"
        }
      ],
      "References": [
        {
          "URL": "https://www.suse.com/security/cve/CVE-2022-42333.html",
          "Description": "CVE-2022-42333"
        },
        {
          "URL": "https://bugzilla.suse.com/1209018",
          "Description": "SUSE Bug 1209018"
        }
      ],
      "ProductStatuses": [
        {
          "Type": "Fixed",
          "ProductID": [
            "openSUSE Tumbleweed:xen-4.17.0_06-1.1",
            "openSUSE Tumbleweed:xen-devel-4.17.0_06-1.1",
            "openSUSE Tumbleweed:xen-doc-html-4.17.0_06-1.1",
            "openSUSE Tumbleweed:xen-libs-32bit-4.17.0_06-1.1",
            "openSUSE Tumbleweed:xen-libs-4.17.0_06-1.1",
            "openSUSE Tumbleweed:xen-tools-4.17.0_06-1.1",
            "openSUSE Tumbleweed:xen-tools-domU-4.17.0_06-1.1",
            "openSUSE Tumbleweed:xen-tools-xendomains-wait-disk-4.17.0_06-1.1"
          ]
        }
      ],
      "CVSSScoreSets": {}
    }
  ]
}