{
  "Title": "zabbix-agent-4.0.37-1.1 on GA media",
  "Tracking": {
    "ID": "openSUSE-SU-2024:11772-1",
    "Status": "Final",
    "Version": "1",
    "InitialReleaseDate": "2024-06-22T21:44:56Z",
    "CurrentReleaseDate": "2024-06-22T21:44:56Z",
    "RevisionHistory": [
      {
        "Number": "1",
        "Date": "2024-06-22T21:44:56Z",
        "Description": "current"
      }
    ]
  },
  "Notes": [
    {
      "Text": "zabbix-agent-4.0.37-1.1 on GA media",
      "Title": "Topic",
      "Type": "Summary"
    },
    {
      "Text": "These are all security issues fixed in the zabbix-agent-4.0.37-1.1 package on the GA media of openSUSE Tumbleweed.",
      "Title": "Details",
      "Type": "General"
    },
    {
      "Text": "The CVRF data is provided by SUSE under the Creative Commons License 4.0 with Attribution (CC-BY-4.0).",
      "Title": "Terms of Use",
      "Type": "Legal Disclaimer"
    },
    {
      "Text": "openSUSE-Tumbleweed-2024-11772",
      "Title": "Patchnames",
      "Type": "Details"
    }
  ],
  "ProductTree": {
    "Relationships": [
      {
        "ProductReference": "zabbix-agent-4.0.37-1.1",
        "RelatesToProductReference": "openSUSE Tumbleweed",
        "RelationType": "Default Component Of"
      },
      {
        "ProductReference": "zabbix-java-gateway-4.0.37-1.1",
        "RelatesToProductReference": "openSUSE Tumbleweed",
        "RelationType": "Default Component Of"
      },
      {
        "ProductReference": "zabbix-phpfrontend-4.0.37-1.1",
        "RelatesToProductReference": "openSUSE Tumbleweed",
        "RelationType": "Default Component Of"
      },
      {
        "ProductReference": "zabbix-proxy-4.0.37-1.1",
        "RelatesToProductReference": "openSUSE Tumbleweed",
        "RelationType": "Default Component Of"
      },
      {
        "ProductReference": "zabbix-proxy-mysql-4.0.37-1.1",
        "RelatesToProductReference": "openSUSE Tumbleweed",
        "RelationType": "Default Component Of"
      },
      {
        "ProductReference": "zabbix-proxy-postgresql-4.0.37-1.1",
        "RelatesToProductReference": "openSUSE Tumbleweed",
        "RelationType": "Default Component Of"
      },
      {
        "ProductReference": "zabbix-proxy-sqlite-4.0.37-1.1",
        "RelatesToProductReference": "openSUSE Tumbleweed",
        "RelationType": "Default Component Of"
      },
      {
        "ProductReference": "zabbix-server-4.0.37-1.1",
        "RelatesToProductReference": "openSUSE Tumbleweed",
        "RelationType": "Default Component Of"
      },
      {
        "ProductReference": "zabbix-server-mysql-4.0.37-1.1",
        "RelatesToProductReference": "openSUSE Tumbleweed",
        "RelationType": "Default Component Of"
      },
      {
        "ProductReference": "zabbix-server-postgresql-4.0.37-1.1",
        "RelatesToProductReference": "openSUSE Tumbleweed",
        "RelationType": "Default Component Of"
      }
    ]
  },
  "References": [
    {
      "URL": "https://www.suse.com/support/security/rating/",
      "Description": "SUSE Security Ratings"
    },
    {
      "URL": "https://www.suse.com/security/cve/CVE-2022-23134/",
      "Description": "SUSE CVE CVE-2022-23134 page"
    }
  ],
  "Vulnerabilities": [
    {
      "CVE": "CVE-2022-23134",
      "Description": "After the initial setup process, some steps of setup.php file are reachable not only by super-administrators, but by unauthenticated users as well. Malicious actor can pass step checks and potentially change the configuration of Zabbix Frontend.",
      "Threats": [
        {
          "Type": "Impact",
          "Severity": "low"
        }
      ],
      "References": [
        {
          "URL": "https://www.suse.com/security/cve/CVE-2022-23134.html",
          "Description": "CVE-2022-23134"
        },
        {
          "URL": "https://bugzilla.suse.com/1194681",
          "Description": "SUSE Bug 1194681"
        }
      ],
      "ProductStatuses": [
        {
          "Type": "Fixed",
          "ProductID": [
            "openSUSE Tumbleweed:zabbix-agent-4.0.37-1.1",
            "openSUSE Tumbleweed:zabbix-java-gateway-4.0.37-1.1",
            "openSUSE Tumbleweed:zabbix-phpfrontend-4.0.37-1.1",
            "openSUSE Tumbleweed:zabbix-proxy-4.0.37-1.1",
            "openSUSE Tumbleweed:zabbix-proxy-mysql-4.0.37-1.1",
            "openSUSE Tumbleweed:zabbix-proxy-postgresql-4.0.37-1.1",
            "openSUSE Tumbleweed:zabbix-proxy-sqlite-4.0.37-1.1",
            "openSUSE Tumbleweed:zabbix-server-4.0.37-1.1",
            "openSUSE Tumbleweed:zabbix-server-mysql-4.0.37-1.1",
            "openSUSE Tumbleweed:zabbix-server-postgresql-4.0.37-1.1"
          ]
        }
      ],
      "CVSSScoreSets": {}
    }
  ]
}