{
  "Title": "python310-PyMySQL-1.1.1-1.1 on GA media",
  "Tracking": {
    "ID": "openSUSE-SU-2024:13993-1",
    "Status": "Final",
    "Version": "1",
    "InitialReleaseDate": "2024-06-20T21:44:22Z",
    "CurrentReleaseDate": "2024-06-20T21:44:22Z",
    "RevisionHistory": [
      {
        "Number": "1",
        "Date": "2024-06-20T21:44:22Z",
        "Description": "current"
      }
    ]
  },
  "Notes": [
    {
      "Text": "python310-PyMySQL-1.1.1-1.1 on GA media",
      "Title": "Topic",
      "Type": "Summary"
    },
    {
      "Text": "These are all security issues fixed in the python310-PyMySQL-1.1.1-1.1 package on the GA media of openSUSE Tumbleweed.",
      "Title": "Details",
      "Type": "General"
    },
    {
      "Text": "The CVRF data is provided by SUSE under the Creative Commons License 4.0 with Attribution (CC-BY-4.0).",
      "Title": "Terms of Use",
      "Type": "Legal Disclaimer"
    },
    {
      "Text": "openSUSE-Tumbleweed-2024-13993",
      "Title": "Patchnames",
      "Type": "Details"
    }
  ],
  "ProductTree": {
    "Relationships": [
      {
        "ProductReference": "python310-PyMySQL-1.1.1-1.1",
        "RelatesToProductReference": "openSUSE Tumbleweed",
        "RelationType": "Default Component Of"
      },
      {
        "ProductReference": "python311-PyMySQL-1.1.1-1.1",
        "RelatesToProductReference": "openSUSE Tumbleweed",
        "RelationType": "Default Component Of"
      },
      {
        "ProductReference": "python312-PyMySQL-1.1.1-1.1",
        "RelatesToProductReference": "openSUSE Tumbleweed",
        "RelationType": "Default Component Of"
      }
    ]
  },
  "References": [
    {
      "URL": "https://www.suse.com/support/security/rating/",
      "Description": "SUSE Security Ratings"
    },
    {
      "URL": "https://www.suse.com/security/cve/CVE-2024-36039/",
      "Description": "SUSE CVE CVE-2024-36039 page"
    }
  ],
  "Vulnerabilities": [
    {
      "CVE": "CVE-2024-36039",
      "Description": "PyMySQL through 1.1.0 allows SQL injection if used with untrusted JSON input because keys are not escaped by escape_dict.",
      "Threats": [
        {
          "Type": "Impact",
          "Severity": "moderate"
        }
      ],
      "References": [
        {
          "URL": "https://www.suse.com/security/cve/CVE-2024-36039.html",
          "Description": "CVE-2024-36039"
        },
        {
          "URL": "https://bugzilla.suse.com/1225070",
          "Description": "SUSE Bug 1225070"
        }
      ],
      "ProductStatuses": [
        {
          "Type": "Fixed",
          "ProductID": [
            "openSUSE Tumbleweed:python310-PyMySQL-1.1.1-1.1",
            "openSUSE Tumbleweed:python311-PyMySQL-1.1.1-1.1",
            "openSUSE Tumbleweed:python312-PyMySQL-1.1.1-1.1"
          ]
        }
      ],
      "CVSSScoreSets": {}
    }
  ]
}