{
  "Title": "libcue-devel-2.3.0-1.1 on GA media",
  "Tracking": {
    "ID": "openSUSE-SU-2024:13319-1",
    "Status": "Final",
    "Version": "1",
    "InitialReleaseDate": "2024-06-20T21:44:22Z",
    "CurrentReleaseDate": "2024-06-20T21:44:22Z",
    "RevisionHistory": [
      {
        "Number": "1",
        "Date": "2024-06-20T21:44:22Z",
        "Description": "current"
      }
    ]
  },
  "Notes": [
    {
      "Text": "libcue-devel-2.3.0-1.1 on GA media",
      "Title": "Topic",
      "Type": "Summary"
    },
    {
      "Text": "These are all security issues fixed in the libcue-devel-2.3.0-1.1 package on the GA media of openSUSE Tumbleweed.",
      "Title": "Details",
      "Type": "General"
    },
    {
      "Text": "The CVRF data is provided by SUSE under the Creative Commons License 4.0 with Attribution (CC-BY-4.0).",
      "Title": "Terms of Use",
      "Type": "Legal Disclaimer"
    },
    {
      "Text": "openSUSE-Tumbleweed-2024-13319",
      "Title": "Patchnames",
      "Type": "Details"
    }
  ],
  "ProductTree": {
    "Relationships": [
      {
        "ProductReference": "libcue-devel-2.3.0-1.1",
        "RelatesToProductReference": "openSUSE Tumbleweed",
        "RelationType": "Default Component Of"
      },
      {
        "ProductReference": "libcue2-2.3.0-1.1",
        "RelatesToProductReference": "openSUSE Tumbleweed",
        "RelationType": "Default Component Of"
      }
    ]
  },
  "References": [
    {
      "URL": "https://www.suse.com/support/security/rating/",
      "Description": "SUSE Security Ratings"
    },
    {
      "URL": "https://www.suse.com/security/cve/CVE-2023-43641/",
      "Description": "SUSE CVE CVE-2023-43641 page"
    }
  ],
  "Vulnerabilities": [
    {
      "CVE": "CVE-2023-43641",
      "Description": "libcue provides an API for parsing and extracting data from CUE sheets. Versions 2.2.1 and prior are vulnerable to out-of-bounds array access. A user of the GNOME desktop environment can be exploited by downloading a cue sheet from a malicious webpage. Because the file is saved to `~/Downloads`, it is then automatically scanned by tracker-miners. And because it has a .cue filename extension, tracker-miners use libcue to parse the file. The file exploits the vulnerability in libcue to gain code execution. This issue is patched in version 2.3.0.",
      "Threats": [
        {
          "Type": "Impact",
          "Severity": "moderate"
        }
      ],
      "References": [
        {
          "URL": "https://www.suse.com/security/cve/CVE-2023-43641.html",
          "Description": "CVE-2023-43641"
        },
        {
          "URL": "https://bugzilla.suse.com/1215728",
          "Description": "SUSE Bug 1215728"
        }
      ],
      "ProductStatuses": [
        {
          "Type": "Fixed",
          "ProductID": [
            "openSUSE Tumbleweed:libcue-devel-2.3.0-1.1",
            "openSUSE Tumbleweed:libcue2-2.3.0-1.1"
          ]
        }
      ],
      "CVSSScoreSets": {}
    }
  ]
}