{
  "Title": "element-web-1.11.8-1.1 on GA media",
  "Tracking": {
    "ID": "openSUSE-SU-2024:12375-1",
    "Status": "Final",
    "Version": "1",
    "InitialReleaseDate": "2024-06-20T21:44:22Z",
    "CurrentReleaseDate": "2024-06-20T21:44:22Z",
    "RevisionHistory": [
      {
        "Number": "1",
        "Date": "2024-06-20T21:44:22Z",
        "Description": "current"
      }
    ]
  },
  "Notes": [
    {
      "Text": "element-web-1.11.8-1.1 on GA media",
      "Title": "Topic",
      "Type": "Summary"
    },
    {
      "Text": "These are all security issues fixed in the element-web-1.11.8-1.1 package on the GA media of openSUSE Tumbleweed.",
      "Title": "Details",
      "Type": "General"
    },
    {
      "Text": "The CVRF data is provided by SUSE under the Creative Commons License 4.0 with Attribution (CC-BY-4.0).",
      "Title": "Terms of Use",
      "Type": "Legal Disclaimer"
    },
    {
      "Text": "openSUSE-Tumbleweed-2024-12375",
      "Title": "Patchnames",
      "Type": "Details"
    }
  ],
  "ProductTree": {
    "Relationships": [
      {
        "ProductReference": "element-web-1.11.8-1.1",
        "RelatesToProductReference": "openSUSE Tumbleweed",
        "RelationType": "Default Component Of"
      }
    ]
  },
  "References": [
    {
      "URL": "https://www.suse.com/support/security/rating/",
      "Description": "SUSE Security Ratings"
    },
    {
      "URL": "https://www.suse.com/security/cve/CVE-2022-39236/",
      "Description": "SUSE CVE CVE-2022-39236 page"
    },
    {
      "URL": "https://www.suse.com/security/cve/CVE-2022-39249/",
      "Description": "SUSE CVE CVE-2022-39249 page"
    },
    {
      "URL": "https://www.suse.com/security/cve/CVE-2022-39250/",
      "Description": "SUSE CVE CVE-2022-39250 page"
    },
    {
      "URL": "https://www.suse.com/security/cve/CVE-2022-39251/",
      "Description": "SUSE CVE CVE-2022-39251 page"
    }
  ],
  "Vulnerabilities": [
    {
      "CVE": "CVE-2022-39236",
      "Description": "Matrix Javascript SDK is the Matrix Client-Server SDK for JavaScript. Starting with version 17.1.0-rc.1, improperly formed beacon events can disrupt or impede the matrix-js-sdk from functioning properly, potentially impacting the consumer's ability to process data safely. Note that the matrix-js-sdk can appear to be operating normally but be excluding or corrupting runtime data presented to the consumer. This is patched in matrix-js-sdk v19.7.0. Redacting applicable events, waiting for the sync processor to store data, and restarting the client are possible workarounds. Alternatively, redacting the applicable events and clearing all storage will fix the further perceived issues. Downgrading to an unaffected version, noting that such a version may be subject to other vulnerabilities, will additionally resolve the issue.",
      "Threats": [
        {
          "Type": "Impact",
          "Severity": "important"
        }
      ],
      "References": [
        {
          "URL": "https://www.suse.com/security/cve/CVE-2022-39236.html",
          "Description": "CVE-2022-39236"
        },
        {
          "URL": "https://bugzilla.suse.com/1204411",
          "Description": "SUSE Bug 1204411"
        }
      ],
      "ProductStatuses": [
        {
          "Type": "Fixed",
          "ProductID": [
            "openSUSE Tumbleweed:element-web-1.11.8-1.1"
          ]
        }
      ],
      "CVSSScoreSets": {}
    },
    {
      "CVE": "CVE-2022-39249",
      "Description": "Matrix Javascript SDK is the Matrix Client-Server SDK for JavaScript. Prior to version 19.7.0, an attacker cooperating with a malicious homeserver can construct messages appearing to have come from another person. Such messages will be marked with a grey shield on some platforms, but this may be missing in others. This attack is possible due to the matrix-js-sdk implementing a too permissive key forwarding strategy on the receiving end. Starting with version 19.7.0, the default policy for accepting key forwards has been made more strict in the matrix-js-sdk. matrix-js-sdk will now only accept forwarded keys in response to previously issued requests and only from own, verified devices. The SDK now sets a `trusted` flag on the decrypted message upon decryption, based on whether the key used to decrypt the message was received from a trusted source. Clients need to ensure that messages decrypted with a key with `trusted = false` are decorated appropriately, for example, by showing a warning for such messages. This attack requires coordination between a malicious homeserver and an attacker, and those who trust your homeservers do not need a workaround.",
      "Threats": [
        {
          "Type": "Impact",
          "Severity": "important"
        }
      ],
      "References": [
        {
          "URL": "https://www.suse.com/security/cve/CVE-2022-39249.html",
          "Description": "CVE-2022-39249"
        },
        {
          "URL": "https://bugzilla.suse.com/1204411",
          "Description": "SUSE Bug 1204411"
        }
      ],
      "ProductStatuses": [
        {
          "Type": "Fixed",
          "ProductID": [
            "openSUSE Tumbleweed:element-web-1.11.8-1.1"
          ]
        }
      ],
      "CVSSScoreSets": {}
    },
    {
      "CVE": "CVE-2022-39250",
      "Description": "Matrix JavaScript SDK is the Matrix Client-Server software development kit (SDK) for JavaScript. Prior to version 19.7.0, an attacker cooperating with a malicious homeserver could interfere with the verification flow between two users, injecting its own cross-signing user identity in place of one of the users' identities. This would lead to the other device trusting/verifying the user identity under the control of the homeserver instead of the intended one. The vulnerability is a bug in the matrix-js-sdk, caused by checking and signing user identities and devices in two separate steps, and inadequately fixing the keys to be signed between those steps. Even though the attack is partly made possible due to the design decision of treating cross-signing user identities as Matrix devices on the server side (with their device ID set to the public part of the user identity key), no other examined implementations were vulnerable. Starting with version 19.7.0, the matrix-js-sdk has been modified to double check that the key signed is the one that was verified instead of just referencing the key by ID. An additional check has been made to report an error when one of the device ID matches a cross-signing key. As this attack requires coordination between a malicious homeserver and an attacker, those who trust their homeservers do not need a particular workaround.",
      "Threats": [
        {
          "Type": "Impact",
          "Severity": "important"
        }
      ],
      "References": [
        {
          "URL": "https://www.suse.com/security/cve/CVE-2022-39250.html",
          "Description": "CVE-2022-39250"
        },
        {
          "URL": "https://bugzilla.suse.com/1204411",
          "Description": "SUSE Bug 1204411"
        }
      ],
      "ProductStatuses": [
        {
          "Type": "Fixed",
          "ProductID": [
            "openSUSE Tumbleweed:element-web-1.11.8-1.1"
          ]
        }
      ],
      "CVSSScoreSets": {}
    },
    {
      "CVE": "CVE-2022-39251",
      "Description": "Matrix Javascript SDK is the Matrix Client-Server SDK for JavaScript. Prior to version 19.7.0, an attacker cooperating with a malicious homeserver can construct messages that legitimately appear to have come from another person, without any indication such as a grey shield. Additionally, a sophisticated attacker cooperating with a malicious homeserver could employ this vulnerability to perform a targeted attack in order to send fake to-device messages appearing to originate from another user. This can allow, for example, to inject the key backup secret during a self-verification, to make a targeted device start using a malicious key backup spoofed by the homeserver. These attacks are possible due to a protocol confusion vulnerability that accepts to-device messages encrypted with Megolm instead of Olm. Starting with version 19.7.0, matrix-js-sdk has been modified to only accept Olm-encrypted to-device messages. Out of caution, several other checks have been audited or added. This attack requires coordination between a malicious home server and an attacker, so those who trust their home servers do not need a workaround.",
      "Threats": [
        {
          "Type": "Impact",
          "Severity": "important"
        }
      ],
      "References": [
        {
          "URL": "https://www.suse.com/security/cve/CVE-2022-39251.html",
          "Description": "CVE-2022-39251"
        },
        {
          "URL": "https://bugzilla.suse.com/1204411",
          "Description": "SUSE Bug 1204411"
        }
      ],
      "ProductStatuses": [
        {
          "Type": "Fixed",
          "ProductID": [
            "openSUSE Tumbleweed:element-web-1.11.8-1.1"
          ]
        }
      ],
      "CVSSScoreSets": {}
    }
  ]
}