{
  "Title": "libpodofo-devel-0.9.7-3.1 on GA media",
  "Tracking": {
    "ID": "openSUSE-SU-2024:11855-1",
    "Status": "Final",
    "Version": "1",
    "InitialReleaseDate": "2024-06-22T21:44:56Z",
    "CurrentReleaseDate": "2024-06-22T21:44:56Z",
    "RevisionHistory": [
      {
        "Number": "1",
        "Date": "2024-06-22T21:44:56Z",
        "Description": "current"
      }
    ]
  },
  "Notes": [
    {
      "Text": "libpodofo-devel-0.9.7-3.1 on GA media",
      "Title": "Topic",
      "Type": "Summary"
    },
    {
      "Text": "These are all security issues fixed in the libpodofo-devel-0.9.7-3.1 package on the GA media of openSUSE Tumbleweed.",
      "Title": "Details",
      "Type": "General"
    },
    {
      "Text": "The CVRF data is provided by SUSE under the Creative Commons License 4.0 with Attribution (CC-BY-4.0).",
      "Title": "Terms of Use",
      "Type": "Legal Disclaimer"
    },
    {
      "Text": "openSUSE-Tumbleweed-2024-11855",
      "Title": "Patchnames",
      "Type": "Details"
    }
  ],
  "ProductTree": {
    "Relationships": [
      {
        "ProductReference": "libpodofo-devel-0.9.7-3.1",
        "RelatesToProductReference": "openSUSE Tumbleweed",
        "RelationType": "Default Component Of"
      },
      {
        "ProductReference": "libpodofo0_9_7-0.9.7-3.1",
        "RelatesToProductReference": "openSUSE Tumbleweed",
        "RelationType": "Default Component Of"
      },
      {
        "ProductReference": "podofo-0.9.7-3.1",
        "RelatesToProductReference": "openSUSE Tumbleweed",
        "RelationType": "Default Component Of"
      }
    ]
  },
  "References": [
    {
      "URL": "https://www.suse.com/support/security/rating/",
      "Description": "SUSE Security Ratings"
    },
    {
      "URL": "https://www.suse.com/security/cve/CVE-2018-12983/",
      "Description": "SUSE CVE CVE-2018-12983 page"
    },
    {
      "URL": "https://www.suse.com/security/cve/CVE-2019-10723/",
      "Description": "SUSE CVE CVE-2019-10723 page"
    }
  ],
  "Vulnerabilities": [
    {
      "CVE": "CVE-2018-12983",
      "Description": "A stack-based buffer over-read in the PdfEncryptMD5Base::ComputeEncryptionKey() function in PdfEncrypt.cpp in PoDoFo 0.9.6-rc1 could be leveraged by remote attackers to cause a denial-of-service via a crafted pdf file.",
      "Threats": [
        {
          "Type": "Impact",
          "Severity": "moderate"
        }
      ],
      "References": [
        {
          "URL": "https://www.suse.com/security/cve/CVE-2018-12983.html",
          "Description": "CVE-2018-12983"
        },
        {
          "URL": "https://bugzilla.suse.com/1099719",
          "Description": "SUSE Bug 1099719"
        }
      ],
      "ProductStatuses": [
        {
          "Type": "Fixed",
          "ProductID": [
            "openSUSE Tumbleweed:libpodofo-devel-0.9.7-3.1",
            "openSUSE Tumbleweed:libpodofo0_9_7-0.9.7-3.1",
            "openSUSE Tumbleweed:podofo-0.9.7-3.1"
          ]
        }
      ],
      "CVSSScoreSets": {}
    },
    {
      "CVE": "CVE-2019-10723",
      "Description": "An issue was discovered in PoDoFo 0.9.6. The PdfPagesTreeCache class in doc/PdfPagesTreeCache.cpp has an attempted excessive memory allocation because nInitialSize is not validated.",
      "Threats": [
        {
          "Type": "Impact",
          "Severity": "moderate"
        }
      ],
      "References": [
        {
          "URL": "https://www.suse.com/security/cve/CVE-2019-10723.html",
          "Description": "CVE-2019-10723"
        },
        {
          "URL": "https://bugzilla.suse.com/1131544",
          "Description": "SUSE Bug 1131544"
        }
      ],
      "ProductStatuses": [
        {
          "Type": "Fixed",
          "ProductID": [
            "openSUSE Tumbleweed:libpodofo-devel-0.9.7-3.1",
            "openSUSE Tumbleweed:libpodofo0_9_7-0.9.7-3.1",
            "openSUSE Tumbleweed:podofo-0.9.7-3.1"
          ]
        }
      ],
      "CVSSScoreSets": {}
    }
  ]
}