{
  "Title": "apache2-2.4.55-1.1 on GA media",
  "Tracking": {
    "ID": "openSUSE-SU-2024:12635-1",
    "Status": "Final",
    "Version": "1",
    "InitialReleaseDate": "2024-06-20T21:44:22Z",
    "CurrentReleaseDate": "2024-06-20T21:44:22Z",
    "RevisionHistory": [
      {
        "Number": "1",
        "Date": "2024-06-20T21:44:22Z",
        "Description": "current"
      }
    ]
  },
  "Notes": [
    {
      "Text": "apache2-2.4.55-1.1 on GA media",
      "Title": "Topic",
      "Type": "Summary"
    },
    {
      "Text": "These are all security issues fixed in the apache2-2.4.55-1.1 package on the GA media of openSUSE Tumbleweed.",
      "Title": "Details",
      "Type": "General"
    },
    {
      "Text": "The CVRF data is provided by SUSE under the Creative Commons License 4.0 with Attribution (CC-BY-4.0).",
      "Title": "Terms of Use",
      "Type": "Legal Disclaimer"
    },
    {
      "Text": "openSUSE-Tumbleweed-2024-12635",
      "Title": "Patchnames",
      "Type": "Details"
    }
  ],
  "ProductTree": {
    "Relationships": [
      {
        "ProductReference": "apache2-2.4.55-1.1",
        "RelatesToProductReference": "openSUSE Tumbleweed",
        "RelationType": "Default Component Of"
      }
    ]
  },
  "References": [
    {
      "URL": "https://www.suse.com/support/security/rating/",
      "Description": "SUSE Security Ratings"
    },
    {
      "URL": "https://www.suse.com/security/cve/CVE-2006-20001/",
      "Description": "SUSE CVE CVE-2006-20001 page"
    },
    {
      "URL": "https://www.suse.com/security/cve/CVE-2022-36760/",
      "Description": "SUSE CVE CVE-2022-36760 page"
    },
    {
      "URL": "https://www.suse.com/security/cve/CVE-2022-37436/",
      "Description": "SUSE CVE CVE-2022-37436 page"
    }
  ],
  "Vulnerabilities": [
    {
      "CVE": "CVE-2006-20001",
      "Description": "A carefully crafted If: request header can cause a memory read, or write of a single zero byte, in a pool (heap) memory location beyond the header value sent. This could cause the process to crash.\n\nThis issue affects Apache HTTP Server 2.4.54 and earlier.\n",
      "Threats": [
        {
          "Type": "Impact",
          "Severity": "moderate"
        }
      ],
      "References": [
        {
          "URL": "https://www.suse.com/security/cve/CVE-2006-20001.html",
          "Description": "CVE-2006-20001"
        },
        {
          "URL": "https://bugzilla.suse.com/1207247",
          "Description": "SUSE Bug 1207247"
        },
        {
          "URL": "https://bugzilla.suse.com/1217021",
          "Description": "SUSE Bug 1217021"
        }
      ],
      "ProductStatuses": [
        {
          "Type": "Fixed",
          "ProductID": [
            "openSUSE Tumbleweed:apache2-2.4.55-1.1"
          ]
        }
      ],
      "CVSSScoreSets": {}
    },
    {
      "CVE": "CVE-2022-36760",
      "Description": "Inconsistent Interpretation of HTTP Requests ('HTTP Request Smuggling') vulnerability in mod_proxy_ajp of Apache HTTP Server allows an attacker to smuggle requests to the AJP server it forwards requests to.  This issue affects Apache HTTP Server Apache HTTP Server 2.4 version 2.4.54 and prior versions.",
      "Threats": [
        {
          "Type": "Impact",
          "Severity": "moderate"
        }
      ],
      "References": [
        {
          "URL": "https://www.suse.com/security/cve/CVE-2022-36760.html",
          "Description": "CVE-2022-36760"
        },
        {
          "URL": "https://bugzilla.suse.com/1207250",
          "Description": "SUSE Bug 1207250"
        }
      ],
      "ProductStatuses": [
        {
          "Type": "Fixed",
          "ProductID": [
            "openSUSE Tumbleweed:apache2-2.4.55-1.1"
          ]
        }
      ],
      "CVSSScoreSets": {}
    },
    {
      "CVE": "CVE-2022-37436",
      "Description": "Prior to Apache HTTP Server 2.4.55, a malicious backend can cause the response headers to be truncated early, resulting in some headers being incorporated into the response body. If the later headers have any security purpose, they will not be interpreted by the client.",
      "Threats": [
        {
          "Type": "Impact",
          "Severity": "moderate"
        }
      ],
      "References": [
        {
          "URL": "https://www.suse.com/security/cve/CVE-2022-37436.html",
          "Description": "CVE-2022-37436"
        },
        {
          "URL": "https://bugzilla.suse.com/1207251",
          "Description": "SUSE Bug 1207251"
        }
      ],
      "ProductStatuses": [
        {
          "Type": "Fixed",
          "ProductID": [
            "openSUSE Tumbleweed:apache2-2.4.55-1.1"
          ]
        }
      ],
      "CVSSScoreSets": {}
    }
  ]
}