{
  "Title": "glibc-2.38-4.1 on GA media",
  "Tracking": {
    "ID": "openSUSE-SU-2024:13294-1",
    "Status": "Final",
    "Version": "1",
    "InitialReleaseDate": "2024-06-20T21:44:22Z",
    "CurrentReleaseDate": "2024-06-20T21:44:22Z",
    "RevisionHistory": [
      {
        "Number": "1",
        "Date": "2024-06-20T21:44:22Z",
        "Description": "current"
      }
    ]
  },
  "Notes": [
    {
      "Text": "glibc-2.38-4.1 on GA media",
      "Title": "Topic",
      "Type": "Summary"
    },
    {
      "Text": "These are all security issues fixed in the glibc-2.38-4.1 package on the GA media of openSUSE Tumbleweed.",
      "Title": "Details",
      "Type": "General"
    },
    {
      "Text": "The CVRF data is provided by SUSE under the Creative Commons License 4.0 with Attribution (CC-BY-4.0).",
      "Title": "Terms of Use",
      "Type": "Legal Disclaimer"
    },
    {
      "Text": "openSUSE-Tumbleweed-2024-13294",
      "Title": "Patchnames",
      "Type": "Details"
    }
  ],
  "ProductTree": {
    "Relationships": [
      {
        "ProductReference": "glibc-2.38-4.1",
        "RelatesToProductReference": "openSUSE Tumbleweed",
        "RelationType": "Default Component Of"
      },
      {
        "ProductReference": "glibc-devel-2.38-4.1",
        "RelatesToProductReference": "openSUSE Tumbleweed",
        "RelationType": "Default Component Of"
      },
      {
        "ProductReference": "glibc-devel-static-2.38-4.1",
        "RelatesToProductReference": "openSUSE Tumbleweed",
        "RelationType": "Default Component Of"
      },
      {
        "ProductReference": "glibc-extra-2.38-4.1",
        "RelatesToProductReference": "openSUSE Tumbleweed",
        "RelationType": "Default Component Of"
      },
      {
        "ProductReference": "glibc-html-2.38-4.1",
        "RelatesToProductReference": "openSUSE Tumbleweed",
        "RelationType": "Default Component Of"
      },
      {
        "ProductReference": "glibc-i18ndata-2.38-4.1",
        "RelatesToProductReference": "openSUSE Tumbleweed",
        "RelationType": "Default Component Of"
      },
      {
        "ProductReference": "glibc-info-2.38-4.1",
        "RelatesToProductReference": "openSUSE Tumbleweed",
        "RelationType": "Default Component Of"
      },
      {
        "ProductReference": "glibc-lang-2.38-4.1",
        "RelatesToProductReference": "openSUSE Tumbleweed",
        "RelationType": "Default Component Of"
      },
      {
        "ProductReference": "glibc-locale-2.38-4.1",
        "RelatesToProductReference": "openSUSE Tumbleweed",
        "RelationType": "Default Component Of"
      },
      {
        "ProductReference": "glibc-locale-base-2.38-4.1",
        "RelatesToProductReference": "openSUSE Tumbleweed",
        "RelationType": "Default Component Of"
      },
      {
        "ProductReference": "glibc-profile-2.38-4.1",
        "RelatesToProductReference": "openSUSE Tumbleweed",
        "RelationType": "Default Component Of"
      },
      {
        "ProductReference": "nscd-2.38-4.1",
        "RelatesToProductReference": "openSUSE Tumbleweed",
        "RelationType": "Default Component Of"
      }
    ]
  },
  "References": [
    {
      "URL": "https://www.suse.com/support/security/rating/",
      "Description": "SUSE Security Ratings"
    },
    {
      "URL": "https://www.suse.com/security/cve/CVE-2023-4911/",
      "Description": "SUSE CVE CVE-2023-4911 page"
    }
  ],
  "Vulnerabilities": [
    {
      "CVE": "CVE-2023-4911",
      "Description": "A buffer overflow was discovered in the GNU C Library's dynamic loader ld.so while processing the GLIBC_TUNABLES environment variable. This issue could allow a local attacker to use maliciously crafted GLIBC_TUNABLES environment variables when launching binaries with SUID permission to execute code with elevated privileges.",
      "Threats": [
        {
          "Type": "Impact",
          "Severity": "moderate"
        }
      ],
      "References": [
        {
          "URL": "https://www.suse.com/security/cve/CVE-2023-4911.html",
          "Description": "CVE-2023-4911"
        },
        {
          "URL": "https://bugzilla.suse.com/1215501",
          "Description": "SUSE Bug 1215501"
        }
      ],
      "ProductStatuses": [
        {
          "Type": "Fixed",
          "ProductID": [
            "openSUSE Tumbleweed:glibc-2.38-4.1",
            "openSUSE Tumbleweed:glibc-devel-2.38-4.1",
            "openSUSE Tumbleweed:glibc-devel-static-2.38-4.1",
            "openSUSE Tumbleweed:glibc-extra-2.38-4.1",
            "openSUSE Tumbleweed:glibc-html-2.38-4.1",
            "openSUSE Tumbleweed:glibc-i18ndata-2.38-4.1",
            "openSUSE Tumbleweed:glibc-info-2.38-4.1",
            "openSUSE Tumbleweed:glibc-lang-2.38-4.1",
            "openSUSE Tumbleweed:glibc-locale-2.38-4.1",
            "openSUSE Tumbleweed:glibc-locale-base-2.38-4.1",
            "openSUSE Tumbleweed:glibc-profile-2.38-4.1",
            "openSUSE Tumbleweed:nscd-2.38-4.1"
          ]
        }
      ],
      "CVSSScoreSets": {}
    }
  ]
}