{
  "Title": "chromedriver-112.0.5615.49-1.1 on GA media",
  "Tracking": {
    "ID": "openSUSE-SU-2024:12844-1",
    "Status": "Final",
    "Version": "1",
    "InitialReleaseDate": "2024-06-20T21:44:22Z",
    "CurrentReleaseDate": "2024-06-20T21:44:22Z",
    "RevisionHistory": [
      {
        "Number": "1",
        "Date": "2024-06-20T21:44:22Z",
        "Description": "current"
      }
    ]
  },
  "Notes": [
    {
      "Text": "chromedriver-112.0.5615.49-1.1 on GA media",
      "Title": "Topic",
      "Type": "Summary"
    },
    {
      "Text": "These are all security issues fixed in the chromedriver-112.0.5615.49-1.1 package on the GA media of openSUSE Tumbleweed.",
      "Title": "Details",
      "Type": "General"
    },
    {
      "Text": "The CVRF data is provided by SUSE under the Creative Commons License 4.0 with Attribution (CC-BY-4.0).",
      "Title": "Terms of Use",
      "Type": "Legal Disclaimer"
    },
    {
      "Text": "openSUSE-Tumbleweed-2024-12844",
      "Title": "Patchnames",
      "Type": "Details"
    }
  ],
  "ProductTree": {
    "Relationships": [
      {
        "ProductReference": "chromedriver-112.0.5615.49-1.1",
        "RelatesToProductReference": "openSUSE Tumbleweed",
        "RelationType": "Default Component Of"
      },
      {
        "ProductReference": "chromium-112.0.5615.49-1.1",
        "RelatesToProductReference": "openSUSE Tumbleweed",
        "RelationType": "Default Component Of"
      }
    ]
  },
  "References": [
    {
      "URL": "https://www.suse.com/support/security/rating/",
      "Description": "SUSE Security Ratings"
    },
    {
      "URL": "https://www.suse.com/security/cve/CVE-2023-1810/",
      "Description": "SUSE CVE CVE-2023-1810 page"
    },
    {
      "URL": "https://www.suse.com/security/cve/CVE-2023-1811/",
      "Description": "SUSE CVE CVE-2023-1811 page"
    },
    {
      "URL": "https://www.suse.com/security/cve/CVE-2023-1812/",
      "Description": "SUSE CVE CVE-2023-1812 page"
    },
    {
      "URL": "https://www.suse.com/security/cve/CVE-2023-1813/",
      "Description": "SUSE CVE CVE-2023-1813 page"
    },
    {
      "URL": "https://www.suse.com/security/cve/CVE-2023-1814/",
      "Description": "SUSE CVE CVE-2023-1814 page"
    },
    {
      "URL": "https://www.suse.com/security/cve/CVE-2023-1815/",
      "Description": "SUSE CVE CVE-2023-1815 page"
    },
    {
      "URL": "https://www.suse.com/security/cve/CVE-2023-1816/",
      "Description": "SUSE CVE CVE-2023-1816 page"
    },
    {
      "URL": "https://www.suse.com/security/cve/CVE-2023-1817/",
      "Description": "SUSE CVE CVE-2023-1817 page"
    },
    {
      "URL": "https://www.suse.com/security/cve/CVE-2023-1818/",
      "Description": "SUSE CVE CVE-2023-1818 page"
    },
    {
      "URL": "https://www.suse.com/security/cve/CVE-2023-1819/",
      "Description": "SUSE CVE CVE-2023-1819 page"
    },
    {
      "URL": "https://www.suse.com/security/cve/CVE-2023-1820/",
      "Description": "SUSE CVE CVE-2023-1820 page"
    },
    {
      "URL": "https://www.suse.com/security/cve/CVE-2023-1821/",
      "Description": "SUSE CVE CVE-2023-1821 page"
    },
    {
      "URL": "https://www.suse.com/security/cve/CVE-2023-1822/",
      "Description": "SUSE CVE CVE-2023-1822 page"
    },
    {
      "URL": "https://www.suse.com/security/cve/CVE-2023-1823/",
      "Description": "SUSE CVE CVE-2023-1823 page"
    }
  ],
  "Vulnerabilities": [
    {
      "CVE": "CVE-2023-1810",
      "Description": "Heap buffer overflow in Visuals in Google Chrome prior to 112.0.5615.49 allowed a remote attacker who had compromised the renderer process to potentially exploit heap corruption via a crafted HTML page. (Chromium security severity: High)",
      "Threats": [
        {
          "Type": "Impact",
          "Severity": "moderate"
        }
      ],
      "References": [
        {
          "URL": "https://www.suse.com/security/cve/CVE-2023-1810.html",
          "Description": "CVE-2023-1810"
        },
        {
          "URL": "https://bugzilla.suse.com/1210126",
          "Description": "SUSE Bug 1210126"
        }
      ],
      "ProductStatuses": [
        {
          "Type": "Fixed",
          "ProductID": [
            "openSUSE Tumbleweed:chromedriver-112.0.5615.49-1.1",
            "openSUSE Tumbleweed:chromium-112.0.5615.49-1.1"
          ]
        }
      ],
      "CVSSScoreSets": {}
    },
    {
      "CVE": "CVE-2023-1811",
      "Description": "Use after free in Frames in Google Chrome prior to 112.0.5615.49 allowed a remote attacker who convinced a user to engage in specific UI interaction to potentially exploit heap corruption via a crafted HTML page. (Chromium security severity: High)",
      "Threats": [
        {
          "Type": "Impact",
          "Severity": "moderate"
        }
      ],
      "References": [
        {
          "URL": "https://www.suse.com/security/cve/CVE-2023-1811.html",
          "Description": "CVE-2023-1811"
        },
        {
          "URL": "https://bugzilla.suse.com/1210126",
          "Description": "SUSE Bug 1210126"
        }
      ],
      "ProductStatuses": [
        {
          "Type": "Fixed",
          "ProductID": [
            "openSUSE Tumbleweed:chromedriver-112.0.5615.49-1.1",
            "openSUSE Tumbleweed:chromium-112.0.5615.49-1.1"
          ]
        }
      ],
      "CVSSScoreSets": {}
    },
    {
      "CVE": "CVE-2023-1812",
      "Description": "Out of bounds memory access in DOM Bindings in Google Chrome prior to 112.0.5615.49 allowed a remote attacker to perform out of bounds memory access via a crafted HTML page. (Chromium security severity: Medium)",
      "Threats": [
        {
          "Type": "Impact",
          "Severity": "moderate"
        }
      ],
      "References": [
        {
          "URL": "https://www.suse.com/security/cve/CVE-2023-1812.html",
          "Description": "CVE-2023-1812"
        },
        {
          "URL": "https://bugzilla.suse.com/1210126",
          "Description": "SUSE Bug 1210126"
        }
      ],
      "ProductStatuses": [
        {
          "Type": "Fixed",
          "ProductID": [
            "openSUSE Tumbleweed:chromedriver-112.0.5615.49-1.1",
            "openSUSE Tumbleweed:chromium-112.0.5615.49-1.1"
          ]
        }
      ],
      "CVSSScoreSets": {}
    },
    {
      "CVE": "CVE-2023-1813",
      "Description": "Inappropriate implementation in Extensions in Google Chrome prior to 112.0.5615.49 allowed an attacker who convinced a user to install a malicious extension to bypass file access restrictions via a crafted HTML page. (Chromium security severity: Medium)",
      "Threats": [
        {
          "Type": "Impact",
          "Severity": "moderate"
        }
      ],
      "References": [
        {
          "URL": "https://www.suse.com/security/cve/CVE-2023-1813.html",
          "Description": "CVE-2023-1813"
        },
        {
          "URL": "https://bugzilla.suse.com/1210126",
          "Description": "SUSE Bug 1210126"
        }
      ],
      "ProductStatuses": [
        {
          "Type": "Fixed",
          "ProductID": [
            "openSUSE Tumbleweed:chromedriver-112.0.5615.49-1.1",
            "openSUSE Tumbleweed:chromium-112.0.5615.49-1.1"
          ]
        }
      ],
      "CVSSScoreSets": {}
    },
    {
      "CVE": "CVE-2023-1814",
      "Description": "Insufficient validation of untrusted input in Safe Browsing in Google Chrome prior to 112.0.5615.49 allowed a remote attacker to bypass download checking via a crafted HTML page. (Chromium security severity: Medium)",
      "Threats": [
        {
          "Type": "Impact",
          "Severity": "moderate"
        }
      ],
      "References": [
        {
          "URL": "https://www.suse.com/security/cve/CVE-2023-1814.html",
          "Description": "CVE-2023-1814"
        },
        {
          "URL": "https://bugzilla.suse.com/1210126",
          "Description": "SUSE Bug 1210126"
        }
      ],
      "ProductStatuses": [
        {
          "Type": "Fixed",
          "ProductID": [
            "openSUSE Tumbleweed:chromedriver-112.0.5615.49-1.1",
            "openSUSE Tumbleweed:chromium-112.0.5615.49-1.1"
          ]
        }
      ],
      "CVSSScoreSets": {}
    },
    {
      "CVE": "CVE-2023-1815",
      "Description": "Use after free in Networking APIs in Google Chrome prior to 112.0.5615.49 allowed a remote attacker who convinced a user to engage in specific UI interaction to potentially exploit heap corruption via a crafted HTML page. (Chromium security severity: Medium)",
      "Threats": [
        {
          "Type": "Impact",
          "Severity": "moderate"
        }
      ],
      "References": [
        {
          "URL": "https://www.suse.com/security/cve/CVE-2023-1815.html",
          "Description": "CVE-2023-1815"
        },
        {
          "URL": "https://bugzilla.suse.com/1210126",
          "Description": "SUSE Bug 1210126"
        }
      ],
      "ProductStatuses": [
        {
          "Type": "Fixed",
          "ProductID": [
            "openSUSE Tumbleweed:chromedriver-112.0.5615.49-1.1",
            "openSUSE Tumbleweed:chromium-112.0.5615.49-1.1"
          ]
        }
      ],
      "CVSSScoreSets": {}
    },
    {
      "CVE": "CVE-2023-1816",
      "Description": "Incorrect security UI in Picture In Picture in Google Chrome prior to 112.0.5615.49 allowed a remote attacker to potentially perform navigation spoofing via a crafted HTML page. (Chromium security severity: Medium)",
      "Threats": [
        {
          "Type": "Impact",
          "Severity": "moderate"
        }
      ],
      "References": [
        {
          "URL": "https://www.suse.com/security/cve/CVE-2023-1816.html",
          "Description": "CVE-2023-1816"
        },
        {
          "URL": "https://bugzilla.suse.com/1210126",
          "Description": "SUSE Bug 1210126"
        }
      ],
      "ProductStatuses": [
        {
          "Type": "Fixed",
          "ProductID": [
            "openSUSE Tumbleweed:chromedriver-112.0.5615.49-1.1",
            "openSUSE Tumbleweed:chromium-112.0.5615.49-1.1"
          ]
        }
      ],
      "CVSSScoreSets": {}
    },
    {
      "CVE": "CVE-2023-1817",
      "Description": "Insufficient policy enforcement in Intents in Google Chrome on Android prior to 112.0.5615.49 allowed a remote attacker to bypass navigation restrictions via a crafted HTML page. (Chromium security severity: Medium)",
      "Threats": [
        {
          "Type": "Impact",
          "Severity": "moderate"
        }
      ],
      "References": [
        {
          "URL": "https://www.suse.com/security/cve/CVE-2023-1817.html",
          "Description": "CVE-2023-1817"
        },
        {
          "URL": "https://bugzilla.suse.com/1210126",
          "Description": "SUSE Bug 1210126"
        }
      ],
      "ProductStatuses": [
        {
          "Type": "Fixed",
          "ProductID": [
            "openSUSE Tumbleweed:chromedriver-112.0.5615.49-1.1",
            "openSUSE Tumbleweed:chromium-112.0.5615.49-1.1"
          ]
        }
      ],
      "CVSSScoreSets": {}
    },
    {
      "CVE": "CVE-2023-1818",
      "Description": "Use after free in Vulkan in Google Chrome prior to 112.0.5615.49 allowed a remote attacker to potentially exploit heap corruption via a crafted HTML page. (Chromium security severity: Medium)",
      "Threats": [
        {
          "Type": "Impact",
          "Severity": "moderate"
        }
      ],
      "References": [
        {
          "URL": "https://www.suse.com/security/cve/CVE-2023-1818.html",
          "Description": "CVE-2023-1818"
        },
        {
          "URL": "https://bugzilla.suse.com/1210126",
          "Description": "SUSE Bug 1210126"
        }
      ],
      "ProductStatuses": [
        {
          "Type": "Fixed",
          "ProductID": [
            "openSUSE Tumbleweed:chromedriver-112.0.5615.49-1.1",
            "openSUSE Tumbleweed:chromium-112.0.5615.49-1.1"
          ]
        }
      ],
      "CVSSScoreSets": {}
    },
    {
      "CVE": "CVE-2023-1819",
      "Description": "Out of bounds read in Accessibility in Google Chrome prior to 112.0.5615.49 allowed a remote attacker to perform an out of bounds memory read via a crafted HTML page. (Chromium security severity: Medium)",
      "Threats": [
        {
          "Type": "Impact",
          "Severity": "moderate"
        }
      ],
      "References": [
        {
          "URL": "https://www.suse.com/security/cve/CVE-2023-1819.html",
          "Description": "CVE-2023-1819"
        },
        {
          "URL": "https://bugzilla.suse.com/1210126",
          "Description": "SUSE Bug 1210126"
        }
      ],
      "ProductStatuses": [
        {
          "Type": "Fixed",
          "ProductID": [
            "openSUSE Tumbleweed:chromedriver-112.0.5615.49-1.1",
            "openSUSE Tumbleweed:chromium-112.0.5615.49-1.1"
          ]
        }
      ],
      "CVSSScoreSets": {}
    },
    {
      "CVE": "CVE-2023-1820",
      "Description": "Heap buffer overflow in Browser History in Google Chrome prior to 112.0.5615.49 allowed a remote attacker who convinced a user to engage in specific UI interaction to potentially exploit heap corruption via a crafted HTML page. (Chromium security severity: Medium)",
      "Threats": [
        {
          "Type": "Impact",
          "Severity": "moderate"
        }
      ],
      "References": [
        {
          "URL": "https://www.suse.com/security/cve/CVE-2023-1820.html",
          "Description": "CVE-2023-1820"
        },
        {
          "URL": "https://bugzilla.suse.com/1210126",
          "Description": "SUSE Bug 1210126"
        }
      ],
      "ProductStatuses": [
        {
          "Type": "Fixed",
          "ProductID": [
            "openSUSE Tumbleweed:chromedriver-112.0.5615.49-1.1",
            "openSUSE Tumbleweed:chromium-112.0.5615.49-1.1"
          ]
        }
      ],
      "CVSSScoreSets": {}
    },
    {
      "CVE": "CVE-2023-1821",
      "Description": "Inappropriate implementation in WebShare in Google Chrome prior to 112.0.5615.49 allowed a remote attacker to potentially hide the contents of the Omnibox (URL bar) via a crafted HTML page. (Chromium security severity: Low)",
      "Threats": [
        {
          "Type": "Impact",
          "Severity": "moderate"
        }
      ],
      "References": [
        {
          "URL": "https://www.suse.com/security/cve/CVE-2023-1821.html",
          "Description": "CVE-2023-1821"
        },
        {
          "URL": "https://bugzilla.suse.com/1210126",
          "Description": "SUSE Bug 1210126"
        }
      ],
      "ProductStatuses": [
        {
          "Type": "Fixed",
          "ProductID": [
            "openSUSE Tumbleweed:chromedriver-112.0.5615.49-1.1",
            "openSUSE Tumbleweed:chromium-112.0.5615.49-1.1"
          ]
        }
      ],
      "CVSSScoreSets": {}
    },
    {
      "CVE": "CVE-2023-1822",
      "Description": "Incorrect security UI in Navigation in Google Chrome prior to 112.0.5615.49 allowed a remote attacker to perform domain spoofing via a crafted HTML page. (Chromium security severity: Low)",
      "Threats": [
        {
          "Type": "Impact",
          "Severity": "moderate"
        }
      ],
      "References": [
        {
          "URL": "https://www.suse.com/security/cve/CVE-2023-1822.html",
          "Description": "CVE-2023-1822"
        },
        {
          "URL": "https://bugzilla.suse.com/1210126",
          "Description": "SUSE Bug 1210126"
        }
      ],
      "ProductStatuses": [
        {
          "Type": "Fixed",
          "ProductID": [
            "openSUSE Tumbleweed:chromedriver-112.0.5615.49-1.1",
            "openSUSE Tumbleweed:chromium-112.0.5615.49-1.1"
          ]
        }
      ],
      "CVSSScoreSets": {}
    },
    {
      "CVE": "CVE-2023-1823",
      "Description": "Inappropriate implementation in FedCM in Google Chrome prior to 112.0.5615.49 allowed a remote attacker to bypass navigation restrictions via a crafted HTML page. (Chromium security severity: Low)",
      "Threats": [
        {
          "Type": "Impact",
          "Severity": "moderate"
        }
      ],
      "References": [
        {
          "URL": "https://www.suse.com/security/cve/CVE-2023-1823.html",
          "Description": "CVE-2023-1823"
        },
        {
          "URL": "https://bugzilla.suse.com/1210126",
          "Description": "SUSE Bug 1210126"
        }
      ],
      "ProductStatuses": [
        {
          "Type": "Fixed",
          "ProductID": [
            "openSUSE Tumbleweed:chromedriver-112.0.5615.49-1.1",
            "openSUSE Tumbleweed:chromium-112.0.5615.49-1.1"
          ]
        }
      ],
      "CVSSScoreSets": {}
    }
  ]
}