{
  "Title": "xorg-x11-7.6_1-16.13 on GA media",
  "Tracking": {
    "ID": "openSUSE-SU-2024:11524-1",
    "Status": "Final",
    "Version": "1",
    "InitialReleaseDate": "2024-06-22T21:44:56Z",
    "CurrentReleaseDate": "2024-06-22T21:44:56Z",
    "RevisionHistory": [
      {
        "Number": "1",
        "Date": "2024-06-22T21:44:56Z",
        "Description": "current"
      }
    ]
  },
  "Notes": [
    {
      "Text": "xorg-x11-7.6_1-16.13 on GA media",
      "Title": "Topic",
      "Type": "Summary"
    },
    {
      "Text": "These are all security issues fixed in the xorg-x11-7.6_1-16.13 package on the GA media of openSUSE Tumbleweed.",
      "Title": "Details",
      "Type": "General"
    },
    {
      "Text": "The CVRF data is provided by SUSE under the Creative Commons License 4.0 with Attribution (CC-BY-4.0).",
      "Title": "Terms of Use",
      "Type": "Legal Disclaimer"
    },
    {
      "Text": "openSUSE-Tumbleweed-2024-11524",
      "Title": "Patchnames",
      "Type": "Details"
    }
  ],
  "ProductTree": {
    "Relationships": [
      {
        "ProductReference": "xorg-x11-7.6_1-16.13",
        "RelatesToProductReference": "openSUSE Tumbleweed",
        "RelationType": "Default Component Of"
      },
      {
        "ProductReference": "xorg-x11-essentials-7.6_1-16.13",
        "RelatesToProductReference": "openSUSE Tumbleweed",
        "RelationType": "Default Component Of"
      }
    ]
  },
  "References": [
    {
      "URL": "https://www.suse.com/support/security/rating/",
      "Description": "SUSE Security Ratings"
    },
    {
      "URL": "https://www.suse.com/security/cve/CVE-2007-4568/",
      "Description": "SUSE CVE CVE-2007-4568 page"
    }
  ],
  "Vulnerabilities": [
    {
      "CVE": "CVE-2007-4568",
      "Description": "Integer overflow in the build_range function in X.Org X Font Server (xfs) before 1.0.5 allows context-dependent attackers to execute arbitrary code via (1) QueryXBitmaps and (2) QueryXExtents protocol requests with crafted size values, which triggers a heap-based buffer overflow.",
      "Threats": [
        {
          "Type": "Impact",
          "Severity": "moderate"
        }
      ],
      "References": [
        {
          "URL": "https://www.suse.com/security/cve/CVE-2007-4568.html",
          "Description": "CVE-2007-4568"
        },
        {
          "URL": "https://bugzilla.suse.com/308064",
          "Description": "SUSE Bug 308064"
        },
        {
          "URL": "https://bugzilla.suse.com/308066",
          "Description": "SUSE Bug 308066"
        }
      ],
      "ProductStatuses": [
        {
          "Type": "Fixed",
          "ProductID": [
            "openSUSE Tumbleweed:xorg-x11-7.6_1-16.13",
            "openSUSE Tumbleweed:xorg-x11-essentials-7.6_1-16.13"
          ]
        }
      ],
      "CVSSScoreSets": {}
    }
  ]
}