{
  "Title": "glade-catalog-libgda-6.0.0-5.1 on GA media",
  "Tracking": {
    "ID": "openSUSE-SU-2024:11803-1",
    "Status": "Final",
    "Version": "1",
    "InitialReleaseDate": "2024-06-22T21:44:56Z",
    "CurrentReleaseDate": "2024-06-22T21:44:56Z",
    "RevisionHistory": [
      {
        "Number": "1",
        "Date": "2024-06-22T21:44:56Z",
        "Description": "current"
      }
    ]
  },
  "Notes": [
    {
      "Text": "glade-catalog-libgda-6.0.0-5.1 on GA media",
      "Title": "Topic",
      "Type": "Summary"
    },
    {
      "Text": "These are all security issues fixed in the glade-catalog-libgda-6.0.0-5.1 package on the GA media of openSUSE Tumbleweed.",
      "Title": "Details",
      "Type": "General"
    },
    {
      "Text": "The CVRF data is provided by SUSE under the Creative Commons License 4.0 with Attribution (CC-BY-4.0).",
      "Title": "Terms of Use",
      "Type": "Legal Disclaimer"
    },
    {
      "Text": "openSUSE-Tumbleweed-2024-11803",
      "Title": "Patchnames",
      "Type": "Details"
    }
  ],
  "ProductTree": {
    "Relationships": [
      {
        "ProductReference": "glade-catalog-libgda-6.0.0-5.1",
        "RelatesToProductReference": "openSUSE Tumbleweed",
        "RelationType": "Default Component Of"
      },
      {
        "ProductReference": "libgda-6_0-6_0_0-6.0.0-5.1",
        "RelatesToProductReference": "openSUSE Tumbleweed",
        "RelationType": "Default Component Of"
      },
      {
        "ProductReference": "libgda-6_0-6_0_0-lang-6.0.0-5.1",
        "RelatesToProductReference": "openSUSE Tumbleweed",
        "RelationType": "Default Component Of"
      },
      {
        "ProductReference": "libgda-6_0-devel-6.0.0-5.1",
        "RelatesToProductReference": "openSUSE Tumbleweed",
        "RelationType": "Default Component Of"
      },
      {
        "ProductReference": "libgda-6_0-doc-6.0.0-5.1",
        "RelatesToProductReference": "openSUSE Tumbleweed",
        "RelationType": "Default Component Of"
      },
      {
        "ProductReference": "libgda-6_0-ldap-6.0.0-5.1",
        "RelatesToProductReference": "openSUSE Tumbleweed",
        "RelationType": "Default Component Of"
      },
      {
        "ProductReference": "libgda-6_0-mysql-6.0.0-5.1",
        "RelatesToProductReference": "openSUSE Tumbleweed",
        "RelationType": "Default Component Of"
      },
      {
        "ProductReference": "libgda-6_0-postgres-6.0.0-5.1",
        "RelatesToProductReference": "openSUSE Tumbleweed",
        "RelationType": "Default Component Of"
      },
      {
        "ProductReference": "libgda-6_0-sqlcipher-6.0.0-5.1",
        "RelatesToProductReference": "openSUSE Tumbleweed",
        "RelationType": "Default Component Of"
      },
      {
        "ProductReference": "libgda-6_0-sqlite-6.0.0-5.1",
        "RelatesToProductReference": "openSUSE Tumbleweed",
        "RelationType": "Default Component Of"
      },
      {
        "ProductReference": "libgda-6_0-tools-6.0.0-5.1",
        "RelatesToProductReference": "openSUSE Tumbleweed",
        "RelationType": "Default Component Of"
      },
      {
        "ProductReference": "libgda-report-6.0.0-5.1",
        "RelatesToProductReference": "openSUSE Tumbleweed",
        "RelationType": "Default Component Of"
      },
      {
        "ProductReference": "libgda-report-6_0-6_0_0-6.0.0-5.1",
        "RelatesToProductReference": "openSUSE Tumbleweed",
        "RelationType": "Default Component Of"
      },
      {
        "ProductReference": "libgda-ui-6_0-6_0_0-6.0.0-5.1",
        "RelatesToProductReference": "openSUSE Tumbleweed",
        "RelationType": "Default Component Of"
      },
      {
        "ProductReference": "libgda-ui-6_0-plugins-6.0.0-5.1",
        "RelatesToProductReference": "openSUSE Tumbleweed",
        "RelationType": "Default Component Of"
      },
      {
        "ProductReference": "libgda-ui-6_0-tools-6.0.0-5.1",
        "RelatesToProductReference": "openSUSE Tumbleweed",
        "RelationType": "Default Component Of"
      },
      {
        "ProductReference": "libgda-xslt-6_0-6_0_0-6.0.0-5.1",
        "RelatesToProductReference": "openSUSE Tumbleweed",
        "RelationType": "Default Component Of"
      },
      {
        "ProductReference": "typelib-1_0-Gda-6_0-6.0.0-5.1",
        "RelatesToProductReference": "openSUSE Tumbleweed",
        "RelationType": "Default Component Of"
      },
      {
        "ProductReference": "typelib-1_0-Gdaui-6_0-6.0.0-5.1",
        "RelatesToProductReference": "openSUSE Tumbleweed",
        "RelationType": "Default Component Of"
      }
    ]
  },
  "References": [
    {
      "URL": "https://www.suse.com/support/security/rating/",
      "Description": "SUSE Security Ratings"
    },
    {
      "URL": "https://www.suse.com/security/cve/CVE-2021-39359/",
      "Description": "SUSE CVE CVE-2021-39359 page"
    }
  ],
  "Vulnerabilities": [
    {
      "CVE": "CVE-2021-39359",
      "Description": "In GNOME libgda through 6.0.0, gda-web-provider.c does not enable TLS certificate verification on the SoupSessionSync objects it creates, leaving users vulnerable to network MITM attacks. NOTE: this is similar to CVE-2016-20011.",
      "Threats": [
        {
          "Type": "Impact",
          "Severity": "important"
        }
      ],
      "References": [
        {
          "URL": "https://www.suse.com/security/cve/CVE-2021-39359.html",
          "Description": "CVE-2021-39359"
        },
        {
          "URL": "https://bugzilla.suse.com/1189849",
          "Description": "SUSE Bug 1189849"
        }
      ],
      "ProductStatuses": [
        {
          "Type": "Fixed",
          "ProductID": [
            "openSUSE Tumbleweed:glade-catalog-libgda-6.0.0-5.1",
            "openSUSE Tumbleweed:libgda-6_0-6_0_0-6.0.0-5.1",
            "openSUSE Tumbleweed:libgda-6_0-6_0_0-lang-6.0.0-5.1",
            "openSUSE Tumbleweed:libgda-6_0-devel-6.0.0-5.1",
            "openSUSE Tumbleweed:libgda-6_0-doc-6.0.0-5.1",
            "openSUSE Tumbleweed:libgda-6_0-ldap-6.0.0-5.1",
            "openSUSE Tumbleweed:libgda-6_0-mysql-6.0.0-5.1",
            "openSUSE Tumbleweed:libgda-6_0-postgres-6.0.0-5.1",
            "openSUSE Tumbleweed:libgda-6_0-sqlcipher-6.0.0-5.1",
            "openSUSE Tumbleweed:libgda-6_0-sqlite-6.0.0-5.1",
            "openSUSE Tumbleweed:libgda-6_0-tools-6.0.0-5.1",
            "openSUSE Tumbleweed:libgda-report-6.0.0-5.1",
            "openSUSE Tumbleweed:libgda-report-6_0-6_0_0-6.0.0-5.1",
            "openSUSE Tumbleweed:libgda-ui-6_0-6_0_0-6.0.0-5.1",
            "openSUSE Tumbleweed:libgda-ui-6_0-plugins-6.0.0-5.1",
            "openSUSE Tumbleweed:libgda-ui-6_0-tools-6.0.0-5.1",
            "openSUSE Tumbleweed:libgda-xslt-6_0-6_0_0-6.0.0-5.1",
            "openSUSE Tumbleweed:typelib-1_0-Gda-6_0-6.0.0-5.1",
            "openSUSE Tumbleweed:typelib-1_0-Gdaui-6_0-6.0.0-5.1"
          ]
        }
      ],
      "CVSSScoreSets": {}
    }
  ]
}