{
  "Title": "liblz4-1-1.9.3-1.5 on GA media",
  "Tracking": {
    "ID": "openSUSE-SU-2024:11034-1",
    "Status": "Final",
    "Version": "1",
    "InitialReleaseDate": "2024-06-22T21:44:56Z",
    "CurrentReleaseDate": "2024-06-22T21:44:56Z",
    "RevisionHistory": [
      {
        "Number": "1",
        "Date": "2024-06-22T21:44:56Z",
        "Description": "current"
      }
    ]
  },
  "Notes": [
    {
      "Text": "liblz4-1-1.9.3-1.5 on GA media",
      "Title": "Topic",
      "Type": "Summary"
    },
    {
      "Text": "These are all security issues fixed in the liblz4-1-1.9.3-1.5 package on the GA media of openSUSE Tumbleweed.",
      "Title": "Details",
      "Type": "General"
    },
    {
      "Text": "The CVRF data is provided by SUSE under the Creative Commons License 4.0 with Attribution (CC-BY-4.0).",
      "Title": "Terms of Use",
      "Type": "Legal Disclaimer"
    },
    {
      "Text": "openSUSE-Tumbleweed-2024-11034",
      "Title": "Patchnames",
      "Type": "Details"
    }
  ],
  "ProductTree": {
    "Relationships": [
      {
        "ProductReference": "liblz4-1-1.9.3-1.5",
        "RelatesToProductReference": "openSUSE Tumbleweed",
        "RelationType": "Default Component Of"
      },
      {
        "ProductReference": "liblz4-1-32bit-1.9.3-1.5",
        "RelatesToProductReference": "openSUSE Tumbleweed",
        "RelationType": "Default Component Of"
      },
      {
        "ProductReference": "liblz4-devel-1.9.3-1.5",
        "RelatesToProductReference": "openSUSE Tumbleweed",
        "RelationType": "Default Component Of"
      },
      {
        "ProductReference": "lz4-1.9.3-1.5",
        "RelatesToProductReference": "openSUSE Tumbleweed",
        "RelationType": "Default Component Of"
      }
    ]
  },
  "References": [
    {
      "URL": "https://www.suse.com/support/security/rating/",
      "Description": "SUSE Security Ratings"
    },
    {
      "URL": "https://www.suse.com/security/cve/CVE-2019-17543/",
      "Description": "SUSE CVE CVE-2019-17543 page"
    }
  ],
  "Vulnerabilities": [
    {
      "CVE": "CVE-2019-17543",
      "Description": "LZ4 before 1.9.2 has a heap-based buffer overflow in LZ4_write32 (related to LZ4_compress_destSize), affecting applications that call LZ4_compress_fast with a large input. (This issue can also lead to data corruption.) NOTE: the vendor states \"only a few specific / uncommon usages of the API are at risk.\"",
      "Threats": [
        {
          "Type": "Impact",
          "Severity": "important"
        }
      ],
      "References": [
        {
          "URL": "https://www.suse.com/security/cve/CVE-2019-17543.html",
          "Description": "CVE-2019-17543"
        },
        {
          "URL": "https://bugzilla.suse.com/1153936",
          "Description": "SUSE Bug 1153936"
        },
        {
          "URL": "https://bugzilla.suse.com/1188549",
          "Description": "SUSE Bug 1188549"
        }
      ],
      "ProductStatuses": [
        {
          "Type": "Fixed",
          "ProductID": [
            "openSUSE Tumbleweed:liblz4-1-1.9.3-1.5",
            "openSUSE Tumbleweed:liblz4-1-32bit-1.9.3-1.5",
            "openSUSE Tumbleweed:liblz4-devel-1.9.3-1.5",
            "openSUSE Tumbleweed:lz4-1.9.3-1.5"
          ]
        }
      ],
      "CVSSScoreSets": {}
    }
  ]
}