{
  "Title": "xen-4.17.0_02-1.1 on GA media",
  "Tracking": {
    "ID": "openSUSE-SU-2024:12561-1",
    "Status": "Final",
    "Version": "1",
    "InitialReleaseDate": "2024-06-20T21:44:22Z",
    "CurrentReleaseDate": "2024-06-20T21:44:22Z",
    "RevisionHistory": [
      {
        "Number": "1",
        "Date": "2024-06-20T21:44:22Z",
        "Description": "current"
      }
    ]
  },
  "Notes": [
    {
      "Text": "xen-4.17.0_02-1.1 on GA media",
      "Title": "Topic",
      "Type": "Summary"
    },
    {
      "Text": "These are all security issues fixed in the xen-4.17.0_02-1.1 package on the GA media of openSUSE Tumbleweed.",
      "Title": "Details",
      "Type": "General"
    },
    {
      "Text": "The CVRF data is provided by SUSE under the Creative Commons License 4.0 with Attribution (CC-BY-4.0).",
      "Title": "Terms of Use",
      "Type": "Legal Disclaimer"
    },
    {
      "Text": "openSUSE-Tumbleweed-2024-12561",
      "Title": "Patchnames",
      "Type": "Details"
    }
  ],
  "ProductTree": {
    "Relationships": [
      {
        "ProductReference": "xen-4.17.0_02-1.1",
        "RelatesToProductReference": "openSUSE Tumbleweed",
        "RelationType": "Default Component Of"
      },
      {
        "ProductReference": "xen-devel-4.17.0_02-1.1",
        "RelatesToProductReference": "openSUSE Tumbleweed",
        "RelationType": "Default Component Of"
      },
      {
        "ProductReference": "xen-doc-html-4.17.0_02-1.1",
        "RelatesToProductReference": "openSUSE Tumbleweed",
        "RelationType": "Default Component Of"
      },
      {
        "ProductReference": "xen-libs-4.17.0_02-1.1",
        "RelatesToProductReference": "openSUSE Tumbleweed",
        "RelationType": "Default Component Of"
      },
      {
        "ProductReference": "xen-libs-32bit-4.17.0_02-1.1",
        "RelatesToProductReference": "openSUSE Tumbleweed",
        "RelationType": "Default Component Of"
      },
      {
        "ProductReference": "xen-tools-4.17.0_02-1.1",
        "RelatesToProductReference": "openSUSE Tumbleweed",
        "RelationType": "Default Component Of"
      },
      {
        "ProductReference": "xen-tools-domU-4.17.0_02-1.1",
        "RelatesToProductReference": "openSUSE Tumbleweed",
        "RelationType": "Default Component Of"
      },
      {
        "ProductReference": "xen-tools-xendomains-wait-disk-4.17.0_02-1.1",
        "RelatesToProductReference": "openSUSE Tumbleweed",
        "RelationType": "Default Component Of"
      }
    ]
  },
  "References": [
    {
      "URL": "https://www.suse.com/support/security/rating/",
      "Description": "SUSE Security Ratings"
    },
    {
      "URL": "https://www.suse.com/security/cve/CVE-2022-33746/",
      "Description": "SUSE CVE CVE-2022-33746 page"
    },
    {
      "URL": "https://www.suse.com/security/cve/CVE-2022-33748/",
      "Description": "SUSE CVE CVE-2022-33748 page"
    }
  ],
  "Vulnerabilities": [
    {
      "CVE": "CVE-2022-33746",
      "Description": "P2M pool freeing may take excessively long The P2M pool backing second level address translation for guests may be of significant size. Therefore its freeing may take more time than is reasonable without intermediate preemption checks. Such checking for the need to preempt was so far missing.",
      "Threats": [
        {
          "Type": "Impact",
          "Severity": "moderate"
        }
      ],
      "References": [
        {
          "URL": "https://www.suse.com/security/cve/CVE-2022-33746.html",
          "Description": "CVE-2022-33746"
        },
        {
          "URL": "https://bugzilla.suse.com/1203806",
          "Description": "SUSE Bug 1203806"
        }
      ],
      "ProductStatuses": [
        {
          "Type": "Fixed",
          "ProductID": [
            "openSUSE Tumbleweed:xen-4.17.0_02-1.1",
            "openSUSE Tumbleweed:xen-devel-4.17.0_02-1.1",
            "openSUSE Tumbleweed:xen-doc-html-4.17.0_02-1.1",
            "openSUSE Tumbleweed:xen-libs-32bit-4.17.0_02-1.1",
            "openSUSE Tumbleweed:xen-libs-4.17.0_02-1.1",
            "openSUSE Tumbleweed:xen-tools-4.17.0_02-1.1",
            "openSUSE Tumbleweed:xen-tools-domU-4.17.0_02-1.1",
            "openSUSE Tumbleweed:xen-tools-xendomains-wait-disk-4.17.0_02-1.1"
          ]
        }
      ],
      "CVSSScoreSets": {}
    },
    {
      "CVE": "CVE-2022-33748",
      "Description": "lock order inversion in transitive grant copy handling As part of XSA-226 a missing cleanup call was inserted on an error handling path. While doing so, locking requirements were not paid attention to. As a result two cooperating guests granting each other transitive grants can cause locks to be acquired nested within one another, but in respectively opposite order. With suitable timing between the involved grant copy operations this may result in the locking up of a CPU.",
      "Threats": [
        {
          "Type": "Impact",
          "Severity": "moderate"
        }
      ],
      "References": [
        {
          "URL": "https://www.suse.com/security/cve/CVE-2022-33748.html",
          "Description": "CVE-2022-33748"
        },
        {
          "URL": "https://bugzilla.suse.com/1203807",
          "Description": "SUSE Bug 1203807"
        }
      ],
      "ProductStatuses": [
        {
          "Type": "Fixed",
          "ProductID": [
            "openSUSE Tumbleweed:xen-4.17.0_02-1.1",
            "openSUSE Tumbleweed:xen-devel-4.17.0_02-1.1",
            "openSUSE Tumbleweed:xen-doc-html-4.17.0_02-1.1",
            "openSUSE Tumbleweed:xen-libs-32bit-4.17.0_02-1.1",
            "openSUSE Tumbleweed:xen-libs-4.17.0_02-1.1",
            "openSUSE Tumbleweed:xen-tools-4.17.0_02-1.1",
            "openSUSE Tumbleweed:xen-tools-domU-4.17.0_02-1.1",
            "openSUSE Tumbleweed:xen-tools-xendomains-wait-disk-4.17.0_02-1.1"
          ]
        }
      ],
      "CVSSScoreSets": {}
    }
  ]
}