{
  "Title": "pure-ftpd-1.0.50-1.1 on GA media",
  "Tracking": {
    "ID": "openSUSE-SU-2024:11773-1",
    "Status": "Final",
    "Version": "1",
    "InitialReleaseDate": "2024-06-22T21:44:56Z",
    "CurrentReleaseDate": "2024-06-22T21:44:56Z",
    "RevisionHistory": [
      {
        "Number": "1",
        "Date": "2024-06-22T21:44:56Z",
        "Description": "current"
      }
    ]
  },
  "Notes": [
    {
      "Text": "pure-ftpd-1.0.50-1.1 on GA media",
      "Title": "Topic",
      "Type": "Summary"
    },
    {
      "Text": "These are all security issues fixed in the pure-ftpd-1.0.50-1.1 package on the GA media of openSUSE Tumbleweed.",
      "Title": "Details",
      "Type": "General"
    },
    {
      "Text": "The CVRF data is provided by SUSE under the Creative Commons License 4.0 with Attribution (CC-BY-4.0).",
      "Title": "Terms of Use",
      "Type": "Legal Disclaimer"
    },
    {
      "Text": "openSUSE-Tumbleweed-2024-11773",
      "Title": "Patchnames",
      "Type": "Details"
    }
  ],
  "ProductTree": {
    "Relationships": [
      {
        "ProductReference": "pure-ftpd-1.0.50-1.1",
        "RelatesToProductReference": "openSUSE Tumbleweed",
        "RelationType": "Default Component Of"
      }
    ]
  },
  "References": [
    {
      "URL": "https://www.suse.com/support/security/rating/",
      "Description": "SUSE Security Ratings"
    },
    {
      "URL": "https://www.suse.com/security/cve/CVE-2019-20176/",
      "Description": "SUSE CVE CVE-2019-20176 page"
    },
    {
      "URL": "https://www.suse.com/security/cve/CVE-2020-9274/",
      "Description": "SUSE CVE CVE-2020-9274 page"
    },
    {
      "URL": "https://www.suse.com/security/cve/CVE-2020-9365/",
      "Description": "SUSE CVE CVE-2020-9365 page"
    },
    {
      "URL": "https://www.suse.com/security/cve/CVE-2021-40524/",
      "Description": "SUSE CVE CVE-2021-40524 page"
    }
  ],
  "Vulnerabilities": [
    {
      "CVE": "CVE-2019-20176",
      "Description": "In Pure-FTPd 1.0.49, a stack exhaustion issue was discovered in the listdir function in ls.c.",
      "Threats": [
        {
          "Type": "Impact",
          "Severity": "moderate"
        }
      ],
      "References": [
        {
          "URL": "https://www.suse.com/security/cve/CVE-2019-20176.html",
          "Description": "CVE-2019-20176"
        },
        {
          "URL": "https://bugzilla.suse.com/1160111",
          "Description": "SUSE Bug 1160111"
        }
      ],
      "ProductStatuses": [
        {
          "Type": "Fixed",
          "ProductID": [
            "openSUSE Tumbleweed:pure-ftpd-1.0.50-1.1"
          ]
        }
      ],
      "CVSSScoreSets": {}
    },
    {
      "CVE": "CVE-2020-9274",
      "Description": "An issue was discovered in Pure-FTPd 1.0.49. An uninitialized pointer vulnerability has been detected in the diraliases linked list. When the *lookup_alias(const char alias) or print_aliases(void) function is called, they fail to correctly detect the end of the linked list and try to access a non-existent list member. This is related to init_aliases in diraliases.c.",
      "Threats": [
        {
          "Type": "Impact",
          "Severity": "moderate"
        }
      ],
      "References": [
        {
          "URL": "https://www.suse.com/security/cve/CVE-2020-9274.html",
          "Description": "CVE-2020-9274"
        },
        {
          "URL": "https://bugzilla.suse.com/1165134",
          "Description": "SUSE Bug 1165134"
        }
      ],
      "ProductStatuses": [
        {
          "Type": "Fixed",
          "ProductID": [
            "openSUSE Tumbleweed:pure-ftpd-1.0.50-1.1"
          ]
        }
      ],
      "CVSSScoreSets": {}
    },
    {
      "CVE": "CVE-2020-9365",
      "Description": "An issue was discovered in Pure-FTPd 1.0.49. An out-of-bounds (OOB) read has been detected in the pure_strcmp function in utils.c.",
      "Threats": [
        {
          "Type": "Impact",
          "Severity": "moderate"
        }
      ],
      "References": [
        {
          "URL": "https://www.suse.com/security/cve/CVE-2020-9365.html",
          "Description": "CVE-2020-9365"
        },
        {
          "URL": "https://bugzilla.suse.com/1164805",
          "Description": "SUSE Bug 1164805"
        }
      ],
      "ProductStatuses": [
        {
          "Type": "Fixed",
          "ProductID": [
            "openSUSE Tumbleweed:pure-ftpd-1.0.50-1.1"
          ]
        }
      ],
      "CVSSScoreSets": {}
    },
    {
      "CVE": "CVE-2021-40524",
      "Description": "In Pure-FTPd before 1.0.50, an incorrect max_filesize quota mechanism in the server allows attackers to upload files of unbounded size, which may lead to denial of service or a server hang. This occurs because a certain greater-than-zero test does not anticipate an initial -1 value. (Versions 1.0.23 through 1.0.49 are affected.)",
      "Threats": [
        {
          "Type": "Impact",
          "Severity": "moderate"
        }
      ],
      "References": [
        {
          "URL": "https://www.suse.com/security/cve/CVE-2021-40524.html",
          "Description": "CVE-2021-40524"
        },
        {
          "URL": "https://bugzilla.suse.com/1190205",
          "Description": "SUSE Bug 1190205"
        },
        {
          "URL": "https://bugzilla.suse.com/1205055",
          "Description": "SUSE Bug 1205055"
        }
      ],
      "ProductStatuses": [
        {
          "Type": "Fixed",
          "ProductID": [
            "openSUSE Tumbleweed:pure-ftpd-1.0.50-1.1"
          ]
        }
      ],
      "CVSSScoreSets": {}
    }
  ]
}