{
  "Title": "ghostscript-9.56.1-8.1 on GA media",
  "Tracking": {
    "ID": "openSUSE-SU-2024:13548-1",
    "Status": "Final",
    "Version": "1",
    "InitialReleaseDate": "2024-06-20T21:44:22Z",
    "CurrentReleaseDate": "2024-06-20T21:44:22Z",
    "RevisionHistory": [
      {
        "Number": "1",
        "Date": "2024-06-20T21:44:22Z",
        "Description": "current"
      }
    ]
  },
  "Notes": [
    {
      "Text": "ghostscript-9.56.1-8.1 on GA media",
      "Title": "Topic",
      "Type": "Summary"
    },
    {
      "Text": "These are all security issues fixed in the ghostscript-9.56.1-8.1 package on the GA media of openSUSE Tumbleweed.",
      "Title": "Details",
      "Type": "General"
    },
    {
      "Text": "The CVRF data is provided by SUSE under the Creative Commons License 4.0 with Attribution (CC-BY-4.0).",
      "Title": "Terms of Use",
      "Type": "Legal Disclaimer"
    },
    {
      "Text": "openSUSE-Tumbleweed-2024-13548",
      "Title": "Patchnames",
      "Type": "Details"
    }
  ],
  "ProductTree": {
    "Relationships": [
      {
        "ProductReference": "ghostscript-9.56.1-8.1",
        "RelatesToProductReference": "openSUSE Tumbleweed",
        "RelationType": "Default Component Of"
      },
      {
        "ProductReference": "ghostscript-devel-9.56.1-8.1",
        "RelatesToProductReference": "openSUSE Tumbleweed",
        "RelationType": "Default Component Of"
      },
      {
        "ProductReference": "ghostscript-x11-9.56.1-8.1",
        "RelatesToProductReference": "openSUSE Tumbleweed",
        "RelationType": "Default Component Of"
      }
    ]
  },
  "References": [
    {
      "URL": "https://www.suse.com/support/security/rating/",
      "Description": "SUSE Security Ratings"
    },
    {
      "URL": "https://www.suse.com/security/cve/CVE-2023-46751/",
      "Description": "SUSE CVE CVE-2023-46751 page"
    }
  ],
  "Vulnerabilities": [
    {
      "CVE": "CVE-2023-46751",
      "Description": "An issue was discovered in the function gdev_prn_open_printer_seekable() in Artifex Ghostscript through 10.02.0 allows remote attackers to crash the application via a dangling pointer.",
      "Threats": [
        {
          "Type": "Impact",
          "Severity": "moderate"
        }
      ],
      "References": [
        {
          "URL": "https://www.suse.com/security/cve/CVE-2023-46751.html",
          "Description": "CVE-2023-46751"
        },
        {
          "URL": "https://bugzilla.suse.com/1217871",
          "Description": "SUSE Bug 1217871"
        }
      ],
      "ProductStatuses": [
        {
          "Type": "Fixed",
          "ProductID": [
            "openSUSE Tumbleweed:ghostscript-9.56.1-8.1",
            "openSUSE Tumbleweed:ghostscript-devel-9.56.1-8.1",
            "openSUSE Tumbleweed:ghostscript-x11-9.56.1-8.1"
          ]
        }
      ],
      "CVSSScoreSets": {}
    }
  ]
}