{
  "Title": "yubikey-manager-4.0.3-1.3 on GA media",
  "Tracking": {
    "ID": "openSUSE-SU-2024:11538-1",
    "Status": "Final",
    "Version": "1",
    "InitialReleaseDate": "2024-06-22T21:44:56Z",
    "CurrentReleaseDate": "2024-06-22T21:44:56Z",
    "RevisionHistory": [
      {
        "Number": "1",
        "Date": "2024-06-22T21:44:56Z",
        "Description": "current"
      }
    ]
  },
  "Notes": [
    {
      "Text": "yubikey-manager-4.0.3-1.3 on GA media",
      "Title": "Topic",
      "Type": "Summary"
    },
    {
      "Text": "These are all security issues fixed in the yubikey-manager-4.0.3-1.3 package on the GA media of openSUSE Tumbleweed.",
      "Title": "Details",
      "Type": "General"
    },
    {
      "Text": "The CVRF data is provided by SUSE under the Creative Commons License 4.0 with Attribution (CC-BY-4.0).",
      "Title": "Terms of Use",
      "Type": "Legal Disclaimer"
    },
    {
      "Text": "openSUSE-Tumbleweed-2024-11538",
      "Title": "Patchnames",
      "Type": "Details"
    }
  ],
  "ProductTree": {
    "Relationships": [
      {
        "ProductReference": "yubikey-manager-4.0.3-1.3",
        "RelatesToProductReference": "openSUSE Tumbleweed",
        "RelationType": "Default Component Of"
      }
    ]
  },
  "References": [
    {
      "URL": "https://www.suse.com/support/security/rating/",
      "Description": "SUSE Security Ratings"
    },
    {
      "URL": "https://www.suse.com/security/cve/CVE-2017-15631/",
      "Description": "SUSE CVE CVE-2017-15631 page"
    }
  ],
  "Vulnerabilities": [
    {
      "CVE": "CVE-2017-15631",
      "Description": "TP-Link WVR, WAR and ER devices allow remote authenticated administrators to execute arbitrary commands via command injection in the new-workmode variable in the pptp_client.lua file.",
      "Threats": [
        {
          "Type": "Impact",
          "Severity": "moderate"
        }
      ],
      "References": [
        {
          "URL": "https://www.suse.com/security/cve/CVE-2017-15631.html",
          "Description": "CVE-2017-15631"
        }
      ],
      "ProductStatuses": [
        {
          "Type": "Fixed",
          "ProductID": [
            "openSUSE Tumbleweed:yubikey-manager-4.0.3-1.3"
          ]
        }
      ],
      "CVSSScoreSets": {}
    }
  ]
}