{
  "Title": "freerdp-2.0.0~git.1463131968.4e66df7-2.5 on GA media",
  "Tracking": {
    "ID": "openSUSE-SU-2024:10110-1",
    "Status": "Final",
    "Version": "1",
    "InitialReleaseDate": "2024-06-22T21:44:56Z",
    "CurrentReleaseDate": "2024-06-22T21:44:56Z",
    "RevisionHistory": [
      {
        "Number": "1",
        "Date": "2024-06-22T21:44:56Z",
        "Description": "current"
      }
    ]
  },
  "Notes": [
    {
      "Text": "freerdp-2.0.0~git.1463131968.4e66df7-2.5 on GA media",
      "Title": "Topic",
      "Type": "Summary"
    },
    {
      "Text": "These are all security issues fixed in the freerdp-2.0.0~git.1463131968.4e66df7-2.5 package on the GA media of openSUSE Tumbleweed.",
      "Title": "Details",
      "Type": "General"
    },
    {
      "Text": "The CVRF data is provided by SUSE under the Creative Commons License 4.0 with Attribution (CC-BY-4.0).",
      "Title": "Terms of Use",
      "Type": "Legal Disclaimer"
    },
    {
      "Text": "openSUSE-Tumbleweed-2024-10110",
      "Title": "Patchnames",
      "Type": "Details"
    }
  ],
  "ProductTree": {
    "Relationships": [
      {
        "ProductReference": "freerdp-2.0.0~git.1463131968.4e66df7-2.5",
        "RelatesToProductReference": "openSUSE Tumbleweed",
        "RelationType": "Default Component Of"
      },
      {
        "ProductReference": "freerdp-devel-2.0.0~git.1463131968.4e66df7-2.5",
        "RelatesToProductReference": "openSUSE Tumbleweed",
        "RelationType": "Default Component Of"
      },
      {
        "ProductReference": "libfreerdp2-2.0.0~git.1463131968.4e66df7-2.5",
        "RelatesToProductReference": "openSUSE Tumbleweed",
        "RelationType": "Default Component Of"
      }
    ]
  },
  "References": [
    {
      "URL": "https://www.suse.com/support/security/rating/",
      "Description": "SUSE Security Ratings"
    },
    {
      "URL": "https://www.suse.com/security/cve/CVE-2014-0250/",
      "Description": "SUSE CVE CVE-2014-0250 page"
    },
    {
      "URL": "https://www.suse.com/security/cve/CVE-2014-0791/",
      "Description": "SUSE CVE CVE-2014-0791 page"
    }
  ],
  "Vulnerabilities": [
    {
      "CVE": "CVE-2014-0250",
      "Description": "Multiple integer overflows in client/X11/xf_graphics.c in FreeRDP allow remote attackers to have an unspecified impact via the width and height to the (1) xf_Pointer_New or (2) xf_Bitmap_Decompress function, which causes an incorrect amount of memory to be allocated.",
      "Threats": [
        {
          "Type": "Impact",
          "Severity": "moderate"
        }
      ],
      "References": [
        {
          "URL": "https://www.suse.com/security/cve/CVE-2014-0250.html",
          "Description": "CVE-2014-0250"
        },
        {
          "URL": "https://bugzilla.suse.com/880317",
          "Description": "SUSE Bug 880317"
        },
        {
          "URL": "https://bugzilla.suse.com/975218",
          "Description": "SUSE Bug 975218"
        }
      ],
      "ProductStatuses": [
        {
          "Type": "Fixed",
          "ProductID": [
            "openSUSE Tumbleweed:freerdp-2.0.0~git.1463131968.4e66df7-2.5",
            "openSUSE Tumbleweed:freerdp-devel-2.0.0~git.1463131968.4e66df7-2.5",
            "openSUSE Tumbleweed:libfreerdp2-2.0.0~git.1463131968.4e66df7-2.5"
          ]
        }
      ],
      "CVSSScoreSets": {
        "BaseScore": "6.8",
        "Vector": "AV:N/AC:M/Au:N/C:P/I:P/A:P"
      }
    },
    {
      "CVE": "CVE-2014-0791",
      "Description": "Integer overflow in the license_read_scope_list function in libfreerdp/core/license.c in FreeRDP through 1.0.2 allows remote RDP servers to cause a denial of service (application crash) or possibly have unspecified other impact via a large ScopeCount value in a Scope List in a Server License Request packet.",
      "Threats": [
        {
          "Type": "Impact",
          "Severity": "moderate"
        }
      ],
      "References": [
        {
          "URL": "https://www.suse.com/security/cve/CVE-2014-0791.html",
          "Description": "CVE-2014-0791"
        },
        {
          "URL": "https://bugzilla.suse.com/857491",
          "Description": "SUSE Bug 857491"
        },
        {
          "URL": "https://bugzilla.suse.com/975218",
          "Description": "SUSE Bug 975218"
        }
      ],
      "ProductStatuses": [
        {
          "Type": "Fixed",
          "ProductID": [
            "openSUSE Tumbleweed:freerdp-2.0.0~git.1463131968.4e66df7-2.5",
            "openSUSE Tumbleweed:freerdp-devel-2.0.0~git.1463131968.4e66df7-2.5",
            "openSUSE Tumbleweed:libfreerdp2-2.0.0~git.1463131968.4e66df7-2.5"
          ]
        }
      ],
      "CVSSScoreSets": {}
    }
  ]
}