{
  "Title": "mutt-2.2.12-2.1 on GA media",
  "Tracking": {
    "ID": "openSUSE-SU-2024:13279-1",
    "Status": "Final",
    "Version": "1",
    "InitialReleaseDate": "2024-06-20T21:44:22Z",
    "CurrentReleaseDate": "2024-06-20T21:44:22Z",
    "RevisionHistory": [
      {
        "Number": "1",
        "Date": "2024-06-20T21:44:22Z",
        "Description": "current"
      }
    ]
  },
  "Notes": [
    {
      "Text": "mutt-2.2.12-2.1 on GA media",
      "Title": "Topic",
      "Type": "Summary"
    },
    {
      "Text": "These are all security issues fixed in the mutt-2.2.12-2.1 package on the GA media of openSUSE Tumbleweed.",
      "Title": "Details",
      "Type": "General"
    },
    {
      "Text": "The CVRF data is provided by SUSE under the Creative Commons License 4.0 with Attribution (CC-BY-4.0).",
      "Title": "Terms of Use",
      "Type": "Legal Disclaimer"
    },
    {
      "Text": "openSUSE-Tumbleweed-2024-13279",
      "Title": "Patchnames",
      "Type": "Details"
    }
  ],
  "ProductTree": {
    "Relationships": [
      {
        "ProductReference": "mutt-2.2.12-2.1",
        "RelatesToProductReference": "openSUSE Tumbleweed",
        "RelationType": "Default Component Of"
      },
      {
        "ProductReference": "mutt-doc-2.2.12-2.1",
        "RelatesToProductReference": "openSUSE Tumbleweed",
        "RelationType": "Default Component Of"
      },
      {
        "ProductReference": "mutt-lang-2.2.12-2.1",
        "RelatesToProductReference": "openSUSE Tumbleweed",
        "RelationType": "Default Component Of"
      }
    ]
  },
  "References": [
    {
      "URL": "https://www.suse.com/support/security/rating/",
      "Description": "SUSE Security Ratings"
    },
    {
      "URL": "https://www.suse.com/security/cve/CVE-2020-14154/",
      "Description": "SUSE CVE CVE-2020-14154 page"
    }
  ],
  "Vulnerabilities": [
    {
      "CVE": "CVE-2020-14154",
      "Description": "Mutt before 1.14.3 proceeds with a connection even if, in response to a GnuTLS certificate prompt, the user rejects an expired intermediate certificate.",
      "Threats": [
        {
          "Type": "Impact",
          "Severity": "important"
        }
      ],
      "References": [
        {
          "URL": "https://www.suse.com/security/cve/CVE-2020-14154.html",
          "Description": "CVE-2020-14154"
        },
        {
          "URL": "https://bugzilla.suse.com/1172906",
          "Description": "SUSE Bug 1172906"
        },
        {
          "URL": "https://bugzilla.suse.com/1172935",
          "Description": "SUSE Bug 1172935"
        }
      ],
      "ProductStatuses": [
        {
          "Type": "Fixed",
          "ProductID": [
            "openSUSE Tumbleweed:mutt-2.2.12-2.1",
            "openSUSE Tumbleweed:mutt-doc-2.2.12-2.1",
            "openSUSE Tumbleweed:mutt-lang-2.2.12-2.1"
          ]
        }
      ],
      "CVSSScoreSets": {}
    }
  ]
}