{
  "Title": "hplip-3.21.6-1.2 on GA media",
  "Tracking": {
    "ID": "openSUSE-SU-2024:10847-1",
    "Status": "Final",
    "Version": "1",
    "InitialReleaseDate": "2024-06-22T21:44:56Z",
    "CurrentReleaseDate": "2024-06-22T21:44:56Z",
    "RevisionHistory": [
      {
        "Number": "1",
        "Date": "2024-06-22T21:44:56Z",
        "Description": "current"
      }
    ]
  },
  "Notes": [
    {
      "Text": "hplip-3.21.6-1.2 on GA media",
      "Title": "Topic",
      "Type": "Summary"
    },
    {
      "Text": "These are all security issues fixed in the hplip-3.21.6-1.2 package on the GA media of openSUSE Tumbleweed.",
      "Title": "Details",
      "Type": "General"
    },
    {
      "Text": "The CVRF data is provided by SUSE under the Creative Commons License 4.0 with Attribution (CC-BY-4.0).",
      "Title": "Terms of Use",
      "Type": "Legal Disclaimer"
    },
    {
      "Text": "openSUSE-Tumbleweed-2024-10847",
      "Title": "Patchnames",
      "Type": "Details"
    }
  ],
  "ProductTree": {
    "Relationships": [
      {
        "ProductReference": "hplip-3.21.6-1.2",
        "RelatesToProductReference": "openSUSE Tumbleweed",
        "RelationType": "Default Component Of"
      },
      {
        "ProductReference": "hplip-devel-3.21.6-1.2",
        "RelatesToProductReference": "openSUSE Tumbleweed",
        "RelationType": "Default Component Of"
      },
      {
        "ProductReference": "hplip-hpijs-3.21.6-1.2",
        "RelatesToProductReference": "openSUSE Tumbleweed",
        "RelationType": "Default Component Of"
      },
      {
        "ProductReference": "hplip-sane-3.21.6-1.2",
        "RelatesToProductReference": "openSUSE Tumbleweed",
        "RelationType": "Default Component Of"
      },
      {
        "ProductReference": "hplip-scan-utils-3.21.6-1.2",
        "RelatesToProductReference": "openSUSE Tumbleweed",
        "RelationType": "Default Component Of"
      }
    ]
  },
  "References": [
    {
      "URL": "https://www.suse.com/support/security/rating/",
      "Description": "SUSE Security Ratings"
    },
    {
      "URL": "https://www.suse.com/security/cve/CVE-2007-5208/",
      "Description": "SUSE CVE CVE-2007-5208 page"
    }
  ],
  "Vulnerabilities": [
    {
      "CVE": "CVE-2007-5208",
      "Description": "hpssd in Hewlett-Packard Linux Imaging and Printing Project (hplip) 1.x and 2.x before 2.7.10 allows context-dependent attackers to execute arbitrary commands via shell metacharacters in a from address, which is not properly handled when invoking sendmail.",
      "Threats": [
        {
          "Type": "Impact",
          "Severity": "moderate"
        }
      ],
      "References": [
        {
          "URL": "https://www.suse.com/security/cve/CVE-2007-5208.html",
          "Description": "CVE-2007-5208"
        },
        {
          "URL": "https://bugzilla.suse.com/331015",
          "Description": "SUSE Bug 331015"
        }
      ],
      "ProductStatuses": [
        {
          "Type": "Fixed",
          "ProductID": [
            "openSUSE Tumbleweed:hplip-3.21.6-1.2",
            "openSUSE Tumbleweed:hplip-devel-3.21.6-1.2",
            "openSUSE Tumbleweed:hplip-hpijs-3.21.6-1.2",
            "openSUSE Tumbleweed:hplip-sane-3.21.6-1.2",
            "openSUSE Tumbleweed:hplip-scan-utils-3.21.6-1.2"
          ]
        }
      ],
      "CVSSScoreSets": {}
    }
  ]
}