{
  "Title": "cacti-1.2.26-1.1 on GA media",
  "Tracking": {
    "ID": "openSUSE-SU-2024:13533-1",
    "Status": "Final",
    "Version": "1",
    "InitialReleaseDate": "2024-06-20T21:44:22Z",
    "CurrentReleaseDate": "2024-06-20T21:44:22Z",
    "RevisionHistory": [
      {
        "Number": "1",
        "Date": "2024-06-20T21:44:22Z",
        "Description": "current"
      }
    ]
  },
  "Notes": [
    {
      "Text": "cacti-1.2.26-1.1 on GA media",
      "Title": "Topic",
      "Type": "Summary"
    },
    {
      "Text": "These are all security issues fixed in the cacti-1.2.26-1.1 package on the GA media of openSUSE Tumbleweed.",
      "Title": "Details",
      "Type": "General"
    },
    {
      "Text": "The CVRF data is provided by SUSE under the Creative Commons License 4.0 with Attribution (CC-BY-4.0).",
      "Title": "Terms of Use",
      "Type": "Legal Disclaimer"
    },
    {
      "Text": "openSUSE-Tumbleweed-2024-13533",
      "Title": "Patchnames",
      "Type": "Details"
    }
  ],
  "ProductTree": {
    "Relationships": [
      {
        "ProductReference": "cacti-1.2.26-1.1",
        "RelatesToProductReference": "openSUSE Tumbleweed",
        "RelationType": "Default Component Of"
      }
    ]
  },
  "References": [
    {
      "URL": "https://www.suse.com/support/security/rating/",
      "Description": "SUSE Security Ratings"
    },
    {
      "URL": "https://www.suse.com/security/cve/CVE-2023-49084/",
      "Description": "SUSE CVE CVE-2023-49084 page"
    },
    {
      "URL": "https://www.suse.com/security/cve/CVE-2023-49085/",
      "Description": "SUSE CVE CVE-2023-49085 page"
    },
    {
      "URL": "https://www.suse.com/security/cve/CVE-2023-49086/",
      "Description": "SUSE CVE CVE-2023-49086 page"
    },
    {
      "URL": "https://www.suse.com/security/cve/CVE-2023-49088/",
      "Description": "SUSE CVE CVE-2023-49088 page"
    },
    {
      "URL": "https://www.suse.com/security/cve/CVE-2023-50250/",
      "Description": "SUSE CVE CVE-2023-50250 page"
    },
    {
      "URL": "https://www.suse.com/security/cve/CVE-2023-51448/",
      "Description": "SUSE CVE CVE-2023-51448 page"
    }
  ],
  "Vulnerabilities": [
    {
      "CVE": "CVE-2023-49084",
      "Description": "Cacti is a robust performance and fault management framework and a frontend to RRDTool - a Time Series Database (TSDB). While using the detected SQL Injection and insufficient processing of the include file path, it is possible to execute arbitrary code on the server. Exploitation of the vulnerability is possible for an authorized user. The vulnerable component is the `link.php`. Impact of the vulnerability execution of arbitrary code on the server. ",
      "Threats": [
        {
          "Type": "Impact",
          "Severity": "moderate"
        }
      ],
      "References": [
        {
          "URL": "https://www.suse.com/security/cve/CVE-2023-49084.html",
          "Description": "CVE-2023-49084"
        },
        {
          "URL": "https://bugzilla.suse.com/1218360",
          "Description": "SUSE Bug 1218360"
        }
      ],
      "ProductStatuses": [
        {
          "Type": "Fixed",
          "ProductID": [
            "openSUSE Tumbleweed:cacti-1.2.26-1.1"
          ]
        }
      ],
      "CVSSScoreSets": {}
    },
    {
      "CVE": "CVE-2023-49085",
      "Description": "Cacti provides an operational monitoring and fault management framework. In versions 1.2.25 and prior, it is possible to execute arbitrary SQL code through the `pollers.php` script. An authorized user may be able to execute arbitrary SQL code. The vulnerable component is the `pollers.php`. Impact of the vulnerability - arbitrary SQL code execution. As of time of publication, a patch does not appear to exist.",
      "Threats": [
        {
          "Type": "Impact",
          "Severity": "moderate"
        }
      ],
      "References": [
        {
          "URL": "https://www.suse.com/security/cve/CVE-2023-49085.html",
          "Description": "CVE-2023-49085"
        },
        {
          "URL": "https://bugzilla.suse.com/1218378",
          "Description": "SUSE Bug 1218378"
        }
      ],
      "ProductStatuses": [
        {
          "Type": "Fixed",
          "ProductID": [
            "openSUSE Tumbleweed:cacti-1.2.26-1.1"
          ]
        }
      ],
      "CVSSScoreSets": {}
    },
    {
      "CVE": "CVE-2023-49086",
      "Description": "Cacti is a robust performance and fault management framework and a frontend to RRDTool - a Time Series Database (TSDB). A vulnerability in versions prior to 1.2.27 bypasses an earlier fix for CVE-2023-39360, therefore leading to a DOM XSS attack. Exploitation of the vulnerability is possible for an authorized user. The vulnerable component is the `graphs_new.php`. The impact of the vulnerability is execution of arbitrary JavaScript code in the attacked user's browser. This issue has been patched in version 1.2.27.\n",
      "Threats": [
        {
          "Type": "Impact",
          "Severity": "moderate"
        }
      ],
      "References": [
        {
          "URL": "https://www.suse.com/security/cve/CVE-2023-49086.html",
          "Description": "CVE-2023-49086"
        },
        {
          "URL": "https://bugzilla.suse.com/1218366",
          "Description": "SUSE Bug 1218366"
        }
      ],
      "ProductStatuses": [
        {
          "Type": "Fixed",
          "ProductID": [
            "openSUSE Tumbleweed:cacti-1.2.26-1.1"
          ]
        }
      ],
      "CVSSScoreSets": {}
    },
    {
      "CVE": "CVE-2023-49088",
      "Description": "Cacti is an open source operational monitoring and fault management framework. The fix applied for CVE-2023-39515 in version 1.2.25 is incomplete as it enables an adversary to have a victim browser execute malicious code when a victim user hovers their mouse over the malicious data source path in `data_debug.php`. To perform the cross-site scripting attack, the adversary needs to be an authorized cacti user with the following permissions: `General Administration\u003eSites/Devices/Data`. The victim of this attack could be any account with permissions to view `http://\u003cHOST\u003e/cacti/data_debug.php`. As of time of publication, no complete fix has been included in Cacti.",
      "Threats": [
        {
          "Type": "Impact",
          "Severity": "moderate"
        }
      ],
      "References": [
        {
          "URL": "https://www.suse.com/security/cve/CVE-2023-49088.html",
          "Description": "CVE-2023-49088"
        },
        {
          "URL": "https://bugzilla.suse.com/1218379",
          "Description": "SUSE Bug 1218379"
        }
      ],
      "ProductStatuses": [
        {
          "Type": "Fixed",
          "ProductID": [
            "openSUSE Tumbleweed:cacti-1.2.26-1.1"
          ]
        }
      ],
      "CVSSScoreSets": {}
    },
    {
      "CVE": "CVE-2023-50250",
      "Description": "Cacti is an open source operational monitoring and fault management framework. A reflection cross-site scripting vulnerability was discovered in version 1.2.25. Attackers can exploit this vulnerability to perform actions on behalf of other users. The vulnerability is found in `templates_import.php.` When uploading an xml template file, if the XML file does not pass the check, the server will give a JavaScript pop-up prompt, which contains unfiltered xml template file name, resulting in XSS. An attacker exploiting this vulnerability could execute actions on behalf of other users. This ability to impersonate users could lead to unauthorized changes to settings. As of time of publication, no patched versions are available.\n",
      "Threats": [
        {
          "Type": "Impact",
          "Severity": "moderate"
        }
      ],
      "References": [
        {
          "URL": "https://www.suse.com/security/cve/CVE-2023-50250.html",
          "Description": "CVE-2023-50250"
        },
        {
          "URL": "https://bugzilla.suse.com/1218380",
          "Description": "SUSE Bug 1218380"
        },
        {
          "URL": "https://bugzilla.suse.com/1224231",
          "Description": "SUSE Bug 1224231"
        }
      ],
      "ProductStatuses": [
        {
          "Type": "Fixed",
          "ProductID": [
            "openSUSE Tumbleweed:cacti-1.2.26-1.1"
          ]
        }
      ],
      "CVSSScoreSets": {}
    },
    {
      "CVE": "CVE-2023-51448",
      "Description": "Cacti provides an operational monitoring and fault management framework. Version 1.2.25 has a Blind SQL Injection (SQLi) vulnerability within the SNMP Notification Receivers feature in the file `'managers.php'`. An authenticated attacker with the \"Settings/Utilities\" permission can send a crafted HTTP GET request to the endpoint `'/cacti/managers.php'` with an SQLi payload in the `'selected_graphs_array'` HTTP GET parameter. As of time of publication, no patched versions exist.",
      "Threats": [
        {
          "Type": "Impact",
          "Severity": "moderate"
        }
      ],
      "References": [
        {
          "URL": "https://www.suse.com/security/cve/CVE-2023-51448.html",
          "Description": "CVE-2023-51448"
        },
        {
          "URL": "https://bugzilla.suse.com/1218381",
          "Description": "SUSE Bug 1218381"
        }
      ],
      "ProductStatuses": [
        {
          "Type": "Fixed",
          "ProductID": [
            "openSUSE Tumbleweed:cacti-1.2.26-1.1"
          ]
        }
      ],
      "CVSSScoreSets": {}
    }
  ]
}