{
  "Title": "jupyter-nbdime-6.1.2-8.1 on GA media",
  "Tracking": {
    "ID": "openSUSE-SU-2024:11630-1",
    "Status": "Final",
    "Version": "1",
    "InitialReleaseDate": "2024-06-22T21:44:56Z",
    "CurrentReleaseDate": "2024-06-22T21:44:56Z",
    "RevisionHistory": [
      {
        "Number": "1",
        "Date": "2024-06-22T21:44:56Z",
        "Description": "current"
      }
    ]
  },
  "Notes": [
    {
      "Text": "jupyter-nbdime-6.1.2-8.1 on GA media",
      "Title": "Topic",
      "Type": "Summary"
    },
    {
      "Text": "These are all security issues fixed in the jupyter-nbdime-6.1.2-8.1 package on the GA media of openSUSE Tumbleweed.",
      "Title": "Details",
      "Type": "General"
    },
    {
      "Text": "The CVRF data is provided by SUSE under the Creative Commons License 4.0 with Attribution (CC-BY-4.0).",
      "Title": "Terms of Use",
      "Type": "Legal Disclaimer"
    },
    {
      "Text": "openSUSE-Tumbleweed-2024-11630",
      "Title": "Patchnames",
      "Type": "Details"
    }
  ],
  "ProductTree": {
    "Relationships": [
      {
        "ProductReference": "jupyter-nbdime-6.1.2-8.1",
        "RelatesToProductReference": "openSUSE Tumbleweed",
        "RelationType": "Default Component Of"
      },
      {
        "ProductReference": "jupyter-nbdime-git-6.1.2-8.1",
        "RelatesToProductReference": "openSUSE Tumbleweed",
        "RelationType": "Default Component Of"
      },
      {
        "ProductReference": "jupyter-nbdime-hg-6.1.2-8.1",
        "RelatesToProductReference": "openSUSE Tumbleweed",
        "RelationType": "Default Component Of"
      },
      {
        "ProductReference": "jupyter-nbdime-jupyterlab-2.1.1-8.1",
        "RelatesToProductReference": "openSUSE Tumbleweed",
        "RelationType": "Default Component Of"
      },
      {
        "ProductReference": "python36-nbdime-3.1.1-8.1",
        "RelatesToProductReference": "openSUSE Tumbleweed",
        "RelationType": "Default Component Of"
      },
      {
        "ProductReference": "python38-nbdime-3.1.1-8.1",
        "RelatesToProductReference": "openSUSE Tumbleweed",
        "RelationType": "Default Component Of"
      },
      {
        "ProductReference": "python39-nbdime-3.1.1-8.1",
        "RelatesToProductReference": "openSUSE Tumbleweed",
        "RelationType": "Default Component Of"
      }
    ]
  },
  "References": [
    {
      "URL": "https://www.suse.com/support/security/rating/",
      "Description": "SUSE Security Ratings"
    },
    {
      "URL": "https://www.suse.com/security/cve/CVE-2021-41134/",
      "Description": "SUSE CVE CVE-2021-41134 page"
    }
  ],
  "Vulnerabilities": [
    {
      "CVE": "CVE-2021-41134",
      "Description": "nbdime provides tools for diffing and merging of Jupyter Notebooks. In affected versions a stored cross-site scripting (XSS) issue exists within the Jupyter-owned nbdime project. It appears that when reading the file name and path from disk, the extension does not sanitize the string it constructs before returning it to be displayed. The diffNotebookCheckpoint function within nbdime causes this issue. When attempting to display the name of the local notebook (diffNotebookCheckpoint), nbdime appears to simply append .ipynb to the name of the input file. The NbdimeWidget is then created, and the base string is passed through to the request API function. From there, the frontend simply renders the HTML tag and anything along with it. Users are advised to patch to the most recent version of the affected product.",
      "Threats": [
        {
          "Type": "Impact",
          "Severity": "moderate"
        }
      ],
      "References": [
        {
          "URL": "https://www.suse.com/security/cve/CVE-2021-41134.html",
          "Description": "CVE-2021-41134"
        },
        {
          "URL": "https://bugzilla.suse.com/1192355",
          "Description": "SUSE Bug 1192355"
        }
      ],
      "ProductStatuses": [
        {
          "Type": "Fixed",
          "ProductID": [
            "openSUSE Tumbleweed:jupyter-nbdime-6.1.2-8.1",
            "openSUSE Tumbleweed:jupyter-nbdime-git-6.1.2-8.1",
            "openSUSE Tumbleweed:jupyter-nbdime-hg-6.1.2-8.1",
            "openSUSE Tumbleweed:jupyter-nbdime-jupyterlab-2.1.1-8.1",
            "openSUSE Tumbleweed:python36-nbdime-3.1.1-8.1",
            "openSUSE Tumbleweed:python38-nbdime-3.1.1-8.1",
            "openSUSE Tumbleweed:python39-nbdime-3.1.1-8.1"
          ]
        }
      ],
      "CVSSScoreSets": {}
    }
  ]
}