{
  "Title": "java-19-openjdk-19.0.1.0-1.1 on GA media",
  "Tracking": {
    "ID": "openSUSE-SU-2024:12526-1",
    "Status": "Final",
    "Version": "1",
    "InitialReleaseDate": "2024-06-20T21:44:22Z",
    "CurrentReleaseDate": "2024-06-20T21:44:22Z",
    "RevisionHistory": [
      {
        "Number": "1",
        "Date": "2024-06-20T21:44:22Z",
        "Description": "current"
      }
    ]
  },
  "Notes": [
    {
      "Text": "java-19-openjdk-19.0.1.0-1.1 on GA media",
      "Title": "Topic",
      "Type": "Summary"
    },
    {
      "Text": "These are all security issues fixed in the java-19-openjdk-19.0.1.0-1.1 package on the GA media of openSUSE Tumbleweed.",
      "Title": "Details",
      "Type": "General"
    },
    {
      "Text": "The CVRF data is provided by SUSE under the Creative Commons License 4.0 with Attribution (CC-BY-4.0).",
      "Title": "Terms of Use",
      "Type": "Legal Disclaimer"
    },
    {
      "Text": "openSUSE-Tumbleweed-2024-12526",
      "Title": "Patchnames",
      "Type": "Details"
    }
  ],
  "ProductTree": {
    "Relationships": [
      {
        "ProductReference": "java-19-openjdk-19.0.1.0-1.1",
        "RelatesToProductReference": "openSUSE Tumbleweed",
        "RelationType": "Default Component Of"
      },
      {
        "ProductReference": "java-19-openjdk-accessibility-19.0.1.0-1.1",
        "RelatesToProductReference": "openSUSE Tumbleweed",
        "RelationType": "Default Component Of"
      },
      {
        "ProductReference": "java-19-openjdk-demo-19.0.1.0-1.1",
        "RelatesToProductReference": "openSUSE Tumbleweed",
        "RelationType": "Default Component Of"
      },
      {
        "ProductReference": "java-19-openjdk-devel-19.0.1.0-1.1",
        "RelatesToProductReference": "openSUSE Tumbleweed",
        "RelationType": "Default Component Of"
      },
      {
        "ProductReference": "java-19-openjdk-headless-19.0.1.0-1.1",
        "RelatesToProductReference": "openSUSE Tumbleweed",
        "RelationType": "Default Component Of"
      },
      {
        "ProductReference": "java-19-openjdk-javadoc-19.0.1.0-1.1",
        "RelatesToProductReference": "openSUSE Tumbleweed",
        "RelationType": "Default Component Of"
      },
      {
        "ProductReference": "java-19-openjdk-jmods-19.0.1.0-1.1",
        "RelatesToProductReference": "openSUSE Tumbleweed",
        "RelationType": "Default Component Of"
      },
      {
        "ProductReference": "java-19-openjdk-src-19.0.1.0-1.1",
        "RelatesToProductReference": "openSUSE Tumbleweed",
        "RelationType": "Default Component Of"
      }
    ]
  },
  "References": [
    {
      "URL": "https://www.suse.com/support/security/rating/",
      "Description": "SUSE Security Ratings"
    },
    {
      "URL": "https://www.suse.com/security/cve/CVE-2022-21618/",
      "Description": "SUSE CVE CVE-2022-21618 page"
    },
    {
      "URL": "https://www.suse.com/security/cve/CVE-2022-21619/",
      "Description": "SUSE CVE CVE-2022-21619 page"
    },
    {
      "URL": "https://www.suse.com/security/cve/CVE-2022-21624/",
      "Description": "SUSE CVE CVE-2022-21624 page"
    },
    {
      "URL": "https://www.suse.com/security/cve/CVE-2022-21628/",
      "Description": "SUSE CVE CVE-2022-21628 page"
    },
    {
      "URL": "https://www.suse.com/security/cve/CVE-2022-39399/",
      "Description": "SUSE CVE CVE-2022-39399 page"
    }
  ],
  "Vulnerabilities": [
    {
      "CVE": "CVE-2022-21618",
      "Description": "Vulnerability in the Oracle Java SE, Oracle GraalVM Enterprise Edition product of Oracle Java SE (component: JGSS). Supported versions that are affected are Oracle Java SE: 17.0.4.1, 19; Oracle GraalVM Enterprise Edition: 21.3.3 and 22.2.0. Easily exploitable vulnerability allows unauthenticated attacker with network access via Kerberos to compromise Oracle Java SE, Oracle GraalVM Enterprise Edition. Successful attacks of this vulnerability can result in unauthorized update, insert or delete access to some of Oracle Java SE, Oracle GraalVM Enterprise Edition accessible data. Note: This vulnerability applies to Java deployments, typically in clients running sandboxed Java Web Start applications or sandboxed Java applets, that load and run untrusted code (e.g., code that comes from the internet) and rely on the Java sandbox for security. This vulnerability can also be exploited by using APIs in the specified Component, e.g., through a web service which supplies data to the APIs. CVSS 3.1 Base Score 5.3 (Integrity impacts). CVSS Vector: (CVSS:3.1/AV:N/AC:L/PR:N/UI:N/S:U/C:N/I:L/A:N).",
      "Threats": [
        {
          "Type": "Impact",
          "Severity": "moderate"
        }
      ],
      "References": [
        {
          "URL": "https://www.suse.com/security/cve/CVE-2022-21618.html",
          "Description": "CVE-2022-21618"
        },
        {
          "URL": "https://bugzilla.suse.com/1204468",
          "Description": "SUSE Bug 1204468"
        },
        {
          "URL": "https://bugzilla.suse.com/1205302",
          "Description": "SUSE Bug 1205302"
        }
      ],
      "ProductStatuses": [
        {
          "Type": "Fixed",
          "ProductID": [
            "openSUSE Tumbleweed:java-19-openjdk-19.0.1.0-1.1",
            "openSUSE Tumbleweed:java-19-openjdk-accessibility-19.0.1.0-1.1",
            "openSUSE Tumbleweed:java-19-openjdk-demo-19.0.1.0-1.1",
            "openSUSE Tumbleweed:java-19-openjdk-devel-19.0.1.0-1.1",
            "openSUSE Tumbleweed:java-19-openjdk-headless-19.0.1.0-1.1",
            "openSUSE Tumbleweed:java-19-openjdk-javadoc-19.0.1.0-1.1",
            "openSUSE Tumbleweed:java-19-openjdk-jmods-19.0.1.0-1.1",
            "openSUSE Tumbleweed:java-19-openjdk-src-19.0.1.0-1.1"
          ]
        }
      ],
      "CVSSScoreSets": {}
    },
    {
      "CVE": "CVE-2022-21619",
      "Description": "Vulnerability in the Oracle Java SE, Oracle GraalVM Enterprise Edition product of Oracle Java SE (component: Security). Supported versions that are affected are Oracle Java SE: 8u341, 8u345-perf, 11.0.16.1, 17.0.4.1, 19; Oracle GraalVM Enterprise Edition: 20.3.7, 21.3.3 and 22.2.0. Difficult to exploit vulnerability allows unauthenticated attacker with network access via multiple protocols to compromise Oracle Java SE, Oracle GraalVM Enterprise Edition. Successful attacks of this vulnerability can result in unauthorized update, insert or delete access to some of Oracle Java SE, Oracle GraalVM Enterprise Edition accessible data. Note: This vulnerability applies to Java deployments, typically in clients running sandboxed Java Web Start applications or sandboxed Java applets, that load and run untrusted code (e.g., code that comes from the internet) and rely on the Java sandbox for security. This vulnerability can also be exploited by using APIs in the specified Component, e.g., through a web service which supplies data to the APIs. CVSS 3.1 Base Score 3.7 (Integrity impacts). CVSS Vector: (CVSS:3.1/AV:N/AC:H/PR:N/UI:N/S:U/C:N/I:L/A:N).",
      "Threats": [
        {
          "Type": "Impact",
          "Severity": "low"
        }
      ],
      "References": [
        {
          "URL": "https://www.suse.com/security/cve/CVE-2022-21619.html",
          "Description": "CVE-2022-21619"
        },
        {
          "URL": "https://bugzilla.suse.com/1204473",
          "Description": "SUSE Bug 1204473"
        },
        {
          "URL": "https://bugzilla.suse.com/1205302",
          "Description": "SUSE Bug 1205302"
        }
      ],
      "ProductStatuses": [
        {
          "Type": "Fixed",
          "ProductID": [
            "openSUSE Tumbleweed:java-19-openjdk-19.0.1.0-1.1",
            "openSUSE Tumbleweed:java-19-openjdk-accessibility-19.0.1.0-1.1",
            "openSUSE Tumbleweed:java-19-openjdk-demo-19.0.1.0-1.1",
            "openSUSE Tumbleweed:java-19-openjdk-devel-19.0.1.0-1.1",
            "openSUSE Tumbleweed:java-19-openjdk-headless-19.0.1.0-1.1",
            "openSUSE Tumbleweed:java-19-openjdk-javadoc-19.0.1.0-1.1",
            "openSUSE Tumbleweed:java-19-openjdk-jmods-19.0.1.0-1.1",
            "openSUSE Tumbleweed:java-19-openjdk-src-19.0.1.0-1.1"
          ]
        }
      ],
      "CVSSScoreSets": {}
    },
    {
      "CVE": "CVE-2022-21624",
      "Description": "Vulnerability in the Oracle Java SE, Oracle GraalVM Enterprise Edition product of Oracle Java SE (component: JNDI). Supported versions that are affected are Oracle Java SE: 8u341, 8u345-perf, 11.0.16.1, 17.0.4.1, 19; Oracle GraalVM Enterprise Edition: 20.3.7, 21.3.3 and 22.2.0. Difficult to exploit vulnerability allows unauthenticated attacker with network access via multiple protocols to compromise Oracle Java SE, Oracle GraalVM Enterprise Edition. Successful attacks of this vulnerability can result in unauthorized update, insert or delete access to some of Oracle Java SE, Oracle GraalVM Enterprise Edition accessible data. Note: This vulnerability applies to Java deployments, typically in clients running sandboxed Java Web Start applications or sandboxed Java applets, that load and run untrusted code (e.g., code that comes from the internet) and rely on the Java sandbox for security. This vulnerability can also be exploited by using APIs in the specified Component, e.g., through a web service which supplies data to the APIs. CVSS 3.1 Base Score 3.7 (Integrity impacts). CVSS Vector: (CVSS:3.1/AV:N/AC:H/PR:N/UI:N/S:U/C:N/I:L/A:N).",
      "Threats": [
        {
          "Type": "Impact",
          "Severity": "low"
        }
      ],
      "References": [
        {
          "URL": "https://www.suse.com/security/cve/CVE-2022-21624.html",
          "Description": "CVE-2022-21624"
        },
        {
          "URL": "https://bugzilla.suse.com/1204475",
          "Description": "SUSE Bug 1204475"
        },
        {
          "URL": "https://bugzilla.suse.com/1205302",
          "Description": "SUSE Bug 1205302"
        }
      ],
      "ProductStatuses": [
        {
          "Type": "Fixed",
          "ProductID": [
            "openSUSE Tumbleweed:java-19-openjdk-19.0.1.0-1.1",
            "openSUSE Tumbleweed:java-19-openjdk-accessibility-19.0.1.0-1.1",
            "openSUSE Tumbleweed:java-19-openjdk-demo-19.0.1.0-1.1",
            "openSUSE Tumbleweed:java-19-openjdk-devel-19.0.1.0-1.1",
            "openSUSE Tumbleweed:java-19-openjdk-headless-19.0.1.0-1.1",
            "openSUSE Tumbleweed:java-19-openjdk-javadoc-19.0.1.0-1.1",
            "openSUSE Tumbleweed:java-19-openjdk-jmods-19.0.1.0-1.1",
            "openSUSE Tumbleweed:java-19-openjdk-src-19.0.1.0-1.1"
          ]
        }
      ],
      "CVSSScoreSets": {}
    },
    {
      "CVE": "CVE-2022-21628",
      "Description": "Vulnerability in the Oracle Java SE, Oracle GraalVM Enterprise Edition product of Oracle Java SE (component: Lightweight HTTP Server). Supported versions that are affected are Oracle Java SE: 8u341, 8u345-perf, 11.0.16.1, 17.0.4.1, 19; Oracle GraalVM Enterprise Edition: 20.3.7, 21.3.3 and 22.2.0. Easily exploitable vulnerability allows unauthenticated attacker with network access via HTTP to compromise Oracle Java SE, Oracle GraalVM Enterprise Edition. Successful attacks of this vulnerability can result in unauthorized ability to cause a partial denial of service (partial DOS) of Oracle Java SE, Oracle GraalVM Enterprise Edition. Note: This vulnerability applies to Java deployments, typically in clients running sandboxed Java Web Start applications or sandboxed Java applets, that load and run untrusted code (e.g., code that comes from the internet) and rely on the Java sandbox for security. This vulnerability does not apply to Java deployments, typically in servers, that load and run only trusted code (e.g., code installed by an administrator). CVSS 3.1 Base Score 5.3 (Availability impacts). CVSS Vector: (CVSS:3.1/AV:N/AC:L/PR:N/UI:N/S:U/C:N/I:N/A:L).",
      "Threats": [
        {
          "Type": "Impact",
          "Severity": "moderate"
        }
      ],
      "References": [
        {
          "URL": "https://www.suse.com/security/cve/CVE-2022-21628.html",
          "Description": "CVE-2022-21628"
        },
        {
          "URL": "https://bugzilla.suse.com/1204472",
          "Description": "SUSE Bug 1204472"
        },
        {
          "URL": "https://bugzilla.suse.com/1205302",
          "Description": "SUSE Bug 1205302"
        }
      ],
      "ProductStatuses": [
        {
          "Type": "Fixed",
          "ProductID": [
            "openSUSE Tumbleweed:java-19-openjdk-19.0.1.0-1.1",
            "openSUSE Tumbleweed:java-19-openjdk-accessibility-19.0.1.0-1.1",
            "openSUSE Tumbleweed:java-19-openjdk-demo-19.0.1.0-1.1",
            "openSUSE Tumbleweed:java-19-openjdk-devel-19.0.1.0-1.1",
            "openSUSE Tumbleweed:java-19-openjdk-headless-19.0.1.0-1.1",
            "openSUSE Tumbleweed:java-19-openjdk-javadoc-19.0.1.0-1.1",
            "openSUSE Tumbleweed:java-19-openjdk-jmods-19.0.1.0-1.1",
            "openSUSE Tumbleweed:java-19-openjdk-src-19.0.1.0-1.1"
          ]
        }
      ],
      "CVSSScoreSets": {}
    },
    {
      "CVE": "CVE-2022-39399",
      "Description": "Vulnerability in the Oracle Java SE, Oracle GraalVM Enterprise Edition product of Oracle Java SE (component: Networking). Supported versions that are affected are Oracle Java SE: 11.0.16.1, 17.0.4.1, 19; Oracle GraalVM Enterprise Edition: 20.3.7, 21.3.3 and 22.2.0. Difficult to exploit vulnerability allows unauthenticated attacker with network access via HTTP to compromise Oracle Java SE, Oracle GraalVM Enterprise Edition. Successful attacks of this vulnerability can result in unauthorized update, insert or delete access to some of Oracle Java SE, Oracle GraalVM Enterprise Edition accessible data. Note: This vulnerability applies to Java deployments, typically in clients running sandboxed Java Web Start applications or sandboxed Java applets, that load and run untrusted code (e.g., code that comes from the internet) and rely on the Java sandbox for security. This vulnerability does not apply to Java deployments, typically in servers, that load and run only trusted code (e.g., code installed by an administrator). CVSS 3.1 Base Score 3.7 (Integrity impacts). CVSS Vector: (CVSS:3.1/AV:N/AC:H/PR:N/UI:N/S:U/C:N/I:L/A:N).",
      "Threats": [
        {
          "Type": "Impact",
          "Severity": "low"
        }
      ],
      "References": [
        {
          "URL": "https://www.suse.com/security/cve/CVE-2022-39399.html",
          "Description": "CVE-2022-39399"
        },
        {
          "URL": "https://bugzilla.suse.com/1204480",
          "Description": "SUSE Bug 1204480"
        },
        {
          "URL": "https://bugzilla.suse.com/1205302",
          "Description": "SUSE Bug 1205302"
        }
      ],
      "ProductStatuses": [
        {
          "Type": "Fixed",
          "ProductID": [
            "openSUSE Tumbleweed:java-19-openjdk-19.0.1.0-1.1",
            "openSUSE Tumbleweed:java-19-openjdk-accessibility-19.0.1.0-1.1",
            "openSUSE Tumbleweed:java-19-openjdk-demo-19.0.1.0-1.1",
            "openSUSE Tumbleweed:java-19-openjdk-devel-19.0.1.0-1.1",
            "openSUSE Tumbleweed:java-19-openjdk-headless-19.0.1.0-1.1",
            "openSUSE Tumbleweed:java-19-openjdk-javadoc-19.0.1.0-1.1",
            "openSUSE Tumbleweed:java-19-openjdk-jmods-19.0.1.0-1.1",
            "openSUSE Tumbleweed:java-19-openjdk-src-19.0.1.0-1.1"
          ]
        }
      ],
      "CVSSScoreSets": {}
    }
  ]
}