{
  "Title": "libQt5Bootstrap-devel-static-32bit-5.15.11+kde138-3.1 on GA media",
  "Tracking": {
    "ID": "openSUSE-SU-2024:13470-1",
    "Status": "Final",
    "Version": "1",
    "InitialReleaseDate": "2024-06-20T21:44:22Z",
    "CurrentReleaseDate": "2024-06-20T21:44:22Z",
    "RevisionHistory": [
      {
        "Number": "1",
        "Date": "2024-06-20T21:44:22Z",
        "Description": "current"
      }
    ]
  },
  "Notes": [
    {
      "Text": "libQt5Bootstrap-devel-static-32bit-5.15.11+kde138-3.1 on GA media",
      "Title": "Topic",
      "Type": "Summary"
    },
    {
      "Text": "These are all security issues fixed in the libQt5Bootstrap-devel-static-32bit-5.15.11+kde138-3.1 package on the GA media of openSUSE Tumbleweed.",
      "Title": "Details",
      "Type": "General"
    },
    {
      "Text": "The CVRF data is provided by SUSE under the Creative Commons License 4.0 with Attribution (CC-BY-4.0).",
      "Title": "Terms of Use",
      "Type": "Legal Disclaimer"
    },
    {
      "Text": "openSUSE-Tumbleweed-2024-13470",
      "Title": "Patchnames",
      "Type": "Details"
    }
  ],
  "ProductTree": {
    "Relationships": [
      {
        "ProductReference": "libQt5Bootstrap-devel-static-5.15.11+kde138-3.1",
        "RelatesToProductReference": "openSUSE Tumbleweed",
        "RelationType": "Default Component Of"
      },
      {
        "ProductReference": "libQt5Bootstrap-devel-static-32bit-5.15.11+kde138-3.1",
        "RelatesToProductReference": "openSUSE Tumbleweed",
        "RelationType": "Default Component Of"
      },
      {
        "ProductReference": "libQt5Concurrent-devel-5.15.11+kde138-3.1",
        "RelatesToProductReference": "openSUSE Tumbleweed",
        "RelationType": "Default Component Of"
      },
      {
        "ProductReference": "libQt5Concurrent-devel-32bit-5.15.11+kde138-3.1",
        "RelatesToProductReference": "openSUSE Tumbleweed",
        "RelationType": "Default Component Of"
      },
      {
        "ProductReference": "libQt5Concurrent5-5.15.11+kde138-3.1",
        "RelatesToProductReference": "openSUSE Tumbleweed",
        "RelationType": "Default Component Of"
      },
      {
        "ProductReference": "libQt5Concurrent5-32bit-5.15.11+kde138-3.1",
        "RelatesToProductReference": "openSUSE Tumbleweed",
        "RelationType": "Default Component Of"
      },
      {
        "ProductReference": "libQt5Core-devel-5.15.11+kde138-3.1",
        "RelatesToProductReference": "openSUSE Tumbleweed",
        "RelationType": "Default Component Of"
      },
      {
        "ProductReference": "libQt5Core-devel-32bit-5.15.11+kde138-3.1",
        "RelatesToProductReference": "openSUSE Tumbleweed",
        "RelationType": "Default Component Of"
      },
      {
        "ProductReference": "libQt5Core-private-headers-devel-5.15.11+kde138-3.1",
        "RelatesToProductReference": "openSUSE Tumbleweed",
        "RelationType": "Default Component Of"
      },
      {
        "ProductReference": "libQt5Core5-5.15.11+kde138-3.1",
        "RelatesToProductReference": "openSUSE Tumbleweed",
        "RelationType": "Default Component Of"
      },
      {
        "ProductReference": "libQt5Core5-32bit-5.15.11+kde138-3.1",
        "RelatesToProductReference": "openSUSE Tumbleweed",
        "RelationType": "Default Component Of"
      },
      {
        "ProductReference": "libQt5DBus-devel-5.15.11+kde138-3.1",
        "RelatesToProductReference": "openSUSE Tumbleweed",
        "RelationType": "Default Component Of"
      },
      {
        "ProductReference": "libQt5DBus-devel-32bit-5.15.11+kde138-3.1",
        "RelatesToProductReference": "openSUSE Tumbleweed",
        "RelationType": "Default Component Of"
      },
      {
        "ProductReference": "libQt5DBus-private-headers-devel-5.15.11+kde138-3.1",
        "RelatesToProductReference": "openSUSE Tumbleweed",
        "RelationType": "Default Component Of"
      },
      {
        "ProductReference": "libQt5DBus5-5.15.11+kde138-3.1",
        "RelatesToProductReference": "openSUSE Tumbleweed",
        "RelationType": "Default Component Of"
      },
      {
        "ProductReference": "libQt5DBus5-32bit-5.15.11+kde138-3.1",
        "RelatesToProductReference": "openSUSE Tumbleweed",
        "RelationType": "Default Component Of"
      },
      {
        "ProductReference": "libQt5Gui-devel-5.15.11+kde138-3.1",
        "RelatesToProductReference": "openSUSE Tumbleweed",
        "RelationType": "Default Component Of"
      },
      {
        "ProductReference": "libQt5Gui-devel-32bit-5.15.11+kde138-3.1",
        "RelatesToProductReference": "openSUSE Tumbleweed",
        "RelationType": "Default Component Of"
      },
      {
        "ProductReference": "libQt5Gui-private-headers-devel-5.15.11+kde138-3.1",
        "RelatesToProductReference": "openSUSE Tumbleweed",
        "RelationType": "Default Component Of"
      },
      {
        "ProductReference": "libQt5Gui5-5.15.11+kde138-3.1",
        "RelatesToProductReference": "openSUSE Tumbleweed",
        "RelationType": "Default Component Of"
      },
      {
        "ProductReference": "libQt5Gui5-32bit-5.15.11+kde138-3.1",
        "RelatesToProductReference": "openSUSE Tumbleweed",
        "RelationType": "Default Component Of"
      },
      {
        "ProductReference": "libQt5KmsSupport-devel-static-5.15.11+kde138-3.1",
        "RelatesToProductReference": "openSUSE Tumbleweed",
        "RelationType": "Default Component Of"
      },
      {
        "ProductReference": "libQt5KmsSupport-private-headers-devel-5.15.11+kde138-3.1",
        "RelatesToProductReference": "openSUSE Tumbleweed",
        "RelationType": "Default Component Of"
      },
      {
        "ProductReference": "libQt5Network-devel-5.15.11+kde138-3.1",
        "RelatesToProductReference": "openSUSE Tumbleweed",
        "RelationType": "Default Component Of"
      },
      {
        "ProductReference": "libQt5Network-devel-32bit-5.15.11+kde138-3.1",
        "RelatesToProductReference": "openSUSE Tumbleweed",
        "RelationType": "Default Component Of"
      },
      {
        "ProductReference": "libQt5Network-private-headers-devel-5.15.11+kde138-3.1",
        "RelatesToProductReference": "openSUSE Tumbleweed",
        "RelationType": "Default Component Of"
      },
      {
        "ProductReference": "libQt5Network5-5.15.11+kde138-3.1",
        "RelatesToProductReference": "openSUSE Tumbleweed",
        "RelationType": "Default Component Of"
      },
      {
        "ProductReference": "libQt5Network5-32bit-5.15.11+kde138-3.1",
        "RelatesToProductReference": "openSUSE Tumbleweed",
        "RelationType": "Default Component Of"
      },
      {
        "ProductReference": "libQt5OpenGL-devel-5.15.11+kde138-3.1",
        "RelatesToProductReference": "openSUSE Tumbleweed",
        "RelationType": "Default Component Of"
      },
      {
        "ProductReference": "libQt5OpenGL-devel-32bit-5.15.11+kde138-3.1",
        "RelatesToProductReference": "openSUSE Tumbleweed",
        "RelationType": "Default Component Of"
      },
      {
        "ProductReference": "libQt5OpenGL-private-headers-devel-5.15.11+kde138-3.1",
        "RelatesToProductReference": "openSUSE Tumbleweed",
        "RelationType": "Default Component Of"
      },
      {
        "ProductReference": "libQt5OpenGL5-5.15.11+kde138-3.1",
        "RelatesToProductReference": "openSUSE Tumbleweed",
        "RelationType": "Default Component Of"
      },
      {
        "ProductReference": "libQt5OpenGL5-32bit-5.15.11+kde138-3.1",
        "RelatesToProductReference": "openSUSE Tumbleweed",
        "RelationType": "Default Component Of"
      },
      {
        "ProductReference": "libQt5OpenGLExtensions-devel-static-5.15.11+kde138-3.1",
        "RelatesToProductReference": "openSUSE Tumbleweed",
        "RelationType": "Default Component Of"
      },
      {
        "ProductReference": "libQt5OpenGLExtensions-devel-static-32bit-5.15.11+kde138-3.1",
        "RelatesToProductReference": "openSUSE Tumbleweed",
        "RelationType": "Default Component Of"
      },
      {
        "ProductReference": "libQt5PlatformHeaders-devel-5.15.11+kde138-3.1",
        "RelatesToProductReference": "openSUSE Tumbleweed",
        "RelationType": "Default Component Of"
      },
      {
        "ProductReference": "libQt5PlatformSupport-devel-static-5.15.11+kde138-3.1",
        "RelatesToProductReference": "openSUSE Tumbleweed",
        "RelationType": "Default Component Of"
      },
      {
        "ProductReference": "libQt5PlatformSupport-devel-static-32bit-5.15.11+kde138-3.1",
        "RelatesToProductReference": "openSUSE Tumbleweed",
        "RelationType": "Default Component Of"
      },
      {
        "ProductReference": "libQt5PlatformSupport-private-headers-devel-5.15.11+kde138-3.1",
        "RelatesToProductReference": "openSUSE Tumbleweed",
        "RelationType": "Default Component Of"
      },
      {
        "ProductReference": "libQt5PrintSupport-devel-5.15.11+kde138-3.1",
        "RelatesToProductReference": "openSUSE Tumbleweed",
        "RelationType": "Default Component Of"
      },
      {
        "ProductReference": "libQt5PrintSupport-devel-32bit-5.15.11+kde138-3.1",
        "RelatesToProductReference": "openSUSE Tumbleweed",
        "RelationType": "Default Component Of"
      },
      {
        "ProductReference": "libQt5PrintSupport-private-headers-devel-5.15.11+kde138-3.1",
        "RelatesToProductReference": "openSUSE Tumbleweed",
        "RelationType": "Default Component Of"
      },
      {
        "ProductReference": "libQt5PrintSupport5-5.15.11+kde138-3.1",
        "RelatesToProductReference": "openSUSE Tumbleweed",
        "RelationType": "Default Component Of"
      },
      {
        "ProductReference": "libQt5PrintSupport5-32bit-5.15.11+kde138-3.1",
        "RelatesToProductReference": "openSUSE Tumbleweed",
        "RelationType": "Default Component Of"
      },
      {
        "ProductReference": "libQt5Sql-devel-5.15.11+kde138-3.1",
        "RelatesToProductReference": "openSUSE Tumbleweed",
        "RelationType": "Default Component Of"
      },
      {
        "ProductReference": "libQt5Sql-devel-32bit-5.15.11+kde138-3.1",
        "RelatesToProductReference": "openSUSE Tumbleweed",
        "RelationType": "Default Component Of"
      },
      {
        "ProductReference": "libQt5Sql-private-headers-devel-5.15.11+kde138-3.1",
        "RelatesToProductReference": "openSUSE Tumbleweed",
        "RelationType": "Default Component Of"
      },
      {
        "ProductReference": "libQt5Sql5-5.15.11+kde138-3.1",
        "RelatesToProductReference": "openSUSE Tumbleweed",
        "RelationType": "Default Component Of"
      },
      {
        "ProductReference": "libQt5Sql5-32bit-5.15.11+kde138-3.1",
        "RelatesToProductReference": "openSUSE Tumbleweed",
        "RelationType": "Default Component Of"
      },
      {
        "ProductReference": "libQt5Sql5-mysql-5.15.11+kde138-3.1",
        "RelatesToProductReference": "openSUSE Tumbleweed",
        "RelationType": "Default Component Of"
      },
      {
        "ProductReference": "libQt5Sql5-mysql-32bit-5.15.11+kde138-3.1",
        "RelatesToProductReference": "openSUSE Tumbleweed",
        "RelationType": "Default Component Of"
      },
      {
        "ProductReference": "libQt5Sql5-postgresql-5.15.11+kde138-3.1",
        "RelatesToProductReference": "openSUSE Tumbleweed",
        "RelationType": "Default Component Of"
      },
      {
        "ProductReference": "libQt5Sql5-postgresql-32bit-5.15.11+kde138-3.1",
        "RelatesToProductReference": "openSUSE Tumbleweed",
        "RelationType": "Default Component Of"
      },
      {
        "ProductReference": "libQt5Sql5-sqlite-5.15.11+kde138-3.1",
        "RelatesToProductReference": "openSUSE Tumbleweed",
        "RelationType": "Default Component Of"
      },
      {
        "ProductReference": "libQt5Sql5-sqlite-32bit-5.15.11+kde138-3.1",
        "RelatesToProductReference": "openSUSE Tumbleweed",
        "RelationType": "Default Component Of"
      },
      {
        "ProductReference": "libQt5Sql5-unixODBC-5.15.11+kde138-3.1",
        "RelatesToProductReference": "openSUSE Tumbleweed",
        "RelationType": "Default Component Of"
      },
      {
        "ProductReference": "libQt5Sql5-unixODBC-32bit-5.15.11+kde138-3.1",
        "RelatesToProductReference": "openSUSE Tumbleweed",
        "RelationType": "Default Component Of"
      },
      {
        "ProductReference": "libQt5Test-devel-5.15.11+kde138-3.1",
        "RelatesToProductReference": "openSUSE Tumbleweed",
        "RelationType": "Default Component Of"
      },
      {
        "ProductReference": "libQt5Test-devel-32bit-5.15.11+kde138-3.1",
        "RelatesToProductReference": "openSUSE Tumbleweed",
        "RelationType": "Default Component Of"
      },
      {
        "ProductReference": "libQt5Test-private-headers-devel-5.15.11+kde138-3.1",
        "RelatesToProductReference": "openSUSE Tumbleweed",
        "RelationType": "Default Component Of"
      },
      {
        "ProductReference": "libQt5Test5-5.15.11+kde138-3.1",
        "RelatesToProductReference": "openSUSE Tumbleweed",
        "RelationType": "Default Component Of"
      },
      {
        "ProductReference": "libQt5Test5-32bit-5.15.11+kde138-3.1",
        "RelatesToProductReference": "openSUSE Tumbleweed",
        "RelationType": "Default Component Of"
      },
      {
        "ProductReference": "libQt5Widgets-devel-5.15.11+kde138-3.1",
        "RelatesToProductReference": "openSUSE Tumbleweed",
        "RelationType": "Default Component Of"
      },
      {
        "ProductReference": "libQt5Widgets-devel-32bit-5.15.11+kde138-3.1",
        "RelatesToProductReference": "openSUSE Tumbleweed",
        "RelationType": "Default Component Of"
      },
      {
        "ProductReference": "libQt5Widgets-private-headers-devel-5.15.11+kde138-3.1",
        "RelatesToProductReference": "openSUSE Tumbleweed",
        "RelationType": "Default Component Of"
      },
      {
        "ProductReference": "libQt5Widgets5-5.15.11+kde138-3.1",
        "RelatesToProductReference": "openSUSE Tumbleweed",
        "RelationType": "Default Component Of"
      },
      {
        "ProductReference": "libQt5Widgets5-32bit-5.15.11+kde138-3.1",
        "RelatesToProductReference": "openSUSE Tumbleweed",
        "RelationType": "Default Component Of"
      },
      {
        "ProductReference": "libQt5Xml-devel-5.15.11+kde138-3.1",
        "RelatesToProductReference": "openSUSE Tumbleweed",
        "RelationType": "Default Component Of"
      },
      {
        "ProductReference": "libQt5Xml-devel-32bit-5.15.11+kde138-3.1",
        "RelatesToProductReference": "openSUSE Tumbleweed",
        "RelationType": "Default Component Of"
      },
      {
        "ProductReference": "libQt5Xml5-5.15.11+kde138-3.1",
        "RelatesToProductReference": "openSUSE Tumbleweed",
        "RelationType": "Default Component Of"
      },
      {
        "ProductReference": "libQt5Xml5-32bit-5.15.11+kde138-3.1",
        "RelatesToProductReference": "openSUSE Tumbleweed",
        "RelationType": "Default Component Of"
      },
      {
        "ProductReference": "libqt5-qtbase-common-devel-5.15.11+kde138-3.1",
        "RelatesToProductReference": "openSUSE Tumbleweed",
        "RelationType": "Default Component Of"
      },
      {
        "ProductReference": "libqt5-qtbase-devel-5.15.11+kde138-3.1",
        "RelatesToProductReference": "openSUSE Tumbleweed",
        "RelationType": "Default Component Of"
      },
      {
        "ProductReference": "libqt5-qtbase-examples-5.15.11+kde138-3.1",
        "RelatesToProductReference": "openSUSE Tumbleweed",
        "RelationType": "Default Component Of"
      },
      {
        "ProductReference": "libqt5-qtbase-examples-32bit-5.15.11+kde138-3.1",
        "RelatesToProductReference": "openSUSE Tumbleweed",
        "RelationType": "Default Component Of"
      },
      {
        "ProductReference": "libqt5-qtbase-platformtheme-gtk3-5.15.11+kde138-3.1",
        "RelatesToProductReference": "openSUSE Tumbleweed",
        "RelationType": "Default Component Of"
      },
      {
        "ProductReference": "libqt5-qtbase-platformtheme-xdgdesktopportal-5.15.11+kde138-3.1",
        "RelatesToProductReference": "openSUSE Tumbleweed",
        "RelationType": "Default Component Of"
      },
      {
        "ProductReference": "libqt5-qtbase-private-headers-devel-5.15.11+kde138-3.1",
        "RelatesToProductReference": "openSUSE Tumbleweed",
        "RelationType": "Default Component Of"
      }
    ]
  },
  "References": [
    {
      "URL": "https://www.suse.com/support/security/rating/",
      "Description": "SUSE Security Ratings"
    },
    {
      "URL": "https://www.suse.com/security/cve/CVE-2023-37369/",
      "Description": "SUSE CVE CVE-2023-37369 page"
    }
  ],
  "Vulnerabilities": [
    {
      "CVE": "CVE-2023-37369",
      "Description": "In Qt before 5.15.15, 6.x before 6.2.9, and 6.3.x through 6.5.x before 6.5.2, there can be an application crash in QXmlStreamReader via a crafted XML string that triggers a situation in which a prefix is greater than a length.",
      "Threats": [
        {
          "Type": "Impact",
          "Severity": "moderate"
        }
      ],
      "References": [
        {
          "URL": "https://www.suse.com/security/cve/CVE-2023-37369.html",
          "Description": "CVE-2023-37369"
        },
        {
          "URL": "https://bugzilla.suse.com/1214327",
          "Description": "SUSE Bug 1214327"
        }
      ],
      "ProductStatuses": [
        {
          "Type": "Fixed",
          "ProductID": [
            "openSUSE Tumbleweed:libQt5Bootstrap-devel-static-32bit-5.15.11+kde138-3.1",
            "openSUSE Tumbleweed:libQt5Bootstrap-devel-static-5.15.11+kde138-3.1",
            "openSUSE Tumbleweed:libQt5Concurrent-devel-32bit-5.15.11+kde138-3.1",
            "openSUSE Tumbleweed:libQt5Concurrent-devel-5.15.11+kde138-3.1",
            "openSUSE Tumbleweed:libQt5Concurrent5-32bit-5.15.11+kde138-3.1",
            "openSUSE Tumbleweed:libQt5Concurrent5-5.15.11+kde138-3.1",
            "openSUSE Tumbleweed:libQt5Core-devel-32bit-5.15.11+kde138-3.1",
            "openSUSE Tumbleweed:libQt5Core-devel-5.15.11+kde138-3.1",
            "openSUSE Tumbleweed:libQt5Core-private-headers-devel-5.15.11+kde138-3.1",
            "openSUSE Tumbleweed:libQt5Core5-32bit-5.15.11+kde138-3.1",
            "openSUSE Tumbleweed:libQt5Core5-5.15.11+kde138-3.1",
            "openSUSE Tumbleweed:libQt5DBus-devel-32bit-5.15.11+kde138-3.1",
            "openSUSE Tumbleweed:libQt5DBus-devel-5.15.11+kde138-3.1",
            "openSUSE Tumbleweed:libQt5DBus-private-headers-devel-5.15.11+kde138-3.1",
            "openSUSE Tumbleweed:libQt5DBus5-32bit-5.15.11+kde138-3.1",
            "openSUSE Tumbleweed:libQt5DBus5-5.15.11+kde138-3.1",
            "openSUSE Tumbleweed:libQt5Gui-devel-32bit-5.15.11+kde138-3.1",
            "openSUSE Tumbleweed:libQt5Gui-devel-5.15.11+kde138-3.1",
            "openSUSE Tumbleweed:libQt5Gui-private-headers-devel-5.15.11+kde138-3.1",
            "openSUSE Tumbleweed:libQt5Gui5-32bit-5.15.11+kde138-3.1",
            "openSUSE Tumbleweed:libQt5Gui5-5.15.11+kde138-3.1",
            "openSUSE Tumbleweed:libQt5KmsSupport-devel-static-5.15.11+kde138-3.1",
            "openSUSE Tumbleweed:libQt5KmsSupport-private-headers-devel-5.15.11+kde138-3.1",
            "openSUSE Tumbleweed:libQt5Network-devel-32bit-5.15.11+kde138-3.1",
            "openSUSE Tumbleweed:libQt5Network-devel-5.15.11+kde138-3.1",
            "openSUSE Tumbleweed:libQt5Network-private-headers-devel-5.15.11+kde138-3.1",
            "openSUSE Tumbleweed:libQt5Network5-32bit-5.15.11+kde138-3.1",
            "openSUSE Tumbleweed:libQt5Network5-5.15.11+kde138-3.1",
            "openSUSE Tumbleweed:libQt5OpenGL-devel-32bit-5.15.11+kde138-3.1",
            "openSUSE Tumbleweed:libQt5OpenGL-devel-5.15.11+kde138-3.1",
            "openSUSE Tumbleweed:libQt5OpenGL-private-headers-devel-5.15.11+kde138-3.1",
            "openSUSE Tumbleweed:libQt5OpenGL5-32bit-5.15.11+kde138-3.1",
            "openSUSE Tumbleweed:libQt5OpenGL5-5.15.11+kde138-3.1",
            "openSUSE Tumbleweed:libQt5OpenGLExtensions-devel-static-32bit-5.15.11+kde138-3.1",
            "openSUSE Tumbleweed:libQt5OpenGLExtensions-devel-static-5.15.11+kde138-3.1",
            "openSUSE Tumbleweed:libQt5PlatformHeaders-devel-5.15.11+kde138-3.1",
            "openSUSE Tumbleweed:libQt5PlatformSupport-devel-static-32bit-5.15.11+kde138-3.1",
            "openSUSE Tumbleweed:libQt5PlatformSupport-devel-static-5.15.11+kde138-3.1",
            "openSUSE Tumbleweed:libQt5PlatformSupport-private-headers-devel-5.15.11+kde138-3.1",
            "openSUSE Tumbleweed:libQt5PrintSupport-devel-32bit-5.15.11+kde138-3.1",
            "openSUSE Tumbleweed:libQt5PrintSupport-devel-5.15.11+kde138-3.1",
            "openSUSE Tumbleweed:libQt5PrintSupport-private-headers-devel-5.15.11+kde138-3.1",
            "openSUSE Tumbleweed:libQt5PrintSupport5-32bit-5.15.11+kde138-3.1",
            "openSUSE Tumbleweed:libQt5PrintSupport5-5.15.11+kde138-3.1",
            "openSUSE Tumbleweed:libQt5Sql-devel-32bit-5.15.11+kde138-3.1",
            "openSUSE Tumbleweed:libQt5Sql-devel-5.15.11+kde138-3.1",
            "openSUSE Tumbleweed:libQt5Sql-private-headers-devel-5.15.11+kde138-3.1",
            "openSUSE Tumbleweed:libQt5Sql5-32bit-5.15.11+kde138-3.1",
            "openSUSE Tumbleweed:libQt5Sql5-5.15.11+kde138-3.1",
            "openSUSE Tumbleweed:libQt5Sql5-mysql-32bit-5.15.11+kde138-3.1",
            "openSUSE Tumbleweed:libQt5Sql5-mysql-5.15.11+kde138-3.1",
            "openSUSE Tumbleweed:libQt5Sql5-postgresql-32bit-5.15.11+kde138-3.1",
            "openSUSE Tumbleweed:libQt5Sql5-postgresql-5.15.11+kde138-3.1",
            "openSUSE Tumbleweed:libQt5Sql5-sqlite-32bit-5.15.11+kde138-3.1",
            "openSUSE Tumbleweed:libQt5Sql5-sqlite-5.15.11+kde138-3.1",
            "openSUSE Tumbleweed:libQt5Sql5-unixODBC-32bit-5.15.11+kde138-3.1",
            "openSUSE Tumbleweed:libQt5Sql5-unixODBC-5.15.11+kde138-3.1",
            "openSUSE Tumbleweed:libQt5Test-devel-32bit-5.15.11+kde138-3.1",
            "openSUSE Tumbleweed:libQt5Test-devel-5.15.11+kde138-3.1",
            "openSUSE Tumbleweed:libQt5Test-private-headers-devel-5.15.11+kde138-3.1",
            "openSUSE Tumbleweed:libQt5Test5-32bit-5.15.11+kde138-3.1",
            "openSUSE Tumbleweed:libQt5Test5-5.15.11+kde138-3.1",
            "openSUSE Tumbleweed:libQt5Widgets-devel-32bit-5.15.11+kde138-3.1",
            "openSUSE Tumbleweed:libQt5Widgets-devel-5.15.11+kde138-3.1",
            "openSUSE Tumbleweed:libQt5Widgets-private-headers-devel-5.15.11+kde138-3.1",
            "openSUSE Tumbleweed:libQt5Widgets5-32bit-5.15.11+kde138-3.1",
            "openSUSE Tumbleweed:libQt5Widgets5-5.15.11+kde138-3.1",
            "openSUSE Tumbleweed:libQt5Xml-devel-32bit-5.15.11+kde138-3.1",
            "openSUSE Tumbleweed:libQt5Xml-devel-5.15.11+kde138-3.1",
            "openSUSE Tumbleweed:libQt5Xml5-32bit-5.15.11+kde138-3.1",
            "openSUSE Tumbleweed:libQt5Xml5-5.15.11+kde138-3.1",
            "openSUSE Tumbleweed:libqt5-qtbase-common-devel-5.15.11+kde138-3.1",
            "openSUSE Tumbleweed:libqt5-qtbase-devel-5.15.11+kde138-3.1",
            "openSUSE Tumbleweed:libqt5-qtbase-examples-32bit-5.15.11+kde138-3.1",
            "openSUSE Tumbleweed:libqt5-qtbase-examples-5.15.11+kde138-3.1",
            "openSUSE Tumbleweed:libqt5-qtbase-platformtheme-gtk3-5.15.11+kde138-3.1",
            "openSUSE Tumbleweed:libqt5-qtbase-platformtheme-xdgdesktopportal-5.15.11+kde138-3.1",
            "openSUSE Tumbleweed:libqt5-qtbase-private-headers-devel-5.15.11+kde138-3.1"
          ]
        }
      ],
      "CVSSScoreSets": {}
    }
  ]
}