{
  "Title": "chromedriver-111.0.5563.64-2.1 on GA media",
  "Tracking": {
    "ID": "openSUSE-SU-2024:12775-1",
    "Status": "Final",
    "Version": "1",
    "InitialReleaseDate": "2024-06-20T21:44:22Z",
    "CurrentReleaseDate": "2024-06-20T21:44:22Z",
    "RevisionHistory": [
      {
        "Number": "1",
        "Date": "2024-06-20T21:44:22Z",
        "Description": "current"
      }
    ]
  },
  "Notes": [
    {
      "Text": "chromedriver-111.0.5563.64-2.1 on GA media",
      "Title": "Topic",
      "Type": "Summary"
    },
    {
      "Text": "These are all security issues fixed in the chromedriver-111.0.5563.64-2.1 package on the GA media of openSUSE Tumbleweed.",
      "Title": "Details",
      "Type": "General"
    },
    {
      "Text": "The CVRF data is provided by SUSE under the Creative Commons License 4.0 with Attribution (CC-BY-4.0).",
      "Title": "Terms of Use",
      "Type": "Legal Disclaimer"
    },
    {
      "Text": "openSUSE-Tumbleweed-2024-12775",
      "Title": "Patchnames",
      "Type": "Details"
    }
  ],
  "ProductTree": {
    "Relationships": [
      {
        "ProductReference": "chromedriver-111.0.5563.64-2.1",
        "RelatesToProductReference": "openSUSE Tumbleweed",
        "RelationType": "Default Component Of"
      },
      {
        "ProductReference": "chromium-111.0.5563.64-2.1",
        "RelatesToProductReference": "openSUSE Tumbleweed",
        "RelationType": "Default Component Of"
      }
    ]
  },
  "References": [
    {
      "URL": "https://www.suse.com/support/security/rating/",
      "Description": "SUSE Security Ratings"
    },
    {
      "URL": "https://www.suse.com/security/cve/CVE-2023-1213/",
      "Description": "SUSE CVE CVE-2023-1213 page"
    },
    {
      "URL": "https://www.suse.com/security/cve/CVE-2023-1214/",
      "Description": "SUSE CVE CVE-2023-1214 page"
    },
    {
      "URL": "https://www.suse.com/security/cve/CVE-2023-1215/",
      "Description": "SUSE CVE CVE-2023-1215 page"
    },
    {
      "URL": "https://www.suse.com/security/cve/CVE-2023-1216/",
      "Description": "SUSE CVE CVE-2023-1216 page"
    },
    {
      "URL": "https://www.suse.com/security/cve/CVE-2023-1217/",
      "Description": "SUSE CVE CVE-2023-1217 page"
    },
    {
      "URL": "https://www.suse.com/security/cve/CVE-2023-1218/",
      "Description": "SUSE CVE CVE-2023-1218 page"
    },
    {
      "URL": "https://www.suse.com/security/cve/CVE-2023-1219/",
      "Description": "SUSE CVE CVE-2023-1219 page"
    },
    {
      "URL": "https://www.suse.com/security/cve/CVE-2023-1220/",
      "Description": "SUSE CVE CVE-2023-1220 page"
    },
    {
      "URL": "https://www.suse.com/security/cve/CVE-2023-1221/",
      "Description": "SUSE CVE CVE-2023-1221 page"
    },
    {
      "URL": "https://www.suse.com/security/cve/CVE-2023-1222/",
      "Description": "SUSE CVE CVE-2023-1222 page"
    },
    {
      "URL": "https://www.suse.com/security/cve/CVE-2023-1223/",
      "Description": "SUSE CVE CVE-2023-1223 page"
    },
    {
      "URL": "https://www.suse.com/security/cve/CVE-2023-1224/",
      "Description": "SUSE CVE CVE-2023-1224 page"
    },
    {
      "URL": "https://www.suse.com/security/cve/CVE-2023-1225/",
      "Description": "SUSE CVE CVE-2023-1225 page"
    },
    {
      "URL": "https://www.suse.com/security/cve/CVE-2023-1226/",
      "Description": "SUSE CVE CVE-2023-1226 page"
    },
    {
      "URL": "https://www.suse.com/security/cve/CVE-2023-1227/",
      "Description": "SUSE CVE CVE-2023-1227 page"
    },
    {
      "URL": "https://www.suse.com/security/cve/CVE-2023-1228/",
      "Description": "SUSE CVE CVE-2023-1228 page"
    },
    {
      "URL": "https://www.suse.com/security/cve/CVE-2023-1229/",
      "Description": "SUSE CVE CVE-2023-1229 page"
    },
    {
      "URL": "https://www.suse.com/security/cve/CVE-2023-1230/",
      "Description": "SUSE CVE CVE-2023-1230 page"
    },
    {
      "URL": "https://www.suse.com/security/cve/CVE-2023-1231/",
      "Description": "SUSE CVE CVE-2023-1231 page"
    },
    {
      "URL": "https://www.suse.com/security/cve/CVE-2023-1232/",
      "Description": "SUSE CVE CVE-2023-1232 page"
    },
    {
      "URL": "https://www.suse.com/security/cve/CVE-2023-1233/",
      "Description": "SUSE CVE CVE-2023-1233 page"
    },
    {
      "URL": "https://www.suse.com/security/cve/CVE-2023-1234/",
      "Description": "SUSE CVE CVE-2023-1234 page"
    },
    {
      "URL": "https://www.suse.com/security/cve/CVE-2023-1235/",
      "Description": "SUSE CVE CVE-2023-1235 page"
    },
    {
      "URL": "https://www.suse.com/security/cve/CVE-2023-1236/",
      "Description": "SUSE CVE CVE-2023-1236 page"
    }
  ],
  "Vulnerabilities": [
    {
      "CVE": "CVE-2023-1213",
      "Description": "Use after free in Swiftshader in Google Chrome prior to 111.0.5563.64 allowed a remote attacker to potentially exploit heap corruption via a crafted HTML page. (Chromium security severity: High)",
      "Threats": [
        {
          "Type": "Impact",
          "Severity": "moderate"
        }
      ],
      "References": [
        {
          "URL": "https://www.suse.com/security/cve/CVE-2023-1213.html",
          "Description": "CVE-2023-1213"
        },
        {
          "URL": "https://bugzilla.suse.com/1209040",
          "Description": "SUSE Bug 1209040"
        }
      ],
      "ProductStatuses": [
        {
          "Type": "Fixed",
          "ProductID": [
            "openSUSE Tumbleweed:chromedriver-111.0.5563.64-2.1",
            "openSUSE Tumbleweed:chromium-111.0.5563.64-2.1"
          ]
        }
      ],
      "CVSSScoreSets": {}
    },
    {
      "CVE": "CVE-2023-1214",
      "Description": "Type confusion in V8 in Google Chrome prior to 111.0.5563.64 allowed a remote attacker to potentially exploit heap corruption via a crafted HTML page. (Chromium security severity: High)",
      "Threats": [
        {
          "Type": "Impact",
          "Severity": "moderate"
        }
      ],
      "References": [
        {
          "URL": "https://www.suse.com/security/cve/CVE-2023-1214.html",
          "Description": "CVE-2023-1214"
        },
        {
          "URL": "https://bugzilla.suse.com/1209040",
          "Description": "SUSE Bug 1209040"
        }
      ],
      "ProductStatuses": [
        {
          "Type": "Fixed",
          "ProductID": [
            "openSUSE Tumbleweed:chromedriver-111.0.5563.64-2.1",
            "openSUSE Tumbleweed:chromium-111.0.5563.64-2.1"
          ]
        }
      ],
      "CVSSScoreSets": {}
    },
    {
      "CVE": "CVE-2023-1215",
      "Description": "Type confusion in CSS in Google Chrome prior to 111.0.5563.64 allowed a remote attacker to potentially exploit heap corruption via a crafted HTML page. (Chromium security severity: High)",
      "Threats": [
        {
          "Type": "Impact",
          "Severity": "moderate"
        }
      ],
      "References": [
        {
          "URL": "https://www.suse.com/security/cve/CVE-2023-1215.html",
          "Description": "CVE-2023-1215"
        },
        {
          "URL": "https://bugzilla.suse.com/1209040",
          "Description": "SUSE Bug 1209040"
        }
      ],
      "ProductStatuses": [
        {
          "Type": "Fixed",
          "ProductID": [
            "openSUSE Tumbleweed:chromedriver-111.0.5563.64-2.1",
            "openSUSE Tumbleweed:chromium-111.0.5563.64-2.1"
          ]
        }
      ],
      "CVSSScoreSets": {}
    },
    {
      "CVE": "CVE-2023-1216",
      "Description": "Use after free in DevTools in Google Chrome prior to 111.0.5563.64 allowed a remote attacker who had convienced the user to engage in direct UI interaction to potentially exploit heap corruption via a crafted HTML page. (Chromium security severity: High)",
      "Threats": [
        {
          "Type": "Impact",
          "Severity": "moderate"
        }
      ],
      "References": [
        {
          "URL": "https://www.suse.com/security/cve/CVE-2023-1216.html",
          "Description": "CVE-2023-1216"
        },
        {
          "URL": "https://bugzilla.suse.com/1209040",
          "Description": "SUSE Bug 1209040"
        }
      ],
      "ProductStatuses": [
        {
          "Type": "Fixed",
          "ProductID": [
            "openSUSE Tumbleweed:chromedriver-111.0.5563.64-2.1",
            "openSUSE Tumbleweed:chromium-111.0.5563.64-2.1"
          ]
        }
      ],
      "CVSSScoreSets": {}
    },
    {
      "CVE": "CVE-2023-1217",
      "Description": "Stack buffer overflow in Crash reporting in Google Chrome on Windows prior to 111.0.5563.64 allowed a remote attacker who had compromised the renderer process to obtain potentially sensitive information from process memory via a crafted HTML page. (Chromium security severity: High)",
      "Threats": [
        {
          "Type": "Impact",
          "Severity": "moderate"
        }
      ],
      "References": [
        {
          "URL": "https://www.suse.com/security/cve/CVE-2023-1217.html",
          "Description": "CVE-2023-1217"
        },
        {
          "URL": "https://bugzilla.suse.com/1209040",
          "Description": "SUSE Bug 1209040"
        }
      ],
      "ProductStatuses": [
        {
          "Type": "Fixed",
          "ProductID": [
            "openSUSE Tumbleweed:chromedriver-111.0.5563.64-2.1",
            "openSUSE Tumbleweed:chromium-111.0.5563.64-2.1"
          ]
        }
      ],
      "CVSSScoreSets": {}
    },
    {
      "CVE": "CVE-2023-1218",
      "Description": "Use after free in WebRTC in Google Chrome prior to 111.0.5563.64 allowed a remote attacker to potentially exploit heap corruption via a crafted HTML page. (Chromium security severity: High)",
      "Threats": [
        {
          "Type": "Impact",
          "Severity": "moderate"
        }
      ],
      "References": [
        {
          "URL": "https://www.suse.com/security/cve/CVE-2023-1218.html",
          "Description": "CVE-2023-1218"
        },
        {
          "URL": "https://bugzilla.suse.com/1209040",
          "Description": "SUSE Bug 1209040"
        }
      ],
      "ProductStatuses": [
        {
          "Type": "Fixed",
          "ProductID": [
            "openSUSE Tumbleweed:chromedriver-111.0.5563.64-2.1",
            "openSUSE Tumbleweed:chromium-111.0.5563.64-2.1"
          ]
        }
      ],
      "CVSSScoreSets": {}
    },
    {
      "CVE": "CVE-2023-1219",
      "Description": "Heap buffer overflow in Metrics in Google Chrome prior to 111.0.5563.64 allowed a remote attacker who had compromised the renderer process to potentially exploit heap corruption via a crafted HTML page. (Chromium security severity: High)",
      "Threats": [
        {
          "Type": "Impact",
          "Severity": "moderate"
        }
      ],
      "References": [
        {
          "URL": "https://www.suse.com/security/cve/CVE-2023-1219.html",
          "Description": "CVE-2023-1219"
        },
        {
          "URL": "https://bugzilla.suse.com/1209040",
          "Description": "SUSE Bug 1209040"
        }
      ],
      "ProductStatuses": [
        {
          "Type": "Fixed",
          "ProductID": [
            "openSUSE Tumbleweed:chromedriver-111.0.5563.64-2.1",
            "openSUSE Tumbleweed:chromium-111.0.5563.64-2.1"
          ]
        }
      ],
      "CVSSScoreSets": {}
    },
    {
      "CVE": "CVE-2023-1220",
      "Description": "Heap buffer overflow in UMA in Google Chrome prior to 111.0.5563.64 allowed a remote attacker who had compromised the renderer process to potentially exploit heap corruption via a crafted HTML page. (Chromium security severity: High)",
      "Threats": [
        {
          "Type": "Impact",
          "Severity": "moderate"
        }
      ],
      "References": [
        {
          "URL": "https://www.suse.com/security/cve/CVE-2023-1220.html",
          "Description": "CVE-2023-1220"
        },
        {
          "URL": "https://bugzilla.suse.com/1209040",
          "Description": "SUSE Bug 1209040"
        }
      ],
      "ProductStatuses": [
        {
          "Type": "Fixed",
          "ProductID": [
            "openSUSE Tumbleweed:chromedriver-111.0.5563.64-2.1",
            "openSUSE Tumbleweed:chromium-111.0.5563.64-2.1"
          ]
        }
      ],
      "CVSSScoreSets": {}
    },
    {
      "CVE": "CVE-2023-1221",
      "Description": "Insufficient policy enforcement in Extensions API in Google Chrome prior to 111.0.5563.64 allowed an attacker who convinced a user to install a malicious extension to bypass navigation restrictions via a crafted Chrome Extension. (Chromium security severity: Medium)",
      "Threats": [
        {
          "Type": "Impact",
          "Severity": "moderate"
        }
      ],
      "References": [
        {
          "URL": "https://www.suse.com/security/cve/CVE-2023-1221.html",
          "Description": "CVE-2023-1221"
        },
        {
          "URL": "https://bugzilla.suse.com/1209040",
          "Description": "SUSE Bug 1209040"
        }
      ],
      "ProductStatuses": [
        {
          "Type": "Fixed",
          "ProductID": [
            "openSUSE Tumbleweed:chromedriver-111.0.5563.64-2.1",
            "openSUSE Tumbleweed:chromium-111.0.5563.64-2.1"
          ]
        }
      ],
      "CVSSScoreSets": {}
    },
    {
      "CVE": "CVE-2023-1222",
      "Description": "Heap buffer overflow in Web Audio API in Google Chrome prior to 111.0.5563.64 allowed a remote attacker to potentially exploit heap corruption via a crafted HTML page. (Chromium security severity: Medium)",
      "Threats": [
        {
          "Type": "Impact",
          "Severity": "moderate"
        }
      ],
      "References": [
        {
          "URL": "https://www.suse.com/security/cve/CVE-2023-1222.html",
          "Description": "CVE-2023-1222"
        },
        {
          "URL": "https://bugzilla.suse.com/1209040",
          "Description": "SUSE Bug 1209040"
        }
      ],
      "ProductStatuses": [
        {
          "Type": "Fixed",
          "ProductID": [
            "openSUSE Tumbleweed:chromedriver-111.0.5563.64-2.1",
            "openSUSE Tumbleweed:chromium-111.0.5563.64-2.1"
          ]
        }
      ],
      "CVSSScoreSets": {}
    },
    {
      "CVE": "CVE-2023-1223",
      "Description": "Insufficient policy enforcement in Autofill in Google Chrome on Android prior to 111.0.5563.64 allowed a remote attacker to leak cross-origin data via a crafted HTML page. (Chromium security severity: Medium)",
      "Threats": [
        {
          "Type": "Impact",
          "Severity": "moderate"
        }
      ],
      "References": [
        {
          "URL": "https://www.suse.com/security/cve/CVE-2023-1223.html",
          "Description": "CVE-2023-1223"
        },
        {
          "URL": "https://bugzilla.suse.com/1209040",
          "Description": "SUSE Bug 1209040"
        }
      ],
      "ProductStatuses": [
        {
          "Type": "Fixed",
          "ProductID": [
            "openSUSE Tumbleweed:chromedriver-111.0.5563.64-2.1",
            "openSUSE Tumbleweed:chromium-111.0.5563.64-2.1"
          ]
        }
      ],
      "CVSSScoreSets": {}
    },
    {
      "CVE": "CVE-2023-1224",
      "Description": "Insufficient policy enforcement in Web Payments API in Google Chrome prior to 111.0.5563.64 allowed a remote attacker to bypass navigation restrictions via a crafted HTML page. (Chromium security severity: Medium)",
      "Threats": [
        {
          "Type": "Impact",
          "Severity": "moderate"
        }
      ],
      "References": [
        {
          "URL": "https://www.suse.com/security/cve/CVE-2023-1224.html",
          "Description": "CVE-2023-1224"
        },
        {
          "URL": "https://bugzilla.suse.com/1209040",
          "Description": "SUSE Bug 1209040"
        }
      ],
      "ProductStatuses": [
        {
          "Type": "Fixed",
          "ProductID": [
            "openSUSE Tumbleweed:chromedriver-111.0.5563.64-2.1",
            "openSUSE Tumbleweed:chromium-111.0.5563.64-2.1"
          ]
        }
      ],
      "CVSSScoreSets": {}
    },
    {
      "CVE": "CVE-2023-1225",
      "Description": "Insufficient policy enforcement in Navigation in Google Chrome on iOS prior to 111.0.5563.64 allowed a remote attacker to bypass same origin policy via a crafted HTML page. (Chromium security severity: Medium)",
      "Threats": [
        {
          "Type": "Impact",
          "Severity": "moderate"
        }
      ],
      "References": [
        {
          "URL": "https://www.suse.com/security/cve/CVE-2023-1225.html",
          "Description": "CVE-2023-1225"
        },
        {
          "URL": "https://bugzilla.suse.com/1209040",
          "Description": "SUSE Bug 1209040"
        }
      ],
      "ProductStatuses": [
        {
          "Type": "Fixed",
          "ProductID": [
            "openSUSE Tumbleweed:chromedriver-111.0.5563.64-2.1",
            "openSUSE Tumbleweed:chromium-111.0.5563.64-2.1"
          ]
        }
      ],
      "CVSSScoreSets": {}
    },
    {
      "CVE": "CVE-2023-1226",
      "Description": "Insufficient policy enforcement in Web Payments API in Google Chrome prior to 111.0.5563.64 allowed a remote attacker to bypass content security policy via a crafted HTML page. (Chromium security severity: Medium)",
      "Threats": [
        {
          "Type": "Impact",
          "Severity": "moderate"
        }
      ],
      "References": [
        {
          "URL": "https://www.suse.com/security/cve/CVE-2023-1226.html",
          "Description": "CVE-2023-1226"
        },
        {
          "URL": "https://bugzilla.suse.com/1209040",
          "Description": "SUSE Bug 1209040"
        }
      ],
      "ProductStatuses": [
        {
          "Type": "Fixed",
          "ProductID": [
            "openSUSE Tumbleweed:chromedriver-111.0.5563.64-2.1",
            "openSUSE Tumbleweed:chromium-111.0.5563.64-2.1"
          ]
        }
      ],
      "CVSSScoreSets": {}
    },
    {
      "CVE": "CVE-2023-1227",
      "Description": "Use after free in Core in Google Chrome on Lacros prior to 111.0.5563.64 allowed a remote attacker who convinced a user to engage in specific UI interaction to potentially exploit heap corruption via crafted UI interaction. (Chromium security severity: Medium)",
      "Threats": [
        {
          "Type": "Impact",
          "Severity": "moderate"
        }
      ],
      "References": [
        {
          "URL": "https://www.suse.com/security/cve/CVE-2023-1227.html",
          "Description": "CVE-2023-1227"
        },
        {
          "URL": "https://bugzilla.suse.com/1209040",
          "Description": "SUSE Bug 1209040"
        }
      ],
      "ProductStatuses": [
        {
          "Type": "Fixed",
          "ProductID": [
            "openSUSE Tumbleweed:chromedriver-111.0.5563.64-2.1",
            "openSUSE Tumbleweed:chromium-111.0.5563.64-2.1"
          ]
        }
      ],
      "CVSSScoreSets": {}
    },
    {
      "CVE": "CVE-2023-1228",
      "Description": "Insufficient policy enforcement in Intents in Google Chrome on Android prior to 111.0.5563.64 allowed a remote attacker to bypass navigation restrictions via a crafted HTML page. (Chromium security severity: Medium)",
      "Threats": [
        {
          "Type": "Impact",
          "Severity": "moderate"
        }
      ],
      "References": [
        {
          "URL": "https://www.suse.com/security/cve/CVE-2023-1228.html",
          "Description": "CVE-2023-1228"
        },
        {
          "URL": "https://bugzilla.suse.com/1209040",
          "Description": "SUSE Bug 1209040"
        }
      ],
      "ProductStatuses": [
        {
          "Type": "Fixed",
          "ProductID": [
            "openSUSE Tumbleweed:chromedriver-111.0.5563.64-2.1",
            "openSUSE Tumbleweed:chromium-111.0.5563.64-2.1"
          ]
        }
      ],
      "CVSSScoreSets": {}
    },
    {
      "CVE": "CVE-2023-1229",
      "Description": "Inappropriate implementation in Permission prompts in Google Chrome prior to 111.0.5563.64 allowed a remote attacker to bypass navigation restrictions via a crafted HTML page. (Chromium security severity: Medium)",
      "Threats": [
        {
          "Type": "Impact",
          "Severity": "moderate"
        }
      ],
      "References": [
        {
          "URL": "https://www.suse.com/security/cve/CVE-2023-1229.html",
          "Description": "CVE-2023-1229"
        },
        {
          "URL": "https://bugzilla.suse.com/1209040",
          "Description": "SUSE Bug 1209040"
        }
      ],
      "ProductStatuses": [
        {
          "Type": "Fixed",
          "ProductID": [
            "openSUSE Tumbleweed:chromedriver-111.0.5563.64-2.1",
            "openSUSE Tumbleweed:chromium-111.0.5563.64-2.1"
          ]
        }
      ],
      "CVSSScoreSets": {}
    },
    {
      "CVE": "CVE-2023-1230",
      "Description": "Inappropriate implementation in WebApp Installs in Google Chrome on Android prior to 111.0.5563.64 allowed an attacker who convinced a user to install a malicious WebApp to spoof the contents of the PWA installer via a crafted HTML page. (Chromium security severity: Medium)",
      "Threats": [
        {
          "Type": "Impact",
          "Severity": "moderate"
        }
      ],
      "References": [
        {
          "URL": "https://www.suse.com/security/cve/CVE-2023-1230.html",
          "Description": "CVE-2023-1230"
        },
        {
          "URL": "https://bugzilla.suse.com/1209040",
          "Description": "SUSE Bug 1209040"
        }
      ],
      "ProductStatuses": [
        {
          "Type": "Fixed",
          "ProductID": [
            "openSUSE Tumbleweed:chromedriver-111.0.5563.64-2.1",
            "openSUSE Tumbleweed:chromium-111.0.5563.64-2.1"
          ]
        }
      ],
      "CVSSScoreSets": {}
    },
    {
      "CVE": "CVE-2023-1231",
      "Description": "Inappropriate implementation in Autofill in Google Chrome on Android prior to 111.0.5563.64 allowed a remote attacker to potentially spoof the contents of the omnibox via a crafted HTML page. (Chromium security severity: Medium)",
      "Threats": [
        {
          "Type": "Impact",
          "Severity": "moderate"
        }
      ],
      "References": [
        {
          "URL": "https://www.suse.com/security/cve/CVE-2023-1231.html",
          "Description": "CVE-2023-1231"
        },
        {
          "URL": "https://bugzilla.suse.com/1209040",
          "Description": "SUSE Bug 1209040"
        }
      ],
      "ProductStatuses": [
        {
          "Type": "Fixed",
          "ProductID": [
            "openSUSE Tumbleweed:chromedriver-111.0.5563.64-2.1",
            "openSUSE Tumbleweed:chromium-111.0.5563.64-2.1"
          ]
        }
      ],
      "CVSSScoreSets": {}
    },
    {
      "CVE": "CVE-2023-1232",
      "Description": "Insufficient policy enforcement in Resource Timing in Google Chrome prior to 111.0.5563.64 allowed a remote attacker to obtain potentially sensitive information from API via a crafted HTML page. (Chromium security severity: Low)",
      "Threats": [
        {
          "Type": "Impact",
          "Severity": "moderate"
        }
      ],
      "References": [
        {
          "URL": "https://www.suse.com/security/cve/CVE-2023-1232.html",
          "Description": "CVE-2023-1232"
        },
        {
          "URL": "https://bugzilla.suse.com/1209040",
          "Description": "SUSE Bug 1209040"
        }
      ],
      "ProductStatuses": [
        {
          "Type": "Fixed",
          "ProductID": [
            "openSUSE Tumbleweed:chromedriver-111.0.5563.64-2.1",
            "openSUSE Tumbleweed:chromium-111.0.5563.64-2.1"
          ]
        }
      ],
      "CVSSScoreSets": {}
    },
    {
      "CVE": "CVE-2023-1233",
      "Description": "Insufficient policy enforcement in Resource Timing in Google Chrome prior to 111.0.5563.64 allowed an attacker who convinced a user to install a malicious extension to obtain potentially sensitive information from API via a crafted Chrome Extension. (Chromium security severity: Low)",
      "Threats": [
        {
          "Type": "Impact",
          "Severity": "moderate"
        }
      ],
      "References": [
        {
          "URL": "https://www.suse.com/security/cve/CVE-2023-1233.html",
          "Description": "CVE-2023-1233"
        },
        {
          "URL": "https://bugzilla.suse.com/1209040",
          "Description": "SUSE Bug 1209040"
        }
      ],
      "ProductStatuses": [
        {
          "Type": "Fixed",
          "ProductID": [
            "openSUSE Tumbleweed:chromedriver-111.0.5563.64-2.1",
            "openSUSE Tumbleweed:chromium-111.0.5563.64-2.1"
          ]
        }
      ],
      "CVSSScoreSets": {}
    },
    {
      "CVE": "CVE-2023-1234",
      "Description": "Inappropriate implementation in Intents in Google Chrome on Android prior to 111.0.5563.64 allowed a remote attacker to perform domain spoofing via a crafted HTML page. (Chromium security severity: Low)",
      "Threats": [
        {
          "Type": "Impact",
          "Severity": "moderate"
        }
      ],
      "References": [
        {
          "URL": "https://www.suse.com/security/cve/CVE-2023-1234.html",
          "Description": "CVE-2023-1234"
        },
        {
          "URL": "https://bugzilla.suse.com/1209040",
          "Description": "SUSE Bug 1209040"
        }
      ],
      "ProductStatuses": [
        {
          "Type": "Fixed",
          "ProductID": [
            "openSUSE Tumbleweed:chromedriver-111.0.5563.64-2.1",
            "openSUSE Tumbleweed:chromium-111.0.5563.64-2.1"
          ]
        }
      ],
      "CVSSScoreSets": {}
    },
    {
      "CVE": "CVE-2023-1235",
      "Description": "Type confusion in DevTools in Google Chrome prior to 111.0.5563.64 allowed a remote attacker who had compromised the renderer process to potentially exploit heap corruption via a crafted UI interaction. (Chromium security severity: Low)",
      "Threats": [
        {
          "Type": "Impact",
          "Severity": "moderate"
        }
      ],
      "References": [
        {
          "URL": "https://www.suse.com/security/cve/CVE-2023-1235.html",
          "Description": "CVE-2023-1235"
        },
        {
          "URL": "https://bugzilla.suse.com/1209040",
          "Description": "SUSE Bug 1209040"
        }
      ],
      "ProductStatuses": [
        {
          "Type": "Fixed",
          "ProductID": [
            "openSUSE Tumbleweed:chromedriver-111.0.5563.64-2.1",
            "openSUSE Tumbleweed:chromium-111.0.5563.64-2.1"
          ]
        }
      ],
      "CVSSScoreSets": {}
    },
    {
      "CVE": "CVE-2023-1236",
      "Description": "Inappropriate implementation in Internals in Google Chrome prior to 111.0.5563.64 allowed a remote attacker to spoof the origin of an iframe via a crafted HTML page. (Chromium security severity: Low)",
      "Threats": [
        {
          "Type": "Impact",
          "Severity": "moderate"
        }
      ],
      "References": [
        {
          "URL": "https://www.suse.com/security/cve/CVE-2023-1236.html",
          "Description": "CVE-2023-1236"
        },
        {
          "URL": "https://bugzilla.suse.com/1209040",
          "Description": "SUSE Bug 1209040"
        }
      ],
      "ProductStatuses": [
        {
          "Type": "Fixed",
          "ProductID": [
            "openSUSE Tumbleweed:chromedriver-111.0.5563.64-2.1",
            "openSUSE Tumbleweed:chromium-111.0.5563.64-2.1"
          ]
        }
      ],
      "CVSSScoreSets": {}
    }
  ]
}