{
  "Title": "libqpid-proton-cpp6-0.12.2-1.6 on GA media",
  "Tracking": {
    "ID": "openSUSE-SU-2024:10217-1",
    "Status": "Final",
    "Version": "1",
    "InitialReleaseDate": "2024-06-22T21:44:56Z",
    "CurrentReleaseDate": "2024-06-22T21:44:56Z",
    "RevisionHistory": [
      {
        "Number": "1",
        "Date": "2024-06-22T21:44:56Z",
        "Description": "current"
      }
    ]
  },
  "Notes": [
    {
      "Text": "libqpid-proton-cpp6-0.12.2-1.6 on GA media",
      "Title": "Topic",
      "Type": "Summary"
    },
    {
      "Text": "These are all security issues fixed in the libqpid-proton-cpp6-0.12.2-1.6 package on the GA media of openSUSE Tumbleweed.",
      "Title": "Details",
      "Type": "General"
    },
    {
      "Text": "The CVRF data is provided by SUSE under the Creative Commons License 4.0 with Attribution (CC-BY-4.0).",
      "Title": "Terms of Use",
      "Type": "Legal Disclaimer"
    },
    {
      "Text": "openSUSE-Tumbleweed-2024-10217",
      "Title": "Patchnames",
      "Type": "Details"
    }
  ],
  "ProductTree": {
    "Relationships": [
      {
        "ProductReference": "libqpid-proton-cpp6-0.12.2-1.6",
        "RelatesToProductReference": "openSUSE Tumbleweed",
        "RelationType": "Default Component Of"
      },
      {
        "ProductReference": "libqpid-proton6-0.12.2-1.6",
        "RelatesToProductReference": "openSUSE Tumbleweed",
        "RelationType": "Default Component Of"
      },
      {
        "ProductReference": "perl-qpid-proton-0.12.2-1.6",
        "RelatesToProductReference": "openSUSE Tumbleweed",
        "RelationType": "Default Component Of"
      },
      {
        "ProductReference": "python-qpid-proton-0.12.2-1.6",
        "RelatesToProductReference": "openSUSE Tumbleweed",
        "RelationType": "Default Component Of"
      },
      {
        "ProductReference": "python-qpid-proton-doc-0.12.2-1.6",
        "RelatesToProductReference": "openSUSE Tumbleweed",
        "RelationType": "Default Component Of"
      },
      {
        "ProductReference": "qpid-proton-0.12.2-1.6",
        "RelatesToProductReference": "openSUSE Tumbleweed",
        "RelationType": "Default Component Of"
      },
      {
        "ProductReference": "qpid-proton-devel-0.12.2-1.6",
        "RelatesToProductReference": "openSUSE Tumbleweed",
        "RelationType": "Default Component Of"
      },
      {
        "ProductReference": "qpid-proton-devel-doc-0.12.2-1.6",
        "RelatesToProductReference": "openSUSE Tumbleweed",
        "RelationType": "Default Component Of"
      }
    ]
  },
  "References": [
    {
      "URL": "https://www.suse.com/support/security/rating/",
      "Description": "SUSE Security Ratings"
    },
    {
      "URL": "https://www.suse.com/security/cve/CVE-2016-2166/",
      "Description": "SUSE CVE CVE-2016-2166 page"
    }
  ],
  "Vulnerabilities": [
    {
      "CVE": "CVE-2016-2166",
      "Description": "The (1) proton.reactor.Connector, (2) proton.reactor.Container, and (3) proton.utils.BlockingConnection classes in Apache Qpid Proton before 0.12.1 improperly use an unencrypted connection for an amqps URI scheme when SSL support is unavailable, which might allow man-in-the-middle attackers to obtain sensitive information or modify data via unspecified vectors.",
      "Threats": [
        {
          "Type": "Impact",
          "Severity": "moderate"
        }
      ],
      "References": [
        {
          "URL": "https://www.suse.com/security/cve/CVE-2016-2166.html",
          "Description": "CVE-2016-2166"
        },
        {
          "URL": "https://bugzilla.suse.com/973343",
          "Description": "SUSE Bug 973343"
        }
      ],
      "ProductStatuses": [
        {
          "Type": "Fixed",
          "ProductID": [
            "openSUSE Tumbleweed:libqpid-proton-cpp6-0.12.2-1.6",
            "openSUSE Tumbleweed:libqpid-proton6-0.12.2-1.6",
            "openSUSE Tumbleweed:perl-qpid-proton-0.12.2-1.6",
            "openSUSE Tumbleweed:python-qpid-proton-0.12.2-1.6",
            "openSUSE Tumbleweed:python-qpid-proton-doc-0.12.2-1.6",
            "openSUSE Tumbleweed:qpid-proton-0.12.2-1.6",
            "openSUSE Tumbleweed:qpid-proton-devel-0.12.2-1.6",
            "openSUSE Tumbleweed:qpid-proton-devel-doc-0.12.2-1.6"
          ]
        }
      ],
      "CVSSScoreSets": {}
    }
  ]
}