{
  "Title": "libtommath-devel-1.2.1-1.1 on GA media",
  "Tracking": {
    "ID": "openSUSE-SU-2024:13425-1",
    "Status": "Final",
    "Version": "1",
    "InitialReleaseDate": "2024-06-20T21:44:22Z",
    "CurrentReleaseDate": "2024-06-20T21:44:22Z",
    "RevisionHistory": [
      {
        "Number": "1",
        "Date": "2024-06-20T21:44:22Z",
        "Description": "current"
      }
    ]
  },
  "Notes": [
    {
      "Text": "libtommath-devel-1.2.1-1.1 on GA media",
      "Title": "Topic",
      "Type": "Summary"
    },
    {
      "Text": "These are all security issues fixed in the libtommath-devel-1.2.1-1.1 package on the GA media of openSUSE Tumbleweed.",
      "Title": "Details",
      "Type": "General"
    },
    {
      "Text": "The CVRF data is provided by SUSE under the Creative Commons License 4.0 with Attribution (CC-BY-4.0).",
      "Title": "Terms of Use",
      "Type": "Legal Disclaimer"
    },
    {
      "Text": "openSUSE-Tumbleweed-2024-13425",
      "Title": "Patchnames",
      "Type": "Details"
    }
  ],
  "ProductTree": {
    "Relationships": [
      {
        "ProductReference": "libtommath-devel-1.2.1-1.1",
        "RelatesToProductReference": "openSUSE Tumbleweed",
        "RelationType": "Default Component Of"
      },
      {
        "ProductReference": "libtommath-examples-1.2.1-1.1",
        "RelatesToProductReference": "openSUSE Tumbleweed",
        "RelationType": "Default Component Of"
      },
      {
        "ProductReference": "libtommath1-1.2.1-1.1",
        "RelatesToProductReference": "openSUSE Tumbleweed",
        "RelationType": "Default Component Of"
      },
      {
        "ProductReference": "libtommath1-x86-64-v3-1.2.1-1.1",
        "RelatesToProductReference": "openSUSE Tumbleweed",
        "RelationType": "Default Component Of"
      }
    ]
  },
  "References": [
    {
      "URL": "https://www.suse.com/support/security/rating/",
      "Description": "SUSE Security Ratings"
    },
    {
      "URL": "https://www.suse.com/security/cve/CVE-2023-36328/",
      "Description": "SUSE CVE CVE-2023-36328 page"
    }
  ],
  "Vulnerabilities": [
    {
      "CVE": "CVE-2023-36328",
      "Description": "Integer Overflow vulnerability in mp_grow in libtom libtommath before commit beba892bc0d4e4ded4d667ab1d2a94f4d75109a9, allows attackers to execute arbitrary code and cause a denial of service (DoS).",
      "Threats": [
        {
          "Type": "Impact",
          "Severity": "moderate"
        }
      ],
      "References": [
        {
          "URL": "https://www.suse.com/security/cve/CVE-2023-36328.html",
          "Description": "CVE-2023-36328"
        },
        {
          "URL": "https://bugzilla.suse.com/1214927",
          "Description": "SUSE Bug 1214927"
        }
      ],
      "ProductStatuses": [
        {
          "Type": "Fixed",
          "ProductID": [
            "openSUSE Tumbleweed:libtommath-devel-1.2.1-1.1",
            "openSUSE Tumbleweed:libtommath-examples-1.2.1-1.1",
            "openSUSE Tumbleweed:libtommath1-1.2.1-1.1",
            "openSUSE Tumbleweed:libtommath1-x86-64-v3-1.2.1-1.1"
          ]
        }
      ],
      "CVSSScoreSets": {}
    }
  ]
}