{
  "Title": "containerd-1.6.9-1.1 on GA media",
  "Tracking": {
    "ID": "openSUSE-SU-2024:12550-1",
    "Status": "Final",
    "Version": "1",
    "InitialReleaseDate": "2024-06-20T21:44:22Z",
    "CurrentReleaseDate": "2024-06-20T21:44:22Z",
    "RevisionHistory": [
      {
        "Number": "1",
        "Date": "2024-06-20T21:44:22Z",
        "Description": "current"
      }
    ]
  },
  "Notes": [
    {
      "Text": "containerd-1.6.9-1.1 on GA media",
      "Title": "Topic",
      "Type": "Summary"
    },
    {
      "Text": "These are all security issues fixed in the containerd-1.6.9-1.1 package on the GA media of openSUSE Tumbleweed.",
      "Title": "Details",
      "Type": "General"
    },
    {
      "Text": "The CVRF data is provided by SUSE under the Creative Commons License 4.0 with Attribution (CC-BY-4.0).",
      "Title": "Terms of Use",
      "Type": "Legal Disclaimer"
    },
    {
      "Text": "openSUSE-Tumbleweed-2024-12550",
      "Title": "Patchnames",
      "Type": "Details"
    }
  ],
  "ProductTree": {
    "Relationships": [
      {
        "ProductReference": "containerd-1.6.9-1.1",
        "RelatesToProductReference": "openSUSE Tumbleweed",
        "RelationType": "Default Component Of"
      },
      {
        "ProductReference": "containerd-ctr-1.6.9-1.1",
        "RelatesToProductReference": "openSUSE Tumbleweed",
        "RelationType": "Default Component Of"
      },
      {
        "ProductReference": "containerd-devel-1.6.9-1.1",
        "RelatesToProductReference": "openSUSE Tumbleweed",
        "RelationType": "Default Component Of"
      }
    ]
  },
  "References": [
    {
      "URL": "https://www.suse.com/support/security/rating/",
      "Description": "SUSE Security Ratings"
    },
    {
      "URL": "https://www.suse.com/security/cve/CVE-2022-27191/",
      "Description": "SUSE CVE CVE-2022-27191 page"
    }
  ],
  "Vulnerabilities": [
    {
      "CVE": "CVE-2022-27191",
      "Description": "The golang.org/x/crypto/ssh package before 0.0.0-20220314234659-1baeb1ce4c0b for Go allows an attacker to crash a server in certain circumstances involving AddHostKey.",
      "Threats": [
        {
          "Type": "Impact",
          "Severity": "important"
        }
      ],
      "References": [
        {
          "URL": "https://www.suse.com/security/cve/CVE-2022-27191.html",
          "Description": "CVE-2022-27191"
        },
        {
          "URL": "https://bugzilla.suse.com/1197284",
          "Description": "SUSE Bug 1197284"
        }
      ],
      "ProductStatuses": [
        {
          "Type": "Fixed",
          "ProductID": [
            "openSUSE Tumbleweed:containerd-1.6.9-1.1",
            "openSUSE Tumbleweed:containerd-ctr-1.6.9-1.1",
            "openSUSE Tumbleweed:containerd-devel-1.6.9-1.1"
          ]
        }
      ],
      "CVSSScoreSets": {}
    }
  ]
}