{
  "Title": "libopenssl-3-devel-3.1.4-3.1 on GA media",
  "Tracking": {
    "ID": "openSUSE-SU-2024:13633-1",
    "Status": "Final",
    "Version": "1",
    "InitialReleaseDate": "2024-06-20T21:44:22Z",
    "CurrentReleaseDate": "2024-06-20T21:44:22Z",
    "RevisionHistory": [
      {
        "Number": "1",
        "Date": "2024-06-20T21:44:22Z",
        "Description": "current"
      }
    ]
  },
  "Notes": [
    {
      "Text": "libopenssl-3-devel-3.1.4-3.1 on GA media",
      "Title": "Topic",
      "Type": "Summary"
    },
    {
      "Text": "These are all security issues fixed in the libopenssl-3-devel-3.1.4-3.1 package on the GA media of openSUSE Tumbleweed.",
      "Title": "Details",
      "Type": "General"
    },
    {
      "Text": "The CVRF data is provided by SUSE under the Creative Commons License 4.0 with Attribution (CC-BY-4.0).",
      "Title": "Terms of Use",
      "Type": "Legal Disclaimer"
    },
    {
      "Text": "openSUSE-Tumbleweed-2024-13633",
      "Title": "Patchnames",
      "Type": "Details"
    }
  ],
  "ProductTree": {
    "Relationships": [
      {
        "ProductReference": "libopenssl-3-devel-3.1.4-3.1",
        "RelatesToProductReference": "openSUSE Tumbleweed",
        "RelationType": "Default Component Of"
      },
      {
        "ProductReference": "libopenssl-3-devel-32bit-3.1.4-3.1",
        "RelatesToProductReference": "openSUSE Tumbleweed",
        "RelationType": "Default Component Of"
      },
      {
        "ProductReference": "libopenssl-3-fips-provider-3.1.4-3.1",
        "RelatesToProductReference": "openSUSE Tumbleweed",
        "RelationType": "Default Component Of"
      },
      {
        "ProductReference": "libopenssl3-3.1.4-3.1",
        "RelatesToProductReference": "openSUSE Tumbleweed",
        "RelationType": "Default Component Of"
      },
      {
        "ProductReference": "libopenssl3-32bit-3.1.4-3.1",
        "RelatesToProductReference": "openSUSE Tumbleweed",
        "RelationType": "Default Component Of"
      },
      {
        "ProductReference": "libopenssl3-x86-64-v3-3.1.4-3.1",
        "RelatesToProductReference": "openSUSE Tumbleweed",
        "RelationType": "Default Component Of"
      },
      {
        "ProductReference": "openssl-3-3.1.4-3.1",
        "RelatesToProductReference": "openSUSE Tumbleweed",
        "RelationType": "Default Component Of"
      },
      {
        "ProductReference": "openssl-3-doc-3.1.4-3.1",
        "RelatesToProductReference": "openSUSE Tumbleweed",
        "RelationType": "Default Component Of"
      }
    ]
  },
  "References": [
    {
      "URL": "https://www.suse.com/support/security/rating/",
      "Description": "SUSE Security Ratings"
    },
    {
      "URL": "https://www.suse.com/security/cve/CVE-2023-6129/",
      "Description": "SUSE CVE CVE-2023-6129 page"
    },
    {
      "URL": "https://www.suse.com/security/cve/CVE-2023-6237/",
      "Description": "SUSE CVE CVE-2023-6237 page"
    }
  ],
  "Vulnerabilities": [
    {
      "CVE": "CVE-2023-6129",
      "Description": "Issue summary: The POLY1305 MAC (message authentication code) implementation\ncontains a bug that might corrupt the internal state of applications running\non PowerPC CPU based platforms if the CPU provides vector instructions.\n\nImpact summary: If an attacker can influence whether the POLY1305 MAC\nalgorithm is used, the application state might be corrupted with various\napplication dependent consequences.\n\nThe POLY1305 MAC (message authentication code) implementation in OpenSSL for\nPowerPC CPUs restores the contents of vector registers in a different order\nthan they are saved. Thus the contents of some of these vector registers\nare corrupted when returning to the caller. The vulnerable code is used only\non newer PowerPC processors supporting the PowerISA 2.07 instructions.\n\nThe consequences of this kind of internal application state corruption can\nbe various - from no consequences, if the calling application does not\ndepend on the contents of non-volatile XMM registers at all, to the worst\nconsequences, where the attacker could get complete control of the application\nprocess. However unless the compiler uses the vector registers for storing\npointers, the most likely consequence, if any, would be an incorrect result\nof some application dependent calculations or a crash leading to a denial of\nservice.\n\nThe POLY1305 MAC algorithm is most frequently used as part of the\nCHACHA20-POLY1305 AEAD (authenticated encryption with associated data)\nalgorithm. The most common usage of this AEAD cipher is with TLS protocol\nversions 1.2 and 1.3. If this cipher is enabled on the server a malicious\nclient can influence whether this AEAD cipher is used. This implies that\nTLS server applications using OpenSSL can be potentially impacted. However\nwe are currently not aware of any concrete application that would be affected\nby this issue therefore we consider this a Low severity security issue.",
      "Threats": [
        {
          "Type": "Impact",
          "Severity": "moderate"
        }
      ],
      "References": [
        {
          "URL": "https://www.suse.com/security/cve/CVE-2023-6129.html",
          "Description": "CVE-2023-6129"
        },
        {
          "URL": "https://bugzilla.suse.com/1218690",
          "Description": "SUSE Bug 1218690"
        }
      ],
      "ProductStatuses": [
        {
          "Type": "Fixed",
          "ProductID": [
            "openSUSE Tumbleweed:libopenssl-3-devel-3.1.4-3.1",
            "openSUSE Tumbleweed:libopenssl-3-devel-32bit-3.1.4-3.1",
            "openSUSE Tumbleweed:libopenssl-3-fips-provider-3.1.4-3.1",
            "openSUSE Tumbleweed:libopenssl3-3.1.4-3.1",
            "openSUSE Tumbleweed:libopenssl3-32bit-3.1.4-3.1",
            "openSUSE Tumbleweed:libopenssl3-x86-64-v3-3.1.4-3.1",
            "openSUSE Tumbleweed:openssl-3-3.1.4-3.1",
            "openSUSE Tumbleweed:openssl-3-doc-3.1.4-3.1"
          ]
        }
      ],
      "CVSSScoreSets": {}
    },
    {
      "CVE": "CVE-2023-6237",
      "Description": "Issue summary: Checking excessively long invalid RSA public keys may take\na long time.\n\nImpact summary: Applications that use the function EVP_PKEY_public_check()\nto check RSA public keys may experience long delays. Where the key that\nis being checked has been obtained from an untrusted source this may lead\nto a Denial of Service.\n\nWhen function EVP_PKEY_public_check() is called on RSA public keys,\na computation is done to confirm that the RSA modulus, n, is composite.\nFor valid RSA keys, n is a product of two or more large primes and this\ncomputation completes quickly. However, if n is an overly large prime,\nthen this computation would take a long time.\n\nAn application that calls EVP_PKEY_public_check() and supplies an RSA key\nobtained from an untrusted source could be vulnerable to a Denial of Service\nattack.\n\nThe function EVP_PKEY_public_check() is not called from other OpenSSL\nfunctions however it is called from the OpenSSL pkey command line\napplication. For that reason that application is also vulnerable if used\nwith the '-pubin' and '-check' options on untrusted data.\n\nThe OpenSSL SSL/TLS implementation is not affected by this issue.\n\nThe OpenSSL 3.0 and 3.1 FIPS providers are affected by this issue.",
      "Threats": [
        {
          "Type": "Impact",
          "Severity": "moderate"
        }
      ],
      "References": [
        {
          "URL": "https://www.suse.com/security/cve/CVE-2023-6237.html",
          "Description": "CVE-2023-6237"
        },
        {
          "URL": "https://bugzilla.suse.com/1218810",
          "Description": "SUSE Bug 1218810"
        }
      ],
      "ProductStatuses": [
        {
          "Type": "Fixed",
          "ProductID": [
            "openSUSE Tumbleweed:libopenssl-3-devel-3.1.4-3.1",
            "openSUSE Tumbleweed:libopenssl-3-devel-32bit-3.1.4-3.1",
            "openSUSE Tumbleweed:libopenssl-3-fips-provider-3.1.4-3.1",
            "openSUSE Tumbleweed:libopenssl3-3.1.4-3.1",
            "openSUSE Tumbleweed:libopenssl3-32bit-3.1.4-3.1",
            "openSUSE Tumbleweed:libopenssl3-x86-64-v3-3.1.4-3.1",
            "openSUSE Tumbleweed:openssl-3-3.1.4-3.1",
            "openSUSE Tumbleweed:openssl-3-doc-3.1.4-3.1"
          ]
        }
      ],
      "CVSSScoreSets": {}
    }
  ]
}