{
  "Title": "xtrans-1.5.0-1.1 on GA media",
  "Tracking": {
    "ID": "openSUSE-SU-2024:12993-1",
    "Status": "Final",
    "Version": "1",
    "InitialReleaseDate": "2024-06-20T21:44:22Z",
    "CurrentReleaseDate": "2024-06-20T21:44:22Z",
    "RevisionHistory": [
      {
        "Number": "1",
        "Date": "2024-06-20T21:44:22Z",
        "Description": "current"
      }
    ]
  },
  "Notes": [
    {
      "Text": "xtrans-1.5.0-1.1 on GA media",
      "Title": "Topic",
      "Type": "Summary"
    },
    {
      "Text": "These are all security issues fixed in the xtrans-1.5.0-1.1 package on the GA media of openSUSE Tumbleweed.",
      "Title": "Details",
      "Type": "General"
    },
    {
      "Text": "The CVRF data is provided by SUSE under the Creative Commons License 4.0 with Attribution (CC-BY-4.0).",
      "Title": "Terms of Use",
      "Type": "Legal Disclaimer"
    },
    {
      "Text": "openSUSE-Tumbleweed-2024-12993",
      "Title": "Patchnames",
      "Type": "Details"
    }
  ],
  "ProductTree": {
    "Relationships": [
      {
        "ProductReference": "xtrans-1.5.0-1.1",
        "RelatesToProductReference": "openSUSE Tumbleweed",
        "RelationType": "Default Component Of"
      }
    ]
  },
  "References": [
    {
      "URL": "https://www.suse.com/support/security/rating/",
      "Description": "SUSE Security Ratings"
    },
    {
      "URL": "https://www.suse.com/security/cve/CVE-2020-25697/",
      "Description": "SUSE CVE CVE-2020-25697 page"
    }
  ],
  "Vulnerabilities": [
    {
      "CVE": "CVE-2020-25697",
      "Description": "A privilege escalation flaw was found in the Xorg-x11-server due to a lack of authentication for X11 clients. This flaw allows an attacker to take control of an X application by impersonating the server it is expecting to connect to.",
      "Threats": [
        {
          "Type": "Impact",
          "Severity": "moderate"
        }
      ],
      "References": [
        {
          "URL": "https://www.suse.com/security/cve/CVE-2020-25697.html",
          "Description": "CVE-2020-25697"
        },
        {
          "URL": "https://bugzilla.suse.com/1178613",
          "Description": "SUSE Bug 1178613"
        }
      ],
      "ProductStatuses": [
        {
          "Type": "Fixed",
          "ProductID": [
            "openSUSE Tumbleweed:xtrans-1.5.0-1.1"
          ]
        }
      ],
      "CVSSScoreSets": {}
    }
  ]
}