{
  "Title": "audacity-3.0.4-1.2 on GA media",
  "Tracking": {
    "ID": "openSUSE-SU-2024:10639-1",
    "Status": "Final",
    "Version": "1",
    "InitialReleaseDate": "2024-06-22T21:44:56Z",
    "CurrentReleaseDate": "2024-06-22T21:44:56Z",
    "RevisionHistory": [
      {
        "Number": "1",
        "Date": "2024-06-22T21:44:56Z",
        "Description": "current"
      }
    ]
  },
  "Notes": [
    {
      "Text": "audacity-3.0.4-1.2 on GA media",
      "Title": "Topic",
      "Type": "Summary"
    },
    {
      "Text": "These are all security issues fixed in the audacity-3.0.4-1.2 package on the GA media of openSUSE Tumbleweed.",
      "Title": "Details",
      "Type": "General"
    },
    {
      "Text": "The CVRF data is provided by SUSE under the Creative Commons License 4.0 with Attribution (CC-BY-4.0).",
      "Title": "Terms of Use",
      "Type": "Legal Disclaimer"
    },
    {
      "Text": "openSUSE-Tumbleweed-2024-10639",
      "Title": "Patchnames",
      "Type": "Details"
    }
  ],
  "ProductTree": {
    "Relationships": [
      {
        "ProductReference": "audacity-3.0.4-1.2",
        "RelatesToProductReference": "openSUSE Tumbleweed",
        "RelationType": "Default Component Of"
      },
      {
        "ProductReference": "audacity-lang-3.0.4-1.2",
        "RelatesToProductReference": "openSUSE Tumbleweed",
        "RelationType": "Default Component Of"
      }
    ]
  },
  "References": [
    {
      "URL": "https://www.suse.com/support/security/rating/",
      "Description": "SUSE Security Ratings"
    },
    {
      "URL": "https://www.suse.com/security/cve/CVE-2007-6061/",
      "Description": "SUSE CVE CVE-2007-6061 page"
    }
  ],
  "Vulnerabilities": [
    {
      "CVE": "CVE-2007-6061",
      "Description": "Audacity 1.3.2 creates a temporary directory with a predictable name without checking for previous existence of that directory, which allows local users to cause a denial of service (recording deadlock) by creating the directory before Audacity is run.  NOTE: this issue can be leveraged to delete arbitrary files or directories via a symlink attack.",
      "Threats": [
        {
          "Type": "Impact",
          "Severity": "moderate"
        }
      ],
      "References": [
        {
          "URL": "https://www.suse.com/security/cve/CVE-2007-6061.html",
          "Description": "CVE-2007-6061"
        },
        {
          "URL": "https://bugzilla.suse.com/344588",
          "Description": "SUSE Bug 344588"
        }
      ],
      "ProductStatuses": [
        {
          "Type": "Fixed",
          "ProductID": [
            "openSUSE Tumbleweed:audacity-3.0.4-1.2",
            "openSUSE Tumbleweed:audacity-lang-3.0.4-1.2"
          ]
        }
      ],
      "CVSSScoreSets": {}
    }
  ]
}