{
  "Title": "grafana-8.5.10-1.1 on GA media",
  "Tracking": {
    "ID": "openSUSE-SU-2024:12282-1",
    "Status": "Final",
    "Version": "1",
    "InitialReleaseDate": "2024-06-20T21:44:22Z",
    "CurrentReleaseDate": "2024-06-20T21:44:22Z",
    "RevisionHistory": [
      {
        "Number": "1",
        "Date": "2024-06-20T21:44:22Z",
        "Description": "current"
      }
    ]
  },
  "Notes": [
    {
      "Text": "grafana-8.5.10-1.1 on GA media",
      "Title": "Topic",
      "Type": "Summary"
    },
    {
      "Text": "These are all security issues fixed in the grafana-8.5.10-1.1 package on the GA media of openSUSE Tumbleweed.",
      "Title": "Details",
      "Type": "General"
    },
    {
      "Text": "The CVRF data is provided by SUSE under the Creative Commons License 4.0 with Attribution (CC-BY-4.0).",
      "Title": "Terms of Use",
      "Type": "Legal Disclaimer"
    },
    {
      "Text": "openSUSE-Tumbleweed-2024-12282",
      "Title": "Patchnames",
      "Type": "Details"
    }
  ],
  "ProductTree": {
    "Relationships": [
      {
        "ProductReference": "grafana-8.5.10-1.1",
        "RelatesToProductReference": "openSUSE Tumbleweed",
        "RelationType": "Default Component Of"
      }
    ]
  },
  "References": [
    {
      "URL": "https://www.suse.com/support/security/rating/",
      "Description": "SUSE Security Ratings"
    },
    {
      "URL": "https://www.suse.com/security/cve/CVE-2022-24812/",
      "Description": "SUSE CVE CVE-2022-24812 page"
    },
    {
      "URL": "https://www.suse.com/security/cve/CVE-2022-29170/",
      "Description": "SUSE CVE CVE-2022-29170 page"
    }
  ],
  "Vulnerabilities": [
    {
      "CVE": "CVE-2022-24812",
      "Description": "Grafana is an open-source platform for monitoring and observability. When fine-grained access control is enabled and a client uses Grafana API Key to make requests, the permissions for that API Key are cached for 30 seconds for the given organization. Because of the way the cache ID is constructed, the consequent requests with any API Key evaluate to the same permissions as the previous requests. This can lead to an escalation of privileges, when for example a first request is made with Admin permissions, and the second request with different API Key is made with Viewer permissions, the second request will get the cached permissions from the previous Admin, essentially accessing higher privilege than it should. The vulnerability is only impacting Grafana Enterprise when the fine-grained access control beta feature is enabled and there are more than one API Keys in one organization with different roles assigned. All installations after Grafana Enterprise v8.1.0-beta1 should be upgraded as soon as possible. As an alternative, disable fine-grained access control will mitigate the vulnerability.",
      "Threats": [
        {
          "Type": "Impact",
          "Severity": "moderate"
        }
      ],
      "References": [
        {
          "URL": "https://www.suse.com/security/cve/CVE-2022-24812.html",
          "Description": "CVE-2022-24812"
        },
        {
          "URL": "https://bugzilla.suse.com/1198454",
          "Description": "SUSE Bug 1198454"
        }
      ],
      "ProductStatuses": [
        {
          "Type": "Fixed",
          "ProductID": [
            "openSUSE Tumbleweed:grafana-8.5.10-1.1"
          ]
        }
      ],
      "CVSSScoreSets": {}
    },
    {
      "CVE": "CVE-2022-29170",
      "Description": "Grafana is an open-source platform for monitoring and observability. In Grafana Enterprise, the Request security feature allows list allows to configure Grafana in a way so that the instance doesn't call or only calls specific hosts. The vulnerability present starting with version 7.4.0-beta1 and prior to versions 7.5.16 and 8.5.3 allows someone to bypass these security configurations if a malicious datasource (running on an allowed host) returns an HTTP redirect to a forbidden host. The vulnerability only impacts Grafana Enterprise when the Request security allow list is used and there is a possibility to add a custom datasource to Grafana which returns HTTP redirects. In this scenario, Grafana would blindly follow the redirects and potentially give secure information to the clients. Grafana Cloud is not impacted by this vulnerability. Versions 7.5.16 and 8.5.3 contain a patch for this issue. There are currently no known workarounds.",
      "Threats": [
        {
          "Type": "Impact",
          "Severity": "moderate"
        }
      ],
      "References": [
        {
          "URL": "https://www.suse.com/security/cve/CVE-2022-29170.html",
          "Description": "CVE-2022-29170"
        },
        {
          "URL": "https://bugzilla.suse.com/1199810",
          "Description": "SUSE Bug 1199810"
        }
      ],
      "ProductStatuses": [
        {
          "Type": "Fixed",
          "ProductID": [
            "openSUSE Tumbleweed:grafana-8.5.10-1.1"
          ]
        }
      ],
      "CVSSScoreSets": {}
    }
  ]
}