{
  "Title": "neomutt-20210205-3.3 on GA media",
  "Tracking": {
    "ID": "openSUSE-SU-2024:11079-1",
    "Status": "Final",
    "Version": "1",
    "InitialReleaseDate": "2024-06-22T21:44:56Z",
    "CurrentReleaseDate": "2024-06-22T21:44:56Z",
    "RevisionHistory": [
      {
        "Number": "1",
        "Date": "2024-06-22T21:44:56Z",
        "Description": "current"
      }
    ]
  },
  "Notes": [
    {
      "Text": "neomutt-20210205-3.3 on GA media",
      "Title": "Topic",
      "Type": "Summary"
    },
    {
      "Text": "These are all security issues fixed in the neomutt-20210205-3.3 package on the GA media of openSUSE Tumbleweed.",
      "Title": "Details",
      "Type": "General"
    },
    {
      "Text": "The CVRF data is provided by SUSE under the Creative Commons License 4.0 with Attribution (CC-BY-4.0).",
      "Title": "Terms of Use",
      "Type": "Legal Disclaimer"
    },
    {
      "Text": "openSUSE-Tumbleweed-2024-11079",
      "Title": "Patchnames",
      "Type": "Details"
    }
  ],
  "ProductTree": {
    "Relationships": [
      {
        "ProductReference": "neomutt-20210205-3.3",
        "RelatesToProductReference": "openSUSE Tumbleweed",
        "RelationType": "Default Component Of"
      },
      {
        "ProductReference": "neomutt-doc-20210205-3.3",
        "RelatesToProductReference": "openSUSE Tumbleweed",
        "RelationType": "Default Component Of"
      },
      {
        "ProductReference": "neomutt-lang-20210205-3.3",
        "RelatesToProductReference": "openSUSE Tumbleweed",
        "RelationType": "Default Component Of"
      }
    ]
  },
  "References": [
    {
      "URL": "https://www.suse.com/support/security/rating/",
      "Description": "SUSE Security Ratings"
    },
    {
      "URL": "https://www.suse.com/security/cve/CVE-2018-14349/",
      "Description": "SUSE CVE CVE-2018-14349 page"
    },
    {
      "URL": "https://www.suse.com/security/cve/CVE-2018-14350/",
      "Description": "SUSE CVE CVE-2018-14350 page"
    },
    {
      "URL": "https://www.suse.com/security/cve/CVE-2018-14351/",
      "Description": "SUSE CVE CVE-2018-14351 page"
    },
    {
      "URL": "https://www.suse.com/security/cve/CVE-2018-14352/",
      "Description": "SUSE CVE CVE-2018-14352 page"
    },
    {
      "URL": "https://www.suse.com/security/cve/CVE-2018-14353/",
      "Description": "SUSE CVE CVE-2018-14353 page"
    },
    {
      "URL": "https://www.suse.com/security/cve/CVE-2018-14354/",
      "Description": "SUSE CVE CVE-2018-14354 page"
    },
    {
      "URL": "https://www.suse.com/security/cve/CVE-2018-14355/",
      "Description": "SUSE CVE CVE-2018-14355 page"
    },
    {
      "URL": "https://www.suse.com/security/cve/CVE-2018-14356/",
      "Description": "SUSE CVE CVE-2018-14356 page"
    },
    {
      "URL": "https://www.suse.com/security/cve/CVE-2018-14357/",
      "Description": "SUSE CVE CVE-2018-14357 page"
    },
    {
      "URL": "https://www.suse.com/security/cve/CVE-2018-14358/",
      "Description": "SUSE CVE CVE-2018-14358 page"
    },
    {
      "URL": "https://www.suse.com/security/cve/CVE-2018-14359/",
      "Description": "SUSE CVE CVE-2018-14359 page"
    },
    {
      "URL": "https://www.suse.com/security/cve/CVE-2018-14360/",
      "Description": "SUSE CVE CVE-2018-14360 page"
    },
    {
      "URL": "https://www.suse.com/security/cve/CVE-2018-14361/",
      "Description": "SUSE CVE CVE-2018-14361 page"
    },
    {
      "URL": "https://www.suse.com/security/cve/CVE-2018-14362/",
      "Description": "SUSE CVE CVE-2018-14362 page"
    },
    {
      "URL": "https://www.suse.com/security/cve/CVE-2018-14363/",
      "Description": "SUSE CVE CVE-2018-14363 page"
    },
    {
      "URL": "https://www.suse.com/security/cve/CVE-2020-14093/",
      "Description": "SUSE CVE CVE-2020-14093 page"
    },
    {
      "URL": "https://www.suse.com/security/cve/CVE-2020-14154/",
      "Description": "SUSE CVE CVE-2020-14154 page"
    },
    {
      "URL": "https://www.suse.com/security/cve/CVE-2020-14954/",
      "Description": "SUSE CVE CVE-2020-14954 page"
    },
    {
      "URL": "https://www.suse.com/security/cve/CVE-2020-28896/",
      "Description": "SUSE CVE CVE-2020-28896 page"
    }
  ],
  "Vulnerabilities": [
    {
      "CVE": "CVE-2018-14349",
      "Description": "An issue was discovered in Mutt before 1.10.1 and NeoMutt before 2018-07-16. imap/command.c mishandles a NO response without a message.",
      "Threats": [
        {
          "Type": "Impact",
          "Severity": "moderate"
        }
      ],
      "References": [
        {
          "URL": "https://www.suse.com/security/cve/CVE-2018-14349.html",
          "Description": "CVE-2018-14349"
        },
        {
          "URL": "https://bugzilla.suse.com/1101428",
          "Description": "SUSE Bug 1101428"
        },
        {
          "URL": "https://bugzilla.suse.com/1101589",
          "Description": "SUSE Bug 1101589"
        },
        {
          "URL": "https://bugzilla.suse.com/1101593",
          "Description": "SUSE Bug 1101593"
        }
      ],
      "ProductStatuses": [
        {
          "Type": "Fixed",
          "ProductID": [
            "openSUSE Tumbleweed:neomutt-20210205-3.3",
            "openSUSE Tumbleweed:neomutt-doc-20210205-3.3",
            "openSUSE Tumbleweed:neomutt-lang-20210205-3.3"
          ]
        }
      ],
      "CVSSScoreSets": {}
    },
    {
      "CVE": "CVE-2018-14350",
      "Description": "An issue was discovered in Mutt before 1.10.1 and NeoMutt before 2018-07-16. imap/message.c has a stack-based buffer overflow for a FETCH response with a long INTERNALDATE field.",
      "Threats": [
        {
          "Type": "Impact",
          "Severity": "moderate"
        }
      ],
      "References": [
        {
          "URL": "https://www.suse.com/security/cve/CVE-2018-14350.html",
          "Description": "CVE-2018-14350"
        },
        {
          "URL": "https://bugzilla.suse.com/1101428",
          "Description": "SUSE Bug 1101428"
        },
        {
          "URL": "https://bugzilla.suse.com/1101588",
          "Description": "SUSE Bug 1101588"
        },
        {
          "URL": "https://bugzilla.suse.com/1101593",
          "Description": "SUSE Bug 1101593"
        }
      ],
      "ProductStatuses": [
        {
          "Type": "Fixed",
          "ProductID": [
            "openSUSE Tumbleweed:neomutt-20210205-3.3",
            "openSUSE Tumbleweed:neomutt-doc-20210205-3.3",
            "openSUSE Tumbleweed:neomutt-lang-20210205-3.3"
          ]
        }
      ],
      "CVSSScoreSets": {}
    },
    {
      "CVE": "CVE-2018-14351",
      "Description": "An issue was discovered in Mutt before 1.10.1 and NeoMutt before 2018-07-16. imap/command.c mishandles a long IMAP status mailbox literal count size.",
      "Threats": [
        {
          "Type": "Impact",
          "Severity": "important"
        }
      ],
      "References": [
        {
          "URL": "https://www.suse.com/security/cve/CVE-2018-14351.html",
          "Description": "CVE-2018-14351"
        },
        {
          "URL": "https://bugzilla.suse.com/1101428",
          "Description": "SUSE Bug 1101428"
        },
        {
          "URL": "https://bugzilla.suse.com/1101583",
          "Description": "SUSE Bug 1101583"
        },
        {
          "URL": "https://bugzilla.suse.com/1101593",
          "Description": "SUSE Bug 1101593"
        }
      ],
      "ProductStatuses": [
        {
          "Type": "Fixed",
          "ProductID": [
            "openSUSE Tumbleweed:neomutt-20210205-3.3",
            "openSUSE Tumbleweed:neomutt-doc-20210205-3.3",
            "openSUSE Tumbleweed:neomutt-lang-20210205-3.3"
          ]
        }
      ],
      "CVSSScoreSets": {}
    },
    {
      "CVE": "CVE-2018-14352",
      "Description": "An issue was discovered in Mutt before 1.10.1 and NeoMutt before 2018-07-16. imap_quote_string in imap/util.c does not leave room for quote characters, leading to a stack-based buffer overflow.",
      "Threats": [
        {
          "Type": "Impact",
          "Severity": "moderate"
        }
      ],
      "References": [
        {
          "URL": "https://www.suse.com/security/cve/CVE-2018-14352.html",
          "Description": "CVE-2018-14352"
        },
        {
          "URL": "https://bugzilla.suse.com/1101428",
          "Description": "SUSE Bug 1101428"
        },
        {
          "URL": "https://bugzilla.suse.com/1101582",
          "Description": "SUSE Bug 1101582"
        },
        {
          "URL": "https://bugzilla.suse.com/1101593",
          "Description": "SUSE Bug 1101593"
        }
      ],
      "ProductStatuses": [
        {
          "Type": "Fixed",
          "ProductID": [
            "openSUSE Tumbleweed:neomutt-20210205-3.3",
            "openSUSE Tumbleweed:neomutt-doc-20210205-3.3",
            "openSUSE Tumbleweed:neomutt-lang-20210205-3.3"
          ]
        }
      ],
      "CVSSScoreSets": {}
    },
    {
      "CVE": "CVE-2018-14353",
      "Description": "An issue was discovered in Mutt before 1.10.1 and NeoMutt before 2018-07-16. imap_quote_string in imap/util.c has an integer underflow.",
      "Threats": [
        {
          "Type": "Impact",
          "Severity": "moderate"
        }
      ],
      "References": [
        {
          "URL": "https://www.suse.com/security/cve/CVE-2018-14353.html",
          "Description": "CVE-2018-14353"
        },
        {
          "URL": "https://bugzilla.suse.com/1101428",
          "Description": "SUSE Bug 1101428"
        },
        {
          "URL": "https://bugzilla.suse.com/1101581",
          "Description": "SUSE Bug 1101581"
        },
        {
          "URL": "https://bugzilla.suse.com/1101593",
          "Description": "SUSE Bug 1101593"
        }
      ],
      "ProductStatuses": [
        {
          "Type": "Fixed",
          "ProductID": [
            "openSUSE Tumbleweed:neomutt-20210205-3.3",
            "openSUSE Tumbleweed:neomutt-doc-20210205-3.3",
            "openSUSE Tumbleweed:neomutt-lang-20210205-3.3"
          ]
        }
      ],
      "CVSSScoreSets": {}
    },
    {
      "CVE": "CVE-2018-14354",
      "Description": "An issue was discovered in Mutt before 1.10.1 and NeoMutt before 2018-07-16. They allow remote IMAP servers to execute arbitrary commands via backquote characters, related to the mailboxes command associated with a manual subscription or unsubscription.",
      "Threats": [
        {
          "Type": "Impact",
          "Severity": "critical"
        }
      ],
      "References": [
        {
          "URL": "https://www.suse.com/security/cve/CVE-2018-14354.html",
          "Description": "CVE-2018-14354"
        },
        {
          "URL": "https://bugzilla.suse.com/1101428",
          "Description": "SUSE Bug 1101428"
        },
        {
          "URL": "https://bugzilla.suse.com/1101578",
          "Description": "SUSE Bug 1101578"
        },
        {
          "URL": "https://bugzilla.suse.com/1101581",
          "Description": "SUSE Bug 1101581"
        },
        {
          "URL": "https://bugzilla.suse.com/1101589",
          "Description": "SUSE Bug 1101589"
        },
        {
          "URL": "https://bugzilla.suse.com/1101593",
          "Description": "SUSE Bug 1101593"
        }
      ],
      "ProductStatuses": [
        {
          "Type": "Fixed",
          "ProductID": [
            "openSUSE Tumbleweed:neomutt-20210205-3.3",
            "openSUSE Tumbleweed:neomutt-doc-20210205-3.3",
            "openSUSE Tumbleweed:neomutt-lang-20210205-3.3"
          ]
        }
      ],
      "CVSSScoreSets": {}
    },
    {
      "CVE": "CVE-2018-14355",
      "Description": "An issue was discovered in Mutt before 1.10.1 and NeoMutt before 2018-07-16. imap/util.c mishandles \"..\" directory traversal in a mailbox name.",
      "Threats": [
        {
          "Type": "Impact",
          "Severity": "moderate"
        }
      ],
      "References": [
        {
          "URL": "https://www.suse.com/security/cve/CVE-2018-14355.html",
          "Description": "CVE-2018-14355"
        },
        {
          "URL": "https://bugzilla.suse.com/1101428",
          "Description": "SUSE Bug 1101428"
        },
        {
          "URL": "https://bugzilla.suse.com/1101577",
          "Description": "SUSE Bug 1101577"
        },
        {
          "URL": "https://bugzilla.suse.com/1101593",
          "Description": "SUSE Bug 1101593"
        }
      ],
      "ProductStatuses": [
        {
          "Type": "Fixed",
          "ProductID": [
            "openSUSE Tumbleweed:neomutt-20210205-3.3",
            "openSUSE Tumbleweed:neomutt-doc-20210205-3.3",
            "openSUSE Tumbleweed:neomutt-lang-20210205-3.3"
          ]
        }
      ],
      "CVSSScoreSets": {}
    },
    {
      "CVE": "CVE-2018-14356",
      "Description": "An issue was discovered in Mutt before 1.10.1 and NeoMutt before 2018-07-16. pop.c mishandles a zero-length UID.",
      "Threats": [
        {
          "Type": "Impact",
          "Severity": "moderate"
        }
      ],
      "References": [
        {
          "URL": "https://www.suse.com/security/cve/CVE-2018-14356.html",
          "Description": "CVE-2018-14356"
        },
        {
          "URL": "https://bugzilla.suse.com/1101428",
          "Description": "SUSE Bug 1101428"
        },
        {
          "URL": "https://bugzilla.suse.com/1101576",
          "Description": "SUSE Bug 1101576"
        },
        {
          "URL": "https://bugzilla.suse.com/1101589",
          "Description": "SUSE Bug 1101589"
        },
        {
          "URL": "https://bugzilla.suse.com/1101593",
          "Description": "SUSE Bug 1101593"
        }
      ],
      "ProductStatuses": [
        {
          "Type": "Fixed",
          "ProductID": [
            "openSUSE Tumbleweed:neomutt-20210205-3.3",
            "openSUSE Tumbleweed:neomutt-doc-20210205-3.3",
            "openSUSE Tumbleweed:neomutt-lang-20210205-3.3"
          ]
        }
      ],
      "CVSSScoreSets": {}
    },
    {
      "CVE": "CVE-2018-14357",
      "Description": "An issue was discovered in Mutt before 1.10.1 and NeoMutt before 2018-07-16. They allow remote IMAP servers to execute arbitrary commands via backquote characters, related to the mailboxes command associated with an automatic subscription.",
      "Threats": [
        {
          "Type": "Impact",
          "Severity": "important"
        }
      ],
      "References": [
        {
          "URL": "https://www.suse.com/security/cve/CVE-2018-14357.html",
          "Description": "CVE-2018-14357"
        },
        {
          "URL": "https://bugzilla.suse.com/1101428",
          "Description": "SUSE Bug 1101428"
        },
        {
          "URL": "https://bugzilla.suse.com/1101573",
          "Description": "SUSE Bug 1101573"
        },
        {
          "URL": "https://bugzilla.suse.com/1101581",
          "Description": "SUSE Bug 1101581"
        },
        {
          "URL": "https://bugzilla.suse.com/1101589",
          "Description": "SUSE Bug 1101589"
        },
        {
          "URL": "https://bugzilla.suse.com/1101593",
          "Description": "SUSE Bug 1101593"
        }
      ],
      "ProductStatuses": [
        {
          "Type": "Fixed",
          "ProductID": [
            "openSUSE Tumbleweed:neomutt-20210205-3.3",
            "openSUSE Tumbleweed:neomutt-doc-20210205-3.3",
            "openSUSE Tumbleweed:neomutt-lang-20210205-3.3"
          ]
        }
      ],
      "CVSSScoreSets": {}
    },
    {
      "CVE": "CVE-2018-14358",
      "Description": "An issue was discovered in Mutt before 1.10.1 and NeoMutt before 2018-07-16. imap/message.c has a stack-based buffer overflow for a FETCH response with a long RFC822.SIZE field.",
      "Threats": [
        {
          "Type": "Impact",
          "Severity": "moderate"
        }
      ],
      "References": [
        {
          "URL": "https://www.suse.com/security/cve/CVE-2018-14358.html",
          "Description": "CVE-2018-14358"
        },
        {
          "URL": "https://bugzilla.suse.com/1101428",
          "Description": "SUSE Bug 1101428"
        },
        {
          "URL": "https://bugzilla.suse.com/1101571",
          "Description": "SUSE Bug 1101571"
        },
        {
          "URL": "https://bugzilla.suse.com/1101593",
          "Description": "SUSE Bug 1101593"
        }
      ],
      "ProductStatuses": [
        {
          "Type": "Fixed",
          "ProductID": [
            "openSUSE Tumbleweed:neomutt-20210205-3.3",
            "openSUSE Tumbleweed:neomutt-doc-20210205-3.3",
            "openSUSE Tumbleweed:neomutt-lang-20210205-3.3"
          ]
        }
      ],
      "CVSSScoreSets": {}
    },
    {
      "CVE": "CVE-2018-14359",
      "Description": "An issue was discovered in Mutt before 1.10.1 and NeoMutt before 2018-07-16. They have a buffer overflow via base64 data.",
      "Threats": [
        {
          "Type": "Impact",
          "Severity": "moderate"
        }
      ],
      "References": [
        {
          "URL": "https://www.suse.com/security/cve/CVE-2018-14359.html",
          "Description": "CVE-2018-14359"
        },
        {
          "URL": "https://bugzilla.suse.com/1101428",
          "Description": "SUSE Bug 1101428"
        },
        {
          "URL": "https://bugzilla.suse.com/1101570",
          "Description": "SUSE Bug 1101570"
        },
        {
          "URL": "https://bugzilla.suse.com/1101589",
          "Description": "SUSE Bug 1101589"
        },
        {
          "URL": "https://bugzilla.suse.com/1101593",
          "Description": "SUSE Bug 1101593"
        }
      ],
      "ProductStatuses": [
        {
          "Type": "Fixed",
          "ProductID": [
            "openSUSE Tumbleweed:neomutt-20210205-3.3",
            "openSUSE Tumbleweed:neomutt-doc-20210205-3.3",
            "openSUSE Tumbleweed:neomutt-lang-20210205-3.3"
          ]
        }
      ],
      "CVSSScoreSets": {}
    },
    {
      "CVE": "CVE-2018-14360",
      "Description": "An issue was discovered in NeoMutt before 2018-07-16. nntp_add_group in newsrc.c has a stack-based buffer overflow because of incorrect sscanf usage.",
      "Threats": [
        {
          "Type": "Impact",
          "Severity": "important"
        }
      ],
      "References": [
        {
          "URL": "https://www.suse.com/security/cve/CVE-2018-14360.html",
          "Description": "CVE-2018-14360"
        },
        {
          "URL": "https://bugzilla.suse.com/1101428",
          "Description": "SUSE Bug 1101428"
        },
        {
          "URL": "https://bugzilla.suse.com/1101569",
          "Description": "SUSE Bug 1101569"
        },
        {
          "URL": "https://bugzilla.suse.com/1101593",
          "Description": "SUSE Bug 1101593"
        }
      ],
      "ProductStatuses": [
        {
          "Type": "Fixed",
          "ProductID": [
            "openSUSE Tumbleweed:neomutt-20210205-3.3",
            "openSUSE Tumbleweed:neomutt-doc-20210205-3.3",
            "openSUSE Tumbleweed:neomutt-lang-20210205-3.3"
          ]
        }
      ],
      "CVSSScoreSets": {}
    },
    {
      "CVE": "CVE-2018-14361",
      "Description": "An issue was discovered in NeoMutt before 2018-07-16. nntp.c proceeds even if memory allocation fails for messages data.",
      "Threats": [
        {
          "Type": "Impact",
          "Severity": "important"
        }
      ],
      "References": [
        {
          "URL": "https://www.suse.com/security/cve/CVE-2018-14361.html",
          "Description": "CVE-2018-14361"
        },
        {
          "URL": "https://bugzilla.suse.com/1101428",
          "Description": "SUSE Bug 1101428"
        },
        {
          "URL": "https://bugzilla.suse.com/1101568",
          "Description": "SUSE Bug 1101568"
        },
        {
          "URL": "https://bugzilla.suse.com/1101593",
          "Description": "SUSE Bug 1101593"
        }
      ],
      "ProductStatuses": [
        {
          "Type": "Fixed",
          "ProductID": [
            "openSUSE Tumbleweed:neomutt-20210205-3.3",
            "openSUSE Tumbleweed:neomutt-doc-20210205-3.3",
            "openSUSE Tumbleweed:neomutt-lang-20210205-3.3"
          ]
        }
      ],
      "CVSSScoreSets": {}
    },
    {
      "CVE": "CVE-2018-14362",
      "Description": "An issue was discovered in Mutt before 1.10.1 and NeoMutt before 2018-07-16. pop.c does not forbid characters that may have unsafe interaction with message-cache pathnames, as demonstrated by a '/' character.",
      "Threats": [
        {
          "Type": "Impact",
          "Severity": "moderate"
        }
      ],
      "References": [
        {
          "URL": "https://www.suse.com/security/cve/CVE-2018-14362.html",
          "Description": "CVE-2018-14362"
        },
        {
          "URL": "https://bugzilla.suse.com/1101428",
          "Description": "SUSE Bug 1101428"
        },
        {
          "URL": "https://bugzilla.suse.com/1101567",
          "Description": "SUSE Bug 1101567"
        },
        {
          "URL": "https://bugzilla.suse.com/1101589",
          "Description": "SUSE Bug 1101589"
        },
        {
          "URL": "https://bugzilla.suse.com/1101593",
          "Description": "SUSE Bug 1101593"
        }
      ],
      "ProductStatuses": [
        {
          "Type": "Fixed",
          "ProductID": [
            "openSUSE Tumbleweed:neomutt-20210205-3.3",
            "openSUSE Tumbleweed:neomutt-doc-20210205-3.3",
            "openSUSE Tumbleweed:neomutt-lang-20210205-3.3"
          ]
        }
      ],
      "CVSSScoreSets": {}
    },
    {
      "CVE": "CVE-2018-14363",
      "Description": "An issue was discovered in NeoMutt before 2018-07-16. newsrc.c does not properly restrict '/' characters that may have unsafe interaction with cache pathnames.",
      "Threats": [
        {
          "Type": "Impact",
          "Severity": "moderate"
        }
      ],
      "References": [
        {
          "URL": "https://www.suse.com/security/cve/CVE-2018-14363.html",
          "Description": "CVE-2018-14363"
        },
        {
          "URL": "https://bugzilla.suse.com/1101428",
          "Description": "SUSE Bug 1101428"
        },
        {
          "URL": "https://bugzilla.suse.com/1101566",
          "Description": "SUSE Bug 1101566"
        },
        {
          "URL": "https://bugzilla.suse.com/1101593",
          "Description": "SUSE Bug 1101593"
        }
      ],
      "ProductStatuses": [
        {
          "Type": "Fixed",
          "ProductID": [
            "openSUSE Tumbleweed:neomutt-20210205-3.3",
            "openSUSE Tumbleweed:neomutt-doc-20210205-3.3",
            "openSUSE Tumbleweed:neomutt-lang-20210205-3.3"
          ]
        }
      ],
      "CVSSScoreSets": {}
    },
    {
      "CVE": "CVE-2020-14093",
      "Description": "Mutt before 1.14.3 allows an IMAP fcc/postpone man-in-the-middle attack via a PREAUTH response.",
      "Threats": [
        {
          "Type": "Impact",
          "Severity": "important"
        }
      ],
      "References": [
        {
          "URL": "https://www.suse.com/security/cve/CVE-2020-14093.html",
          "Description": "CVE-2020-14093"
        },
        {
          "URL": "https://bugzilla.suse.com/1172906",
          "Description": "SUSE Bug 1172906"
        },
        {
          "URL": "https://bugzilla.suse.com/1172935",
          "Description": "SUSE Bug 1172935"
        }
      ],
      "ProductStatuses": [
        {
          "Type": "Fixed",
          "ProductID": [
            "openSUSE Tumbleweed:neomutt-20210205-3.3",
            "openSUSE Tumbleweed:neomutt-doc-20210205-3.3",
            "openSUSE Tumbleweed:neomutt-lang-20210205-3.3"
          ]
        }
      ],
      "CVSSScoreSets": {}
    },
    {
      "CVE": "CVE-2020-14154",
      "Description": "Mutt before 1.14.3 proceeds with a connection even if, in response to a GnuTLS certificate prompt, the user rejects an expired intermediate certificate.",
      "Threats": [
        {
          "Type": "Impact",
          "Severity": "important"
        }
      ],
      "References": [
        {
          "URL": "https://www.suse.com/security/cve/CVE-2020-14154.html",
          "Description": "CVE-2020-14154"
        },
        {
          "URL": "https://bugzilla.suse.com/1172906",
          "Description": "SUSE Bug 1172906"
        },
        {
          "URL": "https://bugzilla.suse.com/1172935",
          "Description": "SUSE Bug 1172935"
        }
      ],
      "ProductStatuses": [
        {
          "Type": "Fixed",
          "ProductID": [
            "openSUSE Tumbleweed:neomutt-20210205-3.3",
            "openSUSE Tumbleweed:neomutt-doc-20210205-3.3",
            "openSUSE Tumbleweed:neomutt-lang-20210205-3.3"
          ]
        }
      ],
      "CVSSScoreSets": {}
    },
    {
      "CVE": "CVE-2020-14954",
      "Description": "Mutt before 1.14.4 and NeoMutt before 2020-06-19 have a STARTTLS buffering issue that affects IMAP, SMTP, and POP3. When a server sends a \"begin TLS\" response, the client reads additional data (e.g., from a man-in-the-middle attacker) and evaluates it in a TLS context, aka \"response injection.\"",
      "Threats": [
        {
          "Type": "Impact",
          "Severity": "important"
        }
      ],
      "References": [
        {
          "URL": "https://www.suse.com/security/cve/CVE-2020-14954.html",
          "Description": "CVE-2020-14954"
        },
        {
          "URL": "https://bugzilla.suse.com/1173197",
          "Description": "SUSE Bug 1173197"
        }
      ],
      "ProductStatuses": [
        {
          "Type": "Fixed",
          "ProductID": [
            "openSUSE Tumbleweed:neomutt-20210205-3.3",
            "openSUSE Tumbleweed:neomutt-doc-20210205-3.3",
            "openSUSE Tumbleweed:neomutt-lang-20210205-3.3"
          ]
        }
      ],
      "CVSSScoreSets": {}
    },
    {
      "CVE": "CVE-2020-28896",
      "Description": "Mutt before 2.0.2 and NeoMutt before 2020-11-20 did not ensure that $ssl_force_tls was processed if an IMAP server's initial server response was invalid. The connection was not properly closed, and the code could continue attempting to authenticate. This could result in authentication credentials being exposed on an unencrypted connection, or to a machine-in-the-middle.",
      "Threats": [
        {
          "Type": "Impact",
          "Severity": "moderate"
        }
      ],
      "References": [
        {
          "URL": "https://www.suse.com/security/cve/CVE-2020-28896.html",
          "Description": "CVE-2020-28896"
        },
        {
          "URL": "https://bugzilla.suse.com/1179035",
          "Description": "SUSE Bug 1179035"
        }
      ],
      "ProductStatuses": [
        {
          "Type": "Fixed",
          "ProductID": [
            "openSUSE Tumbleweed:neomutt-20210205-3.3",
            "openSUSE Tumbleweed:neomutt-doc-20210205-3.3",
            "openSUSE Tumbleweed:neomutt-lang-20210205-3.3"
          ]
        }
      ],
      "CVSSScoreSets": {}
    }
  ]
}