{
  "Title": "postgresql13-13.10-1.1 on GA media",
  "Tracking": {
    "ID": "openSUSE-SU-2024:12678-1",
    "Status": "Final",
    "Version": "1",
    "InitialReleaseDate": "2024-06-20T21:44:22Z",
    "CurrentReleaseDate": "2024-06-20T21:44:22Z",
    "RevisionHistory": [
      {
        "Number": "1",
        "Date": "2024-06-20T21:44:22Z",
        "Description": "current"
      }
    ]
  },
  "Notes": [
    {
      "Text": "postgresql13-13.10-1.1 on GA media",
      "Title": "Topic",
      "Type": "Summary"
    },
    {
      "Text": "These are all security issues fixed in the postgresql13-13.10-1.1 package on the GA media of openSUSE Tumbleweed.",
      "Title": "Details",
      "Type": "General"
    },
    {
      "Text": "The CVRF data is provided by SUSE under the Creative Commons License 4.0 with Attribution (CC-BY-4.0).",
      "Title": "Terms of Use",
      "Type": "Legal Disclaimer"
    },
    {
      "Text": "openSUSE-Tumbleweed-2024-12678",
      "Title": "Patchnames",
      "Type": "Details"
    }
  ],
  "ProductTree": {
    "Relationships": [
      {
        "ProductReference": "postgresql13-13.10-1.1",
        "RelatesToProductReference": "openSUSE Tumbleweed",
        "RelationType": "Default Component Of"
      },
      {
        "ProductReference": "postgresql13-contrib-13.10-1.1",
        "RelatesToProductReference": "openSUSE Tumbleweed",
        "RelationType": "Default Component Of"
      },
      {
        "ProductReference": "postgresql13-devel-13.10-1.1",
        "RelatesToProductReference": "openSUSE Tumbleweed",
        "RelationType": "Default Component Of"
      },
      {
        "ProductReference": "postgresql13-docs-13.10-1.1",
        "RelatesToProductReference": "openSUSE Tumbleweed",
        "RelationType": "Default Component Of"
      },
      {
        "ProductReference": "postgresql13-llvmjit-13.10-1.1",
        "RelatesToProductReference": "openSUSE Tumbleweed",
        "RelationType": "Default Component Of"
      },
      {
        "ProductReference": "postgresql13-llvmjit-devel-13.10-1.1",
        "RelatesToProductReference": "openSUSE Tumbleweed",
        "RelationType": "Default Component Of"
      },
      {
        "ProductReference": "postgresql13-plperl-13.10-1.1",
        "RelatesToProductReference": "openSUSE Tumbleweed",
        "RelationType": "Default Component Of"
      },
      {
        "ProductReference": "postgresql13-plpython-13.10-1.1",
        "RelatesToProductReference": "openSUSE Tumbleweed",
        "RelationType": "Default Component Of"
      },
      {
        "ProductReference": "postgresql13-pltcl-13.10-1.1",
        "RelatesToProductReference": "openSUSE Tumbleweed",
        "RelationType": "Default Component Of"
      },
      {
        "ProductReference": "postgresql13-server-13.10-1.1",
        "RelatesToProductReference": "openSUSE Tumbleweed",
        "RelationType": "Default Component Of"
      },
      {
        "ProductReference": "postgresql13-server-devel-13.10-1.1",
        "RelatesToProductReference": "openSUSE Tumbleweed",
        "RelationType": "Default Component Of"
      },
      {
        "ProductReference": "postgresql13-test-13.10-1.1",
        "RelatesToProductReference": "openSUSE Tumbleweed",
        "RelationType": "Default Component Of"
      }
    ]
  },
  "References": [
    {
      "URL": "https://www.suse.com/support/security/rating/",
      "Description": "SUSE Security Ratings"
    },
    {
      "URL": "https://www.suse.com/security/cve/CVE-2022-41862/",
      "Description": "SUSE CVE CVE-2022-41862 page"
    }
  ],
  "Vulnerabilities": [
    {
      "CVE": "CVE-2022-41862",
      "Description": "In PostgreSQL, a modified, unauthenticated server can send an unterminated string during the establishment of Kerberos transport encryption. In certain conditions a server can cause a libpq client to over-read and report an error message containing uninitialized bytes.",
      "Threats": [
        {
          "Type": "Impact",
          "Severity": "important"
        }
      ],
      "References": [
        {
          "URL": "https://www.suse.com/security/cve/CVE-2022-41862.html",
          "Description": "CVE-2022-41862"
        },
        {
          "URL": "https://bugzilla.suse.com/1208102",
          "Description": "SUSE Bug 1208102"
        }
      ],
      "ProductStatuses": [
        {
          "Type": "Fixed",
          "ProductID": [
            "openSUSE Tumbleweed:postgresql13-13.10-1.1",
            "openSUSE Tumbleweed:postgresql13-contrib-13.10-1.1",
            "openSUSE Tumbleweed:postgresql13-devel-13.10-1.1",
            "openSUSE Tumbleweed:postgresql13-docs-13.10-1.1",
            "openSUSE Tumbleweed:postgresql13-llvmjit-13.10-1.1",
            "openSUSE Tumbleweed:postgresql13-llvmjit-devel-13.10-1.1",
            "openSUSE Tumbleweed:postgresql13-plperl-13.10-1.1",
            "openSUSE Tumbleweed:postgresql13-plpython-13.10-1.1",
            "openSUSE Tumbleweed:postgresql13-pltcl-13.10-1.1",
            "openSUSE Tumbleweed:postgresql13-server-13.10-1.1",
            "openSUSE Tumbleweed:postgresql13-server-devel-13.10-1.1",
            "openSUSE Tumbleweed:postgresql13-test-13.10-1.1"
          ]
        }
      ],
      "CVSSScoreSets": {}
    }
  ]
}