{
  "Title": "nodejs-electron-19.0.17-1.1 on GA media",
  "Tracking": {
    "ID": "openSUSE-SU-2024:12334-1",
    "Status": "Final",
    "Version": "1",
    "InitialReleaseDate": "2024-06-20T21:44:22Z",
    "CurrentReleaseDate": "2024-06-20T21:44:22Z",
    "RevisionHistory": [
      {
        "Number": "1",
        "Date": "2024-06-20T21:44:22Z",
        "Description": "current"
      }
    ]
  },
  "Notes": [
    {
      "Text": "nodejs-electron-19.0.17-1.1 on GA media",
      "Title": "Topic",
      "Type": "Summary"
    },
    {
      "Text": "These are all security issues fixed in the nodejs-electron-19.0.17-1.1 package on the GA media of openSUSE Tumbleweed.",
      "Title": "Details",
      "Type": "General"
    },
    {
      "Text": "The CVRF data is provided by SUSE under the Creative Commons License 4.0 with Attribution (CC-BY-4.0).",
      "Title": "Terms of Use",
      "Type": "Legal Disclaimer"
    },
    {
      "Text": "openSUSE-Tumbleweed-2024-12334",
      "Title": "Patchnames",
      "Type": "Details"
    }
  ],
  "ProductTree": {
    "Relationships": [
      {
        "ProductReference": "nodejs-electron-19.0.17-1.1",
        "RelatesToProductReference": "openSUSE Tumbleweed",
        "RelationType": "Default Component Of"
      },
      {
        "ProductReference": "nodejs-electron-devel-19.0.17-1.1",
        "RelatesToProductReference": "openSUSE Tumbleweed",
        "RelationType": "Default Component Of"
      }
    ]
  },
  "References": [
    {
      "URL": "https://www.suse.com/support/security/rating/",
      "Description": "SUSE Security Ratings"
    },
    {
      "URL": "https://www.suse.com/security/cve/CVE-2022-3075/",
      "Description": "SUSE CVE CVE-2022-3075 page"
    }
  ],
  "Vulnerabilities": [
    {
      "CVE": "CVE-2022-3075",
      "Description": "Insufficient data validation in Mojo in Google Chrome prior to 105.0.5195.102 allowed a remote attacker who had compromised the renderer process to potentially perform a sandbox escape via a crafted HTML page.",
      "Threats": [
        {
          "Type": "Impact",
          "Severity": "critical"
        }
      ],
      "References": [
        {
          "URL": "https://www.suse.com/security/cve/CVE-2022-3075.html",
          "Description": "CVE-2022-3075"
        },
        {
          "URL": "https://bugzilla.suse.com/1203102",
          "Description": "SUSE Bug 1203102"
        }
      ],
      "ProductStatuses": [
        {
          "Type": "Fixed",
          "ProductID": [
            "openSUSE Tumbleweed:nodejs-electron-19.0.17-1.1",
            "openSUSE Tumbleweed:nodejs-electron-devel-19.0.17-1.1"
          ]
        }
      ],
      "CVSSScoreSets": {}
    }
  ]
}