{
  "Title": "postgresql14-14.9-1.1 on GA media",
  "Tracking": {
    "ID": "openSUSE-SU-2024:13358-1",
    "Status": "Final",
    "Version": "1",
    "InitialReleaseDate": "2024-06-20T21:44:22Z",
    "CurrentReleaseDate": "2024-06-20T21:44:22Z",
    "RevisionHistory": [
      {
        "Number": "1",
        "Date": "2024-06-20T21:44:22Z",
        "Description": "current"
      }
    ]
  },
  "Notes": [
    {
      "Text": "postgresql14-14.9-1.1 on GA media",
      "Title": "Topic",
      "Type": "Summary"
    },
    {
      "Text": "These are all security issues fixed in the postgresql14-14.9-1.1 package on the GA media of openSUSE Tumbleweed.",
      "Title": "Details",
      "Type": "General"
    },
    {
      "Text": "The CVRF data is provided by SUSE under the Creative Commons License 4.0 with Attribution (CC-BY-4.0).",
      "Title": "Terms of Use",
      "Type": "Legal Disclaimer"
    },
    {
      "Text": "openSUSE-Tumbleweed-2024-13358",
      "Title": "Patchnames",
      "Type": "Details"
    }
  ],
  "ProductTree": {
    "Relationships": [
      {
        "ProductReference": "postgresql14-14.9-1.1",
        "RelatesToProductReference": "openSUSE Tumbleweed",
        "RelationType": "Default Component Of"
      },
      {
        "ProductReference": "postgresql14-contrib-14.9-1.1",
        "RelatesToProductReference": "openSUSE Tumbleweed",
        "RelationType": "Default Component Of"
      },
      {
        "ProductReference": "postgresql14-devel-14.9-1.1",
        "RelatesToProductReference": "openSUSE Tumbleweed",
        "RelationType": "Default Component Of"
      },
      {
        "ProductReference": "postgresql14-docs-14.9-1.1",
        "RelatesToProductReference": "openSUSE Tumbleweed",
        "RelationType": "Default Component Of"
      },
      {
        "ProductReference": "postgresql14-llvmjit-14.9-1.1",
        "RelatesToProductReference": "openSUSE Tumbleweed",
        "RelationType": "Default Component Of"
      },
      {
        "ProductReference": "postgresql14-llvmjit-devel-14.9-1.1",
        "RelatesToProductReference": "openSUSE Tumbleweed",
        "RelationType": "Default Component Of"
      },
      {
        "ProductReference": "postgresql14-plperl-14.9-1.1",
        "RelatesToProductReference": "openSUSE Tumbleweed",
        "RelationType": "Default Component Of"
      },
      {
        "ProductReference": "postgresql14-plpython-14.9-1.1",
        "RelatesToProductReference": "openSUSE Tumbleweed",
        "RelationType": "Default Component Of"
      },
      {
        "ProductReference": "postgresql14-pltcl-14.9-1.1",
        "RelatesToProductReference": "openSUSE Tumbleweed",
        "RelationType": "Default Component Of"
      },
      {
        "ProductReference": "postgresql14-server-14.9-1.1",
        "RelatesToProductReference": "openSUSE Tumbleweed",
        "RelationType": "Default Component Of"
      },
      {
        "ProductReference": "postgresql14-server-devel-14.9-1.1",
        "RelatesToProductReference": "openSUSE Tumbleweed",
        "RelationType": "Default Component Of"
      },
      {
        "ProductReference": "postgresql14-test-14.9-1.1",
        "RelatesToProductReference": "openSUSE Tumbleweed",
        "RelationType": "Default Component Of"
      }
    ]
  },
  "References": [
    {
      "URL": "https://www.suse.com/support/security/rating/",
      "Description": "SUSE Security Ratings"
    },
    {
      "URL": "https://www.suse.com/security/cve/CVE-2023-39417/",
      "Description": "SUSE CVE CVE-2023-39417 page"
    }
  ],
  "Vulnerabilities": [
    {
      "CVE": "CVE-2023-39417",
      "Description": "IN THE EXTENSION SCRIPT, a SQL Injection vulnerability was found in PostgreSQL if it uses @extowner@, @extschema@, or @extschema:...@ inside a quoting construct (dollar quoting, '', or \"\"). If an administrator has installed files of a vulnerable, trusted, non-bundled extension, an attacker with database-level CREATE privilege can execute arbitrary code as the bootstrap superuser.",
      "Threats": [
        {
          "Type": "Impact",
          "Severity": "moderate"
        }
      ],
      "References": [
        {
          "URL": "https://www.suse.com/security/cve/CVE-2023-39417.html",
          "Description": "CVE-2023-39417"
        },
        {
          "URL": "https://bugzilla.suse.com/1214059",
          "Description": "SUSE Bug 1214059"
        }
      ],
      "ProductStatuses": [
        {
          "Type": "Fixed",
          "ProductID": [
            "openSUSE Tumbleweed:postgresql14-14.9-1.1",
            "openSUSE Tumbleweed:postgresql14-contrib-14.9-1.1",
            "openSUSE Tumbleweed:postgresql14-devel-14.9-1.1",
            "openSUSE Tumbleweed:postgresql14-docs-14.9-1.1",
            "openSUSE Tumbleweed:postgresql14-llvmjit-14.9-1.1",
            "openSUSE Tumbleweed:postgresql14-llvmjit-devel-14.9-1.1",
            "openSUSE Tumbleweed:postgresql14-plperl-14.9-1.1",
            "openSUSE Tumbleweed:postgresql14-plpython-14.9-1.1",
            "openSUSE Tumbleweed:postgresql14-pltcl-14.9-1.1",
            "openSUSE Tumbleweed:postgresql14-server-14.9-1.1",
            "openSUSE Tumbleweed:postgresql14-server-devel-14.9-1.1",
            "openSUSE Tumbleweed:postgresql14-test-14.9-1.1"
          ]
        }
      ],
      "CVSSScoreSets": {}
    }
  ]
}