{
  "Title": "libopenssl-1_1-devel-1.1.1v-1.1 on GA media",
  "Tracking": {
    "ID": "openSUSE-SU-2024:13090-1",
    "Status": "Final",
    "Version": "1",
    "InitialReleaseDate": "2024-06-20T21:44:22Z",
    "CurrentReleaseDate": "2024-06-20T21:44:22Z",
    "RevisionHistory": [
      {
        "Number": "1",
        "Date": "2024-06-20T21:44:22Z",
        "Description": "current"
      }
    ]
  },
  "Notes": [
    {
      "Text": "libopenssl-1_1-devel-1.1.1v-1.1 on GA media",
      "Title": "Topic",
      "Type": "Summary"
    },
    {
      "Text": "These are all security issues fixed in the libopenssl-1_1-devel-1.1.1v-1.1 package on the GA media of openSUSE Tumbleweed.",
      "Title": "Details",
      "Type": "General"
    },
    {
      "Text": "The CVRF data is provided by SUSE under the Creative Commons License 4.0 with Attribution (CC-BY-4.0).",
      "Title": "Terms of Use",
      "Type": "Legal Disclaimer"
    },
    {
      "Text": "openSUSE-Tumbleweed-2024-13090",
      "Title": "Patchnames",
      "Type": "Details"
    }
  ],
  "ProductTree": {
    "Relationships": [
      {
        "ProductReference": "libopenssl-1_1-devel-1.1.1v-1.1",
        "RelatesToProductReference": "openSUSE Tumbleweed",
        "RelationType": "Default Component Of"
      },
      {
        "ProductReference": "libopenssl-1_1-devel-32bit-1.1.1v-1.1",
        "RelatesToProductReference": "openSUSE Tumbleweed",
        "RelationType": "Default Component Of"
      },
      {
        "ProductReference": "libopenssl1_1-1.1.1v-1.1",
        "RelatesToProductReference": "openSUSE Tumbleweed",
        "RelationType": "Default Component Of"
      },
      {
        "ProductReference": "libopenssl1_1-32bit-1.1.1v-1.1",
        "RelatesToProductReference": "openSUSE Tumbleweed",
        "RelationType": "Default Component Of"
      },
      {
        "ProductReference": "openssl-1_1-1.1.1v-1.1",
        "RelatesToProductReference": "openSUSE Tumbleweed",
        "RelationType": "Default Component Of"
      },
      {
        "ProductReference": "openssl-1_1-doc-1.1.1v-1.1",
        "RelatesToProductReference": "openSUSE Tumbleweed",
        "RelationType": "Default Component Of"
      }
    ]
  },
  "References": [
    {
      "URL": "https://www.suse.com/support/security/rating/",
      "Description": "SUSE Security Ratings"
    },
    {
      "URL": "https://www.suse.com/security/cve/CVE-2023-3817/",
      "Description": "SUSE CVE CVE-2023-3817 page"
    }
  ],
  "Vulnerabilities": [
    {
      "CVE": "CVE-2023-3817",
      "Description": "Issue summary: Checking excessively long DH keys or parameters may be very slow.\n\nImpact summary: Applications that use the functions DH_check(), DH_check_ex()\nor EVP_PKEY_param_check() to check a DH key or DH parameters may experience long\ndelays. Where the key or parameters that are being checked have been obtained\nfrom an untrusted source this may lead to a Denial of Service.\n\nThe function DH_check() performs various checks on DH parameters. After fixing\nCVE-2023-3446 it was discovered that a large q parameter value can also trigger\nan overly long computation during some of these checks. A correct q value,\nif present, cannot be larger than the modulus p parameter, thus it is\nunnecessary to perform these checks if q is larger than p.\n\nAn application that calls DH_check() and supplies a key or parameters obtained\nfrom an untrusted source could be vulnerable to a Denial of Service attack.\n\nThe function DH_check() is itself called by a number of other OpenSSL functions.\nAn application calling any of those other functions may similarly be affected.\nThe other functions affected by this are DH_check_ex() and\nEVP_PKEY_param_check().\n\nAlso vulnerable are the OpenSSL dhparam and pkeyparam command line applications\nwhen using the \"-check\" option.\n\nThe OpenSSL SSL/TLS implementation is not affected by this issue.\n\nThe OpenSSL 3.0 and 3.1 FIPS providers are not affected by this issue.",
      "Threats": [
        {
          "Type": "Impact",
          "Severity": "moderate"
        }
      ],
      "References": [
        {
          "URL": "https://www.suse.com/security/cve/CVE-2023-3817.html",
          "Description": "CVE-2023-3817"
        },
        {
          "URL": "https://bugzilla.suse.com/1213853",
          "Description": "SUSE Bug 1213853"
        },
        {
          "URL": "https://bugzilla.suse.com/1216922",
          "Description": "SUSE Bug 1216922"
        }
      ],
      "ProductStatuses": [
        {
          "Type": "Fixed",
          "ProductID": [
            "openSUSE Tumbleweed:libopenssl-1_1-devel-1.1.1v-1.1",
            "openSUSE Tumbleweed:libopenssl-1_1-devel-32bit-1.1.1v-1.1",
            "openSUSE Tumbleweed:libopenssl1_1-1.1.1v-1.1",
            "openSUSE Tumbleweed:libopenssl1_1-32bit-1.1.1v-1.1",
            "openSUSE Tumbleweed:openssl-1_1-1.1.1v-1.1",
            "openSUSE Tumbleweed:openssl-1_1-doc-1.1.1v-1.1"
          ]
        }
      ],
      "CVSSScoreSets": {}
    }
  ]
}