{
  "Title": "python36-bleach-3.3.0-1.4 on GA media",
  "Tracking": {
    "ID": "openSUSE-SU-2024:11219-1",
    "Status": "Final",
    "Version": "1",
    "InitialReleaseDate": "2024-06-22T21:44:56Z",
    "CurrentReleaseDate": "2024-06-22T21:44:56Z",
    "RevisionHistory": [
      {
        "Number": "1",
        "Date": "2024-06-22T21:44:56Z",
        "Description": "current"
      }
    ]
  },
  "Notes": [
    {
      "Text": "python36-bleach-3.3.0-1.4 on GA media",
      "Title": "Topic",
      "Type": "Summary"
    },
    {
      "Text": "These are all security issues fixed in the python36-bleach-3.3.0-1.4 package on the GA media of openSUSE Tumbleweed.",
      "Title": "Details",
      "Type": "General"
    },
    {
      "Text": "The CVRF data is provided by SUSE under the Creative Commons License 4.0 with Attribution (CC-BY-4.0).",
      "Title": "Terms of Use",
      "Type": "Legal Disclaimer"
    },
    {
      "Text": "openSUSE-Tumbleweed-2024-11219",
      "Title": "Patchnames",
      "Type": "Details"
    }
  ],
  "ProductTree": {
    "Relationships": [
      {
        "ProductReference": "python36-bleach-3.3.0-1.4",
        "RelatesToProductReference": "openSUSE Tumbleweed",
        "RelationType": "Default Component Of"
      },
      {
        "ProductReference": "python38-bleach-3.3.0-1.4",
        "RelatesToProductReference": "openSUSE Tumbleweed",
        "RelationType": "Default Component Of"
      },
      {
        "ProductReference": "python39-bleach-3.3.0-1.4",
        "RelatesToProductReference": "openSUSE Tumbleweed",
        "RelationType": "Default Component Of"
      }
    ]
  },
  "References": [
    {
      "URL": "https://www.suse.com/support/security/rating/",
      "Description": "SUSE Security Ratings"
    },
    {
      "URL": "https://www.suse.com/security/cve/CVE-2018-7753/",
      "Description": "SUSE CVE CVE-2018-7753 page"
    },
    {
      "URL": "https://www.suse.com/security/cve/CVE-2020-6802/",
      "Description": "SUSE CVE CVE-2020-6802 page"
    },
    {
      "URL": "https://www.suse.com/security/cve/CVE-2020-6816/",
      "Description": "SUSE CVE CVE-2020-6816 page"
    },
    {
      "URL": "https://www.suse.com/security/cve/CVE-2020-6817/",
      "Description": "SUSE CVE CVE-2020-6817 page"
    },
    {
      "URL": "https://www.suse.com/security/cve/CVE-2021-23980/",
      "Description": "SUSE CVE CVE-2021-23980 page"
    }
  ],
  "Vulnerabilities": [
    {
      "CVE": "CVE-2018-7753",
      "Description": "An issue was discovered in Bleach 2.1.x before 2.1.3. Attributes that have URI values weren't properly sanitized if the values contained character entities. Using character entities, it was possible to construct a URI value with a scheme that was not allowed that would slide through unsanitized.",
      "Threats": [
        {
          "Type": "Impact",
          "Severity": "moderate"
        }
      ],
      "References": [
        {
          "URL": "https://www.suse.com/security/cve/CVE-2018-7753.html",
          "Description": "CVE-2018-7753"
        },
        {
          "URL": "https://bugzilla.suse.com/1085969",
          "Description": "SUSE Bug 1085969"
        }
      ],
      "ProductStatuses": [
        {
          "Type": "Fixed",
          "ProductID": [
            "openSUSE Tumbleweed:python36-bleach-3.3.0-1.4",
            "openSUSE Tumbleweed:python38-bleach-3.3.0-1.4",
            "openSUSE Tumbleweed:python39-bleach-3.3.0-1.4"
          ]
        }
      ],
      "CVSSScoreSets": {}
    },
    {
      "CVE": "CVE-2020-6802",
      "Description": "In Mozilla Bleach before 3.11, a mutation XSS affects users calling bleach.clean with noscript and a raw tag in the allowed/whitelisted tags option.",
      "Threats": [
        {
          "Type": "Impact",
          "Severity": "moderate"
        }
      ],
      "References": [
        {
          "URL": "https://www.suse.com/security/cve/CVE-2020-6802.html",
          "Description": "CVE-2020-6802"
        },
        {
          "URL": "https://bugzilla.suse.com/1165303",
          "Description": "SUSE Bug 1165303"
        }
      ],
      "ProductStatuses": [
        {
          "Type": "Fixed",
          "ProductID": [
            "openSUSE Tumbleweed:python36-bleach-3.3.0-1.4",
            "openSUSE Tumbleweed:python38-bleach-3.3.0-1.4",
            "openSUSE Tumbleweed:python39-bleach-3.3.0-1.4"
          ]
        }
      ],
      "CVSSScoreSets": {}
    },
    {
      "CVE": "CVE-2020-6816",
      "Description": "In Mozilla Bleach before 3.12, a mutation XSS in bleach.clean when RCDATA and either svg or math tags are whitelisted and the keyword argument strip=False.",
      "Threats": [
        {
          "Type": "Impact",
          "Severity": "moderate"
        }
      ],
      "References": [
        {
          "URL": "https://www.suse.com/security/cve/CVE-2020-6816.html",
          "Description": "CVE-2020-6816"
        },
        {
          "URL": "https://bugzilla.suse.com/1167379",
          "Description": "SUSE Bug 1167379"
        }
      ],
      "ProductStatuses": [
        {
          "Type": "Fixed",
          "ProductID": [
            "openSUSE Tumbleweed:python36-bleach-3.3.0-1.4",
            "openSUSE Tumbleweed:python38-bleach-3.3.0-1.4",
            "openSUSE Tumbleweed:python39-bleach-3.3.0-1.4"
          ]
        }
      ],
      "CVSSScoreSets": {}
    },
    {
      "CVE": "CVE-2020-6817",
      "Description": "bleach.clean behavior parsing style attributes could result in a regular expression denial of service (ReDoS). Calls to bleach.clean with an allowed tag with an allowed style attribute are vulnerable to ReDoS. For example, bleach.clean(..., attributes={'a': ['style']}).",
      "Threats": [
        {
          "Type": "Impact",
          "Severity": "important"
        }
      ],
      "References": [
        {
          "URL": "https://www.suse.com/security/cve/CVE-2020-6817.html",
          "Description": "CVE-2020-6817"
        },
        {
          "URL": "https://bugzilla.suse.com/1168280",
          "Description": "SUSE Bug 1168280"
        }
      ],
      "ProductStatuses": [
        {
          "Type": "Fixed",
          "ProductID": [
            "openSUSE Tumbleweed:python36-bleach-3.3.0-1.4",
            "openSUSE Tumbleweed:python38-bleach-3.3.0-1.4",
            "openSUSE Tumbleweed:python39-bleach-3.3.0-1.4"
          ]
        }
      ],
      "CVSSScoreSets": {}
    },
    {
      "CVE": "CVE-2021-23980",
      "Description": "A mutation XSS affects users calling bleach.clean with all of: svg or math in the allowed tags p or br in allowed tags style, title, noscript, script, textarea, noframes, iframe, or xmp in allowed tags the keyword argument strip_comments=False Note: none of the above tags are in the default allowed tags and strip_comments defaults to True.",
      "Threats": [
        {
          "Type": "Impact",
          "Severity": "moderate"
        }
      ],
      "References": [
        {
          "URL": "https://www.suse.com/security/cve/CVE-2021-23980.html",
          "Description": "CVE-2021-23980"
        },
        {
          "URL": "https://bugzilla.suse.com/1184547",
          "Description": "SUSE Bug 1184547"
        }
      ],
      "ProductStatuses": [
        {
          "Type": "Fixed",
          "ProductID": [
            "openSUSE Tumbleweed:python36-bleach-3.3.0-1.4",
            "openSUSE Tumbleweed:python38-bleach-3.3.0-1.4",
            "openSUSE Tumbleweed:python39-bleach-3.3.0-1.4"
          ]
        }
      ],
      "CVSSScoreSets": {}
    }
  ]
}