{
  "Title": "go1.17-1.17.9-1.1 on GA media",
  "Tracking": {
    "ID": "openSUSE-SU-2024:12004-1",
    "Status": "Final",
    "Version": "1",
    "InitialReleaseDate": "2024-06-20T21:44:22Z",
    "CurrentReleaseDate": "2024-06-20T21:44:22Z",
    "RevisionHistory": [
      {
        "Number": "1",
        "Date": "2024-06-20T21:44:22Z",
        "Description": "current"
      }
    ]
  },
  "Notes": [
    {
      "Text": "go1.17-1.17.9-1.1 on GA media",
      "Title": "Topic",
      "Type": "Summary"
    },
    {
      "Text": "These are all security issues fixed in the go1.17-1.17.9-1.1 package on the GA media of openSUSE Tumbleweed.",
      "Title": "Details",
      "Type": "General"
    },
    {
      "Text": "The CVRF data is provided by SUSE under the Creative Commons License 4.0 with Attribution (CC-BY-4.0).",
      "Title": "Terms of Use",
      "Type": "Legal Disclaimer"
    },
    {
      "Text": "openSUSE-Tumbleweed-2024-12004",
      "Title": "Patchnames",
      "Type": "Details"
    }
  ],
  "ProductTree": {
    "Relationships": [
      {
        "ProductReference": "go1.17-1.17.9-1.1",
        "RelatesToProductReference": "openSUSE Tumbleweed",
        "RelationType": "Default Component Of"
      },
      {
        "ProductReference": "go1.17-doc-1.17.9-1.1",
        "RelatesToProductReference": "openSUSE Tumbleweed",
        "RelationType": "Default Component Of"
      },
      {
        "ProductReference": "go1.17-race-1.17.9-1.1",
        "RelatesToProductReference": "openSUSE Tumbleweed",
        "RelationType": "Default Component Of"
      }
    ]
  },
  "References": [
    {
      "URL": "https://www.suse.com/support/security/rating/",
      "Description": "SUSE Security Ratings"
    },
    {
      "URL": "https://www.suse.com/security/cve/CVE-2022-24675/",
      "Description": "SUSE CVE CVE-2022-24675 page"
    },
    {
      "URL": "https://www.suse.com/security/cve/CVE-2022-28327/",
      "Description": "SUSE CVE CVE-2022-28327 page"
    }
  ],
  "Vulnerabilities": [
    {
      "CVE": "CVE-2022-24675",
      "Description": "encoding/pem in Go before 1.17.9 and 1.18.x before 1.18.1 has a Decode stack overflow via a large amount of PEM data.",
      "Threats": [
        {
          "Type": "Impact",
          "Severity": "moderate"
        }
      ],
      "References": [
        {
          "URL": "https://www.suse.com/security/cve/CVE-2022-24675.html",
          "Description": "CVE-2022-24675"
        },
        {
          "URL": "https://bugzilla.suse.com/1198423",
          "Description": "SUSE Bug 1198423"
        }
      ],
      "ProductStatuses": [
        {
          "Type": "Fixed",
          "ProductID": [
            "openSUSE Tumbleweed:go1.17-1.17.9-1.1",
            "openSUSE Tumbleweed:go1.17-doc-1.17.9-1.1",
            "openSUSE Tumbleweed:go1.17-race-1.17.9-1.1"
          ]
        }
      ],
      "CVSSScoreSets": {}
    },
    {
      "CVE": "CVE-2022-28327",
      "Description": "The generic P-256 feature in crypto/elliptic in Go before 1.17.9 and 1.18.x before 1.18.1 allows a panic via long scalar input.",
      "Threats": [
        {
          "Type": "Impact",
          "Severity": "moderate"
        }
      ],
      "References": [
        {
          "URL": "https://www.suse.com/security/cve/CVE-2022-28327.html",
          "Description": "CVE-2022-28327"
        },
        {
          "URL": "https://bugzilla.suse.com/1198424",
          "Description": "SUSE Bug 1198424"
        }
      ],
      "ProductStatuses": [
        {
          "Type": "Fixed",
          "ProductID": [
            "openSUSE Tumbleweed:go1.17-1.17.9-1.1",
            "openSUSE Tumbleweed:go1.17-doc-1.17.9-1.1",
            "openSUSE Tumbleweed:go1.17-race-1.17.9-1.1"
          ]
        }
      ],
      "CVSSScoreSets": {}
    }
  ]
}