{
  "Title": "libwireshark17-4.2.4-1.1 on GA media",
  "Tracking": {
    "ID": "openSUSE-SU-2024:13809-1",
    "Status": "Final",
    "Version": "1",
    "InitialReleaseDate": "2024-06-20T21:44:22Z",
    "CurrentReleaseDate": "2024-06-20T21:44:22Z",
    "RevisionHistory": [
      {
        "Number": "1",
        "Date": "2024-06-20T21:44:22Z",
        "Description": "current"
      }
    ]
  },
  "Notes": [
    {
      "Text": "libwireshark17-4.2.4-1.1 on GA media",
      "Title": "Topic",
      "Type": "Summary"
    },
    {
      "Text": "These are all security issues fixed in the libwireshark17-4.2.4-1.1 package on the GA media of openSUSE Tumbleweed.",
      "Title": "Details",
      "Type": "General"
    },
    {
      "Text": "The CVRF data is provided by SUSE under the Creative Commons License 4.0 with Attribution (CC-BY-4.0).",
      "Title": "Terms of Use",
      "Type": "Legal Disclaimer"
    },
    {
      "Text": "openSUSE-Tumbleweed-2024-13809",
      "Title": "Patchnames",
      "Type": "Details"
    }
  ],
  "ProductTree": {
    "Relationships": [
      {
        "ProductReference": "libwireshark17-4.2.4-1.1",
        "RelatesToProductReference": "openSUSE Tumbleweed",
        "RelationType": "Default Component Of"
      },
      {
        "ProductReference": "libwiretap14-4.2.4-1.1",
        "RelatesToProductReference": "openSUSE Tumbleweed",
        "RelationType": "Default Component Of"
      },
      {
        "ProductReference": "libwsutil15-4.2.4-1.1",
        "RelatesToProductReference": "openSUSE Tumbleweed",
        "RelationType": "Default Component Of"
      },
      {
        "ProductReference": "wireshark-4.2.4-1.1",
        "RelatesToProductReference": "openSUSE Tumbleweed",
        "RelationType": "Default Component Of"
      },
      {
        "ProductReference": "wireshark-devel-4.2.4-1.1",
        "RelatesToProductReference": "openSUSE Tumbleweed",
        "RelationType": "Default Component Of"
      },
      {
        "ProductReference": "wireshark-ui-qt-4.2.4-1.1",
        "RelatesToProductReference": "openSUSE Tumbleweed",
        "RelationType": "Default Component Of"
      }
    ]
  },
  "References": [
    {
      "URL": "https://www.suse.com/support/security/rating/",
      "Description": "SUSE Security Ratings"
    },
    {
      "URL": "https://www.suse.com/security/cve/CVE-2024-2955/",
      "Description": "SUSE CVE CVE-2024-2955 page"
    }
  ],
  "Vulnerabilities": [
    {
      "CVE": "CVE-2024-2955",
      "Description": "T.38 dissector crash in Wireshark 4.2.0 to 4.0.3 and 4.0.0 to 4.0.13 allows denial of service via packet injection or crafted capture file",
      "Threats": [
        {
          "Type": "Impact",
          "Severity": "moderate"
        }
      ],
      "References": [
        {
          "URL": "https://www.suse.com/security/cve/CVE-2024-2955.html",
          "Description": "CVE-2024-2955"
        },
        {
          "URL": "https://bugzilla.suse.com/1222030",
          "Description": "SUSE Bug 1222030"
        }
      ],
      "ProductStatuses": [
        {
          "Type": "Fixed",
          "ProductID": [
            "openSUSE Tumbleweed:libwireshark17-4.2.4-1.1",
            "openSUSE Tumbleweed:libwiretap14-4.2.4-1.1",
            "openSUSE Tumbleweed:libwsutil15-4.2.4-1.1",
            "openSUSE Tumbleweed:wireshark-4.2.4-1.1",
            "openSUSE Tumbleweed:wireshark-devel-4.2.4-1.1",
            "openSUSE Tumbleweed:wireshark-ui-qt-4.2.4-1.1"
          ]
        }
      ],
      "CVSSScoreSets": {}
    }
  ]
}