{
  "Title": "pyenv-2.3.2-1.1 on GA media",
  "Tracking": {
    "ID": "openSUSE-SU-2024:12200-1",
    "Status": "Final",
    "Version": "1",
    "InitialReleaseDate": "2024-06-20T21:44:22Z",
    "CurrentReleaseDate": "2024-06-20T21:44:22Z",
    "RevisionHistory": [
      {
        "Number": "1",
        "Date": "2024-06-20T21:44:22Z",
        "Description": "current"
      }
    ]
  },
  "Notes": [
    {
      "Text": "pyenv-2.3.2-1.1 on GA media",
      "Title": "Topic",
      "Type": "Summary"
    },
    {
      "Text": "These are all security issues fixed in the pyenv-2.3.2-1.1 package on the GA media of openSUSE Tumbleweed.",
      "Title": "Details",
      "Type": "General"
    },
    {
      "Text": "The CVRF data is provided by SUSE under the Creative Commons License 4.0 with Attribution (CC-BY-4.0).",
      "Title": "Terms of Use",
      "Type": "Legal Disclaimer"
    },
    {
      "Text": "openSUSE-Tumbleweed-2024-12200",
      "Title": "Patchnames",
      "Type": "Details"
    }
  ],
  "ProductTree": {
    "Relationships": [
      {
        "ProductReference": "pyenv-2.3.2-1.1",
        "RelatesToProductReference": "openSUSE Tumbleweed",
        "RelationType": "Default Component Of"
      },
      {
        "ProductReference": "pyenv-bash-completion-2.3.2-1.1",
        "RelatesToProductReference": "openSUSE Tumbleweed",
        "RelationType": "Default Component Of"
      },
      {
        "ProductReference": "pyenv-fish-completion-2.3.2-1.1",
        "RelatesToProductReference": "openSUSE Tumbleweed",
        "RelationType": "Default Component Of"
      },
      {
        "ProductReference": "pyenv-zsh-completion-2.3.2-1.1",
        "RelatesToProductReference": "openSUSE Tumbleweed",
        "RelationType": "Default Component Of"
      }
    ]
  },
  "References": [
    {
      "URL": "https://www.suse.com/support/security/rating/",
      "Description": "SUSE Security Ratings"
    },
    {
      "URL": "https://www.suse.com/security/cve/CVE-2022-35861/",
      "Description": "SUSE CVE CVE-2022-35861 page"
    }
  ],
  "Vulnerabilities": [
    {
      "CVE": "CVE-2022-35861",
      "Description": "pyenv 1.2.24 through 2.3.2 allows local users to gain privileges via a .python-version file in the current working directory. An attacker can craft a Python version string in .python-version to execute shims under their control. (Shims are executables that pass a command along to a specific version of pyenv. The version string is used to construct the path to the command, and there is no validation of whether the version specified is a valid version. Thus, relative path traversal can occur.)",
      "Threats": [
        {
          "Type": "Impact",
          "Severity": "moderate"
        }
      ],
      "References": [
        {
          "URL": "https://www.suse.com/security/cve/CVE-2022-35861.html",
          "Description": "CVE-2022-35861"
        },
        {
          "URL": "https://bugzilla.suse.com/1201582",
          "Description": "SUSE Bug 1201582"
        }
      ],
      "ProductStatuses": [
        {
          "Type": "Fixed",
          "ProductID": [
            "openSUSE Tumbleweed:pyenv-2.3.2-1.1",
            "openSUSE Tumbleweed:pyenv-bash-completion-2.3.2-1.1",
            "openSUSE Tumbleweed:pyenv-fish-completion-2.3.2-1.1",
            "openSUSE Tumbleweed:pyenv-zsh-completion-2.3.2-1.1"
          ]
        }
      ],
      "CVSSScoreSets": {}
    }
  ]
}