{
  "Title": "apache2-mod_nss-1.0.14-4.1 on GA media",
  "Tracking": {
    "ID": "openSUSE-SU-2024:10311-1",
    "Status": "Final",
    "Version": "1",
    "InitialReleaseDate": "2024-06-22T21:44:56Z",
    "CurrentReleaseDate": "2024-06-22T21:44:56Z",
    "RevisionHistory": [
      {
        "Number": "1",
        "Date": "2024-06-22T21:44:56Z",
        "Description": "current"
      }
    ]
  },
  "Notes": [
    {
      "Text": "apache2-mod_nss-1.0.14-4.1 on GA media",
      "Title": "Topic",
      "Type": "Summary"
    },
    {
      "Text": "These are all security issues fixed in the apache2-mod_nss-1.0.14-4.1 package on the GA media of openSUSE Tumbleweed.",
      "Title": "Details",
      "Type": "General"
    },
    {
      "Text": "The CVRF data is provided by SUSE under the Creative Commons License 4.0 with Attribution (CC-BY-4.0).",
      "Title": "Terms of Use",
      "Type": "Legal Disclaimer"
    },
    {
      "Text": "openSUSE-Tumbleweed-2024-10311",
      "Title": "Patchnames",
      "Type": "Details"
    }
  ],
  "ProductTree": {
    "Relationships": [
      {
        "ProductReference": "apache2-mod_nss-1.0.14-4.1",
        "RelatesToProductReference": "openSUSE Tumbleweed",
        "RelationType": "Default Component Of"
      }
    ]
  },
  "References": [
    {
      "URL": "https://www.suse.com/support/security/rating/",
      "Description": "SUSE Security Ratings"
    },
    {
      "URL": "https://www.suse.com/security/cve/CVE-2013-4566/",
      "Description": "SUSE CVE CVE-2013-4566 page"
    },
    {
      "URL": "https://www.suse.com/security/cve/CVE-2014-3566/",
      "Description": "SUSE CVE CVE-2014-3566 page"
    },
    {
      "URL": "https://www.suse.com/security/cve/CVE-2015-5244/",
      "Description": "SUSE CVE CVE-2015-5244 page"
    },
    {
      "URL": "https://www.suse.com/security/cve/CVE-2016-3099/",
      "Description": "SUSE CVE CVE-2016-3099 page"
    }
  ],
  "Vulnerabilities": [
    {
      "CVE": "CVE-2013-4566",
      "Description": "mod_nss 1.0.8 and earlier, when NSSVerifyClient is set to none for the server/vhost context, does not enforce the NSSVerifyClient setting in the directory context, which allows remote attackers to bypass intended access restrictions.",
      "Threats": [
        {
          "Type": "Impact",
          "Severity": "moderate"
        }
      ],
      "References": [
        {
          "URL": "https://www.suse.com/security/cve/CVE-2013-4566.html",
          "Description": "CVE-2013-4566"
        },
        {
          "URL": "https://bugzilla.suse.com/853039",
          "Description": "SUSE Bug 853039"
        }
      ],
      "ProductStatuses": [
        {
          "Type": "Fixed",
          "ProductID": [
            "openSUSE Tumbleweed:apache2-mod_nss-1.0.14-4.1"
          ]
        }
      ],
      "CVSSScoreSets": {}
    },
    {
      "CVE": "CVE-2014-3566",
      "Description": "The SSL protocol 3.0, as used in OpenSSL through 1.0.1i and other products, uses nondeterministic CBC padding, which makes it easier for man-in-the-middle attackers to obtain cleartext data via a padding-oracle attack, aka the \"POODLE\" issue.",
      "Threats": [
        {
          "Type": "Impact",
          "Severity": "critical"
        }
      ],
      "References": [
        {
          "URL": "https://www.suse.com/security/cve/CVE-2014-3566.html",
          "Description": "CVE-2014-3566"
        },
        {
          "URL": "https://bugzilla.suse.com/1011293",
          "Description": "SUSE Bug 1011293"
        },
        {
          "URL": "https://bugzilla.suse.com/1031023",
          "Description": "SUSE Bug 1031023"
        },
        {
          "URL": "https://bugzilla.suse.com/901223",
          "Description": "SUSE Bug 901223"
        },
        {
          "URL": "https://bugzilla.suse.com/901254",
          "Description": "SUSE Bug 901254"
        },
        {
          "URL": "https://bugzilla.suse.com/901277",
          "Description": "SUSE Bug 901277"
        },
        {
          "URL": "https://bugzilla.suse.com/901748",
          "Description": "SUSE Bug 901748"
        },
        {
          "URL": "https://bugzilla.suse.com/901757",
          "Description": "SUSE Bug 901757"
        },
        {
          "URL": "https://bugzilla.suse.com/901759",
          "Description": "SUSE Bug 901759"
        },
        {
          "URL": "https://bugzilla.suse.com/901889",
          "Description": "SUSE Bug 901889"
        },
        {
          "URL": "https://bugzilla.suse.com/901968",
          "Description": "SUSE Bug 901968"
        },
        {
          "URL": "https://bugzilla.suse.com/902229",
          "Description": "SUSE Bug 902229"
        },
        {
          "URL": "https://bugzilla.suse.com/902233",
          "Description": "SUSE Bug 902233"
        },
        {
          "URL": "https://bugzilla.suse.com/902476",
          "Description": "SUSE Bug 902476"
        },
        {
          "URL": "https://bugzilla.suse.com/903405",
          "Description": "SUSE Bug 903405"
        },
        {
          "URL": "https://bugzilla.suse.com/903684",
          "Description": "SUSE Bug 903684"
        },
        {
          "URL": "https://bugzilla.suse.com/904889",
          "Description": "SUSE Bug 904889"
        },
        {
          "URL": "https://bugzilla.suse.com/905106",
          "Description": "SUSE Bug 905106"
        },
        {
          "URL": "https://bugzilla.suse.com/914041",
          "Description": "SUSE Bug 914041"
        },
        {
          "URL": "https://bugzilla.suse.com/994144",
          "Description": "SUSE Bug 994144"
        }
      ],
      "ProductStatuses": [
        {
          "Type": "Fixed",
          "ProductID": [
            "openSUSE Tumbleweed:apache2-mod_nss-1.0.14-4.1"
          ]
        }
      ],
      "CVSSScoreSets": {
        "BaseScore": "5.8",
        "Vector": "AV:N/AC:M/Au:N/C:N/I:P/A:P"
      }
    },
    {
      "CVE": "CVE-2015-5244",
      "Description": "The NSSCipherSuite option with ciphersuites enabled in mod_nss before 1.0.12 allows remote attackers to bypass application restrictions.",
      "Threats": [
        {
          "Type": "Impact",
          "Severity": "important"
        }
      ],
      "References": [
        {
          "URL": "https://www.suse.com/security/cve/CVE-2015-5244.html",
          "Description": "CVE-2015-5244"
        },
        {
          "URL": "https://bugzilla.suse.com/945905",
          "Description": "SUSE Bug 945905"
        }
      ],
      "ProductStatuses": [
        {
          "Type": "Fixed",
          "ProductID": [
            "openSUSE Tumbleweed:apache2-mod_nss-1.0.14-4.1"
          ]
        }
      ],
      "CVSSScoreSets": {}
    },
    {
      "CVE": "CVE-2016-3099",
      "Description": "mod_ns in Red Hat Enterprise Linux Desktop 7, Red Hat Enterprise Linux HPC Node 7, Red Hat Enterprise Linux Server 7, and Red Hat Enterprise Linux Workstation 7 allows remote attackers to force the use of ciphers that were not intended to be enabled.",
      "Threats": [
        {
          "Type": "Impact",
          "Severity": "moderate"
        }
      ],
      "References": [
        {
          "URL": "https://www.suse.com/security/cve/CVE-2016-3099.html",
          "Description": "CVE-2016-3099"
        },
        {
          "URL": "https://bugzilla.suse.com/973996",
          "Description": "SUSE Bug 973996"
        }
      ],
      "ProductStatuses": [
        {
          "Type": "Fixed",
          "ProductID": [
            "openSUSE Tumbleweed:apache2-mod_nss-1.0.14-4.1"
          ]
        }
      ],
      "CVSSScoreSets": {
        "BaseScore": "3.3",
        "Vector": "AV:L/AC:M/Au:N/C:P/I:P/A:N"
      }
    }
  ]
}