{
  "Title": "sysvinit-tools-2.88+-103.1 on GA media",
  "Tracking": {
    "ID": "openSUSE-SU-2024:10312-1",
    "Status": "Final",
    "Version": "1",
    "InitialReleaseDate": "2024-06-22T21:44:56Z",
    "CurrentReleaseDate": "2024-06-22T21:44:56Z",
    "RevisionHistory": [
      {
        "Number": "1",
        "Date": "2024-06-22T21:44:56Z",
        "Description": "current"
      }
    ]
  },
  "Notes": [
    {
      "Text": "sysvinit-tools-2.88+-103.1 on GA media",
      "Title": "Topic",
      "Type": "Summary"
    },
    {
      "Text": "These are all security issues fixed in the sysvinit-tools-2.88+-103.1 package on the GA media of openSUSE Tumbleweed.",
      "Title": "Details",
      "Type": "General"
    },
    {
      "Text": "The CVRF data is provided by SUSE under the Creative Commons License 4.0 with Attribution (CC-BY-4.0).",
      "Title": "Terms of Use",
      "Type": "Legal Disclaimer"
    },
    {
      "Text": "openSUSE-Tumbleweed-2024-10312",
      "Title": "Patchnames",
      "Type": "Details"
    }
  ],
  "ProductTree": {
    "Relationships": [
      {
        "ProductReference": "sysvinit-tools-2.88+-103.1",
        "RelatesToProductReference": "openSUSE Tumbleweed",
        "RelationType": "Default Component Of"
      },
      {
        "ProductReference": "whois-5.2.13-1.1",
        "RelatesToProductReference": "openSUSE Tumbleweed",
        "RelationType": "Default Component Of"
      }
    ]
  },
  "References": [
    {
      "URL": "https://www.suse.com/support/security/rating/",
      "Description": "SUSE Security Ratings"
    },
    {
      "URL": "https://www.suse.com/security/cve/CVE-2011-2483/",
      "Description": "SUSE CVE CVE-2011-2483 page"
    }
  ],
  "Vulnerabilities": [
    {
      "CVE": "CVE-2011-2483",
      "Description": "crypt_blowfish before 1.1, as used in PHP before 5.3.7 on certain platforms, PostgreSQL before 8.4.9, and other products, does not properly handle 8-bit characters, which makes it easier for context-dependent attackers to determine a cleartext password by leveraging knowledge of a password hash.",
      "Threats": [
        {
          "Type": "Impact",
          "Severity": "moderate"
        }
      ],
      "References": [
        {
          "URL": "https://www.suse.com/security/cve/CVE-2011-2483.html",
          "Description": "CVE-2011-2483"
        },
        {
          "URL": "https://bugzilla.suse.com/700876",
          "Description": "SUSE Bug 700876"
        },
        {
          "URL": "https://bugzilla.suse.com/701489",
          "Description": "SUSE Bug 701489"
        },
        {
          "URL": "https://bugzilla.suse.com/701491",
          "Description": "SUSE Bug 701491"
        },
        {
          "URL": "https://bugzilla.suse.com/713727",
          "Description": "SUSE Bug 713727"
        },
        {
          "URL": "https://bugzilla.suse.com/738221",
          "Description": "SUSE Bug 738221"
        },
        {
          "URL": "https://bugzilla.suse.com/749299",
          "Description": "SUSE Bug 749299"
        },
        {
          "URL": "https://bugzilla.suse.com/749301",
          "Description": "SUSE Bug 749301"
        },
        {
          "URL": "https://bugzilla.suse.com/749303",
          "Description": "SUSE Bug 749303"
        }
      ],
      "ProductStatuses": [
        {
          "Type": "Fixed",
          "ProductID": [
            "openSUSE Tumbleweed:sysvinit-tools-2.88+-103.1",
            "openSUSE Tumbleweed:whois-5.2.13-1.1"
          ]
        }
      ],
      "CVSSScoreSets": {}
    }
  ]
}