{
  "Title": "libpython3_5m1_0-3.5.1-3.6 on GA media",
  "Tracking": {
    "ID": "openSUSE-SU-2024:10426-1",
    "Status": "Final",
    "Version": "1",
    "InitialReleaseDate": "2024-06-22T21:44:56Z",
    "CurrentReleaseDate": "2024-06-22T21:44:56Z",
    "RevisionHistory": [
      {
        "Number": "1",
        "Date": "2024-06-22T21:44:56Z",
        "Description": "current"
      }
    ]
  },
  "Notes": [
    {
      "Text": "libpython3_5m1_0-3.5.1-3.6 on GA media",
      "Title": "Topic",
      "Type": "Summary"
    },
    {
      "Text": "These are all security issues fixed in the libpython3_5m1_0-3.5.1-3.6 package on the GA media of openSUSE Tumbleweed.",
      "Title": "Details",
      "Type": "General"
    },
    {
      "Text": "The CVRF data is provided by SUSE under the Creative Commons License 4.0 with Attribution (CC-BY-4.0).",
      "Title": "Terms of Use",
      "Type": "Legal Disclaimer"
    },
    {
      "Text": "openSUSE-Tumbleweed-2024-10426",
      "Title": "Patchnames",
      "Type": "Details"
    }
  ],
  "ProductTree": {
    "Relationships": [
      {
        "ProductReference": "libpython3_5m1_0-3.5.1-3.6",
        "RelatesToProductReference": "openSUSE Tumbleweed",
        "RelationType": "Default Component Of"
      },
      {
        "ProductReference": "libpython3_5m1_0-32bit-3.5.1-3.6",
        "RelatesToProductReference": "openSUSE Tumbleweed",
        "RelationType": "Default Component Of"
      },
      {
        "ProductReference": "python3-base-3.5.1-3.6",
        "RelatesToProductReference": "openSUSE Tumbleweed",
        "RelationType": "Default Component Of"
      },
      {
        "ProductReference": "python3-base-32bit-3.5.1-3.6",
        "RelatesToProductReference": "openSUSE Tumbleweed",
        "RelationType": "Default Component Of"
      },
      {
        "ProductReference": "python3-devel-3.5.1-3.6",
        "RelatesToProductReference": "openSUSE Tumbleweed",
        "RelationType": "Default Component Of"
      },
      {
        "ProductReference": "python3-idle-3.5.1-3.6",
        "RelatesToProductReference": "openSUSE Tumbleweed",
        "RelationType": "Default Component Of"
      },
      {
        "ProductReference": "python3-testsuite-3.5.1-3.6",
        "RelatesToProductReference": "openSUSE Tumbleweed",
        "RelationType": "Default Component Of"
      },
      {
        "ProductReference": "python3-tools-3.5.1-3.6",
        "RelatesToProductReference": "openSUSE Tumbleweed",
        "RelationType": "Default Component Of"
      }
    ]
  },
  "References": [
    {
      "URL": "https://www.suse.com/support/security/rating/",
      "Description": "SUSE Security Ratings"
    },
    {
      "URL": "https://www.suse.com/security/cve/CVE-2011-3389/",
      "Description": "SUSE CVE CVE-2011-3389 page"
    },
    {
      "URL": "https://www.suse.com/security/cve/CVE-2011-4944/",
      "Description": "SUSE CVE CVE-2011-4944 page"
    },
    {
      "URL": "https://www.suse.com/security/cve/CVE-2012-0845/",
      "Description": "SUSE CVE CVE-2012-0845 page"
    },
    {
      "URL": "https://www.suse.com/security/cve/CVE-2012-1150/",
      "Description": "SUSE CVE CVE-2012-1150 page"
    },
    {
      "URL": "https://www.suse.com/security/cve/CVE-2013-1752/",
      "Description": "SUSE CVE CVE-2013-1752 page"
    },
    {
      "URL": "https://www.suse.com/security/cve/CVE-2013-4238/",
      "Description": "SUSE CVE CVE-2013-4238 page"
    },
    {
      "URL": "https://www.suse.com/security/cve/CVE-2014-2667/",
      "Description": "SUSE CVE CVE-2014-2667 page"
    },
    {
      "URL": "https://www.suse.com/security/cve/CVE-2014-4650/",
      "Description": "SUSE CVE CVE-2014-4650 page"
    }
  ],
  "Vulnerabilities": [
    {
      "CVE": "CVE-2011-3389",
      "Description": "The SSL protocol, as used in certain configurations in Microsoft Windows and Microsoft Internet Explorer, Mozilla Firefox, Google Chrome, Opera, and other products, encrypts data by using CBC mode with chained initialization vectors, which allows man-in-the-middle attackers to obtain plaintext HTTP headers via a blockwise chosen-boundary attack (BCBA) on an HTTPS session, in conjunction with JavaScript code that uses (1) the HTML5 WebSocket API, (2) the Java URLConnection API, or (3) the Silverlight WebClient API, aka a \"BEAST\" attack.",
      "Threats": [
        {
          "Type": "Impact",
          "Severity": "moderate"
        }
      ],
      "References": [
        {
          "URL": "https://www.suse.com/security/cve/CVE-2011-3389.html",
          "Description": "CVE-2011-3389"
        },
        {
          "URL": "https://bugzilla.suse.com/716002",
          "Description": "SUSE Bug 716002"
        },
        {
          "URL": "https://bugzilla.suse.com/719047",
          "Description": "SUSE Bug 719047"
        },
        {
          "URL": "https://bugzilla.suse.com/725167",
          "Description": "SUSE Bug 725167"
        },
        {
          "URL": "https://bugzilla.suse.com/726096",
          "Description": "SUSE Bug 726096"
        },
        {
          "URL": "https://bugzilla.suse.com/739248",
          "Description": "SUSE Bug 739248"
        },
        {
          "URL": "https://bugzilla.suse.com/739256",
          "Description": "SUSE Bug 739256"
        },
        {
          "URL": "https://bugzilla.suse.com/742306",
          "Description": "SUSE Bug 742306"
        },
        {
          "URL": "https://bugzilla.suse.com/751718",
          "Description": "SUSE Bug 751718"
        },
        {
          "URL": "https://bugzilla.suse.com/759666",
          "Description": "SUSE Bug 759666"
        },
        {
          "URL": "https://bugzilla.suse.com/763598",
          "Description": "SUSE Bug 763598"
        },
        {
          "URL": "https://bugzilla.suse.com/814655",
          "Description": "SUSE Bug 814655"
        }
      ],
      "ProductStatuses": [
        {
          "Type": "Fixed",
          "ProductID": [
            "openSUSE Tumbleweed:libpython3_5m1_0-3.5.1-3.6",
            "openSUSE Tumbleweed:libpython3_5m1_0-32bit-3.5.1-3.6",
            "openSUSE Tumbleweed:python3-base-3.5.1-3.6",
            "openSUSE Tumbleweed:python3-base-32bit-3.5.1-3.6",
            "openSUSE Tumbleweed:python3-devel-3.5.1-3.6",
            "openSUSE Tumbleweed:python3-idle-3.5.1-3.6",
            "openSUSE Tumbleweed:python3-testsuite-3.5.1-3.6",
            "openSUSE Tumbleweed:python3-tools-3.5.1-3.6"
          ]
        }
      ],
      "CVSSScoreSets": {}
    },
    {
      "CVE": "CVE-2011-4944",
      "Description": "Python 2.6 through 3.2 creates ~/.pypirc with world-readable permissions before changing them after data has been written, which introduces a race condition that allows local users to obtain a username and password by reading this file.",
      "Threats": [
        {
          "Type": "Impact",
          "Severity": "low"
        }
      ],
      "References": [
        {
          "URL": "https://www.suse.com/security/cve/CVE-2011-4944.html",
          "Description": "CVE-2011-4944"
        },
        {
          "URL": "https://bugzilla.suse.com/754447",
          "Description": "SUSE Bug 754447"
        }
      ],
      "ProductStatuses": [
        {
          "Type": "Fixed",
          "ProductID": [
            "openSUSE Tumbleweed:libpython3_5m1_0-3.5.1-3.6",
            "openSUSE Tumbleweed:libpython3_5m1_0-32bit-3.5.1-3.6",
            "openSUSE Tumbleweed:python3-base-3.5.1-3.6",
            "openSUSE Tumbleweed:python3-base-32bit-3.5.1-3.6",
            "openSUSE Tumbleweed:python3-devel-3.5.1-3.6",
            "openSUSE Tumbleweed:python3-idle-3.5.1-3.6",
            "openSUSE Tumbleweed:python3-testsuite-3.5.1-3.6",
            "openSUSE Tumbleweed:python3-tools-3.5.1-3.6"
          ]
        }
      ],
      "CVSSScoreSets": {}
    },
    {
      "CVE": "CVE-2012-0845",
      "Description": "SimpleXMLRPCServer.py in SimpleXMLRPCServer in Python before 2.6.8, 2.7.x before 2.7.3, 3.x before 3.1.5, and 3.2.x before 3.2.3 allows remote attackers to cause a denial of service (infinite loop and CPU consumption) via an XML-RPC POST request that contains a smaller amount of data than specified by the Content-Length header.",
      "Threats": [
        {
          "Type": "Impact",
          "Severity": "moderate"
        }
      ],
      "References": [
        {
          "URL": "https://www.suse.com/security/cve/CVE-2012-0845.html",
          "Description": "CVE-2012-0845"
        },
        {
          "URL": "https://bugzilla.suse.com/747125",
          "Description": "SUSE Bug 747125"
        }
      ],
      "ProductStatuses": [
        {
          "Type": "Fixed",
          "ProductID": [
            "openSUSE Tumbleweed:libpython3_5m1_0-3.5.1-3.6",
            "openSUSE Tumbleweed:libpython3_5m1_0-32bit-3.5.1-3.6",
            "openSUSE Tumbleweed:python3-base-3.5.1-3.6",
            "openSUSE Tumbleweed:python3-base-32bit-3.5.1-3.6",
            "openSUSE Tumbleweed:python3-devel-3.5.1-3.6",
            "openSUSE Tumbleweed:python3-idle-3.5.1-3.6",
            "openSUSE Tumbleweed:python3-testsuite-3.5.1-3.6",
            "openSUSE Tumbleweed:python3-tools-3.5.1-3.6"
          ]
        }
      ],
      "CVSSScoreSets": {}
    },
    {
      "CVE": "CVE-2012-1150",
      "Description": "Python before 2.6.8, 2.7.x before 2.7.3, 3.x before 3.1.5, and 3.2.x before 3.2.3 computes hash values without restricting the ability to trigger hash collisions predictably, which allows context-dependent attackers to cause a denial of service (CPU consumption) via crafted input to an application that maintains a hash table.",
      "Threats": [
        {
          "Type": "Impact",
          "Severity": "moderate"
        }
      ],
      "References": [
        {
          "URL": "https://www.suse.com/security/cve/CVE-2012-1150.html",
          "Description": "CVE-2012-1150"
        },
        {
          "URL": "https://bugzilla.suse.com/751718",
          "Description": "SUSE Bug 751718"
        },
        {
          "URL": "https://bugzilla.suse.com/755383",
          "Description": "SUSE Bug 755383"
        },
        {
          "URL": "https://bugzilla.suse.com/826682",
          "Description": "SUSE Bug 826682"
        }
      ],
      "ProductStatuses": [
        {
          "Type": "Fixed",
          "ProductID": [
            "openSUSE Tumbleweed:libpython3_5m1_0-3.5.1-3.6",
            "openSUSE Tumbleweed:libpython3_5m1_0-32bit-3.5.1-3.6",
            "openSUSE Tumbleweed:python3-base-3.5.1-3.6",
            "openSUSE Tumbleweed:python3-base-32bit-3.5.1-3.6",
            "openSUSE Tumbleweed:python3-devel-3.5.1-3.6",
            "openSUSE Tumbleweed:python3-idle-3.5.1-3.6",
            "openSUSE Tumbleweed:python3-testsuite-3.5.1-3.6",
            "openSUSE Tumbleweed:python3-tools-3.5.1-3.6"
          ]
        }
      ],
      "CVSSScoreSets": {}
    },
    {
      "CVE": "CVE-2013-1752",
      "Description": "** REJECT ** Various versions of Python do not properly restrict readline calls, which allows remote attackers to cause a denial of service (memory consumption) via a long string, related to (1) httplib - fixed in 2.7.4, 2.6.9, and 3.3.3; (2) ftplib - fixed in 2.7.6, 2.6.9, 3.3.3; (3) imaplib - not yet fixed in 2.7.x, fixed in 2.6.9, 3.3.3; (4) nntplib - fixed in 2.7.6, 2.6.9, 3.3.3; (5) poplib - not yet fixed in 2.7.x, fixed in 2.6.9, 3.3.3; and (6) smtplib - not yet fixed in 2.7.x, fixed in 2.6.9, not yet fixed in 3.3.x. NOTE: this was REJECTed because it is incompatible with CNT1 \"Independently Fixable\" in the CVE Counting Decisions.",
      "Threats": [
        {
          "Type": "Impact",
          "Severity": "moderate"
        }
      ],
      "References": [
        {
          "URL": "https://www.suse.com/security/cve/CVE-2013-1752.html",
          "Description": "CVE-2013-1752"
        },
        {
          "URL": "https://bugzilla.suse.com/856835",
          "Description": "SUSE Bug 856835"
        },
        {
          "URL": "https://bugzilla.suse.com/856836",
          "Description": "SUSE Bug 856836"
        },
        {
          "URL": "https://bugzilla.suse.com/863741",
          "Description": "SUSE Bug 863741"
        },
        {
          "URL": "https://bugzilla.suse.com/885882",
          "Description": "SUSE Bug 885882"
        },
        {
          "URL": "https://bugzilla.suse.com/898572",
          "Description": "SUSE Bug 898572"
        },
        {
          "URL": "https://bugzilla.suse.com/912739",
          "Description": "SUSE Bug 912739"
        }
      ],
      "ProductStatuses": [
        {
          "Type": "Fixed",
          "ProductID": [
            "openSUSE Tumbleweed:libpython3_5m1_0-3.5.1-3.6",
            "openSUSE Tumbleweed:libpython3_5m1_0-32bit-3.5.1-3.6",
            "openSUSE Tumbleweed:python3-base-3.5.1-3.6",
            "openSUSE Tumbleweed:python3-base-32bit-3.5.1-3.6",
            "openSUSE Tumbleweed:python3-devel-3.5.1-3.6",
            "openSUSE Tumbleweed:python3-idle-3.5.1-3.6",
            "openSUSE Tumbleweed:python3-testsuite-3.5.1-3.6",
            "openSUSE Tumbleweed:python3-tools-3.5.1-3.6"
          ]
        }
      ],
      "CVSSScoreSets": {}
    },
    {
      "CVE": "CVE-2013-4238",
      "Description": "The ssl.match_hostname function in the SSL module in Python 2.6 through 3.4 does not properly handle a '\\0' character in a domain name in the Subject Alternative Name field of an X.509 certificate, which allows man-in-the-middle attackers to spoof arbitrary SSL servers via a crafted certificate issued by a legitimate Certification Authority, a related issue to CVE-2009-2408.",
      "Threats": [
        {
          "Type": "Impact",
          "Severity": "moderate"
        }
      ],
      "References": [
        {
          "URL": "https://www.suse.com/security/cve/CVE-2013-4238.html",
          "Description": "CVE-2013-4238"
        },
        {
          "URL": "https://bugzilla.suse.com/834601",
          "Description": "SUSE Bug 834601"
        },
        {
          "URL": "https://bugzilla.suse.com/839107",
          "Description": "SUSE Bug 839107"
        },
        {
          "URL": "https://bugzilla.suse.com/882915",
          "Description": "SUSE Bug 882915"
        },
        {
          "URL": "https://bugzilla.suse.com/912739",
          "Description": "SUSE Bug 912739"
        }
      ],
      "ProductStatuses": [
        {
          "Type": "Fixed",
          "ProductID": [
            "openSUSE Tumbleweed:libpython3_5m1_0-3.5.1-3.6",
            "openSUSE Tumbleweed:libpython3_5m1_0-32bit-3.5.1-3.6",
            "openSUSE Tumbleweed:python3-base-3.5.1-3.6",
            "openSUSE Tumbleweed:python3-base-32bit-3.5.1-3.6",
            "openSUSE Tumbleweed:python3-devel-3.5.1-3.6",
            "openSUSE Tumbleweed:python3-idle-3.5.1-3.6",
            "openSUSE Tumbleweed:python3-testsuite-3.5.1-3.6",
            "openSUSE Tumbleweed:python3-tools-3.5.1-3.6"
          ]
        }
      ],
      "CVSSScoreSets": {}
    },
    {
      "CVE": "CVE-2014-2667",
      "Description": "Race condition in the _get_masked_mode function in Lib/os.py in Python 3.2 through 3.5, when exist_ok is set to true and multiple threads are used, might allow local users to bypass intended file permissions by leveraging a separate application vulnerability before the umask has been set to the expected value.",
      "Threats": [
        {
          "Type": "Impact",
          "Severity": "moderate"
        }
      ],
      "References": [
        {
          "URL": "https://www.suse.com/security/cve/CVE-2014-2667.html",
          "Description": "CVE-2014-2667"
        },
        {
          "URL": "https://bugzilla.suse.com/871152",
          "Description": "SUSE Bug 871152"
        }
      ],
      "ProductStatuses": [
        {
          "Type": "Fixed",
          "ProductID": [
            "openSUSE Tumbleweed:libpython3_5m1_0-3.5.1-3.6",
            "openSUSE Tumbleweed:libpython3_5m1_0-32bit-3.5.1-3.6",
            "openSUSE Tumbleweed:python3-base-3.5.1-3.6",
            "openSUSE Tumbleweed:python3-base-32bit-3.5.1-3.6",
            "openSUSE Tumbleweed:python3-devel-3.5.1-3.6",
            "openSUSE Tumbleweed:python3-idle-3.5.1-3.6",
            "openSUSE Tumbleweed:python3-testsuite-3.5.1-3.6",
            "openSUSE Tumbleweed:python3-tools-3.5.1-3.6"
          ]
        }
      ],
      "CVSSScoreSets": {}
    },
    {
      "CVE": "CVE-2014-4650",
      "Description": "The CGIHTTPServer module in Python 2.7.5 and 3.3.4 does not properly handle URLs in which URL encoding is used for path separators, which allows remote attackers to read script source code or conduct directory traversal attacks and execute unintended code via a crafted character sequence, as demonstrated by a %2f separator.",
      "Threats": [
        {
          "Type": "Impact",
          "Severity": "moderate"
        }
      ],
      "References": [
        {
          "URL": "https://www.suse.com/security/cve/CVE-2014-4650.html",
          "Description": "CVE-2014-4650"
        },
        {
          "URL": "https://bugzilla.suse.com/856835",
          "Description": "SUSE Bug 856835"
        },
        {
          "URL": "https://bugzilla.suse.com/856836",
          "Description": "SUSE Bug 856836"
        },
        {
          "URL": "https://bugzilla.suse.com/863741",
          "Description": "SUSE Bug 863741"
        },
        {
          "URL": "https://bugzilla.suse.com/885882",
          "Description": "SUSE Bug 885882"
        },
        {
          "URL": "https://bugzilla.suse.com/898572",
          "Description": "SUSE Bug 898572"
        },
        {
          "URL": "https://bugzilla.suse.com/912739",
          "Description": "SUSE Bug 912739"
        }
      ],
      "ProductStatuses": [
        {
          "Type": "Fixed",
          "ProductID": [
            "openSUSE Tumbleweed:libpython3_5m1_0-3.5.1-3.6",
            "openSUSE Tumbleweed:libpython3_5m1_0-32bit-3.5.1-3.6",
            "openSUSE Tumbleweed:python3-base-3.5.1-3.6",
            "openSUSE Tumbleweed:python3-base-32bit-3.5.1-3.6",
            "openSUSE Tumbleweed:python3-devel-3.5.1-3.6",
            "openSUSE Tumbleweed:python3-idle-3.5.1-3.6",
            "openSUSE Tumbleweed:python3-testsuite-3.5.1-3.6",
            "openSUSE Tumbleweed:python3-tools-3.5.1-3.6"
          ]
        }
      ],
      "CVSSScoreSets": {}
    }
  ]
}