{
  "Title": "ruby2.7-rubygem-rubyzip-2.3.2-1.2 on GA media",
  "Tracking": {
    "ID": "openSUSE-SU-2024:11352-1",
    "Status": "Final",
    "Version": "1",
    "InitialReleaseDate": "2024-06-22T21:44:56Z",
    "CurrentReleaseDate": "2024-06-22T21:44:56Z",
    "RevisionHistory": [
      {
        "Number": "1",
        "Date": "2024-06-22T21:44:56Z",
        "Description": "current"
      }
    ]
  },
  "Notes": [
    {
      "Text": "ruby2.7-rubygem-rubyzip-2.3.2-1.2 on GA media",
      "Title": "Topic",
      "Type": "Summary"
    },
    {
      "Text": "These are all security issues fixed in the ruby2.7-rubygem-rubyzip-2.3.2-1.2 package on the GA media of openSUSE Tumbleweed.",
      "Title": "Details",
      "Type": "General"
    },
    {
      "Text": "The CVRF data is provided by SUSE under the Creative Commons License 4.0 with Attribution (CC-BY-4.0).",
      "Title": "Terms of Use",
      "Type": "Legal Disclaimer"
    },
    {
      "Text": "openSUSE-Tumbleweed-2024-11352",
      "Title": "Patchnames",
      "Type": "Details"
    }
  ],
  "ProductTree": {
    "Relationships": [
      {
        "ProductReference": "ruby2.7-rubygem-rubyzip-2.3.2-1.2",
        "RelatesToProductReference": "openSUSE Tumbleweed",
        "RelationType": "Default Component Of"
      },
      {
        "ProductReference": "ruby3.0-rubygem-rubyzip-2.3.2-1.2",
        "RelatesToProductReference": "openSUSE Tumbleweed",
        "RelationType": "Default Component Of"
      }
    ]
  },
  "References": [
    {
      "URL": "https://www.suse.com/support/security/rating/",
      "Description": "SUSE Security Ratings"
    },
    {
      "URL": "https://www.suse.com/security/cve/CVE-2017-5946/",
      "Description": "SUSE CVE CVE-2017-5946 page"
    },
    {
      "URL": "https://www.suse.com/security/cve/CVE-2018-1000544/",
      "Description": "SUSE CVE CVE-2018-1000544 page"
    }
  ],
  "Vulnerabilities": [
    {
      "CVE": "CVE-2017-5946",
      "Description": "The Zip::File component in the rubyzip gem before 1.2.1 for Ruby has a directory traversal vulnerability. If a site allows uploading of .zip files, an attacker can upload a malicious file that uses \"../\" pathname substrings to write arbitrary files to the filesystem.",
      "Threats": [
        {
          "Type": "Impact",
          "Severity": "moderate"
        }
      ],
      "References": [
        {
          "URL": "https://www.suse.com/security/cve/CVE-2017-5946.html",
          "Description": "CVE-2017-5946"
        },
        {
          "URL": "https://bugzilla.suse.com/1027050",
          "Description": "SUSE Bug 1027050"
        },
        {
          "URL": "https://bugzilla.suse.com/1096174",
          "Description": "SUSE Bug 1096174"
        }
      ],
      "ProductStatuses": [
        {
          "Type": "Fixed",
          "ProductID": [
            "openSUSE Tumbleweed:ruby2.7-rubygem-rubyzip-2.3.2-1.2",
            "openSUSE Tumbleweed:ruby3.0-rubygem-rubyzip-2.3.2-1.2"
          ]
        }
      ],
      "CVSSScoreSets": {}
    },
    {
      "CVE": "CVE-2018-1000544",
      "Description": "rubyzip gem rubyzip version 1.2.1 and earlier contains a Directory Traversal vulnerability in Zip::File component that can result in write arbitrary files to the filesystem. This attack appear to be exploitable via If a site allows uploading of .zip files , an attacker can upload a malicious file that contains symlinks or files with absolute pathnames \"../\" to write arbitrary files to the filesystem..",
      "Threats": [
        {
          "Type": "Impact",
          "Severity": "moderate"
        }
      ],
      "References": [
        {
          "URL": "https://www.suse.com/security/cve/CVE-2018-1000544.html",
          "Description": "CVE-2018-1000544"
        },
        {
          "URL": "https://bugzilla.suse.com/1099280",
          "Description": "SUSE Bug 1099280"
        }
      ],
      "ProductStatuses": [
        {
          "Type": "Fixed",
          "ProductID": [
            "openSUSE Tumbleweed:ruby2.7-rubygem-rubyzip-2.3.2-1.2",
            "openSUSE Tumbleweed:ruby3.0-rubygem-rubyzip-2.3.2-1.2"
          ]
        }
      ],
      "CVSSScoreSets": {}
    }
  ]
}