{
  "Title": "rzsz-0.12.21~rc-4.5 on GA media",
  "Tracking": {
    "ID": "openSUSE-SU-2024:11363-1",
    "Status": "Final",
    "Version": "1",
    "InitialReleaseDate": "2024-06-22T21:44:56Z",
    "CurrentReleaseDate": "2024-06-22T21:44:56Z",
    "RevisionHistory": [
      {
        "Number": "1",
        "Date": "2024-06-22T21:44:56Z",
        "Description": "current"
      }
    ]
  },
  "Notes": [
    {
      "Text": "rzsz-0.12.21~rc-4.5 on GA media",
      "Title": "Topic",
      "Type": "Summary"
    },
    {
      "Text": "These are all security issues fixed in the rzsz-0.12.21~rc-4.5 package on the GA media of openSUSE Tumbleweed.",
      "Title": "Details",
      "Type": "General"
    },
    {
      "Text": "The CVRF data is provided by SUSE under the Creative Commons License 4.0 with Attribution (CC-BY-4.0).",
      "Title": "Terms of Use",
      "Type": "Legal Disclaimer"
    },
    {
      "Text": "openSUSE-Tumbleweed-2024-11363",
      "Title": "Patchnames",
      "Type": "Details"
    }
  ],
  "ProductTree": {
    "Relationships": [
      {
        "ProductReference": "rzsz-0.12.21~rc-4.5",
        "RelatesToProductReference": "openSUSE Tumbleweed",
        "RelationType": "Default Component Of"
      }
    ]
  },
  "References": [
    {
      "URL": "https://www.suse.com/support/security/rating/",
      "Description": "SUSE Security Ratings"
    },
    {
      "URL": "https://www.suse.com/security/cve/CVE-2018-10195/",
      "Description": "SUSE CVE CVE-2018-10195 page"
    }
  ],
  "Vulnerabilities": [
    {
      "CVE": "CVE-2018-10195",
      "Description": "lrzsz before version 0.12.21~rc can leak information to the receiving side due to an incorrect length check in the function zsdata that causes a size_t to wrap around.",
      "Threats": [
        {
          "Type": "Impact",
          "Severity": "moderate"
        }
      ],
      "References": [
        {
          "URL": "https://www.suse.com/security/cve/CVE-2018-10195.html",
          "Description": "CVE-2018-10195"
        },
        {
          "URL": "https://bugzilla.suse.com/1090051",
          "Description": "SUSE Bug 1090051"
        },
        {
          "URL": "https://bugzilla.suse.com/1149678",
          "Description": "SUSE Bug 1149678"
        }
      ],
      "ProductStatuses": [
        {
          "Type": "Fixed",
          "ProductID": [
            "openSUSE Tumbleweed:rzsz-0.12.21~rc-4.5"
          ]
        }
      ],
      "CVSSScoreSets": {}
    }
  ]
}