{
  "Title": "mybatis-3.5.6-1.6 on GA media",
  "Tracking": {
    "ID": "openSUSE-SU-2024:11070-1",
    "Status": "Final",
    "Version": "1",
    "InitialReleaseDate": "2024-06-22T21:44:56Z",
    "CurrentReleaseDate": "2024-06-22T21:44:56Z",
    "RevisionHistory": [
      {
        "Number": "1",
        "Date": "2024-06-22T21:44:56Z",
        "Description": "current"
      }
    ]
  },
  "Notes": [
    {
      "Text": "mybatis-3.5.6-1.6 on GA media",
      "Title": "Topic",
      "Type": "Summary"
    },
    {
      "Text": "These are all security issues fixed in the mybatis-3.5.6-1.6 package on the GA media of openSUSE Tumbleweed.",
      "Title": "Details",
      "Type": "General"
    },
    {
      "Text": "The CVRF data is provided by SUSE under the Creative Commons License 4.0 with Attribution (CC-BY-4.0).",
      "Title": "Terms of Use",
      "Type": "Legal Disclaimer"
    },
    {
      "Text": "openSUSE-Tumbleweed-2024-11070",
      "Title": "Patchnames",
      "Type": "Details"
    }
  ],
  "ProductTree": {
    "Relationships": [
      {
        "ProductReference": "mybatis-3.5.6-1.6",
        "RelatesToProductReference": "openSUSE Tumbleweed",
        "RelationType": "Default Component Of"
      },
      {
        "ProductReference": "mybatis-javadoc-3.5.6-1.6",
        "RelatesToProductReference": "openSUSE Tumbleweed",
        "RelationType": "Default Component Of"
      }
    ]
  },
  "References": [
    {
      "URL": "https://www.suse.com/support/security/rating/",
      "Description": "SUSE Security Ratings"
    },
    {
      "URL": "https://www.suse.com/security/cve/CVE-2020-26945/",
      "Description": "SUSE CVE CVE-2020-26945 page"
    }
  ],
  "Vulnerabilities": [
    {
      "CVE": "CVE-2020-26945",
      "Description": "MyBatis before 3.5.6 mishandles deserialization of object streams.",
      "Threats": [
        {
          "Type": "Impact",
          "Severity": "moderate"
        }
      ],
      "References": [
        {
          "URL": "https://www.suse.com/security/cve/CVE-2020-26945.html",
          "Description": "CVE-2020-26945"
        },
        {
          "URL": "https://bugzilla.suse.com/1177568",
          "Description": "SUSE Bug 1177568"
        }
      ],
      "ProductStatuses": [
        {
          "Type": "Fixed",
          "ProductID": [
            "openSUSE Tumbleweed:mybatis-3.5.6-1.6",
            "openSUSE Tumbleweed:mybatis-javadoc-3.5.6-1.6"
          ]
        }
      ],
      "CVSSScoreSets": {}
    }
  ]
}