{
  "Title": "cosign-1.12.0-1.1 on GA media",
  "Tracking": {
    "ID": "openSUSE-SU-2024:12331-1",
    "Status": "Final",
    "Version": "1",
    "InitialReleaseDate": "2024-06-20T21:44:22Z",
    "CurrentReleaseDate": "2024-06-20T21:44:22Z",
    "RevisionHistory": [
      {
        "Number": "1",
        "Date": "2024-06-20T21:44:22Z",
        "Description": "current"
      }
    ]
  },
  "Notes": [
    {
      "Text": "cosign-1.12.0-1.1 on GA media",
      "Title": "Topic",
      "Type": "Summary"
    },
    {
      "Text": "These are all security issues fixed in the cosign-1.12.0-1.1 package on the GA media of openSUSE Tumbleweed.",
      "Title": "Details",
      "Type": "General"
    },
    {
      "Text": "The CVRF data is provided by SUSE under the Creative Commons License 4.0 with Attribution (CC-BY-4.0).",
      "Title": "Terms of Use",
      "Type": "Legal Disclaimer"
    },
    {
      "Text": "openSUSE-Tumbleweed-2024-12331",
      "Title": "Patchnames",
      "Type": "Details"
    }
  ],
  "ProductTree": {
    "Relationships": [
      {
        "ProductReference": "cosign-1.12.0-1.1",
        "RelatesToProductReference": "openSUSE Tumbleweed",
        "RelationType": "Default Component Of"
      }
    ]
  },
  "References": [
    {
      "URL": "https://www.suse.com/support/security/rating/",
      "Description": "SUSE Security Ratings"
    },
    {
      "URL": "https://www.suse.com/security/cve/CVE-2022-36056/",
      "Description": "SUSE CVE CVE-2022-36056 page"
    }
  ],
  "Vulnerabilities": [
    {
      "CVE": "CVE-2022-36056",
      "Description": "Cosign is a project under the sigstore organization which aims to make signatures invisible infrastructure. In versions prior to 1.12.0 a number of vulnerabilities have been found in cosign verify-blob, where Cosign would successfully verify an artifact when verification should have failed. First a cosign bundle can be crafted to successfully verify a blob even if the embedded rekorBundle does not reference the given signature. Second, when providing identity flags, the email and issuer of a certificate is not checked when verifying a Rekor bundle, and the GitHub Actions identity is never checked. Third, providing an invalid Rekor bundle without the experimental flag results in a successful verification. And fourth an invalid transparency log entry will result in immediate success for verification. Details and examples of these issues can be seen in the GHSA-8gw7-4j42-w388 advisory linked. Users are advised to upgrade to 1.12.0. There are no known workarounds for these issues.",
      "Threats": [
        {
          "Type": "Impact",
          "Severity": "moderate"
        }
      ],
      "References": [
        {
          "URL": "https://www.suse.com/security/cve/CVE-2022-36056.html",
          "Description": "CVE-2022-36056"
        },
        {
          "URL": "https://bugzilla.suse.com/1203430",
          "Description": "SUSE Bug 1203430"
        }
      ],
      "ProductStatuses": [
        {
          "Type": "Fixed",
          "ProductID": [
            "openSUSE Tumbleweed:cosign-1.12.0-1.1"
          ]
        }
      ],
      "CVSSScoreSets": {}
    }
  ]
}