{
  "Title": "python311-3.11.0b1-1.1 on GA media",
  "Tracking": {
    "ID": "openSUSE-SU-2024:12089-1",
    "Status": "Final",
    "Version": "1",
    "InitialReleaseDate": "2024-06-20T21:44:22Z",
    "CurrentReleaseDate": "2024-06-20T21:44:22Z",
    "RevisionHistory": [
      {
        "Number": "1",
        "Date": "2024-06-20T21:44:22Z",
        "Description": "current"
      }
    ]
  },
  "Notes": [
    {
      "Text": "python311-3.11.0b1-1.1 on GA media",
      "Title": "Topic",
      "Type": "Summary"
    },
    {
      "Text": "These are all security issues fixed in the python311-3.11.0b1-1.1 package on the GA media of openSUSE Tumbleweed.",
      "Title": "Details",
      "Type": "General"
    },
    {
      "Text": "The CVRF data is provided by SUSE under the Creative Commons License 4.0 with Attribution (CC-BY-4.0).",
      "Title": "Terms of Use",
      "Type": "Legal Disclaimer"
    },
    {
      "Text": "openSUSE-Tumbleweed-2024-12089",
      "Title": "Patchnames",
      "Type": "Details"
    }
  ],
  "ProductTree": {
    "Relationships": [
      {
        "ProductReference": "python311-3.11.0b1-1.1",
        "RelatesToProductReference": "openSUSE Tumbleweed",
        "RelationType": "Default Component Of"
      },
      {
        "ProductReference": "python311-32bit-3.11.0b1-1.1",
        "RelatesToProductReference": "openSUSE Tumbleweed",
        "RelationType": "Default Component Of"
      },
      {
        "ProductReference": "python311-curses-3.11.0b1-1.1",
        "RelatesToProductReference": "openSUSE Tumbleweed",
        "RelationType": "Default Component Of"
      },
      {
        "ProductReference": "python311-dbm-3.11.0b1-1.1",
        "RelatesToProductReference": "openSUSE Tumbleweed",
        "RelationType": "Default Component Of"
      },
      {
        "ProductReference": "python311-idle-3.11.0b1-1.1",
        "RelatesToProductReference": "openSUSE Tumbleweed",
        "RelationType": "Default Component Of"
      },
      {
        "ProductReference": "python311-tk-3.11.0b1-1.1",
        "RelatesToProductReference": "openSUSE Tumbleweed",
        "RelationType": "Default Component Of"
      }
    ]
  },
  "References": [
    {
      "URL": "https://www.suse.com/support/security/rating/",
      "Description": "SUSE Security Ratings"
    },
    {
      "URL": "https://www.suse.com/security/cve/CVE-2011-3389/",
      "Description": "SUSE CVE CVE-2011-3389 page"
    },
    {
      "URL": "https://www.suse.com/security/cve/CVE-2011-4944/",
      "Description": "SUSE CVE CVE-2011-4944 page"
    },
    {
      "URL": "https://www.suse.com/security/cve/CVE-2012-0845/",
      "Description": "SUSE CVE CVE-2012-0845 page"
    },
    {
      "URL": "https://www.suse.com/security/cve/CVE-2012-1150/",
      "Description": "SUSE CVE CVE-2012-1150 page"
    },
    {
      "URL": "https://www.suse.com/security/cve/CVE-2013-1752/",
      "Description": "SUSE CVE CVE-2013-1752 page"
    },
    {
      "URL": "https://www.suse.com/security/cve/CVE-2013-4238/",
      "Description": "SUSE CVE CVE-2013-4238 page"
    },
    {
      "URL": "https://www.suse.com/security/cve/CVE-2014-2667/",
      "Description": "SUSE CVE CVE-2014-2667 page"
    },
    {
      "URL": "https://www.suse.com/security/cve/CVE-2014-4650/",
      "Description": "SUSE CVE CVE-2014-4650 page"
    },
    {
      "URL": "https://www.suse.com/security/cve/CVE-2019-20907/",
      "Description": "SUSE CVE CVE-2019-20907 page"
    },
    {
      "URL": "https://www.suse.com/security/cve/CVE-2019-5010/",
      "Description": "SUSE CVE CVE-2019-5010 page"
    },
    {
      "URL": "https://www.suse.com/security/cve/CVE-2019-9947/",
      "Description": "SUSE CVE CVE-2019-9947 page"
    },
    {
      "URL": "https://www.suse.com/security/cve/CVE-2020-15523/",
      "Description": "SUSE CVE CVE-2020-15523 page"
    },
    {
      "URL": "https://www.suse.com/security/cve/CVE-2020-15801/",
      "Description": "SUSE CVE CVE-2020-15801 page"
    },
    {
      "URL": "https://www.suse.com/security/cve/CVE-2020-8492/",
      "Description": "SUSE CVE CVE-2020-8492 page"
    },
    {
      "URL": "https://www.suse.com/security/cve/CVE-2021-23336/",
      "Description": "SUSE CVE CVE-2021-23336 page"
    },
    {
      "URL": "https://www.suse.com/security/cve/CVE-2021-3177/",
      "Description": "SUSE CVE CVE-2021-3177 page"
    },
    {
      "URL": "https://www.suse.com/security/cve/CVE-2021-3426/",
      "Description": "SUSE CVE CVE-2021-3426 page"
    }
  ],
  "Vulnerabilities": [
    {
      "CVE": "CVE-2011-3389",
      "Description": "The SSL protocol, as used in certain configurations in Microsoft Windows and Microsoft Internet Explorer, Mozilla Firefox, Google Chrome, Opera, and other products, encrypts data by using CBC mode with chained initialization vectors, which allows man-in-the-middle attackers to obtain plaintext HTTP headers via a blockwise chosen-boundary attack (BCBA) on an HTTPS session, in conjunction with JavaScript code that uses (1) the HTML5 WebSocket API, (2) the Java URLConnection API, or (3) the Silverlight WebClient API, aka a \"BEAST\" attack.",
      "Threats": [
        {
          "Type": "Impact",
          "Severity": "moderate"
        }
      ],
      "References": [
        {
          "URL": "https://www.suse.com/security/cve/CVE-2011-3389.html",
          "Description": "CVE-2011-3389"
        },
        {
          "URL": "https://bugzilla.suse.com/716002",
          "Description": "SUSE Bug 716002"
        },
        {
          "URL": "https://bugzilla.suse.com/719047",
          "Description": "SUSE Bug 719047"
        },
        {
          "URL": "https://bugzilla.suse.com/725167",
          "Description": "SUSE Bug 725167"
        },
        {
          "URL": "https://bugzilla.suse.com/726096",
          "Description": "SUSE Bug 726096"
        },
        {
          "URL": "https://bugzilla.suse.com/739248",
          "Description": "SUSE Bug 739248"
        },
        {
          "URL": "https://bugzilla.suse.com/739256",
          "Description": "SUSE Bug 739256"
        },
        {
          "URL": "https://bugzilla.suse.com/742306",
          "Description": "SUSE Bug 742306"
        },
        {
          "URL": "https://bugzilla.suse.com/751718",
          "Description": "SUSE Bug 751718"
        },
        {
          "URL": "https://bugzilla.suse.com/759666",
          "Description": "SUSE Bug 759666"
        },
        {
          "URL": "https://bugzilla.suse.com/763598",
          "Description": "SUSE Bug 763598"
        },
        {
          "URL": "https://bugzilla.suse.com/814655",
          "Description": "SUSE Bug 814655"
        }
      ],
      "ProductStatuses": [
        {
          "Type": "Fixed",
          "ProductID": [
            "openSUSE Tumbleweed:python311-3.11.0b1-1.1",
            "openSUSE Tumbleweed:python311-32bit-3.11.0b1-1.1",
            "openSUSE Tumbleweed:python311-curses-3.11.0b1-1.1",
            "openSUSE Tumbleweed:python311-dbm-3.11.0b1-1.1",
            "openSUSE Tumbleweed:python311-idle-3.11.0b1-1.1",
            "openSUSE Tumbleweed:python311-tk-3.11.0b1-1.1"
          ]
        }
      ],
      "CVSSScoreSets": {}
    },
    {
      "CVE": "CVE-2011-4944",
      "Description": "Python 2.6 through 3.2 creates ~/.pypirc with world-readable permissions before changing them after data has been written, which introduces a race condition that allows local users to obtain a username and password by reading this file.",
      "Threats": [
        {
          "Type": "Impact",
          "Severity": "low"
        }
      ],
      "References": [
        {
          "URL": "https://www.suse.com/security/cve/CVE-2011-4944.html",
          "Description": "CVE-2011-4944"
        },
        {
          "URL": "https://bugzilla.suse.com/754447",
          "Description": "SUSE Bug 754447"
        }
      ],
      "ProductStatuses": [
        {
          "Type": "Fixed",
          "ProductID": [
            "openSUSE Tumbleweed:python311-3.11.0b1-1.1",
            "openSUSE Tumbleweed:python311-32bit-3.11.0b1-1.1",
            "openSUSE Tumbleweed:python311-curses-3.11.0b1-1.1",
            "openSUSE Tumbleweed:python311-dbm-3.11.0b1-1.1",
            "openSUSE Tumbleweed:python311-idle-3.11.0b1-1.1",
            "openSUSE Tumbleweed:python311-tk-3.11.0b1-1.1"
          ]
        }
      ],
      "CVSSScoreSets": {}
    },
    {
      "CVE": "CVE-2012-0845",
      "Description": "SimpleXMLRPCServer.py in SimpleXMLRPCServer in Python before 2.6.8, 2.7.x before 2.7.3, 3.x before 3.1.5, and 3.2.x before 3.2.3 allows remote attackers to cause a denial of service (infinite loop and CPU consumption) via an XML-RPC POST request that contains a smaller amount of data than specified by the Content-Length header.",
      "Threats": [
        {
          "Type": "Impact",
          "Severity": "moderate"
        }
      ],
      "References": [
        {
          "URL": "https://www.suse.com/security/cve/CVE-2012-0845.html",
          "Description": "CVE-2012-0845"
        },
        {
          "URL": "https://bugzilla.suse.com/747125",
          "Description": "SUSE Bug 747125"
        }
      ],
      "ProductStatuses": [
        {
          "Type": "Fixed",
          "ProductID": [
            "openSUSE Tumbleweed:python311-3.11.0b1-1.1",
            "openSUSE Tumbleweed:python311-32bit-3.11.0b1-1.1",
            "openSUSE Tumbleweed:python311-curses-3.11.0b1-1.1",
            "openSUSE Tumbleweed:python311-dbm-3.11.0b1-1.1",
            "openSUSE Tumbleweed:python311-idle-3.11.0b1-1.1",
            "openSUSE Tumbleweed:python311-tk-3.11.0b1-1.1"
          ]
        }
      ],
      "CVSSScoreSets": {}
    },
    {
      "CVE": "CVE-2012-1150",
      "Description": "Python before 2.6.8, 2.7.x before 2.7.3, 3.x before 3.1.5, and 3.2.x before 3.2.3 computes hash values without restricting the ability to trigger hash collisions predictably, which allows context-dependent attackers to cause a denial of service (CPU consumption) via crafted input to an application that maintains a hash table.",
      "Threats": [
        {
          "Type": "Impact",
          "Severity": "moderate"
        }
      ],
      "References": [
        {
          "URL": "https://www.suse.com/security/cve/CVE-2012-1150.html",
          "Description": "CVE-2012-1150"
        },
        {
          "URL": "https://bugzilla.suse.com/751718",
          "Description": "SUSE Bug 751718"
        },
        {
          "URL": "https://bugzilla.suse.com/755383",
          "Description": "SUSE Bug 755383"
        },
        {
          "URL": "https://bugzilla.suse.com/826682",
          "Description": "SUSE Bug 826682"
        }
      ],
      "ProductStatuses": [
        {
          "Type": "Fixed",
          "ProductID": [
            "openSUSE Tumbleweed:python311-3.11.0b1-1.1",
            "openSUSE Tumbleweed:python311-32bit-3.11.0b1-1.1",
            "openSUSE Tumbleweed:python311-curses-3.11.0b1-1.1",
            "openSUSE Tumbleweed:python311-dbm-3.11.0b1-1.1",
            "openSUSE Tumbleweed:python311-idle-3.11.0b1-1.1",
            "openSUSE Tumbleweed:python311-tk-3.11.0b1-1.1"
          ]
        }
      ],
      "CVSSScoreSets": {}
    },
    {
      "CVE": "CVE-2013-1752",
      "Description": "** REJECT ** Various versions of Python do not properly restrict readline calls, which allows remote attackers to cause a denial of service (memory consumption) via a long string, related to (1) httplib - fixed in 2.7.4, 2.6.9, and 3.3.3; (2) ftplib - fixed in 2.7.6, 2.6.9, 3.3.3; (3) imaplib - not yet fixed in 2.7.x, fixed in 2.6.9, 3.3.3; (4) nntplib - fixed in 2.7.6, 2.6.9, 3.3.3; (5) poplib - not yet fixed in 2.7.x, fixed in 2.6.9, 3.3.3; and (6) smtplib - not yet fixed in 2.7.x, fixed in 2.6.9, not yet fixed in 3.3.x. NOTE: this was REJECTed because it is incompatible with CNT1 \"Independently Fixable\" in the CVE Counting Decisions.",
      "Threats": [
        {
          "Type": "Impact",
          "Severity": "moderate"
        }
      ],
      "References": [
        {
          "URL": "https://www.suse.com/security/cve/CVE-2013-1752.html",
          "Description": "CVE-2013-1752"
        },
        {
          "URL": "https://bugzilla.suse.com/856835",
          "Description": "SUSE Bug 856835"
        },
        {
          "URL": "https://bugzilla.suse.com/856836",
          "Description": "SUSE Bug 856836"
        },
        {
          "URL": "https://bugzilla.suse.com/863741",
          "Description": "SUSE Bug 863741"
        },
        {
          "URL": "https://bugzilla.suse.com/885882",
          "Description": "SUSE Bug 885882"
        },
        {
          "URL": "https://bugzilla.suse.com/898572",
          "Description": "SUSE Bug 898572"
        },
        {
          "URL": "https://bugzilla.suse.com/912739",
          "Description": "SUSE Bug 912739"
        }
      ],
      "ProductStatuses": [
        {
          "Type": "Fixed",
          "ProductID": [
            "openSUSE Tumbleweed:python311-3.11.0b1-1.1",
            "openSUSE Tumbleweed:python311-32bit-3.11.0b1-1.1",
            "openSUSE Tumbleweed:python311-curses-3.11.0b1-1.1",
            "openSUSE Tumbleweed:python311-dbm-3.11.0b1-1.1",
            "openSUSE Tumbleweed:python311-idle-3.11.0b1-1.1",
            "openSUSE Tumbleweed:python311-tk-3.11.0b1-1.1"
          ]
        }
      ],
      "CVSSScoreSets": {}
    },
    {
      "CVE": "CVE-2013-4238",
      "Description": "The ssl.match_hostname function in the SSL module in Python 2.6 through 3.4 does not properly handle a '\\0' character in a domain name in the Subject Alternative Name field of an X.509 certificate, which allows man-in-the-middle attackers to spoof arbitrary SSL servers via a crafted certificate issued by a legitimate Certification Authority, a related issue to CVE-2009-2408.",
      "Threats": [
        {
          "Type": "Impact",
          "Severity": "moderate"
        }
      ],
      "References": [
        {
          "URL": "https://www.suse.com/security/cve/CVE-2013-4238.html",
          "Description": "CVE-2013-4238"
        },
        {
          "URL": "https://bugzilla.suse.com/834601",
          "Description": "SUSE Bug 834601"
        },
        {
          "URL": "https://bugzilla.suse.com/839107",
          "Description": "SUSE Bug 839107"
        },
        {
          "URL": "https://bugzilla.suse.com/882915",
          "Description": "SUSE Bug 882915"
        },
        {
          "URL": "https://bugzilla.suse.com/912739",
          "Description": "SUSE Bug 912739"
        }
      ],
      "ProductStatuses": [
        {
          "Type": "Fixed",
          "ProductID": [
            "openSUSE Tumbleweed:python311-3.11.0b1-1.1",
            "openSUSE Tumbleweed:python311-32bit-3.11.0b1-1.1",
            "openSUSE Tumbleweed:python311-curses-3.11.0b1-1.1",
            "openSUSE Tumbleweed:python311-dbm-3.11.0b1-1.1",
            "openSUSE Tumbleweed:python311-idle-3.11.0b1-1.1",
            "openSUSE Tumbleweed:python311-tk-3.11.0b1-1.1"
          ]
        }
      ],
      "CVSSScoreSets": {}
    },
    {
      "CVE": "CVE-2014-2667",
      "Description": "Race condition in the _get_masked_mode function in Lib/os.py in Python 3.2 through 3.5, when exist_ok is set to true and multiple threads are used, might allow local users to bypass intended file permissions by leveraging a separate application vulnerability before the umask has been set to the expected value.",
      "Threats": [
        {
          "Type": "Impact",
          "Severity": "moderate"
        }
      ],
      "References": [
        {
          "URL": "https://www.suse.com/security/cve/CVE-2014-2667.html",
          "Description": "CVE-2014-2667"
        },
        {
          "URL": "https://bugzilla.suse.com/871152",
          "Description": "SUSE Bug 871152"
        }
      ],
      "ProductStatuses": [
        {
          "Type": "Fixed",
          "ProductID": [
            "openSUSE Tumbleweed:python311-3.11.0b1-1.1",
            "openSUSE Tumbleweed:python311-32bit-3.11.0b1-1.1",
            "openSUSE Tumbleweed:python311-curses-3.11.0b1-1.1",
            "openSUSE Tumbleweed:python311-dbm-3.11.0b1-1.1",
            "openSUSE Tumbleweed:python311-idle-3.11.0b1-1.1",
            "openSUSE Tumbleweed:python311-tk-3.11.0b1-1.1"
          ]
        }
      ],
      "CVSSScoreSets": {}
    },
    {
      "CVE": "CVE-2014-4650",
      "Description": "The CGIHTTPServer module in Python 2.7.5 and 3.3.4 does not properly handle URLs in which URL encoding is used for path separators, which allows remote attackers to read script source code or conduct directory traversal attacks and execute unintended code via a crafted character sequence, as demonstrated by a %2f separator.",
      "Threats": [
        {
          "Type": "Impact",
          "Severity": "moderate"
        }
      ],
      "References": [
        {
          "URL": "https://www.suse.com/security/cve/CVE-2014-4650.html",
          "Description": "CVE-2014-4650"
        },
        {
          "URL": "https://bugzilla.suse.com/856835",
          "Description": "SUSE Bug 856835"
        },
        {
          "URL": "https://bugzilla.suse.com/856836",
          "Description": "SUSE Bug 856836"
        },
        {
          "URL": "https://bugzilla.suse.com/863741",
          "Description": "SUSE Bug 863741"
        },
        {
          "URL": "https://bugzilla.suse.com/885882",
          "Description": "SUSE Bug 885882"
        },
        {
          "URL": "https://bugzilla.suse.com/898572",
          "Description": "SUSE Bug 898572"
        },
        {
          "URL": "https://bugzilla.suse.com/912739",
          "Description": "SUSE Bug 912739"
        }
      ],
      "ProductStatuses": [
        {
          "Type": "Fixed",
          "ProductID": [
            "openSUSE Tumbleweed:python311-3.11.0b1-1.1",
            "openSUSE Tumbleweed:python311-32bit-3.11.0b1-1.1",
            "openSUSE Tumbleweed:python311-curses-3.11.0b1-1.1",
            "openSUSE Tumbleweed:python311-dbm-3.11.0b1-1.1",
            "openSUSE Tumbleweed:python311-idle-3.11.0b1-1.1",
            "openSUSE Tumbleweed:python311-tk-3.11.0b1-1.1"
          ]
        }
      ],
      "CVSSScoreSets": {}
    },
    {
      "CVE": "CVE-2019-20907",
      "Description": "In Lib/tarfile.py in Python through 3.8.3, an attacker is able to craft a TAR archive leading to an infinite loop when opened by tarfile.open, because _proc_pax lacks header validation.",
      "Threats": [
        {
          "Type": "Impact",
          "Severity": "moderate"
        }
      ],
      "References": [
        {
          "URL": "https://www.suse.com/security/cve/CVE-2019-20907.html",
          "Description": "CVE-2019-20907"
        },
        {
          "URL": "https://bugzilla.suse.com/1174091",
          "Description": "SUSE Bug 1174091"
        }
      ],
      "ProductStatuses": [
        {
          "Type": "Fixed",
          "ProductID": [
            "openSUSE Tumbleweed:python311-3.11.0b1-1.1",
            "openSUSE Tumbleweed:python311-32bit-3.11.0b1-1.1",
            "openSUSE Tumbleweed:python311-curses-3.11.0b1-1.1",
            "openSUSE Tumbleweed:python311-dbm-3.11.0b1-1.1",
            "openSUSE Tumbleweed:python311-idle-3.11.0b1-1.1",
            "openSUSE Tumbleweed:python311-tk-3.11.0b1-1.1"
          ]
        }
      ],
      "CVSSScoreSets": {}
    },
    {
      "CVE": "CVE-2019-5010",
      "Description": "An exploitable denial-of-service vulnerability exists in the X509 certificate parser of Python.org Python 2.7.11 / 3.6.6. A specially crafted X509 certificate can cause a NULL pointer dereference, resulting in a denial of service. An attacker can initiate or accept TLS connections using crafted certificates to trigger this vulnerability.",
      "Threats": [
        {
          "Type": "Impact",
          "Severity": "important"
        }
      ],
      "References": [
        {
          "URL": "https://www.suse.com/security/cve/CVE-2019-5010.html",
          "Description": "CVE-2019-5010"
        },
        {
          "URL": "https://bugzilla.suse.com/1122191",
          "Description": "SUSE Bug 1122191"
        },
        {
          "URL": "https://bugzilla.suse.com/1126909",
          "Description": "SUSE Bug 1126909"
        }
      ],
      "ProductStatuses": [
        {
          "Type": "Fixed",
          "ProductID": [
            "openSUSE Tumbleweed:python311-3.11.0b1-1.1",
            "openSUSE Tumbleweed:python311-32bit-3.11.0b1-1.1",
            "openSUSE Tumbleweed:python311-curses-3.11.0b1-1.1",
            "openSUSE Tumbleweed:python311-dbm-3.11.0b1-1.1",
            "openSUSE Tumbleweed:python311-idle-3.11.0b1-1.1",
            "openSUSE Tumbleweed:python311-tk-3.11.0b1-1.1"
          ]
        }
      ],
      "CVSSScoreSets": {}
    },
    {
      "CVE": "CVE-2019-9947",
      "Description": "An issue was discovered in urllib2 in Python 2.x through 2.7.16 and urllib in Python 3.x through 3.7.3. CRLF injection is possible if the attacker controls a url parameter, as demonstrated by the first argument to urllib.request.urlopen with \\r\\n (specifically in the path component of a URL that lacks a ? character) followed by an HTTP header or a Redis command. This is similar to the CVE-2019-9740 query string issue. This is fixed in: v2.7.17, v2.7.17rc1, v2.7.18, v2.7.18rc1; v3.5.10, v3.5.10rc1, v3.5.8, v3.5.8rc1, v3.5.8rc2, v3.5.9; v3.6.10, v3.6.10rc1, v3.6.11, v3.6.11rc1, v3.6.12, v3.6.9, v3.6.9rc1; v3.7.4, v3.7.4rc1, v3.7.4rc2, v3.7.5, v3.7.5rc1, v3.7.6, v3.7.6rc1, v3.7.7, v3.7.7rc1, v3.7.8, v3.7.8rc1, v3.7.9.",
      "Threats": [
        {
          "Type": "Impact",
          "Severity": "moderate"
        }
      ],
      "References": [
        {
          "URL": "https://www.suse.com/security/cve/CVE-2019-9947.html",
          "Description": "CVE-2019-9947"
        },
        {
          "URL": "https://bugzilla.suse.com/1130840",
          "Description": "SUSE Bug 1130840"
        },
        {
          "URL": "https://bugzilla.suse.com/1136184",
          "Description": "SUSE Bug 1136184"
        },
        {
          "URL": "https://bugzilla.suse.com/1155094",
          "Description": "SUSE Bug 1155094"
        },
        {
          "URL": "https://bugzilla.suse.com/1201559",
          "Description": "SUSE Bug 1201559"
        }
      ],
      "ProductStatuses": [
        {
          "Type": "Fixed",
          "ProductID": [
            "openSUSE Tumbleweed:python311-3.11.0b1-1.1",
            "openSUSE Tumbleweed:python311-32bit-3.11.0b1-1.1",
            "openSUSE Tumbleweed:python311-curses-3.11.0b1-1.1",
            "openSUSE Tumbleweed:python311-dbm-3.11.0b1-1.1",
            "openSUSE Tumbleweed:python311-idle-3.11.0b1-1.1",
            "openSUSE Tumbleweed:python311-tk-3.11.0b1-1.1"
          ]
        }
      ],
      "CVSSScoreSets": {}
    },
    {
      "CVE": "CVE-2020-15523",
      "Description": "In Python 3.6 through 3.6.10, 3.7 through 3.7.8, 3.8 through 3.8.4rc1, and 3.9 through 3.9.0b4 on Windows, a Trojan horse python3.dll might be used in cases where CPython is embedded in a native application. This occurs because python3X.dll may use an invalid search path for python3.dll loading (after Py_SetPath has been used). NOTE: this issue CANNOT occur when using python.exe from a standard (non-embedded) Python installation on Windows.",
      "Threats": [
        {
          "Type": "Impact",
          "Severity": "important"
        }
      ],
      "References": [
        {
          "URL": "https://www.suse.com/security/cve/CVE-2020-15523.html",
          "Description": "CVE-2020-15523"
        },
        {
          "URL": "https://bugzilla.suse.com/1173745",
          "Description": "SUSE Bug 1173745"
        }
      ],
      "ProductStatuses": [
        {
          "Type": "Fixed",
          "ProductID": [
            "openSUSE Tumbleweed:python311-3.11.0b1-1.1",
            "openSUSE Tumbleweed:python311-32bit-3.11.0b1-1.1",
            "openSUSE Tumbleweed:python311-curses-3.11.0b1-1.1",
            "openSUSE Tumbleweed:python311-dbm-3.11.0b1-1.1",
            "openSUSE Tumbleweed:python311-idle-3.11.0b1-1.1",
            "openSUSE Tumbleweed:python311-tk-3.11.0b1-1.1"
          ]
        }
      ],
      "CVSSScoreSets": {}
    },
    {
      "CVE": "CVE-2020-15801",
      "Description": "In Python 3.8.4, sys.path restrictions specified in a python38._pth file are ignored, allowing code to be loaded from arbitrary locations. The \u003cexecutable-name\u003e._pth file (e.g., the python._pth file) is not affected.",
      "Threats": [
        {
          "Type": "Impact",
          "Severity": "critical"
        }
      ],
      "References": [
        {
          "URL": "https://www.suse.com/security/cve/CVE-2020-15801.html",
          "Description": "CVE-2020-15801"
        },
        {
          "URL": "https://bugzilla.suse.com/1174241",
          "Description": "SUSE Bug 1174241"
        }
      ],
      "ProductStatuses": [
        {
          "Type": "Fixed",
          "ProductID": [
            "openSUSE Tumbleweed:python311-3.11.0b1-1.1",
            "openSUSE Tumbleweed:python311-32bit-3.11.0b1-1.1",
            "openSUSE Tumbleweed:python311-curses-3.11.0b1-1.1",
            "openSUSE Tumbleweed:python311-dbm-3.11.0b1-1.1",
            "openSUSE Tumbleweed:python311-idle-3.11.0b1-1.1",
            "openSUSE Tumbleweed:python311-tk-3.11.0b1-1.1"
          ]
        }
      ],
      "CVSSScoreSets": {}
    },
    {
      "CVE": "CVE-2020-8492",
      "Description": "Python 2.7 through 2.7.17, 3.5 through 3.5.9, 3.6 through 3.6.10, 3.7 through 3.7.6, and 3.8 through 3.8.1 allows an HTTP server to conduct Regular Expression Denial of Service (ReDoS) attacks against a client because of urllib.request.AbstractBasicAuthHandler catastrophic backtracking.",
      "Threats": [
        {
          "Type": "Impact",
          "Severity": "moderate"
        }
      ],
      "References": [
        {
          "URL": "https://www.suse.com/security/cve/CVE-2020-8492.html",
          "Description": "CVE-2020-8492"
        },
        {
          "URL": "https://bugzilla.suse.com/1162367",
          "Description": "SUSE Bug 1162367"
        }
      ],
      "ProductStatuses": [
        {
          "Type": "Fixed",
          "ProductID": [
            "openSUSE Tumbleweed:python311-3.11.0b1-1.1",
            "openSUSE Tumbleweed:python311-32bit-3.11.0b1-1.1",
            "openSUSE Tumbleweed:python311-curses-3.11.0b1-1.1",
            "openSUSE Tumbleweed:python311-dbm-3.11.0b1-1.1",
            "openSUSE Tumbleweed:python311-idle-3.11.0b1-1.1",
            "openSUSE Tumbleweed:python311-tk-3.11.0b1-1.1"
          ]
        }
      ],
      "CVSSScoreSets": {}
    },
    {
      "CVE": "CVE-2021-23336",
      "Description": "The package python/cpython from 0 and before 3.6.13, from 3.7.0 and before 3.7.10, from 3.8.0 and before 3.8.8, from 3.9.0 and before 3.9.2 are vulnerable to Web Cache Poisoning via urllib.parse.parse_qsl and urllib.parse.parse_qs by using a vector called parameter cloaking. When the attacker can separate query parameters using a semicolon (;), they can cause a difference in the interpretation of the request between the proxy (running with default configuration) and the server. This can result in malicious requests being cached as completely safe ones, as the proxy would usually not see the semicolon as a separator, and therefore would not include it in a cache key of an unkeyed parameter.",
      "Threats": [
        {
          "Type": "Impact",
          "Severity": "moderate"
        }
      ],
      "References": [
        {
          "URL": "https://www.suse.com/security/cve/CVE-2021-23336.html",
          "Description": "CVE-2021-23336"
        },
        {
          "URL": "https://bugzilla.suse.com/1182179",
          "Description": "SUSE Bug 1182179"
        },
        {
          "URL": "https://bugzilla.suse.com/1182379",
          "Description": "SUSE Bug 1182379"
        },
        {
          "URL": "https://bugzilla.suse.com/1182433",
          "Description": "SUSE Bug 1182433"
        }
      ],
      "ProductStatuses": [
        {
          "Type": "Fixed",
          "ProductID": [
            "openSUSE Tumbleweed:python311-3.11.0b1-1.1",
            "openSUSE Tumbleweed:python311-32bit-3.11.0b1-1.1",
            "openSUSE Tumbleweed:python311-curses-3.11.0b1-1.1",
            "openSUSE Tumbleweed:python311-dbm-3.11.0b1-1.1",
            "openSUSE Tumbleweed:python311-idle-3.11.0b1-1.1",
            "openSUSE Tumbleweed:python311-tk-3.11.0b1-1.1"
          ]
        }
      ],
      "CVSSScoreSets": {}
    },
    {
      "CVE": "CVE-2021-3177",
      "Description": "Python 3.x through 3.9.1 has a buffer overflow in PyCArg_repr in _ctypes/callproc.c, which may lead to remote code execution in certain Python applications that accept floating-point numbers as untrusted input, as demonstrated by a 1e300 argument to c_double.from_param. This occurs because sprintf is used unsafely.",
      "Threats": [
        {
          "Type": "Impact",
          "Severity": "moderate"
        }
      ],
      "References": [
        {
          "URL": "https://www.suse.com/security/cve/CVE-2021-3177.html",
          "Description": "CVE-2021-3177"
        },
        {
          "URL": "https://bugzilla.suse.com/1181126",
          "Description": "SUSE Bug 1181126"
        }
      ],
      "ProductStatuses": [
        {
          "Type": "Fixed",
          "ProductID": [
            "openSUSE Tumbleweed:python311-3.11.0b1-1.1",
            "openSUSE Tumbleweed:python311-32bit-3.11.0b1-1.1",
            "openSUSE Tumbleweed:python311-curses-3.11.0b1-1.1",
            "openSUSE Tumbleweed:python311-dbm-3.11.0b1-1.1",
            "openSUSE Tumbleweed:python311-idle-3.11.0b1-1.1",
            "openSUSE Tumbleweed:python311-tk-3.11.0b1-1.1"
          ]
        }
      ],
      "CVSSScoreSets": {}
    },
    {
      "CVE": "CVE-2021-3426",
      "Description": "There's a flaw in Python 3's pydoc. A local or adjacent attacker who discovers or is able to convince another local or adjacent user to start a pydoc server could access the server and use it to disclose sensitive information belonging to the other user that they would not normally be able to access. The highest risk of this flaw is to data confidentiality. This flaw affects Python versions before 3.8.9, Python versions before 3.9.3 and Python versions before 3.10.0a7.",
      "Threats": [
        {
          "Type": "Impact",
          "Severity": "moderate"
        }
      ],
      "References": [
        {
          "URL": "https://www.suse.com/security/cve/CVE-2021-3426.html",
          "Description": "CVE-2021-3426"
        },
        {
          "URL": "https://bugzilla.suse.com/1183374",
          "Description": "SUSE Bug 1183374"
        }
      ],
      "ProductStatuses": [
        {
          "Type": "Fixed",
          "ProductID": [
            "openSUSE Tumbleweed:python311-3.11.0b1-1.1",
            "openSUSE Tumbleweed:python311-32bit-3.11.0b1-1.1",
            "openSUSE Tumbleweed:python311-curses-3.11.0b1-1.1",
            "openSUSE Tumbleweed:python311-dbm-3.11.0b1-1.1",
            "openSUSE Tumbleweed:python311-idle-3.11.0b1-1.1",
            "openSUSE Tumbleweed:python311-tk-3.11.0b1-1.1"
          ]
        }
      ],
      "CVSSScoreSets": {}
    }
  ]
}