{
  "Title": "libass-devel-0.13.4-2.1 on GA media",
  "Tracking": {
    "ID": "openSUSE-SU-2024:10508-1",
    "Status": "Final",
    "Version": "1",
    "InitialReleaseDate": "2024-06-22T21:44:56Z",
    "CurrentReleaseDate": "2024-06-22T21:44:56Z",
    "RevisionHistory": [
      {
        "Number": "1",
        "Date": "2024-06-22T21:44:56Z",
        "Description": "current"
      }
    ]
  },
  "Notes": [
    {
      "Text": "libass-devel-0.13.4-2.1 on GA media",
      "Title": "Topic",
      "Type": "Summary"
    },
    {
      "Text": "These are all security issues fixed in the libass-devel-0.13.4-2.1 package on the GA media of openSUSE Tumbleweed.",
      "Title": "Details",
      "Type": "General"
    },
    {
      "Text": "The CVRF data is provided by SUSE under the Creative Commons License 4.0 with Attribution (CC-BY-4.0).",
      "Title": "Terms of Use",
      "Type": "Legal Disclaimer"
    },
    {
      "Text": "openSUSE-Tumbleweed-2024-10508",
      "Title": "Patchnames",
      "Type": "Details"
    }
  ],
  "ProductTree": {
    "Relationships": [
      {
        "ProductReference": "libass-devel-0.13.4-2.1",
        "RelatesToProductReference": "openSUSE Tumbleweed",
        "RelationType": "Default Component Of"
      },
      {
        "ProductReference": "libass5-0.13.4-2.1",
        "RelatesToProductReference": "openSUSE Tumbleweed",
        "RelationType": "Default Component Of"
      },
      {
        "ProductReference": "libass5-32bit-0.13.4-2.1",
        "RelatesToProductReference": "openSUSE Tumbleweed",
        "RelationType": "Default Component Of"
      }
    ]
  },
  "References": [
    {
      "URL": "https://www.suse.com/support/security/rating/",
      "Description": "SUSE Security Ratings"
    },
    {
      "URL": "https://www.suse.com/security/cve/CVE-2016-7969/",
      "Description": "SUSE CVE CVE-2016-7969 page"
    },
    {
      "URL": "https://www.suse.com/security/cve/CVE-2016-7970/",
      "Description": "SUSE CVE CVE-2016-7970 page"
    },
    {
      "URL": "https://www.suse.com/security/cve/CVE-2016-7972/",
      "Description": "SUSE CVE CVE-2016-7972 page"
    }
  ],
  "Vulnerabilities": [
    {
      "CVE": "CVE-2016-7969",
      "Description": "The wrap_lines_smart function in ass_render.c in libass before 0.13.4 allows remote attackers to cause a denial of service (out-of-bounds read) via unspecified vectors, related to \"0/3 line wrapping equalization.\"",
      "Threats": [
        {
          "Type": "Impact",
          "Severity": "moderate"
        }
      ],
      "References": [
        {
          "URL": "https://www.suse.com/security/cve/CVE-2016-7969.html",
          "Description": "CVE-2016-7969"
        },
        {
          "URL": "https://bugzilla.suse.com/1002982",
          "Description": "SUSE Bug 1002982"
        }
      ],
      "ProductStatuses": [
        {
          "Type": "Fixed",
          "ProductID": [
            "openSUSE Tumbleweed:libass-devel-0.13.4-2.1",
            "openSUSE Tumbleweed:libass5-0.13.4-2.1",
            "openSUSE Tumbleweed:libass5-32bit-0.13.4-2.1"
          ]
        }
      ],
      "CVSSScoreSets": {
        "BaseScore": "5.1",
        "Vector": "AV:N/AC:H/Au:N/C:P/I:P/A:P"
      }
    },
    {
      "CVE": "CVE-2016-7970",
      "Description": "Buffer overflow in the calc_coeff function in libass/ass_blur.c in libass before 0.13.4 allows remote attackers to cause a denial of service via unspecified vectors.",
      "Threats": [
        {
          "Type": "Impact",
          "Severity": "moderate"
        }
      ],
      "References": [
        {
          "URL": "https://www.suse.com/security/cve/CVE-2016-7970.html",
          "Description": "CVE-2016-7970"
        },
        {
          "URL": "https://bugzilla.suse.com/1002982",
          "Description": "SUSE Bug 1002982"
        }
      ],
      "ProductStatuses": [
        {
          "Type": "Fixed",
          "ProductID": [
            "openSUSE Tumbleweed:libass-devel-0.13.4-2.1",
            "openSUSE Tumbleweed:libass5-0.13.4-2.1",
            "openSUSE Tumbleweed:libass5-32bit-0.13.4-2.1"
          ]
        }
      ],
      "CVSSScoreSets": {
        "BaseScore": "2.6",
        "Vector": "AV:N/AC:H/Au:N/C:N/I:N/A:P"
      }
    },
    {
      "CVE": "CVE-2016-7972",
      "Description": "The check_allocations function in libass/ass_shaper.c in libass before 0.13.4 allows remote attackers to cause a denial of service (memory allocation failure) via unspecified vectors.",
      "Threats": [
        {
          "Type": "Impact",
          "Severity": "moderate"
        }
      ],
      "References": [
        {
          "URL": "https://www.suse.com/security/cve/CVE-2016-7972.html",
          "Description": "CVE-2016-7972"
        },
        {
          "URL": "https://bugzilla.suse.com/1002982",
          "Description": "SUSE Bug 1002982"
        }
      ],
      "ProductStatuses": [
        {
          "Type": "Fixed",
          "ProductID": [
            "openSUSE Tumbleweed:libass-devel-0.13.4-2.1",
            "openSUSE Tumbleweed:libass5-0.13.4-2.1",
            "openSUSE Tumbleweed:libass5-32bit-0.13.4-2.1"
          ]
        }
      ],
      "CVSSScoreSets": {
        "BaseScore": "5.1",
        "Vector": "AV:N/AC:H/Au:N/C:P/I:P/A:P"
      }
    }
  ]
}