{
  "Title": "libgit2-1_7-1.7.1-3.1 on GA media",
  "Tracking": {
    "ID": "openSUSE-SU-2024:13449-1",
    "Status": "Final",
    "Version": "1",
    "InitialReleaseDate": "2024-06-20T21:44:22Z",
    "CurrentReleaseDate": "2024-06-20T21:44:22Z",
    "RevisionHistory": [
      {
        "Number": "1",
        "Date": "2024-06-20T21:44:22Z",
        "Description": "current"
      }
    ]
  },
  "Notes": [
    {
      "Text": "libgit2-1_7-1.7.1-3.1 on GA media",
      "Title": "Topic",
      "Type": "Summary"
    },
    {
      "Text": "These are all security issues fixed in the libgit2-1_7-1.7.1-3.1 package on the GA media of openSUSE Tumbleweed.",
      "Title": "Details",
      "Type": "General"
    },
    {
      "Text": "The CVRF data is provided by SUSE under the Creative Commons License 4.0 with Attribution (CC-BY-4.0).",
      "Title": "Terms of Use",
      "Type": "Legal Disclaimer"
    },
    {
      "Text": "openSUSE-Tumbleweed-2024-13449",
      "Title": "Patchnames",
      "Type": "Details"
    }
  ],
  "ProductTree": {
    "Relationships": [
      {
        "ProductReference": "libgit2-1_7-1.7.1-3.1",
        "RelatesToProductReference": "openSUSE Tumbleweed",
        "RelationType": "Default Component Of"
      },
      {
        "ProductReference": "libgit2-devel-1.7.1-3.1",
        "RelatesToProductReference": "openSUSE Tumbleweed",
        "RelationType": "Default Component Of"
      },
      {
        "ProductReference": "libgit2-tools-1.7.1-3.1",
        "RelatesToProductReference": "openSUSE Tumbleweed",
        "RelationType": "Default Component Of"
      }
    ]
  },
  "References": [
    {
      "URL": "https://www.suse.com/support/security/rating/",
      "Description": "SUSE Security Ratings"
    },
    {
      "URL": "https://www.suse.com/security/cve/CVE-2022-29187/",
      "Description": "SUSE CVE CVE-2022-29187 page"
    }
  ],
  "Vulnerabilities": [
    {
      "CVE": "CVE-2022-29187",
      "Description": "Git is a distributed revision control system. Git prior to versions 2.37.1, 2.36.2, 2.35.4, 2.34.4, 2.33.4, 2.32.3, 2.31.4, and 2.30.5, is vulnerable to privilege escalation in all platforms. An unsuspecting user could still be affected by the issue reported in CVE-2022-24765, for example when navigating as root into a shared tmp directory that is owned by them, but where an attacker could create a git repository. Versions 2.37.1, 2.36.2, 2.35.4, 2.34.4, 2.33.4, 2.32.3, 2.31.4, and 2.30.5 contain a patch for this issue. The simplest way to avoid being affected by the exploit described in the example is to avoid running git as root (or an Administrator in Windows), and if needed to reduce its use to a minimum. While a generic workaround is not possible, a system could be hardened from the exploit described in the example by removing any such repository if it exists already and creating one as root to block any future attacks.",
      "Threats": [
        {
          "Type": "Impact",
          "Severity": "important"
        }
      ],
      "References": [
        {
          "URL": "https://www.suse.com/security/cve/CVE-2022-29187.html",
          "Description": "CVE-2022-29187"
        },
        {
          "URL": "https://bugzilla.suse.com/1201431",
          "Description": "SUSE Bug 1201431"
        },
        {
          "URL": "https://bugzilla.suse.com/1201794",
          "Description": "SUSE Bug 1201794"
        },
        {
          "URL": "https://bugzilla.suse.com/1203448",
          "Description": "SUSE Bug 1203448"
        }
      ],
      "ProductStatuses": [
        {
          "Type": "Fixed",
          "ProductID": [
            "openSUSE Tumbleweed:libgit2-1_7-1.7.1-3.1",
            "openSUSE Tumbleweed:libgit2-devel-1.7.1-3.1",
            "openSUSE Tumbleweed:libgit2-tools-1.7.1-3.1"
          ]
        }
      ],
      "CVSSScoreSets": {}
    }
  ]
}