{
  "Title": "libSoundTouch1-2.2-1.6 on GA media",
  "Tracking": {
    "ID": "openSUSE-SU-2024:11393-1",
    "Status": "Final",
    "Version": "1",
    "InitialReleaseDate": "2024-06-22T21:44:56Z",
    "CurrentReleaseDate": "2024-06-22T21:44:56Z",
    "RevisionHistory": [
      {
        "Number": "1",
        "Date": "2024-06-22T21:44:56Z",
        "Description": "current"
      }
    ]
  },
  "Notes": [
    {
      "Text": "libSoundTouch1-2.2-1.6 on GA media",
      "Title": "Topic",
      "Type": "Summary"
    },
    {
      "Text": "These are all security issues fixed in the libSoundTouch1-2.2-1.6 package on the GA media of openSUSE Tumbleweed.",
      "Title": "Details",
      "Type": "General"
    },
    {
      "Text": "The CVRF data is provided by SUSE under the Creative Commons License 4.0 with Attribution (CC-BY-4.0).",
      "Title": "Terms of Use",
      "Type": "Legal Disclaimer"
    },
    {
      "Text": "openSUSE-Tumbleweed-2024-11393",
      "Title": "Patchnames",
      "Type": "Details"
    }
  ],
  "ProductTree": {
    "Relationships": [
      {
        "ProductReference": "libSoundTouch1-2.2-1.6",
        "RelatesToProductReference": "openSUSE Tumbleweed",
        "RelationType": "Default Component Of"
      },
      {
        "ProductReference": "libSoundTouch1-32bit-2.2-1.6",
        "RelatesToProductReference": "openSUSE Tumbleweed",
        "RelationType": "Default Component Of"
      },
      {
        "ProductReference": "soundtouch-2.2-1.6",
        "RelatesToProductReference": "openSUSE Tumbleweed",
        "RelationType": "Default Component Of"
      },
      {
        "ProductReference": "soundtouch-devel-2.2-1.6",
        "RelatesToProductReference": "openSUSE Tumbleweed",
        "RelationType": "Default Component Of"
      }
    ]
  },
  "References": [
    {
      "URL": "https://www.suse.com/support/security/rating/",
      "Description": "SUSE Security Ratings"
    },
    {
      "URL": "https://www.suse.com/security/cve/CVE-2018-1000223/",
      "Description": "SUSE CVE CVE-2018-1000223 page"
    },
    {
      "URL": "https://www.suse.com/security/cve/CVE-2018-17096/",
      "Description": "SUSE CVE CVE-2018-17096 page"
    },
    {
      "URL": "https://www.suse.com/security/cve/CVE-2018-17097/",
      "Description": "SUSE CVE CVE-2018-17097 page"
    },
    {
      "URL": "https://www.suse.com/security/cve/CVE-2018-17098/",
      "Description": "SUSE CVE CVE-2018-17098 page"
    }
  ],
  "Vulnerabilities": [
    {
      "CVE": "CVE-2018-1000223",
      "Description": "soundtouch version up to and including 2.0.0 contains a Buffer Overflow vulnerability in SoundStretch/WavFile.cpp:WavInFile::readHeaderBlock() that can result in arbitrary code execution. This attack appear to be exploitable via victim must open maliocius file in soundstretch utility.",
      "Threats": [
        {
          "Type": "Impact",
          "Severity": "moderate"
        }
      ],
      "References": [
        {
          "URL": "https://www.suse.com/security/cve/CVE-2018-1000223.html",
          "Description": "CVE-2018-1000223"
        },
        {
          "URL": "https://bugzilla.suse.com/1103676",
          "Description": "SUSE Bug 1103676"
        }
      ],
      "ProductStatuses": [
        {
          "Type": "Fixed",
          "ProductID": [
            "openSUSE Tumbleweed:libSoundTouch1-2.2-1.6",
            "openSUSE Tumbleweed:libSoundTouch1-32bit-2.2-1.6",
            "openSUSE Tumbleweed:soundtouch-2.2-1.6",
            "openSUSE Tumbleweed:soundtouch-devel-2.2-1.6"
          ]
        }
      ],
      "CVSSScoreSets": {}
    },
    {
      "CVE": "CVE-2018-17096",
      "Description": "The BPMDetect class in BPMDetect.cpp in libSoundTouch.a in Olli Parviainen SoundTouch 2.0 allows remote attackers to cause a denial of service (assertion failure and application exit), as demonstrated by SoundStretch.",
      "Threats": [
        {
          "Type": "Impact",
          "Severity": "moderate"
        }
      ],
      "References": [
        {
          "URL": "https://www.suse.com/security/cve/CVE-2018-17096.html",
          "Description": "CVE-2018-17096"
        },
        {
          "URL": "https://bugzilla.suse.com/1108630",
          "Description": "SUSE Bug 1108630"
        }
      ],
      "ProductStatuses": [
        {
          "Type": "Fixed",
          "ProductID": [
            "openSUSE Tumbleweed:libSoundTouch1-2.2-1.6",
            "openSUSE Tumbleweed:libSoundTouch1-32bit-2.2-1.6",
            "openSUSE Tumbleweed:soundtouch-2.2-1.6",
            "openSUSE Tumbleweed:soundtouch-devel-2.2-1.6"
          ]
        }
      ],
      "CVSSScoreSets": {}
    },
    {
      "CVE": "CVE-2018-17097",
      "Description": "The WavFileBase class in WavFile.cpp in Olli Parviainen SoundTouch 2.0 allows remote attackers to cause a denial of service (double free) or possibly have unspecified other impact, as demonstrated by SoundStretch.",
      "Threats": [
        {
          "Type": "Impact",
          "Severity": "important"
        }
      ],
      "References": [
        {
          "URL": "https://www.suse.com/security/cve/CVE-2018-17097.html",
          "Description": "CVE-2018-17097"
        },
        {
          "URL": "https://bugzilla.suse.com/1108631",
          "Description": "SUSE Bug 1108631"
        }
      ],
      "ProductStatuses": [
        {
          "Type": "Fixed",
          "ProductID": [
            "openSUSE Tumbleweed:libSoundTouch1-2.2-1.6",
            "openSUSE Tumbleweed:libSoundTouch1-32bit-2.2-1.6",
            "openSUSE Tumbleweed:soundtouch-2.2-1.6",
            "openSUSE Tumbleweed:soundtouch-devel-2.2-1.6"
          ]
        }
      ],
      "CVSSScoreSets": {}
    },
    {
      "CVE": "CVE-2018-17098",
      "Description": "The WavFileBase class in WavFile.cpp in Olli Parviainen SoundTouch 2.0 allows remote attackers to cause a denial of service (heap corruption from size inconsistency) or possibly have unspecified other impact, as demonstrated by SoundStretch.",
      "Threats": [
        {
          "Type": "Impact",
          "Severity": "important"
        }
      ],
      "References": [
        {
          "URL": "https://www.suse.com/security/cve/CVE-2018-17098.html",
          "Description": "CVE-2018-17098"
        },
        {
          "URL": "https://bugzilla.suse.com/1108632",
          "Description": "SUSE Bug 1108632"
        }
      ],
      "ProductStatuses": [
        {
          "Type": "Fixed",
          "ProductID": [
            "openSUSE Tumbleweed:libSoundTouch1-2.2-1.6",
            "openSUSE Tumbleweed:libSoundTouch1-32bit-2.2-1.6",
            "openSUSE Tumbleweed:soundtouch-2.2-1.6",
            "openSUSE Tumbleweed:soundtouch-devel-2.2-1.6"
          ]
        }
      ],
      "CVSSScoreSets": {}
    }
  ]
}