{
  "Title": "cups-filters-1.8.2-1.11 on GA media",
  "Tracking": {
    "ID": "openSUSE-SU-2024:10313-1",
    "Status": "Final",
    "Version": "1",
    "InitialReleaseDate": "2024-06-22T21:44:56Z",
    "CurrentReleaseDate": "2024-06-22T21:44:56Z",
    "RevisionHistory": [
      {
        "Number": "1",
        "Date": "2024-06-22T21:44:56Z",
        "Description": "current"
      }
    ]
  },
  "Notes": [
    {
      "Text": "cups-filters-1.8.2-1.11 on GA media",
      "Title": "Topic",
      "Type": "Summary"
    },
    {
      "Text": "These are all security issues fixed in the cups-filters-1.8.2-1.11 package on the GA media of openSUSE Tumbleweed.",
      "Title": "Details",
      "Type": "General"
    },
    {
      "Text": "The CVRF data is provided by SUSE under the Creative Commons License 4.0 with Attribution (CC-BY-4.0).",
      "Title": "Terms of Use",
      "Type": "Legal Disclaimer"
    },
    {
      "Text": "openSUSE-Tumbleweed-2024-10313",
      "Title": "Patchnames",
      "Type": "Details"
    }
  ],
  "ProductTree": {
    "Relationships": [
      {
        "ProductReference": "cups-filters-1.8.2-1.11",
        "RelatesToProductReference": "openSUSE Tumbleweed",
        "RelationType": "Default Component Of"
      },
      {
        "ProductReference": "cups-filters-cups-browsed-1.8.2-1.11",
        "RelatesToProductReference": "openSUSE Tumbleweed",
        "RelationType": "Default Component Of"
      },
      {
        "ProductReference": "cups-filters-devel-1.8.2-1.11",
        "RelatesToProductReference": "openSUSE Tumbleweed",
        "RelationType": "Default Component Of"
      },
      {
        "ProductReference": "cups-filters-foomatic-rip-1.8.2-1.11",
        "RelatesToProductReference": "openSUSE Tumbleweed",
        "RelationType": "Default Component Of"
      },
      {
        "ProductReference": "cups-filters-ghostscript-1.8.2-1.11",
        "RelatesToProductReference": "openSUSE Tumbleweed",
        "RelationType": "Default Component Of"
      }
    ]
  },
  "References": [
    {
      "URL": "https://www.suse.com/support/security/rating/",
      "Description": "SUSE Security Ratings"
    },
    {
      "URL": "https://www.suse.com/security/cve/CVE-2013-6473/",
      "Description": "SUSE CVE CVE-2013-6473 page"
    },
    {
      "URL": "https://www.suse.com/security/cve/CVE-2013-6474/",
      "Description": "SUSE CVE CVE-2013-6474 page"
    },
    {
      "URL": "https://www.suse.com/security/cve/CVE-2013-6475/",
      "Description": "SUSE CVE CVE-2013-6475 page"
    },
    {
      "URL": "https://www.suse.com/security/cve/CVE-2013-6476/",
      "Description": "SUSE CVE CVE-2013-6476 page"
    },
    {
      "URL": "https://www.suse.com/security/cve/CVE-2014-2707/",
      "Description": "SUSE CVE CVE-2014-2707 page"
    },
    {
      "URL": "https://www.suse.com/security/cve/CVE-2014-4336/",
      "Description": "SUSE CVE CVE-2014-4336 page"
    },
    {
      "URL": "https://www.suse.com/security/cve/CVE-2014-4337/",
      "Description": "SUSE CVE CVE-2014-4337 page"
    },
    {
      "URL": "https://www.suse.com/security/cve/CVE-2014-4338/",
      "Description": "SUSE CVE CVE-2014-4338 page"
    },
    {
      "URL": "https://www.suse.com/security/cve/CVE-2015-2265/",
      "Description": "SUSE CVE CVE-2015-2265 page"
    },
    {
      "URL": "https://www.suse.com/security/cve/CVE-2015-3258/",
      "Description": "SUSE CVE CVE-2015-3258 page"
    },
    {
      "URL": "https://www.suse.com/security/cve/CVE-2015-3279/",
      "Description": "SUSE CVE CVE-2015-3279 page"
    },
    {
      "URL": "https://www.suse.com/security/cve/CVE-2015-8327/",
      "Description": "SUSE CVE CVE-2015-8327 page"
    },
    {
      "URL": "https://www.suse.com/security/cve/CVE-2015-8560/",
      "Description": "SUSE CVE CVE-2015-8560 page"
    }
  ],
  "Vulnerabilities": [
    {
      "CVE": "CVE-2013-6473",
      "Description": "Multiple heap-based buffer overflows in the urftopdf filter in cups-filters 1.0.25 before 1.0.47 allow remote attackers to execute arbitrary code via a large (1) page or (2) line in a URF file.",
      "Threats": [
        {
          "Type": "Impact",
          "Severity": "moderate"
        }
      ],
      "References": [
        {
          "URL": "https://www.suse.com/security/cve/CVE-2013-6473.html",
          "Description": "CVE-2013-6473"
        },
        {
          "URL": "https://bugzilla.suse.com/866302",
          "Description": "SUSE Bug 866302"
        }
      ],
      "ProductStatuses": [
        {
          "Type": "Fixed",
          "ProductID": [
            "openSUSE Tumbleweed:cups-filters-1.8.2-1.11",
            "openSUSE Tumbleweed:cups-filters-cups-browsed-1.8.2-1.11",
            "openSUSE Tumbleweed:cups-filters-devel-1.8.2-1.11",
            "openSUSE Tumbleweed:cups-filters-foomatic-rip-1.8.2-1.11",
            "openSUSE Tumbleweed:cups-filters-ghostscript-1.8.2-1.11"
          ]
        }
      ],
      "CVSSScoreSets": {}
    },
    {
      "CVE": "CVE-2013-6474",
      "Description": "Heap-based buffer overflow in the pdftoopvp filter in CUPS and cups-filters before 1.0.47 allows remote attackers to execute arbitrary code via a crafted PDF file.",
      "Threats": [
        {
          "Type": "Impact",
          "Severity": "moderate"
        }
      ],
      "References": [
        {
          "URL": "https://www.suse.com/security/cve/CVE-2013-6474.html",
          "Description": "CVE-2013-6474"
        },
        {
          "URL": "https://bugzilla.suse.com/866302",
          "Description": "SUSE Bug 866302"
        }
      ],
      "ProductStatuses": [
        {
          "Type": "Fixed",
          "ProductID": [
            "openSUSE Tumbleweed:cups-filters-1.8.2-1.11",
            "openSUSE Tumbleweed:cups-filters-cups-browsed-1.8.2-1.11",
            "openSUSE Tumbleweed:cups-filters-devel-1.8.2-1.11",
            "openSUSE Tumbleweed:cups-filters-foomatic-rip-1.8.2-1.11",
            "openSUSE Tumbleweed:cups-filters-ghostscript-1.8.2-1.11"
          ]
        }
      ],
      "CVSSScoreSets": {}
    },
    {
      "CVE": "CVE-2013-6475",
      "Description": "Multiple integer overflows in (1) OPVPOutputDev.cxx and (2) oprs/OPVPSplash.cxx in the pdftoopvp filter in CUPS and cups-filters before 1.0.47 allow remote attackers to execute arbitrary code via a crafted PDF file, which triggers a heap-based buffer overflow.",
      "Threats": [
        {
          "Type": "Impact",
          "Severity": "moderate"
        }
      ],
      "References": [
        {
          "URL": "https://www.suse.com/security/cve/CVE-2013-6475.html",
          "Description": "CVE-2013-6475"
        },
        {
          "URL": "https://bugzilla.suse.com/866302",
          "Description": "SUSE Bug 866302"
        }
      ],
      "ProductStatuses": [
        {
          "Type": "Fixed",
          "ProductID": [
            "openSUSE Tumbleweed:cups-filters-1.8.2-1.11",
            "openSUSE Tumbleweed:cups-filters-cups-browsed-1.8.2-1.11",
            "openSUSE Tumbleweed:cups-filters-devel-1.8.2-1.11",
            "openSUSE Tumbleweed:cups-filters-foomatic-rip-1.8.2-1.11",
            "openSUSE Tumbleweed:cups-filters-ghostscript-1.8.2-1.11"
          ]
        }
      ],
      "CVSSScoreSets": {}
    },
    {
      "CVE": "CVE-2013-6476",
      "Description": "The OPVPWrapper::loadDriver function in oprs/OPVPWrapper.cxx in the pdftoopvp filter in CUPS and cups-filters before 1.0.47 allows local users to gain privileges via a Trojan horse driver in the same directory as the PDF file.",
      "Threats": [
        {
          "Type": "Impact",
          "Severity": "moderate"
        }
      ],
      "References": [
        {
          "URL": "https://www.suse.com/security/cve/CVE-2013-6476.html",
          "Description": "CVE-2013-6476"
        },
        {
          "URL": "https://bugzilla.suse.com/866302",
          "Description": "SUSE Bug 866302"
        }
      ],
      "ProductStatuses": [
        {
          "Type": "Fixed",
          "ProductID": [
            "openSUSE Tumbleweed:cups-filters-1.8.2-1.11",
            "openSUSE Tumbleweed:cups-filters-cups-browsed-1.8.2-1.11",
            "openSUSE Tumbleweed:cups-filters-devel-1.8.2-1.11",
            "openSUSE Tumbleweed:cups-filters-foomatic-rip-1.8.2-1.11",
            "openSUSE Tumbleweed:cups-filters-ghostscript-1.8.2-1.11"
          ]
        }
      ],
      "CVSSScoreSets": {}
    },
    {
      "CVE": "CVE-2014-2707",
      "Description": "cups-browsed in cups-filters 1.0.41 before 1.0.51 allows remote IPP printers to execute arbitrary commands via shell metacharacters in the (1) model or (2) PDL, related to \"System V interface scripts generated for queues.\"",
      "Threats": [
        {
          "Type": "Impact",
          "Severity": "moderate"
        }
      ],
      "References": [
        {
          "URL": "https://www.suse.com/security/cve/CVE-2014-2707.html",
          "Description": "CVE-2014-2707"
        },
        {
          "URL": "https://bugzilla.suse.com/871327",
          "Description": "SUSE Bug 871327"
        },
        {
          "URL": "https://bugzilla.suse.com/883543",
          "Description": "SUSE Bug 883543"
        },
        {
          "URL": "https://bugzilla.suse.com/921753",
          "Description": "SUSE Bug 921753"
        },
        {
          "URL": "https://bugzilla.suse.com/937018",
          "Description": "SUSE Bug 937018"
        }
      ],
      "ProductStatuses": [
        {
          "Type": "Fixed",
          "ProductID": [
            "openSUSE Tumbleweed:cups-filters-1.8.2-1.11",
            "openSUSE Tumbleweed:cups-filters-cups-browsed-1.8.2-1.11",
            "openSUSE Tumbleweed:cups-filters-devel-1.8.2-1.11",
            "openSUSE Tumbleweed:cups-filters-foomatic-rip-1.8.2-1.11",
            "openSUSE Tumbleweed:cups-filters-ghostscript-1.8.2-1.11"
          ]
        }
      ],
      "CVSSScoreSets": {}
    },
    {
      "CVE": "CVE-2014-4336",
      "Description": "The generate_local_queue function in utils/cups-browsed.c in cups-browsed in cups-filters before 1.0.53 allows remote IPP printers to execute arbitrary commands via shell metacharacters in the host name.  NOTE: this vulnerability exists because of an incomplete fix for CVE-2014-2707.",
      "Threats": [
        {
          "Type": "Impact",
          "Severity": "moderate"
        }
      ],
      "References": [
        {
          "URL": "https://www.suse.com/security/cve/CVE-2014-4336.html",
          "Description": "CVE-2014-4336"
        },
        {
          "URL": "https://bugzilla.suse.com/871327",
          "Description": "SUSE Bug 871327"
        },
        {
          "URL": "https://bugzilla.suse.com/883543",
          "Description": "SUSE Bug 883543"
        }
      ],
      "ProductStatuses": [
        {
          "Type": "Fixed",
          "ProductID": [
            "openSUSE Tumbleweed:cups-filters-1.8.2-1.11",
            "openSUSE Tumbleweed:cups-filters-cups-browsed-1.8.2-1.11",
            "openSUSE Tumbleweed:cups-filters-devel-1.8.2-1.11",
            "openSUSE Tumbleweed:cups-filters-foomatic-rip-1.8.2-1.11",
            "openSUSE Tumbleweed:cups-filters-ghostscript-1.8.2-1.11"
          ]
        }
      ],
      "CVSSScoreSets": {}
    },
    {
      "CVE": "CVE-2014-4337",
      "Description": "The process_browse_data function in utils/cups-browsed.c in cups-browsed in cups-filters before 1.0.53 allows remote attackers to cause a denial of service (out-of-bounds read and application crash) via crafted packet data.",
      "Threats": [
        {
          "Type": "Impact",
          "Severity": "moderate"
        }
      ],
      "References": [
        {
          "URL": "https://www.suse.com/security/cve/CVE-2014-4337.html",
          "Description": "CVE-2014-4337"
        },
        {
          "URL": "https://bugzilla.suse.com/871327",
          "Description": "SUSE Bug 871327"
        },
        {
          "URL": "https://bugzilla.suse.com/883543",
          "Description": "SUSE Bug 883543"
        }
      ],
      "ProductStatuses": [
        {
          "Type": "Fixed",
          "ProductID": [
            "openSUSE Tumbleweed:cups-filters-1.8.2-1.11",
            "openSUSE Tumbleweed:cups-filters-cups-browsed-1.8.2-1.11",
            "openSUSE Tumbleweed:cups-filters-devel-1.8.2-1.11",
            "openSUSE Tumbleweed:cups-filters-foomatic-rip-1.8.2-1.11",
            "openSUSE Tumbleweed:cups-filters-ghostscript-1.8.2-1.11"
          ]
        }
      ],
      "CVSSScoreSets": {}
    },
    {
      "CVE": "CVE-2014-4338",
      "Description": "cups-browsed in cups-filters before 1.0.53 allows remote attackers to bypass intended access restrictions in opportunistic circumstances by leveraging a malformed cups-browsed.conf BrowseAllow directive that is interpreted as granting browse access to all IP addresses.",
      "Threats": [
        {
          "Type": "Impact",
          "Severity": "moderate"
        }
      ],
      "References": [
        {
          "URL": "https://www.suse.com/security/cve/CVE-2014-4338.html",
          "Description": "CVE-2014-4338"
        },
        {
          "URL": "https://bugzilla.suse.com/871327",
          "Description": "SUSE Bug 871327"
        },
        {
          "URL": "https://bugzilla.suse.com/883536",
          "Description": "SUSE Bug 883536"
        }
      ],
      "ProductStatuses": [
        {
          "Type": "Fixed",
          "ProductID": [
            "openSUSE Tumbleweed:cups-filters-1.8.2-1.11",
            "openSUSE Tumbleweed:cups-filters-cups-browsed-1.8.2-1.11",
            "openSUSE Tumbleweed:cups-filters-devel-1.8.2-1.11",
            "openSUSE Tumbleweed:cups-filters-foomatic-rip-1.8.2-1.11",
            "openSUSE Tumbleweed:cups-filters-ghostscript-1.8.2-1.11"
          ]
        }
      ],
      "CVSSScoreSets": {}
    },
    {
      "CVE": "CVE-2015-2265",
      "Description": "The remove_bad_chars function in utils/cups-browsed.c in cups-filters before 1.0.66 allows remote IPP printers to execute arbitrary commands via consecutive shell metacharacters in the (1) model or (2) PDL. NOTE: this vulnerability exists because of an incomplete fix for CVE-2014-2707.",
      "Threats": [
        {
          "Type": "Impact",
          "Severity": "important"
        }
      ],
      "References": [
        {
          "URL": "https://www.suse.com/security/cve/CVE-2015-2265.html",
          "Description": "CVE-2015-2265"
        },
        {
          "URL": "https://bugzilla.suse.com/921753",
          "Description": "SUSE Bug 921753"
        },
        {
          "URL": "https://bugzilla.suse.com/937018",
          "Description": "SUSE Bug 937018"
        }
      ],
      "ProductStatuses": [
        {
          "Type": "Fixed",
          "ProductID": [
            "openSUSE Tumbleweed:cups-filters-1.8.2-1.11",
            "openSUSE Tumbleweed:cups-filters-cups-browsed-1.8.2-1.11",
            "openSUSE Tumbleweed:cups-filters-devel-1.8.2-1.11",
            "openSUSE Tumbleweed:cups-filters-foomatic-rip-1.8.2-1.11",
            "openSUSE Tumbleweed:cups-filters-ghostscript-1.8.2-1.11"
          ]
        }
      ],
      "CVSSScoreSets": {}
    },
    {
      "CVE": "CVE-2015-3258",
      "Description": "Heap-based buffer overflow in the WriteProlog function in filter/texttopdf.c in texttopdf in cups-filters before 1.0.70 allows remote attackers to cause a denial of service (crash) or possibly execute arbitrary code via a small line size in a print job.",
      "Threats": [
        {
          "Type": "Impact",
          "Severity": "important"
        }
      ],
      "References": [
        {
          "URL": "https://www.suse.com/security/cve/CVE-2015-3258.html",
          "Description": "CVE-2015-3258"
        },
        {
          "URL": "https://bugzilla.suse.com/921753",
          "Description": "SUSE Bug 921753"
        },
        {
          "URL": "https://bugzilla.suse.com/936281",
          "Description": "SUSE Bug 936281"
        },
        {
          "URL": "https://bugzilla.suse.com/937018",
          "Description": "SUSE Bug 937018"
        }
      ],
      "ProductStatuses": [
        {
          "Type": "Fixed",
          "ProductID": [
            "openSUSE Tumbleweed:cups-filters-1.8.2-1.11",
            "openSUSE Tumbleweed:cups-filters-cups-browsed-1.8.2-1.11",
            "openSUSE Tumbleweed:cups-filters-devel-1.8.2-1.11",
            "openSUSE Tumbleweed:cups-filters-foomatic-rip-1.8.2-1.11",
            "openSUSE Tumbleweed:cups-filters-ghostscript-1.8.2-1.11"
          ]
        }
      ],
      "CVSSScoreSets": {}
    },
    {
      "CVE": "CVE-2015-3279",
      "Description": "Integer overflow in filter/texttopdf.c in texttopdf in cups-filters before 1.0.71 allows remote attackers to cause a denial of service (crash) or possibly execute arbitrary code via a crafted line size in a print job, which triggers a heap-based buffer overflow.",
      "Threats": [
        {
          "Type": "Impact",
          "Severity": "important"
        }
      ],
      "References": [
        {
          "URL": "https://www.suse.com/security/cve/CVE-2015-3279.html",
          "Description": "CVE-2015-3279"
        },
        {
          "URL": "https://bugzilla.suse.com/921753",
          "Description": "SUSE Bug 921753"
        },
        {
          "URL": "https://bugzilla.suse.com/936281",
          "Description": "SUSE Bug 936281"
        },
        {
          "URL": "https://bugzilla.suse.com/937018",
          "Description": "SUSE Bug 937018"
        }
      ],
      "ProductStatuses": [
        {
          "Type": "Fixed",
          "ProductID": [
            "openSUSE Tumbleweed:cups-filters-1.8.2-1.11",
            "openSUSE Tumbleweed:cups-filters-cups-browsed-1.8.2-1.11",
            "openSUSE Tumbleweed:cups-filters-devel-1.8.2-1.11",
            "openSUSE Tumbleweed:cups-filters-foomatic-rip-1.8.2-1.11",
            "openSUSE Tumbleweed:cups-filters-ghostscript-1.8.2-1.11"
          ]
        }
      ],
      "CVSSScoreSets": {}
    },
    {
      "CVE": "CVE-2015-8327",
      "Description": "Incomplete blacklist vulnerability in util.c in foomatic-rip in cups-filters 1.0.42 before 1.2.0 and in foomatic-filters in Foomatic 4.0.x allows remote attackers to execute arbitrary commands via ` (backtick) characters in a print job.",
      "Threats": [
        {
          "Type": "Impact",
          "Severity": "moderate"
        }
      ],
      "References": [
        {
          "URL": "https://www.suse.com/security/cve/CVE-2015-8327.html",
          "Description": "CVE-2015-8327"
        },
        {
          "URL": "https://bugzilla.suse.com/1027197",
          "Description": "SUSE Bug 1027197"
        },
        {
          "URL": "https://bugzilla.suse.com/957531",
          "Description": "SUSE Bug 957531"
        }
      ],
      "ProductStatuses": [
        {
          "Type": "Fixed",
          "ProductID": [
            "openSUSE Tumbleweed:cups-filters-1.8.2-1.11",
            "openSUSE Tumbleweed:cups-filters-cups-browsed-1.8.2-1.11",
            "openSUSE Tumbleweed:cups-filters-devel-1.8.2-1.11",
            "openSUSE Tumbleweed:cups-filters-foomatic-rip-1.8.2-1.11",
            "openSUSE Tumbleweed:cups-filters-ghostscript-1.8.2-1.11"
          ]
        }
      ],
      "CVSSScoreSets": {
        "BaseScore": "5.8",
        "Vector": "AV:N/AC:M/Au:N/C:P/I:P/A:N"
      }
    },
    {
      "CVE": "CVE-2015-8560",
      "Description": "Incomplete blacklist vulnerability in util.c in foomatic-rip in cups-filters 1.0.42 before 1.4.0 and in foomatic-filters in Foomatic 4.0.x allows remote attackers to execute arbitrary commands via a ; (semicolon) character in a print job, a different vulnerability than CVE-2015-8327.",
      "Threats": [
        {
          "Type": "Impact",
          "Severity": "moderate"
        }
      ],
      "References": [
        {
          "URL": "https://www.suse.com/security/cve/CVE-2015-8560.html",
          "Description": "CVE-2015-8560"
        },
        {
          "URL": "https://bugzilla.suse.com/1027197",
          "Description": "SUSE Bug 1027197"
        },
        {
          "URL": "https://bugzilla.suse.com/957531",
          "Description": "SUSE Bug 957531"
        }
      ],
      "ProductStatuses": [
        {
          "Type": "Fixed",
          "ProductID": [
            "openSUSE Tumbleweed:cups-filters-1.8.2-1.11",
            "openSUSE Tumbleweed:cups-filters-cups-browsed-1.8.2-1.11",
            "openSUSE Tumbleweed:cups-filters-devel-1.8.2-1.11",
            "openSUSE Tumbleweed:cups-filters-foomatic-rip-1.8.2-1.11",
            "openSUSE Tumbleweed:cups-filters-ghostscript-1.8.2-1.11"
          ]
        }
      ],
      "CVSSScoreSets": {}
    }
  ]
}