{
  "Title": "tinyproxy-1.11.2-1.1 on GA media",
  "Tracking": {
    "ID": "openSUSE-SU-2024:13943-1",
    "Status": "Final",
    "Version": "1",
    "InitialReleaseDate": "2024-06-20T21:44:22Z",
    "CurrentReleaseDate": "2024-06-20T21:44:22Z",
    "RevisionHistory": [
      {
        "Number": "1",
        "Date": "2024-06-20T21:44:22Z",
        "Description": "current"
      }
    ]
  },
  "Notes": [
    {
      "Text": "tinyproxy-1.11.2-1.1 on GA media",
      "Title": "Topic",
      "Type": "Summary"
    },
    {
      "Text": "These are all security issues fixed in the tinyproxy-1.11.2-1.1 package on the GA media of openSUSE Tumbleweed.",
      "Title": "Details",
      "Type": "General"
    },
    {
      "Text": "The CVRF data is provided by SUSE under the Creative Commons License 4.0 with Attribution (CC-BY-4.0).",
      "Title": "Terms of Use",
      "Type": "Legal Disclaimer"
    },
    {
      "Text": "openSUSE-Tumbleweed-2024-13943",
      "Title": "Patchnames",
      "Type": "Details"
    }
  ],
  "ProductTree": {
    "Relationships": [
      {
        "ProductReference": "tinyproxy-1.11.2-1.1",
        "RelatesToProductReference": "openSUSE Tumbleweed",
        "RelationType": "Default Component Of"
      }
    ]
  },
  "References": [
    {
      "URL": "https://www.suse.com/support/security/rating/",
      "Description": "SUSE Security Ratings"
    },
    {
      "URL": "https://www.suse.com/security/cve/CVE-2023-49606/",
      "Description": "SUSE CVE CVE-2023-49606 page"
    }
  ],
  "Vulnerabilities": [
    {
      "CVE": "CVE-2023-49606",
      "Description": "A use-after-free vulnerability exists in the HTTP Connection Headers parsing in Tinyproxy 1.11.1 and Tinyproxy 1.10.0. A specially crafted HTTP header can trigger reuse of previously freed memory, which leads to memory corruption and could lead to remote code execution. An attacker needs to make an unauthenticated HTTP request to trigger this vulnerability.",
      "Threats": [
        {
          "Type": "Impact",
          "Severity": "moderate"
        }
      ],
      "References": [
        {
          "URL": "https://www.suse.com/security/cve/CVE-2023-49606.html",
          "Description": "CVE-2023-49606"
        },
        {
          "URL": "https://bugzilla.suse.com/1223746",
          "Description": "SUSE Bug 1223746"
        }
      ],
      "ProductStatuses": [
        {
          "Type": "Fixed",
          "ProductID": [
            "openSUSE Tumbleweed:tinyproxy-1.11.2-1.1"
          ]
        }
      ],
      "CVSSScoreSets": {}
    }
  ]
}