{
  "Title": "python36-mysql-connector-python-8.0.19-2.9 on GA media",
  "Tracking": {
    "ID": "openSUSE-SU-2024:11240-1",
    "Status": "Final",
    "Version": "1",
    "InitialReleaseDate": "2024-06-22T21:44:56Z",
    "CurrentReleaseDate": "2024-06-22T21:44:56Z",
    "RevisionHistory": [
      {
        "Number": "1",
        "Date": "2024-06-22T21:44:56Z",
        "Description": "current"
      }
    ]
  },
  "Notes": [
    {
      "Text": "python36-mysql-connector-python-8.0.19-2.9 on GA media",
      "Title": "Topic",
      "Type": "Summary"
    },
    {
      "Text": "These are all security issues fixed in the python36-mysql-connector-python-8.0.19-2.9 package on the GA media of openSUSE Tumbleweed.",
      "Title": "Details",
      "Type": "General"
    },
    {
      "Text": "The CVRF data is provided by SUSE under the Creative Commons License 4.0 with Attribution (CC-BY-4.0).",
      "Title": "Terms of Use",
      "Type": "Legal Disclaimer"
    },
    {
      "Text": "openSUSE-Tumbleweed-2024-11240",
      "Title": "Patchnames",
      "Type": "Details"
    }
  ],
  "ProductTree": {
    "Relationships": [
      {
        "ProductReference": "python36-mysql-connector-python-8.0.19-2.9",
        "RelatesToProductReference": "openSUSE Tumbleweed",
        "RelationType": "Default Component Of"
      },
      {
        "ProductReference": "python38-mysql-connector-python-8.0.19-2.9",
        "RelatesToProductReference": "openSUSE Tumbleweed",
        "RelationType": "Default Component Of"
      },
      {
        "ProductReference": "python39-mysql-connector-python-8.0.19-2.9",
        "RelatesToProductReference": "openSUSE Tumbleweed",
        "RelationType": "Default Component Of"
      }
    ]
  },
  "References": [
    {
      "URL": "https://www.suse.com/support/security/rating/",
      "Description": "SUSE Security Ratings"
    },
    {
      "URL": "https://www.suse.com/security/cve/CVE-2016-5598/",
      "Description": "SUSE CVE CVE-2016-5598 page"
    },
    {
      "URL": "https://www.suse.com/security/cve/CVE-2019-2435/",
      "Description": "SUSE CVE CVE-2019-2435 page"
    }
  ],
  "Vulnerabilities": [
    {
      "CVE": "CVE-2016-5598",
      "Description": "Unspecified vulnerability in the MySQL Connector component 2.1.3 and earlier and 2.0.4 and earlier in Oracle MySQL allows remote attackers to affect confidentiality, integrity, and availability via vectors related to Connector/Python.",
      "Threats": [
        {
          "Type": "Impact",
          "Severity": "moderate"
        }
      ],
      "References": [
        {
          "URL": "https://www.suse.com/security/cve/CVE-2016-5598.html",
          "Description": "CVE-2016-5598"
        },
        {
          "URL": "https://bugzilla.suse.com/1005559",
          "Description": "SUSE Bug 1005559"
        }
      ],
      "ProductStatuses": [
        {
          "Type": "Fixed",
          "ProductID": [
            "openSUSE Tumbleweed:python36-mysql-connector-python-8.0.19-2.9",
            "openSUSE Tumbleweed:python38-mysql-connector-python-8.0.19-2.9",
            "openSUSE Tumbleweed:python39-mysql-connector-python-8.0.19-2.9"
          ]
        }
      ],
      "CVSSScoreSets": {
        "BaseScore": "5.1",
        "Vector": "AV:N/AC:H/Au:N/C:P/I:P/A:P"
      }
    },
    {
      "CVE": "CVE-2019-2435",
      "Description": "Vulnerability in the MySQL Connectors component of Oracle MySQL (subcomponent: Connector/Python). Supported versions that are affected are 8.0.13 and prior and 2.1.8 and prior. Easily exploitable vulnerability allows unauthenticated attacker with network access via TLS to compromise MySQL Connectors. Successful attacks require human interaction from a person other than the attacker. Successful attacks of this vulnerability can result in unauthorized creation, deletion or modification access to critical data or all MySQL Connectors accessible data as well as unauthorized access to critical data or complete access to all MySQL Connectors accessible data. CVSS 3.0 Base Score 8.1 (Confidentiality and Integrity impacts). CVSS Vector: (CVSS:3.0/AV:N/AC:L/PR:N/UI:R/S:U/C:H/I:H/A:N).",
      "Threats": [
        {
          "Type": "Impact",
          "Severity": "important"
        }
      ],
      "References": [
        {
          "URL": "https://www.suse.com/security/cve/CVE-2019-2435.html",
          "Description": "CVE-2019-2435"
        },
        {
          "URL": "https://bugzilla.suse.com/1122198",
          "Description": "SUSE Bug 1122198"
        },
        {
          "URL": "https://bugzilla.suse.com/1122204",
          "Description": "SUSE Bug 1122204"
        }
      ],
      "ProductStatuses": [
        {
          "Type": "Fixed",
          "ProductID": [
            "openSUSE Tumbleweed:python36-mysql-connector-python-8.0.19-2.9",
            "openSUSE Tumbleweed:python38-mysql-connector-python-8.0.19-2.9",
            "openSUSE Tumbleweed:python39-mysql-connector-python-8.0.19-2.9"
          ]
        }
      ],
      "CVSSScoreSets": {}
    }
  ]
}