{
  "Title": "java-17-openj9-17.0.10.0-1.1 on GA media",
  "Tracking": {
    "ID": "openSUSE-SU-2024:13678-1",
    "Status": "Final",
    "Version": "1",
    "InitialReleaseDate": "2024-06-20T21:44:22Z",
    "CurrentReleaseDate": "2024-06-20T21:44:22Z",
    "RevisionHistory": [
      {
        "Number": "1",
        "Date": "2024-06-20T21:44:22Z",
        "Description": "current"
      }
    ]
  },
  "Notes": [
    {
      "Text": "java-17-openj9-17.0.10.0-1.1 on GA media",
      "Title": "Topic",
      "Type": "Summary"
    },
    {
      "Text": "These are all security issues fixed in the java-17-openj9-17.0.10.0-1.1 package on the GA media of openSUSE Tumbleweed.",
      "Title": "Details",
      "Type": "General"
    },
    {
      "Text": "The CVRF data is provided by SUSE under the Creative Commons License 4.0 with Attribution (CC-BY-4.0).",
      "Title": "Terms of Use",
      "Type": "Legal Disclaimer"
    },
    {
      "Text": "openSUSE-Tumbleweed-2024-13678",
      "Title": "Patchnames",
      "Type": "Details"
    }
  ],
  "ProductTree": {
    "Relationships": [
      {
        "ProductReference": "java-17-openj9-17.0.10.0-1.1",
        "RelatesToProductReference": "openSUSE Tumbleweed",
        "RelationType": "Default Component Of"
      },
      {
        "ProductReference": "java-17-openj9-demo-17.0.10.0-1.1",
        "RelatesToProductReference": "openSUSE Tumbleweed",
        "RelationType": "Default Component Of"
      },
      {
        "ProductReference": "java-17-openj9-devel-17.0.10.0-1.1",
        "RelatesToProductReference": "openSUSE Tumbleweed",
        "RelationType": "Default Component Of"
      },
      {
        "ProductReference": "java-17-openj9-headless-17.0.10.0-1.1",
        "RelatesToProductReference": "openSUSE Tumbleweed",
        "RelationType": "Default Component Of"
      },
      {
        "ProductReference": "java-17-openj9-javadoc-17.0.10.0-1.1",
        "RelatesToProductReference": "openSUSE Tumbleweed",
        "RelationType": "Default Component Of"
      },
      {
        "ProductReference": "java-17-openj9-jmods-17.0.10.0-1.1",
        "RelatesToProductReference": "openSUSE Tumbleweed",
        "RelationType": "Default Component Of"
      },
      {
        "ProductReference": "java-17-openj9-src-17.0.10.0-1.1",
        "RelatesToProductReference": "openSUSE Tumbleweed",
        "RelationType": "Default Component Of"
      }
    ]
  },
  "References": [
    {
      "URL": "https://www.suse.com/support/security/rating/",
      "Description": "SUSE Security Ratings"
    },
    {
      "URL": "https://www.suse.com/security/cve/CVE-2024-20918/",
      "Description": "SUSE CVE CVE-2024-20918 page"
    },
    {
      "URL": "https://www.suse.com/security/cve/CVE-2024-20921/",
      "Description": "SUSE CVE CVE-2024-20921 page"
    },
    {
      "URL": "https://www.suse.com/security/cve/CVE-2024-20945/",
      "Description": "SUSE CVE CVE-2024-20945 page"
    }
  ],
  "Vulnerabilities": [
    {
      "CVE": "CVE-2024-20918",
      "Description": "Vulnerability in the Oracle Java SE, Oracle GraalVM for JDK, Oracle GraalVM Enterprise Edition product of Oracle Java SE (component: Hotspot).  Supported versions that are affected are Oracle Java SE: 8u391, 8u391-perf, 11.0.21, 17.0.9, 21.0.1; Oracle GraalVM for JDK: 17.0.9, 21.0.1; Oracle GraalVM Enterprise Edition: 20.3.12, 21.3.8 and  22.3.4. Difficult to exploit vulnerability allows unauthenticated attacker with network access via multiple protocols to compromise Oracle Java SE, Oracle GraalVM for JDK, Oracle GraalVM Enterprise Edition.  Successful attacks of this vulnerability can result in  unauthorized creation, deletion or modification access to critical data or all Oracle Java SE, Oracle GraalVM for JDK, Oracle GraalVM Enterprise Edition accessible data as well as  unauthorized access to critical data or complete access to all Oracle Java SE, Oracle GraalVM for JDK, Oracle GraalVM Enterprise Edition accessible data. Note: This vulnerability can be exploited by using APIs in the specified Component, e.g., through a web service which supplies data to the APIs. This vulnerability also applies to Java deployments, typically in clients running sandboxed Java Web Start applications or sandboxed Java applets, that load and run untrusted code (e.g., code that comes from the internet) and rely on the Java sandbox for security. CVSS 3.1 Base Score 7.4 (Confidentiality and Integrity impacts).  CVSS Vector: (CVSS:3.1/AV:N/AC:H/PR:N/UI:N/S:U/C:H/I:H/A:N).",
      "Threats": [
        {
          "Type": "Impact",
          "Severity": "important"
        }
      ],
      "References": [
        {
          "URL": "https://www.suse.com/security/cve/CVE-2024-20918.html",
          "Description": "CVE-2024-20918"
        },
        {
          "URL": "https://bugzilla.suse.com/1218907",
          "Description": "SUSE Bug 1218907"
        },
        {
          "URL": "https://bugzilla.suse.com/1219843",
          "Description": "SUSE Bug 1219843"
        }
      ],
      "ProductStatuses": [
        {
          "Type": "Fixed",
          "ProductID": [
            "openSUSE Tumbleweed:java-17-openj9-17.0.10.0-1.1",
            "openSUSE Tumbleweed:java-17-openj9-demo-17.0.10.0-1.1",
            "openSUSE Tumbleweed:java-17-openj9-devel-17.0.10.0-1.1",
            "openSUSE Tumbleweed:java-17-openj9-headless-17.0.10.0-1.1",
            "openSUSE Tumbleweed:java-17-openj9-javadoc-17.0.10.0-1.1",
            "openSUSE Tumbleweed:java-17-openj9-jmods-17.0.10.0-1.1",
            "openSUSE Tumbleweed:java-17-openj9-src-17.0.10.0-1.1"
          ]
        }
      ],
      "CVSSScoreSets": {}
    },
    {
      "CVE": "CVE-2024-20921",
      "Description": "Vulnerability in the Oracle Java SE, Oracle GraalVM for JDK, Oracle GraalVM Enterprise Edition product of Oracle Java SE (component: Hotspot).  Supported versions that are affected are Oracle Java SE: 8u391, 8u391-perf, 11.0.21, 17.0.9, 21.0.1; Oracle GraalVM for JDK: 17.0.9, 21.0.1; Oracle GraalVM Enterprise Edition: 20.3.12, 21.3.8 and  22.3.4. Difficult to exploit vulnerability allows unauthenticated attacker with network access via multiple protocols to compromise Oracle Java SE, Oracle GraalVM for JDK, Oracle GraalVM Enterprise Edition.  Successful attacks of this vulnerability can result in  unauthorized access to critical data or complete access to all Oracle Java SE, Oracle GraalVM for JDK, Oracle GraalVM Enterprise Edition accessible data. Note: This vulnerability can be exploited by using APIs in the specified Component, e.g., through a web service which supplies data to the APIs. This vulnerability also applies to Java deployments, typically in clients running sandboxed Java Web Start applications or sandboxed Java applets, that load and run untrusted code (e.g., code that comes from the internet) and rely on the Java sandbox for security. CVSS 3.1 Base Score 5.9 (Confidentiality impacts).  CVSS Vector: (CVSS:3.1/AV:N/AC:H/PR:N/UI:N/S:U/C:H/I:N/A:N).",
      "Threats": [
        {
          "Type": "Impact",
          "Severity": "moderate"
        }
      ],
      "References": [
        {
          "URL": "https://www.suse.com/security/cve/CVE-2024-20921.html",
          "Description": "CVE-2024-20921"
        },
        {
          "URL": "https://bugzilla.suse.com/1218905",
          "Description": "SUSE Bug 1218905"
        },
        {
          "URL": "https://bugzilla.suse.com/1219843",
          "Description": "SUSE Bug 1219843"
        }
      ],
      "ProductStatuses": [
        {
          "Type": "Fixed",
          "ProductID": [
            "openSUSE Tumbleweed:java-17-openj9-17.0.10.0-1.1",
            "openSUSE Tumbleweed:java-17-openj9-demo-17.0.10.0-1.1",
            "openSUSE Tumbleweed:java-17-openj9-devel-17.0.10.0-1.1",
            "openSUSE Tumbleweed:java-17-openj9-headless-17.0.10.0-1.1",
            "openSUSE Tumbleweed:java-17-openj9-javadoc-17.0.10.0-1.1",
            "openSUSE Tumbleweed:java-17-openj9-jmods-17.0.10.0-1.1",
            "openSUSE Tumbleweed:java-17-openj9-src-17.0.10.0-1.1"
          ]
        }
      ],
      "CVSSScoreSets": {}
    },
    {
      "CVE": "CVE-2024-20945",
      "Description": "Vulnerability in the Oracle Java SE, Oracle GraalVM for JDK, Oracle GraalVM Enterprise Edition product of Oracle Java SE (component: Security).  Supported versions that are affected are Oracle Java SE: 8u391, 8u391-perf, 11.0.21, 17.0.9, 21.0.1; Oracle GraalVM for JDK: 17.0.9, 21.0.1; Oracle GraalVM Enterprise Edition: 20.3.12, 21.3.8 and  22.3.4. Difficult to exploit vulnerability allows low privileged attacker with logon to the infrastructure where Oracle Java SE, Oracle GraalVM for JDK, Oracle GraalVM Enterprise Edition executes to compromise Oracle Java SE, Oracle GraalVM for JDK, Oracle GraalVM Enterprise Edition.  Successful attacks of this vulnerability can result in  unauthorized access to critical data or complete access to all Oracle Java SE, Oracle GraalVM for JDK, Oracle GraalVM Enterprise Edition accessible data. Note: This vulnerability can be exploited by using APIs in the specified Component, e.g., through a web service which supplies data to the APIs. This vulnerability also applies to Java deployments, typically in clients running sandboxed Java Web Start applications or sandboxed Java applets, that load and run untrusted code (e.g., code that comes from the internet) and rely on the Java sandbox for security. CVSS 3.1 Base Score 4.7 (Confidentiality impacts).  CVSS Vector: (CVSS:3.1/AV:L/AC:H/PR:L/UI:N/S:U/C:H/I:N/A:N).",
      "Threats": [
        {
          "Type": "Impact",
          "Severity": "moderate"
        }
      ],
      "References": [
        {
          "URL": "https://www.suse.com/security/cve/CVE-2024-20945.html",
          "Description": "CVE-2024-20945"
        },
        {
          "URL": "https://bugzilla.suse.com/1218909",
          "Description": "SUSE Bug 1218909"
        },
        {
          "URL": "https://bugzilla.suse.com/1219843",
          "Description": "SUSE Bug 1219843"
        }
      ],
      "ProductStatuses": [
        {
          "Type": "Fixed",
          "ProductID": [
            "openSUSE Tumbleweed:java-17-openj9-17.0.10.0-1.1",
            "openSUSE Tumbleweed:java-17-openj9-demo-17.0.10.0-1.1",
            "openSUSE Tumbleweed:java-17-openj9-devel-17.0.10.0-1.1",
            "openSUSE Tumbleweed:java-17-openj9-headless-17.0.10.0-1.1",
            "openSUSE Tumbleweed:java-17-openj9-javadoc-17.0.10.0-1.1",
            "openSUSE Tumbleweed:java-17-openj9-jmods-17.0.10.0-1.1",
            "openSUSE Tumbleweed:java-17-openj9-src-17.0.10.0-1.1"
          ]
        }
      ],
      "CVSSScoreSets": {}
    }
  ]
}