{
  "Title": "python-eyeD3-0.7.4-3.3 on GA media",
  "Tracking": {
    "ID": "openSUSE-SU-2024:10474-1",
    "Status": "Final",
    "Version": "1",
    "InitialReleaseDate": "2024-06-22T21:44:56Z",
    "CurrentReleaseDate": "2024-06-22T21:44:56Z",
    "RevisionHistory": [
      {
        "Number": "1",
        "Date": "2024-06-22T21:44:56Z",
        "Description": "current"
      }
    ]
  },
  "Notes": [
    {
      "Text": "python-eyeD3-0.7.4-3.3 on GA media",
      "Title": "Topic",
      "Type": "Summary"
    },
    {
      "Text": "These are all security issues fixed in the python-eyeD3-0.7.4-3.3 package on the GA media of openSUSE Tumbleweed.",
      "Title": "Details",
      "Type": "General"
    },
    {
      "Text": "The CVRF data is provided by SUSE under the Creative Commons License 4.0 with Attribution (CC-BY-4.0).",
      "Title": "Terms of Use",
      "Type": "Legal Disclaimer"
    },
    {
      "Text": "openSUSE-Tumbleweed-2024-10474",
      "Title": "Patchnames",
      "Type": "Details"
    }
  ],
  "ProductTree": {
    "Relationships": [
      {
        "ProductReference": "python-eyeD3-0.7.4-3.3",
        "RelatesToProductReference": "openSUSE Tumbleweed",
        "RelationType": "Default Component Of"
      }
    ]
  },
  "References": [
    {
      "URL": "https://www.suse.com/support/security/rating/",
      "Description": "SUSE Security Ratings"
    },
    {
      "URL": "https://www.suse.com/security/cve/CVE-2014-1934/",
      "Description": "SUSE CVE CVE-2014-1934 page"
    }
  ],
  "Vulnerabilities": [
    {
      "CVE": "CVE-2014-1934",
      "Description": "tag.py in eyeD3 (aka python-eyed3) 7.0.3, 0.6.18, and earlier for Python allows local users to modify arbitrary files via a symlink attack on a temporary file.",
      "Threats": [
        {
          "Type": "Impact",
          "Severity": "moderate"
        }
      ],
      "References": [
        {
          "URL": "https://www.suse.com/security/cve/CVE-2014-1934.html",
          "Description": "CVE-2014-1934"
        },
        {
          "URL": "https://bugzilla.suse.com/863744",
          "Description": "SUSE Bug 863744"
        }
      ],
      "ProductStatuses": [
        {
          "Type": "Fixed",
          "ProductID": [
            "openSUSE Tumbleweed:python-eyeD3-0.7.4-3.3"
          ]
        }
      ],
      "CVSSScoreSets": {}
    }
  ]
}