{
  "Title": "libopenssl-1_0_0-devel-1.0.2u-9.1 on GA media",
  "Tracking": {
    "ID": "openSUSE-SU-2024:12178-1",
    "Status": "Final",
    "Version": "1",
    "InitialReleaseDate": "2024-06-20T21:44:22Z",
    "CurrentReleaseDate": "2024-06-20T21:44:22Z",
    "RevisionHistory": [
      {
        "Number": "1",
        "Date": "2024-06-20T21:44:22Z",
        "Description": "current"
      }
    ]
  },
  "Notes": [
    {
      "Text": "libopenssl-1_0_0-devel-1.0.2u-9.1 on GA media",
      "Title": "Topic",
      "Type": "Summary"
    },
    {
      "Text": "These are all security issues fixed in the libopenssl-1_0_0-devel-1.0.2u-9.1 package on the GA media of openSUSE Tumbleweed.",
      "Title": "Details",
      "Type": "General"
    },
    {
      "Text": "The CVRF data is provided by SUSE under the Creative Commons License 4.0 with Attribution (CC-BY-4.0).",
      "Title": "Terms of Use",
      "Type": "Legal Disclaimer"
    },
    {
      "Text": "openSUSE-Tumbleweed-2024-12178",
      "Title": "Patchnames",
      "Type": "Details"
    }
  ],
  "ProductTree": {
    "Relationships": [
      {
        "ProductReference": "libopenssl-1_0_0-devel-1.0.2u-9.1",
        "RelatesToProductReference": "openSUSE Tumbleweed",
        "RelationType": "Default Component Of"
      },
      {
        "ProductReference": "libopenssl-1_0_0-devel-32bit-1.0.2u-9.1",
        "RelatesToProductReference": "openSUSE Tumbleweed",
        "RelationType": "Default Component Of"
      },
      {
        "ProductReference": "libopenssl10-1.0.2u-9.1",
        "RelatesToProductReference": "openSUSE Tumbleweed",
        "RelationType": "Default Component Of"
      },
      {
        "ProductReference": "libopenssl1_0_0-1.0.2u-9.1",
        "RelatesToProductReference": "openSUSE Tumbleweed",
        "RelationType": "Default Component Of"
      },
      {
        "ProductReference": "libopenssl1_0_0-32bit-1.0.2u-9.1",
        "RelatesToProductReference": "openSUSE Tumbleweed",
        "RelationType": "Default Component Of"
      },
      {
        "ProductReference": "libopenssl1_0_0-hmac-1.0.2u-9.1",
        "RelatesToProductReference": "openSUSE Tumbleweed",
        "RelationType": "Default Component Of"
      },
      {
        "ProductReference": "libopenssl1_0_0-hmac-32bit-1.0.2u-9.1",
        "RelatesToProductReference": "openSUSE Tumbleweed",
        "RelationType": "Default Component Of"
      },
      {
        "ProductReference": "libopenssl1_0_0-steam-1.0.2u-9.1",
        "RelatesToProductReference": "openSUSE Tumbleweed",
        "RelationType": "Default Component Of"
      },
      {
        "ProductReference": "libopenssl1_0_0-steam-32bit-1.0.2u-9.1",
        "RelatesToProductReference": "openSUSE Tumbleweed",
        "RelationType": "Default Component Of"
      },
      {
        "ProductReference": "openssl-1_0_0-1.0.2u-9.1",
        "RelatesToProductReference": "openSUSE Tumbleweed",
        "RelationType": "Default Component Of"
      },
      {
        "ProductReference": "openssl-1_0_0-cavs-1.0.2u-9.1",
        "RelatesToProductReference": "openSUSE Tumbleweed",
        "RelationType": "Default Component Of"
      },
      {
        "ProductReference": "openssl-1_0_0-doc-1.0.2u-9.1",
        "RelatesToProductReference": "openSUSE Tumbleweed",
        "RelationType": "Default Component Of"
      }
    ]
  },
  "References": [
    {
      "URL": "https://www.suse.com/support/security/rating/",
      "Description": "SUSE Security Ratings"
    },
    {
      "URL": "https://www.suse.com/security/cve/CVE-2022-1292/",
      "Description": "SUSE CVE CVE-2022-1292 page"
    },
    {
      "URL": "https://www.suse.com/security/cve/CVE-2022-2068/",
      "Description": "SUSE CVE CVE-2022-2068 page"
    }
  ],
  "Vulnerabilities": [
    {
      "CVE": "CVE-2022-1292",
      "Description": "The c_rehash script does not properly sanitise shell metacharacters to prevent command injection. This script is distributed by some operating systems in a manner where it is automatically executed. On such operating systems, an attacker could execute arbitrary commands with the privileges of the script. Use of the c_rehash script is considered obsolete and should be replaced by the OpenSSL rehash command line tool. Fixed in OpenSSL 3.0.3 (Affected 3.0.0,3.0.1,3.0.2). Fixed in OpenSSL 1.1.1o (Affected 1.1.1-1.1.1n). Fixed in OpenSSL 1.0.2ze (Affected 1.0.2-1.0.2zd).",
      "Threats": [
        {
          "Type": "Impact",
          "Severity": "moderate"
        }
      ],
      "References": [
        {
          "URL": "https://www.suse.com/security/cve/CVE-2022-1292.html",
          "Description": "CVE-2022-1292"
        },
        {
          "URL": "https://bugzilla.suse.com/1199166",
          "Description": "SUSE Bug 1199166"
        },
        {
          "URL": "https://bugzilla.suse.com/1200550",
          "Description": "SUSE Bug 1200550"
        },
        {
          "URL": "https://bugzilla.suse.com/1200650",
          "Description": "SUSE Bug 1200650"
        },
        {
          "URL": "https://bugzilla.suse.com/1200758",
          "Description": "SUSE Bug 1200758"
        },
        {
          "URL": "https://bugzilla.suse.com/1202688",
          "Description": "SUSE Bug 1202688"
        },
        {
          "URL": "https://bugzilla.suse.com/1225628",
          "Description": "SUSE Bug 1225628"
        }
      ],
      "ProductStatuses": [
        {
          "Type": "Fixed",
          "ProductID": [
            "openSUSE Tumbleweed:libopenssl-1_0_0-devel-1.0.2u-9.1",
            "openSUSE Tumbleweed:libopenssl-1_0_0-devel-32bit-1.0.2u-9.1",
            "openSUSE Tumbleweed:libopenssl10-1.0.2u-9.1",
            "openSUSE Tumbleweed:libopenssl1_0_0-1.0.2u-9.1",
            "openSUSE Tumbleweed:libopenssl1_0_0-32bit-1.0.2u-9.1",
            "openSUSE Tumbleweed:libopenssl1_0_0-hmac-1.0.2u-9.1",
            "openSUSE Tumbleweed:libopenssl1_0_0-hmac-32bit-1.0.2u-9.1",
            "openSUSE Tumbleweed:libopenssl1_0_0-steam-1.0.2u-9.1",
            "openSUSE Tumbleweed:libopenssl1_0_0-steam-32bit-1.0.2u-9.1",
            "openSUSE Tumbleweed:openssl-1_0_0-1.0.2u-9.1",
            "openSUSE Tumbleweed:openssl-1_0_0-cavs-1.0.2u-9.1",
            "openSUSE Tumbleweed:openssl-1_0_0-doc-1.0.2u-9.1"
          ]
        }
      ],
      "CVSSScoreSets": {}
    },
    {
      "CVE": "CVE-2022-2068",
      "Description": "In addition to the c_rehash shell command injection identified in CVE-2022-1292, further circumstances where the c_rehash script does not properly sanitise shell metacharacters to prevent command injection were found by code review. When the CVE-2022-1292 was fixed it was not discovered that there are other places in the script where the file names of certificates being hashed were possibly passed to a command executed through the shell. This script is distributed by some operating systems in a manner where it is automatically executed. On such operating systems, an attacker could execute arbitrary commands with the privileges of the script. Use of the c_rehash script is considered obsolete and should be replaced by the OpenSSL rehash command line tool. Fixed in OpenSSL 3.0.4 (Affected 3.0.0,3.0.1,3.0.2,3.0.3). Fixed in OpenSSL 1.1.1p (Affected 1.1.1-1.1.1o). Fixed in OpenSSL 1.0.2zf (Affected 1.0.2-1.0.2ze).",
      "Threats": [
        {
          "Type": "Impact",
          "Severity": "moderate"
        }
      ],
      "References": [
        {
          "URL": "https://www.suse.com/security/cve/CVE-2022-2068.html",
          "Description": "CVE-2022-2068"
        },
        {
          "URL": "https://bugzilla.suse.com/1200550",
          "Description": "SUSE Bug 1200550"
        },
        {
          "URL": "https://bugzilla.suse.com/1207568",
          "Description": "SUSE Bug 1207568"
        },
        {
          "URL": "https://bugzilla.suse.com/1225628",
          "Description": "SUSE Bug 1225628"
        }
      ],
      "ProductStatuses": [
        {
          "Type": "Fixed",
          "ProductID": [
            "openSUSE Tumbleweed:libopenssl-1_0_0-devel-1.0.2u-9.1",
            "openSUSE Tumbleweed:libopenssl-1_0_0-devel-32bit-1.0.2u-9.1",
            "openSUSE Tumbleweed:libopenssl10-1.0.2u-9.1",
            "openSUSE Tumbleweed:libopenssl1_0_0-1.0.2u-9.1",
            "openSUSE Tumbleweed:libopenssl1_0_0-32bit-1.0.2u-9.1",
            "openSUSE Tumbleweed:libopenssl1_0_0-hmac-1.0.2u-9.1",
            "openSUSE Tumbleweed:libopenssl1_0_0-hmac-32bit-1.0.2u-9.1",
            "openSUSE Tumbleweed:libopenssl1_0_0-steam-1.0.2u-9.1",
            "openSUSE Tumbleweed:libopenssl1_0_0-steam-32bit-1.0.2u-9.1",
            "openSUSE Tumbleweed:openssl-1_0_0-1.0.2u-9.1",
            "openSUSE Tumbleweed:openssl-1_0_0-cavs-1.0.2u-9.1",
            "openSUSE Tumbleweed:openssl-1_0_0-doc-1.0.2u-9.1"
          ]
        }
      ],
      "CVSSScoreSets": {}
    }
  ]
}