{
  "Title": "ldb-tools-2.3.0-1.3 on GA media",
  "Tracking": {
    "ID": "openSUSE-SU-2024:10911-1",
    "Status": "Final",
    "Version": "1",
    "InitialReleaseDate": "2024-06-22T21:44:56Z",
    "CurrentReleaseDate": "2024-06-22T21:44:56Z",
    "RevisionHistory": [
      {
        "Number": "1",
        "Date": "2024-06-22T21:44:56Z",
        "Description": "current"
      }
    ]
  },
  "Notes": [
    {
      "Text": "ldb-tools-2.3.0-1.3 on GA media",
      "Title": "Topic",
      "Type": "Summary"
    },
    {
      "Text": "These are all security issues fixed in the ldb-tools-2.3.0-1.3 package on the GA media of openSUSE Tumbleweed.",
      "Title": "Details",
      "Type": "General"
    },
    {
      "Text": "The CVRF data is provided by SUSE under the Creative Commons License 4.0 with Attribution (CC-BY-4.0).",
      "Title": "Terms of Use",
      "Type": "Legal Disclaimer"
    },
    {
      "Text": "openSUSE-Tumbleweed-2024-10911",
      "Title": "Patchnames",
      "Type": "Details"
    }
  ],
  "ProductTree": {
    "Relationships": [
      {
        "ProductReference": "ldb-tools-2.3.0-1.3",
        "RelatesToProductReference": "openSUSE Tumbleweed",
        "RelationType": "Default Component Of"
      },
      {
        "ProductReference": "libldb-devel-2.3.0-1.3",
        "RelatesToProductReference": "openSUSE Tumbleweed",
        "RelationType": "Default Component Of"
      },
      {
        "ProductReference": "libldb2-2.3.0-1.3",
        "RelatesToProductReference": "openSUSE Tumbleweed",
        "RelationType": "Default Component Of"
      },
      {
        "ProductReference": "libldb2-32bit-2.3.0-1.3",
        "RelatesToProductReference": "openSUSE Tumbleweed",
        "RelationType": "Default Component Of"
      },
      {
        "ProductReference": "python3-ldb-2.3.0-1.3",
        "RelatesToProductReference": "openSUSE Tumbleweed",
        "RelationType": "Default Component Of"
      },
      {
        "ProductReference": "python3-ldb-32bit-2.3.0-1.3",
        "RelatesToProductReference": "openSUSE Tumbleweed",
        "RelationType": "Default Component Of"
      },
      {
        "ProductReference": "python3-ldb-devel-2.3.0-1.3",
        "RelatesToProductReference": "openSUSE Tumbleweed",
        "RelationType": "Default Component Of"
      }
    ]
  },
  "References": [
    {
      "URL": "https://www.suse.com/support/security/rating/",
      "Description": "SUSE Security Ratings"
    },
    {
      "URL": "https://www.suse.com/security/cve/CVE-2018-1140/",
      "Description": "SUSE CVE CVE-2018-1140 page"
    },
    {
      "URL": "https://www.suse.com/security/cve/CVE-2019-3824/",
      "Description": "SUSE CVE CVE-2019-3824 page"
    },
    {
      "URL": "https://www.suse.com/security/cve/CVE-2020-10700/",
      "Description": "SUSE CVE CVE-2020-10700 page"
    },
    {
      "URL": "https://www.suse.com/security/cve/CVE-2020-10730/",
      "Description": "SUSE CVE CVE-2020-10730 page"
    },
    {
      "URL": "https://www.suse.com/security/cve/CVE-2020-27840/",
      "Description": "SUSE CVE CVE-2020-27840 page"
    },
    {
      "URL": "https://www.suse.com/security/cve/CVE-2021-20277/",
      "Description": "SUSE CVE CVE-2021-20277 page"
    }
  ],
  "Vulnerabilities": [
    {
      "CVE": "CVE-2018-1140",
      "Description": "A missing input sanitization flaw was found in the implementation of LDP database used for the LDAP server. An attacker could use this flaw to cause a denial of service against a samba server, used as a Active Directory Domain Controller. All versions of Samba from 4.8.0 onwards are vulnerable",
      "Threats": [
        {
          "Type": "Impact",
          "Severity": "important"
        }
      ],
      "References": [
        {
          "URL": "https://www.suse.com/security/cve/CVE-2018-1140.html",
          "Description": "CVE-2018-1140"
        },
        {
          "URL": "https://bugzilla.suse.com/1095056",
          "Description": "SUSE Bug 1095056"
        }
      ],
      "ProductStatuses": [
        {
          "Type": "Fixed",
          "ProductID": [
            "openSUSE Tumbleweed:ldb-tools-2.3.0-1.3",
            "openSUSE Tumbleweed:libldb-devel-2.3.0-1.3",
            "openSUSE Tumbleweed:libldb2-2.3.0-1.3",
            "openSUSE Tumbleweed:libldb2-32bit-2.3.0-1.3",
            "openSUSE Tumbleweed:python3-ldb-2.3.0-1.3",
            "openSUSE Tumbleweed:python3-ldb-32bit-2.3.0-1.3",
            "openSUSE Tumbleweed:python3-ldb-devel-2.3.0-1.3"
          ]
        }
      ],
      "CVSSScoreSets": {}
    },
    {
      "CVE": "CVE-2019-3824",
      "Description": "A flaw was found in the way an LDAP search expression could crash the shared LDAP server process of a samba AD DC in samba before version 4.10. An authenticated user, having read permissions on the LDAP server, could use this flaw to cause denial of service.",
      "Threats": [
        {
          "Type": "Impact",
          "Severity": "moderate"
        }
      ],
      "References": [
        {
          "URL": "https://www.suse.com/security/cve/CVE-2019-3824.html",
          "Description": "CVE-2019-3824"
        },
        {
          "URL": "https://bugzilla.suse.com/1125410",
          "Description": "SUSE Bug 1125410"
        },
        {
          "URL": "https://bugzilla.suse.com/1130703",
          "Description": "SUSE Bug 1130703"
        }
      ],
      "ProductStatuses": [
        {
          "Type": "Fixed",
          "ProductID": [
            "openSUSE Tumbleweed:ldb-tools-2.3.0-1.3",
            "openSUSE Tumbleweed:libldb-devel-2.3.0-1.3",
            "openSUSE Tumbleweed:libldb2-2.3.0-1.3",
            "openSUSE Tumbleweed:libldb2-32bit-2.3.0-1.3",
            "openSUSE Tumbleweed:python3-ldb-2.3.0-1.3",
            "openSUSE Tumbleweed:python3-ldb-32bit-2.3.0-1.3",
            "openSUSE Tumbleweed:python3-ldb-devel-2.3.0-1.3"
          ]
        }
      ],
      "CVSSScoreSets": {}
    },
    {
      "CVE": "CVE-2020-10700",
      "Description": "A use-after-free flaw was found in the way samba AD DC LDAP servers, handled 'Paged Results' control is combined with the 'ASQ' control. A malicious user in a samba AD could use this flaw to cause denial of service. This issue affects all samba versions before 4.10.15, before 4.11.8 and before 4.12.2.",
      "Threats": [
        {
          "Type": "Impact",
          "Severity": "moderate"
        }
      ],
      "References": [
        {
          "URL": "https://www.suse.com/security/cve/CVE-2020-10700.html",
          "Description": "CVE-2020-10700"
        },
        {
          "URL": "https://bugzilla.suse.com/1169850",
          "Description": "SUSE Bug 1169850"
        },
        {
          "URL": "https://bugzilla.suse.com/1173159",
          "Description": "SUSE Bug 1173159"
        }
      ],
      "ProductStatuses": [
        {
          "Type": "Fixed",
          "ProductID": [
            "openSUSE Tumbleweed:ldb-tools-2.3.0-1.3",
            "openSUSE Tumbleweed:libldb-devel-2.3.0-1.3",
            "openSUSE Tumbleweed:libldb2-2.3.0-1.3",
            "openSUSE Tumbleweed:libldb2-32bit-2.3.0-1.3",
            "openSUSE Tumbleweed:python3-ldb-2.3.0-1.3",
            "openSUSE Tumbleweed:python3-ldb-32bit-2.3.0-1.3",
            "openSUSE Tumbleweed:python3-ldb-devel-2.3.0-1.3"
          ]
        }
      ],
      "CVSSScoreSets": {}
    },
    {
      "CVE": "CVE-2020-10730",
      "Description": "A NULL pointer dereference, or possible use-after-free flaw was found in Samba AD LDAP server in versions before 4.10.17, before 4.11.11 and before 4.12.4. Although some versions of Samba shipped with Red Hat Enterprise Linux do not support Samba in AD mode, the affected code is shipped with the libldb package. This flaw allows an authenticated user to possibly trigger a use-after-free or NULL pointer dereference. The highest threat from this vulnerability is to system availability.",
      "Threats": [
        {
          "Type": "Impact",
          "Severity": "moderate"
        }
      ],
      "References": [
        {
          "URL": "https://www.suse.com/security/cve/CVE-2020-10730.html",
          "Description": "CVE-2020-10730"
        },
        {
          "URL": "https://bugzilla.suse.com/1173159",
          "Description": "SUSE Bug 1173159"
        }
      ],
      "ProductStatuses": [
        {
          "Type": "Fixed",
          "ProductID": [
            "openSUSE Tumbleweed:ldb-tools-2.3.0-1.3",
            "openSUSE Tumbleweed:libldb-devel-2.3.0-1.3",
            "openSUSE Tumbleweed:libldb2-2.3.0-1.3",
            "openSUSE Tumbleweed:libldb2-32bit-2.3.0-1.3",
            "openSUSE Tumbleweed:python3-ldb-2.3.0-1.3",
            "openSUSE Tumbleweed:python3-ldb-32bit-2.3.0-1.3",
            "openSUSE Tumbleweed:python3-ldb-devel-2.3.0-1.3"
          ]
        }
      ],
      "CVSSScoreSets": {}
    },
    {
      "CVE": "CVE-2020-27840",
      "Description": "A flaw was found in samba. Spaces used in a string around a domain name (DN), while supposed to be ignored, can cause invalid DN strings with spaces to instead write a zero-byte into out-of-bounds memory, resulting in a crash. The highest threat from this vulnerability is to system availability.",
      "Threats": [
        {
          "Type": "Impact",
          "Severity": "important"
        }
      ],
      "References": [
        {
          "URL": "https://www.suse.com/security/cve/CVE-2020-27840.html",
          "Description": "CVE-2020-27840"
        },
        {
          "URL": "https://bugzilla.suse.com/1183572",
          "Description": "SUSE Bug 1183572"
        }
      ],
      "ProductStatuses": [
        {
          "Type": "Fixed",
          "ProductID": [
            "openSUSE Tumbleweed:ldb-tools-2.3.0-1.3",
            "openSUSE Tumbleweed:libldb-devel-2.3.0-1.3",
            "openSUSE Tumbleweed:libldb2-2.3.0-1.3",
            "openSUSE Tumbleweed:libldb2-32bit-2.3.0-1.3",
            "openSUSE Tumbleweed:python3-ldb-2.3.0-1.3",
            "openSUSE Tumbleweed:python3-ldb-32bit-2.3.0-1.3",
            "openSUSE Tumbleweed:python3-ldb-devel-2.3.0-1.3"
          ]
        }
      ],
      "CVSSScoreSets": {}
    },
    {
      "CVE": "CVE-2021-20277",
      "Description": "A flaw was found in Samba's libldb. Multiple, consecutive leading spaces in an LDAP attribute can lead to an out-of-bounds memory write, leading to a crash of the LDAP server process handling the request. The highest threat from this vulnerability is to system availability.",
      "Threats": [
        {
          "Type": "Impact",
          "Severity": "important"
        }
      ],
      "References": [
        {
          "URL": "https://www.suse.com/security/cve/CVE-2021-20277.html",
          "Description": "CVE-2021-20277"
        },
        {
          "URL": "https://bugzilla.suse.com/1183574",
          "Description": "SUSE Bug 1183574"
        }
      ],
      "ProductStatuses": [
        {
          "Type": "Fixed",
          "ProductID": [
            "openSUSE Tumbleweed:ldb-tools-2.3.0-1.3",
            "openSUSE Tumbleweed:libldb-devel-2.3.0-1.3",
            "openSUSE Tumbleweed:libldb2-2.3.0-1.3",
            "openSUSE Tumbleweed:libldb2-32bit-2.3.0-1.3",
            "openSUSE Tumbleweed:python3-ldb-2.3.0-1.3",
            "openSUSE Tumbleweed:python3-ldb-32bit-2.3.0-1.3",
            "openSUSE Tumbleweed:python3-ldb-devel-2.3.0-1.3"
          ]
        }
      ],
      "CVSSScoreSets": {}
    }
  ]
}