{
  "Title": "qemu-8.0.3-2.1 on GA media",
  "Tracking": {
    "ID": "openSUSE-SU-2024:13082-1",
    "Status": "Final",
    "Version": "1",
    "InitialReleaseDate": "2024-06-20T21:44:22Z",
    "CurrentReleaseDate": "2024-06-20T21:44:22Z",
    "RevisionHistory": [
      {
        "Number": "1",
        "Date": "2024-06-20T21:44:22Z",
        "Description": "current"
      }
    ]
  },
  "Notes": [
    {
      "Text": "qemu-8.0.3-2.1 on GA media",
      "Title": "Topic",
      "Type": "Summary"
    },
    {
      "Text": "These are all security issues fixed in the qemu-8.0.3-2.1 package on the GA media of openSUSE Tumbleweed.",
      "Title": "Details",
      "Type": "General"
    },
    {
      "Text": "The CVRF data is provided by SUSE under the Creative Commons License 4.0 with Attribution (CC-BY-4.0).",
      "Title": "Terms of Use",
      "Type": "Legal Disclaimer"
    },
    {
      "Text": "openSUSE-Tumbleweed-2024-13082",
      "Title": "Patchnames",
      "Type": "Details"
    }
  ],
  "ProductTree": {
    "Relationships": [
      {
        "ProductReference": "qemu-8.0.3-2.1",
        "RelatesToProductReference": "openSUSE Tumbleweed",
        "RelationType": "Default Component Of"
      },
      {
        "ProductReference": "qemu-SLOF-8.0.3-2.1",
        "RelatesToProductReference": "openSUSE Tumbleweed",
        "RelationType": "Default Component Of"
      },
      {
        "ProductReference": "qemu-accel-qtest-8.0.3-2.1",
        "RelatesToProductReference": "openSUSE Tumbleweed",
        "RelationType": "Default Component Of"
      },
      {
        "ProductReference": "qemu-accel-tcg-x86-8.0.3-2.1",
        "RelatesToProductReference": "openSUSE Tumbleweed",
        "RelationType": "Default Component Of"
      },
      {
        "ProductReference": "qemu-arm-8.0.3-2.1",
        "RelatesToProductReference": "openSUSE Tumbleweed",
        "RelationType": "Default Component Of"
      },
      {
        "ProductReference": "qemu-audio-alsa-8.0.3-2.1",
        "RelatesToProductReference": "openSUSE Tumbleweed",
        "RelationType": "Default Component Of"
      },
      {
        "ProductReference": "qemu-audio-dbus-8.0.3-2.1",
        "RelatesToProductReference": "openSUSE Tumbleweed",
        "RelationType": "Default Component Of"
      },
      {
        "ProductReference": "qemu-audio-jack-8.0.3-2.1",
        "RelatesToProductReference": "openSUSE Tumbleweed",
        "RelationType": "Default Component Of"
      },
      {
        "ProductReference": "qemu-audio-oss-8.0.3-2.1",
        "RelatesToProductReference": "openSUSE Tumbleweed",
        "RelationType": "Default Component Of"
      },
      {
        "ProductReference": "qemu-audio-pa-8.0.3-2.1",
        "RelatesToProductReference": "openSUSE Tumbleweed",
        "RelationType": "Default Component Of"
      },
      {
        "ProductReference": "qemu-audio-spice-8.0.3-2.1",
        "RelatesToProductReference": "openSUSE Tumbleweed",
        "RelationType": "Default Component Of"
      },
      {
        "ProductReference": "qemu-block-curl-8.0.3-2.1",
        "RelatesToProductReference": "openSUSE Tumbleweed",
        "RelationType": "Default Component Of"
      },
      {
        "ProductReference": "qemu-block-dmg-8.0.3-2.1",
        "RelatesToProductReference": "openSUSE Tumbleweed",
        "RelationType": "Default Component Of"
      },
      {
        "ProductReference": "qemu-block-gluster-8.0.3-2.1",
        "RelatesToProductReference": "openSUSE Tumbleweed",
        "RelationType": "Default Component Of"
      },
      {
        "ProductReference": "qemu-block-iscsi-8.0.3-2.1",
        "RelatesToProductReference": "openSUSE Tumbleweed",
        "RelationType": "Default Component Of"
      },
      {
        "ProductReference": "qemu-block-nfs-8.0.3-2.1",
        "RelatesToProductReference": "openSUSE Tumbleweed",
        "RelationType": "Default Component Of"
      },
      {
        "ProductReference": "qemu-block-rbd-8.0.3-2.1",
        "RelatesToProductReference": "openSUSE Tumbleweed",
        "RelationType": "Default Component Of"
      },
      {
        "ProductReference": "qemu-block-ssh-8.0.3-2.1",
        "RelatesToProductReference": "openSUSE Tumbleweed",
        "RelationType": "Default Component Of"
      },
      {
        "ProductReference": "qemu-chardev-baum-8.0.3-2.1",
        "RelatesToProductReference": "openSUSE Tumbleweed",
        "RelationType": "Default Component Of"
      },
      {
        "ProductReference": "qemu-chardev-spice-8.0.3-2.1",
        "RelatesToProductReference": "openSUSE Tumbleweed",
        "RelationType": "Default Component Of"
      },
      {
        "ProductReference": "qemu-doc-8.0.3-2.1",
        "RelatesToProductReference": "openSUSE Tumbleweed",
        "RelationType": "Default Component Of"
      },
      {
        "ProductReference": "qemu-extra-8.0.3-2.1",
        "RelatesToProductReference": "openSUSE Tumbleweed",
        "RelationType": "Default Component Of"
      },
      {
        "ProductReference": "qemu-guest-agent-8.0.3-2.1",
        "RelatesToProductReference": "openSUSE Tumbleweed",
        "RelationType": "Default Component Of"
      },
      {
        "ProductReference": "qemu-headless-8.0.3-2.1",
        "RelatesToProductReference": "openSUSE Tumbleweed",
        "RelationType": "Default Component Of"
      },
      {
        "ProductReference": "qemu-hw-display-qxl-8.0.3-2.1",
        "RelatesToProductReference": "openSUSE Tumbleweed",
        "RelationType": "Default Component Of"
      },
      {
        "ProductReference": "qemu-hw-display-virtio-gpu-8.0.3-2.1",
        "RelatesToProductReference": "openSUSE Tumbleweed",
        "RelationType": "Default Component Of"
      },
      {
        "ProductReference": "qemu-hw-display-virtio-gpu-pci-8.0.3-2.1",
        "RelatesToProductReference": "openSUSE Tumbleweed",
        "RelationType": "Default Component Of"
      },
      {
        "ProductReference": "qemu-hw-display-virtio-vga-8.0.3-2.1",
        "RelatesToProductReference": "openSUSE Tumbleweed",
        "RelationType": "Default Component Of"
      },
      {
        "ProductReference": "qemu-hw-s390x-virtio-gpu-ccw-8.0.3-2.1",
        "RelatesToProductReference": "openSUSE Tumbleweed",
        "RelationType": "Default Component Of"
      },
      {
        "ProductReference": "qemu-hw-usb-host-8.0.3-2.1",
        "RelatesToProductReference": "openSUSE Tumbleweed",
        "RelationType": "Default Component Of"
      },
      {
        "ProductReference": "qemu-hw-usb-redirect-8.0.3-2.1",
        "RelatesToProductReference": "openSUSE Tumbleweed",
        "RelationType": "Default Component Of"
      },
      {
        "ProductReference": "qemu-hw-usb-smartcard-8.0.3-2.1",
        "RelatesToProductReference": "openSUSE Tumbleweed",
        "RelationType": "Default Component Of"
      },
      {
        "ProductReference": "qemu-img-8.0.3-2.1",
        "RelatesToProductReference": "openSUSE Tumbleweed",
        "RelationType": "Default Component Of"
      },
      {
        "ProductReference": "qemu-ipxe-1.0.0+-2.1",
        "RelatesToProductReference": "openSUSE Tumbleweed",
        "RelationType": "Default Component Of"
      },
      {
        "ProductReference": "qemu-ivshmem-tools-8.0.3-2.1",
        "RelatesToProductReference": "openSUSE Tumbleweed",
        "RelationType": "Default Component Of"
      },
      {
        "ProductReference": "qemu-ksm-8.0.3-2.1",
        "RelatesToProductReference": "openSUSE Tumbleweed",
        "RelationType": "Default Component Of"
      },
      {
        "ProductReference": "qemu-kvm-8.0.3-2.1",
        "RelatesToProductReference": "openSUSE Tumbleweed",
        "RelationType": "Default Component Of"
      },
      {
        "ProductReference": "qemu-lang-8.0.3-2.1",
        "RelatesToProductReference": "openSUSE Tumbleweed",
        "RelationType": "Default Component Of"
      },
      {
        "ProductReference": "qemu-microvm-8.0.3-2.1",
        "RelatesToProductReference": "openSUSE Tumbleweed",
        "RelationType": "Default Component Of"
      },
      {
        "ProductReference": "qemu-ppc-8.0.3-2.1",
        "RelatesToProductReference": "openSUSE Tumbleweed",
        "RelationType": "Default Component Of"
      },
      {
        "ProductReference": "qemu-pr-helper-8.0.3-2.1",
        "RelatesToProductReference": "openSUSE Tumbleweed",
        "RelationType": "Default Component Of"
      },
      {
        "ProductReference": "qemu-s390x-8.0.3-2.1",
        "RelatesToProductReference": "openSUSE Tumbleweed",
        "RelationType": "Default Component Of"
      },
      {
        "ProductReference": "qemu-seabios-1.16.2_3_gd478f380-2.1",
        "RelatesToProductReference": "openSUSE Tumbleweed",
        "RelationType": "Default Component Of"
      },
      {
        "ProductReference": "qemu-skiboot-8.0.3-2.1",
        "RelatesToProductReference": "openSUSE Tumbleweed",
        "RelationType": "Default Component Of"
      },
      {
        "ProductReference": "qemu-tools-8.0.3-2.1",
        "RelatesToProductReference": "openSUSE Tumbleweed",
        "RelationType": "Default Component Of"
      },
      {
        "ProductReference": "qemu-ui-curses-8.0.3-2.1",
        "RelatesToProductReference": "openSUSE Tumbleweed",
        "RelationType": "Default Component Of"
      },
      {
        "ProductReference": "qemu-ui-dbus-8.0.3-2.1",
        "RelatesToProductReference": "openSUSE Tumbleweed",
        "RelationType": "Default Component Of"
      },
      {
        "ProductReference": "qemu-ui-gtk-8.0.3-2.1",
        "RelatesToProductReference": "openSUSE Tumbleweed",
        "RelationType": "Default Component Of"
      },
      {
        "ProductReference": "qemu-ui-opengl-8.0.3-2.1",
        "RelatesToProductReference": "openSUSE Tumbleweed",
        "RelationType": "Default Component Of"
      },
      {
        "ProductReference": "qemu-ui-spice-app-8.0.3-2.1",
        "RelatesToProductReference": "openSUSE Tumbleweed",
        "RelationType": "Default Component Of"
      },
      {
        "ProductReference": "qemu-ui-spice-core-8.0.3-2.1",
        "RelatesToProductReference": "openSUSE Tumbleweed",
        "RelationType": "Default Component Of"
      },
      {
        "ProductReference": "qemu-vgabios-1.16.2_3_gd478f380-2.1",
        "RelatesToProductReference": "openSUSE Tumbleweed",
        "RelationType": "Default Component Of"
      },
      {
        "ProductReference": "qemu-vhost-user-gpu-8.0.3-2.1",
        "RelatesToProductReference": "openSUSE Tumbleweed",
        "RelationType": "Default Component Of"
      },
      {
        "ProductReference": "qemu-x86-8.0.3-2.1",
        "RelatesToProductReference": "openSUSE Tumbleweed",
        "RelationType": "Default Component Of"
      }
    ]
  },
  "References": [
    {
      "URL": "https://www.suse.com/support/security/rating/",
      "Description": "SUSE Security Ratings"
    },
    {
      "URL": "https://www.suse.com/security/cve/CVE-2023-3255/",
      "Description": "SUSE CVE CVE-2023-3255 page"
    }
  ],
  "Vulnerabilities": [
    {
      "CVE": "CVE-2023-3255",
      "Description": "A flaw was found in the QEMU built-in VNC server while processing ClientCutText messages. A wrong exit condition may lead to an infinite loop when inflating an attacker controlled zlib buffer in the `inflate_buffer` function. This could allow a remote authenticated client who is able to send a clipboard to the VNC server to trigger a denial of service.",
      "Threats": [
        {
          "Type": "Impact",
          "Severity": "moderate"
        }
      ],
      "References": [
        {
          "URL": "https://www.suse.com/security/cve/CVE-2023-3255.html",
          "Description": "CVE-2023-3255"
        },
        {
          "URL": "https://bugzilla.suse.com/1213001",
          "Description": "SUSE Bug 1213001"
        }
      ],
      "ProductStatuses": [
        {
          "Type": "Fixed",
          "ProductID": [
            "openSUSE Tumbleweed:qemu-8.0.3-2.1",
            "openSUSE Tumbleweed:qemu-SLOF-8.0.3-2.1",
            "openSUSE Tumbleweed:qemu-accel-qtest-8.0.3-2.1",
            "openSUSE Tumbleweed:qemu-accel-tcg-x86-8.0.3-2.1",
            "openSUSE Tumbleweed:qemu-arm-8.0.3-2.1",
            "openSUSE Tumbleweed:qemu-audio-alsa-8.0.3-2.1",
            "openSUSE Tumbleweed:qemu-audio-dbus-8.0.3-2.1",
            "openSUSE Tumbleweed:qemu-audio-jack-8.0.3-2.1",
            "openSUSE Tumbleweed:qemu-audio-oss-8.0.3-2.1",
            "openSUSE Tumbleweed:qemu-audio-pa-8.0.3-2.1",
            "openSUSE Tumbleweed:qemu-audio-spice-8.0.3-2.1",
            "openSUSE Tumbleweed:qemu-block-curl-8.0.3-2.1",
            "openSUSE Tumbleweed:qemu-block-dmg-8.0.3-2.1",
            "openSUSE Tumbleweed:qemu-block-gluster-8.0.3-2.1",
            "openSUSE Tumbleweed:qemu-block-iscsi-8.0.3-2.1",
            "openSUSE Tumbleweed:qemu-block-nfs-8.0.3-2.1",
            "openSUSE Tumbleweed:qemu-block-rbd-8.0.3-2.1",
            "openSUSE Tumbleweed:qemu-block-ssh-8.0.3-2.1",
            "openSUSE Tumbleweed:qemu-chardev-baum-8.0.3-2.1",
            "openSUSE Tumbleweed:qemu-chardev-spice-8.0.3-2.1",
            "openSUSE Tumbleweed:qemu-doc-8.0.3-2.1",
            "openSUSE Tumbleweed:qemu-extra-8.0.3-2.1",
            "openSUSE Tumbleweed:qemu-guest-agent-8.0.3-2.1",
            "openSUSE Tumbleweed:qemu-headless-8.0.3-2.1",
            "openSUSE Tumbleweed:qemu-hw-display-qxl-8.0.3-2.1",
            "openSUSE Tumbleweed:qemu-hw-display-virtio-gpu-8.0.3-2.1",
            "openSUSE Tumbleweed:qemu-hw-display-virtio-gpu-pci-8.0.3-2.1",
            "openSUSE Tumbleweed:qemu-hw-display-virtio-vga-8.0.3-2.1",
            "openSUSE Tumbleweed:qemu-hw-s390x-virtio-gpu-ccw-8.0.3-2.1",
            "openSUSE Tumbleweed:qemu-hw-usb-host-8.0.3-2.1",
            "openSUSE Tumbleweed:qemu-hw-usb-redirect-8.0.3-2.1",
            "openSUSE Tumbleweed:qemu-hw-usb-smartcard-8.0.3-2.1",
            "openSUSE Tumbleweed:qemu-img-8.0.3-2.1",
            "openSUSE Tumbleweed:qemu-ipxe-1.0.0+-2.1",
            "openSUSE Tumbleweed:qemu-ivshmem-tools-8.0.3-2.1",
            "openSUSE Tumbleweed:qemu-ksm-8.0.3-2.1",
            "openSUSE Tumbleweed:qemu-kvm-8.0.3-2.1",
            "openSUSE Tumbleweed:qemu-lang-8.0.3-2.1",
            "openSUSE Tumbleweed:qemu-microvm-8.0.3-2.1",
            "openSUSE Tumbleweed:qemu-ppc-8.0.3-2.1",
            "openSUSE Tumbleweed:qemu-pr-helper-8.0.3-2.1",
            "openSUSE Tumbleweed:qemu-s390x-8.0.3-2.1",
            "openSUSE Tumbleweed:qemu-seabios-1.16.2_3_gd478f380-2.1",
            "openSUSE Tumbleweed:qemu-skiboot-8.0.3-2.1",
            "openSUSE Tumbleweed:qemu-tools-8.0.3-2.1",
            "openSUSE Tumbleweed:qemu-ui-curses-8.0.3-2.1",
            "openSUSE Tumbleweed:qemu-ui-dbus-8.0.3-2.1",
            "openSUSE Tumbleweed:qemu-ui-gtk-8.0.3-2.1",
            "openSUSE Tumbleweed:qemu-ui-opengl-8.0.3-2.1",
            "openSUSE Tumbleweed:qemu-ui-spice-app-8.0.3-2.1",
            "openSUSE Tumbleweed:qemu-ui-spice-core-8.0.3-2.1",
            "openSUSE Tumbleweed:qemu-vgabios-1.16.2_3_gd478f380-2.1",
            "openSUSE Tumbleweed:qemu-vhost-user-gpu-8.0.3-2.1",
            "openSUSE Tumbleweed:qemu-x86-8.0.3-2.1"
          ]
        }
      ],
      "CVSSScoreSets": {}
    }
  ]
}