{
  "Title": "pound-2.8-3.9 on GA media",
  "Tracking": {
    "ID": "openSUSE-SU-2024:11190-1",
    "Status": "Final",
    "Version": "1",
    "InitialReleaseDate": "2024-06-22T21:44:56Z",
    "CurrentReleaseDate": "2024-06-22T21:44:56Z",
    "RevisionHistory": [
      {
        "Number": "1",
        "Date": "2024-06-22T21:44:56Z",
        "Description": "current"
      }
    ]
  },
  "Notes": [
    {
      "Text": "pound-2.8-3.9 on GA media",
      "Title": "Topic",
      "Type": "Summary"
    },
    {
      "Text": "These are all security issues fixed in the pound-2.8-3.9 package on the GA media of openSUSE Tumbleweed.",
      "Title": "Details",
      "Type": "General"
    },
    {
      "Text": "The CVRF data is provided by SUSE under the Creative Commons License 4.0 with Attribution (CC-BY-4.0).",
      "Title": "Terms of Use",
      "Type": "Legal Disclaimer"
    },
    {
      "Text": "openSUSE-Tumbleweed-2024-11190",
      "Title": "Patchnames",
      "Type": "Details"
    }
  ],
  "ProductTree": {
    "Relationships": [
      {
        "ProductReference": "pound-2.8-3.9",
        "RelatesToProductReference": "openSUSE Tumbleweed",
        "RelationType": "Default Component Of"
      },
      {
        "ProductReference": "pound-doc-2.8-3.9",
        "RelatesToProductReference": "openSUSE Tumbleweed",
        "RelationType": "Default Component Of"
      }
    ]
  },
  "References": [
    {
      "URL": "https://www.suse.com/support/security/rating/",
      "Description": "SUSE Security Ratings"
    },
    {
      "URL": "https://www.suse.com/security/cve/CVE-2016-10711/",
      "Description": "SUSE CVE CVE-2016-10711 page"
    },
    {
      "URL": "https://www.suse.com/security/cve/CVE-2018-21245/",
      "Description": "SUSE CVE CVE-2018-21245 page"
    }
  ],
  "Vulnerabilities": [
    {
      "CVE": "CVE-2016-10711",
      "Description": "Apsis Pound before 2.8a allows request smuggling via crafted headers, a different vulnerability than CVE-2005-3751.",
      "Threats": [
        {
          "Type": "Impact",
          "Severity": "moderate"
        }
      ],
      "References": [
        {
          "URL": "https://www.suse.com/security/cve/CVE-2016-10711.html",
          "Description": "CVE-2016-10711"
        },
        {
          "URL": "https://bugzilla.suse.com/1078298",
          "Description": "SUSE Bug 1078298"
        },
        {
          "URL": "https://bugzilla.suse.com/1173075",
          "Description": "SUSE Bug 1173075"
        }
      ],
      "ProductStatuses": [
        {
          "Type": "Fixed",
          "ProductID": [
            "openSUSE Tumbleweed:pound-2.8-3.9",
            "openSUSE Tumbleweed:pound-doc-2.8-3.9"
          ]
        }
      ],
      "CVSSScoreSets": {}
    },
    {
      "CVE": "CVE-2018-21245",
      "Description": "Pound before 2.8 allows HTTP request smuggling, a related issue to CVE-2016-10711.",
      "Threats": [
        {
          "Type": "Impact",
          "Severity": "moderate"
        }
      ],
      "References": [
        {
          "URL": "https://www.suse.com/security/cve/CVE-2018-21245.html",
          "Description": "CVE-2018-21245"
        },
        {
          "URL": "https://bugzilla.suse.com/1173075",
          "Description": "SUSE Bug 1173075"
        }
      ],
      "ProductStatuses": [
        {
          "Type": "Fixed",
          "ProductID": [
            "openSUSE Tumbleweed:pound-2.8-3.9",
            "openSUSE Tumbleweed:pound-doc-2.8-3.9"
          ]
        }
      ],
      "CVSSScoreSets": {}
    }
  ]
}