{
  "Title": "libnss_slurm2-21.08.4-1.1 on GA media",
  "Tracking": {
    "ID": "openSUSE-SU-2024:11645-1",
    "Status": "Final",
    "Version": "1",
    "InitialReleaseDate": "2024-06-22T21:44:56Z",
    "CurrentReleaseDate": "2024-06-22T21:44:56Z",
    "RevisionHistory": [
      {
        "Number": "1",
        "Date": "2024-06-22T21:44:56Z",
        "Description": "current"
      }
    ]
  },
  "Notes": [
    {
      "Text": "libnss_slurm2-21.08.4-1.1 on GA media",
      "Title": "Topic",
      "Type": "Summary"
    },
    {
      "Text": "These are all security issues fixed in the libnss_slurm2-21.08.4-1.1 package on the GA media of openSUSE Tumbleweed.",
      "Title": "Details",
      "Type": "General"
    },
    {
      "Text": "The CVRF data is provided by SUSE under the Creative Commons License 4.0 with Attribution (CC-BY-4.0).",
      "Title": "Terms of Use",
      "Type": "Legal Disclaimer"
    },
    {
      "Text": "openSUSE-Tumbleweed-2024-11645",
      "Title": "Patchnames",
      "Type": "Details"
    }
  ],
  "ProductTree": {
    "Relationships": [
      {
        "ProductReference": "libnss_slurm2-21.08.4-1.1",
        "RelatesToProductReference": "openSUSE Tumbleweed",
        "RelationType": "Default Component Of"
      },
      {
        "ProductReference": "libpmi0-21.08.4-1.1",
        "RelatesToProductReference": "openSUSE Tumbleweed",
        "RelationType": "Default Component Of"
      },
      {
        "ProductReference": "libslurm37-21.08.4-1.1",
        "RelatesToProductReference": "openSUSE Tumbleweed",
        "RelationType": "Default Component Of"
      },
      {
        "ProductReference": "perl-slurm-21.08.4-1.1",
        "RelatesToProductReference": "openSUSE Tumbleweed",
        "RelationType": "Default Component Of"
      },
      {
        "ProductReference": "slurm-21.08.4-1.1",
        "RelatesToProductReference": "openSUSE Tumbleweed",
        "RelationType": "Default Component Of"
      },
      {
        "ProductReference": "slurm-auth-none-21.08.4-1.1",
        "RelatesToProductReference": "openSUSE Tumbleweed",
        "RelationType": "Default Component Of"
      },
      {
        "ProductReference": "slurm-config-21.08.4-1.1",
        "RelatesToProductReference": "openSUSE Tumbleweed",
        "RelationType": "Default Component Of"
      },
      {
        "ProductReference": "slurm-config-man-21.08.4-1.1",
        "RelatesToProductReference": "openSUSE Tumbleweed",
        "RelationType": "Default Component Of"
      },
      {
        "ProductReference": "slurm-cray-21.08.4-1.1",
        "RelatesToProductReference": "openSUSE Tumbleweed",
        "RelationType": "Default Component Of"
      },
      {
        "ProductReference": "slurm-devel-21.08.4-1.1",
        "RelatesToProductReference": "openSUSE Tumbleweed",
        "RelationType": "Default Component Of"
      },
      {
        "ProductReference": "slurm-doc-21.08.4-1.1",
        "RelatesToProductReference": "openSUSE Tumbleweed",
        "RelationType": "Default Component Of"
      },
      {
        "ProductReference": "slurm-hdf5-21.08.4-1.1",
        "RelatesToProductReference": "openSUSE Tumbleweed",
        "RelationType": "Default Component Of"
      },
      {
        "ProductReference": "slurm-lua-21.08.4-1.1",
        "RelatesToProductReference": "openSUSE Tumbleweed",
        "RelationType": "Default Component Of"
      },
      {
        "ProductReference": "slurm-munge-21.08.4-1.1",
        "RelatesToProductReference": "openSUSE Tumbleweed",
        "RelationType": "Default Component Of"
      },
      {
        "ProductReference": "slurm-node-21.08.4-1.1",
        "RelatesToProductReference": "openSUSE Tumbleweed",
        "RelationType": "Default Component Of"
      },
      {
        "ProductReference": "slurm-openlava-21.08.4-1.1",
        "RelatesToProductReference": "openSUSE Tumbleweed",
        "RelationType": "Default Component Of"
      },
      {
        "ProductReference": "slurm-pam_slurm-21.08.4-1.1",
        "RelatesToProductReference": "openSUSE Tumbleweed",
        "RelationType": "Default Component Of"
      },
      {
        "ProductReference": "slurm-plugins-21.08.4-1.1",
        "RelatesToProductReference": "openSUSE Tumbleweed",
        "RelationType": "Default Component Of"
      },
      {
        "ProductReference": "slurm-rest-21.08.4-1.1",
        "RelatesToProductReference": "openSUSE Tumbleweed",
        "RelationType": "Default Component Of"
      },
      {
        "ProductReference": "slurm-seff-21.08.4-1.1",
        "RelatesToProductReference": "openSUSE Tumbleweed",
        "RelationType": "Default Component Of"
      },
      {
        "ProductReference": "slurm-sjstat-21.08.4-1.1",
        "RelatesToProductReference": "openSUSE Tumbleweed",
        "RelationType": "Default Component Of"
      },
      {
        "ProductReference": "slurm-slurmdbd-21.08.4-1.1",
        "RelatesToProductReference": "openSUSE Tumbleweed",
        "RelationType": "Default Component Of"
      },
      {
        "ProductReference": "slurm-sql-21.08.4-1.1",
        "RelatesToProductReference": "openSUSE Tumbleweed",
        "RelationType": "Default Component Of"
      },
      {
        "ProductReference": "slurm-sview-21.08.4-1.1",
        "RelatesToProductReference": "openSUSE Tumbleweed",
        "RelationType": "Default Component Of"
      },
      {
        "ProductReference": "slurm-torque-21.08.4-1.1",
        "RelatesToProductReference": "openSUSE Tumbleweed",
        "RelationType": "Default Component Of"
      },
      {
        "ProductReference": "slurm-webdoc-21.08.4-1.1",
        "RelatesToProductReference": "openSUSE Tumbleweed",
        "RelationType": "Default Component Of"
      }
    ]
  },
  "References": [
    {
      "URL": "https://www.suse.com/support/security/rating/",
      "Description": "SUSE Security Ratings"
    },
    {
      "URL": "https://www.suse.com/security/cve/CVE-2021-43337/",
      "Description": "SUSE CVE CVE-2021-43337 page"
    }
  ],
  "Vulnerabilities": [
    {
      "CVE": "CVE-2021-43337",
      "Description": "SchedMD Slurm 21.08.* before 21.08.4 has Incorrect Access Control. On sites using the new AccountingStoreFlags=job_script and/or job_env options, the access control rules in SlurmDBD may permit users to request job scripts and environment files to which they should not have access.",
      "Threats": [
        {
          "Type": "Impact",
          "Severity": "moderate"
        }
      ],
      "References": [
        {
          "URL": "https://www.suse.com/security/cve/CVE-2021-43337.html",
          "Description": "CVE-2021-43337"
        },
        {
          "URL": "https://bugzilla.suse.com/1192839",
          "Description": "SUSE Bug 1192839"
        }
      ],
      "ProductStatuses": [
        {
          "Type": "Fixed",
          "ProductID": [
            "openSUSE Tumbleweed:libnss_slurm2-21.08.4-1.1",
            "openSUSE Tumbleweed:libpmi0-21.08.4-1.1",
            "openSUSE Tumbleweed:libslurm37-21.08.4-1.1",
            "openSUSE Tumbleweed:perl-slurm-21.08.4-1.1",
            "openSUSE Tumbleweed:slurm-21.08.4-1.1",
            "openSUSE Tumbleweed:slurm-auth-none-21.08.4-1.1",
            "openSUSE Tumbleweed:slurm-config-21.08.4-1.1",
            "openSUSE Tumbleweed:slurm-config-man-21.08.4-1.1",
            "openSUSE Tumbleweed:slurm-cray-21.08.4-1.1",
            "openSUSE Tumbleweed:slurm-devel-21.08.4-1.1",
            "openSUSE Tumbleweed:slurm-doc-21.08.4-1.1",
            "openSUSE Tumbleweed:slurm-hdf5-21.08.4-1.1",
            "openSUSE Tumbleweed:slurm-lua-21.08.4-1.1",
            "openSUSE Tumbleweed:slurm-munge-21.08.4-1.1",
            "openSUSE Tumbleweed:slurm-node-21.08.4-1.1",
            "openSUSE Tumbleweed:slurm-openlava-21.08.4-1.1",
            "openSUSE Tumbleweed:slurm-pam_slurm-21.08.4-1.1",
            "openSUSE Tumbleweed:slurm-plugins-21.08.4-1.1",
            "openSUSE Tumbleweed:slurm-rest-21.08.4-1.1",
            "openSUSE Tumbleweed:slurm-seff-21.08.4-1.1",
            "openSUSE Tumbleweed:slurm-sjstat-21.08.4-1.1",
            "openSUSE Tumbleweed:slurm-slurmdbd-21.08.4-1.1",
            "openSUSE Tumbleweed:slurm-sql-21.08.4-1.1",
            "openSUSE Tumbleweed:slurm-sview-21.08.4-1.1",
            "openSUSE Tumbleweed:slurm-torque-21.08.4-1.1",
            "openSUSE Tumbleweed:slurm-webdoc-21.08.4-1.1"
          ]
        }
      ],
      "CVSSScoreSets": {}
    }
  ]
}