{
  "Title": "cifs-utils-6.13-1.3 on GA media",
  "Tracking": {
    "ID": "openSUSE-SU-2024:10683-1",
    "Status": "Final",
    "Version": "1",
    "InitialReleaseDate": "2024-06-22T21:44:56Z",
    "CurrentReleaseDate": "2024-06-22T21:44:56Z",
    "RevisionHistory": [
      {
        "Number": "1",
        "Date": "2024-06-22T21:44:56Z",
        "Description": "current"
      }
    ]
  },
  "Notes": [
    {
      "Text": "cifs-utils-6.13-1.3 on GA media",
      "Title": "Topic",
      "Type": "Summary"
    },
    {
      "Text": "These are all security issues fixed in the cifs-utils-6.13-1.3 package on the GA media of openSUSE Tumbleweed.",
      "Title": "Details",
      "Type": "General"
    },
    {
      "Text": "The CVRF data is provided by SUSE under the Creative Commons License 4.0 with Attribution (CC-BY-4.0).",
      "Title": "Terms of Use",
      "Type": "Legal Disclaimer"
    },
    {
      "Text": "openSUSE-Tumbleweed-2024-10683",
      "Title": "Patchnames",
      "Type": "Details"
    }
  ],
  "ProductTree": {
    "Relationships": [
      {
        "ProductReference": "cifs-utils-6.13-1.3",
        "RelatesToProductReference": "openSUSE Tumbleweed",
        "RelationType": "Default Component Of"
      },
      {
        "ProductReference": "cifs-utils-devel-6.13-1.3",
        "RelatesToProductReference": "openSUSE Tumbleweed",
        "RelationType": "Default Component Of"
      },
      {
        "ProductReference": "pam_cifscreds-6.13-1.3",
        "RelatesToProductReference": "openSUSE Tumbleweed",
        "RelationType": "Default Component Of"
      }
    ]
  },
  "References": [
    {
      "URL": "https://www.suse.com/support/security/rating/",
      "Description": "SUSE Security Ratings"
    },
    {
      "URL": "https://www.suse.com/security/cve/CVE-2006-1059/",
      "Description": "SUSE CVE CVE-2006-1059 page"
    },
    {
      "URL": "https://www.suse.com/security/cve/CVE-2006-3403/",
      "Description": "SUSE CVE CVE-2006-3403 page"
    },
    {
      "URL": "https://www.suse.com/security/cve/CVE-2007-0452/",
      "Description": "SUSE CVE CVE-2007-0452 page"
    },
    {
      "URL": "https://www.suse.com/security/cve/CVE-2007-2444/",
      "Description": "SUSE CVE CVE-2007-2444 page"
    },
    {
      "URL": "https://www.suse.com/security/cve/CVE-2007-2446/",
      "Description": "SUSE CVE CVE-2007-2446 page"
    },
    {
      "URL": "https://www.suse.com/security/cve/CVE-2007-2447/",
      "Description": "SUSE CVE CVE-2007-2447 page"
    },
    {
      "URL": "https://www.suse.com/security/cve/CVE-2007-4138/",
      "Description": "SUSE CVE CVE-2007-4138 page"
    },
    {
      "URL": "https://www.suse.com/security/cve/CVE-2007-4572/",
      "Description": "SUSE CVE CVE-2007-4572 page"
    },
    {
      "URL": "https://www.suse.com/security/cve/CVE-2007-5398/",
      "Description": "SUSE CVE CVE-2007-5398 page"
    },
    {
      "URL": "https://www.suse.com/security/cve/CVE-2007-6015/",
      "Description": "SUSE CVE CVE-2007-6015 page"
    },
    {
      "URL": "https://www.suse.com/security/cve/CVE-2008-1105/",
      "Description": "SUSE CVE CVE-2008-1105 page"
    },
    {
      "URL": "https://www.suse.com/security/cve/CVE-2008-3789/",
      "Description": "SUSE CVE CVE-2008-3789 page"
    },
    {
      "URL": "https://www.suse.com/security/cve/CVE-2008-4314/",
      "Description": "SUSE CVE CVE-2008-4314 page"
    },
    {
      "URL": "https://www.suse.com/security/cve/CVE-2009-0022/",
      "Description": "SUSE CVE CVE-2009-0022 page"
    },
    {
      "URL": "https://www.suse.com/security/cve/CVE-2020-14342/",
      "Description": "SUSE CVE CVE-2020-14342 page"
    },
    {
      "URL": "https://www.suse.com/security/cve/CVE-2021-20208/",
      "Description": "SUSE CVE CVE-2021-20208 page"
    }
  ],
  "Vulnerabilities": [
    {
      "CVE": "CVE-2006-1059",
      "Description": "The winbindd daemon in Samba 3.0.21 to 3.0.21c writes the machine trust account password in cleartext in log files, which allows local users to obtain the password and spoof the server in the domain.",
      "Threats": [
        {
          "Type": "Impact",
          "Severity": "moderate"
        }
      ],
      "References": [
        {
          "URL": "https://www.suse.com/security/cve/CVE-2006-1059.html",
          "Description": "CVE-2006-1059"
        },
        {
          "URL": "https://bugzilla.suse.com/161778",
          "Description": "SUSE Bug 161778"
        }
      ],
      "ProductStatuses": [
        {
          "Type": "Fixed",
          "ProductID": [
            "openSUSE Tumbleweed:cifs-utils-6.13-1.3",
            "openSUSE Tumbleweed:cifs-utils-devel-6.13-1.3",
            "openSUSE Tumbleweed:pam_cifscreds-6.13-1.3"
          ]
        }
      ],
      "CVSSScoreSets": {}
    },
    {
      "CVE": "CVE-2006-3403",
      "Description": "The smdb daemon (smbd/service.c) in Samba 3.0.1 through 3.0.22 allows remote attackers to cause a denial of service (memory consumption) via a large number of share connection requests.",
      "Threats": [
        {
          "Type": "Impact",
          "Severity": "moderate"
        }
      ],
      "References": [
        {
          "URL": "https://www.suse.com/security/cve/CVE-2006-3403.html",
          "Description": "CVE-2006-3403"
        },
        {
          "URL": "https://bugzilla.suse.com/190468",
          "Description": "SUSE Bug 190468"
        }
      ],
      "ProductStatuses": [
        {
          "Type": "Fixed",
          "ProductID": [
            "openSUSE Tumbleweed:cifs-utils-6.13-1.3",
            "openSUSE Tumbleweed:cifs-utils-devel-6.13-1.3",
            "openSUSE Tumbleweed:pam_cifscreds-6.13-1.3"
          ]
        }
      ],
      "CVSSScoreSets": {}
    },
    {
      "CVE": "CVE-2007-0452",
      "Description": "smbd in Samba 3.0.6 through 3.0.23d allows remote authenticated users to cause a denial of service (memory and CPU exhaustion) by renaming a file in a way that prevents a request from being removed from the deferred open queue, which triggers an infinite loop.",
      "Threats": [
        {
          "Type": "Impact",
          "Severity": "moderate"
        }
      ],
      "References": [
        {
          "URL": "https://www.suse.com/security/cve/CVE-2007-0452.html",
          "Description": "CVE-2007-0452"
        },
        {
          "URL": "https://bugzilla.suse.com/240265",
          "Description": "SUSE Bug 240265"
        }
      ],
      "ProductStatuses": [
        {
          "Type": "Fixed",
          "ProductID": [
            "openSUSE Tumbleweed:cifs-utils-6.13-1.3",
            "openSUSE Tumbleweed:cifs-utils-devel-6.13-1.3",
            "openSUSE Tumbleweed:pam_cifscreds-6.13-1.3"
          ]
        }
      ],
      "CVSSScoreSets": {}
    },
    {
      "CVE": "CVE-2007-2444",
      "Description": "Logic error in the SID/Name translation functionality in smbd in Samba 3.0.23d through 3.0.25pre2 allows local users to gain temporary privileges and execute SMB/CIFS protocol operations via unspecified vectors that cause the daemon to transition to the root user.",
      "Threats": [
        {
          "Type": "Impact",
          "Severity": "moderate"
        }
      ],
      "References": [
        {
          "URL": "https://www.suse.com/security/cve/CVE-2007-2444.html",
          "Description": "CVE-2007-2444"
        },
        {
          "URL": "https://bugzilla.suse.com/262090",
          "Description": "SUSE Bug 262090"
        },
        {
          "URL": "https://bugzilla.suse.com/273613",
          "Description": "SUSE Bug 273613"
        }
      ],
      "ProductStatuses": [
        {
          "Type": "Fixed",
          "ProductID": [
            "openSUSE Tumbleweed:cifs-utils-6.13-1.3",
            "openSUSE Tumbleweed:cifs-utils-devel-6.13-1.3",
            "openSUSE Tumbleweed:pam_cifscreds-6.13-1.3"
          ]
        }
      ],
      "CVSSScoreSets": {}
    },
    {
      "CVE": "CVE-2007-2446",
      "Description": "Multiple heap-based buffer overflows in the NDR parsing in smbd in Samba 3.0.0 through 3.0.25rc3 allow remote attackers to execute arbitrary code via crafted MS-RPC requests involving (1) DFSEnum (netdfs_io_dfs_EnumInfo_d), (2) RFNPCNEX (smb_io_notify_option_type_data), (3) LsarAddPrivilegesToAccount (lsa_io_privilege_set), (4) NetSetFileSecurity (sec_io_acl), or (5) LsarLookupSids/LsarLookupSids2 (lsa_io_trans_names).",
      "Threats": [
        {
          "Type": "Impact",
          "Severity": "moderate"
        }
      ],
      "References": [
        {
          "URL": "https://www.suse.com/security/cve/CVE-2007-2446.html",
          "Description": "CVE-2007-2446"
        },
        {
          "URL": "https://bugzilla.suse.com/273613",
          "Description": "SUSE Bug 273613"
        }
      ],
      "ProductStatuses": [
        {
          "Type": "Fixed",
          "ProductID": [
            "openSUSE Tumbleweed:cifs-utils-6.13-1.3",
            "openSUSE Tumbleweed:cifs-utils-devel-6.13-1.3",
            "openSUSE Tumbleweed:pam_cifscreds-6.13-1.3"
          ]
        }
      ],
      "CVSSScoreSets": {}
    },
    {
      "CVE": "CVE-2007-2447",
      "Description": "The MS-RPC functionality in smbd in Samba 3.0.0 through 3.0.25rc3 allows remote attackers to execute arbitrary commands via shell metacharacters involving the (1) SamrChangePassword function, when the \"username map script\" smb.conf option is enabled, and allows remote authenticated users to execute commands via shell metacharacters involving other MS-RPC functions in the (2) remote printer and (3) file share management.",
      "Threats": [
        {
          "Type": "Impact",
          "Severity": "moderate"
        }
      ],
      "References": [
        {
          "URL": "https://www.suse.com/security/cve/CVE-2007-2447.html",
          "Description": "CVE-2007-2447"
        },
        {
          "URL": "https://bugzilla.suse.com/273611",
          "Description": "SUSE Bug 273611"
        },
        {
          "URL": "https://bugzilla.suse.com/273613",
          "Description": "SUSE Bug 273613"
        }
      ],
      "ProductStatuses": [
        {
          "Type": "Fixed",
          "ProductID": [
            "openSUSE Tumbleweed:cifs-utils-6.13-1.3",
            "openSUSE Tumbleweed:cifs-utils-devel-6.13-1.3",
            "openSUSE Tumbleweed:pam_cifscreds-6.13-1.3"
          ]
        }
      ],
      "CVSSScoreSets": {}
    },
    {
      "CVE": "CVE-2007-4138",
      "Description": "The Winbind nss_info extension (nsswitch/idmap_ad.c) in idmap_ad.so in Samba 3.0.25 through 3.0.25c, when the \"winbind nss info\" option is set to rfc2307 or sfu, grants all local users the privileges of gid 0 when the (1) RFC2307 or (2) Services for UNIX (SFU) primary group attribute is not defined.",
      "Threats": [
        {
          "Type": "Impact",
          "Severity": "moderate"
        }
      ],
      "References": [
        {
          "URL": "https://www.suse.com/security/cve/CVE-2007-4138.html",
          "Description": "CVE-2007-4138"
        },
        {
          "URL": "https://bugzilla.suse.com/307623",
          "Description": "SUSE Bug 307623"
        }
      ],
      "ProductStatuses": [
        {
          "Type": "Fixed",
          "ProductID": [
            "openSUSE Tumbleweed:cifs-utils-6.13-1.3",
            "openSUSE Tumbleweed:cifs-utils-devel-6.13-1.3",
            "openSUSE Tumbleweed:pam_cifscreds-6.13-1.3"
          ]
        }
      ],
      "CVSSScoreSets": {}
    },
    {
      "CVE": "CVE-2007-4572",
      "Description": "Stack-based buffer overflow in nmbd in Samba 3.0.0 through 3.0.26a, when configured as a Primary or Backup Domain controller, allows remote attackers to have an unknown impact via crafted GETDC mailslot requests, related to handling of GETDC logon server requests.",
      "Threats": [
        {
          "Type": "Impact",
          "Severity": "moderate"
        }
      ],
      "References": [
        {
          "URL": "https://www.suse.com/security/cve/CVE-2007-4572.html",
          "Description": "CVE-2007-4572"
        },
        {
          "URL": "https://bugzilla.suse.com/326261",
          "Description": "SUSE Bug 326261"
        },
        {
          "URL": "https://bugzilla.suse.com/337823",
          "Description": "SUSE Bug 337823"
        }
      ],
      "ProductStatuses": [
        {
          "Type": "Fixed",
          "ProductID": [
            "openSUSE Tumbleweed:cifs-utils-6.13-1.3",
            "openSUSE Tumbleweed:cifs-utils-devel-6.13-1.3",
            "openSUSE Tumbleweed:pam_cifscreds-6.13-1.3"
          ]
        }
      ],
      "CVSSScoreSets": {}
    },
    {
      "CVE": "CVE-2007-5398",
      "Description": "Stack-based buffer overflow in the reply_netbios_packet function in nmbd/nmbd_packets.c in nmbd in Samba 3.0.0 through 3.0.26a, when operating as a WINS server, allows remote attackers to execute arbitrary code via crafted WINS Name Registration requests followed by a WINS Name Query request.",
      "Threats": [
        {
          "Type": "Impact",
          "Severity": "moderate"
        }
      ],
      "References": [
        {
          "URL": "https://www.suse.com/security/cve/CVE-2007-5398.html",
          "Description": "CVE-2007-5398"
        },
        {
          "URL": "https://bugzilla.suse.com/337823",
          "Description": "SUSE Bug 337823"
        }
      ],
      "ProductStatuses": [
        {
          "Type": "Fixed",
          "ProductID": [
            "openSUSE Tumbleweed:cifs-utils-6.13-1.3",
            "openSUSE Tumbleweed:cifs-utils-devel-6.13-1.3",
            "openSUSE Tumbleweed:pam_cifscreds-6.13-1.3"
          ]
        }
      ],
      "CVSSScoreSets": {}
    },
    {
      "CVE": "CVE-2007-6015",
      "Description": "Stack-based buffer overflow in the send_mailslot function in nmbd in Samba 3.0.0 through 3.0.27a, when the \"domain logons\" option is enabled, allows remote attackers to execute arbitrary code via a GETDC mailslot request composed of a long GETDC string following an offset username in a SAMLOGON logon request.",
      "Threats": [
        {
          "Type": "Impact",
          "Severity": "moderate"
        }
      ],
      "References": [
        {
          "URL": "https://www.suse.com/security/cve/CVE-2007-6015.html",
          "Description": "CVE-2007-6015"
        },
        {
          "URL": "https://bugzilla.suse.com/343702",
          "Description": "SUSE Bug 343702"
        }
      ],
      "ProductStatuses": [
        {
          "Type": "Fixed",
          "ProductID": [
            "openSUSE Tumbleweed:cifs-utils-6.13-1.3",
            "openSUSE Tumbleweed:cifs-utils-devel-6.13-1.3",
            "openSUSE Tumbleweed:pam_cifscreds-6.13-1.3"
          ]
        }
      ],
      "CVSSScoreSets": {}
    },
    {
      "CVE": "CVE-2008-1105",
      "Description": "Heap-based buffer overflow in the receive_smb_raw function in util/sock.c in Samba 3.0.0 through 3.0.29 allows remote attackers to execute arbitrary code via a crafted SMB response.",
      "Threats": [
        {
          "Type": "Impact",
          "Severity": "moderate"
        }
      ],
      "References": [
        {
          "URL": "https://www.suse.com/security/cve/CVE-2008-1105.html",
          "Description": "CVE-2008-1105"
        },
        {
          "URL": "https://bugzilla.suse.com/391168",
          "Description": "SUSE Bug 391168"
        }
      ],
      "ProductStatuses": [
        {
          "Type": "Fixed",
          "ProductID": [
            "openSUSE Tumbleweed:cifs-utils-6.13-1.3",
            "openSUSE Tumbleweed:cifs-utils-devel-6.13-1.3",
            "openSUSE Tumbleweed:pam_cifscreds-6.13-1.3"
          ]
        }
      ],
      "CVSSScoreSets": {}
    },
    {
      "CVE": "CVE-2008-3789",
      "Description": "Samba 3.2.0 uses weak permissions (0666) for the (1) group_mapping.tdb and (2) group_mapping.ldb files, which allows local users to modify the membership of Unix groups.",
      "Threats": [
        {
          "Type": "Impact",
          "Severity": "moderate"
        }
      ],
      "References": [
        {
          "URL": "https://www.suse.com/security/cve/CVE-2008-3789.html",
          "Description": "CVE-2008-3789"
        },
        {
          "URL": "https://bugzilla.suse.com/420634",
          "Description": "SUSE Bug 420634"
        }
      ],
      "ProductStatuses": [
        {
          "Type": "Fixed",
          "ProductID": [
            "openSUSE Tumbleweed:cifs-utils-6.13-1.3",
            "openSUSE Tumbleweed:cifs-utils-devel-6.13-1.3",
            "openSUSE Tumbleweed:pam_cifscreds-6.13-1.3"
          ]
        }
      ],
      "CVSSScoreSets": {}
    },
    {
      "CVE": "CVE-2008-4314",
      "Description": "smbd in Samba 3.0.29 through 3.2.4 might allow remote attackers to read arbitrary memory and cause a denial of service via crafted (1) trans, (2) trans2, and (3) nttrans requests, related to a \"cut\u0026paste error\" that causes an improper bounds check to be performed.",
      "Threats": [
        {
          "Type": "Impact",
          "Severity": "moderate"
        }
      ],
      "References": [
        {
          "URL": "https://www.suse.com/security/cve/CVE-2008-4314.html",
          "Description": "CVE-2008-4314"
        },
        {
          "URL": "https://bugzilla.suse.com/446971",
          "Description": "SUSE Bug 446971"
        }
      ],
      "ProductStatuses": [
        {
          "Type": "Fixed",
          "ProductID": [
            "openSUSE Tumbleweed:cifs-utils-6.13-1.3",
            "openSUSE Tumbleweed:cifs-utils-devel-6.13-1.3",
            "openSUSE Tumbleweed:pam_cifscreds-6.13-1.3"
          ]
        }
      ],
      "CVSSScoreSets": {}
    },
    {
      "CVE": "CVE-2009-0022",
      "Description": "Samba 3.2.0 through 3.2.6, when registry shares are enabled, allows remote authenticated users to access the root filesystem via a crafted connection request that specifies a blank share name.",
      "Threats": [
        {
          "Type": "Impact",
          "Severity": "moderate"
        }
      ],
      "References": [
        {
          "URL": "https://www.suse.com/security/cve/CVE-2009-0022.html",
          "Description": "CVE-2009-0022"
        },
        {
          "URL": "https://bugzilla.suse.com/460764",
          "Description": "SUSE Bug 460764"
        }
      ],
      "ProductStatuses": [
        {
          "Type": "Fixed",
          "ProductID": [
            "openSUSE Tumbleweed:cifs-utils-6.13-1.3",
            "openSUSE Tumbleweed:cifs-utils-devel-6.13-1.3",
            "openSUSE Tumbleweed:pam_cifscreds-6.13-1.3"
          ]
        }
      ],
      "CVSSScoreSets": {}
    },
    {
      "CVE": "CVE-2020-14342",
      "Description": "It was found that cifs-utils' mount.cifs was invoking a shell when requesting the Samba password, which could be used to inject arbitrary commands. An attacker able to invoke mount.cifs with special permission, such as via sudo rules, could use this flaw to escalate their privileges.",
      "Threats": [
        {
          "Type": "Impact",
          "Severity": "moderate"
        }
      ],
      "References": [
        {
          "URL": "https://www.suse.com/security/cve/CVE-2020-14342.html",
          "Description": "CVE-2020-14342"
        },
        {
          "URL": "https://bugzilla.suse.com/1174477",
          "Description": "SUSE Bug 1174477"
        }
      ],
      "ProductStatuses": [
        {
          "Type": "Fixed",
          "ProductID": [
            "openSUSE Tumbleweed:cifs-utils-6.13-1.3",
            "openSUSE Tumbleweed:cifs-utils-devel-6.13-1.3",
            "openSUSE Tumbleweed:pam_cifscreds-6.13-1.3"
          ]
        }
      ],
      "CVSSScoreSets": {}
    },
    {
      "CVE": "CVE-2021-20208",
      "Description": "A flaw was found in cifs-utils in versions before 6.13. A user when mounting a krb5 CIFS file system from within a container can use Kerberos credentials of the host. The highest threat from this vulnerability is to data confidentiality and integrity.",
      "Threats": [
        {
          "Type": "Impact",
          "Severity": "moderate"
        }
      ],
      "References": [
        {
          "URL": "https://www.suse.com/security/cve/CVE-2021-20208.html",
          "Description": "CVE-2021-20208"
        },
        {
          "URL": "https://bugzilla.suse.com/1183239",
          "Description": "SUSE Bug 1183239"
        }
      ],
      "ProductStatuses": [
        {
          "Type": "Fixed",
          "ProductID": [
            "openSUSE Tumbleweed:cifs-utils-6.13-1.3",
            "openSUSE Tumbleweed:cifs-utils-devel-6.13-1.3",
            "openSUSE Tumbleweed:pam_cifscreds-6.13-1.3"
          ]
        }
      ],
      "CVSSScoreSets": {}
    }
  ]
}