{
  "Title": "libQt5Pdf5-5.15.7-1.1 on GA media",
  "Tracking": {
    "ID": "openSUSE-SU-2024:11605-1",
    "Status": "Final",
    "Version": "1",
    "InitialReleaseDate": "2024-06-22T21:44:56Z",
    "CurrentReleaseDate": "2024-06-22T21:44:56Z",
    "RevisionHistory": [
      {
        "Number": "1",
        "Date": "2024-06-22T21:44:56Z",
        "Description": "current"
      }
    ]
  },
  "Notes": [
    {
      "Text": "libQt5Pdf5-5.15.7-1.1 on GA media",
      "Title": "Topic",
      "Type": "Summary"
    },
    {
      "Text": "These are all security issues fixed in the libQt5Pdf5-5.15.7-1.1 package on the GA media of openSUSE Tumbleweed.",
      "Title": "Details",
      "Type": "General"
    },
    {
      "Text": "The CVRF data is provided by SUSE under the Creative Commons License 4.0 with Attribution (CC-BY-4.0).",
      "Title": "Terms of Use",
      "Type": "Legal Disclaimer"
    },
    {
      "Text": "openSUSE-Tumbleweed-2024-11605",
      "Title": "Patchnames",
      "Type": "Details"
    }
  ],
  "ProductTree": {
    "Relationships": [
      {
        "ProductReference": "libQt5Pdf5-5.15.7-1.1",
        "RelatesToProductReference": "openSUSE Tumbleweed",
        "RelationType": "Default Component Of"
      },
      {
        "ProductReference": "libQt5PdfWidgets5-5.15.7-1.1",
        "RelatesToProductReference": "openSUSE Tumbleweed",
        "RelationType": "Default Component Of"
      },
      {
        "ProductReference": "libqt5-qtpdf-devel-5.15.7-1.1",
        "RelatesToProductReference": "openSUSE Tumbleweed",
        "RelationType": "Default Component Of"
      },
      {
        "ProductReference": "libqt5-qtpdf-examples-5.15.7-1.1",
        "RelatesToProductReference": "openSUSE Tumbleweed",
        "RelationType": "Default Component Of"
      },
      {
        "ProductReference": "libqt5-qtpdf-imports-5.15.7-1.1",
        "RelatesToProductReference": "openSUSE Tumbleweed",
        "RelationType": "Default Component Of"
      },
      {
        "ProductReference": "libqt5-qtpdf-private-headers-devel-5.15.7-1.1",
        "RelatesToProductReference": "openSUSE Tumbleweed",
        "RelationType": "Default Component Of"
      },
      {
        "ProductReference": "libqt5-qtwebengine-5.15.7-1.1",
        "RelatesToProductReference": "openSUSE Tumbleweed",
        "RelationType": "Default Component Of"
      },
      {
        "ProductReference": "libqt5-qtwebengine-devel-5.15.7-1.1",
        "RelatesToProductReference": "openSUSE Tumbleweed",
        "RelationType": "Default Component Of"
      },
      {
        "ProductReference": "libqt5-qtwebengine-examples-5.15.7-1.1",
        "RelatesToProductReference": "openSUSE Tumbleweed",
        "RelationType": "Default Component Of"
      },
      {
        "ProductReference": "libqt5-qtwebengine-private-headers-devel-5.15.7-1.1",
        "RelatesToProductReference": "openSUSE Tumbleweed",
        "RelationType": "Default Component Of"
      }
    ]
  },
  "References": [
    {
      "URL": "https://www.suse.com/support/security/rating/",
      "Description": "SUSE Security Ratings"
    },
    {
      "URL": "https://www.suse.com/security/cve/CVE-2021-30613/",
      "Description": "SUSE CVE CVE-2021-30613 page"
    },
    {
      "URL": "https://www.suse.com/security/cve/CVE-2021-30616/",
      "Description": "SUSE CVE CVE-2021-30616 page"
    },
    {
      "URL": "https://www.suse.com/security/cve/CVE-2021-30618/",
      "Description": "SUSE CVE CVE-2021-30618 page"
    },
    {
      "URL": "https://www.suse.com/security/cve/CVE-2021-30625/",
      "Description": "SUSE CVE CVE-2021-30625 page"
    },
    {
      "URL": "https://www.suse.com/security/cve/CVE-2021-30626/",
      "Description": "SUSE CVE CVE-2021-30626 page"
    },
    {
      "URL": "https://www.suse.com/security/cve/CVE-2021-30627/",
      "Description": "SUSE CVE CVE-2021-30627 page"
    },
    {
      "URL": "https://www.suse.com/security/cve/CVE-2021-30628/",
      "Description": "SUSE CVE CVE-2021-30628 page"
    },
    {
      "URL": "https://www.suse.com/security/cve/CVE-2021-30629/",
      "Description": "SUSE CVE CVE-2021-30629 page"
    },
    {
      "URL": "https://www.suse.com/security/cve/CVE-2021-30630/",
      "Description": "SUSE CVE CVE-2021-30630 page"
    },
    {
      "URL": "https://www.suse.com/security/cve/CVE-2021-30633/",
      "Description": "SUSE CVE CVE-2021-30633 page"
    },
    {
      "URL": "https://www.suse.com/security/cve/CVE-2021-37962/",
      "Description": "SUSE CVE CVE-2021-37962 page"
    },
    {
      "URL": "https://www.suse.com/security/cve/CVE-2021-37967/",
      "Description": "SUSE CVE CVE-2021-37967 page"
    },
    {
      "URL": "https://www.suse.com/security/cve/CVE-2021-37968/",
      "Description": "SUSE CVE CVE-2021-37968 page"
    },
    {
      "URL": "https://www.suse.com/security/cve/CVE-2021-37971/",
      "Description": "SUSE CVE CVE-2021-37971 page"
    },
    {
      "URL": "https://www.suse.com/security/cve/CVE-2021-37973/",
      "Description": "SUSE CVE CVE-2021-37973 page"
    },
    {
      "URL": "https://www.suse.com/security/cve/CVE-2021-37975/",
      "Description": "SUSE CVE CVE-2021-37975 page"
    },
    {
      "URL": "https://www.suse.com/security/cve/CVE-2021-37978/",
      "Description": "SUSE CVE CVE-2021-37978 page"
    },
    {
      "URL": "https://www.suse.com/security/cve/CVE-2021-37979/",
      "Description": "SUSE CVE CVE-2021-37979 page"
    },
    {
      "URL": "https://www.suse.com/security/cve/CVE-2021-37980/",
      "Description": "SUSE CVE CVE-2021-37980 page"
    }
  ],
  "Vulnerabilities": [
    {
      "CVE": "CVE-2021-30613",
      "Description": "Chromium: CVE-2021-30613 Use after free in Base internals",
      "Threats": [
        {
          "Type": "Impact",
          "Severity": "moderate"
        }
      ],
      "References": [
        {
          "URL": "https://www.suse.com/security/cve/CVE-2021-30613.html",
          "Description": "CVE-2021-30613"
        },
        {
          "URL": "https://bugzilla.suse.com/1190096",
          "Description": "SUSE Bug 1190096"
        }
      ],
      "ProductStatuses": [
        {
          "Type": "Fixed",
          "ProductID": [
            "openSUSE Tumbleweed:libQt5Pdf5-5.15.7-1.1",
            "openSUSE Tumbleweed:libQt5PdfWidgets5-5.15.7-1.1",
            "openSUSE Tumbleweed:libqt5-qtpdf-devel-5.15.7-1.1",
            "openSUSE Tumbleweed:libqt5-qtpdf-examples-5.15.7-1.1",
            "openSUSE Tumbleweed:libqt5-qtpdf-imports-5.15.7-1.1",
            "openSUSE Tumbleweed:libqt5-qtpdf-private-headers-devel-5.15.7-1.1",
            "openSUSE Tumbleweed:libqt5-qtwebengine-5.15.7-1.1",
            "openSUSE Tumbleweed:libqt5-qtwebengine-devel-5.15.7-1.1",
            "openSUSE Tumbleweed:libqt5-qtwebengine-examples-5.15.7-1.1",
            "openSUSE Tumbleweed:libqt5-qtwebengine-private-headers-devel-5.15.7-1.1"
          ]
        }
      ],
      "CVSSScoreSets": {}
    },
    {
      "CVE": "CVE-2021-30616",
      "Description": "Chromium: CVE-2021-30616 Use after free in Media",
      "Threats": [
        {
          "Type": "Impact",
          "Severity": "moderate"
        }
      ],
      "References": [
        {
          "URL": "https://www.suse.com/security/cve/CVE-2021-30616.html",
          "Description": "CVE-2021-30616"
        },
        {
          "URL": "https://bugzilla.suse.com/1190096",
          "Description": "SUSE Bug 1190096"
        }
      ],
      "ProductStatuses": [
        {
          "Type": "Fixed",
          "ProductID": [
            "openSUSE Tumbleweed:libQt5Pdf5-5.15.7-1.1",
            "openSUSE Tumbleweed:libQt5PdfWidgets5-5.15.7-1.1",
            "openSUSE Tumbleweed:libqt5-qtpdf-devel-5.15.7-1.1",
            "openSUSE Tumbleweed:libqt5-qtpdf-examples-5.15.7-1.1",
            "openSUSE Tumbleweed:libqt5-qtpdf-imports-5.15.7-1.1",
            "openSUSE Tumbleweed:libqt5-qtpdf-private-headers-devel-5.15.7-1.1",
            "openSUSE Tumbleweed:libqt5-qtwebengine-5.15.7-1.1",
            "openSUSE Tumbleweed:libqt5-qtwebengine-devel-5.15.7-1.1",
            "openSUSE Tumbleweed:libqt5-qtwebengine-examples-5.15.7-1.1",
            "openSUSE Tumbleweed:libqt5-qtwebengine-private-headers-devel-5.15.7-1.1"
          ]
        }
      ],
      "CVSSScoreSets": {}
    },
    {
      "CVE": "CVE-2021-30618",
      "Description": "Chromium: CVE-2021-30618 Inappropriate implementation in DevTools",
      "Threats": [
        {
          "Type": "Impact",
          "Severity": "moderate"
        }
      ],
      "References": [
        {
          "URL": "https://www.suse.com/security/cve/CVE-2021-30618.html",
          "Description": "CVE-2021-30618"
        },
        {
          "URL": "https://bugzilla.suse.com/1190096",
          "Description": "SUSE Bug 1190096"
        }
      ],
      "ProductStatuses": [
        {
          "Type": "Fixed",
          "ProductID": [
            "openSUSE Tumbleweed:libQt5Pdf5-5.15.7-1.1",
            "openSUSE Tumbleweed:libQt5PdfWidgets5-5.15.7-1.1",
            "openSUSE Tumbleweed:libqt5-qtpdf-devel-5.15.7-1.1",
            "openSUSE Tumbleweed:libqt5-qtpdf-examples-5.15.7-1.1",
            "openSUSE Tumbleweed:libqt5-qtpdf-imports-5.15.7-1.1",
            "openSUSE Tumbleweed:libqt5-qtpdf-private-headers-devel-5.15.7-1.1",
            "openSUSE Tumbleweed:libqt5-qtwebengine-5.15.7-1.1",
            "openSUSE Tumbleweed:libqt5-qtwebengine-devel-5.15.7-1.1",
            "openSUSE Tumbleweed:libqt5-qtwebengine-examples-5.15.7-1.1",
            "openSUSE Tumbleweed:libqt5-qtwebengine-private-headers-devel-5.15.7-1.1"
          ]
        }
      ],
      "CVSSScoreSets": {}
    },
    {
      "CVE": "CVE-2021-30625",
      "Description": "Use after free in Selection API in Google Chrome prior to 93.0.4577.82 allowed a remote attacker who convinced the user the visit a malicious website to potentially exploit heap corruption via a crafted HTML page.",
      "Threats": [
        {
          "Type": "Impact",
          "Severity": "critical"
        }
      ],
      "References": [
        {
          "URL": "https://www.suse.com/security/cve/CVE-2021-30625.html",
          "Description": "CVE-2021-30625"
        },
        {
          "URL": "https://bugzilla.suse.com/1190476",
          "Description": "SUSE Bug 1190476"
        }
      ],
      "ProductStatuses": [
        {
          "Type": "Fixed",
          "ProductID": [
            "openSUSE Tumbleweed:libQt5Pdf5-5.15.7-1.1",
            "openSUSE Tumbleweed:libQt5PdfWidgets5-5.15.7-1.1",
            "openSUSE Tumbleweed:libqt5-qtpdf-devel-5.15.7-1.1",
            "openSUSE Tumbleweed:libqt5-qtpdf-examples-5.15.7-1.1",
            "openSUSE Tumbleweed:libqt5-qtpdf-imports-5.15.7-1.1",
            "openSUSE Tumbleweed:libqt5-qtpdf-private-headers-devel-5.15.7-1.1",
            "openSUSE Tumbleweed:libqt5-qtwebengine-5.15.7-1.1",
            "openSUSE Tumbleweed:libqt5-qtwebengine-devel-5.15.7-1.1",
            "openSUSE Tumbleweed:libqt5-qtwebengine-examples-5.15.7-1.1",
            "openSUSE Tumbleweed:libqt5-qtwebengine-private-headers-devel-5.15.7-1.1"
          ]
        }
      ],
      "CVSSScoreSets": {}
    },
    {
      "CVE": "CVE-2021-30626",
      "Description": "Out of bounds memory access in ANGLE in Google Chrome prior to 93.0.4577.82 allowed a remote attacker to potentially exploit heap corruption via a crafted HTML page.",
      "Threats": [
        {
          "Type": "Impact",
          "Severity": "critical"
        }
      ],
      "References": [
        {
          "URL": "https://www.suse.com/security/cve/CVE-2021-30626.html",
          "Description": "CVE-2021-30626"
        },
        {
          "URL": "https://bugzilla.suse.com/1190476",
          "Description": "SUSE Bug 1190476"
        }
      ],
      "ProductStatuses": [
        {
          "Type": "Fixed",
          "ProductID": [
            "openSUSE Tumbleweed:libQt5Pdf5-5.15.7-1.1",
            "openSUSE Tumbleweed:libQt5PdfWidgets5-5.15.7-1.1",
            "openSUSE Tumbleweed:libqt5-qtpdf-devel-5.15.7-1.1",
            "openSUSE Tumbleweed:libqt5-qtpdf-examples-5.15.7-1.1",
            "openSUSE Tumbleweed:libqt5-qtpdf-imports-5.15.7-1.1",
            "openSUSE Tumbleweed:libqt5-qtpdf-private-headers-devel-5.15.7-1.1",
            "openSUSE Tumbleweed:libqt5-qtwebengine-5.15.7-1.1",
            "openSUSE Tumbleweed:libqt5-qtwebengine-devel-5.15.7-1.1",
            "openSUSE Tumbleweed:libqt5-qtwebengine-examples-5.15.7-1.1",
            "openSUSE Tumbleweed:libqt5-qtwebengine-private-headers-devel-5.15.7-1.1"
          ]
        }
      ],
      "CVSSScoreSets": {}
    },
    {
      "CVE": "CVE-2021-30627",
      "Description": "Type confusion in Blink layout in Google Chrome prior to 93.0.4577.82 allowed a remote attacker to potentially exploit heap corruption via a crafted HTML page.",
      "Threats": [
        {
          "Type": "Impact",
          "Severity": "critical"
        }
      ],
      "References": [
        {
          "URL": "https://www.suse.com/security/cve/CVE-2021-30627.html",
          "Description": "CVE-2021-30627"
        },
        {
          "URL": "https://bugzilla.suse.com/1190476",
          "Description": "SUSE Bug 1190476"
        }
      ],
      "ProductStatuses": [
        {
          "Type": "Fixed",
          "ProductID": [
            "openSUSE Tumbleweed:libQt5Pdf5-5.15.7-1.1",
            "openSUSE Tumbleweed:libQt5PdfWidgets5-5.15.7-1.1",
            "openSUSE Tumbleweed:libqt5-qtpdf-devel-5.15.7-1.1",
            "openSUSE Tumbleweed:libqt5-qtpdf-examples-5.15.7-1.1",
            "openSUSE Tumbleweed:libqt5-qtpdf-imports-5.15.7-1.1",
            "openSUSE Tumbleweed:libqt5-qtpdf-private-headers-devel-5.15.7-1.1",
            "openSUSE Tumbleweed:libqt5-qtwebengine-5.15.7-1.1",
            "openSUSE Tumbleweed:libqt5-qtwebengine-devel-5.15.7-1.1",
            "openSUSE Tumbleweed:libqt5-qtwebengine-examples-5.15.7-1.1",
            "openSUSE Tumbleweed:libqt5-qtwebengine-private-headers-devel-5.15.7-1.1"
          ]
        }
      ],
      "CVSSScoreSets": {}
    },
    {
      "CVE": "CVE-2021-30628",
      "Description": "Stack buffer overflow in ANGLE in Google Chrome prior to 93.0.4577.82 allowed a remote attacker to potentially exploit stack corruption via a crafted HTML page.",
      "Threats": [
        {
          "Type": "Impact",
          "Severity": "critical"
        }
      ],
      "References": [
        {
          "URL": "https://www.suse.com/security/cve/CVE-2021-30628.html",
          "Description": "CVE-2021-30628"
        },
        {
          "URL": "https://bugzilla.suse.com/1190476",
          "Description": "SUSE Bug 1190476"
        }
      ],
      "ProductStatuses": [
        {
          "Type": "Fixed",
          "ProductID": [
            "openSUSE Tumbleweed:libQt5Pdf5-5.15.7-1.1",
            "openSUSE Tumbleweed:libQt5PdfWidgets5-5.15.7-1.1",
            "openSUSE Tumbleweed:libqt5-qtpdf-devel-5.15.7-1.1",
            "openSUSE Tumbleweed:libqt5-qtpdf-examples-5.15.7-1.1",
            "openSUSE Tumbleweed:libqt5-qtpdf-imports-5.15.7-1.1",
            "openSUSE Tumbleweed:libqt5-qtpdf-private-headers-devel-5.15.7-1.1",
            "openSUSE Tumbleweed:libqt5-qtwebengine-5.15.7-1.1",
            "openSUSE Tumbleweed:libqt5-qtwebengine-devel-5.15.7-1.1",
            "openSUSE Tumbleweed:libqt5-qtwebengine-examples-5.15.7-1.1",
            "openSUSE Tumbleweed:libqt5-qtwebengine-private-headers-devel-5.15.7-1.1"
          ]
        }
      ],
      "CVSSScoreSets": {}
    },
    {
      "CVE": "CVE-2021-30629",
      "Description": "Use after free in Permissions in Google Chrome prior to 93.0.4577.82 allowed a remote attacker who had compromised the renderer process to potentially exploit heap corruption via a crafted HTML page.",
      "Threats": [
        {
          "Type": "Impact",
          "Severity": "critical"
        }
      ],
      "References": [
        {
          "URL": "https://www.suse.com/security/cve/CVE-2021-30629.html",
          "Description": "CVE-2021-30629"
        },
        {
          "URL": "https://bugzilla.suse.com/1190476",
          "Description": "SUSE Bug 1190476"
        }
      ],
      "ProductStatuses": [
        {
          "Type": "Fixed",
          "ProductID": [
            "openSUSE Tumbleweed:libQt5Pdf5-5.15.7-1.1",
            "openSUSE Tumbleweed:libQt5PdfWidgets5-5.15.7-1.1",
            "openSUSE Tumbleweed:libqt5-qtpdf-devel-5.15.7-1.1",
            "openSUSE Tumbleweed:libqt5-qtpdf-examples-5.15.7-1.1",
            "openSUSE Tumbleweed:libqt5-qtpdf-imports-5.15.7-1.1",
            "openSUSE Tumbleweed:libqt5-qtpdf-private-headers-devel-5.15.7-1.1",
            "openSUSE Tumbleweed:libqt5-qtwebengine-5.15.7-1.1",
            "openSUSE Tumbleweed:libqt5-qtwebengine-devel-5.15.7-1.1",
            "openSUSE Tumbleweed:libqt5-qtwebengine-examples-5.15.7-1.1",
            "openSUSE Tumbleweed:libqt5-qtwebengine-private-headers-devel-5.15.7-1.1"
          ]
        }
      ],
      "CVSSScoreSets": {}
    },
    {
      "CVE": "CVE-2021-30630",
      "Description": "Inappropriate implementation in Blink in Google Chrome prior to 93.0.4577.82 allowed a remote attacker who had compromised the renderer process to leak cross-origin data via a crafted HTML page.",
      "Threats": [
        {
          "Type": "Impact",
          "Severity": "critical"
        }
      ],
      "References": [
        {
          "URL": "https://www.suse.com/security/cve/CVE-2021-30630.html",
          "Description": "CVE-2021-30630"
        },
        {
          "URL": "https://bugzilla.suse.com/1190476",
          "Description": "SUSE Bug 1190476"
        }
      ],
      "ProductStatuses": [
        {
          "Type": "Fixed",
          "ProductID": [
            "openSUSE Tumbleweed:libQt5Pdf5-5.15.7-1.1",
            "openSUSE Tumbleweed:libQt5PdfWidgets5-5.15.7-1.1",
            "openSUSE Tumbleweed:libqt5-qtpdf-devel-5.15.7-1.1",
            "openSUSE Tumbleweed:libqt5-qtpdf-examples-5.15.7-1.1",
            "openSUSE Tumbleweed:libqt5-qtpdf-imports-5.15.7-1.1",
            "openSUSE Tumbleweed:libqt5-qtpdf-private-headers-devel-5.15.7-1.1",
            "openSUSE Tumbleweed:libqt5-qtwebengine-5.15.7-1.1",
            "openSUSE Tumbleweed:libqt5-qtwebengine-devel-5.15.7-1.1",
            "openSUSE Tumbleweed:libqt5-qtwebengine-examples-5.15.7-1.1",
            "openSUSE Tumbleweed:libqt5-qtwebengine-private-headers-devel-5.15.7-1.1"
          ]
        }
      ],
      "CVSSScoreSets": {}
    },
    {
      "CVE": "CVE-2021-30633",
      "Description": "Use after free in Indexed DB API in Google Chrome prior to 93.0.4577.82 allowed a remote attacker who had compromised the renderer process to potentially perform a sandbox escape via a crafted HTML page.",
      "Threats": [
        {
          "Type": "Impact",
          "Severity": "critical"
        }
      ],
      "References": [
        {
          "URL": "https://www.suse.com/security/cve/CVE-2021-30633.html",
          "Description": "CVE-2021-30633"
        },
        {
          "URL": "https://bugzilla.suse.com/1190476",
          "Description": "SUSE Bug 1190476"
        }
      ],
      "ProductStatuses": [
        {
          "Type": "Fixed",
          "ProductID": [
            "openSUSE Tumbleweed:libQt5Pdf5-5.15.7-1.1",
            "openSUSE Tumbleweed:libQt5PdfWidgets5-5.15.7-1.1",
            "openSUSE Tumbleweed:libqt5-qtpdf-devel-5.15.7-1.1",
            "openSUSE Tumbleweed:libqt5-qtpdf-examples-5.15.7-1.1",
            "openSUSE Tumbleweed:libqt5-qtpdf-imports-5.15.7-1.1",
            "openSUSE Tumbleweed:libqt5-qtpdf-private-headers-devel-5.15.7-1.1",
            "openSUSE Tumbleweed:libqt5-qtwebengine-5.15.7-1.1",
            "openSUSE Tumbleweed:libqt5-qtwebengine-devel-5.15.7-1.1",
            "openSUSE Tumbleweed:libqt5-qtwebengine-examples-5.15.7-1.1",
            "openSUSE Tumbleweed:libqt5-qtwebengine-private-headers-devel-5.15.7-1.1"
          ]
        }
      ],
      "CVSSScoreSets": {}
    },
    {
      "CVE": "CVE-2021-37962",
      "Description": "Use after free in Performance Manager in Google Chrome prior to 94.0.4606.54 allowed a remote attacker who had compromised the renderer process to potentially exploit heap corruption via a crafted HTML page.",
      "Threats": [
        {
          "Type": "Impact",
          "Severity": "important"
        }
      ],
      "References": [
        {
          "URL": "https://www.suse.com/security/cve/CVE-2021-37962.html",
          "Description": "CVE-2021-37962"
        },
        {
          "URL": "https://bugzilla.suse.com/1190765",
          "Description": "SUSE Bug 1190765"
        }
      ],
      "ProductStatuses": [
        {
          "Type": "Fixed",
          "ProductID": [
            "openSUSE Tumbleweed:libQt5Pdf5-5.15.7-1.1",
            "openSUSE Tumbleweed:libQt5PdfWidgets5-5.15.7-1.1",
            "openSUSE Tumbleweed:libqt5-qtpdf-devel-5.15.7-1.1",
            "openSUSE Tumbleweed:libqt5-qtpdf-examples-5.15.7-1.1",
            "openSUSE Tumbleweed:libqt5-qtpdf-imports-5.15.7-1.1",
            "openSUSE Tumbleweed:libqt5-qtpdf-private-headers-devel-5.15.7-1.1",
            "openSUSE Tumbleweed:libqt5-qtwebengine-5.15.7-1.1",
            "openSUSE Tumbleweed:libqt5-qtwebengine-devel-5.15.7-1.1",
            "openSUSE Tumbleweed:libqt5-qtwebengine-examples-5.15.7-1.1",
            "openSUSE Tumbleweed:libqt5-qtwebengine-private-headers-devel-5.15.7-1.1"
          ]
        }
      ],
      "CVSSScoreSets": {}
    },
    {
      "CVE": "CVE-2021-37967",
      "Description": "Inappropriate implementation in Background Fetch API in Google Chrome prior to 94.0.4606.54 allowed a remote attacker who had compromised the renderer process to leak cross-origin data via a crafted HTML page.",
      "Threats": [
        {
          "Type": "Impact",
          "Severity": "important"
        }
      ],
      "References": [
        {
          "URL": "https://www.suse.com/security/cve/CVE-2021-37967.html",
          "Description": "CVE-2021-37967"
        },
        {
          "URL": "https://bugzilla.suse.com/1190765",
          "Description": "SUSE Bug 1190765"
        }
      ],
      "ProductStatuses": [
        {
          "Type": "Fixed",
          "ProductID": [
            "openSUSE Tumbleweed:libQt5Pdf5-5.15.7-1.1",
            "openSUSE Tumbleweed:libQt5PdfWidgets5-5.15.7-1.1",
            "openSUSE Tumbleweed:libqt5-qtpdf-devel-5.15.7-1.1",
            "openSUSE Tumbleweed:libqt5-qtpdf-examples-5.15.7-1.1",
            "openSUSE Tumbleweed:libqt5-qtpdf-imports-5.15.7-1.1",
            "openSUSE Tumbleweed:libqt5-qtpdf-private-headers-devel-5.15.7-1.1",
            "openSUSE Tumbleweed:libqt5-qtwebengine-5.15.7-1.1",
            "openSUSE Tumbleweed:libqt5-qtwebengine-devel-5.15.7-1.1",
            "openSUSE Tumbleweed:libqt5-qtwebengine-examples-5.15.7-1.1",
            "openSUSE Tumbleweed:libqt5-qtwebengine-private-headers-devel-5.15.7-1.1"
          ]
        }
      ],
      "CVSSScoreSets": {}
    },
    {
      "CVE": "CVE-2021-37968",
      "Description": "Inappropriate implementation in Background Fetch API in Google Chrome prior to 94.0.4606.54 allowed a remote attacker to leak cross-origin data via a crafted HTML page.",
      "Threats": [
        {
          "Type": "Impact",
          "Severity": "important"
        }
      ],
      "References": [
        {
          "URL": "https://www.suse.com/security/cve/CVE-2021-37968.html",
          "Description": "CVE-2021-37968"
        },
        {
          "URL": "https://bugzilla.suse.com/1190765",
          "Description": "SUSE Bug 1190765"
        }
      ],
      "ProductStatuses": [
        {
          "Type": "Fixed",
          "ProductID": [
            "openSUSE Tumbleweed:libQt5Pdf5-5.15.7-1.1",
            "openSUSE Tumbleweed:libQt5PdfWidgets5-5.15.7-1.1",
            "openSUSE Tumbleweed:libqt5-qtpdf-devel-5.15.7-1.1",
            "openSUSE Tumbleweed:libqt5-qtpdf-examples-5.15.7-1.1",
            "openSUSE Tumbleweed:libqt5-qtpdf-imports-5.15.7-1.1",
            "openSUSE Tumbleweed:libqt5-qtpdf-private-headers-devel-5.15.7-1.1",
            "openSUSE Tumbleweed:libqt5-qtwebengine-5.15.7-1.1",
            "openSUSE Tumbleweed:libqt5-qtwebengine-devel-5.15.7-1.1",
            "openSUSE Tumbleweed:libqt5-qtwebengine-examples-5.15.7-1.1",
            "openSUSE Tumbleweed:libqt5-qtwebengine-private-headers-devel-5.15.7-1.1"
          ]
        }
      ],
      "CVSSScoreSets": {}
    },
    {
      "CVE": "CVE-2021-37971",
      "Description": "Incorrect security UI in Web Browser UI in Google Chrome prior to 94.0.4606.54 allowed a remote attacker to spoof the contents of the Omnibox (URL bar) via a crafted HTML page.",
      "Threats": [
        {
          "Type": "Impact",
          "Severity": "important"
        }
      ],
      "References": [
        {
          "URL": "https://www.suse.com/security/cve/CVE-2021-37971.html",
          "Description": "CVE-2021-37971"
        },
        {
          "URL": "https://bugzilla.suse.com/1190765",
          "Description": "SUSE Bug 1190765"
        }
      ],
      "ProductStatuses": [
        {
          "Type": "Fixed",
          "ProductID": [
            "openSUSE Tumbleweed:libQt5Pdf5-5.15.7-1.1",
            "openSUSE Tumbleweed:libQt5PdfWidgets5-5.15.7-1.1",
            "openSUSE Tumbleweed:libqt5-qtpdf-devel-5.15.7-1.1",
            "openSUSE Tumbleweed:libqt5-qtpdf-examples-5.15.7-1.1",
            "openSUSE Tumbleweed:libqt5-qtpdf-imports-5.15.7-1.1",
            "openSUSE Tumbleweed:libqt5-qtpdf-private-headers-devel-5.15.7-1.1",
            "openSUSE Tumbleweed:libqt5-qtwebengine-5.15.7-1.1",
            "openSUSE Tumbleweed:libqt5-qtwebengine-devel-5.15.7-1.1",
            "openSUSE Tumbleweed:libqt5-qtwebengine-examples-5.15.7-1.1",
            "openSUSE Tumbleweed:libqt5-qtwebengine-private-headers-devel-5.15.7-1.1"
          ]
        }
      ],
      "CVSSScoreSets": {}
    },
    {
      "CVE": "CVE-2021-37973",
      "Description": "Use after free in Portals in Google Chrome prior to 94.0.4606.61 allowed a remote attacker who had compromised the renderer process to potentially perform a sandbox escape via a crafted HTML page.",
      "Threats": [
        {
          "Type": "Impact",
          "Severity": "critical"
        }
      ],
      "References": [
        {
          "URL": "https://www.suse.com/security/cve/CVE-2021-37973.html",
          "Description": "CVE-2021-37973"
        },
        {
          "URL": "https://bugzilla.suse.com/1191166",
          "Description": "SUSE Bug 1191166"
        }
      ],
      "ProductStatuses": [
        {
          "Type": "Fixed",
          "ProductID": [
            "openSUSE Tumbleweed:libQt5Pdf5-5.15.7-1.1",
            "openSUSE Tumbleweed:libQt5PdfWidgets5-5.15.7-1.1",
            "openSUSE Tumbleweed:libqt5-qtpdf-devel-5.15.7-1.1",
            "openSUSE Tumbleweed:libqt5-qtpdf-examples-5.15.7-1.1",
            "openSUSE Tumbleweed:libqt5-qtpdf-imports-5.15.7-1.1",
            "openSUSE Tumbleweed:libqt5-qtpdf-private-headers-devel-5.15.7-1.1",
            "openSUSE Tumbleweed:libqt5-qtwebengine-5.15.7-1.1",
            "openSUSE Tumbleweed:libqt5-qtwebengine-devel-5.15.7-1.1",
            "openSUSE Tumbleweed:libqt5-qtwebengine-examples-5.15.7-1.1",
            "openSUSE Tumbleweed:libqt5-qtwebengine-private-headers-devel-5.15.7-1.1"
          ]
        }
      ],
      "CVSSScoreSets": {}
    },
    {
      "CVE": "CVE-2021-37975",
      "Description": "Use after free in V8 in Google Chrome prior to 94.0.4606.71 allowed a remote attacker to potentially exploit heap corruption via a crafted HTML page.",
      "Threats": [
        {
          "Type": "Impact",
          "Severity": "important"
        }
      ],
      "References": [
        {
          "URL": "https://www.suse.com/security/cve/CVE-2021-37975.html",
          "Description": "CVE-2021-37975"
        },
        {
          "URL": "https://bugzilla.suse.com/1191204",
          "Description": "SUSE Bug 1191204"
        }
      ],
      "ProductStatuses": [
        {
          "Type": "Fixed",
          "ProductID": [
            "openSUSE Tumbleweed:libQt5Pdf5-5.15.7-1.1",
            "openSUSE Tumbleweed:libQt5PdfWidgets5-5.15.7-1.1",
            "openSUSE Tumbleweed:libqt5-qtpdf-devel-5.15.7-1.1",
            "openSUSE Tumbleweed:libqt5-qtpdf-examples-5.15.7-1.1",
            "openSUSE Tumbleweed:libqt5-qtpdf-imports-5.15.7-1.1",
            "openSUSE Tumbleweed:libqt5-qtpdf-private-headers-devel-5.15.7-1.1",
            "openSUSE Tumbleweed:libqt5-qtwebengine-5.15.7-1.1",
            "openSUSE Tumbleweed:libqt5-qtwebengine-devel-5.15.7-1.1",
            "openSUSE Tumbleweed:libqt5-qtwebengine-examples-5.15.7-1.1",
            "openSUSE Tumbleweed:libqt5-qtwebengine-private-headers-devel-5.15.7-1.1"
          ]
        }
      ],
      "CVSSScoreSets": {}
    },
    {
      "CVE": "CVE-2021-37978",
      "Description": "Heap buffer overflow in Blink in Google Chrome prior to 94.0.4606.81 allowed a remote attacker to potentially exploit heap corruption via a crafted HTML page.",
      "Threats": [
        {
          "Type": "Impact",
          "Severity": "moderate"
        }
      ],
      "References": [
        {
          "URL": "https://www.suse.com/security/cve/CVE-2021-37978.html",
          "Description": "CVE-2021-37978"
        },
        {
          "URL": "https://bugzilla.suse.com/1191463",
          "Description": "SUSE Bug 1191463"
        }
      ],
      "ProductStatuses": [
        {
          "Type": "Fixed",
          "ProductID": [
            "openSUSE Tumbleweed:libQt5Pdf5-5.15.7-1.1",
            "openSUSE Tumbleweed:libQt5PdfWidgets5-5.15.7-1.1",
            "openSUSE Tumbleweed:libqt5-qtpdf-devel-5.15.7-1.1",
            "openSUSE Tumbleweed:libqt5-qtpdf-examples-5.15.7-1.1",
            "openSUSE Tumbleweed:libqt5-qtpdf-imports-5.15.7-1.1",
            "openSUSE Tumbleweed:libqt5-qtpdf-private-headers-devel-5.15.7-1.1",
            "openSUSE Tumbleweed:libqt5-qtwebengine-5.15.7-1.1",
            "openSUSE Tumbleweed:libqt5-qtwebengine-devel-5.15.7-1.1",
            "openSUSE Tumbleweed:libqt5-qtwebengine-examples-5.15.7-1.1",
            "openSUSE Tumbleweed:libqt5-qtwebengine-private-headers-devel-5.15.7-1.1"
          ]
        }
      ],
      "CVSSScoreSets": {}
    },
    {
      "CVE": "CVE-2021-37979",
      "Description": "heap buffer overflow in WebRTC in Google Chrome prior to 94.0.4606.81 allowed a remote attacker who convinced a user to browse to a malicious website to potentially exploit heap corruption via a crafted HTML page.",
      "Threats": [
        {
          "Type": "Impact",
          "Severity": "moderate"
        }
      ],
      "References": [
        {
          "URL": "https://www.suse.com/security/cve/CVE-2021-37979.html",
          "Description": "CVE-2021-37979"
        },
        {
          "URL": "https://bugzilla.suse.com/1191463",
          "Description": "SUSE Bug 1191463"
        }
      ],
      "ProductStatuses": [
        {
          "Type": "Fixed",
          "ProductID": [
            "openSUSE Tumbleweed:libQt5Pdf5-5.15.7-1.1",
            "openSUSE Tumbleweed:libQt5PdfWidgets5-5.15.7-1.1",
            "openSUSE Tumbleweed:libqt5-qtpdf-devel-5.15.7-1.1",
            "openSUSE Tumbleweed:libqt5-qtpdf-examples-5.15.7-1.1",
            "openSUSE Tumbleweed:libqt5-qtpdf-imports-5.15.7-1.1",
            "openSUSE Tumbleweed:libqt5-qtpdf-private-headers-devel-5.15.7-1.1",
            "openSUSE Tumbleweed:libqt5-qtwebengine-5.15.7-1.1",
            "openSUSE Tumbleweed:libqt5-qtwebengine-devel-5.15.7-1.1",
            "openSUSE Tumbleweed:libqt5-qtwebengine-examples-5.15.7-1.1",
            "openSUSE Tumbleweed:libqt5-qtwebengine-private-headers-devel-5.15.7-1.1"
          ]
        }
      ],
      "CVSSScoreSets": {}
    },
    {
      "CVE": "CVE-2021-37980",
      "Description": "Inappropriate implementation in Sandbox in Google Chrome prior to 94.0.4606.81 allowed a remote attacker to potentially bypass site isolation via Windows.",
      "Threats": [
        {
          "Type": "Impact",
          "Severity": "moderate"
        }
      ],
      "References": [
        {
          "URL": "https://www.suse.com/security/cve/CVE-2021-37980.html",
          "Description": "CVE-2021-37980"
        },
        {
          "URL": "https://bugzilla.suse.com/1191463",
          "Description": "SUSE Bug 1191463"
        }
      ],
      "ProductStatuses": [
        {
          "Type": "Fixed",
          "ProductID": [
            "openSUSE Tumbleweed:libQt5Pdf5-5.15.7-1.1",
            "openSUSE Tumbleweed:libQt5PdfWidgets5-5.15.7-1.1",
            "openSUSE Tumbleweed:libqt5-qtpdf-devel-5.15.7-1.1",
            "openSUSE Tumbleweed:libqt5-qtpdf-examples-5.15.7-1.1",
            "openSUSE Tumbleweed:libqt5-qtpdf-imports-5.15.7-1.1",
            "openSUSE Tumbleweed:libqt5-qtpdf-private-headers-devel-5.15.7-1.1",
            "openSUSE Tumbleweed:libqt5-qtwebengine-5.15.7-1.1",
            "openSUSE Tumbleweed:libqt5-qtwebengine-devel-5.15.7-1.1",
            "openSUSE Tumbleweed:libqt5-qtwebengine-examples-5.15.7-1.1",
            "openSUSE Tumbleweed:libqt5-qtwebengine-private-headers-devel-5.15.7-1.1"
          ]
        }
      ],
      "CVSSScoreSets": {}
    }
  ]
}