{
  "Title": "logcli-2.6.1+git.1658128747.6bd05c9a4-1.1 on GA media",
  "Tracking": {
    "ID": "openSUSE-SU-2024:12231-1",
    "Status": "Final",
    "Version": "1",
    "InitialReleaseDate": "2024-06-20T21:44:22Z",
    "CurrentReleaseDate": "2024-06-20T21:44:22Z",
    "RevisionHistory": [
      {
        "Number": "1",
        "Date": "2024-06-20T21:44:22Z",
        "Description": "current"
      }
    ]
  },
  "Notes": [
    {
      "Text": "logcli-2.6.1+git.1658128747.6bd05c9a4-1.1 on GA media",
      "Title": "Topic",
      "Type": "Summary"
    },
    {
      "Text": "These are all security issues fixed in the logcli-2.6.1+git.1658128747.6bd05c9a4-1.1 package on the GA media of openSUSE Tumbleweed.",
      "Title": "Details",
      "Type": "General"
    },
    {
      "Text": "The CVRF data is provided by SUSE under the Creative Commons License 4.0 with Attribution (CC-BY-4.0).",
      "Title": "Terms of Use",
      "Type": "Legal Disclaimer"
    },
    {
      "Text": "openSUSE-Tumbleweed-2024-12231",
      "Title": "Patchnames",
      "Type": "Details"
    }
  ],
  "ProductTree": {
    "Relationships": [
      {
        "ProductReference": "logcli-2.6.1+git.1658128747.6bd05c9a4-1.1",
        "RelatesToProductReference": "openSUSE Tumbleweed",
        "RelationType": "Default Component Of"
      },
      {
        "ProductReference": "loki-2.6.1+git.1658128747.6bd05c9a4-1.1",
        "RelatesToProductReference": "openSUSE Tumbleweed",
        "RelationType": "Default Component Of"
      },
      {
        "ProductReference": "promtail-2.6.1+git.1658128747.6bd05c9a4-1.1",
        "RelatesToProductReference": "openSUSE Tumbleweed",
        "RelationType": "Default Component Of"
      }
    ]
  },
  "References": [
    {
      "URL": "https://www.suse.com/support/security/rating/",
      "Description": "SUSE Security Ratings"
    },
    {
      "URL": "https://www.suse.com/security/cve/CVE-2022-21698/",
      "Description": "SUSE CVE CVE-2022-21698 page"
    }
  ],
  "Vulnerabilities": [
    {
      "CVE": "CVE-2022-21698",
      "Description": "client_golang is the instrumentation library for Go applications in Prometheus, and the promhttp package in client_golang provides tooling around HTTP servers and clients. In client_golang prior to version 1.11.1, HTTP server is susceptible to a Denial of Service through unbounded cardinality, and potential memory exhaustion, when handling requests with non-standard HTTP methods. In order to be affected, an instrumented software must use any of `promhttp.InstrumentHandler*` middleware except `RequestsInFlight`; not filter any specific methods (e.g GET) before middleware; pass metric with `method` label name to our middleware; and not have any firewall/LB/proxy that filters away requests with unknown `method`. client_golang version 1.11.1 contains a patch for this issue. Several workarounds are available, including removing the `method` label name from counter/gauge used in the InstrumentHandler; turning off affected promhttp handlers; adding custom middleware before promhttp handler that will sanitize the request method given by Go http.Request; and using a reverse proxy or web application firewall, configured to only allow a limited set of methods.",
      "Threats": [
        {
          "Type": "Impact",
          "Severity": "important"
        }
      ],
      "References": [
        {
          "URL": "https://www.suse.com/security/cve/CVE-2022-21698.html",
          "Description": "CVE-2022-21698"
        },
        {
          "URL": "https://bugzilla.suse.com/1196338",
          "Description": "SUSE Bug 1196338"
        }
      ],
      "ProductStatuses": [
        {
          "Type": "Fixed",
          "ProductID": [
            "openSUSE Tumbleweed:logcli-2.6.1+git.1658128747.6bd05c9a4-1.1",
            "openSUSE Tumbleweed:loki-2.6.1+git.1658128747.6bd05c9a4-1.1",
            "openSUSE Tumbleweed:promtail-2.6.1+git.1658128747.6bd05c9a4-1.1"
          ]
        }
      ],
      "CVSSScoreSets": {}
    }
  ]
}