{
  "Title": "libfreebl3-3.98-1.1 on GA media",
  "Tracking": {
    "ID": "openSUSE-SU-2024:13793-1",
    "Status": "Final",
    "Version": "1",
    "InitialReleaseDate": "2024-06-20T21:44:22Z",
    "CurrentReleaseDate": "2024-06-20T21:44:22Z",
    "RevisionHistory": [
      {
        "Number": "1",
        "Date": "2024-06-20T21:44:22Z",
        "Description": "current"
      }
    ]
  },
  "Notes": [
    {
      "Text": "libfreebl3-3.98-1.1 on GA media",
      "Title": "Topic",
      "Type": "Summary"
    },
    {
      "Text": "These are all security issues fixed in the libfreebl3-3.98-1.1 package on the GA media of openSUSE Tumbleweed.",
      "Title": "Details",
      "Type": "General"
    },
    {
      "Text": "The CVRF data is provided by SUSE under the Creative Commons License 4.0 with Attribution (CC-BY-4.0).",
      "Title": "Terms of Use",
      "Type": "Legal Disclaimer"
    },
    {
      "Text": "openSUSE-Tumbleweed-2024-13793",
      "Title": "Patchnames",
      "Type": "Details"
    }
  ],
  "ProductTree": {
    "Relationships": [
      {
        "ProductReference": "libfreebl3-3.98-1.1",
        "RelatesToProductReference": "openSUSE Tumbleweed",
        "RelationType": "Default Component Of"
      },
      {
        "ProductReference": "libfreebl3-32bit-3.98-1.1",
        "RelatesToProductReference": "openSUSE Tumbleweed",
        "RelationType": "Default Component Of"
      },
      {
        "ProductReference": "libsoftokn3-3.98-1.1",
        "RelatesToProductReference": "openSUSE Tumbleweed",
        "RelationType": "Default Component Of"
      },
      {
        "ProductReference": "libsoftokn3-32bit-3.98-1.1",
        "RelatesToProductReference": "openSUSE Tumbleweed",
        "RelationType": "Default Component Of"
      },
      {
        "ProductReference": "mozilla-nss-3.98-1.1",
        "RelatesToProductReference": "openSUSE Tumbleweed",
        "RelationType": "Default Component Of"
      },
      {
        "ProductReference": "mozilla-nss-32bit-3.98-1.1",
        "RelatesToProductReference": "openSUSE Tumbleweed",
        "RelationType": "Default Component Of"
      },
      {
        "ProductReference": "mozilla-nss-certs-3.98-1.1",
        "RelatesToProductReference": "openSUSE Tumbleweed",
        "RelationType": "Default Component Of"
      },
      {
        "ProductReference": "mozilla-nss-certs-32bit-3.98-1.1",
        "RelatesToProductReference": "openSUSE Tumbleweed",
        "RelationType": "Default Component Of"
      },
      {
        "ProductReference": "mozilla-nss-devel-3.98-1.1",
        "RelatesToProductReference": "openSUSE Tumbleweed",
        "RelationType": "Default Component Of"
      },
      {
        "ProductReference": "mozilla-nss-sysinit-3.98-1.1",
        "RelatesToProductReference": "openSUSE Tumbleweed",
        "RelationType": "Default Component Of"
      },
      {
        "ProductReference": "mozilla-nss-sysinit-32bit-3.98-1.1",
        "RelatesToProductReference": "openSUSE Tumbleweed",
        "RelationType": "Default Component Of"
      },
      {
        "ProductReference": "mozilla-nss-tools-3.98-1.1",
        "RelatesToProductReference": "openSUSE Tumbleweed",
        "RelationType": "Default Component Of"
      }
    ]
  },
  "References": [
    {
      "URL": "https://www.suse.com/support/security/rating/",
      "Description": "SUSE Security Ratings"
    },
    {
      "URL": "https://www.suse.com/security/cve/CVE-2023-5388/",
      "Description": "SUSE CVE CVE-2023-5388 page"
    }
  ],
  "Vulnerabilities": [
    {
      "CVE": "CVE-2023-5388",
      "Description": "NSS was susceptible to a timing side-channel attack when performing RSA decryption. This attack could potentially allow an attacker to recover the private data. This vulnerability affects Firefox \u003c 124, Firefox ESR \u003c 115.9, and Thunderbird \u003c 115.9.",
      "Threats": [
        {
          "Type": "Impact",
          "Severity": "moderate"
        }
      ],
      "References": [
        {
          "URL": "https://www.suse.com/security/cve/CVE-2023-5388.html",
          "Description": "CVE-2023-5388"
        },
        {
          "URL": "https://bugzilla.suse.com/1216198",
          "Description": "SUSE Bug 1216198"
        }
      ],
      "ProductStatuses": [
        {
          "Type": "Fixed",
          "ProductID": [
            "openSUSE Tumbleweed:libfreebl3-3.98-1.1",
            "openSUSE Tumbleweed:libfreebl3-32bit-3.98-1.1",
            "openSUSE Tumbleweed:libsoftokn3-3.98-1.1",
            "openSUSE Tumbleweed:libsoftokn3-32bit-3.98-1.1",
            "openSUSE Tumbleweed:mozilla-nss-3.98-1.1",
            "openSUSE Tumbleweed:mozilla-nss-32bit-3.98-1.1",
            "openSUSE Tumbleweed:mozilla-nss-certs-3.98-1.1",
            "openSUSE Tumbleweed:mozilla-nss-certs-32bit-3.98-1.1",
            "openSUSE Tumbleweed:mozilla-nss-devel-3.98-1.1",
            "openSUSE Tumbleweed:mozilla-nss-sysinit-3.98-1.1",
            "openSUSE Tumbleweed:mozilla-nss-sysinit-32bit-3.98-1.1",
            "openSUSE Tumbleweed:mozilla-nss-tools-3.98-1.1"
          ]
        }
      ],
      "CVSSScoreSets": {}
    }
  ]
}