{
  "Title": "libpng16-16-1.6.37-3.3 on GA media",
  "Tracking": {
    "ID": "openSUSE-SU-2024:10972-1",
    "Status": "Final",
    "Version": "1",
    "InitialReleaseDate": "2024-06-22T21:44:56Z",
    "CurrentReleaseDate": "2024-06-22T21:44:56Z",
    "RevisionHistory": [
      {
        "Number": "1",
        "Date": "2024-06-22T21:44:56Z",
        "Description": "current"
      }
    ]
  },
  "Notes": [
    {
      "Text": "libpng16-16-1.6.37-3.3 on GA media",
      "Title": "Topic",
      "Type": "Summary"
    },
    {
      "Text": "These are all security issues fixed in the libpng16-16-1.6.37-3.3 package on the GA media of openSUSE Tumbleweed.",
      "Title": "Details",
      "Type": "General"
    },
    {
      "Text": "The CVRF data is provided by SUSE under the Creative Commons License 4.0 with Attribution (CC-BY-4.0).",
      "Title": "Terms of Use",
      "Type": "Legal Disclaimer"
    },
    {
      "Text": "openSUSE-Tumbleweed-2024-10972",
      "Title": "Patchnames",
      "Type": "Details"
    }
  ],
  "ProductTree": {
    "Relationships": [
      {
        "ProductReference": "libpng16-16-1.6.37-3.3",
        "RelatesToProductReference": "openSUSE Tumbleweed",
        "RelationType": "Default Component Of"
      },
      {
        "ProductReference": "libpng16-16-32bit-1.6.37-3.3",
        "RelatesToProductReference": "openSUSE Tumbleweed",
        "RelationType": "Default Component Of"
      },
      {
        "ProductReference": "libpng16-compat-devel-1.6.37-3.3",
        "RelatesToProductReference": "openSUSE Tumbleweed",
        "RelationType": "Default Component Of"
      },
      {
        "ProductReference": "libpng16-compat-devel-32bit-1.6.37-3.3",
        "RelatesToProductReference": "openSUSE Tumbleweed",
        "RelationType": "Default Component Of"
      },
      {
        "ProductReference": "libpng16-devel-1.6.37-3.3",
        "RelatesToProductReference": "openSUSE Tumbleweed",
        "RelationType": "Default Component Of"
      },
      {
        "ProductReference": "libpng16-devel-32bit-1.6.37-3.3",
        "RelatesToProductReference": "openSUSE Tumbleweed",
        "RelationType": "Default Component Of"
      },
      {
        "ProductReference": "libpng16-tools-1.6.37-3.3",
        "RelatesToProductReference": "openSUSE Tumbleweed",
        "RelationType": "Default Component Of"
      }
    ]
  },
  "References": [
    {
      "URL": "https://www.suse.com/support/security/rating/",
      "Description": "SUSE Security Ratings"
    },
    {
      "URL": "https://www.suse.com/security/cve/CVE-2006-5793/",
      "Description": "SUSE CVE CVE-2006-5793 page"
    },
    {
      "URL": "https://www.suse.com/security/cve/CVE-2008-3964/",
      "Description": "SUSE CVE CVE-2008-3964 page"
    },
    {
      "URL": "https://www.suse.com/security/cve/CVE-2009-0040/",
      "Description": "SUSE CVE CVE-2009-0040 page"
    },
    {
      "URL": "https://www.suse.com/security/cve/CVE-2016-10087/",
      "Description": "SUSE CVE CVE-2016-10087 page"
    },
    {
      "URL": "https://www.suse.com/security/cve/CVE-2016-5735/",
      "Description": "SUSE CVE CVE-2016-5735 page"
    },
    {
      "URL": "https://www.suse.com/security/cve/CVE-2017-12652/",
      "Description": "SUSE CVE CVE-2017-12652 page"
    },
    {
      "URL": "https://www.suse.com/security/cve/CVE-2018-13785/",
      "Description": "SUSE CVE CVE-2018-13785 page"
    },
    {
      "URL": "https://www.suse.com/security/cve/CVE-2018-14048/",
      "Description": "SUSE CVE CVE-2018-14048 page"
    },
    {
      "URL": "https://www.suse.com/security/cve/CVE-2019-7317/",
      "Description": "SUSE CVE CVE-2019-7317 page"
    }
  ],
  "Vulnerabilities": [
    {
      "CVE": "CVE-2006-5793",
      "Description": "The sPLT chunk handling code (png_set_sPLT function in pngset.c) in libpng 1.0.6 through 1.2.12 uses a sizeof operator on the wrong data type, which allows context-dependent attackers to cause a denial of service (crash) via malformed sPLT chunks that trigger an out-of-bounds read.",
      "Threats": [
        {
          "Type": "Impact",
          "Severity": "low"
        }
      ],
      "References": [
        {
          "URL": "https://www.suse.com/security/cve/CVE-2006-5793.html",
          "Description": "CVE-2006-5793"
        },
        {
          "URL": "https://bugzilla.suse.com/219007",
          "Description": "SUSE Bug 219007"
        },
        {
          "URL": "https://bugzilla.suse.com/222859",
          "Description": "SUSE Bug 222859"
        }
      ],
      "ProductStatuses": [
        {
          "Type": "Fixed",
          "ProductID": [
            "openSUSE Tumbleweed:libpng16-16-1.6.37-3.3",
            "openSUSE Tumbleweed:libpng16-16-32bit-1.6.37-3.3",
            "openSUSE Tumbleweed:libpng16-compat-devel-1.6.37-3.3",
            "openSUSE Tumbleweed:libpng16-compat-devel-32bit-1.6.37-3.3",
            "openSUSE Tumbleweed:libpng16-devel-1.6.37-3.3",
            "openSUSE Tumbleweed:libpng16-devel-32bit-1.6.37-3.3",
            "openSUSE Tumbleweed:libpng16-tools-1.6.37-3.3"
          ]
        }
      ],
      "CVSSScoreSets": {}
    },
    {
      "CVE": "CVE-2008-3964",
      "Description": "Multiple off-by-one errors in libpng before 1.2.32beta01, and 1.4 before 1.4.0beta34, allow context-dependent attackers to cause a denial of service (crash) or have unspecified other impact via a PNG image with crafted zTXt chunks, related to (1) the png_push_read_zTXt function in pngread.c, and possibly related to (2) pngtest.c.",
      "Threats": [
        {
          "Type": "Impact",
          "Severity": "moderate"
        }
      ],
      "References": [
        {
          "URL": "https://www.suse.com/security/cve/CVE-2008-3964.html",
          "Description": "CVE-2008-3964"
        },
        {
          "URL": "https://bugzilla.suse.com/424739",
          "Description": "SUSE Bug 424739"
        }
      ],
      "ProductStatuses": [
        {
          "Type": "Fixed",
          "ProductID": [
            "openSUSE Tumbleweed:libpng16-16-1.6.37-3.3",
            "openSUSE Tumbleweed:libpng16-16-32bit-1.6.37-3.3",
            "openSUSE Tumbleweed:libpng16-compat-devel-1.6.37-3.3",
            "openSUSE Tumbleweed:libpng16-compat-devel-32bit-1.6.37-3.3",
            "openSUSE Tumbleweed:libpng16-devel-1.6.37-3.3",
            "openSUSE Tumbleweed:libpng16-devel-32bit-1.6.37-3.3",
            "openSUSE Tumbleweed:libpng16-tools-1.6.37-3.3"
          ]
        }
      ],
      "CVSSScoreSets": {}
    },
    {
      "CVE": "CVE-2009-0040",
      "Description": "The PNG reference library (aka libpng) before 1.0.43, and 1.2.x before 1.2.35, as used in pngcrush and other applications, allows context-dependent attackers to cause a denial of service (application crash) or possibly execute arbitrary code via a crafted PNG file that triggers a free of an uninitialized pointer in (1) the png_read_png function, (2) pCAL chunk handling, or (3) setup of 16-bit gamma tables.",
      "Threats": [
        {
          "Type": "Impact",
          "Severity": "moderate"
        }
      ],
      "References": [
        {
          "URL": "https://www.suse.com/security/cve/CVE-2009-0040.html",
          "Description": "CVE-2009-0040"
        },
        {
          "URL": "https://bugzilla.suse.com/472745",
          "Description": "SUSE Bug 472745"
        },
        {
          "URL": "https://bugzilla.suse.com/478625",
          "Description": "SUSE Bug 478625"
        },
        {
          "URL": "https://bugzilla.suse.com/608040",
          "Description": "SUSE Bug 608040"
        }
      ],
      "ProductStatuses": [
        {
          "Type": "Fixed",
          "ProductID": [
            "openSUSE Tumbleweed:libpng16-16-1.6.37-3.3",
            "openSUSE Tumbleweed:libpng16-16-32bit-1.6.37-3.3",
            "openSUSE Tumbleweed:libpng16-compat-devel-1.6.37-3.3",
            "openSUSE Tumbleweed:libpng16-compat-devel-32bit-1.6.37-3.3",
            "openSUSE Tumbleweed:libpng16-devel-1.6.37-3.3",
            "openSUSE Tumbleweed:libpng16-devel-32bit-1.6.37-3.3",
            "openSUSE Tumbleweed:libpng16-tools-1.6.37-3.3"
          ]
        }
      ],
      "CVSSScoreSets": {}
    },
    {
      "CVE": "CVE-2016-10087",
      "Description": "The png_set_text_2 function in libpng 0.71 before 1.0.67, 1.2.x before 1.2.57, 1.4.x before 1.4.20, 1.5.x before 1.5.28, and 1.6.x before 1.6.27 allows context-dependent attackers to cause a NULL pointer dereference vectors involving loading a text chunk into a png structure, removing the text, and then adding another text chunk to the structure.",
      "Threats": [
        {
          "Type": "Impact",
          "Severity": "low"
        }
      ],
      "References": [
        {
          "URL": "https://www.suse.com/security/cve/CVE-2016-10087.html",
          "Description": "CVE-2016-10087"
        },
        {
          "URL": "https://bugzilla.suse.com/1017646",
          "Description": "SUSE Bug 1017646"
        },
        {
          "URL": "https://bugzilla.suse.com/1149680",
          "Description": "SUSE Bug 1149680"
        }
      ],
      "ProductStatuses": [
        {
          "Type": "Fixed",
          "ProductID": [
            "openSUSE Tumbleweed:libpng16-16-1.6.37-3.3",
            "openSUSE Tumbleweed:libpng16-16-32bit-1.6.37-3.3",
            "openSUSE Tumbleweed:libpng16-compat-devel-1.6.37-3.3",
            "openSUSE Tumbleweed:libpng16-compat-devel-32bit-1.6.37-3.3",
            "openSUSE Tumbleweed:libpng16-devel-1.6.37-3.3",
            "openSUSE Tumbleweed:libpng16-devel-32bit-1.6.37-3.3",
            "openSUSE Tumbleweed:libpng16-tools-1.6.37-3.3"
          ]
        }
      ],
      "CVSSScoreSets": {
        "BaseScore": "1.9",
        "Vector": "AV:L/AC:M/Au:N/C:N/I:N/A:P"
      }
    },
    {
      "CVE": "CVE-2016-5735",
      "Description": "Integer overflow in the rwpng_read_image24_libpng function in rwpng.c in pngquant 2.7.0 allows remote attackers to have unspecified impact via a crafted PNG file, which triggers a buffer overflow.",
      "Threats": [
        {
          "Type": "Impact",
          "Severity": "moderate"
        }
      ],
      "References": [
        {
          "URL": "https://www.suse.com/security/cve/CVE-2016-5735.html",
          "Description": "CVE-2016-5735"
        },
        {
          "URL": "https://bugzilla.suse.com/1173616",
          "Description": "SUSE Bug 1173616"
        }
      ],
      "ProductStatuses": [
        {
          "Type": "Fixed",
          "ProductID": [
            "openSUSE Tumbleweed:libpng16-16-1.6.37-3.3",
            "openSUSE Tumbleweed:libpng16-16-32bit-1.6.37-3.3",
            "openSUSE Tumbleweed:libpng16-compat-devel-1.6.37-3.3",
            "openSUSE Tumbleweed:libpng16-compat-devel-32bit-1.6.37-3.3",
            "openSUSE Tumbleweed:libpng16-devel-1.6.37-3.3",
            "openSUSE Tumbleweed:libpng16-devel-32bit-1.6.37-3.3",
            "openSUSE Tumbleweed:libpng16-tools-1.6.37-3.3"
          ]
        }
      ],
      "CVSSScoreSets": {}
    },
    {
      "CVE": "CVE-2017-12652",
      "Description": "libpng before 1.6.32 does not properly check the length of chunks against the user limit.",
      "Threats": [
        {
          "Type": "Impact",
          "Severity": "low"
        }
      ],
      "References": [
        {
          "URL": "https://www.suse.com/security/cve/CVE-2017-12652.html",
          "Description": "CVE-2017-12652"
        },
        {
          "URL": "https://bugzilla.suse.com/1141493",
          "Description": "SUSE Bug 1141493"
        }
      ],
      "ProductStatuses": [
        {
          "Type": "Fixed",
          "ProductID": [
            "openSUSE Tumbleweed:libpng16-16-1.6.37-3.3",
            "openSUSE Tumbleweed:libpng16-16-32bit-1.6.37-3.3",
            "openSUSE Tumbleweed:libpng16-compat-devel-1.6.37-3.3",
            "openSUSE Tumbleweed:libpng16-compat-devel-32bit-1.6.37-3.3",
            "openSUSE Tumbleweed:libpng16-devel-1.6.37-3.3",
            "openSUSE Tumbleweed:libpng16-devel-32bit-1.6.37-3.3",
            "openSUSE Tumbleweed:libpng16-tools-1.6.37-3.3"
          ]
        }
      ],
      "CVSSScoreSets": {}
    },
    {
      "CVE": "CVE-2018-13785",
      "Description": "In libpng 1.6.34, a wrong calculation of row_factor in the png_check_chunk_length function (pngrutil.c) may trigger an integer overflow and resultant divide-by-zero while processing a crafted PNG file, leading to a denial of service.",
      "Threats": [
        {
          "Type": "Impact",
          "Severity": "low"
        }
      ],
      "References": [
        {
          "URL": "https://www.suse.com/security/cve/CVE-2018-13785.html",
          "Description": "CVE-2018-13785"
        },
        {
          "URL": "https://bugzilla.suse.com/1100687",
          "Description": "SUSE Bug 1100687"
        },
        {
          "URL": "https://bugzilla.suse.com/1112153",
          "Description": "SUSE Bug 1112153"
        },
        {
          "URL": "https://bugzilla.suse.com/1116574",
          "Description": "SUSE Bug 1116574"
        }
      ],
      "ProductStatuses": [
        {
          "Type": "Fixed",
          "ProductID": [
            "openSUSE Tumbleweed:libpng16-16-1.6.37-3.3",
            "openSUSE Tumbleweed:libpng16-16-32bit-1.6.37-3.3",
            "openSUSE Tumbleweed:libpng16-compat-devel-1.6.37-3.3",
            "openSUSE Tumbleweed:libpng16-compat-devel-32bit-1.6.37-3.3",
            "openSUSE Tumbleweed:libpng16-devel-1.6.37-3.3",
            "openSUSE Tumbleweed:libpng16-devel-32bit-1.6.37-3.3",
            "openSUSE Tumbleweed:libpng16-tools-1.6.37-3.3"
          ]
        }
      ],
      "CVSSScoreSets": {}
    },
    {
      "CVE": "CVE-2018-14048",
      "Description": "An issue has been found in libpng 1.6.34. It is a SEGV in the function png_free_data in png.c, related to the recommended error handling for png_read_image.",
      "Threats": [
        {
          "Type": "Impact",
          "Severity": "moderate"
        }
      ],
      "References": [
        {
          "URL": "https://www.suse.com/security/cve/CVE-2018-14048.html",
          "Description": "CVE-2018-14048"
        },
        {
          "URL": "https://bugzilla.suse.com/1101418",
          "Description": "SUSE Bug 1101418"
        }
      ],
      "ProductStatuses": [
        {
          "Type": "Fixed",
          "ProductID": [
            "openSUSE Tumbleweed:libpng16-16-1.6.37-3.3",
            "openSUSE Tumbleweed:libpng16-16-32bit-1.6.37-3.3",
            "openSUSE Tumbleweed:libpng16-compat-devel-1.6.37-3.3",
            "openSUSE Tumbleweed:libpng16-compat-devel-32bit-1.6.37-3.3",
            "openSUSE Tumbleweed:libpng16-devel-1.6.37-3.3",
            "openSUSE Tumbleweed:libpng16-devel-32bit-1.6.37-3.3",
            "openSUSE Tumbleweed:libpng16-tools-1.6.37-3.3"
          ]
        }
      ],
      "CVSSScoreSets": {}
    },
    {
      "CVE": "CVE-2019-7317",
      "Description": "png_image_free in png.c in libpng 1.6.x before 1.6.37 has a use-after-free because png_image_free_function is called under png_safe_execute.",
      "Threats": [
        {
          "Type": "Impact",
          "Severity": "low"
        }
      ],
      "References": [
        {
          "URL": "https://www.suse.com/security/cve/CVE-2019-7317.html",
          "Description": "CVE-2019-7317"
        },
        {
          "URL": "https://bugzilla.suse.com/1124211",
          "Description": "SUSE Bug 1124211"
        },
        {
          "URL": "https://bugzilla.suse.com/1135824",
          "Description": "SUSE Bug 1135824"
        },
        {
          "URL": "https://bugzilla.suse.com/1141780",
          "Description": "SUSE Bug 1141780"
        },
        {
          "URL": "https://bugzilla.suse.com/1147021",
          "Description": "SUSE Bug 1147021"
        },
        {
          "URL": "https://bugzilla.suse.com/1165297",
          "Description": "SUSE Bug 1165297"
        }
      ],
      "ProductStatuses": [
        {
          "Type": "Fixed",
          "ProductID": [
            "openSUSE Tumbleweed:libpng16-16-1.6.37-3.3",
            "openSUSE Tumbleweed:libpng16-16-32bit-1.6.37-3.3",
            "openSUSE Tumbleweed:libpng16-compat-devel-1.6.37-3.3",
            "openSUSE Tumbleweed:libpng16-compat-devel-32bit-1.6.37-3.3",
            "openSUSE Tumbleweed:libpng16-devel-1.6.37-3.3",
            "openSUSE Tumbleweed:libpng16-devel-32bit-1.6.37-3.3",
            "openSUSE Tumbleweed:libpng16-tools-1.6.37-3.3"
          ]
        }
      ],
      "CVSSScoreSets": {}
    }
  ]
}