{
  "Title": "gstreamer-plugins-bad-1.18.5-5.1 on GA media",
  "Tracking": {
    "ID": "openSUSE-SU-2024:11782-1",
    "Status": "Final",
    "Version": "1",
    "InitialReleaseDate": "2024-06-22T21:44:56Z",
    "CurrentReleaseDate": "2024-06-22T21:44:56Z",
    "RevisionHistory": [
      {
        "Number": "1",
        "Date": "2024-06-22T21:44:56Z",
        "Description": "current"
      }
    ]
  },
  "Notes": [
    {
      "Text": "gstreamer-plugins-bad-1.18.5-5.1 on GA media",
      "Title": "Topic",
      "Type": "Summary"
    },
    {
      "Text": "These are all security issues fixed in the gstreamer-plugins-bad-1.18.5-5.1 package on the GA media of openSUSE Tumbleweed.",
      "Title": "Details",
      "Type": "General"
    },
    {
      "Text": "The CVRF data is provided by SUSE under the Creative Commons License 4.0 with Attribution (CC-BY-4.0).",
      "Title": "Terms of Use",
      "Type": "Legal Disclaimer"
    },
    {
      "Text": "openSUSE-Tumbleweed-2024-11782",
      "Title": "Patchnames",
      "Type": "Details"
    }
  ],
  "ProductTree": {
    "Relationships": [
      {
        "ProductReference": "gstreamer-plugins-bad-1.18.5-5.1",
        "RelatesToProductReference": "openSUSE Tumbleweed",
        "RelationType": "Default Component Of"
      },
      {
        "ProductReference": "gstreamer-plugins-bad-32bit-1.18.5-5.1",
        "RelatesToProductReference": "openSUSE Tumbleweed",
        "RelationType": "Default Component Of"
      },
      {
        "ProductReference": "gstreamer-plugins-bad-chromaprint-1.18.5-5.1",
        "RelatesToProductReference": "openSUSE Tumbleweed",
        "RelationType": "Default Component Of"
      },
      {
        "ProductReference": "gstreamer-plugins-bad-chromaprint-32bit-1.18.5-5.1",
        "RelatesToProductReference": "openSUSE Tumbleweed",
        "RelationType": "Default Component Of"
      },
      {
        "ProductReference": "gstreamer-plugins-bad-devel-1.18.5-5.1",
        "RelatesToProductReference": "openSUSE Tumbleweed",
        "RelationType": "Default Component Of"
      },
      {
        "ProductReference": "gstreamer-plugins-bad-fluidsynth-1.18.5-5.1",
        "RelatesToProductReference": "openSUSE Tumbleweed",
        "RelationType": "Default Component Of"
      },
      {
        "ProductReference": "gstreamer-plugins-bad-fluidsynth-32bit-1.18.5-5.1",
        "RelatesToProductReference": "openSUSE Tumbleweed",
        "RelationType": "Default Component Of"
      },
      {
        "ProductReference": "gstreamer-plugins-bad-lang-1.18.5-5.1",
        "RelatesToProductReference": "openSUSE Tumbleweed",
        "RelationType": "Default Component Of"
      },
      {
        "ProductReference": "gstreamer-transcoder-1.18.5-5.1",
        "RelatesToProductReference": "openSUSE Tumbleweed",
        "RelationType": "Default Component Of"
      },
      {
        "ProductReference": "gstreamer-transcoder-devel-1.18.5-5.1",
        "RelatesToProductReference": "openSUSE Tumbleweed",
        "RelationType": "Default Component Of"
      },
      {
        "ProductReference": "libgstadaptivedemux-1_0-0-1.18.5-5.1",
        "RelatesToProductReference": "openSUSE Tumbleweed",
        "RelationType": "Default Component Of"
      },
      {
        "ProductReference": "libgstadaptivedemux-1_0-0-32bit-1.18.5-5.1",
        "RelatesToProductReference": "openSUSE Tumbleweed",
        "RelationType": "Default Component Of"
      },
      {
        "ProductReference": "libgstbadaudio-1_0-0-1.18.5-5.1",
        "RelatesToProductReference": "openSUSE Tumbleweed",
        "RelationType": "Default Component Of"
      },
      {
        "ProductReference": "libgstbadaudio-1_0-0-32bit-1.18.5-5.1",
        "RelatesToProductReference": "openSUSE Tumbleweed",
        "RelationType": "Default Component Of"
      },
      {
        "ProductReference": "libgstbasecamerabinsrc-1_0-0-1.18.5-5.1",
        "RelatesToProductReference": "openSUSE Tumbleweed",
        "RelationType": "Default Component Of"
      },
      {
        "ProductReference": "libgstbasecamerabinsrc-1_0-0-32bit-1.18.5-5.1",
        "RelatesToProductReference": "openSUSE Tumbleweed",
        "RelationType": "Default Component Of"
      },
      {
        "ProductReference": "libgstcodecparsers-1_0-0-1.18.5-5.1",
        "RelatesToProductReference": "openSUSE Tumbleweed",
        "RelationType": "Default Component Of"
      },
      {
        "ProductReference": "libgstcodecparsers-1_0-0-32bit-1.18.5-5.1",
        "RelatesToProductReference": "openSUSE Tumbleweed",
        "RelationType": "Default Component Of"
      },
      {
        "ProductReference": "libgstcodecs-1_0-0-1.18.5-5.1",
        "RelatesToProductReference": "openSUSE Tumbleweed",
        "RelationType": "Default Component Of"
      },
      {
        "ProductReference": "libgstcodecs-1_0-0-32bit-1.18.5-5.1",
        "RelatesToProductReference": "openSUSE Tumbleweed",
        "RelationType": "Default Component Of"
      },
      {
        "ProductReference": "libgstinsertbin-1_0-0-1.18.5-5.1",
        "RelatesToProductReference": "openSUSE Tumbleweed",
        "RelationType": "Default Component Of"
      },
      {
        "ProductReference": "libgstinsertbin-1_0-0-32bit-1.18.5-5.1",
        "RelatesToProductReference": "openSUSE Tumbleweed",
        "RelationType": "Default Component Of"
      },
      {
        "ProductReference": "libgstisoff-1_0-0-1.18.5-5.1",
        "RelatesToProductReference": "openSUSE Tumbleweed",
        "RelationType": "Default Component Of"
      },
      {
        "ProductReference": "libgstisoff-1_0-0-32bit-1.18.5-5.1",
        "RelatesToProductReference": "openSUSE Tumbleweed",
        "RelationType": "Default Component Of"
      },
      {
        "ProductReference": "libgstmpegts-1_0-0-1.18.5-5.1",
        "RelatesToProductReference": "openSUSE Tumbleweed",
        "RelationType": "Default Component Of"
      },
      {
        "ProductReference": "libgstmpegts-1_0-0-32bit-1.18.5-5.1",
        "RelatesToProductReference": "openSUSE Tumbleweed",
        "RelationType": "Default Component Of"
      },
      {
        "ProductReference": "libgstphotography-1_0-0-1.18.5-5.1",
        "RelatesToProductReference": "openSUSE Tumbleweed",
        "RelationType": "Default Component Of"
      },
      {
        "ProductReference": "libgstphotography-1_0-0-32bit-1.18.5-5.1",
        "RelatesToProductReference": "openSUSE Tumbleweed",
        "RelationType": "Default Component Of"
      },
      {
        "ProductReference": "libgstplayer-1_0-0-1.18.5-5.1",
        "RelatesToProductReference": "openSUSE Tumbleweed",
        "RelationType": "Default Component Of"
      },
      {
        "ProductReference": "libgstplayer-1_0-0-32bit-1.18.5-5.1",
        "RelatesToProductReference": "openSUSE Tumbleweed",
        "RelationType": "Default Component Of"
      },
      {
        "ProductReference": "libgstsctp-1_0-0-1.18.5-5.1",
        "RelatesToProductReference": "openSUSE Tumbleweed",
        "RelationType": "Default Component Of"
      },
      {
        "ProductReference": "libgstsctp-1_0-0-32bit-1.18.5-5.1",
        "RelatesToProductReference": "openSUSE Tumbleweed",
        "RelationType": "Default Component Of"
      },
      {
        "ProductReference": "libgsttranscoder-1_0-0-1.18.5-5.1",
        "RelatesToProductReference": "openSUSE Tumbleweed",
        "RelationType": "Default Component Of"
      },
      {
        "ProductReference": "libgsturidownloader-1_0-0-1.18.5-5.1",
        "RelatesToProductReference": "openSUSE Tumbleweed",
        "RelationType": "Default Component Of"
      },
      {
        "ProductReference": "libgsturidownloader-1_0-0-32bit-1.18.5-5.1",
        "RelatesToProductReference": "openSUSE Tumbleweed",
        "RelationType": "Default Component Of"
      },
      {
        "ProductReference": "libgstvulkan-1_0-0-1.18.5-5.1",
        "RelatesToProductReference": "openSUSE Tumbleweed",
        "RelationType": "Default Component Of"
      },
      {
        "ProductReference": "libgstvulkan-1_0-0-32bit-1.18.5-5.1",
        "RelatesToProductReference": "openSUSE Tumbleweed",
        "RelationType": "Default Component Of"
      },
      {
        "ProductReference": "libgstwayland-1_0-0-1.18.5-5.1",
        "RelatesToProductReference": "openSUSE Tumbleweed",
        "RelationType": "Default Component Of"
      },
      {
        "ProductReference": "libgstwayland-1_0-0-32bit-1.18.5-5.1",
        "RelatesToProductReference": "openSUSE Tumbleweed",
        "RelationType": "Default Component Of"
      },
      {
        "ProductReference": "libgstwebrtc-1_0-0-1.18.5-5.1",
        "RelatesToProductReference": "openSUSE Tumbleweed",
        "RelationType": "Default Component Of"
      },
      {
        "ProductReference": "libgstwebrtc-1_0-0-32bit-1.18.5-5.1",
        "RelatesToProductReference": "openSUSE Tumbleweed",
        "RelationType": "Default Component Of"
      },
      {
        "ProductReference": "typelib-1_0-GstBadAudio-1_0-1.18.5-5.1",
        "RelatesToProductReference": "openSUSE Tumbleweed",
        "RelationType": "Default Component Of"
      },
      {
        "ProductReference": "typelib-1_0-GstCodecs-1_0-1.18.5-5.1",
        "RelatesToProductReference": "openSUSE Tumbleweed",
        "RelationType": "Default Component Of"
      },
      {
        "ProductReference": "typelib-1_0-GstInsertBin-1_0-1.18.5-5.1",
        "RelatesToProductReference": "openSUSE Tumbleweed",
        "RelationType": "Default Component Of"
      },
      {
        "ProductReference": "typelib-1_0-GstMpegts-1_0-1.18.5-5.1",
        "RelatesToProductReference": "openSUSE Tumbleweed",
        "RelationType": "Default Component Of"
      },
      {
        "ProductReference": "typelib-1_0-GstPlayer-1_0-1.18.5-5.1",
        "RelatesToProductReference": "openSUSE Tumbleweed",
        "RelationType": "Default Component Of"
      },
      {
        "ProductReference": "typelib-1_0-GstTranscoder-1_0-1.18.5-5.1",
        "RelatesToProductReference": "openSUSE Tumbleweed",
        "RelationType": "Default Component Of"
      },
      {
        "ProductReference": "typelib-1_0-GstVulkan-1_0-1.18.5-5.1",
        "RelatesToProductReference": "openSUSE Tumbleweed",
        "RelationType": "Default Component Of"
      },
      {
        "ProductReference": "typelib-1_0-GstVulkanWayland-1_0-1.18.5-5.1",
        "RelatesToProductReference": "openSUSE Tumbleweed",
        "RelationType": "Default Component Of"
      },
      {
        "ProductReference": "typelib-1_0-GstVulkanXCB-1_0-1.18.5-5.1",
        "RelatesToProductReference": "openSUSE Tumbleweed",
        "RelationType": "Default Component Of"
      },
      {
        "ProductReference": "typelib-1_0-GstWebRTC-1_0-1.18.5-5.1",
        "RelatesToProductReference": "openSUSE Tumbleweed",
        "RelationType": "Default Component Of"
      }
    ]
  },
  "References": [
    {
      "URL": "https://www.suse.com/support/security/rating/",
      "Description": "SUSE Security Ratings"
    },
    {
      "URL": "https://www.suse.com/security/cve/CVE-2021-3185/",
      "Description": "SUSE CVE CVE-2021-3185 page"
    }
  ],
  "Vulnerabilities": [
    {
      "CVE": "CVE-2021-3185",
      "Description": "A flaw was found in the gstreamer h264 component of gst-plugins-bad before v1.18.1 where when parsing a h264 header, an attacker could cause the stack to be smashed, memory corruption and possibly code execution.",
      "Threats": [
        {
          "Type": "Impact",
          "Severity": "important"
        }
      ],
      "References": [
        {
          "URL": "https://www.suse.com/security/cve/CVE-2021-3185.html",
          "Description": "CVE-2021-3185"
        },
        {
          "URL": "https://bugzilla.suse.com/1181255",
          "Description": "SUSE Bug 1181255"
        }
      ],
      "ProductStatuses": [
        {
          "Type": "Fixed",
          "ProductID": [
            "openSUSE Tumbleweed:gstreamer-plugins-bad-1.18.5-5.1",
            "openSUSE Tumbleweed:gstreamer-plugins-bad-32bit-1.18.5-5.1",
            "openSUSE Tumbleweed:gstreamer-plugins-bad-chromaprint-1.18.5-5.1",
            "openSUSE Tumbleweed:gstreamer-plugins-bad-chromaprint-32bit-1.18.5-5.1",
            "openSUSE Tumbleweed:gstreamer-plugins-bad-devel-1.18.5-5.1",
            "openSUSE Tumbleweed:gstreamer-plugins-bad-fluidsynth-1.18.5-5.1",
            "openSUSE Tumbleweed:gstreamer-plugins-bad-fluidsynth-32bit-1.18.5-5.1",
            "openSUSE Tumbleweed:gstreamer-plugins-bad-lang-1.18.5-5.1",
            "openSUSE Tumbleweed:gstreamer-transcoder-1.18.5-5.1",
            "openSUSE Tumbleweed:gstreamer-transcoder-devel-1.18.5-5.1",
            "openSUSE Tumbleweed:libgstadaptivedemux-1_0-0-1.18.5-5.1",
            "openSUSE Tumbleweed:libgstadaptivedemux-1_0-0-32bit-1.18.5-5.1",
            "openSUSE Tumbleweed:libgstbadaudio-1_0-0-1.18.5-5.1",
            "openSUSE Tumbleweed:libgstbadaudio-1_0-0-32bit-1.18.5-5.1",
            "openSUSE Tumbleweed:libgstbasecamerabinsrc-1_0-0-1.18.5-5.1",
            "openSUSE Tumbleweed:libgstbasecamerabinsrc-1_0-0-32bit-1.18.5-5.1",
            "openSUSE Tumbleweed:libgstcodecparsers-1_0-0-1.18.5-5.1",
            "openSUSE Tumbleweed:libgstcodecparsers-1_0-0-32bit-1.18.5-5.1",
            "openSUSE Tumbleweed:libgstcodecs-1_0-0-1.18.5-5.1",
            "openSUSE Tumbleweed:libgstcodecs-1_0-0-32bit-1.18.5-5.1",
            "openSUSE Tumbleweed:libgstinsertbin-1_0-0-1.18.5-5.1",
            "openSUSE Tumbleweed:libgstinsertbin-1_0-0-32bit-1.18.5-5.1",
            "openSUSE Tumbleweed:libgstisoff-1_0-0-1.18.5-5.1",
            "openSUSE Tumbleweed:libgstisoff-1_0-0-32bit-1.18.5-5.1",
            "openSUSE Tumbleweed:libgstmpegts-1_0-0-1.18.5-5.1",
            "openSUSE Tumbleweed:libgstmpegts-1_0-0-32bit-1.18.5-5.1",
            "openSUSE Tumbleweed:libgstphotography-1_0-0-1.18.5-5.1",
            "openSUSE Tumbleweed:libgstphotography-1_0-0-32bit-1.18.5-5.1",
            "openSUSE Tumbleweed:libgstplayer-1_0-0-1.18.5-5.1",
            "openSUSE Tumbleweed:libgstplayer-1_0-0-32bit-1.18.5-5.1",
            "openSUSE Tumbleweed:libgstsctp-1_0-0-1.18.5-5.1",
            "openSUSE Tumbleweed:libgstsctp-1_0-0-32bit-1.18.5-5.1",
            "openSUSE Tumbleweed:libgsttranscoder-1_0-0-1.18.5-5.1",
            "openSUSE Tumbleweed:libgsturidownloader-1_0-0-1.18.5-5.1",
            "openSUSE Tumbleweed:libgsturidownloader-1_0-0-32bit-1.18.5-5.1",
            "openSUSE Tumbleweed:libgstvulkan-1_0-0-1.18.5-5.1",
            "openSUSE Tumbleweed:libgstvulkan-1_0-0-32bit-1.18.5-5.1",
            "openSUSE Tumbleweed:libgstwayland-1_0-0-1.18.5-5.1",
            "openSUSE Tumbleweed:libgstwayland-1_0-0-32bit-1.18.5-5.1",
            "openSUSE Tumbleweed:libgstwebrtc-1_0-0-1.18.5-5.1",
            "openSUSE Tumbleweed:libgstwebrtc-1_0-0-32bit-1.18.5-5.1",
            "openSUSE Tumbleweed:typelib-1_0-GstBadAudio-1_0-1.18.5-5.1",
            "openSUSE Tumbleweed:typelib-1_0-GstCodecs-1_0-1.18.5-5.1",
            "openSUSE Tumbleweed:typelib-1_0-GstInsertBin-1_0-1.18.5-5.1",
            "openSUSE Tumbleweed:typelib-1_0-GstMpegts-1_0-1.18.5-5.1",
            "openSUSE Tumbleweed:typelib-1_0-GstPlayer-1_0-1.18.5-5.1",
            "openSUSE Tumbleweed:typelib-1_0-GstTranscoder-1_0-1.18.5-5.1",
            "openSUSE Tumbleweed:typelib-1_0-GstVulkan-1_0-1.18.5-5.1",
            "openSUSE Tumbleweed:typelib-1_0-GstVulkanWayland-1_0-1.18.5-5.1",
            "openSUSE Tumbleweed:typelib-1_0-GstVulkanXCB-1_0-1.18.5-5.1",
            "openSUSE Tumbleweed:typelib-1_0-GstWebRTC-1_0-1.18.5-5.1"
          ]
        }
      ],
      "CVSSScoreSets": {}
    }
  ]
}