{
  "Title": "kernel-devel-5.14.14-1.1 on GA media",
  "Tracking": {
    "ID": "openSUSE-SU-2024:11590-1",
    "Status": "Final",
    "Version": "1",
    "InitialReleaseDate": "2024-06-22T21:44:56Z",
    "CurrentReleaseDate": "2024-06-22T21:44:56Z",
    "RevisionHistory": [
      {
        "Number": "1",
        "Date": "2024-06-22T21:44:56Z",
        "Description": "current"
      }
    ]
  },
  "Notes": [
    {
      "Text": "kernel-devel-5.14.14-1.1 on GA media",
      "Title": "Topic",
      "Type": "Summary"
    },
    {
      "Text": "These are all security issues fixed in the kernel-devel-5.14.14-1.1 package on the GA media of openSUSE Tumbleweed.",
      "Title": "Details",
      "Type": "General"
    },
    {
      "Text": "The CVRF data is provided by SUSE under the Creative Commons License 4.0 with Attribution (CC-BY-4.0).",
      "Title": "Terms of Use",
      "Type": "Legal Disclaimer"
    },
    {
      "Text": "openSUSE-Tumbleweed-2024-11590",
      "Title": "Patchnames",
      "Type": "Details"
    }
  ],
  "ProductTree": {
    "Relationships": [
      {
        "ProductReference": "kernel-devel-5.14.14-1.1",
        "RelatesToProductReference": "openSUSE Tumbleweed",
        "RelationType": "Default Component Of"
      },
      {
        "ProductReference": "kernel-macros-5.14.14-1.1",
        "RelatesToProductReference": "openSUSE Tumbleweed",
        "RelationType": "Default Component Of"
      },
      {
        "ProductReference": "kernel-source-5.14.14-1.1",
        "RelatesToProductReference": "openSUSE Tumbleweed",
        "RelationType": "Default Component Of"
      },
      {
        "ProductReference": "kernel-source-vanilla-5.14.14-1.1",
        "RelatesToProductReference": "openSUSE Tumbleweed",
        "RelationType": "Default Component Of"
      }
    ]
  },
  "References": [
    {
      "URL": "https://www.suse.com/support/security/rating/",
      "Description": "SUSE Security Ratings"
    },
    {
      "URL": "https://www.suse.com/security/cve/CVE-2021-3542/",
      "Description": "SUSE CVE CVE-2021-3542 page"
    }
  ],
  "Vulnerabilities": [
    {
      "CVE": "CVE-2021-3542",
      "Description": "** REJECT ** DO NOT USE THIS CANDIDATE NUMBER. ConsultIDs: CVE-2021-42739. Reason: This candidate is a reservation duplicate of CVE-2021-42739. Notes: All CVE users should reference CVE-2021-42739 instead of this candidate. All references and descriptions in this candidate have been removed to prevent accidental usage.",
      "Threats": [
        {
          "Type": "Impact",
          "Severity": "important"
        }
      ],
      "References": [
        {
          "URL": "https://www.suse.com/security/cve/CVE-2021-3542.html",
          "Description": "CVE-2021-3542"
        },
        {
          "URL": "https://bugzilla.suse.com/1184673",
          "Description": "SUSE Bug 1184673"
        },
        {
          "URL": "https://bugzilla.suse.com/1186063",
          "Description": "SUSE Bug 1186063"
        }
      ],
      "ProductStatuses": [
        {
          "Type": "Fixed",
          "ProductID": [
            "openSUSE Tumbleweed:kernel-devel-5.14.14-1.1",
            "openSUSE Tumbleweed:kernel-macros-5.14.14-1.1",
            "openSUSE Tumbleweed:kernel-source-5.14.14-1.1",
            "openSUSE Tumbleweed:kernel-source-vanilla-5.14.14-1.1"
          ]
        }
      ],
      "CVSSScoreSets": {}
    }
  ]
}