{
  "Title": "libasn1-8-7.8.0-3.1 on GA media",
  "Tracking": {
    "ID": "openSUSE-SU-2024:12846-1",
    "Status": "Final",
    "Version": "1",
    "InitialReleaseDate": "2024-06-20T21:44:22Z",
    "CurrentReleaseDate": "2024-06-20T21:44:22Z",
    "RevisionHistory": [
      {
        "Number": "1",
        "Date": "2024-06-20T21:44:22Z",
        "Description": "current"
      }
    ]
  },
  "Notes": [
    {
      "Text": "libasn1-8-7.8.0-3.1 on GA media",
      "Title": "Topic",
      "Type": "Summary"
    },
    {
      "Text": "These are all security issues fixed in the libasn1-8-7.8.0-3.1 package on the GA media of openSUSE Tumbleweed.",
      "Title": "Details",
      "Type": "General"
    },
    {
      "Text": "The CVRF data is provided by SUSE under the Creative Commons License 4.0 with Attribution (CC-BY-4.0).",
      "Title": "Terms of Use",
      "Type": "Legal Disclaimer"
    },
    {
      "Text": "openSUSE-Tumbleweed-2024-12846",
      "Title": "Patchnames",
      "Type": "Details"
    }
  ],
  "ProductTree": {
    "Relationships": [
      {
        "ProductReference": "libasn1-8-7.8.0-3.1",
        "RelatesToProductReference": "openSUSE Tumbleweed",
        "RelationType": "Default Component Of"
      },
      {
        "ProductReference": "libgssapi3-7.8.0-3.1",
        "RelatesToProductReference": "openSUSE Tumbleweed",
        "RelationType": "Default Component Of"
      },
      {
        "ProductReference": "libhcrypto4-7.8.0-3.1",
        "RelatesToProductReference": "openSUSE Tumbleweed",
        "RelationType": "Default Component Of"
      },
      {
        "ProductReference": "libhdb9-7.8.0-3.1",
        "RelatesToProductReference": "openSUSE Tumbleweed",
        "RelationType": "Default Component Of"
      },
      {
        "ProductReference": "libheimbase1-7.8.0-3.1",
        "RelatesToProductReference": "openSUSE Tumbleweed",
        "RelationType": "Default Component Of"
      },
      {
        "ProductReference": "libheimdal-devel-7.8.0-3.1",
        "RelatesToProductReference": "openSUSE Tumbleweed",
        "RelationType": "Default Component Of"
      },
      {
        "ProductReference": "libheimedit0-7.8.0-3.1",
        "RelatesToProductReference": "openSUSE Tumbleweed",
        "RelationType": "Default Component Of"
      },
      {
        "ProductReference": "libheimntlm0-7.8.0-3.1",
        "RelatesToProductReference": "openSUSE Tumbleweed",
        "RelationType": "Default Component Of"
      },
      {
        "ProductReference": "libhx509-5-7.8.0-3.1",
        "RelatesToProductReference": "openSUSE Tumbleweed",
        "RelationType": "Default Component Of"
      },
      {
        "ProductReference": "libkadm5clnt7-7.8.0-3.1",
        "RelatesToProductReference": "openSUSE Tumbleweed",
        "RelationType": "Default Component Of"
      },
      {
        "ProductReference": "libkadm5srv8-7.8.0-3.1",
        "RelatesToProductReference": "openSUSE Tumbleweed",
        "RelationType": "Default Component Of"
      },
      {
        "ProductReference": "libkafs0-7.8.0-3.1",
        "RelatesToProductReference": "openSUSE Tumbleweed",
        "RelationType": "Default Component Of"
      },
      {
        "ProductReference": "libkdc2-7.8.0-3.1",
        "RelatesToProductReference": "openSUSE Tumbleweed",
        "RelationType": "Default Component Of"
      },
      {
        "ProductReference": "libkrb5-26-7.8.0-3.1",
        "RelatesToProductReference": "openSUSE Tumbleweed",
        "RelationType": "Default Component Of"
      },
      {
        "ProductReference": "libotp0-7.8.0-3.1",
        "RelatesToProductReference": "openSUSE Tumbleweed",
        "RelationType": "Default Component Of"
      },
      {
        "ProductReference": "libroken18-7.8.0-3.1",
        "RelatesToProductReference": "openSUSE Tumbleweed",
        "RelationType": "Default Component Of"
      },
      {
        "ProductReference": "libsl0-7.8.0-3.1",
        "RelatesToProductReference": "openSUSE Tumbleweed",
        "RelationType": "Default Component Of"
      },
      {
        "ProductReference": "libwind0-7.8.0-3.1",
        "RelatesToProductReference": "openSUSE Tumbleweed",
        "RelationType": "Default Component Of"
      }
    ]
  },
  "References": [
    {
      "URL": "https://www.suse.com/support/security/rating/",
      "Description": "SUSE Security Ratings"
    },
    {
      "URL": "https://www.suse.com/security/cve/CVE-2022-45142/",
      "Description": "SUSE CVE CVE-2022-45142 page"
    }
  ],
  "Vulnerabilities": [
    {
      "CVE": "CVE-2022-45142",
      "Description": "The fix for CVE-2022-3437 included changing memcmp to be constant time and a workaround for a compiler bug by adding \"!= 0\" comparisons to the result of memcmp. When these patches were backported to the heimdal-7.7.1 and heimdal-7.8.0 branches (and possibly other branches) a logic inversion sneaked in causing the validation of message integrity codes in gssapi/arcfour to be inverted.",
      "Threats": [
        {
          "Type": "Impact",
          "Severity": "moderate"
        }
      ],
      "References": [
        {
          "URL": "https://www.suse.com/security/cve/CVE-2022-45142.html",
          "Description": "CVE-2022-45142"
        },
        {
          "URL": "https://bugzilla.suse.com/1208992",
          "Description": "SUSE Bug 1208992"
        }
      ],
      "ProductStatuses": [
        {
          "Type": "Fixed",
          "ProductID": [
            "openSUSE Tumbleweed:libasn1-8-7.8.0-3.1",
            "openSUSE Tumbleweed:libgssapi3-7.8.0-3.1",
            "openSUSE Tumbleweed:libhcrypto4-7.8.0-3.1",
            "openSUSE Tumbleweed:libhdb9-7.8.0-3.1",
            "openSUSE Tumbleweed:libheimbase1-7.8.0-3.1",
            "openSUSE Tumbleweed:libheimdal-devel-7.8.0-3.1",
            "openSUSE Tumbleweed:libheimedit0-7.8.0-3.1",
            "openSUSE Tumbleweed:libheimntlm0-7.8.0-3.1",
            "openSUSE Tumbleweed:libhx509-5-7.8.0-3.1",
            "openSUSE Tumbleweed:libkadm5clnt7-7.8.0-3.1",
            "openSUSE Tumbleweed:libkadm5srv8-7.8.0-3.1",
            "openSUSE Tumbleweed:libkafs0-7.8.0-3.1",
            "openSUSE Tumbleweed:libkdc2-7.8.0-3.1",
            "openSUSE Tumbleweed:libkrb5-26-7.8.0-3.1",
            "openSUSE Tumbleweed:libotp0-7.8.0-3.1",
            "openSUSE Tumbleweed:libroken18-7.8.0-3.1",
            "openSUSE Tumbleweed:libsl0-7.8.0-3.1",
            "openSUSE Tumbleweed:libwind0-7.8.0-3.1"
          ]
        }
      ],
      "CVSSScoreSets": {}
    }
  ]
}