{
  "Title": "haproxy-2.5.4+git0.e55ab4208-1.1 on GA media",
  "Tracking": {
    "ID": "openSUSE-SU-2024:11876-1",
    "Status": "Final",
    "Version": "1",
    "InitialReleaseDate": "2024-06-22T21:44:56Z",
    "CurrentReleaseDate": "2024-06-22T21:44:56Z",
    "RevisionHistory": [
      {
        "Number": "1",
        "Date": "2024-06-22T21:44:56Z",
        "Description": "current"
      }
    ]
  },
  "Notes": [
    {
      "Text": "haproxy-2.5.4+git0.e55ab4208-1.1 on GA media",
      "Title": "Topic",
      "Type": "Summary"
    },
    {
      "Text": "These are all security issues fixed in the haproxy-2.5.4+git0.e55ab4208-1.1 package on the GA media of openSUSE Tumbleweed.",
      "Title": "Details",
      "Type": "General"
    },
    {
      "Text": "The CVRF data is provided by SUSE under the Creative Commons License 4.0 with Attribution (CC-BY-4.0).",
      "Title": "Terms of Use",
      "Type": "Legal Disclaimer"
    },
    {
      "Text": "openSUSE-Tumbleweed-2024-11876",
      "Title": "Patchnames",
      "Type": "Details"
    }
  ],
  "ProductTree": {
    "Relationships": [
      {
        "ProductReference": "haproxy-2.5.4+git0.e55ab4208-1.1",
        "RelatesToProductReference": "openSUSE Tumbleweed",
        "RelationType": "Default Component Of"
      }
    ]
  },
  "References": [
    {
      "URL": "https://www.suse.com/support/security/rating/",
      "Description": "SUSE Security Ratings"
    },
    {
      "URL": "https://www.suse.com/security/cve/CVE-2022-0711/",
      "Description": "SUSE CVE CVE-2022-0711 page"
    }
  ],
  "Vulnerabilities": [
    {
      "CVE": "CVE-2022-0711",
      "Description": "A flaw was found in the way HAProxy processed HTTP responses containing the \"Set-Cookie2\" header. This flaw could allow an attacker to send crafted HTTP response packets which lead to an infinite loop, eventually resulting in a denial of service condition. The highest threat from this vulnerability is availability.",
      "Threats": [
        {
          "Type": "Impact",
          "Severity": "moderate"
        }
      ],
      "References": [
        {
          "URL": "https://www.suse.com/security/cve/CVE-2022-0711.html",
          "Description": "CVE-2022-0711"
        },
        {
          "URL": "https://bugzilla.suse.com/1196408",
          "Description": "SUSE Bug 1196408"
        }
      ],
      "ProductStatuses": [
        {
          "Type": "Fixed",
          "ProductID": [
            "openSUSE Tumbleweed:haproxy-2.5.4+git0.e55ab4208-1.1"
          ]
        }
      ],
      "CVSSScoreSets": {}
    }
  ]
}