{
  "Title": "libsvn_auth_gnome_keyring-1-0-1.9.5-1.1 on GA media",
  "Tracking": {
    "ID": "openSUSE-SU-2024:10538-1",
    "Status": "Final",
    "Version": "1",
    "InitialReleaseDate": "2024-06-22T21:44:56Z",
    "CurrentReleaseDate": "2024-06-22T21:44:56Z",
    "RevisionHistory": [
      {
        "Number": "1",
        "Date": "2024-06-22T21:44:56Z",
        "Description": "current"
      }
    ]
  },
  "Notes": [
    {
      "Text": "libsvn_auth_gnome_keyring-1-0-1.9.5-1.1 on GA media",
      "Title": "Topic",
      "Type": "Summary"
    },
    {
      "Text": "These are all security issues fixed in the libsvn_auth_gnome_keyring-1-0-1.9.5-1.1 package on the GA media of openSUSE Tumbleweed.",
      "Title": "Details",
      "Type": "General"
    },
    {
      "Text": "The CVRF data is provided by SUSE under the Creative Commons License 4.0 with Attribution (CC-BY-4.0).",
      "Title": "Terms of Use",
      "Type": "Legal Disclaimer"
    },
    {
      "Text": "openSUSE-Tumbleweed-2024-10538",
      "Title": "Patchnames",
      "Type": "Details"
    }
  ],
  "ProductTree": {
    "Relationships": [
      {
        "ProductReference": "libsvn_auth_gnome_keyring-1-0-1.9.5-1.1",
        "RelatesToProductReference": "openSUSE Tumbleweed",
        "RelationType": "Default Component Of"
      },
      {
        "ProductReference": "libsvn_auth_kwallet-1-0-1.9.5-1.1",
        "RelatesToProductReference": "openSUSE Tumbleweed",
        "RelationType": "Default Component Of"
      },
      {
        "ProductReference": "subversion-1.9.5-1.1",
        "RelatesToProductReference": "openSUSE Tumbleweed",
        "RelationType": "Default Component Of"
      },
      {
        "ProductReference": "subversion-bash-completion-1.9.5-1.1",
        "RelatesToProductReference": "openSUSE Tumbleweed",
        "RelationType": "Default Component Of"
      },
      {
        "ProductReference": "subversion-devel-1.9.5-1.1",
        "RelatesToProductReference": "openSUSE Tumbleweed",
        "RelationType": "Default Component Of"
      },
      {
        "ProductReference": "subversion-perl-1.9.5-1.1",
        "RelatesToProductReference": "openSUSE Tumbleweed",
        "RelationType": "Default Component Of"
      },
      {
        "ProductReference": "subversion-python-1.9.5-1.1",
        "RelatesToProductReference": "openSUSE Tumbleweed",
        "RelationType": "Default Component Of"
      },
      {
        "ProductReference": "subversion-python-ctypes-1.9.5-1.1",
        "RelatesToProductReference": "openSUSE Tumbleweed",
        "RelationType": "Default Component Of"
      },
      {
        "ProductReference": "subversion-ruby-1.9.5-1.1",
        "RelatesToProductReference": "openSUSE Tumbleweed",
        "RelationType": "Default Component Of"
      },
      {
        "ProductReference": "subversion-server-1.9.5-1.1",
        "RelatesToProductReference": "openSUSE Tumbleweed",
        "RelationType": "Default Component Of"
      },
      {
        "ProductReference": "subversion-tools-1.9.5-1.1",
        "RelatesToProductReference": "openSUSE Tumbleweed",
        "RelationType": "Default Component Of"
      }
    ]
  },
  "References": [
    {
      "URL": "https://www.suse.com/support/security/rating/",
      "Description": "SUSE Security Ratings"
    },
    {
      "URL": "https://www.suse.com/security/cve/CVE-2009-2411/",
      "Description": "SUSE CVE CVE-2009-2411 page"
    },
    {
      "URL": "https://www.suse.com/security/cve/CVE-2010-3315/",
      "Description": "SUSE CVE CVE-2010-3315 page"
    },
    {
      "URL": "https://www.suse.com/security/cve/CVE-2010-4539/",
      "Description": "SUSE CVE CVE-2010-4539 page"
    },
    {
      "URL": "https://www.suse.com/security/cve/CVE-2010-4644/",
      "Description": "SUSE CVE CVE-2010-4644 page"
    },
    {
      "URL": "https://www.suse.com/security/cve/CVE-2011-0715/",
      "Description": "SUSE CVE CVE-2011-0715 page"
    },
    {
      "URL": "https://www.suse.com/security/cve/CVE-2011-1752/",
      "Description": "SUSE CVE CVE-2011-1752 page"
    },
    {
      "URL": "https://www.suse.com/security/cve/CVE-2011-1783/",
      "Description": "SUSE CVE CVE-2011-1783 page"
    },
    {
      "URL": "https://www.suse.com/security/cve/CVE-2011-1921/",
      "Description": "SUSE CVE CVE-2011-1921 page"
    },
    {
      "URL": "https://www.suse.com/security/cve/CVE-2013-1845/",
      "Description": "SUSE CVE CVE-2013-1845 page"
    },
    {
      "URL": "https://www.suse.com/security/cve/CVE-2013-1846/",
      "Description": "SUSE CVE CVE-2013-1846 page"
    },
    {
      "URL": "https://www.suse.com/security/cve/CVE-2013-1847/",
      "Description": "SUSE CVE CVE-2013-1847 page"
    },
    {
      "URL": "https://www.suse.com/security/cve/CVE-2013-1849/",
      "Description": "SUSE CVE CVE-2013-1849 page"
    },
    {
      "URL": "https://www.suse.com/security/cve/CVE-2013-1884/",
      "Description": "SUSE CVE CVE-2013-1884 page"
    },
    {
      "URL": "https://www.suse.com/security/cve/CVE-2013-1968/",
      "Description": "SUSE CVE CVE-2013-1968 page"
    },
    {
      "URL": "https://www.suse.com/security/cve/CVE-2013-2088/",
      "Description": "SUSE CVE CVE-2013-2088 page"
    },
    {
      "URL": "https://www.suse.com/security/cve/CVE-2013-2112/",
      "Description": "SUSE CVE CVE-2013-2112 page"
    },
    {
      "URL": "https://www.suse.com/security/cve/CVE-2013-4131/",
      "Description": "SUSE CVE CVE-2013-4131 page"
    },
    {
      "URL": "https://www.suse.com/security/cve/CVE-2013-4246/",
      "Description": "SUSE CVE CVE-2013-4246 page"
    },
    {
      "URL": "https://www.suse.com/security/cve/CVE-2013-4262/",
      "Description": "SUSE CVE CVE-2013-4262 page"
    },
    {
      "URL": "https://www.suse.com/security/cve/CVE-2013-4277/",
      "Description": "SUSE CVE CVE-2013-4277 page"
    },
    {
      "URL": "https://www.suse.com/security/cve/CVE-2013-4505/",
      "Description": "SUSE CVE CVE-2013-4505 page"
    },
    {
      "URL": "https://www.suse.com/security/cve/CVE-2013-4558/",
      "Description": "SUSE CVE CVE-2013-4558 page"
    },
    {
      "URL": "https://www.suse.com/security/cve/CVE-2014-0032/",
      "Description": "SUSE CVE CVE-2014-0032 page"
    },
    {
      "URL": "https://www.suse.com/security/cve/CVE-2014-3522/",
      "Description": "SUSE CVE CVE-2014-3522 page"
    },
    {
      "URL": "https://www.suse.com/security/cve/CVE-2014-3528/",
      "Description": "SUSE CVE CVE-2014-3528 page"
    },
    {
      "URL": "https://www.suse.com/security/cve/CVE-2014-3580/",
      "Description": "SUSE CVE CVE-2014-3580 page"
    },
    {
      "URL": "https://www.suse.com/security/cve/CVE-2014-8108/",
      "Description": "SUSE CVE CVE-2014-8108 page"
    },
    {
      "URL": "https://www.suse.com/security/cve/CVE-2015-0202/",
      "Description": "SUSE CVE CVE-2015-0202 page"
    },
    {
      "URL": "https://www.suse.com/security/cve/CVE-2015-0248/",
      "Description": "SUSE CVE CVE-2015-0248 page"
    },
    {
      "URL": "https://www.suse.com/security/cve/CVE-2015-0251/",
      "Description": "SUSE CVE CVE-2015-0251 page"
    },
    {
      "URL": "https://www.suse.com/security/cve/CVE-2015-3184/",
      "Description": "SUSE CVE CVE-2015-3184 page"
    },
    {
      "URL": "https://www.suse.com/security/cve/CVE-2015-3187/",
      "Description": "SUSE CVE CVE-2015-3187 page"
    },
    {
      "URL": "https://www.suse.com/security/cve/CVE-2015-5259/",
      "Description": "SUSE CVE CVE-2015-5259 page"
    },
    {
      "URL": "https://www.suse.com/security/cve/CVE-2015-5343/",
      "Description": "SUSE CVE CVE-2015-5343 page"
    },
    {
      "URL": "https://www.suse.com/security/cve/CVE-2016-2167/",
      "Description": "SUSE CVE CVE-2016-2167 page"
    },
    {
      "URL": "https://www.suse.com/security/cve/CVE-2016-2168/",
      "Description": "SUSE CVE CVE-2016-2168 page"
    },
    {
      "URL": "https://www.suse.com/security/cve/CVE-2016-8734/",
      "Description": "SUSE CVE CVE-2016-8734 page"
    }
  ],
  "Vulnerabilities": [
    {
      "CVE": "CVE-2009-2411",
      "Description": "Multiple integer overflows in the libsvn_delta library in Subversion before 1.5.7, and 1.6.x before 1.6.4, allow remote authenticated users and remote Subversion servers to execute arbitrary code via an svndiff stream with large windows that trigger a heap-based buffer overflow, a related issue to CVE-2009-2412.",
      "Threats": [
        {
          "Type": "Impact",
          "Severity": "moderate"
        }
      ],
      "References": [
        {
          "URL": "https://www.suse.com/security/cve/CVE-2009-2411.html",
          "Description": "CVE-2009-2411"
        },
        {
          "URL": "https://bugzilla.suse.com/528714",
          "Description": "SUSE Bug 528714"
        },
        {
          "URL": "https://bugzilla.suse.com/802057",
          "Description": "SUSE Bug 802057"
        }
      ],
      "ProductStatuses": [
        {
          "Type": "Fixed",
          "ProductID": [
            "openSUSE Tumbleweed:libsvn_auth_gnome_keyring-1-0-1.9.5-1.1",
            "openSUSE Tumbleweed:libsvn_auth_kwallet-1-0-1.9.5-1.1",
            "openSUSE Tumbleweed:subversion-1.9.5-1.1",
            "openSUSE Tumbleweed:subversion-bash-completion-1.9.5-1.1",
            "openSUSE Tumbleweed:subversion-devel-1.9.5-1.1",
            "openSUSE Tumbleweed:subversion-perl-1.9.5-1.1",
            "openSUSE Tumbleweed:subversion-python-1.9.5-1.1",
            "openSUSE Tumbleweed:subversion-python-ctypes-1.9.5-1.1",
            "openSUSE Tumbleweed:subversion-ruby-1.9.5-1.1",
            "openSUSE Tumbleweed:subversion-server-1.9.5-1.1",
            "openSUSE Tumbleweed:subversion-tools-1.9.5-1.1"
          ]
        }
      ],
      "CVSSScoreSets": {}
    },
    {
      "CVE": "CVE-2010-3315",
      "Description": "authz.c in the mod_dav_svn module for the Apache HTTP Server, as distributed in Apache Subversion 1.5.x before 1.5.8 and 1.6.x before 1.6.13, when SVNPathAuthz short_circuit is enabled, does not properly handle a named repository as a rule scope, which allows remote authenticated users to bypass intended access restrictions via svn commands.",
      "Threats": [
        {
          "Type": "Impact",
          "Severity": "moderate"
        }
      ],
      "References": [
        {
          "URL": "https://www.suse.com/security/cve/CVE-2010-3315.html",
          "Description": "CVE-2010-3315"
        },
        {
          "URL": "https://bugzilla.suse.com/649861",
          "Description": "SUSE Bug 649861"
        }
      ],
      "ProductStatuses": [
        {
          "Type": "Fixed",
          "ProductID": [
            "openSUSE Tumbleweed:libsvn_auth_gnome_keyring-1-0-1.9.5-1.1",
            "openSUSE Tumbleweed:libsvn_auth_kwallet-1-0-1.9.5-1.1",
            "openSUSE Tumbleweed:subversion-1.9.5-1.1",
            "openSUSE Tumbleweed:subversion-bash-completion-1.9.5-1.1",
            "openSUSE Tumbleweed:subversion-devel-1.9.5-1.1",
            "openSUSE Tumbleweed:subversion-perl-1.9.5-1.1",
            "openSUSE Tumbleweed:subversion-python-1.9.5-1.1",
            "openSUSE Tumbleweed:subversion-python-ctypes-1.9.5-1.1",
            "openSUSE Tumbleweed:subversion-ruby-1.9.5-1.1",
            "openSUSE Tumbleweed:subversion-server-1.9.5-1.1",
            "openSUSE Tumbleweed:subversion-tools-1.9.5-1.1"
          ]
        }
      ],
      "CVSSScoreSets": {}
    },
    {
      "CVE": "CVE-2010-4539",
      "Description": "The walk function in repos.c in the mod_dav_svn module for the Apache HTTP Server, as distributed in Apache Subversion before 1.6.15, allows remote authenticated users to cause a denial of service (NULL pointer dereference and daemon crash) via vectors that trigger the walking of SVNParentPath collections.",
      "Threats": [
        {
          "Type": "Impact",
          "Severity": "moderate"
        }
      ],
      "References": [
        {
          "URL": "https://www.suse.com/security/cve/CVE-2010-4539.html",
          "Description": "CVE-2010-4539"
        },
        {
          "URL": "https://bugzilla.suse.com/662030",
          "Description": "SUSE Bug 662030"
        }
      ],
      "ProductStatuses": [
        {
          "Type": "Fixed",
          "ProductID": [
            "openSUSE Tumbleweed:libsvn_auth_gnome_keyring-1-0-1.9.5-1.1",
            "openSUSE Tumbleweed:libsvn_auth_kwallet-1-0-1.9.5-1.1",
            "openSUSE Tumbleweed:subversion-1.9.5-1.1",
            "openSUSE Tumbleweed:subversion-bash-completion-1.9.5-1.1",
            "openSUSE Tumbleweed:subversion-devel-1.9.5-1.1",
            "openSUSE Tumbleweed:subversion-perl-1.9.5-1.1",
            "openSUSE Tumbleweed:subversion-python-1.9.5-1.1",
            "openSUSE Tumbleweed:subversion-python-ctypes-1.9.5-1.1",
            "openSUSE Tumbleweed:subversion-ruby-1.9.5-1.1",
            "openSUSE Tumbleweed:subversion-server-1.9.5-1.1",
            "openSUSE Tumbleweed:subversion-tools-1.9.5-1.1"
          ]
        }
      ],
      "CVSSScoreSets": {}
    },
    {
      "CVE": "CVE-2010-4644",
      "Description": "Multiple memory leaks in rev_hunt.c in Apache Subversion before 1.6.15 allow remote authenticated users to cause a denial of service (memory consumption and daemon crash) via the -g option to the blame command.",
      "Threats": [
        {
          "Type": "Impact",
          "Severity": "moderate"
        }
      ],
      "References": [
        {
          "URL": "https://www.suse.com/security/cve/CVE-2010-4644.html",
          "Description": "CVE-2010-4644"
        },
        {
          "URL": "https://bugzilla.suse.com/662030",
          "Description": "SUSE Bug 662030"
        }
      ],
      "ProductStatuses": [
        {
          "Type": "Fixed",
          "ProductID": [
            "openSUSE Tumbleweed:libsvn_auth_gnome_keyring-1-0-1.9.5-1.1",
            "openSUSE Tumbleweed:libsvn_auth_kwallet-1-0-1.9.5-1.1",
            "openSUSE Tumbleweed:subversion-1.9.5-1.1",
            "openSUSE Tumbleweed:subversion-bash-completion-1.9.5-1.1",
            "openSUSE Tumbleweed:subversion-devel-1.9.5-1.1",
            "openSUSE Tumbleweed:subversion-perl-1.9.5-1.1",
            "openSUSE Tumbleweed:subversion-python-1.9.5-1.1",
            "openSUSE Tumbleweed:subversion-python-ctypes-1.9.5-1.1",
            "openSUSE Tumbleweed:subversion-ruby-1.9.5-1.1",
            "openSUSE Tumbleweed:subversion-server-1.9.5-1.1",
            "openSUSE Tumbleweed:subversion-tools-1.9.5-1.1"
          ]
        }
      ],
      "CVSSScoreSets": {}
    },
    {
      "CVE": "CVE-2011-0715",
      "Description": "The mod_dav_svn module for the Apache HTTP Server, as distributed in Apache Subversion before 1.6.16, allows remote attackers to cause a denial of service (NULL pointer dereference and daemon crash) via a request that contains a lock token.",
      "Threats": [
        {
          "Type": "Impact",
          "Severity": "moderate"
        }
      ],
      "References": [
        {
          "URL": "https://www.suse.com/security/cve/CVE-2011-0715.html",
          "Description": "CVE-2011-0715"
        },
        {
          "URL": "https://bugzilla.suse.com/676949",
          "Description": "SUSE Bug 676949"
        }
      ],
      "ProductStatuses": [
        {
          "Type": "Fixed",
          "ProductID": [
            "openSUSE Tumbleweed:libsvn_auth_gnome_keyring-1-0-1.9.5-1.1",
            "openSUSE Tumbleweed:libsvn_auth_kwallet-1-0-1.9.5-1.1",
            "openSUSE Tumbleweed:subversion-1.9.5-1.1",
            "openSUSE Tumbleweed:subversion-bash-completion-1.9.5-1.1",
            "openSUSE Tumbleweed:subversion-devel-1.9.5-1.1",
            "openSUSE Tumbleweed:subversion-perl-1.9.5-1.1",
            "openSUSE Tumbleweed:subversion-python-1.9.5-1.1",
            "openSUSE Tumbleweed:subversion-python-ctypes-1.9.5-1.1",
            "openSUSE Tumbleweed:subversion-ruby-1.9.5-1.1",
            "openSUSE Tumbleweed:subversion-server-1.9.5-1.1",
            "openSUSE Tumbleweed:subversion-tools-1.9.5-1.1"
          ]
        }
      ],
      "CVSSScoreSets": {}
    },
    {
      "CVE": "CVE-2011-1752",
      "Description": "The mod_dav_svn module for the Apache HTTP Server, as distributed in Apache Subversion before 1.6.17, allows remote attackers to cause a denial of service (NULL pointer dereference and daemon crash) via a request for a baselined WebDAV resource, as exploited in the wild in May 2011.",
      "Threats": [
        {
          "Type": "Impact",
          "Severity": "moderate"
        }
      ],
      "References": [
        {
          "URL": "https://www.suse.com/security/cve/CVE-2011-1752.html",
          "Description": "CVE-2011-1752"
        },
        {
          "URL": "https://bugzilla.suse.com/698205",
          "Description": "SUSE Bug 698205"
        }
      ],
      "ProductStatuses": [
        {
          "Type": "Fixed",
          "ProductID": [
            "openSUSE Tumbleweed:libsvn_auth_gnome_keyring-1-0-1.9.5-1.1",
            "openSUSE Tumbleweed:libsvn_auth_kwallet-1-0-1.9.5-1.1",
            "openSUSE Tumbleweed:subversion-1.9.5-1.1",
            "openSUSE Tumbleweed:subversion-bash-completion-1.9.5-1.1",
            "openSUSE Tumbleweed:subversion-devel-1.9.5-1.1",
            "openSUSE Tumbleweed:subversion-perl-1.9.5-1.1",
            "openSUSE Tumbleweed:subversion-python-1.9.5-1.1",
            "openSUSE Tumbleweed:subversion-python-ctypes-1.9.5-1.1",
            "openSUSE Tumbleweed:subversion-ruby-1.9.5-1.1",
            "openSUSE Tumbleweed:subversion-server-1.9.5-1.1",
            "openSUSE Tumbleweed:subversion-tools-1.9.5-1.1"
          ]
        }
      ],
      "CVSSScoreSets": {}
    },
    {
      "CVE": "CVE-2011-1783",
      "Description": "The mod_dav_svn module for the Apache HTTP Server, as distributed in Apache Subversion 1.5.x and 1.6.x before 1.6.17, when the SVNPathAuthz short_circuit option is enabled, allows remote attackers to cause a denial of service (infinite loop and memory consumption) in opportunistic circumstances by requesting data.",
      "Threats": [
        {
          "Type": "Impact",
          "Severity": "moderate"
        }
      ],
      "References": [
        {
          "URL": "https://www.suse.com/security/cve/CVE-2011-1783.html",
          "Description": "CVE-2011-1783"
        },
        {
          "URL": "https://bugzilla.suse.com/698205",
          "Description": "SUSE Bug 698205"
        }
      ],
      "ProductStatuses": [
        {
          "Type": "Fixed",
          "ProductID": [
            "openSUSE Tumbleweed:libsvn_auth_gnome_keyring-1-0-1.9.5-1.1",
            "openSUSE Tumbleweed:libsvn_auth_kwallet-1-0-1.9.5-1.1",
            "openSUSE Tumbleweed:subversion-1.9.5-1.1",
            "openSUSE Tumbleweed:subversion-bash-completion-1.9.5-1.1",
            "openSUSE Tumbleweed:subversion-devel-1.9.5-1.1",
            "openSUSE Tumbleweed:subversion-perl-1.9.5-1.1",
            "openSUSE Tumbleweed:subversion-python-1.9.5-1.1",
            "openSUSE Tumbleweed:subversion-python-ctypes-1.9.5-1.1",
            "openSUSE Tumbleweed:subversion-ruby-1.9.5-1.1",
            "openSUSE Tumbleweed:subversion-server-1.9.5-1.1",
            "openSUSE Tumbleweed:subversion-tools-1.9.5-1.1"
          ]
        }
      ],
      "CVSSScoreSets": {}
    },
    {
      "CVE": "CVE-2011-1921",
      "Description": "The mod_dav_svn module for the Apache HTTP Server, as distributed in Apache Subversion 1.5.x and 1.6.x before 1.6.17, when the SVNPathAuthz short_circuit option is disabled, does not properly enforce permissions for files that had been publicly readable in the past, which allows remote attackers to obtain sensitive information via a replay REPORT operation.",
      "Threats": [
        {
          "Type": "Impact",
          "Severity": "moderate"
        }
      ],
      "References": [
        {
          "URL": "https://www.suse.com/security/cve/CVE-2011-1921.html",
          "Description": "CVE-2011-1921"
        },
        {
          "URL": "https://bugzilla.suse.com/698205",
          "Description": "SUSE Bug 698205"
        }
      ],
      "ProductStatuses": [
        {
          "Type": "Fixed",
          "ProductID": [
            "openSUSE Tumbleweed:libsvn_auth_gnome_keyring-1-0-1.9.5-1.1",
            "openSUSE Tumbleweed:libsvn_auth_kwallet-1-0-1.9.5-1.1",
            "openSUSE Tumbleweed:subversion-1.9.5-1.1",
            "openSUSE Tumbleweed:subversion-bash-completion-1.9.5-1.1",
            "openSUSE Tumbleweed:subversion-devel-1.9.5-1.1",
            "openSUSE Tumbleweed:subversion-perl-1.9.5-1.1",
            "openSUSE Tumbleweed:subversion-python-1.9.5-1.1",
            "openSUSE Tumbleweed:subversion-python-ctypes-1.9.5-1.1",
            "openSUSE Tumbleweed:subversion-ruby-1.9.5-1.1",
            "openSUSE Tumbleweed:subversion-server-1.9.5-1.1",
            "openSUSE Tumbleweed:subversion-tools-1.9.5-1.1"
          ]
        }
      ],
      "CVSSScoreSets": {}
    },
    {
      "CVE": "CVE-2013-1845",
      "Description": "The mod_dav_svn Apache HTTPD server module in Subversion 1.6.x before 1.6.21 and 1.7.0 through 1.7.8 allows remote authenticated users to cause a denial of service (memory consumption) by (1) setting or (2) deleting a large number of properties for a file or directory.",
      "Threats": [
        {
          "Type": "Impact",
          "Severity": "low"
        }
      ],
      "References": [
        {
          "URL": "https://www.suse.com/security/cve/CVE-2013-1845.html",
          "Description": "CVE-2013-1845"
        },
        {
          "URL": "https://bugzilla.suse.com/813913",
          "Description": "SUSE Bug 813913"
        }
      ],
      "ProductStatuses": [
        {
          "Type": "Fixed",
          "ProductID": [
            "openSUSE Tumbleweed:libsvn_auth_gnome_keyring-1-0-1.9.5-1.1",
            "openSUSE Tumbleweed:libsvn_auth_kwallet-1-0-1.9.5-1.1",
            "openSUSE Tumbleweed:subversion-1.9.5-1.1",
            "openSUSE Tumbleweed:subversion-bash-completion-1.9.5-1.1",
            "openSUSE Tumbleweed:subversion-devel-1.9.5-1.1",
            "openSUSE Tumbleweed:subversion-perl-1.9.5-1.1",
            "openSUSE Tumbleweed:subversion-python-1.9.5-1.1",
            "openSUSE Tumbleweed:subversion-python-ctypes-1.9.5-1.1",
            "openSUSE Tumbleweed:subversion-ruby-1.9.5-1.1",
            "openSUSE Tumbleweed:subversion-server-1.9.5-1.1",
            "openSUSE Tumbleweed:subversion-tools-1.9.5-1.1"
          ]
        }
      ],
      "CVSSScoreSets": {}
    },
    {
      "CVE": "CVE-2013-1846",
      "Description": "The mod_dav_svn Apache HTTPD server module in Subversion 1.6.x before 1.6.21 and 1.7.0 through 1.7.8 allows remote authenticated users to cause a denial of service (NULL pointer dereference and crash) via a LOCK on an activity URL.",
      "Threats": [
        {
          "Type": "Impact",
          "Severity": "low"
        }
      ],
      "References": [
        {
          "URL": "https://www.suse.com/security/cve/CVE-2013-1846.html",
          "Description": "CVE-2013-1846"
        },
        {
          "URL": "https://bugzilla.suse.com/813913",
          "Description": "SUSE Bug 813913"
        }
      ],
      "ProductStatuses": [
        {
          "Type": "Fixed",
          "ProductID": [
            "openSUSE Tumbleweed:libsvn_auth_gnome_keyring-1-0-1.9.5-1.1",
            "openSUSE Tumbleweed:libsvn_auth_kwallet-1-0-1.9.5-1.1",
            "openSUSE Tumbleweed:subversion-1.9.5-1.1",
            "openSUSE Tumbleweed:subversion-bash-completion-1.9.5-1.1",
            "openSUSE Tumbleweed:subversion-devel-1.9.5-1.1",
            "openSUSE Tumbleweed:subversion-perl-1.9.5-1.1",
            "openSUSE Tumbleweed:subversion-python-1.9.5-1.1",
            "openSUSE Tumbleweed:subversion-python-ctypes-1.9.5-1.1",
            "openSUSE Tumbleweed:subversion-ruby-1.9.5-1.1",
            "openSUSE Tumbleweed:subversion-server-1.9.5-1.1",
            "openSUSE Tumbleweed:subversion-tools-1.9.5-1.1"
          ]
        }
      ],
      "CVSSScoreSets": {}
    },
    {
      "CVE": "CVE-2013-1847",
      "Description": "The mod_dav_svn Apache HTTPD server module in Subversion 1.6.0 through 1.6.20 and 1.7.0 through 1.7.8 allows remote attackers to cause a denial of service (NULL pointer dereference and crash) via an anonymous LOCK for a URL that does not exist.",
      "Threats": [
        {
          "Type": "Impact",
          "Severity": "moderate"
        }
      ],
      "References": [
        {
          "URL": "https://www.suse.com/security/cve/CVE-2013-1847.html",
          "Description": "CVE-2013-1847"
        },
        {
          "URL": "https://bugzilla.suse.com/813913",
          "Description": "SUSE Bug 813913"
        }
      ],
      "ProductStatuses": [
        {
          "Type": "Fixed",
          "ProductID": [
            "openSUSE Tumbleweed:libsvn_auth_gnome_keyring-1-0-1.9.5-1.1",
            "openSUSE Tumbleweed:libsvn_auth_kwallet-1-0-1.9.5-1.1",
            "openSUSE Tumbleweed:subversion-1.9.5-1.1",
            "openSUSE Tumbleweed:subversion-bash-completion-1.9.5-1.1",
            "openSUSE Tumbleweed:subversion-devel-1.9.5-1.1",
            "openSUSE Tumbleweed:subversion-perl-1.9.5-1.1",
            "openSUSE Tumbleweed:subversion-python-1.9.5-1.1",
            "openSUSE Tumbleweed:subversion-python-ctypes-1.9.5-1.1",
            "openSUSE Tumbleweed:subversion-ruby-1.9.5-1.1",
            "openSUSE Tumbleweed:subversion-server-1.9.5-1.1",
            "openSUSE Tumbleweed:subversion-tools-1.9.5-1.1"
          ]
        }
      ],
      "CVSSScoreSets": {}
    },
    {
      "CVE": "CVE-2013-1849",
      "Description": "The mod_dav_svn Apache HTTPD server module in Subversion 1.6.x through 1.6.20 and 1.7.0 through 1.7.8 allows remote attackers to cause a denial of service (NULL pointer dereference and crash) via a PROPFIND request for an activity URL.",
      "Threats": [
        {
          "Type": "Impact",
          "Severity": "moderate"
        }
      ],
      "References": [
        {
          "URL": "https://www.suse.com/security/cve/CVE-2013-1849.html",
          "Description": "CVE-2013-1849"
        },
        {
          "URL": "https://bugzilla.suse.com/813913",
          "Description": "SUSE Bug 813913"
        }
      ],
      "ProductStatuses": [
        {
          "Type": "Fixed",
          "ProductID": [
            "openSUSE Tumbleweed:libsvn_auth_gnome_keyring-1-0-1.9.5-1.1",
            "openSUSE Tumbleweed:libsvn_auth_kwallet-1-0-1.9.5-1.1",
            "openSUSE Tumbleweed:subversion-1.9.5-1.1",
            "openSUSE Tumbleweed:subversion-bash-completion-1.9.5-1.1",
            "openSUSE Tumbleweed:subversion-devel-1.9.5-1.1",
            "openSUSE Tumbleweed:subversion-perl-1.9.5-1.1",
            "openSUSE Tumbleweed:subversion-python-1.9.5-1.1",
            "openSUSE Tumbleweed:subversion-python-ctypes-1.9.5-1.1",
            "openSUSE Tumbleweed:subversion-ruby-1.9.5-1.1",
            "openSUSE Tumbleweed:subversion-server-1.9.5-1.1",
            "openSUSE Tumbleweed:subversion-tools-1.9.5-1.1"
          ]
        }
      ],
      "CVSSScoreSets": {}
    },
    {
      "CVE": "CVE-2013-1884",
      "Description": "The mod_dav_svn Apache HTTPD server module in Subversion 1.7.0 through 1.7.8 allows remote attackers to cause a denial of service (segmentation fault and crash) via a log REPORT request with an invalid limit, which triggers an access of an uninitialized variable.",
      "Threats": [
        {
          "Type": "Impact",
          "Severity": "moderate"
        }
      ],
      "References": [
        {
          "URL": "https://www.suse.com/security/cve/CVE-2013-1884.html",
          "Description": "CVE-2013-1884"
        },
        {
          "URL": "https://bugzilla.suse.com/813913",
          "Description": "SUSE Bug 813913"
        }
      ],
      "ProductStatuses": [
        {
          "Type": "Fixed",
          "ProductID": [
            "openSUSE Tumbleweed:libsvn_auth_gnome_keyring-1-0-1.9.5-1.1",
            "openSUSE Tumbleweed:libsvn_auth_kwallet-1-0-1.9.5-1.1",
            "openSUSE Tumbleweed:subversion-1.9.5-1.1",
            "openSUSE Tumbleweed:subversion-bash-completion-1.9.5-1.1",
            "openSUSE Tumbleweed:subversion-devel-1.9.5-1.1",
            "openSUSE Tumbleweed:subversion-perl-1.9.5-1.1",
            "openSUSE Tumbleweed:subversion-python-1.9.5-1.1",
            "openSUSE Tumbleweed:subversion-python-ctypes-1.9.5-1.1",
            "openSUSE Tumbleweed:subversion-ruby-1.9.5-1.1",
            "openSUSE Tumbleweed:subversion-server-1.9.5-1.1",
            "openSUSE Tumbleweed:subversion-tools-1.9.5-1.1"
          ]
        }
      ],
      "CVSSScoreSets": {}
    },
    {
      "CVE": "CVE-2013-1968",
      "Description": "Subversion before 1.6.23 and 1.7.x before 1.7.10 allows remote authenticated users to cause a denial of service (FSFS repository corruption) via a newline character in a file name.",
      "Threats": [
        {
          "Type": "Impact",
          "Severity": "moderate"
        }
      ],
      "References": [
        {
          "URL": "https://www.suse.com/security/cve/CVE-2013-1968.html",
          "Description": "CVE-2013-1968"
        },
        {
          "URL": "https://bugzilla.suse.com/821505",
          "Description": "SUSE Bug 821505"
        }
      ],
      "ProductStatuses": [
        {
          "Type": "Fixed",
          "ProductID": [
            "openSUSE Tumbleweed:libsvn_auth_gnome_keyring-1-0-1.9.5-1.1",
            "openSUSE Tumbleweed:libsvn_auth_kwallet-1-0-1.9.5-1.1",
            "openSUSE Tumbleweed:subversion-1.9.5-1.1",
            "openSUSE Tumbleweed:subversion-bash-completion-1.9.5-1.1",
            "openSUSE Tumbleweed:subversion-devel-1.9.5-1.1",
            "openSUSE Tumbleweed:subversion-perl-1.9.5-1.1",
            "openSUSE Tumbleweed:subversion-python-1.9.5-1.1",
            "openSUSE Tumbleweed:subversion-python-ctypes-1.9.5-1.1",
            "openSUSE Tumbleweed:subversion-ruby-1.9.5-1.1",
            "openSUSE Tumbleweed:subversion-server-1.9.5-1.1",
            "openSUSE Tumbleweed:subversion-tools-1.9.5-1.1"
          ]
        }
      ],
      "CVSSScoreSets": {}
    },
    {
      "CVE": "CVE-2013-2088",
      "Description": "contrib/hook-scripts/svn-keyword-check.pl in Subversion before 1.6.23 allows remote authenticated users with commit permissions to execute arbitrary commands via shell metacharacters in a filename.",
      "Threats": [
        {
          "Type": "Impact",
          "Severity": "moderate"
        }
      ],
      "References": [
        {
          "URL": "https://www.suse.com/security/cve/CVE-2013-2088.html",
          "Description": "CVE-2013-2088"
        },
        {
          "URL": "https://bugzilla.suse.com/821505",
          "Description": "SUSE Bug 821505"
        }
      ],
      "ProductStatuses": [
        {
          "Type": "Fixed",
          "ProductID": [
            "openSUSE Tumbleweed:libsvn_auth_gnome_keyring-1-0-1.9.5-1.1",
            "openSUSE Tumbleweed:libsvn_auth_kwallet-1-0-1.9.5-1.1",
            "openSUSE Tumbleweed:subversion-1.9.5-1.1",
            "openSUSE Tumbleweed:subversion-bash-completion-1.9.5-1.1",
            "openSUSE Tumbleweed:subversion-devel-1.9.5-1.1",
            "openSUSE Tumbleweed:subversion-perl-1.9.5-1.1",
            "openSUSE Tumbleweed:subversion-python-1.9.5-1.1",
            "openSUSE Tumbleweed:subversion-python-ctypes-1.9.5-1.1",
            "openSUSE Tumbleweed:subversion-ruby-1.9.5-1.1",
            "openSUSE Tumbleweed:subversion-server-1.9.5-1.1",
            "openSUSE Tumbleweed:subversion-tools-1.9.5-1.1"
          ]
        }
      ],
      "CVSSScoreSets": {}
    },
    {
      "CVE": "CVE-2013-2112",
      "Description": "The svnserve server in Subversion before 1.6.23 and 1.7.x before 1.7.10 allows remote attackers to cause a denial of service (exit) by aborting a connection.",
      "Threats": [
        {
          "Type": "Impact",
          "Severity": "important"
        }
      ],
      "References": [
        {
          "URL": "https://www.suse.com/security/cve/CVE-2013-2112.html",
          "Description": "CVE-2013-2112"
        },
        {
          "URL": "https://bugzilla.suse.com/821505",
          "Description": "SUSE Bug 821505"
        }
      ],
      "ProductStatuses": [
        {
          "Type": "Fixed",
          "ProductID": [
            "openSUSE Tumbleweed:libsvn_auth_gnome_keyring-1-0-1.9.5-1.1",
            "openSUSE Tumbleweed:libsvn_auth_kwallet-1-0-1.9.5-1.1",
            "openSUSE Tumbleweed:subversion-1.9.5-1.1",
            "openSUSE Tumbleweed:subversion-bash-completion-1.9.5-1.1",
            "openSUSE Tumbleweed:subversion-devel-1.9.5-1.1",
            "openSUSE Tumbleweed:subversion-perl-1.9.5-1.1",
            "openSUSE Tumbleweed:subversion-python-1.9.5-1.1",
            "openSUSE Tumbleweed:subversion-python-ctypes-1.9.5-1.1",
            "openSUSE Tumbleweed:subversion-ruby-1.9.5-1.1",
            "openSUSE Tumbleweed:subversion-server-1.9.5-1.1",
            "openSUSE Tumbleweed:subversion-tools-1.9.5-1.1"
          ]
        }
      ],
      "CVSSScoreSets": {}
    },
    {
      "CVE": "CVE-2013-4131",
      "Description": "The mod_dav_svn Apache HTTPD server module in Subversion 1.7.0 through 1.7.10 and 1.8.x before 1.8.1 allows remote authenticated users to cause a denial of service (assertion failure or out-of-bounds read) via a certain (1) COPY, (2) DELETE, or (3) MOVE request against a revision root.",
      "Threats": [
        {
          "Type": "Impact",
          "Severity": "moderate"
        }
      ],
      "References": [
        {
          "URL": "https://www.suse.com/security/cve/CVE-2013-4131.html",
          "Description": "CVE-2013-4131"
        },
        {
          "URL": "https://bugzilla.suse.com/830031",
          "Description": "SUSE Bug 830031"
        }
      ],
      "ProductStatuses": [
        {
          "Type": "Fixed",
          "ProductID": [
            "openSUSE Tumbleweed:libsvn_auth_gnome_keyring-1-0-1.9.5-1.1",
            "openSUSE Tumbleweed:libsvn_auth_kwallet-1-0-1.9.5-1.1",
            "openSUSE Tumbleweed:subversion-1.9.5-1.1",
            "openSUSE Tumbleweed:subversion-bash-completion-1.9.5-1.1",
            "openSUSE Tumbleweed:subversion-devel-1.9.5-1.1",
            "openSUSE Tumbleweed:subversion-perl-1.9.5-1.1",
            "openSUSE Tumbleweed:subversion-python-1.9.5-1.1",
            "openSUSE Tumbleweed:subversion-python-ctypes-1.9.5-1.1",
            "openSUSE Tumbleweed:subversion-ruby-1.9.5-1.1",
            "openSUSE Tumbleweed:subversion-server-1.9.5-1.1",
            "openSUSE Tumbleweed:subversion-tools-1.9.5-1.1"
          ]
        }
      ],
      "CVSSScoreSets": {}
    },
    {
      "CVE": "CVE-2013-4246",
      "Description": "libsvn_fs_fs/fs_fs.c in Apache Subversion 1.8.x before 1.8.2 might allow remote authenticated users with commit access to corrupt FSFS repositories and cause a denial of service or obtain sensitive information by editing packed revision properties.",
      "Threats": [
        {
          "Type": "Impact",
          "Severity": "moderate"
        }
      ],
      "References": [
        {
          "URL": "https://www.suse.com/security/cve/CVE-2013-4246.html",
          "Description": "CVE-2013-4246"
        },
        {
          "URL": "https://bugzilla.suse.com/836245",
          "Description": "SUSE Bug 836245"
        }
      ],
      "ProductStatuses": [
        {
          "Type": "Fixed",
          "ProductID": [
            "openSUSE Tumbleweed:libsvn_auth_gnome_keyring-1-0-1.9.5-1.1",
            "openSUSE Tumbleweed:libsvn_auth_kwallet-1-0-1.9.5-1.1",
            "openSUSE Tumbleweed:subversion-1.9.5-1.1",
            "openSUSE Tumbleweed:subversion-bash-completion-1.9.5-1.1",
            "openSUSE Tumbleweed:subversion-devel-1.9.5-1.1",
            "openSUSE Tumbleweed:subversion-perl-1.9.5-1.1",
            "openSUSE Tumbleweed:subversion-python-1.9.5-1.1",
            "openSUSE Tumbleweed:subversion-python-ctypes-1.9.5-1.1",
            "openSUSE Tumbleweed:subversion-ruby-1.9.5-1.1",
            "openSUSE Tumbleweed:subversion-server-1.9.5-1.1",
            "openSUSE Tumbleweed:subversion-tools-1.9.5-1.1"
          ]
        }
      ],
      "CVSSScoreSets": {}
    },
    {
      "CVE": "CVE-2013-4262",
      "Description": "svnwcsub.py in Subversion 1.8.0 before 1.8.3, when using the --pidfile option and running in foreground mode, allows local users to gain privileges via a symlink attack on the pid file.  NOTE: this issue was SPLIT due to different affected versions (ADT3). The irkerbridge.py issue is covered by CVE-2013-7393.",
      "Threats": [
        {
          "Type": "Impact",
          "Severity": "moderate"
        }
      ],
      "References": [
        {
          "URL": "https://www.suse.com/security/cve/CVE-2013-4262.html",
          "Description": "CVE-2013-4262"
        },
        {
          "URL": "https://bugzilla.suse.com/844201",
          "Description": "SUSE Bug 844201"
        }
      ],
      "ProductStatuses": [
        {
          "Type": "Fixed",
          "ProductID": [
            "openSUSE Tumbleweed:libsvn_auth_gnome_keyring-1-0-1.9.5-1.1",
            "openSUSE Tumbleweed:libsvn_auth_kwallet-1-0-1.9.5-1.1",
            "openSUSE Tumbleweed:subversion-1.9.5-1.1",
            "openSUSE Tumbleweed:subversion-bash-completion-1.9.5-1.1",
            "openSUSE Tumbleweed:subversion-devel-1.9.5-1.1",
            "openSUSE Tumbleweed:subversion-perl-1.9.5-1.1",
            "openSUSE Tumbleweed:subversion-python-1.9.5-1.1",
            "openSUSE Tumbleweed:subversion-python-ctypes-1.9.5-1.1",
            "openSUSE Tumbleweed:subversion-ruby-1.9.5-1.1",
            "openSUSE Tumbleweed:subversion-server-1.9.5-1.1",
            "openSUSE Tumbleweed:subversion-tools-1.9.5-1.1"
          ]
        }
      ],
      "CVSSScoreSets": {}
    },
    {
      "CVE": "CVE-2013-4277",
      "Description": "Svnserve in Apache Subversion 1.4.0 through 1.7.12 and 1.8.0 through 1.8.1 allows local users to overwrite arbitrary files or kill arbitrary processes via a symlink attack on the file specified by the --pid-file option.",
      "Threats": [
        {
          "Type": "Impact",
          "Severity": "moderate"
        }
      ],
      "References": [
        {
          "URL": "https://www.suse.com/security/cve/CVE-2013-4277.html",
          "Description": "CVE-2013-4277"
        },
        {
          "URL": "https://bugzilla.suse.com/836245",
          "Description": "SUSE Bug 836245"
        }
      ],
      "ProductStatuses": [
        {
          "Type": "Fixed",
          "ProductID": [
            "openSUSE Tumbleweed:libsvn_auth_gnome_keyring-1-0-1.9.5-1.1",
            "openSUSE Tumbleweed:libsvn_auth_kwallet-1-0-1.9.5-1.1",
            "openSUSE Tumbleweed:subversion-1.9.5-1.1",
            "openSUSE Tumbleweed:subversion-bash-completion-1.9.5-1.1",
            "openSUSE Tumbleweed:subversion-devel-1.9.5-1.1",
            "openSUSE Tumbleweed:subversion-perl-1.9.5-1.1",
            "openSUSE Tumbleweed:subversion-python-1.9.5-1.1",
            "openSUSE Tumbleweed:subversion-python-ctypes-1.9.5-1.1",
            "openSUSE Tumbleweed:subversion-ruby-1.9.5-1.1",
            "openSUSE Tumbleweed:subversion-server-1.9.5-1.1",
            "openSUSE Tumbleweed:subversion-tools-1.9.5-1.1"
          ]
        }
      ],
      "CVSSScoreSets": {}
    },
    {
      "CVE": "CVE-2013-4505",
      "Description": "The is_this_legal function in mod_dontdothat for Apache Subversion 1.4.0 through 1.7.13 and 1.8.0 through 1.8.4 allows remote attackers to bypass intended access restrictions and possibly cause a denial of service (resource consumption) via a relative URL in a REPORT request.",
      "Threats": [
        {
          "Type": "Impact",
          "Severity": "low"
        }
      ],
      "References": [
        {
          "URL": "https://www.suse.com/security/cve/CVE-2013-4505.html",
          "Description": "CVE-2013-4505"
        },
        {
          "URL": "https://bugzilla.suse.com/850667",
          "Description": "SUSE Bug 850667"
        },
        {
          "URL": "https://bugzilla.suse.com/850747",
          "Description": "SUSE Bug 850747"
        },
        {
          "URL": "https://bugzilla.suse.com/862459",
          "Description": "SUSE Bug 862459"
        }
      ],
      "ProductStatuses": [
        {
          "Type": "Fixed",
          "ProductID": [
            "openSUSE Tumbleweed:libsvn_auth_gnome_keyring-1-0-1.9.5-1.1",
            "openSUSE Tumbleweed:libsvn_auth_kwallet-1-0-1.9.5-1.1",
            "openSUSE Tumbleweed:subversion-1.9.5-1.1",
            "openSUSE Tumbleweed:subversion-bash-completion-1.9.5-1.1",
            "openSUSE Tumbleweed:subversion-devel-1.9.5-1.1",
            "openSUSE Tumbleweed:subversion-perl-1.9.5-1.1",
            "openSUSE Tumbleweed:subversion-python-1.9.5-1.1",
            "openSUSE Tumbleweed:subversion-python-ctypes-1.9.5-1.1",
            "openSUSE Tumbleweed:subversion-ruby-1.9.5-1.1",
            "openSUSE Tumbleweed:subversion-server-1.9.5-1.1",
            "openSUSE Tumbleweed:subversion-tools-1.9.5-1.1"
          ]
        }
      ],
      "CVSSScoreSets": {}
    },
    {
      "CVE": "CVE-2013-4558",
      "Description": "The get_parent_resource function in repos.c in mod_dav_svn Apache HTTPD server module in Subversion 1.7.11 through 1.7.13 and 1.8.1 through 1.8.4, when built with assertions enabled and SVNAutoversioning is enabled, allows remote attackers to cause a denial of service (assertion failure and Apache process abort) via a non-canonical URL in a request, as demonstrated using a trailing /.",
      "Threats": [
        {
          "Type": "Impact",
          "Severity": "low"
        }
      ],
      "References": [
        {
          "URL": "https://www.suse.com/security/cve/CVE-2013-4558.html",
          "Description": "CVE-2013-4558"
        },
        {
          "URL": "https://bugzilla.suse.com/850667",
          "Description": "SUSE Bug 850667"
        },
        {
          "URL": "https://bugzilla.suse.com/850747",
          "Description": "SUSE Bug 850747"
        },
        {
          "URL": "https://bugzilla.suse.com/862459",
          "Description": "SUSE Bug 862459"
        }
      ],
      "ProductStatuses": [
        {
          "Type": "Fixed",
          "ProductID": [
            "openSUSE Tumbleweed:libsvn_auth_gnome_keyring-1-0-1.9.5-1.1",
            "openSUSE Tumbleweed:libsvn_auth_kwallet-1-0-1.9.5-1.1",
            "openSUSE Tumbleweed:subversion-1.9.5-1.1",
            "openSUSE Tumbleweed:subversion-bash-completion-1.9.5-1.1",
            "openSUSE Tumbleweed:subversion-devel-1.9.5-1.1",
            "openSUSE Tumbleweed:subversion-perl-1.9.5-1.1",
            "openSUSE Tumbleweed:subversion-python-1.9.5-1.1",
            "openSUSE Tumbleweed:subversion-python-ctypes-1.9.5-1.1",
            "openSUSE Tumbleweed:subversion-ruby-1.9.5-1.1",
            "openSUSE Tumbleweed:subversion-server-1.9.5-1.1",
            "openSUSE Tumbleweed:subversion-tools-1.9.5-1.1"
          ]
        }
      ],
      "CVSSScoreSets": {}
    },
    {
      "CVE": "CVE-2014-0032",
      "Description": "The get_resource function in repos.c in the mod_dav_svn module in Apache Subversion before 1.7.15 and 1.8.x before 1.8.6, when SVNListParentPath is enabled, allows remote attackers to cause a denial of service (crash) via vectors related to the server root and request methods other than GET, as demonstrated by the \"svn ls http://svn.example.com\" command.",
      "Threats": [
        {
          "Type": "Impact",
          "Severity": "moderate"
        }
      ],
      "References": [
        {
          "URL": "https://www.suse.com/security/cve/CVE-2014-0032.html",
          "Description": "CVE-2014-0032"
        },
        {
          "URL": "https://bugzilla.suse.com/862459",
          "Description": "SUSE Bug 862459"
        }
      ],
      "ProductStatuses": [
        {
          "Type": "Fixed",
          "ProductID": [
            "openSUSE Tumbleweed:libsvn_auth_gnome_keyring-1-0-1.9.5-1.1",
            "openSUSE Tumbleweed:libsvn_auth_kwallet-1-0-1.9.5-1.1",
            "openSUSE Tumbleweed:subversion-1.9.5-1.1",
            "openSUSE Tumbleweed:subversion-bash-completion-1.9.5-1.1",
            "openSUSE Tumbleweed:subversion-devel-1.9.5-1.1",
            "openSUSE Tumbleweed:subversion-perl-1.9.5-1.1",
            "openSUSE Tumbleweed:subversion-python-1.9.5-1.1",
            "openSUSE Tumbleweed:subversion-python-ctypes-1.9.5-1.1",
            "openSUSE Tumbleweed:subversion-ruby-1.9.5-1.1",
            "openSUSE Tumbleweed:subversion-server-1.9.5-1.1",
            "openSUSE Tumbleweed:subversion-tools-1.9.5-1.1"
          ]
        }
      ],
      "CVSSScoreSets": {}
    },
    {
      "CVE": "CVE-2014-3522",
      "Description": "The Serf RA layer in Apache Subversion 1.4.0 through 1.7.x before 1.7.18 and 1.8.x before 1.8.10 does not properly handle wildcards in the Common Name (CN) or subjectAltName field of the X.509 certificate, which allows man-in-the-middle attackers to spoof servers via a crafted certificate.",
      "Threats": [
        {
          "Type": "Impact",
          "Severity": "moderate"
        }
      ],
      "References": [
        {
          "URL": "https://www.suse.com/security/cve/CVE-2014-3522.html",
          "Description": "CVE-2014-3522"
        },
        {
          "URL": "https://bugzilla.suse.com/890511",
          "Description": "SUSE Bug 890511"
        }
      ],
      "ProductStatuses": [
        {
          "Type": "Fixed",
          "ProductID": [
            "openSUSE Tumbleweed:libsvn_auth_gnome_keyring-1-0-1.9.5-1.1",
            "openSUSE Tumbleweed:libsvn_auth_kwallet-1-0-1.9.5-1.1",
            "openSUSE Tumbleweed:subversion-1.9.5-1.1",
            "openSUSE Tumbleweed:subversion-bash-completion-1.9.5-1.1",
            "openSUSE Tumbleweed:subversion-devel-1.9.5-1.1",
            "openSUSE Tumbleweed:subversion-perl-1.9.5-1.1",
            "openSUSE Tumbleweed:subversion-python-1.9.5-1.1",
            "openSUSE Tumbleweed:subversion-python-ctypes-1.9.5-1.1",
            "openSUSE Tumbleweed:subversion-ruby-1.9.5-1.1",
            "openSUSE Tumbleweed:subversion-server-1.9.5-1.1",
            "openSUSE Tumbleweed:subversion-tools-1.9.5-1.1"
          ]
        }
      ],
      "CVSSScoreSets": {}
    },
    {
      "CVE": "CVE-2014-3528",
      "Description": "Apache Subversion 1.0.0 through 1.7.x before 1.7.17 and 1.8.x before 1.8.10 uses an MD5 hash of the URL and authentication realm to store cached credentials, which makes it easier for remote servers to obtain the credentials via a crafted authentication realm.",
      "Threats": [
        {
          "Type": "Impact",
          "Severity": "low"
        }
      ],
      "References": [
        {
          "URL": "https://www.suse.com/security/cve/CVE-2014-3528.html",
          "Description": "CVE-2014-3528"
        },
        {
          "URL": "https://bugzilla.suse.com/889849",
          "Description": "SUSE Bug 889849"
        },
        {
          "URL": "https://bugzilla.suse.com/890511",
          "Description": "SUSE Bug 890511"
        }
      ],
      "ProductStatuses": [
        {
          "Type": "Fixed",
          "ProductID": [
            "openSUSE Tumbleweed:libsvn_auth_gnome_keyring-1-0-1.9.5-1.1",
            "openSUSE Tumbleweed:libsvn_auth_kwallet-1-0-1.9.5-1.1",
            "openSUSE Tumbleweed:subversion-1.9.5-1.1",
            "openSUSE Tumbleweed:subversion-bash-completion-1.9.5-1.1",
            "openSUSE Tumbleweed:subversion-devel-1.9.5-1.1",
            "openSUSE Tumbleweed:subversion-perl-1.9.5-1.1",
            "openSUSE Tumbleweed:subversion-python-1.9.5-1.1",
            "openSUSE Tumbleweed:subversion-python-ctypes-1.9.5-1.1",
            "openSUSE Tumbleweed:subversion-ruby-1.9.5-1.1",
            "openSUSE Tumbleweed:subversion-server-1.9.5-1.1",
            "openSUSE Tumbleweed:subversion-tools-1.9.5-1.1"
          ]
        }
      ],
      "CVSSScoreSets": {}
    },
    {
      "CVE": "CVE-2014-3580",
      "Description": "The mod_dav_svn Apache HTTPD server module in Apache Subversion 1.x before 1.7.19 and 1.8.x before 1.8.11 allows remote attackers to cause a denial of service (NULL pointer dereference and server crash) via a REPORT request for a resource that does not exist.",
      "Threats": [
        {
          "Type": "Impact",
          "Severity": "moderate"
        }
      ],
      "References": [
        {
          "URL": "https://www.suse.com/security/cve/CVE-2014-3580.html",
          "Description": "CVE-2014-3580"
        },
        {
          "URL": "https://bugzilla.suse.com/909935",
          "Description": "SUSE Bug 909935"
        },
        {
          "URL": "https://bugzilla.suse.com/910376",
          "Description": "SUSE Bug 910376"
        }
      ],
      "ProductStatuses": [
        {
          "Type": "Fixed",
          "ProductID": [
            "openSUSE Tumbleweed:libsvn_auth_gnome_keyring-1-0-1.9.5-1.1",
            "openSUSE Tumbleweed:libsvn_auth_kwallet-1-0-1.9.5-1.1",
            "openSUSE Tumbleweed:subversion-1.9.5-1.1",
            "openSUSE Tumbleweed:subversion-bash-completion-1.9.5-1.1",
            "openSUSE Tumbleweed:subversion-devel-1.9.5-1.1",
            "openSUSE Tumbleweed:subversion-perl-1.9.5-1.1",
            "openSUSE Tumbleweed:subversion-python-1.9.5-1.1",
            "openSUSE Tumbleweed:subversion-python-ctypes-1.9.5-1.1",
            "openSUSE Tumbleweed:subversion-ruby-1.9.5-1.1",
            "openSUSE Tumbleweed:subversion-server-1.9.5-1.1",
            "openSUSE Tumbleweed:subversion-tools-1.9.5-1.1"
          ]
        }
      ],
      "CVSSScoreSets": {
        "BaseScore": "5",
        "Vector": "AV:N/AC:L/Au:N/C:N/I:N/A:P"
      }
    },
    {
      "CVE": "CVE-2014-8108",
      "Description": "The mod_dav_svn Apache HTTPD server module in Apache Subversion 1.7.x before 1.7.19 and 1.8.x before 1.8.11 allows remote attackers to cause a denial of service (NULL pointer dereference and crash) via a request for a URI that triggers a lookup for a virtual transaction name that does not exist.",
      "Threats": [
        {
          "Type": "Impact",
          "Severity": "moderate"
        }
      ],
      "References": [
        {
          "URL": "https://www.suse.com/security/cve/CVE-2014-8108.html",
          "Description": "CVE-2014-8108"
        },
        {
          "URL": "https://bugzilla.suse.com/909935",
          "Description": "SUSE Bug 909935"
        }
      ],
      "ProductStatuses": [
        {
          "Type": "Fixed",
          "ProductID": [
            "openSUSE Tumbleweed:libsvn_auth_gnome_keyring-1-0-1.9.5-1.1",
            "openSUSE Tumbleweed:libsvn_auth_kwallet-1-0-1.9.5-1.1",
            "openSUSE Tumbleweed:subversion-1.9.5-1.1",
            "openSUSE Tumbleweed:subversion-bash-completion-1.9.5-1.1",
            "openSUSE Tumbleweed:subversion-devel-1.9.5-1.1",
            "openSUSE Tumbleweed:subversion-perl-1.9.5-1.1",
            "openSUSE Tumbleweed:subversion-python-1.9.5-1.1",
            "openSUSE Tumbleweed:subversion-python-ctypes-1.9.5-1.1",
            "openSUSE Tumbleweed:subversion-ruby-1.9.5-1.1",
            "openSUSE Tumbleweed:subversion-server-1.9.5-1.1",
            "openSUSE Tumbleweed:subversion-tools-1.9.5-1.1"
          ]
        }
      ],
      "CVSSScoreSets": {}
    },
    {
      "CVE": "CVE-2015-0202",
      "Description": "The mod_dav_svn server in Subversion 1.8.0 through 1.8.11 allows remote attackers to cause a denial of service (memory consumption) via a large number of REPORT requests, which trigger the traversal of FSFS repository nodes.",
      "Threats": [
        {
          "Type": "Impact",
          "Severity": "important"
        }
      ],
      "References": [
        {
          "URL": "https://www.suse.com/security/cve/CVE-2015-0202.html",
          "Description": "CVE-2015-0202"
        },
        {
          "URL": "https://bugzilla.suse.com/923793",
          "Description": "SUSE Bug 923793"
        }
      ],
      "ProductStatuses": [
        {
          "Type": "Fixed",
          "ProductID": [
            "openSUSE Tumbleweed:libsvn_auth_gnome_keyring-1-0-1.9.5-1.1",
            "openSUSE Tumbleweed:libsvn_auth_kwallet-1-0-1.9.5-1.1",
            "openSUSE Tumbleweed:subversion-1.9.5-1.1",
            "openSUSE Tumbleweed:subversion-bash-completion-1.9.5-1.1",
            "openSUSE Tumbleweed:subversion-devel-1.9.5-1.1",
            "openSUSE Tumbleweed:subversion-perl-1.9.5-1.1",
            "openSUSE Tumbleweed:subversion-python-1.9.5-1.1",
            "openSUSE Tumbleweed:subversion-python-ctypes-1.9.5-1.1",
            "openSUSE Tumbleweed:subversion-ruby-1.9.5-1.1",
            "openSUSE Tumbleweed:subversion-server-1.9.5-1.1",
            "openSUSE Tumbleweed:subversion-tools-1.9.5-1.1"
          ]
        }
      ],
      "CVSSScoreSets": {}
    },
    {
      "CVE": "CVE-2015-0248",
      "Description": "The (1) mod_dav_svn and (2) svnserve servers in Subversion 1.6.0 through 1.7.19 and 1.8.0 through 1.8.11 allow remote attackers to cause a denial of service (assertion failure and abort) via crafted parameter combinations related to dynamically evaluated revision numbers.",
      "Threats": [
        {
          "Type": "Impact",
          "Severity": "moderate"
        }
      ],
      "References": [
        {
          "URL": "https://www.suse.com/security/cve/CVE-2015-0248.html",
          "Description": "CVE-2015-0248"
        },
        {
          "URL": "https://bugzilla.suse.com/923794",
          "Description": "SUSE Bug 923794"
        }
      ],
      "ProductStatuses": [
        {
          "Type": "Fixed",
          "ProductID": [
            "openSUSE Tumbleweed:libsvn_auth_gnome_keyring-1-0-1.9.5-1.1",
            "openSUSE Tumbleweed:libsvn_auth_kwallet-1-0-1.9.5-1.1",
            "openSUSE Tumbleweed:subversion-1.9.5-1.1",
            "openSUSE Tumbleweed:subversion-bash-completion-1.9.5-1.1",
            "openSUSE Tumbleweed:subversion-devel-1.9.5-1.1",
            "openSUSE Tumbleweed:subversion-perl-1.9.5-1.1",
            "openSUSE Tumbleweed:subversion-python-1.9.5-1.1",
            "openSUSE Tumbleweed:subversion-python-ctypes-1.9.5-1.1",
            "openSUSE Tumbleweed:subversion-ruby-1.9.5-1.1",
            "openSUSE Tumbleweed:subversion-server-1.9.5-1.1",
            "openSUSE Tumbleweed:subversion-tools-1.9.5-1.1"
          ]
        }
      ],
      "CVSSScoreSets": {
        "BaseScore": "5",
        "Vector": "AV:N/AC:L/Au:N/C:N/I:N/A:P"
      }
    },
    {
      "CVE": "CVE-2015-0251",
      "Description": "The mod_dav_svn server in Subversion 1.5.0 through 1.7.19 and 1.8.0 through 1.8.11 allows remote authenticated users to spoof the svn:author property via a crafted v1 HTTP protocol request sequences.",
      "Threats": [
        {
          "Type": "Impact",
          "Severity": "low"
        }
      ],
      "References": [
        {
          "URL": "https://www.suse.com/security/cve/CVE-2015-0251.html",
          "Description": "CVE-2015-0251"
        },
        {
          "URL": "https://bugzilla.suse.com/923795",
          "Description": "SUSE Bug 923795"
        }
      ],
      "ProductStatuses": [
        {
          "Type": "Fixed",
          "ProductID": [
            "openSUSE Tumbleweed:libsvn_auth_gnome_keyring-1-0-1.9.5-1.1",
            "openSUSE Tumbleweed:libsvn_auth_kwallet-1-0-1.9.5-1.1",
            "openSUSE Tumbleweed:subversion-1.9.5-1.1",
            "openSUSE Tumbleweed:subversion-bash-completion-1.9.5-1.1",
            "openSUSE Tumbleweed:subversion-devel-1.9.5-1.1",
            "openSUSE Tumbleweed:subversion-perl-1.9.5-1.1",
            "openSUSE Tumbleweed:subversion-python-1.9.5-1.1",
            "openSUSE Tumbleweed:subversion-python-ctypes-1.9.5-1.1",
            "openSUSE Tumbleweed:subversion-ruby-1.9.5-1.1",
            "openSUSE Tumbleweed:subversion-server-1.9.5-1.1",
            "openSUSE Tumbleweed:subversion-tools-1.9.5-1.1"
          ]
        }
      ],
      "CVSSScoreSets": {}
    },
    {
      "CVE": "CVE-2015-3184",
      "Description": "mod_authz_svn in Apache Subversion 1.7.x before 1.7.21 and 1.8.x before 1.8.14, when using Apache httpd 2.4.x, does not properly restrict anonymous access, which allows remote anonymous users to read hidden files via the path name.",
      "Threats": [
        {
          "Type": "Impact",
          "Severity": "moderate"
        }
      ],
      "References": [
        {
          "URL": "https://www.suse.com/security/cve/CVE-2015-3184.html",
          "Description": "CVE-2015-3184"
        },
        {
          "URL": "https://bugzilla.suse.com/938723",
          "Description": "SUSE Bug 938723"
        },
        {
          "URL": "https://bugzilla.suse.com/939514",
          "Description": "SUSE Bug 939514"
        },
        {
          "URL": "https://bugzilla.suse.com/939516",
          "Description": "SUSE Bug 939516"
        }
      ],
      "ProductStatuses": [
        {
          "Type": "Fixed",
          "ProductID": [
            "openSUSE Tumbleweed:libsvn_auth_gnome_keyring-1-0-1.9.5-1.1",
            "openSUSE Tumbleweed:libsvn_auth_kwallet-1-0-1.9.5-1.1",
            "openSUSE Tumbleweed:subversion-1.9.5-1.1",
            "openSUSE Tumbleweed:subversion-bash-completion-1.9.5-1.1",
            "openSUSE Tumbleweed:subversion-devel-1.9.5-1.1",
            "openSUSE Tumbleweed:subversion-perl-1.9.5-1.1",
            "openSUSE Tumbleweed:subversion-python-1.9.5-1.1",
            "openSUSE Tumbleweed:subversion-python-ctypes-1.9.5-1.1",
            "openSUSE Tumbleweed:subversion-ruby-1.9.5-1.1",
            "openSUSE Tumbleweed:subversion-server-1.9.5-1.1",
            "openSUSE Tumbleweed:subversion-tools-1.9.5-1.1"
          ]
        }
      ],
      "CVSSScoreSets": {}
    },
    {
      "CVE": "CVE-2015-3187",
      "Description": "The svn_repos_trace_node_locations function in Apache Subversion before 1.7.21 and 1.8.x before 1.8.14, when path-based authorization is used, allows remote authenticated users to obtain sensitive path information by reading the history of a node that has been moved from a hidden path.",
      "Threats": [
        {
          "Type": "Impact",
          "Severity": "low"
        }
      ],
      "References": [
        {
          "URL": "https://www.suse.com/security/cve/CVE-2015-3187.html",
          "Description": "CVE-2015-3187"
        },
        {
          "URL": "https://bugzilla.suse.com/939517",
          "Description": "SUSE Bug 939517"
        }
      ],
      "ProductStatuses": [
        {
          "Type": "Fixed",
          "ProductID": [
            "openSUSE Tumbleweed:libsvn_auth_gnome_keyring-1-0-1.9.5-1.1",
            "openSUSE Tumbleweed:libsvn_auth_kwallet-1-0-1.9.5-1.1",
            "openSUSE Tumbleweed:subversion-1.9.5-1.1",
            "openSUSE Tumbleweed:subversion-bash-completion-1.9.5-1.1",
            "openSUSE Tumbleweed:subversion-devel-1.9.5-1.1",
            "openSUSE Tumbleweed:subversion-perl-1.9.5-1.1",
            "openSUSE Tumbleweed:subversion-python-1.9.5-1.1",
            "openSUSE Tumbleweed:subversion-python-ctypes-1.9.5-1.1",
            "openSUSE Tumbleweed:subversion-ruby-1.9.5-1.1",
            "openSUSE Tumbleweed:subversion-server-1.9.5-1.1",
            "openSUSE Tumbleweed:subversion-tools-1.9.5-1.1"
          ]
        }
      ],
      "CVSSScoreSets": {}
    },
    {
      "CVE": "CVE-2015-5259",
      "Description": "Integer overflow in the read_string function in libsvn_ra_svn/marshal.c in Apache Subversion 1.9.x before 1.9.3 allows remote attackers to execute arbitrary code via an svn:// protocol string, which triggers a heap-based buffer overflow and an out-of-bounds read.",
      "Threats": [
        {
          "Type": "Impact",
          "Severity": "moderate"
        }
      ],
      "References": [
        {
          "URL": "https://www.suse.com/security/cve/CVE-2015-5259.html",
          "Description": "CVE-2015-5259"
        },
        {
          "URL": "https://bugzilla.suse.com/958299",
          "Description": "SUSE Bug 958299"
        }
      ],
      "ProductStatuses": [
        {
          "Type": "Fixed",
          "ProductID": [
            "openSUSE Tumbleweed:libsvn_auth_gnome_keyring-1-0-1.9.5-1.1",
            "openSUSE Tumbleweed:libsvn_auth_kwallet-1-0-1.9.5-1.1",
            "openSUSE Tumbleweed:subversion-1.9.5-1.1",
            "openSUSE Tumbleweed:subversion-bash-completion-1.9.5-1.1",
            "openSUSE Tumbleweed:subversion-devel-1.9.5-1.1",
            "openSUSE Tumbleweed:subversion-perl-1.9.5-1.1",
            "openSUSE Tumbleweed:subversion-python-1.9.5-1.1",
            "openSUSE Tumbleweed:subversion-python-ctypes-1.9.5-1.1",
            "openSUSE Tumbleweed:subversion-ruby-1.9.5-1.1",
            "openSUSE Tumbleweed:subversion-server-1.9.5-1.1",
            "openSUSE Tumbleweed:subversion-tools-1.9.5-1.1"
          ]
        }
      ],
      "CVSSScoreSets": {
        "BaseScore": "7.5",
        "Vector": "AV:N/AC:L/Au:N/C:P/I:P/A:P"
      }
    },
    {
      "CVE": "CVE-2015-5343",
      "Description": "Integer overflow in util.c in mod_dav_svn in Apache Subversion 1.7.x, 1.8.x before 1.8.15, and 1.9.x before 1.9.3 allows remote authenticated users to cause a denial of service (subversion server crash or memory consumption) and possibly execute arbitrary code via a skel-encoded request body, which triggers an out-of-bounds read and heap-based buffer overflow.",
      "Threats": [
        {
          "Type": "Impact",
          "Severity": "important"
        }
      ],
      "References": [
        {
          "URL": "https://www.suse.com/security/cve/CVE-2015-5343.html",
          "Description": "CVE-2015-5343"
        },
        {
          "URL": "https://bugzilla.suse.com/958300",
          "Description": "SUSE Bug 958300"
        }
      ],
      "ProductStatuses": [
        {
          "Type": "Fixed",
          "ProductID": [
            "openSUSE Tumbleweed:libsvn_auth_gnome_keyring-1-0-1.9.5-1.1",
            "openSUSE Tumbleweed:libsvn_auth_kwallet-1-0-1.9.5-1.1",
            "openSUSE Tumbleweed:subversion-1.9.5-1.1",
            "openSUSE Tumbleweed:subversion-bash-completion-1.9.5-1.1",
            "openSUSE Tumbleweed:subversion-devel-1.9.5-1.1",
            "openSUSE Tumbleweed:subversion-perl-1.9.5-1.1",
            "openSUSE Tumbleweed:subversion-python-1.9.5-1.1",
            "openSUSE Tumbleweed:subversion-python-ctypes-1.9.5-1.1",
            "openSUSE Tumbleweed:subversion-ruby-1.9.5-1.1",
            "openSUSE Tumbleweed:subversion-server-1.9.5-1.1",
            "openSUSE Tumbleweed:subversion-tools-1.9.5-1.1"
          ]
        }
      ],
      "CVSSScoreSets": {}
    },
    {
      "CVE": "CVE-2016-2167",
      "Description": "The canonicalize_username function in svnserve/cyrus_auth.c in Apache Subversion before 1.8.16 and 1.9.x before 1.9.4, when Cyrus SASL authentication is used, allows remote attackers to authenticate and bypass intended access restrictions via a realm string that is a prefix of an expected repository realm string.",
      "Threats": [
        {
          "Type": "Impact",
          "Severity": "low"
        }
      ],
      "References": [
        {
          "URL": "https://www.suse.com/security/cve/CVE-2016-2167.html",
          "Description": "CVE-2016-2167"
        },
        {
          "URL": "https://bugzilla.suse.com/976849",
          "Description": "SUSE Bug 976849"
        }
      ],
      "ProductStatuses": [
        {
          "Type": "Fixed",
          "ProductID": [
            "openSUSE Tumbleweed:libsvn_auth_gnome_keyring-1-0-1.9.5-1.1",
            "openSUSE Tumbleweed:libsvn_auth_kwallet-1-0-1.9.5-1.1",
            "openSUSE Tumbleweed:subversion-1.9.5-1.1",
            "openSUSE Tumbleweed:subversion-bash-completion-1.9.5-1.1",
            "openSUSE Tumbleweed:subversion-devel-1.9.5-1.1",
            "openSUSE Tumbleweed:subversion-perl-1.9.5-1.1",
            "openSUSE Tumbleweed:subversion-python-1.9.5-1.1",
            "openSUSE Tumbleweed:subversion-python-ctypes-1.9.5-1.1",
            "openSUSE Tumbleweed:subversion-ruby-1.9.5-1.1",
            "openSUSE Tumbleweed:subversion-server-1.9.5-1.1",
            "openSUSE Tumbleweed:subversion-tools-1.9.5-1.1"
          ]
        }
      ],
      "CVSSScoreSets": {
        "BaseScore": "3.6",
        "Vector": "AV:N/AC:H/Au:S/C:P/I:P/A:N"
      }
    },
    {
      "CVE": "CVE-2016-2168",
      "Description": "The req_check_access function in the mod_authz_svn module in the httpd server in Apache Subversion before 1.8.16 and 1.9.x before 1.9.4 allows remote authenticated users to cause a denial of service (NULL pointer dereference and crash) via a crafted header in a (1) MOVE or (2) COPY request, involving an authorization check.",
      "Threats": [
        {
          "Type": "Impact",
          "Severity": "moderate"
        }
      ],
      "References": [
        {
          "URL": "https://www.suse.com/security/cve/CVE-2016-2168.html",
          "Description": "CVE-2016-2168"
        },
        {
          "URL": "https://bugzilla.suse.com/976850",
          "Description": "SUSE Bug 976850"
        }
      ],
      "ProductStatuses": [
        {
          "Type": "Fixed",
          "ProductID": [
            "openSUSE Tumbleweed:libsvn_auth_gnome_keyring-1-0-1.9.5-1.1",
            "openSUSE Tumbleweed:libsvn_auth_kwallet-1-0-1.9.5-1.1",
            "openSUSE Tumbleweed:subversion-1.9.5-1.1",
            "openSUSE Tumbleweed:subversion-bash-completion-1.9.5-1.1",
            "openSUSE Tumbleweed:subversion-devel-1.9.5-1.1",
            "openSUSE Tumbleweed:subversion-perl-1.9.5-1.1",
            "openSUSE Tumbleweed:subversion-python-1.9.5-1.1",
            "openSUSE Tumbleweed:subversion-python-ctypes-1.9.5-1.1",
            "openSUSE Tumbleweed:subversion-ruby-1.9.5-1.1",
            "openSUSE Tumbleweed:subversion-server-1.9.5-1.1",
            "openSUSE Tumbleweed:subversion-tools-1.9.5-1.1"
          ]
        }
      ],
      "CVSSScoreSets": {
        "BaseScore": "6.3",
        "Vector": "AV:N/AC:M/Au:S/C:N/I:N/A:C"
      }
    },
    {
      "CVE": "CVE-2016-8734",
      "Description": "Apache Subversion's mod_dontdothat module and HTTP clients 1.4.0 through 1.8.16, and 1.9.0 through 1.9.4 are vulnerable to a denial-of-service attack caused by exponential XML entity expansion. The attack can cause the targeted process to consume an excessive amount of CPU resources or memory.",
      "Threats": [
        {
          "Type": "Impact",
          "Severity": "low"
        }
      ],
      "References": [
        {
          "URL": "https://www.suse.com/security/cve/CVE-2016-8734.html",
          "Description": "CVE-2016-8734"
        },
        {
          "URL": "https://bugzilla.suse.com/1011552",
          "Description": "SUSE Bug 1011552"
        }
      ],
      "ProductStatuses": [
        {
          "Type": "Fixed",
          "ProductID": [
            "openSUSE Tumbleweed:libsvn_auth_gnome_keyring-1-0-1.9.5-1.1",
            "openSUSE Tumbleweed:libsvn_auth_kwallet-1-0-1.9.5-1.1",
            "openSUSE Tumbleweed:subversion-1.9.5-1.1",
            "openSUSE Tumbleweed:subversion-bash-completion-1.9.5-1.1",
            "openSUSE Tumbleweed:subversion-devel-1.9.5-1.1",
            "openSUSE Tumbleweed:subversion-perl-1.9.5-1.1",
            "openSUSE Tumbleweed:subversion-python-1.9.5-1.1",
            "openSUSE Tumbleweed:subversion-python-ctypes-1.9.5-1.1",
            "openSUSE Tumbleweed:subversion-ruby-1.9.5-1.1",
            "openSUSE Tumbleweed:subversion-server-1.9.5-1.1",
            "openSUSE Tumbleweed:subversion-tools-1.9.5-1.1"
          ]
        }
      ],
      "CVSSScoreSets": {
        "BaseScore": "3.5",
        "Vector": "AV:N/AC:M/Au:S/C:N/I:N/A:P"
      }
    }
  ]
}