{
  "Title": "python36-mistune-0.8.4-3.5 on GA media",
  "Tracking": {
    "ID": "openSUSE-SU-2024:11239-1",
    "Status": "Final",
    "Version": "1",
    "InitialReleaseDate": "2024-06-22T21:44:56Z",
    "CurrentReleaseDate": "2024-06-22T21:44:56Z",
    "RevisionHistory": [
      {
        "Number": "1",
        "Date": "2024-06-22T21:44:56Z",
        "Description": "current"
      }
    ]
  },
  "Notes": [
    {
      "Text": "python36-mistune-0.8.4-3.5 on GA media",
      "Title": "Topic",
      "Type": "Summary"
    },
    {
      "Text": "These are all security issues fixed in the python36-mistune-0.8.4-3.5 package on the GA media of openSUSE Tumbleweed.",
      "Title": "Details",
      "Type": "General"
    },
    {
      "Text": "The CVRF data is provided by SUSE under the Creative Commons License 4.0 with Attribution (CC-BY-4.0).",
      "Title": "Terms of Use",
      "Type": "Legal Disclaimer"
    },
    {
      "Text": "openSUSE-Tumbleweed-2024-11239",
      "Title": "Patchnames",
      "Type": "Details"
    }
  ],
  "ProductTree": {
    "Relationships": [
      {
        "ProductReference": "python36-mistune-0.8.4-3.5",
        "RelatesToProductReference": "openSUSE Tumbleweed",
        "RelationType": "Default Component Of"
      },
      {
        "ProductReference": "python38-mistune-0.8.4-3.5",
        "RelatesToProductReference": "openSUSE Tumbleweed",
        "RelationType": "Default Component Of"
      },
      {
        "ProductReference": "python39-mistune-0.8.4-3.5",
        "RelatesToProductReference": "openSUSE Tumbleweed",
        "RelationType": "Default Component Of"
      }
    ]
  },
  "References": [
    {
      "URL": "https://www.suse.com/support/security/rating/",
      "Description": "SUSE Security Ratings"
    },
    {
      "URL": "https://www.suse.com/security/cve/CVE-2017-15612/",
      "Description": "SUSE CVE CVE-2017-15612 page"
    },
    {
      "URL": "https://www.suse.com/security/cve/CVE-2017-16876/",
      "Description": "SUSE CVE CVE-2017-16876 page"
    }
  ],
  "Vulnerabilities": [
    {
      "CVE": "CVE-2017-15612",
      "Description": "mistune.py in Mistune 0.7.4 allows XSS via an unexpected newline (such as in java\\nscript:) or a crafted email address, related to the escape and autolink functions.",
      "Threats": [
        {
          "Type": "Impact",
          "Severity": "moderate"
        }
      ],
      "References": [
        {
          "URL": "https://www.suse.com/security/cve/CVE-2017-15612.html",
          "Description": "CVE-2017-15612"
        },
        {
          "URL": "https://bugzilla.suse.com/1064640",
          "Description": "SUSE Bug 1064640"
        }
      ],
      "ProductStatuses": [
        {
          "Type": "Fixed",
          "ProductID": [
            "openSUSE Tumbleweed:python36-mistune-0.8.4-3.5",
            "openSUSE Tumbleweed:python38-mistune-0.8.4-3.5",
            "openSUSE Tumbleweed:python39-mistune-0.8.4-3.5"
          ]
        }
      ],
      "CVSSScoreSets": {}
    },
    {
      "CVE": "CVE-2017-16876",
      "Description": "Cross-site scripting (XSS) vulnerability in the _keyify function in mistune.py in Mistune before 0.8.1 allows remote attackers to inject arbitrary web script or HTML by leveraging failure to escape the \"key\" argument.",
      "Threats": [
        {
          "Type": "Impact",
          "Severity": "moderate"
        }
      ],
      "References": [
        {
          "URL": "https://www.suse.com/security/cve/CVE-2017-16876.html",
          "Description": "CVE-2017-16876"
        },
        {
          "URL": "https://bugzilla.suse.com/1072307",
          "Description": "SUSE Bug 1072307"
        }
      ],
      "ProductStatuses": [
        {
          "Type": "Fixed",
          "ProductID": [
            "openSUSE Tumbleweed:python36-mistune-0.8.4-3.5",
            "openSUSE Tumbleweed:python38-mistune-0.8.4-3.5",
            "openSUSE Tumbleweed:python39-mistune-0.8.4-3.5"
          ]
        }
      ],
      "CVSSScoreSets": {}
    }
  ]
}