{
  "Title": "ruby3.2-rubygem-rack-2.2-2.2.7-1.1 on GA media",
  "Tracking": {
    "ID": "openSUSE-SU-2024:12974-1",
    "Status": "Final",
    "Version": "1",
    "InitialReleaseDate": "2024-06-20T21:44:22Z",
    "CurrentReleaseDate": "2024-06-20T21:44:22Z",
    "RevisionHistory": [
      {
        "Number": "1",
        "Date": "2024-06-20T21:44:22Z",
        "Description": "current"
      }
    ]
  },
  "Notes": [
    {
      "Text": "ruby3.2-rubygem-rack-2.2-2.2.7-1.1 on GA media",
      "Title": "Topic",
      "Type": "Summary"
    },
    {
      "Text": "These are all security issues fixed in the ruby3.2-rubygem-rack-2.2-2.2.7-1.1 package on the GA media of openSUSE Tumbleweed.",
      "Title": "Details",
      "Type": "General"
    },
    {
      "Text": "The CVRF data is provided by SUSE under the Creative Commons License 4.0 with Attribution (CC-BY-4.0).",
      "Title": "Terms of Use",
      "Type": "Legal Disclaimer"
    },
    {
      "Text": "openSUSE-Tumbleweed-2024-12974",
      "Title": "Patchnames",
      "Type": "Details"
    }
  ],
  "ProductTree": {
    "Relationships": [
      {
        "ProductReference": "ruby3.2-rubygem-rack-2.2-2.2.7-1.1",
        "RelatesToProductReference": "openSUSE Tumbleweed",
        "RelationType": "Default Component Of"
      }
    ]
  },
  "References": [
    {
      "URL": "https://www.suse.com/support/security/rating/",
      "Description": "SUSE Security Ratings"
    },
    {
      "URL": "https://www.suse.com/security/cve/CVE-2013-0262/",
      "Description": "SUSE CVE CVE-2013-0262 page"
    },
    {
      "URL": "https://www.suse.com/security/cve/CVE-2013-0263/",
      "Description": "SUSE CVE CVE-2013-0263 page"
    },
    {
      "URL": "https://www.suse.com/security/cve/CVE-2015-3225/",
      "Description": "SUSE CVE CVE-2015-3225 page"
    },
    {
      "URL": "https://www.suse.com/security/cve/CVE-2018-16471/",
      "Description": "SUSE CVE CVE-2018-16471 page"
    },
    {
      "URL": "https://www.suse.com/security/cve/CVE-2019-16782/",
      "Description": "SUSE CVE CVE-2019-16782 page"
    },
    {
      "URL": "https://www.suse.com/security/cve/CVE-2020-8184/",
      "Description": "SUSE CVE CVE-2020-8184 page"
    },
    {
      "URL": "https://www.suse.com/security/cve/CVE-2022-30122/",
      "Description": "SUSE CVE CVE-2022-30122 page"
    },
    {
      "URL": "https://www.suse.com/security/cve/CVE-2022-30123/",
      "Description": "SUSE CVE CVE-2022-30123 page"
    },
    {
      "URL": "https://www.suse.com/security/cve/CVE-2022-44570/",
      "Description": "SUSE CVE CVE-2022-44570 page"
    },
    {
      "URL": "https://www.suse.com/security/cve/CVE-2022-44571/",
      "Description": "SUSE CVE CVE-2022-44571 page"
    },
    {
      "URL": "https://www.suse.com/security/cve/CVE-2022-44572/",
      "Description": "SUSE CVE CVE-2022-44572 page"
    }
  ],
  "Vulnerabilities": [
    {
      "CVE": "CVE-2013-0262",
      "Description": "rack/file.rb (Rack::File) in Rack 1.5.x before 1.5.2 and 1.4.x before 1.4.5 allows attackers to access arbitrary files outside the intended root directory via a crafted PATH_INFO environment variable, probably a directory traversal vulnerability that is remotely exploitable, aka \"symlink path traversals.\"",
      "Threats": [
        {
          "Type": "Impact",
          "Severity": "moderate"
        }
      ],
      "References": [
        {
          "URL": "https://www.suse.com/security/cve/CVE-2013-0262.html",
          "Description": "CVE-2013-0262"
        },
        {
          "URL": "https://bugzilla.suse.com/802795",
          "Description": "SUSE Bug 802795"
        }
      ],
      "ProductStatuses": [
        {
          "Type": "Fixed",
          "ProductID": [
            "openSUSE Tumbleweed:ruby3.2-rubygem-rack-2.2-2.2.7-1.1"
          ]
        }
      ],
      "CVSSScoreSets": {}
    },
    {
      "CVE": "CVE-2013-0263",
      "Description": "Rack::Session::Cookie in Rack 1.5.x before 1.5.2, 1.4.x before 1.4.5, 1.3.x before 1.3.10, 1.2.x before 1.2.8, and 1.1.x before 1.1.6 allows remote attackers to guess the session cookie, gain privileges, and execute arbitrary code via a timing attack involving an HMAC comparison function that does not run in constant time.",
      "Threats": [
        {
          "Type": "Impact",
          "Severity": "moderate"
        }
      ],
      "References": [
        {
          "URL": "https://www.suse.com/security/cve/CVE-2013-0263.html",
          "Description": "CVE-2013-0263"
        },
        {
          "URL": "https://bugzilla.suse.com/802794",
          "Description": "SUSE Bug 802794"
        },
        {
          "URL": "https://bugzilla.suse.com/809839",
          "Description": "SUSE Bug 809839"
        }
      ],
      "ProductStatuses": [
        {
          "Type": "Fixed",
          "ProductID": [
            "openSUSE Tumbleweed:ruby3.2-rubygem-rack-2.2-2.2.7-1.1"
          ]
        }
      ],
      "CVSSScoreSets": {}
    },
    {
      "CVE": "CVE-2015-3225",
      "Description": "lib/rack/utils.rb in Rack before 1.5.4 and 1.6.x before 1.6.2, as used with Ruby on Rails 3.x and 4.x and other products, allows remote attackers to cause a denial of service (SystemStackError) via a request with a large parameter depth.",
      "Threats": [
        {
          "Type": "Impact",
          "Severity": "moderate"
        }
      ],
      "References": [
        {
          "URL": "https://www.suse.com/security/cve/CVE-2015-3225.html",
          "Description": "CVE-2015-3225"
        },
        {
          "URL": "https://bugzilla.suse.com/934797",
          "Description": "SUSE Bug 934797"
        }
      ],
      "ProductStatuses": [
        {
          "Type": "Fixed",
          "ProductID": [
            "openSUSE Tumbleweed:ruby3.2-rubygem-rack-2.2-2.2.7-1.1"
          ]
        }
      ],
      "CVSSScoreSets": {}
    },
    {
      "CVE": "CVE-2018-16471",
      "Description": "There is a possible XSS vulnerability in Rack before 2.0.6 and 1.6.11. Carefully crafted requests can impact the data returned by the `scheme` method on `Rack::Request`. Applications that expect the scheme to be limited to 'http' or 'https' and do not escape the return value could be vulnerable to an XSS attack. Note that applications using the normal escaping mechanisms provided by Rails may not impacted, but applications that bypass the escaping mechanisms, or do not use them may be vulnerable.",
      "Threats": [
        {
          "Type": "Impact",
          "Severity": "moderate"
        }
      ],
      "References": [
        {
          "URL": "https://www.suse.com/security/cve/CVE-2018-16471.html",
          "Description": "CVE-2018-16471"
        },
        {
          "URL": "https://bugzilla.suse.com/1114828",
          "Description": "SUSE Bug 1114828"
        },
        {
          "URL": "https://bugzilla.suse.com/1116600",
          "Description": "SUSE Bug 1116600"
        },
        {
          "URL": "https://bugzilla.suse.com/1122178",
          "Description": "SUSE Bug 1122178"
        }
      ],
      "ProductStatuses": [
        {
          "Type": "Fixed",
          "ProductID": [
            "openSUSE Tumbleweed:ruby3.2-rubygem-rack-2.2-2.2.7-1.1"
          ]
        }
      ],
      "CVSSScoreSets": {}
    },
    {
      "CVE": "CVE-2019-16782",
      "Description": "There's a possible information leak / session hijack vulnerability in Rack (RubyGem rack). This vulnerability is patched in versions 1.6.12 and 2.0.8. Attackers may be able to find and hijack sessions by using timing attacks targeting the session id. Session ids are usually stored and indexed in a database that uses some kind of scheme for speeding up lookups of that session id. By carefully measuring the amount of time it takes to look up a session, an attacker may be able to find a valid session id and hijack the session. The session id itself may be generated randomly, but the way the session is indexed by the backing store does not use a secure comparison.",
      "Threats": [
        {
          "Type": "Impact",
          "Severity": "moderate"
        }
      ],
      "References": [
        {
          "URL": "https://www.suse.com/security/cve/CVE-2019-16782.html",
          "Description": "CVE-2019-16782"
        },
        {
          "URL": "https://bugzilla.suse.com/1159548",
          "Description": "SUSE Bug 1159548"
        },
        {
          "URL": "https://bugzilla.suse.com/1183174",
          "Description": "SUSE Bug 1183174"
        }
      ],
      "ProductStatuses": [
        {
          "Type": "Fixed",
          "ProductID": [
            "openSUSE Tumbleweed:ruby3.2-rubygem-rack-2.2-2.2.7-1.1"
          ]
        }
      ],
      "CVSSScoreSets": {}
    },
    {
      "CVE": "CVE-2020-8184",
      "Description": "A reliance on cookies without validation/integrity check security vulnerability exists in rack \u003c 2.2.3, rack \u003c 2.1.4 that makes it is possible for an attacker to forge a secure or host-only cookie prefix.",
      "Threats": [
        {
          "Type": "Impact",
          "Severity": "moderate"
        }
      ],
      "References": [
        {
          "URL": "https://www.suse.com/security/cve/CVE-2020-8184.html",
          "Description": "CVE-2020-8184"
        },
        {
          "URL": "https://bugzilla.suse.com/1173351",
          "Description": "SUSE Bug 1173351"
        },
        {
          "URL": "https://bugzilla.suse.com/1177352",
          "Description": "SUSE Bug 1177352"
        },
        {
          "URL": "https://bugzilla.suse.com/1193081",
          "Description": "SUSE Bug 1193081"
        }
      ],
      "ProductStatuses": [
        {
          "Type": "Fixed",
          "ProductID": [
            "openSUSE Tumbleweed:ruby3.2-rubygem-rack-2.2-2.2.7-1.1"
          ]
        }
      ],
      "CVSSScoreSets": {}
    },
    {
      "CVE": "CVE-2022-30122",
      "Description": "A possible denial of service vulnerability exists in Rack \u003c2.0.9.1, \u003c2.1.4.1 and \u003c2.2.3.1 in the multipart parsing component of Rack.",
      "Threats": [
        {
          "Type": "Impact",
          "Severity": "moderate"
        }
      ],
      "References": [
        {
          "URL": "https://www.suse.com/security/cve/CVE-2022-30122.html",
          "Description": "CVE-2022-30122"
        },
        {
          "URL": "https://bugzilla.suse.com/1200748",
          "Description": "SUSE Bug 1200748"
        },
        {
          "URL": "https://bugzilla.suse.com/1201588",
          "Description": "SUSE Bug 1201588"
        }
      ],
      "ProductStatuses": [
        {
          "Type": "Fixed",
          "ProductID": [
            "openSUSE Tumbleweed:ruby3.2-rubygem-rack-2.2-2.2.7-1.1"
          ]
        }
      ],
      "CVSSScoreSets": {}
    },
    {
      "CVE": "CVE-2022-30123",
      "Description": "A sequence injection vulnerability exists in Rack \u003c2.0.9.1, \u003c2.1.4.1 and \u003c2.2.3.1 which could allow is a possible shell escape in the Lint and CommonLogger components of Rack.",
      "Threats": [
        {
          "Type": "Impact",
          "Severity": "critical"
        }
      ],
      "References": [
        {
          "URL": "https://www.suse.com/security/cve/CVE-2022-30123.html",
          "Description": "CVE-2022-30123"
        },
        {
          "URL": "https://bugzilla.suse.com/1200750",
          "Description": "SUSE Bug 1200750"
        }
      ],
      "ProductStatuses": [
        {
          "Type": "Fixed",
          "ProductID": [
            "openSUSE Tumbleweed:ruby3.2-rubygem-rack-2.2-2.2.7-1.1"
          ]
        }
      ],
      "CVSSScoreSets": {}
    },
    {
      "CVE": "CVE-2022-44570",
      "Description": "A denial of service vulnerability in the Range header parsing component of Rack \u003e= 1.5.0. A Carefully crafted input can cause the Range header parsing component in Rack to take an unexpected amount of time, possibly resulting in a denial of service attack vector. Any applications that deal with Range requests (such as streaming applications, or applications that serve files) may be impacted.",
      "Threats": [
        {
          "Type": "Impact",
          "Severity": "moderate"
        }
      ],
      "References": [
        {
          "URL": "https://www.suse.com/security/cve/CVE-2022-44570.html",
          "Description": "CVE-2022-44570"
        },
        {
          "URL": "https://bugzilla.suse.com/1207597",
          "Description": "SUSE Bug 1207597"
        }
      ],
      "ProductStatuses": [
        {
          "Type": "Fixed",
          "ProductID": [
            "openSUSE Tumbleweed:ruby3.2-rubygem-rack-2.2-2.2.7-1.1"
          ]
        }
      ],
      "CVSSScoreSets": {}
    },
    {
      "CVE": "CVE-2022-44571",
      "Description": "There is a denial of service vulnerability in the Content-Disposition parsingcomponent of Rack fixed in 2.0.9.2, 2.1.4.2, 2.2.4.1, 3.0.0.1. This could allow an attacker to craft an input that can cause Content-Disposition header parsing in Rackto take an unexpected amount of time, possibly resulting in a denial ofservice attack vector. This header is used typically used in multipartparsing. Any applications that parse multipart posts using Rack (virtuallyall Rails applications) are impacted.",
      "Threats": [
        {
          "Type": "Impact",
          "Severity": "moderate"
        }
      ],
      "References": [
        {
          "URL": "https://www.suse.com/security/cve/CVE-2022-44571.html",
          "Description": "CVE-2022-44571"
        },
        {
          "URL": "https://bugzilla.suse.com/1207599",
          "Description": "SUSE Bug 1207599"
        }
      ],
      "ProductStatuses": [
        {
          "Type": "Fixed",
          "ProductID": [
            "openSUSE Tumbleweed:ruby3.2-rubygem-rack-2.2-2.2.7-1.1"
          ]
        }
      ],
      "CVSSScoreSets": {}
    },
    {
      "CVE": "CVE-2022-44572",
      "Description": "A denial of service vulnerability in the multipart parsing component of Rack fixed in 2.0.9.2, 2.1.4.2, 2.2.4.1 and 3.0.0.1 could allow an attacker tocraft input that can cause RFC2183 multipart boundary parsing in Rack to take an unexpected amount of time, possibly resulting in a denial of service attack vector. Any applications that parse multipart posts using Rack (virtually all Rails applications) are impacted.",
      "Threats": [
        {
          "Type": "Impact",
          "Severity": "moderate"
        }
      ],
      "References": [
        {
          "URL": "https://www.suse.com/security/cve/CVE-2022-44572.html",
          "Description": "CVE-2022-44572"
        },
        {
          "URL": "https://bugzilla.suse.com/1207596",
          "Description": "SUSE Bug 1207596"
        }
      ],
      "ProductStatuses": [
        {
          "Type": "Fixed",
          "ProductID": [
            "openSUSE Tumbleweed:ruby3.2-rubygem-rack-2.2-2.2.7-1.1"
          ]
        }
      ],
      "CVSSScoreSets": {}
    }
  ]
}