{
  "Title": "gnome-shell-search-provider-nautilus-45.2.1-2.1 on GA media",
  "Tracking": {
    "ID": "openSUSE-SU-2024:13503-1",
    "Status": "Final",
    "Version": "1",
    "InitialReleaseDate": "2024-06-20T21:44:22Z",
    "CurrentReleaseDate": "2024-06-20T21:44:22Z",
    "RevisionHistory": [
      {
        "Number": "1",
        "Date": "2024-06-20T21:44:22Z",
        "Description": "current"
      }
    ]
  },
  "Notes": [
    {
      "Text": "gnome-shell-search-provider-nautilus-45.2.1-2.1 on GA media",
      "Title": "Topic",
      "Type": "Summary"
    },
    {
      "Text": "These are all security issues fixed in the gnome-shell-search-provider-nautilus-45.2.1-2.1 package on the GA media of openSUSE Tumbleweed.",
      "Title": "Details",
      "Type": "General"
    },
    {
      "Text": "The CVRF data is provided by SUSE under the Creative Commons License 4.0 with Attribution (CC-BY-4.0).",
      "Title": "Terms of Use",
      "Type": "Legal Disclaimer"
    },
    {
      "Text": "openSUSE-Tumbleweed-2024-13503",
      "Title": "Patchnames",
      "Type": "Details"
    }
  ],
  "ProductTree": {
    "Relationships": [
      {
        "ProductReference": "gnome-shell-search-provider-nautilus-45.2.1-2.1",
        "RelatesToProductReference": "openSUSE Tumbleweed",
        "RelationType": "Default Component Of"
      },
      {
        "ProductReference": "libnautilus-extension4-45.2.1-2.1",
        "RelatesToProductReference": "openSUSE Tumbleweed",
        "RelationType": "Default Component Of"
      },
      {
        "ProductReference": "nautilus-45.2.1-2.1",
        "RelatesToProductReference": "openSUSE Tumbleweed",
        "RelationType": "Default Component Of"
      },
      {
        "ProductReference": "nautilus-devel-45.2.1-2.1",
        "RelatesToProductReference": "openSUSE Tumbleweed",
        "RelationType": "Default Component Of"
      },
      {
        "ProductReference": "nautilus-lang-45.2.1-2.1",
        "RelatesToProductReference": "openSUSE Tumbleweed",
        "RelationType": "Default Component Of"
      },
      {
        "ProductReference": "typelib-1_0-Nautilus-4_0-45.2.1-2.1",
        "RelatesToProductReference": "openSUSE Tumbleweed",
        "RelationType": "Default Component Of"
      }
    ]
  },
  "References": [
    {
      "URL": "https://www.suse.com/support/security/rating/",
      "Description": "SUSE Security Ratings"
    },
    {
      "URL": "https://www.suse.com/security/cve/CVE-2022-37290/",
      "Description": "SUSE CVE CVE-2022-37290 page"
    }
  ],
  "Vulnerabilities": [
    {
      "CVE": "CVE-2022-37290",
      "Description": "GNOME Nautilus 42.2 allows a NULL pointer dereference and get_basename application crash via a pasted ZIP archive.",
      "Threats": [
        {
          "Type": "Impact",
          "Severity": "moderate"
        }
      ],
      "References": [
        {
          "URL": "https://www.suse.com/security/cve/CVE-2022-37290.html",
          "Description": "CVE-2022-37290"
        },
        {
          "URL": "https://bugzilla.suse.com/1205418",
          "Description": "SUSE Bug 1205418"
        }
      ],
      "ProductStatuses": [
        {
          "Type": "Fixed",
          "ProductID": [
            "openSUSE Tumbleweed:gnome-shell-search-provider-nautilus-45.2.1-2.1",
            "openSUSE Tumbleweed:libnautilus-extension4-45.2.1-2.1",
            "openSUSE Tumbleweed:nautilus-45.2.1-2.1",
            "openSUSE Tumbleweed:nautilus-devel-45.2.1-2.1",
            "openSUSE Tumbleweed:nautilus-lang-45.2.1-2.1",
            "openSUSE Tumbleweed:typelib-1_0-Nautilus-4_0-45.2.1-2.1"
          ]
        }
      ],
      "CVSSScoreSets": {}
    }
  ]
}