{
  "Title": "python310-urllib3-2.1.0-3.1 on GA media",
  "Tracking": {
    "ID": "openSUSE-SU-2024:14055-1",
    "Status": "Final",
    "Version": "1",
    "InitialReleaseDate": "2024-06-20T21:44:22Z",
    "CurrentReleaseDate": "2024-06-20T21:44:22Z",
    "RevisionHistory": [
      {
        "Number": "1",
        "Date": "2024-06-20T21:44:22Z",
        "Description": "current"
      }
    ]
  },
  "Notes": [
    {
      "Text": "python310-urllib3-2.1.0-3.1 on GA media",
      "Title": "Topic",
      "Type": "Summary"
    },
    {
      "Text": "These are all security issues fixed in the python310-urllib3-2.1.0-3.1 package on the GA media of openSUSE Tumbleweed.",
      "Title": "Details",
      "Type": "General"
    },
    {
      "Text": "The CVRF data is provided by SUSE under the Creative Commons License 4.0 with Attribution (CC-BY-4.0).",
      "Title": "Terms of Use",
      "Type": "Legal Disclaimer"
    },
    {
      "Text": "openSUSE-Tumbleweed-2024-14055",
      "Title": "Patchnames",
      "Type": "Details"
    }
  ],
  "ProductTree": {
    "Relationships": [
      {
        "ProductReference": "python310-urllib3-2.1.0-3.1",
        "RelatesToProductReference": "openSUSE Tumbleweed",
        "RelationType": "Default Component Of"
      },
      {
        "ProductReference": "python311-urllib3-2.1.0-3.1",
        "RelatesToProductReference": "openSUSE Tumbleweed",
        "RelationType": "Default Component Of"
      },
      {
        "ProductReference": "python312-urllib3-2.1.0-3.1",
        "RelatesToProductReference": "openSUSE Tumbleweed",
        "RelationType": "Default Component Of"
      }
    ]
  },
  "References": [
    {
      "URL": "https://www.suse.com/support/security/rating/",
      "Description": "SUSE Security Ratings"
    },
    {
      "URL": "https://www.suse.com/security/cve/CVE-2016-9015/",
      "Description": "SUSE CVE CVE-2016-9015 page"
    },
    {
      "URL": "https://www.suse.com/security/cve/CVE-2018-20060/",
      "Description": "SUSE CVE CVE-2018-20060 page"
    },
    {
      "URL": "https://www.suse.com/security/cve/CVE-2019-11324/",
      "Description": "SUSE CVE CVE-2019-11324 page"
    },
    {
      "URL": "https://www.suse.com/security/cve/CVE-2019-9740/",
      "Description": "SUSE CVE CVE-2019-9740 page"
    },
    {
      "URL": "https://www.suse.com/security/cve/CVE-2021-33503/",
      "Description": "SUSE CVE CVE-2021-33503 page"
    },
    {
      "URL": "https://www.suse.com/security/cve/CVE-2024-37891/",
      "Description": "SUSE CVE CVE-2024-37891 page"
    }
  ],
  "Vulnerabilities": [
    {
      "CVE": "CVE-2016-9015",
      "Description": "Versions 1.17 and 1.18 of the Python urllib3 library suffer from a vulnerability that can cause them, in certain configurations, to not correctly validate TLS certificates. This places users of the library with those configurations at risk of man-in-the-middle and information leakage attacks. This vulnerability affects users using versions 1.17 and 1.18 of the urllib3 library, who are using the optional PyOpenSSL support for TLS instead of the regular standard library TLS backend, and who are using OpenSSL 1.1.0 via PyOpenSSL. This is an extremely uncommon configuration, so the security impact of this vulnerability is low.",
      "Threats": [
        {
          "Type": "Impact",
          "Severity": "low"
        }
      ],
      "References": [
        {
          "URL": "https://www.suse.com/security/cve/CVE-2016-9015.html",
          "Description": "CVE-2016-9015"
        },
        {
          "URL": "https://bugzilla.suse.com/1023502",
          "Description": "SUSE Bug 1023502"
        },
        {
          "URL": "https://bugzilla.suse.com/1024540",
          "Description": "SUSE Bug 1024540"
        }
      ],
      "ProductStatuses": [
        {
          "Type": "Fixed",
          "ProductID": [
            "openSUSE Tumbleweed:python310-urllib3-2.1.0-3.1",
            "openSUSE Tumbleweed:python311-urllib3-2.1.0-3.1",
            "openSUSE Tumbleweed:python312-urllib3-2.1.0-3.1"
          ]
        }
      ],
      "CVSSScoreSets": {
        "BaseScore": "2.6",
        "Vector": "AV:N/AC:H/Au:N/C:P/I:N/A:N"
      }
    },
    {
      "CVE": "CVE-2018-20060",
      "Description": "urllib3 before version 1.23 does not remove the Authorization HTTP header when following a cross-origin redirect (i.e., a redirect that differs in host, port, or scheme). This can allow for credentials in the Authorization header to be exposed to unintended hosts or transmitted in cleartext.",
      "Threats": [
        {
          "Type": "Impact",
          "Severity": "low"
        }
      ],
      "References": [
        {
          "URL": "https://www.suse.com/security/cve/CVE-2018-20060.html",
          "Description": "CVE-2018-20060"
        },
        {
          "URL": "https://bugzilla.suse.com/1119376",
          "Description": "SUSE Bug 1119376"
        },
        {
          "URL": "https://bugzilla.suse.com/1216275",
          "Description": "SUSE Bug 1216275"
        }
      ],
      "ProductStatuses": [
        {
          "Type": "Fixed",
          "ProductID": [
            "openSUSE Tumbleweed:python310-urllib3-2.1.0-3.1",
            "openSUSE Tumbleweed:python311-urllib3-2.1.0-3.1",
            "openSUSE Tumbleweed:python312-urllib3-2.1.0-3.1"
          ]
        }
      ],
      "CVSSScoreSets": {}
    },
    {
      "CVE": "CVE-2019-11324",
      "Description": "The urllib3 library before 1.24.2 for Python mishandles certain cases where the desired set of CA certificates is different from the OS store of CA certificates, which results in SSL connections succeeding in situations where a verification failure is the correct outcome. This is related to use of the ssl_context, ca_certs, or ca_certs_dir argument.",
      "Threats": [
        {
          "Type": "Impact",
          "Severity": "low"
        }
      ],
      "References": [
        {
          "URL": "https://www.suse.com/security/cve/CVE-2019-11324.html",
          "Description": "CVE-2019-11324"
        },
        {
          "URL": "https://bugzilla.suse.com/1132900",
          "Description": "SUSE Bug 1132900"
        }
      ],
      "ProductStatuses": [
        {
          "Type": "Fixed",
          "ProductID": [
            "openSUSE Tumbleweed:python310-urllib3-2.1.0-3.1",
            "openSUSE Tumbleweed:python311-urllib3-2.1.0-3.1",
            "openSUSE Tumbleweed:python312-urllib3-2.1.0-3.1"
          ]
        }
      ],
      "CVSSScoreSets": {}
    },
    {
      "CVE": "CVE-2019-9740",
      "Description": "An issue was discovered in urllib2 in Python 2.x through 2.7.16 and urllib in Python 3.x through 3.7.3. CRLF injection is possible if the attacker controls a url parameter, as demonstrated by the first argument to urllib.request.urlopen with \\r\\n (specifically in the query string after a ? character) followed by an HTTP header or a Redis command. This is fixed in: v2.7.17, v2.7.17rc1, v2.7.18, v2.7.18rc1; v3.5.10, v3.5.10rc1, v3.5.8, v3.5.8rc1, v3.5.8rc2, v3.5.9; v3.6.10, v3.6.10rc1, v3.6.11, v3.6.11rc1, v3.6.12, v3.6.9, v3.6.9rc1; v3.7.4, v3.7.4rc1, v3.7.4rc2, v3.7.5, v3.7.5rc1, v3.7.6, v3.7.6rc1, v3.7.7, v3.7.7rc1, v3.7.8, v3.7.8rc1, v3.7.9.",
      "Threats": [
        {
          "Type": "Impact",
          "Severity": "moderate"
        }
      ],
      "References": [
        {
          "URL": "https://www.suse.com/security/cve/CVE-2019-9740.html",
          "Description": "CVE-2019-9740"
        },
        {
          "URL": "https://bugzilla.suse.com/1129071",
          "Description": "SUSE Bug 1129071"
        },
        {
          "URL": "https://bugzilla.suse.com/1130840",
          "Description": "SUSE Bug 1130840"
        },
        {
          "URL": "https://bugzilla.suse.com/1132663",
          "Description": "SUSE Bug 1132663"
        }
      ],
      "ProductStatuses": [
        {
          "Type": "Fixed",
          "ProductID": [
            "openSUSE Tumbleweed:python310-urllib3-2.1.0-3.1",
            "openSUSE Tumbleweed:python311-urllib3-2.1.0-3.1",
            "openSUSE Tumbleweed:python312-urllib3-2.1.0-3.1"
          ]
        }
      ],
      "CVSSScoreSets": {}
    },
    {
      "CVE": "CVE-2021-33503",
      "Description": "An issue was discovered in urllib3 before 1.26.5. When provided with a URL containing many @ characters in the authority component, the authority regular expression exhibits catastrophic backtracking, causing a denial of service if a URL were passed as a parameter or redirected to via an HTTP redirect.",
      "Threats": [
        {
          "Type": "Impact",
          "Severity": "important"
        }
      ],
      "References": [
        {
          "URL": "https://www.suse.com/security/cve/CVE-2021-33503.html",
          "Description": "CVE-2021-33503"
        },
        {
          "URL": "https://bugzilla.suse.com/1187045",
          "Description": "SUSE Bug 1187045"
        }
      ],
      "ProductStatuses": [
        {
          "Type": "Fixed",
          "ProductID": [
            "openSUSE Tumbleweed:python310-urllib3-2.1.0-3.1",
            "openSUSE Tumbleweed:python311-urllib3-2.1.0-3.1",
            "openSUSE Tumbleweed:python312-urllib3-2.1.0-3.1"
          ]
        }
      ],
      "CVSSScoreSets": {}
    },
    {
      "CVE": "CVE-2024-37891",
      "Description": " urllib3 is a user-friendly HTTP client library for Python. When using urllib3's proxy support with `ProxyManager`, the `Proxy-Authorization` header is only sent to the configured proxy, as expected. However, when sending HTTP requests *without* using urllib3's proxy support, it's possible to accidentally configure the `Proxy-Authorization` header even though it won't have any effect as the request is not using a forwarding proxy or a tunneling proxy. In those cases, urllib3 doesn't treat the `Proxy-Authorization` HTTP header as one carrying authentication material and thus doesn't strip the header on cross-origin redirects. Because this is a highly unlikely scenario, we believe the severity of this vulnerability is low for almost all users. Out of an abundance of caution urllib3 will automatically strip the `Proxy-Authorization` header during cross-origin redirects to avoid the small chance that users are doing this on accident. Users should use urllib3's proxy support or disable automatic redirects to achieve safe processing of the `Proxy-Authorization` header, but we still decided to strip the header by default in order to further protect users who aren't using the correct approach. We believe the number of usages affected by this advisory is low. It requires all of the following to be true to be exploited: 1. Setting the `Proxy-Authorization` header without using urllib3's built-in proxy support. 2. Not disabling HTTP redirects. 3. Either not using an HTTPS origin server or for the proxy or target origin to redirect to a malicious origin. Users are advised to update to either version 1.26.19 or version 2.2.2. Users unable to upgrade may use the `Proxy-Authorization` header with urllib3's `ProxyManager`, disable HTTP redirects using `redirects=False` when sending requests, or not user the `Proxy-Authorization` header as mitigations.",
      "Threats": [
        {
          "Type": "Impact",
          "Severity": "moderate"
        }
      ],
      "References": [
        {
          "URL": "https://www.suse.com/security/cve/CVE-2024-37891.html",
          "Description": "CVE-2024-37891"
        },
        {
          "URL": "https://bugzilla.suse.com/1226469",
          "Description": "SUSE Bug 1226469"
        }
      ],
      "ProductStatuses": [
        {
          "Type": "Fixed",
          "ProductID": [
            "openSUSE Tumbleweed:python310-urllib3-2.1.0-3.1",
            "openSUSE Tumbleweed:python311-urllib3-2.1.0-3.1",
            "openSUSE Tumbleweed:python312-urllib3-2.1.0-3.1"
          ]
        }
      ],
      "CVSSScoreSets": {}
    }
  ]
}