{
  "Title": "keylime-config-7.6.0-1.1 on GA media",
  "Tracking": {
    "ID": "openSUSE-SU-2024:13287-1",
    "Status": "Final",
    "Version": "1",
    "InitialReleaseDate": "2024-06-20T21:44:22Z",
    "CurrentReleaseDate": "2024-06-20T21:44:22Z",
    "RevisionHistory": [
      {
        "Number": "1",
        "Date": "2024-06-20T21:44:22Z",
        "Description": "current"
      }
    ]
  },
  "Notes": [
    {
      "Text": "keylime-config-7.6.0-1.1 on GA media",
      "Title": "Topic",
      "Type": "Summary"
    },
    {
      "Text": "These are all security issues fixed in the keylime-config-7.6.0-1.1 package on the GA media of openSUSE Tumbleweed.",
      "Title": "Details",
      "Type": "General"
    },
    {
      "Text": "The CVRF data is provided by SUSE under the Creative Commons License 4.0 with Attribution (CC-BY-4.0).",
      "Title": "Terms of Use",
      "Type": "Legal Disclaimer"
    },
    {
      "Text": "openSUSE-Tumbleweed-2024-13287",
      "Title": "Patchnames",
      "Type": "Details"
    }
  ],
  "ProductTree": {
    "Relationships": [
      {
        "ProductReference": "keylime-config-7.6.0-1.1",
        "RelatesToProductReference": "openSUSE Tumbleweed",
        "RelationType": "Default Component Of"
      },
      {
        "ProductReference": "keylime-firewalld-7.6.0-1.1",
        "RelatesToProductReference": "openSUSE Tumbleweed",
        "RelationType": "Default Component Of"
      },
      {
        "ProductReference": "keylime-logrotate-7.6.0-1.1",
        "RelatesToProductReference": "openSUSE Tumbleweed",
        "RelationType": "Default Component Of"
      },
      {
        "ProductReference": "keylime-registrar-7.6.0-1.1",
        "RelatesToProductReference": "openSUSE Tumbleweed",
        "RelationType": "Default Component Of"
      },
      {
        "ProductReference": "keylime-tenant-7.6.0-1.1",
        "RelatesToProductReference": "openSUSE Tumbleweed",
        "RelationType": "Default Component Of"
      },
      {
        "ProductReference": "keylime-tpm_cert_store-7.6.0-1.1",
        "RelatesToProductReference": "openSUSE Tumbleweed",
        "RelationType": "Default Component Of"
      },
      {
        "ProductReference": "keylime-verifier-7.6.0-1.1",
        "RelatesToProductReference": "openSUSE Tumbleweed",
        "RelationType": "Default Component Of"
      },
      {
        "ProductReference": "python310-keylime-7.6.0-1.1",
        "RelatesToProductReference": "openSUSE Tumbleweed",
        "RelationType": "Default Component Of"
      },
      {
        "ProductReference": "python311-keylime-7.6.0-1.1",
        "RelatesToProductReference": "openSUSE Tumbleweed",
        "RelationType": "Default Component Of"
      },
      {
        "ProductReference": "python39-keylime-7.6.0-1.1",
        "RelatesToProductReference": "openSUSE Tumbleweed",
        "RelationType": "Default Component Of"
      }
    ]
  },
  "References": [
    {
      "URL": "https://www.suse.com/support/security/rating/",
      "Description": "SUSE Security Ratings"
    },
    {
      "URL": "https://www.suse.com/security/cve/CVE-2023-38201/",
      "Description": "SUSE CVE CVE-2023-38201 page"
    }
  ],
  "Vulnerabilities": [
    {
      "CVE": "CVE-2023-38201",
      "Description": "A flaw was found in the Keylime registrar that could allow a bypass of the challenge-response protocol during agent registration. This issue may allow an attacker to impersonate an agent and hide the true status of a monitored machine if the fake agent is added to the verifier list by a legitimate user, resulting in a breach of the integrity of the registrar database.",
      "Threats": [
        {
          "Type": "Impact",
          "Severity": "moderate"
        }
      ],
      "References": [
        {
          "URL": "https://www.suse.com/security/cve/CVE-2023-38201.html",
          "Description": "CVE-2023-38201"
        },
        {
          "URL": "https://bugzilla.suse.com/1213314",
          "Description": "SUSE Bug 1213314"
        }
      ],
      "ProductStatuses": [
        {
          "Type": "Fixed",
          "ProductID": [
            "openSUSE Tumbleweed:keylime-config-7.6.0-1.1",
            "openSUSE Tumbleweed:keylime-firewalld-7.6.0-1.1",
            "openSUSE Tumbleweed:keylime-logrotate-7.6.0-1.1",
            "openSUSE Tumbleweed:keylime-registrar-7.6.0-1.1",
            "openSUSE Tumbleweed:keylime-tenant-7.6.0-1.1",
            "openSUSE Tumbleweed:keylime-tpm_cert_store-7.6.0-1.1",
            "openSUSE Tumbleweed:keylime-verifier-7.6.0-1.1",
            "openSUSE Tumbleweed:python310-keylime-7.6.0-1.1",
            "openSUSE Tumbleweed:python311-keylime-7.6.0-1.1",
            "openSUSE Tumbleweed:python39-keylime-7.6.0-1.1"
          ]
        }
      ],
      "CVSSScoreSets": {}
    }
  ]
}