{
  "Title": "libnghttp2-14-1.43.0-1.6 on GA media",
  "Tracking": {
    "ID": "openSUSE-SU-2024:11091-1",
    "Status": "Final",
    "Version": "1",
    "InitialReleaseDate": "2024-06-22T21:44:56Z",
    "CurrentReleaseDate": "2024-06-22T21:44:56Z",
    "RevisionHistory": [
      {
        "Number": "1",
        "Date": "2024-06-22T21:44:56Z",
        "Description": "current"
      }
    ]
  },
  "Notes": [
    {
      "Text": "libnghttp2-14-1.43.0-1.6 on GA media",
      "Title": "Topic",
      "Type": "Summary"
    },
    {
      "Text": "These are all security issues fixed in the libnghttp2-14-1.43.0-1.6 package on the GA media of openSUSE Tumbleweed.",
      "Title": "Details",
      "Type": "General"
    },
    {
      "Text": "The CVRF data is provided by SUSE under the Creative Commons License 4.0 with Attribution (CC-BY-4.0).",
      "Title": "Terms of Use",
      "Type": "Legal Disclaimer"
    },
    {
      "Text": "openSUSE-Tumbleweed-2024-11091",
      "Title": "Patchnames",
      "Type": "Details"
    }
  ],
  "ProductTree": {
    "Relationships": [
      {
        "ProductReference": "libnghttp2-14-1.43.0-1.6",
        "RelatesToProductReference": "openSUSE Tumbleweed",
        "RelationType": "Default Component Of"
      },
      {
        "ProductReference": "libnghttp2-14-32bit-1.43.0-1.6",
        "RelatesToProductReference": "openSUSE Tumbleweed",
        "RelationType": "Default Component Of"
      },
      {
        "ProductReference": "libnghttp2-devel-1.43.0-1.6",
        "RelatesToProductReference": "openSUSE Tumbleweed",
        "RelationType": "Default Component Of"
      },
      {
        "ProductReference": "libnghttp2_asio-devel-1.43.0-1.6",
        "RelatesToProductReference": "openSUSE Tumbleweed",
        "RelationType": "Default Component Of"
      },
      {
        "ProductReference": "libnghttp2_asio1-1.43.0-1.6",
        "RelatesToProductReference": "openSUSE Tumbleweed",
        "RelationType": "Default Component Of"
      },
      {
        "ProductReference": "libnghttp2_asio1-32bit-1.43.0-1.6",
        "RelatesToProductReference": "openSUSE Tumbleweed",
        "RelationType": "Default Component Of"
      },
      {
        "ProductReference": "nghttp2-1.43.0-1.6",
        "RelatesToProductReference": "openSUSE Tumbleweed",
        "RelationType": "Default Component Of"
      }
    ]
  },
  "References": [
    {
      "URL": "https://www.suse.com/support/security/rating/",
      "Description": "SUSE Security Ratings"
    },
    {
      "URL": "https://www.suse.com/security/cve/CVE-2018-1000168/",
      "Description": "SUSE CVE CVE-2018-1000168 page"
    },
    {
      "URL": "https://www.suse.com/security/cve/CVE-2019-9511/",
      "Description": "SUSE CVE CVE-2019-9511 page"
    },
    {
      "URL": "https://www.suse.com/security/cve/CVE-2020-11080/",
      "Description": "SUSE CVE CVE-2020-11080 page"
    }
  ],
  "Vulnerabilities": [
    {
      "CVE": "CVE-2018-1000168",
      "Description": "nghttp2 version \u003e= 1.10.0 and nghttp2 \u003c= v1.31.0 contains an Improper Input Validation CWE-20 vulnerability in ALTSVC frame handling that can result in segmentation fault leading to denial of service. This attack appears to be exploitable via network client. This vulnerability appears to have been fixed in \u003e= 1.31.1.",
      "Threats": [
        {
          "Type": "Impact",
          "Severity": "moderate"
        }
      ],
      "References": [
        {
          "URL": "https://www.suse.com/security/cve/CVE-2018-1000168.html",
          "Description": "CVE-2018-1000168"
        },
        {
          "URL": "https://bugzilla.suse.com/1088639",
          "Description": "SUSE Bug 1088639"
        },
        {
          "URL": "https://bugzilla.suse.com/1097401",
          "Description": "SUSE Bug 1097401"
        }
      ],
      "ProductStatuses": [
        {
          "Type": "Fixed",
          "ProductID": [
            "openSUSE Tumbleweed:libnghttp2-14-1.43.0-1.6",
            "openSUSE Tumbleweed:libnghttp2-14-32bit-1.43.0-1.6",
            "openSUSE Tumbleweed:libnghttp2-devel-1.43.0-1.6",
            "openSUSE Tumbleweed:libnghttp2_asio-devel-1.43.0-1.6",
            "openSUSE Tumbleweed:libnghttp2_asio1-1.43.0-1.6",
            "openSUSE Tumbleweed:libnghttp2_asio1-32bit-1.43.0-1.6",
            "openSUSE Tumbleweed:nghttp2-1.43.0-1.6"
          ]
        }
      ],
      "CVSSScoreSets": {}
    },
    {
      "CVE": "CVE-2019-9511",
      "Description": "Some HTTP/2 implementations are vulnerable to window size manipulation and stream prioritization manipulation, potentially leading to a denial of service. The attacker requests a large amount of data from a specified resource over multiple streams. They manipulate window size and stream priority to force the server to queue the data in 1-byte chunks. Depending on how efficiently this data is queued, this can consume excess CPU, memory, or both.",
      "Threats": [
        {
          "Type": "Impact",
          "Severity": "important"
        }
      ],
      "References": [
        {
          "URL": "https://www.suse.com/security/cve/CVE-2019-9511.html",
          "Description": "CVE-2019-9511"
        },
        {
          "URL": "https://bugzilla.suse.com/1145579",
          "Description": "SUSE Bug 1145579"
        },
        {
          "URL": "https://bugzilla.suse.com/1146091",
          "Description": "SUSE Bug 1146091"
        },
        {
          "URL": "https://bugzilla.suse.com/1146182",
          "Description": "SUSE Bug 1146182"
        },
        {
          "URL": "https://bugzilla.suse.com/1193427",
          "Description": "SUSE Bug 1193427"
        },
        {
          "URL": "https://bugzilla.suse.com/1202787",
          "Description": "SUSE Bug 1202787"
        }
      ],
      "ProductStatuses": [
        {
          "Type": "Fixed",
          "ProductID": [
            "openSUSE Tumbleweed:libnghttp2-14-1.43.0-1.6",
            "openSUSE Tumbleweed:libnghttp2-14-32bit-1.43.0-1.6",
            "openSUSE Tumbleweed:libnghttp2-devel-1.43.0-1.6",
            "openSUSE Tumbleweed:libnghttp2_asio-devel-1.43.0-1.6",
            "openSUSE Tumbleweed:libnghttp2_asio1-1.43.0-1.6",
            "openSUSE Tumbleweed:libnghttp2_asio1-32bit-1.43.0-1.6",
            "openSUSE Tumbleweed:nghttp2-1.43.0-1.6"
          ]
        }
      ],
      "CVSSScoreSets": {}
    },
    {
      "CVE": "CVE-2020-11080",
      "Description": "In nghttp2 before version 1.41.0, the overly large HTTP/2 SETTINGS frame payload causes denial of service. The proof of concept attack involves a malicious client constructing a SETTINGS frame with a length of 14,400 bytes (2400 individual settings entries) over and over again. The attack causes the CPU to spike at 100%. nghttp2 v1.41.0 fixes this vulnerability. There is a workaround to this vulnerability. Implement nghttp2_on_frame_recv_callback callback, and if received frame is SETTINGS frame and the number of settings entries are large (e.g., \u003e 32), then drop the connection.",
      "Threats": [
        {
          "Type": "Impact",
          "Severity": "important"
        }
      ],
      "References": [
        {
          "URL": "https://www.suse.com/security/cve/CVE-2020-11080.html",
          "Description": "CVE-2020-11080"
        },
        {
          "URL": "https://bugzilla.suse.com/1172441",
          "Description": "SUSE Bug 1172441"
        },
        {
          "URL": "https://bugzilla.suse.com/1172442",
          "Description": "SUSE Bug 1172442"
        },
        {
          "URL": "https://bugzilla.suse.com/1181358",
          "Description": "SUSE Bug 1181358"
        }
      ],
      "ProductStatuses": [
        {
          "Type": "Fixed",
          "ProductID": [
            "openSUSE Tumbleweed:libnghttp2-14-1.43.0-1.6",
            "openSUSE Tumbleweed:libnghttp2-14-32bit-1.43.0-1.6",
            "openSUSE Tumbleweed:libnghttp2-devel-1.43.0-1.6",
            "openSUSE Tumbleweed:libnghttp2_asio-devel-1.43.0-1.6",
            "openSUSE Tumbleweed:libnghttp2_asio1-1.43.0-1.6",
            "openSUSE Tumbleweed:libnghttp2_asio1-32bit-1.43.0-1.6",
            "openSUSE Tumbleweed:nghttp2-1.43.0-1.6"
          ]
        }
      ],
      "CVSSScoreSets": {}
    }
  ]
}