{
  "Title": "audiofile-0.3.6-11.13 on GA media",
  "Tracking": {
    "ID": "openSUSE-SU-2024:10640-1",
    "Status": "Final",
    "Version": "1",
    "InitialReleaseDate": "2024-06-22T21:44:56Z",
    "CurrentReleaseDate": "2024-06-22T21:44:56Z",
    "RevisionHistory": [
      {
        "Number": "1",
        "Date": "2024-06-22T21:44:56Z",
        "Description": "current"
      }
    ]
  },
  "Notes": [
    {
      "Text": "audiofile-0.3.6-11.13 on GA media",
      "Title": "Topic",
      "Type": "Summary"
    },
    {
      "Text": "These are all security issues fixed in the audiofile-0.3.6-11.13 package on the GA media of openSUSE Tumbleweed.",
      "Title": "Details",
      "Type": "General"
    },
    {
      "Text": "The CVRF data is provided by SUSE under the Creative Commons License 4.0 with Attribution (CC-BY-4.0).",
      "Title": "Terms of Use",
      "Type": "Legal Disclaimer"
    },
    {
      "Text": "openSUSE-Tumbleweed-2024-10640",
      "Title": "Patchnames",
      "Type": "Details"
    }
  ],
  "ProductTree": {
    "Relationships": [
      {
        "ProductReference": "audiofile-0.3.6-11.13",
        "RelatesToProductReference": "openSUSE Tumbleweed",
        "RelationType": "Default Component Of"
      },
      {
        "ProductReference": "audiofile-devel-0.3.6-11.13",
        "RelatesToProductReference": "openSUSE Tumbleweed",
        "RelationType": "Default Component Of"
      },
      {
        "ProductReference": "audiofile-devel-32bit-0.3.6-11.13",
        "RelatesToProductReference": "openSUSE Tumbleweed",
        "RelationType": "Default Component Of"
      },
      {
        "ProductReference": "audiofile-doc-0.3.6-11.13",
        "RelatesToProductReference": "openSUSE Tumbleweed",
        "RelationType": "Default Component Of"
      },
      {
        "ProductReference": "libaudiofile1-0.3.6-11.13",
        "RelatesToProductReference": "openSUSE Tumbleweed",
        "RelationType": "Default Component Of"
      },
      {
        "ProductReference": "libaudiofile1-32bit-0.3.6-11.13",
        "RelatesToProductReference": "openSUSE Tumbleweed",
        "RelationType": "Default Component Of"
      }
    ]
  },
  "References": [
    {
      "URL": "https://www.suse.com/support/security/rating/",
      "Description": "SUSE Security Ratings"
    },
    {
      "URL": "https://www.suse.com/security/cve/CVE-2017-6828/",
      "Description": "SUSE CVE CVE-2017-6828 page"
    },
    {
      "URL": "https://www.suse.com/security/cve/CVE-2017-6830/",
      "Description": "SUSE CVE CVE-2017-6830 page"
    },
    {
      "URL": "https://www.suse.com/security/cve/CVE-2017-6832/",
      "Description": "SUSE CVE CVE-2017-6832 page"
    },
    {
      "URL": "https://www.suse.com/security/cve/CVE-2017-6834/",
      "Description": "SUSE CVE CVE-2017-6834 page"
    },
    {
      "URL": "https://www.suse.com/security/cve/CVE-2017-6835/",
      "Description": "SUSE CVE CVE-2017-6835 page"
    },
    {
      "URL": "https://www.suse.com/security/cve/CVE-2017-6837/",
      "Description": "SUSE CVE CVE-2017-6837 page"
    },
    {
      "URL": "https://www.suse.com/security/cve/CVE-2017-6839/",
      "Description": "SUSE CVE CVE-2017-6839 page"
    },
    {
      "URL": "https://www.suse.com/security/cve/CVE-2018-17095/",
      "Description": "SUSE CVE CVE-2018-17095 page"
    }
  ],
  "Vulnerabilities": [
    {
      "CVE": "CVE-2017-6828",
      "Description": "Heap-based buffer overflow in the readValue function in FileHandle.cpp in audiofile (aka libaudiofile and Audio File Library) 0.3.6 allows remote attackers to have unspecified impact via a crafted WAV file.",
      "Threats": [
        {
          "Type": "Impact",
          "Severity": "important"
        }
      ],
      "References": [
        {
          "URL": "https://www.suse.com/security/cve/CVE-2017-6828.html",
          "Description": "CVE-2017-6828"
        },
        {
          "URL": "https://bugzilla.suse.com/1026980",
          "Description": "SUSE Bug 1026980"
        }
      ],
      "ProductStatuses": [
        {
          "Type": "Fixed",
          "ProductID": [
            "openSUSE Tumbleweed:audiofile-0.3.6-11.13",
            "openSUSE Tumbleweed:audiofile-devel-0.3.6-11.13",
            "openSUSE Tumbleweed:audiofile-devel-32bit-0.3.6-11.13",
            "openSUSE Tumbleweed:audiofile-doc-0.3.6-11.13",
            "openSUSE Tumbleweed:libaudiofile1-0.3.6-11.13",
            "openSUSE Tumbleweed:libaudiofile1-32bit-0.3.6-11.13"
          ]
        }
      ],
      "CVSSScoreSets": {}
    },
    {
      "CVE": "CVE-2017-6830",
      "Description": "Heap-based buffer overflow in the alaw2linear_buf function in G711.cpp in Audio File Library (aka audiofile) 0.3.6 allows remote attackers to cause a denial of service (crash) via a crafted file.",
      "Threats": [
        {
          "Type": "Impact",
          "Severity": "moderate"
        }
      ],
      "References": [
        {
          "URL": "https://www.suse.com/security/cve/CVE-2017-6830.html",
          "Description": "CVE-2017-6830"
        },
        {
          "URL": "https://bugzilla.suse.com/1026982",
          "Description": "SUSE Bug 1026982"
        }
      ],
      "ProductStatuses": [
        {
          "Type": "Fixed",
          "ProductID": [
            "openSUSE Tumbleweed:audiofile-0.3.6-11.13",
            "openSUSE Tumbleweed:audiofile-devel-0.3.6-11.13",
            "openSUSE Tumbleweed:audiofile-devel-32bit-0.3.6-11.13",
            "openSUSE Tumbleweed:audiofile-doc-0.3.6-11.13",
            "openSUSE Tumbleweed:libaudiofile1-0.3.6-11.13",
            "openSUSE Tumbleweed:libaudiofile1-32bit-0.3.6-11.13"
          ]
        }
      ],
      "CVSSScoreSets": {}
    },
    {
      "CVE": "CVE-2017-6832",
      "Description": "Heap-based buffer overflow in the decodeBlock in MSADPCM.cpp in Audio File Library (aka audiofile) 0.3.6, 0.3.5, 0.3.4, 0.3.3, 0.3.2, 0.3.1, 0.3.0, 0.2.7 allows remote attackers to cause a denial of service (crash) via a crafted file.",
      "Threats": [
        {
          "Type": "Impact",
          "Severity": "moderate"
        }
      ],
      "References": [
        {
          "URL": "https://www.suse.com/security/cve/CVE-2017-6832.html",
          "Description": "CVE-2017-6832"
        },
        {
          "URL": "https://bugzilla.suse.com/1026984",
          "Description": "SUSE Bug 1026984"
        }
      ],
      "ProductStatuses": [
        {
          "Type": "Fixed",
          "ProductID": [
            "openSUSE Tumbleweed:audiofile-0.3.6-11.13",
            "openSUSE Tumbleweed:audiofile-devel-0.3.6-11.13",
            "openSUSE Tumbleweed:audiofile-devel-32bit-0.3.6-11.13",
            "openSUSE Tumbleweed:audiofile-doc-0.3.6-11.13",
            "openSUSE Tumbleweed:libaudiofile1-0.3.6-11.13",
            "openSUSE Tumbleweed:libaudiofile1-32bit-0.3.6-11.13"
          ]
        }
      ],
      "CVSSScoreSets": {}
    },
    {
      "CVE": "CVE-2017-6834",
      "Description": "Heap-based buffer overflow in the ulaw2linear_buf function in G711.cpp in Audio File Library (aka audiofile) 0.3.6, 0.3.5, 0.3.4, 0.3.3, 0.3.2, 0.3.1, 0.3.0, 0.2.7 allows remote attackers to cause a denial of service (crash) via a crafted file.",
      "Threats": [
        {
          "Type": "Impact",
          "Severity": "low"
        }
      ],
      "References": [
        {
          "URL": "https://www.suse.com/security/cve/CVE-2017-6834.html",
          "Description": "CVE-2017-6834"
        },
        {
          "URL": "https://bugzilla.suse.com/1026986",
          "Description": "SUSE Bug 1026986"
        }
      ],
      "ProductStatuses": [
        {
          "Type": "Fixed",
          "ProductID": [
            "openSUSE Tumbleweed:audiofile-0.3.6-11.13",
            "openSUSE Tumbleweed:audiofile-devel-0.3.6-11.13",
            "openSUSE Tumbleweed:audiofile-devel-32bit-0.3.6-11.13",
            "openSUSE Tumbleweed:audiofile-doc-0.3.6-11.13",
            "openSUSE Tumbleweed:libaudiofile1-0.3.6-11.13",
            "openSUSE Tumbleweed:libaudiofile1-32bit-0.3.6-11.13"
          ]
        }
      ],
      "CVSSScoreSets": {}
    },
    {
      "CVE": "CVE-2017-6835",
      "Description": "The reset1 function in libaudiofile/modules/BlockCodec.cpp in Audio File Library (aka audiofile) 0.3.6 allows remote attackers to cause a denial of service (divide-by-zero error and crash) via a crafted file.",
      "Threats": [
        {
          "Type": "Impact",
          "Severity": "moderate"
        }
      ],
      "References": [
        {
          "URL": "https://www.suse.com/security/cve/CVE-2017-6835.html",
          "Description": "CVE-2017-6835"
        },
        {
          "URL": "https://bugzilla.suse.com/1026988",
          "Description": "SUSE Bug 1026988"
        }
      ],
      "ProductStatuses": [
        {
          "Type": "Fixed",
          "ProductID": [
            "openSUSE Tumbleweed:audiofile-0.3.6-11.13",
            "openSUSE Tumbleweed:audiofile-devel-0.3.6-11.13",
            "openSUSE Tumbleweed:audiofile-devel-32bit-0.3.6-11.13",
            "openSUSE Tumbleweed:audiofile-doc-0.3.6-11.13",
            "openSUSE Tumbleweed:libaudiofile1-0.3.6-11.13",
            "openSUSE Tumbleweed:libaudiofile1-32bit-0.3.6-11.13"
          ]
        }
      ],
      "CVSSScoreSets": {}
    },
    {
      "CVE": "CVE-2017-6837",
      "Description": "WAVE.cpp in Audio File Library (aka audiofile) 0.3.6 allows remote attackers to cause a denial of service (crash) via vectors related to a large number of coefficients.",
      "Threats": [
        {
          "Type": "Impact",
          "Severity": "moderate"
        }
      ],
      "References": [
        {
          "URL": "https://www.suse.com/security/cve/CVE-2017-6837.html",
          "Description": "CVE-2017-6837"
        },
        {
          "URL": "https://bugzilla.suse.com/1026978",
          "Description": "SUSE Bug 1026978"
        }
      ],
      "ProductStatuses": [
        {
          "Type": "Fixed",
          "ProductID": [
            "openSUSE Tumbleweed:audiofile-0.3.6-11.13",
            "openSUSE Tumbleweed:audiofile-devel-0.3.6-11.13",
            "openSUSE Tumbleweed:audiofile-devel-32bit-0.3.6-11.13",
            "openSUSE Tumbleweed:audiofile-doc-0.3.6-11.13",
            "openSUSE Tumbleweed:libaudiofile1-0.3.6-11.13",
            "openSUSE Tumbleweed:libaudiofile1-32bit-0.3.6-11.13"
          ]
        }
      ],
      "CVSSScoreSets": {
        "BaseScore": "6.8",
        "Vector": "AV:N/AC:M/Au:N/C:P/I:P/A:P"
      }
    },
    {
      "CVE": "CVE-2017-6839",
      "Description": "Integer overflow in modules/MSADPCM.cpp in Audio File Library (aka audiofile) 0.3.6 allows remote attackers to cause a denial of service (crash) via a crafted file.",
      "Threats": [
        {
          "Type": "Impact",
          "Severity": "moderate"
        }
      ],
      "References": [
        {
          "URL": "https://www.suse.com/security/cve/CVE-2017-6839.html",
          "Description": "CVE-2017-6839"
        },
        {
          "URL": "https://bugzilla.suse.com/1026978",
          "Description": "SUSE Bug 1026978"
        }
      ],
      "ProductStatuses": [
        {
          "Type": "Fixed",
          "ProductID": [
            "openSUSE Tumbleweed:audiofile-0.3.6-11.13",
            "openSUSE Tumbleweed:audiofile-devel-0.3.6-11.13",
            "openSUSE Tumbleweed:audiofile-devel-32bit-0.3.6-11.13",
            "openSUSE Tumbleweed:audiofile-doc-0.3.6-11.13",
            "openSUSE Tumbleweed:libaudiofile1-0.3.6-11.13",
            "openSUSE Tumbleweed:libaudiofile1-32bit-0.3.6-11.13"
          ]
        }
      ],
      "CVSSScoreSets": {
        "BaseScore": "6.8",
        "Vector": "AV:N/AC:M/Au:N/C:P/I:P/A:P"
      }
    },
    {
      "CVE": "CVE-2018-17095",
      "Description": "An issue has been discovered in mpruett Audio File Library (aka audiofile) 0.3.6, 0.3.5, 0.3.4, 0.3.3, 0.3.2, 0.3.1, 0.3.0. A heap-based buffer overflow in Expand3To4Module::run has occurred when running sfconvert.",
      "Threats": [
        {
          "Type": "Impact",
          "Severity": "important"
        }
      ],
      "References": [
        {
          "URL": "https://www.suse.com/security/cve/CVE-2018-17095.html",
          "Description": "CVE-2018-17095"
        },
        {
          "URL": "https://bugzilla.suse.com/1111586",
          "Description": "SUSE Bug 1111586"
        }
      ],
      "ProductStatuses": [
        {
          "Type": "Fixed",
          "ProductID": [
            "openSUSE Tumbleweed:audiofile-0.3.6-11.13",
            "openSUSE Tumbleweed:audiofile-devel-0.3.6-11.13",
            "openSUSE Tumbleweed:audiofile-devel-32bit-0.3.6-11.13",
            "openSUSE Tumbleweed:audiofile-doc-0.3.6-11.13",
            "openSUSE Tumbleweed:libaudiofile1-0.3.6-11.13",
            "openSUSE Tumbleweed:libaudiofile1-32bit-0.3.6-11.13"
          ]
        }
      ],
      "CVSSScoreSets": {}
    }
  ]
}