{
  "Title": "xen-4.18.2_02-1.1 on GA media",
  "Tracking": {
    "ID": "openSUSE-SU-2024:13853-1",
    "Status": "Final",
    "Version": "1",
    "InitialReleaseDate": "2024-06-20T21:44:22Z",
    "CurrentReleaseDate": "2024-06-20T21:44:22Z",
    "RevisionHistory": [
      {
        "Number": "1",
        "Date": "2024-06-20T21:44:22Z",
        "Description": "current"
      }
    ]
  },
  "Notes": [
    {
      "Text": "xen-4.18.2_02-1.1 on GA media",
      "Title": "Topic",
      "Type": "Summary"
    },
    {
      "Text": "These are all security issues fixed in the xen-4.18.2_02-1.1 package on the GA media of openSUSE Tumbleweed.",
      "Title": "Details",
      "Type": "General"
    },
    {
      "Text": "The CVRF data is provided by SUSE under the Creative Commons License 4.0 with Attribution (CC-BY-4.0).",
      "Title": "Terms of Use",
      "Type": "Legal Disclaimer"
    },
    {
      "Text": "openSUSE-Tumbleweed-2024-13853",
      "Title": "Patchnames",
      "Type": "Details"
    }
  ],
  "ProductTree": {
    "Relationships": [
      {
        "ProductReference": "xen-4.18.2_02-1.1",
        "RelatesToProductReference": "openSUSE Tumbleweed",
        "RelationType": "Default Component Of"
      },
      {
        "ProductReference": "xen-devel-4.18.2_02-1.1",
        "RelatesToProductReference": "openSUSE Tumbleweed",
        "RelationType": "Default Component Of"
      },
      {
        "ProductReference": "xen-doc-html-4.18.2_02-1.1",
        "RelatesToProductReference": "openSUSE Tumbleweed",
        "RelationType": "Default Component Of"
      },
      {
        "ProductReference": "xen-libs-4.18.2_02-1.1",
        "RelatesToProductReference": "openSUSE Tumbleweed",
        "RelationType": "Default Component Of"
      },
      {
        "ProductReference": "xen-tools-4.18.2_02-1.1",
        "RelatesToProductReference": "openSUSE Tumbleweed",
        "RelationType": "Default Component Of"
      },
      {
        "ProductReference": "xen-tools-domU-4.18.2_02-1.1",
        "RelatesToProductReference": "openSUSE Tumbleweed",
        "RelationType": "Default Component Of"
      },
      {
        "ProductReference": "xen-tools-xendomains-wait-disk-4.18.2_02-1.1",
        "RelatesToProductReference": "openSUSE Tumbleweed",
        "RelationType": "Default Component Of"
      }
    ]
  },
  "References": [
    {
      "URL": "https://www.suse.com/support/security/rating/",
      "Description": "SUSE Security Ratings"
    },
    {
      "URL": "https://www.suse.com/security/cve/CVE-2023-46842/",
      "Description": "SUSE CVE CVE-2023-46842 page"
    },
    {
      "URL": "https://www.suse.com/security/cve/CVE-2024-2201/",
      "Description": "SUSE CVE CVE-2024-2201 page"
    },
    {
      "URL": "https://www.suse.com/security/cve/CVE-2024-31142/",
      "Description": "SUSE CVE CVE-2024-31142 page"
    }
  ],
  "Vulnerabilities": [
    {
      "CVE": "CVE-2023-46842",
      "Description": "Unlike 32-bit PV guests, HVM guests may switch freely between 64-bit and\nother modes.  This in particular means that they may set registers used\nto pass 32-bit-mode hypercall arguments to values outside of the range\n32-bit code would be able to set them to.\n\nWhen processing of hypercalls takes a considerable amount of time,\nthe hypervisor may choose to invoke a hypercall continuation.  Doing so\ninvolves putting (perhaps updated) hypercall arguments in respective\nregisters.  For guests not running in 64-bit mode this further involves\na certain amount of translation of the values.\n\nUnfortunately internal sanity checking of these translated values\nassumes high halves of registers to always be clear when invoking a\nhypercall.  When this is found not to be the case, it triggers a\nconsistency check in the hypervisor and causes a crash.\n",
      "Threats": [
        {
          "Type": "Impact",
          "Severity": "moderate"
        }
      ],
      "References": [
        {
          "URL": "https://www.suse.com/security/cve/CVE-2023-46842.html",
          "Description": "CVE-2023-46842"
        },
        {
          "URL": "https://bugzilla.suse.com/1221984",
          "Description": "SUSE Bug 1221984"
        }
      ],
      "ProductStatuses": [
        {
          "Type": "Fixed",
          "ProductID": [
            "openSUSE Tumbleweed:xen-4.18.2_02-1.1",
            "openSUSE Tumbleweed:xen-devel-4.18.2_02-1.1",
            "openSUSE Tumbleweed:xen-doc-html-4.18.2_02-1.1",
            "openSUSE Tumbleweed:xen-libs-4.18.2_02-1.1",
            "openSUSE Tumbleweed:xen-tools-4.18.2_02-1.1",
            "openSUSE Tumbleweed:xen-tools-domU-4.18.2_02-1.1",
            "openSUSE Tumbleweed:xen-tools-xendomains-wait-disk-4.18.2_02-1.1"
          ]
        }
      ],
      "CVSSScoreSets": {}
    },
    {
      "CVE": "CVE-2024-2201",
      "Description": "** RESERVED ** This candidate has been reserved by an organization or individual that will use it when announcing a new security problem. When the candidate has been publicized, the details for this candidate will be provided.",
      "Threats": [
        {
          "Type": "Impact",
          "Severity": "moderate"
        }
      ],
      "References": [
        {
          "URL": "https://www.suse.com/security/cve/CVE-2024-2201.html",
          "Description": "CVE-2024-2201"
        },
        {
          "URL": "https://bugzilla.suse.com/1217339",
          "Description": "SUSE Bug 1217339"
        }
      ],
      "ProductStatuses": [
        {
          "Type": "Fixed",
          "ProductID": [
            "openSUSE Tumbleweed:xen-4.18.2_02-1.1",
            "openSUSE Tumbleweed:xen-devel-4.18.2_02-1.1",
            "openSUSE Tumbleweed:xen-doc-html-4.18.2_02-1.1",
            "openSUSE Tumbleweed:xen-libs-4.18.2_02-1.1",
            "openSUSE Tumbleweed:xen-tools-4.18.2_02-1.1",
            "openSUSE Tumbleweed:xen-tools-domU-4.18.2_02-1.1",
            "openSUSE Tumbleweed:xen-tools-xendomains-wait-disk-4.18.2_02-1.1"
          ]
        }
      ],
      "CVSSScoreSets": {}
    },
    {
      "CVE": "CVE-2024-31142",
      "Description": "Because of a logical error in XSA-407 (Branch Type Confusion), the\nmitigation is not applied properly when it is intended to be used.\nXSA-434 (Speculative Return Stack Overflow) uses the same\ninfrastructure, so is equally impacted.\n\nFor more details, see:\n  https://xenbits.xen.org/xsa/advisory-407.html\n  https://xenbits.xen.org/xsa/advisory-434.html\n",
      "Threats": [
        {
          "Type": "Impact",
          "Severity": "moderate"
        }
      ],
      "References": [
        {
          "URL": "https://www.suse.com/security/cve/CVE-2024-31142.html",
          "Description": "CVE-2024-31142"
        },
        {
          "URL": "https://bugzilla.suse.com/1222302",
          "Description": "SUSE Bug 1222302"
        }
      ],
      "ProductStatuses": [
        {
          "Type": "Fixed",
          "ProductID": [
            "openSUSE Tumbleweed:xen-4.18.2_02-1.1",
            "openSUSE Tumbleweed:xen-devel-4.18.2_02-1.1",
            "openSUSE Tumbleweed:xen-doc-html-4.18.2_02-1.1",
            "openSUSE Tumbleweed:xen-libs-4.18.2_02-1.1",
            "openSUSE Tumbleweed:xen-tools-4.18.2_02-1.1",
            "openSUSE Tumbleweed:xen-tools-domU-4.18.2_02-1.1",
            "openSUSE Tumbleweed:xen-tools-xendomains-wait-disk-4.18.2_02-1.1"
          ]
        }
      ],
      "CVSSScoreSets": {}
    }
  ]
}