{
  "Title": "MozillaThunderbird-91.5.0-1.1 on GA media",
  "Tracking": {
    "ID": "openSUSE-SU-2024:11733-1",
    "Status": "Final",
    "Version": "1",
    "InitialReleaseDate": "2024-06-22T21:44:56Z",
    "CurrentReleaseDate": "2024-06-22T21:44:56Z",
    "RevisionHistory": [
      {
        "Number": "1",
        "Date": "2024-06-22T21:44:56Z",
        "Description": "current"
      }
    ]
  },
  "Notes": [
    {
      "Text": "MozillaThunderbird-91.5.0-1.1 on GA media",
      "Title": "Topic",
      "Type": "Summary"
    },
    {
      "Text": "These are all security issues fixed in the MozillaThunderbird-91.5.0-1.1 package on the GA media of openSUSE Tumbleweed.",
      "Title": "Details",
      "Type": "General"
    },
    {
      "Text": "The CVRF data is provided by SUSE under the Creative Commons License 4.0 with Attribution (CC-BY-4.0).",
      "Title": "Terms of Use",
      "Type": "Legal Disclaimer"
    },
    {
      "Text": "openSUSE-Tumbleweed-2024-11733",
      "Title": "Patchnames",
      "Type": "Details"
    }
  ],
  "ProductTree": {
    "Relationships": [
      {
        "ProductReference": "MozillaThunderbird-91.5.0-1.1",
        "RelatesToProductReference": "openSUSE Tumbleweed",
        "RelationType": "Default Component Of"
      },
      {
        "ProductReference": "MozillaThunderbird-translations-common-91.5.0-1.1",
        "RelatesToProductReference": "openSUSE Tumbleweed",
        "RelationType": "Default Component Of"
      },
      {
        "ProductReference": "MozillaThunderbird-translations-other-91.5.0-1.1",
        "RelatesToProductReference": "openSUSE Tumbleweed",
        "RelationType": "Default Component Of"
      }
    ]
  },
  "References": [
    {
      "URL": "https://www.suse.com/support/security/rating/",
      "Description": "SUSE Security Ratings"
    },
    {
      "URL": "https://www.suse.com/security/cve/CVE-2021-4140/",
      "Description": "SUSE CVE CVE-2021-4140 page"
    },
    {
      "URL": "https://www.suse.com/security/cve/CVE-2022-22737/",
      "Description": "SUSE CVE CVE-2022-22737 page"
    },
    {
      "URL": "https://www.suse.com/security/cve/CVE-2022-22738/",
      "Description": "SUSE CVE CVE-2022-22738 page"
    },
    {
      "URL": "https://www.suse.com/security/cve/CVE-2022-22739/",
      "Description": "SUSE CVE CVE-2022-22739 page"
    },
    {
      "URL": "https://www.suse.com/security/cve/CVE-2022-22740/",
      "Description": "SUSE CVE CVE-2022-22740 page"
    },
    {
      "URL": "https://www.suse.com/security/cve/CVE-2022-22741/",
      "Description": "SUSE CVE CVE-2022-22741 page"
    },
    {
      "URL": "https://www.suse.com/security/cve/CVE-2022-22742/",
      "Description": "SUSE CVE CVE-2022-22742 page"
    },
    {
      "URL": "https://www.suse.com/security/cve/CVE-2022-22743/",
      "Description": "SUSE CVE CVE-2022-22743 page"
    },
    {
      "URL": "https://www.suse.com/security/cve/CVE-2022-22744/",
      "Description": "SUSE CVE CVE-2022-22744 page"
    },
    {
      "URL": "https://www.suse.com/security/cve/CVE-2022-22745/",
      "Description": "SUSE CVE CVE-2022-22745 page"
    },
    {
      "URL": "https://www.suse.com/security/cve/CVE-2022-22746/",
      "Description": "SUSE CVE CVE-2022-22746 page"
    },
    {
      "URL": "https://www.suse.com/security/cve/CVE-2022-22747/",
      "Description": "SUSE CVE CVE-2022-22747 page"
    },
    {
      "URL": "https://www.suse.com/security/cve/CVE-2022-22748/",
      "Description": "SUSE CVE CVE-2022-22748 page"
    },
    {
      "URL": "https://www.suse.com/security/cve/CVE-2022-22751/",
      "Description": "SUSE CVE CVE-2022-22751 page"
    }
  ],
  "Vulnerabilities": [
    {
      "CVE": "CVE-2021-4140",
      "Description": "It was possible to construct specific XSLT markup that would be able to bypass an iframe sandbox. This vulnerability affects Firefox ESR \u003c 91.5, Firefox \u003c 96, and Thunderbird \u003c 91.5.",
      "Threats": [
        {
          "Type": "Impact",
          "Severity": "moderate"
        }
      ],
      "References": [
        {
          "URL": "https://www.suse.com/security/cve/CVE-2021-4140.html",
          "Description": "CVE-2021-4140"
        },
        {
          "URL": "https://bugzilla.suse.com/1194547",
          "Description": "SUSE Bug 1194547"
        }
      ],
      "ProductStatuses": [
        {
          "Type": "Fixed",
          "ProductID": [
            "openSUSE Tumbleweed:MozillaThunderbird-91.5.0-1.1",
            "openSUSE Tumbleweed:MozillaThunderbird-translations-common-91.5.0-1.1",
            "openSUSE Tumbleweed:MozillaThunderbird-translations-other-91.5.0-1.1"
          ]
        }
      ],
      "CVSSScoreSets": {}
    },
    {
      "CVE": "CVE-2022-22737",
      "Description": "Constructing audio sinks could have lead to a race condition when playing audio files and closing windows. This could have lead to a use-after-free causing a potentially exploitable crash. This vulnerability affects Firefox ESR \u003c 91.5, Firefox \u003c 96, and Thunderbird \u003c 91.5.",
      "Threats": [
        {
          "Type": "Impact",
          "Severity": "moderate"
        }
      ],
      "References": [
        {
          "URL": "https://www.suse.com/security/cve/CVE-2022-22737.html",
          "Description": "CVE-2022-22737"
        },
        {
          "URL": "https://bugzilla.suse.com/1194547",
          "Description": "SUSE Bug 1194547"
        }
      ],
      "ProductStatuses": [
        {
          "Type": "Fixed",
          "ProductID": [
            "openSUSE Tumbleweed:MozillaThunderbird-91.5.0-1.1",
            "openSUSE Tumbleweed:MozillaThunderbird-translations-common-91.5.0-1.1",
            "openSUSE Tumbleweed:MozillaThunderbird-translations-other-91.5.0-1.1"
          ]
        }
      ],
      "CVSSScoreSets": {}
    },
    {
      "CVE": "CVE-2022-22738",
      "Description": "Applying a CSS filter effect could have accessed out of bounds memory. This could have lead to a heap-buffer-overflow causing a potentially exploitable crash. This vulnerability affects Firefox ESR \u003c 91.5, Firefox \u003c 96, and Thunderbird \u003c 91.5.",
      "Threats": [
        {
          "Type": "Impact",
          "Severity": "moderate"
        }
      ],
      "References": [
        {
          "URL": "https://www.suse.com/security/cve/CVE-2022-22738.html",
          "Description": "CVE-2022-22738"
        },
        {
          "URL": "https://bugzilla.suse.com/1194547",
          "Description": "SUSE Bug 1194547"
        }
      ],
      "ProductStatuses": [
        {
          "Type": "Fixed",
          "ProductID": [
            "openSUSE Tumbleweed:MozillaThunderbird-91.5.0-1.1",
            "openSUSE Tumbleweed:MozillaThunderbird-translations-common-91.5.0-1.1",
            "openSUSE Tumbleweed:MozillaThunderbird-translations-other-91.5.0-1.1"
          ]
        }
      ],
      "CVSSScoreSets": {}
    },
    {
      "CVE": "CVE-2022-22739",
      "Description": "Malicious websites could have tricked users into accepting launching a program to handle an external URL protocol. This vulnerability affects Firefox ESR \u003c 91.5, Firefox \u003c 96, and Thunderbird \u003c 91.5.",
      "Threats": [
        {
          "Type": "Impact",
          "Severity": "moderate"
        }
      ],
      "References": [
        {
          "URL": "https://www.suse.com/security/cve/CVE-2022-22739.html",
          "Description": "CVE-2022-22739"
        },
        {
          "URL": "https://bugzilla.suse.com/1194547",
          "Description": "SUSE Bug 1194547"
        }
      ],
      "ProductStatuses": [
        {
          "Type": "Fixed",
          "ProductID": [
            "openSUSE Tumbleweed:MozillaThunderbird-91.5.0-1.1",
            "openSUSE Tumbleweed:MozillaThunderbird-translations-common-91.5.0-1.1",
            "openSUSE Tumbleweed:MozillaThunderbird-translations-other-91.5.0-1.1"
          ]
        }
      ],
      "CVSSScoreSets": {}
    },
    {
      "CVE": "CVE-2022-22740",
      "Description": "Certain network request objects were freed too early when releasing a network request handle. This could have lead to a use-after-free causing a potentially exploitable crash. This vulnerability affects Firefox ESR \u003c 91.5, Firefox \u003c 96, and Thunderbird \u003c 91.5.",
      "Threats": [
        {
          "Type": "Impact",
          "Severity": "moderate"
        }
      ],
      "References": [
        {
          "URL": "https://www.suse.com/security/cve/CVE-2022-22740.html",
          "Description": "CVE-2022-22740"
        },
        {
          "URL": "https://bugzilla.suse.com/1194547",
          "Description": "SUSE Bug 1194547"
        }
      ],
      "ProductStatuses": [
        {
          "Type": "Fixed",
          "ProductID": [
            "openSUSE Tumbleweed:MozillaThunderbird-91.5.0-1.1",
            "openSUSE Tumbleweed:MozillaThunderbird-translations-common-91.5.0-1.1",
            "openSUSE Tumbleweed:MozillaThunderbird-translations-other-91.5.0-1.1"
          ]
        }
      ],
      "CVSSScoreSets": {}
    },
    {
      "CVE": "CVE-2022-22741",
      "Description": "When resizing a popup while requesting fullscreen access, the popup would have become unable to leave fullscreen mode. This vulnerability affects Firefox ESR \u003c 91.5, Firefox \u003c 96, and Thunderbird \u003c 91.5.",
      "Threats": [
        {
          "Type": "Impact",
          "Severity": "moderate"
        }
      ],
      "References": [
        {
          "URL": "https://www.suse.com/security/cve/CVE-2022-22741.html",
          "Description": "CVE-2022-22741"
        },
        {
          "URL": "https://bugzilla.suse.com/1194547",
          "Description": "SUSE Bug 1194547"
        }
      ],
      "ProductStatuses": [
        {
          "Type": "Fixed",
          "ProductID": [
            "openSUSE Tumbleweed:MozillaThunderbird-91.5.0-1.1",
            "openSUSE Tumbleweed:MozillaThunderbird-translations-common-91.5.0-1.1",
            "openSUSE Tumbleweed:MozillaThunderbird-translations-other-91.5.0-1.1"
          ]
        }
      ],
      "CVSSScoreSets": {}
    },
    {
      "CVE": "CVE-2022-22742",
      "Description": "When inserting text while in edit mode, some characters might have lead to out-of-bounds memory access causing a potentially exploitable crash. This vulnerability affects Firefox ESR \u003c 91.5, Firefox \u003c 96, and Thunderbird \u003c 91.5.",
      "Threats": [
        {
          "Type": "Impact",
          "Severity": "moderate"
        }
      ],
      "References": [
        {
          "URL": "https://www.suse.com/security/cve/CVE-2022-22742.html",
          "Description": "CVE-2022-22742"
        },
        {
          "URL": "https://bugzilla.suse.com/1194547",
          "Description": "SUSE Bug 1194547"
        }
      ],
      "ProductStatuses": [
        {
          "Type": "Fixed",
          "ProductID": [
            "openSUSE Tumbleweed:MozillaThunderbird-91.5.0-1.1",
            "openSUSE Tumbleweed:MozillaThunderbird-translations-common-91.5.0-1.1",
            "openSUSE Tumbleweed:MozillaThunderbird-translations-other-91.5.0-1.1"
          ]
        }
      ],
      "CVSSScoreSets": {}
    },
    {
      "CVE": "CVE-2022-22743",
      "Description": "When navigating from inside an iframe while requesting fullscreen access, an attacker-controlled tab could have made the browser unable to leave fullscreen mode. This vulnerability affects Firefox ESR \u003c 91.5, Firefox \u003c 96, and Thunderbird \u003c 91.5.",
      "Threats": [
        {
          "Type": "Impact",
          "Severity": "moderate"
        }
      ],
      "References": [
        {
          "URL": "https://www.suse.com/security/cve/CVE-2022-22743.html",
          "Description": "CVE-2022-22743"
        },
        {
          "URL": "https://bugzilla.suse.com/1194547",
          "Description": "SUSE Bug 1194547"
        }
      ],
      "ProductStatuses": [
        {
          "Type": "Fixed",
          "ProductID": [
            "openSUSE Tumbleweed:MozillaThunderbird-91.5.0-1.1",
            "openSUSE Tumbleweed:MozillaThunderbird-translations-common-91.5.0-1.1",
            "openSUSE Tumbleweed:MozillaThunderbird-translations-other-91.5.0-1.1"
          ]
        }
      ],
      "CVSSScoreSets": {}
    },
    {
      "CVE": "CVE-2022-22744",
      "Description": "The constructed curl command from the \"Copy as curl\" feature in DevTools was not properly escaped for PowerShell. This could have lead to command injection if pasted into a Powershell prompt.\u003cbr\u003e*This bug only affects Thunderbird for Windows. Other operating systems are unaffected.*. This vulnerability affects Firefox ESR \u003c 91.5, Firefox \u003c 96, and Thunderbird \u003c 91.5.",
      "Threats": [
        {
          "Type": "Impact",
          "Severity": "moderate"
        }
      ],
      "References": [
        {
          "URL": "https://www.suse.com/security/cve/CVE-2022-22744.html",
          "Description": "CVE-2022-22744"
        },
        {
          "URL": "https://bugzilla.suse.com/1194547",
          "Description": "SUSE Bug 1194547"
        }
      ],
      "ProductStatuses": [
        {
          "Type": "Fixed",
          "ProductID": [
            "openSUSE Tumbleweed:MozillaThunderbird-91.5.0-1.1",
            "openSUSE Tumbleweed:MozillaThunderbird-translations-common-91.5.0-1.1",
            "openSUSE Tumbleweed:MozillaThunderbird-translations-other-91.5.0-1.1"
          ]
        }
      ],
      "CVSSScoreSets": {}
    },
    {
      "CVE": "CVE-2022-22745",
      "Description": "Securitypolicyviolation events could have leaked cross-origin information for frame-ancestors violations. This vulnerability affects Firefox ESR \u003c 91.5, Firefox \u003c 96, and Thunderbird \u003c 91.5.",
      "Threats": [
        {
          "Type": "Impact",
          "Severity": "moderate"
        }
      ],
      "References": [
        {
          "URL": "https://www.suse.com/security/cve/CVE-2022-22745.html",
          "Description": "CVE-2022-22745"
        },
        {
          "URL": "https://bugzilla.suse.com/1194547",
          "Description": "SUSE Bug 1194547"
        }
      ],
      "ProductStatuses": [
        {
          "Type": "Fixed",
          "ProductID": [
            "openSUSE Tumbleweed:MozillaThunderbird-91.5.0-1.1",
            "openSUSE Tumbleweed:MozillaThunderbird-translations-common-91.5.0-1.1",
            "openSUSE Tumbleweed:MozillaThunderbird-translations-other-91.5.0-1.1"
          ]
        }
      ],
      "CVSSScoreSets": {}
    },
    {
      "CVE": "CVE-2022-22746",
      "Description": "A race condition could have allowed bypassing the fullscreen notification which could have lead to a fullscreen window spoof being unnoticed.\u003cbr\u003e*This bug only affects Firefox for Windows. Other operating systems are unaffected.*. This vulnerability affects Firefox ESR \u003c 91.5, Firefox \u003c 96, and Thunderbird \u003c 91.5.",
      "Threats": [
        {
          "Type": "Impact",
          "Severity": "moderate"
        }
      ],
      "References": [
        {
          "URL": "https://www.suse.com/security/cve/CVE-2022-22746.html",
          "Description": "CVE-2022-22746"
        },
        {
          "URL": "https://bugzilla.suse.com/1194547",
          "Description": "SUSE Bug 1194547"
        }
      ],
      "ProductStatuses": [
        {
          "Type": "Fixed",
          "ProductID": [
            "openSUSE Tumbleweed:MozillaThunderbird-91.5.0-1.1",
            "openSUSE Tumbleweed:MozillaThunderbird-translations-common-91.5.0-1.1",
            "openSUSE Tumbleweed:MozillaThunderbird-translations-other-91.5.0-1.1"
          ]
        }
      ],
      "CVSSScoreSets": {}
    },
    {
      "CVE": "CVE-2022-22747",
      "Description": "After accepting an untrusted certificate, handling an empty pkcs7 sequence as part of the certificate data could have lead to a crash. This crash is believed to be unexploitable. This vulnerability affects Firefox ESR \u003c 91.5, Firefox \u003c 96, and Thunderbird \u003c 91.5.",
      "Threats": [
        {
          "Type": "Impact",
          "Severity": "moderate"
        }
      ],
      "References": [
        {
          "URL": "https://www.suse.com/security/cve/CVE-2022-22747.html",
          "Description": "CVE-2022-22747"
        },
        {
          "URL": "https://bugzilla.suse.com/1194547",
          "Description": "SUSE Bug 1194547"
        }
      ],
      "ProductStatuses": [
        {
          "Type": "Fixed",
          "ProductID": [
            "openSUSE Tumbleweed:MozillaThunderbird-91.5.0-1.1",
            "openSUSE Tumbleweed:MozillaThunderbird-translations-common-91.5.0-1.1",
            "openSUSE Tumbleweed:MozillaThunderbird-translations-other-91.5.0-1.1"
          ]
        }
      ],
      "CVSSScoreSets": {}
    },
    {
      "CVE": "CVE-2022-22748",
      "Description": "Malicious websites could have confused Firefox into showing the wrong origin when asking to launch a program and handling an external URL protocol. This vulnerability affects Firefox ESR \u003c 91.5, Firefox \u003c 96, and Thunderbird \u003c 91.5.",
      "Threats": [
        {
          "Type": "Impact",
          "Severity": "moderate"
        }
      ],
      "References": [
        {
          "URL": "https://www.suse.com/security/cve/CVE-2022-22748.html",
          "Description": "CVE-2022-22748"
        },
        {
          "URL": "https://bugzilla.suse.com/1194547",
          "Description": "SUSE Bug 1194547"
        }
      ],
      "ProductStatuses": [
        {
          "Type": "Fixed",
          "ProductID": [
            "openSUSE Tumbleweed:MozillaThunderbird-91.5.0-1.1",
            "openSUSE Tumbleweed:MozillaThunderbird-translations-common-91.5.0-1.1",
            "openSUSE Tumbleweed:MozillaThunderbird-translations-other-91.5.0-1.1"
          ]
        }
      ],
      "CVSSScoreSets": {}
    },
    {
      "CVE": "CVE-2022-22751",
      "Description": "Mozilla developers Calixte Denizet, Kershaw Chang, Christian Holler, Jason Kratzer, Gabriele Svelto, Tyson Smith, Simon Giesecke, and Steve Fink reported memory safety bugs present in Firefox 95 and Firefox ESR 91.4. Some of these bugs showed evidence of memory corruption and we presume that with enough effort some of these could have been exploited to run arbitrary code. This vulnerability affects Firefox ESR \u003c 91.5, Firefox \u003c 96, and Thunderbird \u003c 91.5.",
      "Threats": [
        {
          "Type": "Impact",
          "Severity": "moderate"
        }
      ],
      "References": [
        {
          "URL": "https://www.suse.com/security/cve/CVE-2022-22751.html",
          "Description": "CVE-2022-22751"
        },
        {
          "URL": "https://bugzilla.suse.com/1194547",
          "Description": "SUSE Bug 1194547"
        }
      ],
      "ProductStatuses": [
        {
          "Type": "Fixed",
          "ProductID": [
            "openSUSE Tumbleweed:MozillaThunderbird-91.5.0-1.1",
            "openSUSE Tumbleweed:MozillaThunderbird-translations-common-91.5.0-1.1",
            "openSUSE Tumbleweed:MozillaThunderbird-translations-other-91.5.0-1.1"
          ]
        }
      ],
      "CVSSScoreSets": {}
    }
  ]
}