{
  "Title": "ruby3.2-rubygem-rails-html-sanitizer-1.5.0-2.1 on GA media",
  "Tracking": {
    "ID": "openSUSE-SU-2024:13137-1",
    "Status": "Final",
    "Version": "1",
    "InitialReleaseDate": "2024-06-20T21:44:22Z",
    "CurrentReleaseDate": "2024-06-20T21:44:22Z",
    "RevisionHistory": [
      {
        "Number": "1",
        "Date": "2024-06-20T21:44:22Z",
        "Description": "current"
      }
    ]
  },
  "Notes": [
    {
      "Text": "ruby3.2-rubygem-rails-html-sanitizer-1.5.0-2.1 on GA media",
      "Title": "Topic",
      "Type": "Summary"
    },
    {
      "Text": "These are all security issues fixed in the ruby3.2-rubygem-rails-html-sanitizer-1.5.0-2.1 package on the GA media of openSUSE Tumbleweed.",
      "Title": "Details",
      "Type": "General"
    },
    {
      "Text": "The CVRF data is provided by SUSE under the Creative Commons License 4.0 with Attribution (CC-BY-4.0).",
      "Title": "Terms of Use",
      "Type": "Legal Disclaimer"
    },
    {
      "Text": "openSUSE-Tumbleweed-2024-13137",
      "Title": "Patchnames",
      "Type": "Details"
    }
  ],
  "ProductTree": {
    "Relationships": [
      {
        "ProductReference": "ruby3.2-rubygem-rails-html-sanitizer-1.5.0-2.1",
        "RelatesToProductReference": "openSUSE Tumbleweed",
        "RelationType": "Default Component Of"
      }
    ]
  },
  "References": [
    {
      "URL": "https://www.suse.com/support/security/rating/",
      "Description": "SUSE Security Ratings"
    },
    {
      "URL": "https://www.suse.com/security/cve/CVE-2015-7578/",
      "Description": "SUSE CVE CVE-2015-7578 page"
    },
    {
      "URL": "https://www.suse.com/security/cve/CVE-2015-7579/",
      "Description": "SUSE CVE CVE-2015-7579 page"
    },
    {
      "URL": "https://www.suse.com/security/cve/CVE-2015-7580/",
      "Description": "SUSE CVE CVE-2015-7580 page"
    },
    {
      "URL": "https://www.suse.com/security/cve/CVE-2018-3741/",
      "Description": "SUSE CVE CVE-2018-3741 page"
    },
    {
      "URL": "https://www.suse.com/security/cve/CVE-2022-32209/",
      "Description": "SUSE CVE CVE-2022-32209 page"
    }
  ],
  "Vulnerabilities": [
    {
      "CVE": "CVE-2015-7578",
      "Description": "Cross-site scripting (XSS) vulnerability in the rails-html-sanitizer gem before 1.0.3 for Ruby on Rails 4.2.x and 5.x allows remote attackers to inject arbitrary web script or HTML via crafted tag attributes.",
      "Threats": [
        {
          "Type": "Impact",
          "Severity": "moderate"
        }
      ],
      "References": [
        {
          "URL": "https://www.suse.com/security/cve/CVE-2015-7578.html",
          "Description": "CVE-2015-7578"
        },
        {
          "URL": "https://bugzilla.suse.com/963326",
          "Description": "SUSE Bug 963326"
        }
      ],
      "ProductStatuses": [
        {
          "Type": "Fixed",
          "ProductID": [
            "openSUSE Tumbleweed:ruby3.2-rubygem-rails-html-sanitizer-1.5.0-2.1"
          ]
        }
      ],
      "CVSSScoreSets": {}
    },
    {
      "CVE": "CVE-2015-7579",
      "Description": "Cross-site scripting (XSS) vulnerability in the rails-html-sanitizer gem 1.0.2 for Ruby on Rails 4.2.x and 5.x allows remote attackers to inject arbitrary web script or HTML via an HTML entity that is mishandled by the Rails::Html::FullSanitizer class.",
      "Threats": [
        {
          "Type": "Impact",
          "Severity": "moderate"
        }
      ],
      "References": [
        {
          "URL": "https://www.suse.com/security/cve/CVE-2015-7579.html",
          "Description": "CVE-2015-7579"
        },
        {
          "URL": "https://bugzilla.suse.com/963326",
          "Description": "SUSE Bug 963326"
        },
        {
          "URL": "https://bugzilla.suse.com/963327",
          "Description": "SUSE Bug 963327"
        },
        {
          "URL": "https://bugzilla.suse.com/963328",
          "Description": "SUSE Bug 963328"
        }
      ],
      "ProductStatuses": [
        {
          "Type": "Fixed",
          "ProductID": [
            "openSUSE Tumbleweed:ruby3.2-rubygem-rails-html-sanitizer-1.5.0-2.1"
          ]
        }
      ],
      "CVSSScoreSets": {}
    },
    {
      "CVE": "CVE-2015-7580",
      "Description": "Cross-site scripting (XSS) vulnerability in lib/rails/html/scrubbers.rb in the rails-html-sanitizer gem before 1.0.3 for Ruby on Rails 4.2.x and 5.x allows remote attackers to inject arbitrary web script or HTML via a crafted CDATA node.",
      "Threats": [
        {
          "Type": "Impact",
          "Severity": "moderate"
        }
      ],
      "References": [
        {
          "URL": "https://www.suse.com/security/cve/CVE-2015-7580.html",
          "Description": "CVE-2015-7580"
        },
        {
          "URL": "https://bugzilla.suse.com/963326",
          "Description": "SUSE Bug 963326"
        },
        {
          "URL": "https://bugzilla.suse.com/963327",
          "Description": "SUSE Bug 963327"
        },
        {
          "URL": "https://bugzilla.suse.com/963328",
          "Description": "SUSE Bug 963328"
        }
      ],
      "ProductStatuses": [
        {
          "Type": "Fixed",
          "ProductID": [
            "openSUSE Tumbleweed:ruby3.2-rubygem-rails-html-sanitizer-1.5.0-2.1"
          ]
        }
      ],
      "CVSSScoreSets": {}
    },
    {
      "CVE": "CVE-2018-3741",
      "Description": "There is a possible XSS vulnerability in all rails-html-sanitizer gem versions below 1.0.4 for Ruby. The gem allows non-whitelisted attributes to be present in sanitized output when input with specially-crafted HTML fragments, and these attributes can lead to an XSS attack on target applications. This issue is similar to CVE-2018-8048 in Loofah. All users running an affected release should either upgrade or use one of the workarounds immediately.",
      "Threats": [
        {
          "Type": "Impact",
          "Severity": "moderate"
        }
      ],
      "References": [
        {
          "URL": "https://www.suse.com/security/cve/CVE-2018-3741.html",
          "Description": "CVE-2018-3741"
        },
        {
          "URL": "https://bugzilla.suse.com/1085967",
          "Description": "SUSE Bug 1085967"
        },
        {
          "URL": "https://bugzilla.suse.com/1086598",
          "Description": "SUSE Bug 1086598"
        }
      ],
      "ProductStatuses": [
        {
          "Type": "Fixed",
          "ProductID": [
            "openSUSE Tumbleweed:ruby3.2-rubygem-rails-html-sanitizer-1.5.0-2.1"
          ]
        }
      ],
      "CVSSScoreSets": {}
    },
    {
      "CVE": "CVE-2022-32209",
      "Description": "# Possible XSS Vulnerability in Rails::Html::SanitizerThere is a possible XSS vulnerability with certain configurations of Rails::Html::Sanitizer.This vulnerability has been assigned the CVE identifier CVE-2022-32209.Versions Affected: ALLNot affected: NONEFixed Versions: v1.4.3## ImpactA possible XSS vulnerability with certain configurations of Rails::Html::Sanitizer may allow an attacker to inject content if the application developer has overridden the sanitizer's allowed tags to allow both `select` and `style` elements.Code is only impacted if allowed tags are being overridden. This may be done via application configuration:```ruby# In config/application.rbconfig.action_view.sanitized_allowed_tags = [\"select\", \"style\"]```see https://guides.rubyonrails.org/configuring.html#configuring-action-viewOr it may be done with a `:tags` option to the Action View helper `sanitize`:```\u003c%= sanitize @comment.body, tags: [\"select\", \"style\"] %\u003e```see https://api.rubyonrails.org/classes/ActionView/Helpers/SanitizeHelper.html#method-i-sanitizeOr it may be done with Rails::Html::SafeListSanitizer directly:```ruby# class-level optionRails::Html::SafeListSanitizer.allowed_tags = [\"select\", \"style\"]```or```ruby# instance-level optionRails::Html::SafeListSanitizer.new.sanitize(@article.body, tags: [\"select\", \"style\"])```All users overriding the allowed tags by any of the above mechanisms to include both \"select\" and \"style\" should either upgrade or use one of the workarounds immediately.## ReleasesThe FIXED releases are available at the normal locations.## WorkaroundsRemove either `select` or `style` from the overridden allowed tags.## CreditsThis vulnerability was responsibly reported by [windshock](https://hackerone.com/windshock?type=user).",
      "Threats": [
        {
          "Type": "Impact",
          "Severity": "moderate"
        }
      ],
      "References": [
        {
          "URL": "https://www.suse.com/security/cve/CVE-2022-32209.html",
          "Description": "CVE-2022-32209"
        },
        {
          "URL": "https://bugzilla.suse.com/1201183",
          "Description": "SUSE Bug 1201183"
        },
        {
          "URL": "https://bugzilla.suse.com/1206436",
          "Description": "SUSE Bug 1206436"
        }
      ],
      "ProductStatuses": [
        {
          "Type": "Fixed",
          "ProductID": [
            "openSUSE Tumbleweed:ruby3.2-rubygem-rails-html-sanitizer-1.5.0-2.1"
          ]
        }
      ],
      "CVSSScoreSets": {}
    }
  ]
}