{
  "Title": "libtasn1-6-32bit-4.17.0-1.2 on GA media",
  "Tracking": {
    "ID": "openSUSE-SU-2024:11001-1",
    "Status": "Final",
    "Version": "1",
    "InitialReleaseDate": "2024-06-22T21:44:56Z",
    "CurrentReleaseDate": "2024-06-22T21:44:56Z",
    "RevisionHistory": [
      {
        "Number": "1",
        "Date": "2024-06-22T21:44:56Z",
        "Description": "current"
      }
    ]
  },
  "Notes": [
    {
      "Text": "libtasn1-6-32bit-4.17.0-1.2 on GA media",
      "Title": "Topic",
      "Type": "Summary"
    },
    {
      "Text": "These are all security issues fixed in the libtasn1-6-32bit-4.17.0-1.2 package on the GA media of openSUSE Tumbleweed.",
      "Title": "Details",
      "Type": "General"
    },
    {
      "Text": "The CVRF data is provided by SUSE under the Creative Commons License 4.0 with Attribution (CC-BY-4.0).",
      "Title": "Terms of Use",
      "Type": "Legal Disclaimer"
    },
    {
      "Text": "openSUSE-Tumbleweed-2024-11001",
      "Title": "Patchnames",
      "Type": "Details"
    }
  ],
  "ProductTree": {
    "Relationships": [
      {
        "ProductReference": "libtasn1-6-4.17.0-1.2",
        "RelatesToProductReference": "openSUSE Tumbleweed",
        "RelationType": "Default Component Of"
      },
      {
        "ProductReference": "libtasn1-6-32bit-4.17.0-1.2",
        "RelatesToProductReference": "openSUSE Tumbleweed",
        "RelationType": "Default Component Of"
      },
      {
        "ProductReference": "libtasn1-devel-4.17.0-1.2",
        "RelatesToProductReference": "openSUSE Tumbleweed",
        "RelationType": "Default Component Of"
      },
      {
        "ProductReference": "libtasn1-devel-32bit-4.17.0-1.2",
        "RelatesToProductReference": "openSUSE Tumbleweed",
        "RelationType": "Default Component Of"
      },
      {
        "ProductReference": "libtasn1-tools-4.17.0-1.2",
        "RelatesToProductReference": "openSUSE Tumbleweed",
        "RelationType": "Default Component Of"
      }
    ]
  },
  "References": [
    {
      "URL": "https://www.suse.com/support/security/rating/",
      "Description": "SUSE Security Ratings"
    },
    {
      "URL": "https://www.suse.com/security/cve/CVE-2018-1000654/",
      "Description": "SUSE CVE CVE-2018-1000654 page"
    },
    {
      "URL": "https://www.suse.com/security/cve/CVE-2018-6003/",
      "Description": "SUSE CVE CVE-2018-6003 page"
    }
  ],
  "Vulnerabilities": [
    {
      "CVE": "CVE-2018-1000654",
      "Description": "GNU Libtasn1-4.13 libtasn1-4.13 version libtasn1-4.13, libtasn1-4.12 contains a DoS, specifically CPU usage will reach 100% when running asn1Paser against the POC due to an issue in _asn1_expand_object_id(p_tree), after a long time, the program will be killed. This attack appears to be exploitable via parsing a crafted file.",
      "Threats": [
        {
          "Type": "Impact",
          "Severity": "moderate"
        }
      ],
      "References": [
        {
          "URL": "https://www.suse.com/security/cve/CVE-2018-1000654.html",
          "Description": "CVE-2018-1000654"
        },
        {
          "URL": "https://bugzilla.suse.com/1105435",
          "Description": "SUSE Bug 1105435"
        }
      ],
      "ProductStatuses": [
        {
          "Type": "Fixed",
          "ProductID": [
            "openSUSE Tumbleweed:libtasn1-6-32bit-4.17.0-1.2",
            "openSUSE Tumbleweed:libtasn1-6-4.17.0-1.2",
            "openSUSE Tumbleweed:libtasn1-devel-32bit-4.17.0-1.2",
            "openSUSE Tumbleweed:libtasn1-devel-4.17.0-1.2",
            "openSUSE Tumbleweed:libtasn1-tools-4.17.0-1.2"
          ]
        }
      ],
      "CVSSScoreSets": {}
    },
    {
      "CVE": "CVE-2018-6003",
      "Description": "An issue was discovered in the _asn1_decode_simple_ber function in decoding.c in GNU Libtasn1 before 4.13. Unlimited recursion in the BER decoder leads to stack exhaustion and DoS.",
      "Threats": [
        {
          "Type": "Impact",
          "Severity": "important"
        }
      ],
      "References": [
        {
          "URL": "https://www.suse.com/security/cve/CVE-2018-6003.html",
          "Description": "CVE-2018-6003"
        },
        {
          "URL": "https://bugzilla.suse.com/1076832",
          "Description": "SUSE Bug 1076832"
        }
      ],
      "ProductStatuses": [
        {
          "Type": "Fixed",
          "ProductID": [
            "openSUSE Tumbleweed:libtasn1-6-32bit-4.17.0-1.2",
            "openSUSE Tumbleweed:libtasn1-6-4.17.0-1.2",
            "openSUSE Tumbleweed:libtasn1-devel-32bit-4.17.0-1.2",
            "openSUSE Tumbleweed:libtasn1-devel-4.17.0-1.2",
            "openSUSE Tumbleweed:libtasn1-tools-4.17.0-1.2"
          ]
        }
      ],
      "CVSSScoreSets": {}
    }
  ]
}