{
  "Title": "cacti-1.2.25-2.1 on GA media",
  "Tracking": {
    "ID": "openSUSE-SU-2024:13203-1",
    "Status": "Final",
    "Version": "1",
    "InitialReleaseDate": "2024-06-20T21:44:22Z",
    "CurrentReleaseDate": "2024-06-20T21:44:22Z",
    "RevisionHistory": [
      {
        "Number": "1",
        "Date": "2024-06-20T21:44:22Z",
        "Description": "current"
      }
    ]
  },
  "Notes": [
    {
      "Text": "cacti-1.2.25-2.1 on GA media",
      "Title": "Topic",
      "Type": "Summary"
    },
    {
      "Text": "These are all security issues fixed in the cacti-1.2.25-2.1 package on the GA media of openSUSE Tumbleweed.",
      "Title": "Details",
      "Type": "General"
    },
    {
      "Text": "The CVRF data is provided by SUSE under the Creative Commons License 4.0 with Attribution (CC-BY-4.0).",
      "Title": "Terms of Use",
      "Type": "Legal Disclaimer"
    },
    {
      "Text": "openSUSE-Tumbleweed-2024-13203",
      "Title": "Patchnames",
      "Type": "Details"
    }
  ],
  "ProductTree": {
    "Relationships": [
      {
        "ProductReference": "cacti-1.2.25-2.1",
        "RelatesToProductReference": "openSUSE Tumbleweed",
        "RelationType": "Default Component Of"
      }
    ]
  },
  "References": [
    {
      "URL": "https://www.suse.com/support/security/rating/",
      "Description": "SUSE Security Ratings"
    },
    {
      "URL": "https://www.suse.com/security/cve/CVE-2023-30534/",
      "Description": "SUSE CVE CVE-2023-30534 page"
    },
    {
      "URL": "https://www.suse.com/security/cve/CVE-2023-39357/",
      "Description": "SUSE CVE CVE-2023-39357 page"
    },
    {
      "URL": "https://www.suse.com/security/cve/CVE-2023-39358/",
      "Description": "SUSE CVE CVE-2023-39358 page"
    },
    {
      "URL": "https://www.suse.com/security/cve/CVE-2023-39359/",
      "Description": "SUSE CVE CVE-2023-39359 page"
    },
    {
      "URL": "https://www.suse.com/security/cve/CVE-2023-39360/",
      "Description": "SUSE CVE CVE-2023-39360 page"
    },
    {
      "URL": "https://www.suse.com/security/cve/CVE-2023-39361/",
      "Description": "SUSE CVE CVE-2023-39361 page"
    },
    {
      "URL": "https://www.suse.com/security/cve/CVE-2023-39362/",
      "Description": "SUSE CVE CVE-2023-39362 page"
    },
    {
      "URL": "https://www.suse.com/security/cve/CVE-2023-39364/",
      "Description": "SUSE CVE CVE-2023-39364 page"
    },
    {
      "URL": "https://www.suse.com/security/cve/CVE-2023-39365/",
      "Description": "SUSE CVE CVE-2023-39365 page"
    },
    {
      "URL": "https://www.suse.com/security/cve/CVE-2023-39366/",
      "Description": "SUSE CVE CVE-2023-39366 page"
    },
    {
      "URL": "https://www.suse.com/security/cve/CVE-2023-39510/",
      "Description": "SUSE CVE CVE-2023-39510 page"
    },
    {
      "URL": "https://www.suse.com/security/cve/CVE-2023-39511/",
      "Description": "SUSE CVE CVE-2023-39511 page"
    },
    {
      "URL": "https://www.suse.com/security/cve/CVE-2023-39512/",
      "Description": "SUSE CVE CVE-2023-39512 page"
    },
    {
      "URL": "https://www.suse.com/security/cve/CVE-2023-39513/",
      "Description": "SUSE CVE CVE-2023-39513 page"
    },
    {
      "URL": "https://www.suse.com/security/cve/CVE-2023-39514/",
      "Description": "SUSE CVE CVE-2023-39514 page"
    },
    {
      "URL": "https://www.suse.com/security/cve/CVE-2023-39515/",
      "Description": "SUSE CVE CVE-2023-39515 page"
    },
    {
      "URL": "https://www.suse.com/security/cve/CVE-2023-39516/",
      "Description": "SUSE CVE CVE-2023-39516 page"
    }
  ],
  "Vulnerabilities": [
    {
      "CVE": "CVE-2023-30534",
      "Description": "Cacti is an open source operational monitoring and fault management framework. There are two instances of insecure deserialization in Cacti version 1.2.24. While a viable gadget chain exists in Cacti's vendor directory (phpseclib), the necessary gadgets are not included, making them inaccessible and the insecure deserializations not exploitable. Each instance of insecure deserialization is due to using the unserialize function without sanitizing the user input. Cacti has a \"safe\" deserialization that attempts to sanitize the content and check for specific values before calling unserialize, but it isn't used in these instances. The vulnerable code lies in graphs_new.php, specifically within the host_new_graphs_save function. This issue has been addressed in version 1.2.25. Users are advised to upgrade. There are no known workarounds for this vulnerability.\n",
      "Threats": [
        {
          "Type": "Impact",
          "Severity": "moderate"
        }
      ],
      "References": [
        {
          "URL": "https://www.suse.com/security/cve/CVE-2023-30534.html",
          "Description": "CVE-2023-30534"
        }
      ],
      "ProductStatuses": [
        {
          "Type": "Fixed",
          "ProductID": [
            "openSUSE Tumbleweed:cacti-1.2.25-2.1"
          ]
        }
      ],
      "CVSSScoreSets": {}
    },
    {
      "CVE": "CVE-2023-39357",
      "Description": "Cacti is an open source operational monitoring and fault management framework. A defect in the sql_save function was discovered. When the column type is numeric, the sql_save function directly utilizes user input. Many files and functions calling the sql_save function do not perform prior validation of user input, leading to the existence of multiple SQL injection vulnerabilities in Cacti. This allows authenticated users to exploit these SQL injection vulnerabilities to perform privilege escalation and remote code execution. This issue has been addressed in version 1.2.25. Users are advised to upgrade. There are no known workarounds for this vulnerability.",
      "Threats": [
        {
          "Type": "Impact",
          "Severity": "moderate"
        }
      ],
      "References": [
        {
          "URL": "https://www.suse.com/security/cve/CVE-2023-39357.html",
          "Description": "CVE-2023-39357"
        },
        {
          "URL": "https://bugzilla.suse.com/1215040",
          "Description": "SUSE Bug 1215040"
        }
      ],
      "ProductStatuses": [
        {
          "Type": "Fixed",
          "ProductID": [
            "openSUSE Tumbleweed:cacti-1.2.25-2.1"
          ]
        }
      ],
      "CVSSScoreSets": {}
    },
    {
      "CVE": "CVE-2023-39358",
      "Description": "Cacti is an open source operational monitoring and fault management framework. An authenticated SQL injection vulnerability was discovered which allows authenticated users to perform privilege escalation and remote code execution. The vulnerability resides in the `reports_user.php` file. In `ajax_get_branches`, the `tree_id` parameter is passed to the `reports_get_branch_select` function without any validation. This issue has been addressed in version 1.2.25. Users are advised to upgrade. There are no known workarounds for this vulnerability.",
      "Threats": [
        {
          "Type": "Impact",
          "Severity": "moderate"
        }
      ],
      "References": [
        {
          "URL": "https://www.suse.com/security/cve/CVE-2023-39358.html",
          "Description": "CVE-2023-39358"
        },
        {
          "URL": "https://bugzilla.suse.com/1215042",
          "Description": "SUSE Bug 1215042"
        }
      ],
      "ProductStatuses": [
        {
          "Type": "Fixed",
          "ProductID": [
            "openSUSE Tumbleweed:cacti-1.2.25-2.1"
          ]
        }
      ],
      "CVSSScoreSets": {}
    },
    {
      "CVE": "CVE-2023-39359",
      "Description": "Cacti is an open source operational monitoring and fault management framework. An authenticated SQL injection vulnerability was discovered which allows authenticated users to perform privilege escalation and remote code execution. The vulnerability resides in the `graphs.php` file. When dealing with the cases of ajax_hosts and ajax_hosts_noany, if the `site_id` parameter is greater than 0, it is directly reflected in the WHERE clause of the SQL statement. This creates an SQL injection vulnerability. This issue has been addressed in version 1.2.25. Users are advised to upgrade. There are no known workarounds for this vulnerability.",
      "Threats": [
        {
          "Type": "Impact",
          "Severity": "moderate"
        }
      ],
      "References": [
        {
          "URL": "https://www.suse.com/security/cve/CVE-2023-39359.html",
          "Description": "CVE-2023-39359"
        },
        {
          "URL": "https://bugzilla.suse.com/1215043",
          "Description": "SUSE Bug 1215043"
        }
      ],
      "ProductStatuses": [
        {
          "Type": "Fixed",
          "ProductID": [
            "openSUSE Tumbleweed:cacti-1.2.25-2.1"
          ]
        }
      ],
      "CVSSScoreSets": {}
    },
    {
      "CVE": "CVE-2023-39360",
      "Description": "Cacti is an open source operational monitoring and fault management framework.Affected versions are subject to a Stored Cross-Site-Scripting (XSS) Vulnerability allows an authenticated user to poison data. The vulnerability is found in `graphs_new.php`. Several validations are performed, but the `returnto` parameter is directly passed to `form_save_button`. In order to bypass this validation, returnto must contain `host.php`. This vulnerability has been addressed in version 1.2.25. Users are advised to upgrade. Users unable to update should manually filter HTML output.",
      "Threats": [
        {
          "Type": "Impact",
          "Severity": "moderate"
        }
      ],
      "References": [
        {
          "URL": "https://www.suse.com/security/cve/CVE-2023-39360.html",
          "Description": "CVE-2023-39360"
        },
        {
          "URL": "https://bugzilla.suse.com/1215044",
          "Description": "SUSE Bug 1215044"
        },
        {
          "URL": "https://bugzilla.suse.com/1218366",
          "Description": "SUSE Bug 1218366"
        }
      ],
      "ProductStatuses": [
        {
          "Type": "Fixed",
          "ProductID": [
            "openSUSE Tumbleweed:cacti-1.2.25-2.1"
          ]
        }
      ],
      "CVSSScoreSets": {}
    },
    {
      "CVE": "CVE-2023-39361",
      "Description": "Cacti is an open source operational monitoring and fault management framework. Affected versions are subject to a SQL injection discovered in graph_view.php. Since guest users can access graph_view.php without authentication by default, if guest users are being utilized in an enabled state, there could be the potential for significant damage. Attackers may exploit this vulnerability, and there may be possibilities for actions such as the usurpation of administrative privileges or remote code execution. This issue has been addressed in version 1.2.25. Users are advised to upgrade. There are no known workarounds for this vulnerability.",
      "Threats": [
        {
          "Type": "Impact",
          "Severity": "moderate"
        }
      ],
      "References": [
        {
          "URL": "https://www.suse.com/security/cve/CVE-2023-39361.html",
          "Description": "CVE-2023-39361"
        },
        {
          "URL": "https://bugzilla.suse.com/1215045",
          "Description": "SUSE Bug 1215045"
        }
      ],
      "ProductStatuses": [
        {
          "Type": "Fixed",
          "ProductID": [
            "openSUSE Tumbleweed:cacti-1.2.25-2.1"
          ]
        }
      ],
      "CVSSScoreSets": {}
    },
    {
      "CVE": "CVE-2023-39362",
      "Description": "Cacti is an open source operational monitoring and fault management framework. In Cacti 1.2.24, under certain conditions, an authenticated privileged user, can use a malicious string in the SNMP options of a Device, performing command injection and obtaining remote code execution on the underlying server. The `lib/snmp.php` file has a set of functions, with similar behavior, that accept in input some variables and place them into an `exec` call without a proper escape or validation. This issue has been addressed in version 1.2.25. Users are advised to upgrade. There are no known workarounds for this vulnerability.",
      "Threats": [
        {
          "Type": "Impact",
          "Severity": "moderate"
        }
      ],
      "References": [
        {
          "URL": "https://www.suse.com/security/cve/CVE-2023-39362.html",
          "Description": "CVE-2023-39362"
        },
        {
          "URL": "https://bugzilla.suse.com/1215047",
          "Description": "SUSE Bug 1215047"
        }
      ],
      "ProductStatuses": [
        {
          "Type": "Fixed",
          "ProductID": [
            "openSUSE Tumbleweed:cacti-1.2.25-2.1"
          ]
        }
      ],
      "CVSSScoreSets": {}
    },
    {
      "CVE": "CVE-2023-39364",
      "Description": "Cacti is an open source operational monitoring and fault management framework. In Cacti 1.2.24, users with console access can be redirected to an arbitrary website after a change password performed via a specifically crafted URL. The `auth_changepassword.php` file accepts `ref` as a URL parameter and reflects it in the form used to perform the change password. It's value is used to perform a redirect via `header` PHP function. A user can be tricked in performing the change password operation, e.g., via a phishing message, and then interacting with the malicious website where the redirection has been performed, e.g., downloading malwares, providing credentials, etc. This issue has been addressed in version 1.2.25. Users are advised to upgrade. There are no known workarounds for this vulnerability.",
      "Threats": [
        {
          "Type": "Impact",
          "Severity": "moderate"
        }
      ],
      "References": [
        {
          "URL": "https://www.suse.com/security/cve/CVE-2023-39364.html",
          "Description": "CVE-2023-39364"
        },
        {
          "URL": "https://bugzilla.suse.com/1215050",
          "Description": "SUSE Bug 1215050"
        }
      ],
      "ProductStatuses": [
        {
          "Type": "Fixed",
          "ProductID": [
            "openSUSE Tumbleweed:cacti-1.2.25-2.1"
          ]
        }
      ],
      "CVSSScoreSets": {}
    },
    {
      "CVE": "CVE-2023-39365",
      "Description": "Cacti is an open source operational monitoring and fault management framework. Issues with Cacti Regular Expression validation combined with the external links feature can lead to limited SQL Injections and subsequent data leakage. This issue has been addressed in version 1.2.25. Users are advised to upgrade. There are no known workarounds for this vulnerability.\n\n",
      "Threats": [
        {
          "Type": "Impact",
          "Severity": "moderate"
        }
      ],
      "References": [
        {
          "URL": "https://www.suse.com/security/cve/CVE-2023-39365.html",
          "Description": "CVE-2023-39365"
        },
        {
          "URL": "https://bugzilla.suse.com/1215051",
          "Description": "SUSE Bug 1215051"
        }
      ],
      "ProductStatuses": [
        {
          "Type": "Fixed",
          "ProductID": [
            "openSUSE Tumbleweed:cacti-1.2.25-2.1"
          ]
        }
      ],
      "CVSSScoreSets": {}
    },
    {
      "CVE": "CVE-2023-39366",
      "Description": "Cacti is an open source operational monitoring and fault management framework. Affected versions are subject to a Stored Cross-Site-Scripting (XSS) Vulnerability allows an authenticated user to poison data stored in the _cacti_'s database. These data will be viewed by administrative _cacti_ accounts and execute JavaScript code in the victim's browser at view-time. The `data_sources.php` script displays the data source management information (e.g. data source path, polling configuration etc.) for different data visualizations of the _cacti_ app. \nCENSUS found that an adversary that is able to configure a malicious Device name, can deploy a stored XSS attack against any user of the same (or broader) privileges. A user that possesses the _General Administration\u003eSites/Devices/Data_ permissions can configure the device names in _cacti_. This configuration occurs through `http://\u003cHOST\u003e/cacti/host.php`, while the rendered malicious payload is exhibited at `http://\u003cHOST\u003e/cacti/data_sources.php`. This vulnerability has been addressed in version 1.2.25. Users are advised to upgrade. Users unable to update should manually filter HTML output.",
      "Threats": [
        {
          "Type": "Impact",
          "Severity": "moderate"
        }
      ],
      "References": [
        {
          "URL": "https://www.suse.com/security/cve/CVE-2023-39366.html",
          "Description": "CVE-2023-39366"
        },
        {
          "URL": "https://bugzilla.suse.com/1215052",
          "Description": "SUSE Bug 1215052"
        }
      ],
      "ProductStatuses": [
        {
          "Type": "Fixed",
          "ProductID": [
            "openSUSE Tumbleweed:cacti-1.2.25-2.1"
          ]
        }
      ],
      "CVSSScoreSets": {}
    },
    {
      "CVE": "CVE-2023-39510",
      "Description": "Cacti is an open source operational monitoring and fault management framework. Affected versions are subject to a Stored Cross-Site-Scripting (XSS) Vulnerability allows an authenticated user to poison data stored in the _cacti_'s database. These data will be viewed by administrative _cacti_ accounts and execute JavaScript code in the victim's browser at view-time. The`reports_admin.php` script displays reporting information about graphs, devices, data sources etc.\nCENSUS found that an adversary that is able to configure a malicious Device name, can deploy a stored XSS attack against any user of the same (or broader) privileges. A user that possesses the _General Administration\u003eSites/Devices/Data_ permissions can configure the device names in _cacti_. This configuration occurs through `http://\u003cHOST\u003e/cacti/host.php`, while the rendered malicious payload is exhibited at `http://\u003cHOST\u003e/cacti/reports_admin.php` when the a graph with the maliciously altered device name is linked to the report. This vulnerability has been addressed in version 1.2.25. Users are advised to upgrade. Users unable to update should manually filter HTML output.",
      "Threats": [
        {
          "Type": "Impact",
          "Severity": "moderate"
        }
      ],
      "References": [
        {
          "URL": "https://www.suse.com/security/cve/CVE-2023-39510.html",
          "Description": "CVE-2023-39510"
        },
        {
          "URL": "https://bugzilla.suse.com/1215053",
          "Description": "SUSE Bug 1215053"
        }
      ],
      "ProductStatuses": [
        {
          "Type": "Fixed",
          "ProductID": [
            "openSUSE Tumbleweed:cacti-1.2.25-2.1"
          ]
        }
      ],
      "CVSSScoreSets": {}
    },
    {
      "CVE": "CVE-2023-39511",
      "Description": "Cacti is an open source operational monitoring and fault management framework. Affected versions are subject to a Stored Cross-Site-Scripting (XSS) Vulnerability which allows an authenticated user to poison data stored in the _cacti_'s database. These data will be viewed by administrative _cacti_ accounts and execute JavaScript code in the victim's browser at view-time. The script under `reports_admin.php` displays reporting information about graphs, devices, data sources etc. _CENSUS_ found that an adversary that is able to configure a malicious device name, related to a graph attached to a report, can deploy a stored XSS attack against any super user who has privileges of viewing the `reports_admin.php` page, such as administrative accounts. A user that possesses the _General Administration\u003eSites/Devices/Data_ permissions can configure the device names in _cacti_. This configuration occurs through `http://\u003cHOST\u003e/cacti/host.php`, while the rendered malicious payload is exhibited at `http://\u003cHOST\u003e/cacti/reports_admin.php` when the a graph with the maliciously altered device name is linked to the report. This issue has been addressed in version 1.2.25. Users are advised to upgrade. Users unable to upgrade should manually filter HTML output.\n",
      "Threats": [
        {
          "Type": "Impact",
          "Severity": "moderate"
        }
      ],
      "References": [
        {
          "URL": "https://www.suse.com/security/cve/CVE-2023-39511.html",
          "Description": "CVE-2023-39511"
        },
        {
          "URL": "https://bugzilla.suse.com/1215081",
          "Description": "SUSE Bug 1215081"
        }
      ],
      "ProductStatuses": [
        {
          "Type": "Fixed",
          "ProductID": [
            "openSUSE Tumbleweed:cacti-1.2.25-2.1"
          ]
        }
      ],
      "CVSSScoreSets": {}
    },
    {
      "CVE": "CVE-2023-39512",
      "Description": "Cacti is an open source operational monitoring and fault management framework. Affected versions are subject to a Stored Cross-Site-Scripting (XSS) Vulnerability which allows an authenticated user to poison data stored in the _cacti_'s database. These data will be viewed by administrative _cacti_ accounts and execute JavaScript code in the victim's browser at view-time. The script under `data_sources.php` displays the data source management information (e.g. data source path, polling configuration, device name related to the datasource etc.) for different data visualizations of the _cacti_ app. _CENSUS_ found that an adversary that is able to configure a malicious device name, can deploy a stored XSS attack against any user of the same (or broader) privileges. A user that possesses the _General Administration\u003eSites/Devices/Data_ permissions can configure the device names in _cacti_. This configuration occurs through `http://\u003cHOST\u003e/cacti/host.php`, while the rendered malicious payload is exhibited at `http://\u003cHOST\u003e/cacti/data_sources.php`. This vulnerability has been addressed in version 1.2.25. Users are advised to upgrade. Users unable to update should manually filter HTML output.",
      "Threats": [
        {
          "Type": "Impact",
          "Severity": "moderate"
        }
      ],
      "References": [
        {
          "URL": "https://www.suse.com/security/cve/CVE-2023-39512.html",
          "Description": "CVE-2023-39512"
        },
        {
          "URL": "https://bugzilla.suse.com/1215054",
          "Description": "SUSE Bug 1215054"
        }
      ],
      "ProductStatuses": [
        {
          "Type": "Fixed",
          "ProductID": [
            "openSUSE Tumbleweed:cacti-1.2.25-2.1"
          ]
        }
      ],
      "CVSSScoreSets": {}
    },
    {
      "CVE": "CVE-2023-39513",
      "Description": "Cacti is an open source operational monitoring and fault management framework. Affected versions are subject to a Stored Cross-Site-Scripting (XSS) Vulnerability which allows an authenticated user to poison data stored in the _cacti_'s database. These data will be viewed by administrative _cacti_ accounts and execute JavaScript code in the victim's browser at view-time. The script under `host.php` is used to monitor and manage hosts in the _cacti_ app, hence displays useful information such as data queries and verbose logs. _CENSUS_ found that an adversary that is able to configure a data-query template with malicious code appended in the template path, in order to deploy a stored XSS attack against any user with the _General Administration\u003eSites/Devices/Data_ privileges. A user that possesses the _Template Editor\u003eData Queries_ permissions can configure the data query template path in _cacti_. Please note that such a user may be a low privileged user. This configuration occurs through `http://\u003cHOST\u003e/cacti/data_queries.php` by editing an existing or adding a new data query template. If a template is linked to a device then the formatted template path will be rendered in the device's management page, when a _verbose data query_ is requested. This vulnerability has been addressed in version 1.2.25. Users are advised to upgrade. Users unable to update should manually filter HTML output.",
      "Threats": [
        {
          "Type": "Impact",
          "Severity": "moderate"
        }
      ],
      "References": [
        {
          "URL": "https://www.suse.com/security/cve/CVE-2023-39513.html",
          "Description": "CVE-2023-39513"
        },
        {
          "URL": "https://bugzilla.suse.com/1215055",
          "Description": "SUSE Bug 1215055"
        }
      ],
      "ProductStatuses": [
        {
          "Type": "Fixed",
          "ProductID": [
            "openSUSE Tumbleweed:cacti-1.2.25-2.1"
          ]
        }
      ],
      "CVSSScoreSets": {}
    },
    {
      "CVE": "CVE-2023-39514",
      "Description": "Cacti is an open source operational monitoring and fault management framework. Affected versions are subject to a Stored Cross-Site-Scripting (XSS) Vulnerability which allows an authenticated user to poison data stored in the _cacti_'s database. These data will be viewed by administrative _cacti_ accounts and execute JavaScript code in the victim's browser at view-time. The script under `graphs.php` displays graph details such as data-source paths, data template information and graph related fields. _CENSUS_ found that an adversary that is able to configure either a data-source template with malicious code appended in the data-source name or a device with a malicious payload injected in the device name, may deploy a stored XSS attack against any user with _General Administration\u003eGraphs_ privileges. A user that possesses the _Template Editor\u003eData Templates_ permissions can configure the data-source name in _cacti_. Please note that this may be a _low privileged_ user. This configuration occurs through `http://\u003cHOST\u003e/cacti/data_templates.php` by editing an existing or adding a new data template. If a template is linked to a graph then the formatted template name will be rendered in the graph's management page. A user that possesses the _General Administration\u003eSites/Devices/Data_ permissions can configure the device name in _cacti_. This vulnerability has been addressed in version 1.2.25. Users are advised to upgrade. Users unable to upgrade should add manual HTML escaping.\n",
      "Threats": [
        {
          "Type": "Impact",
          "Severity": "moderate"
        }
      ],
      "References": [
        {
          "URL": "https://www.suse.com/security/cve/CVE-2023-39514.html",
          "Description": "CVE-2023-39514"
        },
        {
          "URL": "https://bugzilla.suse.com/1215056",
          "Description": "SUSE Bug 1215056"
        }
      ],
      "ProductStatuses": [
        {
          "Type": "Fixed",
          "ProductID": [
            "openSUSE Tumbleweed:cacti-1.2.25-2.1"
          ]
        }
      ],
      "CVSSScoreSets": {}
    },
    {
      "CVE": "CVE-2023-39515",
      "Description": "Cacti is an open source operational monitoring and fault management framework. Affected versions are subject to a Stored Cross-Site-Scripting (XSS) Vulnerability allows an authenticated user to poison data stored in the cacti's database. These data will be viewed by administrative cacti accounts and execute JavaScript code in the victim's browser at view-time. The script under `data_debug.php` displays data source related debugging information such as _data source paths, polling settings, meta-data on the data source_. _CENSUS_ found that an adversary that is able to configure a malicious data-source path, can deploy a stored XSS attack against any user that has privileges related to viewing the `data_debug.php` information. A user that possesses the _General Administration\u003eSites/Devices/Data_ permissions can configure the data source path in _cacti_. This configuration occurs through `http://\u003cHOST\u003e/cacti/data_sources.php`. This vulnerability has been addressed in version 1.2.25. Users are advised to upgrade. Users unable to update should manually filter HTML output.",
      "Threats": [
        {
          "Type": "Impact",
          "Severity": "moderate"
        }
      ],
      "References": [
        {
          "URL": "https://www.suse.com/security/cve/CVE-2023-39515.html",
          "Description": "CVE-2023-39515"
        },
        {
          "URL": "https://bugzilla.suse.com/1215058",
          "Description": "SUSE Bug 1215058"
        },
        {
          "URL": "https://bugzilla.suse.com/1218379",
          "Description": "SUSE Bug 1218379"
        }
      ],
      "ProductStatuses": [
        {
          "Type": "Fixed",
          "ProductID": [
            "openSUSE Tumbleweed:cacti-1.2.25-2.1"
          ]
        }
      ],
      "CVSSScoreSets": {}
    },
    {
      "CVE": "CVE-2023-39516",
      "Description": "Cacti is an open source operational monitoring and fault management framework. Affected versions are subject to a Stored Cross-Site-Scripting (XSS) Vulnerability which allows an authenticated user to poison data stored in the _cacti_'s database. These data will be viewed by administrative _cacti_ accounts and execute JavaScript code in the victim's browser at view-time. The script under `data_sources.php` displays the data source management information (e.g. data source path, polling configuration etc.) for different data visualizations of the _cacti_ app. CENSUS found that an adversary that is able to configure a malicious data-source path, can deploy a stored XSS attack against any user of the same (or broader) privileges. A user that possesses the 'General Administration\u003eSites/Devices/Data' permissions can configure the data source path in Cacti. This configuration occurs through `http://\u003cHOST\u003e/cacti/data_sources.php`. The same page can be used for previewing the data source path. This issue has been addressed in version 1.2.25. Users are advised to upgrade. Users unable to upgrade should manually escape HTML output.\n",
      "Threats": [
        {
          "Type": "Impact",
          "Severity": "moderate"
        }
      ],
      "References": [
        {
          "URL": "https://www.suse.com/security/cve/CVE-2023-39516.html",
          "Description": "CVE-2023-39516"
        },
        {
          "URL": "https://bugzilla.suse.com/1215059",
          "Description": "SUSE Bug 1215059"
        }
      ],
      "ProductStatuses": [
        {
          "Type": "Fixed",
          "ProductID": [
            "openSUSE Tumbleweed:cacti-1.2.25-2.1"
          ]
        }
      ],
      "CVSSScoreSets": {}
    }
  ]
}