{
  "Title": "ruby3.2-rubygem-web-console-4.2.0-1.9 on GA media",
  "Tracking": {
    "ID": "openSUSE-SU-2024:13172-1",
    "Status": "Final",
    "Version": "1",
    "InitialReleaseDate": "2024-06-20T21:44:22Z",
    "CurrentReleaseDate": "2024-06-20T21:44:22Z",
    "RevisionHistory": [
      {
        "Number": "1",
        "Date": "2024-06-20T21:44:22Z",
        "Description": "current"
      }
    ]
  },
  "Notes": [
    {
      "Text": "ruby3.2-rubygem-web-console-4.2.0-1.9 on GA media",
      "Title": "Topic",
      "Type": "Summary"
    },
    {
      "Text": "These are all security issues fixed in the ruby3.2-rubygem-web-console-4.2.0-1.9 package on the GA media of openSUSE Tumbleweed.",
      "Title": "Details",
      "Type": "General"
    },
    {
      "Text": "The CVRF data is provided by SUSE under the Creative Commons License 4.0 with Attribution (CC-BY-4.0).",
      "Title": "Terms of Use",
      "Type": "Legal Disclaimer"
    },
    {
      "Text": "openSUSE-Tumbleweed-2024-13172",
      "Title": "Patchnames",
      "Type": "Details"
    }
  ],
  "ProductTree": {
    "Relationships": [
      {
        "ProductReference": "ruby3.2-rubygem-web-console-4.2.0-1.9",
        "RelatesToProductReference": "openSUSE Tumbleweed",
        "RelationType": "Default Component Of"
      }
    ]
  },
  "References": [
    {
      "URL": "https://www.suse.com/support/security/rating/",
      "Description": "SUSE Security Ratings"
    },
    {
      "URL": "https://www.suse.com/security/cve/CVE-2015-3224/",
      "Description": "SUSE CVE CVE-2015-3224 page"
    }
  ],
  "Vulnerabilities": [
    {
      "CVE": "CVE-2015-3224",
      "Description": "request.rb in Web Console before 2.1.3, as used with Ruby on Rails 3.x and 4.x, does not properly restrict the use of X-Forwarded-For headers in determining a client's IP address, which allows remote attackers to bypass the whitelisted_ips protection mechanism via a crafted request.",
      "Threats": [
        {
          "Type": "Impact",
          "Severity": "moderate"
        }
      ],
      "References": [
        {
          "URL": "https://www.suse.com/security/cve/CVE-2015-3224.html",
          "Description": "CVE-2015-3224"
        },
        {
          "URL": "https://bugzilla.suse.com/934796",
          "Description": "SUSE Bug 934796"
        }
      ],
      "ProductStatuses": [
        {
          "Type": "Fixed",
          "ProductID": [
            "openSUSE Tumbleweed:ruby3.2-rubygem-web-console-4.2.0-1.9"
          ]
        }
      ],
      "CVSSScoreSets": {}
    }
  ]
}