{
  "Title": "libtiff-devel-32bit-4.3.0-1.6 on GA media",
  "Tracking": {
    "ID": "openSUSE-SU-2024:12057-1",
    "Status": "Final",
    "Version": "1",
    "InitialReleaseDate": "2024-06-20T21:44:22Z",
    "CurrentReleaseDate": "2024-06-20T21:44:22Z",
    "RevisionHistory": [
      {
        "Number": "1",
        "Date": "2024-06-20T21:44:22Z",
        "Description": "current"
      }
    ]
  },
  "Notes": [
    {
      "Text": "libtiff-devel-32bit-4.3.0-1.6 on GA media",
      "Title": "Topic",
      "Type": "Summary"
    },
    {
      "Text": "These are all security issues fixed in the libtiff-devel-32bit-4.3.0-1.6 package on the GA media of openSUSE Tumbleweed.",
      "Title": "Details",
      "Type": "General"
    },
    {
      "Text": "The CVRF data is provided by SUSE under the Creative Commons License 4.0 with Attribution (CC-BY-4.0).",
      "Title": "Terms of Use",
      "Type": "Legal Disclaimer"
    },
    {
      "Text": "openSUSE-Tumbleweed-2024-12057",
      "Title": "Patchnames",
      "Type": "Details"
    }
  ],
  "ProductTree": {
    "Relationships": [
      {
        "ProductReference": "libtiff-devel-4.3.0-2.1",
        "RelatesToProductReference": "openSUSE Tumbleweed",
        "RelationType": "Default Component Of"
      },
      {
        "ProductReference": "libtiff-devel-32bit-4.3.0-1.6",
        "RelatesToProductReference": "openSUSE Tumbleweed",
        "RelationType": "Default Component Of"
      },
      {
        "ProductReference": "libtiff5-4.3.0-2.1",
        "RelatesToProductReference": "openSUSE Tumbleweed",
        "RelationType": "Default Component Of"
      },
      {
        "ProductReference": "libtiff5-32bit-4.3.0-1.6",
        "RelatesToProductReference": "openSUSE Tumbleweed",
        "RelationType": "Default Component Of"
      },
      {
        "ProductReference": "tiff-4.3.0-2.1",
        "RelatesToProductReference": "openSUSE Tumbleweed",
        "RelationType": "Default Component Of"
      }
    ]
  },
  "References": [
    {
      "URL": "https://www.suse.com/support/security/rating/",
      "Description": "SUSE Security Ratings"
    },
    {
      "URL": "https://www.suse.com/security/cve/CVE-2022-0561/",
      "Description": "SUSE CVE CVE-2022-0561 page"
    },
    {
      "URL": "https://www.suse.com/security/cve/CVE-2022-0562/",
      "Description": "SUSE CVE CVE-2022-0562 page"
    },
    {
      "URL": "https://www.suse.com/security/cve/CVE-2022-0865/",
      "Description": "SUSE CVE CVE-2022-0865 page"
    },
    {
      "URL": "https://www.suse.com/security/cve/CVE-2022-0891/",
      "Description": "SUSE CVE CVE-2022-0891 page"
    },
    {
      "URL": "https://www.suse.com/security/cve/CVE-2022-0907/",
      "Description": "SUSE CVE CVE-2022-0907 page"
    },
    {
      "URL": "https://www.suse.com/security/cve/CVE-2022-0908/",
      "Description": "SUSE CVE CVE-2022-0908 page"
    },
    {
      "URL": "https://www.suse.com/security/cve/CVE-2022-0909/",
      "Description": "SUSE CVE CVE-2022-0909 page"
    },
    {
      "URL": "https://www.suse.com/security/cve/CVE-2022-0924/",
      "Description": "SUSE CVE CVE-2022-0924 page"
    },
    {
      "URL": "https://www.suse.com/security/cve/CVE-2022-1056/",
      "Description": "SUSE CVE CVE-2022-1056 page"
    }
  ],
  "Vulnerabilities": [
    {
      "CVE": "CVE-2022-0561",
      "Description": "Null source pointer passed as an argument to memcpy() function within TIFFFetchStripThing() in tif_dirread.c in libtiff versions from 3.9.0 to 4.3.0 could lead to Denial of Service via crafted TIFF file. For users that compile libtiff from sources, the fix is available with commit eecb0712.",
      "Threats": [
        {
          "Type": "Impact",
          "Severity": "moderate"
        }
      ],
      "References": [
        {
          "URL": "https://www.suse.com/security/cve/CVE-2022-0561.html",
          "Description": "CVE-2022-0561"
        },
        {
          "URL": "https://bugzilla.suse.com/1195964",
          "Description": "SUSE Bug 1195964"
        }
      ],
      "ProductStatuses": [
        {
          "Type": "Fixed",
          "ProductID": [
            "openSUSE Tumbleweed:libtiff-devel-32bit-4.3.0-1.6",
            "openSUSE Tumbleweed:libtiff-devel-4.3.0-2.1",
            "openSUSE Tumbleweed:libtiff5-32bit-4.3.0-1.6",
            "openSUSE Tumbleweed:libtiff5-4.3.0-2.1",
            "openSUSE Tumbleweed:tiff-4.3.0-2.1"
          ]
        }
      ],
      "CVSSScoreSets": {}
    },
    {
      "CVE": "CVE-2022-0562",
      "Description": "Null source pointer passed as an argument to memcpy() function within TIFFReadDirectory() in tif_dirread.c in libtiff versions from 4.0 to 4.3.0 could lead to Denial of Service via crafted TIFF file. For users that compile libtiff from sources, a fix is available with commit 561599c.",
      "Threats": [
        {
          "Type": "Impact",
          "Severity": "moderate"
        }
      ],
      "References": [
        {
          "URL": "https://www.suse.com/security/cve/CVE-2022-0562.html",
          "Description": "CVE-2022-0562"
        },
        {
          "URL": "https://bugzilla.suse.com/1195965",
          "Description": "SUSE Bug 1195965"
        },
        {
          "URL": "https://bugzilla.suse.com/1201723",
          "Description": "SUSE Bug 1201723"
        }
      ],
      "ProductStatuses": [
        {
          "Type": "Fixed",
          "ProductID": [
            "openSUSE Tumbleweed:libtiff-devel-32bit-4.3.0-1.6",
            "openSUSE Tumbleweed:libtiff-devel-4.3.0-2.1",
            "openSUSE Tumbleweed:libtiff5-32bit-4.3.0-1.6",
            "openSUSE Tumbleweed:libtiff5-4.3.0-2.1",
            "openSUSE Tumbleweed:tiff-4.3.0-2.1"
          ]
        }
      ],
      "CVSSScoreSets": {}
    },
    {
      "CVE": "CVE-2022-0865",
      "Description": "Reachable Assertion in tiffcp in libtiff 4.3.0 allows attackers to cause a denial-of-service via a crafted tiff file. For users that compile libtiff from sources, the fix is available with commit 5e180045.",
      "Threats": [
        {
          "Type": "Impact",
          "Severity": "moderate"
        }
      ],
      "References": [
        {
          "URL": "https://www.suse.com/security/cve/CVE-2022-0865.html",
          "Description": "CVE-2022-0865"
        },
        {
          "URL": "https://bugzilla.suse.com/1197066",
          "Description": "SUSE Bug 1197066"
        }
      ],
      "ProductStatuses": [
        {
          "Type": "Fixed",
          "ProductID": [
            "openSUSE Tumbleweed:libtiff-devel-32bit-4.3.0-1.6",
            "openSUSE Tumbleweed:libtiff-devel-4.3.0-2.1",
            "openSUSE Tumbleweed:libtiff5-32bit-4.3.0-1.6",
            "openSUSE Tumbleweed:libtiff5-4.3.0-2.1",
            "openSUSE Tumbleweed:tiff-4.3.0-2.1"
          ]
        }
      ],
      "CVSSScoreSets": {}
    },
    {
      "CVE": "CVE-2022-0891",
      "Description": "A heap buffer overflow in ExtractImageSection function in tiffcrop.c in libtiff library Version 4.3.0 allows attacker to trigger unsafe or out of bounds memory access via crafted TIFF image file which could result into application crash, potential information disclosure or any other context-dependent impact",
      "Threats": [
        {
          "Type": "Impact",
          "Severity": "moderate"
        }
      ],
      "References": [
        {
          "URL": "https://www.suse.com/security/cve/CVE-2022-0891.html",
          "Description": "CVE-2022-0891"
        },
        {
          "URL": "https://bugzilla.suse.com/1197068",
          "Description": "SUSE Bug 1197068"
        }
      ],
      "ProductStatuses": [
        {
          "Type": "Fixed",
          "ProductID": [
            "openSUSE Tumbleweed:libtiff-devel-32bit-4.3.0-1.6",
            "openSUSE Tumbleweed:libtiff-devel-4.3.0-2.1",
            "openSUSE Tumbleweed:libtiff5-32bit-4.3.0-1.6",
            "openSUSE Tumbleweed:libtiff5-4.3.0-2.1",
            "openSUSE Tumbleweed:tiff-4.3.0-2.1"
          ]
        }
      ],
      "CVSSScoreSets": {}
    },
    {
      "CVE": "CVE-2022-0907",
      "Description": "Unchecked Return Value to NULL Pointer Dereference in tiffcrop in libtiff 4.3.0 allows attackers to cause a denial-of-service via a crafted tiff file. For users that compile libtiff from sources, the fix is available with commit f2b656e2.",
      "Threats": [
        {
          "Type": "Impact",
          "Severity": "moderate"
        }
      ],
      "References": [
        {
          "URL": "https://www.suse.com/security/cve/CVE-2022-0907.html",
          "Description": "CVE-2022-0907"
        },
        {
          "URL": "https://bugzilla.suse.com/1197070",
          "Description": "SUSE Bug 1197070"
        }
      ],
      "ProductStatuses": [
        {
          "Type": "Fixed",
          "ProductID": [
            "openSUSE Tumbleweed:libtiff-devel-32bit-4.3.0-1.6",
            "openSUSE Tumbleweed:libtiff-devel-4.3.0-2.1",
            "openSUSE Tumbleweed:libtiff5-32bit-4.3.0-1.6",
            "openSUSE Tumbleweed:libtiff5-4.3.0-2.1",
            "openSUSE Tumbleweed:tiff-4.3.0-2.1"
          ]
        }
      ],
      "CVSSScoreSets": {}
    },
    {
      "CVE": "CVE-2022-0908",
      "Description": "Null source pointer passed as an argument to memcpy() function within TIFFFetchNormalTag () in tif_dirread.c in libtiff versions up to 4.3.0 could lead to Denial of Service via crafted TIFF file.",
      "Threats": [
        {
          "Type": "Impact",
          "Severity": "moderate"
        }
      ],
      "References": [
        {
          "URL": "https://www.suse.com/security/cve/CVE-2022-0908.html",
          "Description": "CVE-2022-0908"
        },
        {
          "URL": "https://bugzilla.suse.com/1197074",
          "Description": "SUSE Bug 1197074"
        }
      ],
      "ProductStatuses": [
        {
          "Type": "Fixed",
          "ProductID": [
            "openSUSE Tumbleweed:libtiff-devel-32bit-4.3.0-1.6",
            "openSUSE Tumbleweed:libtiff-devel-4.3.0-2.1",
            "openSUSE Tumbleweed:libtiff5-32bit-4.3.0-1.6",
            "openSUSE Tumbleweed:libtiff5-4.3.0-2.1",
            "openSUSE Tumbleweed:tiff-4.3.0-2.1"
          ]
        }
      ],
      "CVSSScoreSets": {}
    },
    {
      "CVE": "CVE-2022-0909",
      "Description": "Divide By Zero error in tiffcrop in libtiff 4.3.0 allows attackers to cause a denial-of-service via a crafted tiff file. For users that compile libtiff from sources, the fix is available with commit f8d0f9aa.",
      "Threats": [
        {
          "Type": "Impact",
          "Severity": "moderate"
        }
      ],
      "References": [
        {
          "URL": "https://www.suse.com/security/cve/CVE-2022-0909.html",
          "Description": "CVE-2022-0909"
        },
        {
          "URL": "https://bugzilla.suse.com/1197072",
          "Description": "SUSE Bug 1197072"
        }
      ],
      "ProductStatuses": [
        {
          "Type": "Fixed",
          "ProductID": [
            "openSUSE Tumbleweed:libtiff-devel-32bit-4.3.0-1.6",
            "openSUSE Tumbleweed:libtiff-devel-4.3.0-2.1",
            "openSUSE Tumbleweed:libtiff5-32bit-4.3.0-1.6",
            "openSUSE Tumbleweed:libtiff5-4.3.0-2.1",
            "openSUSE Tumbleweed:tiff-4.3.0-2.1"
          ]
        }
      ],
      "CVSSScoreSets": {}
    },
    {
      "CVE": "CVE-2022-0924",
      "Description": "Out-of-bounds Read error in tiffcp in libtiff 4.3.0 allows attackers to cause a denial-of-service via a crafted tiff file. For users that compile libtiff from sources, the fix is available with commit 408976c4.",
      "Threats": [
        {
          "Type": "Impact",
          "Severity": "moderate"
        }
      ],
      "References": [
        {
          "URL": "https://www.suse.com/security/cve/CVE-2022-0924.html",
          "Description": "CVE-2022-0924"
        },
        {
          "URL": "https://bugzilla.suse.com/1197073",
          "Description": "SUSE Bug 1197073"
        }
      ],
      "ProductStatuses": [
        {
          "Type": "Fixed",
          "ProductID": [
            "openSUSE Tumbleweed:libtiff-devel-32bit-4.3.0-1.6",
            "openSUSE Tumbleweed:libtiff-devel-4.3.0-2.1",
            "openSUSE Tumbleweed:libtiff5-32bit-4.3.0-1.6",
            "openSUSE Tumbleweed:libtiff5-4.3.0-2.1",
            "openSUSE Tumbleweed:tiff-4.3.0-2.1"
          ]
        }
      ],
      "CVSSScoreSets": {}
    },
    {
      "CVE": "CVE-2022-1056",
      "Description": "Out-of-bounds Read error in tiffcrop in libtiff 4.3.0 allows attackers to cause a denial-of-service via a crafted tiff file. For users that compile libtiff from sources, the fix is available with commit 46dc8fcd.",
      "Threats": [
        {
          "Type": "Impact",
          "Severity": "moderate"
        }
      ],
      "References": [
        {
          "URL": "https://www.suse.com/security/cve/CVE-2022-1056.html",
          "Description": "CVE-2022-1056"
        },
        {
          "URL": "https://bugzilla.suse.com/1197631",
          "Description": "SUSE Bug 1197631"
        }
      ],
      "ProductStatuses": [
        {
          "Type": "Fixed",
          "ProductID": [
            "openSUSE Tumbleweed:libtiff-devel-32bit-4.3.0-1.6",
            "openSUSE Tumbleweed:libtiff-devel-4.3.0-2.1",
            "openSUSE Tumbleweed:libtiff5-32bit-4.3.0-1.6",
            "openSUSE Tumbleweed:libtiff5-4.3.0-2.1",
            "openSUSE Tumbleweed:tiff-4.3.0-2.1"
          ]
        }
      ],
      "CVSSScoreSets": {}
    }
  ]
}