{
  "Title": "qtox-1.17.4-1.1 on GA media",
  "Tracking": {
    "ID": "openSUSE-SU-2024:11846-1",
    "Status": "Final",
    "Version": "1",
    "InitialReleaseDate": "2024-06-22T21:44:56Z",
    "CurrentReleaseDate": "2024-06-22T21:44:56Z",
    "RevisionHistory": [
      {
        "Number": "1",
        "Date": "2024-06-22T21:44:56Z",
        "Description": "current"
      }
    ]
  },
  "Notes": [
    {
      "Text": "qtox-1.17.4-1.1 on GA media",
      "Title": "Topic",
      "Type": "Summary"
    },
    {
      "Text": "These are all security issues fixed in the qtox-1.17.4-1.1 package on the GA media of openSUSE Tumbleweed.",
      "Title": "Details",
      "Type": "General"
    },
    {
      "Text": "The CVRF data is provided by SUSE under the Creative Commons License 4.0 with Attribution (CC-BY-4.0).",
      "Title": "Terms of Use",
      "Type": "Legal Disclaimer"
    },
    {
      "Text": "openSUSE-Tumbleweed-2024-11846",
      "Title": "Patchnames",
      "Type": "Details"
    }
  ],
  "ProductTree": {
    "Relationships": [
      {
        "ProductReference": "qtox-1.17.4-1.1",
        "RelatesToProductReference": "openSUSE Tumbleweed",
        "RelationType": "Default Component Of"
      }
    ]
  },
  "References": [
    {
      "URL": "https://www.suse.com/support/security/rating/",
      "Description": "SUSE Security Ratings"
    },
    {
      "URL": "https://www.suse.com/security/cve/CVE-2021-44847/",
      "Description": "SUSE CVE CVE-2021-44847 page"
    }
  ],
  "Vulnerabilities": [
    {
      "CVE": "CVE-2021-44847",
      "Description": "A stack-based buffer overflow in handle_request function in DHT.c in toxcore 0.1.9 through 0.1.11 and 0.2.0 through 0.2.12 (caused by an improper length calculation during the handling of received network packets) allows remote attackers to crash the process or potentially execute arbitrary code via a network packet.",
      "Threats": [
        {
          "Type": "Impact",
          "Severity": "critical"
        }
      ],
      "References": [
        {
          "URL": "https://www.suse.com/security/cve/CVE-2021-44847.html",
          "Description": "CVE-2021-44847"
        },
        {
          "URL": "https://bugzilla.suse.com/1193667",
          "Description": "SUSE Bug 1193667"
        }
      ],
      "ProductStatuses": [
        {
          "Type": "Fixed",
          "ProductID": [
            "openSUSE Tumbleweed:qtox-1.17.4-1.1"
          ]
        }
      ],
      "CVSSScoreSets": {}
    }
  ]
}