{
  "Title": "systemd-ui-3-1.8 on GA media",
  "Tracking": {
    "ID": "openSUSE-SU-2024:10112-1",
    "Status": "Final",
    "Version": "1",
    "InitialReleaseDate": "2024-06-22T21:44:56Z",
    "CurrentReleaseDate": "2024-06-22T21:44:56Z",
    "RevisionHistory": [
      {
        "Number": "1",
        "Date": "2024-06-22T21:44:56Z",
        "Description": "current"
      }
    ]
  },
  "Notes": [
    {
      "Text": "systemd-ui-3-1.8 on GA media",
      "Title": "Topic",
      "Type": "Summary"
    },
    {
      "Text": "These are all security issues fixed in the systemd-ui-3-1.8 package on the GA media of openSUSE Tumbleweed.",
      "Title": "Details",
      "Type": "General"
    },
    {
      "Text": "The CVRF data is provided by SUSE under the Creative Commons License 4.0 with Attribution (CC-BY-4.0).",
      "Title": "Terms of Use",
      "Type": "Legal Disclaimer"
    },
    {
      "Text": "openSUSE-Tumbleweed-2024-10112",
      "Title": "Patchnames",
      "Type": "Details"
    }
  ],
  "ProductTree": {
    "Relationships": [
      {
        "ProductReference": "systemd-ui-3-1.8",
        "RelatesToProductReference": "openSUSE Tumbleweed",
        "RelationType": "Default Component Of"
      }
    ]
  },
  "References": [
    {
      "URL": "https://www.suse.com/support/security/rating/",
      "Description": "SUSE Security Ratings"
    },
    {
      "URL": "https://www.suse.com/security/cve/CVE-2012-1174/",
      "Description": "SUSE CVE CVE-2012-1174 page"
    }
  ],
  "Vulnerabilities": [
    {
      "CVE": "CVE-2012-1174",
      "Description": "The rm_rf_children function in util.c in the systemd-logind login manager in systemd before 44, when logging out, allows local users to delete arbitrary files via a symlink attack on unspecified files, related to \"particular records related with user session.\"",
      "Threats": [
        {
          "Type": "Impact",
          "Severity": "moderate"
        }
      ],
      "References": [
        {
          "URL": "https://www.suse.com/security/cve/CVE-2012-1174.html",
          "Description": "CVE-2012-1174"
        },
        {
          "URL": "https://bugzilla.suse.com/752281",
          "Description": "SUSE Bug 752281"
        }
      ],
      "ProductStatuses": [
        {
          "Type": "Fixed",
          "ProductID": [
            "openSUSE Tumbleweed:systemd-ui-3-1.8"
          ]
        }
      ],
      "CVSSScoreSets": {}
    }
  ]
}