{
  "Title": "postgresql11-11.14-1.1 on GA media",
  "Tracking": {
    "ID": "openSUSE-SU-2024:11626-1",
    "Status": "Final",
    "Version": "1",
    "InitialReleaseDate": "2024-06-22T21:44:56Z",
    "CurrentReleaseDate": "2024-06-22T21:44:56Z",
    "RevisionHistory": [
      {
        "Number": "1",
        "Date": "2024-06-22T21:44:56Z",
        "Description": "current"
      }
    ]
  },
  "Notes": [
    {
      "Text": "postgresql11-11.14-1.1 on GA media",
      "Title": "Topic",
      "Type": "Summary"
    },
    {
      "Text": "These are all security issues fixed in the postgresql11-11.14-1.1 package on the GA media of openSUSE Tumbleweed.",
      "Title": "Details",
      "Type": "General"
    },
    {
      "Text": "The CVRF data is provided by SUSE under the Creative Commons License 4.0 with Attribution (CC-BY-4.0).",
      "Title": "Terms of Use",
      "Type": "Legal Disclaimer"
    },
    {
      "Text": "openSUSE-Tumbleweed-2024-11626",
      "Title": "Patchnames",
      "Type": "Details"
    }
  ],
  "ProductTree": {
    "Relationships": [
      {
        "ProductReference": "postgresql11-11.14-1.1",
        "RelatesToProductReference": "openSUSE Tumbleweed",
        "RelationType": "Default Component Of"
      },
      {
        "ProductReference": "postgresql11-contrib-11.14-1.1",
        "RelatesToProductReference": "openSUSE Tumbleweed",
        "RelationType": "Default Component Of"
      },
      {
        "ProductReference": "postgresql11-devel-11.14-1.1",
        "RelatesToProductReference": "openSUSE Tumbleweed",
        "RelationType": "Default Component Of"
      },
      {
        "ProductReference": "postgresql11-docs-11.14-1.1",
        "RelatesToProductReference": "openSUSE Tumbleweed",
        "RelationType": "Default Component Of"
      },
      {
        "ProductReference": "postgresql11-llvmjit-11.14-1.1",
        "RelatesToProductReference": "openSUSE Tumbleweed",
        "RelationType": "Default Component Of"
      },
      {
        "ProductReference": "postgresql11-plperl-11.14-1.1",
        "RelatesToProductReference": "openSUSE Tumbleweed",
        "RelationType": "Default Component Of"
      },
      {
        "ProductReference": "postgresql11-plpython-11.14-1.1",
        "RelatesToProductReference": "openSUSE Tumbleweed",
        "RelationType": "Default Component Of"
      },
      {
        "ProductReference": "postgresql11-pltcl-11.14-1.1",
        "RelatesToProductReference": "openSUSE Tumbleweed",
        "RelationType": "Default Component Of"
      },
      {
        "ProductReference": "postgresql11-server-11.14-1.1",
        "RelatesToProductReference": "openSUSE Tumbleweed",
        "RelationType": "Default Component Of"
      },
      {
        "ProductReference": "postgresql11-server-devel-11.14-1.1",
        "RelatesToProductReference": "openSUSE Tumbleweed",
        "RelationType": "Default Component Of"
      },
      {
        "ProductReference": "postgresql11-test-11.14-1.1",
        "RelatesToProductReference": "openSUSE Tumbleweed",
        "RelationType": "Default Component Of"
      }
    ]
  },
  "References": [
    {
      "URL": "https://www.suse.com/support/security/rating/",
      "Description": "SUSE Security Ratings"
    },
    {
      "URL": "https://www.suse.com/security/cve/CVE-2021-23214/",
      "Description": "SUSE CVE CVE-2021-23214 page"
    },
    {
      "URL": "https://www.suse.com/security/cve/CVE-2021-23222/",
      "Description": "SUSE CVE CVE-2021-23222 page"
    }
  ],
  "Vulnerabilities": [
    {
      "CVE": "CVE-2021-23214",
      "Description": "When the server is configured to use trust authentication with a clientcert requirement or to use cert authentication, a man-in-the-middle attacker can inject arbitrary SQL queries when a connection is first established, despite the use of SSL certificate verification and encryption.",
      "Threats": [
        {
          "Type": "Impact",
          "Severity": "important"
        }
      ],
      "References": [
        {
          "URL": "https://www.suse.com/security/cve/CVE-2021-23214.html",
          "Description": "CVE-2021-23214"
        },
        {
          "URL": "https://bugzilla.suse.com/1192516",
          "Description": "SUSE Bug 1192516"
        }
      ],
      "ProductStatuses": [
        {
          "Type": "Fixed",
          "ProductID": [
            "openSUSE Tumbleweed:postgresql11-11.14-1.1",
            "openSUSE Tumbleweed:postgresql11-contrib-11.14-1.1",
            "openSUSE Tumbleweed:postgresql11-devel-11.14-1.1",
            "openSUSE Tumbleweed:postgresql11-docs-11.14-1.1",
            "openSUSE Tumbleweed:postgresql11-llvmjit-11.14-1.1",
            "openSUSE Tumbleweed:postgresql11-plperl-11.14-1.1",
            "openSUSE Tumbleweed:postgresql11-plpython-11.14-1.1",
            "openSUSE Tumbleweed:postgresql11-pltcl-11.14-1.1",
            "openSUSE Tumbleweed:postgresql11-server-11.14-1.1",
            "openSUSE Tumbleweed:postgresql11-server-devel-11.14-1.1",
            "openSUSE Tumbleweed:postgresql11-test-11.14-1.1"
          ]
        }
      ],
      "CVSSScoreSets": {}
    },
    {
      "CVE": "CVE-2021-23222",
      "Description": "A man-in-the-middle attacker can inject false responses to the client's first few queries, despite the use of SSL certificate verification and encryption.",
      "Threats": [
        {
          "Type": "Impact",
          "Severity": "important"
        }
      ],
      "References": [
        {
          "URL": "https://www.suse.com/security/cve/CVE-2021-23222.html",
          "Description": "CVE-2021-23222"
        },
        {
          "URL": "https://bugzilla.suse.com/1192516",
          "Description": "SUSE Bug 1192516"
        }
      ],
      "ProductStatuses": [
        {
          "Type": "Fixed",
          "ProductID": [
            "openSUSE Tumbleweed:postgresql11-11.14-1.1",
            "openSUSE Tumbleweed:postgresql11-contrib-11.14-1.1",
            "openSUSE Tumbleweed:postgresql11-devel-11.14-1.1",
            "openSUSE Tumbleweed:postgresql11-docs-11.14-1.1",
            "openSUSE Tumbleweed:postgresql11-llvmjit-11.14-1.1",
            "openSUSE Tumbleweed:postgresql11-plperl-11.14-1.1",
            "openSUSE Tumbleweed:postgresql11-plpython-11.14-1.1",
            "openSUSE Tumbleweed:postgresql11-pltcl-11.14-1.1",
            "openSUSE Tumbleweed:postgresql11-server-11.14-1.1",
            "openSUSE Tumbleweed:postgresql11-server-devel-11.14-1.1",
            "openSUSE Tumbleweed:postgresql11-test-11.14-1.1"
          ]
        }
      ],
      "CVSSScoreSets": {}
    }
  ]
}