{
  "Title": "davix-0.8.4-1.1 on GA media",
  "Tracking": {
    "ID": "openSUSE-SU-2024:12714-1",
    "Status": "Final",
    "Version": "1",
    "InitialReleaseDate": "2024-06-20T21:44:22Z",
    "CurrentReleaseDate": "2024-06-20T21:44:22Z",
    "RevisionHistory": [
      {
        "Number": "1",
        "Date": "2024-06-20T21:44:22Z",
        "Description": "current"
      }
    ]
  },
  "Notes": [
    {
      "Text": "davix-0.8.4-1.1 on GA media",
      "Title": "Topic",
      "Type": "Summary"
    },
    {
      "Text": "These are all security issues fixed in the davix-0.8.4-1.1 package on the GA media of openSUSE Tumbleweed.",
      "Title": "Details",
      "Type": "General"
    },
    {
      "Text": "The CVRF data is provided by SUSE under the Creative Commons License 4.0 with Attribution (CC-BY-4.0).",
      "Title": "Terms of Use",
      "Type": "Legal Disclaimer"
    },
    {
      "Text": "openSUSE-Tumbleweed-2024-12714",
      "Title": "Patchnames",
      "Type": "Details"
    }
  ],
  "ProductTree": {
    "Relationships": [
      {
        "ProductReference": "davix-0.8.4-1.1",
        "RelatesToProductReference": "openSUSE Tumbleweed",
        "RelationType": "Default Component Of"
      },
      {
        "ProductReference": "davix-devel-0.8.4-1.1",
        "RelatesToProductReference": "openSUSE Tumbleweed",
        "RelationType": "Default Component Of"
      },
      {
        "ProductReference": "libdavix0-0.8.4-1.1",
        "RelatesToProductReference": "openSUSE Tumbleweed",
        "RelationType": "Default Component Of"
      }
    ]
  },
  "References": [
    {
      "URL": "https://www.suse.com/support/security/rating/",
      "Description": "SUSE Security Ratings"
    },
    {
      "URL": "https://www.suse.com/security/cve/CVE-2022-32221/",
      "Description": "SUSE CVE CVE-2022-32221 page"
    }
  ],
  "Vulnerabilities": [
    {
      "CVE": "CVE-2022-32221",
      "Description": "When doing HTTP(S) transfers, libcurl might erroneously use the read callback (`CURLOPT_READFUNCTION`) to ask for data to send, even when the `CURLOPT_POSTFIELDS` option has been set, if the same handle previously was used to issue a `PUT` request which used that callback. This flaw may surprise the application and cause it to misbehave and either send off the wrong data or use memory after free or similar in the subsequent `POST` request. The problem exists in the logic for a reused handle when it is changed from a PUT to a POST.",
      "Threats": [
        {
          "Type": "Impact",
          "Severity": "important"
        }
      ],
      "References": [
        {
          "URL": "https://www.suse.com/security/cve/CVE-2022-32221.html",
          "Description": "CVE-2022-32221"
        },
        {
          "URL": "https://bugzilla.suse.com/1204383",
          "Description": "SUSE Bug 1204383"
        },
        {
          "URL": "https://bugzilla.suse.com/1205287",
          "Description": "SUSE Bug 1205287"
        },
        {
          "URL": "https://bugzilla.suse.com/1205834",
          "Description": "SUSE Bug 1205834"
        },
        {
          "URL": "https://bugzilla.suse.com/1206236",
          "Description": "SUSE Bug 1206236"
        },
        {
          "URL": "https://bugzilla.suse.com/1208340",
          "Description": "SUSE Bug 1208340"
        },
        {
          "URL": "https://bugzilla.suse.com/1211233",
          "Description": "SUSE Bug 1211233"
        }
      ],
      "ProductStatuses": [
        {
          "Type": "Fixed",
          "ProductID": [
            "openSUSE Tumbleweed:davix-0.8.4-1.1",
            "openSUSE Tumbleweed:davix-devel-0.8.4-1.1",
            "openSUSE Tumbleweed:libdavix0-0.8.4-1.1"
          ]
        }
      ],
      "CVSSScoreSets": {}
    }
  ]
}