{
  "Title": "libruby2_7-2_7-2.7.5-1.1 on GA media",
  "Tracking": {
    "ID": "openSUSE-SU-2024:11657-1",
    "Status": "Final",
    "Version": "1",
    "InitialReleaseDate": "2024-06-22T21:44:56Z",
    "CurrentReleaseDate": "2024-06-22T21:44:56Z",
    "RevisionHistory": [
      {
        "Number": "1",
        "Date": "2024-06-22T21:44:56Z",
        "Description": "current"
      }
    ]
  },
  "Notes": [
    {
      "Text": "libruby2_7-2_7-2.7.5-1.1 on GA media",
      "Title": "Topic",
      "Type": "Summary"
    },
    {
      "Text": "These are all security issues fixed in the libruby2_7-2_7-2.7.5-1.1 package on the GA media of openSUSE Tumbleweed.",
      "Title": "Details",
      "Type": "General"
    },
    {
      "Text": "The CVRF data is provided by SUSE under the Creative Commons License 4.0 with Attribution (CC-BY-4.0).",
      "Title": "Terms of Use",
      "Type": "Legal Disclaimer"
    },
    {
      "Text": "openSUSE-Tumbleweed-2024-11657",
      "Title": "Patchnames",
      "Type": "Details"
    }
  ],
  "ProductTree": {
    "Relationships": [
      {
        "ProductReference": "libruby2_7-2_7-2.7.5-1.1",
        "RelatesToProductReference": "openSUSE Tumbleweed",
        "RelationType": "Default Component Of"
      },
      {
        "ProductReference": "ruby2.7-2.7.5-1.1",
        "RelatesToProductReference": "openSUSE Tumbleweed",
        "RelationType": "Default Component Of"
      },
      {
        "ProductReference": "ruby2.7-devel-2.7.5-1.1",
        "RelatesToProductReference": "openSUSE Tumbleweed",
        "RelationType": "Default Component Of"
      },
      {
        "ProductReference": "ruby2.7-devel-extra-2.7.5-1.1",
        "RelatesToProductReference": "openSUSE Tumbleweed",
        "RelationType": "Default Component Of"
      },
      {
        "ProductReference": "ruby2.7-doc-2.7.5-1.1",
        "RelatesToProductReference": "openSUSE Tumbleweed",
        "RelationType": "Default Component Of"
      },
      {
        "ProductReference": "ruby2.7-doc-ri-2.7.5-1.1",
        "RelatesToProductReference": "openSUSE Tumbleweed",
        "RelationType": "Default Component Of"
      }
    ]
  },
  "References": [
    {
      "URL": "https://www.suse.com/support/security/rating/",
      "Description": "SUSE Security Ratings"
    },
    {
      "URL": "https://www.suse.com/security/cve/CVE-2021-41816/",
      "Description": "SUSE CVE CVE-2021-41816 page"
    },
    {
      "URL": "https://www.suse.com/security/cve/CVE-2021-41817/",
      "Description": "SUSE CVE CVE-2021-41817 page"
    },
    {
      "URL": "https://www.suse.com/security/cve/CVE-2021-41819/",
      "Description": "SUSE CVE CVE-2021-41819 page"
    }
  ],
  "Vulnerabilities": [
    {
      "CVE": "CVE-2021-41816",
      "Description": "CGI.escape_html in Ruby before 2.7.5 and 3.x before 3.0.3 has an integer overflow and resultant buffer overflow via a long string on platforms (such as Windows) where size_t and long have different numbers of bytes. This also affects the CGI gem before 0.3.1 for Ruby.",
      "Threats": [
        {
          "Type": "Impact",
          "Severity": "moderate"
        }
      ],
      "References": [
        {
          "URL": "https://www.suse.com/security/cve/CVE-2021-41816.html",
          "Description": "CVE-2021-41816"
        },
        {
          "URL": "https://bugzilla.suse.com/1193080",
          "Description": "SUSE Bug 1193080"
        }
      ],
      "ProductStatuses": [
        {
          "Type": "Fixed",
          "ProductID": [
            "openSUSE Tumbleweed:libruby2_7-2_7-2.7.5-1.1",
            "openSUSE Tumbleweed:ruby2.7-2.7.5-1.1",
            "openSUSE Tumbleweed:ruby2.7-devel-2.7.5-1.1",
            "openSUSE Tumbleweed:ruby2.7-devel-extra-2.7.5-1.1",
            "openSUSE Tumbleweed:ruby2.7-doc-2.7.5-1.1",
            "openSUSE Tumbleweed:ruby2.7-doc-ri-2.7.5-1.1"
          ]
        }
      ],
      "CVSSScoreSets": {}
    },
    {
      "CVE": "CVE-2021-41817",
      "Description": "Date.parse in the date gem through 3.2.0 for Ruby allows ReDoS (regular expression Denial of Service) via a long string. The fixed versions are 3.2.1, 3.1.2, 3.0.2, and 2.0.1.",
      "Threats": [
        {
          "Type": "Impact",
          "Severity": "moderate"
        }
      ],
      "References": [
        {
          "URL": "https://www.suse.com/security/cve/CVE-2021-41817.html",
          "Description": "CVE-2021-41817"
        },
        {
          "URL": "https://bugzilla.suse.com/1193035",
          "Description": "SUSE Bug 1193035"
        }
      ],
      "ProductStatuses": [
        {
          "Type": "Fixed",
          "ProductID": [
            "openSUSE Tumbleweed:libruby2_7-2_7-2.7.5-1.1",
            "openSUSE Tumbleweed:ruby2.7-2.7.5-1.1",
            "openSUSE Tumbleweed:ruby2.7-devel-2.7.5-1.1",
            "openSUSE Tumbleweed:ruby2.7-devel-extra-2.7.5-1.1",
            "openSUSE Tumbleweed:ruby2.7-doc-2.7.5-1.1",
            "openSUSE Tumbleweed:ruby2.7-doc-ri-2.7.5-1.1"
          ]
        }
      ],
      "CVSSScoreSets": {}
    },
    {
      "CVE": "CVE-2021-41819",
      "Description": "CGI::Cookie.parse in Ruby through 2.6.8 mishandles security prefixes in cookie names. This also affects the CGI gem through 0.3.0 for Ruby.",
      "Threats": [
        {
          "Type": "Impact",
          "Severity": "moderate"
        }
      ],
      "References": [
        {
          "URL": "https://www.suse.com/security/cve/CVE-2021-41819.html",
          "Description": "CVE-2021-41819"
        },
        {
          "URL": "https://bugzilla.suse.com/1193081",
          "Description": "SUSE Bug 1193081"
        }
      ],
      "ProductStatuses": [
        {
          "Type": "Fixed",
          "ProductID": [
            "openSUSE Tumbleweed:libruby2_7-2_7-2.7.5-1.1",
            "openSUSE Tumbleweed:ruby2.7-2.7.5-1.1",
            "openSUSE Tumbleweed:ruby2.7-devel-2.7.5-1.1",
            "openSUSE Tumbleweed:ruby2.7-devel-extra-2.7.5-1.1",
            "openSUSE Tumbleweed:ruby2.7-doc-2.7.5-1.1",
            "openSUSE Tumbleweed:ruby2.7-doc-ri-2.7.5-1.1"
          ]
        }
      ],
      "CVSSScoreSets": {}
    }
  ]
}