{
  "Title": "chromedriver-94.0.4606.71-1.1 on GA media",
  "Tracking": {
    "ID": "openSUSE-SU-2024:11555-1",
    "Status": "Final",
    "Version": "1",
    "InitialReleaseDate": "2024-06-22T21:44:56Z",
    "CurrentReleaseDate": "2024-06-22T21:44:56Z",
    "RevisionHistory": [
      {
        "Number": "1",
        "Date": "2024-06-22T21:44:56Z",
        "Description": "current"
      }
    ]
  },
  "Notes": [
    {
      "Text": "chromedriver-94.0.4606.71-1.1 on GA media",
      "Title": "Topic",
      "Type": "Summary"
    },
    {
      "Text": "These are all security issues fixed in the chromedriver-94.0.4606.71-1.1 package on the GA media of openSUSE Tumbleweed.",
      "Title": "Details",
      "Type": "General"
    },
    {
      "Text": "The CVRF data is provided by SUSE under the Creative Commons License 4.0 with Attribution (CC-BY-4.0).",
      "Title": "Terms of Use",
      "Type": "Legal Disclaimer"
    },
    {
      "Text": "openSUSE-Tumbleweed-2024-11555",
      "Title": "Patchnames",
      "Type": "Details"
    }
  ],
  "ProductTree": {
    "Relationships": [
      {
        "ProductReference": "chromedriver-94.0.4606.71-1.1",
        "RelatesToProductReference": "openSUSE Tumbleweed",
        "RelationType": "Default Component Of"
      },
      {
        "ProductReference": "chromium-94.0.4606.71-1.1",
        "RelatesToProductReference": "openSUSE Tumbleweed",
        "RelationType": "Default Component Of"
      }
    ]
  },
  "References": [
    {
      "URL": "https://www.suse.com/support/security/rating/",
      "Description": "SUSE Security Ratings"
    },
    {
      "URL": "https://www.suse.com/security/cve/CVE-2021-37956/",
      "Description": "SUSE CVE CVE-2021-37956 page"
    },
    {
      "URL": "https://www.suse.com/security/cve/CVE-2021-37957/",
      "Description": "SUSE CVE CVE-2021-37957 page"
    },
    {
      "URL": "https://www.suse.com/security/cve/CVE-2021-37958/",
      "Description": "SUSE CVE CVE-2021-37958 page"
    },
    {
      "URL": "https://www.suse.com/security/cve/CVE-2021-37959/",
      "Description": "SUSE CVE CVE-2021-37959 page"
    },
    {
      "URL": "https://www.suse.com/security/cve/CVE-2021-37960/",
      "Description": "SUSE CVE CVE-2021-37960 page"
    },
    {
      "URL": "https://www.suse.com/security/cve/CVE-2021-37961/",
      "Description": "SUSE CVE CVE-2021-37961 page"
    },
    {
      "URL": "https://www.suse.com/security/cve/CVE-2021-37962/",
      "Description": "SUSE CVE CVE-2021-37962 page"
    },
    {
      "URL": "https://www.suse.com/security/cve/CVE-2021-37963/",
      "Description": "SUSE CVE CVE-2021-37963 page"
    },
    {
      "URL": "https://www.suse.com/security/cve/CVE-2021-37964/",
      "Description": "SUSE CVE CVE-2021-37964 page"
    },
    {
      "URL": "https://www.suse.com/security/cve/CVE-2021-37965/",
      "Description": "SUSE CVE CVE-2021-37965 page"
    },
    {
      "URL": "https://www.suse.com/security/cve/CVE-2021-37966/",
      "Description": "SUSE CVE CVE-2021-37966 page"
    },
    {
      "URL": "https://www.suse.com/security/cve/CVE-2021-37967/",
      "Description": "SUSE CVE CVE-2021-37967 page"
    },
    {
      "URL": "https://www.suse.com/security/cve/CVE-2021-37968/",
      "Description": "SUSE CVE CVE-2021-37968 page"
    },
    {
      "URL": "https://www.suse.com/security/cve/CVE-2021-37969/",
      "Description": "SUSE CVE CVE-2021-37969 page"
    },
    {
      "URL": "https://www.suse.com/security/cve/CVE-2021-37970/",
      "Description": "SUSE CVE CVE-2021-37970 page"
    },
    {
      "URL": "https://www.suse.com/security/cve/CVE-2021-37971/",
      "Description": "SUSE CVE CVE-2021-37971 page"
    },
    {
      "URL": "https://www.suse.com/security/cve/CVE-2021-37972/",
      "Description": "SUSE CVE CVE-2021-37972 page"
    },
    {
      "URL": "https://www.suse.com/security/cve/CVE-2021-37973/",
      "Description": "SUSE CVE CVE-2021-37973 page"
    },
    {
      "URL": "https://www.suse.com/security/cve/CVE-2021-37974/",
      "Description": "SUSE CVE CVE-2021-37974 page"
    },
    {
      "URL": "https://www.suse.com/security/cve/CVE-2021-37975/",
      "Description": "SUSE CVE CVE-2021-37975 page"
    },
    {
      "URL": "https://www.suse.com/security/cve/CVE-2021-37976/",
      "Description": "SUSE CVE CVE-2021-37976 page"
    }
  ],
  "Vulnerabilities": [
    {
      "CVE": "CVE-2021-37956",
      "Description": "Use after free in Offline use in Google Chrome on Android prior to 94.0.4606.54 allowed a remote attacker who had compromised the renderer process to potentially exploit heap corruption via a crafted HTML page.",
      "Threats": [
        {
          "Type": "Impact",
          "Severity": "important"
        }
      ],
      "References": [
        {
          "URL": "https://www.suse.com/security/cve/CVE-2021-37956.html",
          "Description": "CVE-2021-37956"
        },
        {
          "URL": "https://bugzilla.suse.com/1190765",
          "Description": "SUSE Bug 1190765"
        }
      ],
      "ProductStatuses": [
        {
          "Type": "Fixed",
          "ProductID": [
            "openSUSE Tumbleweed:chromedriver-94.0.4606.71-1.1",
            "openSUSE Tumbleweed:chromium-94.0.4606.71-1.1"
          ]
        }
      ],
      "CVSSScoreSets": {}
    },
    {
      "CVE": "CVE-2021-37957",
      "Description": "Use after free in WebGPU in Google Chrome prior to 94.0.4606.54 allowed a remote attacker to potentially exploit heap corruption via a crafted HTML page.",
      "Threats": [
        {
          "Type": "Impact",
          "Severity": "important"
        }
      ],
      "References": [
        {
          "URL": "https://www.suse.com/security/cve/CVE-2021-37957.html",
          "Description": "CVE-2021-37957"
        },
        {
          "URL": "https://bugzilla.suse.com/1190765",
          "Description": "SUSE Bug 1190765"
        }
      ],
      "ProductStatuses": [
        {
          "Type": "Fixed",
          "ProductID": [
            "openSUSE Tumbleweed:chromedriver-94.0.4606.71-1.1",
            "openSUSE Tumbleweed:chromium-94.0.4606.71-1.1"
          ]
        }
      ],
      "CVSSScoreSets": {}
    },
    {
      "CVE": "CVE-2021-37958",
      "Description": "Inappropriate implementation in Navigation in Google Chrome on Windows prior to 94.0.4606.54 allowed a remote attacker to inject scripts or HTML into a privileged page via a crafted HTML page.",
      "Threats": [
        {
          "Type": "Impact",
          "Severity": "important"
        }
      ],
      "References": [
        {
          "URL": "https://www.suse.com/security/cve/CVE-2021-37958.html",
          "Description": "CVE-2021-37958"
        },
        {
          "URL": "https://bugzilla.suse.com/1190765",
          "Description": "SUSE Bug 1190765"
        }
      ],
      "ProductStatuses": [
        {
          "Type": "Fixed",
          "ProductID": [
            "openSUSE Tumbleweed:chromedriver-94.0.4606.71-1.1",
            "openSUSE Tumbleweed:chromium-94.0.4606.71-1.1"
          ]
        }
      ],
      "CVSSScoreSets": {}
    },
    {
      "CVE": "CVE-2021-37959",
      "Description": "Use after free in Task Manager in Google Chrome prior to 94.0.4606.54 allowed an attacker who convinced a user to enage in a series of user gestures to potentially exploit heap corruption via a crafted HTML page.",
      "Threats": [
        {
          "Type": "Impact",
          "Severity": "important"
        }
      ],
      "References": [
        {
          "URL": "https://www.suse.com/security/cve/CVE-2021-37959.html",
          "Description": "CVE-2021-37959"
        },
        {
          "URL": "https://bugzilla.suse.com/1190765",
          "Description": "SUSE Bug 1190765"
        }
      ],
      "ProductStatuses": [
        {
          "Type": "Fixed",
          "ProductID": [
            "openSUSE Tumbleweed:chromedriver-94.0.4606.71-1.1",
            "openSUSE Tumbleweed:chromium-94.0.4606.71-1.1"
          ]
        }
      ],
      "CVSSScoreSets": {}
    },
    {
      "CVE": "CVE-2021-37960",
      "Description": "** REJECT ** DO NOT USE THIS CANDIDATE NUMBER. ConsultIDs: none. Reason: This candidate was withdrawn by its CNA. Further investigation showed that it was not a security issue. Notes: none.",
      "Threats": [
        {
          "Type": "Impact",
          "Severity": "important"
        }
      ],
      "References": [
        {
          "URL": "https://www.suse.com/security/cve/CVE-2021-37960.html",
          "Description": "CVE-2021-37960"
        },
        {
          "URL": "https://bugzilla.suse.com/1190765",
          "Description": "SUSE Bug 1190765"
        }
      ],
      "ProductStatuses": [
        {
          "Type": "Fixed",
          "ProductID": [
            "openSUSE Tumbleweed:chromedriver-94.0.4606.71-1.1",
            "openSUSE Tumbleweed:chromium-94.0.4606.71-1.1"
          ]
        }
      ],
      "CVSSScoreSets": {}
    },
    {
      "CVE": "CVE-2021-37961",
      "Description": "Use after free in Tab Strip in Google Chrome prior to 94.0.4606.54 allowed a remote attacker to potentially exploit heap corruption via a crafted HTML page.",
      "Threats": [
        {
          "Type": "Impact",
          "Severity": "important"
        }
      ],
      "References": [
        {
          "URL": "https://www.suse.com/security/cve/CVE-2021-37961.html",
          "Description": "CVE-2021-37961"
        },
        {
          "URL": "https://bugzilla.suse.com/1190765",
          "Description": "SUSE Bug 1190765"
        }
      ],
      "ProductStatuses": [
        {
          "Type": "Fixed",
          "ProductID": [
            "openSUSE Tumbleweed:chromedriver-94.0.4606.71-1.1",
            "openSUSE Tumbleweed:chromium-94.0.4606.71-1.1"
          ]
        }
      ],
      "CVSSScoreSets": {}
    },
    {
      "CVE": "CVE-2021-37962",
      "Description": "Use after free in Performance Manager in Google Chrome prior to 94.0.4606.54 allowed a remote attacker who had compromised the renderer process to potentially exploit heap corruption via a crafted HTML page.",
      "Threats": [
        {
          "Type": "Impact",
          "Severity": "important"
        }
      ],
      "References": [
        {
          "URL": "https://www.suse.com/security/cve/CVE-2021-37962.html",
          "Description": "CVE-2021-37962"
        },
        {
          "URL": "https://bugzilla.suse.com/1190765",
          "Description": "SUSE Bug 1190765"
        }
      ],
      "ProductStatuses": [
        {
          "Type": "Fixed",
          "ProductID": [
            "openSUSE Tumbleweed:chromedriver-94.0.4606.71-1.1",
            "openSUSE Tumbleweed:chromium-94.0.4606.71-1.1"
          ]
        }
      ],
      "CVSSScoreSets": {}
    },
    {
      "CVE": "CVE-2021-37963",
      "Description": "Side-channel information leakage in DevTools in Google Chrome prior to 94.0.4606.54 allowed a remote attacker to bypass site isolation via a crafted HTML page.",
      "Threats": [
        {
          "Type": "Impact",
          "Severity": "important"
        }
      ],
      "References": [
        {
          "URL": "https://www.suse.com/security/cve/CVE-2021-37963.html",
          "Description": "CVE-2021-37963"
        },
        {
          "URL": "https://bugzilla.suse.com/1190765",
          "Description": "SUSE Bug 1190765"
        }
      ],
      "ProductStatuses": [
        {
          "Type": "Fixed",
          "ProductID": [
            "openSUSE Tumbleweed:chromedriver-94.0.4606.71-1.1",
            "openSUSE Tumbleweed:chromium-94.0.4606.71-1.1"
          ]
        }
      ],
      "CVSSScoreSets": {}
    },
    {
      "CVE": "CVE-2021-37964",
      "Description": "Inappropriate implementation in ChromeOS Networking in Google Chrome on ChromeOS prior to 94.0.4606.54 allowed an attacker with a rogue wireless access point to to potentially carryout a wifi impersonation attack via a crafted ONC file.",
      "Threats": [
        {
          "Type": "Impact",
          "Severity": "important"
        }
      ],
      "References": [
        {
          "URL": "https://www.suse.com/security/cve/CVE-2021-37964.html",
          "Description": "CVE-2021-37964"
        },
        {
          "URL": "https://bugzilla.suse.com/1190765",
          "Description": "SUSE Bug 1190765"
        }
      ],
      "ProductStatuses": [
        {
          "Type": "Fixed",
          "ProductID": [
            "openSUSE Tumbleweed:chromedriver-94.0.4606.71-1.1",
            "openSUSE Tumbleweed:chromium-94.0.4606.71-1.1"
          ]
        }
      ],
      "CVSSScoreSets": {}
    },
    {
      "CVE": "CVE-2021-37965",
      "Description": "Inappropriate implementation in Background Fetch API in Google Chrome prior to 94.0.4606.54 allowed a remote attacker to leak cross-origin data via a crafted HTML page.",
      "Threats": [
        {
          "Type": "Impact",
          "Severity": "important"
        }
      ],
      "References": [
        {
          "URL": "https://www.suse.com/security/cve/CVE-2021-37965.html",
          "Description": "CVE-2021-37965"
        },
        {
          "URL": "https://bugzilla.suse.com/1190765",
          "Description": "SUSE Bug 1190765"
        }
      ],
      "ProductStatuses": [
        {
          "Type": "Fixed",
          "ProductID": [
            "openSUSE Tumbleweed:chromedriver-94.0.4606.71-1.1",
            "openSUSE Tumbleweed:chromium-94.0.4606.71-1.1"
          ]
        }
      ],
      "CVSSScoreSets": {}
    },
    {
      "CVE": "CVE-2021-37966",
      "Description": "Inappropriate implementation in Compositing in Google Chrome on Android prior to 94.0.4606.54 allowed a remote attacker to spoof the contents of the Omnibox (URL bar) via a crafted HTML page.",
      "Threats": [
        {
          "Type": "Impact",
          "Severity": "important"
        }
      ],
      "References": [
        {
          "URL": "https://www.suse.com/security/cve/CVE-2021-37966.html",
          "Description": "CVE-2021-37966"
        },
        {
          "URL": "https://bugzilla.suse.com/1190765",
          "Description": "SUSE Bug 1190765"
        }
      ],
      "ProductStatuses": [
        {
          "Type": "Fixed",
          "ProductID": [
            "openSUSE Tumbleweed:chromedriver-94.0.4606.71-1.1",
            "openSUSE Tumbleweed:chromium-94.0.4606.71-1.1"
          ]
        }
      ],
      "CVSSScoreSets": {}
    },
    {
      "CVE": "CVE-2021-37967",
      "Description": "Inappropriate implementation in Background Fetch API in Google Chrome prior to 94.0.4606.54 allowed a remote attacker who had compromised the renderer process to leak cross-origin data via a crafted HTML page.",
      "Threats": [
        {
          "Type": "Impact",
          "Severity": "important"
        }
      ],
      "References": [
        {
          "URL": "https://www.suse.com/security/cve/CVE-2021-37967.html",
          "Description": "CVE-2021-37967"
        },
        {
          "URL": "https://bugzilla.suse.com/1190765",
          "Description": "SUSE Bug 1190765"
        }
      ],
      "ProductStatuses": [
        {
          "Type": "Fixed",
          "ProductID": [
            "openSUSE Tumbleweed:chromedriver-94.0.4606.71-1.1",
            "openSUSE Tumbleweed:chromium-94.0.4606.71-1.1"
          ]
        }
      ],
      "CVSSScoreSets": {}
    },
    {
      "CVE": "CVE-2021-37968",
      "Description": "Inappropriate implementation in Background Fetch API in Google Chrome prior to 94.0.4606.54 allowed a remote attacker to leak cross-origin data via a crafted HTML page.",
      "Threats": [
        {
          "Type": "Impact",
          "Severity": "important"
        }
      ],
      "References": [
        {
          "URL": "https://www.suse.com/security/cve/CVE-2021-37968.html",
          "Description": "CVE-2021-37968"
        },
        {
          "URL": "https://bugzilla.suse.com/1190765",
          "Description": "SUSE Bug 1190765"
        }
      ],
      "ProductStatuses": [
        {
          "Type": "Fixed",
          "ProductID": [
            "openSUSE Tumbleweed:chromedriver-94.0.4606.71-1.1",
            "openSUSE Tumbleweed:chromium-94.0.4606.71-1.1"
          ]
        }
      ],
      "CVSSScoreSets": {}
    },
    {
      "CVE": "CVE-2021-37969",
      "Description": "Inappropriate implementation in Google Updater in Google Chrome on Windows prior to 94.0.4606.54 allowed a remote attacker to perform local privilege escalation via a crafted file.",
      "Threats": [
        {
          "Type": "Impact",
          "Severity": "important"
        }
      ],
      "References": [
        {
          "URL": "https://www.suse.com/security/cve/CVE-2021-37969.html",
          "Description": "CVE-2021-37969"
        },
        {
          "URL": "https://bugzilla.suse.com/1190765",
          "Description": "SUSE Bug 1190765"
        }
      ],
      "ProductStatuses": [
        {
          "Type": "Fixed",
          "ProductID": [
            "openSUSE Tumbleweed:chromedriver-94.0.4606.71-1.1",
            "openSUSE Tumbleweed:chromium-94.0.4606.71-1.1"
          ]
        }
      ],
      "CVSSScoreSets": {}
    },
    {
      "CVE": "CVE-2021-37970",
      "Description": "Use after free in File System API in Google Chrome prior to 94.0.4606.54 allowed a remote attacker to potentially exploit heap corruption via a crafted HTML page.",
      "Threats": [
        {
          "Type": "Impact",
          "Severity": "important"
        }
      ],
      "References": [
        {
          "URL": "https://www.suse.com/security/cve/CVE-2021-37970.html",
          "Description": "CVE-2021-37970"
        },
        {
          "URL": "https://bugzilla.suse.com/1190765",
          "Description": "SUSE Bug 1190765"
        }
      ],
      "ProductStatuses": [
        {
          "Type": "Fixed",
          "ProductID": [
            "openSUSE Tumbleweed:chromedriver-94.0.4606.71-1.1",
            "openSUSE Tumbleweed:chromium-94.0.4606.71-1.1"
          ]
        }
      ],
      "CVSSScoreSets": {}
    },
    {
      "CVE": "CVE-2021-37971",
      "Description": "Incorrect security UI in Web Browser UI in Google Chrome prior to 94.0.4606.54 allowed a remote attacker to spoof the contents of the Omnibox (URL bar) via a crafted HTML page.",
      "Threats": [
        {
          "Type": "Impact",
          "Severity": "important"
        }
      ],
      "References": [
        {
          "URL": "https://www.suse.com/security/cve/CVE-2021-37971.html",
          "Description": "CVE-2021-37971"
        },
        {
          "URL": "https://bugzilla.suse.com/1190765",
          "Description": "SUSE Bug 1190765"
        }
      ],
      "ProductStatuses": [
        {
          "Type": "Fixed",
          "ProductID": [
            "openSUSE Tumbleweed:chromedriver-94.0.4606.71-1.1",
            "openSUSE Tumbleweed:chromium-94.0.4606.71-1.1"
          ]
        }
      ],
      "CVSSScoreSets": {}
    },
    {
      "CVE": "CVE-2021-37972",
      "Description": "Out of bounds read in libjpeg-turbo in Google Chrome prior to 94.0.4606.54 allowed a remote attacker to potentially exploit heap corruption via a crafted HTML page.",
      "Threats": [
        {
          "Type": "Impact",
          "Severity": "important"
        }
      ],
      "References": [
        {
          "URL": "https://www.suse.com/security/cve/CVE-2021-37972.html",
          "Description": "CVE-2021-37972"
        },
        {
          "URL": "https://bugzilla.suse.com/1190765",
          "Description": "SUSE Bug 1190765"
        }
      ],
      "ProductStatuses": [
        {
          "Type": "Fixed",
          "ProductID": [
            "openSUSE Tumbleweed:chromedriver-94.0.4606.71-1.1",
            "openSUSE Tumbleweed:chromium-94.0.4606.71-1.1"
          ]
        }
      ],
      "CVSSScoreSets": {}
    },
    {
      "CVE": "CVE-2021-37973",
      "Description": "Use after free in Portals in Google Chrome prior to 94.0.4606.61 allowed a remote attacker who had compromised the renderer process to potentially perform a sandbox escape via a crafted HTML page.",
      "Threats": [
        {
          "Type": "Impact",
          "Severity": "critical"
        }
      ],
      "References": [
        {
          "URL": "https://www.suse.com/security/cve/CVE-2021-37973.html",
          "Description": "CVE-2021-37973"
        },
        {
          "URL": "https://bugzilla.suse.com/1191166",
          "Description": "SUSE Bug 1191166"
        }
      ],
      "ProductStatuses": [
        {
          "Type": "Fixed",
          "ProductID": [
            "openSUSE Tumbleweed:chromedriver-94.0.4606.71-1.1",
            "openSUSE Tumbleweed:chromium-94.0.4606.71-1.1"
          ]
        }
      ],
      "CVSSScoreSets": {}
    },
    {
      "CVE": "CVE-2021-37974",
      "Description": "Use after free in Safebrowsing in Google Chrome prior to 94.0.4606.71 allowed a remote attacker who had compromised the renderer process to potentially exploit heap corruption via a crafted HTML page.",
      "Threats": [
        {
          "Type": "Impact",
          "Severity": "important"
        }
      ],
      "References": [
        {
          "URL": "https://www.suse.com/security/cve/CVE-2021-37974.html",
          "Description": "CVE-2021-37974"
        },
        {
          "URL": "https://bugzilla.suse.com/1191204",
          "Description": "SUSE Bug 1191204"
        }
      ],
      "ProductStatuses": [
        {
          "Type": "Fixed",
          "ProductID": [
            "openSUSE Tumbleweed:chromedriver-94.0.4606.71-1.1",
            "openSUSE Tumbleweed:chromium-94.0.4606.71-1.1"
          ]
        }
      ],
      "CVSSScoreSets": {}
    },
    {
      "CVE": "CVE-2021-37975",
      "Description": "Use after free in V8 in Google Chrome prior to 94.0.4606.71 allowed a remote attacker to potentially exploit heap corruption via a crafted HTML page.",
      "Threats": [
        {
          "Type": "Impact",
          "Severity": "important"
        }
      ],
      "References": [
        {
          "URL": "https://www.suse.com/security/cve/CVE-2021-37975.html",
          "Description": "CVE-2021-37975"
        },
        {
          "URL": "https://bugzilla.suse.com/1191204",
          "Description": "SUSE Bug 1191204"
        }
      ],
      "ProductStatuses": [
        {
          "Type": "Fixed",
          "ProductID": [
            "openSUSE Tumbleweed:chromedriver-94.0.4606.71-1.1",
            "openSUSE Tumbleweed:chromium-94.0.4606.71-1.1"
          ]
        }
      ],
      "CVSSScoreSets": {}
    },
    {
      "CVE": "CVE-2021-37976",
      "Description": "Inappropriate implementation in Memory in Google Chrome prior to 94.0.4606.71 allowed a remote attacker to obtain potentially sensitive information from process memory via a crafted HTML page.",
      "Threats": [
        {
          "Type": "Impact",
          "Severity": "important"
        }
      ],
      "References": [
        {
          "URL": "https://www.suse.com/security/cve/CVE-2021-37976.html",
          "Description": "CVE-2021-37976"
        },
        {
          "URL": "https://bugzilla.suse.com/1191204",
          "Description": "SUSE Bug 1191204"
        }
      ],
      "ProductStatuses": [
        {
          "Type": "Fixed",
          "ProductID": [
            "openSUSE Tumbleweed:chromedriver-94.0.4606.71-1.1",
            "openSUSE Tumbleweed:chromium-94.0.4606.71-1.1"
          ]
        }
      ],
      "CVSSScoreSets": {}
    }
  ]
}