{
  "Title": "libsqlite3-0-3.39.2-1.1 on GA media",
  "Tracking": {
    "ID": "openSUSE-SU-2024:12210-1",
    "Status": "Final",
    "Version": "1",
    "InitialReleaseDate": "2024-06-20T21:44:22Z",
    "CurrentReleaseDate": "2024-06-20T21:44:22Z",
    "RevisionHistory": [
      {
        "Number": "1",
        "Date": "2024-06-20T21:44:22Z",
        "Description": "current"
      }
    ]
  },
  "Notes": [
    {
      "Text": "libsqlite3-0-3.39.2-1.1 on GA media",
      "Title": "Topic",
      "Type": "Summary"
    },
    {
      "Text": "These are all security issues fixed in the libsqlite3-0-3.39.2-1.1 package on the GA media of openSUSE Tumbleweed.",
      "Title": "Details",
      "Type": "General"
    },
    {
      "Text": "The CVRF data is provided by SUSE under the Creative Commons License 4.0 with Attribution (CC-BY-4.0).",
      "Title": "Terms of Use",
      "Type": "Legal Disclaimer"
    },
    {
      "Text": "openSUSE-Tumbleweed-2024-12210",
      "Title": "Patchnames",
      "Type": "Details"
    }
  ],
  "ProductTree": {
    "Relationships": [
      {
        "ProductReference": "libsqlite3-0-3.39.2-1.1",
        "RelatesToProductReference": "openSUSE Tumbleweed",
        "RelationType": "Default Component Of"
      },
      {
        "ProductReference": "libsqlite3-0-32bit-3.39.2-1.1",
        "RelatesToProductReference": "openSUSE Tumbleweed",
        "RelationType": "Default Component Of"
      },
      {
        "ProductReference": "sqlite3-3.39.2-1.1",
        "RelatesToProductReference": "openSUSE Tumbleweed",
        "RelationType": "Default Component Of"
      },
      {
        "ProductReference": "sqlite3-devel-3.39.2-1.1",
        "RelatesToProductReference": "openSUSE Tumbleweed",
        "RelationType": "Default Component Of"
      },
      {
        "ProductReference": "sqlite3-doc-3.39.2-1.1",
        "RelatesToProductReference": "openSUSE Tumbleweed",
        "RelationType": "Default Component Of"
      },
      {
        "ProductReference": "sqlite3-tcl-3.39.2-1.1",
        "RelatesToProductReference": "openSUSE Tumbleweed",
        "RelationType": "Default Component Of"
      }
    ]
  },
  "References": [
    {
      "URL": "https://www.suse.com/support/security/rating/",
      "Description": "SUSE Security Ratings"
    },
    {
      "URL": "https://www.suse.com/security/cve/CVE-2022-35737/",
      "Description": "SUSE CVE CVE-2022-35737 page"
    }
  ],
  "Vulnerabilities": [
    {
      "CVE": "CVE-2022-35737",
      "Description": "SQLite 1.0.12 through 3.39.x before 3.39.2 sometimes allows an array-bounds overflow if billions of bytes are used in a string argument to a C API.",
      "Threats": [
        {
          "Type": "Impact",
          "Severity": "moderate"
        }
      ],
      "References": [
        {
          "URL": "https://www.suse.com/security/cve/CVE-2022-35737.html",
          "Description": "CVE-2022-35737"
        },
        {
          "URL": "https://bugzilla.suse.com/1201783",
          "Description": "SUSE Bug 1201783"
        },
        {
          "URL": "https://bugzilla.suse.com/1203345",
          "Description": "SUSE Bug 1203345"
        },
        {
          "URL": "https://bugzilla.suse.com/1211963",
          "Description": "SUSE Bug 1211963"
        }
      ],
      "ProductStatuses": [
        {
          "Type": "Fixed",
          "ProductID": [
            "openSUSE Tumbleweed:libsqlite3-0-3.39.2-1.1",
            "openSUSE Tumbleweed:libsqlite3-0-32bit-3.39.2-1.1",
            "openSUSE Tumbleweed:sqlite3-3.39.2-1.1",
            "openSUSE Tumbleweed:sqlite3-devel-3.39.2-1.1",
            "openSUSE Tumbleweed:sqlite3-doc-3.39.2-1.1",
            "openSUSE Tumbleweed:sqlite3-tcl-3.39.2-1.1"
          ]
        }
      ],
      "CVSSScoreSets": {}
    }
  ]
}