{
  "Title": "gstreamer-plugins-ugly-1.18.5-2.1 on GA media",
  "Tracking": {
    "ID": "openSUSE-SU-2024:10830-1",
    "Status": "Final",
    "Version": "1",
    "InitialReleaseDate": "2024-06-22T21:44:56Z",
    "CurrentReleaseDate": "2024-06-22T21:44:56Z",
    "RevisionHistory": [
      {
        "Number": "1",
        "Date": "2024-06-22T21:44:56Z",
        "Description": "current"
      }
    ]
  },
  "Notes": [
    {
      "Text": "gstreamer-plugins-ugly-1.18.5-2.1 on GA media",
      "Title": "Topic",
      "Type": "Summary"
    },
    {
      "Text": "These are all security issues fixed in the gstreamer-plugins-ugly-1.18.5-2.1 package on the GA media of openSUSE Tumbleweed.",
      "Title": "Details",
      "Type": "General"
    },
    {
      "Text": "The CVRF data is provided by SUSE under the Creative Commons License 4.0 with Attribution (CC-BY-4.0).",
      "Title": "Terms of Use",
      "Type": "Legal Disclaimer"
    },
    {
      "Text": "openSUSE-Tumbleweed-2024-10830",
      "Title": "Patchnames",
      "Type": "Details"
    }
  ],
  "ProductTree": {
    "Relationships": [
      {
        "ProductReference": "gstreamer-plugins-ugly-1.18.5-2.1",
        "RelatesToProductReference": "openSUSE Tumbleweed",
        "RelationType": "Default Component Of"
      },
      {
        "ProductReference": "gstreamer-plugins-ugly-32bit-1.18.5-2.1",
        "RelatesToProductReference": "openSUSE Tumbleweed",
        "RelationType": "Default Component Of"
      },
      {
        "ProductReference": "gstreamer-plugins-ugly-lang-1.18.5-2.1",
        "RelatesToProductReference": "openSUSE Tumbleweed",
        "RelationType": "Default Component Of"
      }
    ]
  },
  "References": [
    {
      "URL": "https://www.suse.com/support/security/rating/",
      "Description": "SUSE Security Ratings"
    },
    {
      "URL": "https://www.suse.com/security/cve/CVE-2017-5838/",
      "Description": "SUSE CVE CVE-2017-5838 page"
    },
    {
      "URL": "https://www.suse.com/security/cve/CVE-2017-5847/",
      "Description": "SUSE CVE CVE-2017-5847 page"
    }
  ],
  "Vulnerabilities": [
    {
      "CVE": "CVE-2017-5838",
      "Description": "The gst_date_time_new_from_iso8601_string function in gst/gstdatetime.c in GStreamer before 1.10.3 allows remote attackers to cause a denial of service (out-of-bounds heap read) via a malformed datetime string.",
      "Threats": [
        {
          "Type": "Impact",
          "Severity": "moderate"
        }
      ],
      "References": [
        {
          "URL": "https://www.suse.com/security/cve/CVE-2017-5838.html",
          "Description": "CVE-2017-5838"
        },
        {
          "URL": "https://bugzilla.suse.com/1023259",
          "Description": "SUSE Bug 1023259"
        },
        {
          "URL": "https://bugzilla.suse.com/1024051",
          "Description": "SUSE Bug 1024051"
        }
      ],
      "ProductStatuses": [
        {
          "Type": "Fixed",
          "ProductID": [
            "openSUSE Tumbleweed:gstreamer-plugins-ugly-1.18.5-2.1",
            "openSUSE Tumbleweed:gstreamer-plugins-ugly-32bit-1.18.5-2.1",
            "openSUSE Tumbleweed:gstreamer-plugins-ugly-lang-1.18.5-2.1"
          ]
        }
      ],
      "CVSSScoreSets": {
        "BaseScore": "4.3",
        "Vector": "AV:N/AC:M/Au:N/C:N/I:N/A:P"
      }
    },
    {
      "CVE": "CVE-2017-5847",
      "Description": "The gst_asf_demux_process_ext_content_desc function in gst/asfdemux/gstasfdemux.c in gst-plugins-ugly in GStreamer allows remote attackers to cause a denial of service (out-of-bounds heap read) via vectors involving extended content descriptors.",
      "Threats": [
        {
          "Type": "Impact",
          "Severity": "moderate"
        }
      ],
      "References": [
        {
          "URL": "https://www.suse.com/security/cve/CVE-2017-5847.html",
          "Description": "CVE-2017-5847"
        },
        {
          "URL": "https://bugzilla.suse.com/1023259",
          "Description": "SUSE Bug 1023259"
        }
      ],
      "ProductStatuses": [
        {
          "Type": "Fixed",
          "ProductID": [
            "openSUSE Tumbleweed:gstreamer-plugins-ugly-1.18.5-2.1",
            "openSUSE Tumbleweed:gstreamer-plugins-ugly-32bit-1.18.5-2.1",
            "openSUSE Tumbleweed:gstreamer-plugins-ugly-lang-1.18.5-2.1"
          ]
        }
      ],
      "CVSSScoreSets": {}
    }
  ]
}