{
  "Title": "libsndfile-devel-1.0.31-2.2 on GA media",
  "Tracking": {
    "ID": "openSUSE-SU-2024:10992-1",
    "Status": "Final",
    "Version": "1",
    "InitialReleaseDate": "2024-06-22T21:44:56Z",
    "CurrentReleaseDate": "2024-06-22T21:44:56Z",
    "RevisionHistory": [
      {
        "Number": "1",
        "Date": "2024-06-22T21:44:56Z",
        "Description": "current"
      }
    ]
  },
  "Notes": [
    {
      "Text": "libsndfile-devel-1.0.31-2.2 on GA media",
      "Title": "Topic",
      "Type": "Summary"
    },
    {
      "Text": "These are all security issues fixed in the libsndfile-devel-1.0.31-2.2 package on the GA media of openSUSE Tumbleweed.",
      "Title": "Details",
      "Type": "General"
    },
    {
      "Text": "The CVRF data is provided by SUSE under the Creative Commons License 4.0 with Attribution (CC-BY-4.0).",
      "Title": "Terms of Use",
      "Type": "Legal Disclaimer"
    },
    {
      "Text": "openSUSE-Tumbleweed-2024-10992",
      "Title": "Patchnames",
      "Type": "Details"
    }
  ],
  "ProductTree": {
    "Relationships": [
      {
        "ProductReference": "libsndfile-devel-1.0.31-2.2",
        "RelatesToProductReference": "openSUSE Tumbleweed",
        "RelationType": "Default Component Of"
      },
      {
        "ProductReference": "libsndfile1-1.0.31-2.2",
        "RelatesToProductReference": "openSUSE Tumbleweed",
        "RelationType": "Default Component Of"
      },
      {
        "ProductReference": "libsndfile1-32bit-1.0.31-2.2",
        "RelatesToProductReference": "openSUSE Tumbleweed",
        "RelationType": "Default Component Of"
      }
    ]
  },
  "References": [
    {
      "URL": "https://www.suse.com/support/security/rating/",
      "Description": "SUSE Security Ratings"
    },
    {
      "URL": "https://www.suse.com/security/cve/CVE-2007-4974/",
      "Description": "SUSE CVE CVE-2007-4974 page"
    },
    {
      "URL": "https://www.suse.com/security/cve/CVE-2017-12562/",
      "Description": "SUSE CVE CVE-2017-12562 page"
    },
    {
      "URL": "https://www.suse.com/security/cve/CVE-2017-14245/",
      "Description": "SUSE CVE CVE-2017-14245 page"
    },
    {
      "URL": "https://www.suse.com/security/cve/CVE-2017-14246/",
      "Description": "SUSE CVE CVE-2017-14246 page"
    },
    {
      "URL": "https://www.suse.com/security/cve/CVE-2017-14634/",
      "Description": "SUSE CVE CVE-2017-14634 page"
    },
    {
      "URL": "https://www.suse.com/security/cve/CVE-2017-17456/",
      "Description": "SUSE CVE CVE-2017-17456 page"
    },
    {
      "URL": "https://www.suse.com/security/cve/CVE-2017-17457/",
      "Description": "SUSE CVE CVE-2017-17457 page"
    },
    {
      "URL": "https://www.suse.com/security/cve/CVE-2017-6892/",
      "Description": "SUSE CVE CVE-2017-6892 page"
    },
    {
      "URL": "https://www.suse.com/security/cve/CVE-2017-7585/",
      "Description": "SUSE CVE CVE-2017-7585 page"
    },
    {
      "URL": "https://www.suse.com/security/cve/CVE-2017-8361/",
      "Description": "SUSE CVE CVE-2017-8361 page"
    },
    {
      "URL": "https://www.suse.com/security/cve/CVE-2017-8365/",
      "Description": "SUSE CVE CVE-2017-8365 page"
    },
    {
      "URL": "https://www.suse.com/security/cve/CVE-2018-13139/",
      "Description": "SUSE CVE CVE-2018-13139 page"
    },
    {
      "URL": "https://www.suse.com/security/cve/CVE-2018-19432/",
      "Description": "SUSE CVE CVE-2018-19432 page"
    },
    {
      "URL": "https://www.suse.com/security/cve/CVE-2018-19758/",
      "Description": "SUSE CVE CVE-2018-19758 page"
    },
    {
      "URL": "https://www.suse.com/security/cve/CVE-2021-3246/",
      "Description": "SUSE CVE CVE-2021-3246 page"
    }
  ],
  "Vulnerabilities": [
    {
      "CVE": "CVE-2007-4974",
      "Description": "Heap-based buffer overflow in the flac_buffer_copy function in libsndfile 1.0.17 and earlier might allow remote attackers to execute arbitrary code via a FLAC file with crafted PCM data containing a block with a size that exceeds the previous block size.",
      "Threats": [
        {
          "Type": "Impact",
          "Severity": "moderate"
        }
      ],
      "References": [
        {
          "URL": "https://www.suse.com/security/cve/CVE-2007-4974.html",
          "Description": "CVE-2007-4974"
        },
        {
          "URL": "https://bugzilla.suse.com/326070",
          "Description": "SUSE Bug 326070"
        }
      ],
      "ProductStatuses": [
        {
          "Type": "Fixed",
          "ProductID": [
            "openSUSE Tumbleweed:libsndfile-devel-1.0.31-2.2",
            "openSUSE Tumbleweed:libsndfile1-1.0.31-2.2",
            "openSUSE Tumbleweed:libsndfile1-32bit-1.0.31-2.2"
          ]
        }
      ],
      "CVSSScoreSets": {}
    },
    {
      "CVE": "CVE-2017-12562",
      "Description": "Heap-based Buffer Overflow in the psf_binheader_writef function in common.c in libsndfile through 1.0.28 allows remote attackers to cause a denial of service (application crash) or possibly have unspecified other impact.",
      "Threats": [
        {
          "Type": "Impact",
          "Severity": "moderate"
        }
      ],
      "References": [
        {
          "URL": "https://www.suse.com/security/cve/CVE-2017-12562.html",
          "Description": "CVE-2017-12562"
        },
        {
          "URL": "https://bugzilla.suse.com/1052476",
          "Description": "SUSE Bug 1052476"
        }
      ],
      "ProductStatuses": [
        {
          "Type": "Fixed",
          "ProductID": [
            "openSUSE Tumbleweed:libsndfile-devel-1.0.31-2.2",
            "openSUSE Tumbleweed:libsndfile1-1.0.31-2.2",
            "openSUSE Tumbleweed:libsndfile1-32bit-1.0.31-2.2"
          ]
        }
      ],
      "CVSSScoreSets": {
        "BaseScore": "4.3",
        "Vector": "AV:N/AC:M/Au:N/C:N/I:N/A:P"
      }
    },
    {
      "CVE": "CVE-2017-14245",
      "Description": "An out of bounds read in the function d2alaw_array() in alaw.c of libsndfile 1.0.28 may lead to a remote DoS attack or information disclosure, related to mishandling of the NAN and INFINITY floating-point values.",
      "Threats": [
        {
          "Type": "Impact",
          "Severity": "moderate"
        }
      ],
      "References": [
        {
          "URL": "https://www.suse.com/security/cve/CVE-2017-14245.html",
          "Description": "CVE-2017-14245"
        },
        {
          "URL": "https://bugzilla.suse.com/1059912",
          "Description": "SUSE Bug 1059912"
        },
        {
          "URL": "https://bugzilla.suse.com/1071777",
          "Description": "SUSE Bug 1071777"
        }
      ],
      "ProductStatuses": [
        {
          "Type": "Fixed",
          "ProductID": [
            "openSUSE Tumbleweed:libsndfile-devel-1.0.31-2.2",
            "openSUSE Tumbleweed:libsndfile1-1.0.31-2.2",
            "openSUSE Tumbleweed:libsndfile1-32bit-1.0.31-2.2"
          ]
        }
      ],
      "CVSSScoreSets": {
        "BaseScore": "5",
        "Vector": "AV:N/AC:L/Au:N/C:N/I:N/A:P"
      }
    },
    {
      "CVE": "CVE-2017-14246",
      "Description": "An out of bounds read in the function d2ulaw_array() in ulaw.c of libsndfile 1.0.28 may lead to a remote DoS attack or information disclosure, related to mishandling of the NAN and INFINITY floating-point values.",
      "Threats": [
        {
          "Type": "Impact",
          "Severity": "moderate"
        }
      ],
      "References": [
        {
          "URL": "https://www.suse.com/security/cve/CVE-2017-14246.html",
          "Description": "CVE-2017-14246"
        },
        {
          "URL": "https://bugzilla.suse.com/1059913",
          "Description": "SUSE Bug 1059913"
        },
        {
          "URL": "https://bugzilla.suse.com/1071767",
          "Description": "SUSE Bug 1071767"
        }
      ],
      "ProductStatuses": [
        {
          "Type": "Fixed",
          "ProductID": [
            "openSUSE Tumbleweed:libsndfile-devel-1.0.31-2.2",
            "openSUSE Tumbleweed:libsndfile1-1.0.31-2.2",
            "openSUSE Tumbleweed:libsndfile1-32bit-1.0.31-2.2"
          ]
        }
      ],
      "CVSSScoreSets": {
        "BaseScore": "5",
        "Vector": "AV:N/AC:L/Au:N/C:N/I:N/A:P"
      }
    },
    {
      "CVE": "CVE-2017-14634",
      "Description": "In libsndfile 1.0.28, a divide-by-zero error exists in the function double64_init() in double64.c, which may lead to DoS when playing a crafted audio file.",
      "Threats": [
        {
          "Type": "Impact",
          "Severity": "moderate"
        }
      ],
      "References": [
        {
          "URL": "https://www.suse.com/security/cve/CVE-2017-14634.html",
          "Description": "CVE-2017-14634"
        },
        {
          "URL": "https://bugzilla.suse.com/1059911",
          "Description": "SUSE Bug 1059911"
        }
      ],
      "ProductStatuses": [
        {
          "Type": "Fixed",
          "ProductID": [
            "openSUSE Tumbleweed:libsndfile-devel-1.0.31-2.2",
            "openSUSE Tumbleweed:libsndfile1-1.0.31-2.2",
            "openSUSE Tumbleweed:libsndfile1-32bit-1.0.31-2.2"
          ]
        }
      ],
      "CVSSScoreSets": {
        "BaseScore": "5",
        "Vector": "AV:N/AC:L/Au:N/C:N/I:N/A:P"
      }
    },
    {
      "CVE": "CVE-2017-17456",
      "Description": "** REJECT ** DO NOT USE THIS CANDIDATE NUMBER. ConsultIDs: CVE-2017-14245. Reason: This candidate is a duplicate of CVE-2017-14245. Notes: All CVE users should reference CVE-2017-14245 instead of this candidate. All references and descriptions in this candidate have been removed to prevent accidental usage.",
      "Threats": [
        {
          "Type": "Impact",
          "Severity": "low"
        }
      ],
      "References": [
        {
          "URL": "https://www.suse.com/security/cve/CVE-2017-17456.html",
          "Description": "CVE-2017-17456"
        },
        {
          "URL": "https://bugzilla.suse.com/1059912",
          "Description": "SUSE Bug 1059912"
        },
        {
          "URL": "https://bugzilla.suse.com/1071777",
          "Description": "SUSE Bug 1071777"
        },
        {
          "URL": "https://bugzilla.suse.com/1117906",
          "Description": "SUSE Bug 1117906"
        }
      ],
      "ProductStatuses": [
        {
          "Type": "Fixed",
          "ProductID": [
            "openSUSE Tumbleweed:libsndfile-devel-1.0.31-2.2",
            "openSUSE Tumbleweed:libsndfile1-1.0.31-2.2",
            "openSUSE Tumbleweed:libsndfile1-32bit-1.0.31-2.2"
          ]
        }
      ],
      "CVSSScoreSets": {}
    },
    {
      "CVE": "CVE-2017-17457",
      "Description": "** REJECT ** DO NOT USE THIS CANDIDATE NUMBER. ConsultIDs: CVE-2017-14246. Reason: This candidate is a duplicate of CVE-2017-14246. Notes: All CVE users should reference CVE-2017-14246 instead of this candidate. All references and descriptions in this candidate have been removed to prevent accidental usage.",
      "Threats": [
        {
          "Type": "Impact",
          "Severity": "low"
        }
      ],
      "References": [
        {
          "URL": "https://www.suse.com/security/cve/CVE-2017-17457.html",
          "Description": "CVE-2017-17457"
        },
        {
          "URL": "https://bugzilla.suse.com/1059913",
          "Description": "SUSE Bug 1059913"
        },
        {
          "URL": "https://bugzilla.suse.com/1071767",
          "Description": "SUSE Bug 1071767"
        },
        {
          "URL": "https://bugzilla.suse.com/1117906",
          "Description": "SUSE Bug 1117906"
        }
      ],
      "ProductStatuses": [
        {
          "Type": "Fixed",
          "ProductID": [
            "openSUSE Tumbleweed:libsndfile-devel-1.0.31-2.2",
            "openSUSE Tumbleweed:libsndfile1-1.0.31-2.2",
            "openSUSE Tumbleweed:libsndfile1-32bit-1.0.31-2.2"
          ]
        }
      ],
      "CVSSScoreSets": {
        "BaseScore": "2.1",
        "Vector": "AV:L/AC:L/Au:N/C:N/I:N/A:P"
      }
    },
    {
      "CVE": "CVE-2017-6892",
      "Description": "In libsndfile version 1.0.28, an error in the \"aiff_read_chanmap()\" function (aiff.c) can be exploited to cause an out-of-bounds read memory access via a specially crafted AIFF file.",
      "Threats": [
        {
          "Type": "Impact",
          "Severity": "important"
        }
      ],
      "References": [
        {
          "URL": "https://www.suse.com/security/cve/CVE-2017-6892.html",
          "Description": "CVE-2017-6892"
        },
        {
          "URL": "https://bugzilla.suse.com/1043978",
          "Description": "SUSE Bug 1043978"
        }
      ],
      "ProductStatuses": [
        {
          "Type": "Fixed",
          "ProductID": [
            "openSUSE Tumbleweed:libsndfile-devel-1.0.31-2.2",
            "openSUSE Tumbleweed:libsndfile1-1.0.31-2.2",
            "openSUSE Tumbleweed:libsndfile1-32bit-1.0.31-2.2"
          ]
        }
      ],
      "CVSSScoreSets": {}
    },
    {
      "CVE": "CVE-2017-7585",
      "Description": "In libsndfile before 1.0.28, an error in the \"flac_buffer_copy()\" function (flac.c) can be exploited to cause a stack-based buffer overflow via a specially crafted FLAC file.",
      "Threats": [
        {
          "Type": "Impact",
          "Severity": "important"
        }
      ],
      "References": [
        {
          "URL": "https://www.suse.com/security/cve/CVE-2017-7585.html",
          "Description": "CVE-2017-7585"
        },
        {
          "URL": "https://bugzilla.suse.com/1033054",
          "Description": "SUSE Bug 1033054"
        },
        {
          "URL": "https://bugzilla.suse.com/1033914",
          "Description": "SUSE Bug 1033914"
        },
        {
          "URL": "https://bugzilla.suse.com/1033915",
          "Description": "SUSE Bug 1033915"
        }
      ],
      "ProductStatuses": [
        {
          "Type": "Fixed",
          "ProductID": [
            "openSUSE Tumbleweed:libsndfile-devel-1.0.31-2.2",
            "openSUSE Tumbleweed:libsndfile1-1.0.31-2.2",
            "openSUSE Tumbleweed:libsndfile1-32bit-1.0.31-2.2"
          ]
        }
      ],
      "CVSSScoreSets": {
        "BaseScore": "6.8",
        "Vector": "AV:N/AC:M/Au:N/C:P/I:P/A:P"
      }
    },
    {
      "CVE": "CVE-2017-8361",
      "Description": "The flac_buffer_copy function in flac.c in libsndfile 1.0.28 allows remote attackers to cause a denial of service (buffer overflow and application crash) or possibly have unspecified other impact via a crafted audio file.",
      "Threats": [
        {
          "Type": "Impact",
          "Severity": "moderate"
        }
      ],
      "References": [
        {
          "URL": "https://www.suse.com/security/cve/CVE-2017-8361.html",
          "Description": "CVE-2017-8361"
        },
        {
          "URL": "https://bugzilla.suse.com/1036944",
          "Description": "SUSE Bug 1036944"
        }
      ],
      "ProductStatuses": [
        {
          "Type": "Fixed",
          "ProductID": [
            "openSUSE Tumbleweed:libsndfile-devel-1.0.31-2.2",
            "openSUSE Tumbleweed:libsndfile1-1.0.31-2.2",
            "openSUSE Tumbleweed:libsndfile1-32bit-1.0.31-2.2"
          ]
        }
      ],
      "CVSSScoreSets": {
        "BaseScore": "6.8",
        "Vector": "AV:N/AC:M/Au:N/C:P/I:P/A:P"
      }
    },
    {
      "CVE": "CVE-2017-8365",
      "Description": "The i2les_array function in pcm.c in libsndfile 1.0.28 allows remote attackers to cause a denial of service (buffer over-read and application crash) via a crafted audio file.",
      "Threats": [
        {
          "Type": "Impact",
          "Severity": "moderate"
        }
      ],
      "References": [
        {
          "URL": "https://www.suse.com/security/cve/CVE-2017-8365.html",
          "Description": "CVE-2017-8365"
        },
        {
          "URL": "https://bugzilla.suse.com/1036946",
          "Description": "SUSE Bug 1036946"
        }
      ],
      "ProductStatuses": [
        {
          "Type": "Fixed",
          "ProductID": [
            "openSUSE Tumbleweed:libsndfile-devel-1.0.31-2.2",
            "openSUSE Tumbleweed:libsndfile1-1.0.31-2.2",
            "openSUSE Tumbleweed:libsndfile1-32bit-1.0.31-2.2"
          ]
        }
      ],
      "CVSSScoreSets": {
        "BaseScore": "4.3",
        "Vector": "AV:N/AC:M/Au:N/C:N/I:N/A:P"
      }
    },
    {
      "CVE": "CVE-2018-13139",
      "Description": "A stack-based buffer overflow in psf_memset in common.c in libsndfile 1.0.28 allows remote attackers to cause a denial of service (application crash) or possibly have unspecified other impact via a crafted audio file. The vulnerability can be triggered by the executable sndfile-deinterleave.",
      "Threats": [
        {
          "Type": "Impact",
          "Severity": "moderate"
        }
      ],
      "References": [
        {
          "URL": "https://www.suse.com/security/cve/CVE-2018-13139.html",
          "Description": "CVE-2018-13139"
        },
        {
          "URL": "https://bugzilla.suse.com/1100167",
          "Description": "SUSE Bug 1100167"
        },
        {
          "URL": "https://bugzilla.suse.com/1116993",
          "Description": "SUSE Bug 1116993"
        },
        {
          "URL": "https://bugzilla.suse.com/1211493",
          "Description": "SUSE Bug 1211493"
        }
      ],
      "ProductStatuses": [
        {
          "Type": "Fixed",
          "ProductID": [
            "openSUSE Tumbleweed:libsndfile-devel-1.0.31-2.2",
            "openSUSE Tumbleweed:libsndfile1-1.0.31-2.2",
            "openSUSE Tumbleweed:libsndfile1-32bit-1.0.31-2.2"
          ]
        }
      ],
      "CVSSScoreSets": {}
    },
    {
      "CVE": "CVE-2018-19432",
      "Description": "An issue was discovered in libsndfile 1.0.28. There is a NULL pointer dereference in the function sf_write_int in sndfile.c, which will lead to a denial of service.",
      "Threats": [
        {
          "Type": "Impact",
          "Severity": "moderate"
        }
      ],
      "References": [
        {
          "URL": "https://www.suse.com/security/cve/CVE-2018-19432.html",
          "Description": "CVE-2018-19432"
        },
        {
          "URL": "https://bugzilla.suse.com/1116993",
          "Description": "SUSE Bug 1116993"
        }
      ],
      "ProductStatuses": [
        {
          "Type": "Fixed",
          "ProductID": [
            "openSUSE Tumbleweed:libsndfile-devel-1.0.31-2.2",
            "openSUSE Tumbleweed:libsndfile1-1.0.31-2.2",
            "openSUSE Tumbleweed:libsndfile1-32bit-1.0.31-2.2"
          ]
        }
      ],
      "CVSSScoreSets": {}
    },
    {
      "CVE": "CVE-2018-19758",
      "Description": "There is a heap-based buffer over-read at wav.c in wav_write_header in libsndfile 1.0.28 that will cause a denial of service.",
      "Threats": [
        {
          "Type": "Impact",
          "Severity": "moderate"
        }
      ],
      "References": [
        {
          "URL": "https://www.suse.com/security/cve/CVE-2018-19758.html",
          "Description": "CVE-2018-19758"
        },
        {
          "URL": "https://bugzilla.suse.com/1117954",
          "Description": "SUSE Bug 1117954"
        },
        {
          "URL": "https://bugzilla.suse.com/1125575",
          "Description": "SUSE Bug 1125575"
        }
      ],
      "ProductStatuses": [
        {
          "Type": "Fixed",
          "ProductID": [
            "openSUSE Tumbleweed:libsndfile-devel-1.0.31-2.2",
            "openSUSE Tumbleweed:libsndfile1-1.0.31-2.2",
            "openSUSE Tumbleweed:libsndfile1-32bit-1.0.31-2.2"
          ]
        }
      ],
      "CVSSScoreSets": {}
    },
    {
      "CVE": "CVE-2021-3246",
      "Description": "A heap buffer overflow vulnerability in msadpcm_decode_block of libsndfile 1.0.30 allows attackers to execute arbitrary code via a crafted WAV file.",
      "Threats": [
        {
          "Type": "Impact",
          "Severity": "critical"
        }
      ],
      "References": [
        {
          "URL": "https://www.suse.com/security/cve/CVE-2021-3246.html",
          "Description": "CVE-2021-3246"
        },
        {
          "URL": "https://bugzilla.suse.com/1188540",
          "Description": "SUSE Bug 1188540"
        }
      ],
      "ProductStatuses": [
        {
          "Type": "Fixed",
          "ProductID": [
            "openSUSE Tumbleweed:libsndfile-devel-1.0.31-2.2",
            "openSUSE Tumbleweed:libsndfile1-1.0.31-2.2",
            "openSUSE Tumbleweed:libsndfile1-32bit-1.0.31-2.2"
          ]
        }
      ],
      "CVSSScoreSets": {}
    }
  ]
}