{
  "Title": "gstreamer-plugins-base-1.18.5-2.1 on GA media",
  "Tracking": {
    "ID": "openSUSE-SU-2024:10828-1",
    "Status": "Final",
    "Version": "1",
    "InitialReleaseDate": "2024-06-22T21:44:56Z",
    "CurrentReleaseDate": "2024-06-22T21:44:56Z",
    "RevisionHistory": [
      {
        "Number": "1",
        "Date": "2024-06-22T21:44:56Z",
        "Description": "current"
      }
    ]
  },
  "Notes": [
    {
      "Text": "gstreamer-plugins-base-1.18.5-2.1 on GA media",
      "Title": "Topic",
      "Type": "Summary"
    },
    {
      "Text": "These are all security issues fixed in the gstreamer-plugins-base-1.18.5-2.1 package on the GA media of openSUSE Tumbleweed.",
      "Title": "Details",
      "Type": "General"
    },
    {
      "Text": "The CVRF data is provided by SUSE under the Creative Commons License 4.0 with Attribution (CC-BY-4.0).",
      "Title": "Terms of Use",
      "Type": "Legal Disclaimer"
    },
    {
      "Text": "openSUSE-Tumbleweed-2024-10828",
      "Title": "Patchnames",
      "Type": "Details"
    }
  ],
  "ProductTree": {
    "Relationships": [
      {
        "ProductReference": "gstreamer-plugins-base-1.18.5-2.1",
        "RelatesToProductReference": "openSUSE Tumbleweed",
        "RelationType": "Default Component Of"
      },
      {
        "ProductReference": "gstreamer-plugins-base-32bit-1.18.5-2.1",
        "RelatesToProductReference": "openSUSE Tumbleweed",
        "RelationType": "Default Component Of"
      },
      {
        "ProductReference": "gstreamer-plugins-base-devel-1.18.5-2.1",
        "RelatesToProductReference": "openSUSE Tumbleweed",
        "RelationType": "Default Component Of"
      },
      {
        "ProductReference": "gstreamer-plugins-base-devel-32bit-1.18.5-2.1",
        "RelatesToProductReference": "openSUSE Tumbleweed",
        "RelationType": "Default Component Of"
      },
      {
        "ProductReference": "gstreamer-plugins-base-lang-1.18.5-2.1",
        "RelatesToProductReference": "openSUSE Tumbleweed",
        "RelationType": "Default Component Of"
      },
      {
        "ProductReference": "libgstallocators-1_0-0-1.18.5-2.1",
        "RelatesToProductReference": "openSUSE Tumbleweed",
        "RelationType": "Default Component Of"
      },
      {
        "ProductReference": "libgstallocators-1_0-0-32bit-1.18.5-2.1",
        "RelatesToProductReference": "openSUSE Tumbleweed",
        "RelationType": "Default Component Of"
      },
      {
        "ProductReference": "libgstapp-1_0-0-1.18.5-2.1",
        "RelatesToProductReference": "openSUSE Tumbleweed",
        "RelationType": "Default Component Of"
      },
      {
        "ProductReference": "libgstapp-1_0-0-32bit-1.18.5-2.1",
        "RelatesToProductReference": "openSUSE Tumbleweed",
        "RelationType": "Default Component Of"
      },
      {
        "ProductReference": "libgstaudio-1_0-0-1.18.5-2.1",
        "RelatesToProductReference": "openSUSE Tumbleweed",
        "RelationType": "Default Component Of"
      },
      {
        "ProductReference": "libgstaudio-1_0-0-32bit-1.18.5-2.1",
        "RelatesToProductReference": "openSUSE Tumbleweed",
        "RelationType": "Default Component Of"
      },
      {
        "ProductReference": "libgstfft-1_0-0-1.18.5-2.1",
        "RelatesToProductReference": "openSUSE Tumbleweed",
        "RelationType": "Default Component Of"
      },
      {
        "ProductReference": "libgstfft-1_0-0-32bit-1.18.5-2.1",
        "RelatesToProductReference": "openSUSE Tumbleweed",
        "RelationType": "Default Component Of"
      },
      {
        "ProductReference": "libgstgl-1_0-0-1.18.5-2.1",
        "RelatesToProductReference": "openSUSE Tumbleweed",
        "RelationType": "Default Component Of"
      },
      {
        "ProductReference": "libgstgl-1_0-0-32bit-1.18.5-2.1",
        "RelatesToProductReference": "openSUSE Tumbleweed",
        "RelationType": "Default Component Of"
      },
      {
        "ProductReference": "libgstpbutils-1_0-0-1.18.5-2.1",
        "RelatesToProductReference": "openSUSE Tumbleweed",
        "RelationType": "Default Component Of"
      },
      {
        "ProductReference": "libgstpbutils-1_0-0-32bit-1.18.5-2.1",
        "RelatesToProductReference": "openSUSE Tumbleweed",
        "RelationType": "Default Component Of"
      },
      {
        "ProductReference": "libgstriff-1_0-0-1.18.5-2.1",
        "RelatesToProductReference": "openSUSE Tumbleweed",
        "RelationType": "Default Component Of"
      },
      {
        "ProductReference": "libgstriff-1_0-0-32bit-1.18.5-2.1",
        "RelatesToProductReference": "openSUSE Tumbleweed",
        "RelationType": "Default Component Of"
      },
      {
        "ProductReference": "libgstrtp-1_0-0-1.18.5-2.1",
        "RelatesToProductReference": "openSUSE Tumbleweed",
        "RelationType": "Default Component Of"
      },
      {
        "ProductReference": "libgstrtp-1_0-0-32bit-1.18.5-2.1",
        "RelatesToProductReference": "openSUSE Tumbleweed",
        "RelationType": "Default Component Of"
      },
      {
        "ProductReference": "libgstrtsp-1_0-0-1.18.5-2.1",
        "RelatesToProductReference": "openSUSE Tumbleweed",
        "RelationType": "Default Component Of"
      },
      {
        "ProductReference": "libgstrtsp-1_0-0-32bit-1.18.5-2.1",
        "RelatesToProductReference": "openSUSE Tumbleweed",
        "RelationType": "Default Component Of"
      },
      {
        "ProductReference": "libgstsdp-1_0-0-1.18.5-2.1",
        "RelatesToProductReference": "openSUSE Tumbleweed",
        "RelationType": "Default Component Of"
      },
      {
        "ProductReference": "libgstsdp-1_0-0-32bit-1.18.5-2.1",
        "RelatesToProductReference": "openSUSE Tumbleweed",
        "RelationType": "Default Component Of"
      },
      {
        "ProductReference": "libgsttag-1_0-0-1.18.5-2.1",
        "RelatesToProductReference": "openSUSE Tumbleweed",
        "RelationType": "Default Component Of"
      },
      {
        "ProductReference": "libgsttag-1_0-0-32bit-1.18.5-2.1",
        "RelatesToProductReference": "openSUSE Tumbleweed",
        "RelationType": "Default Component Of"
      },
      {
        "ProductReference": "libgstvideo-1_0-0-1.18.5-2.1",
        "RelatesToProductReference": "openSUSE Tumbleweed",
        "RelationType": "Default Component Of"
      },
      {
        "ProductReference": "libgstvideo-1_0-0-32bit-1.18.5-2.1",
        "RelatesToProductReference": "openSUSE Tumbleweed",
        "RelationType": "Default Component Of"
      },
      {
        "ProductReference": "typelib-1_0-GstAllocators-1_0-1.18.5-2.1",
        "RelatesToProductReference": "openSUSE Tumbleweed",
        "RelationType": "Default Component Of"
      },
      {
        "ProductReference": "typelib-1_0-GstApp-1_0-1.18.5-2.1",
        "RelatesToProductReference": "openSUSE Tumbleweed",
        "RelationType": "Default Component Of"
      },
      {
        "ProductReference": "typelib-1_0-GstAudio-1_0-1.18.5-2.1",
        "RelatesToProductReference": "openSUSE Tumbleweed",
        "RelationType": "Default Component Of"
      },
      {
        "ProductReference": "typelib-1_0-GstGL-1_0-1.18.5-2.1",
        "RelatesToProductReference": "openSUSE Tumbleweed",
        "RelationType": "Default Component Of"
      },
      {
        "ProductReference": "typelib-1_0-GstGLEGL-1_0-1.18.5-2.1",
        "RelatesToProductReference": "openSUSE Tumbleweed",
        "RelationType": "Default Component Of"
      },
      {
        "ProductReference": "typelib-1_0-GstGLWayland-1_0-1.18.5-2.1",
        "RelatesToProductReference": "openSUSE Tumbleweed",
        "RelationType": "Default Component Of"
      },
      {
        "ProductReference": "typelib-1_0-GstGLX11-1_0-1.18.5-2.1",
        "RelatesToProductReference": "openSUSE Tumbleweed",
        "RelationType": "Default Component Of"
      },
      {
        "ProductReference": "typelib-1_0-GstPbutils-1_0-1.18.5-2.1",
        "RelatesToProductReference": "openSUSE Tumbleweed",
        "RelationType": "Default Component Of"
      },
      {
        "ProductReference": "typelib-1_0-GstRtp-1_0-1.18.5-2.1",
        "RelatesToProductReference": "openSUSE Tumbleweed",
        "RelationType": "Default Component Of"
      },
      {
        "ProductReference": "typelib-1_0-GstRtsp-1_0-1.18.5-2.1",
        "RelatesToProductReference": "openSUSE Tumbleweed",
        "RelationType": "Default Component Of"
      },
      {
        "ProductReference": "typelib-1_0-GstSdp-1_0-1.18.5-2.1",
        "RelatesToProductReference": "openSUSE Tumbleweed",
        "RelationType": "Default Component Of"
      },
      {
        "ProductReference": "typelib-1_0-GstTag-1_0-1.18.5-2.1",
        "RelatesToProductReference": "openSUSE Tumbleweed",
        "RelationType": "Default Component Of"
      },
      {
        "ProductReference": "typelib-1_0-GstVideo-1_0-1.18.5-2.1",
        "RelatesToProductReference": "openSUSE Tumbleweed",
        "RelationType": "Default Component Of"
      }
    ]
  },
  "References": [
    {
      "URL": "https://www.suse.com/support/security/rating/",
      "Description": "SUSE Security Ratings"
    },
    {
      "URL": "https://www.suse.com/security/cve/CVE-2019-9928/",
      "Description": "SUSE CVE CVE-2019-9928 page"
    }
  ],
  "Vulnerabilities": [
    {
      "CVE": "CVE-2019-9928",
      "Description": "GStreamer before 1.16.0 has a heap-based buffer overflow in the RTSP connection parser via a crafted response from a server, potentially allowing remote code execution.",
      "Threats": [
        {
          "Type": "Impact",
          "Severity": "important"
        }
      ],
      "References": [
        {
          "URL": "https://www.suse.com/security/cve/CVE-2019-9928.html",
          "Description": "CVE-2019-9928"
        },
        {
          "URL": "https://bugzilla.suse.com/1133375",
          "Description": "SUSE Bug 1133375"
        }
      ],
      "ProductStatuses": [
        {
          "Type": "Fixed",
          "ProductID": [
            "openSUSE Tumbleweed:gstreamer-plugins-base-1.18.5-2.1",
            "openSUSE Tumbleweed:gstreamer-plugins-base-32bit-1.18.5-2.1",
            "openSUSE Tumbleweed:gstreamer-plugins-base-devel-1.18.5-2.1",
            "openSUSE Tumbleweed:gstreamer-plugins-base-devel-32bit-1.18.5-2.1",
            "openSUSE Tumbleweed:gstreamer-plugins-base-lang-1.18.5-2.1",
            "openSUSE Tumbleweed:libgstallocators-1_0-0-1.18.5-2.1",
            "openSUSE Tumbleweed:libgstallocators-1_0-0-32bit-1.18.5-2.1",
            "openSUSE Tumbleweed:libgstapp-1_0-0-1.18.5-2.1",
            "openSUSE Tumbleweed:libgstapp-1_0-0-32bit-1.18.5-2.1",
            "openSUSE Tumbleweed:libgstaudio-1_0-0-1.18.5-2.1",
            "openSUSE Tumbleweed:libgstaudio-1_0-0-32bit-1.18.5-2.1",
            "openSUSE Tumbleweed:libgstfft-1_0-0-1.18.5-2.1",
            "openSUSE Tumbleweed:libgstfft-1_0-0-32bit-1.18.5-2.1",
            "openSUSE Tumbleweed:libgstgl-1_0-0-1.18.5-2.1",
            "openSUSE Tumbleweed:libgstgl-1_0-0-32bit-1.18.5-2.1",
            "openSUSE Tumbleweed:libgstpbutils-1_0-0-1.18.5-2.1",
            "openSUSE Tumbleweed:libgstpbutils-1_0-0-32bit-1.18.5-2.1",
            "openSUSE Tumbleweed:libgstriff-1_0-0-1.18.5-2.1",
            "openSUSE Tumbleweed:libgstriff-1_0-0-32bit-1.18.5-2.1",
            "openSUSE Tumbleweed:libgstrtp-1_0-0-1.18.5-2.1",
            "openSUSE Tumbleweed:libgstrtp-1_0-0-32bit-1.18.5-2.1",
            "openSUSE Tumbleweed:libgstrtsp-1_0-0-1.18.5-2.1",
            "openSUSE Tumbleweed:libgstrtsp-1_0-0-32bit-1.18.5-2.1",
            "openSUSE Tumbleweed:libgstsdp-1_0-0-1.18.5-2.1",
            "openSUSE Tumbleweed:libgstsdp-1_0-0-32bit-1.18.5-2.1",
            "openSUSE Tumbleweed:libgsttag-1_0-0-1.18.5-2.1",
            "openSUSE Tumbleweed:libgsttag-1_0-0-32bit-1.18.5-2.1",
            "openSUSE Tumbleweed:libgstvideo-1_0-0-1.18.5-2.1",
            "openSUSE Tumbleweed:libgstvideo-1_0-0-32bit-1.18.5-2.1",
            "openSUSE Tumbleweed:typelib-1_0-GstAllocators-1_0-1.18.5-2.1",
            "openSUSE Tumbleweed:typelib-1_0-GstApp-1_0-1.18.5-2.1",
            "openSUSE Tumbleweed:typelib-1_0-GstAudio-1_0-1.18.5-2.1",
            "openSUSE Tumbleweed:typelib-1_0-GstGL-1_0-1.18.5-2.1",
            "openSUSE Tumbleweed:typelib-1_0-GstGLEGL-1_0-1.18.5-2.1",
            "openSUSE Tumbleweed:typelib-1_0-GstGLWayland-1_0-1.18.5-2.1",
            "openSUSE Tumbleweed:typelib-1_0-GstGLX11-1_0-1.18.5-2.1",
            "openSUSE Tumbleweed:typelib-1_0-GstPbutils-1_0-1.18.5-2.1",
            "openSUSE Tumbleweed:typelib-1_0-GstRtp-1_0-1.18.5-2.1",
            "openSUSE Tumbleweed:typelib-1_0-GstRtsp-1_0-1.18.5-2.1",
            "openSUSE Tumbleweed:typelib-1_0-GstSdp-1_0-1.18.5-2.1",
            "openSUSE Tumbleweed:typelib-1_0-GstTag-1_0-1.18.5-2.1",
            "openSUSE Tumbleweed:typelib-1_0-GstVideo-1_0-1.18.5-2.1"
          ]
        }
      ],
      "CVSSScoreSets": {}
    }
  ]
}