{
  "Title": "libsvn_auth_gnome_keyring-1-0-1.14.1-1.11 on GA media",
  "Tracking": {
    "ID": "openSUSE-SU-2024:11412-1",
    "Status": "Final",
    "Version": "1",
    "InitialReleaseDate": "2024-06-22T21:44:56Z",
    "CurrentReleaseDate": "2024-06-22T21:44:56Z",
    "RevisionHistory": [
      {
        "Number": "1",
        "Date": "2024-06-22T21:44:56Z",
        "Description": "current"
      }
    ]
  },
  "Notes": [
    {
      "Text": "libsvn_auth_gnome_keyring-1-0-1.14.1-1.11 on GA media",
      "Title": "Topic",
      "Type": "Summary"
    },
    {
      "Text": "These are all security issues fixed in the libsvn_auth_gnome_keyring-1-0-1.14.1-1.11 package on the GA media of openSUSE Tumbleweed.",
      "Title": "Details",
      "Type": "General"
    },
    {
      "Text": "The CVRF data is provided by SUSE under the Creative Commons License 4.0 with Attribution (CC-BY-4.0).",
      "Title": "Terms of Use",
      "Type": "Legal Disclaimer"
    },
    {
      "Text": "openSUSE-Tumbleweed-2024-11412",
      "Title": "Patchnames",
      "Type": "Details"
    }
  ],
  "ProductTree": {
    "Relationships": [
      {
        "ProductReference": "libsvn_auth_gnome_keyring-1-0-1.14.1-1.11",
        "RelatesToProductReference": "openSUSE Tumbleweed",
        "RelationType": "Default Component Of"
      },
      {
        "ProductReference": "libsvn_auth_kwallet-1-0-1.14.1-1.11",
        "RelatesToProductReference": "openSUSE Tumbleweed",
        "RelationType": "Default Component Of"
      },
      {
        "ProductReference": "subversion-1.14.1-1.11",
        "RelatesToProductReference": "openSUSE Tumbleweed",
        "RelationType": "Default Component Of"
      },
      {
        "ProductReference": "subversion-bash-completion-1.14.1-1.11",
        "RelatesToProductReference": "openSUSE Tumbleweed",
        "RelationType": "Default Component Of"
      },
      {
        "ProductReference": "subversion-devel-1.14.1-1.11",
        "RelatesToProductReference": "openSUSE Tumbleweed",
        "RelationType": "Default Component Of"
      },
      {
        "ProductReference": "subversion-perl-1.14.1-1.11",
        "RelatesToProductReference": "openSUSE Tumbleweed",
        "RelationType": "Default Component Of"
      },
      {
        "ProductReference": "subversion-python-1.14.1-1.11",
        "RelatesToProductReference": "openSUSE Tumbleweed",
        "RelationType": "Default Component Of"
      },
      {
        "ProductReference": "subversion-ruby-1.14.1-1.11",
        "RelatesToProductReference": "openSUSE Tumbleweed",
        "RelationType": "Default Component Of"
      },
      {
        "ProductReference": "subversion-server-1.14.1-1.11",
        "RelatesToProductReference": "openSUSE Tumbleweed",
        "RelationType": "Default Component Of"
      },
      {
        "ProductReference": "subversion-tools-1.14.1-1.11",
        "RelatesToProductReference": "openSUSE Tumbleweed",
        "RelationType": "Default Component Of"
      }
    ]
  },
  "References": [
    {
      "URL": "https://www.suse.com/support/security/rating/",
      "Description": "SUSE Security Ratings"
    },
    {
      "URL": "https://www.suse.com/security/cve/CVE-2007-2448/",
      "Description": "SUSE CVE CVE-2007-2448 page"
    },
    {
      "URL": "https://www.suse.com/security/cve/CVE-2017-9800/",
      "Description": "SUSE CVE CVE-2017-9800 page"
    },
    {
      "URL": "https://www.suse.com/security/cve/CVE-2018-11782/",
      "Description": "SUSE CVE CVE-2018-11782 page"
    },
    {
      "URL": "https://www.suse.com/security/cve/CVE-2018-11803/",
      "Description": "SUSE CVE CVE-2018-11803 page"
    },
    {
      "URL": "https://www.suse.com/security/cve/CVE-2019-0203/",
      "Description": "SUSE CVE CVE-2019-0203 page"
    },
    {
      "URL": "https://www.suse.com/security/cve/CVE-2020-17525/",
      "Description": "SUSE CVE CVE-2020-17525 page"
    }
  ],
  "Vulnerabilities": [
    {
      "CVE": "CVE-2007-2448",
      "Description": "Subversion 1.4.3 and earlier does not properly implement the \"partial access\" privilege for users who have access to changed paths but not copied paths, which allows remote authenticated users to obtain sensitive information (revision properties) via svn (1) propget, (2) proplist, or (3) propedit.",
      "Threats": [
        {
          "Type": "Impact",
          "Severity": "moderate"
        }
      ],
      "References": [
        {
          "URL": "https://www.suse.com/security/cve/CVE-2007-2448.html",
          "Description": "CVE-2007-2448"
        },
        {
          "URL": "https://bugzilla.suse.com/283761",
          "Description": "SUSE Bug 283761"
        }
      ],
      "ProductStatuses": [
        {
          "Type": "Fixed",
          "ProductID": [
            "openSUSE Tumbleweed:libsvn_auth_gnome_keyring-1-0-1.14.1-1.11",
            "openSUSE Tumbleweed:libsvn_auth_kwallet-1-0-1.14.1-1.11",
            "openSUSE Tumbleweed:subversion-1.14.1-1.11",
            "openSUSE Tumbleweed:subversion-bash-completion-1.14.1-1.11",
            "openSUSE Tumbleweed:subversion-devel-1.14.1-1.11",
            "openSUSE Tumbleweed:subversion-perl-1.14.1-1.11",
            "openSUSE Tumbleweed:subversion-python-1.14.1-1.11",
            "openSUSE Tumbleweed:subversion-ruby-1.14.1-1.11",
            "openSUSE Tumbleweed:subversion-server-1.14.1-1.11",
            "openSUSE Tumbleweed:subversion-tools-1.14.1-1.11"
          ]
        }
      ],
      "CVSSScoreSets": {}
    },
    {
      "CVE": "CVE-2017-9800",
      "Description": "A maliciously constructed svn+ssh:// URL would cause Subversion clients before 1.8.19, 1.9.x before 1.9.7, and 1.10.0.x through 1.10.0-alpha3 to run an arbitrary shell command. Such a URL could be generated by a malicious server, by a malicious user committing to a honest server (to attack another user of that server's repositories), or by a proxy server. The vulnerability affects all clients, including those that use file://, http://, and plain (untunneled) svn://.",
      "Threats": [
        {
          "Type": "Impact",
          "Severity": "important"
        }
      ],
      "References": [
        {
          "URL": "https://www.suse.com/security/cve/CVE-2017-9800.html",
          "Description": "CVE-2017-9800"
        },
        {
          "URL": "https://bugzilla.suse.com/1051362",
          "Description": "SUSE Bug 1051362"
        },
        {
          "URL": "https://bugzilla.suse.com/1052481",
          "Description": "SUSE Bug 1052481"
        },
        {
          "URL": "https://bugzilla.suse.com/1052696",
          "Description": "SUSE Bug 1052696"
        },
        {
          "URL": "https://bugzilla.suse.com/1052932",
          "Description": "SUSE Bug 1052932"
        },
        {
          "URL": "https://bugzilla.suse.com/1053364",
          "Description": "SUSE Bug 1053364"
        },
        {
          "URL": "https://bugzilla.suse.com/1054653",
          "Description": "SUSE Bug 1054653"
        },
        {
          "URL": "https://bugzilla.suse.com/1066430",
          "Description": "SUSE Bug 1066430"
        },
        {
          "URL": "https://bugzilla.suse.com/1071709",
          "Description": "SUSE Bug 1071709"
        },
        {
          "URL": "https://bugzilla.suse.com/1128150",
          "Description": "SUSE Bug 1128150"
        }
      ],
      "ProductStatuses": [
        {
          "Type": "Fixed",
          "ProductID": [
            "openSUSE Tumbleweed:libsvn_auth_gnome_keyring-1-0-1.14.1-1.11",
            "openSUSE Tumbleweed:libsvn_auth_kwallet-1-0-1.14.1-1.11",
            "openSUSE Tumbleweed:subversion-1.14.1-1.11",
            "openSUSE Tumbleweed:subversion-bash-completion-1.14.1-1.11",
            "openSUSE Tumbleweed:subversion-devel-1.14.1-1.11",
            "openSUSE Tumbleweed:subversion-perl-1.14.1-1.11",
            "openSUSE Tumbleweed:subversion-python-1.14.1-1.11",
            "openSUSE Tumbleweed:subversion-ruby-1.14.1-1.11",
            "openSUSE Tumbleweed:subversion-server-1.14.1-1.11",
            "openSUSE Tumbleweed:subversion-tools-1.14.1-1.11"
          ]
        }
      ],
      "CVSSScoreSets": {
        "BaseScore": "5.1",
        "Vector": "AV:N/AC:H/Au:N/C:P/I:P/A:P"
      }
    },
    {
      "CVE": "CVE-2018-11782",
      "Description": "In Apache Subversion versions up to and including 1.9.10, 1.10.4, 1.12.0, Subversion's svnserve server process may exit when a well-formed read-only request produces a particular answer. This can lead to disruption for users of the server.",
      "Threats": [
        {
          "Type": "Impact",
          "Severity": "moderate"
        }
      ],
      "References": [
        {
          "URL": "https://www.suse.com/security/cve/CVE-2018-11782.html",
          "Description": "CVE-2018-11782"
        },
        {
          "URL": "https://bugzilla.suse.com/1142743",
          "Description": "SUSE Bug 1142743"
        }
      ],
      "ProductStatuses": [
        {
          "Type": "Fixed",
          "ProductID": [
            "openSUSE Tumbleweed:libsvn_auth_gnome_keyring-1-0-1.14.1-1.11",
            "openSUSE Tumbleweed:libsvn_auth_kwallet-1-0-1.14.1-1.11",
            "openSUSE Tumbleweed:subversion-1.14.1-1.11",
            "openSUSE Tumbleweed:subversion-bash-completion-1.14.1-1.11",
            "openSUSE Tumbleweed:subversion-devel-1.14.1-1.11",
            "openSUSE Tumbleweed:subversion-perl-1.14.1-1.11",
            "openSUSE Tumbleweed:subversion-python-1.14.1-1.11",
            "openSUSE Tumbleweed:subversion-ruby-1.14.1-1.11",
            "openSUSE Tumbleweed:subversion-server-1.14.1-1.11",
            "openSUSE Tumbleweed:subversion-tools-1.14.1-1.11"
          ]
        }
      ],
      "CVSSScoreSets": {}
    },
    {
      "CVE": "CVE-2018-11803",
      "Description": "Subversion's mod_dav_svn Apache HTTPD module versions 1.11.0 and 1.10.0 to 1.10.3 will crash after dereferencing an uninitialized pointer if the client omits the root path in a recursive directory listing operation.",
      "Threats": [
        {
          "Type": "Impact",
          "Severity": "moderate"
        }
      ],
      "References": [
        {
          "URL": "https://www.suse.com/security/cve/CVE-2018-11803.html",
          "Description": "CVE-2018-11803"
        },
        {
          "URL": "https://bugzilla.suse.com/1122842",
          "Description": "SUSE Bug 1122842"
        }
      ],
      "ProductStatuses": [
        {
          "Type": "Fixed",
          "ProductID": [
            "openSUSE Tumbleweed:libsvn_auth_gnome_keyring-1-0-1.14.1-1.11",
            "openSUSE Tumbleweed:libsvn_auth_kwallet-1-0-1.14.1-1.11",
            "openSUSE Tumbleweed:subversion-1.14.1-1.11",
            "openSUSE Tumbleweed:subversion-bash-completion-1.14.1-1.11",
            "openSUSE Tumbleweed:subversion-devel-1.14.1-1.11",
            "openSUSE Tumbleweed:subversion-perl-1.14.1-1.11",
            "openSUSE Tumbleweed:subversion-python-1.14.1-1.11",
            "openSUSE Tumbleweed:subversion-ruby-1.14.1-1.11",
            "openSUSE Tumbleweed:subversion-server-1.14.1-1.11",
            "openSUSE Tumbleweed:subversion-tools-1.14.1-1.11"
          ]
        }
      ],
      "CVSSScoreSets": {}
    },
    {
      "CVE": "CVE-2019-0203",
      "Description": "In Apache Subversion versions up to and including 1.9.10, 1.10.4, 1.12.0, Subversion's svnserve server process may exit when a client sends certain sequences of protocol commands. This can lead to disruption for users of the server.",
      "Threats": [
        {
          "Type": "Impact",
          "Severity": "important"
        }
      ],
      "References": [
        {
          "URL": "https://www.suse.com/security/cve/CVE-2019-0203.html",
          "Description": "CVE-2019-0203"
        },
        {
          "URL": "https://bugzilla.suse.com/1142721",
          "Description": "SUSE Bug 1142721"
        }
      ],
      "ProductStatuses": [
        {
          "Type": "Fixed",
          "ProductID": [
            "openSUSE Tumbleweed:libsvn_auth_gnome_keyring-1-0-1.14.1-1.11",
            "openSUSE Tumbleweed:libsvn_auth_kwallet-1-0-1.14.1-1.11",
            "openSUSE Tumbleweed:subversion-1.14.1-1.11",
            "openSUSE Tumbleweed:subversion-bash-completion-1.14.1-1.11",
            "openSUSE Tumbleweed:subversion-devel-1.14.1-1.11",
            "openSUSE Tumbleweed:subversion-perl-1.14.1-1.11",
            "openSUSE Tumbleweed:subversion-python-1.14.1-1.11",
            "openSUSE Tumbleweed:subversion-ruby-1.14.1-1.11",
            "openSUSE Tumbleweed:subversion-server-1.14.1-1.11",
            "openSUSE Tumbleweed:subversion-tools-1.14.1-1.11"
          ]
        }
      ],
      "CVSSScoreSets": {}
    },
    {
      "CVE": "CVE-2020-17525",
      "Description": "Subversion's mod_authz_svn module will crash if the server is using in-repository authz rules with the AuthzSVNReposRelativeAccessFile option and a client sends a request for a non-existing repository URL. This can lead to disruption for users of the service. This issue was fixed in mod_dav_svn+mod_authz_svn servers 1.14.1 and mod_dav_svn+mod_authz_svn servers 1.10.7",
      "Threats": [
        {
          "Type": "Impact",
          "Severity": "important"
        }
      ],
      "References": [
        {
          "URL": "https://www.suse.com/security/cve/CVE-2020-17525.html",
          "Description": "CVE-2020-17525"
        },
        {
          "URL": "https://bugzilla.suse.com/1181687",
          "Description": "SUSE Bug 1181687"
        }
      ],
      "ProductStatuses": [
        {
          "Type": "Fixed",
          "ProductID": [
            "openSUSE Tumbleweed:libsvn_auth_gnome_keyring-1-0-1.14.1-1.11",
            "openSUSE Tumbleweed:libsvn_auth_kwallet-1-0-1.14.1-1.11",
            "openSUSE Tumbleweed:subversion-1.14.1-1.11",
            "openSUSE Tumbleweed:subversion-bash-completion-1.14.1-1.11",
            "openSUSE Tumbleweed:subversion-devel-1.14.1-1.11",
            "openSUSE Tumbleweed:subversion-perl-1.14.1-1.11",
            "openSUSE Tumbleweed:subversion-python-1.14.1-1.11",
            "openSUSE Tumbleweed:subversion-ruby-1.14.1-1.11",
            "openSUSE Tumbleweed:subversion-server-1.14.1-1.11",
            "openSUSE Tumbleweed:subversion-tools-1.14.1-1.11"
          ]
        }
      ],
      "CVSSScoreSets": {}
    }
  ]
}