{
  "Title": "python-2.7.18-46.1 on GA media",
  "Tracking": {
    "ID": "openSUSE-SU-2024:13955-1",
    "Status": "Final",
    "Version": "1",
    "InitialReleaseDate": "2024-06-20T21:44:22Z",
    "CurrentReleaseDate": "2024-06-20T21:44:22Z",
    "RevisionHistory": [
      {
        "Number": "1",
        "Date": "2024-06-20T21:44:22Z",
        "Description": "current"
      }
    ]
  },
  "Notes": [
    {
      "Text": "python-2.7.18-46.1 on GA media",
      "Title": "Topic",
      "Type": "Summary"
    },
    {
      "Text": "These are all security issues fixed in the python-2.7.18-46.1 package on the GA media of openSUSE Tumbleweed.",
      "Title": "Details",
      "Type": "General"
    },
    {
      "Text": "The CVRF data is provided by SUSE under the Creative Commons License 4.0 with Attribution (CC-BY-4.0).",
      "Title": "Terms of Use",
      "Type": "Legal Disclaimer"
    },
    {
      "Text": "openSUSE-Tumbleweed-2024-13955",
      "Title": "Patchnames",
      "Type": "Details"
    }
  ],
  "ProductTree": {
    "Relationships": [
      {
        "ProductReference": "python-2.7.18-46.1",
        "RelatesToProductReference": "openSUSE Tumbleweed",
        "RelationType": "Default Component Of"
      },
      {
        "ProductReference": "python-curses-2.7.18-46.1",
        "RelatesToProductReference": "openSUSE Tumbleweed",
        "RelationType": "Default Component Of"
      },
      {
        "ProductReference": "python-demo-2.7.18-46.1",
        "RelatesToProductReference": "openSUSE Tumbleweed",
        "RelationType": "Default Component Of"
      },
      {
        "ProductReference": "python-gdbm-2.7.18-46.1",
        "RelatesToProductReference": "openSUSE Tumbleweed",
        "RelationType": "Default Component Of"
      },
      {
        "ProductReference": "python-idle-2.7.18-46.1",
        "RelatesToProductReference": "openSUSE Tumbleweed",
        "RelationType": "Default Component Of"
      },
      {
        "ProductReference": "python-tk-2.7.18-46.1",
        "RelatesToProductReference": "openSUSE Tumbleweed",
        "RelationType": "Default Component Of"
      }
    ]
  },
  "References": [
    {
      "URL": "https://www.suse.com/support/security/rating/",
      "Description": "SUSE Security Ratings"
    },
    {
      "URL": "https://www.suse.com/security/cve/CVE-2023-52425/",
      "Description": "SUSE CVE CVE-2023-52425 page"
    }
  ],
  "Vulnerabilities": [
    {
      "CVE": "CVE-2023-52425",
      "Description": "libexpat through 2.5.0 allows a denial of service (resource consumption) because many full reparsings are required in the case of a large token for which multiple buffer fills are needed.",
      "Threats": [
        {
          "Type": "Impact",
          "Severity": "moderate"
        }
      ],
      "References": [
        {
          "URL": "https://www.suse.com/security/cve/CVE-2023-52425.html",
          "Description": "CVE-2023-52425"
        },
        {
          "URL": "https://bugzilla.suse.com/1219559",
          "Description": "SUSE Bug 1219559"
        }
      ],
      "ProductStatuses": [
        {
          "Type": "Fixed",
          "ProductID": [
            "openSUSE Tumbleweed:python-2.7.18-46.1",
            "openSUSE Tumbleweed:python-curses-2.7.18-46.1",
            "openSUSE Tumbleweed:python-demo-2.7.18-46.1",
            "openSUSE Tumbleweed:python-gdbm-2.7.18-46.1",
            "openSUSE Tumbleweed:python-idle-2.7.18-46.1",
            "openSUSE Tumbleweed:python-tk-2.7.18-46.1"
          ]
        }
      ],
      "CVSSScoreSets": {}
    }
  ]
}