{
  "Title": "exiv2-0.27.5-6.1 on GA media",
  "Tracking": {
    "ID": "openSUSE-SU-2024:12440-1",
    "Status": "Final",
    "Version": "1",
    "InitialReleaseDate": "2024-06-20T21:44:22Z",
    "CurrentReleaseDate": "2024-06-20T21:44:22Z",
    "RevisionHistory": [
      {
        "Number": "1",
        "Date": "2024-06-20T21:44:22Z",
        "Description": "current"
      }
    ]
  },
  "Notes": [
    {
      "Text": "exiv2-0.27.5-6.1 on GA media",
      "Title": "Topic",
      "Type": "Summary"
    },
    {
      "Text": "These are all security issues fixed in the exiv2-0.27.5-6.1 package on the GA media of openSUSE Tumbleweed.",
      "Title": "Details",
      "Type": "General"
    },
    {
      "Text": "The CVRF data is provided by SUSE under the Creative Commons License 4.0 with Attribution (CC-BY-4.0).",
      "Title": "Terms of Use",
      "Type": "Legal Disclaimer"
    },
    {
      "Text": "openSUSE-Tumbleweed-2024-12440",
      "Title": "Patchnames",
      "Type": "Details"
    }
  ],
  "ProductTree": {
    "Relationships": [
      {
        "ProductReference": "exiv2-0.27.5-6.1",
        "RelatesToProductReference": "openSUSE Tumbleweed",
        "RelationType": "Default Component Of"
      },
      {
        "ProductReference": "exiv2-lang-0.27.5-6.1",
        "RelatesToProductReference": "openSUSE Tumbleweed",
        "RelationType": "Default Component Of"
      },
      {
        "ProductReference": "libexiv2-27-0.27.5-6.1",
        "RelatesToProductReference": "openSUSE Tumbleweed",
        "RelationType": "Default Component Of"
      },
      {
        "ProductReference": "libexiv2-27-32bit-0.27.5-6.1",
        "RelatesToProductReference": "openSUSE Tumbleweed",
        "RelationType": "Default Component Of"
      },
      {
        "ProductReference": "libexiv2-devel-0.27.5-6.1",
        "RelatesToProductReference": "openSUSE Tumbleweed",
        "RelationType": "Default Component Of"
      },
      {
        "ProductReference": "libexiv2-xmp-static-0.27.5-6.1",
        "RelatesToProductReference": "openSUSE Tumbleweed",
        "RelationType": "Default Component Of"
      }
    ]
  },
  "References": [
    {
      "URL": "https://www.suse.com/support/security/rating/",
      "Description": "SUSE Security Ratings"
    },
    {
      "URL": "https://www.suse.com/security/cve/CVE-2021-29463/",
      "Description": "SUSE CVE CVE-2021-29463 page"
    }
  ],
  "Vulnerabilities": [
    {
      "CVE": "CVE-2021-29463",
      "Description": "Exiv2 is a command-line utility and C++ library for reading, writing, deleting, and modifying the metadata of image files. An out-of-bounds read was found in Exiv2 versions v0.27.3 and earlier. The out-of-bounds read is triggered when Exiv2 is used to write metadata into a crafted image file. An attacker could potentially exploit the vulnerability to cause a denial of service by crashing Exiv2, if they can trick the victim into running Exiv2 on a crafted image file. Note that this bug is only triggered when writing the metadata, which is a less frequently used Exiv2 operation than reading the metadata. For example, to trigger the bug in the Exiv2 command-line application, you need to add an extra command-line argument such as `insert`. The bug is fixed in version v0.27.4.",
      "Threats": [
        {
          "Type": "Impact",
          "Severity": "moderate"
        }
      ],
      "References": [
        {
          "URL": "https://www.suse.com/security/cve/CVE-2021-29463.html",
          "Description": "CVE-2021-29463"
        },
        {
          "URL": "https://bugzilla.suse.com/1185913",
          "Description": "SUSE Bug 1185913"
        }
      ],
      "ProductStatuses": [
        {
          "Type": "Fixed",
          "ProductID": [
            "openSUSE Tumbleweed:exiv2-0.27.5-6.1",
            "openSUSE Tumbleweed:exiv2-lang-0.27.5-6.1",
            "openSUSE Tumbleweed:libexiv2-27-0.27.5-6.1",
            "openSUSE Tumbleweed:libexiv2-27-32bit-0.27.5-6.1",
            "openSUSE Tumbleweed:libexiv2-devel-0.27.5-6.1",
            "openSUSE Tumbleweed:libexiv2-xmp-static-0.27.5-6.1"
          ]
        }
      ],
      "CVSSScoreSets": {}
    }
  ]
}