{
  "Title": "nim-1.6.6-3.1 on GA media",
  "Tracking": {
    "ID": "openSUSE-SU-2024:12253-1",
    "Status": "Final",
    "Version": "1",
    "InitialReleaseDate": "2024-06-20T21:44:22Z",
    "CurrentReleaseDate": "2024-06-20T21:44:22Z",
    "RevisionHistory": [
      {
        "Number": "1",
        "Date": "2024-06-20T21:44:22Z",
        "Description": "current"
      }
    ]
  },
  "Notes": [
    {
      "Text": "nim-1.6.6-3.1 on GA media",
      "Title": "Topic",
      "Type": "Summary"
    },
    {
      "Text": "These are all security issues fixed in the nim-1.6.6-3.1 package on the GA media of openSUSE Tumbleweed.",
      "Title": "Details",
      "Type": "General"
    },
    {
      "Text": "The CVRF data is provided by SUSE under the Creative Commons License 4.0 with Attribution (CC-BY-4.0).",
      "Title": "Terms of Use",
      "Type": "Legal Disclaimer"
    },
    {
      "Text": "openSUSE-Tumbleweed-2024-12253",
      "Title": "Patchnames",
      "Type": "Details"
    }
  ],
  "ProductTree": {
    "Relationships": [
      {
        "ProductReference": "nim-1.6.6-3.1",
        "RelatesToProductReference": "openSUSE Tumbleweed",
        "RelationType": "Default Component Of"
      }
    ]
  },
  "References": [
    {
      "URL": "https://www.suse.com/support/security/rating/",
      "Description": "SUSE Security Ratings"
    },
    {
      "URL": "https://www.suse.com/security/cve/CVE-2020-15690/",
      "Description": "SUSE CVE CVE-2020-15690 page"
    },
    {
      "URL": "https://www.suse.com/security/cve/CVE-2020-15692/",
      "Description": "SUSE CVE CVE-2020-15692 page"
    },
    {
      "URL": "https://www.suse.com/security/cve/CVE-2020-15693/",
      "Description": "SUSE CVE CVE-2020-15693 page"
    },
    {
      "URL": "https://www.suse.com/security/cve/CVE-2020-15694/",
      "Description": "SUSE CVE CVE-2020-15694 page"
    },
    {
      "URL": "https://www.suse.com/security/cve/CVE-2021-29495/",
      "Description": "SUSE CVE CVE-2021-29495 page"
    },
    {
      "URL": "https://www.suse.com/security/cve/CVE-2021-41259/",
      "Description": "SUSE CVE CVE-2021-41259 page"
    }
  ],
  "Vulnerabilities": [
    {
      "CVE": "CVE-2020-15690",
      "Description": "In Nim before 1.2.6, the standard library asyncftpclient lacks a check for whether a message contains a newline character.",
      "Threats": [
        {
          "Type": "Impact",
          "Severity": "moderate"
        }
      ],
      "References": [
        {
          "URL": "https://www.suse.com/security/cve/CVE-2020-15690.html",
          "Description": "CVE-2020-15690"
        },
        {
          "URL": "https://bugzilla.suse.com/1181705",
          "Description": "SUSE Bug 1181705"
        }
      ],
      "ProductStatuses": [
        {
          "Type": "Fixed",
          "ProductID": [
            "openSUSE Tumbleweed:nim-1.6.6-3.1"
          ]
        }
      ],
      "CVSSScoreSets": {}
    },
    {
      "CVE": "CVE-2020-15692",
      "Description": "In Nim 1.2.4, the standard library browsers mishandles the URL argument to browsers.openDefaultBrowser. This argument can be a local file path that will be opened in the default explorer. An attacker can pass one argument to the underlying open command to execute arbitrary registered system commands.",
      "Threats": [
        {
          "Type": "Impact",
          "Severity": "moderate"
        }
      ],
      "References": [
        {
          "URL": "https://www.suse.com/security/cve/CVE-2020-15692.html",
          "Description": "CVE-2020-15692"
        },
        {
          "URL": "https://bugzilla.suse.com/1175334",
          "Description": "SUSE Bug 1175334"
        }
      ],
      "ProductStatuses": [
        {
          "Type": "Fixed",
          "ProductID": [
            "openSUSE Tumbleweed:nim-1.6.6-3.1"
          ]
        }
      ],
      "CVSSScoreSets": {}
    },
    {
      "CVE": "CVE-2020-15693",
      "Description": "In Nim 1.2.4, the standard library httpClient is vulnerable to a CR-LF injection in the target URL. An injection is possible if the attacker controls any part of the URL provided in a call (such as httpClient.get or httpClient.post), the User-Agent header value, or custom HTTP header names or values.",
      "Threats": [
        {
          "Type": "Impact",
          "Severity": "moderate"
        }
      ],
      "References": [
        {
          "URL": "https://www.suse.com/security/cve/CVE-2020-15693.html",
          "Description": "CVE-2020-15693"
        },
        {
          "URL": "https://bugzilla.suse.com/1175333",
          "Description": "SUSE Bug 1175333"
        }
      ],
      "ProductStatuses": [
        {
          "Type": "Fixed",
          "ProductID": [
            "openSUSE Tumbleweed:nim-1.6.6-3.1"
          ]
        }
      ],
      "CVSSScoreSets": {}
    },
    {
      "CVE": "CVE-2020-15694",
      "Description": "In Nim 1.2.4, the standard library httpClient fails to properly validate the server response. For example, httpClient.get().contentLength() does not raise any error if a malicious server provides a negative Content-Length.",
      "Threats": [
        {
          "Type": "Impact",
          "Severity": "moderate"
        }
      ],
      "References": [
        {
          "URL": "https://www.suse.com/security/cve/CVE-2020-15694.html",
          "Description": "CVE-2020-15694"
        },
        {
          "URL": "https://bugzilla.suse.com/1175332",
          "Description": "SUSE Bug 1175332"
        }
      ],
      "ProductStatuses": [
        {
          "Type": "Fixed",
          "ProductID": [
            "openSUSE Tumbleweed:nim-1.6.6-3.1"
          ]
        }
      ],
      "CVSSScoreSets": {}
    },
    {
      "CVE": "CVE-2021-29495",
      "Description": "Nim is a statically typed compiled systems programming language. In Nim standard library before 1.4.2, httpClient SSL/TLS certificate verification was disabled by default. Users can upgrade to version 1.4.2 to receive a patch or, as a workaround, set \"verifyMode = CVerifyPeer\" as documented.",
      "Threats": [
        {
          "Type": "Impact",
          "Severity": "moderate"
        }
      ],
      "References": [
        {
          "URL": "https://www.suse.com/security/cve/CVE-2021-29495.html",
          "Description": "CVE-2021-29495"
        },
        {
          "URL": "https://bugzilla.suse.com/1185948",
          "Description": "SUSE Bug 1185948"
        }
      ],
      "ProductStatuses": [
        {
          "Type": "Fixed",
          "ProductID": [
            "openSUSE Tumbleweed:nim-1.6.6-3.1"
          ]
        }
      ],
      "CVSSScoreSets": {}
    },
    {
      "CVE": "CVE-2021-41259",
      "Description": "** REJECT ** DO NOT USE THIS CANDIDATE NUMBER. ConsultIDs: None. Reason: This CVE ID has been rejected or withdrawn by its CVE Numbering Authority. Notes: None.",
      "Threats": [
        {
          "Type": "Impact",
          "Severity": "moderate"
        }
      ],
      "References": [
        {
          "URL": "https://www.suse.com/security/cve/CVE-2021-41259.html",
          "Description": "CVE-2021-41259"
        },
        {
          "URL": "https://bugzilla.suse.com/1192712",
          "Description": "SUSE Bug 1192712"
        }
      ],
      "ProductStatuses": [
        {
          "Type": "Fixed",
          "ProductID": [
            "openSUSE Tumbleweed:nim-1.6.6-3.1"
          ]
        }
      ],
      "CVSSScoreSets": {}
    }
  ]
}