{
  "Title": "tinc-1.0.36-1.9 on GA media",
  "Tracking": {
    "ID": "openSUSE-SU-2024:11463-1",
    "Status": "Final",
    "Version": "1",
    "InitialReleaseDate": "2024-06-22T21:44:56Z",
    "CurrentReleaseDate": "2024-06-22T21:44:56Z",
    "RevisionHistory": [
      {
        "Number": "1",
        "Date": "2024-06-22T21:44:56Z",
        "Description": "current"
      }
    ]
  },
  "Notes": [
    {
      "Text": "tinc-1.0.36-1.9 on GA media",
      "Title": "Topic",
      "Type": "Summary"
    },
    {
      "Text": "These are all security issues fixed in the tinc-1.0.36-1.9 package on the GA media of openSUSE Tumbleweed.",
      "Title": "Details",
      "Type": "General"
    },
    {
      "Text": "The CVRF data is provided by SUSE under the Creative Commons License 4.0 with Attribution (CC-BY-4.0).",
      "Title": "Terms of Use",
      "Type": "Legal Disclaimer"
    },
    {
      "Text": "openSUSE-Tumbleweed-2024-11463",
      "Title": "Patchnames",
      "Type": "Details"
    }
  ],
  "ProductTree": {
    "Relationships": [
      {
        "ProductReference": "tinc-1.0.36-1.9",
        "RelatesToProductReference": "openSUSE Tumbleweed",
        "RelationType": "Default Component Of"
      }
    ]
  },
  "References": [
    {
      "URL": "https://www.suse.com/support/security/rating/",
      "Description": "SUSE Security Ratings"
    },
    {
      "URL": "https://www.suse.com/security/cve/CVE-2018-16737/",
      "Description": "SUSE CVE CVE-2018-16737 page"
    },
    {
      "URL": "https://www.suse.com/security/cve/CVE-2018-16758/",
      "Description": "SUSE CVE CVE-2018-16758 page"
    }
  ],
  "Vulnerabilities": [
    {
      "CVE": "CVE-2018-16737",
      "Description": "tinc before 1.0.30 has a broken authentication protocol, without even a partial mitigation.",
      "Threats": [
        {
          "Type": "Impact",
          "Severity": "moderate"
        }
      ],
      "References": [
        {
          "URL": "https://www.suse.com/security/cve/CVE-2018-16737.html",
          "Description": "CVE-2018-16737"
        },
        {
          "URL": "https://bugzilla.suse.com/1111233",
          "Description": "SUSE Bug 1111233"
        }
      ],
      "ProductStatuses": [
        {
          "Type": "Fixed",
          "ProductID": [
            "openSUSE Tumbleweed:tinc-1.0.36-1.9"
          ]
        }
      ],
      "CVSSScoreSets": {}
    },
    {
      "CVE": "CVE-2018-16758",
      "Description": "Missing message authentication in the meta-protocol in Tinc VPN version 1.0.34 and earlier allows a man-in-the-middle attack to disable the encryption of VPN packets.",
      "Threats": [
        {
          "Type": "Impact",
          "Severity": "moderate"
        }
      ],
      "References": [
        {
          "URL": "https://www.suse.com/security/cve/CVE-2018-16758.html",
          "Description": "CVE-2018-16758"
        },
        {
          "URL": "https://bugzilla.suse.com/1111233",
          "Description": "SUSE Bug 1111233"
        }
      ],
      "ProductStatuses": [
        {
          "Type": "Fixed",
          "ProductID": [
            "openSUSE Tumbleweed:tinc-1.0.36-1.9"
          ]
        }
      ],
      "CVSSScoreSets": {}
    }
  ]
}