{
  "Title": "pcmanfm-1.3.2-2.1 on GA media",
  "Tracking": {
    "ID": "openSUSE-SU-2024:11724-1",
    "Status": "Final",
    "Version": "1",
    "InitialReleaseDate": "2024-06-22T21:44:56Z",
    "CurrentReleaseDate": "2024-06-22T21:44:56Z",
    "RevisionHistory": [
      {
        "Number": "1",
        "Date": "2024-06-22T21:44:56Z",
        "Description": "current"
      }
    ]
  },
  "Notes": [
    {
      "Text": "pcmanfm-1.3.2-2.1 on GA media",
      "Title": "Topic",
      "Type": "Summary"
    },
    {
      "Text": "These are all security issues fixed in the pcmanfm-1.3.2-2.1 package on the GA media of openSUSE Tumbleweed.",
      "Title": "Details",
      "Type": "General"
    },
    {
      "Text": "The CVRF data is provided by SUSE under the Creative Commons License 4.0 with Attribution (CC-BY-4.0).",
      "Title": "Terms of Use",
      "Type": "Legal Disclaimer"
    },
    {
      "Text": "openSUSE-Tumbleweed-2024-11724",
      "Title": "Patchnames",
      "Type": "Details"
    }
  ],
  "ProductTree": {
    "Relationships": [
      {
        "ProductReference": "pcmanfm-1.3.2-2.1",
        "RelatesToProductReference": "openSUSE Tumbleweed",
        "RelationType": "Default Component Of"
      },
      {
        "ProductReference": "pcmanfm-devel-1.3.2-2.1",
        "RelatesToProductReference": "openSUSE Tumbleweed",
        "RelationType": "Default Component Of"
      },
      {
        "ProductReference": "pcmanfm-lang-1.3.2-2.1",
        "RelatesToProductReference": "openSUSE Tumbleweed",
        "RelationType": "Default Component Of"
      }
    ]
  },
  "References": [
    {
      "URL": "https://www.suse.com/support/security/rating/",
      "Description": "SUSE Security Ratings"
    },
    {
      "URL": "https://www.suse.com/security/cve/CVE-2017-8934/",
      "Description": "SUSE CVE CVE-2017-8934 page"
    }
  ],
  "Vulnerabilities": [
    {
      "CVE": "CVE-2017-8934",
      "Description": "PCManFM 1.2.5 insecurely uses /tmp for a socket file, allowing a local user to cause a denial of service (application unavailability).",
      "Threats": [
        {
          "Type": "Impact",
          "Severity": "moderate"
        }
      ],
      "References": [
        {
          "URL": "https://www.suse.com/security/cve/CVE-2017-8934.html",
          "Description": "CVE-2017-8934"
        },
        {
          "URL": "https://bugzilla.suse.com/1039140",
          "Description": "SUSE Bug 1039140"
        }
      ],
      "ProductStatuses": [
        {
          "Type": "Fixed",
          "ProductID": [
            "openSUSE Tumbleweed:pcmanfm-1.3.2-2.1",
            "openSUSE Tumbleweed:pcmanfm-devel-1.3.2-2.1",
            "openSUSE Tumbleweed:pcmanfm-lang-1.3.2-2.1"
          ]
        }
      ],
      "CVSSScoreSets": {}
    }
  ]
}