{
  "Title": "curl-8.0.1-1.1 on GA media",
  "Tracking": {
    "ID": "openSUSE-SU-2024:12812-1",
    "Status": "Final",
    "Version": "1",
    "InitialReleaseDate": "2024-06-20T21:44:22Z",
    "CurrentReleaseDate": "2024-06-20T21:44:22Z",
    "RevisionHistory": [
      {
        "Number": "1",
        "Date": "2024-06-20T21:44:22Z",
        "Description": "current"
      }
    ]
  },
  "Notes": [
    {
      "Text": "curl-8.0.1-1.1 on GA media",
      "Title": "Topic",
      "Type": "Summary"
    },
    {
      "Text": "These are all security issues fixed in the curl-8.0.1-1.1 package on the GA media of openSUSE Tumbleweed.",
      "Title": "Details",
      "Type": "General"
    },
    {
      "Text": "The CVRF data is provided by SUSE under the Creative Commons License 4.0 with Attribution (CC-BY-4.0).",
      "Title": "Terms of Use",
      "Type": "Legal Disclaimer"
    },
    {
      "Text": "openSUSE-Tumbleweed-2024-12812",
      "Title": "Patchnames",
      "Type": "Details"
    }
  ],
  "ProductTree": {
    "Relationships": [
      {
        "ProductReference": "curl-8.0.1-1.1",
        "RelatesToProductReference": "openSUSE Tumbleweed",
        "RelationType": "Default Component Of"
      },
      {
        "ProductReference": "libcurl-devel-8.0.1-1.1",
        "RelatesToProductReference": "openSUSE Tumbleweed",
        "RelationType": "Default Component Of"
      },
      {
        "ProductReference": "libcurl-devel-32bit-8.0.1-1.1",
        "RelatesToProductReference": "openSUSE Tumbleweed",
        "RelationType": "Default Component Of"
      },
      {
        "ProductReference": "libcurl4-8.0.1-1.1",
        "RelatesToProductReference": "openSUSE Tumbleweed",
        "RelationType": "Default Component Of"
      },
      {
        "ProductReference": "libcurl4-32bit-8.0.1-1.1",
        "RelatesToProductReference": "openSUSE Tumbleweed",
        "RelationType": "Default Component Of"
      }
    ]
  },
  "References": [
    {
      "URL": "https://www.suse.com/support/security/rating/",
      "Description": "SUSE Security Ratings"
    },
    {
      "URL": "https://www.suse.com/security/cve/CVE-2023-27533/",
      "Description": "SUSE CVE CVE-2023-27533 page"
    },
    {
      "URL": "https://www.suse.com/security/cve/CVE-2023-27534/",
      "Description": "SUSE CVE CVE-2023-27534 page"
    },
    {
      "URL": "https://www.suse.com/security/cve/CVE-2023-27535/",
      "Description": "SUSE CVE CVE-2023-27535 page"
    },
    {
      "URL": "https://www.suse.com/security/cve/CVE-2023-27536/",
      "Description": "SUSE CVE CVE-2023-27536 page"
    },
    {
      "URL": "https://www.suse.com/security/cve/CVE-2023-27537/",
      "Description": "SUSE CVE CVE-2023-27537 page"
    },
    {
      "URL": "https://www.suse.com/security/cve/CVE-2023-27538/",
      "Description": "SUSE CVE CVE-2023-27538 page"
    }
  ],
  "Vulnerabilities": [
    {
      "CVE": "CVE-2023-27533",
      "Description": "A vulnerability in input validation exists in curl \u003c8.0 during communication using the TELNET protocol may allow an attacker to pass on maliciously crafted user name and \"telnet options\" during server negotiation. The lack of proper input scrubbing allows an attacker to send content or perform option negotiation without the application's intent. This vulnerability could be exploited if an application allows user input, thereby enabling attackers to execute arbitrary code on the system.",
      "Threats": [
        {
          "Type": "Impact",
          "Severity": "moderate"
        }
      ],
      "References": [
        {
          "URL": "https://www.suse.com/security/cve/CVE-2023-27533.html",
          "Description": "CVE-2023-27533"
        },
        {
          "URL": "https://bugzilla.suse.com/1209209",
          "Description": "SUSE Bug 1209209"
        }
      ],
      "ProductStatuses": [
        {
          "Type": "Fixed",
          "ProductID": [
            "openSUSE Tumbleweed:curl-8.0.1-1.1",
            "openSUSE Tumbleweed:libcurl-devel-32bit-8.0.1-1.1",
            "openSUSE Tumbleweed:libcurl-devel-8.0.1-1.1",
            "openSUSE Tumbleweed:libcurl4-32bit-8.0.1-1.1",
            "openSUSE Tumbleweed:libcurl4-8.0.1-1.1"
          ]
        }
      ],
      "CVSSScoreSets": {}
    },
    {
      "CVE": "CVE-2023-27534",
      "Description": "A path traversal vulnerability exists in curl \u003c8.0.0 SFTP implementation causes the tilde (~) character to be wrongly replaced when used as a prefix in the first path element, in addition to its intended use as the first element to indicate a path relative to the user's home directory. Attackers can exploit this flaw to bypass filtering or execute arbitrary code by crafting a path like /~2/foo while accessing a server with a specific user.",
      "Threats": [
        {
          "Type": "Impact",
          "Severity": "moderate"
        }
      ],
      "References": [
        {
          "URL": "https://www.suse.com/security/cve/CVE-2023-27534.html",
          "Description": "CVE-2023-27534"
        },
        {
          "URL": "https://bugzilla.suse.com/1209210",
          "Description": "SUSE Bug 1209210"
        }
      ],
      "ProductStatuses": [
        {
          "Type": "Fixed",
          "ProductID": [
            "openSUSE Tumbleweed:curl-8.0.1-1.1",
            "openSUSE Tumbleweed:libcurl-devel-32bit-8.0.1-1.1",
            "openSUSE Tumbleweed:libcurl-devel-8.0.1-1.1",
            "openSUSE Tumbleweed:libcurl4-32bit-8.0.1-1.1",
            "openSUSE Tumbleweed:libcurl4-8.0.1-1.1"
          ]
        }
      ],
      "CVSSScoreSets": {}
    },
    {
      "CVE": "CVE-2023-27535",
      "Description": "An authentication bypass vulnerability exists in libcurl \u003c8.0.0 in the FTP connection reuse feature that can result in wrong credentials being used during subsequent transfers. Previously created connections are kept in a connection pool for reuse if they match the current setup. However, certain FTP settings such as CURLOPT_FTP_ACCOUNT, CURLOPT_FTP_ALTERNATIVE_TO_USER, CURLOPT_FTP_SSL_CCC, and CURLOPT_USE_SSL were not included in the configuration match checks, causing them to match too easily. This could lead to libcurl using the wrong credentials when performing a transfer, potentially allowing unauthorized access to sensitive information.",
      "Threats": [
        {
          "Type": "Impact",
          "Severity": "moderate"
        }
      ],
      "References": [
        {
          "URL": "https://www.suse.com/security/cve/CVE-2023-27535.html",
          "Description": "CVE-2023-27535"
        },
        {
          "URL": "https://bugzilla.suse.com/1209211",
          "Description": "SUSE Bug 1209211"
        }
      ],
      "ProductStatuses": [
        {
          "Type": "Fixed",
          "ProductID": [
            "openSUSE Tumbleweed:curl-8.0.1-1.1",
            "openSUSE Tumbleweed:libcurl-devel-32bit-8.0.1-1.1",
            "openSUSE Tumbleweed:libcurl-devel-8.0.1-1.1",
            "openSUSE Tumbleweed:libcurl4-32bit-8.0.1-1.1",
            "openSUSE Tumbleweed:libcurl4-8.0.1-1.1"
          ]
        }
      ],
      "CVSSScoreSets": {}
    },
    {
      "CVE": "CVE-2023-27536",
      "Description": "An authentication bypass vulnerability exists libcurl \u003c8.0.0 in the connection reuse feature which can reuse previously established connections with incorrect user permissions due to a failure to check for changes in the CURLOPT_GSSAPI_DELEGATION option. This vulnerability affects krb5/kerberos/negotiate/GSSAPI transfers and could potentially result in unauthorized access to sensitive information. The safest option is to not reuse connections if the CURLOPT_GSSAPI_DELEGATION option has been changed.",
      "Threats": [
        {
          "Type": "Impact",
          "Severity": "moderate"
        }
      ],
      "References": [
        {
          "URL": "https://www.suse.com/security/cve/CVE-2023-27536.html",
          "Description": "CVE-2023-27536"
        },
        {
          "URL": "https://bugzilla.suse.com/1209212",
          "Description": "SUSE Bug 1209212"
        }
      ],
      "ProductStatuses": [
        {
          "Type": "Fixed",
          "ProductID": [
            "openSUSE Tumbleweed:curl-8.0.1-1.1",
            "openSUSE Tumbleweed:libcurl-devel-32bit-8.0.1-1.1",
            "openSUSE Tumbleweed:libcurl-devel-8.0.1-1.1",
            "openSUSE Tumbleweed:libcurl4-32bit-8.0.1-1.1",
            "openSUSE Tumbleweed:libcurl4-8.0.1-1.1"
          ]
        }
      ],
      "CVSSScoreSets": {}
    },
    {
      "CVE": "CVE-2023-27537",
      "Description": "A double free vulnerability exists in libcurl \u003c8.0.0 when sharing HSTS data between separate \"handles\". This sharing was introduced without considerations for do this sharing across separate threads but there was no indication of this fact in the documentation. Due to missing mutexes or thread locks, two threads sharing the same HSTS data could end up doing a double-free or use-after-free.",
      "Threats": [
        {
          "Type": "Impact",
          "Severity": "moderate"
        }
      ],
      "References": [
        {
          "URL": "https://www.suse.com/security/cve/CVE-2023-27537.html",
          "Description": "CVE-2023-27537"
        },
        {
          "URL": "https://bugzilla.suse.com/1209213",
          "Description": "SUSE Bug 1209213"
        }
      ],
      "ProductStatuses": [
        {
          "Type": "Fixed",
          "ProductID": [
            "openSUSE Tumbleweed:curl-8.0.1-1.1",
            "openSUSE Tumbleweed:libcurl-devel-32bit-8.0.1-1.1",
            "openSUSE Tumbleweed:libcurl-devel-8.0.1-1.1",
            "openSUSE Tumbleweed:libcurl4-32bit-8.0.1-1.1",
            "openSUSE Tumbleweed:libcurl4-8.0.1-1.1"
          ]
        }
      ],
      "CVSSScoreSets": {}
    },
    {
      "CVE": "CVE-2023-27538",
      "Description": "An authentication bypass vulnerability exists in libcurl prior to v8.0.0 where it reuses a previously established SSH connection despite the fact that an SSH option was modified, which should have prevented reuse. libcurl maintains a pool of previously used connections to reuse them for subsequent transfers if the configurations match. However, two SSH settings were omitted from the configuration check, allowing them to match easily, potentially leading to the reuse of an inappropriate connection.",
      "Threats": [
        {
          "Type": "Impact",
          "Severity": "moderate"
        }
      ],
      "References": [
        {
          "URL": "https://www.suse.com/security/cve/CVE-2023-27538.html",
          "Description": "CVE-2023-27538"
        },
        {
          "URL": "https://bugzilla.suse.com/1209214",
          "Description": "SUSE Bug 1209214"
        }
      ],
      "ProductStatuses": [
        {
          "Type": "Fixed",
          "ProductID": [
            "openSUSE Tumbleweed:curl-8.0.1-1.1",
            "openSUSE Tumbleweed:libcurl-devel-32bit-8.0.1-1.1",
            "openSUSE Tumbleweed:libcurl-devel-8.0.1-1.1",
            "openSUSE Tumbleweed:libcurl4-32bit-8.0.1-1.1",
            "openSUSE Tumbleweed:libcurl4-8.0.1-1.1"
          ]
        }
      ],
      "CVSSScoreSets": {}
    }
  ]
}