{
  "Title": "greetd-0.8.0-2.1 on GA media",
  "Tracking": {
    "ID": "openSUSE-SU-2024:11710-1",
    "Status": "Final",
    "Version": "1",
    "InitialReleaseDate": "2024-06-22T21:44:56Z",
    "CurrentReleaseDate": "2024-06-22T21:44:56Z",
    "RevisionHistory": [
      {
        "Number": "1",
        "Date": "2024-06-22T21:44:56Z",
        "Description": "current"
      }
    ]
  },
  "Notes": [
    {
      "Text": "greetd-0.8.0-2.1 on GA media",
      "Title": "Topic",
      "Type": "Summary"
    },
    {
      "Text": "These are all security issues fixed in the greetd-0.8.0-2.1 package on the GA media of openSUSE Tumbleweed.",
      "Title": "Details",
      "Type": "General"
    },
    {
      "Text": "The CVRF data is provided by SUSE under the Creative Commons License 4.0 with Attribution (CC-BY-4.0).",
      "Title": "Terms of Use",
      "Type": "Legal Disclaimer"
    },
    {
      "Text": "openSUSE-Tumbleweed-2024-11710",
      "Title": "Patchnames",
      "Type": "Details"
    }
  ],
  "ProductTree": {
    "Relationships": [
      {
        "ProductReference": "greetd-0.8.0-2.1",
        "RelatesToProductReference": "openSUSE Tumbleweed",
        "RelationType": "Default Component Of"
      }
    ]
  },
  "References": [
    {
      "URL": "https://www.suse.com/support/security/rating/",
      "Description": "SUSE Security Ratings"
    },
    {
      "URL": "https://www.suse.com/security/cve/CVE-2021-45710/",
      "Description": "SUSE CVE CVE-2021-45710 page"
    }
  ],
  "Vulnerabilities": [
    {
      "CVE": "CVE-2021-45710",
      "Description": "An issue was discovered in the tokio crate before 1.8.4, and 1.9.x through 1.13.x before 1.13.1, for Rust. In certain circumstances involving a closed oneshot channel, there is a data race and memory corruption.",
      "Threats": [
        {
          "Type": "Impact",
          "Severity": "low"
        }
      ],
      "References": [
        {
          "URL": "https://www.suse.com/security/cve/CVE-2021-45710.html",
          "Description": "CVE-2021-45710"
        },
        {
          "URL": "https://bugzilla.suse.com/1194119",
          "Description": "SUSE Bug 1194119"
        }
      ],
      "ProductStatuses": [
        {
          "Type": "Fixed",
          "ProductID": [
            "openSUSE Tumbleweed:greetd-0.8.0-2.1"
          ]
        }
      ],
      "CVSSScoreSets": {}
    }
  ]
}