{
  "Title": "libQt6Concurrent6-6.2.3-2.1 on GA media",
  "Tracking": {
    "ID": "openSUSE-SU-2024:11886-1",
    "Status": "Final",
    "Version": "1",
    "InitialReleaseDate": "2024-06-22T21:44:56Z",
    "CurrentReleaseDate": "2024-06-22T21:44:56Z",
    "RevisionHistory": [
      {
        "Number": "1",
        "Date": "2024-06-22T21:44:56Z",
        "Description": "current"
      }
    ]
  },
  "Notes": [
    {
      "Text": "libQt6Concurrent6-6.2.3-2.1 on GA media",
      "Title": "Topic",
      "Type": "Summary"
    },
    {
      "Text": "These are all security issues fixed in the libQt6Concurrent6-6.2.3-2.1 package on the GA media of openSUSE Tumbleweed.",
      "Title": "Details",
      "Type": "General"
    },
    {
      "Text": "The CVRF data is provided by SUSE under the Creative Commons License 4.0 with Attribution (CC-BY-4.0).",
      "Title": "Terms of Use",
      "Type": "Legal Disclaimer"
    },
    {
      "Text": "openSUSE-Tumbleweed-2024-11886",
      "Title": "Patchnames",
      "Type": "Details"
    }
  ],
  "ProductTree": {
    "Relationships": [
      {
        "ProductReference": "libQt6Concurrent6-6.2.3-2.1",
        "RelatesToProductReference": "openSUSE Tumbleweed",
        "RelationType": "Default Component Of"
      },
      {
        "ProductReference": "libQt6Core6-6.2.3-2.1",
        "RelatesToProductReference": "openSUSE Tumbleweed",
        "RelationType": "Default Component Of"
      },
      {
        "ProductReference": "libQt6DBus6-6.2.3-2.1",
        "RelatesToProductReference": "openSUSE Tumbleweed",
        "RelationType": "Default Component Of"
      },
      {
        "ProductReference": "libQt6Gui6-6.2.3-2.1",
        "RelatesToProductReference": "openSUSE Tumbleweed",
        "RelationType": "Default Component Of"
      },
      {
        "ProductReference": "libQt6Network6-6.2.3-2.1",
        "RelatesToProductReference": "openSUSE Tumbleweed",
        "RelationType": "Default Component Of"
      },
      {
        "ProductReference": "libQt6OpenGL6-6.2.3-2.1",
        "RelatesToProductReference": "openSUSE Tumbleweed",
        "RelationType": "Default Component Of"
      },
      {
        "ProductReference": "libQt6OpenGLWidgets6-6.2.3-2.1",
        "RelatesToProductReference": "openSUSE Tumbleweed",
        "RelationType": "Default Component Of"
      },
      {
        "ProductReference": "libQt6PrintSupport6-6.2.3-2.1",
        "RelatesToProductReference": "openSUSE Tumbleweed",
        "RelationType": "Default Component Of"
      },
      {
        "ProductReference": "libQt6Sql6-6.2.3-2.1",
        "RelatesToProductReference": "openSUSE Tumbleweed",
        "RelationType": "Default Component Of"
      },
      {
        "ProductReference": "libQt6Test6-6.2.3-2.1",
        "RelatesToProductReference": "openSUSE Tumbleweed",
        "RelationType": "Default Component Of"
      },
      {
        "ProductReference": "libQt6Widgets6-6.2.3-2.1",
        "RelatesToProductReference": "openSUSE Tumbleweed",
        "RelationType": "Default Component Of"
      },
      {
        "ProductReference": "libQt6Xml6-6.2.3-2.1",
        "RelatesToProductReference": "openSUSE Tumbleweed",
        "RelationType": "Default Component Of"
      },
      {
        "ProductReference": "qt6-base-common-devel-6.2.3-2.1",
        "RelatesToProductReference": "openSUSE Tumbleweed",
        "RelationType": "Default Component Of"
      },
      {
        "ProductReference": "qt6-base-devel-6.2.3-2.1",
        "RelatesToProductReference": "openSUSE Tumbleweed",
        "RelationType": "Default Component Of"
      },
      {
        "ProductReference": "qt6-base-examples-6.2.3-2.1",
        "RelatesToProductReference": "openSUSE Tumbleweed",
        "RelationType": "Default Component Of"
      },
      {
        "ProductReference": "qt6-base-private-devel-6.2.3-2.1",
        "RelatesToProductReference": "openSUSE Tumbleweed",
        "RelationType": "Default Component Of"
      },
      {
        "ProductReference": "qt6-concurrent-devel-6.2.3-2.1",
        "RelatesToProductReference": "openSUSE Tumbleweed",
        "RelationType": "Default Component Of"
      },
      {
        "ProductReference": "qt6-core-devel-6.2.3-2.1",
        "RelatesToProductReference": "openSUSE Tumbleweed",
        "RelationType": "Default Component Of"
      },
      {
        "ProductReference": "qt6-core-private-devel-6.2.3-2.1",
        "RelatesToProductReference": "openSUSE Tumbleweed",
        "RelationType": "Default Component Of"
      },
      {
        "ProductReference": "qt6-dbus-devel-6.2.3-2.1",
        "RelatesToProductReference": "openSUSE Tumbleweed",
        "RelationType": "Default Component Of"
      },
      {
        "ProductReference": "qt6-dbus-private-devel-6.2.3-2.1",
        "RelatesToProductReference": "openSUSE Tumbleweed",
        "RelationType": "Default Component Of"
      },
      {
        "ProductReference": "qt6-docs-common-6.2.3-2.1",
        "RelatesToProductReference": "openSUSE Tumbleweed",
        "RelationType": "Default Component Of"
      },
      {
        "ProductReference": "qt6-gui-devel-6.2.3-2.1",
        "RelatesToProductReference": "openSUSE Tumbleweed",
        "RelationType": "Default Component Of"
      },
      {
        "ProductReference": "qt6-gui-private-devel-6.2.3-2.1",
        "RelatesToProductReference": "openSUSE Tumbleweed",
        "RelationType": "Default Component Of"
      },
      {
        "ProductReference": "qt6-kmssupport-devel-static-6.2.3-2.1",
        "RelatesToProductReference": "openSUSE Tumbleweed",
        "RelationType": "Default Component Of"
      },
      {
        "ProductReference": "qt6-kmssupport-private-devel-6.2.3-2.1",
        "RelatesToProductReference": "openSUSE Tumbleweed",
        "RelationType": "Default Component Of"
      },
      {
        "ProductReference": "qt6-network-devel-6.2.3-2.1",
        "RelatesToProductReference": "openSUSE Tumbleweed",
        "RelationType": "Default Component Of"
      },
      {
        "ProductReference": "qt6-network-private-devel-6.2.3-2.1",
        "RelatesToProductReference": "openSUSE Tumbleweed",
        "RelationType": "Default Component Of"
      },
      {
        "ProductReference": "qt6-network-tls-6.2.3-2.1",
        "RelatesToProductReference": "openSUSE Tumbleweed",
        "RelationType": "Default Component Of"
      },
      {
        "ProductReference": "qt6-networkinformation-nm-6.2.3-2.1",
        "RelatesToProductReference": "openSUSE Tumbleweed",
        "RelationType": "Default Component Of"
      },
      {
        "ProductReference": "qt6-opengl-devel-6.2.3-2.1",
        "RelatesToProductReference": "openSUSE Tumbleweed",
        "RelationType": "Default Component Of"
      },
      {
        "ProductReference": "qt6-opengl-private-devel-6.2.3-2.1",
        "RelatesToProductReference": "openSUSE Tumbleweed",
        "RelationType": "Default Component Of"
      },
      {
        "ProductReference": "qt6-openglwidgets-devel-6.2.3-2.1",
        "RelatesToProductReference": "openSUSE Tumbleweed",
        "RelationType": "Default Component Of"
      },
      {
        "ProductReference": "qt6-platformsupport-devel-static-6.2.3-2.1",
        "RelatesToProductReference": "openSUSE Tumbleweed",
        "RelationType": "Default Component Of"
      },
      {
        "ProductReference": "qt6-platformsupport-private-devel-6.2.3-2.1",
        "RelatesToProductReference": "openSUSE Tumbleweed",
        "RelationType": "Default Component Of"
      },
      {
        "ProductReference": "qt6-platformtheme-gtk3-6.2.3-2.1",
        "RelatesToProductReference": "openSUSE Tumbleweed",
        "RelationType": "Default Component Of"
      },
      {
        "ProductReference": "qt6-platformtheme-xdgdesktopportal-6.2.3-2.1",
        "RelatesToProductReference": "openSUSE Tumbleweed",
        "RelationType": "Default Component Of"
      },
      {
        "ProductReference": "qt6-printsupport-cups-6.2.3-2.1",
        "RelatesToProductReference": "openSUSE Tumbleweed",
        "RelationType": "Default Component Of"
      },
      {
        "ProductReference": "qt6-printsupport-devel-6.2.3-2.1",
        "RelatesToProductReference": "openSUSE Tumbleweed",
        "RelationType": "Default Component Of"
      },
      {
        "ProductReference": "qt6-printsupport-private-devel-6.2.3-2.1",
        "RelatesToProductReference": "openSUSE Tumbleweed",
        "RelationType": "Default Component Of"
      },
      {
        "ProductReference": "qt6-sql-devel-6.2.3-2.1",
        "RelatesToProductReference": "openSUSE Tumbleweed",
        "RelationType": "Default Component Of"
      },
      {
        "ProductReference": "qt6-sql-mysql-6.2.3-2.1",
        "RelatesToProductReference": "openSUSE Tumbleweed",
        "RelationType": "Default Component Of"
      },
      {
        "ProductReference": "qt6-sql-postgresql-6.2.3-2.1",
        "RelatesToProductReference": "openSUSE Tumbleweed",
        "RelationType": "Default Component Of"
      },
      {
        "ProductReference": "qt6-sql-private-devel-6.2.3-2.1",
        "RelatesToProductReference": "openSUSE Tumbleweed",
        "RelationType": "Default Component Of"
      },
      {
        "ProductReference": "qt6-sql-sqlite-6.2.3-2.1",
        "RelatesToProductReference": "openSUSE Tumbleweed",
        "RelationType": "Default Component Of"
      },
      {
        "ProductReference": "qt6-sql-unixODBC-6.2.3-2.1",
        "RelatesToProductReference": "openSUSE Tumbleweed",
        "RelationType": "Default Component Of"
      },
      {
        "ProductReference": "qt6-test-devel-6.2.3-2.1",
        "RelatesToProductReference": "openSUSE Tumbleweed",
        "RelationType": "Default Component Of"
      },
      {
        "ProductReference": "qt6-test-private-devel-6.2.3-2.1",
        "RelatesToProductReference": "openSUSE Tumbleweed",
        "RelationType": "Default Component Of"
      },
      {
        "ProductReference": "qt6-widgets-devel-6.2.3-2.1",
        "RelatesToProductReference": "openSUSE Tumbleweed",
        "RelationType": "Default Component Of"
      },
      {
        "ProductReference": "qt6-widgets-private-devel-6.2.3-2.1",
        "RelatesToProductReference": "openSUSE Tumbleweed",
        "RelationType": "Default Component Of"
      },
      {
        "ProductReference": "qt6-xml-devel-6.2.3-2.1",
        "RelatesToProductReference": "openSUSE Tumbleweed",
        "RelationType": "Default Component Of"
      },
      {
        "ProductReference": "qt6-xml-private-devel-6.2.3-2.1",
        "RelatesToProductReference": "openSUSE Tumbleweed",
        "RelationType": "Default Component Of"
      }
    ]
  },
  "References": [
    {
      "URL": "https://www.suse.com/support/security/rating/",
      "Description": "SUSE Security Ratings"
    },
    {
      "URL": "https://www.suse.com/security/cve/CVE-2022-25255/",
      "Description": "SUSE CVE CVE-2022-25255 page"
    }
  ],
  "Vulnerabilities": [
    {
      "CVE": "CVE-2022-25255",
      "Description": "In Qt 5.9.x through 5.15.x before 5.15.9 and 6.x before 6.2.4 on Linux and UNIX, QProcess could execute a binary from the current working directory when not found in the PATH.",
      "Threats": [
        {
          "Type": "Impact",
          "Severity": "important"
        }
      ],
      "References": [
        {
          "URL": "https://www.suse.com/security/cve/CVE-2022-25255.html",
          "Description": "CVE-2022-25255"
        },
        {
          "URL": "https://bugzilla.suse.com/1196501",
          "Description": "SUSE Bug 1196501"
        }
      ],
      "ProductStatuses": [
        {
          "Type": "Fixed",
          "ProductID": [
            "openSUSE Tumbleweed:libQt6Concurrent6-6.2.3-2.1",
            "openSUSE Tumbleweed:libQt6Core6-6.2.3-2.1",
            "openSUSE Tumbleweed:libQt6DBus6-6.2.3-2.1",
            "openSUSE Tumbleweed:libQt6Gui6-6.2.3-2.1",
            "openSUSE Tumbleweed:libQt6Network6-6.2.3-2.1",
            "openSUSE Tumbleweed:libQt6OpenGL6-6.2.3-2.1",
            "openSUSE Tumbleweed:libQt6OpenGLWidgets6-6.2.3-2.1",
            "openSUSE Tumbleweed:libQt6PrintSupport6-6.2.3-2.1",
            "openSUSE Tumbleweed:libQt6Sql6-6.2.3-2.1",
            "openSUSE Tumbleweed:libQt6Test6-6.2.3-2.1",
            "openSUSE Tumbleweed:libQt6Widgets6-6.2.3-2.1",
            "openSUSE Tumbleweed:libQt6Xml6-6.2.3-2.1",
            "openSUSE Tumbleweed:qt6-base-common-devel-6.2.3-2.1",
            "openSUSE Tumbleweed:qt6-base-devel-6.2.3-2.1",
            "openSUSE Tumbleweed:qt6-base-examples-6.2.3-2.1",
            "openSUSE Tumbleweed:qt6-base-private-devel-6.2.3-2.1",
            "openSUSE Tumbleweed:qt6-concurrent-devel-6.2.3-2.1",
            "openSUSE Tumbleweed:qt6-core-devel-6.2.3-2.1",
            "openSUSE Tumbleweed:qt6-core-private-devel-6.2.3-2.1",
            "openSUSE Tumbleweed:qt6-dbus-devel-6.2.3-2.1",
            "openSUSE Tumbleweed:qt6-dbus-private-devel-6.2.3-2.1",
            "openSUSE Tumbleweed:qt6-docs-common-6.2.3-2.1",
            "openSUSE Tumbleweed:qt6-gui-devel-6.2.3-2.1",
            "openSUSE Tumbleweed:qt6-gui-private-devel-6.2.3-2.1",
            "openSUSE Tumbleweed:qt6-kmssupport-devel-static-6.2.3-2.1",
            "openSUSE Tumbleweed:qt6-kmssupport-private-devel-6.2.3-2.1",
            "openSUSE Tumbleweed:qt6-network-devel-6.2.3-2.1",
            "openSUSE Tumbleweed:qt6-network-private-devel-6.2.3-2.1",
            "openSUSE Tumbleweed:qt6-network-tls-6.2.3-2.1",
            "openSUSE Tumbleweed:qt6-networkinformation-nm-6.2.3-2.1",
            "openSUSE Tumbleweed:qt6-opengl-devel-6.2.3-2.1",
            "openSUSE Tumbleweed:qt6-opengl-private-devel-6.2.3-2.1",
            "openSUSE Tumbleweed:qt6-openglwidgets-devel-6.2.3-2.1",
            "openSUSE Tumbleweed:qt6-platformsupport-devel-static-6.2.3-2.1",
            "openSUSE Tumbleweed:qt6-platformsupport-private-devel-6.2.3-2.1",
            "openSUSE Tumbleweed:qt6-platformtheme-gtk3-6.2.3-2.1",
            "openSUSE Tumbleweed:qt6-platformtheme-xdgdesktopportal-6.2.3-2.1",
            "openSUSE Tumbleweed:qt6-printsupport-cups-6.2.3-2.1",
            "openSUSE Tumbleweed:qt6-printsupport-devel-6.2.3-2.1",
            "openSUSE Tumbleweed:qt6-printsupport-private-devel-6.2.3-2.1",
            "openSUSE Tumbleweed:qt6-sql-devel-6.2.3-2.1",
            "openSUSE Tumbleweed:qt6-sql-mysql-6.2.3-2.1",
            "openSUSE Tumbleweed:qt6-sql-postgresql-6.2.3-2.1",
            "openSUSE Tumbleweed:qt6-sql-private-devel-6.2.3-2.1",
            "openSUSE Tumbleweed:qt6-sql-sqlite-6.2.3-2.1",
            "openSUSE Tumbleweed:qt6-sql-unixODBC-6.2.3-2.1",
            "openSUSE Tumbleweed:qt6-test-devel-6.2.3-2.1",
            "openSUSE Tumbleweed:qt6-test-private-devel-6.2.3-2.1",
            "openSUSE Tumbleweed:qt6-widgets-devel-6.2.3-2.1",
            "openSUSE Tumbleweed:qt6-widgets-private-devel-6.2.3-2.1",
            "openSUSE Tumbleweed:qt6-xml-devel-6.2.3-2.1",
            "openSUSE Tumbleweed:qt6-xml-private-devel-6.2.3-2.1"
          ]
        }
      ],
      "CVSSScoreSets": {}
    }
  ]
}