{
  "Title": "freexl-devel-1.0.2-2.3 on GA media",
  "Tracking": {
    "ID": "openSUSE-SU-2024:10539-1",
    "Status": "Final",
    "Version": "1",
    "InitialReleaseDate": "2024-06-22T21:44:56Z",
    "CurrentReleaseDate": "2024-06-22T21:44:56Z",
    "RevisionHistory": [
      {
        "Number": "1",
        "Date": "2024-06-22T21:44:56Z",
        "Description": "current"
      }
    ]
  },
  "Notes": [
    {
      "Text": "freexl-devel-1.0.2-2.3 on GA media",
      "Title": "Topic",
      "Type": "Summary"
    },
    {
      "Text": "These are all security issues fixed in the freexl-devel-1.0.2-2.3 package on the GA media of openSUSE Tumbleweed.",
      "Title": "Details",
      "Type": "General"
    },
    {
      "Text": "The CVRF data is provided by SUSE under the Creative Commons License 4.0 with Attribution (CC-BY-4.0).",
      "Title": "Terms of Use",
      "Type": "Legal Disclaimer"
    },
    {
      "Text": "openSUSE-Tumbleweed-2024-10539",
      "Title": "Patchnames",
      "Type": "Details"
    }
  ],
  "ProductTree": {
    "Relationships": [
      {
        "ProductReference": "freexl-devel-1.0.2-2.3",
        "RelatesToProductReference": "openSUSE Tumbleweed",
        "RelationType": "Default Component Of"
      },
      {
        "ProductReference": "libfreexl1-1.0.2-2.3",
        "RelatesToProductReference": "openSUSE Tumbleweed",
        "RelationType": "Default Component Of"
      }
    ]
  },
  "References": [
    {
      "URL": "https://www.suse.com/support/security/rating/",
      "Description": "SUSE Security Ratings"
    },
    {
      "URL": "https://www.suse.com/security/cve/CVE-2015-2753/",
      "Description": "SUSE CVE CVE-2015-2753 page"
    },
    {
      "URL": "https://www.suse.com/security/cve/CVE-2015-2754/",
      "Description": "SUSE CVE CVE-2015-2754 page"
    },
    {
      "URL": "https://www.suse.com/security/cve/CVE-2015-2776/",
      "Description": "SUSE CVE CVE-2015-2776 page"
    }
  ],
  "Vulnerabilities": [
    {
      "CVE": "CVE-2015-2753",
      "Description": "FreeXL before 1.0.0i allows remote attackers to cause a denial of service (stack corruption) or possibly execute arbitrary code via a crafted sector in a workbook.",
      "Threats": [
        {
          "Type": "Impact",
          "Severity": "moderate"
        }
      ],
      "References": [
        {
          "URL": "https://www.suse.com/security/cve/CVE-2015-2753.html",
          "Description": "CVE-2015-2753"
        },
        {
          "URL": "https://bugzilla.suse.com/924849",
          "Description": "SUSE Bug 924849"
        },
        {
          "URL": "https://bugzilla.suse.com/986614",
          "Description": "SUSE Bug 986614"
        }
      ],
      "ProductStatuses": [
        {
          "Type": "Fixed",
          "ProductID": [
            "openSUSE Tumbleweed:freexl-devel-1.0.2-2.3",
            "openSUSE Tumbleweed:libfreexl1-1.0.2-2.3"
          ]
        }
      ],
      "CVSSScoreSets": {}
    },
    {
      "CVE": "CVE-2015-2754",
      "Description": "FreeXL before 1.0.0i allows remote attackers to cause a denial of service (stack corruption) and possibly execute arbitrary code via a crafted workbook, related to a \"premature EOF.\"",
      "Threats": [
        {
          "Type": "Impact",
          "Severity": "moderate"
        }
      ],
      "References": [
        {
          "URL": "https://www.suse.com/security/cve/CVE-2015-2754.html",
          "Description": "CVE-2015-2754"
        },
        {
          "URL": "https://bugzilla.suse.com/924849",
          "Description": "SUSE Bug 924849"
        },
        {
          "URL": "https://bugzilla.suse.com/986614",
          "Description": "SUSE Bug 986614"
        }
      ],
      "ProductStatuses": [
        {
          "Type": "Fixed",
          "ProductID": [
            "openSUSE Tumbleweed:freexl-devel-1.0.2-2.3",
            "openSUSE Tumbleweed:libfreexl1-1.0.2-2.3"
          ]
        }
      ],
      "CVSSScoreSets": {}
    },
    {
      "CVE": "CVE-2015-2776",
      "Description": "The parse_SST function in FreeXL before 1.0.0i allows remote attackers to cause a denial of service (memory consumption) via a crafted shared strings table in a workbook.",
      "Threats": [
        {
          "Type": "Impact",
          "Severity": "moderate"
        }
      ],
      "References": [
        {
          "URL": "https://www.suse.com/security/cve/CVE-2015-2776.html",
          "Description": "CVE-2015-2776"
        },
        {
          "URL": "https://bugzilla.suse.com/924849",
          "Description": "SUSE Bug 924849"
        }
      ],
      "ProductStatuses": [
        {
          "Type": "Fixed",
          "ProductID": [
            "openSUSE Tumbleweed:freexl-devel-1.0.2-2.3",
            "openSUSE Tumbleweed:libfreexl1-1.0.2-2.3"
          ]
        }
      ],
      "CVSSScoreSets": {}
    }
  ]
}