{
  "Title": "go1.17-1.17.7-1.1 on GA media",
  "Tracking": {
    "ID": "openSUSE-SU-2024:11844-1",
    "Status": "Final",
    "Version": "1",
    "InitialReleaseDate": "2024-06-22T21:44:56Z",
    "CurrentReleaseDate": "2024-06-22T21:44:56Z",
    "RevisionHistory": [
      {
        "Number": "1",
        "Date": "2024-06-22T21:44:56Z",
        "Description": "current"
      }
    ]
  },
  "Notes": [
    {
      "Text": "go1.17-1.17.7-1.1 on GA media",
      "Title": "Topic",
      "Type": "Summary"
    },
    {
      "Text": "These are all security issues fixed in the go1.17-1.17.7-1.1 package on the GA media of openSUSE Tumbleweed.",
      "Title": "Details",
      "Type": "General"
    },
    {
      "Text": "The CVRF data is provided by SUSE under the Creative Commons License 4.0 with Attribution (CC-BY-4.0).",
      "Title": "Terms of Use",
      "Type": "Legal Disclaimer"
    },
    {
      "Text": "openSUSE-Tumbleweed-2024-11844",
      "Title": "Patchnames",
      "Type": "Details"
    }
  ],
  "ProductTree": {
    "Relationships": [
      {
        "ProductReference": "go1.17-1.17.7-1.1",
        "RelatesToProductReference": "openSUSE Tumbleweed",
        "RelationType": "Default Component Of"
      },
      {
        "ProductReference": "go1.17-doc-1.17.7-1.1",
        "RelatesToProductReference": "openSUSE Tumbleweed",
        "RelationType": "Default Component Of"
      },
      {
        "ProductReference": "go1.17-race-1.17.7-1.1",
        "RelatesToProductReference": "openSUSE Tumbleweed",
        "RelationType": "Default Component Of"
      }
    ]
  },
  "References": [
    {
      "URL": "https://www.suse.com/support/security/rating/",
      "Description": "SUSE Security Ratings"
    },
    {
      "URL": "https://www.suse.com/security/cve/CVE-2022-23772/",
      "Description": "SUSE CVE CVE-2022-23772 page"
    },
    {
      "URL": "https://www.suse.com/security/cve/CVE-2022-23773/",
      "Description": "SUSE CVE CVE-2022-23773 page"
    },
    {
      "URL": "https://www.suse.com/security/cve/CVE-2022-23806/",
      "Description": "SUSE CVE CVE-2022-23806 page"
    }
  ],
  "Vulnerabilities": [
    {
      "CVE": "CVE-2022-23772",
      "Description": "Rat.SetString in math/big in Go before 1.16.14 and 1.17.x before 1.17.7 has an overflow that can lead to Uncontrolled Memory Consumption.",
      "Threats": [
        {
          "Type": "Impact",
          "Severity": "important"
        }
      ],
      "References": [
        {
          "URL": "https://www.suse.com/security/cve/CVE-2022-23772.html",
          "Description": "CVE-2022-23772"
        },
        {
          "URL": "https://bugzilla.suse.com/1195835",
          "Description": "SUSE Bug 1195835"
        }
      ],
      "ProductStatuses": [
        {
          "Type": "Fixed",
          "ProductID": [
            "openSUSE Tumbleweed:go1.17-1.17.7-1.1",
            "openSUSE Tumbleweed:go1.17-doc-1.17.7-1.1",
            "openSUSE Tumbleweed:go1.17-race-1.17.7-1.1"
          ]
        }
      ],
      "CVSSScoreSets": {}
    },
    {
      "CVE": "CVE-2022-23773",
      "Description": "cmd/go in Go before 1.16.14 and 1.17.x before 1.17.7 can misinterpret branch names that falsely appear to be version tags. This can lead to incorrect access control if an actor is supposed to be able to create branches but not tags.",
      "Threats": [
        {
          "Type": "Impact",
          "Severity": "moderate"
        }
      ],
      "References": [
        {
          "URL": "https://www.suse.com/security/cve/CVE-2022-23773.html",
          "Description": "CVE-2022-23773"
        },
        {
          "URL": "https://bugzilla.suse.com/1195834",
          "Description": "SUSE Bug 1195834"
        }
      ],
      "ProductStatuses": [
        {
          "Type": "Fixed",
          "ProductID": [
            "openSUSE Tumbleweed:go1.17-1.17.7-1.1",
            "openSUSE Tumbleweed:go1.17-doc-1.17.7-1.1",
            "openSUSE Tumbleweed:go1.17-race-1.17.7-1.1"
          ]
        }
      ],
      "CVSSScoreSets": {}
    },
    {
      "CVE": "CVE-2022-23806",
      "Description": "Curve.IsOnCurve in crypto/elliptic in Go before 1.16.14 and 1.17.x before 1.17.7 can incorrectly return true in situations with a big.Int value that is not a valid field element.",
      "Threats": [
        {
          "Type": "Impact",
          "Severity": "important"
        }
      ],
      "References": [
        {
          "URL": "https://www.suse.com/security/cve/CVE-2022-23806.html",
          "Description": "CVE-2022-23806"
        },
        {
          "URL": "https://bugzilla.suse.com/1195838",
          "Description": "SUSE Bug 1195838"
        },
        {
          "URL": "https://bugzilla.suse.com/1206559",
          "Description": "SUSE Bug 1206559"
        },
        {
          "URL": "https://bugzilla.suse.com/1208723",
          "Description": "SUSE Bug 1208723"
        }
      ],
      "ProductStatuses": [
        {
          "Type": "Fixed",
          "ProductID": [
            "openSUSE Tumbleweed:go1.17-1.17.7-1.1",
            "openSUSE Tumbleweed:go1.17-doc-1.17.7-1.1",
            "openSUSE Tumbleweed:go1.17-race-1.17.7-1.1"
          ]
        }
      ],
      "CVSSScoreSets": {}
    }
  ]
}