{
  "Title": "ruby2.2-rubygem-facter-2.4.6-2.1 on GA media",
  "Tracking": {
    "ID": "openSUSE-SU-2024:10565-1",
    "Status": "Final",
    "Version": "1",
    "InitialReleaseDate": "2024-06-22T21:44:56Z",
    "CurrentReleaseDate": "2024-06-22T21:44:56Z",
    "RevisionHistory": [
      {
        "Number": "1",
        "Date": "2024-06-22T21:44:56Z",
        "Description": "current"
      }
    ]
  },
  "Notes": [
    {
      "Text": "ruby2.2-rubygem-facter-2.4.6-2.1 on GA media",
      "Title": "Topic",
      "Type": "Summary"
    },
    {
      "Text": "These are all security issues fixed in the ruby2.2-rubygem-facter-2.4.6-2.1 package on the GA media of openSUSE Tumbleweed.",
      "Title": "Details",
      "Type": "General"
    },
    {
      "Text": "The CVRF data is provided by SUSE under the Creative Commons License 4.0 with Attribution (CC-BY-4.0).",
      "Title": "Terms of Use",
      "Type": "Legal Disclaimer"
    },
    {
      "Text": "openSUSE-Tumbleweed-2024-10565",
      "Title": "Patchnames",
      "Type": "Details"
    }
  ],
  "ProductTree": {
    "Relationships": [
      {
        "ProductReference": "ruby2.2-rubygem-facter-2.4.6-2.1",
        "RelatesToProductReference": "openSUSE Tumbleweed",
        "RelationType": "Default Component Of"
      },
      {
        "ProductReference": "ruby2.2-rubygem-facter-doc-2.4.6-2.1",
        "RelatesToProductReference": "openSUSE Tumbleweed",
        "RelationType": "Default Component Of"
      },
      {
        "ProductReference": "ruby2.2-rubygem-facter-testsuite-2.4.6-2.1",
        "RelatesToProductReference": "openSUSE Tumbleweed",
        "RelationType": "Default Component Of"
      },
      {
        "ProductReference": "ruby2.2-rubygem-hiera-1.3.4-3.5",
        "RelatesToProductReference": "openSUSE Tumbleweed",
        "RelationType": "Default Component Of"
      },
      {
        "ProductReference": "ruby2.2-rubygem-hiera-doc-1.3.4-3.5",
        "RelatesToProductReference": "openSUSE Tumbleweed",
        "RelationType": "Default Component Of"
      },
      {
        "ProductReference": "ruby2.2-rubygem-hiera-testsuite-1.3.4-3.5",
        "RelatesToProductReference": "openSUSE Tumbleweed",
        "RelationType": "Default Component Of"
      },
      {
        "ProductReference": "ruby2.3-rubygem-facter-2.4.6-2.1",
        "RelatesToProductReference": "openSUSE Tumbleweed",
        "RelationType": "Default Component Of"
      },
      {
        "ProductReference": "ruby2.3-rubygem-facter-doc-2.4.6-2.1",
        "RelatesToProductReference": "openSUSE Tumbleweed",
        "RelationType": "Default Component Of"
      },
      {
        "ProductReference": "ruby2.3-rubygem-facter-testsuite-2.4.6-2.1",
        "RelatesToProductReference": "openSUSE Tumbleweed",
        "RelationType": "Default Component Of"
      },
      {
        "ProductReference": "ruby2.3-rubygem-hiera-1.3.4-3.5",
        "RelatesToProductReference": "openSUSE Tumbleweed",
        "RelationType": "Default Component Of"
      },
      {
        "ProductReference": "ruby2.3-rubygem-hiera-doc-1.3.4-3.5",
        "RelatesToProductReference": "openSUSE Tumbleweed",
        "RelationType": "Default Component Of"
      },
      {
        "ProductReference": "ruby2.3-rubygem-hiera-testsuite-1.3.4-3.5",
        "RelatesToProductReference": "openSUSE Tumbleweed",
        "RelationType": "Default Component Of"
      },
      {
        "ProductReference": "rubygem-facter-2.4.6-2.1",
        "RelatesToProductReference": "openSUSE Tumbleweed",
        "RelationType": "Default Component Of"
      },
      {
        "ProductReference": "rubygem-hiera-1.3.4-3.5",
        "RelatesToProductReference": "openSUSE Tumbleweed",
        "RelationType": "Default Component Of"
      }
    ]
  },
  "References": [
    {
      "URL": "https://www.suse.com/support/security/rating/",
      "Description": "SUSE Security Ratings"
    },
    {
      "URL": "https://www.suse.com/security/cve/CVE-2014-3248/",
      "Description": "SUSE CVE CVE-2014-3248 page"
    }
  ],
  "Vulnerabilities": [
    {
      "CVE": "CVE-2014-3248",
      "Description": "Untrusted search path vulnerability in Puppet Enterprise 2.8 before 2.8.7, Puppet before 2.7.26 and 3.x before 3.6.2, Facter 1.6.x and 2.x before 2.0.2, Hiera before 1.3.4, and Mcollective before 2.5.2, when running with Ruby 1.9.1 or earlier, allows local users to gain privileges via a Trojan horse file in the current working directory, as demonstrated using (1) rubygems/defaults/operating_system.rb, (2) Win32API.rb, (3) Win32API.so, (4) safe_yaml.rb, (5) safe_yaml/deep.rb, or (6) safe_yaml/deep.so; or (7) operatingsystem.rb, (8) operatingsystem.so, (9) osfamily.rb, or (10) osfamily.so in puppet/confine.",
      "Threats": [
        {
          "Type": "Impact",
          "Severity": "moderate"
        }
      ],
      "References": [
        {
          "URL": "https://www.suse.com/security/cve/CVE-2014-3248.html",
          "Description": "CVE-2014-3248"
        },
        {
          "URL": "https://bugzilla.suse.com/879913",
          "Description": "SUSE Bug 879913"
        }
      ],
      "ProductStatuses": [
        {
          "Type": "Fixed",
          "ProductID": [
            "openSUSE Tumbleweed:ruby2.2-rubygem-facter-2.4.6-2.1",
            "openSUSE Tumbleweed:ruby2.2-rubygem-facter-doc-2.4.6-2.1",
            "openSUSE Tumbleweed:ruby2.2-rubygem-facter-testsuite-2.4.6-2.1",
            "openSUSE Tumbleweed:ruby2.2-rubygem-hiera-1.3.4-3.5",
            "openSUSE Tumbleweed:ruby2.2-rubygem-hiera-doc-1.3.4-3.5",
            "openSUSE Tumbleweed:ruby2.2-rubygem-hiera-testsuite-1.3.4-3.5",
            "openSUSE Tumbleweed:ruby2.3-rubygem-facter-2.4.6-2.1",
            "openSUSE Tumbleweed:ruby2.3-rubygem-facter-doc-2.4.6-2.1",
            "openSUSE Tumbleweed:ruby2.3-rubygem-facter-testsuite-2.4.6-2.1",
            "openSUSE Tumbleweed:ruby2.3-rubygem-hiera-1.3.4-3.5",
            "openSUSE Tumbleweed:ruby2.3-rubygem-hiera-doc-1.3.4-3.5",
            "openSUSE Tumbleweed:ruby2.3-rubygem-hiera-testsuite-1.3.4-3.5",
            "openSUSE Tumbleweed:rubygem-facter-2.4.6-2.1",
            "openSUSE Tumbleweed:rubygem-hiera-1.3.4-3.5"
          ]
        }
      ],
      "CVSSScoreSets": {}
    }
  ]
}