{
  "Title": "parsec-0.8.0-3.1 on GA media",
  "Tracking": {
    "ID": "openSUSE-SU-2024:11665-1",
    "Status": "Final",
    "Version": "1",
    "InitialReleaseDate": "2024-06-22T21:44:56Z",
    "CurrentReleaseDate": "2024-06-22T21:44:56Z",
    "RevisionHistory": [
      {
        "Number": "1",
        "Date": "2024-06-22T21:44:56Z",
        "Description": "current"
      }
    ]
  },
  "Notes": [
    {
      "Text": "parsec-0.8.0-3.1 on GA media",
      "Title": "Topic",
      "Type": "Summary"
    },
    {
      "Text": "These are all security issues fixed in the parsec-0.8.0-3.1 package on the GA media of openSUSE Tumbleweed.",
      "Title": "Details",
      "Type": "General"
    },
    {
      "Text": "The CVRF data is provided by SUSE under the Creative Commons License 4.0 with Attribution (CC-BY-4.0).",
      "Title": "Terms of Use",
      "Type": "Legal Disclaimer"
    },
    {
      "Text": "openSUSE-Tumbleweed-2024-11665",
      "Title": "Patchnames",
      "Type": "Details"
    }
  ],
  "ProductTree": {
    "Relationships": [
      {
        "ProductReference": "parsec-0.8.0-3.1",
        "RelatesToProductReference": "openSUSE Tumbleweed",
        "RelationType": "Default Component Of"
      }
    ]
  },
  "References": [
    {
      "URL": "https://www.suse.com/support/security/rating/",
      "Description": "SUSE Security Ratings"
    },
    {
      "URL": "https://www.suse.com/security/cve/CVE-2021-36781/",
      "Description": "SUSE CVE CVE-2021-36781 page"
    }
  ],
  "Vulnerabilities": [
    {
      "CVE": "CVE-2021-36781",
      "Description": "A Incorrect Default Permissions vulnerability in the parsec package of openSUSE Factory allows local attackers to imitate the service leading to DoS or clients talking to an imposter service. This issue affects: openSUSE Factory parsec versions prior to 0.8.1-1.1.",
      "Threats": [
        {
          "Type": "Impact",
          "Severity": "moderate"
        }
      ],
      "References": [
        {
          "URL": "https://www.suse.com/security/cve/CVE-2021-36781.html",
          "Description": "CVE-2021-36781"
        },
        {
          "URL": "https://bugzilla.suse.com/1193484",
          "Description": "SUSE Bug 1193484"
        }
      ],
      "ProductStatuses": [
        {
          "Type": "Fixed",
          "ProductID": [
            "openSUSE Tumbleweed:parsec-0.8.0-3.1"
          ]
        }
      ],
      "CVSSScoreSets": {}
    }
  ]
}