{
  "Title": "texlive-hrlatex-2021.186.0.0.23svn18020-45.2 on GA media",
  "Tracking": {
    "ID": "openSUSE-SU-2024:11444-1",
    "Status": "Final",
    "Version": "1",
    "InitialReleaseDate": "2024-06-22T21:44:56Z",
    "CurrentReleaseDate": "2024-06-22T21:44:56Z",
    "RevisionHistory": [
      {
        "Number": "1",
        "Date": "2024-06-22T21:44:56Z",
        "Description": "current"
      }
    ]
  },
  "Notes": [
    {
      "Text": "texlive-hrlatex-2021.186.0.0.23svn18020-45.2 on GA media",
      "Title": "Topic",
      "Type": "Summary"
    },
    {
      "Text": "These are all security issues fixed in the texlive-hrlatex-2021.186.0.0.23svn18020-45.2 package on the GA media of openSUSE Tumbleweed.",
      "Title": "Details",
      "Type": "General"
    },
    {
      "Text": "The CVRF data is provided by SUSE under the Creative Commons License 4.0 with Attribution (CC-BY-4.0).",
      "Title": "Terms of Use",
      "Type": "Legal Disclaimer"
    },
    {
      "Text": "openSUSE-Tumbleweed-2024-11444",
      "Title": "Patchnames",
      "Type": "Details"
    }
  ],
  "ProductTree": {
    "Relationships": [
      {
        "ProductReference": "texlive-hrlatex-2021.186.0.0.23svn18020-45.2",
        "RelatesToProductReference": "openSUSE Tumbleweed",
        "RelationType": "Default Component Of"
      },
      {
        "ProductReference": "texlive-hrlatex-doc-2021.186.0.0.23svn18020-45.2",
        "RelatesToProductReference": "openSUSE Tumbleweed",
        "RelationType": "Default Component Of"
      },
      {
        "ProductReference": "texlive-hu-berlin-bundle-2021.186.1.1.1svn57580-45.2",
        "RelatesToProductReference": "openSUSE Tumbleweed",
        "RelationType": "Default Component Of"
      },
      {
        "ProductReference": "texlive-hu-berlin-bundle-doc-2021.186.1.1.1svn57580-45.2",
        "RelatesToProductReference": "openSUSE Tumbleweed",
        "RelationType": "Default Component Of"
      },
      {
        "ProductReference": "texlive-hulipsum-2021.186.1.1svn56848-45.2",
        "RelatesToProductReference": "openSUSE Tumbleweed",
        "RelationType": "Default Component Of"
      },
      {
        "ProductReference": "texlive-hulipsum-doc-2021.186.1.1svn56848-45.2",
        "RelatesToProductReference": "openSUSE Tumbleweed",
        "RelationType": "Default Component Of"
      },
      {
        "ProductReference": "texlive-hustthesis-2021.186.1.4svn42547-45.2",
        "RelatesToProductReference": "openSUSE Tumbleweed",
        "RelationType": "Default Component Of"
      },
      {
        "ProductReference": "texlive-hustthesis-doc-2021.186.1.4svn42547-45.2",
        "RelatesToProductReference": "openSUSE Tumbleweed",
        "RelationType": "Default Component Of"
      },
      {
        "ProductReference": "texlive-hvarabic-2021.186.0.0.01svn55643-45.2",
        "RelatesToProductReference": "openSUSE Tumbleweed",
        "RelationType": "Default Component Of"
      },
      {
        "ProductReference": "texlive-hvarabic-doc-2021.186.0.0.01svn55643-45.2",
        "RelatesToProductReference": "openSUSE Tumbleweed",
        "RelationType": "Default Component Of"
      },
      {
        "ProductReference": "texlive-hvfloat-2021.186.2.19svn58411-45.2",
        "RelatesToProductReference": "openSUSE Tumbleweed",
        "RelationType": "Default Component Of"
      },
      {
        "ProductReference": "texlive-hvfloat-doc-2021.186.2.19svn58411-45.2",
        "RelatesToProductReference": "openSUSE Tumbleweed",
        "RelationType": "Default Component Of"
      },
      {
        "ProductReference": "texlive-hvindex-2021.186.0.0.04svn46051-45.2",
        "RelatesToProductReference": "openSUSE Tumbleweed",
        "RelationType": "Default Component Of"
      },
      {
        "ProductReference": "texlive-hvindex-doc-2021.186.0.0.04svn46051-45.2",
        "RelatesToProductReference": "openSUSE Tumbleweed",
        "RelationType": "Default Component Of"
      },
      {
        "ProductReference": "texlive-hvqrurl-2021.186.0.0.01asvn52993-45.2",
        "RelatesToProductReference": "openSUSE Tumbleweed",
        "RelationType": "Default Component Of"
      },
      {
        "ProductReference": "texlive-hvqrurl-doc-2021.186.0.0.01asvn52993-45.2",
        "RelatesToProductReference": "openSUSE Tumbleweed",
        "RelationType": "Default Component Of"
      },
      {
        "ProductReference": "texlive-hycolor-2021.186.1.10svn53584-45.2",
        "RelatesToProductReference": "openSUSE Tumbleweed",
        "RelationType": "Default Component Of"
      },
      {
        "ProductReference": "texlive-hycolor-doc-2021.186.1.10svn53584-45.2",
        "RelatesToProductReference": "openSUSE Tumbleweed",
        "RelationType": "Default Component Of"
      },
      {
        "ProductReference": "texlive-hypdestopt-2021.186.2.7svn56253-45.2",
        "RelatesToProductReference": "openSUSE Tumbleweed",
        "RelationType": "Default Component Of"
      },
      {
        "ProductReference": "texlive-hypdestopt-doc-2021.186.2.7svn56253-45.2",
        "RelatesToProductReference": "openSUSE Tumbleweed",
        "RelationType": "Default Component Of"
      },
      {
        "ProductReference": "texlive-hypdvips-2021.186.3.03svn53197-45.2",
        "RelatesToProductReference": "openSUSE Tumbleweed",
        "RelationType": "Default Component Of"
      },
      {
        "ProductReference": "texlive-hypdvips-doc-2021.186.3.03svn53197-45.2",
        "RelatesToProductReference": "openSUSE Tumbleweed",
        "RelationType": "Default Component Of"
      },
      {
        "ProductReference": "texlive-hyper-2021.186.4.2dsvn17357-45.2",
        "RelatesToProductReference": "openSUSE Tumbleweed",
        "RelationType": "Default Component Of"
      },
      {
        "ProductReference": "texlive-hyper-doc-2021.186.4.2dsvn17357-45.2",
        "RelatesToProductReference": "openSUSE Tumbleweed",
        "RelationType": "Default Component Of"
      },
      {
        "ProductReference": "texlive-hyperbar-2021.186.0.0.1svn48147-45.2",
        "RelatesToProductReference": "openSUSE Tumbleweed",
        "RelationType": "Default Component Of"
      },
      {
        "ProductReference": "texlive-hyperbar-doc-2021.186.0.0.1svn48147-45.2",
        "RelatesToProductReference": "openSUSE Tumbleweed",
        "RelationType": "Default Component Of"
      },
      {
        "ProductReference": "texlive-hypernat-2021.186.1.0bsvn17358-45.2",
        "RelatesToProductReference": "openSUSE Tumbleweed",
        "RelationType": "Default Component Of"
      },
      {
        "ProductReference": "texlive-hypernat-doc-2021.186.1.0bsvn17358-45.2",
        "RelatesToProductReference": "openSUSE Tumbleweed",
        "RelationType": "Default Component Of"
      },
      {
        "ProductReference": "texlive-hyperref-2021.186.7.00ksvn58024-45.2",
        "RelatesToProductReference": "openSUSE Tumbleweed",
        "RelationType": "Default Component Of"
      },
      {
        "ProductReference": "texlive-hyperref-doc-2021.186.7.00ksvn58024-45.2",
        "RelatesToProductReference": "openSUSE Tumbleweed",
        "RelationType": "Default Component Of"
      },
      {
        "ProductReference": "texlive-hyperxmp-2021.186.5.9svn57004-45.2",
        "RelatesToProductReference": "openSUSE Tumbleweed",
        "RelationType": "Default Component Of"
      },
      {
        "ProductReference": "texlive-hyperxmp-doc-2021.186.5.9svn57004-45.2",
        "RelatesToProductReference": "openSUSE Tumbleweed",
        "RelationType": "Default Component Of"
      },
      {
        "ProductReference": "texlive-hyph-utf8-2021.186.svn58619-45.2",
        "RelatesToProductReference": "openSUSE Tumbleweed",
        "RelationType": "Default Component Of"
      },
      {
        "ProductReference": "texlive-hyph-utf8-doc-2021.186.svn58619-45.2",
        "RelatesToProductReference": "openSUSE Tumbleweed",
        "RelationType": "Default Component Of"
      },
      {
        "ProductReference": "texlive-hyphen-afrikaans-2021.186.svn58609-45.2",
        "RelatesToProductReference": "openSUSE Tumbleweed",
        "RelationType": "Default Component Of"
      },
      {
        "ProductReference": "texlive-hyphen-ancientgreek-2021.186.svn58652-45.2",
        "RelatesToProductReference": "openSUSE Tumbleweed",
        "RelationType": "Default Component Of"
      },
      {
        "ProductReference": "texlive-hyphen-arabic-2021.186.svn54568-45.2",
        "RelatesToProductReference": "openSUSE Tumbleweed",
        "RelationType": "Default Component Of"
      },
      {
        "ProductReference": "texlive-hyphen-armenian-2021.186.svn58652-45.2",
        "RelatesToProductReference": "openSUSE Tumbleweed",
        "RelationType": "Default Component Of"
      },
      {
        "ProductReference": "texlive-hyphen-base-2021.186.svn58630-45.2",
        "RelatesToProductReference": "openSUSE Tumbleweed",
        "RelationType": "Default Component Of"
      },
      {
        "ProductReference": "texlive-hyphen-basque-2021.186.svn58652-45.2",
        "RelatesToProductReference": "openSUSE Tumbleweed",
        "RelationType": "Default Component Of"
      },
      {
        "ProductReference": "texlive-hyphen-belarusian-2021.186.svn58652-45.2",
        "RelatesToProductReference": "openSUSE Tumbleweed",
        "RelationType": "Default Component Of"
      },
      {
        "ProductReference": "texlive-hyphen-bulgarian-2021.186.svn58685-45.2",
        "RelatesToProductReference": "openSUSE Tumbleweed",
        "RelationType": "Default Component Of"
      },
      {
        "ProductReference": "texlive-hyphen-catalan-2021.186.svn58609-45.2",
        "RelatesToProductReference": "openSUSE Tumbleweed",
        "RelationType": "Default Component Of"
      },
      {
        "ProductReference": "texlive-hyphen-chinese-2021.186.svn58652-45.2",
        "RelatesToProductReference": "openSUSE Tumbleweed",
        "RelationType": "Default Component Of"
      },
      {
        "ProductReference": "texlive-hyphen-churchslavonic-2021.186.svn58609-45.2",
        "RelatesToProductReference": "openSUSE Tumbleweed",
        "RelationType": "Default Component Of"
      },
      {
        "ProductReference": "texlive-hyphen-coptic-2021.186.svn58652-45.2",
        "RelatesToProductReference": "openSUSE Tumbleweed",
        "RelationType": "Default Component Of"
      },
      {
        "ProductReference": "texlive-hyphen-croatian-2021.186.svn58652-45.2",
        "RelatesToProductReference": "openSUSE Tumbleweed",
        "RelationType": "Default Component Of"
      },
      {
        "ProductReference": "texlive-hyphen-czech-2021.186.svn58609-45.2",
        "RelatesToProductReference": "openSUSE Tumbleweed",
        "RelationType": "Default Component Of"
      },
      {
        "ProductReference": "texlive-hyphen-danish-2021.186.svn58652-45.2",
        "RelatesToProductReference": "openSUSE Tumbleweed",
        "RelationType": "Default Component Of"
      },
      {
        "ProductReference": "texlive-hyphen-dutch-2021.186.1.1svn58609-45.2",
        "RelatesToProductReference": "openSUSE Tumbleweed",
        "RelationType": "Default Component Of"
      },
      {
        "ProductReference": "texlive-hyphen-english-2021.186.svn58609-45.2",
        "RelatesToProductReference": "openSUSE Tumbleweed",
        "RelationType": "Default Component Of"
      },
      {
        "ProductReference": "texlive-hyphen-esperanto-2021.186.svn58652-45.2",
        "RelatesToProductReference": "openSUSE Tumbleweed",
        "RelationType": "Default Component Of"
      },
      {
        "ProductReference": "texlive-hyphen-estonian-2021.186.svn58652-45.2",
        "RelatesToProductReference": "openSUSE Tumbleweed",
        "RelationType": "Default Component Of"
      },
      {
        "ProductReference": "texlive-hyphen-ethiopic-2021.186.svn58652-45.2",
        "RelatesToProductReference": "openSUSE Tumbleweed",
        "RelationType": "Default Component Of"
      },
      {
        "ProductReference": "texlive-hyphen-farsi-2021.186.svn54568-45.2",
        "RelatesToProductReference": "openSUSE Tumbleweed",
        "RelationType": "Default Component Of"
      },
      {
        "ProductReference": "texlive-hyphen-finnish-2021.186.svn58652-45.2",
        "RelatesToProductReference": "openSUSE Tumbleweed",
        "RelationType": "Default Component Of"
      },
      {
        "ProductReference": "texlive-hyphen-french-2021.186.svn58652-45.2",
        "RelatesToProductReference": "openSUSE Tumbleweed",
        "RelationType": "Default Component Of"
      },
      {
        "ProductReference": "texlive-hyphen-friulan-2021.186.svn58652-45.2",
        "RelatesToProductReference": "openSUSE Tumbleweed",
        "RelationType": "Default Component Of"
      },
      {
        "ProductReference": "texlive-hyphen-galician-2021.186.svn58652-45.2",
        "RelatesToProductReference": "openSUSE Tumbleweed",
        "RelationType": "Default Component Of"
      },
      {
        "ProductReference": "texlive-hyphen-georgian-2021.186.svn58652-45.2",
        "RelatesToProductReference": "openSUSE Tumbleweed",
        "RelationType": "Default Component Of"
      },
      {
        "ProductReference": "texlive-hyphen-german-2021.186.svn58652-45.2",
        "RelatesToProductReference": "openSUSE Tumbleweed",
        "RelationType": "Default Component Of"
      },
      {
        "ProductReference": "texlive-hyphen-greek-2021.186.5svn58652-45.2",
        "RelatesToProductReference": "openSUSE Tumbleweed",
        "RelationType": "Default Component Of"
      },
      {
        "ProductReference": "texlive-hyphen-greek-doc-2021.186.5svn58652-45.2",
        "RelatesToProductReference": "openSUSE Tumbleweed",
        "RelationType": "Default Component Of"
      },
      {
        "ProductReference": "texlive-hyphen-hungarian-2021.186.svn58652-45.2",
        "RelatesToProductReference": "openSUSE Tumbleweed",
        "RelationType": "Default Component Of"
      },
      {
        "ProductReference": "texlive-hyphen-hungarian-doc-2021.186.svn58652-45.2",
        "RelatesToProductReference": "openSUSE Tumbleweed",
        "RelationType": "Default Component Of"
      },
      {
        "ProductReference": "texlive-hyphen-icelandic-2021.186.svn58652-45.2",
        "RelatesToProductReference": "openSUSE Tumbleweed",
        "RelationType": "Default Component Of"
      },
      {
        "ProductReference": "texlive-hyphen-indic-2021.186.svn58652-45.2",
        "RelatesToProductReference": "openSUSE Tumbleweed",
        "RelationType": "Default Component Of"
      },
      {
        "ProductReference": "texlive-hyphen-indonesian-2021.186.svn58609-45.2",
        "RelatesToProductReference": "openSUSE Tumbleweed",
        "RelationType": "Default Component Of"
      },
      {
        "ProductReference": "texlive-hyphen-interlingua-2021.186.svn58609-45.2",
        "RelatesToProductReference": "openSUSE Tumbleweed",
        "RelationType": "Default Component Of"
      },
      {
        "ProductReference": "texlive-hyphen-irish-2021.186.svn58609-45.2",
        "RelatesToProductReference": "openSUSE Tumbleweed",
        "RelationType": "Default Component Of"
      },
      {
        "ProductReference": "texlive-hyphen-italian-2021.186.4.8gsvn58652-45.2",
        "RelatesToProductReference": "openSUSE Tumbleweed",
        "RelationType": "Default Component Of"
      },
      {
        "ProductReference": "texlive-hyphen-kurmanji-2021.186.svn58652-45.2",
        "RelatesToProductReference": "openSUSE Tumbleweed",
        "RelationType": "Default Component Of"
      },
      {
        "ProductReference": "texlive-hyphen-latin-2021.186.3.1svn58652-45.2",
        "RelatesToProductReference": "openSUSE Tumbleweed",
        "RelationType": "Default Component Of"
      },
      {
        "ProductReference": "texlive-hyphen-latvian-2021.186.svn58652-45.2",
        "RelatesToProductReference": "openSUSE Tumbleweed",
        "RelationType": "Default Component Of"
      },
      {
        "ProductReference": "texlive-hyphen-lithuanian-2021.186.svn58652-45.2",
        "RelatesToProductReference": "openSUSE Tumbleweed",
        "RelationType": "Default Component Of"
      },
      {
        "ProductReference": "texlive-hyphen-macedonian-2021.186.svn58652-45.2",
        "RelatesToProductReference": "openSUSE Tumbleweed",
        "RelationType": "Default Component Of"
      },
      {
        "ProductReference": "texlive-hyphen-mongolian-2021.186.svn58652-45.2",
        "RelatesToProductReference": "openSUSE Tumbleweed",
        "RelationType": "Default Component Of"
      },
      {
        "ProductReference": "texlive-hyphen-norwegian-2021.186.svn58609-45.2",
        "RelatesToProductReference": "openSUSE Tumbleweed",
        "RelationType": "Default Component Of"
      },
      {
        "ProductReference": "texlive-hyphen-occitan-2021.186.svn58652-45.2",
        "RelatesToProductReference": "openSUSE Tumbleweed",
        "RelationType": "Default Component Of"
      },
      {
        "ProductReference": "texlive-hyphen-piedmontese-2021.186.svn58652-45.2",
        "RelatesToProductReference": "openSUSE Tumbleweed",
        "RelationType": "Default Component Of"
      },
      {
        "ProductReference": "texlive-hyphen-polish-2021.186.3.0bsvn58609-45.2",
        "RelatesToProductReference": "openSUSE Tumbleweed",
        "RelationType": "Default Component Of"
      },
      {
        "ProductReference": "texlive-hyphen-portuguese-2021.186.svn58609-45.2",
        "RelatesToProductReference": "openSUSE Tumbleweed",
        "RelationType": "Default Component Of"
      },
      {
        "ProductReference": "texlive-hyphen-romanian-2021.186.svn58652-45.2",
        "RelatesToProductReference": "openSUSE Tumbleweed",
        "RelationType": "Default Component Of"
      },
      {
        "ProductReference": "texlive-hyphen-romansh-2021.186.svn58652-45.2",
        "RelatesToProductReference": "openSUSE Tumbleweed",
        "RelationType": "Default Component Of"
      },
      {
        "ProductReference": "texlive-hyphen-russian-2021.186.svn58609-45.2",
        "RelatesToProductReference": "openSUSE Tumbleweed",
        "RelationType": "Default Component Of"
      },
      {
        "ProductReference": "texlive-hyphen-sanskrit-2021.186.svn58652-45.2",
        "RelatesToProductReference": "openSUSE Tumbleweed",
        "RelationType": "Default Component Of"
      },
      {
        "ProductReference": "texlive-hyphen-sanskrit-doc-2021.186.svn58652-45.2",
        "RelatesToProductReference": "openSUSE Tumbleweed",
        "RelationType": "Default Component Of"
      },
      {
        "ProductReference": "texlive-hyphen-serbian-2021.186.1.0asvn58609-45.2",
        "RelatesToProductReference": "openSUSE Tumbleweed",
        "RelationType": "Default Component Of"
      },
      {
        "ProductReference": "texlive-hyphen-slovak-2021.186.svn58609-45.2",
        "RelatesToProductReference": "openSUSE Tumbleweed",
        "RelationType": "Default Component Of"
      },
      {
        "ProductReference": "texlive-hyphen-slovenian-2021.186.svn58652-45.2",
        "RelatesToProductReference": "openSUSE Tumbleweed",
        "RelationType": "Default Component Of"
      },
      {
        "ProductReference": "texlive-hyphen-spanish-2021.186.5.0svn58652-45.2",
        "RelatesToProductReference": "openSUSE Tumbleweed",
        "RelationType": "Default Component Of"
      },
      {
        "ProductReference": "texlive-hyphen-spanish-doc-2021.186.5.0svn58652-45.2",
        "RelatesToProductReference": "openSUSE Tumbleweed",
        "RelationType": "Default Component Of"
      },
      {
        "ProductReference": "texlive-hyphen-swedish-2021.186.svn58652-45.2",
        "RelatesToProductReference": "openSUSE Tumbleweed",
        "RelationType": "Default Component Of"
      },
      {
        "ProductReference": "texlive-hyphen-thai-2021.186.svn58652-45.2",
        "RelatesToProductReference": "openSUSE Tumbleweed",
        "RelationType": "Default Component Of"
      },
      {
        "ProductReference": "texlive-hyphen-turkish-2021.186.svn58652-45.2",
        "RelatesToProductReference": "openSUSE Tumbleweed",
        "RelationType": "Default Component Of"
      },
      {
        "ProductReference": "texlive-hyphen-turkmen-2021.186.svn58652-45.2",
        "RelatesToProductReference": "openSUSE Tumbleweed",
        "RelationType": "Default Component Of"
      },
      {
        "ProductReference": "texlive-hyphen-ukrainian-2021.186.svn58652-45.2",
        "RelatesToProductReference": "openSUSE Tumbleweed",
        "RelationType": "Default Component Of"
      },
      {
        "ProductReference": "texlive-hyphen-uppersorbian-2021.186.svn58609-45.2",
        "RelatesToProductReference": "openSUSE Tumbleweed",
        "RelationType": "Default Component Of"
      },
      {
        "ProductReference": "texlive-hyphen-welsh-2021.186.svn58652-45.2",
        "RelatesToProductReference": "openSUSE Tumbleweed",
        "RelationType": "Default Component Of"
      },
      {
        "ProductReference": "texlive-hyphenat-2021.186.2.3csvn15878-45.2",
        "RelatesToProductReference": "openSUSE Tumbleweed",
        "RelationType": "Default Component Of"
      },
      {
        "ProductReference": "texlive-hyphenat-doc-2021.186.2.3csvn15878-45.2",
        "RelatesToProductReference": "openSUSE Tumbleweed",
        "RelationType": "Default Component Of"
      },
      {
        "ProductReference": "texlive-hyphenex-2021.186.svn57387-45.2",
        "RelatesToProductReference": "openSUSE Tumbleweed",
        "RelationType": "Default Component Of"
      },
      {
        "ProductReference": "texlive-hyplain-2021.186.1.0svn15878-45.2",
        "RelatesToProductReference": "openSUSE Tumbleweed",
        "RelationType": "Default Component Of"
      },
      {
        "ProductReference": "texlive-hyplain-doc-2021.186.1.0svn15878-45.2",
        "RelatesToProductReference": "openSUSE Tumbleweed",
        "RelationType": "Default Component Of"
      },
      {
        "ProductReference": "texlive-ibarra-2021.186.svn55820-45.2",
        "RelatesToProductReference": "openSUSE Tumbleweed",
        "RelationType": "Default Component Of"
      },
      {
        "ProductReference": "texlive-ibarra-doc-2021.186.svn55820-45.2",
        "RelatesToProductReference": "openSUSE Tumbleweed",
        "RelationType": "Default Component Of"
      },
      {
        "ProductReference": "texlive-ibarra-fonts-2021.186.svn55820-45.2",
        "RelatesToProductReference": "openSUSE Tumbleweed",
        "RelationType": "Default Component Of"
      },
      {
        "ProductReference": "texlive-ibycus-babel-2021.186.3.0svn15878-45.2",
        "RelatesToProductReference": "openSUSE Tumbleweed",
        "RelationType": "Default Component Of"
      },
      {
        "ProductReference": "texlive-ibycus-babel-doc-2021.186.3.0svn15878-45.2",
        "RelatesToProductReference": "openSUSE Tumbleweed",
        "RelationType": "Default Component Of"
      },
      {
        "ProductReference": "texlive-ibygrk-2021.186.4.5svn15878-45.2",
        "RelatesToProductReference": "openSUSE Tumbleweed",
        "RelationType": "Default Component Of"
      },
      {
        "ProductReference": "texlive-ibygrk-doc-2021.186.4.5svn15878-45.2",
        "RelatesToProductReference": "openSUSE Tumbleweed",
        "RelationType": "Default Component Of"
      },
      {
        "ProductReference": "texlive-ibygrk-fonts-2021.186.4.5svn15878-45.2",
        "RelatesToProductReference": "openSUSE Tumbleweed",
        "RelationType": "Default Component Of"
      },
      {
        "ProductReference": "texlive-icite-2021.186.1.3asvn54512-45.2",
        "RelatesToProductReference": "openSUSE Tumbleweed",
        "RelationType": "Default Component Of"
      },
      {
        "ProductReference": "texlive-icite-doc-2021.186.1.3asvn54512-45.2",
        "RelatesToProductReference": "openSUSE Tumbleweed",
        "RelationType": "Default Component Of"
      },
      {
        "ProductReference": "texlive-icsv-2021.186.0.0.2svn15878-45.2",
        "RelatesToProductReference": "openSUSE Tumbleweed",
        "RelationType": "Default Component Of"
      },
      {
        "ProductReference": "texlive-icsv-doc-2021.186.0.0.2svn15878-45.2",
        "RelatesToProductReference": "openSUSE Tumbleweed",
        "RelationType": "Default Component Of"
      },
      {
        "ProductReference": "texlive-identkey-2021.186.0.0.1.0svn49018-45.2",
        "RelatesToProductReference": "openSUSE Tumbleweed",
        "RelationType": "Default Component Of"
      },
      {
        "ProductReference": "texlive-identkey-doc-2021.186.0.0.1.0svn49018-45.2",
        "RelatesToProductReference": "openSUSE Tumbleweed",
        "RelationType": "Default Component Of"
      },
      {
        "ProductReference": "texlive-idxcmds-2021.186.0.0.2csvn54554-45.2",
        "RelatesToProductReference": "openSUSE Tumbleweed",
        "RelationType": "Default Component Of"
      },
      {
        "ProductReference": "texlive-idxcmds-doc-2021.186.0.0.2csvn54554-45.2",
        "RelatesToProductReference": "openSUSE Tumbleweed",
        "RelationType": "Default Component Of"
      },
      {
        "ProductReference": "texlive-idxlayout-2021.186.0.0.4dsvn25821-45.2",
        "RelatesToProductReference": "openSUSE Tumbleweed",
        "RelationType": "Default Component Of"
      },
      {
        "ProductReference": "texlive-idxlayout-doc-2021.186.0.0.4dsvn25821-45.2",
        "RelatesToProductReference": "openSUSE Tumbleweed",
        "RelationType": "Default Component Of"
      },
      {
        "ProductReference": "texlive-ieeepes-2021.186.4.0svn17359-45.2",
        "RelatesToProductReference": "openSUSE Tumbleweed",
        "RelationType": "Default Component Of"
      },
      {
        "ProductReference": "texlive-ieeepes-doc-2021.186.4.0svn17359-45.2",
        "RelatesToProductReference": "openSUSE Tumbleweed",
        "RelationType": "Default Component Of"
      },
      {
        "ProductReference": "texlive-ietfbibs-2021.186.1.0.0svn41332-45.2",
        "RelatesToProductReference": "openSUSE Tumbleweed",
        "RelationType": "Default Component Of"
      },
      {
        "ProductReference": "texlive-iffont-2021.186.1.0.0svn38823-45.2",
        "RelatesToProductReference": "openSUSE Tumbleweed",
        "RelationType": "Default Component Of"
      },
      {
        "ProductReference": "texlive-iffont-doc-2021.186.1.0.0svn38823-45.2",
        "RelatesToProductReference": "openSUSE Tumbleweed",
        "RelationType": "Default Component Of"
      },
      {
        "ProductReference": "texlive-ifmslide-2021.186.0.0.47svn20727-45.2",
        "RelatesToProductReference": "openSUSE Tumbleweed",
        "RelationType": "Default Component Of"
      },
      {
        "ProductReference": "texlive-ifmslide-doc-2021.186.0.0.47svn20727-45.2",
        "RelatesToProductReference": "openSUSE Tumbleweed",
        "RelationType": "Default Component Of"
      },
      {
        "ProductReference": "texlive-ifmtarg-2021.186.1.2bsvn47544-45.2",
        "RelatesToProductReference": "openSUSE Tumbleweed",
        "RelationType": "Default Component Of"
      },
      {
        "ProductReference": "texlive-ifmtarg-doc-2021.186.1.2bsvn47544-45.2",
        "RelatesToProductReference": "openSUSE Tumbleweed",
        "RelationType": "Default Component Of"
      },
      {
        "ProductReference": "texlive-ifnextok-2021.186.0.0.3svn23379-45.2",
        "RelatesToProductReference": "openSUSE Tumbleweed",
        "RelationType": "Default Component Of"
      },
      {
        "ProductReference": "texlive-ifnextok-doc-2021.186.0.0.3svn23379-45.2",
        "RelatesToProductReference": "openSUSE Tumbleweed",
        "RelationType": "Default Component Of"
      },
      {
        "ProductReference": "texlive-ifoddpage-2021.186.1.1svn56291-45.2",
        "RelatesToProductReference": "openSUSE Tumbleweed",
        "RelationType": "Default Component Of"
      },
      {
        "ProductReference": "texlive-ifoddpage-doc-2021.186.1.1svn56291-45.2",
        "RelatesToProductReference": "openSUSE Tumbleweed",
        "RelationType": "Default Component Of"
      },
      {
        "ProductReference": "texlive-ifplatform-2021.186.0.0.4asvn45533-45.2",
        "RelatesToProductReference": "openSUSE Tumbleweed",
        "RelationType": "Default Component Of"
      },
      {
        "ProductReference": "texlive-ifplatform-doc-2021.186.0.0.4asvn45533-45.2",
        "RelatesToProductReference": "openSUSE Tumbleweed",
        "RelationType": "Default Component Of"
      },
      {
        "ProductReference": "texlive-ifptex-2021.186.2.0svn52626-45.2",
        "RelatesToProductReference": "openSUSE Tumbleweed",
        "RelationType": "Default Component Of"
      },
      {
        "ProductReference": "texlive-ifptex-doc-2021.186.2.0svn52626-45.2",
        "RelatesToProductReference": "openSUSE Tumbleweed",
        "RelationType": "Default Component Of"
      },
      {
        "ProductReference": "texlive-ifsym-2021.186.svn24868-45.2",
        "RelatesToProductReference": "openSUSE Tumbleweed",
        "RelationType": "Default Component Of"
      },
      {
        "ProductReference": "texlive-ifsym-doc-2021.186.svn24868-45.2",
        "RelatesToProductReference": "openSUSE Tumbleweed",
        "RelationType": "Default Component Of"
      },
      {
        "ProductReference": "texlive-iftex-2021.186.1.0dsvn56594-45.2",
        "RelatesToProductReference": "openSUSE Tumbleweed",
        "RelationType": "Default Component Of"
      },
      {
        "ProductReference": "texlive-iftex-doc-2021.186.1.0dsvn56594-45.2",
        "RelatesToProductReference": "openSUSE Tumbleweed",
        "RelationType": "Default Component Of"
      },
      {
        "ProductReference": "texlive-ifthenx-2021.186.0.0.1asvn25819-45.2",
        "RelatesToProductReference": "openSUSE Tumbleweed",
        "RelationType": "Default Component Of"
      },
      {
        "ProductReference": "texlive-ifthenx-doc-2021.186.0.0.1asvn25819-45.2",
        "RelatesToProductReference": "openSUSE Tumbleweed",
        "RelationType": "Default Component Of"
      },
      {
        "ProductReference": "texlive-ifxptex-2021.186.0.0.2svn46153-45.2",
        "RelatesToProductReference": "openSUSE Tumbleweed",
        "RelationType": "Default Component Of"
      },
      {
        "ProductReference": "texlive-ifxptex-doc-2021.186.0.0.2svn46153-45.2",
        "RelatesToProductReference": "openSUSE Tumbleweed",
        "RelationType": "Default Component Of"
      },
      {
        "ProductReference": "texlive-iitem-2021.186.1.0svn29613-45.2",
        "RelatesToProductReference": "openSUSE Tumbleweed",
        "RelationType": "Default Component Of"
      },
      {
        "ProductReference": "texlive-iitem-doc-2021.186.1.0svn29613-45.2",
        "RelatesToProductReference": "openSUSE Tumbleweed",
        "RelationType": "Default Component Of"
      },
      {
        "ProductReference": "texlive-ijmart-2021.186.1.7svn30958-45.2",
        "RelatesToProductReference": "openSUSE Tumbleweed",
        "RelationType": "Default Component Of"
      },
      {
        "ProductReference": "texlive-ijmart-doc-2021.186.1.7svn30958-45.2",
        "RelatesToProductReference": "openSUSE Tumbleweed",
        "RelationType": "Default Component Of"
      },
      {
        "ProductReference": "texlive-ijqc-2021.186.1.2svn15878-45.2",
        "RelatesToProductReference": "openSUSE Tumbleweed",
        "RelationType": "Default Component Of"
      },
      {
        "ProductReference": "texlive-ijqc-doc-2021.186.1.2svn15878-45.2",
        "RelatesToProductReference": "openSUSE Tumbleweed",
        "RelationType": "Default Component Of"
      },
      {
        "ProductReference": "texlive-ijsra-2021.186.1.1svn44886-45.2",
        "RelatesToProductReference": "openSUSE Tumbleweed",
        "RelationType": "Default Component Of"
      },
      {
        "ProductReference": "texlive-ijsra-doc-2021.186.1.1svn44886-45.2",
        "RelatesToProductReference": "openSUSE Tumbleweed",
        "RelationType": "Default Component Of"
      },
      {
        "ProductReference": "texlive-imac-2021.186.svn17347-45.2",
        "RelatesToProductReference": "openSUSE Tumbleweed",
        "RelationType": "Default Component Of"
      },
      {
        "ProductReference": "texlive-imac-doc-2021.186.svn17347-45.2",
        "RelatesToProductReference": "openSUSE Tumbleweed",
        "RelationType": "Default Component Of"
      },
      {
        "ProductReference": "texlive-image-gallery-2021.186.1.0jsvn15878-45.2",
        "RelatesToProductReference": "openSUSE Tumbleweed",
        "RelationType": "Default Component Of"
      },
      {
        "ProductReference": "texlive-image-gallery-doc-2021.186.1.0jsvn15878-45.2",
        "RelatesToProductReference": "openSUSE Tumbleweed",
        "RelationType": "Default Component Of"
      },
      {
        "ProductReference": "texlive-imakeidx-2021.186.1.3esvn42287-45.2",
        "RelatesToProductReference": "openSUSE Tumbleweed",
        "RelationType": "Default Component Of"
      },
      {
        "ProductReference": "texlive-imakeidx-doc-2021.186.1.3esvn42287-45.2",
        "RelatesToProductReference": "openSUSE Tumbleweed",
        "RelationType": "Default Component Of"
      },
      {
        "ProductReference": "texlive-imfellenglish-2021.186.svn38547-45.2",
        "RelatesToProductReference": "openSUSE Tumbleweed",
        "RelationType": "Default Component Of"
      },
      {
        "ProductReference": "texlive-imfellenglish-doc-2021.186.svn38547-45.2",
        "RelatesToProductReference": "openSUSE Tumbleweed",
        "RelationType": "Default Component Of"
      },
      {
        "ProductReference": "texlive-imfellenglish-fonts-2021.186.svn38547-45.2",
        "RelatesToProductReference": "openSUSE Tumbleweed",
        "RelationType": "Default Component Of"
      },
      {
        "ProductReference": "texlive-impatient-2021.186.2020svn54080-45.2",
        "RelatesToProductReference": "openSUSE Tumbleweed",
        "RelationType": "Default Component Of"
      },
      {
        "ProductReference": "texlive-impatient-cn-2021.186.2020svn54080-45.2",
        "RelatesToProductReference": "openSUSE Tumbleweed",
        "RelationType": "Default Component Of"
      },
      {
        "ProductReference": "texlive-impatient-fr-2021.186.2020svn54080-45.2",
        "RelatesToProductReference": "openSUSE Tumbleweed",
        "RelationType": "Default Component Of"
      },
      {
        "ProductReference": "texlive-impnattypo-2021.186.1.5svn50227-45.2",
        "RelatesToProductReference": "openSUSE Tumbleweed",
        "RelationType": "Default Component Of"
      },
      {
        "ProductReference": "texlive-impnattypo-doc-2021.186.1.5svn50227-45.2",
        "RelatesToProductReference": "openSUSE Tumbleweed",
        "RelationType": "Default Component Of"
      },
      {
        "ProductReference": "texlive-import-2021.186.6.2svn54683-45.2",
        "RelatesToProductReference": "openSUSE Tumbleweed",
        "RelationType": "Default Component Of"
      },
      {
        "ProductReference": "texlive-import-doc-2021.186.6.2svn54683-45.2",
        "RelatesToProductReference": "openSUSE Tumbleweed",
        "RelationType": "Default Component Of"
      },
      {
        "ProductReference": "texlive-imsproc-2021.186.0.0.1svn29803-45.2",
        "RelatesToProductReference": "openSUSE Tumbleweed",
        "RelationType": "Default Component Of"
      },
      {
        "ProductReference": "texlive-imsproc-doc-2021.186.0.0.1svn29803-45.2",
        "RelatesToProductReference": "openSUSE Tumbleweed",
        "RelationType": "Default Component Of"
      },
      {
        "ProductReference": "texlive-imtekda-2021.186.1.7svn17667-45.2",
        "RelatesToProductReference": "openSUSE Tumbleweed",
        "RelationType": "Default Component Of"
      },
      {
        "ProductReference": "texlive-imtekda-doc-2021.186.1.7svn17667-45.2",
        "RelatesToProductReference": "openSUSE Tumbleweed",
        "RelationType": "Default Component Of"
      },
      {
        "ProductReference": "texlive-incgraph-2021.186.1.12svn36500-45.2",
        "RelatesToProductReference": "openSUSE Tumbleweed",
        "RelationType": "Default Component Of"
      },
      {
        "ProductReference": "texlive-incgraph-doc-2021.186.1.12svn36500-45.2",
        "RelatesToProductReference": "openSUSE Tumbleweed",
        "RelationType": "Default Component Of"
      },
      {
        "ProductReference": "texlive-includernw-2021.186.0.0.1.0svn47557-45.2",
        "RelatesToProductReference": "openSUSE Tumbleweed",
        "RelationType": "Default Component Of"
      },
      {
        "ProductReference": "texlive-includernw-doc-2021.186.0.0.1.0svn47557-45.2",
        "RelatesToProductReference": "openSUSE Tumbleweed",
        "RelationType": "Default Component Of"
      },
      {
        "ProductReference": "texlive-inconsolata-2021.186.1.121svn54512-45.2",
        "RelatesToProductReference": "openSUSE Tumbleweed",
        "RelationType": "Default Component Of"
      },
      {
        "ProductReference": "texlive-inconsolata-doc-2021.186.1.121svn54512-45.2",
        "RelatesToProductReference": "openSUSE Tumbleweed",
        "RelationType": "Default Component Of"
      },
      {
        "ProductReference": "texlive-inconsolata-fonts-2021.186.1.121svn54512-45.2",
        "RelatesToProductReference": "openSUSE Tumbleweed",
        "RelationType": "Default Component Of"
      },
      {
        "ProductReference": "texlive-index-2021.186.4.1betasvn24099-45.2",
        "RelatesToProductReference": "openSUSE Tumbleweed",
        "RelationType": "Default Component Of"
      },
      {
        "ProductReference": "texlive-index-doc-2021.186.4.1betasvn24099-45.2",
        "RelatesToProductReference": "openSUSE Tumbleweed",
        "RelationType": "Default Component Of"
      },
      {
        "ProductReference": "texlive-indextools-2021.186.1.5.1svn38931-45.2",
        "RelatesToProductReference": "openSUSE Tumbleweed",
        "RelationType": "Default Component Of"
      },
      {
        "ProductReference": "texlive-indextools-doc-2021.186.1.5.1svn38931-45.2",
        "RelatesToProductReference": "openSUSE Tumbleweed",
        "RelationType": "Default Component Of"
      },
      {
        "ProductReference": "texlive-infwarerr-2021.186.1.5svn53023-45.2",
        "RelatesToProductReference": "openSUSE Tumbleweed",
        "RelationType": "Default Component Of"
      },
      {
        "ProductReference": "texlive-infwarerr-doc-2021.186.1.5svn53023-45.2",
        "RelatesToProductReference": "openSUSE Tumbleweed",
        "RelationType": "Default Component Of"
      },
      {
        "ProductReference": "texlive-initials-2021.186.svn54080-45.2",
        "RelatesToProductReference": "openSUSE Tumbleweed",
        "RelationType": "Default Component Of"
      },
      {
        "ProductReference": "texlive-initials-doc-2021.186.svn54080-45.2",
        "RelatesToProductReference": "openSUSE Tumbleweed",
        "RelationType": "Default Component Of"
      },
      {
        "ProductReference": "texlive-initials-fonts-2021.186.svn54080-45.2",
        "RelatesToProductReference": "openSUSE Tumbleweed",
        "RelationType": "Default Component Of"
      },
      {
        "ProductReference": "texlive-inkpaper-2021.186.1.0svn54080-45.2",
        "RelatesToProductReference": "openSUSE Tumbleweed",
        "RelationType": "Default Component Of"
      },
      {
        "ProductReference": "texlive-inkpaper-doc-2021.186.1.0svn54080-45.2",
        "RelatesToProductReference": "openSUSE Tumbleweed",
        "RelationType": "Default Component Of"
      },
      {
        "ProductReference": "texlive-inline-images-2021.186.1.0svn54080-45.2",
        "RelatesToProductReference": "openSUSE Tumbleweed",
        "RelationType": "Default Component Of"
      },
      {
        "ProductReference": "texlive-inline-images-doc-2021.186.1.0svn54080-45.2",
        "RelatesToProductReference": "openSUSE Tumbleweed",
        "RelationType": "Default Component Of"
      },
      {
        "ProductReference": "texlive-inlinebib-2021.186.svn22018-45.2",
        "RelatesToProductReference": "openSUSE Tumbleweed",
        "RelationType": "Default Component Of"
      },
      {
        "ProductReference": "texlive-inlinebib-doc-2021.186.svn22018-45.2",
        "RelatesToProductReference": "openSUSE Tumbleweed",
        "RelationType": "Default Component Of"
      },
      {
        "ProductReference": "texlive-inlinedef-2021.186.1.0svn15878-45.2",
        "RelatesToProductReference": "openSUSE Tumbleweed",
        "RelationType": "Default Component Of"
      },
      {
        "ProductReference": "texlive-inlinedef-doc-2021.186.1.0svn15878-45.2",
        "RelatesToProductReference": "openSUSE Tumbleweed",
        "RelationType": "Default Component Of"
      },
      {
        "ProductReference": "texlive-innerscript-2021.186.1.1svn57672-45.2",
        "RelatesToProductReference": "openSUSE Tumbleweed",
        "RelationType": "Default Component Of"
      },
      {
        "ProductReference": "texlive-innerscript-doc-2021.186.1.1svn57672-45.2",
        "RelatesToProductReference": "openSUSE Tumbleweed",
        "RelationType": "Default Component Of"
      },
      {
        "ProductReference": "texlive-inputenx-2021.186.1.12svn52986-45.2",
        "RelatesToProductReference": "openSUSE Tumbleweed",
        "RelationType": "Default Component Of"
      },
      {
        "ProductReference": "texlive-inputenx-doc-2021.186.1.12svn52986-45.2",
        "RelatesToProductReference": "openSUSE Tumbleweed",
        "RelationType": "Default Component Of"
      },
      {
        "ProductReference": "texlive-inputtrc-2021.186.0.0.3svn28019-45.2",
        "RelatesToProductReference": "openSUSE Tumbleweed",
        "RelationType": "Default Component Of"
      },
      {
        "ProductReference": "texlive-inputtrc-doc-2021.186.0.0.3svn28019-45.2",
        "RelatesToProductReference": "openSUSE Tumbleweed",
        "RelationType": "Default Component Of"
      },
      {
        "ProductReference": "texlive-inriafonts-2021.186.1.0svn54512-45.2",
        "RelatesToProductReference": "openSUSE Tumbleweed",
        "RelationType": "Default Component Of"
      },
      {
        "ProductReference": "texlive-inriafonts-doc-2021.186.1.0svn54512-45.2",
        "RelatesToProductReference": "openSUSE Tumbleweed",
        "RelationType": "Default Component Of"
      },
      {
        "ProductReference": "texlive-inriafonts-fonts-2021.186.1.0svn54512-45.2",
        "RelatesToProductReference": "openSUSE Tumbleweed",
        "RelationType": "Default Component Of"
      },
      {
        "ProductReference": "texlive-insbox-2021.186.2.2svn34299-45.2",
        "RelatesToProductReference": "openSUSE Tumbleweed",
        "RelationType": "Default Component Of"
      },
      {
        "ProductReference": "texlive-insbox-doc-2021.186.2.2svn34299-45.2",
        "RelatesToProductReference": "openSUSE Tumbleweed",
        "RelationType": "Default Component Of"
      },
      {
        "ProductReference": "texlive-install-latex-guide-zh-cn-2021.186.2021.2.1svn57590-45.2",
        "RelatesToProductReference": "openSUSE Tumbleweed",
        "RelationType": "Default Component Of"
      },
      {
        "ProductReference": "texlive-intcalc-2021.186.1.3svn53168-45.2",
        "RelatesToProductReference": "openSUSE Tumbleweed",
        "RelationType": "Default Component Of"
      },
      {
        "ProductReference": "texlive-intcalc-doc-2021.186.1.3svn53168-45.2",
        "RelatesToProductReference": "openSUSE Tumbleweed",
        "RelationType": "Default Component Of"
      },
      {
        "ProductReference": "texlive-inter-2021.186.svn57213-45.2",
        "RelatesToProductReference": "openSUSE Tumbleweed",
        "RelationType": "Default Component Of"
      },
      {
        "ProductReference": "texlive-inter-doc-2021.186.svn57213-45.2",
        "RelatesToProductReference": "openSUSE Tumbleweed",
        "RelationType": "Default Component Of"
      },
      {
        "ProductReference": "texlive-inter-fonts-2021.186.svn57213-45.2",
        "RelatesToProductReference": "openSUSE Tumbleweed",
        "RelationType": "Default Component Of"
      },
      {
        "ProductReference": "texlive-interactiveworkbook-2021.186.svn15878-45.2",
        "RelatesToProductReference": "openSUSE Tumbleweed",
        "RelationType": "Default Component Of"
      },
      {
        "ProductReference": "texlive-interactiveworkbook-doc-2021.186.svn15878-45.2",
        "RelatesToProductReference": "openSUSE Tumbleweed",
        "RelationType": "Default Component Of"
      },
      {
        "ProductReference": "texlive-interchar-2021.186.0.0.2svn36312-45.2",
        "RelatesToProductReference": "openSUSE Tumbleweed",
        "RelationType": "Default Component Of"
      },
      {
        "ProductReference": "texlive-interchar-doc-2021.186.0.0.2svn36312-45.2",
        "RelatesToProductReference": "openSUSE Tumbleweed",
        "RelationType": "Default Component Of"
      },
      {
        "ProductReference": "texlive-interfaces-2021.186.3.1svn21474-45.2",
        "RelatesToProductReference": "openSUSE Tumbleweed",
        "RelationType": "Default Component Of"
      },
      {
        "ProductReference": "texlive-interfaces-doc-2021.186.3.1svn21474-45.2",
        "RelatesToProductReference": "openSUSE Tumbleweed",
        "RelationType": "Default Component Of"
      },
      {
        "ProductReference": "texlive-interpreter-2021.186.1.2svn27232-45.2",
        "RelatesToProductReference": "openSUSE Tumbleweed",
        "RelationType": "Default Component Of"
      },
      {
        "ProductReference": "texlive-interpreter-doc-2021.186.1.2svn27232-45.2",
        "RelatesToProductReference": "openSUSE Tumbleweed",
        "RelationType": "Default Component Of"
      },
      {
        "ProductReference": "texlive-interval-2021.186.0.0.4svn50265-45.2",
        "RelatesToProductReference": "openSUSE Tumbleweed",
        "RelationType": "Default Component Of"
      },
      {
        "ProductReference": "texlive-interval-doc-2021.186.0.0.4svn50265-45.2",
        "RelatesToProductReference": "openSUSE Tumbleweed",
        "RelationType": "Default Component Of"
      },
      {
        "ProductReference": "texlive-intopdf-2021.186.0.0.4.0svn58743-45.2",
        "RelatesToProductReference": "openSUSE Tumbleweed",
        "RelationType": "Default Component Of"
      },
      {
        "ProductReference": "texlive-intopdf-doc-2021.186.0.0.4.0svn58743-45.2",
        "RelatesToProductReference": "openSUSE Tumbleweed",
        "RelationType": "Default Component Of"
      },
      {
        "ProductReference": "texlive-intro-scientific-2021.186.5th_editionsvn15878-45.2",
        "RelatesToProductReference": "openSUSE Tumbleweed",
        "RelationType": "Default Component Of"
      },
      {
        "ProductReference": "texlive-inversepath-2021.186.0.0.2svn15878-45.2",
        "RelatesToProductReference": "openSUSE Tumbleweed",
        "RelationType": "Default Component Of"
      },
      {
        "ProductReference": "texlive-inversepath-doc-2021.186.0.0.2svn15878-45.2",
        "RelatesToProductReference": "openSUSE Tumbleweed",
        "RelationType": "Default Component Of"
      },
      {
        "ProductReference": "texlive-invoice-2021.186.svn48359-45.2",
        "RelatesToProductReference": "openSUSE Tumbleweed",
        "RelationType": "Default Component Of"
      },
      {
        "ProductReference": "texlive-invoice-class-2021.186.1.0svn49749-45.2",
        "RelatesToProductReference": "openSUSE Tumbleweed",
        "RelationType": "Default Component Of"
      },
      {
        "ProductReference": "texlive-invoice-class-doc-2021.186.1.0svn49749-45.2",
        "RelatesToProductReference": "openSUSE Tumbleweed",
        "RelationType": "Default Component Of"
      },
      {
        "ProductReference": "texlive-invoice-doc-2021.186.svn48359-45.2",
        "RelatesToProductReference": "openSUSE Tumbleweed",
        "RelationType": "Default Component Of"
      },
      {
        "ProductReference": "texlive-invoice2-2021.186.svn46364-45.2",
        "RelatesToProductReference": "openSUSE Tumbleweed",
        "RelationType": "Default Component Of"
      },
      {
        "ProductReference": "texlive-invoice2-doc-2021.186.svn46364-45.2",
        "RelatesToProductReference": "openSUSE Tumbleweed",
        "RelationType": "Default Component Of"
      },
      {
        "ProductReference": "texlive-iodhbwm-2021.186.1.2.2svn57773-45.2",
        "RelatesToProductReference": "openSUSE Tumbleweed",
        "RelationType": "Default Component Of"
      },
      {
        "ProductReference": "texlive-iodhbwm-doc-2021.186.1.2.2svn57773-45.2",
        "RelatesToProductReference": "openSUSE Tumbleweed",
        "RelationType": "Default Component Of"
      }
    ]
  },
  "References": [
    {
      "URL": "https://www.suse.com/support/security/rating/",
      "Description": "SUSE Security Ratings"
    },
    {
      "URL": "https://www.suse.com/security/cve/CVE-2016-10243/",
      "Description": "SUSE CVE CVE-2016-10243 page"
    }
  ],
  "Vulnerabilities": [
    {
      "CVE": "CVE-2016-10243",
      "Description": "TeX Live allows remote attackers to execute arbitrary commands by leveraging inclusion of mpost in shell_escape_commands in the texmf.cnf config file.",
      "Threats": [
        {
          "Type": "Impact",
          "Severity": "important"
        }
      ],
      "References": [
        {
          "URL": "https://www.suse.com/security/cve/CVE-2016-10243.html",
          "Description": "CVE-2016-10243"
        },
        {
          "URL": "https://bugzilla.suse.com/1028271",
          "Description": "SUSE Bug 1028271"
        }
      ],
      "ProductStatuses": [
        {
          "Type": "Fixed",
          "ProductID": [
            "openSUSE Tumbleweed:texlive-hrlatex-2021.186.0.0.23svn18020-45.2",
            "openSUSE Tumbleweed:texlive-hrlatex-doc-2021.186.0.0.23svn18020-45.2",
            "openSUSE Tumbleweed:texlive-hu-berlin-bundle-2021.186.1.1.1svn57580-45.2",
            "openSUSE Tumbleweed:texlive-hu-berlin-bundle-doc-2021.186.1.1.1svn57580-45.2",
            "openSUSE Tumbleweed:texlive-hulipsum-2021.186.1.1svn56848-45.2",
            "openSUSE Tumbleweed:texlive-hulipsum-doc-2021.186.1.1svn56848-45.2",
            "openSUSE Tumbleweed:texlive-hustthesis-2021.186.1.4svn42547-45.2",
            "openSUSE Tumbleweed:texlive-hustthesis-doc-2021.186.1.4svn42547-45.2",
            "openSUSE Tumbleweed:texlive-hvarabic-2021.186.0.0.01svn55643-45.2",
            "openSUSE Tumbleweed:texlive-hvarabic-doc-2021.186.0.0.01svn55643-45.2",
            "openSUSE Tumbleweed:texlive-hvfloat-2021.186.2.19svn58411-45.2",
            "openSUSE Tumbleweed:texlive-hvfloat-doc-2021.186.2.19svn58411-45.2",
            "openSUSE Tumbleweed:texlive-hvindex-2021.186.0.0.04svn46051-45.2",
            "openSUSE Tumbleweed:texlive-hvindex-doc-2021.186.0.0.04svn46051-45.2",
            "openSUSE Tumbleweed:texlive-hvqrurl-2021.186.0.0.01asvn52993-45.2",
            "openSUSE Tumbleweed:texlive-hvqrurl-doc-2021.186.0.0.01asvn52993-45.2",
            "openSUSE Tumbleweed:texlive-hycolor-2021.186.1.10svn53584-45.2",
            "openSUSE Tumbleweed:texlive-hycolor-doc-2021.186.1.10svn53584-45.2",
            "openSUSE Tumbleweed:texlive-hypdestopt-2021.186.2.7svn56253-45.2",
            "openSUSE Tumbleweed:texlive-hypdestopt-doc-2021.186.2.7svn56253-45.2",
            "openSUSE Tumbleweed:texlive-hypdvips-2021.186.3.03svn53197-45.2",
            "openSUSE Tumbleweed:texlive-hypdvips-doc-2021.186.3.03svn53197-45.2",
            "openSUSE Tumbleweed:texlive-hyper-2021.186.4.2dsvn17357-45.2",
            "openSUSE Tumbleweed:texlive-hyper-doc-2021.186.4.2dsvn17357-45.2",
            "openSUSE Tumbleweed:texlive-hyperbar-2021.186.0.0.1svn48147-45.2",
            "openSUSE Tumbleweed:texlive-hyperbar-doc-2021.186.0.0.1svn48147-45.2",
            "openSUSE Tumbleweed:texlive-hypernat-2021.186.1.0bsvn17358-45.2",
            "openSUSE Tumbleweed:texlive-hypernat-doc-2021.186.1.0bsvn17358-45.2",
            "openSUSE Tumbleweed:texlive-hyperref-2021.186.7.00ksvn58024-45.2",
            "openSUSE Tumbleweed:texlive-hyperref-doc-2021.186.7.00ksvn58024-45.2",
            "openSUSE Tumbleweed:texlive-hyperxmp-2021.186.5.9svn57004-45.2",
            "openSUSE Tumbleweed:texlive-hyperxmp-doc-2021.186.5.9svn57004-45.2",
            "openSUSE Tumbleweed:texlive-hyph-utf8-2021.186.svn58619-45.2",
            "openSUSE Tumbleweed:texlive-hyph-utf8-doc-2021.186.svn58619-45.2",
            "openSUSE Tumbleweed:texlive-hyphen-afrikaans-2021.186.svn58609-45.2",
            "openSUSE Tumbleweed:texlive-hyphen-ancientgreek-2021.186.svn58652-45.2",
            "openSUSE Tumbleweed:texlive-hyphen-arabic-2021.186.svn54568-45.2",
            "openSUSE Tumbleweed:texlive-hyphen-armenian-2021.186.svn58652-45.2",
            "openSUSE Tumbleweed:texlive-hyphen-base-2021.186.svn58630-45.2",
            "openSUSE Tumbleweed:texlive-hyphen-basque-2021.186.svn58652-45.2",
            "openSUSE Tumbleweed:texlive-hyphen-belarusian-2021.186.svn58652-45.2",
            "openSUSE Tumbleweed:texlive-hyphen-bulgarian-2021.186.svn58685-45.2",
            "openSUSE Tumbleweed:texlive-hyphen-catalan-2021.186.svn58609-45.2",
            "openSUSE Tumbleweed:texlive-hyphen-chinese-2021.186.svn58652-45.2",
            "openSUSE Tumbleweed:texlive-hyphen-churchslavonic-2021.186.svn58609-45.2",
            "openSUSE Tumbleweed:texlive-hyphen-coptic-2021.186.svn58652-45.2",
            "openSUSE Tumbleweed:texlive-hyphen-croatian-2021.186.svn58652-45.2",
            "openSUSE Tumbleweed:texlive-hyphen-czech-2021.186.svn58609-45.2",
            "openSUSE Tumbleweed:texlive-hyphen-danish-2021.186.svn58652-45.2",
            "openSUSE Tumbleweed:texlive-hyphen-dutch-2021.186.1.1svn58609-45.2",
            "openSUSE Tumbleweed:texlive-hyphen-english-2021.186.svn58609-45.2",
            "openSUSE Tumbleweed:texlive-hyphen-esperanto-2021.186.svn58652-45.2",
            "openSUSE Tumbleweed:texlive-hyphen-estonian-2021.186.svn58652-45.2",
            "openSUSE Tumbleweed:texlive-hyphen-ethiopic-2021.186.svn58652-45.2",
            "openSUSE Tumbleweed:texlive-hyphen-farsi-2021.186.svn54568-45.2",
            "openSUSE Tumbleweed:texlive-hyphen-finnish-2021.186.svn58652-45.2",
            "openSUSE Tumbleweed:texlive-hyphen-french-2021.186.svn58652-45.2",
            "openSUSE Tumbleweed:texlive-hyphen-friulan-2021.186.svn58652-45.2",
            "openSUSE Tumbleweed:texlive-hyphen-galician-2021.186.svn58652-45.2",
            "openSUSE Tumbleweed:texlive-hyphen-georgian-2021.186.svn58652-45.2",
            "openSUSE Tumbleweed:texlive-hyphen-german-2021.186.svn58652-45.2",
            "openSUSE Tumbleweed:texlive-hyphen-greek-2021.186.5svn58652-45.2",
            "openSUSE Tumbleweed:texlive-hyphen-greek-doc-2021.186.5svn58652-45.2",
            "openSUSE Tumbleweed:texlive-hyphen-hungarian-2021.186.svn58652-45.2",
            "openSUSE Tumbleweed:texlive-hyphen-hungarian-doc-2021.186.svn58652-45.2",
            "openSUSE Tumbleweed:texlive-hyphen-icelandic-2021.186.svn58652-45.2",
            "openSUSE Tumbleweed:texlive-hyphen-indic-2021.186.svn58652-45.2",
            "openSUSE Tumbleweed:texlive-hyphen-indonesian-2021.186.svn58609-45.2",
            "openSUSE Tumbleweed:texlive-hyphen-interlingua-2021.186.svn58609-45.2",
            "openSUSE Tumbleweed:texlive-hyphen-irish-2021.186.svn58609-45.2",
            "openSUSE Tumbleweed:texlive-hyphen-italian-2021.186.4.8gsvn58652-45.2",
            "openSUSE Tumbleweed:texlive-hyphen-kurmanji-2021.186.svn58652-45.2",
            "openSUSE Tumbleweed:texlive-hyphen-latin-2021.186.3.1svn58652-45.2",
            "openSUSE Tumbleweed:texlive-hyphen-latvian-2021.186.svn58652-45.2",
            "openSUSE Tumbleweed:texlive-hyphen-lithuanian-2021.186.svn58652-45.2",
            "openSUSE Tumbleweed:texlive-hyphen-macedonian-2021.186.svn58652-45.2",
            "openSUSE Tumbleweed:texlive-hyphen-mongolian-2021.186.svn58652-45.2",
            "openSUSE Tumbleweed:texlive-hyphen-norwegian-2021.186.svn58609-45.2",
            "openSUSE Tumbleweed:texlive-hyphen-occitan-2021.186.svn58652-45.2",
            "openSUSE Tumbleweed:texlive-hyphen-piedmontese-2021.186.svn58652-45.2",
            "openSUSE Tumbleweed:texlive-hyphen-polish-2021.186.3.0bsvn58609-45.2",
            "openSUSE Tumbleweed:texlive-hyphen-portuguese-2021.186.svn58609-45.2",
            "openSUSE Tumbleweed:texlive-hyphen-romanian-2021.186.svn58652-45.2",
            "openSUSE Tumbleweed:texlive-hyphen-romansh-2021.186.svn58652-45.2",
            "openSUSE Tumbleweed:texlive-hyphen-russian-2021.186.svn58609-45.2",
            "openSUSE Tumbleweed:texlive-hyphen-sanskrit-2021.186.svn58652-45.2",
            "openSUSE Tumbleweed:texlive-hyphen-sanskrit-doc-2021.186.svn58652-45.2",
            "openSUSE Tumbleweed:texlive-hyphen-serbian-2021.186.1.0asvn58609-45.2",
            "openSUSE Tumbleweed:texlive-hyphen-slovak-2021.186.svn58609-45.2",
            "openSUSE Tumbleweed:texlive-hyphen-slovenian-2021.186.svn58652-45.2",
            "openSUSE Tumbleweed:texlive-hyphen-spanish-2021.186.5.0svn58652-45.2",
            "openSUSE Tumbleweed:texlive-hyphen-spanish-doc-2021.186.5.0svn58652-45.2",
            "openSUSE Tumbleweed:texlive-hyphen-swedish-2021.186.svn58652-45.2",
            "openSUSE Tumbleweed:texlive-hyphen-thai-2021.186.svn58652-45.2",
            "openSUSE Tumbleweed:texlive-hyphen-turkish-2021.186.svn58652-45.2",
            "openSUSE Tumbleweed:texlive-hyphen-turkmen-2021.186.svn58652-45.2",
            "openSUSE Tumbleweed:texlive-hyphen-ukrainian-2021.186.svn58652-45.2",
            "openSUSE Tumbleweed:texlive-hyphen-uppersorbian-2021.186.svn58609-45.2",
            "openSUSE Tumbleweed:texlive-hyphen-welsh-2021.186.svn58652-45.2",
            "openSUSE Tumbleweed:texlive-hyphenat-2021.186.2.3csvn15878-45.2",
            "openSUSE Tumbleweed:texlive-hyphenat-doc-2021.186.2.3csvn15878-45.2",
            "openSUSE Tumbleweed:texlive-hyphenex-2021.186.svn57387-45.2",
            "openSUSE Tumbleweed:texlive-hyplain-2021.186.1.0svn15878-45.2",
            "openSUSE Tumbleweed:texlive-hyplain-doc-2021.186.1.0svn15878-45.2",
            "openSUSE Tumbleweed:texlive-ibarra-2021.186.svn55820-45.2",
            "openSUSE Tumbleweed:texlive-ibarra-doc-2021.186.svn55820-45.2",
            "openSUSE Tumbleweed:texlive-ibarra-fonts-2021.186.svn55820-45.2",
            "openSUSE Tumbleweed:texlive-ibycus-babel-2021.186.3.0svn15878-45.2",
            "openSUSE Tumbleweed:texlive-ibycus-babel-doc-2021.186.3.0svn15878-45.2",
            "openSUSE Tumbleweed:texlive-ibygrk-2021.186.4.5svn15878-45.2",
            "openSUSE Tumbleweed:texlive-ibygrk-doc-2021.186.4.5svn15878-45.2",
            "openSUSE Tumbleweed:texlive-ibygrk-fonts-2021.186.4.5svn15878-45.2",
            "openSUSE Tumbleweed:texlive-icite-2021.186.1.3asvn54512-45.2",
            "openSUSE Tumbleweed:texlive-icite-doc-2021.186.1.3asvn54512-45.2",
            "openSUSE Tumbleweed:texlive-icsv-2021.186.0.0.2svn15878-45.2",
            "openSUSE Tumbleweed:texlive-icsv-doc-2021.186.0.0.2svn15878-45.2",
            "openSUSE Tumbleweed:texlive-identkey-2021.186.0.0.1.0svn49018-45.2",
            "openSUSE Tumbleweed:texlive-identkey-doc-2021.186.0.0.1.0svn49018-45.2",
            "openSUSE Tumbleweed:texlive-idxcmds-2021.186.0.0.2csvn54554-45.2",
            "openSUSE Tumbleweed:texlive-idxcmds-doc-2021.186.0.0.2csvn54554-45.2",
            "openSUSE Tumbleweed:texlive-idxlayout-2021.186.0.0.4dsvn25821-45.2",
            "openSUSE Tumbleweed:texlive-idxlayout-doc-2021.186.0.0.4dsvn25821-45.2",
            "openSUSE Tumbleweed:texlive-ieeepes-2021.186.4.0svn17359-45.2",
            "openSUSE Tumbleweed:texlive-ieeepes-doc-2021.186.4.0svn17359-45.2",
            "openSUSE Tumbleweed:texlive-ietfbibs-2021.186.1.0.0svn41332-45.2",
            "openSUSE Tumbleweed:texlive-iffont-2021.186.1.0.0svn38823-45.2",
            "openSUSE Tumbleweed:texlive-iffont-doc-2021.186.1.0.0svn38823-45.2",
            "openSUSE Tumbleweed:texlive-ifmslide-2021.186.0.0.47svn20727-45.2",
            "openSUSE Tumbleweed:texlive-ifmslide-doc-2021.186.0.0.47svn20727-45.2",
            "openSUSE Tumbleweed:texlive-ifmtarg-2021.186.1.2bsvn47544-45.2",
            "openSUSE Tumbleweed:texlive-ifmtarg-doc-2021.186.1.2bsvn47544-45.2",
            "openSUSE Tumbleweed:texlive-ifnextok-2021.186.0.0.3svn23379-45.2",
            "openSUSE Tumbleweed:texlive-ifnextok-doc-2021.186.0.0.3svn23379-45.2",
            "openSUSE Tumbleweed:texlive-ifoddpage-2021.186.1.1svn56291-45.2",
            "openSUSE Tumbleweed:texlive-ifoddpage-doc-2021.186.1.1svn56291-45.2",
            "openSUSE Tumbleweed:texlive-ifplatform-2021.186.0.0.4asvn45533-45.2",
            "openSUSE Tumbleweed:texlive-ifplatform-doc-2021.186.0.0.4asvn45533-45.2",
            "openSUSE Tumbleweed:texlive-ifptex-2021.186.2.0svn52626-45.2",
            "openSUSE Tumbleweed:texlive-ifptex-doc-2021.186.2.0svn52626-45.2",
            "openSUSE Tumbleweed:texlive-ifsym-2021.186.svn24868-45.2",
            "openSUSE Tumbleweed:texlive-ifsym-doc-2021.186.svn24868-45.2",
            "openSUSE Tumbleweed:texlive-iftex-2021.186.1.0dsvn56594-45.2",
            "openSUSE Tumbleweed:texlive-iftex-doc-2021.186.1.0dsvn56594-45.2",
            "openSUSE Tumbleweed:texlive-ifthenx-2021.186.0.0.1asvn25819-45.2",
            "openSUSE Tumbleweed:texlive-ifthenx-doc-2021.186.0.0.1asvn25819-45.2",
            "openSUSE Tumbleweed:texlive-ifxptex-2021.186.0.0.2svn46153-45.2",
            "openSUSE Tumbleweed:texlive-ifxptex-doc-2021.186.0.0.2svn46153-45.2",
            "openSUSE Tumbleweed:texlive-iitem-2021.186.1.0svn29613-45.2",
            "openSUSE Tumbleweed:texlive-iitem-doc-2021.186.1.0svn29613-45.2",
            "openSUSE Tumbleweed:texlive-ijmart-2021.186.1.7svn30958-45.2",
            "openSUSE Tumbleweed:texlive-ijmart-doc-2021.186.1.7svn30958-45.2",
            "openSUSE Tumbleweed:texlive-ijqc-2021.186.1.2svn15878-45.2",
            "openSUSE Tumbleweed:texlive-ijqc-doc-2021.186.1.2svn15878-45.2",
            "openSUSE Tumbleweed:texlive-ijsra-2021.186.1.1svn44886-45.2",
            "openSUSE Tumbleweed:texlive-ijsra-doc-2021.186.1.1svn44886-45.2",
            "openSUSE Tumbleweed:texlive-imac-2021.186.svn17347-45.2",
            "openSUSE Tumbleweed:texlive-imac-doc-2021.186.svn17347-45.2",
            "openSUSE Tumbleweed:texlive-image-gallery-2021.186.1.0jsvn15878-45.2",
            "openSUSE Tumbleweed:texlive-image-gallery-doc-2021.186.1.0jsvn15878-45.2",
            "openSUSE Tumbleweed:texlive-imakeidx-2021.186.1.3esvn42287-45.2",
            "openSUSE Tumbleweed:texlive-imakeidx-doc-2021.186.1.3esvn42287-45.2",
            "openSUSE Tumbleweed:texlive-imfellenglish-2021.186.svn38547-45.2",
            "openSUSE Tumbleweed:texlive-imfellenglish-doc-2021.186.svn38547-45.2",
            "openSUSE Tumbleweed:texlive-imfellenglish-fonts-2021.186.svn38547-45.2",
            "openSUSE Tumbleweed:texlive-impatient-2021.186.2020svn54080-45.2",
            "openSUSE Tumbleweed:texlive-impatient-cn-2021.186.2020svn54080-45.2",
            "openSUSE Tumbleweed:texlive-impatient-fr-2021.186.2020svn54080-45.2",
            "openSUSE Tumbleweed:texlive-impnattypo-2021.186.1.5svn50227-45.2",
            "openSUSE Tumbleweed:texlive-impnattypo-doc-2021.186.1.5svn50227-45.2",
            "openSUSE Tumbleweed:texlive-import-2021.186.6.2svn54683-45.2",
            "openSUSE Tumbleweed:texlive-import-doc-2021.186.6.2svn54683-45.2",
            "openSUSE Tumbleweed:texlive-imsproc-2021.186.0.0.1svn29803-45.2",
            "openSUSE Tumbleweed:texlive-imsproc-doc-2021.186.0.0.1svn29803-45.2",
            "openSUSE Tumbleweed:texlive-imtekda-2021.186.1.7svn17667-45.2",
            "openSUSE Tumbleweed:texlive-imtekda-doc-2021.186.1.7svn17667-45.2",
            "openSUSE Tumbleweed:texlive-incgraph-2021.186.1.12svn36500-45.2",
            "openSUSE Tumbleweed:texlive-incgraph-doc-2021.186.1.12svn36500-45.2",
            "openSUSE Tumbleweed:texlive-includernw-2021.186.0.0.1.0svn47557-45.2",
            "openSUSE Tumbleweed:texlive-includernw-doc-2021.186.0.0.1.0svn47557-45.2",
            "openSUSE Tumbleweed:texlive-inconsolata-2021.186.1.121svn54512-45.2",
            "openSUSE Tumbleweed:texlive-inconsolata-doc-2021.186.1.121svn54512-45.2",
            "openSUSE Tumbleweed:texlive-inconsolata-fonts-2021.186.1.121svn54512-45.2",
            "openSUSE Tumbleweed:texlive-index-2021.186.4.1betasvn24099-45.2",
            "openSUSE Tumbleweed:texlive-index-doc-2021.186.4.1betasvn24099-45.2",
            "openSUSE Tumbleweed:texlive-indextools-2021.186.1.5.1svn38931-45.2",
            "openSUSE Tumbleweed:texlive-indextools-doc-2021.186.1.5.1svn38931-45.2",
            "openSUSE Tumbleweed:texlive-infwarerr-2021.186.1.5svn53023-45.2",
            "openSUSE Tumbleweed:texlive-infwarerr-doc-2021.186.1.5svn53023-45.2",
            "openSUSE Tumbleweed:texlive-initials-2021.186.svn54080-45.2",
            "openSUSE Tumbleweed:texlive-initials-doc-2021.186.svn54080-45.2",
            "openSUSE Tumbleweed:texlive-initials-fonts-2021.186.svn54080-45.2",
            "openSUSE Tumbleweed:texlive-inkpaper-2021.186.1.0svn54080-45.2",
            "openSUSE Tumbleweed:texlive-inkpaper-doc-2021.186.1.0svn54080-45.2",
            "openSUSE Tumbleweed:texlive-inline-images-2021.186.1.0svn54080-45.2",
            "openSUSE Tumbleweed:texlive-inline-images-doc-2021.186.1.0svn54080-45.2",
            "openSUSE Tumbleweed:texlive-inlinebib-2021.186.svn22018-45.2",
            "openSUSE Tumbleweed:texlive-inlinebib-doc-2021.186.svn22018-45.2",
            "openSUSE Tumbleweed:texlive-inlinedef-2021.186.1.0svn15878-45.2",
            "openSUSE Tumbleweed:texlive-inlinedef-doc-2021.186.1.0svn15878-45.2",
            "openSUSE Tumbleweed:texlive-innerscript-2021.186.1.1svn57672-45.2",
            "openSUSE Tumbleweed:texlive-innerscript-doc-2021.186.1.1svn57672-45.2",
            "openSUSE Tumbleweed:texlive-inputenx-2021.186.1.12svn52986-45.2",
            "openSUSE Tumbleweed:texlive-inputenx-doc-2021.186.1.12svn52986-45.2",
            "openSUSE Tumbleweed:texlive-inputtrc-2021.186.0.0.3svn28019-45.2",
            "openSUSE Tumbleweed:texlive-inputtrc-doc-2021.186.0.0.3svn28019-45.2",
            "openSUSE Tumbleweed:texlive-inriafonts-2021.186.1.0svn54512-45.2",
            "openSUSE Tumbleweed:texlive-inriafonts-doc-2021.186.1.0svn54512-45.2",
            "openSUSE Tumbleweed:texlive-inriafonts-fonts-2021.186.1.0svn54512-45.2",
            "openSUSE Tumbleweed:texlive-insbox-2021.186.2.2svn34299-45.2",
            "openSUSE Tumbleweed:texlive-insbox-doc-2021.186.2.2svn34299-45.2",
            "openSUSE Tumbleweed:texlive-install-latex-guide-zh-cn-2021.186.2021.2.1svn57590-45.2",
            "openSUSE Tumbleweed:texlive-intcalc-2021.186.1.3svn53168-45.2",
            "openSUSE Tumbleweed:texlive-intcalc-doc-2021.186.1.3svn53168-45.2",
            "openSUSE Tumbleweed:texlive-inter-2021.186.svn57213-45.2",
            "openSUSE Tumbleweed:texlive-inter-doc-2021.186.svn57213-45.2",
            "openSUSE Tumbleweed:texlive-inter-fonts-2021.186.svn57213-45.2",
            "openSUSE Tumbleweed:texlive-interactiveworkbook-2021.186.svn15878-45.2",
            "openSUSE Tumbleweed:texlive-interactiveworkbook-doc-2021.186.svn15878-45.2",
            "openSUSE Tumbleweed:texlive-interchar-2021.186.0.0.2svn36312-45.2",
            "openSUSE Tumbleweed:texlive-interchar-doc-2021.186.0.0.2svn36312-45.2",
            "openSUSE Tumbleweed:texlive-interfaces-2021.186.3.1svn21474-45.2",
            "openSUSE Tumbleweed:texlive-interfaces-doc-2021.186.3.1svn21474-45.2",
            "openSUSE Tumbleweed:texlive-interpreter-2021.186.1.2svn27232-45.2",
            "openSUSE Tumbleweed:texlive-interpreter-doc-2021.186.1.2svn27232-45.2",
            "openSUSE Tumbleweed:texlive-interval-2021.186.0.0.4svn50265-45.2",
            "openSUSE Tumbleweed:texlive-interval-doc-2021.186.0.0.4svn50265-45.2",
            "openSUSE Tumbleweed:texlive-intopdf-2021.186.0.0.4.0svn58743-45.2",
            "openSUSE Tumbleweed:texlive-intopdf-doc-2021.186.0.0.4.0svn58743-45.2",
            "openSUSE Tumbleweed:texlive-intro-scientific-2021.186.5th_editionsvn15878-45.2",
            "openSUSE Tumbleweed:texlive-inversepath-2021.186.0.0.2svn15878-45.2",
            "openSUSE Tumbleweed:texlive-inversepath-doc-2021.186.0.0.2svn15878-45.2",
            "openSUSE Tumbleweed:texlive-invoice-2021.186.svn48359-45.2",
            "openSUSE Tumbleweed:texlive-invoice-class-2021.186.1.0svn49749-45.2",
            "openSUSE Tumbleweed:texlive-invoice-class-doc-2021.186.1.0svn49749-45.2",
            "openSUSE Tumbleweed:texlive-invoice-doc-2021.186.svn48359-45.2",
            "openSUSE Tumbleweed:texlive-invoice2-2021.186.svn46364-45.2",
            "openSUSE Tumbleweed:texlive-invoice2-doc-2021.186.svn46364-45.2",
            "openSUSE Tumbleweed:texlive-iodhbwm-2021.186.1.2.2svn57773-45.2",
            "openSUSE Tumbleweed:texlive-iodhbwm-doc-2021.186.1.2.2svn57773-45.2"
          ]
        }
      ],
      "CVSSScoreSets": {
        "BaseScore": "4.3",
        "Vector": "AV:L/AC:L/Au:S/C:P/I:P/A:P"
      }
    }
  ]
}