{
  "Title": "radare2-5.7.0-1.1 on GA media",
  "Tracking": {
    "ID": "openSUSE-SU-2024:12173-1",
    "Status": "Final",
    "Version": "1",
    "InitialReleaseDate": "2024-06-20T21:44:22Z",
    "CurrentReleaseDate": "2024-06-20T21:44:22Z",
    "RevisionHistory": [
      {
        "Number": "1",
        "Date": "2024-06-20T21:44:22Z",
        "Description": "current"
      }
    ]
  },
  "Notes": [
    {
      "Text": "radare2-5.7.0-1.1 on GA media",
      "Title": "Topic",
      "Type": "Summary"
    },
    {
      "Text": "These are all security issues fixed in the radare2-5.7.0-1.1 package on the GA media of openSUSE Tumbleweed.",
      "Title": "Details",
      "Type": "General"
    },
    {
      "Text": "The CVRF data is provided by SUSE under the Creative Commons License 4.0 with Attribution (CC-BY-4.0).",
      "Title": "Terms of Use",
      "Type": "Legal Disclaimer"
    },
    {
      "Text": "openSUSE-Tumbleweed-2024-12173",
      "Title": "Patchnames",
      "Type": "Details"
    }
  ],
  "ProductTree": {
    "Relationships": [
      {
        "ProductReference": "radare2-5.7.0-1.1",
        "RelatesToProductReference": "openSUSE Tumbleweed",
        "RelationType": "Default Component Of"
      },
      {
        "ProductReference": "radare2-devel-5.7.0-1.1",
        "RelatesToProductReference": "openSUSE Tumbleweed",
        "RelationType": "Default Component Of"
      },
      {
        "ProductReference": "radare2-zsh-completion-5.7.0-1.1",
        "RelatesToProductReference": "openSUSE Tumbleweed",
        "RelationType": "Default Component Of"
      }
    ]
  },
  "References": [
    {
      "URL": "https://www.suse.com/support/security/rating/",
      "Description": "SUSE Security Ratings"
    },
    {
      "URL": "https://www.suse.com/security/cve/CVE-2022-0139/",
      "Description": "SUSE CVE CVE-2022-0139 page"
    },
    {
      "URL": "https://www.suse.com/security/cve/CVE-2022-0173/",
      "Description": "SUSE CVE CVE-2022-0173 page"
    },
    {
      "URL": "https://www.suse.com/security/cve/CVE-2022-0419/",
      "Description": "SUSE CVE CVE-2022-0419 page"
    },
    {
      "URL": "https://www.suse.com/security/cve/CVE-2022-0476/",
      "Description": "SUSE CVE CVE-2022-0476 page"
    },
    {
      "URL": "https://www.suse.com/security/cve/CVE-2022-0518/",
      "Description": "SUSE CVE CVE-2022-0518 page"
    },
    {
      "URL": "https://www.suse.com/security/cve/CVE-2022-0519/",
      "Description": "SUSE CVE CVE-2022-0519 page"
    },
    {
      "URL": "https://www.suse.com/security/cve/CVE-2022-0520/",
      "Description": "SUSE CVE CVE-2022-0520 page"
    },
    {
      "URL": "https://www.suse.com/security/cve/CVE-2022-0521/",
      "Description": "SUSE CVE CVE-2022-0521 page"
    },
    {
      "URL": "https://www.suse.com/security/cve/CVE-2022-0522/",
      "Description": "SUSE CVE CVE-2022-0522 page"
    },
    {
      "URL": "https://www.suse.com/security/cve/CVE-2022-0523/",
      "Description": "SUSE CVE CVE-2022-0523 page"
    },
    {
      "URL": "https://www.suse.com/security/cve/CVE-2022-0559/",
      "Description": "SUSE CVE CVE-2022-0559 page"
    },
    {
      "URL": "https://www.suse.com/security/cve/CVE-2022-0676/",
      "Description": "SUSE CVE CVE-2022-0676 page"
    },
    {
      "URL": "https://www.suse.com/security/cve/CVE-2022-0695/",
      "Description": "SUSE CVE CVE-2022-0695 page"
    },
    {
      "URL": "https://www.suse.com/security/cve/CVE-2022-0712/",
      "Description": "SUSE CVE CVE-2022-0712 page"
    },
    {
      "URL": "https://www.suse.com/security/cve/CVE-2022-0713/",
      "Description": "SUSE CVE CVE-2022-0713 page"
    },
    {
      "URL": "https://www.suse.com/security/cve/CVE-2022-0849/",
      "Description": "SUSE CVE CVE-2022-0849 page"
    },
    {
      "URL": "https://www.suse.com/security/cve/CVE-2022-1031/",
      "Description": "SUSE CVE CVE-2022-1031 page"
    },
    {
      "URL": "https://www.suse.com/security/cve/CVE-2022-1052/",
      "Description": "SUSE CVE CVE-2022-1052 page"
    },
    {
      "URL": "https://www.suse.com/security/cve/CVE-2022-1061/",
      "Description": "SUSE CVE CVE-2022-1061 page"
    },
    {
      "URL": "https://www.suse.com/security/cve/CVE-2022-1207/",
      "Description": "SUSE CVE CVE-2022-1207 page"
    },
    {
      "URL": "https://www.suse.com/security/cve/CVE-2022-1237/",
      "Description": "SUSE CVE CVE-2022-1237 page"
    },
    {
      "URL": "https://www.suse.com/security/cve/CVE-2022-1238/",
      "Description": "SUSE CVE CVE-2022-1238 page"
    },
    {
      "URL": "https://www.suse.com/security/cve/CVE-2022-1240/",
      "Description": "SUSE CVE CVE-2022-1240 page"
    },
    {
      "URL": "https://www.suse.com/security/cve/CVE-2022-1244/",
      "Description": "SUSE CVE CVE-2022-1244 page"
    },
    {
      "URL": "https://www.suse.com/security/cve/CVE-2022-1283/",
      "Description": "SUSE CVE CVE-2022-1283 page"
    },
    {
      "URL": "https://www.suse.com/security/cve/CVE-2022-1284/",
      "Description": "SUSE CVE CVE-2022-1284 page"
    },
    {
      "URL": "https://www.suse.com/security/cve/CVE-2022-1296/",
      "Description": "SUSE CVE CVE-2022-1296 page"
    },
    {
      "URL": "https://www.suse.com/security/cve/CVE-2022-1297/",
      "Description": "SUSE CVE CVE-2022-1297 page"
    },
    {
      "URL": "https://www.suse.com/security/cve/CVE-2022-1382/",
      "Description": "SUSE CVE CVE-2022-1382 page"
    },
    {
      "URL": "https://www.suse.com/security/cve/CVE-2022-1383/",
      "Description": "SUSE CVE CVE-2022-1383 page"
    },
    {
      "URL": "https://www.suse.com/security/cve/CVE-2022-1437/",
      "Description": "SUSE CVE CVE-2022-1437 page"
    },
    {
      "URL": "https://www.suse.com/security/cve/CVE-2022-1444/",
      "Description": "SUSE CVE CVE-2022-1444 page"
    },
    {
      "URL": "https://www.suse.com/security/cve/CVE-2022-1451/",
      "Description": "SUSE CVE CVE-2022-1451 page"
    },
    {
      "URL": "https://www.suse.com/security/cve/CVE-2022-1452/",
      "Description": "SUSE CVE CVE-2022-1452 page"
    },
    {
      "URL": "https://www.suse.com/security/cve/CVE-2022-1649/",
      "Description": "SUSE CVE CVE-2022-1649 page"
    },
    {
      "URL": "https://www.suse.com/security/cve/CVE-2022-1714/",
      "Description": "SUSE CVE CVE-2022-1714 page"
    },
    {
      "URL": "https://www.suse.com/security/cve/CVE-2022-1809/",
      "Description": "SUSE CVE CVE-2022-1809 page"
    },
    {
      "URL": "https://www.suse.com/security/cve/CVE-2022-1899/",
      "Description": "SUSE CVE CVE-2022-1899 page"
    }
  ],
  "Vulnerabilities": [
    {
      "CVE": "CVE-2022-0139",
      "Description": "Use After Free in GitHub repository radareorg/radare2 prior to 5.6.0.",
      "Threats": [
        {
          "Type": "Impact",
          "Severity": "moderate"
        }
      ],
      "References": [
        {
          "URL": "https://www.suse.com/security/cve/CVE-2022-0139.html",
          "Description": "CVE-2022-0139"
        },
        {
          "URL": "https://bugzilla.suse.com/1195713",
          "Description": "SUSE Bug 1195713"
        }
      ],
      "ProductStatuses": [
        {
          "Type": "Fixed",
          "ProductID": [
            "openSUSE Tumbleweed:radare2-5.7.0-1.1",
            "openSUSE Tumbleweed:radare2-devel-5.7.0-1.1",
            "openSUSE Tumbleweed:radare2-zsh-completion-5.7.0-1.1"
          ]
        }
      ],
      "CVSSScoreSets": {}
    },
    {
      "CVE": "CVE-2022-0173",
      "Description": "radare2 is vulnerable to Out-of-bounds Read",
      "Threats": [
        {
          "Type": "Impact",
          "Severity": "moderate"
        }
      ],
      "References": [
        {
          "URL": "https://www.suse.com/security/cve/CVE-2022-0173.html",
          "Description": "CVE-2022-0173"
        },
        {
          "URL": "https://bugzilla.suse.com/1194600",
          "Description": "SUSE Bug 1194600"
        }
      ],
      "ProductStatuses": [
        {
          "Type": "Fixed",
          "ProductID": [
            "openSUSE Tumbleweed:radare2-5.7.0-1.1",
            "openSUSE Tumbleweed:radare2-devel-5.7.0-1.1",
            "openSUSE Tumbleweed:radare2-zsh-completion-5.7.0-1.1"
          ]
        }
      ],
      "CVSSScoreSets": {}
    },
    {
      "CVE": "CVE-2022-0419",
      "Description": "NULL Pointer Dereference in GitHub repository radareorg/radare2 prior to 5.6.0.",
      "Threats": [
        {
          "Type": "Impact",
          "Severity": "moderate"
        }
      ],
      "References": [
        {
          "URL": "https://www.suse.com/security/cve/CVE-2022-0419.html",
          "Description": "CVE-2022-0419"
        },
        {
          "URL": "https://bugzilla.suse.com/1195444",
          "Description": "SUSE Bug 1195444"
        }
      ],
      "ProductStatuses": [
        {
          "Type": "Fixed",
          "ProductID": [
            "openSUSE Tumbleweed:radare2-5.7.0-1.1",
            "openSUSE Tumbleweed:radare2-devel-5.7.0-1.1",
            "openSUSE Tumbleweed:radare2-zsh-completion-5.7.0-1.1"
          ]
        }
      ],
      "CVSSScoreSets": {}
    },
    {
      "CVE": "CVE-2022-0476",
      "Description": "Denial of Service in GitHub repository radareorg/radare2 prior to 5.6.4.",
      "Threats": [
        {
          "Type": "Impact",
          "Severity": "moderate"
        }
      ],
      "References": [
        {
          "URL": "https://www.suse.com/security/cve/CVE-2022-0476.html",
          "Description": "CVE-2022-0476"
        },
        {
          "URL": "https://bugzilla.suse.com/1196414",
          "Description": "SUSE Bug 1196414"
        }
      ],
      "ProductStatuses": [
        {
          "Type": "Fixed",
          "ProductID": [
            "openSUSE Tumbleweed:radare2-5.7.0-1.1",
            "openSUSE Tumbleweed:radare2-devel-5.7.0-1.1",
            "openSUSE Tumbleweed:radare2-zsh-completion-5.7.0-1.1"
          ]
        }
      ],
      "CVSSScoreSets": {}
    },
    {
      "CVE": "CVE-2022-0518",
      "Description": "Heap-based Buffer Overflow in GitHub repository radareorg/radare2 prior to 5.6.2.",
      "Threats": [
        {
          "Type": "Impact",
          "Severity": "moderate"
        }
      ],
      "References": [
        {
          "URL": "https://www.suse.com/security/cve/CVE-2022-0518.html",
          "Description": "CVE-2022-0518"
        },
        {
          "URL": "https://bugzilla.suse.com/1195746",
          "Description": "SUSE Bug 1195746"
        }
      ],
      "ProductStatuses": [
        {
          "Type": "Fixed",
          "ProductID": [
            "openSUSE Tumbleweed:radare2-5.7.0-1.1",
            "openSUSE Tumbleweed:radare2-devel-5.7.0-1.1",
            "openSUSE Tumbleweed:radare2-zsh-completion-5.7.0-1.1"
          ]
        }
      ],
      "CVSSScoreSets": {}
    },
    {
      "CVE": "CVE-2022-0519",
      "Description": "Buffer Access with Incorrect Length Value in GitHub repository radareorg/radare2 prior to 5.6.2.",
      "Threats": [
        {
          "Type": "Impact",
          "Severity": "moderate"
        }
      ],
      "References": [
        {
          "URL": "https://www.suse.com/security/cve/CVE-2022-0519.html",
          "Description": "CVE-2022-0519"
        },
        {
          "URL": "https://bugzilla.suse.com/1195761",
          "Description": "SUSE Bug 1195761"
        }
      ],
      "ProductStatuses": [
        {
          "Type": "Fixed",
          "ProductID": [
            "openSUSE Tumbleweed:radare2-5.7.0-1.1",
            "openSUSE Tumbleweed:radare2-devel-5.7.0-1.1",
            "openSUSE Tumbleweed:radare2-zsh-completion-5.7.0-1.1"
          ]
        }
      ],
      "CVSSScoreSets": {}
    },
    {
      "CVE": "CVE-2022-0520",
      "Description": "Use After Free in NPM radare2.js prior to 5.6.2.",
      "Threats": [
        {
          "Type": "Impact",
          "Severity": "moderate"
        }
      ],
      "References": [
        {
          "URL": "https://www.suse.com/security/cve/CVE-2022-0520.html",
          "Description": "CVE-2022-0520"
        },
        {
          "URL": "https://bugzilla.suse.com/1195741",
          "Description": "SUSE Bug 1195741"
        }
      ],
      "ProductStatuses": [
        {
          "Type": "Fixed",
          "ProductID": [
            "openSUSE Tumbleweed:radare2-5.7.0-1.1",
            "openSUSE Tumbleweed:radare2-devel-5.7.0-1.1",
            "openSUSE Tumbleweed:radare2-zsh-completion-5.7.0-1.1"
          ]
        }
      ],
      "CVSSScoreSets": {}
    },
    {
      "CVE": "CVE-2022-0521",
      "Description": "Access of Memory Location After End of Buffer in GitHub repository radareorg/radare2 prior to 5.6.2.",
      "Threats": [
        {
          "Type": "Impact",
          "Severity": "moderate"
        }
      ],
      "References": [
        {
          "URL": "https://www.suse.com/security/cve/CVE-2022-0521.html",
          "Description": "CVE-2022-0521"
        },
        {
          "URL": "https://bugzilla.suse.com/1195760",
          "Description": "SUSE Bug 1195760"
        }
      ],
      "ProductStatuses": [
        {
          "Type": "Fixed",
          "ProductID": [
            "openSUSE Tumbleweed:radare2-5.7.0-1.1",
            "openSUSE Tumbleweed:radare2-devel-5.7.0-1.1",
            "openSUSE Tumbleweed:radare2-zsh-completion-5.7.0-1.1"
          ]
        }
      ],
      "CVSSScoreSets": {}
    },
    {
      "CVE": "CVE-2022-0522",
      "Description": "Access of Memory Location Before Start of Buffer in NPM radare2.js prior to 5.6.2.",
      "Threats": [
        {
          "Type": "Impact",
          "Severity": "moderate"
        }
      ],
      "References": [
        {
          "URL": "https://www.suse.com/security/cve/CVE-2022-0522.html",
          "Description": "CVE-2022-0522"
        },
        {
          "URL": "https://bugzilla.suse.com/1195742",
          "Description": "SUSE Bug 1195742"
        }
      ],
      "ProductStatuses": [
        {
          "Type": "Fixed",
          "ProductID": [
            "openSUSE Tumbleweed:radare2-5.7.0-1.1",
            "openSUSE Tumbleweed:radare2-devel-5.7.0-1.1",
            "openSUSE Tumbleweed:radare2-zsh-completion-5.7.0-1.1"
          ]
        }
      ],
      "CVSSScoreSets": {}
    },
    {
      "CVE": "CVE-2022-0523",
      "Description": "Use After Free in GitHub repository radareorg/radare2 prior to 5.6.2.",
      "Threats": [
        {
          "Type": "Impact",
          "Severity": "moderate"
        }
      ],
      "References": [
        {
          "URL": "https://www.suse.com/security/cve/CVE-2022-0523.html",
          "Description": "CVE-2022-0523"
        },
        {
          "URL": "https://bugzilla.suse.com/1195720",
          "Description": "SUSE Bug 1195720"
        }
      ],
      "ProductStatuses": [
        {
          "Type": "Fixed",
          "ProductID": [
            "openSUSE Tumbleweed:radare2-5.7.0-1.1",
            "openSUSE Tumbleweed:radare2-devel-5.7.0-1.1",
            "openSUSE Tumbleweed:radare2-zsh-completion-5.7.0-1.1"
          ]
        }
      ],
      "CVSSScoreSets": {}
    },
    {
      "CVE": "CVE-2022-0559",
      "Description": "Use After Free in GitHub repository radareorg/radare2 prior to 5.6.2.",
      "Threats": [
        {
          "Type": "Impact",
          "Severity": "moderate"
        }
      ],
      "References": [
        {
          "URL": "https://www.suse.com/security/cve/CVE-2022-0559.html",
          "Description": "CVE-2022-0559"
        },
        {
          "URL": "https://bugzilla.suse.com/1196052",
          "Description": "SUSE Bug 1196052"
        }
      ],
      "ProductStatuses": [
        {
          "Type": "Fixed",
          "ProductID": [
            "openSUSE Tumbleweed:radare2-5.7.0-1.1",
            "openSUSE Tumbleweed:radare2-devel-5.7.0-1.1",
            "openSUSE Tumbleweed:radare2-zsh-completion-5.7.0-1.1"
          ]
        }
      ],
      "CVSSScoreSets": {}
    },
    {
      "CVE": "CVE-2022-0676",
      "Description": "Heap-based Buffer Overflow in GitHub repository radareorg/radare2 prior to 5.6.4.",
      "Threats": [
        {
          "Type": "Impact",
          "Severity": "moderate"
        }
      ],
      "References": [
        {
          "URL": "https://www.suse.com/security/cve/CVE-2022-0676.html",
          "Description": "CVE-2022-0676"
        },
        {
          "URL": "https://bugzilla.suse.com/1196345",
          "Description": "SUSE Bug 1196345"
        }
      ],
      "ProductStatuses": [
        {
          "Type": "Fixed",
          "ProductID": [
            "openSUSE Tumbleweed:radare2-5.7.0-1.1",
            "openSUSE Tumbleweed:radare2-devel-5.7.0-1.1",
            "openSUSE Tumbleweed:radare2-zsh-completion-5.7.0-1.1"
          ]
        }
      ],
      "CVSSScoreSets": {}
    },
    {
      "CVE": "CVE-2022-0695",
      "Description": "Denial of Service in GitHub repository radareorg/radare2 prior to 5.6.4.",
      "Threats": [
        {
          "Type": "Impact",
          "Severity": "moderate"
        }
      ],
      "References": [
        {
          "URL": "https://www.suse.com/security/cve/CVE-2022-0695.html",
          "Description": "CVE-2022-0695"
        },
        {
          "URL": "https://bugzilla.suse.com/1196484",
          "Description": "SUSE Bug 1196484"
        }
      ],
      "ProductStatuses": [
        {
          "Type": "Fixed",
          "ProductID": [
            "openSUSE Tumbleweed:radare2-5.7.0-1.1",
            "openSUSE Tumbleweed:radare2-devel-5.7.0-1.1",
            "openSUSE Tumbleweed:radare2-zsh-completion-5.7.0-1.1"
          ]
        }
      ],
      "CVSSScoreSets": {}
    },
    {
      "CVE": "CVE-2022-0712",
      "Description": "NULL Pointer Dereference in GitHub repository radareorg/radare2 prior to 5.6.4.",
      "Threats": [
        {
          "Type": "Impact",
          "Severity": "moderate"
        }
      ],
      "References": [
        {
          "URL": "https://www.suse.com/security/cve/CVE-2022-0712.html",
          "Description": "CVE-2022-0712"
        },
        {
          "URL": "https://bugzilla.suse.com/1196320",
          "Description": "SUSE Bug 1196320"
        }
      ],
      "ProductStatuses": [
        {
          "Type": "Fixed",
          "ProductID": [
            "openSUSE Tumbleweed:radare2-5.7.0-1.1",
            "openSUSE Tumbleweed:radare2-devel-5.7.0-1.1",
            "openSUSE Tumbleweed:radare2-zsh-completion-5.7.0-1.1"
          ]
        }
      ],
      "CVSSScoreSets": {}
    },
    {
      "CVE": "CVE-2022-0713",
      "Description": "Heap-based Buffer Overflow in GitHub repository radareorg/radare2 prior to 5.6.4.",
      "Threats": [
        {
          "Type": "Impact",
          "Severity": "moderate"
        }
      ],
      "References": [
        {
          "URL": "https://www.suse.com/security/cve/CVE-2022-0713.html",
          "Description": "CVE-2022-0713"
        },
        {
          "URL": "https://bugzilla.suse.com/1196319",
          "Description": "SUSE Bug 1196319"
        }
      ],
      "ProductStatuses": [
        {
          "Type": "Fixed",
          "ProductID": [
            "openSUSE Tumbleweed:radare2-5.7.0-1.1",
            "openSUSE Tumbleweed:radare2-devel-5.7.0-1.1",
            "openSUSE Tumbleweed:radare2-zsh-completion-5.7.0-1.1"
          ]
        }
      ],
      "CVSSScoreSets": {}
    },
    {
      "CVE": "CVE-2022-0849",
      "Description": "Use After Free in r_reg_get_name_idx in GitHub repository radareorg/radare2 prior to 5.6.6.",
      "Threats": [
        {
          "Type": "Impact",
          "Severity": "moderate"
        }
      ],
      "References": [
        {
          "URL": "https://www.suse.com/security/cve/CVE-2022-0849.html",
          "Description": "CVE-2022-0849"
        },
        {
          "URL": "https://bugzilla.suse.com/1196819",
          "Description": "SUSE Bug 1196819"
        }
      ],
      "ProductStatuses": [
        {
          "Type": "Fixed",
          "ProductID": [
            "openSUSE Tumbleweed:radare2-5.7.0-1.1",
            "openSUSE Tumbleweed:radare2-devel-5.7.0-1.1",
            "openSUSE Tumbleweed:radare2-zsh-completion-5.7.0-1.1"
          ]
        }
      ],
      "CVSSScoreSets": {}
    },
    {
      "CVE": "CVE-2022-1031",
      "Description": "Use After Free in op_is_set_bp in GitHub repository radareorg/radare2 prior to 5.6.6.",
      "Threats": [
        {
          "Type": "Impact",
          "Severity": "moderate"
        }
      ],
      "References": [
        {
          "URL": "https://www.suse.com/security/cve/CVE-2022-1031.html",
          "Description": "CVE-2022-1031"
        },
        {
          "URL": "https://bugzilla.suse.com/1197420",
          "Description": "SUSE Bug 1197420"
        }
      ],
      "ProductStatuses": [
        {
          "Type": "Fixed",
          "ProductID": [
            "openSUSE Tumbleweed:radare2-5.7.0-1.1",
            "openSUSE Tumbleweed:radare2-devel-5.7.0-1.1",
            "openSUSE Tumbleweed:radare2-zsh-completion-5.7.0-1.1"
          ]
        }
      ],
      "CVSSScoreSets": {}
    },
    {
      "CVE": "CVE-2022-1052",
      "Description": "Heap Buffer Overflow in iterate_chained_fixups in GitHub repository radareorg/radare2 prior to 5.6.6.",
      "Threats": [
        {
          "Type": "Impact",
          "Severity": "moderate"
        }
      ],
      "References": [
        {
          "URL": "https://www.suse.com/security/cve/CVE-2022-1052.html",
          "Description": "CVE-2022-1052"
        },
        {
          "URL": "https://bugzilla.suse.com/1197509",
          "Description": "SUSE Bug 1197509"
        }
      ],
      "ProductStatuses": [
        {
          "Type": "Fixed",
          "ProductID": [
            "openSUSE Tumbleweed:radare2-5.7.0-1.1",
            "openSUSE Tumbleweed:radare2-devel-5.7.0-1.1",
            "openSUSE Tumbleweed:radare2-zsh-completion-5.7.0-1.1"
          ]
        }
      ],
      "CVSSScoreSets": {}
    },
    {
      "CVE": "CVE-2022-1061",
      "Description": "Heap Buffer Overflow in parseDragons in GitHub repository radareorg/radare2 prior to 5.6.8.",
      "Threats": [
        {
          "Type": "Impact",
          "Severity": "moderate"
        }
      ],
      "References": [
        {
          "URL": "https://www.suse.com/security/cve/CVE-2022-1061.html",
          "Description": "CVE-2022-1061"
        },
        {
          "URL": "https://bugzilla.suse.com/1197508",
          "Description": "SUSE Bug 1197508"
        }
      ],
      "ProductStatuses": [
        {
          "Type": "Fixed",
          "ProductID": [
            "openSUSE Tumbleweed:radare2-5.7.0-1.1",
            "openSUSE Tumbleweed:radare2-devel-5.7.0-1.1",
            "openSUSE Tumbleweed:radare2-zsh-completion-5.7.0-1.1"
          ]
        }
      ],
      "CVSSScoreSets": {}
    },
    {
      "CVE": "CVE-2022-1207",
      "Description": "Out-of-bounds read in GitHub repository radareorg/radare2 prior to 5.6.8. This vulnerability allows attackers to read sensitive information from outside the allocated buffer boundary.",
      "Threats": [
        {
          "Type": "Impact",
          "Severity": "moderate"
        }
      ],
      "References": [
        {
          "URL": "https://www.suse.com/security/cve/CVE-2022-1207.html",
          "Description": "CVE-2022-1207"
        },
        {
          "URL": "https://bugzilla.suse.com/1197991",
          "Description": "SUSE Bug 1197991"
        }
      ],
      "ProductStatuses": [
        {
          "Type": "Fixed",
          "ProductID": [
            "openSUSE Tumbleweed:radare2-5.7.0-1.1",
            "openSUSE Tumbleweed:radare2-devel-5.7.0-1.1",
            "openSUSE Tumbleweed:radare2-zsh-completion-5.7.0-1.1"
          ]
        }
      ],
      "CVSSScoreSets": {}
    },
    {
      "CVE": "CVE-2022-1237",
      "Description": "Improper Validation of Array Index in GitHub repository radareorg/radare2 prior to 5.6.8. This vulnerability is heap overflow and may be exploitable. For more general description of heap buffer overflow, see [CWE](https://cwe.mitre.org/data/definitions/122.html).",
      "Threats": [
        {
          "Type": "Impact",
          "Severity": "moderate"
        }
      ],
      "References": [
        {
          "URL": "https://www.suse.com/security/cve/CVE-2022-1237.html",
          "Description": "CVE-2022-1237"
        },
        {
          "URL": "https://bugzilla.suse.com/1198185",
          "Description": "SUSE Bug 1198185"
        }
      ],
      "ProductStatuses": [
        {
          "Type": "Fixed",
          "ProductID": [
            "openSUSE Tumbleweed:radare2-5.7.0-1.1",
            "openSUSE Tumbleweed:radare2-devel-5.7.0-1.1",
            "openSUSE Tumbleweed:radare2-zsh-completion-5.7.0-1.1"
          ]
        }
      ],
      "CVSSScoreSets": {}
    },
    {
      "CVE": "CVE-2022-1238",
      "Description": "Out-of-bounds Write in libr/bin/format/ne/ne.c in GitHub repository radareorg/radare2 prior to 5.6.8. This vulnerability is heap overflow and may be exploitable. For more general description of heap buffer overflow, see [CWE](https://cwe.mitre.org/data/definitions/122.html).",
      "Threats": [
        {
          "Type": "Impact",
          "Severity": "moderate"
        }
      ],
      "References": [
        {
          "URL": "https://www.suse.com/security/cve/CVE-2022-1238.html",
          "Description": "CVE-2022-1238"
        },
        {
          "URL": "https://bugzilla.suse.com/1198186",
          "Description": "SUSE Bug 1198186"
        }
      ],
      "ProductStatuses": [
        {
          "Type": "Fixed",
          "ProductID": [
            "openSUSE Tumbleweed:radare2-5.7.0-1.1",
            "openSUSE Tumbleweed:radare2-devel-5.7.0-1.1",
            "openSUSE Tumbleweed:radare2-zsh-completion-5.7.0-1.1"
          ]
        }
      ],
      "CVSSScoreSets": {}
    },
    {
      "CVE": "CVE-2022-1240",
      "Description": "Heap buffer overflow in libr/bin/format/mach0/mach0.c in GitHub repository radareorg/radare2 prior to 5.8.6. If address sanitizer is disabled during the compiling, the program should executes into the `r_str_ncpy` function. Therefore I think it is very likely to be exploitable. For more general description of heap buffer overflow, see [CWE](https://cwe.mitre.org/data/definitions/122.html).",
      "Threats": [
        {
          "Type": "Impact",
          "Severity": "moderate"
        }
      ],
      "References": [
        {
          "URL": "https://www.suse.com/security/cve/CVE-2022-1240.html",
          "Description": "CVE-2022-1240"
        },
        {
          "URL": "https://bugzilla.suse.com/1198187",
          "Description": "SUSE Bug 1198187"
        }
      ],
      "ProductStatuses": [
        {
          "Type": "Fixed",
          "ProductID": [
            "openSUSE Tumbleweed:radare2-5.7.0-1.1",
            "openSUSE Tumbleweed:radare2-devel-5.7.0-1.1",
            "openSUSE Tumbleweed:radare2-zsh-completion-5.7.0-1.1"
          ]
        }
      ],
      "CVSSScoreSets": {}
    },
    {
      "CVE": "CVE-2022-1244",
      "Description": "heap-buffer-overflow in GitHub repository radareorg/radare2 prior to 5.6.8. This vulnerability is capable of inducing denial of service.",
      "Threats": [
        {
          "Type": "Impact",
          "Severity": "moderate"
        }
      ],
      "References": [
        {
          "URL": "https://www.suse.com/security/cve/CVE-2022-1244.html",
          "Description": "CVE-2022-1244"
        },
        {
          "URL": "https://bugzilla.suse.com/1198132",
          "Description": "SUSE Bug 1198132"
        }
      ],
      "ProductStatuses": [
        {
          "Type": "Fixed",
          "ProductID": [
            "openSUSE Tumbleweed:radare2-5.7.0-1.1",
            "openSUSE Tumbleweed:radare2-devel-5.7.0-1.1",
            "openSUSE Tumbleweed:radare2-zsh-completion-5.7.0-1.1"
          ]
        }
      ],
      "CVSSScoreSets": {}
    },
    {
      "CVE": "CVE-2022-1283",
      "Description": "NULL Pointer Dereference in r_bin_ne_get_entrypoints function in GitHub repository radareorg/radare2 prior to 5.6.8. This vulnerability allows attackers to cause a denial of service (application crash).",
      "Threats": [
        {
          "Type": "Impact",
          "Severity": "moderate"
        }
      ],
      "References": [
        {
          "URL": "https://www.suse.com/security/cve/CVE-2022-1283.html",
          "Description": "CVE-2022-1283"
        },
        {
          "URL": "https://bugzilla.suse.com/1198291",
          "Description": "SUSE Bug 1198291"
        }
      ],
      "ProductStatuses": [
        {
          "Type": "Fixed",
          "ProductID": [
            "openSUSE Tumbleweed:radare2-5.7.0-1.1",
            "openSUSE Tumbleweed:radare2-devel-5.7.0-1.1",
            "openSUSE Tumbleweed:radare2-zsh-completion-5.7.0-1.1"
          ]
        }
      ],
      "CVSSScoreSets": {}
    },
    {
      "CVE": "CVE-2022-1284",
      "Description": "heap-use-after-free in GitHub repository radareorg/radare2 prior to 5.6.8. This vulnerability is capable of inducing denial of service.",
      "Threats": [
        {
          "Type": "Impact",
          "Severity": "moderate"
        }
      ],
      "References": [
        {
          "URL": "https://www.suse.com/security/cve/CVE-2022-1284.html",
          "Description": "CVE-2022-1284"
        },
        {
          "URL": "https://bugzilla.suse.com/1198292",
          "Description": "SUSE Bug 1198292"
        }
      ],
      "ProductStatuses": [
        {
          "Type": "Fixed",
          "ProductID": [
            "openSUSE Tumbleweed:radare2-5.7.0-1.1",
            "openSUSE Tumbleweed:radare2-devel-5.7.0-1.1",
            "openSUSE Tumbleweed:radare2-zsh-completion-5.7.0-1.1"
          ]
        }
      ],
      "CVSSScoreSets": {}
    },
    {
      "CVE": "CVE-2022-1296",
      "Description": "Out-of-bounds read in `r_bin_ne_get_relocs` function in GitHub repository radareorg/radare2 prior to 5.6.8. This vulnerability may allow attackers to read sensitive information or cause a crash.",
      "Threats": [
        {
          "Type": "Impact",
          "Severity": "moderate"
        }
      ],
      "References": [
        {
          "URL": "https://www.suse.com/security/cve/CVE-2022-1296.html",
          "Description": "CVE-2022-1296"
        },
        {
          "URL": "https://bugzilla.suse.com/1198375",
          "Description": "SUSE Bug 1198375"
        }
      ],
      "ProductStatuses": [
        {
          "Type": "Fixed",
          "ProductID": [
            "openSUSE Tumbleweed:radare2-5.7.0-1.1",
            "openSUSE Tumbleweed:radare2-devel-5.7.0-1.1",
            "openSUSE Tumbleweed:radare2-zsh-completion-5.7.0-1.1"
          ]
        }
      ],
      "CVSSScoreSets": {}
    },
    {
      "CVE": "CVE-2022-1297",
      "Description": "Out-of-bounds Read in r_bin_ne_get_entrypoints function in GitHub repository radareorg/radare2 prior to 5.6.8. This vulnerability may allow attackers to read sensitive information or cause a crash.",
      "Threats": [
        {
          "Type": "Impact",
          "Severity": "moderate"
        }
      ],
      "References": [
        {
          "URL": "https://www.suse.com/security/cve/CVE-2022-1297.html",
          "Description": "CVE-2022-1297"
        },
        {
          "URL": "https://bugzilla.suse.com/1198376",
          "Description": "SUSE Bug 1198376"
        }
      ],
      "ProductStatuses": [
        {
          "Type": "Fixed",
          "ProductID": [
            "openSUSE Tumbleweed:radare2-5.7.0-1.1",
            "openSUSE Tumbleweed:radare2-devel-5.7.0-1.1",
            "openSUSE Tumbleweed:radare2-zsh-completion-5.7.0-1.1"
          ]
        }
      ],
      "CVSSScoreSets": {}
    },
    {
      "CVE": "CVE-2022-1382",
      "Description": "NULL Pointer Dereference in GitHub repository radareorg/radare2 prior to 5.6.8. This vulnerability is capable of making the radare2 crash, thus affecting the availability of the system.",
      "Threats": [
        {
          "Type": "Impact",
          "Severity": "moderate"
        }
      ],
      "References": [
        {
          "URL": "https://www.suse.com/security/cve/CVE-2022-1382.html",
          "Description": "CVE-2022-1382"
        },
        {
          "URL": "https://bugzilla.suse.com/1198592",
          "Description": "SUSE Bug 1198592"
        }
      ],
      "ProductStatuses": [
        {
          "Type": "Fixed",
          "ProductID": [
            "openSUSE Tumbleweed:radare2-5.7.0-1.1",
            "openSUSE Tumbleweed:radare2-devel-5.7.0-1.1",
            "openSUSE Tumbleweed:radare2-zsh-completion-5.7.0-1.1"
          ]
        }
      ],
      "CVSSScoreSets": {}
    },
    {
      "CVE": "CVE-2022-1383",
      "Description": "Heap-based Buffer Overflow in GitHub repository radareorg/radare2 prior to 5.6.8. The bug causes the program reads data past the end of the intented buffer. Typically, this can allow attackers to read sensitive information from other memory locations or cause a crash.",
      "Threats": [
        {
          "Type": "Impact",
          "Severity": "moderate"
        }
      ],
      "References": [
        {
          "URL": "https://www.suse.com/security/cve/CVE-2022-1383.html",
          "Description": "CVE-2022-1383"
        },
        {
          "URL": "https://bugzilla.suse.com/1198593",
          "Description": "SUSE Bug 1198593"
        }
      ],
      "ProductStatuses": [
        {
          "Type": "Fixed",
          "ProductID": [
            "openSUSE Tumbleweed:radare2-5.7.0-1.1",
            "openSUSE Tumbleweed:radare2-devel-5.7.0-1.1",
            "openSUSE Tumbleweed:radare2-zsh-completion-5.7.0-1.1"
          ]
        }
      ],
      "CVSSScoreSets": {}
    },
    {
      "CVE": "CVE-2022-1437",
      "Description": "Heap-based Buffer Overflow in GitHub repository radareorg/radare2 prior to 5.7.0. The bug causes the program reads data past the end of the intented buffer. Typically, this can allow attackers to read sensitive information from other memory locations or cause a crash.",
      "Threats": [
        {
          "Type": "Impact",
          "Severity": "moderate"
        }
      ],
      "References": [
        {
          "URL": "https://www.suse.com/security/cve/CVE-2022-1437.html",
          "Description": "CVE-2022-1437"
        },
        {
          "URL": "https://bugzilla.suse.com/1198804",
          "Description": "SUSE Bug 1198804"
        }
      ],
      "ProductStatuses": [
        {
          "Type": "Fixed",
          "ProductID": [
            "openSUSE Tumbleweed:radare2-5.7.0-1.1",
            "openSUSE Tumbleweed:radare2-devel-5.7.0-1.1",
            "openSUSE Tumbleweed:radare2-zsh-completion-5.7.0-1.1"
          ]
        }
      ],
      "CVSSScoreSets": {}
    },
    {
      "CVE": "CVE-2022-1444",
      "Description": "heap-use-after-free in GitHub repository radareorg/radare2 prior to 5.7.0. This vulnerability is capable of inducing denial of service.",
      "Threats": [
        {
          "Type": "Impact",
          "Severity": "moderate"
        }
      ],
      "References": [
        {
          "URL": "https://www.suse.com/security/cve/CVE-2022-1444.html",
          "Description": "CVE-2022-1444"
        },
        {
          "URL": "https://bugzilla.suse.com/1198805",
          "Description": "SUSE Bug 1198805"
        }
      ],
      "ProductStatuses": [
        {
          "Type": "Fixed",
          "ProductID": [
            "openSUSE Tumbleweed:radare2-5.7.0-1.1",
            "openSUSE Tumbleweed:radare2-devel-5.7.0-1.1",
            "openSUSE Tumbleweed:radare2-zsh-completion-5.7.0-1.1"
          ]
        }
      ],
      "CVSSScoreSets": {}
    },
    {
      "CVE": "CVE-2022-1451",
      "Description": "Out-of-bounds Read in r_bin_java_constant_value_attr_new function in GitHub repository radareorg/radare2 prior to 5.7.0. The bug causes the program reads data past the end 2f the intented buffer. Typically, this can allow attackers to read sensitive information from other memory locations or cause a crash. More details see [CWE-125: Out-of-bounds read](https://cwe.mitre.org/data/definitions/125.html).",
      "Threats": [
        {
          "Type": "Impact",
          "Severity": "moderate"
        }
      ],
      "References": [
        {
          "URL": "https://www.suse.com/security/cve/CVE-2022-1451.html",
          "Description": "CVE-2022-1451"
        },
        {
          "URL": "https://bugzilla.suse.com/1198807",
          "Description": "SUSE Bug 1198807"
        }
      ],
      "ProductStatuses": [
        {
          "Type": "Fixed",
          "ProductID": [
            "openSUSE Tumbleweed:radare2-5.7.0-1.1",
            "openSUSE Tumbleweed:radare2-devel-5.7.0-1.1",
            "openSUSE Tumbleweed:radare2-zsh-completion-5.7.0-1.1"
          ]
        }
      ],
      "CVSSScoreSets": {}
    },
    {
      "CVE": "CVE-2022-1452",
      "Description": "Out-of-bounds Read in r_bin_java_bootstrap_methods_attr_new function in GitHub repository radareorg/radare2 prior to 5.7.0. The bug causes the program reads data past the end 2f the intented buffer. Typically, this can allow attackers to read sensitive information from other memory locations or cause a crash. More details see [CWE-125: Out-of-bounds read](https://cwe.mitre.org/data/definitions/125.html).",
      "Threats": [
        {
          "Type": "Impact",
          "Severity": "moderate"
        }
      ],
      "References": [
        {
          "URL": "https://www.suse.com/security/cve/CVE-2022-1452.html",
          "Description": "CVE-2022-1452"
        },
        {
          "URL": "https://bugzilla.suse.com/1198808",
          "Description": "SUSE Bug 1198808"
        }
      ],
      "ProductStatuses": [
        {
          "Type": "Fixed",
          "ProductID": [
            "openSUSE Tumbleweed:radare2-5.7.0-1.1",
            "openSUSE Tumbleweed:radare2-devel-5.7.0-1.1",
            "openSUSE Tumbleweed:radare2-zsh-completion-5.7.0-1.1"
          ]
        }
      ],
      "CVSSScoreSets": {}
    },
    {
      "CVE": "CVE-2022-1649",
      "Description": "Null pointer dereference in libr/bin/format/mach0/mach0.c in radareorg/radare2 in GitHub repository radareorg/radare2 prior to 5.7.0. It is likely to be exploitable. For more general description of heap buffer overflow, see [CWE](https://cwe.mitre.org/data/definitions/476.html).",
      "Threats": [
        {
          "Type": "Impact",
          "Severity": "moderate"
        }
      ],
      "References": [
        {
          "URL": "https://www.suse.com/security/cve/CVE-2022-1649.html",
          "Description": "CVE-2022-1649"
        },
        {
          "URL": "https://bugzilla.suse.com/1199418",
          "Description": "SUSE Bug 1199418"
        }
      ],
      "ProductStatuses": [
        {
          "Type": "Fixed",
          "ProductID": [
            "openSUSE Tumbleweed:radare2-5.7.0-1.1",
            "openSUSE Tumbleweed:radare2-devel-5.7.0-1.1",
            "openSUSE Tumbleweed:radare2-zsh-completion-5.7.0-1.1"
          ]
        }
      ],
      "CVSSScoreSets": {}
    },
    {
      "CVE": "CVE-2022-1714",
      "Description": "Out-of-bounds Read in GitHub repository radareorg/radare2 prior to 5.7.0. The bug causes the program reads data past the end of the intented buffer. Typically, this can allow attackers to read sensitive information from other memory locations or cause a crash.",
      "Threats": [
        {
          "Type": "Impact",
          "Severity": "moderate"
        }
      ],
      "References": [
        {
          "URL": "https://www.suse.com/security/cve/CVE-2022-1714.html",
          "Description": "CVE-2022-1714"
        },
        {
          "URL": "https://bugzilla.suse.com/1199555",
          "Description": "SUSE Bug 1199555"
        }
      ],
      "ProductStatuses": [
        {
          "Type": "Fixed",
          "ProductID": [
            "openSUSE Tumbleweed:radare2-5.7.0-1.1",
            "openSUSE Tumbleweed:radare2-devel-5.7.0-1.1",
            "openSUSE Tumbleweed:radare2-zsh-completion-5.7.0-1.1"
          ]
        }
      ],
      "CVSSScoreSets": {}
    },
    {
      "CVE": "CVE-2022-1809",
      "Description": "Access of Uninitialized Pointer in GitHub repository radareorg/radare2 prior to 5.7.0.",
      "Threats": [
        {
          "Type": "Impact",
          "Severity": "moderate"
        }
      ],
      "References": [
        {
          "URL": "https://www.suse.com/security/cve/CVE-2022-1809.html",
          "Description": "CVE-2022-1809"
        },
        {
          "URL": "https://bugzilla.suse.com/1199806",
          "Description": "SUSE Bug 1199806"
        }
      ],
      "ProductStatuses": [
        {
          "Type": "Fixed",
          "ProductID": [
            "openSUSE Tumbleweed:radare2-5.7.0-1.1",
            "openSUSE Tumbleweed:radare2-devel-5.7.0-1.1",
            "openSUSE Tumbleweed:radare2-zsh-completion-5.7.0-1.1"
          ]
        }
      ],
      "CVSSScoreSets": {}
    },
    {
      "CVE": "CVE-2022-1899",
      "Description": "Out-of-bounds Read in GitHub repository radareorg/radare2 prior to 5.7.0.",
      "Threats": [
        {
          "Type": "Impact",
          "Severity": "moderate"
        }
      ],
      "References": [
        {
          "URL": "https://www.suse.com/security/cve/CVE-2022-1899.html",
          "Description": "CVE-2022-1899"
        },
        {
          "URL": "https://bugzilla.suse.com/1199972",
          "Description": "SUSE Bug 1199972"
        }
      ],
      "ProductStatuses": [
        {
          "Type": "Fixed",
          "ProductID": [
            "openSUSE Tumbleweed:radare2-5.7.0-1.1",
            "openSUSE Tumbleweed:radare2-devel-5.7.0-1.1",
            "openSUSE Tumbleweed:radare2-zsh-completion-5.7.0-1.1"
          ]
        }
      ],
      "CVSSScoreSets": {}
    }
  ]
}