{
  "Title": "Security update for java-11-openjdk",
  "Tracking": {
    "ID": "SUSE-SU-2019:2002-1",
    "Status": "Final",
    "Version": "1",
    "InitialReleaseDate": "2019-07-29T11:00:36Z",
    "CurrentReleaseDate": "2019-07-29T11:00:36Z",
    "RevisionHistory": [
      {
        "Number": "1",
        "Date": "2019-07-29T11:00:36Z",
        "Description": "current"
      }
    ]
  },
  "Notes": [
    {
      "Text": "Security update for java-11-openjdk",
      "Title": "Topic",
      "Type": "Summary"
    },
    {
      "Text": "This update for java-11-openjdk to version jdk-11.0.4+11 fixes the following issues:\n\nSecurity issues fixed:\n\n- CVE-2019-2745: Improved ECC Implementation (bsc#1141784).\n- CVE-2019-2762: Exceptional throw cases (bsc#1141782).\n- CVE-2019-2766: Improve file protocol handling (bsc#1141789).\n- CVE-2019-2769: Better copies of CopiesList (bsc#1141783).\n- CVE-2019-2786: More limited privilege usage (bsc#1141787).\n- CVE-2019-7317: Improve PNG support options (bsc#1141780).\n- CVE-2019-2818: Better Poly1305 support (bsc#1141788).\n- CVE-2019-2816: Normalize normalization (bsc#1141785).\n- CVE-2019-2821: Improve TLS negotiation (bsc#1141781).\n- Certificate validation improvements\n\nNon-security issues fixed:\n\n- Do not fail installation when the manpages are not present (bsc#1115375)\n- Backport upstream fix for JDK-8208602: Cannot read PEM X.509 cert if\n  there is whitespace after the header or footer (bsc#1140461)\n",
      "Title": "Details",
      "Type": "General"
    },
    {
      "Text": "The CVRF data is provided by SUSE under the Creative Commons License 4.0 with Attribution (CC-BY-4.0).",
      "Title": "Terms of Use",
      "Type": "Legal Disclaimer"
    },
    {
      "Text": "Container bci/openjdk-devel:11-2019-2002,Container bci/openjdk:11-2019-2002,Container bci/openjdk:latest-2019-2002,Container suse/manager/5.0/x86_64/server-attestation:latest-2019-2002,Container suse/manager/5.0/x86_64/server:latest-2019-2002,Image SLES15-SP1-Manager-4-0-Azure-BYOS-Server-2019-2002,Image SLES15-SP1-Manager-4-0-EC2-HVM-BYOS-Server-2019-2002,Image SLES15-SP1-Manager-4-0-GCE-BYOS-Server-2019-2002,Image SLES15-SP2-Manager-4-1-Server-BYOS-Azure-2019-2002,Image SLES15-SP2-Manager-4-1-Server-BYOS-EC2-HVM-2019-2002,Image SLES15-SP2-Manager-4-1-Server-BYOS-GCE-2019-2002,Image SLES15-SP3-Manager-4-2-Server-BYOS-Azure-2019-2002,Image SLES15-SP3-Manager-4-2-Server-BYOS-EC2-HVM-2019-2002,Image SLES15-SP3-Manager-4-2-Server-BYOS-GCE-2019-2002,Image SLES15-SP4-Manager-Server-4-3-2019-2002,Image SLES15-SP4-Manager-Server-4-3-Azure-llc-2019-2002,Image SLES15-SP4-Manager-Server-4-3-Azure-ltd-2019-2002,Image SLES15-SP4-Manager-Server-4-3-BYOS-2019-2002,Image SLES15-SP4-Manager-Server-4-3-BYOS-Azure-2019-2002,Image SLES15-SP4-Manager-Server-4-3-BYOS-EC2-2019-2002,Image SLES15-SP4-Manager-Server-4-3-BYOS-GCE-2019-2002,Image SLES15-SP4-Manager-Server-4-3-EC2-llc-2019-2002,Image SLES15-SP4-Manager-Server-4-3-EC2-ltd-2019-2002,SUSE-2019-2002,SUSE-SLE-Module-Basesystem-15-2019-2002,SUSE-SLE-Module-Basesystem-15-SP1-2019-2002,SUSE-SLE-Module-Development-Tools-OBS-15-2019-2002,SUSE-SLE-Module-Development-Tools-OBS-15-SP1-2019-2002",
      "Title": "Patchnames",
      "Type": "Details"
    }
  ],
  "ProductTree": {
    "Relationships": [
      {
        "ProductReference": "java-11-openjdk-11.0.4.0-3.33.1",
        "RelatesToProductReference": "Container bci/openjdk-devel:11",
        "RelationType": "Default Component Of"
      },
      {
        "ProductReference": "java-11-openjdk-devel-11.0.4.0-3.33.1",
        "RelatesToProductReference": "Container bci/openjdk-devel:11",
        "RelationType": "Default Component Of"
      },
      {
        "ProductReference": "java-11-openjdk-headless-11.0.4.0-3.33.1",
        "RelatesToProductReference": "Container bci/openjdk-devel:11",
        "RelationType": "Default Component Of"
      },
      {
        "ProductReference": "java-11-openjdk-11.0.4.0-3.33.1",
        "RelatesToProductReference": "Container bci/openjdk:11",
        "RelationType": "Default Component Of"
      },
      {
        "ProductReference": "java-11-openjdk-headless-11.0.4.0-3.33.1",
        "RelatesToProductReference": "Container bci/openjdk:11",
        "RelationType": "Default Component Of"
      },
      {
        "ProductReference": "java-11-openjdk-11.0.4.0-3.33.1",
        "RelatesToProductReference": "Container bci/openjdk:latest",
        "RelationType": "Default Component Of"
      },
      {
        "ProductReference": "java-11-openjdk-headless-11.0.4.0-3.33.1",
        "RelatesToProductReference": "Container bci/openjdk:latest",
        "RelationType": "Default Component Of"
      },
      {
        "ProductReference": "java-11-openjdk-headless-11.0.4.0-3.33.1",
        "RelatesToProductReference": "Container suse/manager/5.0/x86_64/server-attestation:latest",
        "RelationType": "Default Component Of"
      },
      {
        "ProductReference": "java-11-openjdk-11.0.4.0-3.33.1",
        "RelatesToProductReference": "Container suse/manager/5.0/x86_64/server:latest",
        "RelationType": "Default Component Of"
      },
      {
        "ProductReference": "java-11-openjdk-headless-11.0.4.0-3.33.1",
        "RelatesToProductReference": "Container suse/manager/5.0/x86_64/server:latest",
        "RelationType": "Default Component Of"
      },
      {
        "ProductReference": "java-11-openjdk-11.0.4.0-3.33.1",
        "RelatesToProductReference": "Image SLES15-SP1-Manager-4-0-Azure-BYOS-Server",
        "RelationType": "Default Component Of"
      },
      {
        "ProductReference": "java-11-openjdk-headless-11.0.4.0-3.33.1",
        "RelatesToProductReference": "Image SLES15-SP1-Manager-4-0-Azure-BYOS-Server",
        "RelationType": "Default Component Of"
      },
      {
        "ProductReference": "java-11-openjdk-11.0.4.0-3.33.1",
        "RelatesToProductReference": "Image SLES15-SP1-Manager-4-0-EC2-HVM-BYOS-Server",
        "RelationType": "Default Component Of"
      },
      {
        "ProductReference": "java-11-openjdk-headless-11.0.4.0-3.33.1",
        "RelatesToProductReference": "Image SLES15-SP1-Manager-4-0-EC2-HVM-BYOS-Server",
        "RelationType": "Default Component Of"
      },
      {
        "ProductReference": "java-11-openjdk-11.0.4.0-3.33.1",
        "RelatesToProductReference": "Image SLES15-SP1-Manager-4-0-GCE-BYOS-Server",
        "RelationType": "Default Component Of"
      },
      {
        "ProductReference": "java-11-openjdk-headless-11.0.4.0-3.33.1",
        "RelatesToProductReference": "Image SLES15-SP1-Manager-4-0-GCE-BYOS-Server",
        "RelationType": "Default Component Of"
      },
      {
        "ProductReference": "java-11-openjdk-11.0.4.0-3.33.1",
        "RelatesToProductReference": "Image SLES15-SP2-Manager-4-1-Server-BYOS-Azure",
        "RelationType": "Default Component Of"
      },
      {
        "ProductReference": "java-11-openjdk-headless-11.0.4.0-3.33.1",
        "RelatesToProductReference": "Image SLES15-SP2-Manager-4-1-Server-BYOS-Azure",
        "RelationType": "Default Component Of"
      },
      {
        "ProductReference": "java-11-openjdk-11.0.4.0-3.33.1",
        "RelatesToProductReference": "Image SLES15-SP2-Manager-4-1-Server-BYOS-EC2-HVM",
        "RelationType": "Default Component Of"
      },
      {
        "ProductReference": "java-11-openjdk-headless-11.0.4.0-3.33.1",
        "RelatesToProductReference": "Image SLES15-SP2-Manager-4-1-Server-BYOS-EC2-HVM",
        "RelationType": "Default Component Of"
      },
      {
        "ProductReference": "java-11-openjdk-11.0.4.0-3.33.1",
        "RelatesToProductReference": "Image SLES15-SP2-Manager-4-1-Server-BYOS-GCE",
        "RelationType": "Default Component Of"
      },
      {
        "ProductReference": "java-11-openjdk-headless-11.0.4.0-3.33.1",
        "RelatesToProductReference": "Image SLES15-SP2-Manager-4-1-Server-BYOS-GCE",
        "RelationType": "Default Component Of"
      },
      {
        "ProductReference": "java-11-openjdk-11.0.4.0-3.33.1",
        "RelatesToProductReference": "Image SLES15-SP3-Manager-4-2-Server-BYOS-Azure",
        "RelationType": "Default Component Of"
      },
      {
        "ProductReference": "java-11-openjdk-headless-11.0.4.0-3.33.1",
        "RelatesToProductReference": "Image SLES15-SP3-Manager-4-2-Server-BYOS-Azure",
        "RelationType": "Default Component Of"
      },
      {
        "ProductReference": "java-11-openjdk-11.0.4.0-3.33.1",
        "RelatesToProductReference": "Image SLES15-SP3-Manager-4-2-Server-BYOS-EC2-HVM",
        "RelationType": "Default Component Of"
      },
      {
        "ProductReference": "java-11-openjdk-headless-11.0.4.0-3.33.1",
        "RelatesToProductReference": "Image SLES15-SP3-Manager-4-2-Server-BYOS-EC2-HVM",
        "RelationType": "Default Component Of"
      },
      {
        "ProductReference": "java-11-openjdk-11.0.4.0-3.33.1",
        "RelatesToProductReference": "Image SLES15-SP3-Manager-4-2-Server-BYOS-GCE",
        "RelationType": "Default Component Of"
      },
      {
        "ProductReference": "java-11-openjdk-headless-11.0.4.0-3.33.1",
        "RelatesToProductReference": "Image SLES15-SP3-Manager-4-2-Server-BYOS-GCE",
        "RelationType": "Default Component Of"
      },
      {
        "ProductReference": "java-11-openjdk-11.0.4.0-3.33.1",
        "RelatesToProductReference": "Image SLES15-SP4-Manager-Server-4-3",
        "RelationType": "Default Component Of"
      },
      {
        "ProductReference": "java-11-openjdk-headless-11.0.4.0-3.33.1",
        "RelatesToProductReference": "Image SLES15-SP4-Manager-Server-4-3",
        "RelationType": "Default Component Of"
      },
      {
        "ProductReference": "java-11-openjdk-11.0.4.0-3.33.1",
        "RelatesToProductReference": "Image SLES15-SP4-Manager-Server-4-3-Azure-llc",
        "RelationType": "Default Component Of"
      },
      {
        "ProductReference": "java-11-openjdk-headless-11.0.4.0-3.33.1",
        "RelatesToProductReference": "Image SLES15-SP4-Manager-Server-4-3-Azure-llc",
        "RelationType": "Default Component Of"
      },
      {
        "ProductReference": "java-11-openjdk-11.0.4.0-3.33.1",
        "RelatesToProductReference": "Image SLES15-SP4-Manager-Server-4-3-Azure-ltd",
        "RelationType": "Default Component Of"
      },
      {
        "ProductReference": "java-11-openjdk-headless-11.0.4.0-3.33.1",
        "RelatesToProductReference": "Image SLES15-SP4-Manager-Server-4-3-Azure-ltd",
        "RelationType": "Default Component Of"
      },
      {
        "ProductReference": "java-11-openjdk-11.0.4.0-3.33.1",
        "RelatesToProductReference": "Image SLES15-SP4-Manager-Server-4-3-BYOS",
        "RelationType": "Default Component Of"
      },
      {
        "ProductReference": "java-11-openjdk-headless-11.0.4.0-3.33.1",
        "RelatesToProductReference": "Image SLES15-SP4-Manager-Server-4-3-BYOS",
        "RelationType": "Default Component Of"
      },
      {
        "ProductReference": "java-11-openjdk-11.0.4.0-3.33.1",
        "RelatesToProductReference": "Image SLES15-SP4-Manager-Server-4-3-BYOS-Azure",
        "RelationType": "Default Component Of"
      },
      {
        "ProductReference": "java-11-openjdk-headless-11.0.4.0-3.33.1",
        "RelatesToProductReference": "Image SLES15-SP4-Manager-Server-4-3-BYOS-Azure",
        "RelationType": "Default Component Of"
      },
      {
        "ProductReference": "java-11-openjdk-11.0.4.0-3.33.1",
        "RelatesToProductReference": "Image SLES15-SP4-Manager-Server-4-3-BYOS-EC2",
        "RelationType": "Default Component Of"
      },
      {
        "ProductReference": "java-11-openjdk-headless-11.0.4.0-3.33.1",
        "RelatesToProductReference": "Image SLES15-SP4-Manager-Server-4-3-BYOS-EC2",
        "RelationType": "Default Component Of"
      },
      {
        "ProductReference": "java-11-openjdk-11.0.4.0-3.33.1",
        "RelatesToProductReference": "Image SLES15-SP4-Manager-Server-4-3-BYOS-GCE",
        "RelationType": "Default Component Of"
      },
      {
        "ProductReference": "java-11-openjdk-headless-11.0.4.0-3.33.1",
        "RelatesToProductReference": "Image SLES15-SP4-Manager-Server-4-3-BYOS-GCE",
        "RelationType": "Default Component Of"
      },
      {
        "ProductReference": "java-11-openjdk-11.0.4.0-3.33.1",
        "RelatesToProductReference": "Image SLES15-SP4-Manager-Server-4-3-EC2-llc",
        "RelationType": "Default Component Of"
      },
      {
        "ProductReference": "java-11-openjdk-headless-11.0.4.0-3.33.1",
        "RelatesToProductReference": "Image SLES15-SP4-Manager-Server-4-3-EC2-llc",
        "RelationType": "Default Component Of"
      },
      {
        "ProductReference": "java-11-openjdk-11.0.4.0-3.33.1",
        "RelatesToProductReference": "Image SLES15-SP4-Manager-Server-4-3-EC2-ltd",
        "RelationType": "Default Component Of"
      },
      {
        "ProductReference": "java-11-openjdk-headless-11.0.4.0-3.33.1",
        "RelatesToProductReference": "Image SLES15-SP4-Manager-Server-4-3-EC2-ltd",
        "RelationType": "Default Component Of"
      },
      {
        "ProductReference": "java-11-openjdk-11.0.4.0-3.33.1",
        "RelatesToProductReference": "SUSE Linux Enterprise Module for Basesystem 15",
        "RelationType": "Default Component Of"
      },
      {
        "ProductReference": "java-11-openjdk-demo-11.0.4.0-3.33.1",
        "RelatesToProductReference": "SUSE Linux Enterprise Module for Basesystem 15",
        "RelationType": "Default Component Of"
      },
      {
        "ProductReference": "java-11-openjdk-devel-11.0.4.0-3.33.1",
        "RelatesToProductReference": "SUSE Linux Enterprise Module for Basesystem 15",
        "RelationType": "Default Component Of"
      },
      {
        "ProductReference": "java-11-openjdk-headless-11.0.4.0-3.33.1",
        "RelatesToProductReference": "SUSE Linux Enterprise Module for Basesystem 15",
        "RelationType": "Default Component Of"
      },
      {
        "ProductReference": "java-11-openjdk-11.0.4.0-3.33.1",
        "RelatesToProductReference": "SUSE Linux Enterprise Module for Basesystem 15 SP1",
        "RelationType": "Default Component Of"
      },
      {
        "ProductReference": "java-11-openjdk-demo-11.0.4.0-3.33.1",
        "RelatesToProductReference": "SUSE Linux Enterprise Module for Basesystem 15 SP1",
        "RelationType": "Default Component Of"
      },
      {
        "ProductReference": "java-11-openjdk-devel-11.0.4.0-3.33.1",
        "RelatesToProductReference": "SUSE Linux Enterprise Module for Basesystem 15 SP1",
        "RelationType": "Default Component Of"
      },
      {
        "ProductReference": "java-11-openjdk-headless-11.0.4.0-3.33.1",
        "RelatesToProductReference": "SUSE Linux Enterprise Module for Basesystem 15 SP1",
        "RelationType": "Default Component Of"
      }
    ]
  },
  "References": [
    {
      "URL": "https://www.suse.com/support/update/announcement/2019/suse-su-20192002-1/",
      "Description": "Link for SUSE-SU-2019:2002-1"
    },
    {
      "URL": "https://www.suse.com/support/update/announcement/2019/suse-su-20192002-1.html",
      "Description": "E-Mail link for SUSE-SU-2019:2002-1"
    },
    {
      "URL": "https://www.suse.com/support/security/rating/",
      "Description": "SUSE Security Ratings"
    },
    {
      "URL": "https://bugzilla.suse.com/1115375",
      "Description": "SUSE Bug 1115375"
    },
    {
      "URL": "https://bugzilla.suse.com/1140461",
      "Description": "SUSE Bug 1140461"
    },
    {
      "URL": "https://bugzilla.suse.com/1141780",
      "Description": "SUSE Bug 1141780"
    },
    {
      "URL": "https://bugzilla.suse.com/1141781",
      "Description": "SUSE Bug 1141781"
    },
    {
      "URL": "https://bugzilla.suse.com/1141782",
      "Description": "SUSE Bug 1141782"
    },
    {
      "URL": "https://bugzilla.suse.com/1141783",
      "Description": "SUSE Bug 1141783"
    },
    {
      "URL": "https://bugzilla.suse.com/1141784",
      "Description": "SUSE Bug 1141784"
    },
    {
      "URL": "https://bugzilla.suse.com/1141785",
      "Description": "SUSE Bug 1141785"
    },
    {
      "URL": "https://bugzilla.suse.com/1141787",
      "Description": "SUSE Bug 1141787"
    },
    {
      "URL": "https://bugzilla.suse.com/1141788",
      "Description": "SUSE Bug 1141788"
    },
    {
      "URL": "https://bugzilla.suse.com/1141789",
      "Description": "SUSE Bug 1141789"
    },
    {
      "URL": "https://www.suse.com/security/cve/CVE-2019-2745/",
      "Description": "SUSE CVE CVE-2019-2745 page"
    },
    {
      "URL": "https://www.suse.com/security/cve/CVE-2019-2762/",
      "Description": "SUSE CVE CVE-2019-2762 page"
    },
    {
      "URL": "https://www.suse.com/security/cve/CVE-2019-2766/",
      "Description": "SUSE CVE CVE-2019-2766 page"
    },
    {
      "URL": "https://www.suse.com/security/cve/CVE-2019-2769/",
      "Description": "SUSE CVE CVE-2019-2769 page"
    },
    {
      "URL": "https://www.suse.com/security/cve/CVE-2019-2786/",
      "Description": "SUSE CVE CVE-2019-2786 page"
    },
    {
      "URL": "https://www.suse.com/security/cve/CVE-2019-2816/",
      "Description": "SUSE CVE CVE-2019-2816 page"
    },
    {
      "URL": "https://www.suse.com/security/cve/CVE-2019-2818/",
      "Description": "SUSE CVE CVE-2019-2818 page"
    },
    {
      "URL": "https://www.suse.com/security/cve/CVE-2019-2821/",
      "Description": "SUSE CVE CVE-2019-2821 page"
    },
    {
      "URL": "https://www.suse.com/security/cve/CVE-2019-7317/",
      "Description": "SUSE CVE CVE-2019-7317 page"
    }
  ],
  "Vulnerabilities": [
    {
      "CVE": "CVE-2019-2745",
      "Description": "Vulnerability in the Java SE component of Oracle Java SE (subcomponent: Security). Supported versions that are affected are Java SE: 7u221, 8u212 and 11.0.3. Difficult to exploit vulnerability allows unauthenticated attacker with logon to the infrastructure where Java SE executes to compromise Java SE. Successful attacks of this vulnerability can result in unauthorized access to critical data or complete access to all Java SE accessible data. Note: This vulnerability applies to Java deployments, typically in clients running sandboxed Java Web Start applications or sandboxed Java applets (in Java SE 8), that load and run untrusted code (e.g., code that comes from the internet) and rely on the Java sandbox for security. This vulnerability can also be exploited by using APIs in the specified Component, e.g., through a web service which supplies data to the APIs. CVSS 3.0 Base Score 5.1 (Confidentiality impacts). CVSS Vector: (CVSS:3.0/AV:L/AC:H/PR:N/UI:N/S:U/C:H/I:N/A:N).",
      "Threats": [
        {
          "Type": "Impact",
          "Severity": "important"
        }
      ],
      "References": [
        {
          "URL": "https://www.suse.com/security/cve/CVE-2019-2745.html",
          "Description": "CVE-2019-2745"
        },
        {
          "URL": "https://bugzilla.suse.com/1141784",
          "Description": "SUSE Bug 1141784"
        }
      ],
      "ProductStatuses": [
        {
          "Type": "Fixed",
          "ProductID": [
            "Container bci/openjdk-devel:11:java-11-openjdk-11.0.4.0-3.33.1",
            "Container bci/openjdk-devel:11:java-11-openjdk-devel-11.0.4.0-3.33.1",
            "Container bci/openjdk-devel:11:java-11-openjdk-headless-11.0.4.0-3.33.1",
            "Container bci/openjdk:11:java-11-openjdk-11.0.4.0-3.33.1",
            "Container bci/openjdk:11:java-11-openjdk-headless-11.0.4.0-3.33.1",
            "Container bci/openjdk:latest:java-11-openjdk-11.0.4.0-3.33.1",
            "Container bci/openjdk:latest:java-11-openjdk-headless-11.0.4.0-3.33.1",
            "Container suse/manager/5.0/x86_64/server-attestation:latest:java-11-openjdk-headless-11.0.4.0-3.33.1",
            "Container suse/manager/5.0/x86_64/server:latest:java-11-openjdk-11.0.4.0-3.33.1",
            "Container suse/manager/5.0/x86_64/server:latest:java-11-openjdk-headless-11.0.4.0-3.33.1",
            "Image SLES15-SP1-Manager-4-0-Azure-BYOS-Server:java-11-openjdk-11.0.4.0-3.33.1",
            "Image SLES15-SP1-Manager-4-0-Azure-BYOS-Server:java-11-openjdk-headless-11.0.4.0-3.33.1",
            "Image SLES15-SP1-Manager-4-0-EC2-HVM-BYOS-Server:java-11-openjdk-11.0.4.0-3.33.1",
            "Image SLES15-SP1-Manager-4-0-EC2-HVM-BYOS-Server:java-11-openjdk-headless-11.0.4.0-3.33.1",
            "Image SLES15-SP1-Manager-4-0-GCE-BYOS-Server:java-11-openjdk-11.0.4.0-3.33.1",
            "Image SLES15-SP1-Manager-4-0-GCE-BYOS-Server:java-11-openjdk-headless-11.0.4.0-3.33.1",
            "Image SLES15-SP2-Manager-4-1-Server-BYOS-Azure:java-11-openjdk-11.0.4.0-3.33.1",
            "Image SLES15-SP2-Manager-4-1-Server-BYOS-Azure:java-11-openjdk-headless-11.0.4.0-3.33.1",
            "Image SLES15-SP2-Manager-4-1-Server-BYOS-EC2-HVM:java-11-openjdk-11.0.4.0-3.33.1",
            "Image SLES15-SP2-Manager-4-1-Server-BYOS-EC2-HVM:java-11-openjdk-headless-11.0.4.0-3.33.1",
            "Image SLES15-SP2-Manager-4-1-Server-BYOS-GCE:java-11-openjdk-11.0.4.0-3.33.1",
            "Image SLES15-SP2-Manager-4-1-Server-BYOS-GCE:java-11-openjdk-headless-11.0.4.0-3.33.1",
            "Image SLES15-SP3-Manager-4-2-Server-BYOS-Azure:java-11-openjdk-11.0.4.0-3.33.1",
            "Image SLES15-SP3-Manager-4-2-Server-BYOS-Azure:java-11-openjdk-headless-11.0.4.0-3.33.1",
            "Image SLES15-SP3-Manager-4-2-Server-BYOS-EC2-HVM:java-11-openjdk-11.0.4.0-3.33.1",
            "Image SLES15-SP3-Manager-4-2-Server-BYOS-EC2-HVM:java-11-openjdk-headless-11.0.4.0-3.33.1",
            "Image SLES15-SP3-Manager-4-2-Server-BYOS-GCE:java-11-openjdk-11.0.4.0-3.33.1",
            "Image SLES15-SP3-Manager-4-2-Server-BYOS-GCE:java-11-openjdk-headless-11.0.4.0-3.33.1",
            "Image SLES15-SP4-Manager-Server-4-3-Azure-llc:java-11-openjdk-11.0.4.0-3.33.1",
            "Image SLES15-SP4-Manager-Server-4-3-Azure-llc:java-11-openjdk-headless-11.0.4.0-3.33.1",
            "Image SLES15-SP4-Manager-Server-4-3-Azure-ltd:java-11-openjdk-11.0.4.0-3.33.1",
            "Image SLES15-SP4-Manager-Server-4-3-Azure-ltd:java-11-openjdk-headless-11.0.4.0-3.33.1",
            "Image SLES15-SP4-Manager-Server-4-3-BYOS-Azure:java-11-openjdk-11.0.4.0-3.33.1",
            "Image SLES15-SP4-Manager-Server-4-3-BYOS-Azure:java-11-openjdk-headless-11.0.4.0-3.33.1",
            "Image SLES15-SP4-Manager-Server-4-3-BYOS-EC2:java-11-openjdk-11.0.4.0-3.33.1",
            "Image SLES15-SP4-Manager-Server-4-3-BYOS-EC2:java-11-openjdk-headless-11.0.4.0-3.33.1",
            "Image SLES15-SP4-Manager-Server-4-3-BYOS-GCE:java-11-openjdk-11.0.4.0-3.33.1",
            "Image SLES15-SP4-Manager-Server-4-3-BYOS-GCE:java-11-openjdk-headless-11.0.4.0-3.33.1",
            "Image SLES15-SP4-Manager-Server-4-3-BYOS:java-11-openjdk-11.0.4.0-3.33.1",
            "Image SLES15-SP4-Manager-Server-4-3-BYOS:java-11-openjdk-headless-11.0.4.0-3.33.1",
            "Image SLES15-SP4-Manager-Server-4-3-EC2-llc:java-11-openjdk-11.0.4.0-3.33.1",
            "Image SLES15-SP4-Manager-Server-4-3-EC2-llc:java-11-openjdk-headless-11.0.4.0-3.33.1",
            "Image SLES15-SP4-Manager-Server-4-3-EC2-ltd:java-11-openjdk-11.0.4.0-3.33.1",
            "Image SLES15-SP4-Manager-Server-4-3-EC2-ltd:java-11-openjdk-headless-11.0.4.0-3.33.1",
            "Image SLES15-SP4-Manager-Server-4-3:java-11-openjdk-11.0.4.0-3.33.1",
            "Image SLES15-SP4-Manager-Server-4-3:java-11-openjdk-headless-11.0.4.0-3.33.1",
            "SUSE Linux Enterprise Module for Basesystem 15 SP1:java-11-openjdk-11.0.4.0-3.33.1",
            "SUSE Linux Enterprise Module for Basesystem 15 SP1:java-11-openjdk-demo-11.0.4.0-3.33.1",
            "SUSE Linux Enterprise Module for Basesystem 15 SP1:java-11-openjdk-devel-11.0.4.0-3.33.1",
            "SUSE Linux Enterprise Module for Basesystem 15 SP1:java-11-openjdk-headless-11.0.4.0-3.33.1",
            "SUSE Linux Enterprise Module for Basesystem 15:java-11-openjdk-11.0.4.0-3.33.1",
            "SUSE Linux Enterprise Module for Basesystem 15:java-11-openjdk-demo-11.0.4.0-3.33.1",
            "SUSE Linux Enterprise Module for Basesystem 15:java-11-openjdk-devel-11.0.4.0-3.33.1",
            "SUSE Linux Enterprise Module for Basesystem 15:java-11-openjdk-headless-11.0.4.0-3.33.1"
          ]
        }
      ],
      "CVSSScoreSets": {}
    },
    {
      "CVE": "CVE-2019-2762",
      "Description": "Vulnerability in the Java SE, Java SE Embedded component of Oracle Java SE (subcomponent: Utilities). Supported versions that are affected are Java SE: 7u221, 8u212, 11.0.3 and 12.0.1; Java SE Embedded: 8u211. Easily exploitable vulnerability allows unauthenticated attacker with network access via multiple protocols to compromise Java SE, Java SE Embedded. Successful attacks of this vulnerability can result in unauthorized ability to cause a partial denial of service (partial DOS) of Java SE, Java SE Embedded. Note: This vulnerability applies to Java deployments, typically in clients running sandboxed Java Web Start applications or sandboxed Java applets (in Java SE 8), that load and run untrusted code (e.g., code that comes from the internet) and rely on the Java sandbox for security. This vulnerability can also be exploited by using APIs in the specified Component, e.g., through a web service which supplies data to the APIs. CVSS 3.0 Base Score 5.3 (Availability impacts). CVSS Vector: (CVSS:3.0/AV:N/AC:L/PR:N/UI:N/S:U/C:N/I:N/A:L).",
      "Threats": [
        {
          "Type": "Impact",
          "Severity": "moderate"
        }
      ],
      "References": [
        {
          "URL": "https://www.suse.com/security/cve/CVE-2019-2762.html",
          "Description": "CVE-2019-2762"
        },
        {
          "URL": "https://bugzilla.suse.com/1141782",
          "Description": "SUSE Bug 1141782"
        },
        {
          "URL": "https://bugzilla.suse.com/1147021",
          "Description": "SUSE Bug 1147021"
        }
      ],
      "ProductStatuses": [
        {
          "Type": "Fixed",
          "ProductID": [
            "Container bci/openjdk-devel:11:java-11-openjdk-11.0.4.0-3.33.1",
            "Container bci/openjdk-devel:11:java-11-openjdk-devel-11.0.4.0-3.33.1",
            "Container bci/openjdk-devel:11:java-11-openjdk-headless-11.0.4.0-3.33.1",
            "Container bci/openjdk:11:java-11-openjdk-11.0.4.0-3.33.1",
            "Container bci/openjdk:11:java-11-openjdk-headless-11.0.4.0-3.33.1",
            "Container bci/openjdk:latest:java-11-openjdk-11.0.4.0-3.33.1",
            "Container bci/openjdk:latest:java-11-openjdk-headless-11.0.4.0-3.33.1",
            "Container suse/manager/5.0/x86_64/server-attestation:latest:java-11-openjdk-headless-11.0.4.0-3.33.1",
            "Container suse/manager/5.0/x86_64/server:latest:java-11-openjdk-11.0.4.0-3.33.1",
            "Container suse/manager/5.0/x86_64/server:latest:java-11-openjdk-headless-11.0.4.0-3.33.1",
            "Image SLES15-SP1-Manager-4-0-Azure-BYOS-Server:java-11-openjdk-11.0.4.0-3.33.1",
            "Image SLES15-SP1-Manager-4-0-Azure-BYOS-Server:java-11-openjdk-headless-11.0.4.0-3.33.1",
            "Image SLES15-SP1-Manager-4-0-EC2-HVM-BYOS-Server:java-11-openjdk-11.0.4.0-3.33.1",
            "Image SLES15-SP1-Manager-4-0-EC2-HVM-BYOS-Server:java-11-openjdk-headless-11.0.4.0-3.33.1",
            "Image SLES15-SP1-Manager-4-0-GCE-BYOS-Server:java-11-openjdk-11.0.4.0-3.33.1",
            "Image SLES15-SP1-Manager-4-0-GCE-BYOS-Server:java-11-openjdk-headless-11.0.4.0-3.33.1",
            "Image SLES15-SP2-Manager-4-1-Server-BYOS-Azure:java-11-openjdk-11.0.4.0-3.33.1",
            "Image SLES15-SP2-Manager-4-1-Server-BYOS-Azure:java-11-openjdk-headless-11.0.4.0-3.33.1",
            "Image SLES15-SP2-Manager-4-1-Server-BYOS-EC2-HVM:java-11-openjdk-11.0.4.0-3.33.1",
            "Image SLES15-SP2-Manager-4-1-Server-BYOS-EC2-HVM:java-11-openjdk-headless-11.0.4.0-3.33.1",
            "Image SLES15-SP2-Manager-4-1-Server-BYOS-GCE:java-11-openjdk-11.0.4.0-3.33.1",
            "Image SLES15-SP2-Manager-4-1-Server-BYOS-GCE:java-11-openjdk-headless-11.0.4.0-3.33.1",
            "Image SLES15-SP3-Manager-4-2-Server-BYOS-Azure:java-11-openjdk-11.0.4.0-3.33.1",
            "Image SLES15-SP3-Manager-4-2-Server-BYOS-Azure:java-11-openjdk-headless-11.0.4.0-3.33.1",
            "Image SLES15-SP3-Manager-4-2-Server-BYOS-EC2-HVM:java-11-openjdk-11.0.4.0-3.33.1",
            "Image SLES15-SP3-Manager-4-2-Server-BYOS-EC2-HVM:java-11-openjdk-headless-11.0.4.0-3.33.1",
            "Image SLES15-SP3-Manager-4-2-Server-BYOS-GCE:java-11-openjdk-11.0.4.0-3.33.1",
            "Image SLES15-SP3-Manager-4-2-Server-BYOS-GCE:java-11-openjdk-headless-11.0.4.0-3.33.1",
            "Image SLES15-SP4-Manager-Server-4-3-Azure-llc:java-11-openjdk-11.0.4.0-3.33.1",
            "Image SLES15-SP4-Manager-Server-4-3-Azure-llc:java-11-openjdk-headless-11.0.4.0-3.33.1",
            "Image SLES15-SP4-Manager-Server-4-3-Azure-ltd:java-11-openjdk-11.0.4.0-3.33.1",
            "Image SLES15-SP4-Manager-Server-4-3-Azure-ltd:java-11-openjdk-headless-11.0.4.0-3.33.1",
            "Image SLES15-SP4-Manager-Server-4-3-BYOS-Azure:java-11-openjdk-11.0.4.0-3.33.1",
            "Image SLES15-SP4-Manager-Server-4-3-BYOS-Azure:java-11-openjdk-headless-11.0.4.0-3.33.1",
            "Image SLES15-SP4-Manager-Server-4-3-BYOS-EC2:java-11-openjdk-11.0.4.0-3.33.1",
            "Image SLES15-SP4-Manager-Server-4-3-BYOS-EC2:java-11-openjdk-headless-11.0.4.0-3.33.1",
            "Image SLES15-SP4-Manager-Server-4-3-BYOS-GCE:java-11-openjdk-11.0.4.0-3.33.1",
            "Image SLES15-SP4-Manager-Server-4-3-BYOS-GCE:java-11-openjdk-headless-11.0.4.0-3.33.1",
            "Image SLES15-SP4-Manager-Server-4-3-BYOS:java-11-openjdk-11.0.4.0-3.33.1",
            "Image SLES15-SP4-Manager-Server-4-3-BYOS:java-11-openjdk-headless-11.0.4.0-3.33.1",
            "Image SLES15-SP4-Manager-Server-4-3-EC2-llc:java-11-openjdk-11.0.4.0-3.33.1",
            "Image SLES15-SP4-Manager-Server-4-3-EC2-llc:java-11-openjdk-headless-11.0.4.0-3.33.1",
            "Image SLES15-SP4-Manager-Server-4-3-EC2-ltd:java-11-openjdk-11.0.4.0-3.33.1",
            "Image SLES15-SP4-Manager-Server-4-3-EC2-ltd:java-11-openjdk-headless-11.0.4.0-3.33.1",
            "Image SLES15-SP4-Manager-Server-4-3:java-11-openjdk-11.0.4.0-3.33.1",
            "Image SLES15-SP4-Manager-Server-4-3:java-11-openjdk-headless-11.0.4.0-3.33.1",
            "SUSE Linux Enterprise Module for Basesystem 15 SP1:java-11-openjdk-11.0.4.0-3.33.1",
            "SUSE Linux Enterprise Module for Basesystem 15 SP1:java-11-openjdk-demo-11.0.4.0-3.33.1",
            "SUSE Linux Enterprise Module for Basesystem 15 SP1:java-11-openjdk-devel-11.0.4.0-3.33.1",
            "SUSE Linux Enterprise Module for Basesystem 15 SP1:java-11-openjdk-headless-11.0.4.0-3.33.1",
            "SUSE Linux Enterprise Module for Basesystem 15:java-11-openjdk-11.0.4.0-3.33.1",
            "SUSE Linux Enterprise Module for Basesystem 15:java-11-openjdk-demo-11.0.4.0-3.33.1",
            "SUSE Linux Enterprise Module for Basesystem 15:java-11-openjdk-devel-11.0.4.0-3.33.1",
            "SUSE Linux Enterprise Module for Basesystem 15:java-11-openjdk-headless-11.0.4.0-3.33.1"
          ]
        }
      ],
      "CVSSScoreSets": {}
    },
    {
      "CVE": "CVE-2019-2766",
      "Description": "Vulnerability in the Java SE, Java SE Embedded component of Oracle Java SE (subcomponent: Networking). Supported versions that are affected are Java SE: 7u221, 8u212, 11.0.3 and 12.0.1; Java SE Embedded: 8u211. Difficult to exploit vulnerability allows unauthenticated attacker with network access via multiple protocols to compromise Java SE, Java SE Embedded. Successful attacks require human interaction from a person other than the attacker. Successful attacks of this vulnerability can result in unauthorized read access to a subset of Java SE, Java SE Embedded accessible data. Note: This vulnerability applies to Java deployments, typically in clients running sandboxed Java Web Start applications or sandboxed Java applets (in Java SE 8), that load and run untrusted code (e.g., code that comes from the internet) and rely on the Java sandbox for security. This vulnerability can also be exploited by using APIs in the specified Component, e.g., through a web service which supplies data to the APIs. CVSS 3.0 Base Score 3.1 (Confidentiality impacts). CVSS Vector: (CVSS:3.0/AV:N/AC:H/PR:N/UI:R/S:U/C:L/I:N/A:N).",
      "Threats": [
        {
          "Type": "Impact",
          "Severity": "low"
        }
      ],
      "References": [
        {
          "URL": "https://www.suse.com/security/cve/CVE-2019-2766.html",
          "Description": "CVE-2019-2766"
        },
        {
          "URL": "https://bugzilla.suse.com/1141789",
          "Description": "SUSE Bug 1141789"
        },
        {
          "URL": "https://bugzilla.suse.com/1147021",
          "Description": "SUSE Bug 1147021"
        }
      ],
      "ProductStatuses": [
        {
          "Type": "Fixed",
          "ProductID": [
            "Container bci/openjdk-devel:11:java-11-openjdk-11.0.4.0-3.33.1",
            "Container bci/openjdk-devel:11:java-11-openjdk-devel-11.0.4.0-3.33.1",
            "Container bci/openjdk-devel:11:java-11-openjdk-headless-11.0.4.0-3.33.1",
            "Container bci/openjdk:11:java-11-openjdk-11.0.4.0-3.33.1",
            "Container bci/openjdk:11:java-11-openjdk-headless-11.0.4.0-3.33.1",
            "Container bci/openjdk:latest:java-11-openjdk-11.0.4.0-3.33.1",
            "Container bci/openjdk:latest:java-11-openjdk-headless-11.0.4.0-3.33.1",
            "Container suse/manager/5.0/x86_64/server-attestation:latest:java-11-openjdk-headless-11.0.4.0-3.33.1",
            "Container suse/manager/5.0/x86_64/server:latest:java-11-openjdk-11.0.4.0-3.33.1",
            "Container suse/manager/5.0/x86_64/server:latest:java-11-openjdk-headless-11.0.4.0-3.33.1",
            "Image SLES15-SP1-Manager-4-0-Azure-BYOS-Server:java-11-openjdk-11.0.4.0-3.33.1",
            "Image SLES15-SP1-Manager-4-0-Azure-BYOS-Server:java-11-openjdk-headless-11.0.4.0-3.33.1",
            "Image SLES15-SP1-Manager-4-0-EC2-HVM-BYOS-Server:java-11-openjdk-11.0.4.0-3.33.1",
            "Image SLES15-SP1-Manager-4-0-EC2-HVM-BYOS-Server:java-11-openjdk-headless-11.0.4.0-3.33.1",
            "Image SLES15-SP1-Manager-4-0-GCE-BYOS-Server:java-11-openjdk-11.0.4.0-3.33.1",
            "Image SLES15-SP1-Manager-4-0-GCE-BYOS-Server:java-11-openjdk-headless-11.0.4.0-3.33.1",
            "Image SLES15-SP2-Manager-4-1-Server-BYOS-Azure:java-11-openjdk-11.0.4.0-3.33.1",
            "Image SLES15-SP2-Manager-4-1-Server-BYOS-Azure:java-11-openjdk-headless-11.0.4.0-3.33.1",
            "Image SLES15-SP2-Manager-4-1-Server-BYOS-EC2-HVM:java-11-openjdk-11.0.4.0-3.33.1",
            "Image SLES15-SP2-Manager-4-1-Server-BYOS-EC2-HVM:java-11-openjdk-headless-11.0.4.0-3.33.1",
            "Image SLES15-SP2-Manager-4-1-Server-BYOS-GCE:java-11-openjdk-11.0.4.0-3.33.1",
            "Image SLES15-SP2-Manager-4-1-Server-BYOS-GCE:java-11-openjdk-headless-11.0.4.0-3.33.1",
            "Image SLES15-SP3-Manager-4-2-Server-BYOS-Azure:java-11-openjdk-11.0.4.0-3.33.1",
            "Image SLES15-SP3-Manager-4-2-Server-BYOS-Azure:java-11-openjdk-headless-11.0.4.0-3.33.1",
            "Image SLES15-SP3-Manager-4-2-Server-BYOS-EC2-HVM:java-11-openjdk-11.0.4.0-3.33.1",
            "Image SLES15-SP3-Manager-4-2-Server-BYOS-EC2-HVM:java-11-openjdk-headless-11.0.4.0-3.33.1",
            "Image SLES15-SP3-Manager-4-2-Server-BYOS-GCE:java-11-openjdk-11.0.4.0-3.33.1",
            "Image SLES15-SP3-Manager-4-2-Server-BYOS-GCE:java-11-openjdk-headless-11.0.4.0-3.33.1",
            "Image SLES15-SP4-Manager-Server-4-3-Azure-llc:java-11-openjdk-11.0.4.0-3.33.1",
            "Image SLES15-SP4-Manager-Server-4-3-Azure-llc:java-11-openjdk-headless-11.0.4.0-3.33.1",
            "Image SLES15-SP4-Manager-Server-4-3-Azure-ltd:java-11-openjdk-11.0.4.0-3.33.1",
            "Image SLES15-SP4-Manager-Server-4-3-Azure-ltd:java-11-openjdk-headless-11.0.4.0-3.33.1",
            "Image SLES15-SP4-Manager-Server-4-3-BYOS-Azure:java-11-openjdk-11.0.4.0-3.33.1",
            "Image SLES15-SP4-Manager-Server-4-3-BYOS-Azure:java-11-openjdk-headless-11.0.4.0-3.33.1",
            "Image SLES15-SP4-Manager-Server-4-3-BYOS-EC2:java-11-openjdk-11.0.4.0-3.33.1",
            "Image SLES15-SP4-Manager-Server-4-3-BYOS-EC2:java-11-openjdk-headless-11.0.4.0-3.33.1",
            "Image SLES15-SP4-Manager-Server-4-3-BYOS-GCE:java-11-openjdk-11.0.4.0-3.33.1",
            "Image SLES15-SP4-Manager-Server-4-3-BYOS-GCE:java-11-openjdk-headless-11.0.4.0-3.33.1",
            "Image SLES15-SP4-Manager-Server-4-3-BYOS:java-11-openjdk-11.0.4.0-3.33.1",
            "Image SLES15-SP4-Manager-Server-4-3-BYOS:java-11-openjdk-headless-11.0.4.0-3.33.1",
            "Image SLES15-SP4-Manager-Server-4-3-EC2-llc:java-11-openjdk-11.0.4.0-3.33.1",
            "Image SLES15-SP4-Manager-Server-4-3-EC2-llc:java-11-openjdk-headless-11.0.4.0-3.33.1",
            "Image SLES15-SP4-Manager-Server-4-3-EC2-ltd:java-11-openjdk-11.0.4.0-3.33.1",
            "Image SLES15-SP4-Manager-Server-4-3-EC2-ltd:java-11-openjdk-headless-11.0.4.0-3.33.1",
            "Image SLES15-SP4-Manager-Server-4-3:java-11-openjdk-11.0.4.0-3.33.1",
            "Image SLES15-SP4-Manager-Server-4-3:java-11-openjdk-headless-11.0.4.0-3.33.1",
            "SUSE Linux Enterprise Module for Basesystem 15 SP1:java-11-openjdk-11.0.4.0-3.33.1",
            "SUSE Linux Enterprise Module for Basesystem 15 SP1:java-11-openjdk-demo-11.0.4.0-3.33.1",
            "SUSE Linux Enterprise Module for Basesystem 15 SP1:java-11-openjdk-devel-11.0.4.0-3.33.1",
            "SUSE Linux Enterprise Module for Basesystem 15 SP1:java-11-openjdk-headless-11.0.4.0-3.33.1",
            "SUSE Linux Enterprise Module for Basesystem 15:java-11-openjdk-11.0.4.0-3.33.1",
            "SUSE Linux Enterprise Module for Basesystem 15:java-11-openjdk-demo-11.0.4.0-3.33.1",
            "SUSE Linux Enterprise Module for Basesystem 15:java-11-openjdk-devel-11.0.4.0-3.33.1",
            "SUSE Linux Enterprise Module for Basesystem 15:java-11-openjdk-headless-11.0.4.0-3.33.1"
          ]
        }
      ],
      "CVSSScoreSets": {}
    },
    {
      "CVE": "CVE-2019-2769",
      "Description": "Vulnerability in the Java SE, Java SE Embedded component of Oracle Java SE (subcomponent: Utilities). Supported versions that are affected are Java SE: 7u221, 8u212, 11.0.3 and 12.0.1; Java SE Embedded: 8u211. Easily exploitable vulnerability allows unauthenticated attacker with network access via multiple protocols to compromise Java SE, Java SE Embedded. Successful attacks of this vulnerability can result in unauthorized ability to cause a partial denial of service (partial DOS) of Java SE, Java SE Embedded. Note: This vulnerability applies to Java deployments, typically in clients running sandboxed Java Web Start applications or sandboxed Java applets (in Java SE 8), that load and run untrusted code (e.g., code that comes from the internet) and rely on the Java sandbox for security. This vulnerability can also be exploited by using APIs in the specified Component, e.g., through a web service which supplies data to the APIs. CVSS 3.0 Base Score 5.3 (Availability impacts). CVSS Vector: (CVSS:3.0/AV:N/AC:L/PR:N/UI:N/S:U/C:N/I:N/A:L).",
      "Threats": [
        {
          "Type": "Impact",
          "Severity": "moderate"
        }
      ],
      "References": [
        {
          "URL": "https://www.suse.com/security/cve/CVE-2019-2769.html",
          "Description": "CVE-2019-2769"
        },
        {
          "URL": "https://bugzilla.suse.com/1141783",
          "Description": "SUSE Bug 1141783"
        },
        {
          "URL": "https://bugzilla.suse.com/1147021",
          "Description": "SUSE Bug 1147021"
        }
      ],
      "ProductStatuses": [
        {
          "Type": "Fixed",
          "ProductID": [
            "Container bci/openjdk-devel:11:java-11-openjdk-11.0.4.0-3.33.1",
            "Container bci/openjdk-devel:11:java-11-openjdk-devel-11.0.4.0-3.33.1",
            "Container bci/openjdk-devel:11:java-11-openjdk-headless-11.0.4.0-3.33.1",
            "Container bci/openjdk:11:java-11-openjdk-11.0.4.0-3.33.1",
            "Container bci/openjdk:11:java-11-openjdk-headless-11.0.4.0-3.33.1",
            "Container bci/openjdk:latest:java-11-openjdk-11.0.4.0-3.33.1",
            "Container bci/openjdk:latest:java-11-openjdk-headless-11.0.4.0-3.33.1",
            "Container suse/manager/5.0/x86_64/server-attestation:latest:java-11-openjdk-headless-11.0.4.0-3.33.1",
            "Container suse/manager/5.0/x86_64/server:latest:java-11-openjdk-11.0.4.0-3.33.1",
            "Container suse/manager/5.0/x86_64/server:latest:java-11-openjdk-headless-11.0.4.0-3.33.1",
            "Image SLES15-SP1-Manager-4-0-Azure-BYOS-Server:java-11-openjdk-11.0.4.0-3.33.1",
            "Image SLES15-SP1-Manager-4-0-Azure-BYOS-Server:java-11-openjdk-headless-11.0.4.0-3.33.1",
            "Image SLES15-SP1-Manager-4-0-EC2-HVM-BYOS-Server:java-11-openjdk-11.0.4.0-3.33.1",
            "Image SLES15-SP1-Manager-4-0-EC2-HVM-BYOS-Server:java-11-openjdk-headless-11.0.4.0-3.33.1",
            "Image SLES15-SP1-Manager-4-0-GCE-BYOS-Server:java-11-openjdk-11.0.4.0-3.33.1",
            "Image SLES15-SP1-Manager-4-0-GCE-BYOS-Server:java-11-openjdk-headless-11.0.4.0-3.33.1",
            "Image SLES15-SP2-Manager-4-1-Server-BYOS-Azure:java-11-openjdk-11.0.4.0-3.33.1",
            "Image SLES15-SP2-Manager-4-1-Server-BYOS-Azure:java-11-openjdk-headless-11.0.4.0-3.33.1",
            "Image SLES15-SP2-Manager-4-1-Server-BYOS-EC2-HVM:java-11-openjdk-11.0.4.0-3.33.1",
            "Image SLES15-SP2-Manager-4-1-Server-BYOS-EC2-HVM:java-11-openjdk-headless-11.0.4.0-3.33.1",
            "Image SLES15-SP2-Manager-4-1-Server-BYOS-GCE:java-11-openjdk-11.0.4.0-3.33.1",
            "Image SLES15-SP2-Manager-4-1-Server-BYOS-GCE:java-11-openjdk-headless-11.0.4.0-3.33.1",
            "Image SLES15-SP3-Manager-4-2-Server-BYOS-Azure:java-11-openjdk-11.0.4.0-3.33.1",
            "Image SLES15-SP3-Manager-4-2-Server-BYOS-Azure:java-11-openjdk-headless-11.0.4.0-3.33.1",
            "Image SLES15-SP3-Manager-4-2-Server-BYOS-EC2-HVM:java-11-openjdk-11.0.4.0-3.33.1",
            "Image SLES15-SP3-Manager-4-2-Server-BYOS-EC2-HVM:java-11-openjdk-headless-11.0.4.0-3.33.1",
            "Image SLES15-SP3-Manager-4-2-Server-BYOS-GCE:java-11-openjdk-11.0.4.0-3.33.1",
            "Image SLES15-SP3-Manager-4-2-Server-BYOS-GCE:java-11-openjdk-headless-11.0.4.0-3.33.1",
            "Image SLES15-SP4-Manager-Server-4-3-Azure-llc:java-11-openjdk-11.0.4.0-3.33.1",
            "Image SLES15-SP4-Manager-Server-4-3-Azure-llc:java-11-openjdk-headless-11.0.4.0-3.33.1",
            "Image SLES15-SP4-Manager-Server-4-3-Azure-ltd:java-11-openjdk-11.0.4.0-3.33.1",
            "Image SLES15-SP4-Manager-Server-4-3-Azure-ltd:java-11-openjdk-headless-11.0.4.0-3.33.1",
            "Image SLES15-SP4-Manager-Server-4-3-BYOS-Azure:java-11-openjdk-11.0.4.0-3.33.1",
            "Image SLES15-SP4-Manager-Server-4-3-BYOS-Azure:java-11-openjdk-headless-11.0.4.0-3.33.1",
            "Image SLES15-SP4-Manager-Server-4-3-BYOS-EC2:java-11-openjdk-11.0.4.0-3.33.1",
            "Image SLES15-SP4-Manager-Server-4-3-BYOS-EC2:java-11-openjdk-headless-11.0.4.0-3.33.1",
            "Image SLES15-SP4-Manager-Server-4-3-BYOS-GCE:java-11-openjdk-11.0.4.0-3.33.1",
            "Image SLES15-SP4-Manager-Server-4-3-BYOS-GCE:java-11-openjdk-headless-11.0.4.0-3.33.1",
            "Image SLES15-SP4-Manager-Server-4-3-BYOS:java-11-openjdk-11.0.4.0-3.33.1",
            "Image SLES15-SP4-Manager-Server-4-3-BYOS:java-11-openjdk-headless-11.0.4.0-3.33.1",
            "Image SLES15-SP4-Manager-Server-4-3-EC2-llc:java-11-openjdk-11.0.4.0-3.33.1",
            "Image SLES15-SP4-Manager-Server-4-3-EC2-llc:java-11-openjdk-headless-11.0.4.0-3.33.1",
            "Image SLES15-SP4-Manager-Server-4-3-EC2-ltd:java-11-openjdk-11.0.4.0-3.33.1",
            "Image SLES15-SP4-Manager-Server-4-3-EC2-ltd:java-11-openjdk-headless-11.0.4.0-3.33.1",
            "Image SLES15-SP4-Manager-Server-4-3:java-11-openjdk-11.0.4.0-3.33.1",
            "Image SLES15-SP4-Manager-Server-4-3:java-11-openjdk-headless-11.0.4.0-3.33.1",
            "SUSE Linux Enterprise Module for Basesystem 15 SP1:java-11-openjdk-11.0.4.0-3.33.1",
            "SUSE Linux Enterprise Module for Basesystem 15 SP1:java-11-openjdk-demo-11.0.4.0-3.33.1",
            "SUSE Linux Enterprise Module for Basesystem 15 SP1:java-11-openjdk-devel-11.0.4.0-3.33.1",
            "SUSE Linux Enterprise Module for Basesystem 15 SP1:java-11-openjdk-headless-11.0.4.0-3.33.1",
            "SUSE Linux Enterprise Module for Basesystem 15:java-11-openjdk-11.0.4.0-3.33.1",
            "SUSE Linux Enterprise Module for Basesystem 15:java-11-openjdk-demo-11.0.4.0-3.33.1",
            "SUSE Linux Enterprise Module for Basesystem 15:java-11-openjdk-devel-11.0.4.0-3.33.1",
            "SUSE Linux Enterprise Module for Basesystem 15:java-11-openjdk-headless-11.0.4.0-3.33.1"
          ]
        }
      ],
      "CVSSScoreSets": {}
    },
    {
      "CVE": "CVE-2019-2786",
      "Description": "Vulnerability in the Java SE, Java SE Embedded component of Oracle Java SE (subcomponent: Security). Supported versions that are affected are Java SE: 8u212, 11.0.3 and 12.0.1; Java SE Embedded: 8u211. Difficult to exploit vulnerability allows unauthenticated attacker with network access via multiple protocols to compromise Java SE, Java SE Embedded. Successful attacks require human interaction from a person other than the attacker and while the vulnerability is in Java SE, Java SE Embedded, attacks may significantly impact additional products. Successful attacks of this vulnerability can result in unauthorized read access to a subset of Java SE, Java SE Embedded accessible data. Note: This vulnerability applies to Java deployments, typically in clients running sandboxed Java Web Start applications or sandboxed Java applets (in Java SE 8), that load and run untrusted code (e.g., code that comes from the internet) and rely on the Java sandbox for security. This vulnerability can also be exploited by using APIs in the specified Component, e.g., through a web service which supplies data to the APIs. CVSS 3.0 Base Score 3.4 (Confidentiality impacts). CVSS Vector: (CVSS:3.0/AV:N/AC:H/PR:N/UI:R/S:C/C:L/I:N/A:N).",
      "Threats": [
        {
          "Type": "Impact",
          "Severity": "important"
        }
      ],
      "References": [
        {
          "URL": "https://www.suse.com/security/cve/CVE-2019-2786.html",
          "Description": "CVE-2019-2786"
        },
        {
          "URL": "https://bugzilla.suse.com/1141787",
          "Description": "SUSE Bug 1141787"
        },
        {
          "URL": "https://bugzilla.suse.com/1147021",
          "Description": "SUSE Bug 1147021"
        }
      ],
      "ProductStatuses": [
        {
          "Type": "Fixed",
          "ProductID": [
            "Container bci/openjdk-devel:11:java-11-openjdk-11.0.4.0-3.33.1",
            "Container bci/openjdk-devel:11:java-11-openjdk-devel-11.0.4.0-3.33.1",
            "Container bci/openjdk-devel:11:java-11-openjdk-headless-11.0.4.0-3.33.1",
            "Container bci/openjdk:11:java-11-openjdk-11.0.4.0-3.33.1",
            "Container bci/openjdk:11:java-11-openjdk-headless-11.0.4.0-3.33.1",
            "Container bci/openjdk:latest:java-11-openjdk-11.0.4.0-3.33.1",
            "Container bci/openjdk:latest:java-11-openjdk-headless-11.0.4.0-3.33.1",
            "Container suse/manager/5.0/x86_64/server-attestation:latest:java-11-openjdk-headless-11.0.4.0-3.33.1",
            "Container suse/manager/5.0/x86_64/server:latest:java-11-openjdk-11.0.4.0-3.33.1",
            "Container suse/manager/5.0/x86_64/server:latest:java-11-openjdk-headless-11.0.4.0-3.33.1",
            "Image SLES15-SP1-Manager-4-0-Azure-BYOS-Server:java-11-openjdk-11.0.4.0-3.33.1",
            "Image SLES15-SP1-Manager-4-0-Azure-BYOS-Server:java-11-openjdk-headless-11.0.4.0-3.33.1",
            "Image SLES15-SP1-Manager-4-0-EC2-HVM-BYOS-Server:java-11-openjdk-11.0.4.0-3.33.1",
            "Image SLES15-SP1-Manager-4-0-EC2-HVM-BYOS-Server:java-11-openjdk-headless-11.0.4.0-3.33.1",
            "Image SLES15-SP1-Manager-4-0-GCE-BYOS-Server:java-11-openjdk-11.0.4.0-3.33.1",
            "Image SLES15-SP1-Manager-4-0-GCE-BYOS-Server:java-11-openjdk-headless-11.0.4.0-3.33.1",
            "Image SLES15-SP2-Manager-4-1-Server-BYOS-Azure:java-11-openjdk-11.0.4.0-3.33.1",
            "Image SLES15-SP2-Manager-4-1-Server-BYOS-Azure:java-11-openjdk-headless-11.0.4.0-3.33.1",
            "Image SLES15-SP2-Manager-4-1-Server-BYOS-EC2-HVM:java-11-openjdk-11.0.4.0-3.33.1",
            "Image SLES15-SP2-Manager-4-1-Server-BYOS-EC2-HVM:java-11-openjdk-headless-11.0.4.0-3.33.1",
            "Image SLES15-SP2-Manager-4-1-Server-BYOS-GCE:java-11-openjdk-11.0.4.0-3.33.1",
            "Image SLES15-SP2-Manager-4-1-Server-BYOS-GCE:java-11-openjdk-headless-11.0.4.0-3.33.1",
            "Image SLES15-SP3-Manager-4-2-Server-BYOS-Azure:java-11-openjdk-11.0.4.0-3.33.1",
            "Image SLES15-SP3-Manager-4-2-Server-BYOS-Azure:java-11-openjdk-headless-11.0.4.0-3.33.1",
            "Image SLES15-SP3-Manager-4-2-Server-BYOS-EC2-HVM:java-11-openjdk-11.0.4.0-3.33.1",
            "Image SLES15-SP3-Manager-4-2-Server-BYOS-EC2-HVM:java-11-openjdk-headless-11.0.4.0-3.33.1",
            "Image SLES15-SP3-Manager-4-2-Server-BYOS-GCE:java-11-openjdk-11.0.4.0-3.33.1",
            "Image SLES15-SP3-Manager-4-2-Server-BYOS-GCE:java-11-openjdk-headless-11.0.4.0-3.33.1",
            "Image SLES15-SP4-Manager-Server-4-3-Azure-llc:java-11-openjdk-11.0.4.0-3.33.1",
            "Image SLES15-SP4-Manager-Server-4-3-Azure-llc:java-11-openjdk-headless-11.0.4.0-3.33.1",
            "Image SLES15-SP4-Manager-Server-4-3-Azure-ltd:java-11-openjdk-11.0.4.0-3.33.1",
            "Image SLES15-SP4-Manager-Server-4-3-Azure-ltd:java-11-openjdk-headless-11.0.4.0-3.33.1",
            "Image SLES15-SP4-Manager-Server-4-3-BYOS-Azure:java-11-openjdk-11.0.4.0-3.33.1",
            "Image SLES15-SP4-Manager-Server-4-3-BYOS-Azure:java-11-openjdk-headless-11.0.4.0-3.33.1",
            "Image SLES15-SP4-Manager-Server-4-3-BYOS-EC2:java-11-openjdk-11.0.4.0-3.33.1",
            "Image SLES15-SP4-Manager-Server-4-3-BYOS-EC2:java-11-openjdk-headless-11.0.4.0-3.33.1",
            "Image SLES15-SP4-Manager-Server-4-3-BYOS-GCE:java-11-openjdk-11.0.4.0-3.33.1",
            "Image SLES15-SP4-Manager-Server-4-3-BYOS-GCE:java-11-openjdk-headless-11.0.4.0-3.33.1",
            "Image SLES15-SP4-Manager-Server-4-3-BYOS:java-11-openjdk-11.0.4.0-3.33.1",
            "Image SLES15-SP4-Manager-Server-4-3-BYOS:java-11-openjdk-headless-11.0.4.0-3.33.1",
            "Image SLES15-SP4-Manager-Server-4-3-EC2-llc:java-11-openjdk-11.0.4.0-3.33.1",
            "Image SLES15-SP4-Manager-Server-4-3-EC2-llc:java-11-openjdk-headless-11.0.4.0-3.33.1",
            "Image SLES15-SP4-Manager-Server-4-3-EC2-ltd:java-11-openjdk-11.0.4.0-3.33.1",
            "Image SLES15-SP4-Manager-Server-4-3-EC2-ltd:java-11-openjdk-headless-11.0.4.0-3.33.1",
            "Image SLES15-SP4-Manager-Server-4-3:java-11-openjdk-11.0.4.0-3.33.1",
            "Image SLES15-SP4-Manager-Server-4-3:java-11-openjdk-headless-11.0.4.0-3.33.1",
            "SUSE Linux Enterprise Module for Basesystem 15 SP1:java-11-openjdk-11.0.4.0-3.33.1",
            "SUSE Linux Enterprise Module for Basesystem 15 SP1:java-11-openjdk-demo-11.0.4.0-3.33.1",
            "SUSE Linux Enterprise Module for Basesystem 15 SP1:java-11-openjdk-devel-11.0.4.0-3.33.1",
            "SUSE Linux Enterprise Module for Basesystem 15 SP1:java-11-openjdk-headless-11.0.4.0-3.33.1",
            "SUSE Linux Enterprise Module for Basesystem 15:java-11-openjdk-11.0.4.0-3.33.1",
            "SUSE Linux Enterprise Module for Basesystem 15:java-11-openjdk-demo-11.0.4.0-3.33.1",
            "SUSE Linux Enterprise Module for Basesystem 15:java-11-openjdk-devel-11.0.4.0-3.33.1",
            "SUSE Linux Enterprise Module for Basesystem 15:java-11-openjdk-headless-11.0.4.0-3.33.1"
          ]
        }
      ],
      "CVSSScoreSets": {}
    },
    {
      "CVE": "CVE-2019-2816",
      "Description": "Vulnerability in the Java SE, Java SE Embedded component of Oracle Java SE (subcomponent: Networking). Supported versions that are affected are Java SE: 7u221, 8u212, 11.0.3 and 12.0.1; Java SE Embedded: 8u211. Difficult to exploit vulnerability allows unauthenticated attacker with network access via multiple protocols to compromise Java SE, Java SE Embedded. Successful attacks of this vulnerability can result in unauthorized update, insert or delete access to some of Java SE, Java SE Embedded accessible data as well as unauthorized read access to a subset of Java SE, Java SE Embedded accessible data. Note: This vulnerability applies to Java deployments, typically in clients running sandboxed Java Web Start applications or sandboxed Java applets (in Java SE 8), that load and run untrusted code (e.g., code that comes from the internet) and rely on the Java sandbox for security. This vulnerability can also be exploited by using APIs in the specified Component, e.g., through a web service which supplies data to the APIs. CVSS 3.0 Base Score 4.8 (Confidentiality and Integrity impacts). CVSS Vector: (CVSS:3.0/AV:N/AC:H/PR:N/UI:N/S:U/C:L/I:L/A:N).",
      "Threats": [
        {
          "Type": "Impact",
          "Severity": "moderate"
        }
      ],
      "References": [
        {
          "URL": "https://www.suse.com/security/cve/CVE-2019-2816.html",
          "Description": "CVE-2019-2816"
        },
        {
          "URL": "https://bugzilla.suse.com/1141785",
          "Description": "SUSE Bug 1141785"
        },
        {
          "URL": "https://bugzilla.suse.com/1147021",
          "Description": "SUSE Bug 1147021"
        }
      ],
      "ProductStatuses": [
        {
          "Type": "Fixed",
          "ProductID": [
            "Container bci/openjdk-devel:11:java-11-openjdk-11.0.4.0-3.33.1",
            "Container bci/openjdk-devel:11:java-11-openjdk-devel-11.0.4.0-3.33.1",
            "Container bci/openjdk-devel:11:java-11-openjdk-headless-11.0.4.0-3.33.1",
            "Container bci/openjdk:11:java-11-openjdk-11.0.4.0-3.33.1",
            "Container bci/openjdk:11:java-11-openjdk-headless-11.0.4.0-3.33.1",
            "Container bci/openjdk:latest:java-11-openjdk-11.0.4.0-3.33.1",
            "Container bci/openjdk:latest:java-11-openjdk-headless-11.0.4.0-3.33.1",
            "Container suse/manager/5.0/x86_64/server-attestation:latest:java-11-openjdk-headless-11.0.4.0-3.33.1",
            "Container suse/manager/5.0/x86_64/server:latest:java-11-openjdk-11.0.4.0-3.33.1",
            "Container suse/manager/5.0/x86_64/server:latest:java-11-openjdk-headless-11.0.4.0-3.33.1",
            "Image SLES15-SP1-Manager-4-0-Azure-BYOS-Server:java-11-openjdk-11.0.4.0-3.33.1",
            "Image SLES15-SP1-Manager-4-0-Azure-BYOS-Server:java-11-openjdk-headless-11.0.4.0-3.33.1",
            "Image SLES15-SP1-Manager-4-0-EC2-HVM-BYOS-Server:java-11-openjdk-11.0.4.0-3.33.1",
            "Image SLES15-SP1-Manager-4-0-EC2-HVM-BYOS-Server:java-11-openjdk-headless-11.0.4.0-3.33.1",
            "Image SLES15-SP1-Manager-4-0-GCE-BYOS-Server:java-11-openjdk-11.0.4.0-3.33.1",
            "Image SLES15-SP1-Manager-4-0-GCE-BYOS-Server:java-11-openjdk-headless-11.0.4.0-3.33.1",
            "Image SLES15-SP2-Manager-4-1-Server-BYOS-Azure:java-11-openjdk-11.0.4.0-3.33.1",
            "Image SLES15-SP2-Manager-4-1-Server-BYOS-Azure:java-11-openjdk-headless-11.0.4.0-3.33.1",
            "Image SLES15-SP2-Manager-4-1-Server-BYOS-EC2-HVM:java-11-openjdk-11.0.4.0-3.33.1",
            "Image SLES15-SP2-Manager-4-1-Server-BYOS-EC2-HVM:java-11-openjdk-headless-11.0.4.0-3.33.1",
            "Image SLES15-SP2-Manager-4-1-Server-BYOS-GCE:java-11-openjdk-11.0.4.0-3.33.1",
            "Image SLES15-SP2-Manager-4-1-Server-BYOS-GCE:java-11-openjdk-headless-11.0.4.0-3.33.1",
            "Image SLES15-SP3-Manager-4-2-Server-BYOS-Azure:java-11-openjdk-11.0.4.0-3.33.1",
            "Image SLES15-SP3-Manager-4-2-Server-BYOS-Azure:java-11-openjdk-headless-11.0.4.0-3.33.1",
            "Image SLES15-SP3-Manager-4-2-Server-BYOS-EC2-HVM:java-11-openjdk-11.0.4.0-3.33.1",
            "Image SLES15-SP3-Manager-4-2-Server-BYOS-EC2-HVM:java-11-openjdk-headless-11.0.4.0-3.33.1",
            "Image SLES15-SP3-Manager-4-2-Server-BYOS-GCE:java-11-openjdk-11.0.4.0-3.33.1",
            "Image SLES15-SP3-Manager-4-2-Server-BYOS-GCE:java-11-openjdk-headless-11.0.4.0-3.33.1",
            "Image SLES15-SP4-Manager-Server-4-3-Azure-llc:java-11-openjdk-11.0.4.0-3.33.1",
            "Image SLES15-SP4-Manager-Server-4-3-Azure-llc:java-11-openjdk-headless-11.0.4.0-3.33.1",
            "Image SLES15-SP4-Manager-Server-4-3-Azure-ltd:java-11-openjdk-11.0.4.0-3.33.1",
            "Image SLES15-SP4-Manager-Server-4-3-Azure-ltd:java-11-openjdk-headless-11.0.4.0-3.33.1",
            "Image SLES15-SP4-Manager-Server-4-3-BYOS-Azure:java-11-openjdk-11.0.4.0-3.33.1",
            "Image SLES15-SP4-Manager-Server-4-3-BYOS-Azure:java-11-openjdk-headless-11.0.4.0-3.33.1",
            "Image SLES15-SP4-Manager-Server-4-3-BYOS-EC2:java-11-openjdk-11.0.4.0-3.33.1",
            "Image SLES15-SP4-Manager-Server-4-3-BYOS-EC2:java-11-openjdk-headless-11.0.4.0-3.33.1",
            "Image SLES15-SP4-Manager-Server-4-3-BYOS-GCE:java-11-openjdk-11.0.4.0-3.33.1",
            "Image SLES15-SP4-Manager-Server-4-3-BYOS-GCE:java-11-openjdk-headless-11.0.4.0-3.33.1",
            "Image SLES15-SP4-Manager-Server-4-3-BYOS:java-11-openjdk-11.0.4.0-3.33.1",
            "Image SLES15-SP4-Manager-Server-4-3-BYOS:java-11-openjdk-headless-11.0.4.0-3.33.1",
            "Image SLES15-SP4-Manager-Server-4-3-EC2-llc:java-11-openjdk-11.0.4.0-3.33.1",
            "Image SLES15-SP4-Manager-Server-4-3-EC2-llc:java-11-openjdk-headless-11.0.4.0-3.33.1",
            "Image SLES15-SP4-Manager-Server-4-3-EC2-ltd:java-11-openjdk-11.0.4.0-3.33.1",
            "Image SLES15-SP4-Manager-Server-4-3-EC2-ltd:java-11-openjdk-headless-11.0.4.0-3.33.1",
            "Image SLES15-SP4-Manager-Server-4-3:java-11-openjdk-11.0.4.0-3.33.1",
            "Image SLES15-SP4-Manager-Server-4-3:java-11-openjdk-headless-11.0.4.0-3.33.1",
            "SUSE Linux Enterprise Module for Basesystem 15 SP1:java-11-openjdk-11.0.4.0-3.33.1",
            "SUSE Linux Enterprise Module for Basesystem 15 SP1:java-11-openjdk-demo-11.0.4.0-3.33.1",
            "SUSE Linux Enterprise Module for Basesystem 15 SP1:java-11-openjdk-devel-11.0.4.0-3.33.1",
            "SUSE Linux Enterprise Module for Basesystem 15 SP1:java-11-openjdk-headless-11.0.4.0-3.33.1",
            "SUSE Linux Enterprise Module for Basesystem 15:java-11-openjdk-11.0.4.0-3.33.1",
            "SUSE Linux Enterprise Module for Basesystem 15:java-11-openjdk-demo-11.0.4.0-3.33.1",
            "SUSE Linux Enterprise Module for Basesystem 15:java-11-openjdk-devel-11.0.4.0-3.33.1",
            "SUSE Linux Enterprise Module for Basesystem 15:java-11-openjdk-headless-11.0.4.0-3.33.1"
          ]
        }
      ],
      "CVSSScoreSets": {}
    },
    {
      "CVE": "CVE-2019-2818",
      "Description": "Vulnerability in the Java SE component of Oracle Java SE (subcomponent: Security). Supported versions that are affected are Java SE: 11.0.3 and 12.0.1. Difficult to exploit vulnerability allows unauthenticated attacker with network access via multiple protocols to compromise Java SE. Successful attacks require human interaction from a person other than the attacker. Successful attacks of this vulnerability can result in unauthorized read access to a subset of Java SE accessible data. Note: This vulnerability applies to Java deployments, typically in clients running sandboxed Java Web Start applications or sandboxed Java applets (in Java SE 8), that load and run untrusted code (e.g., code that comes from the internet) and rely on the Java sandbox for security. This vulnerability does not apply to Java deployments, typically in servers, that load and run only trusted code (e.g., code installed by an administrator). CVSS 3.0 Base Score 3.1 (Confidentiality impacts). CVSS Vector: (CVSS:3.0/AV:N/AC:H/PR:N/UI:R/S:U/C:L/I:N/A:N).",
      "Threats": [
        {
          "Type": "Impact",
          "Severity": "important"
        }
      ],
      "References": [
        {
          "URL": "https://www.suse.com/security/cve/CVE-2019-2818.html",
          "Description": "CVE-2019-2818"
        },
        {
          "URL": "https://bugzilla.suse.com/1141788",
          "Description": "SUSE Bug 1141788"
        }
      ],
      "ProductStatuses": [
        {
          "Type": "Fixed",
          "ProductID": [
            "Container bci/openjdk-devel:11:java-11-openjdk-11.0.4.0-3.33.1",
            "Container bci/openjdk-devel:11:java-11-openjdk-devel-11.0.4.0-3.33.1",
            "Container bci/openjdk-devel:11:java-11-openjdk-headless-11.0.4.0-3.33.1",
            "Container bci/openjdk:11:java-11-openjdk-11.0.4.0-3.33.1",
            "Container bci/openjdk:11:java-11-openjdk-headless-11.0.4.0-3.33.1",
            "Container bci/openjdk:latest:java-11-openjdk-11.0.4.0-3.33.1",
            "Container bci/openjdk:latest:java-11-openjdk-headless-11.0.4.0-3.33.1",
            "Container suse/manager/5.0/x86_64/server-attestation:latest:java-11-openjdk-headless-11.0.4.0-3.33.1",
            "Container suse/manager/5.0/x86_64/server:latest:java-11-openjdk-11.0.4.0-3.33.1",
            "Container suse/manager/5.0/x86_64/server:latest:java-11-openjdk-headless-11.0.4.0-3.33.1",
            "Image SLES15-SP1-Manager-4-0-Azure-BYOS-Server:java-11-openjdk-11.0.4.0-3.33.1",
            "Image SLES15-SP1-Manager-4-0-Azure-BYOS-Server:java-11-openjdk-headless-11.0.4.0-3.33.1",
            "Image SLES15-SP1-Manager-4-0-EC2-HVM-BYOS-Server:java-11-openjdk-11.0.4.0-3.33.1",
            "Image SLES15-SP1-Manager-4-0-EC2-HVM-BYOS-Server:java-11-openjdk-headless-11.0.4.0-3.33.1",
            "Image SLES15-SP1-Manager-4-0-GCE-BYOS-Server:java-11-openjdk-11.0.4.0-3.33.1",
            "Image SLES15-SP1-Manager-4-0-GCE-BYOS-Server:java-11-openjdk-headless-11.0.4.0-3.33.1",
            "Image SLES15-SP2-Manager-4-1-Server-BYOS-Azure:java-11-openjdk-11.0.4.0-3.33.1",
            "Image SLES15-SP2-Manager-4-1-Server-BYOS-Azure:java-11-openjdk-headless-11.0.4.0-3.33.1",
            "Image SLES15-SP2-Manager-4-1-Server-BYOS-EC2-HVM:java-11-openjdk-11.0.4.0-3.33.1",
            "Image SLES15-SP2-Manager-4-1-Server-BYOS-EC2-HVM:java-11-openjdk-headless-11.0.4.0-3.33.1",
            "Image SLES15-SP2-Manager-4-1-Server-BYOS-GCE:java-11-openjdk-11.0.4.0-3.33.1",
            "Image SLES15-SP2-Manager-4-1-Server-BYOS-GCE:java-11-openjdk-headless-11.0.4.0-3.33.1",
            "Image SLES15-SP3-Manager-4-2-Server-BYOS-Azure:java-11-openjdk-11.0.4.0-3.33.1",
            "Image SLES15-SP3-Manager-4-2-Server-BYOS-Azure:java-11-openjdk-headless-11.0.4.0-3.33.1",
            "Image SLES15-SP3-Manager-4-2-Server-BYOS-EC2-HVM:java-11-openjdk-11.0.4.0-3.33.1",
            "Image SLES15-SP3-Manager-4-2-Server-BYOS-EC2-HVM:java-11-openjdk-headless-11.0.4.0-3.33.1",
            "Image SLES15-SP3-Manager-4-2-Server-BYOS-GCE:java-11-openjdk-11.0.4.0-3.33.1",
            "Image SLES15-SP3-Manager-4-2-Server-BYOS-GCE:java-11-openjdk-headless-11.0.4.0-3.33.1",
            "Image SLES15-SP4-Manager-Server-4-3-Azure-llc:java-11-openjdk-11.0.4.0-3.33.1",
            "Image SLES15-SP4-Manager-Server-4-3-Azure-llc:java-11-openjdk-headless-11.0.4.0-3.33.1",
            "Image SLES15-SP4-Manager-Server-4-3-Azure-ltd:java-11-openjdk-11.0.4.0-3.33.1",
            "Image SLES15-SP4-Manager-Server-4-3-Azure-ltd:java-11-openjdk-headless-11.0.4.0-3.33.1",
            "Image SLES15-SP4-Manager-Server-4-3-BYOS-Azure:java-11-openjdk-11.0.4.0-3.33.1",
            "Image SLES15-SP4-Manager-Server-4-3-BYOS-Azure:java-11-openjdk-headless-11.0.4.0-3.33.1",
            "Image SLES15-SP4-Manager-Server-4-3-BYOS-EC2:java-11-openjdk-11.0.4.0-3.33.1",
            "Image SLES15-SP4-Manager-Server-4-3-BYOS-EC2:java-11-openjdk-headless-11.0.4.0-3.33.1",
            "Image SLES15-SP4-Manager-Server-4-3-BYOS-GCE:java-11-openjdk-11.0.4.0-3.33.1",
            "Image SLES15-SP4-Manager-Server-4-3-BYOS-GCE:java-11-openjdk-headless-11.0.4.0-3.33.1",
            "Image SLES15-SP4-Manager-Server-4-3-BYOS:java-11-openjdk-11.0.4.0-3.33.1",
            "Image SLES15-SP4-Manager-Server-4-3-BYOS:java-11-openjdk-headless-11.0.4.0-3.33.1",
            "Image SLES15-SP4-Manager-Server-4-3-EC2-llc:java-11-openjdk-11.0.4.0-3.33.1",
            "Image SLES15-SP4-Manager-Server-4-3-EC2-llc:java-11-openjdk-headless-11.0.4.0-3.33.1",
            "Image SLES15-SP4-Manager-Server-4-3-EC2-ltd:java-11-openjdk-11.0.4.0-3.33.1",
            "Image SLES15-SP4-Manager-Server-4-3-EC2-ltd:java-11-openjdk-headless-11.0.4.0-3.33.1",
            "Image SLES15-SP4-Manager-Server-4-3:java-11-openjdk-11.0.4.0-3.33.1",
            "Image SLES15-SP4-Manager-Server-4-3:java-11-openjdk-headless-11.0.4.0-3.33.1",
            "SUSE Linux Enterprise Module for Basesystem 15 SP1:java-11-openjdk-11.0.4.0-3.33.1",
            "SUSE Linux Enterprise Module for Basesystem 15 SP1:java-11-openjdk-demo-11.0.4.0-3.33.1",
            "SUSE Linux Enterprise Module for Basesystem 15 SP1:java-11-openjdk-devel-11.0.4.0-3.33.1",
            "SUSE Linux Enterprise Module for Basesystem 15 SP1:java-11-openjdk-headless-11.0.4.0-3.33.1",
            "SUSE Linux Enterprise Module for Basesystem 15:java-11-openjdk-11.0.4.0-3.33.1",
            "SUSE Linux Enterprise Module for Basesystem 15:java-11-openjdk-demo-11.0.4.0-3.33.1",
            "SUSE Linux Enterprise Module for Basesystem 15:java-11-openjdk-devel-11.0.4.0-3.33.1",
            "SUSE Linux Enterprise Module for Basesystem 15:java-11-openjdk-headless-11.0.4.0-3.33.1"
          ]
        }
      ],
      "CVSSScoreSets": {}
    },
    {
      "CVE": "CVE-2019-2821",
      "Description": "Vulnerability in the Java SE component of Oracle Java SE (subcomponent: JSSE). Supported versions that are affected are Java SE: 11.0.3 and 12.0.1. Difficult to exploit vulnerability allows unauthenticated attacker with network access via TLS to compromise Java SE. Successful attacks require human interaction from a person other than the attacker. Successful attacks of this vulnerability can result in unauthorized access to critical data or complete access to all Java SE accessible data. Note: This vulnerability applies to Java deployments, typically in clients running sandboxed Java Web Start applications or sandboxed Java applets (in Java SE 8), that load and run untrusted code (e.g., code that comes from the internet) and rely on the Java sandbox for security. This vulnerability does not apply to Java deployments, typically in servers, that load and run only trusted code (e.g., code installed by an administrator). CVSS 3.0 Base Score 5.3 (Confidentiality impacts). CVSS Vector: (CVSS:3.0/AV:N/AC:H/PR:N/UI:R/S:U/C:H/I:N/A:N).",
      "Threats": [
        {
          "Type": "Impact",
          "Severity": "important"
        }
      ],
      "References": [
        {
          "URL": "https://www.suse.com/security/cve/CVE-2019-2821.html",
          "Description": "CVE-2019-2821"
        },
        {
          "URL": "https://bugzilla.suse.com/1141781",
          "Description": "SUSE Bug 1141781"
        }
      ],
      "ProductStatuses": [
        {
          "Type": "Fixed",
          "ProductID": [
            "Container bci/openjdk-devel:11:java-11-openjdk-11.0.4.0-3.33.1",
            "Container bci/openjdk-devel:11:java-11-openjdk-devel-11.0.4.0-3.33.1",
            "Container bci/openjdk-devel:11:java-11-openjdk-headless-11.0.4.0-3.33.1",
            "Container bci/openjdk:11:java-11-openjdk-11.0.4.0-3.33.1",
            "Container bci/openjdk:11:java-11-openjdk-headless-11.0.4.0-3.33.1",
            "Container bci/openjdk:latest:java-11-openjdk-11.0.4.0-3.33.1",
            "Container bci/openjdk:latest:java-11-openjdk-headless-11.0.4.0-3.33.1",
            "Container suse/manager/5.0/x86_64/server-attestation:latest:java-11-openjdk-headless-11.0.4.0-3.33.1",
            "Container suse/manager/5.0/x86_64/server:latest:java-11-openjdk-11.0.4.0-3.33.1",
            "Container suse/manager/5.0/x86_64/server:latest:java-11-openjdk-headless-11.0.4.0-3.33.1",
            "Image SLES15-SP1-Manager-4-0-Azure-BYOS-Server:java-11-openjdk-11.0.4.0-3.33.1",
            "Image SLES15-SP1-Manager-4-0-Azure-BYOS-Server:java-11-openjdk-headless-11.0.4.0-3.33.1",
            "Image SLES15-SP1-Manager-4-0-EC2-HVM-BYOS-Server:java-11-openjdk-11.0.4.0-3.33.1",
            "Image SLES15-SP1-Manager-4-0-EC2-HVM-BYOS-Server:java-11-openjdk-headless-11.0.4.0-3.33.1",
            "Image SLES15-SP1-Manager-4-0-GCE-BYOS-Server:java-11-openjdk-11.0.4.0-3.33.1",
            "Image SLES15-SP1-Manager-4-0-GCE-BYOS-Server:java-11-openjdk-headless-11.0.4.0-3.33.1",
            "Image SLES15-SP2-Manager-4-1-Server-BYOS-Azure:java-11-openjdk-11.0.4.0-3.33.1",
            "Image SLES15-SP2-Manager-4-1-Server-BYOS-Azure:java-11-openjdk-headless-11.0.4.0-3.33.1",
            "Image SLES15-SP2-Manager-4-1-Server-BYOS-EC2-HVM:java-11-openjdk-11.0.4.0-3.33.1",
            "Image SLES15-SP2-Manager-4-1-Server-BYOS-EC2-HVM:java-11-openjdk-headless-11.0.4.0-3.33.1",
            "Image SLES15-SP2-Manager-4-1-Server-BYOS-GCE:java-11-openjdk-11.0.4.0-3.33.1",
            "Image SLES15-SP2-Manager-4-1-Server-BYOS-GCE:java-11-openjdk-headless-11.0.4.0-3.33.1",
            "Image SLES15-SP3-Manager-4-2-Server-BYOS-Azure:java-11-openjdk-11.0.4.0-3.33.1",
            "Image SLES15-SP3-Manager-4-2-Server-BYOS-Azure:java-11-openjdk-headless-11.0.4.0-3.33.1",
            "Image SLES15-SP3-Manager-4-2-Server-BYOS-EC2-HVM:java-11-openjdk-11.0.4.0-3.33.1",
            "Image SLES15-SP3-Manager-4-2-Server-BYOS-EC2-HVM:java-11-openjdk-headless-11.0.4.0-3.33.1",
            "Image SLES15-SP3-Manager-4-2-Server-BYOS-GCE:java-11-openjdk-11.0.4.0-3.33.1",
            "Image SLES15-SP3-Manager-4-2-Server-BYOS-GCE:java-11-openjdk-headless-11.0.4.0-3.33.1",
            "Image SLES15-SP4-Manager-Server-4-3-Azure-llc:java-11-openjdk-11.0.4.0-3.33.1",
            "Image SLES15-SP4-Manager-Server-4-3-Azure-llc:java-11-openjdk-headless-11.0.4.0-3.33.1",
            "Image SLES15-SP4-Manager-Server-4-3-Azure-ltd:java-11-openjdk-11.0.4.0-3.33.1",
            "Image SLES15-SP4-Manager-Server-4-3-Azure-ltd:java-11-openjdk-headless-11.0.4.0-3.33.1",
            "Image SLES15-SP4-Manager-Server-4-3-BYOS-Azure:java-11-openjdk-11.0.4.0-3.33.1",
            "Image SLES15-SP4-Manager-Server-4-3-BYOS-Azure:java-11-openjdk-headless-11.0.4.0-3.33.1",
            "Image SLES15-SP4-Manager-Server-4-3-BYOS-EC2:java-11-openjdk-11.0.4.0-3.33.1",
            "Image SLES15-SP4-Manager-Server-4-3-BYOS-EC2:java-11-openjdk-headless-11.0.4.0-3.33.1",
            "Image SLES15-SP4-Manager-Server-4-3-BYOS-GCE:java-11-openjdk-11.0.4.0-3.33.1",
            "Image SLES15-SP4-Manager-Server-4-3-BYOS-GCE:java-11-openjdk-headless-11.0.4.0-3.33.1",
            "Image SLES15-SP4-Manager-Server-4-3-BYOS:java-11-openjdk-11.0.4.0-3.33.1",
            "Image SLES15-SP4-Manager-Server-4-3-BYOS:java-11-openjdk-headless-11.0.4.0-3.33.1",
            "Image SLES15-SP4-Manager-Server-4-3-EC2-llc:java-11-openjdk-11.0.4.0-3.33.1",
            "Image SLES15-SP4-Manager-Server-4-3-EC2-llc:java-11-openjdk-headless-11.0.4.0-3.33.1",
            "Image SLES15-SP4-Manager-Server-4-3-EC2-ltd:java-11-openjdk-11.0.4.0-3.33.1",
            "Image SLES15-SP4-Manager-Server-4-3-EC2-ltd:java-11-openjdk-headless-11.0.4.0-3.33.1",
            "Image SLES15-SP4-Manager-Server-4-3:java-11-openjdk-11.0.4.0-3.33.1",
            "Image SLES15-SP4-Manager-Server-4-3:java-11-openjdk-headless-11.0.4.0-3.33.1",
            "SUSE Linux Enterprise Module for Basesystem 15 SP1:java-11-openjdk-11.0.4.0-3.33.1",
            "SUSE Linux Enterprise Module for Basesystem 15 SP1:java-11-openjdk-demo-11.0.4.0-3.33.1",
            "SUSE Linux Enterprise Module for Basesystem 15 SP1:java-11-openjdk-devel-11.0.4.0-3.33.1",
            "SUSE Linux Enterprise Module for Basesystem 15 SP1:java-11-openjdk-headless-11.0.4.0-3.33.1",
            "SUSE Linux Enterprise Module for Basesystem 15:java-11-openjdk-11.0.4.0-3.33.1",
            "SUSE Linux Enterprise Module for Basesystem 15:java-11-openjdk-demo-11.0.4.0-3.33.1",
            "SUSE Linux Enterprise Module for Basesystem 15:java-11-openjdk-devel-11.0.4.0-3.33.1",
            "SUSE Linux Enterprise Module for Basesystem 15:java-11-openjdk-headless-11.0.4.0-3.33.1"
          ]
        }
      ],
      "CVSSScoreSets": {}
    },
    {
      "CVE": "CVE-2019-7317",
      "Description": "png_image_free in png.c in libpng 1.6.x before 1.6.37 has a use-after-free because png_image_free_function is called under png_safe_execute.",
      "Threats": [
        {
          "Type": "Impact",
          "Severity": "low"
        }
      ],
      "References": [
        {
          "URL": "https://www.suse.com/security/cve/CVE-2019-7317.html",
          "Description": "CVE-2019-7317"
        },
        {
          "URL": "https://bugzilla.suse.com/1124211",
          "Description": "SUSE Bug 1124211"
        },
        {
          "URL": "https://bugzilla.suse.com/1135824",
          "Description": "SUSE Bug 1135824"
        },
        {
          "URL": "https://bugzilla.suse.com/1141780",
          "Description": "SUSE Bug 1141780"
        },
        {
          "URL": "https://bugzilla.suse.com/1147021",
          "Description": "SUSE Bug 1147021"
        },
        {
          "URL": "https://bugzilla.suse.com/1165297",
          "Description": "SUSE Bug 1165297"
        }
      ],
      "ProductStatuses": [
        {
          "Type": "Fixed",
          "ProductID": [
            "Container bci/openjdk-devel:11:java-11-openjdk-11.0.4.0-3.33.1",
            "Container bci/openjdk-devel:11:java-11-openjdk-devel-11.0.4.0-3.33.1",
            "Container bci/openjdk-devel:11:java-11-openjdk-headless-11.0.4.0-3.33.1",
            "Container bci/openjdk:11:java-11-openjdk-11.0.4.0-3.33.1",
            "Container bci/openjdk:11:java-11-openjdk-headless-11.0.4.0-3.33.1",
            "Container bci/openjdk:latest:java-11-openjdk-11.0.4.0-3.33.1",
            "Container bci/openjdk:latest:java-11-openjdk-headless-11.0.4.0-3.33.1",
            "Container suse/manager/5.0/x86_64/server-attestation:latest:java-11-openjdk-headless-11.0.4.0-3.33.1",
            "Container suse/manager/5.0/x86_64/server:latest:java-11-openjdk-11.0.4.0-3.33.1",
            "Container suse/manager/5.0/x86_64/server:latest:java-11-openjdk-headless-11.0.4.0-3.33.1",
            "Image SLES15-SP1-Manager-4-0-Azure-BYOS-Server:java-11-openjdk-11.0.4.0-3.33.1",
            "Image SLES15-SP1-Manager-4-0-Azure-BYOS-Server:java-11-openjdk-headless-11.0.4.0-3.33.1",
            "Image SLES15-SP1-Manager-4-0-EC2-HVM-BYOS-Server:java-11-openjdk-11.0.4.0-3.33.1",
            "Image SLES15-SP1-Manager-4-0-EC2-HVM-BYOS-Server:java-11-openjdk-headless-11.0.4.0-3.33.1",
            "Image SLES15-SP1-Manager-4-0-GCE-BYOS-Server:java-11-openjdk-11.0.4.0-3.33.1",
            "Image SLES15-SP1-Manager-4-0-GCE-BYOS-Server:java-11-openjdk-headless-11.0.4.0-3.33.1",
            "Image SLES15-SP2-Manager-4-1-Server-BYOS-Azure:java-11-openjdk-11.0.4.0-3.33.1",
            "Image SLES15-SP2-Manager-4-1-Server-BYOS-Azure:java-11-openjdk-headless-11.0.4.0-3.33.1",
            "Image SLES15-SP2-Manager-4-1-Server-BYOS-EC2-HVM:java-11-openjdk-11.0.4.0-3.33.1",
            "Image SLES15-SP2-Manager-4-1-Server-BYOS-EC2-HVM:java-11-openjdk-headless-11.0.4.0-3.33.1",
            "Image SLES15-SP2-Manager-4-1-Server-BYOS-GCE:java-11-openjdk-11.0.4.0-3.33.1",
            "Image SLES15-SP2-Manager-4-1-Server-BYOS-GCE:java-11-openjdk-headless-11.0.4.0-3.33.1",
            "Image SLES15-SP3-Manager-4-2-Server-BYOS-Azure:java-11-openjdk-11.0.4.0-3.33.1",
            "Image SLES15-SP3-Manager-4-2-Server-BYOS-Azure:java-11-openjdk-headless-11.0.4.0-3.33.1",
            "Image SLES15-SP3-Manager-4-2-Server-BYOS-EC2-HVM:java-11-openjdk-11.0.4.0-3.33.1",
            "Image SLES15-SP3-Manager-4-2-Server-BYOS-EC2-HVM:java-11-openjdk-headless-11.0.4.0-3.33.1",
            "Image SLES15-SP3-Manager-4-2-Server-BYOS-GCE:java-11-openjdk-11.0.4.0-3.33.1",
            "Image SLES15-SP3-Manager-4-2-Server-BYOS-GCE:java-11-openjdk-headless-11.0.4.0-3.33.1",
            "Image SLES15-SP4-Manager-Server-4-3-Azure-llc:java-11-openjdk-11.0.4.0-3.33.1",
            "Image SLES15-SP4-Manager-Server-4-3-Azure-llc:java-11-openjdk-headless-11.0.4.0-3.33.1",
            "Image SLES15-SP4-Manager-Server-4-3-Azure-ltd:java-11-openjdk-11.0.4.0-3.33.1",
            "Image SLES15-SP4-Manager-Server-4-3-Azure-ltd:java-11-openjdk-headless-11.0.4.0-3.33.1",
            "Image SLES15-SP4-Manager-Server-4-3-BYOS-Azure:java-11-openjdk-11.0.4.0-3.33.1",
            "Image SLES15-SP4-Manager-Server-4-3-BYOS-Azure:java-11-openjdk-headless-11.0.4.0-3.33.1",
            "Image SLES15-SP4-Manager-Server-4-3-BYOS-EC2:java-11-openjdk-11.0.4.0-3.33.1",
            "Image SLES15-SP4-Manager-Server-4-3-BYOS-EC2:java-11-openjdk-headless-11.0.4.0-3.33.1",
            "Image SLES15-SP4-Manager-Server-4-3-BYOS-GCE:java-11-openjdk-11.0.4.0-3.33.1",
            "Image SLES15-SP4-Manager-Server-4-3-BYOS-GCE:java-11-openjdk-headless-11.0.4.0-3.33.1",
            "Image SLES15-SP4-Manager-Server-4-3-BYOS:java-11-openjdk-11.0.4.0-3.33.1",
            "Image SLES15-SP4-Manager-Server-4-3-BYOS:java-11-openjdk-headless-11.0.4.0-3.33.1",
            "Image SLES15-SP4-Manager-Server-4-3-EC2-llc:java-11-openjdk-11.0.4.0-3.33.1",
            "Image SLES15-SP4-Manager-Server-4-3-EC2-llc:java-11-openjdk-headless-11.0.4.0-3.33.1",
            "Image SLES15-SP4-Manager-Server-4-3-EC2-ltd:java-11-openjdk-11.0.4.0-3.33.1",
            "Image SLES15-SP4-Manager-Server-4-3-EC2-ltd:java-11-openjdk-headless-11.0.4.0-3.33.1",
            "Image SLES15-SP4-Manager-Server-4-3:java-11-openjdk-11.0.4.0-3.33.1",
            "Image SLES15-SP4-Manager-Server-4-3:java-11-openjdk-headless-11.0.4.0-3.33.1",
            "SUSE Linux Enterprise Module for Basesystem 15 SP1:java-11-openjdk-11.0.4.0-3.33.1",
            "SUSE Linux Enterprise Module for Basesystem 15 SP1:java-11-openjdk-demo-11.0.4.0-3.33.1",
            "SUSE Linux Enterprise Module for Basesystem 15 SP1:java-11-openjdk-devel-11.0.4.0-3.33.1",
            "SUSE Linux Enterprise Module for Basesystem 15 SP1:java-11-openjdk-headless-11.0.4.0-3.33.1",
            "SUSE Linux Enterprise Module for Basesystem 15:java-11-openjdk-11.0.4.0-3.33.1",
            "SUSE Linux Enterprise Module for Basesystem 15:java-11-openjdk-demo-11.0.4.0-3.33.1",
            "SUSE Linux Enterprise Module for Basesystem 15:java-11-openjdk-devel-11.0.4.0-3.33.1",
            "SUSE Linux Enterprise Module for Basesystem 15:java-11-openjdk-headless-11.0.4.0-3.33.1"
          ]
        }
      ],
      "CVSSScoreSets": {}
    }
  ]
}