{
  "Title": "Security update for SUSE Manager Server 3.2",
  "Tracking": {
    "ID": "SUSE-RU-2019:1006-1",
    "Status": "Final",
    "Version": "1",
    "InitialReleaseDate": "2019-04-24T10:06:34Z",
    "CurrentReleaseDate": "2019-04-24T10:06:34Z",
    "RevisionHistory": [
      {
        "Number": "1",
        "Date": "2019-04-24T10:06:34Z",
        "Description": "current"
      }
    ]
  },
  "Notes": [
    {
      "Text": "Security update for SUSE Manager Server 3.2",
      "Title": "Topic",
      "Type": "Summary"
    },
    {
      "Text": "\nThis update includes the following new features:\n\n  to the repository metadata (fate#325676)\n\nThis update fixes the following issues:\n\napache-commons-lang3:\n\n- Run fdupes on javadoc\n- Specify java target and source level 1.6\n  to make package compatible with JDK \u003e= 1.8\n\ncobbler:\n\n- Fixes case where distribution detection returns None (bsc#1130658)\n- SUSE texmode fix (bsc#1109316)\n\ndrools:\n\n- Update Drools to 7.17.0\n- Release Notes: https://issues.jboss.org/secure/ReleaseNote.jspa\n- Fixes for SLE 15 compatibility \n\nguava:\n\n- Updated from 13.0.1 to 27.0.1\n- Changes between 13.0.1 and 23.0:\n  https://github.com/google/guava/wiki/Release14\n  https://github.com/google/guava/wiki/Release15\n  https://github.com/google/guava/wiki/Release16\n  https://github.com/google/guava/wiki/Release17\n  https://github.com/google/guava/wiki/Release18\n  https://github.com/google/guava/wiki/Release19\n  https://github.com/google/guava/wiki/Release23\n- Changes between 23.0 and 27.0.1:\n  see https://github.com/google/guava/releases\n\njade4j:\n\n- Conditional java/java-devel requires based on os version \n- Update dependency version for commons-lang3 to 3.4\n- Fix building javadoc\n\nkie-api:\n\n- Update KIE to 7.17.0 \n- Release notes: https://issues.jboss.org/secure/ReleaseNote.jspa\n\noptaplanner:\n\n- Update Optaplanner to 7.17.0\n\npy26-compat-salt:\n\n- Fix minion arguments assign via sysctl (bsc#1124290)\n\nsmdba:\n\n- Make 'smdba space-overview' postgresql version\n  agnostic (bsc#1129956)\n- Fix version mismatch\n\nspacecmd:\n\n- Fix system_delete with SSM (bsc#1125744)\n\nspacewalk-admin:\n\n- Fix encoding bug in salt event processing (bsc#1129851)\n\nspacewalk-backend:\n\n- Fix linking of packages in reposync (bsc#1131677)\n- Fix: handle non-standard filenames for comps.xml (bsc#1120242)\n- Mgr-sign-metadata can optionally clear-sign metadata files\n\nspacewalk-branding:\n\n- Introduce a description label for the new 'minion-checkin' Taskomatic job (bsc#1122837)\n\nspacewalk-certs-tools:\n\n- Add support for Ubuntu to bootstrap script\n- Clean up downloaded gpg keys after bootstrap (bsc#1126075)\n\nspacewalk-java:\n\n- Fix base channel selection for Ubuntu systems (bsc#1132579)\n- Fix retrieval of build time for .deb repositories (bsc#1131721)\n- Allow access to susemanager tools channels without res subscription (bsc#1127542)\n- Add support for SLES 15 live patches in CVE audit\n- Add a Taskomatic job to perform minion check-in regularly, drop use of Salt's Mine (bsc#1122837)\n- Fix errata_details to return details correctly (bsc#1128228)\n- Support ubuntu products and debian architectures in mgr-sync\n- Adapt check for available repositories to debian style repositories\n- Add support for custom username when bootstrapping with Salt-SSH\n- Read and update running kernel release value at each startup of minion (bsc#1122381)\n- Add error message on sync refresh when there are no scc credentials\n- Fix apidoc issues \n- Fix deleting server when minion_formulas.json is empty (bsc#1122230)\n- Minion-action-cleanup Taskomatic task: do not clean actions younger than one hour\n- Schedule full package refresh only once per action chain if needed (bsc#1126518)\n- Check and schedule package refresh in response to events independently of what originates them (bsc#1126099)\n- Add configuration option to limit the number of changelog entries added\n  to the repository metadata (fate#325676)\n- Generate InRelease file for Debian/Ubuntu repos when metadata signing is enabled\n\nspacewalk-web:\n\n- Show undetected subscription-matching message object as a string anyway (bsc#1125600)\n- Fix action scheduler time picker prefill when the server is on  'UTC/GMT' timezone (bsc#1121195)\n- Allow username input on bootstrap page when using Salt-SSH\n- Add cache buster for static files (js/css) to fix caching issues after upgrading.\n\nsubscription-matcher:\n\n- Update dependencies (Drools, Optaplanner, Guava, Xstream)\n- Make the java and java-devel requirements variable\n- Relax the requirement condition on apache-commons-lang3\n\nsusemanager:\n\n- Support creating bootstrap repos for Ubuntu 18.04 and 16.04.\n- Allow alternative names for bootstrap packages, to allow\n  using old client tools after package renames\n- Feat: create Ubuntu empty repository\n- Fix creation of bootstrap repositories for SLE12 (no SP) by\n  requiring python-setuptools only for SLE12 \u003e= SP1 (bsc#1129765)\n- Add bootstrap repo definition for SLE15 SP1\n\nsusemanager-docs_en:\n\n- Update text and image files.\n- Fix bad link.\n- Update Manual Backup and smdba sections.\n- Troubleshooting Salt clients.\n- Fix package endpoint in salt pillar content.\n- Ubuntu Clients supported.\n- Change License to GFL 1.2, as it is the real license for the doc\n  since 3.2.0\n\nsusemanager-schema:\n\n- Add a Taskomatic job to perform minion check-in regularly, drop use of Salt's Mine (bsc#1122837)\n- Fix performance regression in inter-server-sync (bsc#1128781)\n- Set minion-action-cleanup run frequency from hourly to daily at midnight\n\nsusemanager-sls:\n\n- Update get_kernel_live_version module to support older Salt versions (bsc#1131490)\n- Update get_kernel_live_version module to support SLES 15 live patches\n- Do not configure Salt Mine in newly registered minions (bsc#1122837)\n- Fix Salt error related to remove_traditional_stack when bootstrapping an Ubuntu\n  minion (bsc#1128724)\n- Automatically trust SUSE GPG key for client tools channels on Ubuntu systems\n- Util.systeminfo sls has been added to perform different actions at minion startup(bsc#1122381) \n\nsusemanager-sync-data:\n\n- Allow access to susemanager tools channels without res subscription (bsc#1127542)\n- Add Ubuntu product definitions\n- Adapt to SCC changes\n- Add CaaSP 4 Toolchain\n\nxstream:\n\n- Update xstream to 1.4.10\n- Major changes:\n- CVE-2017-7957: XStream could cause a Denial of Service when unmarshalling void. (bsc#1070731)\n- New XStream artifact with -java7 appended as version suffix for a library explicitly without the Java 8 stuff (lambda expression support, converters for java.time.* package).\n- Improve performance by minimizing call stack of mapper chain.\n- XSTR-774: Add converters for types of java.time, java.time.chrono, and java.time.temporal packages (converters for LocalDate, LocalDateTime, LocalTime, OffsetDateTime, and ZonedDateTime by Matej Cimbora).\n- JavaBeanConverter does not respect ignored unknown elements.\n- Add XStream.setupDefaultSecurity to initialize security framework with defaults of XStream 1.5.x.\n- Emit error warning if security framework has not been initialized and the XStream instance is vulnerable to known exploits.\n- Feat: modify patch to be compatible with JDK 11 building\n- Fixes for SLE 15 compatibility\n\n",
      "Title": "Details",
      "Type": "General"
    },
    {
      "Text": "The CVRF data is provided by SUSE under the Creative Commons License 4.0 with Attribution (CC-BY-4.0).",
      "Title": "Terms of Use",
      "Type": "Legal Disclaimer"
    },
    {
      "Text": "SUSE-2019-1006,SUSE-SUSE-Manager-Proxy-3.2-2019-1006,SUSE-SUSE-Manager-Server-3.2-2019-1006",
      "Title": "Patchnames",
      "Type": "Details"
    }
  ],
  "ProductTree": {
    "Relationships": [
      {
        "ProductReference": "python2-spacewalk-certs-tools-2.8.8.7-3.6.3",
        "RelatesToProductReference": "SUSE Manager Proxy 3.2",
        "RelationType": "Default Component Of"
      },
      {
        "ProductReference": "spacewalk-backend-2.8.57.14-3.25.3",
        "RelatesToProductReference": "SUSE Manager Proxy 3.2",
        "RelationType": "Default Component Of"
      },
      {
        "ProductReference": "spacewalk-backend-libs-2.8.57.14-3.25.3",
        "RelatesToProductReference": "SUSE Manager Proxy 3.2",
        "RelationType": "Default Component Of"
      },
      {
        "ProductReference": "spacewalk-base-minimal-2.8.7.15-3.24.3",
        "RelatesToProductReference": "SUSE Manager Proxy 3.2",
        "RelationType": "Default Component Of"
      },
      {
        "ProductReference": "spacewalk-base-minimal-config-2.8.7.15-3.24.3",
        "RelatesToProductReference": "SUSE Manager Proxy 3.2",
        "RelationType": "Default Component Of"
      },
      {
        "ProductReference": "spacewalk-certs-tools-2.8.8.7-3.6.3",
        "RelatesToProductReference": "SUSE Manager Proxy 3.2",
        "RelationType": "Default Component Of"
      },
      {
        "ProductReference": "susemanager-web-libs-2.8.7.15-3.24.3",
        "RelatesToProductReference": "SUSE Manager Proxy 3.2",
        "RelationType": "Default Component Of"
      },
      {
        "ProductReference": "apache-commons-lang3-3.4-3.3.3",
        "RelatesToProductReference": "SUSE Manager Server 3.2",
        "RelationType": "Default Component Of"
      },
      {
        "ProductReference": "cobbler-2.6.6-6.16.3",
        "RelatesToProductReference": "SUSE Manager Server 3.2",
        "RelationType": "Default Component Of"
      },
      {
        "ProductReference": "drools-7.17.0-3.3.3",
        "RelatesToProductReference": "SUSE Manager Server 3.2",
        "RelationType": "Default Component Of"
      },
      {
        "ProductReference": "guava-27.0.1-3.3.3",
        "RelatesToProductReference": "SUSE Manager Server 3.2",
        "RelationType": "Default Component Of"
      },
      {
        "ProductReference": "jade4j-1.0.7-3.3.3",
        "RelatesToProductReference": "SUSE Manager Server 3.2",
        "RelationType": "Default Component Of"
      },
      {
        "ProductReference": "kie-api-7.17.0-3.3.3",
        "RelatesToProductReference": "SUSE Manager Server 3.2",
        "RelationType": "Default Component Of"
      },
      {
        "ProductReference": "kie-soup-7.17.0.Final-2.3.3",
        "RelatesToProductReference": "SUSE Manager Server 3.2",
        "RelationType": "Default Component Of"
      },
      {
        "ProductReference": "optaplanner-7.17.0-3.3.3",
        "RelatesToProductReference": "SUSE Manager Server 3.2",
        "RelationType": "Default Component Of"
      },
      {
        "ProductReference": "py26-compat-salt-2016.11.10-6.21.3",
        "RelatesToProductReference": "SUSE Manager Server 3.2",
        "RelationType": "Default Component Of"
      },
      {
        "ProductReference": "python2-spacewalk-certs-tools-2.8.8.7-3.6.3",
        "RelatesToProductReference": "SUSE Manager Server 3.2",
        "RelationType": "Default Component Of"
      },
      {
        "ProductReference": "reprepro-5.3.0-2.3.3",
        "RelatesToProductReference": "SUSE Manager Server 3.2",
        "RelationType": "Default Component Of"
      },
      {
        "ProductReference": "smdba-1.6.4-0.3.9.3",
        "RelatesToProductReference": "SUSE Manager Server 3.2",
        "RelationType": "Default Component Of"
      },
      {
        "ProductReference": "spacecmd-2.8.25.10-3.20.3",
        "RelatesToProductReference": "SUSE Manager Server 3.2",
        "RelationType": "Default Component Of"
      },
      {
        "ProductReference": "spacewalk-admin-2.8.4.4-3.6.3",
        "RelatesToProductReference": "SUSE Manager Server 3.2",
        "RelationType": "Default Component Of"
      },
      {
        "ProductReference": "spacewalk-backend-2.8.57.14-3.25.3",
        "RelatesToProductReference": "SUSE Manager Server 3.2",
        "RelationType": "Default Component Of"
      },
      {
        "ProductReference": "spacewalk-backend-app-2.8.57.14-3.25.3",
        "RelatesToProductReference": "SUSE Manager Server 3.2",
        "RelationType": "Default Component Of"
      },
      {
        "ProductReference": "spacewalk-backend-applet-2.8.57.14-3.25.3",
        "RelatesToProductReference": "SUSE Manager Server 3.2",
        "RelationType": "Default Component Of"
      },
      {
        "ProductReference": "spacewalk-backend-config-files-2.8.57.14-3.25.3",
        "RelatesToProductReference": "SUSE Manager Server 3.2",
        "RelationType": "Default Component Of"
      },
      {
        "ProductReference": "spacewalk-backend-config-files-common-2.8.57.14-3.25.3",
        "RelatesToProductReference": "SUSE Manager Server 3.2",
        "RelationType": "Default Component Of"
      },
      {
        "ProductReference": "spacewalk-backend-config-files-tool-2.8.57.14-3.25.3",
        "RelatesToProductReference": "SUSE Manager Server 3.2",
        "RelationType": "Default Component Of"
      },
      {
        "ProductReference": "spacewalk-backend-iss-2.8.57.14-3.25.3",
        "RelatesToProductReference": "SUSE Manager Server 3.2",
        "RelationType": "Default Component Of"
      },
      {
        "ProductReference": "spacewalk-backend-iss-export-2.8.57.14-3.25.3",
        "RelatesToProductReference": "SUSE Manager Server 3.2",
        "RelationType": "Default Component Of"
      },
      {
        "ProductReference": "spacewalk-backend-libs-2.8.57.14-3.25.3",
        "RelatesToProductReference": "SUSE Manager Server 3.2",
        "RelationType": "Default Component Of"
      },
      {
        "ProductReference": "spacewalk-backend-package-push-server-2.8.57.14-3.25.3",
        "RelatesToProductReference": "SUSE Manager Server 3.2",
        "RelationType": "Default Component Of"
      },
      {
        "ProductReference": "spacewalk-backend-server-2.8.57.14-3.25.3",
        "RelatesToProductReference": "SUSE Manager Server 3.2",
        "RelationType": "Default Component Of"
      },
      {
        "ProductReference": "spacewalk-backend-sql-2.8.57.14-3.25.3",
        "RelatesToProductReference": "SUSE Manager Server 3.2",
        "RelationType": "Default Component Of"
      },
      {
        "ProductReference": "spacewalk-backend-sql-oracle-2.8.57.14-3.25.3",
        "RelatesToProductReference": "SUSE Manager Server 3.2",
        "RelationType": "Default Component Of"
      },
      {
        "ProductReference": "spacewalk-backend-sql-postgresql-2.8.57.14-3.25.3",
        "RelatesToProductReference": "SUSE Manager Server 3.2",
        "RelationType": "Default Component Of"
      },
      {
        "ProductReference": "spacewalk-backend-tools-2.8.57.14-3.25.3",
        "RelatesToProductReference": "SUSE Manager Server 3.2",
        "RelationType": "Default Component Of"
      },
      {
        "ProductReference": "spacewalk-backend-xml-export-libs-2.8.57.14-3.25.3",
        "RelatesToProductReference": "SUSE Manager Server 3.2",
        "RelationType": "Default Component Of"
      },
      {
        "ProductReference": "spacewalk-backend-xmlrpc-2.8.57.14-3.25.3",
        "RelatesToProductReference": "SUSE Manager Server 3.2",
        "RelationType": "Default Component Of"
      },
      {
        "ProductReference": "spacewalk-base-2.8.7.15-3.24.3",
        "RelatesToProductReference": "SUSE Manager Server 3.2",
        "RelationType": "Default Component Of"
      },
      {
        "ProductReference": "spacewalk-base-minimal-2.8.7.15-3.24.3",
        "RelatesToProductReference": "SUSE Manager Server 3.2",
        "RelationType": "Default Component Of"
      },
      {
        "ProductReference": "spacewalk-base-minimal-config-2.8.7.15-3.24.3",
        "RelatesToProductReference": "SUSE Manager Server 3.2",
        "RelationType": "Default Component Of"
      },
      {
        "ProductReference": "spacewalk-branding-2.8.5.15-3.19.3",
        "RelatesToProductReference": "SUSE Manager Server 3.2",
        "RelationType": "Default Component Of"
      },
      {
        "ProductReference": "spacewalk-certs-tools-2.8.8.7-3.6.3",
        "RelatesToProductReference": "SUSE Manager Server 3.2",
        "RelationType": "Default Component Of"
      },
      {
        "ProductReference": "spacewalk-html-2.8.7.15-3.24.3",
        "RelatesToProductReference": "SUSE Manager Server 3.2",
        "RelationType": "Default Component Of"
      },
      {
        "ProductReference": "spacewalk-java-2.8.78.21-3.29.1",
        "RelatesToProductReference": "SUSE Manager Server 3.2",
        "RelationType": "Default Component Of"
      },
      {
        "ProductReference": "spacewalk-java-config-2.8.78.21-3.29.1",
        "RelatesToProductReference": "SUSE Manager Server 3.2",
        "RelationType": "Default Component Of"
      },
      {
        "ProductReference": "spacewalk-java-lib-2.8.78.21-3.29.1",
        "RelatesToProductReference": "SUSE Manager Server 3.2",
        "RelationType": "Default Component Of"
      },
      {
        "ProductReference": "spacewalk-java-oracle-2.8.78.21-3.29.1",
        "RelatesToProductReference": "SUSE Manager Server 3.2",
        "RelationType": "Default Component Of"
      },
      {
        "ProductReference": "spacewalk-java-postgresql-2.8.78.21-3.29.1",
        "RelatesToProductReference": "SUSE Manager Server 3.2",
        "RelationType": "Default Component Of"
      },
      {
        "ProductReference": "spacewalk-taskomatic-2.8.78.21-3.29.1",
        "RelatesToProductReference": "SUSE Manager Server 3.2",
        "RelationType": "Default Component Of"
      },
      {
        "ProductReference": "subscription-matcher-0.23-4.12.3",
        "RelatesToProductReference": "SUSE Manager Server 3.2",
        "RelationType": "Default Component Of"
      },
      {
        "ProductReference": "susemanager-3.2.17-3.22.4",
        "RelatesToProductReference": "SUSE Manager Server 3.2",
        "RelationType": "Default Component Of"
      },
      {
        "ProductReference": "susemanager-schema-3.2.18-3.22.3",
        "RelatesToProductReference": "SUSE Manager Server 3.2",
        "RelationType": "Default Component Of"
      },
      {
        "ProductReference": "susemanager-sls-3.2.23-3.26.3",
        "RelatesToProductReference": "SUSE Manager Server 3.2",
        "RelationType": "Default Component Of"
      },
      {
        "ProductReference": "susemanager-sync-data-3.2.14-3.20.3",
        "RelatesToProductReference": "SUSE Manager Server 3.2",
        "RelationType": "Default Component Of"
      },
      {
        "ProductReference": "susemanager-tools-3.2.17-3.22.4",
        "RelatesToProductReference": "SUSE Manager Server 3.2",
        "RelationType": "Default Component Of"
      },
      {
        "ProductReference": "susemanager-web-libs-2.8.7.15-3.24.3",
        "RelatesToProductReference": "SUSE Manager Server 3.2",
        "RelationType": "Default Component Of"
      },
      {
        "ProductReference": "xstream-1.4.10-4.3.3",
        "RelatesToProductReference": "SUSE Manager Server 3.2",
        "RelationType": "Default Component Of"
      }
    ]
  },
  "References": [
    {
      "URL": "https://www.suse.com/support/update/announcement/-2019-1006/suse-ru-20191006-1/",
      "Description": "Link for SUSE-RU-2019:1006-1"
    },
    {
      "URL": "https://lists.suse.com/pipermail/sle-updates/2019-April/011286.html",
      "Description": "E-Mail link for SUSE-RU-2019:1006-1"
    },
    {
      "URL": "https://www.suse.com/support/security/rating/",
      "Description": "SUSE Security Ratings"
    },
    {
      "URL": "https://bugzilla.suse.com/1070731",
      "Description": "SUSE Bug 1070731"
    },
    {
      "URL": "https://bugzilla.suse.com/1109316",
      "Description": "SUSE Bug 1109316"
    },
    {
      "URL": "https://bugzilla.suse.com/1120242",
      "Description": "SUSE Bug 1120242"
    },
    {
      "URL": "https://bugzilla.suse.com/1121195",
      "Description": "SUSE Bug 1121195"
    },
    {
      "URL": "https://bugzilla.suse.com/1122230",
      "Description": "SUSE Bug 1122230"
    },
    {
      "URL": "https://bugzilla.suse.com/1122381",
      "Description": "SUSE Bug 1122381"
    },
    {
      "URL": "https://bugzilla.suse.com/1122837",
      "Description": "SUSE Bug 1122837"
    },
    {
      "URL": "https://bugzilla.suse.com/1124290",
      "Description": "SUSE Bug 1124290"
    },
    {
      "URL": "https://bugzilla.suse.com/1125600",
      "Description": "SUSE Bug 1125600"
    },
    {
      "URL": "https://bugzilla.suse.com/1125744",
      "Description": "SUSE Bug 1125744"
    },
    {
      "URL": "https://bugzilla.suse.com/1126075",
      "Description": "SUSE Bug 1126075"
    },
    {
      "URL": "https://bugzilla.suse.com/1126099",
      "Description": "SUSE Bug 1126099"
    },
    {
      "URL": "https://bugzilla.suse.com/1126518",
      "Description": "SUSE Bug 1126518"
    },
    {
      "URL": "https://bugzilla.suse.com/1127542",
      "Description": "SUSE Bug 1127542"
    },
    {
      "URL": "https://bugzilla.suse.com/1128228",
      "Description": "SUSE Bug 1128228"
    },
    {
      "URL": "https://bugzilla.suse.com/1128724",
      "Description": "SUSE Bug 1128724"
    },
    {
      "URL": "https://bugzilla.suse.com/1128781",
      "Description": "SUSE Bug 1128781"
    },
    {
      "URL": "https://bugzilla.suse.com/1129765",
      "Description": "SUSE Bug 1129765"
    },
    {
      "URL": "https://bugzilla.suse.com/1129851",
      "Description": "SUSE Bug 1129851"
    },
    {
      "URL": "https://bugzilla.suse.com/1129956",
      "Description": "SUSE Bug 1129956"
    },
    {
      "URL": "https://bugzilla.suse.com/1130658",
      "Description": "SUSE Bug 1130658"
    },
    {
      "URL": "https://bugzilla.suse.com/1131490",
      "Description": "SUSE Bug 1131490"
    },
    {
      "URL": "https://bugzilla.suse.com/1131677",
      "Description": "SUSE Bug 1131677"
    },
    {
      "URL": "https://bugzilla.suse.com/1131721",
      "Description": "SUSE Bug 1131721"
    },
    {
      "URL": "https://bugzilla.suse.com/1132579",
      "Description": "SUSE Bug 1132579"
    },
    {
      "URL": "https://www.suse.com/security/cve/CVE-2017-7957/",
      "Description": "SUSE CVE CVE-2017-7957 page"
    }
  ],
  "Vulnerabilities": [
    {
      "CVE": "CVE-2017-7957",
      "Description": "XStream through 1.4.9, when a certain denyTypes workaround is not used, mishandles attempts to create an instance of the primitive type 'void' during unmarshalling, leading to a remote application crash, as demonstrated by an xstream.fromXML(\"\u003cvoid/\u003e\") call.",
      "Threats": [
        {
          "Type": "Impact",
          "Severity": "moderate"
        }
      ],
      "References": [
        {
          "URL": "https://www.suse.com/security/cve/CVE-2017-7957.html",
          "Description": "CVE-2017-7957"
        },
        {
          "URL": "https://bugzilla.suse.com/1070731",
          "Description": "SUSE Bug 1070731"
        }
      ],
      "ProductStatuses": [
        {
          "Type": "Fixed",
          "ProductID": [
            "SUSE Manager Proxy 3.2:python2-spacewalk-certs-tools-2.8.8.7-3.6.3",
            "SUSE Manager Proxy 3.2:spacewalk-backend-2.8.57.14-3.25.3",
            "SUSE Manager Proxy 3.2:spacewalk-backend-libs-2.8.57.14-3.25.3",
            "SUSE Manager Proxy 3.2:spacewalk-base-minimal-2.8.7.15-3.24.3",
            "SUSE Manager Proxy 3.2:spacewalk-base-minimal-config-2.8.7.15-3.24.3",
            "SUSE Manager Proxy 3.2:spacewalk-certs-tools-2.8.8.7-3.6.3",
            "SUSE Manager Proxy 3.2:susemanager-web-libs-2.8.7.15-3.24.3",
            "SUSE Manager Server 3.2:apache-commons-lang3-3.4-3.3.3",
            "SUSE Manager Server 3.2:cobbler-2.6.6-6.16.3",
            "SUSE Manager Server 3.2:drools-7.17.0-3.3.3",
            "SUSE Manager Server 3.2:guava-27.0.1-3.3.3",
            "SUSE Manager Server 3.2:jade4j-1.0.7-3.3.3",
            "SUSE Manager Server 3.2:kie-api-7.17.0-3.3.3",
            "SUSE Manager Server 3.2:kie-soup-7.17.0.Final-2.3.3",
            "SUSE Manager Server 3.2:optaplanner-7.17.0-3.3.3",
            "SUSE Manager Server 3.2:py26-compat-salt-2016.11.10-6.21.3",
            "SUSE Manager Server 3.2:python2-spacewalk-certs-tools-2.8.8.7-3.6.3",
            "SUSE Manager Server 3.2:reprepro-5.3.0-2.3.3",
            "SUSE Manager Server 3.2:smdba-1.6.4-0.3.9.3",
            "SUSE Manager Server 3.2:spacecmd-2.8.25.10-3.20.3",
            "SUSE Manager Server 3.2:spacewalk-admin-2.8.4.4-3.6.3",
            "SUSE Manager Server 3.2:spacewalk-backend-2.8.57.14-3.25.3",
            "SUSE Manager Server 3.2:spacewalk-backend-app-2.8.57.14-3.25.3",
            "SUSE Manager Server 3.2:spacewalk-backend-applet-2.8.57.14-3.25.3",
            "SUSE Manager Server 3.2:spacewalk-backend-config-files-2.8.57.14-3.25.3",
            "SUSE Manager Server 3.2:spacewalk-backend-config-files-common-2.8.57.14-3.25.3",
            "SUSE Manager Server 3.2:spacewalk-backend-config-files-tool-2.8.57.14-3.25.3",
            "SUSE Manager Server 3.2:spacewalk-backend-iss-2.8.57.14-3.25.3",
            "SUSE Manager Server 3.2:spacewalk-backend-iss-export-2.8.57.14-3.25.3",
            "SUSE Manager Server 3.2:spacewalk-backend-libs-2.8.57.14-3.25.3",
            "SUSE Manager Server 3.2:spacewalk-backend-package-push-server-2.8.57.14-3.25.3",
            "SUSE Manager Server 3.2:spacewalk-backend-server-2.8.57.14-3.25.3",
            "SUSE Manager Server 3.2:spacewalk-backend-sql-2.8.57.14-3.25.3",
            "SUSE Manager Server 3.2:spacewalk-backend-sql-oracle-2.8.57.14-3.25.3",
            "SUSE Manager Server 3.2:spacewalk-backend-sql-postgresql-2.8.57.14-3.25.3",
            "SUSE Manager Server 3.2:spacewalk-backend-tools-2.8.57.14-3.25.3",
            "SUSE Manager Server 3.2:spacewalk-backend-xml-export-libs-2.8.57.14-3.25.3",
            "SUSE Manager Server 3.2:spacewalk-backend-xmlrpc-2.8.57.14-3.25.3",
            "SUSE Manager Server 3.2:spacewalk-base-2.8.7.15-3.24.3",
            "SUSE Manager Server 3.2:spacewalk-base-minimal-2.8.7.15-3.24.3",
            "SUSE Manager Server 3.2:spacewalk-base-minimal-config-2.8.7.15-3.24.3",
            "SUSE Manager Server 3.2:spacewalk-branding-2.8.5.15-3.19.3",
            "SUSE Manager Server 3.2:spacewalk-certs-tools-2.8.8.7-3.6.3",
            "SUSE Manager Server 3.2:spacewalk-html-2.8.7.15-3.24.3",
            "SUSE Manager Server 3.2:spacewalk-java-2.8.78.21-3.29.1",
            "SUSE Manager Server 3.2:spacewalk-java-config-2.8.78.21-3.29.1",
            "SUSE Manager Server 3.2:spacewalk-java-lib-2.8.78.21-3.29.1",
            "SUSE Manager Server 3.2:spacewalk-java-oracle-2.8.78.21-3.29.1",
            "SUSE Manager Server 3.2:spacewalk-java-postgresql-2.8.78.21-3.29.1",
            "SUSE Manager Server 3.2:spacewalk-taskomatic-2.8.78.21-3.29.1",
            "SUSE Manager Server 3.2:subscription-matcher-0.23-4.12.3",
            "SUSE Manager Server 3.2:susemanager-3.2.17-3.22.4",
            "SUSE Manager Server 3.2:susemanager-schema-3.2.18-3.22.3",
            "SUSE Manager Server 3.2:susemanager-sls-3.2.23-3.26.3",
            "SUSE Manager Server 3.2:susemanager-sync-data-3.2.14-3.20.3",
            "SUSE Manager Server 3.2:susemanager-tools-3.2.17-3.22.4",
            "SUSE Manager Server 3.2:susemanager-web-libs-2.8.7.15-3.24.3",
            "SUSE Manager Server 3.2:xstream-1.4.10-4.3.3"
          ]
        }
      ],
      "CVSSScoreSets": {
        "BaseScore": "7.8",
        "Vector": "AV:N/AC:L/Au:N/C:N/I:N/A:C"
      }
    }
  ]
}