{
  "Severity": "MODERATE",
  "UpdatedAt": "2024-05-13T20:46:28Z",
  "Package": {
    "Ecosystem": "COMPOSER",
    "Name": "spatie/image-optimizer"
  },
  "Advisory": {
    "DatabaseId": 244776,
    "Id": "GSA_kwCzR0hTQS02cGptLWhtdmYtaDRycs4AA7wo",
    "GhsaId": "GHSA-6pjm-hmvf-h4rr",
    "References": [
      {
        "Url": "https://nvd.nist.gov/vuln/detail/CVE-2024-34515"
      },
      {
        "Url": "https://github.com/spatie/image-optimizer/issues/210"
      },
      {
        "Url": "https://github.com/spatie/image-optimizer/pull/211"
      },
      {
        "Url": "https://github.com/spatie/image-optimizer/compare/1.7.2...1.7.3"
      },
      {
        "Url": "https://github.com/spatie/image-optimizer/commit/89847b55fbb44b3bcde0283bff8cc5abb5e51b82"
      },
      {
        "Url": "https://github.com/advisories/GHSA-6pjm-hmvf-h4rr"
      }
    ],
    "Identifiers": [
      {
        "Type": "GHSA",
        "Value": "GHSA-6pjm-hmvf-h4rr"
      },
      {
        "Type": "CVE",
        "Value": "CVE-2024-34515"
      }
    ],
    "Description": "image-optimizer before 1.7.3 allows PHAR deserialization, e.g., the `phar://` protocol in arguments to `file_exists()`.",
    "Origin": "UNSPECIFIED",
    "PublishedAt": "2024-05-05T21:30:31Z",
    "Severity": "MODERATE",
    "Summary": "image-optimizer allows PHAR deserialization",
    "UpdatedAt": "2024-05-13T20:46:28Z",
    "WithdrawnAt": "",
    "CVSS": {
      "Score": 0,
      "VectorString": ""
    }
  },
  "Versions": [
    {
      "FirstPatchedVersion": {
        "Identifier": "1.7.3"
      },
      "VulnerableVersionRange": "\u003c 1.7.3"
    }
  ]
}