{
  "Class": "vulnerability",
  "ID": "oval:com.microsoft.cbl-mariner:def:6463",
  "Version": "2",
  "Metadata": {
    "Title": "CVE-2020-27749 affecting package grub2 for versions less than 2.06~rc1-7",
    "Affected": {
      "Family": "unix",
      "Platform": "CBL-Mariner"
    },
    "Reference": {
      "RefID": "CVE-2020-27749",
      "RefURL": "https://nvd.nist.gov/vuln/detail/CVE-2020-27749",
      "Source": "CVE"
    },
    "Patchable": "true",
    "AdvisoryDate": "2022-04-26T20:17:11Z",
    "AdvisoryID": "6463-2",
    "Severity": "Medium",
    "Description": "CVE-2020-27749 affecting package grub2 for versions less than 2.06~rc1-7. A patched version of the package is available."
  },
  "Criteria": {
    "Operator": "AND",
    "Criterion": {
      "Comment": "Package grub2 is earlier than 2.06~rc1-7, affected by CVE-2020-27749",
      "TestRef": "oval:com.microsoft.cbl-mariner:tst:6463000"
    }
  }
}