{
  "Class": "vulnerability",
  "ID": "oval:com.microsoft.cbl-mariner:def:6652",
  "Version": "1",
  "Metadata": {
    "Title": "CVE-2020-35521 affecting package libtiff for versions less than 4.1.0-3",
    "Affected": {
      "Family": "unix",
      "Platform": "CBL-Mariner"
    },
    "Reference": {
      "RefID": "CVE-2020-35521",
      "RefURL": "https://nvd.nist.gov/vuln/detail/CVE-2020-35521",
      "Source": "CVE"
    },
    "Patchable": "true",
    "AdvisoryDate": "2022-04-09T06:51:55Z",
    "AdvisoryID": "6652-1",
    "Severity": "Medium",
    "Description": "CVE-2020-35521 affecting package libtiff for versions less than 4.1.0-3. A patched version of the package is available."
  },
  "Criteria": {
    "Operator": "AND",
    "Criterion": {
      "Comment": "Package libtiff is earlier than 4.1.0-3, affected by CVE-2020-35521",
      "TestRef": "oval:com.microsoft.cbl-mariner:tst:6652000"
    }
  }
}