{
  "Class": "vulnerability",
  "ID": "oval:com.microsoft.cbl-mariner:def:6657",
  "Version": "1",
  "Metadata": {
    "Title": "CVE-2020-10701 affecting package libvirt for versions less than 7.10.0-1",
    "Affected": {
      "Family": "unix",
      "Platform": "CBL-Mariner"
    },
    "Reference": {
      "RefID": "CVE-2020-10701",
      "RefURL": "https://nvd.nist.gov/vuln/detail/CVE-2020-10701",
      "Source": "CVE"
    },
    "Patchable": "true",
    "AdvisoryDate": "2022-04-09T06:51:57Z",
    "AdvisoryID": "6657-1",
    "Severity": "Medium",
    "Description": "CVE-2020-10701 affecting package libvirt for versions less than 7.10.0-1. An upgraded version of the package is available that resolves this issue."
  },
  "Criteria": {
    "Operator": "AND",
    "Criterion": {
      "Comment": "Package libvirt is earlier than 7.10.0-1, affected by CVE-2020-10701",
      "TestRef": "oval:com.microsoft.cbl-mariner:tst:6657000"
    }
  }
}