{
  "Class": "vulnerability",
  "ID": "oval:com.microsoft.cbl-mariner:def:6834",
  "Version": "1",
  "Metadata": {
    "Title": "CVE-2020-0570 affecting package qt5-qtsvg for versions less than 5.12.11-3",
    "Affected": {
      "Family": "unix",
      "Platform": "CBL-Mariner"
    },
    "Reference": {
      "RefID": "CVE-2020-0570",
      "RefURL": "https://nvd.nist.gov/vuln/detail/CVE-2020-0570",
      "Source": "CVE"
    },
    "Patchable": "true",
    "AdvisoryDate": "2022-04-26T19:57:36Z",
    "AdvisoryID": "6834-1",
    "Severity": "High",
    "Description": "CVE-2020-0570 affecting package qt5-qtsvg for versions less than 5.12.11-3. An upgraded version of the package is available that resolves this issue."
  },
  "Criteria": {
    "Operator": "AND",
    "Criterion": {
      "Comment": "Package qt5-qtsvg is earlier than 5.12.11-3, affected by CVE-2020-0570",
      "TestRef": "oval:com.microsoft.cbl-mariner:tst:6834000"
    }
  }
}