{
  "Class": "vulnerability",
  "ID": "oval:com.microsoft.cbl-mariner:def:6899",
  "Version": "1",
  "Metadata": {
    "Title": "CVE-2020-17525 affecting package subversion for versions less than 1.14.0-4",
    "Affected": {
      "Family": "unix",
      "Platform": "CBL-Mariner"
    },
    "Reference": {
      "RefID": "CVE-2020-17525",
      "RefURL": "https://nvd.nist.gov/vuln/detail/CVE-2020-17525",
      "Source": "CVE"
    },
    "Patchable": "true",
    "AdvisoryDate": "2022-04-09T06:51:56Z",
    "AdvisoryID": "6899-1",
    "Severity": "High",
    "Description": "CVE-2020-17525 affecting package subversion for versions less than 1.14.0-4. A patched version of the package is available."
  },
  "Criteria": {
    "Operator": "AND",
    "Criterion": {
      "Comment": "Package subversion is earlier than 1.14.0-4, affected by CVE-2020-17525",
      "TestRef": "oval:com.microsoft.cbl-mariner:tst:6899000"
    }
  }
}