{
  "Class": "vulnerability",
  "ID": "oval:com.microsoft.cbl-mariner:def:7194",
  "Version": "1",
  "Metadata": {
    "Title": "CVE-2020-28200 affecting package dovecot for versions less than 2.3.20-1",
    "Affected": {
      "Family": "unix",
      "Platform": "CBL-Mariner"
    },
    "Reference": {
      "RefID": "CVE-2020-28200",
      "RefURL": "https://nvd.nist.gov/vuln/detail/CVE-2020-28200",
      "Source": "CVE"
    },
    "Patchable": "true",
    "AdvisoryDate": "2023-09-28T11:57:58Z",
    "AdvisoryID": "7194-1",
    "Severity": "Medium",
    "Description": "CVE-2020-28200 affecting package dovecot for versions less than 2.3.20-1. An upgraded version of the package is available that resolves this issue."
  },
  "Criteria": {
    "Operator": "AND",
    "Criterion": {
      "Comment": "Package dovecot is earlier than 2.3.20-1, affected by CVE-2020-28200",
      "TestRef": "oval:com.microsoft.cbl-mariner:tst:7194000"
    }
  }
}