{
  "Title": "Security update for java-11-openjdk",
  "Tracking": {
    "ID": "SUSE-SU-2021:2952-1",
    "Status": "Final",
    "Version": "1",
    "InitialReleaseDate": "2021-09-03T12:39:49Z",
    "CurrentReleaseDate": "2021-09-03T12:39:49Z",
    "RevisionHistory": [
      {
        "Number": "1",
        "Date": "2021-09-03T12:39:49Z",
        "Description": "current"
      }
    ]
  },
  "Notes": [
    {
      "Text": "Security update for java-11-openjdk",
      "Title": "Topic",
      "Type": "Summary"
    },
    {
      "Text": "This update for java-11-openjdk fixes the following issues:\n\n- Update to jdk-11.0.12+7\n- CVE-2021-2369: Fixed JAR file handling problem containing multiple MANIFEST.MF files. (bsc#1188565)\n- CVE-2021-2388: Fixed a flaw inside the Hotspot component performed range check elimination. (bsc#1188566)\n- CVE-2021-2341: Fixed a flaw inside the FtpClient. (bsc#1188564)\n",
      "Title": "Details",
      "Type": "General"
    },
    {
      "Text": "The CVRF data is provided by SUSE under the Creative Commons License 4.0 with Attribution (CC-BY-4.0).",
      "Title": "Terms of Use",
      "Type": "Legal Disclaimer"
    },
    {
      "Text": "Container bci/openjdk-devel:11-2021-2952,Container bci/openjdk:11-2021-2952,Container bci/openjdk:latest-2021-2952,Container suse/manager/5.0/x86_64/server-attestation:latest-2021-2952,Container suse/manager/5.0/x86_64/server:latest-2021-2952,Image SLES15-SP2-Manager-4-1-Server-BYOS-Azure-2021-2952,Image SLES15-SP2-Manager-4-1-Server-BYOS-EC2-HVM-2021-2952,Image SLES15-SP2-Manager-4-1-Server-BYOS-GCE-2021-2952,Image SLES15-SP3-Manager-4-2-Server-BYOS-Azure-2021-2952,Image SLES15-SP3-Manager-4-2-Server-BYOS-EC2-HVM-2021-2952,Image SLES15-SP3-Manager-4-2-Server-BYOS-GCE-2021-2952,Image SLES15-SP4-Manager-Server-4-3-2021-2952,Image SLES15-SP4-Manager-Server-4-3-Azure-llc-2021-2952,Image SLES15-SP4-Manager-Server-4-3-Azure-ltd-2021-2952,Image SLES15-SP4-Manager-Server-4-3-BYOS-2021-2952,Image SLES15-SP4-Manager-Server-4-3-BYOS-Azure-2021-2952,Image SLES15-SP4-Manager-Server-4-3-BYOS-EC2-2021-2952,Image SLES15-SP4-Manager-Server-4-3-BYOS-GCE-2021-2952,Image SLES15-SP4-Manager-Server-4-3-EC2-llc-2021-2952,Image SLES15-SP4-Manager-Server-4-3-EC2-ltd-2021-2952,SUSE-2021-2952,SUSE-SLE-Module-Basesystem-15-SP2-2021-2952,SUSE-SLE-Module-Basesystem-15-SP3-2021-2952,SUSE-SLE-Module-Packagehub-Subpackages-15-SP2-2021-2952,SUSE-SLE-Module-Packagehub-Subpackages-15-SP3-2021-2952,SUSE-SLE-Product-HPC-15-2021-2952,SUSE-SLE-Product-HPC-15-SP1-ESPOS-2021-2952,SUSE-SLE-Product-HPC-15-SP1-LTSS-2021-2952,SUSE-SLE-Product-SLES-15-2021-2952,SUSE-SLE-Product-SLES-15-SP1-BCL-2021-2952,SUSE-SLE-Product-SLES-15-SP1-LTSS-2021-2952,SUSE-SLE-Product-SLES_SAP-15-2021-2952,SUSE-SLE-Product-SLES_SAP-15-SP1-2021-2952,SUSE-SLE-Product-SUSE-Manager-Proxy-4.0-2021-2952,SUSE-SLE-Product-SUSE-Manager-Retail-Branch-Server-4.0-2021-2952,SUSE-SLE-Product-SUSE-Manager-Server-4.0-2021-2952,SUSE-Storage-6-2021-2952",
      "Title": "Patchnames",
      "Type": "Details"
    }
  ],
  "ProductTree": {
    "Relationships": [
      {
        "ProductReference": "java-11-openjdk-11.0.12.0-3.59.1",
        "RelatesToProductReference": "Container bci/openjdk-devel:11",
        "RelationType": "Default Component Of"
      },
      {
        "ProductReference": "java-11-openjdk-devel-11.0.12.0-3.59.1",
        "RelatesToProductReference": "Container bci/openjdk-devel:11",
        "RelationType": "Default Component Of"
      },
      {
        "ProductReference": "java-11-openjdk-headless-11.0.12.0-3.59.1",
        "RelatesToProductReference": "Container bci/openjdk-devel:11",
        "RelationType": "Default Component Of"
      },
      {
        "ProductReference": "java-11-openjdk-11.0.12.0-3.59.1",
        "RelatesToProductReference": "Container bci/openjdk:11",
        "RelationType": "Default Component Of"
      },
      {
        "ProductReference": "java-11-openjdk-headless-11.0.12.0-3.59.1",
        "RelatesToProductReference": "Container bci/openjdk:11",
        "RelationType": "Default Component Of"
      },
      {
        "ProductReference": "java-11-openjdk-11.0.12.0-3.59.1",
        "RelatesToProductReference": "Container bci/openjdk:latest",
        "RelationType": "Default Component Of"
      },
      {
        "ProductReference": "java-11-openjdk-headless-11.0.12.0-3.59.1",
        "RelatesToProductReference": "Container bci/openjdk:latest",
        "RelationType": "Default Component Of"
      },
      {
        "ProductReference": "java-11-openjdk-headless-11.0.12.0-3.59.1",
        "RelatesToProductReference": "Container suse/manager/5.0/x86_64/server-attestation:latest",
        "RelationType": "Default Component Of"
      },
      {
        "ProductReference": "java-11-openjdk-11.0.12.0-3.59.1",
        "RelatesToProductReference": "Container suse/manager/5.0/x86_64/server:latest",
        "RelationType": "Default Component Of"
      },
      {
        "ProductReference": "java-11-openjdk-headless-11.0.12.0-3.59.1",
        "RelatesToProductReference": "Container suse/manager/5.0/x86_64/server:latest",
        "RelationType": "Default Component Of"
      },
      {
        "ProductReference": "java-11-openjdk-11.0.12.0-3.59.1",
        "RelatesToProductReference": "Image SLES15-SP2-Manager-4-1-Server-BYOS-Azure",
        "RelationType": "Default Component Of"
      },
      {
        "ProductReference": "java-11-openjdk-headless-11.0.12.0-3.59.1",
        "RelatesToProductReference": "Image SLES15-SP2-Manager-4-1-Server-BYOS-Azure",
        "RelationType": "Default Component Of"
      },
      {
        "ProductReference": "java-11-openjdk-11.0.12.0-3.59.1",
        "RelatesToProductReference": "Image SLES15-SP2-Manager-4-1-Server-BYOS-EC2-HVM",
        "RelationType": "Default Component Of"
      },
      {
        "ProductReference": "java-11-openjdk-headless-11.0.12.0-3.59.1",
        "RelatesToProductReference": "Image SLES15-SP2-Manager-4-1-Server-BYOS-EC2-HVM",
        "RelationType": "Default Component Of"
      },
      {
        "ProductReference": "java-11-openjdk-11.0.12.0-3.59.1",
        "RelatesToProductReference": "Image SLES15-SP2-Manager-4-1-Server-BYOS-GCE",
        "RelationType": "Default Component Of"
      },
      {
        "ProductReference": "java-11-openjdk-headless-11.0.12.0-3.59.1",
        "RelatesToProductReference": "Image SLES15-SP2-Manager-4-1-Server-BYOS-GCE",
        "RelationType": "Default Component Of"
      },
      {
        "ProductReference": "java-11-openjdk-11.0.12.0-3.59.1",
        "RelatesToProductReference": "Image SLES15-SP3-Manager-4-2-Server-BYOS-Azure",
        "RelationType": "Default Component Of"
      },
      {
        "ProductReference": "java-11-openjdk-headless-11.0.12.0-3.59.1",
        "RelatesToProductReference": "Image SLES15-SP3-Manager-4-2-Server-BYOS-Azure",
        "RelationType": "Default Component Of"
      },
      {
        "ProductReference": "java-11-openjdk-11.0.12.0-3.59.1",
        "RelatesToProductReference": "Image SLES15-SP3-Manager-4-2-Server-BYOS-EC2-HVM",
        "RelationType": "Default Component Of"
      },
      {
        "ProductReference": "java-11-openjdk-headless-11.0.12.0-3.59.1",
        "RelatesToProductReference": "Image SLES15-SP3-Manager-4-2-Server-BYOS-EC2-HVM",
        "RelationType": "Default Component Of"
      },
      {
        "ProductReference": "java-11-openjdk-11.0.12.0-3.59.1",
        "RelatesToProductReference": "Image SLES15-SP3-Manager-4-2-Server-BYOS-GCE",
        "RelationType": "Default Component Of"
      },
      {
        "ProductReference": "java-11-openjdk-headless-11.0.12.0-3.59.1",
        "RelatesToProductReference": "Image SLES15-SP3-Manager-4-2-Server-BYOS-GCE",
        "RelationType": "Default Component Of"
      },
      {
        "ProductReference": "java-11-openjdk-11.0.12.0-3.59.1",
        "RelatesToProductReference": "Image SLES15-SP4-Manager-Server-4-3",
        "RelationType": "Default Component Of"
      },
      {
        "ProductReference": "java-11-openjdk-headless-11.0.12.0-3.59.1",
        "RelatesToProductReference": "Image SLES15-SP4-Manager-Server-4-3",
        "RelationType": "Default Component Of"
      },
      {
        "ProductReference": "java-11-openjdk-11.0.12.0-3.59.1",
        "RelatesToProductReference": "Image SLES15-SP4-Manager-Server-4-3-Azure-llc",
        "RelationType": "Default Component Of"
      },
      {
        "ProductReference": "java-11-openjdk-headless-11.0.12.0-3.59.1",
        "RelatesToProductReference": "Image SLES15-SP4-Manager-Server-4-3-Azure-llc",
        "RelationType": "Default Component Of"
      },
      {
        "ProductReference": "java-11-openjdk-11.0.12.0-3.59.1",
        "RelatesToProductReference": "Image SLES15-SP4-Manager-Server-4-3-Azure-ltd",
        "RelationType": "Default Component Of"
      },
      {
        "ProductReference": "java-11-openjdk-headless-11.0.12.0-3.59.1",
        "RelatesToProductReference": "Image SLES15-SP4-Manager-Server-4-3-Azure-ltd",
        "RelationType": "Default Component Of"
      },
      {
        "ProductReference": "java-11-openjdk-11.0.12.0-3.59.1",
        "RelatesToProductReference": "Image SLES15-SP4-Manager-Server-4-3-BYOS",
        "RelationType": "Default Component Of"
      },
      {
        "ProductReference": "java-11-openjdk-headless-11.0.12.0-3.59.1",
        "RelatesToProductReference": "Image SLES15-SP4-Manager-Server-4-3-BYOS",
        "RelationType": "Default Component Of"
      },
      {
        "ProductReference": "java-11-openjdk-11.0.12.0-3.59.1",
        "RelatesToProductReference": "Image SLES15-SP4-Manager-Server-4-3-BYOS-Azure",
        "RelationType": "Default Component Of"
      },
      {
        "ProductReference": "java-11-openjdk-headless-11.0.12.0-3.59.1",
        "RelatesToProductReference": "Image SLES15-SP4-Manager-Server-4-3-BYOS-Azure",
        "RelationType": "Default Component Of"
      },
      {
        "ProductReference": "java-11-openjdk-11.0.12.0-3.59.1",
        "RelatesToProductReference": "Image SLES15-SP4-Manager-Server-4-3-BYOS-EC2",
        "RelationType": "Default Component Of"
      },
      {
        "ProductReference": "java-11-openjdk-headless-11.0.12.0-3.59.1",
        "RelatesToProductReference": "Image SLES15-SP4-Manager-Server-4-3-BYOS-EC2",
        "RelationType": "Default Component Of"
      },
      {
        "ProductReference": "java-11-openjdk-11.0.12.0-3.59.1",
        "RelatesToProductReference": "Image SLES15-SP4-Manager-Server-4-3-BYOS-GCE",
        "RelationType": "Default Component Of"
      },
      {
        "ProductReference": "java-11-openjdk-headless-11.0.12.0-3.59.1",
        "RelatesToProductReference": "Image SLES15-SP4-Manager-Server-4-3-BYOS-GCE",
        "RelationType": "Default Component Of"
      },
      {
        "ProductReference": "java-11-openjdk-11.0.12.0-3.59.1",
        "RelatesToProductReference": "Image SLES15-SP4-Manager-Server-4-3-EC2-llc",
        "RelationType": "Default Component Of"
      },
      {
        "ProductReference": "java-11-openjdk-headless-11.0.12.0-3.59.1",
        "RelatesToProductReference": "Image SLES15-SP4-Manager-Server-4-3-EC2-llc",
        "RelationType": "Default Component Of"
      },
      {
        "ProductReference": "java-11-openjdk-11.0.12.0-3.59.1",
        "RelatesToProductReference": "Image SLES15-SP4-Manager-Server-4-3-EC2-ltd",
        "RelationType": "Default Component Of"
      },
      {
        "ProductReference": "java-11-openjdk-headless-11.0.12.0-3.59.1",
        "RelatesToProductReference": "Image SLES15-SP4-Manager-Server-4-3-EC2-ltd",
        "RelationType": "Default Component Of"
      },
      {
        "ProductReference": "java-11-openjdk-11.0.12.0-3.59.1",
        "RelatesToProductReference": "SUSE Enterprise Storage 6",
        "RelationType": "Default Component Of"
      },
      {
        "ProductReference": "java-11-openjdk-demo-11.0.12.0-3.59.1",
        "RelatesToProductReference": "SUSE Enterprise Storage 6",
        "RelationType": "Default Component Of"
      },
      {
        "ProductReference": "java-11-openjdk-devel-11.0.12.0-3.59.1",
        "RelatesToProductReference": "SUSE Enterprise Storage 6",
        "RelationType": "Default Component Of"
      },
      {
        "ProductReference": "java-11-openjdk-headless-11.0.12.0-3.59.1",
        "RelatesToProductReference": "SUSE Enterprise Storage 6",
        "RelationType": "Default Component Of"
      },
      {
        "ProductReference": "java-11-openjdk-11.0.12.0-3.59.1",
        "RelatesToProductReference": "SUSE Linux Enterprise High Performance Computing 15 SP1-ESPOS",
        "RelationType": "Default Component Of"
      },
      {
        "ProductReference": "java-11-openjdk-demo-11.0.12.0-3.59.1",
        "RelatesToProductReference": "SUSE Linux Enterprise High Performance Computing 15 SP1-ESPOS",
        "RelationType": "Default Component Of"
      },
      {
        "ProductReference": "java-11-openjdk-devel-11.0.12.0-3.59.1",
        "RelatesToProductReference": "SUSE Linux Enterprise High Performance Computing 15 SP1-ESPOS",
        "RelationType": "Default Component Of"
      },
      {
        "ProductReference": "java-11-openjdk-headless-11.0.12.0-3.59.1",
        "RelatesToProductReference": "SUSE Linux Enterprise High Performance Computing 15 SP1-ESPOS",
        "RelationType": "Default Component Of"
      },
      {
        "ProductReference": "java-11-openjdk-11.0.12.0-3.59.1",
        "RelatesToProductReference": "SUSE Linux Enterprise High Performance Computing 15 SP1-LTSS",
        "RelationType": "Default Component Of"
      },
      {
        "ProductReference": "java-11-openjdk-demo-11.0.12.0-3.59.1",
        "RelatesToProductReference": "SUSE Linux Enterprise High Performance Computing 15 SP1-LTSS",
        "RelationType": "Default Component Of"
      },
      {
        "ProductReference": "java-11-openjdk-devel-11.0.12.0-3.59.1",
        "RelatesToProductReference": "SUSE Linux Enterprise High Performance Computing 15 SP1-LTSS",
        "RelationType": "Default Component Of"
      },
      {
        "ProductReference": "java-11-openjdk-headless-11.0.12.0-3.59.1",
        "RelatesToProductReference": "SUSE Linux Enterprise High Performance Computing 15 SP1-LTSS",
        "RelationType": "Default Component Of"
      },
      {
        "ProductReference": "java-11-openjdk-11.0.12.0-3.59.1",
        "RelatesToProductReference": "SUSE Linux Enterprise High Performance Computing 15-ESPOS",
        "RelationType": "Default Component Of"
      },
      {
        "ProductReference": "java-11-openjdk-demo-11.0.12.0-3.59.1",
        "RelatesToProductReference": "SUSE Linux Enterprise High Performance Computing 15-ESPOS",
        "RelationType": "Default Component Of"
      },
      {
        "ProductReference": "java-11-openjdk-devel-11.0.12.0-3.59.1",
        "RelatesToProductReference": "SUSE Linux Enterprise High Performance Computing 15-ESPOS",
        "RelationType": "Default Component Of"
      },
      {
        "ProductReference": "java-11-openjdk-headless-11.0.12.0-3.59.1",
        "RelatesToProductReference": "SUSE Linux Enterprise High Performance Computing 15-ESPOS",
        "RelationType": "Default Component Of"
      },
      {
        "ProductReference": "java-11-openjdk-11.0.12.0-3.59.1",
        "RelatesToProductReference": "SUSE Linux Enterprise High Performance Computing 15-LTSS",
        "RelationType": "Default Component Of"
      },
      {
        "ProductReference": "java-11-openjdk-demo-11.0.12.0-3.59.1",
        "RelatesToProductReference": "SUSE Linux Enterprise High Performance Computing 15-LTSS",
        "RelationType": "Default Component Of"
      },
      {
        "ProductReference": "java-11-openjdk-devel-11.0.12.0-3.59.1",
        "RelatesToProductReference": "SUSE Linux Enterprise High Performance Computing 15-LTSS",
        "RelationType": "Default Component Of"
      },
      {
        "ProductReference": "java-11-openjdk-headless-11.0.12.0-3.59.1",
        "RelatesToProductReference": "SUSE Linux Enterprise High Performance Computing 15-LTSS",
        "RelationType": "Default Component Of"
      },
      {
        "ProductReference": "java-11-openjdk-11.0.12.0-3.59.1",
        "RelatesToProductReference": "SUSE Linux Enterprise Module for Basesystem 15 SP2",
        "RelationType": "Default Component Of"
      },
      {
        "ProductReference": "java-11-openjdk-demo-11.0.12.0-3.59.1",
        "RelatesToProductReference": "SUSE Linux Enterprise Module for Basesystem 15 SP2",
        "RelationType": "Default Component Of"
      },
      {
        "ProductReference": "java-11-openjdk-devel-11.0.12.0-3.59.1",
        "RelatesToProductReference": "SUSE Linux Enterprise Module for Basesystem 15 SP2",
        "RelationType": "Default Component Of"
      },
      {
        "ProductReference": "java-11-openjdk-headless-11.0.12.0-3.59.1",
        "RelatesToProductReference": "SUSE Linux Enterprise Module for Basesystem 15 SP2",
        "RelationType": "Default Component Of"
      },
      {
        "ProductReference": "java-11-openjdk-11.0.12.0-3.59.1",
        "RelatesToProductReference": "SUSE Linux Enterprise Module for Basesystem 15 SP3",
        "RelationType": "Default Component Of"
      },
      {
        "ProductReference": "java-11-openjdk-demo-11.0.12.0-3.59.1",
        "RelatesToProductReference": "SUSE Linux Enterprise Module for Basesystem 15 SP3",
        "RelationType": "Default Component Of"
      },
      {
        "ProductReference": "java-11-openjdk-devel-11.0.12.0-3.59.1",
        "RelatesToProductReference": "SUSE Linux Enterprise Module for Basesystem 15 SP3",
        "RelationType": "Default Component Of"
      },
      {
        "ProductReference": "java-11-openjdk-headless-11.0.12.0-3.59.1",
        "RelatesToProductReference": "SUSE Linux Enterprise Module for Basesystem 15 SP3",
        "RelationType": "Default Component Of"
      },
      {
        "ProductReference": "java-11-openjdk-javadoc-11.0.12.0-3.59.1",
        "RelatesToProductReference": "SUSE Linux Enterprise Module for Package Hub 15 SP2",
        "RelationType": "Default Component Of"
      },
      {
        "ProductReference": "java-11-openjdk-jmods-11.0.12.0-3.59.1",
        "RelatesToProductReference": "SUSE Linux Enterprise Module for Package Hub 15 SP2",
        "RelationType": "Default Component Of"
      },
      {
        "ProductReference": "java-11-openjdk-javadoc-11.0.12.0-3.59.1",
        "RelatesToProductReference": "SUSE Linux Enterprise Module for Package Hub 15 SP3",
        "RelationType": "Default Component Of"
      },
      {
        "ProductReference": "java-11-openjdk-jmods-11.0.12.0-3.59.1",
        "RelatesToProductReference": "SUSE Linux Enterprise Module for Package Hub 15 SP3",
        "RelationType": "Default Component Of"
      },
      {
        "ProductReference": "java-11-openjdk-11.0.12.0-3.59.1",
        "RelatesToProductReference": "SUSE Linux Enterprise Server 15 SP1-BCL",
        "RelationType": "Default Component Of"
      },
      {
        "ProductReference": "java-11-openjdk-demo-11.0.12.0-3.59.1",
        "RelatesToProductReference": "SUSE Linux Enterprise Server 15 SP1-BCL",
        "RelationType": "Default Component Of"
      },
      {
        "ProductReference": "java-11-openjdk-devel-11.0.12.0-3.59.1",
        "RelatesToProductReference": "SUSE Linux Enterprise Server 15 SP1-BCL",
        "RelationType": "Default Component Of"
      },
      {
        "ProductReference": "java-11-openjdk-headless-11.0.12.0-3.59.1",
        "RelatesToProductReference": "SUSE Linux Enterprise Server 15 SP1-BCL",
        "RelationType": "Default Component Of"
      },
      {
        "ProductReference": "java-11-openjdk-11.0.12.0-3.59.1",
        "RelatesToProductReference": "SUSE Linux Enterprise Server 15 SP1-LTSS",
        "RelationType": "Default Component Of"
      },
      {
        "ProductReference": "java-11-openjdk-demo-11.0.12.0-3.59.1",
        "RelatesToProductReference": "SUSE Linux Enterprise Server 15 SP1-LTSS",
        "RelationType": "Default Component Of"
      },
      {
        "ProductReference": "java-11-openjdk-devel-11.0.12.0-3.59.1",
        "RelatesToProductReference": "SUSE Linux Enterprise Server 15 SP1-LTSS",
        "RelationType": "Default Component Of"
      },
      {
        "ProductReference": "java-11-openjdk-headless-11.0.12.0-3.59.1",
        "RelatesToProductReference": "SUSE Linux Enterprise Server 15 SP1-LTSS",
        "RelationType": "Default Component Of"
      },
      {
        "ProductReference": "java-11-openjdk-11.0.12.0-3.59.1",
        "RelatesToProductReference": "SUSE Linux Enterprise Server 15-LTSS",
        "RelationType": "Default Component Of"
      },
      {
        "ProductReference": "java-11-openjdk-demo-11.0.12.0-3.59.1",
        "RelatesToProductReference": "SUSE Linux Enterprise Server 15-LTSS",
        "RelationType": "Default Component Of"
      },
      {
        "ProductReference": "java-11-openjdk-devel-11.0.12.0-3.59.1",
        "RelatesToProductReference": "SUSE Linux Enterprise Server 15-LTSS",
        "RelationType": "Default Component Of"
      },
      {
        "ProductReference": "java-11-openjdk-headless-11.0.12.0-3.59.1",
        "RelatesToProductReference": "SUSE Linux Enterprise Server 15-LTSS",
        "RelationType": "Default Component Of"
      },
      {
        "ProductReference": "java-11-openjdk-11.0.12.0-3.59.1",
        "RelatesToProductReference": "SUSE Linux Enterprise Server for SAP Applications 15",
        "RelationType": "Default Component Of"
      },
      {
        "ProductReference": "java-11-openjdk-demo-11.0.12.0-3.59.1",
        "RelatesToProductReference": "SUSE Linux Enterprise Server for SAP Applications 15",
        "RelationType": "Default Component Of"
      },
      {
        "ProductReference": "java-11-openjdk-devel-11.0.12.0-3.59.1",
        "RelatesToProductReference": "SUSE Linux Enterprise Server for SAP Applications 15",
        "RelationType": "Default Component Of"
      },
      {
        "ProductReference": "java-11-openjdk-headless-11.0.12.0-3.59.1",
        "RelatesToProductReference": "SUSE Linux Enterprise Server for SAP Applications 15",
        "RelationType": "Default Component Of"
      },
      {
        "ProductReference": "java-11-openjdk-11.0.12.0-3.59.1",
        "RelatesToProductReference": "SUSE Linux Enterprise Server for SAP Applications 15 SP1",
        "RelationType": "Default Component Of"
      },
      {
        "ProductReference": "java-11-openjdk-demo-11.0.12.0-3.59.1",
        "RelatesToProductReference": "SUSE Linux Enterprise Server for SAP Applications 15 SP1",
        "RelationType": "Default Component Of"
      },
      {
        "ProductReference": "java-11-openjdk-devel-11.0.12.0-3.59.1",
        "RelatesToProductReference": "SUSE Linux Enterprise Server for SAP Applications 15 SP1",
        "RelationType": "Default Component Of"
      },
      {
        "ProductReference": "java-11-openjdk-headless-11.0.12.0-3.59.1",
        "RelatesToProductReference": "SUSE Linux Enterprise Server for SAP Applications 15 SP1",
        "RelationType": "Default Component Of"
      },
      {
        "ProductReference": "java-11-openjdk-11.0.12.0-3.59.1",
        "RelatesToProductReference": "SUSE Manager Proxy 4.0",
        "RelationType": "Default Component Of"
      },
      {
        "ProductReference": "java-11-openjdk-demo-11.0.12.0-3.59.1",
        "RelatesToProductReference": "SUSE Manager Proxy 4.0",
        "RelationType": "Default Component Of"
      },
      {
        "ProductReference": "java-11-openjdk-devel-11.0.12.0-3.59.1",
        "RelatesToProductReference": "SUSE Manager Proxy 4.0",
        "RelationType": "Default Component Of"
      },
      {
        "ProductReference": "java-11-openjdk-headless-11.0.12.0-3.59.1",
        "RelatesToProductReference": "SUSE Manager Proxy 4.0",
        "RelationType": "Default Component Of"
      },
      {
        "ProductReference": "java-11-openjdk-11.0.12.0-3.59.1",
        "RelatesToProductReference": "SUSE Manager Retail Branch Server 4.0",
        "RelationType": "Default Component Of"
      },
      {
        "ProductReference": "java-11-openjdk-demo-11.0.12.0-3.59.1",
        "RelatesToProductReference": "SUSE Manager Retail Branch Server 4.0",
        "RelationType": "Default Component Of"
      },
      {
        "ProductReference": "java-11-openjdk-devel-11.0.12.0-3.59.1",
        "RelatesToProductReference": "SUSE Manager Retail Branch Server 4.0",
        "RelationType": "Default Component Of"
      },
      {
        "ProductReference": "java-11-openjdk-headless-11.0.12.0-3.59.1",
        "RelatesToProductReference": "SUSE Manager Retail Branch Server 4.0",
        "RelationType": "Default Component Of"
      },
      {
        "ProductReference": "java-11-openjdk-11.0.12.0-3.59.1",
        "RelatesToProductReference": "SUSE Manager Server 4.0",
        "RelationType": "Default Component Of"
      },
      {
        "ProductReference": "java-11-openjdk-demo-11.0.12.0-3.59.1",
        "RelatesToProductReference": "SUSE Manager Server 4.0",
        "RelationType": "Default Component Of"
      },
      {
        "ProductReference": "java-11-openjdk-devel-11.0.12.0-3.59.1",
        "RelatesToProductReference": "SUSE Manager Server 4.0",
        "RelationType": "Default Component Of"
      },
      {
        "ProductReference": "java-11-openjdk-headless-11.0.12.0-3.59.1",
        "RelatesToProductReference": "SUSE Manager Server 4.0",
        "RelationType": "Default Component Of"
      }
    ]
  },
  "References": [
    {
      "URL": "https://www.suse.com/support/update/announcement/2021/suse-su-20212952-1/",
      "Description": "Link for SUSE-SU-2021:2952-1"
    },
    {
      "URL": "https://lists.suse.com/pipermail/sle-security-updates/2021-September/009404.html",
      "Description": "E-Mail link for SUSE-SU-2021:2952-1"
    },
    {
      "URL": "https://www.suse.com/support/security/rating/",
      "Description": "SUSE Security Ratings"
    },
    {
      "URL": "https://bugzilla.suse.com/1185476",
      "Description": "SUSE Bug 1185476"
    },
    {
      "URL": "https://bugzilla.suse.com/1188564",
      "Description": "SUSE Bug 1188564"
    },
    {
      "URL": "https://bugzilla.suse.com/1188565",
      "Description": "SUSE Bug 1188565"
    },
    {
      "URL": "https://bugzilla.suse.com/1188566",
      "Description": "SUSE Bug 1188566"
    },
    {
      "URL": "https://www.suse.com/security/cve/CVE-2021-2341/",
      "Description": "SUSE CVE CVE-2021-2341 page"
    },
    {
      "URL": "https://www.suse.com/security/cve/CVE-2021-2369/",
      "Description": "SUSE CVE CVE-2021-2369 page"
    },
    {
      "URL": "https://www.suse.com/security/cve/CVE-2021-2388/",
      "Description": "SUSE CVE CVE-2021-2388 page"
    }
  ],
  "Vulnerabilities": [
    {
      "CVE": "CVE-2021-2341",
      "Description": "Vulnerability in the Java SE, Oracle GraalVM Enterprise Edition product of Oracle Java SE (component: Networking). Supported versions that are affected are Java SE: 7u301, 8u291, 11.0.11, 16.0.1; Oracle GraalVM Enterprise Edition: 20.3.2 and 21.1.0. Difficult to exploit vulnerability allows unauthenticated attacker with network access via multiple protocols to compromise Java SE, Oracle GraalVM Enterprise Edition. Successful attacks require human interaction from a person other than the attacker. Successful attacks of this vulnerability can result in unauthorized read access to a subset of Java SE, Oracle GraalVM Enterprise Edition accessible data. Note: This vulnerability applies to Java deployments, typically in clients running sandboxed Java Web Start applications or sandboxed Java applets, that load and run untrusted code (e.g., code that comes from the internet) and rely on the Java sandbox for security. This vulnerability does not apply to Java deployments, typically in servers, that load and run only trusted code (e.g., code installed by an administrator). CVSS 3.1 Base Score 3.1 (Confidentiality impacts). CVSS Vector: (CVSS:3.1/AV:N/AC:H/PR:N/UI:R/S:U/C:L/I:N/A:N).",
      "Threats": [
        {
          "Type": "Impact",
          "Severity": "low"
        }
      ],
      "References": [
        {
          "URL": "https://www.suse.com/security/cve/CVE-2021-2341.html",
          "Description": "CVE-2021-2341"
        },
        {
          "URL": "https://bugzilla.suse.com/1188564",
          "Description": "SUSE Bug 1188564"
        }
      ],
      "ProductStatuses": [
        {
          "Type": "Fixed",
          "ProductID": [
            "Container bci/openjdk-devel:11:java-11-openjdk-11.0.12.0-3.59.1",
            "Container bci/openjdk-devel:11:java-11-openjdk-devel-11.0.12.0-3.59.1",
            "Container bci/openjdk-devel:11:java-11-openjdk-headless-11.0.12.0-3.59.1",
            "Container bci/openjdk:11:java-11-openjdk-11.0.12.0-3.59.1",
            "Container bci/openjdk:11:java-11-openjdk-headless-11.0.12.0-3.59.1",
            "Container bci/openjdk:latest:java-11-openjdk-11.0.12.0-3.59.1",
            "Container bci/openjdk:latest:java-11-openjdk-headless-11.0.12.0-3.59.1",
            "Container suse/manager/5.0/x86_64/server-attestation:latest:java-11-openjdk-headless-11.0.12.0-3.59.1",
            "Container suse/manager/5.0/x86_64/server:latest:java-11-openjdk-11.0.12.0-3.59.1",
            "Container suse/manager/5.0/x86_64/server:latest:java-11-openjdk-headless-11.0.12.0-3.59.1",
            "Image SLES15-SP2-Manager-4-1-Server-BYOS-Azure:java-11-openjdk-11.0.12.0-3.59.1",
            "Image SLES15-SP2-Manager-4-1-Server-BYOS-Azure:java-11-openjdk-headless-11.0.12.0-3.59.1",
            "Image SLES15-SP2-Manager-4-1-Server-BYOS-EC2-HVM:java-11-openjdk-11.0.12.0-3.59.1",
            "Image SLES15-SP2-Manager-4-1-Server-BYOS-EC2-HVM:java-11-openjdk-headless-11.0.12.0-3.59.1",
            "Image SLES15-SP2-Manager-4-1-Server-BYOS-GCE:java-11-openjdk-11.0.12.0-3.59.1",
            "Image SLES15-SP2-Manager-4-1-Server-BYOS-GCE:java-11-openjdk-headless-11.0.12.0-3.59.1",
            "Image SLES15-SP3-Manager-4-2-Server-BYOS-Azure:java-11-openjdk-11.0.12.0-3.59.1",
            "Image SLES15-SP3-Manager-4-2-Server-BYOS-Azure:java-11-openjdk-headless-11.0.12.0-3.59.1",
            "Image SLES15-SP3-Manager-4-2-Server-BYOS-EC2-HVM:java-11-openjdk-11.0.12.0-3.59.1",
            "Image SLES15-SP3-Manager-4-2-Server-BYOS-EC2-HVM:java-11-openjdk-headless-11.0.12.0-3.59.1",
            "Image SLES15-SP3-Manager-4-2-Server-BYOS-GCE:java-11-openjdk-11.0.12.0-3.59.1",
            "Image SLES15-SP3-Manager-4-2-Server-BYOS-GCE:java-11-openjdk-headless-11.0.12.0-3.59.1",
            "Image SLES15-SP4-Manager-Server-4-3-Azure-llc:java-11-openjdk-11.0.12.0-3.59.1",
            "Image SLES15-SP4-Manager-Server-4-3-Azure-llc:java-11-openjdk-headless-11.0.12.0-3.59.1",
            "Image SLES15-SP4-Manager-Server-4-3-Azure-ltd:java-11-openjdk-11.0.12.0-3.59.1",
            "Image SLES15-SP4-Manager-Server-4-3-Azure-ltd:java-11-openjdk-headless-11.0.12.0-3.59.1",
            "Image SLES15-SP4-Manager-Server-4-3-BYOS-Azure:java-11-openjdk-11.0.12.0-3.59.1",
            "Image SLES15-SP4-Manager-Server-4-3-BYOS-Azure:java-11-openjdk-headless-11.0.12.0-3.59.1",
            "Image SLES15-SP4-Manager-Server-4-3-BYOS-EC2:java-11-openjdk-11.0.12.0-3.59.1",
            "Image SLES15-SP4-Manager-Server-4-3-BYOS-EC2:java-11-openjdk-headless-11.0.12.0-3.59.1",
            "Image SLES15-SP4-Manager-Server-4-3-BYOS-GCE:java-11-openjdk-11.0.12.0-3.59.1",
            "Image SLES15-SP4-Manager-Server-4-3-BYOS-GCE:java-11-openjdk-headless-11.0.12.0-3.59.1",
            "Image SLES15-SP4-Manager-Server-4-3-BYOS:java-11-openjdk-11.0.12.0-3.59.1",
            "Image SLES15-SP4-Manager-Server-4-3-BYOS:java-11-openjdk-headless-11.0.12.0-3.59.1",
            "Image SLES15-SP4-Manager-Server-4-3-EC2-llc:java-11-openjdk-11.0.12.0-3.59.1",
            "Image SLES15-SP4-Manager-Server-4-3-EC2-llc:java-11-openjdk-headless-11.0.12.0-3.59.1",
            "Image SLES15-SP4-Manager-Server-4-3-EC2-ltd:java-11-openjdk-11.0.12.0-3.59.1",
            "Image SLES15-SP4-Manager-Server-4-3-EC2-ltd:java-11-openjdk-headless-11.0.12.0-3.59.1",
            "Image SLES15-SP4-Manager-Server-4-3:java-11-openjdk-11.0.12.0-3.59.1",
            "Image SLES15-SP4-Manager-Server-4-3:java-11-openjdk-headless-11.0.12.0-3.59.1",
            "SUSE Enterprise Storage 6:java-11-openjdk-11.0.12.0-3.59.1",
            "SUSE Enterprise Storage 6:java-11-openjdk-demo-11.0.12.0-3.59.1",
            "SUSE Enterprise Storage 6:java-11-openjdk-devel-11.0.12.0-3.59.1",
            "SUSE Enterprise Storage 6:java-11-openjdk-headless-11.0.12.0-3.59.1",
            "SUSE Linux Enterprise High Performance Computing 15 SP1-ESPOS:java-11-openjdk-11.0.12.0-3.59.1",
            "SUSE Linux Enterprise High Performance Computing 15 SP1-ESPOS:java-11-openjdk-demo-11.0.12.0-3.59.1",
            "SUSE Linux Enterprise High Performance Computing 15 SP1-ESPOS:java-11-openjdk-devel-11.0.12.0-3.59.1",
            "SUSE Linux Enterprise High Performance Computing 15 SP1-ESPOS:java-11-openjdk-headless-11.0.12.0-3.59.1",
            "SUSE Linux Enterprise High Performance Computing 15 SP1-LTSS:java-11-openjdk-11.0.12.0-3.59.1",
            "SUSE Linux Enterprise High Performance Computing 15 SP1-LTSS:java-11-openjdk-demo-11.0.12.0-3.59.1",
            "SUSE Linux Enterprise High Performance Computing 15 SP1-LTSS:java-11-openjdk-devel-11.0.12.0-3.59.1",
            "SUSE Linux Enterprise High Performance Computing 15 SP1-LTSS:java-11-openjdk-headless-11.0.12.0-3.59.1",
            "SUSE Linux Enterprise High Performance Computing 15-ESPOS:java-11-openjdk-11.0.12.0-3.59.1",
            "SUSE Linux Enterprise High Performance Computing 15-ESPOS:java-11-openjdk-demo-11.0.12.0-3.59.1",
            "SUSE Linux Enterprise High Performance Computing 15-ESPOS:java-11-openjdk-devel-11.0.12.0-3.59.1",
            "SUSE Linux Enterprise High Performance Computing 15-ESPOS:java-11-openjdk-headless-11.0.12.0-3.59.1",
            "SUSE Linux Enterprise High Performance Computing 15-LTSS:java-11-openjdk-11.0.12.0-3.59.1",
            "SUSE Linux Enterprise High Performance Computing 15-LTSS:java-11-openjdk-demo-11.0.12.0-3.59.1",
            "SUSE Linux Enterprise High Performance Computing 15-LTSS:java-11-openjdk-devel-11.0.12.0-3.59.1",
            "SUSE Linux Enterprise High Performance Computing 15-LTSS:java-11-openjdk-headless-11.0.12.0-3.59.1",
            "SUSE Linux Enterprise Module for Basesystem 15 SP2:java-11-openjdk-11.0.12.0-3.59.1",
            "SUSE Linux Enterprise Module for Basesystem 15 SP2:java-11-openjdk-demo-11.0.12.0-3.59.1",
            "SUSE Linux Enterprise Module for Basesystem 15 SP2:java-11-openjdk-devel-11.0.12.0-3.59.1",
            "SUSE Linux Enterprise Module for Basesystem 15 SP2:java-11-openjdk-headless-11.0.12.0-3.59.1",
            "SUSE Linux Enterprise Module for Basesystem 15 SP3:java-11-openjdk-11.0.12.0-3.59.1",
            "SUSE Linux Enterprise Module for Basesystem 15 SP3:java-11-openjdk-demo-11.0.12.0-3.59.1",
            "SUSE Linux Enterprise Module for Basesystem 15 SP3:java-11-openjdk-devel-11.0.12.0-3.59.1",
            "SUSE Linux Enterprise Module for Basesystem 15 SP3:java-11-openjdk-headless-11.0.12.0-3.59.1",
            "SUSE Linux Enterprise Module for Package Hub 15 SP2:java-11-openjdk-javadoc-11.0.12.0-3.59.1",
            "SUSE Linux Enterprise Module for Package Hub 15 SP2:java-11-openjdk-jmods-11.0.12.0-3.59.1",
            "SUSE Linux Enterprise Module for Package Hub 15 SP3:java-11-openjdk-javadoc-11.0.12.0-3.59.1",
            "SUSE Linux Enterprise Module for Package Hub 15 SP3:java-11-openjdk-jmods-11.0.12.0-3.59.1",
            "SUSE Linux Enterprise Server 15 SP1-BCL:java-11-openjdk-11.0.12.0-3.59.1",
            "SUSE Linux Enterprise Server 15 SP1-BCL:java-11-openjdk-demo-11.0.12.0-3.59.1",
            "SUSE Linux Enterprise Server 15 SP1-BCL:java-11-openjdk-devel-11.0.12.0-3.59.1",
            "SUSE Linux Enterprise Server 15 SP1-BCL:java-11-openjdk-headless-11.0.12.0-3.59.1",
            "SUSE Linux Enterprise Server 15 SP1-LTSS:java-11-openjdk-11.0.12.0-3.59.1",
            "SUSE Linux Enterprise Server 15 SP1-LTSS:java-11-openjdk-demo-11.0.12.0-3.59.1",
            "SUSE Linux Enterprise Server 15 SP1-LTSS:java-11-openjdk-devel-11.0.12.0-3.59.1",
            "SUSE Linux Enterprise Server 15 SP1-LTSS:java-11-openjdk-headless-11.0.12.0-3.59.1",
            "SUSE Linux Enterprise Server 15-LTSS:java-11-openjdk-11.0.12.0-3.59.1",
            "SUSE Linux Enterprise Server 15-LTSS:java-11-openjdk-demo-11.0.12.0-3.59.1",
            "SUSE Linux Enterprise Server 15-LTSS:java-11-openjdk-devel-11.0.12.0-3.59.1",
            "SUSE Linux Enterprise Server 15-LTSS:java-11-openjdk-headless-11.0.12.0-3.59.1",
            "SUSE Linux Enterprise Server for SAP Applications 15 SP1:java-11-openjdk-11.0.12.0-3.59.1",
            "SUSE Linux Enterprise Server for SAP Applications 15 SP1:java-11-openjdk-demo-11.0.12.0-3.59.1",
            "SUSE Linux Enterprise Server for SAP Applications 15 SP1:java-11-openjdk-devel-11.0.12.0-3.59.1",
            "SUSE Linux Enterprise Server for SAP Applications 15 SP1:java-11-openjdk-headless-11.0.12.0-3.59.1",
            "SUSE Linux Enterprise Server for SAP Applications 15:java-11-openjdk-11.0.12.0-3.59.1",
            "SUSE Linux Enterprise Server for SAP Applications 15:java-11-openjdk-demo-11.0.12.0-3.59.1",
            "SUSE Linux Enterprise Server for SAP Applications 15:java-11-openjdk-devel-11.0.12.0-3.59.1",
            "SUSE Linux Enterprise Server for SAP Applications 15:java-11-openjdk-headless-11.0.12.0-3.59.1",
            "SUSE Manager Proxy 4.0:java-11-openjdk-11.0.12.0-3.59.1",
            "SUSE Manager Proxy 4.0:java-11-openjdk-demo-11.0.12.0-3.59.1",
            "SUSE Manager Proxy 4.0:java-11-openjdk-devel-11.0.12.0-3.59.1",
            "SUSE Manager Proxy 4.0:java-11-openjdk-headless-11.0.12.0-3.59.1",
            "SUSE Manager Retail Branch Server 4.0:java-11-openjdk-11.0.12.0-3.59.1",
            "SUSE Manager Retail Branch Server 4.0:java-11-openjdk-demo-11.0.12.0-3.59.1",
            "SUSE Manager Retail Branch Server 4.0:java-11-openjdk-devel-11.0.12.0-3.59.1",
            "SUSE Manager Retail Branch Server 4.0:java-11-openjdk-headless-11.0.12.0-3.59.1",
            "SUSE Manager Server 4.0:java-11-openjdk-11.0.12.0-3.59.1",
            "SUSE Manager Server 4.0:java-11-openjdk-demo-11.0.12.0-3.59.1",
            "SUSE Manager Server 4.0:java-11-openjdk-devel-11.0.12.0-3.59.1",
            "SUSE Manager Server 4.0:java-11-openjdk-headless-11.0.12.0-3.59.1"
          ]
        }
      ],
      "CVSSScoreSets": {}
    },
    {
      "CVE": "CVE-2021-2369",
      "Description": "Vulnerability in the Java SE, Oracle GraalVM Enterprise Edition product of Oracle Java SE (component: Library). Supported versions that are affected are Java SE: 7u301, 8u291, 11.0.11, 16.0.1; Oracle GraalVM Enterprise Edition: 20.3.2 and 21.1.0. Easily exploitable vulnerability allows unauthenticated attacker with network access via multiple protocols to compromise Java SE, Oracle GraalVM Enterprise Edition. Successful attacks require human interaction from a person other than the attacker. Successful attacks of this vulnerability can result in unauthorized update, insert or delete access to some of Java SE, Oracle GraalVM Enterprise Edition accessible data. Note: This vulnerability applies to Java deployments, typically in clients running sandboxed Java Web Start applications or sandboxed Java applets, that load and run untrusted code (e.g., code that comes from the internet) and rely on the Java sandbox for security. This vulnerability does not apply to Java deployments, typically in servers, that load and run only trusted code (e.g., code installed by an administrator). CVSS 3.1 Base Score 4.3 (Integrity impacts). CVSS Vector: (CVSS:3.1/AV:N/AC:L/PR:N/UI:R/S:U/C:N/I:L/A:N).",
      "Threats": [
        {
          "Type": "Impact",
          "Severity": "moderate"
        }
      ],
      "References": [
        {
          "URL": "https://www.suse.com/security/cve/CVE-2021-2369.html",
          "Description": "CVE-2021-2369"
        },
        {
          "URL": "https://bugzilla.suse.com/1188565",
          "Description": "SUSE Bug 1188565"
        }
      ],
      "ProductStatuses": [
        {
          "Type": "Fixed",
          "ProductID": [
            "Container bci/openjdk-devel:11:java-11-openjdk-11.0.12.0-3.59.1",
            "Container bci/openjdk-devel:11:java-11-openjdk-devel-11.0.12.0-3.59.1",
            "Container bci/openjdk-devel:11:java-11-openjdk-headless-11.0.12.0-3.59.1",
            "Container bci/openjdk:11:java-11-openjdk-11.0.12.0-3.59.1",
            "Container bci/openjdk:11:java-11-openjdk-headless-11.0.12.0-3.59.1",
            "Container bci/openjdk:latest:java-11-openjdk-11.0.12.0-3.59.1",
            "Container bci/openjdk:latest:java-11-openjdk-headless-11.0.12.0-3.59.1",
            "Container suse/manager/5.0/x86_64/server-attestation:latest:java-11-openjdk-headless-11.0.12.0-3.59.1",
            "Container suse/manager/5.0/x86_64/server:latest:java-11-openjdk-11.0.12.0-3.59.1",
            "Container suse/manager/5.0/x86_64/server:latest:java-11-openjdk-headless-11.0.12.0-3.59.1",
            "Image SLES15-SP2-Manager-4-1-Server-BYOS-Azure:java-11-openjdk-11.0.12.0-3.59.1",
            "Image SLES15-SP2-Manager-4-1-Server-BYOS-Azure:java-11-openjdk-headless-11.0.12.0-3.59.1",
            "Image SLES15-SP2-Manager-4-1-Server-BYOS-EC2-HVM:java-11-openjdk-11.0.12.0-3.59.1",
            "Image SLES15-SP2-Manager-4-1-Server-BYOS-EC2-HVM:java-11-openjdk-headless-11.0.12.0-3.59.1",
            "Image SLES15-SP2-Manager-4-1-Server-BYOS-GCE:java-11-openjdk-11.0.12.0-3.59.1",
            "Image SLES15-SP2-Manager-4-1-Server-BYOS-GCE:java-11-openjdk-headless-11.0.12.0-3.59.1",
            "Image SLES15-SP3-Manager-4-2-Server-BYOS-Azure:java-11-openjdk-11.0.12.0-3.59.1",
            "Image SLES15-SP3-Manager-4-2-Server-BYOS-Azure:java-11-openjdk-headless-11.0.12.0-3.59.1",
            "Image SLES15-SP3-Manager-4-2-Server-BYOS-EC2-HVM:java-11-openjdk-11.0.12.0-3.59.1",
            "Image SLES15-SP3-Manager-4-2-Server-BYOS-EC2-HVM:java-11-openjdk-headless-11.0.12.0-3.59.1",
            "Image SLES15-SP3-Manager-4-2-Server-BYOS-GCE:java-11-openjdk-11.0.12.0-3.59.1",
            "Image SLES15-SP3-Manager-4-2-Server-BYOS-GCE:java-11-openjdk-headless-11.0.12.0-3.59.1",
            "Image SLES15-SP4-Manager-Server-4-3-Azure-llc:java-11-openjdk-11.0.12.0-3.59.1",
            "Image SLES15-SP4-Manager-Server-4-3-Azure-llc:java-11-openjdk-headless-11.0.12.0-3.59.1",
            "Image SLES15-SP4-Manager-Server-4-3-Azure-ltd:java-11-openjdk-11.0.12.0-3.59.1",
            "Image SLES15-SP4-Manager-Server-4-3-Azure-ltd:java-11-openjdk-headless-11.0.12.0-3.59.1",
            "Image SLES15-SP4-Manager-Server-4-3-BYOS-Azure:java-11-openjdk-11.0.12.0-3.59.1",
            "Image SLES15-SP4-Manager-Server-4-3-BYOS-Azure:java-11-openjdk-headless-11.0.12.0-3.59.1",
            "Image SLES15-SP4-Manager-Server-4-3-BYOS-EC2:java-11-openjdk-11.0.12.0-3.59.1",
            "Image SLES15-SP4-Manager-Server-4-3-BYOS-EC2:java-11-openjdk-headless-11.0.12.0-3.59.1",
            "Image SLES15-SP4-Manager-Server-4-3-BYOS-GCE:java-11-openjdk-11.0.12.0-3.59.1",
            "Image SLES15-SP4-Manager-Server-4-3-BYOS-GCE:java-11-openjdk-headless-11.0.12.0-3.59.1",
            "Image SLES15-SP4-Manager-Server-4-3-BYOS:java-11-openjdk-11.0.12.0-3.59.1",
            "Image SLES15-SP4-Manager-Server-4-3-BYOS:java-11-openjdk-headless-11.0.12.0-3.59.1",
            "Image SLES15-SP4-Manager-Server-4-3-EC2-llc:java-11-openjdk-11.0.12.0-3.59.1",
            "Image SLES15-SP4-Manager-Server-4-3-EC2-llc:java-11-openjdk-headless-11.0.12.0-3.59.1",
            "Image SLES15-SP4-Manager-Server-4-3-EC2-ltd:java-11-openjdk-11.0.12.0-3.59.1",
            "Image SLES15-SP4-Manager-Server-4-3-EC2-ltd:java-11-openjdk-headless-11.0.12.0-3.59.1",
            "Image SLES15-SP4-Manager-Server-4-3:java-11-openjdk-11.0.12.0-3.59.1",
            "Image SLES15-SP4-Manager-Server-4-3:java-11-openjdk-headless-11.0.12.0-3.59.1",
            "SUSE Enterprise Storage 6:java-11-openjdk-11.0.12.0-3.59.1",
            "SUSE Enterprise Storage 6:java-11-openjdk-demo-11.0.12.0-3.59.1",
            "SUSE Enterprise Storage 6:java-11-openjdk-devel-11.0.12.0-3.59.1",
            "SUSE Enterprise Storage 6:java-11-openjdk-headless-11.0.12.0-3.59.1",
            "SUSE Linux Enterprise High Performance Computing 15 SP1-ESPOS:java-11-openjdk-11.0.12.0-3.59.1",
            "SUSE Linux Enterprise High Performance Computing 15 SP1-ESPOS:java-11-openjdk-demo-11.0.12.0-3.59.1",
            "SUSE Linux Enterprise High Performance Computing 15 SP1-ESPOS:java-11-openjdk-devel-11.0.12.0-3.59.1",
            "SUSE Linux Enterprise High Performance Computing 15 SP1-ESPOS:java-11-openjdk-headless-11.0.12.0-3.59.1",
            "SUSE Linux Enterprise High Performance Computing 15 SP1-LTSS:java-11-openjdk-11.0.12.0-3.59.1",
            "SUSE Linux Enterprise High Performance Computing 15 SP1-LTSS:java-11-openjdk-demo-11.0.12.0-3.59.1",
            "SUSE Linux Enterprise High Performance Computing 15 SP1-LTSS:java-11-openjdk-devel-11.0.12.0-3.59.1",
            "SUSE Linux Enterprise High Performance Computing 15 SP1-LTSS:java-11-openjdk-headless-11.0.12.0-3.59.1",
            "SUSE Linux Enterprise High Performance Computing 15-ESPOS:java-11-openjdk-11.0.12.0-3.59.1",
            "SUSE Linux Enterprise High Performance Computing 15-ESPOS:java-11-openjdk-demo-11.0.12.0-3.59.1",
            "SUSE Linux Enterprise High Performance Computing 15-ESPOS:java-11-openjdk-devel-11.0.12.0-3.59.1",
            "SUSE Linux Enterprise High Performance Computing 15-ESPOS:java-11-openjdk-headless-11.0.12.0-3.59.1",
            "SUSE Linux Enterprise High Performance Computing 15-LTSS:java-11-openjdk-11.0.12.0-3.59.1",
            "SUSE Linux Enterprise High Performance Computing 15-LTSS:java-11-openjdk-demo-11.0.12.0-3.59.1",
            "SUSE Linux Enterprise High Performance Computing 15-LTSS:java-11-openjdk-devel-11.0.12.0-3.59.1",
            "SUSE Linux Enterprise High Performance Computing 15-LTSS:java-11-openjdk-headless-11.0.12.0-3.59.1",
            "SUSE Linux Enterprise Module for Basesystem 15 SP2:java-11-openjdk-11.0.12.0-3.59.1",
            "SUSE Linux Enterprise Module for Basesystem 15 SP2:java-11-openjdk-demo-11.0.12.0-3.59.1",
            "SUSE Linux Enterprise Module for Basesystem 15 SP2:java-11-openjdk-devel-11.0.12.0-3.59.1",
            "SUSE Linux Enterprise Module for Basesystem 15 SP2:java-11-openjdk-headless-11.0.12.0-3.59.1",
            "SUSE Linux Enterprise Module for Basesystem 15 SP3:java-11-openjdk-11.0.12.0-3.59.1",
            "SUSE Linux Enterprise Module for Basesystem 15 SP3:java-11-openjdk-demo-11.0.12.0-3.59.1",
            "SUSE Linux Enterprise Module for Basesystem 15 SP3:java-11-openjdk-devel-11.0.12.0-3.59.1",
            "SUSE Linux Enterprise Module for Basesystem 15 SP3:java-11-openjdk-headless-11.0.12.0-3.59.1",
            "SUSE Linux Enterprise Module for Package Hub 15 SP2:java-11-openjdk-javadoc-11.0.12.0-3.59.1",
            "SUSE Linux Enterprise Module for Package Hub 15 SP2:java-11-openjdk-jmods-11.0.12.0-3.59.1",
            "SUSE Linux Enterprise Module for Package Hub 15 SP3:java-11-openjdk-javadoc-11.0.12.0-3.59.1",
            "SUSE Linux Enterprise Module for Package Hub 15 SP3:java-11-openjdk-jmods-11.0.12.0-3.59.1",
            "SUSE Linux Enterprise Server 15 SP1-BCL:java-11-openjdk-11.0.12.0-3.59.1",
            "SUSE Linux Enterprise Server 15 SP1-BCL:java-11-openjdk-demo-11.0.12.0-3.59.1",
            "SUSE Linux Enterprise Server 15 SP1-BCL:java-11-openjdk-devel-11.0.12.0-3.59.1",
            "SUSE Linux Enterprise Server 15 SP1-BCL:java-11-openjdk-headless-11.0.12.0-3.59.1",
            "SUSE Linux Enterprise Server 15 SP1-LTSS:java-11-openjdk-11.0.12.0-3.59.1",
            "SUSE Linux Enterprise Server 15 SP1-LTSS:java-11-openjdk-demo-11.0.12.0-3.59.1",
            "SUSE Linux Enterprise Server 15 SP1-LTSS:java-11-openjdk-devel-11.0.12.0-3.59.1",
            "SUSE Linux Enterprise Server 15 SP1-LTSS:java-11-openjdk-headless-11.0.12.0-3.59.1",
            "SUSE Linux Enterprise Server 15-LTSS:java-11-openjdk-11.0.12.0-3.59.1",
            "SUSE Linux Enterprise Server 15-LTSS:java-11-openjdk-demo-11.0.12.0-3.59.1",
            "SUSE Linux Enterprise Server 15-LTSS:java-11-openjdk-devel-11.0.12.0-3.59.1",
            "SUSE Linux Enterprise Server 15-LTSS:java-11-openjdk-headless-11.0.12.0-3.59.1",
            "SUSE Linux Enterprise Server for SAP Applications 15 SP1:java-11-openjdk-11.0.12.0-3.59.1",
            "SUSE Linux Enterprise Server for SAP Applications 15 SP1:java-11-openjdk-demo-11.0.12.0-3.59.1",
            "SUSE Linux Enterprise Server for SAP Applications 15 SP1:java-11-openjdk-devel-11.0.12.0-3.59.1",
            "SUSE Linux Enterprise Server for SAP Applications 15 SP1:java-11-openjdk-headless-11.0.12.0-3.59.1",
            "SUSE Linux Enterprise Server for SAP Applications 15:java-11-openjdk-11.0.12.0-3.59.1",
            "SUSE Linux Enterprise Server for SAP Applications 15:java-11-openjdk-demo-11.0.12.0-3.59.1",
            "SUSE Linux Enterprise Server for SAP Applications 15:java-11-openjdk-devel-11.0.12.0-3.59.1",
            "SUSE Linux Enterprise Server for SAP Applications 15:java-11-openjdk-headless-11.0.12.0-3.59.1",
            "SUSE Manager Proxy 4.0:java-11-openjdk-11.0.12.0-3.59.1",
            "SUSE Manager Proxy 4.0:java-11-openjdk-demo-11.0.12.0-3.59.1",
            "SUSE Manager Proxy 4.0:java-11-openjdk-devel-11.0.12.0-3.59.1",
            "SUSE Manager Proxy 4.0:java-11-openjdk-headless-11.0.12.0-3.59.1",
            "SUSE Manager Retail Branch Server 4.0:java-11-openjdk-11.0.12.0-3.59.1",
            "SUSE Manager Retail Branch Server 4.0:java-11-openjdk-demo-11.0.12.0-3.59.1",
            "SUSE Manager Retail Branch Server 4.0:java-11-openjdk-devel-11.0.12.0-3.59.1",
            "SUSE Manager Retail Branch Server 4.0:java-11-openjdk-headless-11.0.12.0-3.59.1",
            "SUSE Manager Server 4.0:java-11-openjdk-11.0.12.0-3.59.1",
            "SUSE Manager Server 4.0:java-11-openjdk-demo-11.0.12.0-3.59.1",
            "SUSE Manager Server 4.0:java-11-openjdk-devel-11.0.12.0-3.59.1",
            "SUSE Manager Server 4.0:java-11-openjdk-headless-11.0.12.0-3.59.1"
          ]
        }
      ],
      "CVSSScoreSets": {}
    },
    {
      "CVE": "CVE-2021-2388",
      "Description": "Vulnerability in the Java SE, Oracle GraalVM Enterprise Edition product of Oracle Java SE (component: Hotspot). Supported versions that are affected are Java SE: 8u291, 11.0.11, 16.0.1; Oracle GraalVM Enterprise Edition: 20.3.2 and 21.1.0. Difficult to exploit vulnerability allows unauthenticated attacker with network access via multiple protocols to compromise Java SE, Oracle GraalVM Enterprise Edition. Successful attacks require human interaction from a person other than the attacker. Successful attacks of this vulnerability can result in takeover of Java SE, Oracle GraalVM Enterprise Edition. Note: This vulnerability applies to Java deployments, typically in clients running sandboxed Java Web Start applications or sandboxed Java applets, that load and run untrusted code (e.g., code that comes from the internet) and rely on the Java sandbox for security. This vulnerability does not apply to Java deployments, typically in servers, that load and run only trusted code (e.g., code installed by an administrator). CVSS 3.1 Base Score 7.5 (Confidentiality, Integrity and Availability impacts). CVSS Vector: (CVSS:3.1/AV:N/AC:H/PR:N/UI:R/S:U/C:H/I:H/A:H).",
      "Threats": [
        {
          "Type": "Impact",
          "Severity": "important"
        }
      ],
      "References": [
        {
          "URL": "https://www.suse.com/security/cve/CVE-2021-2388.html",
          "Description": "CVE-2021-2388"
        },
        {
          "URL": "https://bugzilla.suse.com/1188566",
          "Description": "SUSE Bug 1188566"
        }
      ],
      "ProductStatuses": [
        {
          "Type": "Fixed",
          "ProductID": [
            "Container bci/openjdk-devel:11:java-11-openjdk-11.0.12.0-3.59.1",
            "Container bci/openjdk-devel:11:java-11-openjdk-devel-11.0.12.0-3.59.1",
            "Container bci/openjdk-devel:11:java-11-openjdk-headless-11.0.12.0-3.59.1",
            "Container bci/openjdk:11:java-11-openjdk-11.0.12.0-3.59.1",
            "Container bci/openjdk:11:java-11-openjdk-headless-11.0.12.0-3.59.1",
            "Container bci/openjdk:latest:java-11-openjdk-11.0.12.0-3.59.1",
            "Container bci/openjdk:latest:java-11-openjdk-headless-11.0.12.0-3.59.1",
            "Container suse/manager/5.0/x86_64/server-attestation:latest:java-11-openjdk-headless-11.0.12.0-3.59.1",
            "Container suse/manager/5.0/x86_64/server:latest:java-11-openjdk-11.0.12.0-3.59.1",
            "Container suse/manager/5.0/x86_64/server:latest:java-11-openjdk-headless-11.0.12.0-3.59.1",
            "Image SLES15-SP2-Manager-4-1-Server-BYOS-Azure:java-11-openjdk-11.0.12.0-3.59.1",
            "Image SLES15-SP2-Manager-4-1-Server-BYOS-Azure:java-11-openjdk-headless-11.0.12.0-3.59.1",
            "Image SLES15-SP2-Manager-4-1-Server-BYOS-EC2-HVM:java-11-openjdk-11.0.12.0-3.59.1",
            "Image SLES15-SP2-Manager-4-1-Server-BYOS-EC2-HVM:java-11-openjdk-headless-11.0.12.0-3.59.1",
            "Image SLES15-SP2-Manager-4-1-Server-BYOS-GCE:java-11-openjdk-11.0.12.0-3.59.1",
            "Image SLES15-SP2-Manager-4-1-Server-BYOS-GCE:java-11-openjdk-headless-11.0.12.0-3.59.1",
            "Image SLES15-SP3-Manager-4-2-Server-BYOS-Azure:java-11-openjdk-11.0.12.0-3.59.1",
            "Image SLES15-SP3-Manager-4-2-Server-BYOS-Azure:java-11-openjdk-headless-11.0.12.0-3.59.1",
            "Image SLES15-SP3-Manager-4-2-Server-BYOS-EC2-HVM:java-11-openjdk-11.0.12.0-3.59.1",
            "Image SLES15-SP3-Manager-4-2-Server-BYOS-EC2-HVM:java-11-openjdk-headless-11.0.12.0-3.59.1",
            "Image SLES15-SP3-Manager-4-2-Server-BYOS-GCE:java-11-openjdk-11.0.12.0-3.59.1",
            "Image SLES15-SP3-Manager-4-2-Server-BYOS-GCE:java-11-openjdk-headless-11.0.12.0-3.59.1",
            "Image SLES15-SP4-Manager-Server-4-3-Azure-llc:java-11-openjdk-11.0.12.0-3.59.1",
            "Image SLES15-SP4-Manager-Server-4-3-Azure-llc:java-11-openjdk-headless-11.0.12.0-3.59.1",
            "Image SLES15-SP4-Manager-Server-4-3-Azure-ltd:java-11-openjdk-11.0.12.0-3.59.1",
            "Image SLES15-SP4-Manager-Server-4-3-Azure-ltd:java-11-openjdk-headless-11.0.12.0-3.59.1",
            "Image SLES15-SP4-Manager-Server-4-3-BYOS-Azure:java-11-openjdk-11.0.12.0-3.59.1",
            "Image SLES15-SP4-Manager-Server-4-3-BYOS-Azure:java-11-openjdk-headless-11.0.12.0-3.59.1",
            "Image SLES15-SP4-Manager-Server-4-3-BYOS-EC2:java-11-openjdk-11.0.12.0-3.59.1",
            "Image SLES15-SP4-Manager-Server-4-3-BYOS-EC2:java-11-openjdk-headless-11.0.12.0-3.59.1",
            "Image SLES15-SP4-Manager-Server-4-3-BYOS-GCE:java-11-openjdk-11.0.12.0-3.59.1",
            "Image SLES15-SP4-Manager-Server-4-3-BYOS-GCE:java-11-openjdk-headless-11.0.12.0-3.59.1",
            "Image SLES15-SP4-Manager-Server-4-3-BYOS:java-11-openjdk-11.0.12.0-3.59.1",
            "Image SLES15-SP4-Manager-Server-4-3-BYOS:java-11-openjdk-headless-11.0.12.0-3.59.1",
            "Image SLES15-SP4-Manager-Server-4-3-EC2-llc:java-11-openjdk-11.0.12.0-3.59.1",
            "Image SLES15-SP4-Manager-Server-4-3-EC2-llc:java-11-openjdk-headless-11.0.12.0-3.59.1",
            "Image SLES15-SP4-Manager-Server-4-3-EC2-ltd:java-11-openjdk-11.0.12.0-3.59.1",
            "Image SLES15-SP4-Manager-Server-4-3-EC2-ltd:java-11-openjdk-headless-11.0.12.0-3.59.1",
            "Image SLES15-SP4-Manager-Server-4-3:java-11-openjdk-11.0.12.0-3.59.1",
            "Image SLES15-SP4-Manager-Server-4-3:java-11-openjdk-headless-11.0.12.0-3.59.1",
            "SUSE Enterprise Storage 6:java-11-openjdk-11.0.12.0-3.59.1",
            "SUSE Enterprise Storage 6:java-11-openjdk-demo-11.0.12.0-3.59.1",
            "SUSE Enterprise Storage 6:java-11-openjdk-devel-11.0.12.0-3.59.1",
            "SUSE Enterprise Storage 6:java-11-openjdk-headless-11.0.12.0-3.59.1",
            "SUSE Linux Enterprise High Performance Computing 15 SP1-ESPOS:java-11-openjdk-11.0.12.0-3.59.1",
            "SUSE Linux Enterprise High Performance Computing 15 SP1-ESPOS:java-11-openjdk-demo-11.0.12.0-3.59.1",
            "SUSE Linux Enterprise High Performance Computing 15 SP1-ESPOS:java-11-openjdk-devel-11.0.12.0-3.59.1",
            "SUSE Linux Enterprise High Performance Computing 15 SP1-ESPOS:java-11-openjdk-headless-11.0.12.0-3.59.1",
            "SUSE Linux Enterprise High Performance Computing 15 SP1-LTSS:java-11-openjdk-11.0.12.0-3.59.1",
            "SUSE Linux Enterprise High Performance Computing 15 SP1-LTSS:java-11-openjdk-demo-11.0.12.0-3.59.1",
            "SUSE Linux Enterprise High Performance Computing 15 SP1-LTSS:java-11-openjdk-devel-11.0.12.0-3.59.1",
            "SUSE Linux Enterprise High Performance Computing 15 SP1-LTSS:java-11-openjdk-headless-11.0.12.0-3.59.1",
            "SUSE Linux Enterprise High Performance Computing 15-ESPOS:java-11-openjdk-11.0.12.0-3.59.1",
            "SUSE Linux Enterprise High Performance Computing 15-ESPOS:java-11-openjdk-demo-11.0.12.0-3.59.1",
            "SUSE Linux Enterprise High Performance Computing 15-ESPOS:java-11-openjdk-devel-11.0.12.0-3.59.1",
            "SUSE Linux Enterprise High Performance Computing 15-ESPOS:java-11-openjdk-headless-11.0.12.0-3.59.1",
            "SUSE Linux Enterprise High Performance Computing 15-LTSS:java-11-openjdk-11.0.12.0-3.59.1",
            "SUSE Linux Enterprise High Performance Computing 15-LTSS:java-11-openjdk-demo-11.0.12.0-3.59.1",
            "SUSE Linux Enterprise High Performance Computing 15-LTSS:java-11-openjdk-devel-11.0.12.0-3.59.1",
            "SUSE Linux Enterprise High Performance Computing 15-LTSS:java-11-openjdk-headless-11.0.12.0-3.59.1",
            "SUSE Linux Enterprise Module for Basesystem 15 SP2:java-11-openjdk-11.0.12.0-3.59.1",
            "SUSE Linux Enterprise Module for Basesystem 15 SP2:java-11-openjdk-demo-11.0.12.0-3.59.1",
            "SUSE Linux Enterprise Module for Basesystem 15 SP2:java-11-openjdk-devel-11.0.12.0-3.59.1",
            "SUSE Linux Enterprise Module for Basesystem 15 SP2:java-11-openjdk-headless-11.0.12.0-3.59.1",
            "SUSE Linux Enterprise Module for Basesystem 15 SP3:java-11-openjdk-11.0.12.0-3.59.1",
            "SUSE Linux Enterprise Module for Basesystem 15 SP3:java-11-openjdk-demo-11.0.12.0-3.59.1",
            "SUSE Linux Enterprise Module for Basesystem 15 SP3:java-11-openjdk-devel-11.0.12.0-3.59.1",
            "SUSE Linux Enterprise Module for Basesystem 15 SP3:java-11-openjdk-headless-11.0.12.0-3.59.1",
            "SUSE Linux Enterprise Module for Package Hub 15 SP2:java-11-openjdk-javadoc-11.0.12.0-3.59.1",
            "SUSE Linux Enterprise Module for Package Hub 15 SP2:java-11-openjdk-jmods-11.0.12.0-3.59.1",
            "SUSE Linux Enterprise Module for Package Hub 15 SP3:java-11-openjdk-javadoc-11.0.12.0-3.59.1",
            "SUSE Linux Enterprise Module for Package Hub 15 SP3:java-11-openjdk-jmods-11.0.12.0-3.59.1",
            "SUSE Linux Enterprise Server 15 SP1-BCL:java-11-openjdk-11.0.12.0-3.59.1",
            "SUSE Linux Enterprise Server 15 SP1-BCL:java-11-openjdk-demo-11.0.12.0-3.59.1",
            "SUSE Linux Enterprise Server 15 SP1-BCL:java-11-openjdk-devel-11.0.12.0-3.59.1",
            "SUSE Linux Enterprise Server 15 SP1-BCL:java-11-openjdk-headless-11.0.12.0-3.59.1",
            "SUSE Linux Enterprise Server 15 SP1-LTSS:java-11-openjdk-11.0.12.0-3.59.1",
            "SUSE Linux Enterprise Server 15 SP1-LTSS:java-11-openjdk-demo-11.0.12.0-3.59.1",
            "SUSE Linux Enterprise Server 15 SP1-LTSS:java-11-openjdk-devel-11.0.12.0-3.59.1",
            "SUSE Linux Enterprise Server 15 SP1-LTSS:java-11-openjdk-headless-11.0.12.0-3.59.1",
            "SUSE Linux Enterprise Server 15-LTSS:java-11-openjdk-11.0.12.0-3.59.1",
            "SUSE Linux Enterprise Server 15-LTSS:java-11-openjdk-demo-11.0.12.0-3.59.1",
            "SUSE Linux Enterprise Server 15-LTSS:java-11-openjdk-devel-11.0.12.0-3.59.1",
            "SUSE Linux Enterprise Server 15-LTSS:java-11-openjdk-headless-11.0.12.0-3.59.1",
            "SUSE Linux Enterprise Server for SAP Applications 15 SP1:java-11-openjdk-11.0.12.0-3.59.1",
            "SUSE Linux Enterprise Server for SAP Applications 15 SP1:java-11-openjdk-demo-11.0.12.0-3.59.1",
            "SUSE Linux Enterprise Server for SAP Applications 15 SP1:java-11-openjdk-devel-11.0.12.0-3.59.1",
            "SUSE Linux Enterprise Server for SAP Applications 15 SP1:java-11-openjdk-headless-11.0.12.0-3.59.1",
            "SUSE Linux Enterprise Server for SAP Applications 15:java-11-openjdk-11.0.12.0-3.59.1",
            "SUSE Linux Enterprise Server for SAP Applications 15:java-11-openjdk-demo-11.0.12.0-3.59.1",
            "SUSE Linux Enterprise Server for SAP Applications 15:java-11-openjdk-devel-11.0.12.0-3.59.1",
            "SUSE Linux Enterprise Server for SAP Applications 15:java-11-openjdk-headless-11.0.12.0-3.59.1",
            "SUSE Manager Proxy 4.0:java-11-openjdk-11.0.12.0-3.59.1",
            "SUSE Manager Proxy 4.0:java-11-openjdk-demo-11.0.12.0-3.59.1",
            "SUSE Manager Proxy 4.0:java-11-openjdk-devel-11.0.12.0-3.59.1",
            "SUSE Manager Proxy 4.0:java-11-openjdk-headless-11.0.12.0-3.59.1",
            "SUSE Manager Retail Branch Server 4.0:java-11-openjdk-11.0.12.0-3.59.1",
            "SUSE Manager Retail Branch Server 4.0:java-11-openjdk-demo-11.0.12.0-3.59.1",
            "SUSE Manager Retail Branch Server 4.0:java-11-openjdk-devel-11.0.12.0-3.59.1",
            "SUSE Manager Retail Branch Server 4.0:java-11-openjdk-headless-11.0.12.0-3.59.1",
            "SUSE Manager Server 4.0:java-11-openjdk-11.0.12.0-3.59.1",
            "SUSE Manager Server 4.0:java-11-openjdk-demo-11.0.12.0-3.59.1",
            "SUSE Manager Server 4.0:java-11-openjdk-devel-11.0.12.0-3.59.1",
            "SUSE Manager Server 4.0:java-11-openjdk-headless-11.0.12.0-3.59.1"
          ]
        }
      ],
      "CVSSScoreSets": {}
    }
  ]
}