{
  "Title": "Security update for openssl-1_0_0",
  "Tracking": {
    "ID": "SUSE-SU-2021:0769-1",
    "Status": "Final",
    "Version": "1",
    "InitialReleaseDate": "2021-03-11T19:22:33Z",
    "CurrentReleaseDate": "2021-03-11T19:22:33Z",
    "RevisionHistory": [
      {
        "Number": "1",
        "Date": "2021-03-11T19:22:33Z",
        "Description": "current"
      }
    ]
  },
  "Notes": [
    {
      "Text": "Security update for openssl-1_0_0",
      "Title": "Topic",
      "Type": "Summary"
    },
    {
      "Text": "This update for openssl-1_0_0 fixes the following issues:\n\n- CVE-2021-23840: Fixed an Integer overflow in CipherUpdate (bsc#1182333)\n- CVE-2021-23841: Fixed a Null pointer dereference in X509_issuer_and_serial_hash() (bsc#1182331)\n",
      "Title": "Details",
      "Type": "General"
    },
    {
      "Text": "The CVRF data is provided by SUSE under the Creative Commons License 4.0 with Attribution (CC-BY-4.0).",
      "Title": "Terms of Use",
      "Type": "Legal Disclaimer"
    },
    {
      "Text": "Image SLES15-SAP-Azure-LI-BYOS-Production-2021-769,Image SLES15-SAP-Azure-VLI-BYOS-Production-2021-769,Image SLES15-SP1-SAP-Azure-LI-BYOS-Production-2021-769,Image SLES15-SP1-SAP-Azure-VLI-BYOS-Production-2021-769,Image SLES15-SP2-SAP-Azure-LI-BYOS-Production-2021-769,Image SLES15-SP2-SAP-Azure-VLI-BYOS-Production-2021-769,Image SLES15-SP3-EC2-HVM-2021-769,Image SLES15-SP3-SAP-Azure-2021-769,Image SLES15-SP3-SAP-Azure-LI-BYOS-Production-2021-769,Image SLES15-SP3-SAP-Azure-VLI-BYOS-Production-2021-769,Image SLES15-SP3-SAP-EC2-HVM-2021-769,Image SLES15-SP3-SAP-GCE-2021-769,Image SLES15-SP3-SAPCAL-Azure-2021-769,Image SLES15-SP3-SAPCAL-EC2-HVM-2021-769,Image SLES15-SP3-SAPCAL-GCE-2021-769,Image SLES15-SP4-SAP-Azure-LI-BYOS-2021-769,Image SLES15-SP4-SAP-Azure-LI-BYOS-Production-2021-769,Image SLES15-SP4-SAP-Azure-VLI-BYOS-2021-769,Image SLES15-SP4-SAP-Azure-VLI-BYOS-Production-2021-769,Image SLES15-SP5-SAP-Azure-LI-BYOS-2021-769,Image SLES15-SP5-SAP-Azure-LI-BYOS-Production-2021-769,Image SLES15-SP5-SAP-Azure-VLI-BYOS-2021-769,Image SLES15-SP5-SAP-Azure-VLI-BYOS-Production-2021-769,SUSE-2021-769,SUSE-SLE-Module-Legacy-15-SP2-2021-769,SUSE-SLE-Module-Legacy-15-SP3-2021-769,SUSE-SLE-Product-SLES-15-2021-769,SUSE-SLE-Product-SLES-15-SP1-BCL-2021-769,SUSE-SLE-Product-SLES-15-SP1-LTSS-2021-769,SUSE-SLE-Product-SLES_SAP-15-2021-769,SUSE-SLE-Product-SLES_SAP-15-SP1-2021-769,SUSE-SLE-Product-SUSE-Manager-Proxy-4.0-2021-769,SUSE-SLE-Product-SUSE-Manager-Retail-Branch-Server-4.0-2021-769,SUSE-SLE-Product-SUSE-Manager-Server-4.0-2021-769,SUSE-Storage-6-2021-769",
      "Title": "Patchnames",
      "Type": "Details"
    }
  ],
  "ProductTree": {
    "Relationships": [
      {
        "ProductReference": "libopenssl1_0_0-1.0.2p-3.37.1",
        "RelatesToProductReference": "Image SLES15-SAP-Azure-LI-BYOS-Production",
        "RelationType": "Default Component Of"
      },
      {
        "ProductReference": "libopenssl1_0_0-1.0.2p-3.37.1",
        "RelatesToProductReference": "Image SLES15-SAP-Azure-VLI-BYOS-Production",
        "RelationType": "Default Component Of"
      },
      {
        "ProductReference": "libopenssl1_0_0-1.0.2p-3.37.1",
        "RelatesToProductReference": "Image SLES15-SP1-SAP-Azure-LI-BYOS-Production",
        "RelationType": "Default Component Of"
      },
      {
        "ProductReference": "libopenssl1_0_0-1.0.2p-3.37.1",
        "RelatesToProductReference": "Image SLES15-SP1-SAP-Azure-VLI-BYOS-Production",
        "RelationType": "Default Component Of"
      },
      {
        "ProductReference": "libopenssl1_0_0-1.0.2p-3.37.1",
        "RelatesToProductReference": "Image SLES15-SP2-SAP-Azure-LI-BYOS-Production",
        "RelationType": "Default Component Of"
      },
      {
        "ProductReference": "libopenssl1_0_0-1.0.2p-3.37.1",
        "RelatesToProductReference": "Image SLES15-SP2-SAP-Azure-VLI-BYOS-Production",
        "RelationType": "Default Component Of"
      },
      {
        "ProductReference": "libopenssl1_0_0-1.0.2p-3.37.1",
        "RelatesToProductReference": "Image SLES15-SP3-EC2-HVM",
        "RelationType": "Default Component Of"
      },
      {
        "ProductReference": "libopenssl1_0_0-1.0.2p-3.37.1",
        "RelatesToProductReference": "Image SLES15-SP3-SAP-Azure",
        "RelationType": "Default Component Of"
      },
      {
        "ProductReference": "libopenssl1_0_0-1.0.2p-3.37.1",
        "RelatesToProductReference": "Image SLES15-SP3-SAP-Azure-LI-BYOS-Production",
        "RelationType": "Default Component Of"
      },
      {
        "ProductReference": "libopenssl1_0_0-1.0.2p-3.37.1",
        "RelatesToProductReference": "Image SLES15-SP3-SAP-Azure-VLI-BYOS-Production",
        "RelationType": "Default Component Of"
      },
      {
        "ProductReference": "libopenssl1_0_0-1.0.2p-3.37.1",
        "RelatesToProductReference": "Image SLES15-SP3-SAP-EC2-HVM",
        "RelationType": "Default Component Of"
      },
      {
        "ProductReference": "libopenssl1_0_0-1.0.2p-3.37.1",
        "RelatesToProductReference": "Image SLES15-SP3-SAP-GCE",
        "RelationType": "Default Component Of"
      },
      {
        "ProductReference": "libopenssl1_0_0-1.0.2p-3.37.1",
        "RelatesToProductReference": "Image SLES15-SP3-SAPCAL-Azure",
        "RelationType": "Default Component Of"
      },
      {
        "ProductReference": "libopenssl1_0_0-1.0.2p-3.37.1",
        "RelatesToProductReference": "Image SLES15-SP3-SAPCAL-EC2-HVM",
        "RelationType": "Default Component Of"
      },
      {
        "ProductReference": "libopenssl1_0_0-1.0.2p-3.37.1",
        "RelatesToProductReference": "Image SLES15-SP3-SAPCAL-GCE",
        "RelationType": "Default Component Of"
      },
      {
        "ProductReference": "libopenssl1_0_0-1.0.2p-3.37.1",
        "RelatesToProductReference": "Image SLES15-SP4-SAP-Azure-LI-BYOS",
        "RelationType": "Default Component Of"
      },
      {
        "ProductReference": "libopenssl1_0_0-1.0.2p-3.37.1",
        "RelatesToProductReference": "Image SLES15-SP4-SAP-Azure-LI-BYOS-Production",
        "RelationType": "Default Component Of"
      },
      {
        "ProductReference": "libopenssl1_0_0-1.0.2p-3.37.1",
        "RelatesToProductReference": "Image SLES15-SP4-SAP-Azure-VLI-BYOS",
        "RelationType": "Default Component Of"
      },
      {
        "ProductReference": "libopenssl1_0_0-1.0.2p-3.37.1",
        "RelatesToProductReference": "Image SLES15-SP4-SAP-Azure-VLI-BYOS-Production",
        "RelationType": "Default Component Of"
      },
      {
        "ProductReference": "libopenssl1_0_0-1.0.2p-3.37.1",
        "RelatesToProductReference": "Image SLES15-SP5-SAP-Azure-LI-BYOS",
        "RelationType": "Default Component Of"
      },
      {
        "ProductReference": "libopenssl1_0_0-1.0.2p-3.37.1",
        "RelatesToProductReference": "Image SLES15-SP5-SAP-Azure-LI-BYOS-Production",
        "RelationType": "Default Component Of"
      },
      {
        "ProductReference": "libopenssl1_0_0-1.0.2p-3.37.1",
        "RelatesToProductReference": "Image SLES15-SP5-SAP-Azure-VLI-BYOS",
        "RelationType": "Default Component Of"
      },
      {
        "ProductReference": "libopenssl1_0_0-1.0.2p-3.37.1",
        "RelatesToProductReference": "Image SLES15-SP5-SAP-Azure-VLI-BYOS-Production",
        "RelationType": "Default Component Of"
      },
      {
        "ProductReference": "libopenssl-1_0_0-devel-1.0.2p-3.37.1",
        "RelatesToProductReference": "SUSE Enterprise Storage 6",
        "RelationType": "Default Component Of"
      },
      {
        "ProductReference": "libopenssl1_0_0-1.0.2p-3.37.1",
        "RelatesToProductReference": "SUSE Enterprise Storage 6",
        "RelationType": "Default Component Of"
      },
      {
        "ProductReference": "openssl-1_0_0-1.0.2p-3.37.1",
        "RelatesToProductReference": "SUSE Enterprise Storage 6",
        "RelationType": "Default Component Of"
      },
      {
        "ProductReference": "libopenssl-1_0_0-devel-1.0.2p-3.37.1",
        "RelatesToProductReference": "SUSE Linux Enterprise Module for Legacy 15 SP2",
        "RelationType": "Default Component Of"
      },
      {
        "ProductReference": "libopenssl1_0_0-1.0.2p-3.37.1",
        "RelatesToProductReference": "SUSE Linux Enterprise Module for Legacy 15 SP2",
        "RelationType": "Default Component Of"
      },
      {
        "ProductReference": "openssl-1_0_0-1.0.2p-3.37.1",
        "RelatesToProductReference": "SUSE Linux Enterprise Module for Legacy 15 SP2",
        "RelationType": "Default Component Of"
      },
      {
        "ProductReference": "libopenssl-1_0_0-devel-1.0.2p-3.37.1",
        "RelatesToProductReference": "SUSE Linux Enterprise Server 15 SP1-BCL",
        "RelationType": "Default Component Of"
      },
      {
        "ProductReference": "libopenssl1_0_0-1.0.2p-3.37.1",
        "RelatesToProductReference": "SUSE Linux Enterprise Server 15 SP1-BCL",
        "RelationType": "Default Component Of"
      },
      {
        "ProductReference": "openssl-1_0_0-1.0.2p-3.37.1",
        "RelatesToProductReference": "SUSE Linux Enterprise Server 15 SP1-BCL",
        "RelationType": "Default Component Of"
      },
      {
        "ProductReference": "libopenssl-1_0_0-devel-1.0.2p-3.37.1",
        "RelatesToProductReference": "SUSE Linux Enterprise Server 15 SP1-LTSS",
        "RelationType": "Default Component Of"
      },
      {
        "ProductReference": "libopenssl1_0_0-1.0.2p-3.37.1",
        "RelatesToProductReference": "SUSE Linux Enterprise Server 15 SP1-LTSS",
        "RelationType": "Default Component Of"
      },
      {
        "ProductReference": "openssl-1_0_0-1.0.2p-3.37.1",
        "RelatesToProductReference": "SUSE Linux Enterprise Server 15 SP1-LTSS",
        "RelationType": "Default Component Of"
      },
      {
        "ProductReference": "libopenssl-1_0_0-devel-1.0.2p-3.37.1",
        "RelatesToProductReference": "SUSE Linux Enterprise Server 15-LTSS",
        "RelationType": "Default Component Of"
      },
      {
        "ProductReference": "libopenssl1_0_0-1.0.2p-3.37.1",
        "RelatesToProductReference": "SUSE Linux Enterprise Server 15-LTSS",
        "RelationType": "Default Component Of"
      },
      {
        "ProductReference": "openssl-1_0_0-1.0.2p-3.37.1",
        "RelatesToProductReference": "SUSE Linux Enterprise Server 15-LTSS",
        "RelationType": "Default Component Of"
      },
      {
        "ProductReference": "libopenssl-1_0_0-devel-1.0.2p-3.37.1",
        "RelatesToProductReference": "SUSE Linux Enterprise Server for SAP Applications 15",
        "RelationType": "Default Component Of"
      },
      {
        "ProductReference": "libopenssl1_0_0-1.0.2p-3.37.1",
        "RelatesToProductReference": "SUSE Linux Enterprise Server for SAP Applications 15",
        "RelationType": "Default Component Of"
      },
      {
        "ProductReference": "openssl-1_0_0-1.0.2p-3.37.1",
        "RelatesToProductReference": "SUSE Linux Enterprise Server for SAP Applications 15",
        "RelationType": "Default Component Of"
      },
      {
        "ProductReference": "libopenssl-1_0_0-devel-1.0.2p-3.37.1",
        "RelatesToProductReference": "SUSE Linux Enterprise Server for SAP Applications 15 SP1",
        "RelationType": "Default Component Of"
      },
      {
        "ProductReference": "libopenssl1_0_0-1.0.2p-3.37.1",
        "RelatesToProductReference": "SUSE Linux Enterprise Server for SAP Applications 15 SP1",
        "RelationType": "Default Component Of"
      },
      {
        "ProductReference": "openssl-1_0_0-1.0.2p-3.37.1",
        "RelatesToProductReference": "SUSE Linux Enterprise Server for SAP Applications 15 SP1",
        "RelationType": "Default Component Of"
      },
      {
        "ProductReference": "libopenssl-1_0_0-devel-1.0.2p-3.37.1",
        "RelatesToProductReference": "SUSE Manager Proxy 4.0",
        "RelationType": "Default Component Of"
      },
      {
        "ProductReference": "libopenssl1_0_0-1.0.2p-3.37.1",
        "RelatesToProductReference": "SUSE Manager Proxy 4.0",
        "RelationType": "Default Component Of"
      },
      {
        "ProductReference": "openssl-1_0_0-1.0.2p-3.37.1",
        "RelatesToProductReference": "SUSE Manager Proxy 4.0",
        "RelationType": "Default Component Of"
      },
      {
        "ProductReference": "libopenssl-1_0_0-devel-1.0.2p-3.37.1",
        "RelatesToProductReference": "SUSE Manager Retail Branch Server 4.0",
        "RelationType": "Default Component Of"
      },
      {
        "ProductReference": "libopenssl1_0_0-1.0.2p-3.37.1",
        "RelatesToProductReference": "SUSE Manager Retail Branch Server 4.0",
        "RelationType": "Default Component Of"
      },
      {
        "ProductReference": "openssl-1_0_0-1.0.2p-3.37.1",
        "RelatesToProductReference": "SUSE Manager Retail Branch Server 4.0",
        "RelationType": "Default Component Of"
      },
      {
        "ProductReference": "libopenssl-1_0_0-devel-1.0.2p-3.37.1",
        "RelatesToProductReference": "SUSE Manager Server 4.0",
        "RelationType": "Default Component Of"
      },
      {
        "ProductReference": "libopenssl1_0_0-1.0.2p-3.37.1",
        "RelatesToProductReference": "SUSE Manager Server 4.0",
        "RelationType": "Default Component Of"
      },
      {
        "ProductReference": "openssl-1_0_0-1.0.2p-3.37.1",
        "RelatesToProductReference": "SUSE Manager Server 4.0",
        "RelationType": "Default Component Of"
      }
    ]
  },
  "References": [
    {
      "URL": "https://www.suse.com/support/update/announcement/2021/suse-su-20210769-1/",
      "Description": "Link for SUSE-SU-2021:0769-1"
    },
    {
      "URL": "https://lists.suse.com/pipermail/sle-security-updates/2021-March/008473.html",
      "Description": "E-Mail link for SUSE-SU-2021:0769-1"
    },
    {
      "URL": "https://www.suse.com/support/security/rating/",
      "Description": "SUSE Security Ratings"
    },
    {
      "URL": "https://bugzilla.suse.com/1182331",
      "Description": "SUSE Bug 1182331"
    },
    {
      "URL": "https://bugzilla.suse.com/1182333",
      "Description": "SUSE Bug 1182333"
    },
    {
      "URL": "https://www.suse.com/security/cve/CVE-2021-23840/",
      "Description": "SUSE CVE CVE-2021-23840 page"
    },
    {
      "URL": "https://www.suse.com/security/cve/CVE-2021-23841/",
      "Description": "SUSE CVE CVE-2021-23841 page"
    }
  ],
  "Vulnerabilities": [
    {
      "CVE": "CVE-2021-23840",
      "Description": "Calls to EVP_CipherUpdate, EVP_EncryptUpdate and EVP_DecryptUpdate may overflow the output length argument in some cases where the input length is close to the maximum permissable length for an integer on the platform. In such cases the return value from the function call will be 1 (indicating success), but the output length value will be negative. This could cause applications to behave incorrectly or crash. OpenSSL versions 1.1.1i and below are affected by this issue. Users of these versions should upgrade to OpenSSL 1.1.1j. OpenSSL versions 1.0.2x and below are affected by this issue. However OpenSSL 1.0.2 is out of support and no longer receiving public updates. Premium support customers of OpenSSL 1.0.2 should upgrade to 1.0.2y. Other users should upgrade to 1.1.1j. Fixed in OpenSSL 1.1.1j (Affected 1.1.1-1.1.1i). Fixed in OpenSSL 1.0.2y (Affected 1.0.2-1.0.2x).",
      "Threats": [
        {
          "Type": "Impact",
          "Severity": "moderate"
        }
      ],
      "References": [
        {
          "URL": "https://www.suse.com/security/cve/CVE-2021-23840.html",
          "Description": "CVE-2021-23840"
        },
        {
          "URL": "https://bugzilla.suse.com/1182333",
          "Description": "SUSE Bug 1182333"
        },
        {
          "URL": "https://bugzilla.suse.com/1187743",
          "Description": "SUSE Bug 1187743"
        },
        {
          "URL": "https://bugzilla.suse.com/1214334",
          "Description": "SUSE Bug 1214334"
        },
        {
          "URL": "https://bugzilla.suse.com/1225628",
          "Description": "SUSE Bug 1225628"
        }
      ],
      "ProductStatuses": [
        {
          "Type": "Fixed",
          "ProductID": [
            "Image SLES15-SAP-Azure-LI-BYOS-Production:libopenssl1_0_0-1.0.2p-3.37.1",
            "Image SLES15-SAP-Azure-VLI-BYOS-Production:libopenssl1_0_0-1.0.2p-3.37.1",
            "Image SLES15-SP1-SAP-Azure-LI-BYOS-Production:libopenssl1_0_0-1.0.2p-3.37.1",
            "Image SLES15-SP1-SAP-Azure-VLI-BYOS-Production:libopenssl1_0_0-1.0.2p-3.37.1",
            "Image SLES15-SP2-SAP-Azure-LI-BYOS-Production:libopenssl1_0_0-1.0.2p-3.37.1",
            "Image SLES15-SP2-SAP-Azure-VLI-BYOS-Production:libopenssl1_0_0-1.0.2p-3.37.1",
            "Image SLES15-SP3-EC2-HVM:libopenssl1_0_0-1.0.2p-3.37.1",
            "Image SLES15-SP3-SAP-Azure-LI-BYOS-Production:libopenssl1_0_0-1.0.2p-3.37.1",
            "Image SLES15-SP3-SAP-Azure-VLI-BYOS-Production:libopenssl1_0_0-1.0.2p-3.37.1",
            "Image SLES15-SP3-SAP-Azure:libopenssl1_0_0-1.0.2p-3.37.1",
            "Image SLES15-SP3-SAP-EC2-HVM:libopenssl1_0_0-1.0.2p-3.37.1",
            "Image SLES15-SP3-SAP-GCE:libopenssl1_0_0-1.0.2p-3.37.1",
            "Image SLES15-SP3-SAPCAL-Azure:libopenssl1_0_0-1.0.2p-3.37.1",
            "Image SLES15-SP3-SAPCAL-EC2-HVM:libopenssl1_0_0-1.0.2p-3.37.1",
            "Image SLES15-SP3-SAPCAL-GCE:libopenssl1_0_0-1.0.2p-3.37.1",
            "Image SLES15-SP4-SAP-Azure-LI-BYOS-Production:libopenssl1_0_0-1.0.2p-3.37.1",
            "Image SLES15-SP4-SAP-Azure-LI-BYOS:libopenssl1_0_0-1.0.2p-3.37.1",
            "Image SLES15-SP4-SAP-Azure-VLI-BYOS-Production:libopenssl1_0_0-1.0.2p-3.37.1",
            "Image SLES15-SP4-SAP-Azure-VLI-BYOS:libopenssl1_0_0-1.0.2p-3.37.1",
            "Image SLES15-SP5-SAP-Azure-LI-BYOS-Production:libopenssl1_0_0-1.0.2p-3.37.1",
            "Image SLES15-SP5-SAP-Azure-LI-BYOS:libopenssl1_0_0-1.0.2p-3.37.1",
            "Image SLES15-SP5-SAP-Azure-VLI-BYOS-Production:libopenssl1_0_0-1.0.2p-3.37.1",
            "Image SLES15-SP5-SAP-Azure-VLI-BYOS:libopenssl1_0_0-1.0.2p-3.37.1",
            "SUSE Enterprise Storage 6:libopenssl-1_0_0-devel-1.0.2p-3.37.1",
            "SUSE Enterprise Storage 6:libopenssl1_0_0-1.0.2p-3.37.1",
            "SUSE Enterprise Storage 6:openssl-1_0_0-1.0.2p-3.37.1",
            "SUSE Linux Enterprise Module for Legacy 15 SP2:libopenssl-1_0_0-devel-1.0.2p-3.37.1",
            "SUSE Linux Enterprise Module for Legacy 15 SP2:libopenssl1_0_0-1.0.2p-3.37.1",
            "SUSE Linux Enterprise Module for Legacy 15 SP2:openssl-1_0_0-1.0.2p-3.37.1",
            "SUSE Linux Enterprise Server 15 SP1-BCL:libopenssl-1_0_0-devel-1.0.2p-3.37.1",
            "SUSE Linux Enterprise Server 15 SP1-BCL:libopenssl1_0_0-1.0.2p-3.37.1",
            "SUSE Linux Enterprise Server 15 SP1-BCL:openssl-1_0_0-1.0.2p-3.37.1",
            "SUSE Linux Enterprise Server 15 SP1-LTSS:libopenssl-1_0_0-devel-1.0.2p-3.37.1",
            "SUSE Linux Enterprise Server 15 SP1-LTSS:libopenssl1_0_0-1.0.2p-3.37.1",
            "SUSE Linux Enterprise Server 15 SP1-LTSS:openssl-1_0_0-1.0.2p-3.37.1",
            "SUSE Linux Enterprise Server 15-LTSS:libopenssl-1_0_0-devel-1.0.2p-3.37.1",
            "SUSE Linux Enterprise Server 15-LTSS:libopenssl1_0_0-1.0.2p-3.37.1",
            "SUSE Linux Enterprise Server 15-LTSS:openssl-1_0_0-1.0.2p-3.37.1",
            "SUSE Linux Enterprise Server for SAP Applications 15 SP1:libopenssl-1_0_0-devel-1.0.2p-3.37.1",
            "SUSE Linux Enterprise Server for SAP Applications 15 SP1:libopenssl1_0_0-1.0.2p-3.37.1",
            "SUSE Linux Enterprise Server for SAP Applications 15 SP1:openssl-1_0_0-1.0.2p-3.37.1",
            "SUSE Linux Enterprise Server for SAP Applications 15:libopenssl-1_0_0-devel-1.0.2p-3.37.1",
            "SUSE Linux Enterprise Server for SAP Applications 15:libopenssl1_0_0-1.0.2p-3.37.1",
            "SUSE Linux Enterprise Server for SAP Applications 15:openssl-1_0_0-1.0.2p-3.37.1",
            "SUSE Manager Proxy 4.0:libopenssl-1_0_0-devel-1.0.2p-3.37.1",
            "SUSE Manager Proxy 4.0:libopenssl1_0_0-1.0.2p-3.37.1",
            "SUSE Manager Proxy 4.0:openssl-1_0_0-1.0.2p-3.37.1",
            "SUSE Manager Retail Branch Server 4.0:libopenssl-1_0_0-devel-1.0.2p-3.37.1",
            "SUSE Manager Retail Branch Server 4.0:libopenssl1_0_0-1.0.2p-3.37.1",
            "SUSE Manager Retail Branch Server 4.0:openssl-1_0_0-1.0.2p-3.37.1",
            "SUSE Manager Server 4.0:libopenssl-1_0_0-devel-1.0.2p-3.37.1",
            "SUSE Manager Server 4.0:libopenssl1_0_0-1.0.2p-3.37.1",
            "SUSE Manager Server 4.0:openssl-1_0_0-1.0.2p-3.37.1"
          ]
        }
      ],
      "CVSSScoreSets": {}
    },
    {
      "CVE": "CVE-2021-23841",
      "Description": "The OpenSSL public API function X509_issuer_and_serial_hash() attempts to create a unique hash value based on the issuer and serial number data contained within an X509 certificate. However it fails to correctly handle any errors that may occur while parsing the issuer field (which might occur if the issuer field is maliciously constructed). This may subsequently result in a NULL pointer deref and a crash leading to a potential denial of service attack. The function X509_issuer_and_serial_hash() is never directly called by OpenSSL itself so applications are only vulnerable if they use this function directly and they use it on certificates that may have been obtained from untrusted sources. OpenSSL versions 1.1.1i and below are affected by this issue. Users of these versions should upgrade to OpenSSL 1.1.1j. OpenSSL versions 1.0.2x and below are affected by this issue. However OpenSSL 1.0.2 is out of support and no longer receiving public updates. Premium support customers of OpenSSL 1.0.2 should upgrade to 1.0.2y. Other users should upgrade to 1.1.1j. Fixed in OpenSSL 1.1.1j (Affected 1.1.1-1.1.1i). Fixed in OpenSSL 1.0.2y (Affected 1.0.2-1.0.2x).",
      "Threats": [
        {
          "Type": "Impact",
          "Severity": "moderate"
        }
      ],
      "References": [
        {
          "URL": "https://www.suse.com/security/cve/CVE-2021-23841.html",
          "Description": "CVE-2021-23841"
        },
        {
          "URL": "https://bugzilla.suse.com/1182331",
          "Description": "SUSE Bug 1182331"
        },
        {
          "URL": "https://bugzilla.suse.com/1187743",
          "Description": "SUSE Bug 1187743"
        },
        {
          "URL": "https://bugzilla.suse.com/1214334",
          "Description": "SUSE Bug 1214334"
        }
      ],
      "ProductStatuses": [
        {
          "Type": "Fixed",
          "ProductID": [
            "Image SLES15-SAP-Azure-LI-BYOS-Production:libopenssl1_0_0-1.0.2p-3.37.1",
            "Image SLES15-SAP-Azure-VLI-BYOS-Production:libopenssl1_0_0-1.0.2p-3.37.1",
            "Image SLES15-SP1-SAP-Azure-LI-BYOS-Production:libopenssl1_0_0-1.0.2p-3.37.1",
            "Image SLES15-SP1-SAP-Azure-VLI-BYOS-Production:libopenssl1_0_0-1.0.2p-3.37.1",
            "Image SLES15-SP2-SAP-Azure-LI-BYOS-Production:libopenssl1_0_0-1.0.2p-3.37.1",
            "Image SLES15-SP2-SAP-Azure-VLI-BYOS-Production:libopenssl1_0_0-1.0.2p-3.37.1",
            "Image SLES15-SP3-EC2-HVM:libopenssl1_0_0-1.0.2p-3.37.1",
            "Image SLES15-SP3-SAP-Azure-LI-BYOS-Production:libopenssl1_0_0-1.0.2p-3.37.1",
            "Image SLES15-SP3-SAP-Azure-VLI-BYOS-Production:libopenssl1_0_0-1.0.2p-3.37.1",
            "Image SLES15-SP3-SAP-Azure:libopenssl1_0_0-1.0.2p-3.37.1",
            "Image SLES15-SP3-SAP-EC2-HVM:libopenssl1_0_0-1.0.2p-3.37.1",
            "Image SLES15-SP3-SAP-GCE:libopenssl1_0_0-1.0.2p-3.37.1",
            "Image SLES15-SP3-SAPCAL-Azure:libopenssl1_0_0-1.0.2p-3.37.1",
            "Image SLES15-SP3-SAPCAL-EC2-HVM:libopenssl1_0_0-1.0.2p-3.37.1",
            "Image SLES15-SP3-SAPCAL-GCE:libopenssl1_0_0-1.0.2p-3.37.1",
            "Image SLES15-SP4-SAP-Azure-LI-BYOS-Production:libopenssl1_0_0-1.0.2p-3.37.1",
            "Image SLES15-SP4-SAP-Azure-LI-BYOS:libopenssl1_0_0-1.0.2p-3.37.1",
            "Image SLES15-SP4-SAP-Azure-VLI-BYOS-Production:libopenssl1_0_0-1.0.2p-3.37.1",
            "Image SLES15-SP4-SAP-Azure-VLI-BYOS:libopenssl1_0_0-1.0.2p-3.37.1",
            "Image SLES15-SP5-SAP-Azure-LI-BYOS-Production:libopenssl1_0_0-1.0.2p-3.37.1",
            "Image SLES15-SP5-SAP-Azure-LI-BYOS:libopenssl1_0_0-1.0.2p-3.37.1",
            "Image SLES15-SP5-SAP-Azure-VLI-BYOS-Production:libopenssl1_0_0-1.0.2p-3.37.1",
            "Image SLES15-SP5-SAP-Azure-VLI-BYOS:libopenssl1_0_0-1.0.2p-3.37.1",
            "SUSE Enterprise Storage 6:libopenssl-1_0_0-devel-1.0.2p-3.37.1",
            "SUSE Enterprise Storage 6:libopenssl1_0_0-1.0.2p-3.37.1",
            "SUSE Enterprise Storage 6:openssl-1_0_0-1.0.2p-3.37.1",
            "SUSE Linux Enterprise Module for Legacy 15 SP2:libopenssl-1_0_0-devel-1.0.2p-3.37.1",
            "SUSE Linux Enterprise Module for Legacy 15 SP2:libopenssl1_0_0-1.0.2p-3.37.1",
            "SUSE Linux Enterprise Module for Legacy 15 SP2:openssl-1_0_0-1.0.2p-3.37.1",
            "SUSE Linux Enterprise Server 15 SP1-BCL:libopenssl-1_0_0-devel-1.0.2p-3.37.1",
            "SUSE Linux Enterprise Server 15 SP1-BCL:libopenssl1_0_0-1.0.2p-3.37.1",
            "SUSE Linux Enterprise Server 15 SP1-BCL:openssl-1_0_0-1.0.2p-3.37.1",
            "SUSE Linux Enterprise Server 15 SP1-LTSS:libopenssl-1_0_0-devel-1.0.2p-3.37.1",
            "SUSE Linux Enterprise Server 15 SP1-LTSS:libopenssl1_0_0-1.0.2p-3.37.1",
            "SUSE Linux Enterprise Server 15 SP1-LTSS:openssl-1_0_0-1.0.2p-3.37.1",
            "SUSE Linux Enterprise Server 15-LTSS:libopenssl-1_0_0-devel-1.0.2p-3.37.1",
            "SUSE Linux Enterprise Server 15-LTSS:libopenssl1_0_0-1.0.2p-3.37.1",
            "SUSE Linux Enterprise Server 15-LTSS:openssl-1_0_0-1.0.2p-3.37.1",
            "SUSE Linux Enterprise Server for SAP Applications 15 SP1:libopenssl-1_0_0-devel-1.0.2p-3.37.1",
            "SUSE Linux Enterprise Server for SAP Applications 15 SP1:libopenssl1_0_0-1.0.2p-3.37.1",
            "SUSE Linux Enterprise Server for SAP Applications 15 SP1:openssl-1_0_0-1.0.2p-3.37.1",
            "SUSE Linux Enterprise Server for SAP Applications 15:libopenssl-1_0_0-devel-1.0.2p-3.37.1",
            "SUSE Linux Enterprise Server for SAP Applications 15:libopenssl1_0_0-1.0.2p-3.37.1",
            "SUSE Linux Enterprise Server for SAP Applications 15:openssl-1_0_0-1.0.2p-3.37.1",
            "SUSE Manager Proxy 4.0:libopenssl-1_0_0-devel-1.0.2p-3.37.1",
            "SUSE Manager Proxy 4.0:libopenssl1_0_0-1.0.2p-3.37.1",
            "SUSE Manager Proxy 4.0:openssl-1_0_0-1.0.2p-3.37.1",
            "SUSE Manager Retail Branch Server 4.0:libopenssl-1_0_0-devel-1.0.2p-3.37.1",
            "SUSE Manager Retail Branch Server 4.0:libopenssl1_0_0-1.0.2p-3.37.1",
            "SUSE Manager Retail Branch Server 4.0:openssl-1_0_0-1.0.2p-3.37.1",
            "SUSE Manager Server 4.0:libopenssl-1_0_0-devel-1.0.2p-3.37.1",
            "SUSE Manager Server 4.0:libopenssl1_0_0-1.0.2p-3.37.1",
            "SUSE Manager Server 4.0:openssl-1_0_0-1.0.2p-3.37.1"
          ]
        }
      ],
      "CVSSScoreSets": {}
    }
  ]
}