{
  "Title": "Security update for python-httplib2",
  "Tracking": {
    "ID": "SUSE-SU-2021:1806-1",
    "Status": "Final",
    "Version": "1",
    "InitialReleaseDate": "2021-05-31T14:23:28Z",
    "CurrentReleaseDate": "2021-05-31T14:23:28Z",
    "RevisionHistory": [
      {
        "Number": "1",
        "Date": "2021-05-31T14:23:28Z",
        "Description": "current"
      }
    ]
  },
  "Notes": [
    {
      "Text": "Security update for python-httplib2",
      "Title": "Topic",
      "Type": "Summary"
    },
    {
      "Text": "This update for python-httplib2 fixes the following issues:\n\n- Update to version 0.19.0 (bsc#1182053).\n- CVE-2021-21240: Fixed regular expression denial of service via malicious header (bsc#1182053).\n- CVE-2020-11078: Fixed unescaped part of uri where an attacker could change request headers and body (bsc#1182053).\n",
      "Title": "Details",
      "Type": "General"
    },
    {
      "Text": "The CVRF data is provided by SUSE under the Creative Commons License 4.0 with Attribution (CC-BY-4.0).",
      "Title": "Terms of Use",
      "Type": "Legal Disclaimer"
    },
    {
      "Text": "Container caasp/v4/k8s-sidecar:0.1.75-2021-1806,Container ses/6/cephcsi/cephcsi:latest-2021-1806,Container ses/6/rook/ceph:latest-2021-1806,Container ses/7.1/cephcsi/cephcsi:latest-2021-1806,Container ses/7.1/rook/ceph:latest-2021-1806,Container ses/7/cephcsi/cephcsi:latest-2021-1806,Container ses/7/rook/ceph:latest-2021-1806,Image SLES15-SP2-SAP-BYOS-GCE-2021-1806,Image SLES15-SP2-SAP-GCE-2021-1806,Image SLES15-SP3-SAP-BYOS-GCE-2021-1806,Image SLES15-SP4-SAP-BYOS-2021-1806,Image SLES15-SP4-SAP-BYOS-GCE-2021-1806,Image SLES15-SP4-SAP-Hardened-2021-1806,Image SLES15-SP4-SAP-Hardened-BYOS-2021-1806,Image SLES15-SP4-SAP-Hardened-BYOS-GCE-2021-1806,Image SLES15-SP4-SAP-Hardened-GCE-2021-1806,Image SLES15-SP5-SAP-BYOS-GCE-2021-1806,Image SLES15-SP5-SAP-Hardened-BYOS-GCE-2021-1806,Image SLES15-SP5-SAP-Hardened-GCE-2021-1806,SUSE-2021-1806,SUSE-SLE-Module-Basesystem-15-SP2-2021-1806,SUSE-SLE-Module-Basesystem-15-SP3-2021-1806,SUSE-SLE-Module-Packagehub-Subpackages-15-SP2-2021-1806,SUSE-SLE-Module-Packagehub-Subpackages-15-SP3-2021-1806",
      "Title": "Patchnames",
      "Type": "Details"
    }
  ],
  "ProductTree": {
    "Relationships": [
      {
        "ProductReference": "python3-httplib2-0.19.0-3.3.1",
        "RelatesToProductReference": "Container caasp/v4/k8s-sidecar:0.1.75",
        "RelationType": "Default Component Of"
      },
      {
        "ProductReference": "python3-httplib2-0.19.0-3.3.1",
        "RelatesToProductReference": "Container ses/6/cephcsi/cephcsi:latest",
        "RelationType": "Default Component Of"
      },
      {
        "ProductReference": "python3-httplib2-0.19.0-3.3.1",
        "RelatesToProductReference": "Container ses/6/rook/ceph:latest",
        "RelationType": "Default Component Of"
      },
      {
        "ProductReference": "python3-httplib2-0.19.0-3.3.1",
        "RelatesToProductReference": "Container ses/7.1/cephcsi/cephcsi:latest",
        "RelationType": "Default Component Of"
      },
      {
        "ProductReference": "python3-httplib2-0.19.0-3.3.1",
        "RelatesToProductReference": "Container ses/7.1/rook/ceph:latest",
        "RelationType": "Default Component Of"
      },
      {
        "ProductReference": "python3-httplib2-0.19.0-3.3.1",
        "RelatesToProductReference": "Container ses/7/cephcsi/cephcsi:latest",
        "RelationType": "Default Component Of"
      },
      {
        "ProductReference": "python3-httplib2-0.19.0-3.3.1",
        "RelatesToProductReference": "Container ses/7/rook/ceph:latest",
        "RelationType": "Default Component Of"
      },
      {
        "ProductReference": "python3-httplib2-0.19.0-3.3.1",
        "RelatesToProductReference": "Image SLES15-SP2-SAP-BYOS-GCE",
        "RelationType": "Default Component Of"
      },
      {
        "ProductReference": "python3-httplib2-0.19.0-3.3.1",
        "RelatesToProductReference": "Image SLES15-SP2-SAP-GCE",
        "RelationType": "Default Component Of"
      },
      {
        "ProductReference": "python3-httplib2-0.19.0-3.3.1",
        "RelatesToProductReference": "Image SLES15-SP3-SAP-BYOS-GCE",
        "RelationType": "Default Component Of"
      },
      {
        "ProductReference": "python3-httplib2-0.19.0-3.3.1",
        "RelatesToProductReference": "Image SLES15-SP4-SAP-BYOS",
        "RelationType": "Default Component Of"
      },
      {
        "ProductReference": "python3-httplib2-0.19.0-3.3.1",
        "RelatesToProductReference": "Image SLES15-SP4-SAP-BYOS-GCE",
        "RelationType": "Default Component Of"
      },
      {
        "ProductReference": "python3-httplib2-0.19.0-3.3.1",
        "RelatesToProductReference": "Image SLES15-SP4-SAP-Hardened",
        "RelationType": "Default Component Of"
      },
      {
        "ProductReference": "python3-httplib2-0.19.0-3.3.1",
        "RelatesToProductReference": "Image SLES15-SP4-SAP-Hardened-BYOS",
        "RelationType": "Default Component Of"
      },
      {
        "ProductReference": "python3-httplib2-0.19.0-3.3.1",
        "RelatesToProductReference": "Image SLES15-SP4-SAP-Hardened-BYOS-GCE",
        "RelationType": "Default Component Of"
      },
      {
        "ProductReference": "python3-httplib2-0.19.0-3.3.1",
        "RelatesToProductReference": "Image SLES15-SP4-SAP-Hardened-GCE",
        "RelationType": "Default Component Of"
      },
      {
        "ProductReference": "python3-httplib2-0.19.0-3.3.1",
        "RelatesToProductReference": "Image SLES15-SP5-SAP-BYOS-GCE",
        "RelationType": "Default Component Of"
      },
      {
        "ProductReference": "python3-httplib2-0.19.0-3.3.1",
        "RelatesToProductReference": "Image SLES15-SP5-SAP-Hardened-BYOS-GCE",
        "RelationType": "Default Component Of"
      },
      {
        "ProductReference": "python3-httplib2-0.19.0-3.3.1",
        "RelatesToProductReference": "Image SLES15-SP5-SAP-Hardened-GCE",
        "RelationType": "Default Component Of"
      },
      {
        "ProductReference": "python3-httplib2-0.19.0-3.3.1",
        "RelatesToProductReference": "SUSE Linux Enterprise Module for Basesystem 15 SP2",
        "RelationType": "Default Component Of"
      },
      {
        "ProductReference": "python3-httplib2-0.19.0-3.3.1",
        "RelatesToProductReference": "SUSE Linux Enterprise Module for Basesystem 15 SP3",
        "RelationType": "Default Component Of"
      },
      {
        "ProductReference": "python2-httplib2-0.19.0-3.3.1",
        "RelatesToProductReference": "SUSE Linux Enterprise Module for Package Hub 15 SP2",
        "RelationType": "Default Component Of"
      },
      {
        "ProductReference": "python2-httplib2-0.19.0-3.3.1",
        "RelatesToProductReference": "SUSE Linux Enterprise Module for Package Hub 15 SP3",
        "RelationType": "Default Component Of"
      }
    ]
  },
  "References": [
    {
      "URL": "https://www.suse.com/support/update/announcement/2021/suse-su-20211806-1/",
      "Description": "Link for SUSE-SU-2021:1806-1"
    },
    {
      "URL": "https://lists.suse.com/pipermail/sle-security-updates/2021-May/008895.html",
      "Description": "E-Mail link for SUSE-SU-2021:1806-1"
    },
    {
      "URL": "https://www.suse.com/support/security/rating/",
      "Description": "SUSE Security Ratings"
    },
    {
      "URL": "https://bugzilla.suse.com/1171998",
      "Description": "SUSE Bug 1171998"
    },
    {
      "URL": "https://bugzilla.suse.com/1182053",
      "Description": "SUSE Bug 1182053"
    },
    {
      "URL": "https://www.suse.com/security/cve/CVE-2020-11078/",
      "Description": "SUSE CVE CVE-2020-11078 page"
    },
    {
      "URL": "https://www.suse.com/security/cve/CVE-2021-21240/",
      "Description": "SUSE CVE CVE-2021-21240 page"
    }
  ],
  "Vulnerabilities": [
    {
      "CVE": "CVE-2020-11078",
      "Description": "In httplib2 before version 0.18.0, an attacker controlling unescaped part of uri for `httplib2.Http.request()` could change request headers and body, send additional hidden requests to same server. This vulnerability impacts software that uses httplib2 with uri constructed by string concatenation, as opposed to proper urllib building with escaping. This has been fixed in 0.18.0.",
      "Threats": [
        {
          "Type": "Impact",
          "Severity": "moderate"
        }
      ],
      "References": [
        {
          "URL": "https://www.suse.com/security/cve/CVE-2020-11078.html",
          "Description": "CVE-2020-11078"
        },
        {
          "URL": "https://bugzilla.suse.com/1171998",
          "Description": "SUSE Bug 1171998"
        }
      ],
      "ProductStatuses": [
        {
          "Type": "Fixed",
          "ProductID": [
            "Container caasp/v4/k8s-sidecar:0.1.75:python3-httplib2-0.19.0-3.3.1",
            "Container ses/6/cephcsi/cephcsi:latest:python3-httplib2-0.19.0-3.3.1",
            "Container ses/6/rook/ceph:latest:python3-httplib2-0.19.0-3.3.1",
            "Container ses/7.1/cephcsi/cephcsi:latest:python3-httplib2-0.19.0-3.3.1",
            "Container ses/7.1/rook/ceph:latest:python3-httplib2-0.19.0-3.3.1",
            "Container ses/7/cephcsi/cephcsi:latest:python3-httplib2-0.19.0-3.3.1",
            "Container ses/7/rook/ceph:latest:python3-httplib2-0.19.0-3.3.1",
            "Image SLES15-SP2-SAP-BYOS-GCE:python3-httplib2-0.19.0-3.3.1",
            "Image SLES15-SP2-SAP-GCE:python3-httplib2-0.19.0-3.3.1",
            "Image SLES15-SP3-SAP-BYOS-GCE:python3-httplib2-0.19.0-3.3.1",
            "Image SLES15-SP4-SAP-BYOS-GCE:python3-httplib2-0.19.0-3.3.1",
            "Image SLES15-SP4-SAP-BYOS:python3-httplib2-0.19.0-3.3.1",
            "Image SLES15-SP4-SAP-Hardened-BYOS-GCE:python3-httplib2-0.19.0-3.3.1",
            "Image SLES15-SP4-SAP-Hardened-BYOS:python3-httplib2-0.19.0-3.3.1",
            "Image SLES15-SP4-SAP-Hardened-GCE:python3-httplib2-0.19.0-3.3.1",
            "Image SLES15-SP4-SAP-Hardened:python3-httplib2-0.19.0-3.3.1",
            "Image SLES15-SP5-SAP-BYOS-GCE:python3-httplib2-0.19.0-3.3.1",
            "Image SLES15-SP5-SAP-Hardened-BYOS-GCE:python3-httplib2-0.19.0-3.3.1",
            "Image SLES15-SP5-SAP-Hardened-GCE:python3-httplib2-0.19.0-3.3.1",
            "SUSE Linux Enterprise Module for Basesystem 15 SP2:python3-httplib2-0.19.0-3.3.1",
            "SUSE Linux Enterprise Module for Basesystem 15 SP3:python3-httplib2-0.19.0-3.3.1",
            "SUSE Linux Enterprise Module for Package Hub 15 SP2:python2-httplib2-0.19.0-3.3.1",
            "SUSE Linux Enterprise Module for Package Hub 15 SP3:python2-httplib2-0.19.0-3.3.1"
          ]
        }
      ],
      "CVSSScoreSets": {}
    },
    {
      "CVE": "CVE-2021-21240",
      "Description": "httplib2 is a comprehensive HTTP client library for Python. In httplib2 before version 0.19.0, a malicious server which responds with long series of \"\\xa0\" characters in the \"www-authenticate\" header may cause Denial of Service (CPU burn while parsing header) of the httplib2 client accessing said server. This is fixed in version 0.19.0 which contains a new implementation of auth headers parsing using the pyparsing library.",
      "Threats": [
        {
          "Type": "Impact",
          "Severity": "moderate"
        }
      ],
      "References": [
        {
          "URL": "https://www.suse.com/security/cve/CVE-2021-21240.html",
          "Description": "CVE-2021-21240"
        },
        {
          "URL": "https://bugzilla.suse.com/1182053",
          "Description": "SUSE Bug 1182053"
        }
      ],
      "ProductStatuses": [
        {
          "Type": "Fixed",
          "ProductID": [
            "Container caasp/v4/k8s-sidecar:0.1.75:python3-httplib2-0.19.0-3.3.1",
            "Container ses/6/cephcsi/cephcsi:latest:python3-httplib2-0.19.0-3.3.1",
            "Container ses/6/rook/ceph:latest:python3-httplib2-0.19.0-3.3.1",
            "Container ses/7.1/cephcsi/cephcsi:latest:python3-httplib2-0.19.0-3.3.1",
            "Container ses/7.1/rook/ceph:latest:python3-httplib2-0.19.0-3.3.1",
            "Container ses/7/cephcsi/cephcsi:latest:python3-httplib2-0.19.0-3.3.1",
            "Container ses/7/rook/ceph:latest:python3-httplib2-0.19.0-3.3.1",
            "Image SLES15-SP2-SAP-BYOS-GCE:python3-httplib2-0.19.0-3.3.1",
            "Image SLES15-SP2-SAP-GCE:python3-httplib2-0.19.0-3.3.1",
            "Image SLES15-SP3-SAP-BYOS-GCE:python3-httplib2-0.19.0-3.3.1",
            "Image SLES15-SP4-SAP-BYOS-GCE:python3-httplib2-0.19.0-3.3.1",
            "Image SLES15-SP4-SAP-BYOS:python3-httplib2-0.19.0-3.3.1",
            "Image SLES15-SP4-SAP-Hardened-BYOS-GCE:python3-httplib2-0.19.0-3.3.1",
            "Image SLES15-SP4-SAP-Hardened-BYOS:python3-httplib2-0.19.0-3.3.1",
            "Image SLES15-SP4-SAP-Hardened-GCE:python3-httplib2-0.19.0-3.3.1",
            "Image SLES15-SP4-SAP-Hardened:python3-httplib2-0.19.0-3.3.1",
            "Image SLES15-SP5-SAP-BYOS-GCE:python3-httplib2-0.19.0-3.3.1",
            "Image SLES15-SP5-SAP-Hardened-BYOS-GCE:python3-httplib2-0.19.0-3.3.1",
            "Image SLES15-SP5-SAP-Hardened-GCE:python3-httplib2-0.19.0-3.3.1",
            "SUSE Linux Enterprise Module for Basesystem 15 SP2:python3-httplib2-0.19.0-3.3.1",
            "SUSE Linux Enterprise Module for Basesystem 15 SP3:python3-httplib2-0.19.0-3.3.1",
            "SUSE Linux Enterprise Module for Package Hub 15 SP2:python2-httplib2-0.19.0-3.3.1",
            "SUSE Linux Enterprise Module for Package Hub 15 SP3:python2-httplib2-0.19.0-3.3.1"
          ]
        }
      ],
      "CVSSScoreSets": {}
    }
  ]
}