{
  "Title": "Security update for fetchmail",
  "Tracking": {
    "ID": "SUSE-SU-2021:2771-1",
    "Status": "Final",
    "Version": "1",
    "InitialReleaseDate": "2021-08-18T07:46:01Z",
    "CurrentReleaseDate": "2021-08-18T07:46:01Z",
    "RevisionHistory": [
      {
        "Number": "1",
        "Date": "2021-08-18T07:46:01Z",
        "Description": "current"
      }
    ]
  },
  "Notes": [
    {
      "Text": "Security update for fetchmail",
      "Title": "Topic",
      "Type": "Summary"
    },
    {
      "Text": "This update for fetchmail fixes the following issues:\n\n- CVE-2021-36386: DoS or information disclosure in some configurations (bsc#1188875)\n- Change PASSWORDLEN from 64 to 256 [bsc#1188034]\n- Set the hostname for SNI when using TLS [bsc#1182807]\n- Allow --syslog option in daemon mode. (bsc#1033081)\n- Set the hostname for SNI when using TLS. (bsc#1182807)\n- Change PASSWORDLEN from 64 to 256 (bsc#1188034)\n",
      "Title": "Details",
      "Type": "General"
    },
    {
      "Text": "The CVRF data is provided by SUSE under the Creative Commons License 4.0 with Attribution (CC-BY-4.0).",
      "Title": "Terms of Use",
      "Type": "Legal Disclaimer"
    },
    {
      "Text": "SUSE-2021-2771,SUSE-OpenStack-Cloud-8-2021-2771,SUSE-OpenStack-Cloud-9-2021-2771,SUSE-OpenStack-Cloud-Crowbar-9-2021-2771,SUSE-SLE-SAP-12-SP3-2021-2771,SUSE-SLE-SAP-12-SP4-2021-2771,SUSE-SLE-SERVER-12-SP2-BCL-2021-2771,SUSE-SLE-SERVER-12-SP3-2021-2771,SUSE-SLE-SERVER-12-SP3-BCL-2021-2771,SUSE-SLE-SERVER-12-SP4-LTSS-2021-2771,SUSE-SLE-SERVER-12-SP5-2021-2771",
      "Title": "Patchnames",
      "Type": "Details"
    }
  ],
  "ProductTree": {
    "Relationships": [
      {
        "ProductReference": "fetchmail-6.3.26-13.12.1",
        "RelatesToProductReference": "SUSE Linux Enterprise Server 12 SP2-BCL",
        "RelationType": "Default Component Of"
      },
      {
        "ProductReference": "fetchmailconf-6.3.26-13.12.1",
        "RelatesToProductReference": "SUSE Linux Enterprise Server 12 SP2-BCL",
        "RelationType": "Default Component Of"
      },
      {
        "ProductReference": "fetchmail-6.3.26-13.12.1",
        "RelatesToProductReference": "SUSE Linux Enterprise Server 12 SP3-BCL",
        "RelationType": "Default Component Of"
      },
      {
        "ProductReference": "fetchmailconf-6.3.26-13.12.1",
        "RelatesToProductReference": "SUSE Linux Enterprise Server 12 SP3-BCL",
        "RelationType": "Default Component Of"
      },
      {
        "ProductReference": "fetchmail-6.3.26-13.12.1",
        "RelatesToProductReference": "SUSE Linux Enterprise Server 12 SP3-LTSS",
        "RelationType": "Default Component Of"
      },
      {
        "ProductReference": "fetchmailconf-6.3.26-13.12.1",
        "RelatesToProductReference": "SUSE Linux Enterprise Server 12 SP3-LTSS",
        "RelationType": "Default Component Of"
      },
      {
        "ProductReference": "fetchmail-6.3.26-13.12.1",
        "RelatesToProductReference": "SUSE Linux Enterprise Server 12 SP4-LTSS",
        "RelationType": "Default Component Of"
      },
      {
        "ProductReference": "fetchmailconf-6.3.26-13.12.1",
        "RelatesToProductReference": "SUSE Linux Enterprise Server 12 SP4-LTSS",
        "RelationType": "Default Component Of"
      },
      {
        "ProductReference": "fetchmail-6.3.26-13.12.1",
        "RelatesToProductReference": "SUSE Linux Enterprise Server 12 SP5",
        "RelationType": "Default Component Of"
      },
      {
        "ProductReference": "fetchmailconf-6.3.26-13.12.1",
        "RelatesToProductReference": "SUSE Linux Enterprise Server 12 SP5",
        "RelationType": "Default Component Of"
      },
      {
        "ProductReference": "fetchmail-6.3.26-13.12.1",
        "RelatesToProductReference": "SUSE Linux Enterprise Server for SAP Applications 12 SP3",
        "RelationType": "Default Component Of"
      },
      {
        "ProductReference": "fetchmailconf-6.3.26-13.12.1",
        "RelatesToProductReference": "SUSE Linux Enterprise Server for SAP Applications 12 SP3",
        "RelationType": "Default Component Of"
      },
      {
        "ProductReference": "fetchmail-6.3.26-13.12.1",
        "RelatesToProductReference": "SUSE Linux Enterprise Server for SAP Applications 12 SP4",
        "RelationType": "Default Component Of"
      },
      {
        "ProductReference": "fetchmailconf-6.3.26-13.12.1",
        "RelatesToProductReference": "SUSE Linux Enterprise Server for SAP Applications 12 SP4",
        "RelationType": "Default Component Of"
      },
      {
        "ProductReference": "fetchmail-6.3.26-13.12.1",
        "RelatesToProductReference": "SUSE Linux Enterprise Server for SAP Applications 12 SP5",
        "RelationType": "Default Component Of"
      },
      {
        "ProductReference": "fetchmailconf-6.3.26-13.12.1",
        "RelatesToProductReference": "SUSE Linux Enterprise Server for SAP Applications 12 SP5",
        "RelationType": "Default Component Of"
      },
      {
        "ProductReference": "fetchmail-6.3.26-13.12.1",
        "RelatesToProductReference": "SUSE OpenStack Cloud 8",
        "RelationType": "Default Component Of"
      },
      {
        "ProductReference": "fetchmailconf-6.3.26-13.12.1",
        "RelatesToProductReference": "SUSE OpenStack Cloud 8",
        "RelationType": "Default Component Of"
      },
      {
        "ProductReference": "fetchmail-6.3.26-13.12.1",
        "RelatesToProductReference": "SUSE OpenStack Cloud 9",
        "RelationType": "Default Component Of"
      },
      {
        "ProductReference": "fetchmailconf-6.3.26-13.12.1",
        "RelatesToProductReference": "SUSE OpenStack Cloud 9",
        "RelationType": "Default Component Of"
      },
      {
        "ProductReference": "fetchmail-6.3.26-13.12.1",
        "RelatesToProductReference": "SUSE OpenStack Cloud Crowbar 9",
        "RelationType": "Default Component Of"
      },
      {
        "ProductReference": "fetchmailconf-6.3.26-13.12.1",
        "RelatesToProductReference": "SUSE OpenStack Cloud Crowbar 9",
        "RelationType": "Default Component Of"
      }
    ]
  },
  "References": [
    {
      "URL": "https://www.suse.com/support/update/announcement/2021/suse-su-20212771-1/",
      "Description": "Link for SUSE-SU-2021:2771-1"
    },
    {
      "URL": "https://lists.suse.com/pipermail/sle-security-updates/2021-August/009308.html",
      "Description": "E-Mail link for SUSE-SU-2021:2771-1"
    },
    {
      "URL": "https://www.suse.com/support/security/rating/",
      "Description": "SUSE Security Ratings"
    },
    {
      "URL": "https://bugzilla.suse.com/1033081",
      "Description": "SUSE Bug 1033081"
    },
    {
      "URL": "https://bugzilla.suse.com/1182807",
      "Description": "SUSE Bug 1182807"
    },
    {
      "URL": "https://bugzilla.suse.com/1188034",
      "Description": "SUSE Bug 1188034"
    },
    {
      "URL": "https://bugzilla.suse.com/1188875",
      "Description": "SUSE Bug 1188875"
    },
    {
      "URL": "https://www.suse.com/security/cve/CVE-2021-36386/",
      "Description": "SUSE CVE CVE-2021-36386 page"
    }
  ],
  "Vulnerabilities": [
    {
      "CVE": "CVE-2021-36386",
      "Description": "report_vbuild in report.c in Fetchmail before 6.4.20 sometimes omits initialization of the vsnprintf va_list argument, which might allow mail servers to cause a denial of service or possibly have unspecified other impact via long error messages. NOTE: it is unclear whether use of Fetchmail on any realistic platform results in an impact beyond an inconvenience to the client user.",
      "Threats": [
        {
          "Type": "Impact",
          "Severity": "moderate"
        }
      ],
      "References": [
        {
          "URL": "https://www.suse.com/security/cve/CVE-2021-36386.html",
          "Description": "CVE-2021-36386"
        },
        {
          "URL": "https://bugzilla.suse.com/1188875",
          "Description": "SUSE Bug 1188875"
        },
        {
          "URL": "https://bugzilla.suse.com/1224188",
          "Description": "SUSE Bug 1224188"
        }
      ],
      "ProductStatuses": [
        {
          "Type": "Fixed",
          "ProductID": [
            "SUSE Linux Enterprise Server 12 SP2-BCL:fetchmail-6.3.26-13.12.1",
            "SUSE Linux Enterprise Server 12 SP2-BCL:fetchmailconf-6.3.26-13.12.1",
            "SUSE Linux Enterprise Server 12 SP3-BCL:fetchmail-6.3.26-13.12.1",
            "SUSE Linux Enterprise Server 12 SP3-BCL:fetchmailconf-6.3.26-13.12.1",
            "SUSE Linux Enterprise Server 12 SP3-LTSS:fetchmail-6.3.26-13.12.1",
            "SUSE Linux Enterprise Server 12 SP3-LTSS:fetchmailconf-6.3.26-13.12.1",
            "SUSE Linux Enterprise Server 12 SP4-LTSS:fetchmail-6.3.26-13.12.1",
            "SUSE Linux Enterprise Server 12 SP4-LTSS:fetchmailconf-6.3.26-13.12.1",
            "SUSE Linux Enterprise Server 12 SP5:fetchmail-6.3.26-13.12.1",
            "SUSE Linux Enterprise Server 12 SP5:fetchmailconf-6.3.26-13.12.1",
            "SUSE Linux Enterprise Server for SAP Applications 12 SP3:fetchmail-6.3.26-13.12.1",
            "SUSE Linux Enterprise Server for SAP Applications 12 SP3:fetchmailconf-6.3.26-13.12.1",
            "SUSE Linux Enterprise Server for SAP Applications 12 SP4:fetchmail-6.3.26-13.12.1",
            "SUSE Linux Enterprise Server for SAP Applications 12 SP4:fetchmailconf-6.3.26-13.12.1",
            "SUSE Linux Enterprise Server for SAP Applications 12 SP5:fetchmail-6.3.26-13.12.1",
            "SUSE Linux Enterprise Server for SAP Applications 12 SP5:fetchmailconf-6.3.26-13.12.1",
            "SUSE OpenStack Cloud 8:fetchmail-6.3.26-13.12.1",
            "SUSE OpenStack Cloud 8:fetchmailconf-6.3.26-13.12.1",
            "SUSE OpenStack Cloud 9:fetchmail-6.3.26-13.12.1",
            "SUSE OpenStack Cloud 9:fetchmailconf-6.3.26-13.12.1",
            "SUSE OpenStack Cloud Crowbar 9:fetchmail-6.3.26-13.12.1",
            "SUSE OpenStack Cloud Crowbar 9:fetchmailconf-6.3.26-13.12.1"
          ]
        }
      ],
      "CVSSScoreSets": {}
    }
  ]
}