{
  "Title": "Security update for dhcp",
  "Tracking": {
    "ID": "SUSE-SU-2021:14740-1",
    "Status": "Final",
    "Version": "1",
    "InitialReleaseDate": "2021-06-01T12:11:22Z",
    "CurrentReleaseDate": "2021-06-01T12:11:22Z",
    "RevisionHistory": [
      {
        "Number": "1",
        "Date": "2021-06-01T12:11:22Z",
        "Description": "current"
      }
    ]
  },
  "Notes": [
    {
      "Text": "Security update for dhcp",
      "Title": "Topic",
      "Type": "Summary"
    },
    {
      "Text": "This update for dhcp fixes the following issues:\n\n- CVE-2021-25217: A buffer overrun in lease file parsing code can be used to exploit a common vulnerability shared by dhcpd and dhclient (bsc#1186382)\n",
      "Title": "Details",
      "Type": "General"
    },
    {
      "Text": "The CVRF data is provided by SUSE under the Creative Commons License 4.0 with Attribution (CC-BY-4.0).",
      "Title": "Terms of Use",
      "Type": "Legal Disclaimer"
    },
    {
      "Text": "sleposp3-dhcp-14740,slessp4-dhcp-14740",
      "Title": "Patchnames",
      "Type": "Details"
    }
  ],
  "ProductTree": {
    "Relationships": [
      {
        "ProductReference": "dhcp-4.2.4.P2-0.28.12.1",
        "RelatesToProductReference": "SUSE Linux Enterprise Point of Sale 11 SP3",
        "RelationType": "Default Component Of"
      },
      {
        "ProductReference": "dhcp-client-4.2.4.P2-0.28.12.1",
        "RelatesToProductReference": "SUSE Linux Enterprise Point of Sale 11 SP3",
        "RelationType": "Default Component Of"
      },
      {
        "ProductReference": "dhcp-relay-4.2.4.P2-0.28.12.1",
        "RelatesToProductReference": "SUSE Linux Enterprise Point of Sale 11 SP3",
        "RelationType": "Default Component Of"
      },
      {
        "ProductReference": "dhcp-server-4.2.4.P2-0.28.12.1",
        "RelatesToProductReference": "SUSE Linux Enterprise Point of Sale 11 SP3",
        "RelationType": "Default Component Of"
      },
      {
        "ProductReference": "dhcp-4.2.4.P2-0.28.12.1",
        "RelatesToProductReference": "SUSE Linux Enterprise Server 11 SP4-LTSS",
        "RelationType": "Default Component Of"
      },
      {
        "ProductReference": "dhcp-client-4.2.4.P2-0.28.12.1",
        "RelatesToProductReference": "SUSE Linux Enterprise Server 11 SP4-LTSS",
        "RelationType": "Default Component Of"
      },
      {
        "ProductReference": "dhcp-relay-4.2.4.P2-0.28.12.1",
        "RelatesToProductReference": "SUSE Linux Enterprise Server 11 SP4-LTSS",
        "RelationType": "Default Component Of"
      },
      {
        "ProductReference": "dhcp-server-4.2.4.P2-0.28.12.1",
        "RelatesToProductReference": "SUSE Linux Enterprise Server 11 SP4-LTSS",
        "RelationType": "Default Component Of"
      }
    ]
  },
  "References": [
    {
      "URL": "https://www.suse.com/support/update/announcement/2021/suse-su-202114740-1/",
      "Description": "Link for SUSE-SU-2021:14740-1"
    },
    {
      "URL": "https://lists.suse.com/pipermail/sle-security-updates/2021-June/008905.html",
      "Description": "E-Mail link for SUSE-SU-2021:14740-1"
    },
    {
      "URL": "https://www.suse.com/support/security/rating/",
      "Description": "SUSE Security Ratings"
    },
    {
      "URL": "https://bugzilla.suse.com/1186382",
      "Description": "SUSE Bug 1186382"
    },
    {
      "URL": "https://www.suse.com/security/cve/CVE-2021-25217/",
      "Description": "SUSE CVE CVE-2021-25217 page"
    }
  ],
  "Vulnerabilities": [
    {
      "CVE": "CVE-2021-25217",
      "Description": "In ISC DHCP 4.1-ESV-R1 -\u003e 4.1-ESV-R16, ISC DHCP 4.4.0 -\u003e 4.4.2 (Other branches of ISC DHCP (i.e., releases in the 4.0.x series or lower and releases in the 4.3.x series) are beyond their End-of-Life (EOL) and no longer supported by ISC. From inspection it is clear that the defect is also present in releases from those series, but they have not been officially tested for the vulnerability), The outcome of encountering the defect while reading a lease that will trigger it varies, according to: the component being affected (i.e., dhclient or dhcpd) whether the package was built as a 32-bit or 64-bit binary whether the compiler flag -fstack-protection-strong was used when compiling In dhclient, ISC has not successfully reproduced the error on a 64-bit system. However, on a 32-bit system it is possible to cause dhclient to crash when reading an improper lease, which could cause network connectivity problems for an affected system due to the absence of a running DHCP client process. In dhcpd, when run in DHCPv4 or DHCPv6 mode: if the dhcpd server binary was built for a 32-bit architecture AND the -fstack-protection-strong flag was specified to the compiler, dhcpd may exit while parsing a lease file containing an objectionable lease, resulting in lack of service to clients. Additionally, the offending lease and the lease immediately following it in the lease database may be improperly deleted. if the dhcpd server binary was built for a 64-bit architecture OR if the -fstack-protection-strong compiler flag was NOT specified, the crash will not occur, but it is possible for the offending lease and the lease which immediately followed it to be improperly deleted.",
      "Threats": [
        {
          "Type": "Impact",
          "Severity": "important"
        }
      ],
      "References": [
        {
          "URL": "https://www.suse.com/security/cve/CVE-2021-25217.html",
          "Description": "CVE-2021-25217"
        },
        {
          "URL": "https://bugzilla.suse.com/1186382",
          "Description": "SUSE Bug 1186382"
        },
        {
          "URL": "https://bugzilla.suse.com/1189843",
          "Description": "SUSE Bug 1189843"
        },
        {
          "URL": "https://bugzilla.suse.com/1189858",
          "Description": "SUSE Bug 1189858"
        },
        {
          "URL": "https://bugzilla.suse.com/1199299",
          "Description": "SUSE Bug 1199299"
        },
        {
          "URL": "https://bugzilla.suse.com/1214270",
          "Description": "SUSE Bug 1214270"
        },
        {
          "URL": "https://bugzilla.suse.com/1218485",
          "Description": "SUSE Bug 1218485"
        },
        {
          "URL": "https://bugzilla.suse.com/1218969",
          "Description": "SUSE Bug 1218969"
        }
      ],
      "ProductStatuses": [
        {
          "Type": "Fixed",
          "ProductID": [
            "SUSE Linux Enterprise Point of Sale 11 SP3:dhcp-4.2.4.P2-0.28.12.1",
            "SUSE Linux Enterprise Point of Sale 11 SP3:dhcp-client-4.2.4.P2-0.28.12.1",
            "SUSE Linux Enterprise Point of Sale 11 SP3:dhcp-relay-4.2.4.P2-0.28.12.1",
            "SUSE Linux Enterprise Point of Sale 11 SP3:dhcp-server-4.2.4.P2-0.28.12.1",
            "SUSE Linux Enterprise Server 11 SP4-LTSS:dhcp-4.2.4.P2-0.28.12.1",
            "SUSE Linux Enterprise Server 11 SP4-LTSS:dhcp-client-4.2.4.P2-0.28.12.1",
            "SUSE Linux Enterprise Server 11 SP4-LTSS:dhcp-relay-4.2.4.P2-0.28.12.1",
            "SUSE Linux Enterprise Server 11 SP4-LTSS:dhcp-server-4.2.4.P2-0.28.12.1"
          ]
        }
      ],
      "CVSSScoreSets": {}
    }
  ]
}