{
  "Title": "Security update for the Linux Kernel (Live Patch 12 for SLE 15 SP1)",
  "Tracking": {
    "ID": "SUSE-SU-2021:0859-1",
    "Status": "Final",
    "Version": "1",
    "InitialReleaseDate": "2021-03-17T16:25:35Z",
    "CurrentReleaseDate": "2021-03-17T16:25:35Z",
    "RevisionHistory": [
      {
        "Number": "1",
        "Date": "2021-03-17T16:25:35Z",
        "Description": "current"
      }
    ]
  },
  "Notes": [
    {
      "Text": "Security update for the Linux Kernel (Live Patch 12 for SLE 15 SP1)",
      "Title": "Topic",
      "Type": "Summary"
    },
    {
      "Text": "This update for the Linux Kernel 4.12.14-197_45 fixes several issues.\n\nThe following security issues were fixed:\n\n- CVE-2020-29368: Fixed an issue in copy-on-write implementation which could have granted unintended write access because of a race condition in a THP mapcount check (bsc#1179664).\n- Fixed an issue where NFS client filesystems got unmounted on fail-over (bsc#1182468). \n- Fixed an issue where NFS client hanged on write errors (bsc#1182108).\n- CVE-2021-3347: Fixed a use-after-free in the PI futexes during fault handling, allowing local users to execute code in the kernel (bsc#1181553).\n- CVE-2020-27786: Fixed a potential user after free which could have led to memory corruption or privilege escalation (bsc#1179616).\n- CVE-2020-28374: Fixed insufficient identifier checking in the LIO SCSI target code which could have been used by remote attackers to read or write files via directory traversal in an XCOPY request (bsc#1178684).\n- CVE-2021-0342: Fixed a potential memory corruption due to a use after free which could have led to local escalation of privilege with System execution privileges required (bsc#1180859).\n",
      "Title": "Details",
      "Type": "General"
    },
    {
      "Text": "The CVRF data is provided by SUSE under the Creative Commons License 4.0 with Attribution (CC-BY-4.0).",
      "Title": "Terms of Use",
      "Type": "Legal Disclaimer"
    },
    {
      "Text": "SUSE-2021-859,SUSE-SLE-Module-Live-Patching-15-SP1-2021-856,SUSE-SLE-Module-Live-Patching-15-SP1-2021-857,SUSE-SLE-Module-Live-Patching-15-SP1-2021-858,SUSE-SLE-Module-Live-Patching-15-SP1-2021-859,SUSE-SLE-Module-Live-Patching-15-SP1-2021-860",
      "Title": "Patchnames",
      "Type": "Details"
    }
  ],
  "ProductTree": {
    "Relationships": [
      {
        "ProductReference": "kernel-livepatch-4_12_14-197_61-default-5-2.2",
        "RelatesToProductReference": "SUSE Linux Enterprise Live Patching 15 SP1",
        "RelationType": "Default Component Of"
      },
      {
        "ProductReference": "kernel-livepatch-4_12_14-197_56-default-6-2.2",
        "RelatesToProductReference": "SUSE Linux Enterprise Live Patching 15 SP1",
        "RelationType": "Default Component Of"
      },
      {
        "ProductReference": "kernel-livepatch-4_12_14-197_51-default-7-2.2",
        "RelatesToProductReference": "SUSE Linux Enterprise Live Patching 15 SP1",
        "RelationType": "Default Component Of"
      },
      {
        "ProductReference": "kernel-livepatch-4_12_14-197_48-default-7-2.2",
        "RelatesToProductReference": "SUSE Linux Enterprise Live Patching 15 SP1",
        "RelationType": "Default Component Of"
      },
      {
        "ProductReference": "kernel-livepatch-4_12_14-197_45-default-7-2.2",
        "RelatesToProductReference": "SUSE Linux Enterprise Live Patching 15 SP1",
        "RelationType": "Default Component Of"
      }
    ]
  },
  "References": [
    {
      "URL": "https://www.suse.com/support/update/announcement/2021/suse-su-20210859-1/",
      "Description": "Link for SUSE-SU-2021:0859-1"
    },
    {
      "URL": "https://lists.suse.com/pipermail/sle-security-updates/2021-March/008502.html",
      "Description": "E-Mail link for SUSE-SU-2021:0859-1"
    },
    {
      "URL": "https://www.suse.com/support/security/rating/",
      "Description": "SUSE Security Ratings"
    },
    {
      "URL": "https://bugzilla.suse.com/1178684",
      "Description": "SUSE Bug 1178684"
    },
    {
      "URL": "https://bugzilla.suse.com/1179616",
      "Description": "SUSE Bug 1179616"
    },
    {
      "URL": "https://bugzilla.suse.com/1179664",
      "Description": "SUSE Bug 1179664"
    },
    {
      "URL": "https://bugzilla.suse.com/1180859",
      "Description": "SUSE Bug 1180859"
    },
    {
      "URL": "https://bugzilla.suse.com/1181553",
      "Description": "SUSE Bug 1181553"
    },
    {
      "URL": "https://bugzilla.suse.com/1182108",
      "Description": "SUSE Bug 1182108"
    },
    {
      "URL": "https://bugzilla.suse.com/1182468",
      "Description": "SUSE Bug 1182468"
    },
    {
      "URL": "https://www.suse.com/security/cve/CVE-2020-27786/",
      "Description": "SUSE CVE CVE-2020-27786 page"
    },
    {
      "URL": "https://www.suse.com/security/cve/CVE-2020-28374/",
      "Description": "SUSE CVE CVE-2020-28374 page"
    },
    {
      "URL": "https://www.suse.com/security/cve/CVE-2020-29368/",
      "Description": "SUSE CVE CVE-2020-29368 page"
    },
    {
      "URL": "https://www.suse.com/security/cve/CVE-2021-0342/",
      "Description": "SUSE CVE CVE-2021-0342 page"
    },
    {
      "URL": "https://www.suse.com/security/cve/CVE-2021-3347/",
      "Description": "SUSE CVE CVE-2021-3347 page"
    }
  ],
  "Vulnerabilities": [
    {
      "CVE": "CVE-2020-27786",
      "Description": "A flaw was found in the Linux kernel's implementation of MIDI, where an attacker with a local account and the permissions to issue ioctl commands to midi devices could trigger a use-after-free issue. A write to this specific memory while freed and before use causes the flow of execution to change and possibly allow for memory corruption or privilege escalation. The highest threat from this vulnerability is to confidentiality, integrity, as well as system availability.",
      "Threats": [
        {
          "Type": "Impact",
          "Severity": "important"
        }
      ],
      "References": [
        {
          "URL": "https://www.suse.com/security/cve/CVE-2020-27786.html",
          "Description": "CVE-2020-27786"
        },
        {
          "URL": "https://bugzilla.suse.com/1179601",
          "Description": "SUSE Bug 1179601"
        },
        {
          "URL": "https://bugzilla.suse.com/1179616",
          "Description": "SUSE Bug 1179616"
        }
      ],
      "ProductStatuses": [
        {
          "Type": "Fixed",
          "ProductID": [
            "SUSE Linux Enterprise Live Patching 15 SP1:kernel-livepatch-4_12_14-197_45-default-7-2.2",
            "SUSE Linux Enterprise Live Patching 15 SP1:kernel-livepatch-4_12_14-197_48-default-7-2.2",
            "SUSE Linux Enterprise Live Patching 15 SP1:kernel-livepatch-4_12_14-197_51-default-7-2.2",
            "SUSE Linux Enterprise Live Patching 15 SP1:kernel-livepatch-4_12_14-197_56-default-6-2.2",
            "SUSE Linux Enterprise Live Patching 15 SP1:kernel-livepatch-4_12_14-197_61-default-5-2.2"
          ]
        }
      ],
      "CVSSScoreSets": {}
    },
    {
      "CVE": "CVE-2020-28374",
      "Description": "In drivers/target/target_core_xcopy.c in the Linux kernel before 5.10.7, insufficient identifier checking in the LIO SCSI target code can be used by remote attackers to read or write files via directory traversal in an XCOPY request, aka CID-2896c93811e3. For example, an attack can occur over a network if the attacker has access to one iSCSI LUN. The attacker gains control over file access because I/O operations are proxied via an attacker-selected backstore.",
      "Threats": [
        {
          "Type": "Impact",
          "Severity": "important"
        }
      ],
      "References": [
        {
          "URL": "https://www.suse.com/security/cve/CVE-2020-28374.html",
          "Description": "CVE-2020-28374"
        },
        {
          "URL": "https://bugzilla.suse.com/1178372",
          "Description": "SUSE Bug 1178372"
        },
        {
          "URL": "https://bugzilla.suse.com/1178684",
          "Description": "SUSE Bug 1178684"
        },
        {
          "URL": "https://bugzilla.suse.com/1180676",
          "Description": "SUSE Bug 1180676"
        }
      ],
      "ProductStatuses": [
        {
          "Type": "Fixed",
          "ProductID": [
            "SUSE Linux Enterprise Live Patching 15 SP1:kernel-livepatch-4_12_14-197_45-default-7-2.2",
            "SUSE Linux Enterprise Live Patching 15 SP1:kernel-livepatch-4_12_14-197_48-default-7-2.2",
            "SUSE Linux Enterprise Live Patching 15 SP1:kernel-livepatch-4_12_14-197_51-default-7-2.2",
            "SUSE Linux Enterprise Live Patching 15 SP1:kernel-livepatch-4_12_14-197_56-default-6-2.2",
            "SUSE Linux Enterprise Live Patching 15 SP1:kernel-livepatch-4_12_14-197_61-default-5-2.2"
          ]
        }
      ],
      "CVSSScoreSets": {}
    },
    {
      "CVE": "CVE-2020-29368",
      "Description": "An issue was discovered in __split_huge_pmd in mm/huge_memory.c in the Linux kernel before 5.7.5. The copy-on-write implementation can grant unintended write access because of a race condition in a THP mapcount check, aka CID-c444eb564fb1.",
      "Threats": [
        {
          "Type": "Impact",
          "Severity": "moderate"
        }
      ],
      "References": [
        {
          "URL": "https://www.suse.com/security/cve/CVE-2020-29368.html",
          "Description": "CVE-2020-29368"
        },
        {
          "URL": "https://bugzilla.suse.com/1179428",
          "Description": "SUSE Bug 1179428"
        },
        {
          "URL": "https://bugzilla.suse.com/1179660",
          "Description": "SUSE Bug 1179660"
        },
        {
          "URL": "https://bugzilla.suse.com/1179664",
          "Description": "SUSE Bug 1179664"
        }
      ],
      "ProductStatuses": [
        {
          "Type": "Fixed",
          "ProductID": [
            "SUSE Linux Enterprise Live Patching 15 SP1:kernel-livepatch-4_12_14-197_45-default-7-2.2",
            "SUSE Linux Enterprise Live Patching 15 SP1:kernel-livepatch-4_12_14-197_48-default-7-2.2",
            "SUSE Linux Enterprise Live Patching 15 SP1:kernel-livepatch-4_12_14-197_51-default-7-2.2",
            "SUSE Linux Enterprise Live Patching 15 SP1:kernel-livepatch-4_12_14-197_56-default-6-2.2",
            "SUSE Linux Enterprise Live Patching 15 SP1:kernel-livepatch-4_12_14-197_61-default-5-2.2"
          ]
        }
      ],
      "CVSSScoreSets": {}
    },
    {
      "CVE": "CVE-2021-0342",
      "Description": "In tun_get_user of tun.c, there is possible memory corruption due to a use after free. This could lead to local escalation of privilege with System execution privileges required. User interaction is not required for exploitation. Product: Android; Versions: Android kernel; Android ID: A-146554327.",
      "Threats": [
        {
          "Type": "Impact",
          "Severity": "moderate"
        }
      ],
      "References": [
        {
          "URL": "https://www.suse.com/security/cve/CVE-2021-0342.html",
          "Description": "CVE-2021-0342"
        },
        {
          "URL": "https://bugzilla.suse.com/1180812",
          "Description": "SUSE Bug 1180812"
        },
        {
          "URL": "https://bugzilla.suse.com/1180859",
          "Description": "SUSE Bug 1180859"
        }
      ],
      "ProductStatuses": [
        {
          "Type": "Fixed",
          "ProductID": [
            "SUSE Linux Enterprise Live Patching 15 SP1:kernel-livepatch-4_12_14-197_45-default-7-2.2",
            "SUSE Linux Enterprise Live Patching 15 SP1:kernel-livepatch-4_12_14-197_48-default-7-2.2",
            "SUSE Linux Enterprise Live Patching 15 SP1:kernel-livepatch-4_12_14-197_51-default-7-2.2",
            "SUSE Linux Enterprise Live Patching 15 SP1:kernel-livepatch-4_12_14-197_56-default-6-2.2",
            "SUSE Linux Enterprise Live Patching 15 SP1:kernel-livepatch-4_12_14-197_61-default-5-2.2"
          ]
        }
      ],
      "CVSSScoreSets": {}
    },
    {
      "CVE": "CVE-2021-3347",
      "Description": "An issue was discovered in the Linux kernel through 5.10.11. PI futexes have a kernel stack use-after-free during fault handling, allowing local users to execute code in the kernel, aka CID-34b1a1ce1458.",
      "Threats": [
        {
          "Type": "Impact",
          "Severity": "important"
        }
      ],
      "References": [
        {
          "URL": "https://www.suse.com/security/cve/CVE-2021-3347.html",
          "Description": "CVE-2021-3347"
        },
        {
          "URL": "https://bugzilla.suse.com/1181349",
          "Description": "SUSE Bug 1181349"
        },
        {
          "URL": "https://bugzilla.suse.com/1181553",
          "Description": "SUSE Bug 1181553"
        },
        {
          "URL": "https://bugzilla.suse.com/1190859",
          "Description": "SUSE Bug 1190859"
        }
      ],
      "ProductStatuses": [
        {
          "Type": "Fixed",
          "ProductID": [
            "SUSE Linux Enterprise Live Patching 15 SP1:kernel-livepatch-4_12_14-197_45-default-7-2.2",
            "SUSE Linux Enterprise Live Patching 15 SP1:kernel-livepatch-4_12_14-197_48-default-7-2.2",
            "SUSE Linux Enterprise Live Patching 15 SP1:kernel-livepatch-4_12_14-197_51-default-7-2.2",
            "SUSE Linux Enterprise Live Patching 15 SP1:kernel-livepatch-4_12_14-197_56-default-6-2.2",
            "SUSE Linux Enterprise Live Patching 15 SP1:kernel-livepatch-4_12_14-197_61-default-5-2.2"
          ]
        }
      ],
      "CVSSScoreSets": {}
    }
  ]
}