{
  "Title": "Security update for python-Pillow",
  "Tracking": {
    "ID": "SUSE-SU-2021:1940-1",
    "Status": "Final",
    "Version": "1",
    "InitialReleaseDate": "2021-06-10T08:49:31Z",
    "CurrentReleaseDate": "2021-06-10T08:49:31Z",
    "RevisionHistory": [
      {
        "Number": "1",
        "Date": "2021-06-10T08:49:31Z",
        "Description": "current"
      }
    ]
  },
  "Notes": [
    {
      "Text": "Security update for python-Pillow",
      "Title": "Topic",
      "Type": "Summary"
    },
    {
      "Text": "This update for python-Pillow fixes the following issues:\n\n- CVE-2021-25290: Fixed a negative-offset memcpy with an invalid size in TiffDecode.c (bsc#1183105).\n- CVE-2021-27922,CVE-2021-27923: Fixed improper reported size of a contained image (bsc#1183108,bsc#1183107)  \n- CVE-2020-35653: Fixed buffer over-read in PcxDecode when decoding a crafted PCX file (bsc#1180834).\n- CVE-2021-25287: Fixed out-of-bounds read in J2kDecode in j2ku_graya_la (bsc#1185805).\n- CVE-2021-25288: Fixed out-of-bounds read in J2kDecode in j2ku_gray_i (bsc#1185803).\n- CVE-2021-28675: Fixed DoS in PsdImagePlugin (bsc#1185804).\n- CVE-2021-28677: Fixed DoS in the open phase via a malicious EPS file (bsc#1185785).\n- CVE-2021-28676: Fixed infinite loop in FliDecode.c (bsc#1185786).\n",
      "Title": "Details",
      "Type": "General"
    },
    {
      "Text": "The CVRF data is provided by SUSE under the Creative Commons License 4.0 with Attribution (CC-BY-4.0).",
      "Title": "Terms of Use",
      "Type": "Legal Disclaimer"
    },
    {
      "Text": "SUSE-2021-1940,SUSE-OpenStack-Cloud-7-2021-1940",
      "Title": "Patchnames",
      "Type": "Details"
    }
  ],
  "ProductTree": {
    "Relationships": [
      {
        "ProductReference": "python-Pillow-2.8.1-4.22.1",
        "RelatesToProductReference": "SUSE OpenStack Cloud 7",
        "RelationType": "Default Component Of"
      }
    ]
  },
  "References": [
    {
      "URL": "https://www.suse.com/support/update/announcement/2021/suse-su-20211940-1/",
      "Description": "Link for SUSE-SU-2021:1940-1"
    },
    {
      "URL": "https://lists.suse.com/pipermail/sle-security-updates/2021-June/008989.html",
      "Description": "E-Mail link for SUSE-SU-2021:1940-1"
    },
    {
      "URL": "https://www.suse.com/support/security/rating/",
      "Description": "SUSE Security Ratings"
    },
    {
      "URL": "https://bugzilla.suse.com/1180834",
      "Description": "SUSE Bug 1180834"
    },
    {
      "URL": "https://bugzilla.suse.com/1183105",
      "Description": "SUSE Bug 1183105"
    },
    {
      "URL": "https://bugzilla.suse.com/1183107",
      "Description": "SUSE Bug 1183107"
    },
    {
      "URL": "https://bugzilla.suse.com/1183108",
      "Description": "SUSE Bug 1183108"
    },
    {
      "URL": "https://bugzilla.suse.com/1185785",
      "Description": "SUSE Bug 1185785"
    },
    {
      "URL": "https://bugzilla.suse.com/1185786",
      "Description": "SUSE Bug 1185786"
    },
    {
      "URL": "https://bugzilla.suse.com/1185803",
      "Description": "SUSE Bug 1185803"
    },
    {
      "URL": "https://bugzilla.suse.com/1185804",
      "Description": "SUSE Bug 1185804"
    },
    {
      "URL": "https://bugzilla.suse.com/1185805",
      "Description": "SUSE Bug 1185805"
    },
    {
      "URL": "https://www.suse.com/security/cve/CVE-2020-35653/",
      "Description": "SUSE CVE CVE-2020-35653 page"
    },
    {
      "URL": "https://www.suse.com/security/cve/CVE-2021-25287/",
      "Description": "SUSE CVE CVE-2021-25287 page"
    },
    {
      "URL": "https://www.suse.com/security/cve/CVE-2021-25288/",
      "Description": "SUSE CVE CVE-2021-25288 page"
    },
    {
      "URL": "https://www.suse.com/security/cve/CVE-2021-25290/",
      "Description": "SUSE CVE CVE-2021-25290 page"
    },
    {
      "URL": "https://www.suse.com/security/cve/CVE-2021-27922/",
      "Description": "SUSE CVE CVE-2021-27922 page"
    },
    {
      "URL": "https://www.suse.com/security/cve/CVE-2021-27923/",
      "Description": "SUSE CVE CVE-2021-27923 page"
    },
    {
      "URL": "https://www.suse.com/security/cve/CVE-2021-28675/",
      "Description": "SUSE CVE CVE-2021-28675 page"
    },
    {
      "URL": "https://www.suse.com/security/cve/CVE-2021-28676/",
      "Description": "SUSE CVE CVE-2021-28676 page"
    },
    {
      "URL": "https://www.suse.com/security/cve/CVE-2021-28677/",
      "Description": "SUSE CVE CVE-2021-28677 page"
    }
  ],
  "Vulnerabilities": [
    {
      "CVE": "CVE-2020-35653",
      "Description": "In Pillow before 8.1.0, PcxDecode has a buffer over-read when decoding a crafted PCX file because the user-supplied stride value is trusted for buffer calculations.",
      "Threats": [
        {
          "Type": "Impact",
          "Severity": "important"
        }
      ],
      "References": [
        {
          "URL": "https://www.suse.com/security/cve/CVE-2020-35653.html",
          "Description": "CVE-2020-35653"
        },
        {
          "URL": "https://bugzilla.suse.com/1180834",
          "Description": "SUSE Bug 1180834"
        }
      ],
      "ProductStatuses": [
        {
          "Type": "Fixed",
          "ProductID": [
            "SUSE OpenStack Cloud 7:python-Pillow-2.8.1-4.22.1"
          ]
        }
      ],
      "CVSSScoreSets": {}
    },
    {
      "CVE": "CVE-2021-25287",
      "Description": "An issue was discovered in Pillow before 8.2.0. There is an out-of-bounds read in J2kDecode, in j2ku_graya_la.",
      "Threats": [
        {
          "Type": "Impact",
          "Severity": "important"
        }
      ],
      "References": [
        {
          "URL": "https://www.suse.com/security/cve/CVE-2021-25287.html",
          "Description": "CVE-2021-25287"
        },
        {
          "URL": "https://bugzilla.suse.com/1185805",
          "Description": "SUSE Bug 1185805"
        }
      ],
      "ProductStatuses": [
        {
          "Type": "Fixed",
          "ProductID": [
            "SUSE OpenStack Cloud 7:python-Pillow-2.8.1-4.22.1"
          ]
        }
      ],
      "CVSSScoreSets": {}
    },
    {
      "CVE": "CVE-2021-25288",
      "Description": "An issue was discovered in Pillow before 8.2.0. There is an out-of-bounds read in J2kDecode, in j2ku_gray_i.",
      "Threats": [
        {
          "Type": "Impact",
          "Severity": "important"
        }
      ],
      "References": [
        {
          "URL": "https://www.suse.com/security/cve/CVE-2021-25288.html",
          "Description": "CVE-2021-25288"
        },
        {
          "URL": "https://bugzilla.suse.com/1185803",
          "Description": "SUSE Bug 1185803"
        }
      ],
      "ProductStatuses": [
        {
          "Type": "Fixed",
          "ProductID": [
            "SUSE OpenStack Cloud 7:python-Pillow-2.8.1-4.22.1"
          ]
        }
      ],
      "CVSSScoreSets": {}
    },
    {
      "CVE": "CVE-2021-25290",
      "Description": "An issue was discovered in Pillow before 8.1.1. In TiffDecode.c, there is a negative-offset memcpy with an invalid size.",
      "Threats": [
        {
          "Type": "Impact",
          "Severity": "important"
        }
      ],
      "References": [
        {
          "URL": "https://www.suse.com/security/cve/CVE-2021-25290.html",
          "Description": "CVE-2021-25290"
        },
        {
          "URL": "https://bugzilla.suse.com/1183105",
          "Description": "SUSE Bug 1183105"
        }
      ],
      "ProductStatuses": [
        {
          "Type": "Fixed",
          "ProductID": [
            "SUSE OpenStack Cloud 7:python-Pillow-2.8.1-4.22.1"
          ]
        }
      ],
      "CVSSScoreSets": {}
    },
    {
      "CVE": "CVE-2021-27922",
      "Description": "Pillow before 8.1.1 allows attackers to cause a denial of service (memory consumption) because the reported size of a contained image is not properly checked for an ICNS container, and thus an attempted memory allocation can be very large.",
      "Threats": [
        {
          "Type": "Impact",
          "Severity": "important"
        }
      ],
      "References": [
        {
          "URL": "https://www.suse.com/security/cve/CVE-2021-27922.html",
          "Description": "CVE-2021-27922"
        },
        {
          "URL": "https://bugzilla.suse.com/1183108",
          "Description": "SUSE Bug 1183108"
        }
      ],
      "ProductStatuses": [
        {
          "Type": "Fixed",
          "ProductID": [
            "SUSE OpenStack Cloud 7:python-Pillow-2.8.1-4.22.1"
          ]
        }
      ],
      "CVSSScoreSets": {}
    },
    {
      "CVE": "CVE-2021-27923",
      "Description": "Pillow before 8.1.1 allows attackers to cause a denial of service (memory consumption) because the reported size of a contained image is not properly checked for an ICO container, and thus an attempted memory allocation can be very large.",
      "Threats": [
        {
          "Type": "Impact",
          "Severity": "important"
        }
      ],
      "References": [
        {
          "URL": "https://www.suse.com/security/cve/CVE-2021-27923.html",
          "Description": "CVE-2021-27923"
        },
        {
          "URL": "https://bugzilla.suse.com/1183107",
          "Description": "SUSE Bug 1183107"
        }
      ],
      "ProductStatuses": [
        {
          "Type": "Fixed",
          "ProductID": [
            "SUSE OpenStack Cloud 7:python-Pillow-2.8.1-4.22.1"
          ]
        }
      ],
      "CVSSScoreSets": {}
    },
    {
      "CVE": "CVE-2021-28675",
      "Description": "An issue was discovered in Pillow before 8.2.0. PSDImagePlugin.PsdImageFile lacked a sanity check on the number of input layers relative to the size of the data block. This could lead to a DoS on Image.open prior to Image.load.",
      "Threats": [
        {
          "Type": "Impact",
          "Severity": "important"
        }
      ],
      "References": [
        {
          "URL": "https://www.suse.com/security/cve/CVE-2021-28675.html",
          "Description": "CVE-2021-28675"
        },
        {
          "URL": "https://bugzilla.suse.com/1185804",
          "Description": "SUSE Bug 1185804"
        }
      ],
      "ProductStatuses": [
        {
          "Type": "Fixed",
          "ProductID": [
            "SUSE OpenStack Cloud 7:python-Pillow-2.8.1-4.22.1"
          ]
        }
      ],
      "CVSSScoreSets": {}
    },
    {
      "CVE": "CVE-2021-28676",
      "Description": "An issue was discovered in Pillow before 8.2.0. For FLI data, FliDecode did not properly check that the block advance was non-zero, potentially leading to an infinite loop on load.",
      "Threats": [
        {
          "Type": "Impact",
          "Severity": "important"
        }
      ],
      "References": [
        {
          "URL": "https://www.suse.com/security/cve/CVE-2021-28676.html",
          "Description": "CVE-2021-28676"
        },
        {
          "URL": "https://bugzilla.suse.com/1185786",
          "Description": "SUSE Bug 1185786"
        }
      ],
      "ProductStatuses": [
        {
          "Type": "Fixed",
          "ProductID": [
            "SUSE OpenStack Cloud 7:python-Pillow-2.8.1-4.22.1"
          ]
        }
      ],
      "CVSSScoreSets": {}
    },
    {
      "CVE": "CVE-2021-28677",
      "Description": "An issue was discovered in Pillow before 8.2.0. For EPS data, the readline implementation used in EPSImageFile has to deal with any combination of \\r and \\n as line endings. It used an accidentally quadratic method of accumulating lines while looking for a line ending. A malicious EPS file could use this to perform a DoS of Pillow in the open phase, before an image was accepted for opening.",
      "Threats": [
        {
          "Type": "Impact",
          "Severity": "important"
        }
      ],
      "References": [
        {
          "URL": "https://www.suse.com/security/cve/CVE-2021-28677.html",
          "Description": "CVE-2021-28677"
        },
        {
          "URL": "https://bugzilla.suse.com/1185785",
          "Description": "SUSE Bug 1185785"
        }
      ],
      "ProductStatuses": [
        {
          "Type": "Fixed",
          "ProductID": [
            "SUSE OpenStack Cloud 7:python-Pillow-2.8.1-4.22.1"
          ]
        }
      ],
      "CVSSScoreSets": {}
    }
  ]
}