{
  "Title": "Recommended update for open-iscsi",
  "Tracking": {
    "ID": "SUSE-RU-2021:1517-1",
    "Status": "Final",
    "Version": "1",
    "InitialReleaseDate": "2021-05-05T15:43:58Z",
    "CurrentReleaseDate": "2021-05-05T15:43:58Z",
    "RevisionHistory": [
      {
        "Number": "1",
        "Date": "2021-05-05T15:43:58Z",
        "Description": "current"
      }
    ]
  },
  "Notes": [
    {
      "Text": "Recommended update for open-iscsi",
      "Title": "Topic",
      "Type": "Summary"
    },
    {
      "Text": "This update for open-iscsi fixes the following issues:\n\n- Enabled asynchronous logins for iscsi.service (bsc#1183421)\n- Fixed a login issue when target is delayed\n",
      "Title": "Details",
      "Type": "General"
    },
    {
      "Text": "The CVRF data is provided by SUSE under the Creative Commons License 4.0 with Attribution (CC-BY-4.0).",
      "Title": "Terms of Use",
      "Type": "Legal Disclaimer"
    },
    {
      "Text": "Container suse/sles/15.2/virt-launcher:0.38.1-2021-1517,Image SLES15-SP2-Azure-Basic-2021-1517,Image SLES15-SP2-Azure-Standard-2021-1517,Image SLES15-SP2-BYOS-Azure-2021-1517,Image SLES15-SP2-BYOS-EC2-HVM-2021-1517,Image SLES15-SP2-BYOS-GCE-2021-1517,Image SLES15-SP2-CHOST-BYOS-Aliyun-2021-1517,Image SLES15-SP2-CHOST-BYOS-Azure-2021-1517,Image SLES15-SP2-CHOST-BYOS-EC2-2021-1517,Image SLES15-SP2-CHOST-BYOS-GCE-2021-1517,Image SLES15-SP2-EC2-HVM-2021-1517,Image SLES15-SP2-GCE-2021-1517,Image SLES15-SP2-HPC-Azure-2021-1517,Image SLES15-SP2-HPC-BYOS-Azure-2021-1517,Image SLES15-SP2-HPC-BYOS-EC2-HVM-2021-1517,Image SLES15-SP2-Manager-4-1-Proxy-BYOS-Azure-2021-1517,Image SLES15-SP2-Manager-4-1-Proxy-BYOS-EC2-HVM-2021-1517,Image SLES15-SP2-Manager-4-1-Proxy-BYOS-GCE-2021-1517,Image SLES15-SP2-Manager-4-1-Server-BYOS-Azure-2021-1517,Image SLES15-SP2-Manager-4-1-Server-BYOS-EC2-HVM-2021-1517,Image SLES15-SP2-Manager-4-1-Server-BYOS-GCE-2021-1517,Image SLES15-SP2-SAP-Azure-2021-1517,Image SLES15-SP2-SAP-Azure-LI-BYOS-Production-2021-1517,Image SLES15-SP2-SAP-Azure-VLI-BYOS-Production-2021-1517,Image SLES15-SP2-SAP-BYOS-Azure-2021-1517,Image SLES15-SP2-SAP-BYOS-EC2-HVM-2021-1517,Image SLES15-SP2-SAP-BYOS-GCE-2021-1517,Image SLES15-SP2-SAP-EC2-HVM-2021-1517,Image SLES15-SP2-SAP-GCE-2021-1517,SUSE-2021-1517,SUSE-SLE-Module-Basesystem-15-SP2-2021-1517,SUSE-SUSE-MicroOS-5.0-2021-1517",
      "Title": "Patchnames",
      "Type": "Details"
    }
  ],
  "ProductTree": {
    "Relationships": [
      {
        "ProductReference": "libopeniscsiusr0_2_0-2.1.4-22.14.1",
        "RelatesToProductReference": "Container suse/sles/15.2/virt-launcher:0.38.1",
        "RelationType": "Default Component Of"
      },
      {
        "ProductReference": "open-iscsi-2.1.4-22.14.1",
        "RelatesToProductReference": "Container suse/sles/15.2/virt-launcher:0.38.1",
        "RelationType": "Default Component Of"
      },
      {
        "ProductReference": "iscsiuio-0.7.8.6-22.14.1",
        "RelatesToProductReference": "Image SLES15-SP2-Azure-Basic",
        "RelationType": "Default Component Of"
      },
      {
        "ProductReference": "libopeniscsiusr0_2_0-2.1.4-22.14.1",
        "RelatesToProductReference": "Image SLES15-SP2-Azure-Basic",
        "RelationType": "Default Component Of"
      },
      {
        "ProductReference": "open-iscsi-2.1.4-22.14.1",
        "RelatesToProductReference": "Image SLES15-SP2-Azure-Basic",
        "RelationType": "Default Component Of"
      },
      {
        "ProductReference": "iscsiuio-0.7.8.6-22.14.1",
        "RelatesToProductReference": "Image SLES15-SP2-Azure-Standard",
        "RelationType": "Default Component Of"
      },
      {
        "ProductReference": "libopeniscsiusr0_2_0-2.1.4-22.14.1",
        "RelatesToProductReference": "Image SLES15-SP2-Azure-Standard",
        "RelationType": "Default Component Of"
      },
      {
        "ProductReference": "open-iscsi-2.1.4-22.14.1",
        "RelatesToProductReference": "Image SLES15-SP2-Azure-Standard",
        "RelationType": "Default Component Of"
      },
      {
        "ProductReference": "iscsiuio-0.7.8.6-22.14.1",
        "RelatesToProductReference": "Image SLES15-SP2-BYOS-Azure",
        "RelationType": "Default Component Of"
      },
      {
        "ProductReference": "libopeniscsiusr0_2_0-2.1.4-22.14.1",
        "RelatesToProductReference": "Image SLES15-SP2-BYOS-Azure",
        "RelationType": "Default Component Of"
      },
      {
        "ProductReference": "open-iscsi-2.1.4-22.14.1",
        "RelatesToProductReference": "Image SLES15-SP2-BYOS-Azure",
        "RelationType": "Default Component Of"
      },
      {
        "ProductReference": "iscsiuio-0.7.8.6-22.14.1",
        "RelatesToProductReference": "Image SLES15-SP2-BYOS-EC2-HVM",
        "RelationType": "Default Component Of"
      },
      {
        "ProductReference": "libopeniscsiusr0_2_0-2.1.4-22.14.1",
        "RelatesToProductReference": "Image SLES15-SP2-BYOS-EC2-HVM",
        "RelationType": "Default Component Of"
      },
      {
        "ProductReference": "open-iscsi-2.1.4-22.14.1",
        "RelatesToProductReference": "Image SLES15-SP2-BYOS-EC2-HVM",
        "RelationType": "Default Component Of"
      },
      {
        "ProductReference": "iscsiuio-0.7.8.6-22.14.1",
        "RelatesToProductReference": "Image SLES15-SP2-BYOS-GCE",
        "RelationType": "Default Component Of"
      },
      {
        "ProductReference": "libopeniscsiusr0_2_0-2.1.4-22.14.1",
        "RelatesToProductReference": "Image SLES15-SP2-BYOS-GCE",
        "RelationType": "Default Component Of"
      },
      {
        "ProductReference": "open-iscsi-2.1.4-22.14.1",
        "RelatesToProductReference": "Image SLES15-SP2-BYOS-GCE",
        "RelationType": "Default Component Of"
      },
      {
        "ProductReference": "libopeniscsiusr0_2_0-2.1.4-22.14.1",
        "RelatesToProductReference": "Image SLES15-SP2-CHOST-BYOS-Aliyun",
        "RelationType": "Default Component Of"
      },
      {
        "ProductReference": "open-iscsi-2.1.4-22.14.1",
        "RelatesToProductReference": "Image SLES15-SP2-CHOST-BYOS-Aliyun",
        "RelationType": "Default Component Of"
      },
      {
        "ProductReference": "libopeniscsiusr0_2_0-2.1.4-22.14.1",
        "RelatesToProductReference": "Image SLES15-SP2-CHOST-BYOS-Azure",
        "RelationType": "Default Component Of"
      },
      {
        "ProductReference": "open-iscsi-2.1.4-22.14.1",
        "RelatesToProductReference": "Image SLES15-SP2-CHOST-BYOS-Azure",
        "RelationType": "Default Component Of"
      },
      {
        "ProductReference": "libopeniscsiusr0_2_0-2.1.4-22.14.1",
        "RelatesToProductReference": "Image SLES15-SP2-CHOST-BYOS-EC2",
        "RelationType": "Default Component Of"
      },
      {
        "ProductReference": "open-iscsi-2.1.4-22.14.1",
        "RelatesToProductReference": "Image SLES15-SP2-CHOST-BYOS-EC2",
        "RelationType": "Default Component Of"
      },
      {
        "ProductReference": "libopeniscsiusr0_2_0-2.1.4-22.14.1",
        "RelatesToProductReference": "Image SLES15-SP2-CHOST-BYOS-GCE",
        "RelationType": "Default Component Of"
      },
      {
        "ProductReference": "open-iscsi-2.1.4-22.14.1",
        "RelatesToProductReference": "Image SLES15-SP2-CHOST-BYOS-GCE",
        "RelationType": "Default Component Of"
      },
      {
        "ProductReference": "iscsiuio-0.7.8.6-22.14.1",
        "RelatesToProductReference": "Image SLES15-SP2-EC2-HVM",
        "RelationType": "Default Component Of"
      },
      {
        "ProductReference": "libopeniscsiusr0_2_0-2.1.4-22.14.1",
        "RelatesToProductReference": "Image SLES15-SP2-EC2-HVM",
        "RelationType": "Default Component Of"
      },
      {
        "ProductReference": "open-iscsi-2.1.4-22.14.1",
        "RelatesToProductReference": "Image SLES15-SP2-EC2-HVM",
        "RelationType": "Default Component Of"
      },
      {
        "ProductReference": "iscsiuio-0.7.8.6-22.14.1",
        "RelatesToProductReference": "Image SLES15-SP2-GCE",
        "RelationType": "Default Component Of"
      },
      {
        "ProductReference": "libopeniscsiusr0_2_0-2.1.4-22.14.1",
        "RelatesToProductReference": "Image SLES15-SP2-GCE",
        "RelationType": "Default Component Of"
      },
      {
        "ProductReference": "open-iscsi-2.1.4-22.14.1",
        "RelatesToProductReference": "Image SLES15-SP2-GCE",
        "RelationType": "Default Component Of"
      },
      {
        "ProductReference": "iscsiuio-0.7.8.6-22.14.1",
        "RelatesToProductReference": "Image SLES15-SP2-HPC-Azure",
        "RelationType": "Default Component Of"
      },
      {
        "ProductReference": "libopeniscsiusr0_2_0-2.1.4-22.14.1",
        "RelatesToProductReference": "Image SLES15-SP2-HPC-Azure",
        "RelationType": "Default Component Of"
      },
      {
        "ProductReference": "open-iscsi-2.1.4-22.14.1",
        "RelatesToProductReference": "Image SLES15-SP2-HPC-Azure",
        "RelationType": "Default Component Of"
      },
      {
        "ProductReference": "iscsiuio-0.7.8.6-22.14.1",
        "RelatesToProductReference": "Image SLES15-SP2-HPC-BYOS-Azure",
        "RelationType": "Default Component Of"
      },
      {
        "ProductReference": "libopeniscsiusr0_2_0-2.1.4-22.14.1",
        "RelatesToProductReference": "Image SLES15-SP2-HPC-BYOS-Azure",
        "RelationType": "Default Component Of"
      },
      {
        "ProductReference": "open-iscsi-2.1.4-22.14.1",
        "RelatesToProductReference": "Image SLES15-SP2-HPC-BYOS-Azure",
        "RelationType": "Default Component Of"
      },
      {
        "ProductReference": "iscsiuio-0.7.8.6-22.14.1",
        "RelatesToProductReference": "Image SLES15-SP2-HPC-BYOS-EC2-HVM",
        "RelationType": "Default Component Of"
      },
      {
        "ProductReference": "libopeniscsiusr0_2_0-2.1.4-22.14.1",
        "RelatesToProductReference": "Image SLES15-SP2-HPC-BYOS-EC2-HVM",
        "RelationType": "Default Component Of"
      },
      {
        "ProductReference": "open-iscsi-2.1.4-22.14.1",
        "RelatesToProductReference": "Image SLES15-SP2-HPC-BYOS-EC2-HVM",
        "RelationType": "Default Component Of"
      },
      {
        "ProductReference": "iscsiuio-0.7.8.6-22.14.1",
        "RelatesToProductReference": "Image SLES15-SP2-Manager-4-1-Proxy-BYOS-Azure",
        "RelationType": "Default Component Of"
      },
      {
        "ProductReference": "libopeniscsiusr0_2_0-2.1.4-22.14.1",
        "RelatesToProductReference": "Image SLES15-SP2-Manager-4-1-Proxy-BYOS-Azure",
        "RelationType": "Default Component Of"
      },
      {
        "ProductReference": "open-iscsi-2.1.4-22.14.1",
        "RelatesToProductReference": "Image SLES15-SP2-Manager-4-1-Proxy-BYOS-Azure",
        "RelationType": "Default Component Of"
      },
      {
        "ProductReference": "iscsiuio-0.7.8.6-22.14.1",
        "RelatesToProductReference": "Image SLES15-SP2-Manager-4-1-Proxy-BYOS-EC2-HVM",
        "RelationType": "Default Component Of"
      },
      {
        "ProductReference": "libopeniscsiusr0_2_0-2.1.4-22.14.1",
        "RelatesToProductReference": "Image SLES15-SP2-Manager-4-1-Proxy-BYOS-EC2-HVM",
        "RelationType": "Default Component Of"
      },
      {
        "ProductReference": "open-iscsi-2.1.4-22.14.1",
        "RelatesToProductReference": "Image SLES15-SP2-Manager-4-1-Proxy-BYOS-EC2-HVM",
        "RelationType": "Default Component Of"
      },
      {
        "ProductReference": "iscsiuio-0.7.8.6-22.14.1",
        "RelatesToProductReference": "Image SLES15-SP2-Manager-4-1-Proxy-BYOS-GCE",
        "RelationType": "Default Component Of"
      },
      {
        "ProductReference": "libopeniscsiusr0_2_0-2.1.4-22.14.1",
        "RelatesToProductReference": "Image SLES15-SP2-Manager-4-1-Proxy-BYOS-GCE",
        "RelationType": "Default Component Of"
      },
      {
        "ProductReference": "open-iscsi-2.1.4-22.14.1",
        "RelatesToProductReference": "Image SLES15-SP2-Manager-4-1-Proxy-BYOS-GCE",
        "RelationType": "Default Component Of"
      },
      {
        "ProductReference": "iscsiuio-0.7.8.6-22.14.1",
        "RelatesToProductReference": "Image SLES15-SP2-Manager-4-1-Server-BYOS-Azure",
        "RelationType": "Default Component Of"
      },
      {
        "ProductReference": "libopeniscsiusr0_2_0-2.1.4-22.14.1",
        "RelatesToProductReference": "Image SLES15-SP2-Manager-4-1-Server-BYOS-Azure",
        "RelationType": "Default Component Of"
      },
      {
        "ProductReference": "open-iscsi-2.1.4-22.14.1",
        "RelatesToProductReference": "Image SLES15-SP2-Manager-4-1-Server-BYOS-Azure",
        "RelationType": "Default Component Of"
      },
      {
        "ProductReference": "iscsiuio-0.7.8.6-22.14.1",
        "RelatesToProductReference": "Image SLES15-SP2-Manager-4-1-Server-BYOS-EC2-HVM",
        "RelationType": "Default Component Of"
      },
      {
        "ProductReference": "libopeniscsiusr0_2_0-2.1.4-22.14.1",
        "RelatesToProductReference": "Image SLES15-SP2-Manager-4-1-Server-BYOS-EC2-HVM",
        "RelationType": "Default Component Of"
      },
      {
        "ProductReference": "open-iscsi-2.1.4-22.14.1",
        "RelatesToProductReference": "Image SLES15-SP2-Manager-4-1-Server-BYOS-EC2-HVM",
        "RelationType": "Default Component Of"
      },
      {
        "ProductReference": "iscsiuio-0.7.8.6-22.14.1",
        "RelatesToProductReference": "Image SLES15-SP2-Manager-4-1-Server-BYOS-GCE",
        "RelationType": "Default Component Of"
      },
      {
        "ProductReference": "libopeniscsiusr0_2_0-2.1.4-22.14.1",
        "RelatesToProductReference": "Image SLES15-SP2-Manager-4-1-Server-BYOS-GCE",
        "RelationType": "Default Component Of"
      },
      {
        "ProductReference": "open-iscsi-2.1.4-22.14.1",
        "RelatesToProductReference": "Image SLES15-SP2-Manager-4-1-Server-BYOS-GCE",
        "RelationType": "Default Component Of"
      },
      {
        "ProductReference": "iscsiuio-0.7.8.6-22.14.1",
        "RelatesToProductReference": "Image SLES15-SP2-SAP-Azure",
        "RelationType": "Default Component Of"
      },
      {
        "ProductReference": "libopeniscsiusr0_2_0-2.1.4-22.14.1",
        "RelatesToProductReference": "Image SLES15-SP2-SAP-Azure",
        "RelationType": "Default Component Of"
      },
      {
        "ProductReference": "open-iscsi-2.1.4-22.14.1",
        "RelatesToProductReference": "Image SLES15-SP2-SAP-Azure",
        "RelationType": "Default Component Of"
      },
      {
        "ProductReference": "iscsiuio-0.7.8.6-22.14.1",
        "RelatesToProductReference": "Image SLES15-SP2-SAP-Azure-LI-BYOS-Production",
        "RelationType": "Default Component Of"
      },
      {
        "ProductReference": "libopeniscsiusr0_2_0-2.1.4-22.14.1",
        "RelatesToProductReference": "Image SLES15-SP2-SAP-Azure-LI-BYOS-Production",
        "RelationType": "Default Component Of"
      },
      {
        "ProductReference": "open-iscsi-2.1.4-22.14.1",
        "RelatesToProductReference": "Image SLES15-SP2-SAP-Azure-LI-BYOS-Production",
        "RelationType": "Default Component Of"
      },
      {
        "ProductReference": "iscsiuio-0.7.8.6-22.14.1",
        "RelatesToProductReference": "Image SLES15-SP2-SAP-Azure-VLI-BYOS-Production",
        "RelationType": "Default Component Of"
      },
      {
        "ProductReference": "libopeniscsiusr0_2_0-2.1.4-22.14.1",
        "RelatesToProductReference": "Image SLES15-SP2-SAP-Azure-VLI-BYOS-Production",
        "RelationType": "Default Component Of"
      },
      {
        "ProductReference": "open-iscsi-2.1.4-22.14.1",
        "RelatesToProductReference": "Image SLES15-SP2-SAP-Azure-VLI-BYOS-Production",
        "RelationType": "Default Component Of"
      },
      {
        "ProductReference": "iscsiuio-0.7.8.6-22.14.1",
        "RelatesToProductReference": "Image SLES15-SP2-SAP-BYOS-Azure",
        "RelationType": "Default Component Of"
      },
      {
        "ProductReference": "libopeniscsiusr0_2_0-2.1.4-22.14.1",
        "RelatesToProductReference": "Image SLES15-SP2-SAP-BYOS-Azure",
        "RelationType": "Default Component Of"
      },
      {
        "ProductReference": "open-iscsi-2.1.4-22.14.1",
        "RelatesToProductReference": "Image SLES15-SP2-SAP-BYOS-Azure",
        "RelationType": "Default Component Of"
      },
      {
        "ProductReference": "iscsiuio-0.7.8.6-22.14.1",
        "RelatesToProductReference": "Image SLES15-SP2-SAP-BYOS-EC2-HVM",
        "RelationType": "Default Component Of"
      },
      {
        "ProductReference": "libopeniscsiusr0_2_0-2.1.4-22.14.1",
        "RelatesToProductReference": "Image SLES15-SP2-SAP-BYOS-EC2-HVM",
        "RelationType": "Default Component Of"
      },
      {
        "ProductReference": "open-iscsi-2.1.4-22.14.1",
        "RelatesToProductReference": "Image SLES15-SP2-SAP-BYOS-EC2-HVM",
        "RelationType": "Default Component Of"
      },
      {
        "ProductReference": "iscsiuio-0.7.8.6-22.14.1",
        "RelatesToProductReference": "Image SLES15-SP2-SAP-BYOS-GCE",
        "RelationType": "Default Component Of"
      },
      {
        "ProductReference": "libopeniscsiusr0_2_0-2.1.4-22.14.1",
        "RelatesToProductReference": "Image SLES15-SP2-SAP-BYOS-GCE",
        "RelationType": "Default Component Of"
      },
      {
        "ProductReference": "open-iscsi-2.1.4-22.14.1",
        "RelatesToProductReference": "Image SLES15-SP2-SAP-BYOS-GCE",
        "RelationType": "Default Component Of"
      },
      {
        "ProductReference": "iscsiuio-0.7.8.6-22.14.1",
        "RelatesToProductReference": "Image SLES15-SP2-SAP-EC2-HVM",
        "RelationType": "Default Component Of"
      },
      {
        "ProductReference": "libopeniscsiusr0_2_0-2.1.4-22.14.1",
        "RelatesToProductReference": "Image SLES15-SP2-SAP-EC2-HVM",
        "RelationType": "Default Component Of"
      },
      {
        "ProductReference": "open-iscsi-2.1.4-22.14.1",
        "RelatesToProductReference": "Image SLES15-SP2-SAP-EC2-HVM",
        "RelationType": "Default Component Of"
      },
      {
        "ProductReference": "iscsiuio-0.7.8.6-22.14.1",
        "RelatesToProductReference": "Image SLES15-SP2-SAP-GCE",
        "RelationType": "Default Component Of"
      },
      {
        "ProductReference": "libopeniscsiusr0_2_0-2.1.4-22.14.1",
        "RelatesToProductReference": "Image SLES15-SP2-SAP-GCE",
        "RelationType": "Default Component Of"
      },
      {
        "ProductReference": "open-iscsi-2.1.4-22.14.1",
        "RelatesToProductReference": "Image SLES15-SP2-SAP-GCE",
        "RelationType": "Default Component Of"
      },
      {
        "ProductReference": "iscsiuio-0.7.8.6-22.14.1",
        "RelatesToProductReference": "SUSE Linux Enterprise Micro 5.0",
        "RelationType": "Default Component Of"
      },
      {
        "ProductReference": "libopeniscsiusr0_2_0-2.1.4-22.14.1",
        "RelatesToProductReference": "SUSE Linux Enterprise Micro 5.0",
        "RelationType": "Default Component Of"
      },
      {
        "ProductReference": "open-iscsi-2.1.4-22.14.1",
        "RelatesToProductReference": "SUSE Linux Enterprise Micro 5.0",
        "RelationType": "Default Component Of"
      },
      {
        "ProductReference": "iscsiuio-0.7.8.6-22.14.1",
        "RelatesToProductReference": "SUSE Linux Enterprise Module for Basesystem 15 SP2",
        "RelationType": "Default Component Of"
      },
      {
        "ProductReference": "libopeniscsiusr0_2_0-2.1.4-22.14.1",
        "RelatesToProductReference": "SUSE Linux Enterprise Module for Basesystem 15 SP2",
        "RelationType": "Default Component Of"
      },
      {
        "ProductReference": "open-iscsi-2.1.4-22.14.1",
        "RelatesToProductReference": "SUSE Linux Enterprise Module for Basesystem 15 SP2",
        "RelationType": "Default Component Of"
      },
      {
        "ProductReference": "open-iscsi-devel-2.1.4-22.14.1",
        "RelatesToProductReference": "SUSE Linux Enterprise Module for Basesystem 15 SP2",
        "RelationType": "Default Component Of"
      }
    ]
  },
  "References": [
    {
      "URL": "https://www.suse.com/support/update/announcement/-2021-1517/suse-ru-20211517-1/",
      "Description": "Link for SUSE-RU-2021:1517-1"
    },
    {
      "URL": "https://lists.suse.com/pipermail/sle-updates/2021-May/018830.html",
      "Description": "E-Mail link for SUSE-RU-2021:1517-1"
    },
    {
      "URL": "https://www.suse.com/support/security/rating/",
      "Description": "SUSE Security Ratings"
    },
    {
      "URL": "https://bugzilla.suse.com/1179908",
      "Description": "SUSE Bug 1179908"
    },
    {
      "URL": "https://bugzilla.suse.com/1183421",
      "Description": "SUSE Bug 1183421"
    },
    {
      "URL": "https://www.suse.com/security/cve/CVE-2020-13987/",
      "Description": "SUSE CVE CVE-2020-13987 page"
    },
    {
      "URL": "https://www.suse.com/security/cve/CVE-2020-13988/",
      "Description": "SUSE CVE CVE-2020-13988 page"
    },
    {
      "URL": "https://www.suse.com/security/cve/CVE-2020-17437/",
      "Description": "SUSE CVE CVE-2020-17437 page"
    },
    {
      "URL": "https://www.suse.com/security/cve/CVE-2020-17438/",
      "Description": "SUSE CVE CVE-2020-17438 page"
    }
  ],
  "Vulnerabilities": [
    {
      "CVE": "CVE-2020-13987",
      "Description": "An issue was discovered in Contiki through 3.0. An Out-of-Bounds Read vulnerability exists in the uIP TCP/IP Stack component when calculating the checksums for IP packets in upper_layer_chksum in net/ipv4/uip.c.",
      "Threats": [
        {
          "Type": "Impact",
          "Severity": "moderate"
        }
      ],
      "References": [
        {
          "URL": "https://www.suse.com/security/cve/CVE-2020-13987.html",
          "Description": "CVE-2020-13987"
        },
        {
          "URL": "https://bugzilla.suse.com/1179907",
          "Description": "SUSE Bug 1179907"
        },
        {
          "URL": "https://bugzilla.suse.com/1179908",
          "Description": "SUSE Bug 1179908"
        },
        {
          "URL": "https://bugzilla.suse.com/1193385",
          "Description": "SUSE Bug 1193385"
        }
      ],
      "ProductStatuses": [
        {
          "Type": "Fixed",
          "ProductID": [
            "Container suse/sles/15.2/virt-launcher:0.38.1:libopeniscsiusr0_2_0-2.1.4-22.14.1",
            "Container suse/sles/15.2/virt-launcher:0.38.1:open-iscsi-2.1.4-22.14.1",
            "Image SLES15-SP2-Azure-Basic:iscsiuio-0.7.8.6-22.14.1",
            "Image SLES15-SP2-Azure-Basic:libopeniscsiusr0_2_0-2.1.4-22.14.1",
            "Image SLES15-SP2-Azure-Basic:open-iscsi-2.1.4-22.14.1",
            "Image SLES15-SP2-Azure-Standard:iscsiuio-0.7.8.6-22.14.1",
            "Image SLES15-SP2-Azure-Standard:libopeniscsiusr0_2_0-2.1.4-22.14.1",
            "Image SLES15-SP2-Azure-Standard:open-iscsi-2.1.4-22.14.1",
            "Image SLES15-SP2-BYOS-Azure:iscsiuio-0.7.8.6-22.14.1",
            "Image SLES15-SP2-BYOS-Azure:libopeniscsiusr0_2_0-2.1.4-22.14.1",
            "Image SLES15-SP2-BYOS-Azure:open-iscsi-2.1.4-22.14.1",
            "Image SLES15-SP2-BYOS-EC2-HVM:iscsiuio-0.7.8.6-22.14.1",
            "Image SLES15-SP2-BYOS-EC2-HVM:libopeniscsiusr0_2_0-2.1.4-22.14.1",
            "Image SLES15-SP2-BYOS-EC2-HVM:open-iscsi-2.1.4-22.14.1",
            "Image SLES15-SP2-BYOS-GCE:iscsiuio-0.7.8.6-22.14.1",
            "Image SLES15-SP2-BYOS-GCE:libopeniscsiusr0_2_0-2.1.4-22.14.1",
            "Image SLES15-SP2-BYOS-GCE:open-iscsi-2.1.4-22.14.1",
            "Image SLES15-SP2-CHOST-BYOS-Aliyun:libopeniscsiusr0_2_0-2.1.4-22.14.1",
            "Image SLES15-SP2-CHOST-BYOS-Aliyun:open-iscsi-2.1.4-22.14.1",
            "Image SLES15-SP2-CHOST-BYOS-Azure:libopeniscsiusr0_2_0-2.1.4-22.14.1",
            "Image SLES15-SP2-CHOST-BYOS-Azure:open-iscsi-2.1.4-22.14.1",
            "Image SLES15-SP2-CHOST-BYOS-EC2:libopeniscsiusr0_2_0-2.1.4-22.14.1",
            "Image SLES15-SP2-CHOST-BYOS-EC2:open-iscsi-2.1.4-22.14.1",
            "Image SLES15-SP2-CHOST-BYOS-GCE:libopeniscsiusr0_2_0-2.1.4-22.14.1",
            "Image SLES15-SP2-CHOST-BYOS-GCE:open-iscsi-2.1.4-22.14.1",
            "Image SLES15-SP2-EC2-HVM:iscsiuio-0.7.8.6-22.14.1",
            "Image SLES15-SP2-EC2-HVM:libopeniscsiusr0_2_0-2.1.4-22.14.1",
            "Image SLES15-SP2-EC2-HVM:open-iscsi-2.1.4-22.14.1",
            "Image SLES15-SP2-GCE:iscsiuio-0.7.8.6-22.14.1",
            "Image SLES15-SP2-GCE:libopeniscsiusr0_2_0-2.1.4-22.14.1",
            "Image SLES15-SP2-GCE:open-iscsi-2.1.4-22.14.1",
            "Image SLES15-SP2-HPC-Azure:iscsiuio-0.7.8.6-22.14.1",
            "Image SLES15-SP2-HPC-Azure:libopeniscsiusr0_2_0-2.1.4-22.14.1",
            "Image SLES15-SP2-HPC-Azure:open-iscsi-2.1.4-22.14.1",
            "Image SLES15-SP2-HPC-BYOS-Azure:iscsiuio-0.7.8.6-22.14.1",
            "Image SLES15-SP2-HPC-BYOS-Azure:libopeniscsiusr0_2_0-2.1.4-22.14.1",
            "Image SLES15-SP2-HPC-BYOS-Azure:open-iscsi-2.1.4-22.14.1",
            "Image SLES15-SP2-HPC-BYOS-EC2-HVM:iscsiuio-0.7.8.6-22.14.1",
            "Image SLES15-SP2-HPC-BYOS-EC2-HVM:libopeniscsiusr0_2_0-2.1.4-22.14.1",
            "Image SLES15-SP2-HPC-BYOS-EC2-HVM:open-iscsi-2.1.4-22.14.1",
            "Image SLES15-SP2-Manager-4-1-Proxy-BYOS-Azure:iscsiuio-0.7.8.6-22.14.1",
            "Image SLES15-SP2-Manager-4-1-Proxy-BYOS-Azure:libopeniscsiusr0_2_0-2.1.4-22.14.1",
            "Image SLES15-SP2-Manager-4-1-Proxy-BYOS-Azure:open-iscsi-2.1.4-22.14.1",
            "Image SLES15-SP2-Manager-4-1-Proxy-BYOS-EC2-HVM:iscsiuio-0.7.8.6-22.14.1",
            "Image SLES15-SP2-Manager-4-1-Proxy-BYOS-EC2-HVM:libopeniscsiusr0_2_0-2.1.4-22.14.1",
            "Image SLES15-SP2-Manager-4-1-Proxy-BYOS-EC2-HVM:open-iscsi-2.1.4-22.14.1",
            "Image SLES15-SP2-Manager-4-1-Proxy-BYOS-GCE:iscsiuio-0.7.8.6-22.14.1",
            "Image SLES15-SP2-Manager-4-1-Proxy-BYOS-GCE:libopeniscsiusr0_2_0-2.1.4-22.14.1",
            "Image SLES15-SP2-Manager-4-1-Proxy-BYOS-GCE:open-iscsi-2.1.4-22.14.1",
            "Image SLES15-SP2-Manager-4-1-Server-BYOS-Azure:iscsiuio-0.7.8.6-22.14.1",
            "Image SLES15-SP2-Manager-4-1-Server-BYOS-Azure:libopeniscsiusr0_2_0-2.1.4-22.14.1",
            "Image SLES15-SP2-Manager-4-1-Server-BYOS-Azure:open-iscsi-2.1.4-22.14.1",
            "Image SLES15-SP2-Manager-4-1-Server-BYOS-EC2-HVM:iscsiuio-0.7.8.6-22.14.1",
            "Image SLES15-SP2-Manager-4-1-Server-BYOS-EC2-HVM:libopeniscsiusr0_2_0-2.1.4-22.14.1",
            "Image SLES15-SP2-Manager-4-1-Server-BYOS-EC2-HVM:open-iscsi-2.1.4-22.14.1",
            "Image SLES15-SP2-Manager-4-1-Server-BYOS-GCE:iscsiuio-0.7.8.6-22.14.1",
            "Image SLES15-SP2-Manager-4-1-Server-BYOS-GCE:libopeniscsiusr0_2_0-2.1.4-22.14.1",
            "Image SLES15-SP2-Manager-4-1-Server-BYOS-GCE:open-iscsi-2.1.4-22.14.1",
            "Image SLES15-SP2-SAP-Azure-LI-BYOS-Production:iscsiuio-0.7.8.6-22.14.1",
            "Image SLES15-SP2-SAP-Azure-LI-BYOS-Production:libopeniscsiusr0_2_0-2.1.4-22.14.1",
            "Image SLES15-SP2-SAP-Azure-LI-BYOS-Production:open-iscsi-2.1.4-22.14.1",
            "Image SLES15-SP2-SAP-Azure-VLI-BYOS-Production:iscsiuio-0.7.8.6-22.14.1",
            "Image SLES15-SP2-SAP-Azure-VLI-BYOS-Production:libopeniscsiusr0_2_0-2.1.4-22.14.1",
            "Image SLES15-SP2-SAP-Azure-VLI-BYOS-Production:open-iscsi-2.1.4-22.14.1",
            "Image SLES15-SP2-SAP-Azure:iscsiuio-0.7.8.6-22.14.1",
            "Image SLES15-SP2-SAP-Azure:libopeniscsiusr0_2_0-2.1.4-22.14.1",
            "Image SLES15-SP2-SAP-Azure:open-iscsi-2.1.4-22.14.1",
            "Image SLES15-SP2-SAP-BYOS-Azure:iscsiuio-0.7.8.6-22.14.1",
            "Image SLES15-SP2-SAP-BYOS-Azure:libopeniscsiusr0_2_0-2.1.4-22.14.1",
            "Image SLES15-SP2-SAP-BYOS-Azure:open-iscsi-2.1.4-22.14.1",
            "Image SLES15-SP2-SAP-BYOS-EC2-HVM:iscsiuio-0.7.8.6-22.14.1",
            "Image SLES15-SP2-SAP-BYOS-EC2-HVM:libopeniscsiusr0_2_0-2.1.4-22.14.1",
            "Image SLES15-SP2-SAP-BYOS-EC2-HVM:open-iscsi-2.1.4-22.14.1",
            "Image SLES15-SP2-SAP-BYOS-GCE:iscsiuio-0.7.8.6-22.14.1",
            "Image SLES15-SP2-SAP-BYOS-GCE:libopeniscsiusr0_2_0-2.1.4-22.14.1",
            "Image SLES15-SP2-SAP-BYOS-GCE:open-iscsi-2.1.4-22.14.1",
            "Image SLES15-SP2-SAP-EC2-HVM:iscsiuio-0.7.8.6-22.14.1",
            "Image SLES15-SP2-SAP-EC2-HVM:libopeniscsiusr0_2_0-2.1.4-22.14.1",
            "Image SLES15-SP2-SAP-EC2-HVM:open-iscsi-2.1.4-22.14.1",
            "Image SLES15-SP2-SAP-GCE:iscsiuio-0.7.8.6-22.14.1",
            "Image SLES15-SP2-SAP-GCE:libopeniscsiusr0_2_0-2.1.4-22.14.1",
            "Image SLES15-SP2-SAP-GCE:open-iscsi-2.1.4-22.14.1",
            "SUSE Linux Enterprise Micro 5.0:iscsiuio-0.7.8.6-22.14.1",
            "SUSE Linux Enterprise Micro 5.0:libopeniscsiusr0_2_0-2.1.4-22.14.1",
            "SUSE Linux Enterprise Micro 5.0:open-iscsi-2.1.4-22.14.1",
            "SUSE Linux Enterprise Module for Basesystem 15 SP2:iscsiuio-0.7.8.6-22.14.1",
            "SUSE Linux Enterprise Module for Basesystem 15 SP2:libopeniscsiusr0_2_0-2.1.4-22.14.1",
            "SUSE Linux Enterprise Module for Basesystem 15 SP2:open-iscsi-2.1.4-22.14.1",
            "SUSE Linux Enterprise Module for Basesystem 15 SP2:open-iscsi-devel-2.1.4-22.14.1"
          ]
        }
      ],
      "CVSSScoreSets": {}
    },
    {
      "CVE": "CVE-2020-13988",
      "Description": "An issue was discovered in Contiki through 3.0. An Integer Overflow exists in the uIP TCP/IP Stack component when parsing TCP MSS options of IPv4 network packets in uip_process in net/ipv4/uip.c.",
      "Threats": [
        {
          "Type": "Impact",
          "Severity": "moderate"
        }
      ],
      "References": [
        {
          "URL": "https://www.suse.com/security/cve/CVE-2020-13988.html",
          "Description": "CVE-2020-13988"
        },
        {
          "URL": "https://bugzilla.suse.com/1179907",
          "Description": "SUSE Bug 1179907"
        },
        {
          "URL": "https://bugzilla.suse.com/1179908",
          "Description": "SUSE Bug 1179908"
        },
        {
          "URL": "https://bugzilla.suse.com/1193385",
          "Description": "SUSE Bug 1193385"
        }
      ],
      "ProductStatuses": [
        {
          "Type": "Fixed",
          "ProductID": [
            "Container suse/sles/15.2/virt-launcher:0.38.1:libopeniscsiusr0_2_0-2.1.4-22.14.1",
            "Container suse/sles/15.2/virt-launcher:0.38.1:open-iscsi-2.1.4-22.14.1",
            "Image SLES15-SP2-Azure-Basic:iscsiuio-0.7.8.6-22.14.1",
            "Image SLES15-SP2-Azure-Basic:libopeniscsiusr0_2_0-2.1.4-22.14.1",
            "Image SLES15-SP2-Azure-Basic:open-iscsi-2.1.4-22.14.1",
            "Image SLES15-SP2-Azure-Standard:iscsiuio-0.7.8.6-22.14.1",
            "Image SLES15-SP2-Azure-Standard:libopeniscsiusr0_2_0-2.1.4-22.14.1",
            "Image SLES15-SP2-Azure-Standard:open-iscsi-2.1.4-22.14.1",
            "Image SLES15-SP2-BYOS-Azure:iscsiuio-0.7.8.6-22.14.1",
            "Image SLES15-SP2-BYOS-Azure:libopeniscsiusr0_2_0-2.1.4-22.14.1",
            "Image SLES15-SP2-BYOS-Azure:open-iscsi-2.1.4-22.14.1",
            "Image SLES15-SP2-BYOS-EC2-HVM:iscsiuio-0.7.8.6-22.14.1",
            "Image SLES15-SP2-BYOS-EC2-HVM:libopeniscsiusr0_2_0-2.1.4-22.14.1",
            "Image SLES15-SP2-BYOS-EC2-HVM:open-iscsi-2.1.4-22.14.1",
            "Image SLES15-SP2-BYOS-GCE:iscsiuio-0.7.8.6-22.14.1",
            "Image SLES15-SP2-BYOS-GCE:libopeniscsiusr0_2_0-2.1.4-22.14.1",
            "Image SLES15-SP2-BYOS-GCE:open-iscsi-2.1.4-22.14.1",
            "Image SLES15-SP2-CHOST-BYOS-Aliyun:libopeniscsiusr0_2_0-2.1.4-22.14.1",
            "Image SLES15-SP2-CHOST-BYOS-Aliyun:open-iscsi-2.1.4-22.14.1",
            "Image SLES15-SP2-CHOST-BYOS-Azure:libopeniscsiusr0_2_0-2.1.4-22.14.1",
            "Image SLES15-SP2-CHOST-BYOS-Azure:open-iscsi-2.1.4-22.14.1",
            "Image SLES15-SP2-CHOST-BYOS-EC2:libopeniscsiusr0_2_0-2.1.4-22.14.1",
            "Image SLES15-SP2-CHOST-BYOS-EC2:open-iscsi-2.1.4-22.14.1",
            "Image SLES15-SP2-CHOST-BYOS-GCE:libopeniscsiusr0_2_0-2.1.4-22.14.1",
            "Image SLES15-SP2-CHOST-BYOS-GCE:open-iscsi-2.1.4-22.14.1",
            "Image SLES15-SP2-EC2-HVM:iscsiuio-0.7.8.6-22.14.1",
            "Image SLES15-SP2-EC2-HVM:libopeniscsiusr0_2_0-2.1.4-22.14.1",
            "Image SLES15-SP2-EC2-HVM:open-iscsi-2.1.4-22.14.1",
            "Image SLES15-SP2-GCE:iscsiuio-0.7.8.6-22.14.1",
            "Image SLES15-SP2-GCE:libopeniscsiusr0_2_0-2.1.4-22.14.1",
            "Image SLES15-SP2-GCE:open-iscsi-2.1.4-22.14.1",
            "Image SLES15-SP2-HPC-Azure:iscsiuio-0.7.8.6-22.14.1",
            "Image SLES15-SP2-HPC-Azure:libopeniscsiusr0_2_0-2.1.4-22.14.1",
            "Image SLES15-SP2-HPC-Azure:open-iscsi-2.1.4-22.14.1",
            "Image SLES15-SP2-HPC-BYOS-Azure:iscsiuio-0.7.8.6-22.14.1",
            "Image SLES15-SP2-HPC-BYOS-Azure:libopeniscsiusr0_2_0-2.1.4-22.14.1",
            "Image SLES15-SP2-HPC-BYOS-Azure:open-iscsi-2.1.4-22.14.1",
            "Image SLES15-SP2-HPC-BYOS-EC2-HVM:iscsiuio-0.7.8.6-22.14.1",
            "Image SLES15-SP2-HPC-BYOS-EC2-HVM:libopeniscsiusr0_2_0-2.1.4-22.14.1",
            "Image SLES15-SP2-HPC-BYOS-EC2-HVM:open-iscsi-2.1.4-22.14.1",
            "Image SLES15-SP2-Manager-4-1-Proxy-BYOS-Azure:iscsiuio-0.7.8.6-22.14.1",
            "Image SLES15-SP2-Manager-4-1-Proxy-BYOS-Azure:libopeniscsiusr0_2_0-2.1.4-22.14.1",
            "Image SLES15-SP2-Manager-4-1-Proxy-BYOS-Azure:open-iscsi-2.1.4-22.14.1",
            "Image SLES15-SP2-Manager-4-1-Proxy-BYOS-EC2-HVM:iscsiuio-0.7.8.6-22.14.1",
            "Image SLES15-SP2-Manager-4-1-Proxy-BYOS-EC2-HVM:libopeniscsiusr0_2_0-2.1.4-22.14.1",
            "Image SLES15-SP2-Manager-4-1-Proxy-BYOS-EC2-HVM:open-iscsi-2.1.4-22.14.1",
            "Image SLES15-SP2-Manager-4-1-Proxy-BYOS-GCE:iscsiuio-0.7.8.6-22.14.1",
            "Image SLES15-SP2-Manager-4-1-Proxy-BYOS-GCE:libopeniscsiusr0_2_0-2.1.4-22.14.1",
            "Image SLES15-SP2-Manager-4-1-Proxy-BYOS-GCE:open-iscsi-2.1.4-22.14.1",
            "Image SLES15-SP2-Manager-4-1-Server-BYOS-Azure:iscsiuio-0.7.8.6-22.14.1",
            "Image SLES15-SP2-Manager-4-1-Server-BYOS-Azure:libopeniscsiusr0_2_0-2.1.4-22.14.1",
            "Image SLES15-SP2-Manager-4-1-Server-BYOS-Azure:open-iscsi-2.1.4-22.14.1",
            "Image SLES15-SP2-Manager-4-1-Server-BYOS-EC2-HVM:iscsiuio-0.7.8.6-22.14.1",
            "Image SLES15-SP2-Manager-4-1-Server-BYOS-EC2-HVM:libopeniscsiusr0_2_0-2.1.4-22.14.1",
            "Image SLES15-SP2-Manager-4-1-Server-BYOS-EC2-HVM:open-iscsi-2.1.4-22.14.1",
            "Image SLES15-SP2-Manager-4-1-Server-BYOS-GCE:iscsiuio-0.7.8.6-22.14.1",
            "Image SLES15-SP2-Manager-4-1-Server-BYOS-GCE:libopeniscsiusr0_2_0-2.1.4-22.14.1",
            "Image SLES15-SP2-Manager-4-1-Server-BYOS-GCE:open-iscsi-2.1.4-22.14.1",
            "Image SLES15-SP2-SAP-Azure-LI-BYOS-Production:iscsiuio-0.7.8.6-22.14.1",
            "Image SLES15-SP2-SAP-Azure-LI-BYOS-Production:libopeniscsiusr0_2_0-2.1.4-22.14.1",
            "Image SLES15-SP2-SAP-Azure-LI-BYOS-Production:open-iscsi-2.1.4-22.14.1",
            "Image SLES15-SP2-SAP-Azure-VLI-BYOS-Production:iscsiuio-0.7.8.6-22.14.1",
            "Image SLES15-SP2-SAP-Azure-VLI-BYOS-Production:libopeniscsiusr0_2_0-2.1.4-22.14.1",
            "Image SLES15-SP2-SAP-Azure-VLI-BYOS-Production:open-iscsi-2.1.4-22.14.1",
            "Image SLES15-SP2-SAP-Azure:iscsiuio-0.7.8.6-22.14.1",
            "Image SLES15-SP2-SAP-Azure:libopeniscsiusr0_2_0-2.1.4-22.14.1",
            "Image SLES15-SP2-SAP-Azure:open-iscsi-2.1.4-22.14.1",
            "Image SLES15-SP2-SAP-BYOS-Azure:iscsiuio-0.7.8.6-22.14.1",
            "Image SLES15-SP2-SAP-BYOS-Azure:libopeniscsiusr0_2_0-2.1.4-22.14.1",
            "Image SLES15-SP2-SAP-BYOS-Azure:open-iscsi-2.1.4-22.14.1",
            "Image SLES15-SP2-SAP-BYOS-EC2-HVM:iscsiuio-0.7.8.6-22.14.1",
            "Image SLES15-SP2-SAP-BYOS-EC2-HVM:libopeniscsiusr0_2_0-2.1.4-22.14.1",
            "Image SLES15-SP2-SAP-BYOS-EC2-HVM:open-iscsi-2.1.4-22.14.1",
            "Image SLES15-SP2-SAP-BYOS-GCE:iscsiuio-0.7.8.6-22.14.1",
            "Image SLES15-SP2-SAP-BYOS-GCE:libopeniscsiusr0_2_0-2.1.4-22.14.1",
            "Image SLES15-SP2-SAP-BYOS-GCE:open-iscsi-2.1.4-22.14.1",
            "Image SLES15-SP2-SAP-EC2-HVM:iscsiuio-0.7.8.6-22.14.1",
            "Image SLES15-SP2-SAP-EC2-HVM:libopeniscsiusr0_2_0-2.1.4-22.14.1",
            "Image SLES15-SP2-SAP-EC2-HVM:open-iscsi-2.1.4-22.14.1",
            "Image SLES15-SP2-SAP-GCE:iscsiuio-0.7.8.6-22.14.1",
            "Image SLES15-SP2-SAP-GCE:libopeniscsiusr0_2_0-2.1.4-22.14.1",
            "Image SLES15-SP2-SAP-GCE:open-iscsi-2.1.4-22.14.1",
            "SUSE Linux Enterprise Micro 5.0:iscsiuio-0.7.8.6-22.14.1",
            "SUSE Linux Enterprise Micro 5.0:libopeniscsiusr0_2_0-2.1.4-22.14.1",
            "SUSE Linux Enterprise Micro 5.0:open-iscsi-2.1.4-22.14.1",
            "SUSE Linux Enterprise Module for Basesystem 15 SP2:iscsiuio-0.7.8.6-22.14.1",
            "SUSE Linux Enterprise Module for Basesystem 15 SP2:libopeniscsiusr0_2_0-2.1.4-22.14.1",
            "SUSE Linux Enterprise Module for Basesystem 15 SP2:open-iscsi-2.1.4-22.14.1",
            "SUSE Linux Enterprise Module for Basesystem 15 SP2:open-iscsi-devel-2.1.4-22.14.1"
          ]
        }
      ],
      "CVSSScoreSets": {}
    },
    {
      "CVE": "CVE-2020-17437",
      "Description": "An issue was discovered in uIP 1.0, as used in Contiki 3.0 and other products. When the Urgent flag is set in a TCP packet, and the stack is configured to ignore the urgent data, the stack attempts to use the value of the Urgent pointer bytes to separate the Urgent data from the normal data, by calculating the offset at which the normal data should be present in the global buffer. However, the length of this offset is not checked; therefore, for large values of the Urgent pointer bytes, the data pointer can point to memory that is way beyond the data buffer in uip_process in uip.c.",
      "Threats": [
        {
          "Type": "Impact",
          "Severity": "moderate"
        }
      ],
      "References": [
        {
          "URL": "https://www.suse.com/security/cve/CVE-2020-17437.html",
          "Description": "CVE-2020-17437"
        },
        {
          "URL": "https://bugzilla.suse.com/1179907",
          "Description": "SUSE Bug 1179907"
        },
        {
          "URL": "https://bugzilla.suse.com/1179908",
          "Description": "SUSE Bug 1179908"
        }
      ],
      "ProductStatuses": [
        {
          "Type": "Fixed",
          "ProductID": [
            "Container suse/sles/15.2/virt-launcher:0.38.1:libopeniscsiusr0_2_0-2.1.4-22.14.1",
            "Container suse/sles/15.2/virt-launcher:0.38.1:open-iscsi-2.1.4-22.14.1",
            "Image SLES15-SP2-Azure-Basic:iscsiuio-0.7.8.6-22.14.1",
            "Image SLES15-SP2-Azure-Basic:libopeniscsiusr0_2_0-2.1.4-22.14.1",
            "Image SLES15-SP2-Azure-Basic:open-iscsi-2.1.4-22.14.1",
            "Image SLES15-SP2-Azure-Standard:iscsiuio-0.7.8.6-22.14.1",
            "Image SLES15-SP2-Azure-Standard:libopeniscsiusr0_2_0-2.1.4-22.14.1",
            "Image SLES15-SP2-Azure-Standard:open-iscsi-2.1.4-22.14.1",
            "Image SLES15-SP2-BYOS-Azure:iscsiuio-0.7.8.6-22.14.1",
            "Image SLES15-SP2-BYOS-Azure:libopeniscsiusr0_2_0-2.1.4-22.14.1",
            "Image SLES15-SP2-BYOS-Azure:open-iscsi-2.1.4-22.14.1",
            "Image SLES15-SP2-BYOS-EC2-HVM:iscsiuio-0.7.8.6-22.14.1",
            "Image SLES15-SP2-BYOS-EC2-HVM:libopeniscsiusr0_2_0-2.1.4-22.14.1",
            "Image SLES15-SP2-BYOS-EC2-HVM:open-iscsi-2.1.4-22.14.1",
            "Image SLES15-SP2-BYOS-GCE:iscsiuio-0.7.8.6-22.14.1",
            "Image SLES15-SP2-BYOS-GCE:libopeniscsiusr0_2_0-2.1.4-22.14.1",
            "Image SLES15-SP2-BYOS-GCE:open-iscsi-2.1.4-22.14.1",
            "Image SLES15-SP2-CHOST-BYOS-Aliyun:libopeniscsiusr0_2_0-2.1.4-22.14.1",
            "Image SLES15-SP2-CHOST-BYOS-Aliyun:open-iscsi-2.1.4-22.14.1",
            "Image SLES15-SP2-CHOST-BYOS-Azure:libopeniscsiusr0_2_0-2.1.4-22.14.1",
            "Image SLES15-SP2-CHOST-BYOS-Azure:open-iscsi-2.1.4-22.14.1",
            "Image SLES15-SP2-CHOST-BYOS-EC2:libopeniscsiusr0_2_0-2.1.4-22.14.1",
            "Image SLES15-SP2-CHOST-BYOS-EC2:open-iscsi-2.1.4-22.14.1",
            "Image SLES15-SP2-CHOST-BYOS-GCE:libopeniscsiusr0_2_0-2.1.4-22.14.1",
            "Image SLES15-SP2-CHOST-BYOS-GCE:open-iscsi-2.1.4-22.14.1",
            "Image SLES15-SP2-EC2-HVM:iscsiuio-0.7.8.6-22.14.1",
            "Image SLES15-SP2-EC2-HVM:libopeniscsiusr0_2_0-2.1.4-22.14.1",
            "Image SLES15-SP2-EC2-HVM:open-iscsi-2.1.4-22.14.1",
            "Image SLES15-SP2-GCE:iscsiuio-0.7.8.6-22.14.1",
            "Image SLES15-SP2-GCE:libopeniscsiusr0_2_0-2.1.4-22.14.1",
            "Image SLES15-SP2-GCE:open-iscsi-2.1.4-22.14.1",
            "Image SLES15-SP2-HPC-Azure:iscsiuio-0.7.8.6-22.14.1",
            "Image SLES15-SP2-HPC-Azure:libopeniscsiusr0_2_0-2.1.4-22.14.1",
            "Image SLES15-SP2-HPC-Azure:open-iscsi-2.1.4-22.14.1",
            "Image SLES15-SP2-HPC-BYOS-Azure:iscsiuio-0.7.8.6-22.14.1",
            "Image SLES15-SP2-HPC-BYOS-Azure:libopeniscsiusr0_2_0-2.1.4-22.14.1",
            "Image SLES15-SP2-HPC-BYOS-Azure:open-iscsi-2.1.4-22.14.1",
            "Image SLES15-SP2-HPC-BYOS-EC2-HVM:iscsiuio-0.7.8.6-22.14.1",
            "Image SLES15-SP2-HPC-BYOS-EC2-HVM:libopeniscsiusr0_2_0-2.1.4-22.14.1",
            "Image SLES15-SP2-HPC-BYOS-EC2-HVM:open-iscsi-2.1.4-22.14.1",
            "Image SLES15-SP2-Manager-4-1-Proxy-BYOS-Azure:iscsiuio-0.7.8.6-22.14.1",
            "Image SLES15-SP2-Manager-4-1-Proxy-BYOS-Azure:libopeniscsiusr0_2_0-2.1.4-22.14.1",
            "Image SLES15-SP2-Manager-4-1-Proxy-BYOS-Azure:open-iscsi-2.1.4-22.14.1",
            "Image SLES15-SP2-Manager-4-1-Proxy-BYOS-EC2-HVM:iscsiuio-0.7.8.6-22.14.1",
            "Image SLES15-SP2-Manager-4-1-Proxy-BYOS-EC2-HVM:libopeniscsiusr0_2_0-2.1.4-22.14.1",
            "Image SLES15-SP2-Manager-4-1-Proxy-BYOS-EC2-HVM:open-iscsi-2.1.4-22.14.1",
            "Image SLES15-SP2-Manager-4-1-Proxy-BYOS-GCE:iscsiuio-0.7.8.6-22.14.1",
            "Image SLES15-SP2-Manager-4-1-Proxy-BYOS-GCE:libopeniscsiusr0_2_0-2.1.4-22.14.1",
            "Image SLES15-SP2-Manager-4-1-Proxy-BYOS-GCE:open-iscsi-2.1.4-22.14.1",
            "Image SLES15-SP2-Manager-4-1-Server-BYOS-Azure:iscsiuio-0.7.8.6-22.14.1",
            "Image SLES15-SP2-Manager-4-1-Server-BYOS-Azure:libopeniscsiusr0_2_0-2.1.4-22.14.1",
            "Image SLES15-SP2-Manager-4-1-Server-BYOS-Azure:open-iscsi-2.1.4-22.14.1",
            "Image SLES15-SP2-Manager-4-1-Server-BYOS-EC2-HVM:iscsiuio-0.7.8.6-22.14.1",
            "Image SLES15-SP2-Manager-4-1-Server-BYOS-EC2-HVM:libopeniscsiusr0_2_0-2.1.4-22.14.1",
            "Image SLES15-SP2-Manager-4-1-Server-BYOS-EC2-HVM:open-iscsi-2.1.4-22.14.1",
            "Image SLES15-SP2-Manager-4-1-Server-BYOS-GCE:iscsiuio-0.7.8.6-22.14.1",
            "Image SLES15-SP2-Manager-4-1-Server-BYOS-GCE:libopeniscsiusr0_2_0-2.1.4-22.14.1",
            "Image SLES15-SP2-Manager-4-1-Server-BYOS-GCE:open-iscsi-2.1.4-22.14.1",
            "Image SLES15-SP2-SAP-Azure-LI-BYOS-Production:iscsiuio-0.7.8.6-22.14.1",
            "Image SLES15-SP2-SAP-Azure-LI-BYOS-Production:libopeniscsiusr0_2_0-2.1.4-22.14.1",
            "Image SLES15-SP2-SAP-Azure-LI-BYOS-Production:open-iscsi-2.1.4-22.14.1",
            "Image SLES15-SP2-SAP-Azure-VLI-BYOS-Production:iscsiuio-0.7.8.6-22.14.1",
            "Image SLES15-SP2-SAP-Azure-VLI-BYOS-Production:libopeniscsiusr0_2_0-2.1.4-22.14.1",
            "Image SLES15-SP2-SAP-Azure-VLI-BYOS-Production:open-iscsi-2.1.4-22.14.1",
            "Image SLES15-SP2-SAP-Azure:iscsiuio-0.7.8.6-22.14.1",
            "Image SLES15-SP2-SAP-Azure:libopeniscsiusr0_2_0-2.1.4-22.14.1",
            "Image SLES15-SP2-SAP-Azure:open-iscsi-2.1.4-22.14.1",
            "Image SLES15-SP2-SAP-BYOS-Azure:iscsiuio-0.7.8.6-22.14.1",
            "Image SLES15-SP2-SAP-BYOS-Azure:libopeniscsiusr0_2_0-2.1.4-22.14.1",
            "Image SLES15-SP2-SAP-BYOS-Azure:open-iscsi-2.1.4-22.14.1",
            "Image SLES15-SP2-SAP-BYOS-EC2-HVM:iscsiuio-0.7.8.6-22.14.1",
            "Image SLES15-SP2-SAP-BYOS-EC2-HVM:libopeniscsiusr0_2_0-2.1.4-22.14.1",
            "Image SLES15-SP2-SAP-BYOS-EC2-HVM:open-iscsi-2.1.4-22.14.1",
            "Image SLES15-SP2-SAP-BYOS-GCE:iscsiuio-0.7.8.6-22.14.1",
            "Image SLES15-SP2-SAP-BYOS-GCE:libopeniscsiusr0_2_0-2.1.4-22.14.1",
            "Image SLES15-SP2-SAP-BYOS-GCE:open-iscsi-2.1.4-22.14.1",
            "Image SLES15-SP2-SAP-EC2-HVM:iscsiuio-0.7.8.6-22.14.1",
            "Image SLES15-SP2-SAP-EC2-HVM:libopeniscsiusr0_2_0-2.1.4-22.14.1",
            "Image SLES15-SP2-SAP-EC2-HVM:open-iscsi-2.1.4-22.14.1",
            "Image SLES15-SP2-SAP-GCE:iscsiuio-0.7.8.6-22.14.1",
            "Image SLES15-SP2-SAP-GCE:libopeniscsiusr0_2_0-2.1.4-22.14.1",
            "Image SLES15-SP2-SAP-GCE:open-iscsi-2.1.4-22.14.1",
            "SUSE Linux Enterprise Micro 5.0:iscsiuio-0.7.8.6-22.14.1",
            "SUSE Linux Enterprise Micro 5.0:libopeniscsiusr0_2_0-2.1.4-22.14.1",
            "SUSE Linux Enterprise Micro 5.0:open-iscsi-2.1.4-22.14.1",
            "SUSE Linux Enterprise Module for Basesystem 15 SP2:iscsiuio-0.7.8.6-22.14.1",
            "SUSE Linux Enterprise Module for Basesystem 15 SP2:libopeniscsiusr0_2_0-2.1.4-22.14.1",
            "SUSE Linux Enterprise Module for Basesystem 15 SP2:open-iscsi-2.1.4-22.14.1",
            "SUSE Linux Enterprise Module for Basesystem 15 SP2:open-iscsi-devel-2.1.4-22.14.1"
          ]
        }
      ],
      "CVSSScoreSets": {}
    },
    {
      "CVE": "CVE-2020-17438",
      "Description": "An issue was discovered in uIP 1.0, as used in Contiki 3.0 and other products. The code that reassembles fragmented packets fails to properly validate the total length of an incoming packet specified in its IP header, as well as the fragmentation offset value specified in the IP header. By crafting a packet with specific values of the IP header length and the fragmentation offset, attackers can write into the .bss section of the program (past the statically allocated buffer that is used for storing the fragmented data) and cause a denial of service in uip_reass() in uip.c, or possibly execute arbitrary code on some target architectures.",
      "Threats": [
        {
          "Type": "Impact",
          "Severity": "moderate"
        }
      ],
      "References": [
        {
          "URL": "https://www.suse.com/security/cve/CVE-2020-17438.html",
          "Description": "CVE-2020-17438"
        },
        {
          "URL": "https://bugzilla.suse.com/1179907",
          "Description": "SUSE Bug 1179907"
        },
        {
          "URL": "https://bugzilla.suse.com/1179908",
          "Description": "SUSE Bug 1179908"
        }
      ],
      "ProductStatuses": [
        {
          "Type": "Fixed",
          "ProductID": [
            "Container suse/sles/15.2/virt-launcher:0.38.1:libopeniscsiusr0_2_0-2.1.4-22.14.1",
            "Container suse/sles/15.2/virt-launcher:0.38.1:open-iscsi-2.1.4-22.14.1",
            "Image SLES15-SP2-Azure-Basic:iscsiuio-0.7.8.6-22.14.1",
            "Image SLES15-SP2-Azure-Basic:libopeniscsiusr0_2_0-2.1.4-22.14.1",
            "Image SLES15-SP2-Azure-Basic:open-iscsi-2.1.4-22.14.1",
            "Image SLES15-SP2-Azure-Standard:iscsiuio-0.7.8.6-22.14.1",
            "Image SLES15-SP2-Azure-Standard:libopeniscsiusr0_2_0-2.1.4-22.14.1",
            "Image SLES15-SP2-Azure-Standard:open-iscsi-2.1.4-22.14.1",
            "Image SLES15-SP2-BYOS-Azure:iscsiuio-0.7.8.6-22.14.1",
            "Image SLES15-SP2-BYOS-Azure:libopeniscsiusr0_2_0-2.1.4-22.14.1",
            "Image SLES15-SP2-BYOS-Azure:open-iscsi-2.1.4-22.14.1",
            "Image SLES15-SP2-BYOS-EC2-HVM:iscsiuio-0.7.8.6-22.14.1",
            "Image SLES15-SP2-BYOS-EC2-HVM:libopeniscsiusr0_2_0-2.1.4-22.14.1",
            "Image SLES15-SP2-BYOS-EC2-HVM:open-iscsi-2.1.4-22.14.1",
            "Image SLES15-SP2-BYOS-GCE:iscsiuio-0.7.8.6-22.14.1",
            "Image SLES15-SP2-BYOS-GCE:libopeniscsiusr0_2_0-2.1.4-22.14.1",
            "Image SLES15-SP2-BYOS-GCE:open-iscsi-2.1.4-22.14.1",
            "Image SLES15-SP2-CHOST-BYOS-Aliyun:libopeniscsiusr0_2_0-2.1.4-22.14.1",
            "Image SLES15-SP2-CHOST-BYOS-Aliyun:open-iscsi-2.1.4-22.14.1",
            "Image SLES15-SP2-CHOST-BYOS-Azure:libopeniscsiusr0_2_0-2.1.4-22.14.1",
            "Image SLES15-SP2-CHOST-BYOS-Azure:open-iscsi-2.1.4-22.14.1",
            "Image SLES15-SP2-CHOST-BYOS-EC2:libopeniscsiusr0_2_0-2.1.4-22.14.1",
            "Image SLES15-SP2-CHOST-BYOS-EC2:open-iscsi-2.1.4-22.14.1",
            "Image SLES15-SP2-CHOST-BYOS-GCE:libopeniscsiusr0_2_0-2.1.4-22.14.1",
            "Image SLES15-SP2-CHOST-BYOS-GCE:open-iscsi-2.1.4-22.14.1",
            "Image SLES15-SP2-EC2-HVM:iscsiuio-0.7.8.6-22.14.1",
            "Image SLES15-SP2-EC2-HVM:libopeniscsiusr0_2_0-2.1.4-22.14.1",
            "Image SLES15-SP2-EC2-HVM:open-iscsi-2.1.4-22.14.1",
            "Image SLES15-SP2-GCE:iscsiuio-0.7.8.6-22.14.1",
            "Image SLES15-SP2-GCE:libopeniscsiusr0_2_0-2.1.4-22.14.1",
            "Image SLES15-SP2-GCE:open-iscsi-2.1.4-22.14.1",
            "Image SLES15-SP2-HPC-Azure:iscsiuio-0.7.8.6-22.14.1",
            "Image SLES15-SP2-HPC-Azure:libopeniscsiusr0_2_0-2.1.4-22.14.1",
            "Image SLES15-SP2-HPC-Azure:open-iscsi-2.1.4-22.14.1",
            "Image SLES15-SP2-HPC-BYOS-Azure:iscsiuio-0.7.8.6-22.14.1",
            "Image SLES15-SP2-HPC-BYOS-Azure:libopeniscsiusr0_2_0-2.1.4-22.14.1",
            "Image SLES15-SP2-HPC-BYOS-Azure:open-iscsi-2.1.4-22.14.1",
            "Image SLES15-SP2-HPC-BYOS-EC2-HVM:iscsiuio-0.7.8.6-22.14.1",
            "Image SLES15-SP2-HPC-BYOS-EC2-HVM:libopeniscsiusr0_2_0-2.1.4-22.14.1",
            "Image SLES15-SP2-HPC-BYOS-EC2-HVM:open-iscsi-2.1.4-22.14.1",
            "Image SLES15-SP2-Manager-4-1-Proxy-BYOS-Azure:iscsiuio-0.7.8.6-22.14.1",
            "Image SLES15-SP2-Manager-4-1-Proxy-BYOS-Azure:libopeniscsiusr0_2_0-2.1.4-22.14.1",
            "Image SLES15-SP2-Manager-4-1-Proxy-BYOS-Azure:open-iscsi-2.1.4-22.14.1",
            "Image SLES15-SP2-Manager-4-1-Proxy-BYOS-EC2-HVM:iscsiuio-0.7.8.6-22.14.1",
            "Image SLES15-SP2-Manager-4-1-Proxy-BYOS-EC2-HVM:libopeniscsiusr0_2_0-2.1.4-22.14.1",
            "Image SLES15-SP2-Manager-4-1-Proxy-BYOS-EC2-HVM:open-iscsi-2.1.4-22.14.1",
            "Image SLES15-SP2-Manager-4-1-Proxy-BYOS-GCE:iscsiuio-0.7.8.6-22.14.1",
            "Image SLES15-SP2-Manager-4-1-Proxy-BYOS-GCE:libopeniscsiusr0_2_0-2.1.4-22.14.1",
            "Image SLES15-SP2-Manager-4-1-Proxy-BYOS-GCE:open-iscsi-2.1.4-22.14.1",
            "Image SLES15-SP2-Manager-4-1-Server-BYOS-Azure:iscsiuio-0.7.8.6-22.14.1",
            "Image SLES15-SP2-Manager-4-1-Server-BYOS-Azure:libopeniscsiusr0_2_0-2.1.4-22.14.1",
            "Image SLES15-SP2-Manager-4-1-Server-BYOS-Azure:open-iscsi-2.1.4-22.14.1",
            "Image SLES15-SP2-Manager-4-1-Server-BYOS-EC2-HVM:iscsiuio-0.7.8.6-22.14.1",
            "Image SLES15-SP2-Manager-4-1-Server-BYOS-EC2-HVM:libopeniscsiusr0_2_0-2.1.4-22.14.1",
            "Image SLES15-SP2-Manager-4-1-Server-BYOS-EC2-HVM:open-iscsi-2.1.4-22.14.1",
            "Image SLES15-SP2-Manager-4-1-Server-BYOS-GCE:iscsiuio-0.7.8.6-22.14.1",
            "Image SLES15-SP2-Manager-4-1-Server-BYOS-GCE:libopeniscsiusr0_2_0-2.1.4-22.14.1",
            "Image SLES15-SP2-Manager-4-1-Server-BYOS-GCE:open-iscsi-2.1.4-22.14.1",
            "Image SLES15-SP2-SAP-Azure-LI-BYOS-Production:iscsiuio-0.7.8.6-22.14.1",
            "Image SLES15-SP2-SAP-Azure-LI-BYOS-Production:libopeniscsiusr0_2_0-2.1.4-22.14.1",
            "Image SLES15-SP2-SAP-Azure-LI-BYOS-Production:open-iscsi-2.1.4-22.14.1",
            "Image SLES15-SP2-SAP-Azure-VLI-BYOS-Production:iscsiuio-0.7.8.6-22.14.1",
            "Image SLES15-SP2-SAP-Azure-VLI-BYOS-Production:libopeniscsiusr0_2_0-2.1.4-22.14.1",
            "Image SLES15-SP2-SAP-Azure-VLI-BYOS-Production:open-iscsi-2.1.4-22.14.1",
            "Image SLES15-SP2-SAP-Azure:iscsiuio-0.7.8.6-22.14.1",
            "Image SLES15-SP2-SAP-Azure:libopeniscsiusr0_2_0-2.1.4-22.14.1",
            "Image SLES15-SP2-SAP-Azure:open-iscsi-2.1.4-22.14.1",
            "Image SLES15-SP2-SAP-BYOS-Azure:iscsiuio-0.7.8.6-22.14.1",
            "Image SLES15-SP2-SAP-BYOS-Azure:libopeniscsiusr0_2_0-2.1.4-22.14.1",
            "Image SLES15-SP2-SAP-BYOS-Azure:open-iscsi-2.1.4-22.14.1",
            "Image SLES15-SP2-SAP-BYOS-EC2-HVM:iscsiuio-0.7.8.6-22.14.1",
            "Image SLES15-SP2-SAP-BYOS-EC2-HVM:libopeniscsiusr0_2_0-2.1.4-22.14.1",
            "Image SLES15-SP2-SAP-BYOS-EC2-HVM:open-iscsi-2.1.4-22.14.1",
            "Image SLES15-SP2-SAP-BYOS-GCE:iscsiuio-0.7.8.6-22.14.1",
            "Image SLES15-SP2-SAP-BYOS-GCE:libopeniscsiusr0_2_0-2.1.4-22.14.1",
            "Image SLES15-SP2-SAP-BYOS-GCE:open-iscsi-2.1.4-22.14.1",
            "Image SLES15-SP2-SAP-EC2-HVM:iscsiuio-0.7.8.6-22.14.1",
            "Image SLES15-SP2-SAP-EC2-HVM:libopeniscsiusr0_2_0-2.1.4-22.14.1",
            "Image SLES15-SP2-SAP-EC2-HVM:open-iscsi-2.1.4-22.14.1",
            "Image SLES15-SP2-SAP-GCE:iscsiuio-0.7.8.6-22.14.1",
            "Image SLES15-SP2-SAP-GCE:libopeniscsiusr0_2_0-2.1.4-22.14.1",
            "Image SLES15-SP2-SAP-GCE:open-iscsi-2.1.4-22.14.1",
            "SUSE Linux Enterprise Micro 5.0:iscsiuio-0.7.8.6-22.14.1",
            "SUSE Linux Enterprise Micro 5.0:libopeniscsiusr0_2_0-2.1.4-22.14.1",
            "SUSE Linux Enterprise Micro 5.0:open-iscsi-2.1.4-22.14.1",
            "SUSE Linux Enterprise Module for Basesystem 15 SP2:iscsiuio-0.7.8.6-22.14.1",
            "SUSE Linux Enterprise Module for Basesystem 15 SP2:libopeniscsiusr0_2_0-2.1.4-22.14.1",
            "SUSE Linux Enterprise Module for Basesystem 15 SP2:open-iscsi-2.1.4-22.14.1",
            "SUSE Linux Enterprise Module for Basesystem 15 SP2:open-iscsi-devel-2.1.4-22.14.1"
          ]
        }
      ],
      "CVSSScoreSets": {}
    }
  ]
}