{
  "Title": "Security update for the Linux Kernel",
  "Tracking": {
    "ID": "SUSE-SU-2021:3192-1",
    "Status": "Final",
    "Version": "1",
    "InitialReleaseDate": "2021-09-22T15:19:26Z",
    "CurrentReleaseDate": "2021-09-22T15:19:26Z",
    "RevisionHistory": [
      {
        "Number": "1",
        "Date": "2021-09-22T15:19:26Z",
        "Description": "current"
      }
    ]
  },
  "Notes": [
    {
      "Text": "Security update for the Linux Kernel",
      "Title": "Topic",
      "Type": "Summary"
    },
    {
      "Text": "The SUSE Linux Enterprise 12 SP5 Azure kernel was updated to receive various security and bugfixes.\n\n\nThe following security bugs were fixed:\n\n- CVE-2018-9517: Fixed possible memory corruption due to a use after free in pppol2tp_connect (bsc#1108488).\n- CVE-2019-3874: Fixed possible denial of service attack via SCTP socket buffer used by a userspace applications (bnc#1129898).\n- CVE-2019-3900: Fixed an infinite loop issue while handling incoming packets in handle_rx() (bnc#1133374).\n- CVE-2021-3640: Fixed a Use-After-Free vulnerability in function sco_sock_sendmsg() in the bluetooth stack (bsc#1188172).\n- CVE-2021-3653: Missing validation of the `int_ctl` VMCB field and allows a malicious L1 guest to enable AVIC support for the L2 guest. (bsc#1189399).\n- CVE-2021-3656: Missing validation of the the `virt_ext` VMCB field and allows a malicious L1 guest to disable both VMLOAD/VMSAVE intercepts and VLS for the L2 guest (bsc#1189400).\n- CVE-2021-3679: A lack of CPU resource in tracing module functionality was found in the way user uses trace ring buffer in a specific way. Only privileged local users (with CAP_SYS_ADMIN capability) could use this flaw to starve the resources causing denial of service (bnc#1189057).\n- CVE-2021-3732: Mounting overlayfs inside an unprivileged user namespace can reveal files (bsc#1189706).\n- CVE-2021-3753: Fixed race out-of-bounds in virtual terminal handling (bsc#1190025).\n- CVE-2021-3759: Unaccounted ipc objects in Linux kernel could have lead to breaking memcg limits and DoS attacks (bsc#1190115).\n- CVE-2021-38160: Data corruption or loss could be triggered by an untrusted device that supplies a buf-\u003elen value exceeding the buffer size in drivers/char/virtio_console.c (bsc#1190117)\n- CVE-2021-38198: arch/x86/kvm/mmu/paging_tmpl.h incorrectly computes the access permissions of a shadow page, leading to a missing guest protection page fault (bnc#1189262).\n- CVE-2021-38204: drivers/usb/host/max3421-hcd.c allowed physically proximate attackers to cause a denial of service (use-after-free and panic) by removing a MAX-3421 USB device in certain situations (bnc#1189291).\n\nThe following non-security bugs were fixed:\n\n- ACPI: NFIT: Fix support for virtual SPA ranges (git-fixes).\n- ALSA: seq: Fix racy deletion of subscriber (git-fixes).\n- ASoC: cs42l42: Do not allow SND_SOC_DAIFMT_LEFT_J (git-fixes).\n- ASoC: cs42l42: Fix inversion of ADC Notch Switch control (git-fixes).\n- ASoC: cs42l42: Remove duplicate control for WNF filter frequency (git-fixes).\n- Bluetooth: Move shutdown callback before flushing tx and rx queue (git-fixes).\n- Bluetooth: add timeout sanity check to hci_inquiry (git-fixes).\n- Bluetooth: fix repeated calls to sco_sock_kill (git-fixes).\n- Bluetooth: increase BTNAMSIZ to 21 chars to fix potential buffer overflow (git-fixes).\n- Bluetooth: sco: prevent information leak in sco_conn_defer_accept() (git-fixes).\n- KVM: SVM: Call SEV Guest Decommission if ASID binding fails (12sp5).\n- Move upstreamed BT fixes into sorted section\n- NFSv4/pNFS: Do not call _nfs4_pnfs_v3_ds_connect multiple times (git-fixes).\n- NFSv4: Initialise connection to the server in nfs4_alloc_client() (bsc#1040364).\n- PCI/MSI: Correct misleading comments (git-fixes).\n- PCI/MSI: Do not set invalid bits in MSI mask (git-fixes).\n- PCI/MSI: Enable and mask MSI-X early (git-fixes).\n- PCI/MSI: Use msi_mask_irq() in pci_msi_shutdown() (git-fixes).\n- PCI: Add Intel VMD devices to pci ids (bsc#1183983).\n- PCI: PM: Enable PME if it can be signaled from D3cold (git-fixes).\n- PCI: hv: Use expected affinity when unmasking IRQ (bsc#1185973).\n- PCI: vmd: Add an additional VMD device id to driver device id table (bsc#1183983).\n- PCI: vmd: Add offset to bus numbers if necessary (bsc#1183983).\n- PCI: vmd: Assign membar addresses from shadow registers (bsc#1183983).\n- PCI: vmd: Filter resource type bits from shadow register (bsc#1183983).\n- PCI: vmd: Fix config addressing when using bus offsets (bsc#1183983).\n- PCI: vmd: Fix shadow offsets to reflect spec changes (bsc#1183983).\n- SUNRPC: Fix the batch tasks count wraparound (git-fixes).\n- SUNRPC: Should wake up the privileged task firstly (git-fixes).\n- USB: serial: ch341: fix character loss at high transfer rates (git-fixes).\n- USB: serial: ftdi_sio: add device ID for Auto-M3 OP-COM v2 (git-fixes).\n- USB: serial: option: add Telit FD980 composition 0x1056 (git-fixes).\n- USB: usbtmc: Fix RCU stall warning (git-fixes).\n- USB:ehci:fix Kunpeng920 ehci hardware problem (git-fixes).\n- ath6kl: wmi: fix an error code in ath6kl_wmi_sync_point() (git-fixes).\n- ax88179_178a: Merge memcpy + le32_to_cpus to get_unaligned_le32 (git-fixes).\n- bcma: Fix memory leak for internally-handled cores (git-fixes).\n- bdi: Do not use freezable workqueue (bsc#1189573).\n- blk-mq-sched: Fix blk_mq_sched_alloc_tags() error handling (bsc#1189506).\n- block: fix trace completion for chained bio (bsc#1189505).\n- can: usb: esd_usb2: esd_usb2_rx_event(): fix the interchange of the CAN RX and TX error counters (git-fixes).\n- cifs: Remove unused inline function is_sysvol_or_netlogon() (bsc#1185902).\n- cifs: avoid starvation when refreshing dfs cache (bsc#1185902).\n- cifs: constify get_normalized_path() properly (bsc#1185902).\n- cifs: do not cargo-cult strndup() (bsc#1185902).\n- cifs: do not send tree disconnect to ipc shares (bsc#1185902).\n- cifs: do not share tcp servers with dfs mounts (bsc#1185902).\n- cifs: do not share tcp sessions of dfs connections (bsc#1185902).\n- cifs: fix check of dfs interlinks (bsc#1185902).\n- cifs: fix path comparison and hash calc (bsc#1185902).\n- cifs: get rid of @noreq param in __dfs_cache_find() (bsc#1185902).\n- cifs: handle different charsets in dfs cache (bsc#1185902).\n- cifs: keep referral server sessions alive (bsc#1185902).\n- cifs: missing null pointer check in cifs_mount (bsc#1185902).\n- cifs: prevent NULL deref in cifs_compose_mount_options() (bsc#1185902).\n- cifs: set a minimum of 2 minutes for refreshing dfs cache (bsc#1185902).\n- clk: stm32f4: fix post divisor setup for I2S/SAI PLLs (git-fixes).\n- crypto: ccp - Annotate SEV Firmware file names (bsc#1189268).\n- crypto: nx - Fix RCU warning in nx842_OF_upd_status (git-fixes).\n- crypto: nx - Fix memcpy() over-reading in nonce (git-fixes).\n- crypto: talitos - Do not modify req-\u003ecryptlen on decryption (git-fixes).\n- crypto: talitos - fix ECB algs ivsize (git-fixes).\n- crypto: ux500 - Fix error return code in hash_hw_final() (git-fixes).\n- dm btree remove: assign new_root only when removal succeeds (git fixes).\n- dm cache metadata: Avoid returning cmd-\u003ebm wild pointer on error (git fixes).\n- dm era: Fix bitset memory leaks (git fixes).\n- dm era: Recover committed writeset after crash (git fixes).\n- dm era: Reinitialize bitset cache before digesting a new writeset (git fixes).\n- dm era: Use correct value size in equality function of writeset tree (git fixes).\n- dm era: Verify the data block size hasn't changed (git fixes).\n- dm era: only resize metadata in preresume (git fixes).\n- dm ioctl: fix error return code in target_message (git fixes).\n- dm ioctl: fix out of bounds array access when no devices (git fixes).\n- dm persistent data: packed struct should have an aligned() attribute too (git fixes).\n- dm rq: fix double free of blk_mq_tag_set in dev remove after table load fails (git fixes).\n- dm snapshot: fix crash with transient storage and zero chunk size (git fixes).\n- dm snapshot: flush merged data before committing metadata (git fixes).\n- dm snapshot: properly fix a crash when an origin has no snapshots (git fixes).\n- dm space map common: fix division bug in sm_ll_find_free_block() (git fixes).\n- dm table: fix iterate_devices based device capability checks (git fixes).\n- dm thin metadata: Avoid returning cmd-\u003ebm wild pointer on error (git fixes).\n- dm verity: fix DM_VERITY_OPTS_MAX value (git-fixes).\n- dm writecache: fix the maximum number of arguments (git-fixes).\n- dm writecache: handle DAX to partitions on persistent memory correctly (git-fixes).\n- dm writecache: remove BUG() and fail gracefully instead (git-fixes).\n- dm zoned: select CONFIG_CRC32 (git-fixes).\n- dm: eliminate potential source of excessive kernel log noise (git fixes).\n- dm: remove invalid sparse __acquires and __releases annotations (git-fixes).\n- ext4: cleanup in-core orphan list if ext4_truncate() failed to get a transaction handle (bsc#1189568).\n- ext4: correct the cache_nr in tracepoint ext4_es_shrink_exit (bsc#1189564).\n- ext4: fix avefreec in find_group_orlov (bsc#1189566).\n- ext4: fix kernel infoleak via ext4_extent_header (bsc#1189562).\n- ext4: remove check for zero nr_to_scan in ext4_es_scan() (bsc#1189565).\n- ext4: use ext4_grp_locked_error in mb_find_extent (bsc#1189567).\n- ftgmac100: Restart MAC HW once (git-fixes).\n- i2c: dev: zero out array used for i2c reads from userspace (git-fixes).\n- i2c: highlander: add IRQ check (git-fixes).\n- i2c: iop3xx: fix deferred probing (git-fixes).\n- i2c: mt65xx: fix IRQ check (git-fixes).\n- i2c: s3c2410: fix IRQ check (git-fixes).\n- i40e: Fix Error I40E_AQ_RC_EINVAL when removing VFs (git-fixes).\n- iio: adc: Fix incorrect exit of for-loop (git-fixes).\n- iio: humidity: hdc100x: Add margin to the conversion time (git-fixes).\n- iommu/amd: Fix extended features logging (bsc#1189269).\n- iommu/arm-smmu-v3: add bit field SFM into GERROR_ERR_MASK (bsc#1189270).\n- iommu/vt-d: Define counter explicitly as unsigned int (bsc#1189271).\n- iommu/vt-d: Fix sysfs leak in alloc_iommu() (bsc#1189272).\n- kABI: Fix kABI after fixing vcpu-id indexed arrays (git-fixes).\n- kABI: s390/ap: Fix hanging ioctl caused by wrong msg counter (bsc#1188982 LTC#193818).\n- mac80211: Fix insufficient headroom issue for AMSDU (git-fixes).\n- md/raid10: properly indicate failure when ending a failed write request (git-fixes).\n- media: go7007: fix memory leak in go7007_usb_probe (git-fixes).\n- media: rtl28xxu: fix zero-length control request (git-fixes).\n- memcg: enable accounting for file lock caches (bsc#1190115).\n- mm, vmscan: guarantee drop_slab_node() termination (VM Functionality, bsc#1189301).\n- mm/memory-failure: unnecessary amount of unmapping (bsc#1189640).\n- mm/rmap: fix potential pte_unmap on an not mapped pte (git-fixes).\n- mm/thp: unmap_mapping_page() to fix THP truncate_cleanup_page() (bsc#1189569).\n- mm/vmscan: fix infinite loop in drop_slab_node (VM Performance, bsc#1189301).\n- mm: vmscan: scan anonymous pages on file refaults (VM Performance, bsc#1183050).\n- mmc: dw_mmc: Fix issue with uninitialized dma_slave_config (git-fixes).\n- mmc: moxart: Fix issue with uninitialized dma_slave_config (git-fixes).\n- net: lapbether: Remove netif_start_queue / netif_stop_queue (git-fixes).\n- net: mvpp2: Add TCAM entry to drop flow control pause frames (git-fixes).\n- net: mvpp2: prs: fix PPPoE with ipv6 packet parse (git-fixes).\n- net: stmmac: use netif_tx_start|stop_all_queues() function (git-fixes).\n- net: usb: Merge cpu_to_le32s + memcpy to put_unaligned_le32 (git-fixes).\n- net: usb: ax88179_178a: remove redundant assignment to variable ret (git-fixes).\n- nfs: fix acl memory leak of posix_acl_create() (git-fixes).\n- nvme-fc: avoid calling _nvme_fc_abort_outstanding_ios from interrupt context (bsc#1187076).\n- nvme-fc: convert assoc_active flag to bit op (bsc#1187076). \n- nvme-fc: eliminate terminate_io use by nvme_fc_error_recovery (bsc#1187076).\n- nvme-fc: fix double-free scenarios on hw queues (bsc#1187076).\n- nvme-fc: fix io timeout to abort I/O (bsc#1187076). \n- nvme-fc: fix racing controller reset and create association (bsc#1187076).\n- nvme-fc: remove err_work work item (bsc#1187076).\n- nvme-fc: remove nvme_fc_terminate_io() (bsc#1187076).\n- nvme-fc: track error_recovery while connecting (bsc#1187076).\n- ocfs2: fix snprintf() checking (bsc#1189581).\n- ocfs2: fix zero out valid data (bsc#1189579).\n- ocfs2: issue zeroout to EOF blocks (bsc#1189582).\n- ocfs2: ocfs2_downconvert_lock failure results in deadlock (bsc#1188439).\n- overflow: Correct check_shl_overflow() comment (git-fixes).\n- overflow: Include header file with SIZE_MAX declaration (git-fixes).\n- ovl: check whiteout in ovl_create_over_whiteout() (bsc#1189846).\n- ovl: filter of trusted xattr results in audit (bsc#1189846).\n- ovl: fix dentry leak in ovl_get_redirect (bsc#1189846).\n- ovl: initialize error in ovl_copy_xattr (bsc#1189846).\n- ovl: relax WARN_ON() on rename to self (bsc#1189846).\n- pcmcia: i82092: fix a null pointer dereference bug (git-fixes).\n- power: supply: max17042: handle fails of reading status register (git-fixes).\n- powerpc/pseries: Fix update of LPAR security flavor after LPM (bsc#1188885 ltc#193722 git-fixes).\n- qlcnic: Fix error code in probe (git-fixes).\n- r8152: Fix potential PM refcount imbalance (git-fixes).\n- readdir: make sure to verify directory entry for legacy interfaces too (bsc#1189639).\n- regulator: rt5033: Fix n_voltages settings for BUCK and LDO (git-fixes).\n- s390/ap: Fix hanging ioctl caused by wrong msg counter (bsc#1188982 LTC#193818).\n- scsi: core: Add scsi_prot_ref_tag() helper (bsc#1189392).\n- scsi: ibmvfc: Do not wait for initial device scan (bsc#1127650).\n- scsi: libfc: Fix array index out of bound exception (bsc#1188616).\n- scsi: lpfc: Add 256 Gb link speed support (bsc#1189385).\n- scsi: lpfc: Add PCI ID support for LPe37000/LPe38000 series adapters (bsc#1189385).\n- scsi: lpfc: Call discovery state machine when handling PLOGI/ADISC completions (bsc#1189385).\n- scsi: lpfc: Clear outstanding active mailbox during PCI function reset (bsc#1189385).\n- scsi: lpfc: Copyright updates for 12.8.0.11 patches (bsc#1189385).\n- scsi: lpfc: Copyright updates for 14.0.0.0 patches (bsc#1189385).\n- scsi: lpfc: Delay unregistering from transport until GIDFT or ADISC completes (bsc#1189385).\n- scsi: lpfc: Discovery state machine fixes for LOGO handling (bsc#1189385).\n- scsi: lpfc: Enable adisc discovery after RSCN by default (bsc#1189385).\n- scsi: lpfc: Fix KASAN slab-out-of-bounds in lpfc_unreg_rpi() routine (bsc#1189385).\n- scsi: lpfc: Fix NULL ptr dereference with NPIV ports for RDF handling (bsc#1189385).\n- scsi: lpfc: Fix NVMe support reporting in log message (bsc#1189385).\n- scsi: lpfc: Fix cq_id truncation in rq create (bsc#1189385).\n- scsi: lpfc: Fix memory leaks in error paths while issuing ELS RDF/SCR request (bsc#1189385).\n- scsi: lpfc: Fix possible ABBA deadlock in nvmet_xri_aborted() (bsc#1189385).\n- scsi: lpfc: Fix target reset handler from falsely returning FAILURE (bsc#1189385).\n- scsi: lpfc: Improve firmware download logging (bsc#1189385).\n- scsi: lpfc: Keep NDLP reference until after freeing the IOCB after ELS handling (bsc#1189385).\n- scsi: lpfc: Move initialization of phba-\u003epoll_list earlier to avoid crash (git-fixes).\n- scsi: lpfc: Remove REG_LOGIN check requirement to issue an ELS RDF (bsc#1189385).\n- scsi: lpfc: Remove redundant assignment to pointer pcmd (bsc#1189385).\n- scsi: lpfc: Remove use of kmalloc() in trace event logging (bsc#1189385).\n- scsi: lpfc: Revise Topology and RAS support checks for new adapters (bsc#1189385).\n- scsi: lpfc: Skip issuing ADISC when node is in NPR state (bsc#1189385).\n- scsi: lpfc: Skip reg_vpi when link is down for SLI3 in ADISC cmpl path (bsc#1189385).\n- scsi: lpfc: Update lpfc version to 12.8.0.11 (bsc#1189385).\n- scsi: lpfc: Update lpfc version to 14.0.0.0 (bsc#1189385).\n- scsi: lpfc: Use PBDE feature enabled bit to determine PBDE support (bsc#1189385).\n- scsi: lpfc: Use list_move_tail() instead of list_del()/list_add_tail() (bsc#1189385).\n- scsi: qla2xxx: Add heartbeat check (bsc#1189392).\n- scsi: qla2xxx: Fix error return code in qla82xx_write_flash_dword() (bsc#1189392).\n- scsi: qla2xxx: Fix spelling mistakes 'allloc' -\u003e 'alloc' (bsc#1189384).\n- scsi: qla2xxx: Fix use after free in debug code (bsc#1189384).\n- scsi: qla2xxx: Log PCI address in qla_nvme_unregister_remote_port() (bsc#1189392).\n- scsi: qla2xxx: Remove duplicate declarations (bsc#1189392).\n- scsi: qla2xxx: Remove redundant assignment to rval (bsc#1189392).\n- scsi: qla2xxx: Remove redundant continue statement in a for-loop (bsc#1189392).\n- scsi: qla2xxx: Remove redundant initialization of variable num_cnt (bsc#1189384).\n- scsi: qla2xxx: Remove unused variable 'status' (bsc#1189392).\n- scsi: qla2xxx: Update version to 10.02.00.107-k (bsc#1189384).\n- scsi: qla2xxx: Use list_move_tail() instead of list_del()/list_add_tail() (bsc#1189392).\n- scsi: qla2xxx: Use the proper SCSI midlayer interfaces for PI (bsc#1189392).\n- scsi: qla2xxx: edif: Add authentication pass + fail bsgs (bsc#1189384).\n- scsi: qla2xxx: edif: Add detection of secure device (bsc#1189384).\n- scsi: qla2xxx: edif: Add doorbell notification for app (bsc#1189384).\n- scsi: qla2xxx: edif: Add encryption to I/O path (bsc#1189384).\n- scsi: qla2xxx: edif: Add extraction of auth_els from the wire (bsc#1189384).\n- scsi: qla2xxx: edif: Add getfcinfo and statistic bsgs (bsc#1189384).\n- scsi: qla2xxx: edif: Add key update (bsc#1189384).\n- scsi: qla2xxx: edif: Add send, receive, and accept for auth_els (bsc#1189384).\n- scsi: qla2xxx: edif: Add start + stop bsgs (bsc#1189392).\n- scsi: qla2xxx: edif: Increment command and completion counts (bsc#1189384).\n- scsi: target: qla2xxx: Wait for stop_phase1 at WWN removal (bsc#1189392).\n- serial: 8250: Mask out floating 16/32-bit bus bits (git-fixes).\n- spi: mediatek: Fix fifo transfer (git-fixes).\n- spi: spi-fsl-dspi: Fix issue with uninitialized dma_slave_config (git-fixes).\n- spi: spi-pic32: Fix issue with uninitialized dma_slave_config (git-fixes).\n- staging: rtl8723bs: Fix a resource leak in sd_int_dpc (git-fixes).\n- virtio_net: Fix error code in probe() (git-fixes).\n- writeback: fix obtain a reference to a freeing memcg css (bsc#1189577).\n- x86/fpu: Limit xstate copy size in xstateregs_set() (bsc#1114648).\n- x86/fpu: Make init_fpstate correct with optimized XSAVE (bsc#1114648).\n- x86/fpu: Reset state for all signal restore failures (bsc#1114648).\n- x86/kvm: fix vcpu-id indexed array sizes (git-fixes).\n- x86/signal: Detect and prevent an alternate signal stack overflow (bsc#1114648).\n- xen/events: Fix race in set_evtchn_to_irq (git-fixes).\n",
      "Title": "Details",
      "Type": "General"
    },
    {
      "Text": "The CVRF data is provided by SUSE under the Creative Commons License 4.0 with Attribution (CC-BY-4.0).",
      "Title": "Terms of Use",
      "Type": "Legal Disclaimer"
    },
    {
      "Text": "Image SLES12-SP5-Azure-Basic-On-Demand-2021-3192,Image SLES12-SP5-Azure-HPC-On-Demand-2021-3192,Image SLES12-SP5-Azure-Standard-On-Demand-2021-3192,SUSE-2021-3192,SUSE-SLE-SERVER-12-SP5-2021-3192",
      "Title": "Patchnames",
      "Type": "Details"
    }
  ],
  "ProductTree": {
    "Relationships": [
      {
        "ProductReference": "kernel-azure-4.12.14-16.73.2",
        "RelatesToProductReference": "Image SLES12-SP5-Azure-Basic-On-Demand",
        "RelationType": "Default Component Of"
      },
      {
        "ProductReference": "kernel-azure-4.12.14-16.73.2",
        "RelatesToProductReference": "Image SLES12-SP5-Azure-HPC-On-Demand",
        "RelationType": "Default Component Of"
      },
      {
        "ProductReference": "kernel-azure-4.12.14-16.73.2",
        "RelatesToProductReference": "Image SLES12-SP5-Azure-Standard-On-Demand",
        "RelationType": "Default Component Of"
      },
      {
        "ProductReference": "kernel-azure-4.12.14-16.73.2",
        "RelatesToProductReference": "SUSE Linux Enterprise Server 12 SP5",
        "RelationType": "Default Component Of"
      },
      {
        "ProductReference": "kernel-azure-base-4.12.14-16.73.2",
        "RelatesToProductReference": "SUSE Linux Enterprise Server 12 SP5",
        "RelationType": "Default Component Of"
      },
      {
        "ProductReference": "kernel-azure-devel-4.12.14-16.73.2",
        "RelatesToProductReference": "SUSE Linux Enterprise Server 12 SP5",
        "RelationType": "Default Component Of"
      },
      {
        "ProductReference": "kernel-devel-azure-4.12.14-16.73.1",
        "RelatesToProductReference": "SUSE Linux Enterprise Server 12 SP5",
        "RelationType": "Default Component Of"
      },
      {
        "ProductReference": "kernel-source-azure-4.12.14-16.73.1",
        "RelatesToProductReference": "SUSE Linux Enterprise Server 12 SP5",
        "RelationType": "Default Component Of"
      },
      {
        "ProductReference": "kernel-syms-azure-4.12.14-16.73.1",
        "RelatesToProductReference": "SUSE Linux Enterprise Server 12 SP5",
        "RelationType": "Default Component Of"
      },
      {
        "ProductReference": "kernel-azure-4.12.14-16.73.2",
        "RelatesToProductReference": "SUSE Linux Enterprise Server for SAP Applications 12 SP5",
        "RelationType": "Default Component Of"
      },
      {
        "ProductReference": "kernel-azure-base-4.12.14-16.73.2",
        "RelatesToProductReference": "SUSE Linux Enterprise Server for SAP Applications 12 SP5",
        "RelationType": "Default Component Of"
      },
      {
        "ProductReference": "kernel-azure-devel-4.12.14-16.73.2",
        "RelatesToProductReference": "SUSE Linux Enterprise Server for SAP Applications 12 SP5",
        "RelationType": "Default Component Of"
      },
      {
        "ProductReference": "kernel-devel-azure-4.12.14-16.73.1",
        "RelatesToProductReference": "SUSE Linux Enterprise Server for SAP Applications 12 SP5",
        "RelationType": "Default Component Of"
      },
      {
        "ProductReference": "kernel-source-azure-4.12.14-16.73.1",
        "RelatesToProductReference": "SUSE Linux Enterprise Server for SAP Applications 12 SP5",
        "RelationType": "Default Component Of"
      },
      {
        "ProductReference": "kernel-syms-azure-4.12.14-16.73.1",
        "RelatesToProductReference": "SUSE Linux Enterprise Server for SAP Applications 12 SP5",
        "RelationType": "Default Component Of"
      }
    ]
  },
  "References": [
    {
      "URL": "https://www.suse.com/support/update/announcement/2021/suse-su-20213192-1/",
      "Description": "Link for SUSE-SU-2021:3192-1"
    },
    {
      "URL": "https://lists.suse.com/pipermail/sle-security-updates/2021-September/009486.html",
      "Description": "E-Mail link for SUSE-SU-2021:3192-1"
    },
    {
      "URL": "https://www.suse.com/support/security/rating/",
      "Description": "SUSE Security Ratings"
    },
    {
      "URL": "https://bugzilla.suse.com/1040364",
      "Description": "SUSE Bug 1040364"
    },
    {
      "URL": "https://bugzilla.suse.com/1108488",
      "Description": "SUSE Bug 1108488"
    },
    {
      "URL": "https://bugzilla.suse.com/1114648",
      "Description": "SUSE Bug 1114648"
    },
    {
      "URL": "https://bugzilla.suse.com/1127650",
      "Description": "SUSE Bug 1127650"
    },
    {
      "URL": "https://bugzilla.suse.com/1129898",
      "Description": "SUSE Bug 1129898"
    },
    {
      "URL": "https://bugzilla.suse.com/1133374",
      "Description": "SUSE Bug 1133374"
    },
    {
      "URL": "https://bugzilla.suse.com/1183050",
      "Description": "SUSE Bug 1183050"
    },
    {
      "URL": "https://bugzilla.suse.com/1183983",
      "Description": "SUSE Bug 1183983"
    },
    {
      "URL": "https://bugzilla.suse.com/1185902",
      "Description": "SUSE Bug 1185902"
    },
    {
      "URL": "https://bugzilla.suse.com/1185973",
      "Description": "SUSE Bug 1185973"
    },
    {
      "URL": "https://bugzilla.suse.com/1187076",
      "Description": "SUSE Bug 1187076"
    },
    {
      "URL": "https://bugzilla.suse.com/1188000",
      "Description": "SUSE Bug 1188000"
    },
    {
      "URL": "https://bugzilla.suse.com/1188172",
      "Description": "SUSE Bug 1188172"
    },
    {
      "URL": "https://bugzilla.suse.com/1188439",
      "Description": "SUSE Bug 1188439"
    },
    {
      "URL": "https://bugzilla.suse.com/1188616",
      "Description": "SUSE Bug 1188616"
    },
    {
      "URL": "https://bugzilla.suse.com/1188885",
      "Description": "SUSE Bug 1188885"
    },
    {
      "URL": "https://bugzilla.suse.com/1188982",
      "Description": "SUSE Bug 1188982"
    },
    {
      "URL": "https://bugzilla.suse.com/1189057",
      "Description": "SUSE Bug 1189057"
    },
    {
      "URL": "https://bugzilla.suse.com/1189262",
      "Description": "SUSE Bug 1189262"
    },
    {
      "URL": "https://bugzilla.suse.com/1189268",
      "Description": "SUSE Bug 1189268"
    },
    {
      "URL": "https://bugzilla.suse.com/1189269",
      "Description": "SUSE Bug 1189269"
    },
    {
      "URL": "https://bugzilla.suse.com/1189270",
      "Description": "SUSE Bug 1189270"
    },
    {
      "URL": "https://bugzilla.suse.com/1189271",
      "Description": "SUSE Bug 1189271"
    },
    {
      "URL": "https://bugzilla.suse.com/1189272",
      "Description": "SUSE Bug 1189272"
    },
    {
      "URL": "https://bugzilla.suse.com/1189291",
      "Description": "SUSE Bug 1189291"
    },
    {
      "URL": "https://bugzilla.suse.com/1189301",
      "Description": "SUSE Bug 1189301"
    },
    {
      "URL": "https://bugzilla.suse.com/1189384",
      "Description": "SUSE Bug 1189384"
    },
    {
      "URL": "https://bugzilla.suse.com/1189385",
      "Description": "SUSE Bug 1189385"
    },
    {
      "URL": "https://bugzilla.suse.com/1189392",
      "Description": "SUSE Bug 1189392"
    },
    {
      "URL": "https://bugzilla.suse.com/1189399",
      "Description": "SUSE Bug 1189399"
    },
    {
      "URL": "https://bugzilla.suse.com/1189400",
      "Description": "SUSE Bug 1189400"
    },
    {
      "URL": "https://bugzilla.suse.com/1189505",
      "Description": "SUSE Bug 1189505"
    },
    {
      "URL": "https://bugzilla.suse.com/1189506",
      "Description": "SUSE Bug 1189506"
    },
    {
      "URL": "https://bugzilla.suse.com/1189562",
      "Description": "SUSE Bug 1189562"
    },
    {
      "URL": "https://bugzilla.suse.com/1189564",
      "Description": "SUSE Bug 1189564"
    },
    {
      "URL": "https://bugzilla.suse.com/1189565",
      "Description": "SUSE Bug 1189565"
    },
    {
      "URL": "https://bugzilla.suse.com/1189566",
      "Description": "SUSE Bug 1189566"
    },
    {
      "URL": "https://bugzilla.suse.com/1189567",
      "Description": "SUSE Bug 1189567"
    },
    {
      "URL": "https://bugzilla.suse.com/1189568",
      "Description": "SUSE Bug 1189568"
    },
    {
      "URL": "https://bugzilla.suse.com/1189569",
      "Description": "SUSE Bug 1189569"
    },
    {
      "URL": "https://bugzilla.suse.com/1189573",
      "Description": "SUSE Bug 1189573"
    },
    {
      "URL": "https://bugzilla.suse.com/1189577",
      "Description": "SUSE Bug 1189577"
    },
    {
      "URL": "https://bugzilla.suse.com/1189579",
      "Description": "SUSE Bug 1189579"
    },
    {
      "URL": "https://bugzilla.suse.com/1189581",
      "Description": "SUSE Bug 1189581"
    },
    {
      "URL": "https://bugzilla.suse.com/1189582",
      "Description": "SUSE Bug 1189582"
    },
    {
      "URL": "https://bugzilla.suse.com/1189639",
      "Description": "SUSE Bug 1189639"
    },
    {
      "URL": "https://bugzilla.suse.com/1189640",
      "Description": "SUSE Bug 1189640"
    },
    {
      "URL": "https://bugzilla.suse.com/1189706",
      "Description": "SUSE Bug 1189706"
    },
    {
      "URL": "https://bugzilla.suse.com/1189846",
      "Description": "SUSE Bug 1189846"
    },
    {
      "URL": "https://bugzilla.suse.com/1190025",
      "Description": "SUSE Bug 1190025"
    },
    {
      "URL": "https://bugzilla.suse.com/1190115",
      "Description": "SUSE Bug 1190115"
    },
    {
      "URL": "https://bugzilla.suse.com/1190117",
      "Description": "SUSE Bug 1190117"
    },
    {
      "URL": "https://www.suse.com/security/cve/CVE-2018-9517/",
      "Description": "SUSE CVE CVE-2018-9517 page"
    },
    {
      "URL": "https://www.suse.com/security/cve/CVE-2019-3874/",
      "Description": "SUSE CVE CVE-2019-3874 page"
    },
    {
      "URL": "https://www.suse.com/security/cve/CVE-2019-3900/",
      "Description": "SUSE CVE CVE-2019-3900 page"
    },
    {
      "URL": "https://www.suse.com/security/cve/CVE-2021-3640/",
      "Description": "SUSE CVE CVE-2021-3640 page"
    },
    {
      "URL": "https://www.suse.com/security/cve/CVE-2021-3653/",
      "Description": "SUSE CVE CVE-2021-3653 page"
    },
    {
      "URL": "https://www.suse.com/security/cve/CVE-2021-3656/",
      "Description": "SUSE CVE CVE-2021-3656 page"
    },
    {
      "URL": "https://www.suse.com/security/cve/CVE-2021-3679/",
      "Description": "SUSE CVE CVE-2021-3679 page"
    },
    {
      "URL": "https://www.suse.com/security/cve/CVE-2021-3732/",
      "Description": "SUSE CVE CVE-2021-3732 page"
    },
    {
      "URL": "https://www.suse.com/security/cve/CVE-2021-3753/",
      "Description": "SUSE CVE CVE-2021-3753 page"
    },
    {
      "URL": "https://www.suse.com/security/cve/CVE-2021-3759/",
      "Description": "SUSE CVE CVE-2021-3759 page"
    },
    {
      "URL": "https://www.suse.com/security/cve/CVE-2021-38160/",
      "Description": "SUSE CVE CVE-2021-38160 page"
    },
    {
      "URL": "https://www.suse.com/security/cve/CVE-2021-38198/",
      "Description": "SUSE CVE CVE-2021-38198 page"
    },
    {
      "URL": "https://www.suse.com/security/cve/CVE-2021-38204/",
      "Description": "SUSE CVE CVE-2021-38204 page"
    }
  ],
  "Vulnerabilities": [
    {
      "CVE": "CVE-2018-9517",
      "Description": "In pppol2tp_connect, there is possible memory corruption due to a use after free. This could lead to local escalation of privilege with System execution privileges needed. User interaction is not needed for exploitation. Product: Android. Versions: Android kernel. Android ID: A-38159931.",
      "Threats": [
        {
          "Type": "Impact",
          "Severity": "important"
        }
      ],
      "References": [
        {
          "URL": "https://www.suse.com/security/cve/CVE-2018-9517.html",
          "Description": "CVE-2018-9517"
        },
        {
          "URL": "https://bugzilla.suse.com/1108488",
          "Description": "SUSE Bug 1108488"
        }
      ],
      "ProductStatuses": [
        {
          "Type": "Fixed",
          "ProductID": [
            "Image SLES12-SP5-Azure-Basic-On-Demand:kernel-azure-4.12.14-16.73.2",
            "Image SLES12-SP5-Azure-HPC-On-Demand:kernel-azure-4.12.14-16.73.2",
            "Image SLES12-SP5-Azure-Standard-On-Demand:kernel-azure-4.12.14-16.73.2",
            "SUSE Linux Enterprise Server 12 SP5:kernel-azure-4.12.14-16.73.2",
            "SUSE Linux Enterprise Server 12 SP5:kernel-azure-base-4.12.14-16.73.2",
            "SUSE Linux Enterprise Server 12 SP5:kernel-azure-devel-4.12.14-16.73.2",
            "SUSE Linux Enterprise Server 12 SP5:kernel-devel-azure-4.12.14-16.73.1",
            "SUSE Linux Enterprise Server 12 SP5:kernel-source-azure-4.12.14-16.73.1",
            "SUSE Linux Enterprise Server 12 SP5:kernel-syms-azure-4.12.14-16.73.1",
            "SUSE Linux Enterprise Server for SAP Applications 12 SP5:kernel-azure-4.12.14-16.73.2",
            "SUSE Linux Enterprise Server for SAP Applications 12 SP5:kernel-azure-base-4.12.14-16.73.2",
            "SUSE Linux Enterprise Server for SAP Applications 12 SP5:kernel-azure-devel-4.12.14-16.73.2",
            "SUSE Linux Enterprise Server for SAP Applications 12 SP5:kernel-devel-azure-4.12.14-16.73.1",
            "SUSE Linux Enterprise Server for SAP Applications 12 SP5:kernel-source-azure-4.12.14-16.73.1",
            "SUSE Linux Enterprise Server for SAP Applications 12 SP5:kernel-syms-azure-4.12.14-16.73.1"
          ]
        }
      ],
      "CVSSScoreSets": {}
    },
    {
      "CVE": "CVE-2019-3874",
      "Description": "The SCTP socket buffer used by a userspace application is not accounted by the cgroups subsystem. An attacker can use this flaw to cause a denial of service attack. Kernel 3.10.x and 4.18.x branches are believed to be vulnerable.",
      "Threats": [
        {
          "Type": "Impact",
          "Severity": "important"
        }
      ],
      "References": [
        {
          "URL": "https://www.suse.com/security/cve/CVE-2019-3874.html",
          "Description": "CVE-2019-3874"
        },
        {
          "URL": "https://bugzilla.suse.com/1129898",
          "Description": "SUSE Bug 1129898"
        }
      ],
      "ProductStatuses": [
        {
          "Type": "Fixed",
          "ProductID": [
            "Image SLES12-SP5-Azure-Basic-On-Demand:kernel-azure-4.12.14-16.73.2",
            "Image SLES12-SP5-Azure-HPC-On-Demand:kernel-azure-4.12.14-16.73.2",
            "Image SLES12-SP5-Azure-Standard-On-Demand:kernel-azure-4.12.14-16.73.2",
            "SUSE Linux Enterprise Server 12 SP5:kernel-azure-4.12.14-16.73.2",
            "SUSE Linux Enterprise Server 12 SP5:kernel-azure-base-4.12.14-16.73.2",
            "SUSE Linux Enterprise Server 12 SP5:kernel-azure-devel-4.12.14-16.73.2",
            "SUSE Linux Enterprise Server 12 SP5:kernel-devel-azure-4.12.14-16.73.1",
            "SUSE Linux Enterprise Server 12 SP5:kernel-source-azure-4.12.14-16.73.1",
            "SUSE Linux Enterprise Server 12 SP5:kernel-syms-azure-4.12.14-16.73.1",
            "SUSE Linux Enterprise Server for SAP Applications 12 SP5:kernel-azure-4.12.14-16.73.2",
            "SUSE Linux Enterprise Server for SAP Applications 12 SP5:kernel-azure-base-4.12.14-16.73.2",
            "SUSE Linux Enterprise Server for SAP Applications 12 SP5:kernel-azure-devel-4.12.14-16.73.2",
            "SUSE Linux Enterprise Server for SAP Applications 12 SP5:kernel-devel-azure-4.12.14-16.73.1",
            "SUSE Linux Enterprise Server for SAP Applications 12 SP5:kernel-source-azure-4.12.14-16.73.1",
            "SUSE Linux Enterprise Server for SAP Applications 12 SP5:kernel-syms-azure-4.12.14-16.73.1"
          ]
        }
      ],
      "CVSSScoreSets": {}
    },
    {
      "CVE": "CVE-2019-3900",
      "Description": "An infinite loop issue was found in the vhost_net kernel module in Linux Kernel up to and including v5.1-rc6, while handling incoming packets in handle_rx(). It could occur if one end sends packets faster than the other end can process them. A guest user, maybe remote one, could use this flaw to stall the vhost_net kernel thread, resulting in a DoS scenario.",
      "Threats": [
        {
          "Type": "Impact",
          "Severity": "important"
        }
      ],
      "References": [
        {
          "URL": "https://www.suse.com/security/cve/CVE-2019-3900.html",
          "Description": "CVE-2019-3900"
        },
        {
          "URL": "https://bugzilla.suse.com/1133374",
          "Description": "SUSE Bug 1133374"
        }
      ],
      "ProductStatuses": [
        {
          "Type": "Fixed",
          "ProductID": [
            "Image SLES12-SP5-Azure-Basic-On-Demand:kernel-azure-4.12.14-16.73.2",
            "Image SLES12-SP5-Azure-HPC-On-Demand:kernel-azure-4.12.14-16.73.2",
            "Image SLES12-SP5-Azure-Standard-On-Demand:kernel-azure-4.12.14-16.73.2",
            "SUSE Linux Enterprise Server 12 SP5:kernel-azure-4.12.14-16.73.2",
            "SUSE Linux Enterprise Server 12 SP5:kernel-azure-base-4.12.14-16.73.2",
            "SUSE Linux Enterprise Server 12 SP5:kernel-azure-devel-4.12.14-16.73.2",
            "SUSE Linux Enterprise Server 12 SP5:kernel-devel-azure-4.12.14-16.73.1",
            "SUSE Linux Enterprise Server 12 SP5:kernel-source-azure-4.12.14-16.73.1",
            "SUSE Linux Enterprise Server 12 SP5:kernel-syms-azure-4.12.14-16.73.1",
            "SUSE Linux Enterprise Server for SAP Applications 12 SP5:kernel-azure-4.12.14-16.73.2",
            "SUSE Linux Enterprise Server for SAP Applications 12 SP5:kernel-azure-base-4.12.14-16.73.2",
            "SUSE Linux Enterprise Server for SAP Applications 12 SP5:kernel-azure-devel-4.12.14-16.73.2",
            "SUSE Linux Enterprise Server for SAP Applications 12 SP5:kernel-devel-azure-4.12.14-16.73.1",
            "SUSE Linux Enterprise Server for SAP Applications 12 SP5:kernel-source-azure-4.12.14-16.73.1",
            "SUSE Linux Enterprise Server for SAP Applications 12 SP5:kernel-syms-azure-4.12.14-16.73.1"
          ]
        }
      ],
      "CVSSScoreSets": {}
    },
    {
      "CVE": "CVE-2021-3640",
      "Description": "A flaw use-after-free in function sco_sock_sendmsg() of the Linux kernel HCI subsystem was found in the way user calls ioct UFFDIO_REGISTER or other way triggers race condition of the call sco_conn_del() together with the call sco_sock_sendmsg() with the expected controllable faulting memory page. A privileged local user could use this flaw to crash the system or escalate their privileges on the system.",
      "Threats": [
        {
          "Type": "Impact",
          "Severity": "important"
        }
      ],
      "References": [
        {
          "URL": "https://www.suse.com/security/cve/CVE-2021-3640.html",
          "Description": "CVE-2021-3640"
        },
        {
          "URL": "https://bugzilla.suse.com/1188172",
          "Description": "SUSE Bug 1188172"
        },
        {
          "URL": "https://bugzilla.suse.com/1188613",
          "Description": "SUSE Bug 1188613"
        },
        {
          "URL": "https://bugzilla.suse.com/1191530",
          "Description": "SUSE Bug 1191530"
        },
        {
          "URL": "https://bugzilla.suse.com/1196810",
          "Description": "SUSE Bug 1196810"
        },
        {
          "URL": "https://bugzilla.suse.com/1196914",
          "Description": "SUSE Bug 1196914"
        }
      ],
      "ProductStatuses": [
        {
          "Type": "Fixed",
          "ProductID": [
            "Image SLES12-SP5-Azure-Basic-On-Demand:kernel-azure-4.12.14-16.73.2",
            "Image SLES12-SP5-Azure-HPC-On-Demand:kernel-azure-4.12.14-16.73.2",
            "Image SLES12-SP5-Azure-Standard-On-Demand:kernel-azure-4.12.14-16.73.2",
            "SUSE Linux Enterprise Server 12 SP5:kernel-azure-4.12.14-16.73.2",
            "SUSE Linux Enterprise Server 12 SP5:kernel-azure-base-4.12.14-16.73.2",
            "SUSE Linux Enterprise Server 12 SP5:kernel-azure-devel-4.12.14-16.73.2",
            "SUSE Linux Enterprise Server 12 SP5:kernel-devel-azure-4.12.14-16.73.1",
            "SUSE Linux Enterprise Server 12 SP5:kernel-source-azure-4.12.14-16.73.1",
            "SUSE Linux Enterprise Server 12 SP5:kernel-syms-azure-4.12.14-16.73.1",
            "SUSE Linux Enterprise Server for SAP Applications 12 SP5:kernel-azure-4.12.14-16.73.2",
            "SUSE Linux Enterprise Server for SAP Applications 12 SP5:kernel-azure-base-4.12.14-16.73.2",
            "SUSE Linux Enterprise Server for SAP Applications 12 SP5:kernel-azure-devel-4.12.14-16.73.2",
            "SUSE Linux Enterprise Server for SAP Applications 12 SP5:kernel-devel-azure-4.12.14-16.73.1",
            "SUSE Linux Enterprise Server for SAP Applications 12 SP5:kernel-source-azure-4.12.14-16.73.1",
            "SUSE Linux Enterprise Server for SAP Applications 12 SP5:kernel-syms-azure-4.12.14-16.73.1"
          ]
        }
      ],
      "CVSSScoreSets": {}
    },
    {
      "CVE": "CVE-2021-3653",
      "Description": "A flaw was found in the KVM's AMD code for supporting SVM nested virtualization. The flaw occurs when processing the VMCB (virtual machine control block) provided by the L1 guest to spawn/handle a nested guest (L2). Due to improper validation of the \"int_ctl\" field, this issue could allow a malicious L1 to enable AVIC support (Advanced Virtual Interrupt Controller) for the L2 guest. As a result, the L2 guest would be allowed to read/write physical pages of the host, resulting in a crash of the entire system, leak of sensitive data or potential guest-to-host escape. This flaw affects Linux kernel versions prior to 5.14-rc7.",
      "Threats": [
        {
          "Type": "Impact",
          "Severity": "important"
        }
      ],
      "References": [
        {
          "URL": "https://www.suse.com/security/cve/CVE-2021-3653.html",
          "Description": "CVE-2021-3653"
        },
        {
          "URL": "https://bugzilla.suse.com/1189399",
          "Description": "SUSE Bug 1189399"
        },
        {
          "URL": "https://bugzilla.suse.com/1189420",
          "Description": "SUSE Bug 1189420"
        },
        {
          "URL": "https://bugzilla.suse.com/1196914",
          "Description": "SUSE Bug 1196914"
        }
      ],
      "ProductStatuses": [
        {
          "Type": "Fixed",
          "ProductID": [
            "Image SLES12-SP5-Azure-Basic-On-Demand:kernel-azure-4.12.14-16.73.2",
            "Image SLES12-SP5-Azure-HPC-On-Demand:kernel-azure-4.12.14-16.73.2",
            "Image SLES12-SP5-Azure-Standard-On-Demand:kernel-azure-4.12.14-16.73.2",
            "SUSE Linux Enterprise Server 12 SP5:kernel-azure-4.12.14-16.73.2",
            "SUSE Linux Enterprise Server 12 SP5:kernel-azure-base-4.12.14-16.73.2",
            "SUSE Linux Enterprise Server 12 SP5:kernel-azure-devel-4.12.14-16.73.2",
            "SUSE Linux Enterprise Server 12 SP5:kernel-devel-azure-4.12.14-16.73.1",
            "SUSE Linux Enterprise Server 12 SP5:kernel-source-azure-4.12.14-16.73.1",
            "SUSE Linux Enterprise Server 12 SP5:kernel-syms-azure-4.12.14-16.73.1",
            "SUSE Linux Enterprise Server for SAP Applications 12 SP5:kernel-azure-4.12.14-16.73.2",
            "SUSE Linux Enterprise Server for SAP Applications 12 SP5:kernel-azure-base-4.12.14-16.73.2",
            "SUSE Linux Enterprise Server for SAP Applications 12 SP5:kernel-azure-devel-4.12.14-16.73.2",
            "SUSE Linux Enterprise Server for SAP Applications 12 SP5:kernel-devel-azure-4.12.14-16.73.1",
            "SUSE Linux Enterprise Server for SAP Applications 12 SP5:kernel-source-azure-4.12.14-16.73.1",
            "SUSE Linux Enterprise Server for SAP Applications 12 SP5:kernel-syms-azure-4.12.14-16.73.1"
          ]
        }
      ],
      "CVSSScoreSets": {}
    },
    {
      "CVE": "CVE-2021-3656",
      "Description": "A flaw was found in the KVM's AMD code for supporting SVM nested virtualization. The flaw occurs when processing the VMCB (virtual machine control block) provided by the L1 guest to spawn/handle a nested guest (L2). Due to improper validation of the \"virt_ext\" field, this issue could allow a malicious L1 to disable both VMLOAD/VMSAVE intercepts and VLS (Virtual VMLOAD/VMSAVE) for the L2 guest. As a result, the L2 guest would be allowed to read/write physical pages of the host, resulting in a crash of the entire system, leak of sensitive data or potential guest-to-host escape.",
      "Threats": [
        {
          "Type": "Impact",
          "Severity": "important"
        }
      ],
      "References": [
        {
          "URL": "https://www.suse.com/security/cve/CVE-2021-3656.html",
          "Description": "CVE-2021-3656"
        },
        {
          "URL": "https://bugzilla.suse.com/1189400",
          "Description": "SUSE Bug 1189400"
        },
        {
          "URL": "https://bugzilla.suse.com/1189418",
          "Description": "SUSE Bug 1189418"
        }
      ],
      "ProductStatuses": [
        {
          "Type": "Fixed",
          "ProductID": [
            "Image SLES12-SP5-Azure-Basic-On-Demand:kernel-azure-4.12.14-16.73.2",
            "Image SLES12-SP5-Azure-HPC-On-Demand:kernel-azure-4.12.14-16.73.2",
            "Image SLES12-SP5-Azure-Standard-On-Demand:kernel-azure-4.12.14-16.73.2",
            "SUSE Linux Enterprise Server 12 SP5:kernel-azure-4.12.14-16.73.2",
            "SUSE Linux Enterprise Server 12 SP5:kernel-azure-base-4.12.14-16.73.2",
            "SUSE Linux Enterprise Server 12 SP5:kernel-azure-devel-4.12.14-16.73.2",
            "SUSE Linux Enterprise Server 12 SP5:kernel-devel-azure-4.12.14-16.73.1",
            "SUSE Linux Enterprise Server 12 SP5:kernel-source-azure-4.12.14-16.73.1",
            "SUSE Linux Enterprise Server 12 SP5:kernel-syms-azure-4.12.14-16.73.1",
            "SUSE Linux Enterprise Server for SAP Applications 12 SP5:kernel-azure-4.12.14-16.73.2",
            "SUSE Linux Enterprise Server for SAP Applications 12 SP5:kernel-azure-base-4.12.14-16.73.2",
            "SUSE Linux Enterprise Server for SAP Applications 12 SP5:kernel-azure-devel-4.12.14-16.73.2",
            "SUSE Linux Enterprise Server for SAP Applications 12 SP5:kernel-devel-azure-4.12.14-16.73.1",
            "SUSE Linux Enterprise Server for SAP Applications 12 SP5:kernel-source-azure-4.12.14-16.73.1",
            "SUSE Linux Enterprise Server for SAP Applications 12 SP5:kernel-syms-azure-4.12.14-16.73.1"
          ]
        }
      ],
      "CVSSScoreSets": {}
    },
    {
      "CVE": "CVE-2021-3679",
      "Description": "A lack of CPU resource in the Linux kernel tracing module functionality in versions prior to 5.14-rc3 was found in the way user uses trace ring buffer in a specific way. Only privileged local users (with CAP_SYS_ADMIN capability) could use this flaw to starve the resources causing denial of service.",
      "Threats": [
        {
          "Type": "Impact",
          "Severity": "moderate"
        }
      ],
      "References": [
        {
          "URL": "https://www.suse.com/security/cve/CVE-2021-3679.html",
          "Description": "CVE-2021-3679"
        },
        {
          "URL": "https://bugzilla.suse.com/1189057",
          "Description": "SUSE Bug 1189057"
        }
      ],
      "ProductStatuses": [
        {
          "Type": "Fixed",
          "ProductID": [
            "Image SLES12-SP5-Azure-Basic-On-Demand:kernel-azure-4.12.14-16.73.2",
            "Image SLES12-SP5-Azure-HPC-On-Demand:kernel-azure-4.12.14-16.73.2",
            "Image SLES12-SP5-Azure-Standard-On-Demand:kernel-azure-4.12.14-16.73.2",
            "SUSE Linux Enterprise Server 12 SP5:kernel-azure-4.12.14-16.73.2",
            "SUSE Linux Enterprise Server 12 SP5:kernel-azure-base-4.12.14-16.73.2",
            "SUSE Linux Enterprise Server 12 SP5:kernel-azure-devel-4.12.14-16.73.2",
            "SUSE Linux Enterprise Server 12 SP5:kernel-devel-azure-4.12.14-16.73.1",
            "SUSE Linux Enterprise Server 12 SP5:kernel-source-azure-4.12.14-16.73.1",
            "SUSE Linux Enterprise Server 12 SP5:kernel-syms-azure-4.12.14-16.73.1",
            "SUSE Linux Enterprise Server for SAP Applications 12 SP5:kernel-azure-4.12.14-16.73.2",
            "SUSE Linux Enterprise Server for SAP Applications 12 SP5:kernel-azure-base-4.12.14-16.73.2",
            "SUSE Linux Enterprise Server for SAP Applications 12 SP5:kernel-azure-devel-4.12.14-16.73.2",
            "SUSE Linux Enterprise Server for SAP Applications 12 SP5:kernel-devel-azure-4.12.14-16.73.1",
            "SUSE Linux Enterprise Server for SAP Applications 12 SP5:kernel-source-azure-4.12.14-16.73.1",
            "SUSE Linux Enterprise Server for SAP Applications 12 SP5:kernel-syms-azure-4.12.14-16.73.1"
          ]
        }
      ],
      "CVSSScoreSets": {}
    },
    {
      "CVE": "CVE-2021-3732",
      "Description": "A flaw was found in the Linux kernel's OverlayFS subsystem in the way the user mounts the TmpFS filesystem with OverlayFS. This flaw allows a local user to gain access to hidden files that should not be accessible.",
      "Threats": [
        {
          "Type": "Impact",
          "Severity": "low"
        }
      ],
      "References": [
        {
          "URL": "https://www.suse.com/security/cve/CVE-2021-3732.html",
          "Description": "CVE-2021-3732"
        },
        {
          "URL": "https://bugzilla.suse.com/1189706",
          "Description": "SUSE Bug 1189706"
        }
      ],
      "ProductStatuses": [
        {
          "Type": "Fixed",
          "ProductID": [
            "Image SLES12-SP5-Azure-Basic-On-Demand:kernel-azure-4.12.14-16.73.2",
            "Image SLES12-SP5-Azure-HPC-On-Demand:kernel-azure-4.12.14-16.73.2",
            "Image SLES12-SP5-Azure-Standard-On-Demand:kernel-azure-4.12.14-16.73.2",
            "SUSE Linux Enterprise Server 12 SP5:kernel-azure-4.12.14-16.73.2",
            "SUSE Linux Enterprise Server 12 SP5:kernel-azure-base-4.12.14-16.73.2",
            "SUSE Linux Enterprise Server 12 SP5:kernel-azure-devel-4.12.14-16.73.2",
            "SUSE Linux Enterprise Server 12 SP5:kernel-devel-azure-4.12.14-16.73.1",
            "SUSE Linux Enterprise Server 12 SP5:kernel-source-azure-4.12.14-16.73.1",
            "SUSE Linux Enterprise Server 12 SP5:kernel-syms-azure-4.12.14-16.73.1",
            "SUSE Linux Enterprise Server for SAP Applications 12 SP5:kernel-azure-4.12.14-16.73.2",
            "SUSE Linux Enterprise Server for SAP Applications 12 SP5:kernel-azure-base-4.12.14-16.73.2",
            "SUSE Linux Enterprise Server for SAP Applications 12 SP5:kernel-azure-devel-4.12.14-16.73.2",
            "SUSE Linux Enterprise Server for SAP Applications 12 SP5:kernel-devel-azure-4.12.14-16.73.1",
            "SUSE Linux Enterprise Server for SAP Applications 12 SP5:kernel-source-azure-4.12.14-16.73.1",
            "SUSE Linux Enterprise Server for SAP Applications 12 SP5:kernel-syms-azure-4.12.14-16.73.1"
          ]
        }
      ],
      "CVSSScoreSets": {}
    },
    {
      "CVE": "CVE-2021-3753",
      "Description": "A race problem was seen in the vt_k_ioctl in drivers/tty/vt/vt_ioctl.c in the Linux kernel, which may cause an out of bounds read in vt as the write access to vc_mode is not protected by lock-in vt_ioctl (KDSETMDE). The highest threat from this vulnerability is to data confidentiality.",
      "Threats": [
        {
          "Type": "Impact",
          "Severity": "low"
        }
      ],
      "References": [
        {
          "URL": "https://www.suse.com/security/cve/CVE-2021-3753.html",
          "Description": "CVE-2021-3753"
        },
        {
          "URL": "https://bugzilla.suse.com/1190025",
          "Description": "SUSE Bug 1190025"
        }
      ],
      "ProductStatuses": [
        {
          "Type": "Fixed",
          "ProductID": [
            "Image SLES12-SP5-Azure-Basic-On-Demand:kernel-azure-4.12.14-16.73.2",
            "Image SLES12-SP5-Azure-HPC-On-Demand:kernel-azure-4.12.14-16.73.2",
            "Image SLES12-SP5-Azure-Standard-On-Demand:kernel-azure-4.12.14-16.73.2",
            "SUSE Linux Enterprise Server 12 SP5:kernel-azure-4.12.14-16.73.2",
            "SUSE Linux Enterprise Server 12 SP5:kernel-azure-base-4.12.14-16.73.2",
            "SUSE Linux Enterprise Server 12 SP5:kernel-azure-devel-4.12.14-16.73.2",
            "SUSE Linux Enterprise Server 12 SP5:kernel-devel-azure-4.12.14-16.73.1",
            "SUSE Linux Enterprise Server 12 SP5:kernel-source-azure-4.12.14-16.73.1",
            "SUSE Linux Enterprise Server 12 SP5:kernel-syms-azure-4.12.14-16.73.1",
            "SUSE Linux Enterprise Server for SAP Applications 12 SP5:kernel-azure-4.12.14-16.73.2",
            "SUSE Linux Enterprise Server for SAP Applications 12 SP5:kernel-azure-base-4.12.14-16.73.2",
            "SUSE Linux Enterprise Server for SAP Applications 12 SP5:kernel-azure-devel-4.12.14-16.73.2",
            "SUSE Linux Enterprise Server for SAP Applications 12 SP5:kernel-devel-azure-4.12.14-16.73.1",
            "SUSE Linux Enterprise Server for SAP Applications 12 SP5:kernel-source-azure-4.12.14-16.73.1",
            "SUSE Linux Enterprise Server for SAP Applications 12 SP5:kernel-syms-azure-4.12.14-16.73.1"
          ]
        }
      ],
      "CVSSScoreSets": {}
    },
    {
      "CVE": "CVE-2021-3759",
      "Description": "A memory overflow vulnerability was found in the Linux kernel's ipc functionality of the memcg subsystem, in the way a user calls the semget function multiple times, creating semaphores. This flaw allows a local user to starve the resources, causing a denial of service. The highest threat from this vulnerability is to system availability.",
      "Threats": [
        {
          "Type": "Impact",
          "Severity": "moderate"
        }
      ],
      "References": [
        {
          "URL": "https://www.suse.com/security/cve/CVE-2021-3759.html",
          "Description": "CVE-2021-3759"
        },
        {
          "URL": "https://bugzilla.suse.com/1190115",
          "Description": "SUSE Bug 1190115"
        }
      ],
      "ProductStatuses": [
        {
          "Type": "Fixed",
          "ProductID": [
            "Image SLES12-SP5-Azure-Basic-On-Demand:kernel-azure-4.12.14-16.73.2",
            "Image SLES12-SP5-Azure-HPC-On-Demand:kernel-azure-4.12.14-16.73.2",
            "Image SLES12-SP5-Azure-Standard-On-Demand:kernel-azure-4.12.14-16.73.2",
            "SUSE Linux Enterprise Server 12 SP5:kernel-azure-4.12.14-16.73.2",
            "SUSE Linux Enterprise Server 12 SP5:kernel-azure-base-4.12.14-16.73.2",
            "SUSE Linux Enterprise Server 12 SP5:kernel-azure-devel-4.12.14-16.73.2",
            "SUSE Linux Enterprise Server 12 SP5:kernel-devel-azure-4.12.14-16.73.1",
            "SUSE Linux Enterprise Server 12 SP5:kernel-source-azure-4.12.14-16.73.1",
            "SUSE Linux Enterprise Server 12 SP5:kernel-syms-azure-4.12.14-16.73.1",
            "SUSE Linux Enterprise Server for SAP Applications 12 SP5:kernel-azure-4.12.14-16.73.2",
            "SUSE Linux Enterprise Server for SAP Applications 12 SP5:kernel-azure-base-4.12.14-16.73.2",
            "SUSE Linux Enterprise Server for SAP Applications 12 SP5:kernel-azure-devel-4.12.14-16.73.2",
            "SUSE Linux Enterprise Server for SAP Applications 12 SP5:kernel-devel-azure-4.12.14-16.73.1",
            "SUSE Linux Enterprise Server for SAP Applications 12 SP5:kernel-source-azure-4.12.14-16.73.1",
            "SUSE Linux Enterprise Server for SAP Applications 12 SP5:kernel-syms-azure-4.12.14-16.73.1"
          ]
        }
      ],
      "CVSSScoreSets": {}
    },
    {
      "CVE": "CVE-2021-38160",
      "Description": "** DISPUTED ** In drivers/char/virtio_console.c in the Linux kernel before 5.13.4, data corruption or loss can be triggered by an untrusted device that supplies a buf-\u003elen value exceeding the buffer size. NOTE: the vendor indicates that the cited data corruption is not a vulnerability in any existing use case; the length validation was added solely for robustness in the face of anomalous host OS behavior.",
      "Threats": [
        {
          "Type": "Impact",
          "Severity": "moderate"
        }
      ],
      "References": [
        {
          "URL": "https://www.suse.com/security/cve/CVE-2021-38160.html",
          "Description": "CVE-2021-38160"
        },
        {
          "URL": "https://bugzilla.suse.com/1190117",
          "Description": "SUSE Bug 1190117"
        },
        {
          "URL": "https://bugzilla.suse.com/1190118",
          "Description": "SUSE Bug 1190118"
        },
        {
          "URL": "https://bugzilla.suse.com/1196914",
          "Description": "SUSE Bug 1196914"
        }
      ],
      "ProductStatuses": [
        {
          "Type": "Fixed",
          "ProductID": [
            "Image SLES12-SP5-Azure-Basic-On-Demand:kernel-azure-4.12.14-16.73.2",
            "Image SLES12-SP5-Azure-HPC-On-Demand:kernel-azure-4.12.14-16.73.2",
            "Image SLES12-SP5-Azure-Standard-On-Demand:kernel-azure-4.12.14-16.73.2",
            "SUSE Linux Enterprise Server 12 SP5:kernel-azure-4.12.14-16.73.2",
            "SUSE Linux Enterprise Server 12 SP5:kernel-azure-base-4.12.14-16.73.2",
            "SUSE Linux Enterprise Server 12 SP5:kernel-azure-devel-4.12.14-16.73.2",
            "SUSE Linux Enterprise Server 12 SP5:kernel-devel-azure-4.12.14-16.73.1",
            "SUSE Linux Enterprise Server 12 SP5:kernel-source-azure-4.12.14-16.73.1",
            "SUSE Linux Enterprise Server 12 SP5:kernel-syms-azure-4.12.14-16.73.1",
            "SUSE Linux Enterprise Server for SAP Applications 12 SP5:kernel-azure-4.12.14-16.73.2",
            "SUSE Linux Enterprise Server for SAP Applications 12 SP5:kernel-azure-base-4.12.14-16.73.2",
            "SUSE Linux Enterprise Server for SAP Applications 12 SP5:kernel-azure-devel-4.12.14-16.73.2",
            "SUSE Linux Enterprise Server for SAP Applications 12 SP5:kernel-devel-azure-4.12.14-16.73.1",
            "SUSE Linux Enterprise Server for SAP Applications 12 SP5:kernel-source-azure-4.12.14-16.73.1",
            "SUSE Linux Enterprise Server for SAP Applications 12 SP5:kernel-syms-azure-4.12.14-16.73.1"
          ]
        }
      ],
      "CVSSScoreSets": {}
    },
    {
      "CVE": "CVE-2021-38198",
      "Description": "arch/x86/kvm/mmu/paging_tmpl.h in the Linux kernel before 5.12.11 incorrectly computes the access permissions of a shadow page, leading to a missing guest protection page fault.",
      "Threats": [
        {
          "Type": "Impact",
          "Severity": "important"
        }
      ],
      "References": [
        {
          "URL": "https://www.suse.com/security/cve/CVE-2021-38198.html",
          "Description": "CVE-2021-38198"
        },
        {
          "URL": "https://bugzilla.suse.com/1189262",
          "Description": "SUSE Bug 1189262"
        },
        {
          "URL": "https://bugzilla.suse.com/1189278",
          "Description": "SUSE Bug 1189278"
        },
        {
          "URL": "https://bugzilla.suse.com/1196914",
          "Description": "SUSE Bug 1196914"
        }
      ],
      "ProductStatuses": [
        {
          "Type": "Fixed",
          "ProductID": [
            "Image SLES12-SP5-Azure-Basic-On-Demand:kernel-azure-4.12.14-16.73.2",
            "Image SLES12-SP5-Azure-HPC-On-Demand:kernel-azure-4.12.14-16.73.2",
            "Image SLES12-SP5-Azure-Standard-On-Demand:kernel-azure-4.12.14-16.73.2",
            "SUSE Linux Enterprise Server 12 SP5:kernel-azure-4.12.14-16.73.2",
            "SUSE Linux Enterprise Server 12 SP5:kernel-azure-base-4.12.14-16.73.2",
            "SUSE Linux Enterprise Server 12 SP5:kernel-azure-devel-4.12.14-16.73.2",
            "SUSE Linux Enterprise Server 12 SP5:kernel-devel-azure-4.12.14-16.73.1",
            "SUSE Linux Enterprise Server 12 SP5:kernel-source-azure-4.12.14-16.73.1",
            "SUSE Linux Enterprise Server 12 SP5:kernel-syms-azure-4.12.14-16.73.1",
            "SUSE Linux Enterprise Server for SAP Applications 12 SP5:kernel-azure-4.12.14-16.73.2",
            "SUSE Linux Enterprise Server for SAP Applications 12 SP5:kernel-azure-base-4.12.14-16.73.2",
            "SUSE Linux Enterprise Server for SAP Applications 12 SP5:kernel-azure-devel-4.12.14-16.73.2",
            "SUSE Linux Enterprise Server for SAP Applications 12 SP5:kernel-devel-azure-4.12.14-16.73.1",
            "SUSE Linux Enterprise Server for SAP Applications 12 SP5:kernel-source-azure-4.12.14-16.73.1",
            "SUSE Linux Enterprise Server for SAP Applications 12 SP5:kernel-syms-azure-4.12.14-16.73.1"
          ]
        }
      ],
      "CVSSScoreSets": {}
    },
    {
      "CVE": "CVE-2021-38204",
      "Description": "drivers/usb/host/max3421-hcd.c in the Linux kernel before 5.13.6 allows physically proximate attackers to cause a denial of service (use-after-free and panic) by removing a MAX-3421 USB device in certain situations.",
      "Threats": [
        {
          "Type": "Impact",
          "Severity": "moderate"
        }
      ],
      "References": [
        {
          "URL": "https://www.suse.com/security/cve/CVE-2021-38204.html",
          "Description": "CVE-2021-38204"
        },
        {
          "URL": "https://bugzilla.suse.com/1189291",
          "Description": "SUSE Bug 1189291"
        }
      ],
      "ProductStatuses": [
        {
          "Type": "Fixed",
          "ProductID": [
            "Image SLES12-SP5-Azure-Basic-On-Demand:kernel-azure-4.12.14-16.73.2",
            "Image SLES12-SP5-Azure-HPC-On-Demand:kernel-azure-4.12.14-16.73.2",
            "Image SLES12-SP5-Azure-Standard-On-Demand:kernel-azure-4.12.14-16.73.2",
            "SUSE Linux Enterprise Server 12 SP5:kernel-azure-4.12.14-16.73.2",
            "SUSE Linux Enterprise Server 12 SP5:kernel-azure-base-4.12.14-16.73.2",
            "SUSE Linux Enterprise Server 12 SP5:kernel-azure-devel-4.12.14-16.73.2",
            "SUSE Linux Enterprise Server 12 SP5:kernel-devel-azure-4.12.14-16.73.1",
            "SUSE Linux Enterprise Server 12 SP5:kernel-source-azure-4.12.14-16.73.1",
            "SUSE Linux Enterprise Server 12 SP5:kernel-syms-azure-4.12.14-16.73.1",
            "SUSE Linux Enterprise Server for SAP Applications 12 SP5:kernel-azure-4.12.14-16.73.2",
            "SUSE Linux Enterprise Server for SAP Applications 12 SP5:kernel-azure-base-4.12.14-16.73.2",
            "SUSE Linux Enterprise Server for SAP Applications 12 SP5:kernel-azure-devel-4.12.14-16.73.2",
            "SUSE Linux Enterprise Server for SAP Applications 12 SP5:kernel-devel-azure-4.12.14-16.73.1",
            "SUSE Linux Enterprise Server for SAP Applications 12 SP5:kernel-source-azure-4.12.14-16.73.1",
            "SUSE Linux Enterprise Server for SAP Applications 12 SP5:kernel-syms-azure-4.12.14-16.73.1"
          ]
        }
      ],
      "CVSSScoreSets": {}
    }
  ]
}