{
  "name": "unbound",
  "secfixes": {
    "1.10.1-r0": [
      "CVE-2020-12662",
      "CVE-2020-12663"
    ],
    "1.16.2-r0": [
      "CVE-2022-30698",
      "CVE-2022-30699"
    ],
    "1.16.3-r0": [
      "CVE-2022-3204"
    ],
    "1.19.1-r0": [
      "CVE-2023-50387",
      "CVE-2023-50868"
    ],
    "1.19.2-r0": [
      "CVE-2024-1931"
    ],
    "1.20.0-r0": [
      "CVE-2024-33655"
    ],
    "1.9.4-r0": [
      "CVE-2019-16866"
    ],
    "1.9.5-r0": [
      "CVE-2019-18934"
    ]
  },
  "apkurl": "{{urlprefix}}/{{distroversion}}/{{reponame}}/{{arch}}/{{pkg.name}}-{{pkg.ver}}.apk",
  "archs": [
    "aarch64",
    "armhf",
    "armv7",
    "ppc64le",
    "s390x",
    "x86",
    "x86_64"
  ],
  "urlprefix": "https://dl-cdn.alpinelinux.org/alpine",
  "reponame": "main",
  "distroversion": "v3.18"
}