{
  "Title": "Security update for gpg2",
  "Tracking": {
    "ID": "SUSE-SU-2022:2546-1",
    "Status": "Final",
    "Version": "1",
    "InitialReleaseDate": "2022-07-25T12:43:40Z",
    "CurrentReleaseDate": "2022-07-25T12:43:40Z",
    "RevisionHistory": [
      {
        "Number": "1",
        "Date": "2022-07-25T12:43:40Z",
        "Description": "current"
      }
    ]
  },
  "Notes": [
    {
      "Text": "Security update for gpg2",
      "Title": "Topic",
      "Type": "Summary"
    },
    {
      "Text": "This update for gpg2 fixes the following issues:\n\n- CVE-2022-34903: Fixed a status injection vulnerability (bsc#1201225).\n- Use AES as default cipher instead of 3DES when we are in FIPS mode. (bsc#1196125)\n",
      "Title": "Details",
      "Type": "General"
    },
    {
      "Text": "The CVRF data is provided by SUSE under the Creative Commons License 4.0 with Attribution (CC-BY-4.0).",
      "Title": "Terms of Use",
      "Type": "Legal Disclaimer"
    },
    {
      "Text": "Container bci/bci-init:15.3-2022-2546,Container bci/node:12-2022-2546,Container bci/python:3-2022-2546,Container rancher/elemental-builder-image/5.3:latest-2022-2546,Container rancher/elemental-operator/5.3:latest-2022-2546,Container rancher/elemental-operator:latest-2022-2546,Container rancher/elemental-teal-iso/5.3:latest-2022-2546,Container rancher/elemental-teal-iso/5.4:latest-2022-2546,Container rancher/elemental-teal-rt/5.3:latest-2022-2546,Container rancher/elemental-teal-rt/5.4:latest-2022-2546,Container rancher/elemental-teal/5.3:latest-2022-2546,Container rancher/elemental-teal/5.4:latest-2022-2546,Container rancher/seedimage-builder/5.3:latest-2022-2546,Container rancher/seedimage-builder:latest-2022-2546,Container ses/7.1/ceph/grafana:latest-2022-2546,Container ses/7.1/ceph/haproxy:latest-2022-2546,Container ses/7.1/ceph/keepalived:latest-2022-2546,Container ses/7.1/ceph/prometheus-alertmanager:latest-2022-2546,Container ses/7.1/ceph/prometheus-node-exporter:latest-2022-2546,Container ses/7.1/ceph/prometheus-server:latest-2022-2546,Container ses/7.1/ceph/prometheus-snmp_notifier:latest-2022-2546,Container ses/7.1/cephcsi/cephcsi:latest-2022-2546,Container ses/7.1/cephcsi/csi-attacher:v4.1.0-2022-2546,Container ses/7.1/cephcsi/csi-node-driver-registrar:v2.7.0-2022-2546,Container ses/7.1/cephcsi/csi-provisioner:v3.4.0-2022-2546,Container ses/7.1/cephcsi/csi-resizer:v1.7.0-2022-2546,Container ses/7.1/cephcsi/csi-snapshotter:v6.2.1-2022-2546,Container ses/7.1/rook/ceph:latest-2022-2546,Container suse/hpc/warewulf4-x86_64/sle-hpc-node:latest-2022-2546,Container suse/ltss/sle15.3/sle15:15.3-2022-2546,Container suse/ltss/sle15.4/sle15:15.4-2022-2546,Container suse/manager/4.3/proxy-httpd:latest-2022-2546,Container suse/manager/4.3/proxy-salt-broker:latest-2022-2546,Container suse/rmt-server:latest-2022-2546,Container suse/sle-micro-rancher/5.2:latest-2022-2546,Container suse/sle-micro-rancher/5.3:latest-2022-2546,Container suse/sle-micro-rancher/5.4:latest-2022-2546,Container suse/sle-micro/5.1/toolbox:latest-2022-2546,Container suse/sle-micro/5.2/toolbox:latest-2022-2546,Container suse/sle-micro/5.3/toolbox:latest-2022-2546,Container suse/sle-micro/5.4/toolbox:latest-2022-2546,Container suse/sle-micro/5.5/toolbox:latest-2022-2546,Container suse/sle-micro/5.5:latest-2022-2546,Container suse/sle-micro/base-5.5:latest-2022-2546,Container suse/sle15:15.3-2022-2546,Container suse/sle15:15.4-2022-2546,Container suse/sle15:15.5-2022-2546,Container suse/sles/15.5/cdi-importer:1.55.0-2022-2546,Container suse/sles/15.5/libguestfs-tools:0.58.0-2022-2546,Image SLES15-SP3-BYOS-Azure-2022-2546,Image SLES15-SP3-BYOS-EC2-HVM-2022-2546,Image SLES15-SP3-BYOS-GCE-2022-2546,Image SLES15-SP3-CHOST-BYOS-Aliyun-2022-2546,Image SLES15-SP3-CHOST-BYOS-Azure-2022-2546,Image SLES15-SP3-CHOST-BYOS-EC2-2022-2546,Image SLES15-SP3-CHOST-BYOS-GCE-2022-2546,Image SLES15-SP3-CHOST-BYOS-SAP-CCloud-2022-2546,Image SLES15-SP3-HPC-BYOS-Azure-2022-2546,Image SLES15-SP3-HPC-BYOS-EC2-HVM-2022-2546,Image SLES15-SP3-HPC-BYOS-GCE-2022-2546,Image SLES15-SP3-Manager-4-2-Proxy-BYOS-Azure-2022-2546,Image SLES15-SP3-Manager-4-2-Proxy-BYOS-EC2-HVM-2022-2546,Image SLES15-SP3-Manager-4-2-Proxy-BYOS-GCE-2022-2546,Image SLES15-SP3-Manager-4-2-Server-BYOS-Azure-2022-2546,Image SLES15-SP3-Manager-4-2-Server-BYOS-EC2-HVM-2022-2546,Image SLES15-SP3-Manager-4-2-Server-BYOS-GCE-2022-2546,Image SLES15-SP3-Micro-5-1-BYOS-Azure-2022-2546,Image SLES15-SP3-Micro-5-1-BYOS-EC2-HVM-2022-2546,Image SLES15-SP3-Micro-5-1-BYOS-GCE-2022-2546,Image SLES15-SP3-Micro-5-2-BYOS-Azure-2022-2546,Image SLES15-SP3-Micro-5-2-BYOS-EC2-HVM-2022-2546,Image SLES15-SP3-Micro-5-2-BYOS-GCE-2022-2546,Image SLES15-SP3-SAP-Azure-LI-BYOS-Production-2022-2546,Image SLES15-SP3-SAP-Azure-VLI-BYOS-Production-2022-2546,Image SLES15-SP3-SAP-BYOS-Azure-2022-2546,Image SLES15-SP3-SAP-BYOS-EC2-HVM-2022-2546,Image SLES15-SP3-SAP-BYOS-GCE-2022-2546,Image SLES15-SP3-SAPCAL-Azure-2022-2546,Image SLES15-SP3-SAPCAL-EC2-HVM-2022-2546,Image SLES15-SP3-SAPCAL-GCE-2022-2546,Image SLES15-SP4-2022-2546,Image SLES15-SP4-Azure-Basic-2022-2546,Image SLES15-SP4-Azure-Standard-2022-2546,Image SLES15-SP4-BYOS-2022-2546,Image SLES15-SP4-BYOS-Azure-2022-2546,Image SLES15-SP4-BYOS-EC2-2022-2546,Image SLES15-SP4-BYOS-GCE-2022-2546,Image SLES15-SP4-CHOST-BYOS-2022-2546,Image SLES15-SP4-CHOST-BYOS-Aliyun-2022-2546,Image SLES15-SP4-CHOST-BYOS-Azure-2022-2546,Image SLES15-SP4-CHOST-BYOS-EC2-2022-2546,Image SLES15-SP4-CHOST-BYOS-GCE-2022-2546,Image SLES15-SP4-CHOST-BYOS-SAP-CCloud-2022-2546,Image SLES15-SP4-EC2-2022-2546,Image SLES15-SP4-EC2-ECS-HVM-2022-2546,Image SLES15-SP4-GCE-2022-2546,Image SLES15-SP4-HPC-2022-2546,Image SLES15-SP4-HPC-Azure-2022-2546,Image SLES15-SP4-HPC-BYOS-2022-2546,Image SLES15-SP4-HPC-BYOS-Azure-2022-2546,Image SLES15-SP4-HPC-BYOS-EC2-2022-2546,Image SLES15-SP4-HPC-BYOS-GCE-2022-2546,Image SLES15-SP4-HPC-EC2-2022-2546,Image SLES15-SP4-HPC-GCE-2022-2546,Image SLES15-SP4-Hardened-BYOS-2022-2546,Image SLES15-SP4-Hardened-BYOS-Azure-2022-2546,Image SLES15-SP4-Hardened-BYOS-EC2-2022-2546,Image SLES15-SP4-Hardened-BYOS-GCE-2022-2546,Image SLES15-SP4-Manager-Proxy-4-3-BYOS-2022-2546,Image SLES15-SP4-Manager-Proxy-4-3-BYOS-Azure-2022-2546,Image SLES15-SP4-Manager-Proxy-4-3-BYOS-EC2-2022-2546,Image SLES15-SP4-Manager-Proxy-4-3-BYOS-GCE-2022-2546,Image SLES15-SP4-Manager-Server-4-3-2022-2546,Image SLES15-SP4-Manager-Server-4-3-Azure-llc-2022-2546,Image SLES15-SP4-Manager-Server-4-3-Azure-ltd-2022-2546,Image SLES15-SP4-Manager-Server-4-3-BYOS-2022-2546,Image SLES15-SP4-Manager-Server-4-3-BYOS-Azure-2022-2546,Image SLES15-SP4-Manager-Server-4-3-BYOS-EC2-2022-2546,Image SLES15-SP4-Manager-Server-4-3-BYOS-GCE-2022-2546,Image SLES15-SP4-Manager-Server-4-3-EC2-llc-2022-2546,Image SLES15-SP4-Manager-Server-4-3-EC2-ltd-2022-2546,Image SLES15-SP4-Micro-5-3-2022-2546,Image SLES15-SP4-Micro-5-3-Azure-2022-2546,Image SLES15-SP4-Micro-5-3-BYOS-2022-2546,Image SLES15-SP4-Micro-5-3-BYOS-Azure-2022-2546,Image SLES15-SP4-Micro-5-3-BYOS-EC2-2022-2546,Image SLES15-SP4-Micro-5-3-BYOS-GCE-2022-2546,Image SLES15-SP4-Micro-5-3-EC2-2022-2546,Image SLES15-SP4-Micro-5-3-GCE-2022-2546,Image SLES15-SP4-Micro-5-4-2022-2546,Image SLES15-SP4-Micro-5-4-Azure-2022-2546,Image SLES15-SP4-Micro-5-4-BYOS-2022-2546,Image SLES15-SP4-Micro-5-4-BYOS-Azure-2022-2546,Image SLES15-SP4-Micro-5-4-BYOS-EC2-2022-2546,Image SLES15-SP4-Micro-5-4-BYOS-GCE-2022-2546,Image SLES15-SP4-Micro-5-4-EC2-2022-2546,Image SLES15-SP4-Micro-5-4-GCE-2022-2546,Image SLES15-SP4-SAP-2022-2546,Image SLES15-SP4-SAP-Azure-2022-2546,Image SLES15-SP4-SAP-Azure-LI-BYOS-2022-2546,Image SLES15-SP4-SAP-Azure-LI-BYOS-Production-2022-2546,Image SLES15-SP4-SAP-Azure-VLI-BYOS-2022-2546,Image SLES15-SP4-SAP-Azure-VLI-BYOS-Production-2022-2546,Image SLES15-SP4-SAP-BYOS-2022-2546,Image SLES15-SP4-SAP-BYOS-Azure-2022-2546,Image SLES15-SP4-SAP-BYOS-EC2-2022-2546,Image SLES15-SP4-SAP-BYOS-GCE-2022-2546,Image SLES15-SP4-SAP-EC2-2022-2546,Image SLES15-SP4-SAP-GCE-2022-2546,Image SLES15-SP4-SAP-Hardened-2022-2546,Image SLES15-SP4-SAP-Hardened-Azure-2022-2546,Image SLES15-SP4-SAP-Hardened-BYOS-2022-2546,Image SLES15-SP4-SAP-Hardened-BYOS-Azure-2022-2546,Image SLES15-SP4-SAP-Hardened-BYOS-EC2-2022-2546,Image SLES15-SP4-SAP-Hardened-BYOS-GCE-2022-2546,Image SLES15-SP4-SAP-Hardened-EC2-2022-2546,Image SLES15-SP4-SAP-Hardened-GCE-2022-2546,Image SLES15-SP4-SAPCAL-2022-2546,Image SLES15-SP4-SAPCAL-Azure-2022-2546,Image SLES15-SP4-SAPCAL-EC2-2022-2546,Image SLES15-SP4-SAPCAL-GCE-2022-2546,Image SLES15-SP4-SUSE-Rancher-Setup-BYOS-2022-2546,Image SLES15-SP4-SUSE-Rancher-Setup-BYOS-EC2-2022-2546,Image SLES15-SP4-SUSE-Rancher-Setup-BYOS-EC2-HVM-2022-2546,Image SLES15-SP5-Azure-Basic-2022-2546,Image SLES15-SP5-Azure-Standard-2022-2546,Image SLES15-SP5-BYOS-Azure-2022-2546,Image SLES15-SP5-BYOS-EC2-2022-2546,Image SLES15-SP5-BYOS-GCE-2022-2546,Image SLES15-SP5-CHOST-BYOS-Aliyun-2022-2546,Image SLES15-SP5-CHOST-BYOS-Azure-2022-2546,Image SLES15-SP5-CHOST-BYOS-EC2-2022-2546,Image SLES15-SP5-CHOST-BYOS-GCE-2022-2546,Image SLES15-SP5-CHOST-BYOS-SAP-CCloud-2022-2546,Image SLES15-SP5-EC2-2022-2546,Image SLES15-SP5-EC2-ECS-HVM-2022-2546,Image SLES15-SP5-GCE-2022-2546,Image SLES15-SP5-HPC-Azure-2022-2546,Image SLES15-SP5-HPC-BYOS-Azure-2022-2546,Image SLES15-SP5-HPC-BYOS-EC2-2022-2546,Image SLES15-SP5-HPC-BYOS-GCE-2022-2546,Image SLES15-SP5-HPC-EC2-2022-2546,Image SLES15-SP5-HPC-GCE-2022-2546,Image SLES15-SP5-Hardened-BYOS-Azure-2022-2546,Image SLES15-SP5-Hardened-BYOS-EC2-2022-2546,Image SLES15-SP5-Hardened-BYOS-GCE-2022-2546,Image SLES15-SP5-Micro-5-5-2022-2546,Image SLES15-SP5-Micro-5-5-Azure-2022-2546,Image SLES15-SP5-Micro-5-5-BYOS-2022-2546,Image SLES15-SP5-Micro-5-5-BYOS-Azure-2022-2546,Image SLES15-SP5-Micro-5-5-BYOS-EC2-2022-2546,Image SLES15-SP5-Micro-5-5-BYOS-GCE-2022-2546,Image SLES15-SP5-Micro-5-5-EC2-2022-2546,Image SLES15-SP5-Micro-5-5-GCE-2022-2546,Image SLES15-SP5-SAP-Azure-2022-2546,Image SLES15-SP5-SAP-Azure-LI-BYOS-2022-2546,Image SLES15-SP5-SAP-Azure-LI-BYOS-Production-2022-2546,Image SLES15-SP5-SAP-Azure-VLI-BYOS-2022-2546,Image SLES15-SP5-SAP-Azure-VLI-BYOS-Production-2022-2546,Image SLES15-SP5-SAP-BYOS-Azure-2022-2546,Image SLES15-SP5-SAP-BYOS-EC2-2022-2546,Image SLES15-SP5-SAP-BYOS-GCE-2022-2546,Image SLES15-SP5-SAP-EC2-2022-2546,Image SLES15-SP5-SAP-GCE-2022-2546,Image SLES15-SP5-SAP-Hardened-Azure-2022-2546,Image SLES15-SP5-SAP-Hardened-BYOS-Azure-2022-2546,Image SLES15-SP5-SAP-Hardened-BYOS-EC2-2022-2546,Image SLES15-SP5-SAP-Hardened-BYOS-GCE-2022-2546,Image SLES15-SP5-SAP-Hardened-EC2-2022-2546,Image SLES15-SP5-SAP-Hardened-GCE-2022-2546,Image SLES15-SP5-SAPCAL-Azure-2022-2546,Image SLES15-SP5-SAPCAL-EC2-2022-2546,Image SLES15-SP5-SAPCAL-GCE-2022-2546,SUSE-2022-2546,SUSE-SLE-Module-Basesystem-15-SP3-2022-2546,SUSE-SLE-Module-Basesystem-15-SP4-2022-2546,SUSE-SUSE-MicroOS-5.1-2022-2546,SUSE-SUSE-MicroOS-5.2-2022-2546,openSUSE-SLE-15.3-2022-2546,openSUSE-SLE-15.4-2022-2546",
      "Title": "Patchnames",
      "Type": "Details"
    }
  ],
  "ProductTree": {
    "Relationships": [
      {
        "ProductReference": "gpg2-2.2.27-150300.3.5.1",
        "RelatesToProductReference": "Container bci/bci-init:15.3",
        "RelationType": "Default Component Of"
      },
      {
        "ProductReference": "gpg2-2.2.27-150300.3.5.1",
        "RelatesToProductReference": "Container bci/node:12",
        "RelationType": "Default Component Of"
      },
      {
        "ProductReference": "gpg2-2.2.27-150300.3.5.1",
        "RelatesToProductReference": "Container bci/python:3",
        "RelationType": "Default Component Of"
      },
      {
        "ProductReference": "gpg2-2.2.27-150300.3.5.1",
        "RelatesToProductReference": "Container rancher/elemental-builder-image/5.3:latest",
        "RelationType": "Default Component Of"
      },
      {
        "ProductReference": "gpg2-2.2.27-150300.3.5.1",
        "RelatesToProductReference": "Container rancher/elemental-operator/5.3:latest",
        "RelationType": "Default Component Of"
      },
      {
        "ProductReference": "gpg2-2.2.27-150300.3.5.1",
        "RelatesToProductReference": "Container rancher/elemental-operator:latest",
        "RelationType": "Default Component Of"
      },
      {
        "ProductReference": "gpg2-2.2.27-150300.3.5.1",
        "RelatesToProductReference": "Container rancher/elemental-teal-iso/5.3:latest",
        "RelationType": "Default Component Of"
      },
      {
        "ProductReference": "gpg2-2.2.27-150300.3.5.1",
        "RelatesToProductReference": "Container rancher/elemental-teal-iso/5.4:latest",
        "RelationType": "Default Component Of"
      },
      {
        "ProductReference": "gpg2-2.2.27-150300.3.5.1",
        "RelatesToProductReference": "Container rancher/elemental-teal-rt/5.3:latest",
        "RelationType": "Default Component Of"
      },
      {
        "ProductReference": "gpg2-2.2.27-150300.3.5.1",
        "RelatesToProductReference": "Container rancher/elemental-teal-rt/5.4:latest",
        "RelationType": "Default Component Of"
      },
      {
        "ProductReference": "gpg2-2.2.27-150300.3.5.1",
        "RelatesToProductReference": "Container rancher/elemental-teal/5.3:latest",
        "RelationType": "Default Component Of"
      },
      {
        "ProductReference": "gpg2-2.2.27-150300.3.5.1",
        "RelatesToProductReference": "Container rancher/elemental-teal/5.4:latest",
        "RelationType": "Default Component Of"
      },
      {
        "ProductReference": "gpg2-2.2.27-150300.3.5.1",
        "RelatesToProductReference": "Container rancher/seedimage-builder/5.3:latest",
        "RelationType": "Default Component Of"
      },
      {
        "ProductReference": "gpg2-2.2.27-150300.3.5.1",
        "RelatesToProductReference": "Container rancher/seedimage-builder:latest",
        "RelationType": "Default Component Of"
      },
      {
        "ProductReference": "gpg2-2.2.27-150300.3.5.1",
        "RelatesToProductReference": "Container ses/7.1/ceph/grafana:latest",
        "RelationType": "Default Component Of"
      },
      {
        "ProductReference": "gpg2-2.2.27-150300.3.5.1",
        "RelatesToProductReference": "Container ses/7.1/ceph/haproxy:latest",
        "RelationType": "Default Component Of"
      },
      {
        "ProductReference": "gpg2-2.2.27-150300.3.5.1",
        "RelatesToProductReference": "Container ses/7.1/ceph/keepalived:latest",
        "RelationType": "Default Component Of"
      },
      {
        "ProductReference": "gpg2-2.2.27-150300.3.5.1",
        "RelatesToProductReference": "Container ses/7.1/ceph/prometheus-alertmanager:latest",
        "RelationType": "Default Component Of"
      },
      {
        "ProductReference": "gpg2-2.2.27-150300.3.5.1",
        "RelatesToProductReference": "Container ses/7.1/ceph/prometheus-node-exporter:latest",
        "RelationType": "Default Component Of"
      },
      {
        "ProductReference": "gpg2-2.2.27-150300.3.5.1",
        "RelatesToProductReference": "Container ses/7.1/ceph/prometheus-server:latest",
        "RelationType": "Default Component Of"
      },
      {
        "ProductReference": "gpg2-2.2.27-150300.3.5.1",
        "RelatesToProductReference": "Container ses/7.1/ceph/prometheus-snmp_notifier:latest",
        "RelationType": "Default Component Of"
      },
      {
        "ProductReference": "gpg2-2.2.27-150300.3.5.1",
        "RelatesToProductReference": "Container ses/7.1/cephcsi/cephcsi:latest",
        "RelationType": "Default Component Of"
      },
      {
        "ProductReference": "gpg2-2.2.27-150300.3.5.1",
        "RelatesToProductReference": "Container ses/7.1/cephcsi/csi-attacher:v4.1.0",
        "RelationType": "Default Component Of"
      },
      {
        "ProductReference": "gpg2-2.2.27-150300.3.5.1",
        "RelatesToProductReference": "Container ses/7.1/cephcsi/csi-node-driver-registrar:v2.7.0",
        "RelationType": "Default Component Of"
      },
      {
        "ProductReference": "gpg2-2.2.27-150300.3.5.1",
        "RelatesToProductReference": "Container ses/7.1/cephcsi/csi-provisioner:v3.4.0",
        "RelationType": "Default Component Of"
      },
      {
        "ProductReference": "gpg2-2.2.27-150300.3.5.1",
        "RelatesToProductReference": "Container ses/7.1/cephcsi/csi-resizer:v1.7.0",
        "RelationType": "Default Component Of"
      },
      {
        "ProductReference": "gpg2-2.2.27-150300.3.5.1",
        "RelatesToProductReference": "Container ses/7.1/cephcsi/csi-snapshotter:v6.2.1",
        "RelationType": "Default Component Of"
      },
      {
        "ProductReference": "gpg2-2.2.27-150300.3.5.1",
        "RelatesToProductReference": "Container ses/7.1/rook/ceph:latest",
        "RelationType": "Default Component Of"
      },
      {
        "ProductReference": "gpg2-2.2.27-150300.3.5.1",
        "RelatesToProductReference": "Container suse/hpc/warewulf4-x86_64/sle-hpc-node:latest",
        "RelationType": "Default Component Of"
      },
      {
        "ProductReference": "gpg2-2.2.27-150300.3.5.1",
        "RelatesToProductReference": "Container suse/ltss/sle15.3/sle15:15.3",
        "RelationType": "Default Component Of"
      },
      {
        "ProductReference": "gpg2-2.2.27-150300.3.5.1",
        "RelatesToProductReference": "Container suse/ltss/sle15.4/sle15:15.4",
        "RelationType": "Default Component Of"
      },
      {
        "ProductReference": "gpg2-2.2.27-150300.3.5.1",
        "RelatesToProductReference": "Container suse/manager/4.3/proxy-httpd:latest",
        "RelationType": "Default Component Of"
      },
      {
        "ProductReference": "gpg2-2.2.27-150300.3.5.1",
        "RelatesToProductReference": "Container suse/manager/4.3/proxy-salt-broker:latest",
        "RelationType": "Default Component Of"
      },
      {
        "ProductReference": "gpg2-2.2.27-150300.3.5.1",
        "RelatesToProductReference": "Container suse/rmt-server:latest",
        "RelationType": "Default Component Of"
      },
      {
        "ProductReference": "gpg2-2.2.27-150300.3.5.1",
        "RelatesToProductReference": "Container suse/sle-micro-rancher/5.2:latest",
        "RelationType": "Default Component Of"
      },
      {
        "ProductReference": "gpg2-2.2.27-150300.3.5.1",
        "RelatesToProductReference": "Container suse/sle-micro-rancher/5.3:latest",
        "RelationType": "Default Component Of"
      },
      {
        "ProductReference": "gpg2-2.2.27-150300.3.5.1",
        "RelatesToProductReference": "Container suse/sle-micro-rancher/5.4:latest",
        "RelationType": "Default Component Of"
      },
      {
        "ProductReference": "gpg2-2.2.27-150300.3.5.1",
        "RelatesToProductReference": "Container suse/sle-micro/5.1/toolbox:latest",
        "RelationType": "Default Component Of"
      },
      {
        "ProductReference": "gpg2-2.2.27-150300.3.5.1",
        "RelatesToProductReference": "Container suse/sle-micro/5.2/toolbox:latest",
        "RelationType": "Default Component Of"
      },
      {
        "ProductReference": "gpg2-2.2.27-150300.3.5.1",
        "RelatesToProductReference": "Container suse/sle-micro/5.3/toolbox:latest",
        "RelationType": "Default Component Of"
      },
      {
        "ProductReference": "gpg2-2.2.27-150300.3.5.1",
        "RelatesToProductReference": "Container suse/sle-micro/5.4/toolbox:latest",
        "RelationType": "Default Component Of"
      },
      {
        "ProductReference": "gpg2-2.2.27-150300.3.5.1",
        "RelatesToProductReference": "Container suse/sle-micro/5.5/toolbox:latest",
        "RelationType": "Default Component Of"
      },
      {
        "ProductReference": "gpg2-2.2.27-150300.3.5.1",
        "RelatesToProductReference": "Container suse/sle-micro/5.5:latest",
        "RelationType": "Default Component Of"
      },
      {
        "ProductReference": "gpg2-2.2.27-150300.3.5.1",
        "RelatesToProductReference": "Container suse/sle-micro/base-5.5:latest",
        "RelationType": "Default Component Of"
      },
      {
        "ProductReference": "gpg2-2.2.27-150300.3.5.1",
        "RelatesToProductReference": "Container suse/sle15:15.3",
        "RelationType": "Default Component Of"
      },
      {
        "ProductReference": "gpg2-2.2.27-150300.3.5.1",
        "RelatesToProductReference": "Container suse/sle15:15.4",
        "RelationType": "Default Component Of"
      },
      {
        "ProductReference": "gpg2-2.2.27-150300.3.5.1",
        "RelatesToProductReference": "Container suse/sle15:15.5",
        "RelationType": "Default Component Of"
      },
      {
        "ProductReference": "gpg2-2.2.27-150300.3.5.1",
        "RelatesToProductReference": "Container suse/sles/15.5/cdi-importer:1.55.0",
        "RelationType": "Default Component Of"
      },
      {
        "ProductReference": "gpg2-2.2.27-150300.3.5.1",
        "RelatesToProductReference": "Container suse/sles/15.5/libguestfs-tools:0.58.0",
        "RelationType": "Default Component Of"
      },
      {
        "ProductReference": "gpg2-2.2.27-150300.3.5.1",
        "RelatesToProductReference": "Image SLES15-SP3-BYOS-Azure",
        "RelationType": "Default Component Of"
      },
      {
        "ProductReference": "gpg2-2.2.27-150300.3.5.1",
        "RelatesToProductReference": "Image SLES15-SP3-BYOS-EC2-HVM",
        "RelationType": "Default Component Of"
      },
      {
        "ProductReference": "gpg2-2.2.27-150300.3.5.1",
        "RelatesToProductReference": "Image SLES15-SP3-BYOS-GCE",
        "RelationType": "Default Component Of"
      },
      {
        "ProductReference": "gpg2-2.2.27-150300.3.5.1",
        "RelatesToProductReference": "Image SLES15-SP3-CHOST-BYOS-Aliyun",
        "RelationType": "Default Component Of"
      },
      {
        "ProductReference": "gpg2-2.2.27-150300.3.5.1",
        "RelatesToProductReference": "Image SLES15-SP3-CHOST-BYOS-Azure",
        "RelationType": "Default Component Of"
      },
      {
        "ProductReference": "gpg2-2.2.27-150300.3.5.1",
        "RelatesToProductReference": "Image SLES15-SP3-CHOST-BYOS-EC2",
        "RelationType": "Default Component Of"
      },
      {
        "ProductReference": "gpg2-2.2.27-150300.3.5.1",
        "RelatesToProductReference": "Image SLES15-SP3-CHOST-BYOS-GCE",
        "RelationType": "Default Component Of"
      },
      {
        "ProductReference": "gpg2-2.2.27-150300.3.5.1",
        "RelatesToProductReference": "Image SLES15-SP3-CHOST-BYOS-SAP-CCloud",
        "RelationType": "Default Component Of"
      },
      {
        "ProductReference": "gpg2-2.2.27-150300.3.5.1",
        "RelatesToProductReference": "Image SLES15-SP3-HPC-BYOS-Azure",
        "RelationType": "Default Component Of"
      },
      {
        "ProductReference": "gpg2-2.2.27-150300.3.5.1",
        "RelatesToProductReference": "Image SLES15-SP3-HPC-BYOS-EC2-HVM",
        "RelationType": "Default Component Of"
      },
      {
        "ProductReference": "gpg2-2.2.27-150300.3.5.1",
        "RelatesToProductReference": "Image SLES15-SP3-HPC-BYOS-GCE",
        "RelationType": "Default Component Of"
      },
      {
        "ProductReference": "gpg2-2.2.27-150300.3.5.1",
        "RelatesToProductReference": "Image SLES15-SP3-Manager-4-2-Proxy-BYOS-Azure",
        "RelationType": "Default Component Of"
      },
      {
        "ProductReference": "gpg2-2.2.27-150300.3.5.1",
        "RelatesToProductReference": "Image SLES15-SP3-Manager-4-2-Proxy-BYOS-EC2-HVM",
        "RelationType": "Default Component Of"
      },
      {
        "ProductReference": "gpg2-2.2.27-150300.3.5.1",
        "RelatesToProductReference": "Image SLES15-SP3-Manager-4-2-Proxy-BYOS-GCE",
        "RelationType": "Default Component Of"
      },
      {
        "ProductReference": "gpg2-2.2.27-150300.3.5.1",
        "RelatesToProductReference": "Image SLES15-SP3-Manager-4-2-Server-BYOS-Azure",
        "RelationType": "Default Component Of"
      },
      {
        "ProductReference": "gpg2-2.2.27-150300.3.5.1",
        "RelatesToProductReference": "Image SLES15-SP3-Manager-4-2-Server-BYOS-EC2-HVM",
        "RelationType": "Default Component Of"
      },
      {
        "ProductReference": "gpg2-2.2.27-150300.3.5.1",
        "RelatesToProductReference": "Image SLES15-SP3-Manager-4-2-Server-BYOS-GCE",
        "RelationType": "Default Component Of"
      },
      {
        "ProductReference": "gpg2-2.2.27-150300.3.5.1",
        "RelatesToProductReference": "Image SLES15-SP3-Micro-5-1-BYOS-Azure",
        "RelationType": "Default Component Of"
      },
      {
        "ProductReference": "gpg2-2.2.27-150300.3.5.1",
        "RelatesToProductReference": "Image SLES15-SP3-Micro-5-1-BYOS-EC2-HVM",
        "RelationType": "Default Component Of"
      },
      {
        "ProductReference": "gpg2-2.2.27-150300.3.5.1",
        "RelatesToProductReference": "Image SLES15-SP3-Micro-5-1-BYOS-GCE",
        "RelationType": "Default Component Of"
      },
      {
        "ProductReference": "gpg2-2.2.27-150300.3.5.1",
        "RelatesToProductReference": "Image SLES15-SP3-Micro-5-2-BYOS-Azure",
        "RelationType": "Default Component Of"
      },
      {
        "ProductReference": "gpg2-2.2.27-150300.3.5.1",
        "RelatesToProductReference": "Image SLES15-SP3-Micro-5-2-BYOS-EC2-HVM",
        "RelationType": "Default Component Of"
      },
      {
        "ProductReference": "gpg2-2.2.27-150300.3.5.1",
        "RelatesToProductReference": "Image SLES15-SP3-Micro-5-2-BYOS-GCE",
        "RelationType": "Default Component Of"
      },
      {
        "ProductReference": "gpg2-2.2.27-150300.3.5.1",
        "RelatesToProductReference": "Image SLES15-SP3-SAP-Azure-LI-BYOS-Production",
        "RelationType": "Default Component Of"
      },
      {
        "ProductReference": "gpg2-2.2.27-150300.3.5.1",
        "RelatesToProductReference": "Image SLES15-SP3-SAP-Azure-VLI-BYOS-Production",
        "RelationType": "Default Component Of"
      },
      {
        "ProductReference": "gpg2-2.2.27-150300.3.5.1",
        "RelatesToProductReference": "Image SLES15-SP3-SAP-BYOS-Azure",
        "RelationType": "Default Component Of"
      },
      {
        "ProductReference": "gpg2-2.2.27-150300.3.5.1",
        "RelatesToProductReference": "Image SLES15-SP3-SAP-BYOS-EC2-HVM",
        "RelationType": "Default Component Of"
      },
      {
        "ProductReference": "gpg2-2.2.27-150300.3.5.1",
        "RelatesToProductReference": "Image SLES15-SP3-SAP-BYOS-GCE",
        "RelationType": "Default Component Of"
      },
      {
        "ProductReference": "gpg2-2.2.27-150300.3.5.1",
        "RelatesToProductReference": "Image SLES15-SP3-SAPCAL-Azure",
        "RelationType": "Default Component Of"
      },
      {
        "ProductReference": "gpg2-2.2.27-150300.3.5.1",
        "RelatesToProductReference": "Image SLES15-SP3-SAPCAL-EC2-HVM",
        "RelationType": "Default Component Of"
      },
      {
        "ProductReference": "gpg2-2.2.27-150300.3.5.1",
        "RelatesToProductReference": "Image SLES15-SP3-SAPCAL-GCE",
        "RelationType": "Default Component Of"
      },
      {
        "ProductReference": "gpg2-2.2.27-150300.3.5.1",
        "RelatesToProductReference": "Image SLES15-SP4",
        "RelationType": "Default Component Of"
      },
      {
        "ProductReference": "gpg2-2.2.27-150300.3.5.1",
        "RelatesToProductReference": "Image SLES15-SP4-Azure-Basic",
        "RelationType": "Default Component Of"
      },
      {
        "ProductReference": "gpg2-2.2.27-150300.3.5.1",
        "RelatesToProductReference": "Image SLES15-SP4-Azure-Standard",
        "RelationType": "Default Component Of"
      },
      {
        "ProductReference": "gpg2-2.2.27-150300.3.5.1",
        "RelatesToProductReference": "Image SLES15-SP4-BYOS",
        "RelationType": "Default Component Of"
      },
      {
        "ProductReference": "gpg2-2.2.27-150300.3.5.1",
        "RelatesToProductReference": "Image SLES15-SP4-BYOS-Azure",
        "RelationType": "Default Component Of"
      },
      {
        "ProductReference": "gpg2-2.2.27-150300.3.5.1",
        "RelatesToProductReference": "Image SLES15-SP4-BYOS-EC2",
        "RelationType": "Default Component Of"
      },
      {
        "ProductReference": "gpg2-2.2.27-150300.3.5.1",
        "RelatesToProductReference": "Image SLES15-SP4-BYOS-GCE",
        "RelationType": "Default Component Of"
      },
      {
        "ProductReference": "gpg2-2.2.27-150300.3.5.1",
        "RelatesToProductReference": "Image SLES15-SP4-CHOST-BYOS",
        "RelationType": "Default Component Of"
      },
      {
        "ProductReference": "gpg2-2.2.27-150300.3.5.1",
        "RelatesToProductReference": "Image SLES15-SP4-CHOST-BYOS-Aliyun",
        "RelationType": "Default Component Of"
      },
      {
        "ProductReference": "gpg2-2.2.27-150300.3.5.1",
        "RelatesToProductReference": "Image SLES15-SP4-CHOST-BYOS-Azure",
        "RelationType": "Default Component Of"
      },
      {
        "ProductReference": "gpg2-2.2.27-150300.3.5.1",
        "RelatesToProductReference": "Image SLES15-SP4-CHOST-BYOS-EC2",
        "RelationType": "Default Component Of"
      },
      {
        "ProductReference": "gpg2-2.2.27-150300.3.5.1",
        "RelatesToProductReference": "Image SLES15-SP4-CHOST-BYOS-GCE",
        "RelationType": "Default Component Of"
      },
      {
        "ProductReference": "gpg2-2.2.27-150300.3.5.1",
        "RelatesToProductReference": "Image SLES15-SP4-CHOST-BYOS-SAP-CCloud",
        "RelationType": "Default Component Of"
      },
      {
        "ProductReference": "gpg2-2.2.27-150300.3.5.1",
        "RelatesToProductReference": "Image SLES15-SP4-EC2",
        "RelationType": "Default Component Of"
      },
      {
        "ProductReference": "gpg2-2.2.27-150300.3.5.1",
        "RelatesToProductReference": "Image SLES15-SP4-EC2-ECS-HVM",
        "RelationType": "Default Component Of"
      },
      {
        "ProductReference": "gpg2-2.2.27-150300.3.5.1",
        "RelatesToProductReference": "Image SLES15-SP4-GCE",
        "RelationType": "Default Component Of"
      },
      {
        "ProductReference": "gpg2-2.2.27-150300.3.5.1",
        "RelatesToProductReference": "Image SLES15-SP4-HPC",
        "RelationType": "Default Component Of"
      },
      {
        "ProductReference": "gpg2-2.2.27-150300.3.5.1",
        "RelatesToProductReference": "Image SLES15-SP4-HPC-Azure",
        "RelationType": "Default Component Of"
      },
      {
        "ProductReference": "gpg2-2.2.27-150300.3.5.1",
        "RelatesToProductReference": "Image SLES15-SP4-HPC-BYOS",
        "RelationType": "Default Component Of"
      },
      {
        "ProductReference": "gpg2-2.2.27-150300.3.5.1",
        "RelatesToProductReference": "Image SLES15-SP4-HPC-BYOS-Azure",
        "RelationType": "Default Component Of"
      },
      {
        "ProductReference": "gpg2-2.2.27-150300.3.5.1",
        "RelatesToProductReference": "Image SLES15-SP4-HPC-BYOS-EC2",
        "RelationType": "Default Component Of"
      },
      {
        "ProductReference": "gpg2-2.2.27-150300.3.5.1",
        "RelatesToProductReference": "Image SLES15-SP4-HPC-BYOS-GCE",
        "RelationType": "Default Component Of"
      },
      {
        "ProductReference": "gpg2-2.2.27-150300.3.5.1",
        "RelatesToProductReference": "Image SLES15-SP4-HPC-EC2",
        "RelationType": "Default Component Of"
      },
      {
        "ProductReference": "gpg2-2.2.27-150300.3.5.1",
        "RelatesToProductReference": "Image SLES15-SP4-HPC-GCE",
        "RelationType": "Default Component Of"
      },
      {
        "ProductReference": "gpg2-2.2.27-150300.3.5.1",
        "RelatesToProductReference": "Image SLES15-SP4-Hardened-BYOS",
        "RelationType": "Default Component Of"
      },
      {
        "ProductReference": "gpg2-2.2.27-150300.3.5.1",
        "RelatesToProductReference": "Image SLES15-SP4-Hardened-BYOS-Azure",
        "RelationType": "Default Component Of"
      },
      {
        "ProductReference": "gpg2-2.2.27-150300.3.5.1",
        "RelatesToProductReference": "Image SLES15-SP4-Hardened-BYOS-EC2",
        "RelationType": "Default Component Of"
      },
      {
        "ProductReference": "gpg2-2.2.27-150300.3.5.1",
        "RelatesToProductReference": "Image SLES15-SP4-Hardened-BYOS-GCE",
        "RelationType": "Default Component Of"
      },
      {
        "ProductReference": "gpg2-2.2.27-150300.3.5.1",
        "RelatesToProductReference": "Image SLES15-SP4-Manager-Proxy-4-3-BYOS",
        "RelationType": "Default Component Of"
      },
      {
        "ProductReference": "gpg2-2.2.27-150300.3.5.1",
        "RelatesToProductReference": "Image SLES15-SP4-Manager-Proxy-4-3-BYOS-Azure",
        "RelationType": "Default Component Of"
      },
      {
        "ProductReference": "gpg2-2.2.27-150300.3.5.1",
        "RelatesToProductReference": "Image SLES15-SP4-Manager-Proxy-4-3-BYOS-EC2",
        "RelationType": "Default Component Of"
      },
      {
        "ProductReference": "gpg2-2.2.27-150300.3.5.1",
        "RelatesToProductReference": "Image SLES15-SP4-Manager-Proxy-4-3-BYOS-GCE",
        "RelationType": "Default Component Of"
      },
      {
        "ProductReference": "gpg2-2.2.27-150300.3.5.1",
        "RelatesToProductReference": "Image SLES15-SP4-Manager-Server-4-3",
        "RelationType": "Default Component Of"
      },
      {
        "ProductReference": "gpg2-2.2.27-150300.3.5.1",
        "RelatesToProductReference": "Image SLES15-SP4-Manager-Server-4-3-Azure-llc",
        "RelationType": "Default Component Of"
      },
      {
        "ProductReference": "gpg2-2.2.27-150300.3.5.1",
        "RelatesToProductReference": "Image SLES15-SP4-Manager-Server-4-3-Azure-ltd",
        "RelationType": "Default Component Of"
      },
      {
        "ProductReference": "gpg2-2.2.27-150300.3.5.1",
        "RelatesToProductReference": "Image SLES15-SP4-Manager-Server-4-3-BYOS",
        "RelationType": "Default Component Of"
      },
      {
        "ProductReference": "gpg2-2.2.27-150300.3.5.1",
        "RelatesToProductReference": "Image SLES15-SP4-Manager-Server-4-3-BYOS-Azure",
        "RelationType": "Default Component Of"
      },
      {
        "ProductReference": "gpg2-2.2.27-150300.3.5.1",
        "RelatesToProductReference": "Image SLES15-SP4-Manager-Server-4-3-BYOS-EC2",
        "RelationType": "Default Component Of"
      },
      {
        "ProductReference": "gpg2-2.2.27-150300.3.5.1",
        "RelatesToProductReference": "Image SLES15-SP4-Manager-Server-4-3-BYOS-GCE",
        "RelationType": "Default Component Of"
      },
      {
        "ProductReference": "gpg2-2.2.27-150300.3.5.1",
        "RelatesToProductReference": "Image SLES15-SP4-Manager-Server-4-3-EC2-llc",
        "RelationType": "Default Component Of"
      },
      {
        "ProductReference": "gpg2-2.2.27-150300.3.5.1",
        "RelatesToProductReference": "Image SLES15-SP4-Manager-Server-4-3-EC2-ltd",
        "RelationType": "Default Component Of"
      },
      {
        "ProductReference": "gpg2-2.2.27-150300.3.5.1",
        "RelatesToProductReference": "Image SLES15-SP4-Micro-5-3",
        "RelationType": "Default Component Of"
      },
      {
        "ProductReference": "gpg2-2.2.27-150300.3.5.1",
        "RelatesToProductReference": "Image SLES15-SP4-Micro-5-3-Azure",
        "RelationType": "Default Component Of"
      },
      {
        "ProductReference": "gpg2-2.2.27-150300.3.5.1",
        "RelatesToProductReference": "Image SLES15-SP4-Micro-5-3-BYOS",
        "RelationType": "Default Component Of"
      },
      {
        "ProductReference": "gpg2-2.2.27-150300.3.5.1",
        "RelatesToProductReference": "Image SLES15-SP4-Micro-5-3-BYOS-Azure",
        "RelationType": "Default Component Of"
      },
      {
        "ProductReference": "gpg2-2.2.27-150300.3.5.1",
        "RelatesToProductReference": "Image SLES15-SP4-Micro-5-3-BYOS-EC2",
        "RelationType": "Default Component Of"
      },
      {
        "ProductReference": "gpg2-2.2.27-150300.3.5.1",
        "RelatesToProductReference": "Image SLES15-SP4-Micro-5-3-BYOS-GCE",
        "RelationType": "Default Component Of"
      },
      {
        "ProductReference": "gpg2-2.2.27-150300.3.5.1",
        "RelatesToProductReference": "Image SLES15-SP4-Micro-5-3-EC2",
        "RelationType": "Default Component Of"
      },
      {
        "ProductReference": "gpg2-2.2.27-150300.3.5.1",
        "RelatesToProductReference": "Image SLES15-SP4-Micro-5-3-GCE",
        "RelationType": "Default Component Of"
      },
      {
        "ProductReference": "gpg2-2.2.27-150300.3.5.1",
        "RelatesToProductReference": "Image SLES15-SP4-Micro-5-4",
        "RelationType": "Default Component Of"
      },
      {
        "ProductReference": "gpg2-2.2.27-150300.3.5.1",
        "RelatesToProductReference": "Image SLES15-SP4-Micro-5-4-Azure",
        "RelationType": "Default Component Of"
      },
      {
        "ProductReference": "gpg2-2.2.27-150300.3.5.1",
        "RelatesToProductReference": "Image SLES15-SP4-Micro-5-4-BYOS",
        "RelationType": "Default Component Of"
      },
      {
        "ProductReference": "gpg2-2.2.27-150300.3.5.1",
        "RelatesToProductReference": "Image SLES15-SP4-Micro-5-4-BYOS-Azure",
        "RelationType": "Default Component Of"
      },
      {
        "ProductReference": "gpg2-2.2.27-150300.3.5.1",
        "RelatesToProductReference": "Image SLES15-SP4-Micro-5-4-BYOS-EC2",
        "RelationType": "Default Component Of"
      },
      {
        "ProductReference": "gpg2-2.2.27-150300.3.5.1",
        "RelatesToProductReference": "Image SLES15-SP4-Micro-5-4-BYOS-GCE",
        "RelationType": "Default Component Of"
      },
      {
        "ProductReference": "gpg2-2.2.27-150300.3.5.1",
        "RelatesToProductReference": "Image SLES15-SP4-Micro-5-4-EC2",
        "RelationType": "Default Component Of"
      },
      {
        "ProductReference": "gpg2-2.2.27-150300.3.5.1",
        "RelatesToProductReference": "Image SLES15-SP4-Micro-5-4-GCE",
        "RelationType": "Default Component Of"
      },
      {
        "ProductReference": "gpg2-2.2.27-150300.3.5.1",
        "RelatesToProductReference": "Image SLES15-SP4-SAP",
        "RelationType": "Default Component Of"
      },
      {
        "ProductReference": "gpg2-2.2.27-150300.3.5.1",
        "RelatesToProductReference": "Image SLES15-SP4-SAP-Azure",
        "RelationType": "Default Component Of"
      },
      {
        "ProductReference": "gpg2-2.2.27-150300.3.5.1",
        "RelatesToProductReference": "Image SLES15-SP4-SAP-Azure-LI-BYOS",
        "RelationType": "Default Component Of"
      },
      {
        "ProductReference": "gpg2-2.2.27-150300.3.5.1",
        "RelatesToProductReference": "Image SLES15-SP4-SAP-Azure-LI-BYOS-Production",
        "RelationType": "Default Component Of"
      },
      {
        "ProductReference": "gpg2-2.2.27-150300.3.5.1",
        "RelatesToProductReference": "Image SLES15-SP4-SAP-Azure-VLI-BYOS",
        "RelationType": "Default Component Of"
      },
      {
        "ProductReference": "gpg2-2.2.27-150300.3.5.1",
        "RelatesToProductReference": "Image SLES15-SP4-SAP-Azure-VLI-BYOS-Production",
        "RelationType": "Default Component Of"
      },
      {
        "ProductReference": "gpg2-2.2.27-150300.3.5.1",
        "RelatesToProductReference": "Image SLES15-SP4-SAP-BYOS",
        "RelationType": "Default Component Of"
      },
      {
        "ProductReference": "gpg2-2.2.27-150300.3.5.1",
        "RelatesToProductReference": "Image SLES15-SP4-SAP-BYOS-Azure",
        "RelationType": "Default Component Of"
      },
      {
        "ProductReference": "gpg2-2.2.27-150300.3.5.1",
        "RelatesToProductReference": "Image SLES15-SP4-SAP-BYOS-EC2",
        "RelationType": "Default Component Of"
      },
      {
        "ProductReference": "gpg2-2.2.27-150300.3.5.1",
        "RelatesToProductReference": "Image SLES15-SP4-SAP-BYOS-GCE",
        "RelationType": "Default Component Of"
      },
      {
        "ProductReference": "gpg2-2.2.27-150300.3.5.1",
        "RelatesToProductReference": "Image SLES15-SP4-SAP-EC2",
        "RelationType": "Default Component Of"
      },
      {
        "ProductReference": "gpg2-2.2.27-150300.3.5.1",
        "RelatesToProductReference": "Image SLES15-SP4-SAP-GCE",
        "RelationType": "Default Component Of"
      },
      {
        "ProductReference": "gpg2-2.2.27-150300.3.5.1",
        "RelatesToProductReference": "Image SLES15-SP4-SAP-Hardened",
        "RelationType": "Default Component Of"
      },
      {
        "ProductReference": "gpg2-2.2.27-150300.3.5.1",
        "RelatesToProductReference": "Image SLES15-SP4-SAP-Hardened-Azure",
        "RelationType": "Default Component Of"
      },
      {
        "ProductReference": "gpg2-2.2.27-150300.3.5.1",
        "RelatesToProductReference": "Image SLES15-SP4-SAP-Hardened-BYOS",
        "RelationType": "Default Component Of"
      },
      {
        "ProductReference": "gpg2-2.2.27-150300.3.5.1",
        "RelatesToProductReference": "Image SLES15-SP4-SAP-Hardened-BYOS-Azure",
        "RelationType": "Default Component Of"
      },
      {
        "ProductReference": "gpg2-2.2.27-150300.3.5.1",
        "RelatesToProductReference": "Image SLES15-SP4-SAP-Hardened-BYOS-EC2",
        "RelationType": "Default Component Of"
      },
      {
        "ProductReference": "gpg2-2.2.27-150300.3.5.1",
        "RelatesToProductReference": "Image SLES15-SP4-SAP-Hardened-BYOS-GCE",
        "RelationType": "Default Component Of"
      },
      {
        "ProductReference": "gpg2-2.2.27-150300.3.5.1",
        "RelatesToProductReference": "Image SLES15-SP4-SAP-Hardened-EC2",
        "RelationType": "Default Component Of"
      },
      {
        "ProductReference": "gpg2-2.2.27-150300.3.5.1",
        "RelatesToProductReference": "Image SLES15-SP4-SAP-Hardened-GCE",
        "RelationType": "Default Component Of"
      },
      {
        "ProductReference": "gpg2-2.2.27-150300.3.5.1",
        "RelatesToProductReference": "Image SLES15-SP4-SAPCAL",
        "RelationType": "Default Component Of"
      },
      {
        "ProductReference": "gpg2-2.2.27-150300.3.5.1",
        "RelatesToProductReference": "Image SLES15-SP4-SAPCAL-Azure",
        "RelationType": "Default Component Of"
      },
      {
        "ProductReference": "gpg2-2.2.27-150300.3.5.1",
        "RelatesToProductReference": "Image SLES15-SP4-SAPCAL-EC2",
        "RelationType": "Default Component Of"
      },
      {
        "ProductReference": "gpg2-2.2.27-150300.3.5.1",
        "RelatesToProductReference": "Image SLES15-SP4-SAPCAL-GCE",
        "RelationType": "Default Component Of"
      },
      {
        "ProductReference": "gpg2-2.2.27-150300.3.5.1",
        "RelatesToProductReference": "Image SLES15-SP4-SUSE-Rancher-Setup-BYOS",
        "RelationType": "Default Component Of"
      },
      {
        "ProductReference": "gpg2-2.2.27-150300.3.5.1",
        "RelatesToProductReference": "Image SLES15-SP4-SUSE-Rancher-Setup-BYOS-EC2",
        "RelationType": "Default Component Of"
      },
      {
        "ProductReference": "gpg2-2.2.27-150300.3.5.1",
        "RelatesToProductReference": "Image SLES15-SP4-SUSE-Rancher-Setup-BYOS-EC2-HVM",
        "RelationType": "Default Component Of"
      },
      {
        "ProductReference": "gpg2-2.2.27-150300.3.5.1",
        "RelatesToProductReference": "Image SLES15-SP5-Azure-Basic",
        "RelationType": "Default Component Of"
      },
      {
        "ProductReference": "gpg2-2.2.27-150300.3.5.1",
        "RelatesToProductReference": "Image SLES15-SP5-Azure-Standard",
        "RelationType": "Default Component Of"
      },
      {
        "ProductReference": "gpg2-2.2.27-150300.3.5.1",
        "RelatesToProductReference": "Image SLES15-SP5-BYOS-Azure",
        "RelationType": "Default Component Of"
      },
      {
        "ProductReference": "gpg2-2.2.27-150300.3.5.1",
        "RelatesToProductReference": "Image SLES15-SP5-BYOS-EC2",
        "RelationType": "Default Component Of"
      },
      {
        "ProductReference": "gpg2-2.2.27-150300.3.5.1",
        "RelatesToProductReference": "Image SLES15-SP5-BYOS-GCE",
        "RelationType": "Default Component Of"
      },
      {
        "ProductReference": "gpg2-2.2.27-150300.3.5.1",
        "RelatesToProductReference": "Image SLES15-SP5-CHOST-BYOS-Aliyun",
        "RelationType": "Default Component Of"
      },
      {
        "ProductReference": "gpg2-2.2.27-150300.3.5.1",
        "RelatesToProductReference": "Image SLES15-SP5-CHOST-BYOS-Azure",
        "RelationType": "Default Component Of"
      },
      {
        "ProductReference": "gpg2-2.2.27-150300.3.5.1",
        "RelatesToProductReference": "Image SLES15-SP5-CHOST-BYOS-EC2",
        "RelationType": "Default Component Of"
      },
      {
        "ProductReference": "gpg2-2.2.27-150300.3.5.1",
        "RelatesToProductReference": "Image SLES15-SP5-CHOST-BYOS-GCE",
        "RelationType": "Default Component Of"
      },
      {
        "ProductReference": "gpg2-2.2.27-150300.3.5.1",
        "RelatesToProductReference": "Image SLES15-SP5-CHOST-BYOS-SAP-CCloud",
        "RelationType": "Default Component Of"
      },
      {
        "ProductReference": "gpg2-2.2.27-150300.3.5.1",
        "RelatesToProductReference": "Image SLES15-SP5-EC2",
        "RelationType": "Default Component Of"
      },
      {
        "ProductReference": "gpg2-2.2.27-150300.3.5.1",
        "RelatesToProductReference": "Image SLES15-SP5-EC2-ECS-HVM",
        "RelationType": "Default Component Of"
      },
      {
        "ProductReference": "gpg2-2.2.27-150300.3.5.1",
        "RelatesToProductReference": "Image SLES15-SP5-GCE",
        "RelationType": "Default Component Of"
      },
      {
        "ProductReference": "gpg2-2.2.27-150300.3.5.1",
        "RelatesToProductReference": "Image SLES15-SP5-HPC-Azure",
        "RelationType": "Default Component Of"
      },
      {
        "ProductReference": "gpg2-2.2.27-150300.3.5.1",
        "RelatesToProductReference": "Image SLES15-SP5-HPC-BYOS-Azure",
        "RelationType": "Default Component Of"
      },
      {
        "ProductReference": "gpg2-2.2.27-150300.3.5.1",
        "RelatesToProductReference": "Image SLES15-SP5-HPC-BYOS-EC2",
        "RelationType": "Default Component Of"
      },
      {
        "ProductReference": "gpg2-2.2.27-150300.3.5.1",
        "RelatesToProductReference": "Image SLES15-SP5-HPC-BYOS-GCE",
        "RelationType": "Default Component Of"
      },
      {
        "ProductReference": "gpg2-2.2.27-150300.3.5.1",
        "RelatesToProductReference": "Image SLES15-SP5-HPC-EC2",
        "RelationType": "Default Component Of"
      },
      {
        "ProductReference": "gpg2-2.2.27-150300.3.5.1",
        "RelatesToProductReference": "Image SLES15-SP5-HPC-GCE",
        "RelationType": "Default Component Of"
      },
      {
        "ProductReference": "gpg2-2.2.27-150300.3.5.1",
        "RelatesToProductReference": "Image SLES15-SP5-Hardened-BYOS-Azure",
        "RelationType": "Default Component Of"
      },
      {
        "ProductReference": "gpg2-2.2.27-150300.3.5.1",
        "RelatesToProductReference": "Image SLES15-SP5-Hardened-BYOS-EC2",
        "RelationType": "Default Component Of"
      },
      {
        "ProductReference": "gpg2-2.2.27-150300.3.5.1",
        "RelatesToProductReference": "Image SLES15-SP5-Hardened-BYOS-GCE",
        "RelationType": "Default Component Of"
      },
      {
        "ProductReference": "gpg2-2.2.27-150300.3.5.1",
        "RelatesToProductReference": "Image SLES15-SP5-Micro-5-5",
        "RelationType": "Default Component Of"
      },
      {
        "ProductReference": "gpg2-2.2.27-150300.3.5.1",
        "RelatesToProductReference": "Image SLES15-SP5-Micro-5-5-Azure",
        "RelationType": "Default Component Of"
      },
      {
        "ProductReference": "gpg2-2.2.27-150300.3.5.1",
        "RelatesToProductReference": "Image SLES15-SP5-Micro-5-5-BYOS",
        "RelationType": "Default Component Of"
      },
      {
        "ProductReference": "gpg2-2.2.27-150300.3.5.1",
        "RelatesToProductReference": "Image SLES15-SP5-Micro-5-5-BYOS-Azure",
        "RelationType": "Default Component Of"
      },
      {
        "ProductReference": "gpg2-2.2.27-150300.3.5.1",
        "RelatesToProductReference": "Image SLES15-SP5-Micro-5-5-BYOS-EC2",
        "RelationType": "Default Component Of"
      },
      {
        "ProductReference": "gpg2-2.2.27-150300.3.5.1",
        "RelatesToProductReference": "Image SLES15-SP5-Micro-5-5-BYOS-GCE",
        "RelationType": "Default Component Of"
      },
      {
        "ProductReference": "gpg2-2.2.27-150300.3.5.1",
        "RelatesToProductReference": "Image SLES15-SP5-Micro-5-5-EC2",
        "RelationType": "Default Component Of"
      },
      {
        "ProductReference": "gpg2-2.2.27-150300.3.5.1",
        "RelatesToProductReference": "Image SLES15-SP5-Micro-5-5-GCE",
        "RelationType": "Default Component Of"
      },
      {
        "ProductReference": "gpg2-2.2.27-150300.3.5.1",
        "RelatesToProductReference": "Image SLES15-SP5-SAP-Azure",
        "RelationType": "Default Component Of"
      },
      {
        "ProductReference": "gpg2-2.2.27-150300.3.5.1",
        "RelatesToProductReference": "Image SLES15-SP5-SAP-Azure-LI-BYOS",
        "RelationType": "Default Component Of"
      },
      {
        "ProductReference": "gpg2-2.2.27-150300.3.5.1",
        "RelatesToProductReference": "Image SLES15-SP5-SAP-Azure-LI-BYOS-Production",
        "RelationType": "Default Component Of"
      },
      {
        "ProductReference": "gpg2-2.2.27-150300.3.5.1",
        "RelatesToProductReference": "Image SLES15-SP5-SAP-Azure-VLI-BYOS",
        "RelationType": "Default Component Of"
      },
      {
        "ProductReference": "gpg2-2.2.27-150300.3.5.1",
        "RelatesToProductReference": "Image SLES15-SP5-SAP-Azure-VLI-BYOS-Production",
        "RelationType": "Default Component Of"
      },
      {
        "ProductReference": "gpg2-2.2.27-150300.3.5.1",
        "RelatesToProductReference": "Image SLES15-SP5-SAP-BYOS-Azure",
        "RelationType": "Default Component Of"
      },
      {
        "ProductReference": "gpg2-2.2.27-150300.3.5.1",
        "RelatesToProductReference": "Image SLES15-SP5-SAP-BYOS-EC2",
        "RelationType": "Default Component Of"
      },
      {
        "ProductReference": "gpg2-2.2.27-150300.3.5.1",
        "RelatesToProductReference": "Image SLES15-SP5-SAP-BYOS-GCE",
        "RelationType": "Default Component Of"
      },
      {
        "ProductReference": "gpg2-2.2.27-150300.3.5.1",
        "RelatesToProductReference": "Image SLES15-SP5-SAP-EC2",
        "RelationType": "Default Component Of"
      },
      {
        "ProductReference": "gpg2-2.2.27-150300.3.5.1",
        "RelatesToProductReference": "Image SLES15-SP5-SAP-GCE",
        "RelationType": "Default Component Of"
      },
      {
        "ProductReference": "gpg2-2.2.27-150300.3.5.1",
        "RelatesToProductReference": "Image SLES15-SP5-SAP-Hardened-Azure",
        "RelationType": "Default Component Of"
      },
      {
        "ProductReference": "gpg2-2.2.27-150300.3.5.1",
        "RelatesToProductReference": "Image SLES15-SP5-SAP-Hardened-BYOS-Azure",
        "RelationType": "Default Component Of"
      },
      {
        "ProductReference": "gpg2-2.2.27-150300.3.5.1",
        "RelatesToProductReference": "Image SLES15-SP5-SAP-Hardened-BYOS-EC2",
        "RelationType": "Default Component Of"
      },
      {
        "ProductReference": "gpg2-2.2.27-150300.3.5.1",
        "RelatesToProductReference": "Image SLES15-SP5-SAP-Hardened-BYOS-GCE",
        "RelationType": "Default Component Of"
      },
      {
        "ProductReference": "gpg2-2.2.27-150300.3.5.1",
        "RelatesToProductReference": "Image SLES15-SP5-SAP-Hardened-EC2",
        "RelationType": "Default Component Of"
      },
      {
        "ProductReference": "gpg2-2.2.27-150300.3.5.1",
        "RelatesToProductReference": "Image SLES15-SP5-SAP-Hardened-GCE",
        "RelationType": "Default Component Of"
      },
      {
        "ProductReference": "gpg2-2.2.27-150300.3.5.1",
        "RelatesToProductReference": "Image SLES15-SP5-SAPCAL-Azure",
        "RelationType": "Default Component Of"
      },
      {
        "ProductReference": "gpg2-2.2.27-150300.3.5.1",
        "RelatesToProductReference": "Image SLES15-SP5-SAPCAL-EC2",
        "RelationType": "Default Component Of"
      },
      {
        "ProductReference": "gpg2-2.2.27-150300.3.5.1",
        "RelatesToProductReference": "Image SLES15-SP5-SAPCAL-GCE",
        "RelationType": "Default Component Of"
      },
      {
        "ProductReference": "gpg2-2.2.27-150300.3.5.1",
        "RelatesToProductReference": "SUSE Linux Enterprise Micro 5.1",
        "RelationType": "Default Component Of"
      },
      {
        "ProductReference": "gpg2-2.2.27-150300.3.5.1",
        "RelatesToProductReference": "SUSE Linux Enterprise Micro 5.2",
        "RelationType": "Default Component Of"
      },
      {
        "ProductReference": "dirmngr-2.2.27-150300.3.5.1",
        "RelatesToProductReference": "SUSE Linux Enterprise Module for Basesystem 15 SP3",
        "RelationType": "Default Component Of"
      },
      {
        "ProductReference": "gpg2-2.2.27-150300.3.5.1",
        "RelatesToProductReference": "SUSE Linux Enterprise Module for Basesystem 15 SP3",
        "RelationType": "Default Component Of"
      },
      {
        "ProductReference": "gpg2-lang-2.2.27-150300.3.5.1",
        "RelatesToProductReference": "SUSE Linux Enterprise Module for Basesystem 15 SP3",
        "RelationType": "Default Component Of"
      },
      {
        "ProductReference": "dirmngr-2.2.27-150300.3.5.1",
        "RelatesToProductReference": "SUSE Linux Enterprise Module for Basesystem 15 SP4",
        "RelationType": "Default Component Of"
      },
      {
        "ProductReference": "gpg2-2.2.27-150300.3.5.1",
        "RelatesToProductReference": "SUSE Linux Enterprise Module for Basesystem 15 SP4",
        "RelationType": "Default Component Of"
      },
      {
        "ProductReference": "gpg2-lang-2.2.27-150300.3.5.1",
        "RelatesToProductReference": "SUSE Linux Enterprise Module for Basesystem 15 SP4",
        "RelationType": "Default Component Of"
      },
      {
        "ProductReference": "dirmngr-2.2.27-150300.3.5.1",
        "RelatesToProductReference": "openSUSE Leap 15.3",
        "RelationType": "Default Component Of"
      },
      {
        "ProductReference": "gpg2-2.2.27-150300.3.5.1",
        "RelatesToProductReference": "openSUSE Leap 15.3",
        "RelationType": "Default Component Of"
      },
      {
        "ProductReference": "gpg2-lang-2.2.27-150300.3.5.1",
        "RelatesToProductReference": "openSUSE Leap 15.3",
        "RelationType": "Default Component Of"
      },
      {
        "ProductReference": "dirmngr-2.2.27-150300.3.5.1",
        "RelatesToProductReference": "openSUSE Leap 15.4",
        "RelationType": "Default Component Of"
      },
      {
        "ProductReference": "gpg2-2.2.27-150300.3.5.1",
        "RelatesToProductReference": "openSUSE Leap 15.4",
        "RelationType": "Default Component Of"
      },
      {
        "ProductReference": "gpg2-lang-2.2.27-150300.3.5.1",
        "RelatesToProductReference": "openSUSE Leap 15.4",
        "RelationType": "Default Component Of"
      }
    ]
  },
  "References": [
    {
      "URL": "https://www.suse.com/support/update/announcement/2022/suse-su-20222546-1/",
      "Description": "Link for SUSE-SU-2022:2546-1"
    },
    {
      "URL": "https://lists.suse.com/pipermail/sle-security-updates/2022-July/011648.html",
      "Description": "E-Mail link for SUSE-SU-2022:2546-1"
    },
    {
      "URL": "https://www.suse.com/support/security/rating/",
      "Description": "SUSE Security Ratings"
    },
    {
      "URL": "https://bugzilla.suse.com/1196125",
      "Description": "SUSE Bug 1196125"
    },
    {
      "URL": "https://bugzilla.suse.com/1201225",
      "Description": "SUSE Bug 1201225"
    },
    {
      "URL": "https://www.suse.com/security/cve/CVE-2022-34903/",
      "Description": "SUSE CVE CVE-2022-34903 page"
    }
  ],
  "Vulnerabilities": [
    {
      "CVE": "CVE-2022-34903",
      "Description": "GnuPG through 2.3.6, in unusual situations where an attacker possesses any secret-key information from a victim's keyring and other constraints (e.g., use of GPGME) are met, allows signature forgery via injection into the status line.",
      "Threats": [
        {
          "Type": "Impact",
          "Severity": "moderate"
        }
      ],
      "References": [
        {
          "URL": "https://www.suse.com/security/cve/CVE-2022-34903.html",
          "Description": "CVE-2022-34903"
        },
        {
          "URL": "https://bugzilla.suse.com/1201225",
          "Description": "SUSE Bug 1201225"
        }
      ],
      "ProductStatuses": [
        {
          "Type": "Fixed",
          "ProductID": [
            "Container bci/bci-init:15.3:gpg2-2.2.27-150300.3.5.1",
            "Container bci/node:12:gpg2-2.2.27-150300.3.5.1",
            "Container bci/python:3:gpg2-2.2.27-150300.3.5.1",
            "Container rancher/elemental-builder-image/5.3:latest:gpg2-2.2.27-150300.3.5.1",
            "Container rancher/elemental-operator/5.3:latest:gpg2-2.2.27-150300.3.5.1",
            "Container rancher/elemental-operator:latest:gpg2-2.2.27-150300.3.5.1",
            "Container rancher/elemental-teal-iso/5.3:latest:gpg2-2.2.27-150300.3.5.1",
            "Container rancher/elemental-teal-iso/5.4:latest:gpg2-2.2.27-150300.3.5.1",
            "Container rancher/elemental-teal-rt/5.3:latest:gpg2-2.2.27-150300.3.5.1",
            "Container rancher/elemental-teal-rt/5.4:latest:gpg2-2.2.27-150300.3.5.1",
            "Container rancher/elemental-teal/5.3:latest:gpg2-2.2.27-150300.3.5.1",
            "Container rancher/elemental-teal/5.4:latest:gpg2-2.2.27-150300.3.5.1",
            "Container rancher/seedimage-builder/5.3:latest:gpg2-2.2.27-150300.3.5.1",
            "Container rancher/seedimage-builder:latest:gpg2-2.2.27-150300.3.5.1",
            "Container ses/7.1/ceph/grafana:latest:gpg2-2.2.27-150300.3.5.1",
            "Container ses/7.1/ceph/haproxy:latest:gpg2-2.2.27-150300.3.5.1",
            "Container ses/7.1/ceph/keepalived:latest:gpg2-2.2.27-150300.3.5.1",
            "Container ses/7.1/ceph/prometheus-alertmanager:latest:gpg2-2.2.27-150300.3.5.1",
            "Container ses/7.1/ceph/prometheus-node-exporter:latest:gpg2-2.2.27-150300.3.5.1",
            "Container ses/7.1/ceph/prometheus-server:latest:gpg2-2.2.27-150300.3.5.1",
            "Container ses/7.1/ceph/prometheus-snmp_notifier:latest:gpg2-2.2.27-150300.3.5.1",
            "Container ses/7.1/cephcsi/cephcsi:latest:gpg2-2.2.27-150300.3.5.1",
            "Container ses/7.1/cephcsi/csi-attacher:v4.1.0:gpg2-2.2.27-150300.3.5.1",
            "Container ses/7.1/cephcsi/csi-node-driver-registrar:v2.7.0:gpg2-2.2.27-150300.3.5.1",
            "Container ses/7.1/cephcsi/csi-provisioner:v3.4.0:gpg2-2.2.27-150300.3.5.1",
            "Container ses/7.1/cephcsi/csi-resizer:v1.7.0:gpg2-2.2.27-150300.3.5.1",
            "Container ses/7.1/cephcsi/csi-snapshotter:v6.2.1:gpg2-2.2.27-150300.3.5.1",
            "Container ses/7.1/rook/ceph:latest:gpg2-2.2.27-150300.3.5.1",
            "Container suse/hpc/warewulf4-x86_64/sle-hpc-node:latest:gpg2-2.2.27-150300.3.5.1",
            "Container suse/ltss/sle15.3/sle15:15.3:gpg2-2.2.27-150300.3.5.1",
            "Container suse/ltss/sle15.4/sle15:15.4:gpg2-2.2.27-150300.3.5.1",
            "Container suse/manager/4.3/proxy-httpd:latest:gpg2-2.2.27-150300.3.5.1",
            "Container suse/manager/4.3/proxy-salt-broker:latest:gpg2-2.2.27-150300.3.5.1",
            "Container suse/rmt-server:latest:gpg2-2.2.27-150300.3.5.1",
            "Container suse/sle-micro-rancher/5.2:latest:gpg2-2.2.27-150300.3.5.1",
            "Container suse/sle-micro-rancher/5.3:latest:gpg2-2.2.27-150300.3.5.1",
            "Container suse/sle-micro-rancher/5.4:latest:gpg2-2.2.27-150300.3.5.1",
            "Container suse/sle-micro/5.1/toolbox:latest:gpg2-2.2.27-150300.3.5.1",
            "Container suse/sle-micro/5.2/toolbox:latest:gpg2-2.2.27-150300.3.5.1",
            "Container suse/sle-micro/5.3/toolbox:latest:gpg2-2.2.27-150300.3.5.1",
            "Container suse/sle-micro/5.4/toolbox:latest:gpg2-2.2.27-150300.3.5.1",
            "Container suse/sle-micro/5.5/toolbox:latest:gpg2-2.2.27-150300.3.5.1",
            "Container suse/sle-micro/5.5:latest:gpg2-2.2.27-150300.3.5.1",
            "Container suse/sle-micro/base-5.5:latest:gpg2-2.2.27-150300.3.5.1",
            "Container suse/sle15:15.3:gpg2-2.2.27-150300.3.5.1",
            "Container suse/sle15:15.4:gpg2-2.2.27-150300.3.5.1",
            "Container suse/sle15:15.5:gpg2-2.2.27-150300.3.5.1",
            "Container suse/sles/15.5/cdi-importer:1.55.0:gpg2-2.2.27-150300.3.5.1",
            "Container suse/sles/15.5/libguestfs-tools:0.58.0:gpg2-2.2.27-150300.3.5.1",
            "Image SLES15-SP3-BYOS-Azure:gpg2-2.2.27-150300.3.5.1",
            "Image SLES15-SP3-BYOS-EC2-HVM:gpg2-2.2.27-150300.3.5.1",
            "Image SLES15-SP3-BYOS-GCE:gpg2-2.2.27-150300.3.5.1",
            "Image SLES15-SP3-CHOST-BYOS-Aliyun:gpg2-2.2.27-150300.3.5.1",
            "Image SLES15-SP3-CHOST-BYOS-Azure:gpg2-2.2.27-150300.3.5.1",
            "Image SLES15-SP3-CHOST-BYOS-EC2:gpg2-2.2.27-150300.3.5.1",
            "Image SLES15-SP3-CHOST-BYOS-GCE:gpg2-2.2.27-150300.3.5.1",
            "Image SLES15-SP3-CHOST-BYOS-SAP-CCloud:gpg2-2.2.27-150300.3.5.1",
            "Image SLES15-SP3-HPC-BYOS-Azure:gpg2-2.2.27-150300.3.5.1",
            "Image SLES15-SP3-HPC-BYOS-EC2-HVM:gpg2-2.2.27-150300.3.5.1",
            "Image SLES15-SP3-HPC-BYOS-GCE:gpg2-2.2.27-150300.3.5.1",
            "Image SLES15-SP3-Manager-4-2-Proxy-BYOS-Azure:gpg2-2.2.27-150300.3.5.1",
            "Image SLES15-SP3-Manager-4-2-Proxy-BYOS-EC2-HVM:gpg2-2.2.27-150300.3.5.1",
            "Image SLES15-SP3-Manager-4-2-Proxy-BYOS-GCE:gpg2-2.2.27-150300.3.5.1",
            "Image SLES15-SP3-Manager-4-2-Server-BYOS-Azure:gpg2-2.2.27-150300.3.5.1",
            "Image SLES15-SP3-Manager-4-2-Server-BYOS-EC2-HVM:gpg2-2.2.27-150300.3.5.1",
            "Image SLES15-SP3-Manager-4-2-Server-BYOS-GCE:gpg2-2.2.27-150300.3.5.1",
            "Image SLES15-SP3-Micro-5-1-BYOS-Azure:gpg2-2.2.27-150300.3.5.1",
            "Image SLES15-SP3-Micro-5-1-BYOS-EC2-HVM:gpg2-2.2.27-150300.3.5.1",
            "Image SLES15-SP3-Micro-5-1-BYOS-GCE:gpg2-2.2.27-150300.3.5.1",
            "Image SLES15-SP3-Micro-5-2-BYOS-Azure:gpg2-2.2.27-150300.3.5.1",
            "Image SLES15-SP3-Micro-5-2-BYOS-EC2-HVM:gpg2-2.2.27-150300.3.5.1",
            "Image SLES15-SP3-Micro-5-2-BYOS-GCE:gpg2-2.2.27-150300.3.5.1",
            "Image SLES15-SP3-SAP-Azure-LI-BYOS-Production:gpg2-2.2.27-150300.3.5.1",
            "Image SLES15-SP3-SAP-Azure-VLI-BYOS-Production:gpg2-2.2.27-150300.3.5.1",
            "Image SLES15-SP3-SAP-BYOS-Azure:gpg2-2.2.27-150300.3.5.1",
            "Image SLES15-SP3-SAP-BYOS-EC2-HVM:gpg2-2.2.27-150300.3.5.1",
            "Image SLES15-SP3-SAP-BYOS-GCE:gpg2-2.2.27-150300.3.5.1",
            "Image SLES15-SP3-SAPCAL-Azure:gpg2-2.2.27-150300.3.5.1",
            "Image SLES15-SP3-SAPCAL-EC2-HVM:gpg2-2.2.27-150300.3.5.1",
            "Image SLES15-SP3-SAPCAL-GCE:gpg2-2.2.27-150300.3.5.1",
            "Image SLES15-SP4-Azure-Basic:gpg2-2.2.27-150300.3.5.1",
            "Image SLES15-SP4-Azure-Standard:gpg2-2.2.27-150300.3.5.1",
            "Image SLES15-SP4-BYOS-Azure:gpg2-2.2.27-150300.3.5.1",
            "Image SLES15-SP4-BYOS-EC2:gpg2-2.2.27-150300.3.5.1",
            "Image SLES15-SP4-BYOS-GCE:gpg2-2.2.27-150300.3.5.1",
            "Image SLES15-SP4-BYOS:gpg2-2.2.27-150300.3.5.1",
            "Image SLES15-SP4-CHOST-BYOS-Aliyun:gpg2-2.2.27-150300.3.5.1",
            "Image SLES15-SP4-CHOST-BYOS-Azure:gpg2-2.2.27-150300.3.5.1",
            "Image SLES15-SP4-CHOST-BYOS-EC2:gpg2-2.2.27-150300.3.5.1",
            "Image SLES15-SP4-CHOST-BYOS-GCE:gpg2-2.2.27-150300.3.5.1",
            "Image SLES15-SP4-CHOST-BYOS-SAP-CCloud:gpg2-2.2.27-150300.3.5.1",
            "Image SLES15-SP4-CHOST-BYOS:gpg2-2.2.27-150300.3.5.1",
            "Image SLES15-SP4-EC2-ECS-HVM:gpg2-2.2.27-150300.3.5.1",
            "Image SLES15-SP4-EC2:gpg2-2.2.27-150300.3.5.1",
            "Image SLES15-SP4-GCE:gpg2-2.2.27-150300.3.5.1",
            "Image SLES15-SP4-HPC-Azure:gpg2-2.2.27-150300.3.5.1",
            "Image SLES15-SP4-HPC-BYOS-Azure:gpg2-2.2.27-150300.3.5.1",
            "Image SLES15-SP4-HPC-BYOS-EC2:gpg2-2.2.27-150300.3.5.1",
            "Image SLES15-SP4-HPC-BYOS-GCE:gpg2-2.2.27-150300.3.5.1",
            "Image SLES15-SP4-HPC-BYOS:gpg2-2.2.27-150300.3.5.1",
            "Image SLES15-SP4-HPC-EC2:gpg2-2.2.27-150300.3.5.1",
            "Image SLES15-SP4-HPC-GCE:gpg2-2.2.27-150300.3.5.1",
            "Image SLES15-SP4-HPC:gpg2-2.2.27-150300.3.5.1",
            "Image SLES15-SP4-Hardened-BYOS-Azure:gpg2-2.2.27-150300.3.5.1",
            "Image SLES15-SP4-Hardened-BYOS-EC2:gpg2-2.2.27-150300.3.5.1",
            "Image SLES15-SP4-Hardened-BYOS-GCE:gpg2-2.2.27-150300.3.5.1",
            "Image SLES15-SP4-Hardened-BYOS:gpg2-2.2.27-150300.3.5.1",
            "Image SLES15-SP4-Manager-Proxy-4-3-BYOS-Azure:gpg2-2.2.27-150300.3.5.1",
            "Image SLES15-SP4-Manager-Proxy-4-3-BYOS-EC2:gpg2-2.2.27-150300.3.5.1",
            "Image SLES15-SP4-Manager-Proxy-4-3-BYOS-GCE:gpg2-2.2.27-150300.3.5.1",
            "Image SLES15-SP4-Manager-Proxy-4-3-BYOS:gpg2-2.2.27-150300.3.5.1",
            "Image SLES15-SP4-Manager-Server-4-3-Azure-llc:gpg2-2.2.27-150300.3.5.1",
            "Image SLES15-SP4-Manager-Server-4-3-Azure-ltd:gpg2-2.2.27-150300.3.5.1",
            "Image SLES15-SP4-Manager-Server-4-3-BYOS-Azure:gpg2-2.2.27-150300.3.5.1",
            "Image SLES15-SP4-Manager-Server-4-3-BYOS-EC2:gpg2-2.2.27-150300.3.5.1",
            "Image SLES15-SP4-Manager-Server-4-3-BYOS-GCE:gpg2-2.2.27-150300.3.5.1",
            "Image SLES15-SP4-Manager-Server-4-3-BYOS:gpg2-2.2.27-150300.3.5.1",
            "Image SLES15-SP4-Manager-Server-4-3-EC2-llc:gpg2-2.2.27-150300.3.5.1",
            "Image SLES15-SP4-Manager-Server-4-3-EC2-ltd:gpg2-2.2.27-150300.3.5.1",
            "Image SLES15-SP4-Manager-Server-4-3:gpg2-2.2.27-150300.3.5.1",
            "Image SLES15-SP4-Micro-5-3-Azure:gpg2-2.2.27-150300.3.5.1",
            "Image SLES15-SP4-Micro-5-3-BYOS-Azure:gpg2-2.2.27-150300.3.5.1",
            "Image SLES15-SP4-Micro-5-3-BYOS-EC2:gpg2-2.2.27-150300.3.5.1",
            "Image SLES15-SP4-Micro-5-3-BYOS-GCE:gpg2-2.2.27-150300.3.5.1",
            "Image SLES15-SP4-Micro-5-3-BYOS:gpg2-2.2.27-150300.3.5.1",
            "Image SLES15-SP4-Micro-5-3-EC2:gpg2-2.2.27-150300.3.5.1",
            "Image SLES15-SP4-Micro-5-3-GCE:gpg2-2.2.27-150300.3.5.1",
            "Image SLES15-SP4-Micro-5-3:gpg2-2.2.27-150300.3.5.1",
            "Image SLES15-SP4-Micro-5-4-Azure:gpg2-2.2.27-150300.3.5.1",
            "Image SLES15-SP4-Micro-5-4-BYOS-Azure:gpg2-2.2.27-150300.3.5.1",
            "Image SLES15-SP4-Micro-5-4-BYOS-EC2:gpg2-2.2.27-150300.3.5.1",
            "Image SLES15-SP4-Micro-5-4-BYOS-GCE:gpg2-2.2.27-150300.3.5.1",
            "Image SLES15-SP4-Micro-5-4-BYOS:gpg2-2.2.27-150300.3.5.1",
            "Image SLES15-SP4-Micro-5-4-EC2:gpg2-2.2.27-150300.3.5.1",
            "Image SLES15-SP4-Micro-5-4-GCE:gpg2-2.2.27-150300.3.5.1",
            "Image SLES15-SP4-Micro-5-4:gpg2-2.2.27-150300.3.5.1",
            "Image SLES15-SP4-SAP-Azure-LI-BYOS-Production:gpg2-2.2.27-150300.3.5.1",
            "Image SLES15-SP4-SAP-Azure-LI-BYOS:gpg2-2.2.27-150300.3.5.1",
            "Image SLES15-SP4-SAP-Azure-VLI-BYOS-Production:gpg2-2.2.27-150300.3.5.1",
            "Image SLES15-SP4-SAP-Azure-VLI-BYOS:gpg2-2.2.27-150300.3.5.1",
            "Image SLES15-SP4-SAP-Azure:gpg2-2.2.27-150300.3.5.1",
            "Image SLES15-SP4-SAP-BYOS-Azure:gpg2-2.2.27-150300.3.5.1",
            "Image SLES15-SP4-SAP-BYOS-EC2:gpg2-2.2.27-150300.3.5.1",
            "Image SLES15-SP4-SAP-BYOS-GCE:gpg2-2.2.27-150300.3.5.1",
            "Image SLES15-SP4-SAP-BYOS:gpg2-2.2.27-150300.3.5.1",
            "Image SLES15-SP4-SAP-EC2:gpg2-2.2.27-150300.3.5.1",
            "Image SLES15-SP4-SAP-GCE:gpg2-2.2.27-150300.3.5.1",
            "Image SLES15-SP4-SAP-Hardened-Azure:gpg2-2.2.27-150300.3.5.1",
            "Image SLES15-SP4-SAP-Hardened-BYOS-Azure:gpg2-2.2.27-150300.3.5.1",
            "Image SLES15-SP4-SAP-Hardened-BYOS-EC2:gpg2-2.2.27-150300.3.5.1",
            "Image SLES15-SP4-SAP-Hardened-BYOS-GCE:gpg2-2.2.27-150300.3.5.1",
            "Image SLES15-SP4-SAP-Hardened-BYOS:gpg2-2.2.27-150300.3.5.1",
            "Image SLES15-SP4-SAP-Hardened-EC2:gpg2-2.2.27-150300.3.5.1",
            "Image SLES15-SP4-SAP-Hardened-GCE:gpg2-2.2.27-150300.3.5.1",
            "Image SLES15-SP4-SAP-Hardened:gpg2-2.2.27-150300.3.5.1",
            "Image SLES15-SP4-SAP:gpg2-2.2.27-150300.3.5.1",
            "Image SLES15-SP4-SAPCAL-Azure:gpg2-2.2.27-150300.3.5.1",
            "Image SLES15-SP4-SAPCAL-EC2:gpg2-2.2.27-150300.3.5.1",
            "Image SLES15-SP4-SAPCAL-GCE:gpg2-2.2.27-150300.3.5.1",
            "Image SLES15-SP4-SAPCAL:gpg2-2.2.27-150300.3.5.1",
            "Image SLES15-SP4-SUSE-Rancher-Setup-BYOS-EC2-HVM:gpg2-2.2.27-150300.3.5.1",
            "Image SLES15-SP4-SUSE-Rancher-Setup-BYOS-EC2:gpg2-2.2.27-150300.3.5.1",
            "Image SLES15-SP4-SUSE-Rancher-Setup-BYOS:gpg2-2.2.27-150300.3.5.1",
            "Image SLES15-SP4:gpg2-2.2.27-150300.3.5.1",
            "Image SLES15-SP5-Azure-Basic:gpg2-2.2.27-150300.3.5.1",
            "Image SLES15-SP5-Azure-Standard:gpg2-2.2.27-150300.3.5.1",
            "Image SLES15-SP5-BYOS-Azure:gpg2-2.2.27-150300.3.5.1",
            "Image SLES15-SP5-BYOS-EC2:gpg2-2.2.27-150300.3.5.1",
            "Image SLES15-SP5-BYOS-GCE:gpg2-2.2.27-150300.3.5.1",
            "Image SLES15-SP5-CHOST-BYOS-Aliyun:gpg2-2.2.27-150300.3.5.1",
            "Image SLES15-SP5-CHOST-BYOS-Azure:gpg2-2.2.27-150300.3.5.1",
            "Image SLES15-SP5-CHOST-BYOS-EC2:gpg2-2.2.27-150300.3.5.1",
            "Image SLES15-SP5-CHOST-BYOS-GCE:gpg2-2.2.27-150300.3.5.1",
            "Image SLES15-SP5-CHOST-BYOS-SAP-CCloud:gpg2-2.2.27-150300.3.5.1",
            "Image SLES15-SP5-EC2-ECS-HVM:gpg2-2.2.27-150300.3.5.1",
            "Image SLES15-SP5-EC2:gpg2-2.2.27-150300.3.5.1",
            "Image SLES15-SP5-GCE:gpg2-2.2.27-150300.3.5.1",
            "Image SLES15-SP5-HPC-Azure:gpg2-2.2.27-150300.3.5.1",
            "Image SLES15-SP5-HPC-BYOS-Azure:gpg2-2.2.27-150300.3.5.1",
            "Image SLES15-SP5-HPC-BYOS-EC2:gpg2-2.2.27-150300.3.5.1",
            "Image SLES15-SP5-HPC-BYOS-GCE:gpg2-2.2.27-150300.3.5.1",
            "Image SLES15-SP5-HPC-EC2:gpg2-2.2.27-150300.3.5.1",
            "Image SLES15-SP5-HPC-GCE:gpg2-2.2.27-150300.3.5.1",
            "Image SLES15-SP5-Hardened-BYOS-Azure:gpg2-2.2.27-150300.3.5.1",
            "Image SLES15-SP5-Hardened-BYOS-EC2:gpg2-2.2.27-150300.3.5.1",
            "Image SLES15-SP5-Hardened-BYOS-GCE:gpg2-2.2.27-150300.3.5.1",
            "Image SLES15-SP5-Micro-5-5-Azure:gpg2-2.2.27-150300.3.5.1",
            "Image SLES15-SP5-Micro-5-5-BYOS-Azure:gpg2-2.2.27-150300.3.5.1",
            "Image SLES15-SP5-Micro-5-5-BYOS-EC2:gpg2-2.2.27-150300.3.5.1",
            "Image SLES15-SP5-Micro-5-5-BYOS-GCE:gpg2-2.2.27-150300.3.5.1",
            "Image SLES15-SP5-Micro-5-5-BYOS:gpg2-2.2.27-150300.3.5.1",
            "Image SLES15-SP5-Micro-5-5-EC2:gpg2-2.2.27-150300.3.5.1",
            "Image SLES15-SP5-Micro-5-5-GCE:gpg2-2.2.27-150300.3.5.1",
            "Image SLES15-SP5-Micro-5-5:gpg2-2.2.27-150300.3.5.1",
            "Image SLES15-SP5-SAP-Azure-LI-BYOS-Production:gpg2-2.2.27-150300.3.5.1",
            "Image SLES15-SP5-SAP-Azure-LI-BYOS:gpg2-2.2.27-150300.3.5.1",
            "Image SLES15-SP5-SAP-Azure-VLI-BYOS-Production:gpg2-2.2.27-150300.3.5.1",
            "Image SLES15-SP5-SAP-Azure-VLI-BYOS:gpg2-2.2.27-150300.3.5.1",
            "Image SLES15-SP5-SAP-Azure:gpg2-2.2.27-150300.3.5.1",
            "Image SLES15-SP5-SAP-BYOS-Azure:gpg2-2.2.27-150300.3.5.1",
            "Image SLES15-SP5-SAP-BYOS-EC2:gpg2-2.2.27-150300.3.5.1",
            "Image SLES15-SP5-SAP-BYOS-GCE:gpg2-2.2.27-150300.3.5.1",
            "Image SLES15-SP5-SAP-EC2:gpg2-2.2.27-150300.3.5.1",
            "Image SLES15-SP5-SAP-GCE:gpg2-2.2.27-150300.3.5.1",
            "Image SLES15-SP5-SAP-Hardened-Azure:gpg2-2.2.27-150300.3.5.1",
            "Image SLES15-SP5-SAP-Hardened-BYOS-Azure:gpg2-2.2.27-150300.3.5.1",
            "Image SLES15-SP5-SAP-Hardened-BYOS-EC2:gpg2-2.2.27-150300.3.5.1",
            "Image SLES15-SP5-SAP-Hardened-BYOS-GCE:gpg2-2.2.27-150300.3.5.1",
            "Image SLES15-SP5-SAP-Hardened-EC2:gpg2-2.2.27-150300.3.5.1",
            "Image SLES15-SP5-SAP-Hardened-GCE:gpg2-2.2.27-150300.3.5.1",
            "Image SLES15-SP5-SAPCAL-Azure:gpg2-2.2.27-150300.3.5.1",
            "Image SLES15-SP5-SAPCAL-EC2:gpg2-2.2.27-150300.3.5.1",
            "Image SLES15-SP5-SAPCAL-GCE:gpg2-2.2.27-150300.3.5.1",
            "SUSE Linux Enterprise Micro 5.1:gpg2-2.2.27-150300.3.5.1",
            "SUSE Linux Enterprise Micro 5.2:gpg2-2.2.27-150300.3.5.1",
            "SUSE Linux Enterprise Module for Basesystem 15 SP3:dirmngr-2.2.27-150300.3.5.1",
            "SUSE Linux Enterprise Module for Basesystem 15 SP3:gpg2-2.2.27-150300.3.5.1",
            "SUSE Linux Enterprise Module for Basesystem 15 SP3:gpg2-lang-2.2.27-150300.3.5.1",
            "SUSE Linux Enterprise Module for Basesystem 15 SP4:dirmngr-2.2.27-150300.3.5.1",
            "SUSE Linux Enterprise Module for Basesystem 15 SP4:gpg2-2.2.27-150300.3.5.1",
            "SUSE Linux Enterprise Module for Basesystem 15 SP4:gpg2-lang-2.2.27-150300.3.5.1",
            "openSUSE Leap 15.3:dirmngr-2.2.27-150300.3.5.1",
            "openSUSE Leap 15.3:gpg2-2.2.27-150300.3.5.1",
            "openSUSE Leap 15.3:gpg2-lang-2.2.27-150300.3.5.1",
            "openSUSE Leap 15.4:dirmngr-2.2.27-150300.3.5.1",
            "openSUSE Leap 15.4:gpg2-2.2.27-150300.3.5.1",
            "openSUSE Leap 15.4:gpg2-lang-2.2.27-150300.3.5.1"
          ]
        }
      ],
      "CVSSScoreSets": {}
    }
  ]
}