{
  "Title": "Security update for containerd",
  "Tracking": {
    "ID": "SUSE-SU-2022:0720-1",
    "Status": "Final",
    "Version": "1",
    "InitialReleaseDate": "2022-03-04T09:20:48Z",
    "CurrentReleaseDate": "2022-03-04T09:20:48Z",
    "RevisionHistory": [
      {
        "Number": "1",
        "Date": "2022-03-04T09:20:48Z",
        "Description": "current"
      }
    ]
  },
  "Notes": [
    {
      "Text": "Security update for containerd",
      "Title": "Topic",
      "Type": "Summary"
    },
    {
      "Text": "This update for containerd fixes the following issues:\n\n- CVE-2022-23648: A specially-crafted image configuration could gain access to \n  read-only copies of arbitrary files and directories on the host (bsc#1196441).\n",
      "Title": "Details",
      "Type": "General"
    },
    {
      "Text": "The CVRF data is provided by SUSE under the Creative Commons License 4.0 with Attribution (CC-BY-4.0).",
      "Title": "Terms of Use",
      "Type": "Legal Disclaimer"
    },
    {
      "Text": "Image SLES15-Azure-BYOS-2022-720,Image SLES15-SAP-Azure-BYOS-2022-720,Image SLES15-SP1-Azure-BYOS-2022-720,Image SLES15-SP1-Azure-HPC-BYOS-2022-720,Image SLES15-SP1-CHOST-BYOS-Azure-2022-720,Image SLES15-SP1-CHOST-BYOS-EC2-2022-720,Image SLES15-SP1-CHOST-BYOS-GCE-2022-720,Image SLES15-SP1-SAP-Azure-BYOS-2022-720,Image SLES15-SP1-SAP-EC2-HVM-2022-720,Image SLES15-SP1-SAPCAL-Azure-2022-720,Image SLES15-SP1-SAPCAL-EC2-HVM-2022-720,Image SLES15-SP1-SAPCAL-GCE-2022-720,Image SLES15-SP2-BYOS-Azure-2022-720,Image SLES15-SP2-BYOS-EC2-HVM-2022-720,Image SLES15-SP2-BYOS-GCE-2022-720,Image SLES15-SP2-CHOST-BYOS-Aliyun-2022-720,Image SLES15-SP2-CHOST-BYOS-Azure-2022-720,Image SLES15-SP2-CHOST-BYOS-EC2-2022-720,Image SLES15-SP2-CHOST-BYOS-GCE-2022-720,Image SLES15-SP2-HPC-BYOS-Azure-2022-720,Image SLES15-SP2-HPC-BYOS-EC2-HVM-2022-720,Image SLES15-SP2-Manager-4-1-Proxy-BYOS-Azure-2022-720,Image SLES15-SP2-Manager-4-1-Proxy-BYOS-EC2-HVM-2022-720,Image SLES15-SP2-Manager-4-1-Proxy-BYOS-GCE-2022-720,Image SLES15-SP2-Manager-4-1-Server-BYOS-Azure-2022-720,Image SLES15-SP2-Manager-4-1-Server-BYOS-EC2-HVM-2022-720,Image SLES15-SP2-Manager-4-1-Server-BYOS-GCE-2022-720,Image SLES15-SP2-SAP-Azure-2022-720,Image SLES15-SP2-SAP-BYOS-Azure-2022-720,Image SLES15-SP2-SAP-BYOS-EC2-HVM-2022-720,Image SLES15-SP2-SAP-BYOS-GCE-2022-720,Image SLES15-SP2-SAP-EC2-HVM-2022-720,Image SLES15-SP2-SAP-GCE-2022-720,Image SLES15-SP3-BYOS-Azure-2022-720,Image SLES15-SP3-BYOS-EC2-HVM-2022-720,Image SLES15-SP3-BYOS-GCE-2022-720,Image SLES15-SP3-CHOST-BYOS-Aliyun-2022-720,Image SLES15-SP3-CHOST-BYOS-Azure-2022-720,Image SLES15-SP3-CHOST-BYOS-EC2-2022-720,Image SLES15-SP3-CHOST-BYOS-GCE-2022-720,Image SLES15-SP3-CHOST-BYOS-SAP-CCloud-2022-720,Image SLES15-SP3-EC2-ECS-HVM-2022-720,Image SLES15-SP3-EC2-HVM-2022-720,Image SLES15-SP3-GCE-2022-720,Image SLES15-SP3-HPC-Azure-2022-720,Image SLES15-SP3-HPC-BYOS-Azure-2022-720,Image SLES15-SP3-HPC-BYOS-EC2-HVM-2022-720,Image SLES15-SP3-HPC-BYOS-GCE-2022-720,Image SLES15-SP3-Manager-4-2-Proxy-BYOS-Azure-2022-720,Image SLES15-SP3-Manager-4-2-Proxy-BYOS-EC2-HVM-2022-720,Image SLES15-SP3-Manager-4-2-Proxy-BYOS-GCE-2022-720,Image SLES15-SP3-Manager-4-2-Server-BYOS-Azure-2022-720,Image SLES15-SP3-Manager-4-2-Server-BYOS-EC2-HVM-2022-720,Image SLES15-SP3-Manager-4-2-Server-BYOS-GCE-2022-720,Image SLES15-SP3-Micro-5-1-BYOS-Azure-2022-720,Image SLES15-SP3-Micro-5-1-BYOS-EC2-HVM-2022-720,Image SLES15-SP3-Micro-5-1-BYOS-GCE-2022-720,Image SLES15-SP3-Micro-5-2-BYOS-Azure-2022-720,Image SLES15-SP3-Micro-5-2-BYOS-EC2-HVM-2022-720,Image SLES15-SP3-Micro-5-2-BYOS-GCE-2022-720,Image SLES15-SP3-SAP-Azure-2022-720,Image SLES15-SP3-SAP-BYOS-Azure-2022-720,Image SLES15-SP3-SAP-BYOS-EC2-HVM-2022-720,Image SLES15-SP3-SAP-BYOS-GCE-2022-720,Image SLES15-SP3-SAP-EC2-HVM-2022-720,Image SLES15-SP3-SAP-GCE-2022-720,Image SLES15-SP3-SAPCAL-Azure-2022-720,Image SLES15-SP3-SAPCAL-EC2-HVM-2022-720,Image SLES15-SP3-SAPCAL-GCE-2022-720,Image SLES15-SP4-2022-720,Image SLES15-SP4-Azure-Basic-2022-720,Image SLES15-SP4-Azure-Standard-2022-720,Image SLES15-SP4-BYOS-2022-720,Image SLES15-SP4-BYOS-Azure-2022-720,Image SLES15-SP4-BYOS-EC2-2022-720,Image SLES15-SP4-BYOS-GCE-2022-720,Image SLES15-SP4-CHOST-BYOS-2022-720,Image SLES15-SP4-CHOST-BYOS-Aliyun-2022-720,Image SLES15-SP4-CHOST-BYOS-Azure-2022-720,Image SLES15-SP4-CHOST-BYOS-EC2-2022-720,Image SLES15-SP4-CHOST-BYOS-GCE-2022-720,Image SLES15-SP4-CHOST-BYOS-SAP-CCloud-2022-720,Image SLES15-SP4-EC2-2022-720,Image SLES15-SP4-EC2-ECS-HVM-2022-720,Image SLES15-SP4-GCE-2022-720,Image SLES15-SP4-HPC-2022-720,Image SLES15-SP4-HPC-Azure-2022-720,Image SLES15-SP4-HPC-BYOS-2022-720,Image SLES15-SP4-HPC-BYOS-Azure-2022-720,Image SLES15-SP4-HPC-BYOS-EC2-2022-720,Image SLES15-SP4-HPC-BYOS-GCE-2022-720,Image SLES15-SP4-HPC-EC2-2022-720,Image SLES15-SP4-HPC-GCE-2022-720,Image SLES15-SP4-Hardened-BYOS-2022-720,Image SLES15-SP4-Hardened-BYOS-Azure-2022-720,Image SLES15-SP4-Hardened-BYOS-EC2-2022-720,Image SLES15-SP4-Hardened-BYOS-GCE-2022-720,Image SLES15-SP4-Manager-Proxy-4-3-BYOS-2022-720,Image SLES15-SP4-Manager-Proxy-4-3-BYOS-Azure-2022-720,Image SLES15-SP4-Manager-Proxy-4-3-BYOS-EC2-2022-720,Image SLES15-SP4-Manager-Proxy-4-3-BYOS-GCE-2022-720,Image SLES15-SP4-Manager-Server-4-3-2022-720,Image SLES15-SP4-Manager-Server-4-3-Azure-llc-2022-720,Image SLES15-SP4-Manager-Server-4-3-Azure-ltd-2022-720,Image SLES15-SP4-Manager-Server-4-3-BYOS-2022-720,Image SLES15-SP4-Manager-Server-4-3-BYOS-Azure-2022-720,Image SLES15-SP4-Manager-Server-4-3-BYOS-EC2-2022-720,Image SLES15-SP4-Manager-Server-4-3-BYOS-GCE-2022-720,Image SLES15-SP4-Manager-Server-4-3-EC2-llc-2022-720,Image SLES15-SP4-Manager-Server-4-3-EC2-ltd-2022-720,Image SLES15-SP4-Micro-5-3-2022-720,Image SLES15-SP4-Micro-5-3-Azure-2022-720,Image SLES15-SP4-Micro-5-3-BYOS-2022-720,Image SLES15-SP4-Micro-5-3-BYOS-Azure-2022-720,Image SLES15-SP4-Micro-5-3-BYOS-EC2-2022-720,Image SLES15-SP4-Micro-5-3-BYOS-GCE-2022-720,Image SLES15-SP4-Micro-5-3-EC2-2022-720,Image SLES15-SP4-Micro-5-3-GCE-2022-720,Image SLES15-SP4-Micro-5-4-2022-720,Image SLES15-SP4-Micro-5-4-Azure-2022-720,Image SLES15-SP4-Micro-5-4-BYOS-2022-720,Image SLES15-SP4-Micro-5-4-BYOS-Azure-2022-720,Image SLES15-SP4-Micro-5-4-BYOS-EC2-2022-720,Image SLES15-SP4-Micro-5-4-BYOS-GCE-2022-720,Image SLES15-SP4-Micro-5-4-EC2-2022-720,Image SLES15-SP4-Micro-5-4-GCE-2022-720,Image SLES15-SP4-SAP-2022-720,Image SLES15-SP4-SAP-Azure-2022-720,Image SLES15-SP4-SAP-BYOS-2022-720,Image SLES15-SP4-SAP-BYOS-Azure-2022-720,Image SLES15-SP4-SAP-BYOS-EC2-2022-720,Image SLES15-SP4-SAP-BYOS-GCE-2022-720,Image SLES15-SP4-SAP-EC2-2022-720,Image SLES15-SP4-SAP-GCE-2022-720,Image SLES15-SP4-SAP-Hardened-2022-720,Image SLES15-SP4-SAP-Hardened-Azure-2022-720,Image SLES15-SP4-SAP-Hardened-BYOS-2022-720,Image SLES15-SP4-SAP-Hardened-BYOS-Azure-2022-720,Image SLES15-SP4-SAP-Hardened-BYOS-EC2-2022-720,Image SLES15-SP4-SAP-Hardened-BYOS-GCE-2022-720,Image SLES15-SP4-SAP-Hardened-EC2-2022-720,Image SLES15-SP4-SAP-Hardened-GCE-2022-720,Image SLES15-SP4-SAPCAL-2022-720,Image SLES15-SP4-SAPCAL-Azure-2022-720,Image SLES15-SP4-SAPCAL-EC2-2022-720,Image SLES15-SP4-SAPCAL-GCE-2022-720,Image SLES15-SP5-Azure-Basic-2022-720,Image SLES15-SP5-Azure-Standard-2022-720,Image SLES15-SP5-BYOS-Azure-2022-720,Image SLES15-SP5-BYOS-EC2-2022-720,Image SLES15-SP5-BYOS-GCE-2022-720,Image SLES15-SP5-CHOST-BYOS-Aliyun-2022-720,Image SLES15-SP5-CHOST-BYOS-Azure-2022-720,Image SLES15-SP5-CHOST-BYOS-EC2-2022-720,Image SLES15-SP5-CHOST-BYOS-GCE-2022-720,Image SLES15-SP5-CHOST-BYOS-SAP-CCloud-2022-720,Image SLES15-SP5-EC2-2022-720,Image SLES15-SP5-EC2-ECS-HVM-2022-720,Image SLES15-SP5-GCE-2022-720,Image SLES15-SP5-HPC-Azure-2022-720,Image SLES15-SP5-HPC-BYOS-Azure-2022-720,Image SLES15-SP5-HPC-BYOS-EC2-2022-720,Image SLES15-SP5-HPC-BYOS-GCE-2022-720,Image SLES15-SP5-HPC-EC2-2022-720,Image SLES15-SP5-HPC-GCE-2022-720,Image SLES15-SP5-Hardened-BYOS-Azure-2022-720,Image SLES15-SP5-Hardened-BYOS-EC2-2022-720,Image SLES15-SP5-Hardened-BYOS-GCE-2022-720,Image SLES15-SP5-Micro-5-5-2022-720,Image SLES15-SP5-Micro-5-5-Azure-2022-720,Image SLES15-SP5-Micro-5-5-BYOS-2022-720,Image SLES15-SP5-Micro-5-5-BYOS-Azure-2022-720,Image SLES15-SP5-Micro-5-5-BYOS-EC2-2022-720,Image SLES15-SP5-Micro-5-5-BYOS-GCE-2022-720,Image SLES15-SP5-Micro-5-5-EC2-2022-720,Image SLES15-SP5-Micro-5-5-GCE-2022-720,Image SLES15-SP5-SAP-Azure-2022-720,Image SLES15-SP5-SAP-BYOS-Azure-2022-720,Image SLES15-SP5-SAP-BYOS-EC2-2022-720,Image SLES15-SP5-SAP-BYOS-GCE-2022-720,Image SLES15-SP5-SAP-EC2-2022-720,Image SLES15-SP5-SAP-GCE-2022-720,Image SLES15-SP5-SAP-Hardened-Azure-2022-720,Image SLES15-SP5-SAP-Hardened-BYOS-Azure-2022-720,Image SLES15-SP5-SAP-Hardened-BYOS-EC2-2022-720,Image SLES15-SP5-SAP-Hardened-BYOS-GCE-2022-720,Image SLES15-SP5-SAP-Hardened-EC2-2022-720,Image SLES15-SP5-SAP-Hardened-GCE-2022-720,Image SLES15-SP5-SAPCAL-Azure-2022-720,Image SLES15-SP5-SAPCAL-EC2-2022-720,Image SLES15-SP5-SAPCAL-GCE-2022-720,SUSE-2022-720,SUSE-SLE-Module-Containers-15-SP3-2022-720,SUSE-SUSE-MicroOS-5.0-2022-720,SUSE-SUSE-MicroOS-5.1-2022-720",
      "Title": "Patchnames",
      "Type": "Details"
    }
  ],
  "ProductTree": {
    "Relationships": [
      {
        "ProductReference": "containerd-1.4.12-63.1",
        "RelatesToProductReference": "Image SLES15-Azure-BYOS",
        "RelationType": "Default Component Of"
      },
      {
        "ProductReference": "containerd-1.4.12-63.1",
        "RelatesToProductReference": "Image SLES15-SAP-Azure-BYOS",
        "RelationType": "Default Component Of"
      },
      {
        "ProductReference": "containerd-1.4.12-63.1",
        "RelatesToProductReference": "Image SLES15-SP1-Azure-BYOS",
        "RelationType": "Default Component Of"
      },
      {
        "ProductReference": "containerd-1.4.12-63.1",
        "RelatesToProductReference": "Image SLES15-SP1-Azure-HPC-BYOS",
        "RelationType": "Default Component Of"
      },
      {
        "ProductReference": "containerd-1.4.12-63.1",
        "RelatesToProductReference": "Image SLES15-SP1-CHOST-BYOS-Azure",
        "RelationType": "Default Component Of"
      },
      {
        "ProductReference": "containerd-ctr-1.4.12-63.1",
        "RelatesToProductReference": "Image SLES15-SP1-CHOST-BYOS-Azure",
        "RelationType": "Default Component Of"
      },
      {
        "ProductReference": "containerd-1.4.12-63.1",
        "RelatesToProductReference": "Image SLES15-SP1-CHOST-BYOS-EC2",
        "RelationType": "Default Component Of"
      },
      {
        "ProductReference": "containerd-ctr-1.4.12-63.1",
        "RelatesToProductReference": "Image SLES15-SP1-CHOST-BYOS-EC2",
        "RelationType": "Default Component Of"
      },
      {
        "ProductReference": "containerd-1.4.12-63.1",
        "RelatesToProductReference": "Image SLES15-SP1-CHOST-BYOS-GCE",
        "RelationType": "Default Component Of"
      },
      {
        "ProductReference": "containerd-ctr-1.4.12-63.1",
        "RelatesToProductReference": "Image SLES15-SP1-CHOST-BYOS-GCE",
        "RelationType": "Default Component Of"
      },
      {
        "ProductReference": "containerd-1.4.12-63.1",
        "RelatesToProductReference": "Image SLES15-SP1-SAP-Azure-BYOS",
        "RelationType": "Default Component Of"
      },
      {
        "ProductReference": "containerd-1.4.12-63.1",
        "RelatesToProductReference": "Image SLES15-SP1-SAP-EC2-HVM",
        "RelationType": "Default Component Of"
      },
      {
        "ProductReference": "containerd-1.4.12-63.1",
        "RelatesToProductReference": "Image SLES15-SP1-SAPCAL-Azure",
        "RelationType": "Default Component Of"
      },
      {
        "ProductReference": "containerd-1.4.12-63.1",
        "RelatesToProductReference": "Image SLES15-SP1-SAPCAL-EC2-HVM",
        "RelationType": "Default Component Of"
      },
      {
        "ProductReference": "containerd-1.4.12-63.1",
        "RelatesToProductReference": "Image SLES15-SP1-SAPCAL-GCE",
        "RelationType": "Default Component Of"
      },
      {
        "ProductReference": "containerd-1.4.12-63.1",
        "RelatesToProductReference": "Image SLES15-SP2-BYOS-Azure",
        "RelationType": "Default Component Of"
      },
      {
        "ProductReference": "containerd-1.4.12-63.1",
        "RelatesToProductReference": "Image SLES15-SP2-BYOS-EC2-HVM",
        "RelationType": "Default Component Of"
      },
      {
        "ProductReference": "containerd-1.4.12-63.1",
        "RelatesToProductReference": "Image SLES15-SP2-BYOS-GCE",
        "RelationType": "Default Component Of"
      },
      {
        "ProductReference": "containerd-1.4.12-63.1",
        "RelatesToProductReference": "Image SLES15-SP2-CHOST-BYOS-Aliyun",
        "RelationType": "Default Component Of"
      },
      {
        "ProductReference": "containerd-ctr-1.4.12-63.1",
        "RelatesToProductReference": "Image SLES15-SP2-CHOST-BYOS-Aliyun",
        "RelationType": "Default Component Of"
      },
      {
        "ProductReference": "containerd-1.4.12-63.1",
        "RelatesToProductReference": "Image SLES15-SP2-CHOST-BYOS-Azure",
        "RelationType": "Default Component Of"
      },
      {
        "ProductReference": "containerd-ctr-1.4.12-63.1",
        "RelatesToProductReference": "Image SLES15-SP2-CHOST-BYOS-Azure",
        "RelationType": "Default Component Of"
      },
      {
        "ProductReference": "containerd-1.4.12-63.1",
        "RelatesToProductReference": "Image SLES15-SP2-CHOST-BYOS-EC2",
        "RelationType": "Default Component Of"
      },
      {
        "ProductReference": "containerd-ctr-1.4.12-63.1",
        "RelatesToProductReference": "Image SLES15-SP2-CHOST-BYOS-EC2",
        "RelationType": "Default Component Of"
      },
      {
        "ProductReference": "containerd-1.4.12-63.1",
        "RelatesToProductReference": "Image SLES15-SP2-CHOST-BYOS-GCE",
        "RelationType": "Default Component Of"
      },
      {
        "ProductReference": "containerd-ctr-1.4.12-63.1",
        "RelatesToProductReference": "Image SLES15-SP2-CHOST-BYOS-GCE",
        "RelationType": "Default Component Of"
      },
      {
        "ProductReference": "containerd-1.4.12-63.1",
        "RelatesToProductReference": "Image SLES15-SP2-HPC-BYOS-Azure",
        "RelationType": "Default Component Of"
      },
      {
        "ProductReference": "containerd-1.4.12-63.1",
        "RelatesToProductReference": "Image SLES15-SP2-HPC-BYOS-EC2-HVM",
        "RelationType": "Default Component Of"
      },
      {
        "ProductReference": "containerd-1.4.12-63.1",
        "RelatesToProductReference": "Image SLES15-SP2-Manager-4-1-Proxy-BYOS-Azure",
        "RelationType": "Default Component Of"
      },
      {
        "ProductReference": "containerd-1.4.12-63.1",
        "RelatesToProductReference": "Image SLES15-SP2-Manager-4-1-Proxy-BYOS-EC2-HVM",
        "RelationType": "Default Component Of"
      },
      {
        "ProductReference": "containerd-1.4.12-63.1",
        "RelatesToProductReference": "Image SLES15-SP2-Manager-4-1-Proxy-BYOS-GCE",
        "RelationType": "Default Component Of"
      },
      {
        "ProductReference": "containerd-1.4.12-63.1",
        "RelatesToProductReference": "Image SLES15-SP2-Manager-4-1-Server-BYOS-Azure",
        "RelationType": "Default Component Of"
      },
      {
        "ProductReference": "containerd-1.4.12-63.1",
        "RelatesToProductReference": "Image SLES15-SP2-Manager-4-1-Server-BYOS-EC2-HVM",
        "RelationType": "Default Component Of"
      },
      {
        "ProductReference": "containerd-1.4.12-63.1",
        "RelatesToProductReference": "Image SLES15-SP2-Manager-4-1-Server-BYOS-GCE",
        "RelationType": "Default Component Of"
      },
      {
        "ProductReference": "containerd-1.4.12-63.1",
        "RelatesToProductReference": "Image SLES15-SP2-SAP-Azure",
        "RelationType": "Default Component Of"
      },
      {
        "ProductReference": "containerd-1.4.12-63.1",
        "RelatesToProductReference": "Image SLES15-SP2-SAP-BYOS-Azure",
        "RelationType": "Default Component Of"
      },
      {
        "ProductReference": "containerd-1.4.12-63.1",
        "RelatesToProductReference": "Image SLES15-SP2-SAP-BYOS-EC2-HVM",
        "RelationType": "Default Component Of"
      },
      {
        "ProductReference": "containerd-1.4.12-63.1",
        "RelatesToProductReference": "Image SLES15-SP2-SAP-BYOS-GCE",
        "RelationType": "Default Component Of"
      },
      {
        "ProductReference": "containerd-1.4.12-63.1",
        "RelatesToProductReference": "Image SLES15-SP2-SAP-EC2-HVM",
        "RelationType": "Default Component Of"
      },
      {
        "ProductReference": "containerd-1.4.12-63.1",
        "RelatesToProductReference": "Image SLES15-SP2-SAP-GCE",
        "RelationType": "Default Component Of"
      },
      {
        "ProductReference": "containerd-1.4.12-63.1",
        "RelatesToProductReference": "Image SLES15-SP3-BYOS-Azure",
        "RelationType": "Default Component Of"
      },
      {
        "ProductReference": "containerd-1.4.12-63.1",
        "RelatesToProductReference": "Image SLES15-SP3-BYOS-EC2-HVM",
        "RelationType": "Default Component Of"
      },
      {
        "ProductReference": "containerd-1.4.12-63.1",
        "RelatesToProductReference": "Image SLES15-SP3-BYOS-GCE",
        "RelationType": "Default Component Of"
      },
      {
        "ProductReference": "containerd-1.4.12-63.1",
        "RelatesToProductReference": "Image SLES15-SP3-CHOST-BYOS-Aliyun",
        "RelationType": "Default Component Of"
      },
      {
        "ProductReference": "containerd-ctr-1.4.12-63.1",
        "RelatesToProductReference": "Image SLES15-SP3-CHOST-BYOS-Aliyun",
        "RelationType": "Default Component Of"
      },
      {
        "ProductReference": "containerd-1.4.12-63.1",
        "RelatesToProductReference": "Image SLES15-SP3-CHOST-BYOS-Azure",
        "RelationType": "Default Component Of"
      },
      {
        "ProductReference": "containerd-ctr-1.4.12-63.1",
        "RelatesToProductReference": "Image SLES15-SP3-CHOST-BYOS-Azure",
        "RelationType": "Default Component Of"
      },
      {
        "ProductReference": "containerd-1.4.12-63.1",
        "RelatesToProductReference": "Image SLES15-SP3-CHOST-BYOS-EC2",
        "RelationType": "Default Component Of"
      },
      {
        "ProductReference": "containerd-ctr-1.4.12-63.1",
        "RelatesToProductReference": "Image SLES15-SP3-CHOST-BYOS-EC2",
        "RelationType": "Default Component Of"
      },
      {
        "ProductReference": "containerd-1.4.12-63.1",
        "RelatesToProductReference": "Image SLES15-SP3-CHOST-BYOS-GCE",
        "RelationType": "Default Component Of"
      },
      {
        "ProductReference": "containerd-ctr-1.4.12-63.1",
        "RelatesToProductReference": "Image SLES15-SP3-CHOST-BYOS-GCE",
        "RelationType": "Default Component Of"
      },
      {
        "ProductReference": "containerd-1.4.12-63.1",
        "RelatesToProductReference": "Image SLES15-SP3-CHOST-BYOS-SAP-CCloud",
        "RelationType": "Default Component Of"
      },
      {
        "ProductReference": "containerd-ctr-1.4.12-63.1",
        "RelatesToProductReference": "Image SLES15-SP3-CHOST-BYOS-SAP-CCloud",
        "RelationType": "Default Component Of"
      },
      {
        "ProductReference": "containerd-1.4.12-63.1",
        "RelatesToProductReference": "Image SLES15-SP3-EC2-ECS-HVM",
        "RelationType": "Default Component Of"
      },
      {
        "ProductReference": "containerd-1.4.12-63.1",
        "RelatesToProductReference": "Image SLES15-SP3-EC2-HVM",
        "RelationType": "Default Component Of"
      },
      {
        "ProductReference": "containerd-1.4.12-63.1",
        "RelatesToProductReference": "Image SLES15-SP3-GCE",
        "RelationType": "Default Component Of"
      },
      {
        "ProductReference": "containerd-1.4.12-63.1",
        "RelatesToProductReference": "Image SLES15-SP3-HPC-Azure",
        "RelationType": "Default Component Of"
      },
      {
        "ProductReference": "containerd-1.4.12-63.1",
        "RelatesToProductReference": "Image SLES15-SP3-HPC-BYOS-Azure",
        "RelationType": "Default Component Of"
      },
      {
        "ProductReference": "containerd-1.4.12-63.1",
        "RelatesToProductReference": "Image SLES15-SP3-HPC-BYOS-EC2-HVM",
        "RelationType": "Default Component Of"
      },
      {
        "ProductReference": "containerd-1.4.12-63.1",
        "RelatesToProductReference": "Image SLES15-SP3-HPC-BYOS-GCE",
        "RelationType": "Default Component Of"
      },
      {
        "ProductReference": "containerd-1.4.12-63.1",
        "RelatesToProductReference": "Image SLES15-SP3-Manager-4-2-Proxy-BYOS-Azure",
        "RelationType": "Default Component Of"
      },
      {
        "ProductReference": "containerd-1.4.12-63.1",
        "RelatesToProductReference": "Image SLES15-SP3-Manager-4-2-Proxy-BYOS-EC2-HVM",
        "RelationType": "Default Component Of"
      },
      {
        "ProductReference": "containerd-1.4.12-63.1",
        "RelatesToProductReference": "Image SLES15-SP3-Manager-4-2-Proxy-BYOS-GCE",
        "RelationType": "Default Component Of"
      },
      {
        "ProductReference": "containerd-1.4.12-63.1",
        "RelatesToProductReference": "Image SLES15-SP3-Manager-4-2-Server-BYOS-Azure",
        "RelationType": "Default Component Of"
      },
      {
        "ProductReference": "containerd-1.4.12-63.1",
        "RelatesToProductReference": "Image SLES15-SP3-Manager-4-2-Server-BYOS-EC2-HVM",
        "RelationType": "Default Component Of"
      },
      {
        "ProductReference": "containerd-1.4.12-63.1",
        "RelatesToProductReference": "Image SLES15-SP3-Manager-4-2-Server-BYOS-GCE",
        "RelationType": "Default Component Of"
      },
      {
        "ProductReference": "containerd-1.4.12-63.1",
        "RelatesToProductReference": "Image SLES15-SP3-Micro-5-1-BYOS-Azure",
        "RelationType": "Default Component Of"
      },
      {
        "ProductReference": "containerd-1.4.12-63.1",
        "RelatesToProductReference": "Image SLES15-SP3-Micro-5-1-BYOS-EC2-HVM",
        "RelationType": "Default Component Of"
      },
      {
        "ProductReference": "containerd-1.4.12-63.1",
        "RelatesToProductReference": "Image SLES15-SP3-Micro-5-1-BYOS-GCE",
        "RelationType": "Default Component Of"
      },
      {
        "ProductReference": "containerd-1.4.12-63.1",
        "RelatesToProductReference": "Image SLES15-SP3-Micro-5-2-BYOS-Azure",
        "RelationType": "Default Component Of"
      },
      {
        "ProductReference": "containerd-1.4.12-63.1",
        "RelatesToProductReference": "Image SLES15-SP3-Micro-5-2-BYOS-EC2-HVM",
        "RelationType": "Default Component Of"
      },
      {
        "ProductReference": "containerd-1.4.12-63.1",
        "RelatesToProductReference": "Image SLES15-SP3-Micro-5-2-BYOS-GCE",
        "RelationType": "Default Component Of"
      },
      {
        "ProductReference": "containerd-1.4.12-63.1",
        "RelatesToProductReference": "Image SLES15-SP3-SAP-Azure",
        "RelationType": "Default Component Of"
      },
      {
        "ProductReference": "containerd-1.4.12-63.1",
        "RelatesToProductReference": "Image SLES15-SP3-SAP-BYOS-Azure",
        "RelationType": "Default Component Of"
      },
      {
        "ProductReference": "containerd-1.4.12-63.1",
        "RelatesToProductReference": "Image SLES15-SP3-SAP-BYOS-EC2-HVM",
        "RelationType": "Default Component Of"
      },
      {
        "ProductReference": "containerd-1.4.12-63.1",
        "RelatesToProductReference": "Image SLES15-SP3-SAP-BYOS-GCE",
        "RelationType": "Default Component Of"
      },
      {
        "ProductReference": "containerd-1.4.12-63.1",
        "RelatesToProductReference": "Image SLES15-SP3-SAP-EC2-HVM",
        "RelationType": "Default Component Of"
      },
      {
        "ProductReference": "containerd-1.4.12-63.1",
        "RelatesToProductReference": "Image SLES15-SP3-SAP-GCE",
        "RelationType": "Default Component Of"
      },
      {
        "ProductReference": "containerd-1.4.12-63.1",
        "RelatesToProductReference": "Image SLES15-SP3-SAPCAL-Azure",
        "RelationType": "Default Component Of"
      },
      {
        "ProductReference": "containerd-1.4.12-63.1",
        "RelatesToProductReference": "Image SLES15-SP3-SAPCAL-EC2-HVM",
        "RelationType": "Default Component Of"
      },
      {
        "ProductReference": "containerd-1.4.12-63.1",
        "RelatesToProductReference": "Image SLES15-SP3-SAPCAL-GCE",
        "RelationType": "Default Component Of"
      },
      {
        "ProductReference": "containerd-1.4.12-63.1",
        "RelatesToProductReference": "Image SLES15-SP4",
        "RelationType": "Default Component Of"
      },
      {
        "ProductReference": "containerd-1.4.12-63.1",
        "RelatesToProductReference": "Image SLES15-SP4-Azure-Basic",
        "RelationType": "Default Component Of"
      },
      {
        "ProductReference": "containerd-1.4.12-63.1",
        "RelatesToProductReference": "Image SLES15-SP4-Azure-Standard",
        "RelationType": "Default Component Of"
      },
      {
        "ProductReference": "containerd-1.4.12-63.1",
        "RelatesToProductReference": "Image SLES15-SP4-BYOS",
        "RelationType": "Default Component Of"
      },
      {
        "ProductReference": "containerd-1.4.12-63.1",
        "RelatesToProductReference": "Image SLES15-SP4-BYOS-Azure",
        "RelationType": "Default Component Of"
      },
      {
        "ProductReference": "containerd-1.4.12-63.1",
        "RelatesToProductReference": "Image SLES15-SP4-BYOS-EC2",
        "RelationType": "Default Component Of"
      },
      {
        "ProductReference": "containerd-1.4.12-63.1",
        "RelatesToProductReference": "Image SLES15-SP4-BYOS-GCE",
        "RelationType": "Default Component Of"
      },
      {
        "ProductReference": "containerd-1.4.12-63.1",
        "RelatesToProductReference": "Image SLES15-SP4-CHOST-BYOS",
        "RelationType": "Default Component Of"
      },
      {
        "ProductReference": "containerd-ctr-1.4.12-63.1",
        "RelatesToProductReference": "Image SLES15-SP4-CHOST-BYOS",
        "RelationType": "Default Component Of"
      },
      {
        "ProductReference": "containerd-1.4.12-63.1",
        "RelatesToProductReference": "Image SLES15-SP4-CHOST-BYOS-Aliyun",
        "RelationType": "Default Component Of"
      },
      {
        "ProductReference": "containerd-ctr-1.4.12-63.1",
        "RelatesToProductReference": "Image SLES15-SP4-CHOST-BYOS-Aliyun",
        "RelationType": "Default Component Of"
      },
      {
        "ProductReference": "containerd-1.4.12-63.1",
        "RelatesToProductReference": "Image SLES15-SP4-CHOST-BYOS-Azure",
        "RelationType": "Default Component Of"
      },
      {
        "ProductReference": "containerd-ctr-1.4.12-63.1",
        "RelatesToProductReference": "Image SLES15-SP4-CHOST-BYOS-Azure",
        "RelationType": "Default Component Of"
      },
      {
        "ProductReference": "containerd-1.4.12-63.1",
        "RelatesToProductReference": "Image SLES15-SP4-CHOST-BYOS-EC2",
        "RelationType": "Default Component Of"
      },
      {
        "ProductReference": "containerd-ctr-1.4.12-63.1",
        "RelatesToProductReference": "Image SLES15-SP4-CHOST-BYOS-EC2",
        "RelationType": "Default Component Of"
      },
      {
        "ProductReference": "containerd-1.4.12-63.1",
        "RelatesToProductReference": "Image SLES15-SP4-CHOST-BYOS-GCE",
        "RelationType": "Default Component Of"
      },
      {
        "ProductReference": "containerd-ctr-1.4.12-63.1",
        "RelatesToProductReference": "Image SLES15-SP4-CHOST-BYOS-GCE",
        "RelationType": "Default Component Of"
      },
      {
        "ProductReference": "containerd-1.4.12-63.1",
        "RelatesToProductReference": "Image SLES15-SP4-CHOST-BYOS-SAP-CCloud",
        "RelationType": "Default Component Of"
      },
      {
        "ProductReference": "containerd-ctr-1.4.12-63.1",
        "RelatesToProductReference": "Image SLES15-SP4-CHOST-BYOS-SAP-CCloud",
        "RelationType": "Default Component Of"
      },
      {
        "ProductReference": "containerd-1.4.12-63.1",
        "RelatesToProductReference": "Image SLES15-SP4-EC2",
        "RelationType": "Default Component Of"
      },
      {
        "ProductReference": "containerd-1.4.12-63.1",
        "RelatesToProductReference": "Image SLES15-SP4-EC2-ECS-HVM",
        "RelationType": "Default Component Of"
      },
      {
        "ProductReference": "containerd-1.4.12-63.1",
        "RelatesToProductReference": "Image SLES15-SP4-GCE",
        "RelationType": "Default Component Of"
      },
      {
        "ProductReference": "containerd-1.4.12-63.1",
        "RelatesToProductReference": "Image SLES15-SP4-HPC",
        "RelationType": "Default Component Of"
      },
      {
        "ProductReference": "containerd-1.4.12-63.1",
        "RelatesToProductReference": "Image SLES15-SP4-HPC-Azure",
        "RelationType": "Default Component Of"
      },
      {
        "ProductReference": "containerd-1.4.12-63.1",
        "RelatesToProductReference": "Image SLES15-SP4-HPC-BYOS",
        "RelationType": "Default Component Of"
      },
      {
        "ProductReference": "containerd-1.4.12-63.1",
        "RelatesToProductReference": "Image SLES15-SP4-HPC-BYOS-Azure",
        "RelationType": "Default Component Of"
      },
      {
        "ProductReference": "containerd-1.4.12-63.1",
        "RelatesToProductReference": "Image SLES15-SP4-HPC-BYOS-EC2",
        "RelationType": "Default Component Of"
      },
      {
        "ProductReference": "containerd-1.4.12-63.1",
        "RelatesToProductReference": "Image SLES15-SP4-HPC-BYOS-GCE",
        "RelationType": "Default Component Of"
      },
      {
        "ProductReference": "containerd-1.4.12-63.1",
        "RelatesToProductReference": "Image SLES15-SP4-HPC-EC2",
        "RelationType": "Default Component Of"
      },
      {
        "ProductReference": "containerd-1.4.12-63.1",
        "RelatesToProductReference": "Image SLES15-SP4-HPC-GCE",
        "RelationType": "Default Component Of"
      },
      {
        "ProductReference": "containerd-1.4.12-63.1",
        "RelatesToProductReference": "Image SLES15-SP4-Hardened-BYOS",
        "RelationType": "Default Component Of"
      },
      {
        "ProductReference": "containerd-1.4.12-63.1",
        "RelatesToProductReference": "Image SLES15-SP4-Hardened-BYOS-Azure",
        "RelationType": "Default Component Of"
      },
      {
        "ProductReference": "containerd-1.4.12-63.1",
        "RelatesToProductReference": "Image SLES15-SP4-Hardened-BYOS-EC2",
        "RelationType": "Default Component Of"
      },
      {
        "ProductReference": "containerd-1.4.12-63.1",
        "RelatesToProductReference": "Image SLES15-SP4-Hardened-BYOS-GCE",
        "RelationType": "Default Component Of"
      },
      {
        "ProductReference": "containerd-1.4.12-63.1",
        "RelatesToProductReference": "Image SLES15-SP4-Manager-Proxy-4-3-BYOS",
        "RelationType": "Default Component Of"
      },
      {
        "ProductReference": "containerd-1.4.12-63.1",
        "RelatesToProductReference": "Image SLES15-SP4-Manager-Proxy-4-3-BYOS-Azure",
        "RelationType": "Default Component Of"
      },
      {
        "ProductReference": "containerd-1.4.12-63.1",
        "RelatesToProductReference": "Image SLES15-SP4-Manager-Proxy-4-3-BYOS-EC2",
        "RelationType": "Default Component Of"
      },
      {
        "ProductReference": "containerd-1.4.12-63.1",
        "RelatesToProductReference": "Image SLES15-SP4-Manager-Proxy-4-3-BYOS-GCE",
        "RelationType": "Default Component Of"
      },
      {
        "ProductReference": "containerd-1.4.12-63.1",
        "RelatesToProductReference": "Image SLES15-SP4-Manager-Server-4-3",
        "RelationType": "Default Component Of"
      },
      {
        "ProductReference": "containerd-1.4.12-63.1",
        "RelatesToProductReference": "Image SLES15-SP4-Manager-Server-4-3-Azure-llc",
        "RelationType": "Default Component Of"
      },
      {
        "ProductReference": "containerd-1.4.12-63.1",
        "RelatesToProductReference": "Image SLES15-SP4-Manager-Server-4-3-Azure-ltd",
        "RelationType": "Default Component Of"
      },
      {
        "ProductReference": "containerd-1.4.12-63.1",
        "RelatesToProductReference": "Image SLES15-SP4-Manager-Server-4-3-BYOS",
        "RelationType": "Default Component Of"
      },
      {
        "ProductReference": "containerd-1.4.12-63.1",
        "RelatesToProductReference": "Image SLES15-SP4-Manager-Server-4-3-BYOS-Azure",
        "RelationType": "Default Component Of"
      },
      {
        "ProductReference": "containerd-1.4.12-63.1",
        "RelatesToProductReference": "Image SLES15-SP4-Manager-Server-4-3-BYOS-EC2",
        "RelationType": "Default Component Of"
      },
      {
        "ProductReference": "containerd-1.4.12-63.1",
        "RelatesToProductReference": "Image SLES15-SP4-Manager-Server-4-3-BYOS-GCE",
        "RelationType": "Default Component Of"
      },
      {
        "ProductReference": "containerd-1.4.12-63.1",
        "RelatesToProductReference": "Image SLES15-SP4-Manager-Server-4-3-EC2-llc",
        "RelationType": "Default Component Of"
      },
      {
        "ProductReference": "containerd-1.4.12-63.1",
        "RelatesToProductReference": "Image SLES15-SP4-Manager-Server-4-3-EC2-ltd",
        "RelationType": "Default Component Of"
      },
      {
        "ProductReference": "containerd-1.4.12-63.1",
        "RelatesToProductReference": "Image SLES15-SP4-Micro-5-3",
        "RelationType": "Default Component Of"
      },
      {
        "ProductReference": "containerd-1.4.12-63.1",
        "RelatesToProductReference": "Image SLES15-SP4-Micro-5-3-Azure",
        "RelationType": "Default Component Of"
      },
      {
        "ProductReference": "containerd-1.4.12-63.1",
        "RelatesToProductReference": "Image SLES15-SP4-Micro-5-3-BYOS",
        "RelationType": "Default Component Of"
      },
      {
        "ProductReference": "containerd-1.4.12-63.1",
        "RelatesToProductReference": "Image SLES15-SP4-Micro-5-3-BYOS-Azure",
        "RelationType": "Default Component Of"
      },
      {
        "ProductReference": "containerd-1.4.12-63.1",
        "RelatesToProductReference": "Image SLES15-SP4-Micro-5-3-BYOS-EC2",
        "RelationType": "Default Component Of"
      },
      {
        "ProductReference": "containerd-1.4.12-63.1",
        "RelatesToProductReference": "Image SLES15-SP4-Micro-5-3-BYOS-GCE",
        "RelationType": "Default Component Of"
      },
      {
        "ProductReference": "containerd-1.4.12-63.1",
        "RelatesToProductReference": "Image SLES15-SP4-Micro-5-3-EC2",
        "RelationType": "Default Component Of"
      },
      {
        "ProductReference": "containerd-1.4.12-63.1",
        "RelatesToProductReference": "Image SLES15-SP4-Micro-5-3-GCE",
        "RelationType": "Default Component Of"
      },
      {
        "ProductReference": "containerd-1.4.12-63.1",
        "RelatesToProductReference": "Image SLES15-SP4-Micro-5-4",
        "RelationType": "Default Component Of"
      },
      {
        "ProductReference": "containerd-1.4.12-63.1",
        "RelatesToProductReference": "Image SLES15-SP4-Micro-5-4-Azure",
        "RelationType": "Default Component Of"
      },
      {
        "ProductReference": "containerd-1.4.12-63.1",
        "RelatesToProductReference": "Image SLES15-SP4-Micro-5-4-BYOS",
        "RelationType": "Default Component Of"
      },
      {
        "ProductReference": "containerd-1.4.12-63.1",
        "RelatesToProductReference": "Image SLES15-SP4-Micro-5-4-BYOS-Azure",
        "RelationType": "Default Component Of"
      },
      {
        "ProductReference": "containerd-1.4.12-63.1",
        "RelatesToProductReference": "Image SLES15-SP4-Micro-5-4-BYOS-EC2",
        "RelationType": "Default Component Of"
      },
      {
        "ProductReference": "containerd-1.4.12-63.1",
        "RelatesToProductReference": "Image SLES15-SP4-Micro-5-4-BYOS-GCE",
        "RelationType": "Default Component Of"
      },
      {
        "ProductReference": "containerd-1.4.12-63.1",
        "RelatesToProductReference": "Image SLES15-SP4-Micro-5-4-EC2",
        "RelationType": "Default Component Of"
      },
      {
        "ProductReference": "containerd-1.4.12-63.1",
        "RelatesToProductReference": "Image SLES15-SP4-Micro-5-4-GCE",
        "RelationType": "Default Component Of"
      },
      {
        "ProductReference": "containerd-1.4.12-63.1",
        "RelatesToProductReference": "Image SLES15-SP4-SAP",
        "RelationType": "Default Component Of"
      },
      {
        "ProductReference": "containerd-1.4.12-63.1",
        "RelatesToProductReference": "Image SLES15-SP4-SAP-Azure",
        "RelationType": "Default Component Of"
      },
      {
        "ProductReference": "containerd-1.4.12-63.1",
        "RelatesToProductReference": "Image SLES15-SP4-SAP-BYOS",
        "RelationType": "Default Component Of"
      },
      {
        "ProductReference": "containerd-1.4.12-63.1",
        "RelatesToProductReference": "Image SLES15-SP4-SAP-BYOS-Azure",
        "RelationType": "Default Component Of"
      },
      {
        "ProductReference": "containerd-1.4.12-63.1",
        "RelatesToProductReference": "Image SLES15-SP4-SAP-BYOS-EC2",
        "RelationType": "Default Component Of"
      },
      {
        "ProductReference": "containerd-1.4.12-63.1",
        "RelatesToProductReference": "Image SLES15-SP4-SAP-BYOS-GCE",
        "RelationType": "Default Component Of"
      },
      {
        "ProductReference": "containerd-1.4.12-63.1",
        "RelatesToProductReference": "Image SLES15-SP4-SAP-EC2",
        "RelationType": "Default Component Of"
      },
      {
        "ProductReference": "containerd-1.4.12-63.1",
        "RelatesToProductReference": "Image SLES15-SP4-SAP-GCE",
        "RelationType": "Default Component Of"
      },
      {
        "ProductReference": "containerd-1.4.12-63.1",
        "RelatesToProductReference": "Image SLES15-SP4-SAP-Hardened",
        "RelationType": "Default Component Of"
      },
      {
        "ProductReference": "containerd-1.4.12-63.1",
        "RelatesToProductReference": "Image SLES15-SP4-SAP-Hardened-Azure",
        "RelationType": "Default Component Of"
      },
      {
        "ProductReference": "containerd-1.4.12-63.1",
        "RelatesToProductReference": "Image SLES15-SP4-SAP-Hardened-BYOS",
        "RelationType": "Default Component Of"
      },
      {
        "ProductReference": "containerd-1.4.12-63.1",
        "RelatesToProductReference": "Image SLES15-SP4-SAP-Hardened-BYOS-Azure",
        "RelationType": "Default Component Of"
      },
      {
        "ProductReference": "containerd-1.4.12-63.1",
        "RelatesToProductReference": "Image SLES15-SP4-SAP-Hardened-BYOS-EC2",
        "RelationType": "Default Component Of"
      },
      {
        "ProductReference": "containerd-1.4.12-63.1",
        "RelatesToProductReference": "Image SLES15-SP4-SAP-Hardened-BYOS-GCE",
        "RelationType": "Default Component Of"
      },
      {
        "ProductReference": "containerd-1.4.12-63.1",
        "RelatesToProductReference": "Image SLES15-SP4-SAP-Hardened-EC2",
        "RelationType": "Default Component Of"
      },
      {
        "ProductReference": "containerd-1.4.12-63.1",
        "RelatesToProductReference": "Image SLES15-SP4-SAP-Hardened-GCE",
        "RelationType": "Default Component Of"
      },
      {
        "ProductReference": "containerd-1.4.12-63.1",
        "RelatesToProductReference": "Image SLES15-SP4-SAPCAL",
        "RelationType": "Default Component Of"
      },
      {
        "ProductReference": "containerd-1.4.12-63.1",
        "RelatesToProductReference": "Image SLES15-SP4-SAPCAL-Azure",
        "RelationType": "Default Component Of"
      },
      {
        "ProductReference": "containerd-1.4.12-63.1",
        "RelatesToProductReference": "Image SLES15-SP4-SAPCAL-EC2",
        "RelationType": "Default Component Of"
      },
      {
        "ProductReference": "containerd-1.4.12-63.1",
        "RelatesToProductReference": "Image SLES15-SP4-SAPCAL-GCE",
        "RelationType": "Default Component Of"
      },
      {
        "ProductReference": "containerd-1.4.12-63.1",
        "RelatesToProductReference": "Image SLES15-SP5-Azure-Basic",
        "RelationType": "Default Component Of"
      },
      {
        "ProductReference": "containerd-1.4.12-63.1",
        "RelatesToProductReference": "Image SLES15-SP5-Azure-Standard",
        "RelationType": "Default Component Of"
      },
      {
        "ProductReference": "containerd-1.4.12-63.1",
        "RelatesToProductReference": "Image SLES15-SP5-BYOS-Azure",
        "RelationType": "Default Component Of"
      },
      {
        "ProductReference": "containerd-1.4.12-63.1",
        "RelatesToProductReference": "Image SLES15-SP5-BYOS-EC2",
        "RelationType": "Default Component Of"
      },
      {
        "ProductReference": "containerd-1.4.12-63.1",
        "RelatesToProductReference": "Image SLES15-SP5-BYOS-GCE",
        "RelationType": "Default Component Of"
      },
      {
        "ProductReference": "containerd-1.4.12-63.1",
        "RelatesToProductReference": "Image SLES15-SP5-CHOST-BYOS-Aliyun",
        "RelationType": "Default Component Of"
      },
      {
        "ProductReference": "containerd-ctr-1.4.12-63.1",
        "RelatesToProductReference": "Image SLES15-SP5-CHOST-BYOS-Aliyun",
        "RelationType": "Default Component Of"
      },
      {
        "ProductReference": "containerd-1.4.12-63.1",
        "RelatesToProductReference": "Image SLES15-SP5-CHOST-BYOS-Azure",
        "RelationType": "Default Component Of"
      },
      {
        "ProductReference": "containerd-ctr-1.4.12-63.1",
        "RelatesToProductReference": "Image SLES15-SP5-CHOST-BYOS-Azure",
        "RelationType": "Default Component Of"
      },
      {
        "ProductReference": "containerd-1.4.12-63.1",
        "RelatesToProductReference": "Image SLES15-SP5-CHOST-BYOS-EC2",
        "RelationType": "Default Component Of"
      },
      {
        "ProductReference": "containerd-ctr-1.4.12-63.1",
        "RelatesToProductReference": "Image SLES15-SP5-CHOST-BYOS-EC2",
        "RelationType": "Default Component Of"
      },
      {
        "ProductReference": "containerd-1.4.12-63.1",
        "RelatesToProductReference": "Image SLES15-SP5-CHOST-BYOS-GCE",
        "RelationType": "Default Component Of"
      },
      {
        "ProductReference": "containerd-ctr-1.4.12-63.1",
        "RelatesToProductReference": "Image SLES15-SP5-CHOST-BYOS-GCE",
        "RelationType": "Default Component Of"
      },
      {
        "ProductReference": "containerd-1.4.12-63.1",
        "RelatesToProductReference": "Image SLES15-SP5-CHOST-BYOS-SAP-CCloud",
        "RelationType": "Default Component Of"
      },
      {
        "ProductReference": "containerd-ctr-1.4.12-63.1",
        "RelatesToProductReference": "Image SLES15-SP5-CHOST-BYOS-SAP-CCloud",
        "RelationType": "Default Component Of"
      },
      {
        "ProductReference": "containerd-1.4.12-63.1",
        "RelatesToProductReference": "Image SLES15-SP5-EC2",
        "RelationType": "Default Component Of"
      },
      {
        "ProductReference": "containerd-1.4.12-63.1",
        "RelatesToProductReference": "Image SLES15-SP5-EC2-ECS-HVM",
        "RelationType": "Default Component Of"
      },
      {
        "ProductReference": "containerd-1.4.12-63.1",
        "RelatesToProductReference": "Image SLES15-SP5-GCE",
        "RelationType": "Default Component Of"
      },
      {
        "ProductReference": "containerd-1.4.12-63.1",
        "RelatesToProductReference": "Image SLES15-SP5-HPC-Azure",
        "RelationType": "Default Component Of"
      },
      {
        "ProductReference": "containerd-1.4.12-63.1",
        "RelatesToProductReference": "Image SLES15-SP5-HPC-BYOS-Azure",
        "RelationType": "Default Component Of"
      },
      {
        "ProductReference": "containerd-1.4.12-63.1",
        "RelatesToProductReference": "Image SLES15-SP5-HPC-BYOS-EC2",
        "RelationType": "Default Component Of"
      },
      {
        "ProductReference": "containerd-1.4.12-63.1",
        "RelatesToProductReference": "Image SLES15-SP5-HPC-BYOS-GCE",
        "RelationType": "Default Component Of"
      },
      {
        "ProductReference": "containerd-1.4.12-63.1",
        "RelatesToProductReference": "Image SLES15-SP5-HPC-EC2",
        "RelationType": "Default Component Of"
      },
      {
        "ProductReference": "containerd-1.4.12-63.1",
        "RelatesToProductReference": "Image SLES15-SP5-HPC-GCE",
        "RelationType": "Default Component Of"
      },
      {
        "ProductReference": "containerd-1.4.12-63.1",
        "RelatesToProductReference": "Image SLES15-SP5-Hardened-BYOS-Azure",
        "RelationType": "Default Component Of"
      },
      {
        "ProductReference": "containerd-1.4.12-63.1",
        "RelatesToProductReference": "Image SLES15-SP5-Hardened-BYOS-EC2",
        "RelationType": "Default Component Of"
      },
      {
        "ProductReference": "containerd-1.4.12-63.1",
        "RelatesToProductReference": "Image SLES15-SP5-Hardened-BYOS-GCE",
        "RelationType": "Default Component Of"
      },
      {
        "ProductReference": "containerd-1.4.12-63.1",
        "RelatesToProductReference": "Image SLES15-SP5-Micro-5-5",
        "RelationType": "Default Component Of"
      },
      {
        "ProductReference": "containerd-1.4.12-63.1",
        "RelatesToProductReference": "Image SLES15-SP5-Micro-5-5-Azure",
        "RelationType": "Default Component Of"
      },
      {
        "ProductReference": "containerd-1.4.12-63.1",
        "RelatesToProductReference": "Image SLES15-SP5-Micro-5-5-BYOS",
        "RelationType": "Default Component Of"
      },
      {
        "ProductReference": "containerd-1.4.12-63.1",
        "RelatesToProductReference": "Image SLES15-SP5-Micro-5-5-BYOS-Azure",
        "RelationType": "Default Component Of"
      },
      {
        "ProductReference": "containerd-1.4.12-63.1",
        "RelatesToProductReference": "Image SLES15-SP5-Micro-5-5-BYOS-EC2",
        "RelationType": "Default Component Of"
      },
      {
        "ProductReference": "containerd-1.4.12-63.1",
        "RelatesToProductReference": "Image SLES15-SP5-Micro-5-5-BYOS-GCE",
        "RelationType": "Default Component Of"
      },
      {
        "ProductReference": "containerd-1.4.12-63.1",
        "RelatesToProductReference": "Image SLES15-SP5-Micro-5-5-EC2",
        "RelationType": "Default Component Of"
      },
      {
        "ProductReference": "containerd-1.4.12-63.1",
        "RelatesToProductReference": "Image SLES15-SP5-Micro-5-5-GCE",
        "RelationType": "Default Component Of"
      },
      {
        "ProductReference": "containerd-1.4.12-63.1",
        "RelatesToProductReference": "Image SLES15-SP5-SAP-Azure",
        "RelationType": "Default Component Of"
      },
      {
        "ProductReference": "containerd-1.4.12-63.1",
        "RelatesToProductReference": "Image SLES15-SP5-SAP-BYOS-Azure",
        "RelationType": "Default Component Of"
      },
      {
        "ProductReference": "containerd-1.4.12-63.1",
        "RelatesToProductReference": "Image SLES15-SP5-SAP-BYOS-EC2",
        "RelationType": "Default Component Of"
      },
      {
        "ProductReference": "containerd-1.4.12-63.1",
        "RelatesToProductReference": "Image SLES15-SP5-SAP-BYOS-GCE",
        "RelationType": "Default Component Of"
      },
      {
        "ProductReference": "containerd-1.4.12-63.1",
        "RelatesToProductReference": "Image SLES15-SP5-SAP-EC2",
        "RelationType": "Default Component Of"
      },
      {
        "ProductReference": "containerd-1.4.12-63.1",
        "RelatesToProductReference": "Image SLES15-SP5-SAP-GCE",
        "RelationType": "Default Component Of"
      },
      {
        "ProductReference": "containerd-1.4.12-63.1",
        "RelatesToProductReference": "Image SLES15-SP5-SAP-Hardened-Azure",
        "RelationType": "Default Component Of"
      },
      {
        "ProductReference": "containerd-1.4.12-63.1",
        "RelatesToProductReference": "Image SLES15-SP5-SAP-Hardened-BYOS-Azure",
        "RelationType": "Default Component Of"
      },
      {
        "ProductReference": "containerd-1.4.12-63.1",
        "RelatesToProductReference": "Image SLES15-SP5-SAP-Hardened-BYOS-EC2",
        "RelationType": "Default Component Of"
      },
      {
        "ProductReference": "containerd-1.4.12-63.1",
        "RelatesToProductReference": "Image SLES15-SP5-SAP-Hardened-BYOS-GCE",
        "RelationType": "Default Component Of"
      },
      {
        "ProductReference": "containerd-1.4.12-63.1",
        "RelatesToProductReference": "Image SLES15-SP5-SAP-Hardened-EC2",
        "RelationType": "Default Component Of"
      },
      {
        "ProductReference": "containerd-1.4.12-63.1",
        "RelatesToProductReference": "Image SLES15-SP5-SAP-Hardened-GCE",
        "RelationType": "Default Component Of"
      },
      {
        "ProductReference": "containerd-1.4.12-63.1",
        "RelatesToProductReference": "Image SLES15-SP5-SAPCAL-Azure",
        "RelationType": "Default Component Of"
      },
      {
        "ProductReference": "containerd-1.4.12-63.1",
        "RelatesToProductReference": "Image SLES15-SP5-SAPCAL-EC2",
        "RelationType": "Default Component Of"
      },
      {
        "ProductReference": "containerd-1.4.12-63.1",
        "RelatesToProductReference": "Image SLES15-SP5-SAPCAL-GCE",
        "RelationType": "Default Component Of"
      },
      {
        "ProductReference": "containerd-1.4.12-63.1",
        "RelatesToProductReference": "SUSE Linux Enterprise Micro 5.0",
        "RelationType": "Default Component Of"
      },
      {
        "ProductReference": "containerd-1.4.12-63.1",
        "RelatesToProductReference": "SUSE Linux Enterprise Micro 5.1",
        "RelationType": "Default Component Of"
      },
      {
        "ProductReference": "containerd-1.4.12-63.1",
        "RelatesToProductReference": "SUSE Linux Enterprise Module for Containers 15 SP3",
        "RelationType": "Default Component Of"
      }
    ]
  },
  "References": [
    {
      "URL": "https://www.suse.com/support/update/announcement/2022/suse-su-20220720-1/",
      "Description": "Link for SUSE-SU-2022:0720-1"
    },
    {
      "URL": "https://lists.suse.com/pipermail/sle-security-updates/2022-March/010353.html",
      "Description": "E-Mail link for SUSE-SU-2022:0720-1"
    },
    {
      "URL": "https://www.suse.com/support/security/rating/",
      "Description": "SUSE Security Ratings"
    },
    {
      "URL": "https://bugzilla.suse.com/1196441",
      "Description": "SUSE Bug 1196441"
    },
    {
      "URL": "https://www.suse.com/security/cve/CVE-2022-23648/",
      "Description": "SUSE CVE CVE-2022-23648 page"
    }
  ],
  "Vulnerabilities": [
    {
      "CVE": "CVE-2022-23648",
      "Description": "containerd is a container runtime available as a daemon for Linux and Windows. A bug was found in containerd prior to versions 1.6.1, 1.5.10, and 1.14.12 where containers launched through containerd's CRI implementation on Linux with a specially-crafted image configuration could gain access to read-only copies of arbitrary files and directories on the host. This may bypass any policy-based enforcement on container setup (including a Kubernetes Pod Security Policy) and expose potentially sensitive information. Kubernetes and crictl can both be configured to use containerd's CRI implementation. This bug has been fixed in containerd 1.6.1, 1.5.10, and 1.4.12. Users should update to these versions to resolve the issue.",
      "Threats": [
        {
          "Type": "Impact",
          "Severity": "moderate"
        }
      ],
      "References": [
        {
          "URL": "https://www.suse.com/security/cve/CVE-2022-23648.html",
          "Description": "CVE-2022-23648"
        },
        {
          "URL": "https://bugzilla.suse.com/1196441",
          "Description": "SUSE Bug 1196441"
        }
      ],
      "ProductStatuses": [
        {
          "Type": "Fixed",
          "ProductID": [
            "Image SLES15-Azure-BYOS:containerd-1.4.12-63.1",
            "Image SLES15-SAP-Azure-BYOS:containerd-1.4.12-63.1",
            "Image SLES15-SP1-Azure-BYOS:containerd-1.4.12-63.1",
            "Image SLES15-SP1-Azure-HPC-BYOS:containerd-1.4.12-63.1",
            "Image SLES15-SP1-CHOST-BYOS-Azure:containerd-1.4.12-63.1",
            "Image SLES15-SP1-CHOST-BYOS-Azure:containerd-ctr-1.4.12-63.1",
            "Image SLES15-SP1-CHOST-BYOS-EC2:containerd-1.4.12-63.1",
            "Image SLES15-SP1-CHOST-BYOS-EC2:containerd-ctr-1.4.12-63.1",
            "Image SLES15-SP1-CHOST-BYOS-GCE:containerd-1.4.12-63.1",
            "Image SLES15-SP1-CHOST-BYOS-GCE:containerd-ctr-1.4.12-63.1",
            "Image SLES15-SP1-SAP-Azure-BYOS:containerd-1.4.12-63.1",
            "Image SLES15-SP1-SAP-EC2-HVM:containerd-1.4.12-63.1",
            "Image SLES15-SP1-SAPCAL-Azure:containerd-1.4.12-63.1",
            "Image SLES15-SP1-SAPCAL-EC2-HVM:containerd-1.4.12-63.1",
            "Image SLES15-SP1-SAPCAL-GCE:containerd-1.4.12-63.1",
            "Image SLES15-SP2-BYOS-Azure:containerd-1.4.12-63.1",
            "Image SLES15-SP2-BYOS-EC2-HVM:containerd-1.4.12-63.1",
            "Image SLES15-SP2-BYOS-GCE:containerd-1.4.12-63.1",
            "Image SLES15-SP2-CHOST-BYOS-Aliyun:containerd-1.4.12-63.1",
            "Image SLES15-SP2-CHOST-BYOS-Aliyun:containerd-ctr-1.4.12-63.1",
            "Image SLES15-SP2-CHOST-BYOS-Azure:containerd-1.4.12-63.1",
            "Image SLES15-SP2-CHOST-BYOS-Azure:containerd-ctr-1.4.12-63.1",
            "Image SLES15-SP2-CHOST-BYOS-EC2:containerd-1.4.12-63.1",
            "Image SLES15-SP2-CHOST-BYOS-EC2:containerd-ctr-1.4.12-63.1",
            "Image SLES15-SP2-CHOST-BYOS-GCE:containerd-1.4.12-63.1",
            "Image SLES15-SP2-CHOST-BYOS-GCE:containerd-ctr-1.4.12-63.1",
            "Image SLES15-SP2-HPC-BYOS-Azure:containerd-1.4.12-63.1",
            "Image SLES15-SP2-HPC-BYOS-EC2-HVM:containerd-1.4.12-63.1",
            "Image SLES15-SP2-Manager-4-1-Proxy-BYOS-Azure:containerd-1.4.12-63.1",
            "Image SLES15-SP2-Manager-4-1-Proxy-BYOS-EC2-HVM:containerd-1.4.12-63.1",
            "Image SLES15-SP2-Manager-4-1-Proxy-BYOS-GCE:containerd-1.4.12-63.1",
            "Image SLES15-SP2-Manager-4-1-Server-BYOS-Azure:containerd-1.4.12-63.1",
            "Image SLES15-SP2-Manager-4-1-Server-BYOS-EC2-HVM:containerd-1.4.12-63.1",
            "Image SLES15-SP2-Manager-4-1-Server-BYOS-GCE:containerd-1.4.12-63.1",
            "Image SLES15-SP2-SAP-Azure:containerd-1.4.12-63.1",
            "Image SLES15-SP2-SAP-BYOS-Azure:containerd-1.4.12-63.1",
            "Image SLES15-SP2-SAP-BYOS-EC2-HVM:containerd-1.4.12-63.1",
            "Image SLES15-SP2-SAP-BYOS-GCE:containerd-1.4.12-63.1",
            "Image SLES15-SP2-SAP-EC2-HVM:containerd-1.4.12-63.1",
            "Image SLES15-SP2-SAP-GCE:containerd-1.4.12-63.1",
            "Image SLES15-SP3-BYOS-Azure:containerd-1.4.12-63.1",
            "Image SLES15-SP3-BYOS-EC2-HVM:containerd-1.4.12-63.1",
            "Image SLES15-SP3-BYOS-GCE:containerd-1.4.12-63.1",
            "Image SLES15-SP3-CHOST-BYOS-Aliyun:containerd-1.4.12-63.1",
            "Image SLES15-SP3-CHOST-BYOS-Aliyun:containerd-ctr-1.4.12-63.1",
            "Image SLES15-SP3-CHOST-BYOS-Azure:containerd-1.4.12-63.1",
            "Image SLES15-SP3-CHOST-BYOS-Azure:containerd-ctr-1.4.12-63.1",
            "Image SLES15-SP3-CHOST-BYOS-EC2:containerd-1.4.12-63.1",
            "Image SLES15-SP3-CHOST-BYOS-EC2:containerd-ctr-1.4.12-63.1",
            "Image SLES15-SP3-CHOST-BYOS-GCE:containerd-1.4.12-63.1",
            "Image SLES15-SP3-CHOST-BYOS-GCE:containerd-ctr-1.4.12-63.1",
            "Image SLES15-SP3-CHOST-BYOS-SAP-CCloud:containerd-1.4.12-63.1",
            "Image SLES15-SP3-CHOST-BYOS-SAP-CCloud:containerd-ctr-1.4.12-63.1",
            "Image SLES15-SP3-EC2-ECS-HVM:containerd-1.4.12-63.1",
            "Image SLES15-SP3-EC2-HVM:containerd-1.4.12-63.1",
            "Image SLES15-SP3-GCE:containerd-1.4.12-63.1",
            "Image SLES15-SP3-HPC-Azure:containerd-1.4.12-63.1",
            "Image SLES15-SP3-HPC-BYOS-Azure:containerd-1.4.12-63.1",
            "Image SLES15-SP3-HPC-BYOS-EC2-HVM:containerd-1.4.12-63.1",
            "Image SLES15-SP3-HPC-BYOS-GCE:containerd-1.4.12-63.1",
            "Image SLES15-SP3-Manager-4-2-Proxy-BYOS-Azure:containerd-1.4.12-63.1",
            "Image SLES15-SP3-Manager-4-2-Proxy-BYOS-EC2-HVM:containerd-1.4.12-63.1",
            "Image SLES15-SP3-Manager-4-2-Proxy-BYOS-GCE:containerd-1.4.12-63.1",
            "Image SLES15-SP3-Manager-4-2-Server-BYOS-Azure:containerd-1.4.12-63.1",
            "Image SLES15-SP3-Manager-4-2-Server-BYOS-EC2-HVM:containerd-1.4.12-63.1",
            "Image SLES15-SP3-Manager-4-2-Server-BYOS-GCE:containerd-1.4.12-63.1",
            "Image SLES15-SP3-Micro-5-1-BYOS-Azure:containerd-1.4.12-63.1",
            "Image SLES15-SP3-Micro-5-1-BYOS-EC2-HVM:containerd-1.4.12-63.1",
            "Image SLES15-SP3-Micro-5-1-BYOS-GCE:containerd-1.4.12-63.1",
            "Image SLES15-SP3-Micro-5-2-BYOS-Azure:containerd-1.4.12-63.1",
            "Image SLES15-SP3-Micro-5-2-BYOS-EC2-HVM:containerd-1.4.12-63.1",
            "Image SLES15-SP3-Micro-5-2-BYOS-GCE:containerd-1.4.12-63.1",
            "Image SLES15-SP3-SAP-Azure:containerd-1.4.12-63.1",
            "Image SLES15-SP3-SAP-BYOS-Azure:containerd-1.4.12-63.1",
            "Image SLES15-SP3-SAP-BYOS-EC2-HVM:containerd-1.4.12-63.1",
            "Image SLES15-SP3-SAP-BYOS-GCE:containerd-1.4.12-63.1",
            "Image SLES15-SP3-SAP-EC2-HVM:containerd-1.4.12-63.1",
            "Image SLES15-SP3-SAP-GCE:containerd-1.4.12-63.1",
            "Image SLES15-SP3-SAPCAL-Azure:containerd-1.4.12-63.1",
            "Image SLES15-SP3-SAPCAL-EC2-HVM:containerd-1.4.12-63.1",
            "Image SLES15-SP3-SAPCAL-GCE:containerd-1.4.12-63.1",
            "Image SLES15-SP4-Azure-Basic:containerd-1.4.12-63.1",
            "Image SLES15-SP4-Azure-Standard:containerd-1.4.12-63.1",
            "Image SLES15-SP4-BYOS-Azure:containerd-1.4.12-63.1",
            "Image SLES15-SP4-BYOS-EC2:containerd-1.4.12-63.1",
            "Image SLES15-SP4-BYOS-GCE:containerd-1.4.12-63.1",
            "Image SLES15-SP4-BYOS:containerd-1.4.12-63.1",
            "Image SLES15-SP4-CHOST-BYOS-Aliyun:containerd-1.4.12-63.1",
            "Image SLES15-SP4-CHOST-BYOS-Aliyun:containerd-ctr-1.4.12-63.1",
            "Image SLES15-SP4-CHOST-BYOS-Azure:containerd-1.4.12-63.1",
            "Image SLES15-SP4-CHOST-BYOS-Azure:containerd-ctr-1.4.12-63.1",
            "Image SLES15-SP4-CHOST-BYOS-EC2:containerd-1.4.12-63.1",
            "Image SLES15-SP4-CHOST-BYOS-EC2:containerd-ctr-1.4.12-63.1",
            "Image SLES15-SP4-CHOST-BYOS-GCE:containerd-1.4.12-63.1",
            "Image SLES15-SP4-CHOST-BYOS-GCE:containerd-ctr-1.4.12-63.1",
            "Image SLES15-SP4-CHOST-BYOS-SAP-CCloud:containerd-1.4.12-63.1",
            "Image SLES15-SP4-CHOST-BYOS-SAP-CCloud:containerd-ctr-1.4.12-63.1",
            "Image SLES15-SP4-CHOST-BYOS:containerd-1.4.12-63.1",
            "Image SLES15-SP4-CHOST-BYOS:containerd-ctr-1.4.12-63.1",
            "Image SLES15-SP4-EC2-ECS-HVM:containerd-1.4.12-63.1",
            "Image SLES15-SP4-EC2:containerd-1.4.12-63.1",
            "Image SLES15-SP4-GCE:containerd-1.4.12-63.1",
            "Image SLES15-SP4-HPC-Azure:containerd-1.4.12-63.1",
            "Image SLES15-SP4-HPC-BYOS-Azure:containerd-1.4.12-63.1",
            "Image SLES15-SP4-HPC-BYOS-EC2:containerd-1.4.12-63.1",
            "Image SLES15-SP4-HPC-BYOS-GCE:containerd-1.4.12-63.1",
            "Image SLES15-SP4-HPC-BYOS:containerd-1.4.12-63.1",
            "Image SLES15-SP4-HPC-EC2:containerd-1.4.12-63.1",
            "Image SLES15-SP4-HPC-GCE:containerd-1.4.12-63.1",
            "Image SLES15-SP4-HPC:containerd-1.4.12-63.1",
            "Image SLES15-SP4-Hardened-BYOS-Azure:containerd-1.4.12-63.1",
            "Image SLES15-SP4-Hardened-BYOS-EC2:containerd-1.4.12-63.1",
            "Image SLES15-SP4-Hardened-BYOS-GCE:containerd-1.4.12-63.1",
            "Image SLES15-SP4-Hardened-BYOS:containerd-1.4.12-63.1",
            "Image SLES15-SP4-Manager-Proxy-4-3-BYOS-Azure:containerd-1.4.12-63.1",
            "Image SLES15-SP4-Manager-Proxy-4-3-BYOS-EC2:containerd-1.4.12-63.1",
            "Image SLES15-SP4-Manager-Proxy-4-3-BYOS-GCE:containerd-1.4.12-63.1",
            "Image SLES15-SP4-Manager-Proxy-4-3-BYOS:containerd-1.4.12-63.1",
            "Image SLES15-SP4-Manager-Server-4-3-Azure-llc:containerd-1.4.12-63.1",
            "Image SLES15-SP4-Manager-Server-4-3-Azure-ltd:containerd-1.4.12-63.1",
            "Image SLES15-SP4-Manager-Server-4-3-BYOS-Azure:containerd-1.4.12-63.1",
            "Image SLES15-SP4-Manager-Server-4-3-BYOS-EC2:containerd-1.4.12-63.1",
            "Image SLES15-SP4-Manager-Server-4-3-BYOS-GCE:containerd-1.4.12-63.1",
            "Image SLES15-SP4-Manager-Server-4-3-BYOS:containerd-1.4.12-63.1",
            "Image SLES15-SP4-Manager-Server-4-3-EC2-llc:containerd-1.4.12-63.1",
            "Image SLES15-SP4-Manager-Server-4-3-EC2-ltd:containerd-1.4.12-63.1",
            "Image SLES15-SP4-Manager-Server-4-3:containerd-1.4.12-63.1",
            "Image SLES15-SP4-Micro-5-3-Azure:containerd-1.4.12-63.1",
            "Image SLES15-SP4-Micro-5-3-BYOS-Azure:containerd-1.4.12-63.1",
            "Image SLES15-SP4-Micro-5-3-BYOS-EC2:containerd-1.4.12-63.1",
            "Image SLES15-SP4-Micro-5-3-BYOS-GCE:containerd-1.4.12-63.1",
            "Image SLES15-SP4-Micro-5-3-BYOS:containerd-1.4.12-63.1",
            "Image SLES15-SP4-Micro-5-3-EC2:containerd-1.4.12-63.1",
            "Image SLES15-SP4-Micro-5-3-GCE:containerd-1.4.12-63.1",
            "Image SLES15-SP4-Micro-5-3:containerd-1.4.12-63.1",
            "Image SLES15-SP4-Micro-5-4-Azure:containerd-1.4.12-63.1",
            "Image SLES15-SP4-Micro-5-4-BYOS-Azure:containerd-1.4.12-63.1",
            "Image SLES15-SP4-Micro-5-4-BYOS-EC2:containerd-1.4.12-63.1",
            "Image SLES15-SP4-Micro-5-4-BYOS-GCE:containerd-1.4.12-63.1",
            "Image SLES15-SP4-Micro-5-4-BYOS:containerd-1.4.12-63.1",
            "Image SLES15-SP4-Micro-5-4-EC2:containerd-1.4.12-63.1",
            "Image SLES15-SP4-Micro-5-4-GCE:containerd-1.4.12-63.1",
            "Image SLES15-SP4-Micro-5-4:containerd-1.4.12-63.1",
            "Image SLES15-SP4-SAP-Azure:containerd-1.4.12-63.1",
            "Image SLES15-SP4-SAP-BYOS-Azure:containerd-1.4.12-63.1",
            "Image SLES15-SP4-SAP-BYOS-EC2:containerd-1.4.12-63.1",
            "Image SLES15-SP4-SAP-BYOS-GCE:containerd-1.4.12-63.1",
            "Image SLES15-SP4-SAP-BYOS:containerd-1.4.12-63.1",
            "Image SLES15-SP4-SAP-EC2:containerd-1.4.12-63.1",
            "Image SLES15-SP4-SAP-GCE:containerd-1.4.12-63.1",
            "Image SLES15-SP4-SAP-Hardened-Azure:containerd-1.4.12-63.1",
            "Image SLES15-SP4-SAP-Hardened-BYOS-Azure:containerd-1.4.12-63.1",
            "Image SLES15-SP4-SAP-Hardened-BYOS-EC2:containerd-1.4.12-63.1",
            "Image SLES15-SP4-SAP-Hardened-BYOS-GCE:containerd-1.4.12-63.1",
            "Image SLES15-SP4-SAP-Hardened-BYOS:containerd-1.4.12-63.1",
            "Image SLES15-SP4-SAP-Hardened-EC2:containerd-1.4.12-63.1",
            "Image SLES15-SP4-SAP-Hardened-GCE:containerd-1.4.12-63.1",
            "Image SLES15-SP4-SAP-Hardened:containerd-1.4.12-63.1",
            "Image SLES15-SP4-SAP:containerd-1.4.12-63.1",
            "Image SLES15-SP4-SAPCAL-Azure:containerd-1.4.12-63.1",
            "Image SLES15-SP4-SAPCAL-EC2:containerd-1.4.12-63.1",
            "Image SLES15-SP4-SAPCAL-GCE:containerd-1.4.12-63.1",
            "Image SLES15-SP4-SAPCAL:containerd-1.4.12-63.1",
            "Image SLES15-SP4:containerd-1.4.12-63.1",
            "Image SLES15-SP5-Azure-Basic:containerd-1.4.12-63.1",
            "Image SLES15-SP5-Azure-Standard:containerd-1.4.12-63.1",
            "Image SLES15-SP5-BYOS-Azure:containerd-1.4.12-63.1",
            "Image SLES15-SP5-BYOS-EC2:containerd-1.4.12-63.1",
            "Image SLES15-SP5-BYOS-GCE:containerd-1.4.12-63.1",
            "Image SLES15-SP5-CHOST-BYOS-Aliyun:containerd-1.4.12-63.1",
            "Image SLES15-SP5-CHOST-BYOS-Aliyun:containerd-ctr-1.4.12-63.1",
            "Image SLES15-SP5-CHOST-BYOS-Azure:containerd-1.4.12-63.1",
            "Image SLES15-SP5-CHOST-BYOS-Azure:containerd-ctr-1.4.12-63.1",
            "Image SLES15-SP5-CHOST-BYOS-EC2:containerd-1.4.12-63.1",
            "Image SLES15-SP5-CHOST-BYOS-EC2:containerd-ctr-1.4.12-63.1",
            "Image SLES15-SP5-CHOST-BYOS-GCE:containerd-1.4.12-63.1",
            "Image SLES15-SP5-CHOST-BYOS-GCE:containerd-ctr-1.4.12-63.1",
            "Image SLES15-SP5-CHOST-BYOS-SAP-CCloud:containerd-1.4.12-63.1",
            "Image SLES15-SP5-CHOST-BYOS-SAP-CCloud:containerd-ctr-1.4.12-63.1",
            "Image SLES15-SP5-EC2-ECS-HVM:containerd-1.4.12-63.1",
            "Image SLES15-SP5-EC2:containerd-1.4.12-63.1",
            "Image SLES15-SP5-GCE:containerd-1.4.12-63.1",
            "Image SLES15-SP5-HPC-Azure:containerd-1.4.12-63.1",
            "Image SLES15-SP5-HPC-BYOS-Azure:containerd-1.4.12-63.1",
            "Image SLES15-SP5-HPC-BYOS-EC2:containerd-1.4.12-63.1",
            "Image SLES15-SP5-HPC-BYOS-GCE:containerd-1.4.12-63.1",
            "Image SLES15-SP5-HPC-EC2:containerd-1.4.12-63.1",
            "Image SLES15-SP5-HPC-GCE:containerd-1.4.12-63.1",
            "Image SLES15-SP5-Hardened-BYOS-Azure:containerd-1.4.12-63.1",
            "Image SLES15-SP5-Hardened-BYOS-EC2:containerd-1.4.12-63.1",
            "Image SLES15-SP5-Hardened-BYOS-GCE:containerd-1.4.12-63.1",
            "Image SLES15-SP5-Micro-5-5-Azure:containerd-1.4.12-63.1",
            "Image SLES15-SP5-Micro-5-5-BYOS-Azure:containerd-1.4.12-63.1",
            "Image SLES15-SP5-Micro-5-5-BYOS-EC2:containerd-1.4.12-63.1",
            "Image SLES15-SP5-Micro-5-5-BYOS-GCE:containerd-1.4.12-63.1",
            "Image SLES15-SP5-Micro-5-5-BYOS:containerd-1.4.12-63.1",
            "Image SLES15-SP5-Micro-5-5-EC2:containerd-1.4.12-63.1",
            "Image SLES15-SP5-Micro-5-5-GCE:containerd-1.4.12-63.1",
            "Image SLES15-SP5-Micro-5-5:containerd-1.4.12-63.1",
            "Image SLES15-SP5-SAP-Azure:containerd-1.4.12-63.1",
            "Image SLES15-SP5-SAP-BYOS-Azure:containerd-1.4.12-63.1",
            "Image SLES15-SP5-SAP-BYOS-EC2:containerd-1.4.12-63.1",
            "Image SLES15-SP5-SAP-BYOS-GCE:containerd-1.4.12-63.1",
            "Image SLES15-SP5-SAP-EC2:containerd-1.4.12-63.1",
            "Image SLES15-SP5-SAP-GCE:containerd-1.4.12-63.1",
            "Image SLES15-SP5-SAP-Hardened-Azure:containerd-1.4.12-63.1",
            "Image SLES15-SP5-SAP-Hardened-BYOS-Azure:containerd-1.4.12-63.1",
            "Image SLES15-SP5-SAP-Hardened-BYOS-EC2:containerd-1.4.12-63.1",
            "Image SLES15-SP5-SAP-Hardened-BYOS-GCE:containerd-1.4.12-63.1",
            "Image SLES15-SP5-SAP-Hardened-EC2:containerd-1.4.12-63.1",
            "Image SLES15-SP5-SAP-Hardened-GCE:containerd-1.4.12-63.1",
            "Image SLES15-SP5-SAPCAL-Azure:containerd-1.4.12-63.1",
            "Image SLES15-SP5-SAPCAL-EC2:containerd-1.4.12-63.1",
            "Image SLES15-SP5-SAPCAL-GCE:containerd-1.4.12-63.1",
            "SUSE Linux Enterprise Micro 5.0:containerd-1.4.12-63.1",
            "SUSE Linux Enterprise Micro 5.1:containerd-1.4.12-63.1",
            "SUSE Linux Enterprise Module for Containers 15 SP3:containerd-1.4.12-63.1"
          ]
        }
      ],
      "CVSSScoreSets": {}
    }
  ]
}