{
  "Title": "Security update for the Linux Kernel (Live Patch 27 for SLE 15 SP1)",
  "Tracking": {
    "ID": "SUSE-SU-2022:1335-1",
    "Status": "Final",
    "Version": "1",
    "InitialReleaseDate": "2022-04-25T12:04:15Z",
    "CurrentReleaseDate": "2022-04-25T12:04:15Z",
    "RevisionHistory": [
      {
        "Number": "1",
        "Date": "2022-04-25T12:04:15Z",
        "Description": "current"
      }
    ]
  },
  "Notes": [
    {
      "Text": "Security update for the Linux Kernel (Live Patch 27 for SLE 15 SP1)",
      "Title": "Topic",
      "Type": "Summary"
    },
    {
      "Text": "This update for the Linux Kernel 4.12.14-197_102 fixes several issues.\n\nThe following security issues were fixed:\n\n- CVE-2022-1016: Fixed a vulnerability in the nf_tables component of the netfilter subsystem. This vulnerability gives an attacker a powerful primitive that can be used to both read from and write to relative stack data, which can lead to arbitrary code execution. (bsc#1197335)\n- CVE-2022-1011: Fixed an use-after-free vulnerability which could allow a local attacker to retireve (partial) /etc/shadow hashes or any other data from filesystem when he can mount a FUSE filesystems. (bsc#1197344)\n",
      "Title": "Details",
      "Type": "General"
    },
    {
      "Text": "The CVRF data is provided by SUSE under the Creative Commons License 4.0 with Attribution (CC-BY-4.0).",
      "Title": "Terms of Use",
      "Type": "Legal Disclaimer"
    },
    {
      "Text": "SUSE-2022-1335,SUSE-SLE-Live-Patching-12-SP5-2022-1332,SUSE-SLE-Live-Patching-12-SP5-2022-1334,SUSE-SLE-Live-Patching-12-SP5-2022-1335,SUSE-SLE-Live-Patching-12-SP5-2022-1336,SUSE-SLE-Live-Patching-12-SP5-2022-1337,SUSE-SLE-Live-Patching-12-SP5-2022-1338,SUSE-SLE-Live-Patching-12-SP5-2022-1339,SUSE-SLE-Live-Patching-12-SP5-2022-1346,SUSE-SLE-Live-Patching-12-SP5-2022-1347,SUSE-SLE-Live-Patching-12-SP5-2022-1381,SUSE-SLE-Module-Live-Patching-15-SP1-2022-1341,SUSE-SLE-Module-Live-Patching-15-SP1-2022-1350,SUSE-SLE-Module-Live-Patching-15-SP1-2022-1351,SUSE-SLE-Module-Live-Patching-15-SP1-2022-1361,SUSE-SLE-Module-Live-Patching-15-SP1-2022-1362,SUSE-SLE-Module-Live-Patching-15-SP1-2022-1371",
      "Title": "Patchnames",
      "Type": "Details"
    }
  ],
  "ProductTree": {
    "Relationships": [
      {
        "ProductReference": "kgraft-patch-4_12_14-122_80-default-12-2.1",
        "RelatesToProductReference": "SUSE Linux Enterprise Live Patching 12 SP5",
        "RelationType": "Default Component Of"
      },
      {
        "ProductReference": "kgraft-patch-4_12_14-122_66-default-16-2.1",
        "RelatesToProductReference": "SUSE Linux Enterprise Live Patching 12 SP5",
        "RelationType": "Default Component Of"
      },
      {
        "ProductReference": "kgraft-patch-4_12_14-122_74-default-13-2.1",
        "RelatesToProductReference": "SUSE Linux Enterprise Live Patching 12 SP5",
        "RelationType": "Default Component Of"
      },
      {
        "ProductReference": "kgraft-patch-4_12_14-122_71-default-15-2.1",
        "RelatesToProductReference": "SUSE Linux Enterprise Live Patching 12 SP5",
        "RelationType": "Default Component Of"
      },
      {
        "ProductReference": "kgraft-patch-4_12_14-122_91-default-9-2.1",
        "RelatesToProductReference": "SUSE Linux Enterprise Live Patching 12 SP5",
        "RelationType": "Default Component Of"
      },
      {
        "ProductReference": "kgraft-patch-4_12_14-122_98-default-7-2.1",
        "RelatesToProductReference": "SUSE Linux Enterprise Live Patching 12 SP5",
        "RelationType": "Default Component Of"
      },
      {
        "ProductReference": "kgraft-patch-4_12_14-122_113-default-3-2.1",
        "RelatesToProductReference": "SUSE Linux Enterprise Live Patching 12 SP5",
        "RelationType": "Default Component Of"
      },
      {
        "ProductReference": "kgraft-patch-4_12_14-122_103-default-7-2.1",
        "RelatesToProductReference": "SUSE Linux Enterprise Live Patching 12 SP5",
        "RelationType": "Default Component Of"
      },
      {
        "ProductReference": "kgraft-patch-4_12_14-122_106-default-5-2.1",
        "RelatesToProductReference": "SUSE Linux Enterprise Live Patching 12 SP5",
        "RelationType": "Default Component Of"
      },
      {
        "ProductReference": "kgraft-patch-4_12_14-122_110-default-4-2.1",
        "RelatesToProductReference": "SUSE Linux Enterprise Live Patching 12 SP5",
        "RelationType": "Default Component Of"
      },
      {
        "ProductReference": "kernel-livepatch-4_12_14-197_108-default-3-150100.2.1",
        "RelatesToProductReference": "SUSE Linux Enterprise Live Patching 15 SP1",
        "RelationType": "Default Component Of"
      },
      {
        "ProductReference": "kernel-livepatch-4_12_14-197_89-default-15-150100.2.1",
        "RelatesToProductReference": "SUSE Linux Enterprise Live Patching 15 SP1",
        "RelationType": "Default Component Of"
      },
      {
        "ProductReference": "kernel-livepatch-4_12_14-197_99-default-12-150100.2.1",
        "RelatesToProductReference": "SUSE Linux Enterprise Live Patching 15 SP1",
        "RelationType": "Default Component Of"
      },
      {
        "ProductReference": "kernel-livepatch-4_12_14-197_92-default-14-150100.2.1",
        "RelatesToProductReference": "SUSE Linux Enterprise Live Patching 15 SP1",
        "RelationType": "Default Component Of"
      },
      {
        "ProductReference": "kernel-livepatch-4_12_14-197_105-default-4-150100.2.1",
        "RelatesToProductReference": "SUSE Linux Enterprise Live Patching 15 SP1",
        "RelationType": "Default Component Of"
      },
      {
        "ProductReference": "kernel-livepatch-4_12_14-197_102-default-7-150100.2.1",
        "RelatesToProductReference": "SUSE Linux Enterprise Live Patching 15 SP1",
        "RelationType": "Default Component Of"
      }
    ]
  },
  "References": [
    {
      "URL": "https://www.suse.com/support/update/announcement/2022/suse-su-20221335-1/",
      "Description": "Link for SUSE-SU-2022:1335-1"
    },
    {
      "URL": "https://lists.suse.com/pipermail/sle-security-updates/2022-April/010825.html",
      "Description": "E-Mail link for SUSE-SU-2022:1335-1"
    },
    {
      "URL": "https://www.suse.com/support/security/rating/",
      "Description": "SUSE Security Ratings"
    },
    {
      "URL": "https://bugzilla.suse.com/1197335",
      "Description": "SUSE Bug 1197335"
    },
    {
      "URL": "https://bugzilla.suse.com/1197344",
      "Description": "SUSE Bug 1197344"
    },
    {
      "URL": "https://www.suse.com/security/cve/CVE-2022-1011/",
      "Description": "SUSE CVE CVE-2022-1011 page"
    },
    {
      "URL": "https://www.suse.com/security/cve/CVE-2022-1016/",
      "Description": "SUSE CVE CVE-2022-1016 page"
    }
  ],
  "Vulnerabilities": [
    {
      "CVE": "CVE-2022-1011",
      "Description": "A use-after-free flaw was found in the Linux kernel's FUSE filesystem in the way a user triggers write(). This flaw allows a local user to gain unauthorized access to data from the FUSE filesystem, resulting in privilege escalation.",
      "Threats": [
        {
          "Type": "Impact",
          "Severity": "moderate"
        }
      ],
      "References": [
        {
          "URL": "https://www.suse.com/security/cve/CVE-2022-1011.html",
          "Description": "CVE-2022-1011"
        },
        {
          "URL": "https://bugzilla.suse.com/1197343",
          "Description": "SUSE Bug 1197343"
        },
        {
          "URL": "https://bugzilla.suse.com/1197344",
          "Description": "SUSE Bug 1197344"
        },
        {
          "URL": "https://bugzilla.suse.com/1198687",
          "Description": "SUSE Bug 1198687"
        },
        {
          "URL": "https://bugzilla.suse.com/1204132",
          "Description": "SUSE Bug 1204132"
        },
        {
          "URL": "https://bugzilla.suse.com/1212322",
          "Description": "SUSE Bug 1212322"
        }
      ],
      "ProductStatuses": [
        {
          "Type": "Fixed",
          "ProductID": [
            "SUSE Linux Enterprise Live Patching 12 SP5:kgraft-patch-4_12_14-122_103-default-7-2.1",
            "SUSE Linux Enterprise Live Patching 12 SP5:kgraft-patch-4_12_14-122_106-default-5-2.1",
            "SUSE Linux Enterprise Live Patching 12 SP5:kgraft-patch-4_12_14-122_110-default-4-2.1",
            "SUSE Linux Enterprise Live Patching 12 SP5:kgraft-patch-4_12_14-122_113-default-3-2.1",
            "SUSE Linux Enterprise Live Patching 12 SP5:kgraft-patch-4_12_14-122_66-default-16-2.1",
            "SUSE Linux Enterprise Live Patching 12 SP5:kgraft-patch-4_12_14-122_71-default-15-2.1",
            "SUSE Linux Enterprise Live Patching 12 SP5:kgraft-patch-4_12_14-122_74-default-13-2.1",
            "SUSE Linux Enterprise Live Patching 12 SP5:kgraft-patch-4_12_14-122_80-default-12-2.1",
            "SUSE Linux Enterprise Live Patching 12 SP5:kgraft-patch-4_12_14-122_91-default-9-2.1",
            "SUSE Linux Enterprise Live Patching 12 SP5:kgraft-patch-4_12_14-122_98-default-7-2.1",
            "SUSE Linux Enterprise Live Patching 15 SP1:kernel-livepatch-4_12_14-197_102-default-7-150100.2.1",
            "SUSE Linux Enterprise Live Patching 15 SP1:kernel-livepatch-4_12_14-197_105-default-4-150100.2.1",
            "SUSE Linux Enterprise Live Patching 15 SP1:kernel-livepatch-4_12_14-197_108-default-3-150100.2.1",
            "SUSE Linux Enterprise Live Patching 15 SP1:kernel-livepatch-4_12_14-197_89-default-15-150100.2.1",
            "SUSE Linux Enterprise Live Patching 15 SP1:kernel-livepatch-4_12_14-197_92-default-14-150100.2.1",
            "SUSE Linux Enterprise Live Patching 15 SP1:kernel-livepatch-4_12_14-197_99-default-12-150100.2.1"
          ]
        }
      ],
      "CVSSScoreSets": {}
    },
    {
      "CVE": "CVE-2022-1016",
      "Description": "A flaw was found in the Linux kernel in net/netfilter/nf_tables_core.c:nft_do_chain, which can cause a use-after-free. This issue needs to handle 'return' with proper preconditions, as it can lead to a kernel information leak problem caused by a local, unprivileged attacker.",
      "Threats": [
        {
          "Type": "Impact",
          "Severity": "important"
        }
      ],
      "References": [
        {
          "URL": "https://www.suse.com/security/cve/CVE-2022-1016.html",
          "Description": "CVE-2022-1016"
        },
        {
          "URL": "https://bugzilla.suse.com/1197335",
          "Description": "SUSE Bug 1197335"
        }
      ],
      "ProductStatuses": [
        {
          "Type": "Fixed",
          "ProductID": [
            "SUSE Linux Enterprise Live Patching 12 SP5:kgraft-patch-4_12_14-122_103-default-7-2.1",
            "SUSE Linux Enterprise Live Patching 12 SP5:kgraft-patch-4_12_14-122_106-default-5-2.1",
            "SUSE Linux Enterprise Live Patching 12 SP5:kgraft-patch-4_12_14-122_110-default-4-2.1",
            "SUSE Linux Enterprise Live Patching 12 SP5:kgraft-patch-4_12_14-122_113-default-3-2.1",
            "SUSE Linux Enterprise Live Patching 12 SP5:kgraft-patch-4_12_14-122_66-default-16-2.1",
            "SUSE Linux Enterprise Live Patching 12 SP5:kgraft-patch-4_12_14-122_71-default-15-2.1",
            "SUSE Linux Enterprise Live Patching 12 SP5:kgraft-patch-4_12_14-122_74-default-13-2.1",
            "SUSE Linux Enterprise Live Patching 12 SP5:kgraft-patch-4_12_14-122_80-default-12-2.1",
            "SUSE Linux Enterprise Live Patching 12 SP5:kgraft-patch-4_12_14-122_91-default-9-2.1",
            "SUSE Linux Enterprise Live Patching 12 SP5:kgraft-patch-4_12_14-122_98-default-7-2.1",
            "SUSE Linux Enterprise Live Patching 15 SP1:kernel-livepatch-4_12_14-197_102-default-7-150100.2.1",
            "SUSE Linux Enterprise Live Patching 15 SP1:kernel-livepatch-4_12_14-197_105-default-4-150100.2.1",
            "SUSE Linux Enterprise Live Patching 15 SP1:kernel-livepatch-4_12_14-197_108-default-3-150100.2.1",
            "SUSE Linux Enterprise Live Patching 15 SP1:kernel-livepatch-4_12_14-197_89-default-15-150100.2.1",
            "SUSE Linux Enterprise Live Patching 15 SP1:kernel-livepatch-4_12_14-197_92-default-14-150100.2.1",
            "SUSE Linux Enterprise Live Patching 15 SP1:kernel-livepatch-4_12_14-197_99-default-12-150100.2.1"
          ]
        }
      ],
      "CVSSScoreSets": {}
    }
  ]
}