{
  "Title": "Security update for MozillaFirefox",
  "Tracking": {
    "ID": "SUSE-SU-2022:1127-1",
    "Status": "Final",
    "Version": "1",
    "InitialReleaseDate": "2022-04-07T15:04:33Z",
    "CurrentReleaseDate": "2022-04-07T15:04:33Z",
    "RevisionHistory": [
      {
        "Number": "1",
        "Date": "2022-04-07T15:04:33Z",
        "Description": "current"
      }
    ]
  },
  "Notes": [
    {
      "Text": "Security update for MozillaFirefox",
      "Title": "Topic",
      "Type": "Summary"
    },
    {
      "Text": "This update for MozillaFirefox fixes the following issues:\n\nFirefox Extended Support Release 91.8.0 ESR (bsc#1197903):\n\nMFSA 2022-14 (bsc#1197903)\n\n* CVE-2022-1097: Fixed memory safety violations that could occur when PKCS#11 tokens are removed while in use\n* CVE-2022-28281: Fixed an out of bounds write due to unexpected WebAuthN Extensions\n* CVE-2022-1196: Fixed a use-after-free after VR Process destruction\n* CVE-2022-28282: Fixed a use-after-free in DocumentL10n::TranslateDocument\n* CVE-2022-28285: Fixed incorrect AliasSet used in JIT Codegen\n* CVE-2022-28286: Fixed that iframe contents could be rendered outside the border\n* CVE-2022-24713: Fixed a denial of service via complex regular expressions\n* CVE-2022-28289: Memory safety bugs fixed in Firefox 99 and Firefox ESR 91.8\n\nThe following non-security bugs were fixed:\n\n- Adjust rust dependency for SP3 and later. TW uses always the\n  newest version of rust, but we don't, so we can't use the\n  rust+cargo notation, which would need both \u003c and \u003e= requirements.\n  (bsc#1197698)\n",
      "Title": "Details",
      "Type": "General"
    },
    {
      "Text": "The CVRF data is provided by SUSE under the Creative Commons License 4.0 with Attribution (CC-BY-4.0).",
      "Title": "Terms of Use",
      "Type": "Legal Disclaimer"
    },
    {
      "Text": "Image SLES15-SP2-SAP-Azure-LI-BYOS-Production-2022-1127,Image SLES15-SP2-SAP-Azure-VLI-BYOS-Production-2022-1127,Image SLES15-SP3-SAP-Azure-LI-BYOS-Production-2022-1127,Image SLES15-SP3-SAP-Azure-VLI-BYOS-Production-2022-1127,Image SLES15-SP4-SAP-Azure-LI-BYOS-2022-1127,Image SLES15-SP4-SAP-Azure-LI-BYOS-Production-2022-1127,Image SLES15-SP4-SAP-Azure-VLI-BYOS-2022-1127,Image SLES15-SP4-SAP-Azure-VLI-BYOS-Production-2022-1127,Image SLES15-SP5-SAP-Azure-LI-BYOS-2022-1127,Image SLES15-SP5-SAP-Azure-LI-BYOS-Production-2022-1127,Image SLES15-SP5-SAP-Azure-VLI-BYOS-2022-1127,Image SLES15-SP5-SAP-Azure-VLI-BYOS-Production-2022-1127,SUSE-2022-1127,SUSE-SLE-Module-Desktop-Applications-15-SP3-2022-1127,SUSE-SLE-Module-Desktop-Applications-15-SP4-2022-1127,SUSE-SLE-Product-HPC-15-SP2-ESPOS-2022-1127,SUSE-SLE-Product-HPC-15-SP2-LTSS-2022-1127,SUSE-SLE-Product-RT-15-SP2-2022-1127,SUSE-SLE-Product-SLES-15-SP2-BCL-2022-1127,SUSE-SLE-Product-SLES-15-SP2-LTSS-2022-1127,SUSE-SLE-Product-SLES_SAP-15-SP2-2022-1127,SUSE-SLE-Product-SUSE-Manager-Proxy-4.1-2022-1127,SUSE-SLE-Product-SUSE-Manager-Retail-Branch-Server-4.1-2022-1127,SUSE-SLE-Product-SUSE-Manager-Server-4.1-2022-1127,SUSE-Storage-7-2022-1127",
      "Title": "Patchnames",
      "Type": "Details"
    }
  ],
  "ProductTree": {
    "Relationships": [
      {
        "ProductReference": "MozillaFirefox-91.8.0-150200.152.26.1",
        "RelatesToProductReference": "Image SLES15-SP2-SAP-Azure-LI-BYOS-Production",
        "RelationType": "Default Component Of"
      },
      {
        "ProductReference": "MozillaFirefox-91.8.0-150200.152.26.1",
        "RelatesToProductReference": "Image SLES15-SP2-SAP-Azure-VLI-BYOS-Production",
        "RelationType": "Default Component Of"
      },
      {
        "ProductReference": "MozillaFirefox-91.8.0-150200.152.26.1",
        "RelatesToProductReference": "Image SLES15-SP3-SAP-Azure-LI-BYOS-Production",
        "RelationType": "Default Component Of"
      },
      {
        "ProductReference": "MozillaFirefox-91.8.0-150200.152.26.1",
        "RelatesToProductReference": "Image SLES15-SP3-SAP-Azure-VLI-BYOS-Production",
        "RelationType": "Default Component Of"
      },
      {
        "ProductReference": "MozillaFirefox-91.8.0-150200.152.26.1",
        "RelatesToProductReference": "Image SLES15-SP4-SAP-Azure-LI-BYOS",
        "RelationType": "Default Component Of"
      },
      {
        "ProductReference": "MozillaFirefox-91.8.0-150200.152.26.1",
        "RelatesToProductReference": "Image SLES15-SP4-SAP-Azure-LI-BYOS-Production",
        "RelationType": "Default Component Of"
      },
      {
        "ProductReference": "MozillaFirefox-91.8.0-150200.152.26.1",
        "RelatesToProductReference": "Image SLES15-SP4-SAP-Azure-VLI-BYOS",
        "RelationType": "Default Component Of"
      },
      {
        "ProductReference": "MozillaFirefox-91.8.0-150200.152.26.1",
        "RelatesToProductReference": "Image SLES15-SP4-SAP-Azure-VLI-BYOS-Production",
        "RelationType": "Default Component Of"
      },
      {
        "ProductReference": "MozillaFirefox-91.8.0-150200.152.26.1",
        "RelatesToProductReference": "Image SLES15-SP5-SAP-Azure-LI-BYOS",
        "RelationType": "Default Component Of"
      },
      {
        "ProductReference": "MozillaFirefox-91.8.0-150200.152.26.1",
        "RelatesToProductReference": "Image SLES15-SP5-SAP-Azure-LI-BYOS-Production",
        "RelationType": "Default Component Of"
      },
      {
        "ProductReference": "MozillaFirefox-91.8.0-150200.152.26.1",
        "RelatesToProductReference": "Image SLES15-SP5-SAP-Azure-VLI-BYOS",
        "RelationType": "Default Component Of"
      },
      {
        "ProductReference": "MozillaFirefox-91.8.0-150200.152.26.1",
        "RelatesToProductReference": "Image SLES15-SP5-SAP-Azure-VLI-BYOS-Production",
        "RelationType": "Default Component Of"
      },
      {
        "ProductReference": "MozillaFirefox-91.8.0-150200.152.26.1",
        "RelatesToProductReference": "SUSE Enterprise Storage 7",
        "RelationType": "Default Component Of"
      },
      {
        "ProductReference": "MozillaFirefox-devel-91.8.0-150200.152.26.1",
        "RelatesToProductReference": "SUSE Enterprise Storage 7",
        "RelationType": "Default Component Of"
      },
      {
        "ProductReference": "MozillaFirefox-translations-common-91.8.0-150200.152.26.1",
        "RelatesToProductReference": "SUSE Enterprise Storage 7",
        "RelationType": "Default Component Of"
      },
      {
        "ProductReference": "MozillaFirefox-translations-other-91.8.0-150200.152.26.1",
        "RelatesToProductReference": "SUSE Enterprise Storage 7",
        "RelationType": "Default Component Of"
      },
      {
        "ProductReference": "MozillaFirefox-91.8.0-150200.152.26.1",
        "RelatesToProductReference": "SUSE Linux Enterprise High Performance Computing 15 SP2-ESPOS",
        "RelationType": "Default Component Of"
      },
      {
        "ProductReference": "MozillaFirefox-devel-91.8.0-150200.152.26.1",
        "RelatesToProductReference": "SUSE Linux Enterprise High Performance Computing 15 SP2-ESPOS",
        "RelationType": "Default Component Of"
      },
      {
        "ProductReference": "MozillaFirefox-translations-common-91.8.0-150200.152.26.1",
        "RelatesToProductReference": "SUSE Linux Enterprise High Performance Computing 15 SP2-ESPOS",
        "RelationType": "Default Component Of"
      },
      {
        "ProductReference": "MozillaFirefox-translations-other-91.8.0-150200.152.26.1",
        "RelatesToProductReference": "SUSE Linux Enterprise High Performance Computing 15 SP2-ESPOS",
        "RelationType": "Default Component Of"
      },
      {
        "ProductReference": "MozillaFirefox-91.8.0-150200.152.26.1",
        "RelatesToProductReference": "SUSE Linux Enterprise High Performance Computing 15 SP2-LTSS",
        "RelationType": "Default Component Of"
      },
      {
        "ProductReference": "MozillaFirefox-devel-91.8.0-150200.152.26.1",
        "RelatesToProductReference": "SUSE Linux Enterprise High Performance Computing 15 SP2-LTSS",
        "RelationType": "Default Component Of"
      },
      {
        "ProductReference": "MozillaFirefox-translations-common-91.8.0-150200.152.26.1",
        "RelatesToProductReference": "SUSE Linux Enterprise High Performance Computing 15 SP2-LTSS",
        "RelationType": "Default Component Of"
      },
      {
        "ProductReference": "MozillaFirefox-translations-other-91.8.0-150200.152.26.1",
        "RelatesToProductReference": "SUSE Linux Enterprise High Performance Computing 15 SP2-LTSS",
        "RelationType": "Default Component Of"
      },
      {
        "ProductReference": "MozillaFirefox-91.8.0-150200.152.26.1",
        "RelatesToProductReference": "SUSE Linux Enterprise Module for Desktop Applications 15 SP3",
        "RelationType": "Default Component Of"
      },
      {
        "ProductReference": "MozillaFirefox-devel-91.8.0-150200.152.26.1",
        "RelatesToProductReference": "SUSE Linux Enterprise Module for Desktop Applications 15 SP3",
        "RelationType": "Default Component Of"
      },
      {
        "ProductReference": "MozillaFirefox-translations-common-91.8.0-150200.152.26.1",
        "RelatesToProductReference": "SUSE Linux Enterprise Module for Desktop Applications 15 SP3",
        "RelationType": "Default Component Of"
      },
      {
        "ProductReference": "MozillaFirefox-translations-other-91.8.0-150200.152.26.1",
        "RelatesToProductReference": "SUSE Linux Enterprise Module for Desktop Applications 15 SP3",
        "RelationType": "Default Component Of"
      },
      {
        "ProductReference": "MozillaFirefox-91.8.0-150200.152.26.1",
        "RelatesToProductReference": "SUSE Linux Enterprise Real Time 15 SP2",
        "RelationType": "Default Component Of"
      },
      {
        "ProductReference": "MozillaFirefox-devel-91.8.0-150200.152.26.1",
        "RelatesToProductReference": "SUSE Linux Enterprise Real Time 15 SP2",
        "RelationType": "Default Component Of"
      },
      {
        "ProductReference": "MozillaFirefox-translations-common-91.8.0-150200.152.26.1",
        "RelatesToProductReference": "SUSE Linux Enterprise Real Time 15 SP2",
        "RelationType": "Default Component Of"
      },
      {
        "ProductReference": "MozillaFirefox-translations-other-91.8.0-150200.152.26.1",
        "RelatesToProductReference": "SUSE Linux Enterprise Real Time 15 SP2",
        "RelationType": "Default Component Of"
      },
      {
        "ProductReference": "MozillaFirefox-91.8.0-150200.152.26.1",
        "RelatesToProductReference": "SUSE Linux Enterprise Server 15 SP2-BCL",
        "RelationType": "Default Component Of"
      },
      {
        "ProductReference": "MozillaFirefox-devel-91.8.0-150200.152.26.1",
        "RelatesToProductReference": "SUSE Linux Enterprise Server 15 SP2-BCL",
        "RelationType": "Default Component Of"
      },
      {
        "ProductReference": "MozillaFirefox-translations-common-91.8.0-150200.152.26.1",
        "RelatesToProductReference": "SUSE Linux Enterprise Server 15 SP2-BCL",
        "RelationType": "Default Component Of"
      },
      {
        "ProductReference": "MozillaFirefox-translations-other-91.8.0-150200.152.26.1",
        "RelatesToProductReference": "SUSE Linux Enterprise Server 15 SP2-BCL",
        "RelationType": "Default Component Of"
      },
      {
        "ProductReference": "MozillaFirefox-91.8.0-150200.152.26.1",
        "RelatesToProductReference": "SUSE Linux Enterprise Server 15 SP2-LTSS",
        "RelationType": "Default Component Of"
      },
      {
        "ProductReference": "MozillaFirefox-devel-91.8.0-150200.152.26.1",
        "RelatesToProductReference": "SUSE Linux Enterprise Server 15 SP2-LTSS",
        "RelationType": "Default Component Of"
      },
      {
        "ProductReference": "MozillaFirefox-translations-common-91.8.0-150200.152.26.1",
        "RelatesToProductReference": "SUSE Linux Enterprise Server 15 SP2-LTSS",
        "RelationType": "Default Component Of"
      },
      {
        "ProductReference": "MozillaFirefox-translations-other-91.8.0-150200.152.26.1",
        "RelatesToProductReference": "SUSE Linux Enterprise Server 15 SP2-LTSS",
        "RelationType": "Default Component Of"
      },
      {
        "ProductReference": "MozillaFirefox-91.8.0-150200.152.26.1",
        "RelatesToProductReference": "SUSE Linux Enterprise Server for SAP Applications 15 SP2",
        "RelationType": "Default Component Of"
      },
      {
        "ProductReference": "MozillaFirefox-devel-91.8.0-150200.152.26.1",
        "RelatesToProductReference": "SUSE Linux Enterprise Server for SAP Applications 15 SP2",
        "RelationType": "Default Component Of"
      },
      {
        "ProductReference": "MozillaFirefox-translations-common-91.8.0-150200.152.26.1",
        "RelatesToProductReference": "SUSE Linux Enterprise Server for SAP Applications 15 SP2",
        "RelationType": "Default Component Of"
      },
      {
        "ProductReference": "MozillaFirefox-translations-other-91.8.0-150200.152.26.1",
        "RelatesToProductReference": "SUSE Linux Enterprise Server for SAP Applications 15 SP2",
        "RelationType": "Default Component Of"
      },
      {
        "ProductReference": "MozillaFirefox-91.8.0-150200.152.26.1",
        "RelatesToProductReference": "SUSE Manager Proxy 4.1",
        "RelationType": "Default Component Of"
      },
      {
        "ProductReference": "MozillaFirefox-devel-91.8.0-150200.152.26.1",
        "RelatesToProductReference": "SUSE Manager Proxy 4.1",
        "RelationType": "Default Component Of"
      },
      {
        "ProductReference": "MozillaFirefox-translations-common-91.8.0-150200.152.26.1",
        "RelatesToProductReference": "SUSE Manager Proxy 4.1",
        "RelationType": "Default Component Of"
      },
      {
        "ProductReference": "MozillaFirefox-translations-other-91.8.0-150200.152.26.1",
        "RelatesToProductReference": "SUSE Manager Proxy 4.1",
        "RelationType": "Default Component Of"
      },
      {
        "ProductReference": "MozillaFirefox-91.8.0-150200.152.26.1",
        "RelatesToProductReference": "SUSE Manager Retail Branch Server 4.1",
        "RelationType": "Default Component Of"
      },
      {
        "ProductReference": "MozillaFirefox-devel-91.8.0-150200.152.26.1",
        "RelatesToProductReference": "SUSE Manager Retail Branch Server 4.1",
        "RelationType": "Default Component Of"
      },
      {
        "ProductReference": "MozillaFirefox-translations-common-91.8.0-150200.152.26.1",
        "RelatesToProductReference": "SUSE Manager Retail Branch Server 4.1",
        "RelationType": "Default Component Of"
      },
      {
        "ProductReference": "MozillaFirefox-translations-other-91.8.0-150200.152.26.1",
        "RelatesToProductReference": "SUSE Manager Retail Branch Server 4.1",
        "RelationType": "Default Component Of"
      },
      {
        "ProductReference": "MozillaFirefox-91.8.0-150200.152.26.1",
        "RelatesToProductReference": "SUSE Manager Server 4.1",
        "RelationType": "Default Component Of"
      },
      {
        "ProductReference": "MozillaFirefox-devel-91.8.0-150200.152.26.1",
        "RelatesToProductReference": "SUSE Manager Server 4.1",
        "RelationType": "Default Component Of"
      },
      {
        "ProductReference": "MozillaFirefox-translations-common-91.8.0-150200.152.26.1",
        "RelatesToProductReference": "SUSE Manager Server 4.1",
        "RelationType": "Default Component Of"
      },
      {
        "ProductReference": "MozillaFirefox-translations-other-91.8.0-150200.152.26.1",
        "RelatesToProductReference": "SUSE Manager Server 4.1",
        "RelationType": "Default Component Of"
      }
    ]
  },
  "References": [
    {
      "URL": "https://www.suse.com/support/update/announcement/2022/suse-su-20221127-1/",
      "Description": "Link for SUSE-SU-2022:1127-1"
    },
    {
      "URL": "https://lists.suse.com/pipermail/sle-security-updates/2022-April/010667.html",
      "Description": "E-Mail link for SUSE-SU-2022:1127-1"
    },
    {
      "URL": "https://www.suse.com/support/security/rating/",
      "Description": "SUSE Security Ratings"
    },
    {
      "URL": "https://bugzilla.suse.com/1197698",
      "Description": "SUSE Bug 1197698"
    },
    {
      "URL": "https://bugzilla.suse.com/1197903",
      "Description": "SUSE Bug 1197903"
    },
    {
      "URL": "https://www.suse.com/security/cve/CVE-2022-1097/",
      "Description": "SUSE CVE CVE-2022-1097 page"
    },
    {
      "URL": "https://www.suse.com/security/cve/CVE-2022-1196/",
      "Description": "SUSE CVE CVE-2022-1196 page"
    },
    {
      "URL": "https://www.suse.com/security/cve/CVE-2022-24713/",
      "Description": "SUSE CVE CVE-2022-24713 page"
    },
    {
      "URL": "https://www.suse.com/security/cve/CVE-2022-28281/",
      "Description": "SUSE CVE CVE-2022-28281 page"
    },
    {
      "URL": "https://www.suse.com/security/cve/CVE-2022-28282/",
      "Description": "SUSE CVE CVE-2022-28282 page"
    },
    {
      "URL": "https://www.suse.com/security/cve/CVE-2022-28285/",
      "Description": "SUSE CVE CVE-2022-28285 page"
    },
    {
      "URL": "https://www.suse.com/security/cve/CVE-2022-28286/",
      "Description": "SUSE CVE CVE-2022-28286 page"
    },
    {
      "URL": "https://www.suse.com/security/cve/CVE-2022-28289/",
      "Description": "SUSE CVE CVE-2022-28289 page"
    }
  ],
  "Vulnerabilities": [
    {
      "CVE": "CVE-2022-1097",
      "Description": "\u003ccode\u003eNSSToken\u003c/code\u003e objects were referenced via direct points, and could have been accessed in an unsafe way on different threads, leading to a use-after-free and potentially exploitable crash. This vulnerability affects Thunderbird \u003c 91.8, Firefox \u003c 99, and Firefox ESR \u003c 91.8.",
      "Threats": [
        {
          "Type": "Impact",
          "Severity": "important"
        }
      ],
      "References": [
        {
          "URL": "https://www.suse.com/security/cve/CVE-2022-1097.html",
          "Description": "CVE-2022-1097"
        }
      ],
      "ProductStatuses": [
        {
          "Type": "Fixed",
          "ProductID": [
            "Image SLES15-SP2-SAP-Azure-LI-BYOS-Production:MozillaFirefox-91.8.0-150200.152.26.1",
            "Image SLES15-SP2-SAP-Azure-VLI-BYOS-Production:MozillaFirefox-91.8.0-150200.152.26.1",
            "Image SLES15-SP3-SAP-Azure-LI-BYOS-Production:MozillaFirefox-91.8.0-150200.152.26.1",
            "Image SLES15-SP3-SAP-Azure-VLI-BYOS-Production:MozillaFirefox-91.8.0-150200.152.26.1",
            "Image SLES15-SP4-SAP-Azure-LI-BYOS-Production:MozillaFirefox-91.8.0-150200.152.26.1",
            "Image SLES15-SP4-SAP-Azure-LI-BYOS:MozillaFirefox-91.8.0-150200.152.26.1",
            "Image SLES15-SP4-SAP-Azure-VLI-BYOS-Production:MozillaFirefox-91.8.0-150200.152.26.1",
            "Image SLES15-SP4-SAP-Azure-VLI-BYOS:MozillaFirefox-91.8.0-150200.152.26.1",
            "Image SLES15-SP5-SAP-Azure-LI-BYOS-Production:MozillaFirefox-91.8.0-150200.152.26.1",
            "Image SLES15-SP5-SAP-Azure-LI-BYOS:MozillaFirefox-91.8.0-150200.152.26.1",
            "Image SLES15-SP5-SAP-Azure-VLI-BYOS-Production:MozillaFirefox-91.8.0-150200.152.26.1",
            "Image SLES15-SP5-SAP-Azure-VLI-BYOS:MozillaFirefox-91.8.0-150200.152.26.1",
            "SUSE Enterprise Storage 7:MozillaFirefox-91.8.0-150200.152.26.1",
            "SUSE Enterprise Storage 7:MozillaFirefox-devel-91.8.0-150200.152.26.1",
            "SUSE Enterprise Storage 7:MozillaFirefox-translations-common-91.8.0-150200.152.26.1",
            "SUSE Enterprise Storage 7:MozillaFirefox-translations-other-91.8.0-150200.152.26.1",
            "SUSE Linux Enterprise High Performance Computing 15 SP2-ESPOS:MozillaFirefox-91.8.0-150200.152.26.1",
            "SUSE Linux Enterprise High Performance Computing 15 SP2-ESPOS:MozillaFirefox-devel-91.8.0-150200.152.26.1",
            "SUSE Linux Enterprise High Performance Computing 15 SP2-ESPOS:MozillaFirefox-translations-common-91.8.0-150200.152.26.1",
            "SUSE Linux Enterprise High Performance Computing 15 SP2-ESPOS:MozillaFirefox-translations-other-91.8.0-150200.152.26.1",
            "SUSE Linux Enterprise High Performance Computing 15 SP2-LTSS:MozillaFirefox-91.8.0-150200.152.26.1",
            "SUSE Linux Enterprise High Performance Computing 15 SP2-LTSS:MozillaFirefox-devel-91.8.0-150200.152.26.1",
            "SUSE Linux Enterprise High Performance Computing 15 SP2-LTSS:MozillaFirefox-translations-common-91.8.0-150200.152.26.1",
            "SUSE Linux Enterprise High Performance Computing 15 SP2-LTSS:MozillaFirefox-translations-other-91.8.0-150200.152.26.1",
            "SUSE Linux Enterprise Module for Desktop Applications 15 SP3:MozillaFirefox-91.8.0-150200.152.26.1",
            "SUSE Linux Enterprise Module for Desktop Applications 15 SP3:MozillaFirefox-devel-91.8.0-150200.152.26.1",
            "SUSE Linux Enterprise Module for Desktop Applications 15 SP3:MozillaFirefox-translations-common-91.8.0-150200.152.26.1",
            "SUSE Linux Enterprise Module for Desktop Applications 15 SP3:MozillaFirefox-translations-other-91.8.0-150200.152.26.1",
            "SUSE Linux Enterprise Real Time 15 SP2:MozillaFirefox-91.8.0-150200.152.26.1",
            "SUSE Linux Enterprise Real Time 15 SP2:MozillaFirefox-devel-91.8.0-150200.152.26.1",
            "SUSE Linux Enterprise Real Time 15 SP2:MozillaFirefox-translations-common-91.8.0-150200.152.26.1",
            "SUSE Linux Enterprise Real Time 15 SP2:MozillaFirefox-translations-other-91.8.0-150200.152.26.1",
            "SUSE Linux Enterprise Server 15 SP2-BCL:MozillaFirefox-91.8.0-150200.152.26.1",
            "SUSE Linux Enterprise Server 15 SP2-BCL:MozillaFirefox-devel-91.8.0-150200.152.26.1",
            "SUSE Linux Enterprise Server 15 SP2-BCL:MozillaFirefox-translations-common-91.8.0-150200.152.26.1",
            "SUSE Linux Enterprise Server 15 SP2-BCL:MozillaFirefox-translations-other-91.8.0-150200.152.26.1",
            "SUSE Linux Enterprise Server 15 SP2-LTSS:MozillaFirefox-91.8.0-150200.152.26.1",
            "SUSE Linux Enterprise Server 15 SP2-LTSS:MozillaFirefox-devel-91.8.0-150200.152.26.1",
            "SUSE Linux Enterprise Server 15 SP2-LTSS:MozillaFirefox-translations-common-91.8.0-150200.152.26.1",
            "SUSE Linux Enterprise Server 15 SP2-LTSS:MozillaFirefox-translations-other-91.8.0-150200.152.26.1",
            "SUSE Linux Enterprise Server for SAP Applications 15 SP2:MozillaFirefox-91.8.0-150200.152.26.1",
            "SUSE Linux Enterprise Server for SAP Applications 15 SP2:MozillaFirefox-devel-91.8.0-150200.152.26.1",
            "SUSE Linux Enterprise Server for SAP Applications 15 SP2:MozillaFirefox-translations-common-91.8.0-150200.152.26.1",
            "SUSE Linux Enterprise Server for SAP Applications 15 SP2:MozillaFirefox-translations-other-91.8.0-150200.152.26.1",
            "SUSE Manager Proxy 4.1:MozillaFirefox-91.8.0-150200.152.26.1",
            "SUSE Manager Proxy 4.1:MozillaFirefox-devel-91.8.0-150200.152.26.1",
            "SUSE Manager Proxy 4.1:MozillaFirefox-translations-common-91.8.0-150200.152.26.1",
            "SUSE Manager Proxy 4.1:MozillaFirefox-translations-other-91.8.0-150200.152.26.1",
            "SUSE Manager Retail Branch Server 4.1:MozillaFirefox-91.8.0-150200.152.26.1",
            "SUSE Manager Retail Branch Server 4.1:MozillaFirefox-devel-91.8.0-150200.152.26.1",
            "SUSE Manager Retail Branch Server 4.1:MozillaFirefox-translations-common-91.8.0-150200.152.26.1",
            "SUSE Manager Retail Branch Server 4.1:MozillaFirefox-translations-other-91.8.0-150200.152.26.1",
            "SUSE Manager Server 4.1:MozillaFirefox-91.8.0-150200.152.26.1",
            "SUSE Manager Server 4.1:MozillaFirefox-devel-91.8.0-150200.152.26.1",
            "SUSE Manager Server 4.1:MozillaFirefox-translations-common-91.8.0-150200.152.26.1",
            "SUSE Manager Server 4.1:MozillaFirefox-translations-other-91.8.0-150200.152.26.1"
          ]
        }
      ],
      "CVSSScoreSets": {}
    },
    {
      "CVE": "CVE-2022-1196",
      "Description": "After a VR Process is destroyed, a reference to it may have been retained and used, leading to a use-after-free and potentially exploitable crash. This vulnerability affects Thunderbird \u003c 91.8 and Firefox ESR \u003c 91.8.",
      "Threats": [
        {
          "Type": "Impact",
          "Severity": "important"
        }
      ],
      "References": [
        {
          "URL": "https://www.suse.com/security/cve/CVE-2022-1196.html",
          "Description": "CVE-2022-1196"
        }
      ],
      "ProductStatuses": [
        {
          "Type": "Fixed",
          "ProductID": [
            "Image SLES15-SP2-SAP-Azure-LI-BYOS-Production:MozillaFirefox-91.8.0-150200.152.26.1",
            "Image SLES15-SP2-SAP-Azure-VLI-BYOS-Production:MozillaFirefox-91.8.0-150200.152.26.1",
            "Image SLES15-SP3-SAP-Azure-LI-BYOS-Production:MozillaFirefox-91.8.0-150200.152.26.1",
            "Image SLES15-SP3-SAP-Azure-VLI-BYOS-Production:MozillaFirefox-91.8.0-150200.152.26.1",
            "Image SLES15-SP4-SAP-Azure-LI-BYOS-Production:MozillaFirefox-91.8.0-150200.152.26.1",
            "Image SLES15-SP4-SAP-Azure-LI-BYOS:MozillaFirefox-91.8.0-150200.152.26.1",
            "Image SLES15-SP4-SAP-Azure-VLI-BYOS-Production:MozillaFirefox-91.8.0-150200.152.26.1",
            "Image SLES15-SP4-SAP-Azure-VLI-BYOS:MozillaFirefox-91.8.0-150200.152.26.1",
            "Image SLES15-SP5-SAP-Azure-LI-BYOS-Production:MozillaFirefox-91.8.0-150200.152.26.1",
            "Image SLES15-SP5-SAP-Azure-LI-BYOS:MozillaFirefox-91.8.0-150200.152.26.1",
            "Image SLES15-SP5-SAP-Azure-VLI-BYOS-Production:MozillaFirefox-91.8.0-150200.152.26.1",
            "Image SLES15-SP5-SAP-Azure-VLI-BYOS:MozillaFirefox-91.8.0-150200.152.26.1",
            "SUSE Enterprise Storage 7:MozillaFirefox-91.8.0-150200.152.26.1",
            "SUSE Enterprise Storage 7:MozillaFirefox-devel-91.8.0-150200.152.26.1",
            "SUSE Enterprise Storage 7:MozillaFirefox-translations-common-91.8.0-150200.152.26.1",
            "SUSE Enterprise Storage 7:MozillaFirefox-translations-other-91.8.0-150200.152.26.1",
            "SUSE Linux Enterprise High Performance Computing 15 SP2-ESPOS:MozillaFirefox-91.8.0-150200.152.26.1",
            "SUSE Linux Enterprise High Performance Computing 15 SP2-ESPOS:MozillaFirefox-devel-91.8.0-150200.152.26.1",
            "SUSE Linux Enterprise High Performance Computing 15 SP2-ESPOS:MozillaFirefox-translations-common-91.8.0-150200.152.26.1",
            "SUSE Linux Enterprise High Performance Computing 15 SP2-ESPOS:MozillaFirefox-translations-other-91.8.0-150200.152.26.1",
            "SUSE Linux Enterprise High Performance Computing 15 SP2-LTSS:MozillaFirefox-91.8.0-150200.152.26.1",
            "SUSE Linux Enterprise High Performance Computing 15 SP2-LTSS:MozillaFirefox-devel-91.8.0-150200.152.26.1",
            "SUSE Linux Enterprise High Performance Computing 15 SP2-LTSS:MozillaFirefox-translations-common-91.8.0-150200.152.26.1",
            "SUSE Linux Enterprise High Performance Computing 15 SP2-LTSS:MozillaFirefox-translations-other-91.8.0-150200.152.26.1",
            "SUSE Linux Enterprise Module for Desktop Applications 15 SP3:MozillaFirefox-91.8.0-150200.152.26.1",
            "SUSE Linux Enterprise Module for Desktop Applications 15 SP3:MozillaFirefox-devel-91.8.0-150200.152.26.1",
            "SUSE Linux Enterprise Module for Desktop Applications 15 SP3:MozillaFirefox-translations-common-91.8.0-150200.152.26.1",
            "SUSE Linux Enterprise Module for Desktop Applications 15 SP3:MozillaFirefox-translations-other-91.8.0-150200.152.26.1",
            "SUSE Linux Enterprise Real Time 15 SP2:MozillaFirefox-91.8.0-150200.152.26.1",
            "SUSE Linux Enterprise Real Time 15 SP2:MozillaFirefox-devel-91.8.0-150200.152.26.1",
            "SUSE Linux Enterprise Real Time 15 SP2:MozillaFirefox-translations-common-91.8.0-150200.152.26.1",
            "SUSE Linux Enterprise Real Time 15 SP2:MozillaFirefox-translations-other-91.8.0-150200.152.26.1",
            "SUSE Linux Enterprise Server 15 SP2-BCL:MozillaFirefox-91.8.0-150200.152.26.1",
            "SUSE Linux Enterprise Server 15 SP2-BCL:MozillaFirefox-devel-91.8.0-150200.152.26.1",
            "SUSE Linux Enterprise Server 15 SP2-BCL:MozillaFirefox-translations-common-91.8.0-150200.152.26.1",
            "SUSE Linux Enterprise Server 15 SP2-BCL:MozillaFirefox-translations-other-91.8.0-150200.152.26.1",
            "SUSE Linux Enterprise Server 15 SP2-LTSS:MozillaFirefox-91.8.0-150200.152.26.1",
            "SUSE Linux Enterprise Server 15 SP2-LTSS:MozillaFirefox-devel-91.8.0-150200.152.26.1",
            "SUSE Linux Enterprise Server 15 SP2-LTSS:MozillaFirefox-translations-common-91.8.0-150200.152.26.1",
            "SUSE Linux Enterprise Server 15 SP2-LTSS:MozillaFirefox-translations-other-91.8.0-150200.152.26.1",
            "SUSE Linux Enterprise Server for SAP Applications 15 SP2:MozillaFirefox-91.8.0-150200.152.26.1",
            "SUSE Linux Enterprise Server for SAP Applications 15 SP2:MozillaFirefox-devel-91.8.0-150200.152.26.1",
            "SUSE Linux Enterprise Server for SAP Applications 15 SP2:MozillaFirefox-translations-common-91.8.0-150200.152.26.1",
            "SUSE Linux Enterprise Server for SAP Applications 15 SP2:MozillaFirefox-translations-other-91.8.0-150200.152.26.1",
            "SUSE Manager Proxy 4.1:MozillaFirefox-91.8.0-150200.152.26.1",
            "SUSE Manager Proxy 4.1:MozillaFirefox-devel-91.8.0-150200.152.26.1",
            "SUSE Manager Proxy 4.1:MozillaFirefox-translations-common-91.8.0-150200.152.26.1",
            "SUSE Manager Proxy 4.1:MozillaFirefox-translations-other-91.8.0-150200.152.26.1",
            "SUSE Manager Retail Branch Server 4.1:MozillaFirefox-91.8.0-150200.152.26.1",
            "SUSE Manager Retail Branch Server 4.1:MozillaFirefox-devel-91.8.0-150200.152.26.1",
            "SUSE Manager Retail Branch Server 4.1:MozillaFirefox-translations-common-91.8.0-150200.152.26.1",
            "SUSE Manager Retail Branch Server 4.1:MozillaFirefox-translations-other-91.8.0-150200.152.26.1",
            "SUSE Manager Server 4.1:MozillaFirefox-91.8.0-150200.152.26.1",
            "SUSE Manager Server 4.1:MozillaFirefox-devel-91.8.0-150200.152.26.1",
            "SUSE Manager Server 4.1:MozillaFirefox-translations-common-91.8.0-150200.152.26.1",
            "SUSE Manager Server 4.1:MozillaFirefox-translations-other-91.8.0-150200.152.26.1"
          ]
        }
      ],
      "CVSSScoreSets": {}
    },
    {
      "CVE": "CVE-2022-24713",
      "Description": "regex is an implementation of regular expressions for the Rust language. The regex crate features built-in mitigations to prevent denial of service attacks caused by untrusted regexes, or untrusted input matched by trusted regexes. Those (tunable) mitigations already provide sane defaults to prevent attacks. This guarantee is documented and it's considered part of the crate's API. Unfortunately a bug was discovered in the mitigations designed to prevent untrusted regexes to take an arbitrary amount of time during parsing, and it's possible to craft regexes that bypass such mitigations. This makes it possible to perform denial of service attacks by sending specially crafted regexes to services accepting user-controlled, untrusted regexes. All versions of the regex crate before or equal to 1.5.4 are affected by this issue. The fix is include starting from regex 1.5.5. All users accepting user-controlled regexes are recommended to upgrade immediately to the latest version of the regex crate. Unfortunately there is no fixed set of problematic regexes, as there are practically infinite regexes that could be crafted to exploit this vulnerability. Because of this, it us not recommend to deny known problematic regexes.",
      "Threats": [
        {
          "Type": "Impact",
          "Severity": "moderate"
        }
      ],
      "References": [
        {
          "URL": "https://www.suse.com/security/cve/CVE-2022-24713.html",
          "Description": "CVE-2022-24713"
        },
        {
          "URL": "https://bugzilla.suse.com/1196972",
          "Description": "SUSE Bug 1196972"
        }
      ],
      "ProductStatuses": [
        {
          "Type": "Fixed",
          "ProductID": [
            "Image SLES15-SP2-SAP-Azure-LI-BYOS-Production:MozillaFirefox-91.8.0-150200.152.26.1",
            "Image SLES15-SP2-SAP-Azure-VLI-BYOS-Production:MozillaFirefox-91.8.0-150200.152.26.1",
            "Image SLES15-SP3-SAP-Azure-LI-BYOS-Production:MozillaFirefox-91.8.0-150200.152.26.1",
            "Image SLES15-SP3-SAP-Azure-VLI-BYOS-Production:MozillaFirefox-91.8.0-150200.152.26.1",
            "Image SLES15-SP4-SAP-Azure-LI-BYOS-Production:MozillaFirefox-91.8.0-150200.152.26.1",
            "Image SLES15-SP4-SAP-Azure-LI-BYOS:MozillaFirefox-91.8.0-150200.152.26.1",
            "Image SLES15-SP4-SAP-Azure-VLI-BYOS-Production:MozillaFirefox-91.8.0-150200.152.26.1",
            "Image SLES15-SP4-SAP-Azure-VLI-BYOS:MozillaFirefox-91.8.0-150200.152.26.1",
            "Image SLES15-SP5-SAP-Azure-LI-BYOS-Production:MozillaFirefox-91.8.0-150200.152.26.1",
            "Image SLES15-SP5-SAP-Azure-LI-BYOS:MozillaFirefox-91.8.0-150200.152.26.1",
            "Image SLES15-SP5-SAP-Azure-VLI-BYOS-Production:MozillaFirefox-91.8.0-150200.152.26.1",
            "Image SLES15-SP5-SAP-Azure-VLI-BYOS:MozillaFirefox-91.8.0-150200.152.26.1",
            "SUSE Enterprise Storage 7:MozillaFirefox-91.8.0-150200.152.26.1",
            "SUSE Enterprise Storage 7:MozillaFirefox-devel-91.8.0-150200.152.26.1",
            "SUSE Enterprise Storage 7:MozillaFirefox-translations-common-91.8.0-150200.152.26.1",
            "SUSE Enterprise Storage 7:MozillaFirefox-translations-other-91.8.0-150200.152.26.1",
            "SUSE Linux Enterprise High Performance Computing 15 SP2-ESPOS:MozillaFirefox-91.8.0-150200.152.26.1",
            "SUSE Linux Enterprise High Performance Computing 15 SP2-ESPOS:MozillaFirefox-devel-91.8.0-150200.152.26.1",
            "SUSE Linux Enterprise High Performance Computing 15 SP2-ESPOS:MozillaFirefox-translations-common-91.8.0-150200.152.26.1",
            "SUSE Linux Enterprise High Performance Computing 15 SP2-ESPOS:MozillaFirefox-translations-other-91.8.0-150200.152.26.1",
            "SUSE Linux Enterprise High Performance Computing 15 SP2-LTSS:MozillaFirefox-91.8.0-150200.152.26.1",
            "SUSE Linux Enterprise High Performance Computing 15 SP2-LTSS:MozillaFirefox-devel-91.8.0-150200.152.26.1",
            "SUSE Linux Enterprise High Performance Computing 15 SP2-LTSS:MozillaFirefox-translations-common-91.8.0-150200.152.26.1",
            "SUSE Linux Enterprise High Performance Computing 15 SP2-LTSS:MozillaFirefox-translations-other-91.8.0-150200.152.26.1",
            "SUSE Linux Enterprise Module for Desktop Applications 15 SP3:MozillaFirefox-91.8.0-150200.152.26.1",
            "SUSE Linux Enterprise Module for Desktop Applications 15 SP3:MozillaFirefox-devel-91.8.0-150200.152.26.1",
            "SUSE Linux Enterprise Module for Desktop Applications 15 SP3:MozillaFirefox-translations-common-91.8.0-150200.152.26.1",
            "SUSE Linux Enterprise Module for Desktop Applications 15 SP3:MozillaFirefox-translations-other-91.8.0-150200.152.26.1",
            "SUSE Linux Enterprise Real Time 15 SP2:MozillaFirefox-91.8.0-150200.152.26.1",
            "SUSE Linux Enterprise Real Time 15 SP2:MozillaFirefox-devel-91.8.0-150200.152.26.1",
            "SUSE Linux Enterprise Real Time 15 SP2:MozillaFirefox-translations-common-91.8.0-150200.152.26.1",
            "SUSE Linux Enterprise Real Time 15 SP2:MozillaFirefox-translations-other-91.8.0-150200.152.26.1",
            "SUSE Linux Enterprise Server 15 SP2-BCL:MozillaFirefox-91.8.0-150200.152.26.1",
            "SUSE Linux Enterprise Server 15 SP2-BCL:MozillaFirefox-devel-91.8.0-150200.152.26.1",
            "SUSE Linux Enterprise Server 15 SP2-BCL:MozillaFirefox-translations-common-91.8.0-150200.152.26.1",
            "SUSE Linux Enterprise Server 15 SP2-BCL:MozillaFirefox-translations-other-91.8.0-150200.152.26.1",
            "SUSE Linux Enterprise Server 15 SP2-LTSS:MozillaFirefox-91.8.0-150200.152.26.1",
            "SUSE Linux Enterprise Server 15 SP2-LTSS:MozillaFirefox-devel-91.8.0-150200.152.26.1",
            "SUSE Linux Enterprise Server 15 SP2-LTSS:MozillaFirefox-translations-common-91.8.0-150200.152.26.1",
            "SUSE Linux Enterprise Server 15 SP2-LTSS:MozillaFirefox-translations-other-91.8.0-150200.152.26.1",
            "SUSE Linux Enterprise Server for SAP Applications 15 SP2:MozillaFirefox-91.8.0-150200.152.26.1",
            "SUSE Linux Enterprise Server for SAP Applications 15 SP2:MozillaFirefox-devel-91.8.0-150200.152.26.1",
            "SUSE Linux Enterprise Server for SAP Applications 15 SP2:MozillaFirefox-translations-common-91.8.0-150200.152.26.1",
            "SUSE Linux Enterprise Server for SAP Applications 15 SP2:MozillaFirefox-translations-other-91.8.0-150200.152.26.1",
            "SUSE Manager Proxy 4.1:MozillaFirefox-91.8.0-150200.152.26.1",
            "SUSE Manager Proxy 4.1:MozillaFirefox-devel-91.8.0-150200.152.26.1",
            "SUSE Manager Proxy 4.1:MozillaFirefox-translations-common-91.8.0-150200.152.26.1",
            "SUSE Manager Proxy 4.1:MozillaFirefox-translations-other-91.8.0-150200.152.26.1",
            "SUSE Manager Retail Branch Server 4.1:MozillaFirefox-91.8.0-150200.152.26.1",
            "SUSE Manager Retail Branch Server 4.1:MozillaFirefox-devel-91.8.0-150200.152.26.1",
            "SUSE Manager Retail Branch Server 4.1:MozillaFirefox-translations-common-91.8.0-150200.152.26.1",
            "SUSE Manager Retail Branch Server 4.1:MozillaFirefox-translations-other-91.8.0-150200.152.26.1",
            "SUSE Manager Server 4.1:MozillaFirefox-91.8.0-150200.152.26.1",
            "SUSE Manager Server 4.1:MozillaFirefox-devel-91.8.0-150200.152.26.1",
            "SUSE Manager Server 4.1:MozillaFirefox-translations-common-91.8.0-150200.152.26.1",
            "SUSE Manager Server 4.1:MozillaFirefox-translations-other-91.8.0-150200.152.26.1"
          ]
        }
      ],
      "CVSSScoreSets": {}
    },
    {
      "CVE": "CVE-2022-28281",
      "Description": "If a compromised content process sent an unexpected number of WebAuthN Extensions in a Register command to the parent process, an out of bounds write would have occurred leading to memory corruption and a potentially exploitable crash. This vulnerability affects Thunderbird \u003c 91.8, Firefox \u003c 99, and Firefox ESR \u003c 91.8.",
      "Threats": [
        {
          "Type": "Impact",
          "Severity": "important"
        }
      ],
      "References": [
        {
          "URL": "https://www.suse.com/security/cve/CVE-2022-28281.html",
          "Description": "CVE-2022-28281"
        }
      ],
      "ProductStatuses": [
        {
          "Type": "Fixed",
          "ProductID": [
            "Image SLES15-SP2-SAP-Azure-LI-BYOS-Production:MozillaFirefox-91.8.0-150200.152.26.1",
            "Image SLES15-SP2-SAP-Azure-VLI-BYOS-Production:MozillaFirefox-91.8.0-150200.152.26.1",
            "Image SLES15-SP3-SAP-Azure-LI-BYOS-Production:MozillaFirefox-91.8.0-150200.152.26.1",
            "Image SLES15-SP3-SAP-Azure-VLI-BYOS-Production:MozillaFirefox-91.8.0-150200.152.26.1",
            "Image SLES15-SP4-SAP-Azure-LI-BYOS-Production:MozillaFirefox-91.8.0-150200.152.26.1",
            "Image SLES15-SP4-SAP-Azure-LI-BYOS:MozillaFirefox-91.8.0-150200.152.26.1",
            "Image SLES15-SP4-SAP-Azure-VLI-BYOS-Production:MozillaFirefox-91.8.0-150200.152.26.1",
            "Image SLES15-SP4-SAP-Azure-VLI-BYOS:MozillaFirefox-91.8.0-150200.152.26.1",
            "Image SLES15-SP5-SAP-Azure-LI-BYOS-Production:MozillaFirefox-91.8.0-150200.152.26.1",
            "Image SLES15-SP5-SAP-Azure-LI-BYOS:MozillaFirefox-91.8.0-150200.152.26.1",
            "Image SLES15-SP5-SAP-Azure-VLI-BYOS-Production:MozillaFirefox-91.8.0-150200.152.26.1",
            "Image SLES15-SP5-SAP-Azure-VLI-BYOS:MozillaFirefox-91.8.0-150200.152.26.1",
            "SUSE Enterprise Storage 7:MozillaFirefox-91.8.0-150200.152.26.1",
            "SUSE Enterprise Storage 7:MozillaFirefox-devel-91.8.0-150200.152.26.1",
            "SUSE Enterprise Storage 7:MozillaFirefox-translations-common-91.8.0-150200.152.26.1",
            "SUSE Enterprise Storage 7:MozillaFirefox-translations-other-91.8.0-150200.152.26.1",
            "SUSE Linux Enterprise High Performance Computing 15 SP2-ESPOS:MozillaFirefox-91.8.0-150200.152.26.1",
            "SUSE Linux Enterprise High Performance Computing 15 SP2-ESPOS:MozillaFirefox-devel-91.8.0-150200.152.26.1",
            "SUSE Linux Enterprise High Performance Computing 15 SP2-ESPOS:MozillaFirefox-translations-common-91.8.0-150200.152.26.1",
            "SUSE Linux Enterprise High Performance Computing 15 SP2-ESPOS:MozillaFirefox-translations-other-91.8.0-150200.152.26.1",
            "SUSE Linux Enterprise High Performance Computing 15 SP2-LTSS:MozillaFirefox-91.8.0-150200.152.26.1",
            "SUSE Linux Enterprise High Performance Computing 15 SP2-LTSS:MozillaFirefox-devel-91.8.0-150200.152.26.1",
            "SUSE Linux Enterprise High Performance Computing 15 SP2-LTSS:MozillaFirefox-translations-common-91.8.0-150200.152.26.1",
            "SUSE Linux Enterprise High Performance Computing 15 SP2-LTSS:MozillaFirefox-translations-other-91.8.0-150200.152.26.1",
            "SUSE Linux Enterprise Module for Desktop Applications 15 SP3:MozillaFirefox-91.8.0-150200.152.26.1",
            "SUSE Linux Enterprise Module for Desktop Applications 15 SP3:MozillaFirefox-devel-91.8.0-150200.152.26.1",
            "SUSE Linux Enterprise Module for Desktop Applications 15 SP3:MozillaFirefox-translations-common-91.8.0-150200.152.26.1",
            "SUSE Linux Enterprise Module for Desktop Applications 15 SP3:MozillaFirefox-translations-other-91.8.0-150200.152.26.1",
            "SUSE Linux Enterprise Real Time 15 SP2:MozillaFirefox-91.8.0-150200.152.26.1",
            "SUSE Linux Enterprise Real Time 15 SP2:MozillaFirefox-devel-91.8.0-150200.152.26.1",
            "SUSE Linux Enterprise Real Time 15 SP2:MozillaFirefox-translations-common-91.8.0-150200.152.26.1",
            "SUSE Linux Enterprise Real Time 15 SP2:MozillaFirefox-translations-other-91.8.0-150200.152.26.1",
            "SUSE Linux Enterprise Server 15 SP2-BCL:MozillaFirefox-91.8.0-150200.152.26.1",
            "SUSE Linux Enterprise Server 15 SP2-BCL:MozillaFirefox-devel-91.8.0-150200.152.26.1",
            "SUSE Linux Enterprise Server 15 SP2-BCL:MozillaFirefox-translations-common-91.8.0-150200.152.26.1",
            "SUSE Linux Enterprise Server 15 SP2-BCL:MozillaFirefox-translations-other-91.8.0-150200.152.26.1",
            "SUSE Linux Enterprise Server 15 SP2-LTSS:MozillaFirefox-91.8.0-150200.152.26.1",
            "SUSE Linux Enterprise Server 15 SP2-LTSS:MozillaFirefox-devel-91.8.0-150200.152.26.1",
            "SUSE Linux Enterprise Server 15 SP2-LTSS:MozillaFirefox-translations-common-91.8.0-150200.152.26.1",
            "SUSE Linux Enterprise Server 15 SP2-LTSS:MozillaFirefox-translations-other-91.8.0-150200.152.26.1",
            "SUSE Linux Enterprise Server for SAP Applications 15 SP2:MozillaFirefox-91.8.0-150200.152.26.1",
            "SUSE Linux Enterprise Server for SAP Applications 15 SP2:MozillaFirefox-devel-91.8.0-150200.152.26.1",
            "SUSE Linux Enterprise Server for SAP Applications 15 SP2:MozillaFirefox-translations-common-91.8.0-150200.152.26.1",
            "SUSE Linux Enterprise Server for SAP Applications 15 SP2:MozillaFirefox-translations-other-91.8.0-150200.152.26.1",
            "SUSE Manager Proxy 4.1:MozillaFirefox-91.8.0-150200.152.26.1",
            "SUSE Manager Proxy 4.1:MozillaFirefox-devel-91.8.0-150200.152.26.1",
            "SUSE Manager Proxy 4.1:MozillaFirefox-translations-common-91.8.0-150200.152.26.1",
            "SUSE Manager Proxy 4.1:MozillaFirefox-translations-other-91.8.0-150200.152.26.1",
            "SUSE Manager Retail Branch Server 4.1:MozillaFirefox-91.8.0-150200.152.26.1",
            "SUSE Manager Retail Branch Server 4.1:MozillaFirefox-devel-91.8.0-150200.152.26.1",
            "SUSE Manager Retail Branch Server 4.1:MozillaFirefox-translations-common-91.8.0-150200.152.26.1",
            "SUSE Manager Retail Branch Server 4.1:MozillaFirefox-translations-other-91.8.0-150200.152.26.1",
            "SUSE Manager Server 4.1:MozillaFirefox-91.8.0-150200.152.26.1",
            "SUSE Manager Server 4.1:MozillaFirefox-devel-91.8.0-150200.152.26.1",
            "SUSE Manager Server 4.1:MozillaFirefox-translations-common-91.8.0-150200.152.26.1",
            "SUSE Manager Server 4.1:MozillaFirefox-translations-other-91.8.0-150200.152.26.1"
          ]
        }
      ],
      "CVSSScoreSets": {}
    },
    {
      "CVE": "CVE-2022-28282",
      "Description": "By using a link with \u003ccode\u003erel=\"localization\"\u003c/code\u003e a use-after-free could have been triggered by destroying an object during JavaScript execution and then referencing the object through a freed pointer, leading to a potential exploitable crash. This vulnerability affects Thunderbird \u003c 91.8, Firefox \u003c 99, and Firefox ESR \u003c 91.8.",
      "Threats": [
        {
          "Type": "Impact",
          "Severity": "important"
        }
      ],
      "References": [
        {
          "URL": "https://www.suse.com/security/cve/CVE-2022-28282.html",
          "Description": "CVE-2022-28282"
        }
      ],
      "ProductStatuses": [
        {
          "Type": "Fixed",
          "ProductID": [
            "Image SLES15-SP2-SAP-Azure-LI-BYOS-Production:MozillaFirefox-91.8.0-150200.152.26.1",
            "Image SLES15-SP2-SAP-Azure-VLI-BYOS-Production:MozillaFirefox-91.8.0-150200.152.26.1",
            "Image SLES15-SP3-SAP-Azure-LI-BYOS-Production:MozillaFirefox-91.8.0-150200.152.26.1",
            "Image SLES15-SP3-SAP-Azure-VLI-BYOS-Production:MozillaFirefox-91.8.0-150200.152.26.1",
            "Image SLES15-SP4-SAP-Azure-LI-BYOS-Production:MozillaFirefox-91.8.0-150200.152.26.1",
            "Image SLES15-SP4-SAP-Azure-LI-BYOS:MozillaFirefox-91.8.0-150200.152.26.1",
            "Image SLES15-SP4-SAP-Azure-VLI-BYOS-Production:MozillaFirefox-91.8.0-150200.152.26.1",
            "Image SLES15-SP4-SAP-Azure-VLI-BYOS:MozillaFirefox-91.8.0-150200.152.26.1",
            "Image SLES15-SP5-SAP-Azure-LI-BYOS-Production:MozillaFirefox-91.8.0-150200.152.26.1",
            "Image SLES15-SP5-SAP-Azure-LI-BYOS:MozillaFirefox-91.8.0-150200.152.26.1",
            "Image SLES15-SP5-SAP-Azure-VLI-BYOS-Production:MozillaFirefox-91.8.0-150200.152.26.1",
            "Image SLES15-SP5-SAP-Azure-VLI-BYOS:MozillaFirefox-91.8.0-150200.152.26.1",
            "SUSE Enterprise Storage 7:MozillaFirefox-91.8.0-150200.152.26.1",
            "SUSE Enterprise Storage 7:MozillaFirefox-devel-91.8.0-150200.152.26.1",
            "SUSE Enterprise Storage 7:MozillaFirefox-translations-common-91.8.0-150200.152.26.1",
            "SUSE Enterprise Storage 7:MozillaFirefox-translations-other-91.8.0-150200.152.26.1",
            "SUSE Linux Enterprise High Performance Computing 15 SP2-ESPOS:MozillaFirefox-91.8.0-150200.152.26.1",
            "SUSE Linux Enterprise High Performance Computing 15 SP2-ESPOS:MozillaFirefox-devel-91.8.0-150200.152.26.1",
            "SUSE Linux Enterprise High Performance Computing 15 SP2-ESPOS:MozillaFirefox-translations-common-91.8.0-150200.152.26.1",
            "SUSE Linux Enterprise High Performance Computing 15 SP2-ESPOS:MozillaFirefox-translations-other-91.8.0-150200.152.26.1",
            "SUSE Linux Enterprise High Performance Computing 15 SP2-LTSS:MozillaFirefox-91.8.0-150200.152.26.1",
            "SUSE Linux Enterprise High Performance Computing 15 SP2-LTSS:MozillaFirefox-devel-91.8.0-150200.152.26.1",
            "SUSE Linux Enterprise High Performance Computing 15 SP2-LTSS:MozillaFirefox-translations-common-91.8.0-150200.152.26.1",
            "SUSE Linux Enterprise High Performance Computing 15 SP2-LTSS:MozillaFirefox-translations-other-91.8.0-150200.152.26.1",
            "SUSE Linux Enterprise Module for Desktop Applications 15 SP3:MozillaFirefox-91.8.0-150200.152.26.1",
            "SUSE Linux Enterprise Module for Desktop Applications 15 SP3:MozillaFirefox-devel-91.8.0-150200.152.26.1",
            "SUSE Linux Enterprise Module for Desktop Applications 15 SP3:MozillaFirefox-translations-common-91.8.0-150200.152.26.1",
            "SUSE Linux Enterprise Module for Desktop Applications 15 SP3:MozillaFirefox-translations-other-91.8.0-150200.152.26.1",
            "SUSE Linux Enterprise Real Time 15 SP2:MozillaFirefox-91.8.0-150200.152.26.1",
            "SUSE Linux Enterprise Real Time 15 SP2:MozillaFirefox-devel-91.8.0-150200.152.26.1",
            "SUSE Linux Enterprise Real Time 15 SP2:MozillaFirefox-translations-common-91.8.0-150200.152.26.1",
            "SUSE Linux Enterprise Real Time 15 SP2:MozillaFirefox-translations-other-91.8.0-150200.152.26.1",
            "SUSE Linux Enterprise Server 15 SP2-BCL:MozillaFirefox-91.8.0-150200.152.26.1",
            "SUSE Linux Enterprise Server 15 SP2-BCL:MozillaFirefox-devel-91.8.0-150200.152.26.1",
            "SUSE Linux Enterprise Server 15 SP2-BCL:MozillaFirefox-translations-common-91.8.0-150200.152.26.1",
            "SUSE Linux Enterprise Server 15 SP2-BCL:MozillaFirefox-translations-other-91.8.0-150200.152.26.1",
            "SUSE Linux Enterprise Server 15 SP2-LTSS:MozillaFirefox-91.8.0-150200.152.26.1",
            "SUSE Linux Enterprise Server 15 SP2-LTSS:MozillaFirefox-devel-91.8.0-150200.152.26.1",
            "SUSE Linux Enterprise Server 15 SP2-LTSS:MozillaFirefox-translations-common-91.8.0-150200.152.26.1",
            "SUSE Linux Enterprise Server 15 SP2-LTSS:MozillaFirefox-translations-other-91.8.0-150200.152.26.1",
            "SUSE Linux Enterprise Server for SAP Applications 15 SP2:MozillaFirefox-91.8.0-150200.152.26.1",
            "SUSE Linux Enterprise Server for SAP Applications 15 SP2:MozillaFirefox-devel-91.8.0-150200.152.26.1",
            "SUSE Linux Enterprise Server for SAP Applications 15 SP2:MozillaFirefox-translations-common-91.8.0-150200.152.26.1",
            "SUSE Linux Enterprise Server for SAP Applications 15 SP2:MozillaFirefox-translations-other-91.8.0-150200.152.26.1",
            "SUSE Manager Proxy 4.1:MozillaFirefox-91.8.0-150200.152.26.1",
            "SUSE Manager Proxy 4.1:MozillaFirefox-devel-91.8.0-150200.152.26.1",
            "SUSE Manager Proxy 4.1:MozillaFirefox-translations-common-91.8.0-150200.152.26.1",
            "SUSE Manager Proxy 4.1:MozillaFirefox-translations-other-91.8.0-150200.152.26.1",
            "SUSE Manager Retail Branch Server 4.1:MozillaFirefox-91.8.0-150200.152.26.1",
            "SUSE Manager Retail Branch Server 4.1:MozillaFirefox-devel-91.8.0-150200.152.26.1",
            "SUSE Manager Retail Branch Server 4.1:MozillaFirefox-translations-common-91.8.0-150200.152.26.1",
            "SUSE Manager Retail Branch Server 4.1:MozillaFirefox-translations-other-91.8.0-150200.152.26.1",
            "SUSE Manager Server 4.1:MozillaFirefox-91.8.0-150200.152.26.1",
            "SUSE Manager Server 4.1:MozillaFirefox-devel-91.8.0-150200.152.26.1",
            "SUSE Manager Server 4.1:MozillaFirefox-translations-common-91.8.0-150200.152.26.1",
            "SUSE Manager Server 4.1:MozillaFirefox-translations-other-91.8.0-150200.152.26.1"
          ]
        }
      ],
      "CVSSScoreSets": {}
    },
    {
      "CVE": "CVE-2022-28285",
      "Description": "When generating the assembly code for \u003ccode\u003eMLoadTypedArrayElementHole\u003c/code\u003e, an incorrect AliasSet was used. In conjunction with another vulnerability this could have been used for an out of bounds memory read. This vulnerability affects Thunderbird \u003c 91.8, Firefox \u003c 99, and Firefox ESR \u003c 91.8.",
      "Threats": [
        {
          "Type": "Impact",
          "Severity": "important"
        }
      ],
      "References": [
        {
          "URL": "https://www.suse.com/security/cve/CVE-2022-28285.html",
          "Description": "CVE-2022-28285"
        }
      ],
      "ProductStatuses": [
        {
          "Type": "Fixed",
          "ProductID": [
            "Image SLES15-SP2-SAP-Azure-LI-BYOS-Production:MozillaFirefox-91.8.0-150200.152.26.1",
            "Image SLES15-SP2-SAP-Azure-VLI-BYOS-Production:MozillaFirefox-91.8.0-150200.152.26.1",
            "Image SLES15-SP3-SAP-Azure-LI-BYOS-Production:MozillaFirefox-91.8.0-150200.152.26.1",
            "Image SLES15-SP3-SAP-Azure-VLI-BYOS-Production:MozillaFirefox-91.8.0-150200.152.26.1",
            "Image SLES15-SP4-SAP-Azure-LI-BYOS-Production:MozillaFirefox-91.8.0-150200.152.26.1",
            "Image SLES15-SP4-SAP-Azure-LI-BYOS:MozillaFirefox-91.8.0-150200.152.26.1",
            "Image SLES15-SP4-SAP-Azure-VLI-BYOS-Production:MozillaFirefox-91.8.0-150200.152.26.1",
            "Image SLES15-SP4-SAP-Azure-VLI-BYOS:MozillaFirefox-91.8.0-150200.152.26.1",
            "Image SLES15-SP5-SAP-Azure-LI-BYOS-Production:MozillaFirefox-91.8.0-150200.152.26.1",
            "Image SLES15-SP5-SAP-Azure-LI-BYOS:MozillaFirefox-91.8.0-150200.152.26.1",
            "Image SLES15-SP5-SAP-Azure-VLI-BYOS-Production:MozillaFirefox-91.8.0-150200.152.26.1",
            "Image SLES15-SP5-SAP-Azure-VLI-BYOS:MozillaFirefox-91.8.0-150200.152.26.1",
            "SUSE Enterprise Storage 7:MozillaFirefox-91.8.0-150200.152.26.1",
            "SUSE Enterprise Storage 7:MozillaFirefox-devel-91.8.0-150200.152.26.1",
            "SUSE Enterprise Storage 7:MozillaFirefox-translations-common-91.8.0-150200.152.26.1",
            "SUSE Enterprise Storage 7:MozillaFirefox-translations-other-91.8.0-150200.152.26.1",
            "SUSE Linux Enterprise High Performance Computing 15 SP2-ESPOS:MozillaFirefox-91.8.0-150200.152.26.1",
            "SUSE Linux Enterprise High Performance Computing 15 SP2-ESPOS:MozillaFirefox-devel-91.8.0-150200.152.26.1",
            "SUSE Linux Enterprise High Performance Computing 15 SP2-ESPOS:MozillaFirefox-translations-common-91.8.0-150200.152.26.1",
            "SUSE Linux Enterprise High Performance Computing 15 SP2-ESPOS:MozillaFirefox-translations-other-91.8.0-150200.152.26.1",
            "SUSE Linux Enterprise High Performance Computing 15 SP2-LTSS:MozillaFirefox-91.8.0-150200.152.26.1",
            "SUSE Linux Enterprise High Performance Computing 15 SP2-LTSS:MozillaFirefox-devel-91.8.0-150200.152.26.1",
            "SUSE Linux Enterprise High Performance Computing 15 SP2-LTSS:MozillaFirefox-translations-common-91.8.0-150200.152.26.1",
            "SUSE Linux Enterprise High Performance Computing 15 SP2-LTSS:MozillaFirefox-translations-other-91.8.0-150200.152.26.1",
            "SUSE Linux Enterprise Module for Desktop Applications 15 SP3:MozillaFirefox-91.8.0-150200.152.26.1",
            "SUSE Linux Enterprise Module for Desktop Applications 15 SP3:MozillaFirefox-devel-91.8.0-150200.152.26.1",
            "SUSE Linux Enterprise Module for Desktop Applications 15 SP3:MozillaFirefox-translations-common-91.8.0-150200.152.26.1",
            "SUSE Linux Enterprise Module for Desktop Applications 15 SP3:MozillaFirefox-translations-other-91.8.0-150200.152.26.1",
            "SUSE Linux Enterprise Real Time 15 SP2:MozillaFirefox-91.8.0-150200.152.26.1",
            "SUSE Linux Enterprise Real Time 15 SP2:MozillaFirefox-devel-91.8.0-150200.152.26.1",
            "SUSE Linux Enterprise Real Time 15 SP2:MozillaFirefox-translations-common-91.8.0-150200.152.26.1",
            "SUSE Linux Enterprise Real Time 15 SP2:MozillaFirefox-translations-other-91.8.0-150200.152.26.1",
            "SUSE Linux Enterprise Server 15 SP2-BCL:MozillaFirefox-91.8.0-150200.152.26.1",
            "SUSE Linux Enterprise Server 15 SP2-BCL:MozillaFirefox-devel-91.8.0-150200.152.26.1",
            "SUSE Linux Enterprise Server 15 SP2-BCL:MozillaFirefox-translations-common-91.8.0-150200.152.26.1",
            "SUSE Linux Enterprise Server 15 SP2-BCL:MozillaFirefox-translations-other-91.8.0-150200.152.26.1",
            "SUSE Linux Enterprise Server 15 SP2-LTSS:MozillaFirefox-91.8.0-150200.152.26.1",
            "SUSE Linux Enterprise Server 15 SP2-LTSS:MozillaFirefox-devel-91.8.0-150200.152.26.1",
            "SUSE Linux Enterprise Server 15 SP2-LTSS:MozillaFirefox-translations-common-91.8.0-150200.152.26.1",
            "SUSE Linux Enterprise Server 15 SP2-LTSS:MozillaFirefox-translations-other-91.8.0-150200.152.26.1",
            "SUSE Linux Enterprise Server for SAP Applications 15 SP2:MozillaFirefox-91.8.0-150200.152.26.1",
            "SUSE Linux Enterprise Server for SAP Applications 15 SP2:MozillaFirefox-devel-91.8.0-150200.152.26.1",
            "SUSE Linux Enterprise Server for SAP Applications 15 SP2:MozillaFirefox-translations-common-91.8.0-150200.152.26.1",
            "SUSE Linux Enterprise Server for SAP Applications 15 SP2:MozillaFirefox-translations-other-91.8.0-150200.152.26.1",
            "SUSE Manager Proxy 4.1:MozillaFirefox-91.8.0-150200.152.26.1",
            "SUSE Manager Proxy 4.1:MozillaFirefox-devel-91.8.0-150200.152.26.1",
            "SUSE Manager Proxy 4.1:MozillaFirefox-translations-common-91.8.0-150200.152.26.1",
            "SUSE Manager Proxy 4.1:MozillaFirefox-translations-other-91.8.0-150200.152.26.1",
            "SUSE Manager Retail Branch Server 4.1:MozillaFirefox-91.8.0-150200.152.26.1",
            "SUSE Manager Retail Branch Server 4.1:MozillaFirefox-devel-91.8.0-150200.152.26.1",
            "SUSE Manager Retail Branch Server 4.1:MozillaFirefox-translations-common-91.8.0-150200.152.26.1",
            "SUSE Manager Retail Branch Server 4.1:MozillaFirefox-translations-other-91.8.0-150200.152.26.1",
            "SUSE Manager Server 4.1:MozillaFirefox-91.8.0-150200.152.26.1",
            "SUSE Manager Server 4.1:MozillaFirefox-devel-91.8.0-150200.152.26.1",
            "SUSE Manager Server 4.1:MozillaFirefox-translations-common-91.8.0-150200.152.26.1",
            "SUSE Manager Server 4.1:MozillaFirefox-translations-other-91.8.0-150200.152.26.1"
          ]
        }
      ],
      "CVSSScoreSets": {}
    },
    {
      "CVE": "CVE-2022-28286",
      "Description": "Due to a layout change, iframe contents could have been rendered outside of its border. This could have led to user confusion or spoofing attacks. This vulnerability affects Thunderbird \u003c 91.8, Firefox \u003c 99, and Firefox ESR \u003c 91.8.",
      "Threats": [
        {
          "Type": "Impact",
          "Severity": "important"
        }
      ],
      "References": [
        {
          "URL": "https://www.suse.com/security/cve/CVE-2022-28286.html",
          "Description": "CVE-2022-28286"
        }
      ],
      "ProductStatuses": [
        {
          "Type": "Fixed",
          "ProductID": [
            "Image SLES15-SP2-SAP-Azure-LI-BYOS-Production:MozillaFirefox-91.8.0-150200.152.26.1",
            "Image SLES15-SP2-SAP-Azure-VLI-BYOS-Production:MozillaFirefox-91.8.0-150200.152.26.1",
            "Image SLES15-SP3-SAP-Azure-LI-BYOS-Production:MozillaFirefox-91.8.0-150200.152.26.1",
            "Image SLES15-SP3-SAP-Azure-VLI-BYOS-Production:MozillaFirefox-91.8.0-150200.152.26.1",
            "Image SLES15-SP4-SAP-Azure-LI-BYOS-Production:MozillaFirefox-91.8.0-150200.152.26.1",
            "Image SLES15-SP4-SAP-Azure-LI-BYOS:MozillaFirefox-91.8.0-150200.152.26.1",
            "Image SLES15-SP4-SAP-Azure-VLI-BYOS-Production:MozillaFirefox-91.8.0-150200.152.26.1",
            "Image SLES15-SP4-SAP-Azure-VLI-BYOS:MozillaFirefox-91.8.0-150200.152.26.1",
            "Image SLES15-SP5-SAP-Azure-LI-BYOS-Production:MozillaFirefox-91.8.0-150200.152.26.1",
            "Image SLES15-SP5-SAP-Azure-LI-BYOS:MozillaFirefox-91.8.0-150200.152.26.1",
            "Image SLES15-SP5-SAP-Azure-VLI-BYOS-Production:MozillaFirefox-91.8.0-150200.152.26.1",
            "Image SLES15-SP5-SAP-Azure-VLI-BYOS:MozillaFirefox-91.8.0-150200.152.26.1",
            "SUSE Enterprise Storage 7:MozillaFirefox-91.8.0-150200.152.26.1",
            "SUSE Enterprise Storage 7:MozillaFirefox-devel-91.8.0-150200.152.26.1",
            "SUSE Enterprise Storage 7:MozillaFirefox-translations-common-91.8.0-150200.152.26.1",
            "SUSE Enterprise Storage 7:MozillaFirefox-translations-other-91.8.0-150200.152.26.1",
            "SUSE Linux Enterprise High Performance Computing 15 SP2-ESPOS:MozillaFirefox-91.8.0-150200.152.26.1",
            "SUSE Linux Enterprise High Performance Computing 15 SP2-ESPOS:MozillaFirefox-devel-91.8.0-150200.152.26.1",
            "SUSE Linux Enterprise High Performance Computing 15 SP2-ESPOS:MozillaFirefox-translations-common-91.8.0-150200.152.26.1",
            "SUSE Linux Enterprise High Performance Computing 15 SP2-ESPOS:MozillaFirefox-translations-other-91.8.0-150200.152.26.1",
            "SUSE Linux Enterprise High Performance Computing 15 SP2-LTSS:MozillaFirefox-91.8.0-150200.152.26.1",
            "SUSE Linux Enterprise High Performance Computing 15 SP2-LTSS:MozillaFirefox-devel-91.8.0-150200.152.26.1",
            "SUSE Linux Enterprise High Performance Computing 15 SP2-LTSS:MozillaFirefox-translations-common-91.8.0-150200.152.26.1",
            "SUSE Linux Enterprise High Performance Computing 15 SP2-LTSS:MozillaFirefox-translations-other-91.8.0-150200.152.26.1",
            "SUSE Linux Enterprise Module for Desktop Applications 15 SP3:MozillaFirefox-91.8.0-150200.152.26.1",
            "SUSE Linux Enterprise Module for Desktop Applications 15 SP3:MozillaFirefox-devel-91.8.0-150200.152.26.1",
            "SUSE Linux Enterprise Module for Desktop Applications 15 SP3:MozillaFirefox-translations-common-91.8.0-150200.152.26.1",
            "SUSE Linux Enterprise Module for Desktop Applications 15 SP3:MozillaFirefox-translations-other-91.8.0-150200.152.26.1",
            "SUSE Linux Enterprise Real Time 15 SP2:MozillaFirefox-91.8.0-150200.152.26.1",
            "SUSE Linux Enterprise Real Time 15 SP2:MozillaFirefox-devel-91.8.0-150200.152.26.1",
            "SUSE Linux Enterprise Real Time 15 SP2:MozillaFirefox-translations-common-91.8.0-150200.152.26.1",
            "SUSE Linux Enterprise Real Time 15 SP2:MozillaFirefox-translations-other-91.8.0-150200.152.26.1",
            "SUSE Linux Enterprise Server 15 SP2-BCL:MozillaFirefox-91.8.0-150200.152.26.1",
            "SUSE Linux Enterprise Server 15 SP2-BCL:MozillaFirefox-devel-91.8.0-150200.152.26.1",
            "SUSE Linux Enterprise Server 15 SP2-BCL:MozillaFirefox-translations-common-91.8.0-150200.152.26.1",
            "SUSE Linux Enterprise Server 15 SP2-BCL:MozillaFirefox-translations-other-91.8.0-150200.152.26.1",
            "SUSE Linux Enterprise Server 15 SP2-LTSS:MozillaFirefox-91.8.0-150200.152.26.1",
            "SUSE Linux Enterprise Server 15 SP2-LTSS:MozillaFirefox-devel-91.8.0-150200.152.26.1",
            "SUSE Linux Enterprise Server 15 SP2-LTSS:MozillaFirefox-translations-common-91.8.0-150200.152.26.1",
            "SUSE Linux Enterprise Server 15 SP2-LTSS:MozillaFirefox-translations-other-91.8.0-150200.152.26.1",
            "SUSE Linux Enterprise Server for SAP Applications 15 SP2:MozillaFirefox-91.8.0-150200.152.26.1",
            "SUSE Linux Enterprise Server for SAP Applications 15 SP2:MozillaFirefox-devel-91.8.0-150200.152.26.1",
            "SUSE Linux Enterprise Server for SAP Applications 15 SP2:MozillaFirefox-translations-common-91.8.0-150200.152.26.1",
            "SUSE Linux Enterprise Server for SAP Applications 15 SP2:MozillaFirefox-translations-other-91.8.0-150200.152.26.1",
            "SUSE Manager Proxy 4.1:MozillaFirefox-91.8.0-150200.152.26.1",
            "SUSE Manager Proxy 4.1:MozillaFirefox-devel-91.8.0-150200.152.26.1",
            "SUSE Manager Proxy 4.1:MozillaFirefox-translations-common-91.8.0-150200.152.26.1",
            "SUSE Manager Proxy 4.1:MozillaFirefox-translations-other-91.8.0-150200.152.26.1",
            "SUSE Manager Retail Branch Server 4.1:MozillaFirefox-91.8.0-150200.152.26.1",
            "SUSE Manager Retail Branch Server 4.1:MozillaFirefox-devel-91.8.0-150200.152.26.1",
            "SUSE Manager Retail Branch Server 4.1:MozillaFirefox-translations-common-91.8.0-150200.152.26.1",
            "SUSE Manager Retail Branch Server 4.1:MozillaFirefox-translations-other-91.8.0-150200.152.26.1",
            "SUSE Manager Server 4.1:MozillaFirefox-91.8.0-150200.152.26.1",
            "SUSE Manager Server 4.1:MozillaFirefox-devel-91.8.0-150200.152.26.1",
            "SUSE Manager Server 4.1:MozillaFirefox-translations-common-91.8.0-150200.152.26.1",
            "SUSE Manager Server 4.1:MozillaFirefox-translations-other-91.8.0-150200.152.26.1"
          ]
        }
      ],
      "CVSSScoreSets": {}
    },
    {
      "CVE": "CVE-2022-28289",
      "Description": "Mozilla developers and community members Nika Layzell, Andrew McCreight, Gabriele Svelto, and the Mozilla Fuzzing Team reported memory safety bugs present in Thunderbird 91.7. Some of these bugs showed evidence of memory corruption and we presume that with enough effort some of these could have been exploited to run arbitrary code. This vulnerability affects Thunderbird \u003c 91.8, Firefox \u003c 99, and Firefox ESR \u003c 91.8.",
      "Threats": [
        {
          "Type": "Impact",
          "Severity": "important"
        }
      ],
      "References": [
        {
          "URL": "https://www.suse.com/security/cve/CVE-2022-28289.html",
          "Description": "CVE-2022-28289"
        }
      ],
      "ProductStatuses": [
        {
          "Type": "Fixed",
          "ProductID": [
            "Image SLES15-SP2-SAP-Azure-LI-BYOS-Production:MozillaFirefox-91.8.0-150200.152.26.1",
            "Image SLES15-SP2-SAP-Azure-VLI-BYOS-Production:MozillaFirefox-91.8.0-150200.152.26.1",
            "Image SLES15-SP3-SAP-Azure-LI-BYOS-Production:MozillaFirefox-91.8.0-150200.152.26.1",
            "Image SLES15-SP3-SAP-Azure-VLI-BYOS-Production:MozillaFirefox-91.8.0-150200.152.26.1",
            "Image SLES15-SP4-SAP-Azure-LI-BYOS-Production:MozillaFirefox-91.8.0-150200.152.26.1",
            "Image SLES15-SP4-SAP-Azure-LI-BYOS:MozillaFirefox-91.8.0-150200.152.26.1",
            "Image SLES15-SP4-SAP-Azure-VLI-BYOS-Production:MozillaFirefox-91.8.0-150200.152.26.1",
            "Image SLES15-SP4-SAP-Azure-VLI-BYOS:MozillaFirefox-91.8.0-150200.152.26.1",
            "Image SLES15-SP5-SAP-Azure-LI-BYOS-Production:MozillaFirefox-91.8.0-150200.152.26.1",
            "Image SLES15-SP5-SAP-Azure-LI-BYOS:MozillaFirefox-91.8.0-150200.152.26.1",
            "Image SLES15-SP5-SAP-Azure-VLI-BYOS-Production:MozillaFirefox-91.8.0-150200.152.26.1",
            "Image SLES15-SP5-SAP-Azure-VLI-BYOS:MozillaFirefox-91.8.0-150200.152.26.1",
            "SUSE Enterprise Storage 7:MozillaFirefox-91.8.0-150200.152.26.1",
            "SUSE Enterprise Storage 7:MozillaFirefox-devel-91.8.0-150200.152.26.1",
            "SUSE Enterprise Storage 7:MozillaFirefox-translations-common-91.8.0-150200.152.26.1",
            "SUSE Enterprise Storage 7:MozillaFirefox-translations-other-91.8.0-150200.152.26.1",
            "SUSE Linux Enterprise High Performance Computing 15 SP2-ESPOS:MozillaFirefox-91.8.0-150200.152.26.1",
            "SUSE Linux Enterprise High Performance Computing 15 SP2-ESPOS:MozillaFirefox-devel-91.8.0-150200.152.26.1",
            "SUSE Linux Enterprise High Performance Computing 15 SP2-ESPOS:MozillaFirefox-translations-common-91.8.0-150200.152.26.1",
            "SUSE Linux Enterprise High Performance Computing 15 SP2-ESPOS:MozillaFirefox-translations-other-91.8.0-150200.152.26.1",
            "SUSE Linux Enterprise High Performance Computing 15 SP2-LTSS:MozillaFirefox-91.8.0-150200.152.26.1",
            "SUSE Linux Enterprise High Performance Computing 15 SP2-LTSS:MozillaFirefox-devel-91.8.0-150200.152.26.1",
            "SUSE Linux Enterprise High Performance Computing 15 SP2-LTSS:MozillaFirefox-translations-common-91.8.0-150200.152.26.1",
            "SUSE Linux Enterprise High Performance Computing 15 SP2-LTSS:MozillaFirefox-translations-other-91.8.0-150200.152.26.1",
            "SUSE Linux Enterprise Module for Desktop Applications 15 SP3:MozillaFirefox-91.8.0-150200.152.26.1",
            "SUSE Linux Enterprise Module for Desktop Applications 15 SP3:MozillaFirefox-devel-91.8.0-150200.152.26.1",
            "SUSE Linux Enterprise Module for Desktop Applications 15 SP3:MozillaFirefox-translations-common-91.8.0-150200.152.26.1",
            "SUSE Linux Enterprise Module for Desktop Applications 15 SP3:MozillaFirefox-translations-other-91.8.0-150200.152.26.1",
            "SUSE Linux Enterprise Real Time 15 SP2:MozillaFirefox-91.8.0-150200.152.26.1",
            "SUSE Linux Enterprise Real Time 15 SP2:MozillaFirefox-devel-91.8.0-150200.152.26.1",
            "SUSE Linux Enterprise Real Time 15 SP2:MozillaFirefox-translations-common-91.8.0-150200.152.26.1",
            "SUSE Linux Enterprise Real Time 15 SP2:MozillaFirefox-translations-other-91.8.0-150200.152.26.1",
            "SUSE Linux Enterprise Server 15 SP2-BCL:MozillaFirefox-91.8.0-150200.152.26.1",
            "SUSE Linux Enterprise Server 15 SP2-BCL:MozillaFirefox-devel-91.8.0-150200.152.26.1",
            "SUSE Linux Enterprise Server 15 SP2-BCL:MozillaFirefox-translations-common-91.8.0-150200.152.26.1",
            "SUSE Linux Enterprise Server 15 SP2-BCL:MozillaFirefox-translations-other-91.8.0-150200.152.26.1",
            "SUSE Linux Enterprise Server 15 SP2-LTSS:MozillaFirefox-91.8.0-150200.152.26.1",
            "SUSE Linux Enterprise Server 15 SP2-LTSS:MozillaFirefox-devel-91.8.0-150200.152.26.1",
            "SUSE Linux Enterprise Server 15 SP2-LTSS:MozillaFirefox-translations-common-91.8.0-150200.152.26.1",
            "SUSE Linux Enterprise Server 15 SP2-LTSS:MozillaFirefox-translations-other-91.8.0-150200.152.26.1",
            "SUSE Linux Enterprise Server for SAP Applications 15 SP2:MozillaFirefox-91.8.0-150200.152.26.1",
            "SUSE Linux Enterprise Server for SAP Applications 15 SP2:MozillaFirefox-devel-91.8.0-150200.152.26.1",
            "SUSE Linux Enterprise Server for SAP Applications 15 SP2:MozillaFirefox-translations-common-91.8.0-150200.152.26.1",
            "SUSE Linux Enterprise Server for SAP Applications 15 SP2:MozillaFirefox-translations-other-91.8.0-150200.152.26.1",
            "SUSE Manager Proxy 4.1:MozillaFirefox-91.8.0-150200.152.26.1",
            "SUSE Manager Proxy 4.1:MozillaFirefox-devel-91.8.0-150200.152.26.1",
            "SUSE Manager Proxy 4.1:MozillaFirefox-translations-common-91.8.0-150200.152.26.1",
            "SUSE Manager Proxy 4.1:MozillaFirefox-translations-other-91.8.0-150200.152.26.1",
            "SUSE Manager Retail Branch Server 4.1:MozillaFirefox-91.8.0-150200.152.26.1",
            "SUSE Manager Retail Branch Server 4.1:MozillaFirefox-devel-91.8.0-150200.152.26.1",
            "SUSE Manager Retail Branch Server 4.1:MozillaFirefox-translations-common-91.8.0-150200.152.26.1",
            "SUSE Manager Retail Branch Server 4.1:MozillaFirefox-translations-other-91.8.0-150200.152.26.1",
            "SUSE Manager Server 4.1:MozillaFirefox-91.8.0-150200.152.26.1",
            "SUSE Manager Server 4.1:MozillaFirefox-devel-91.8.0-150200.152.26.1",
            "SUSE Manager Server 4.1:MozillaFirefox-translations-common-91.8.0-150200.152.26.1",
            "SUSE Manager Server 4.1:MozillaFirefox-translations-other-91.8.0-150200.152.26.1"
          ]
        }
      ],
      "CVSSScoreSets": {}
    }
  ]
}