{
  "Title": "Security update for the Linux Kernel (Live Patch 32 for SLE 12 SP5)",
  "Tracking": {
    "ID": "SUSE-SU-2022:2443-1",
    "Status": "Final",
    "Version": "1",
    "InitialReleaseDate": "2022-07-19T18:34:06Z",
    "CurrentReleaseDate": "2022-07-19T18:34:06Z",
    "RevisionHistory": [
      {
        "Number": "1",
        "Date": "2022-07-19T18:34:06Z",
        "Description": "current"
      }
    ]
  },
  "Notes": [
    {
      "Text": "Security update for the Linux Kernel (Live Patch 32 for SLE 12 SP5)",
      "Title": "Topic",
      "Type": "Summary"
    },
    {
      "Text": "This update for the Linux Kernel 4.12.14-122_124 fixes one issue.\n\nThe following security issue was fixed:\n\n- CVE-2022-20154: Fixed a use after free due to a race condition in lock_sock_nested of sock.c. This could lead to local escalation of privilege with System execution privileges needed (bsc#1200599).\n",
      "Title": "Details",
      "Type": "General"
    },
    {
      "Text": "The CVRF data is provided by SUSE under the Creative Commons License 4.0 with Attribution (CC-BY-4.0).",
      "Title": "Terms of Use",
      "Type": "Legal Disclaimer"
    },
    {
      "Text": "SUSE-2022-2443,SUSE-SLE-Live-Patching-12-SP5-2022-2443",
      "Title": "Patchnames",
      "Type": "Details"
    }
  ],
  "ProductTree": {
    "Relationships": [
      {
        "ProductReference": "kgraft-patch-4_12_14-122_124-default-2-2.1",
        "RelatesToProductReference": "SUSE Linux Enterprise Live Patching 12 SP5",
        "RelationType": "Default Component Of"
      }
    ]
  },
  "References": [
    {
      "URL": "https://www.suse.com/support/update/announcement/2022/suse-su-20222443-1/",
      "Description": "Link for SUSE-SU-2022:2443-1"
    },
    {
      "URL": "https://lists.suse.com/pipermail/sle-security-updates/2022-July/011597.html",
      "Description": "E-Mail link for SUSE-SU-2022:2443-1"
    },
    {
      "URL": "https://www.suse.com/support/security/rating/",
      "Description": "SUSE Security Ratings"
    },
    {
      "URL": "https://bugzilla.suse.com/1200608",
      "Description": "SUSE Bug 1200608"
    },
    {
      "URL": "https://www.suse.com/security/cve/CVE-2022-20154/",
      "Description": "SUSE CVE CVE-2022-20154 page"
    }
  ],
  "Vulnerabilities": [
    {
      "CVE": "CVE-2022-20154",
      "Description": "In lock_sock_nested of sock.c, there is a possible use after free due to a race condition. This could lead to local escalation of privilege with System execution privileges needed. User interaction is not needed for exploitation.Product: AndroidVersions: Android kernelAndroid ID: A-174846563References: Upstream kernel",
      "Threats": [
        {
          "Type": "Impact",
          "Severity": "moderate"
        }
      ],
      "References": [
        {
          "URL": "https://www.suse.com/security/cve/CVE-2022-20154.html",
          "Description": "CVE-2022-20154"
        },
        {
          "URL": "https://bugzilla.suse.com/1200599",
          "Description": "SUSE Bug 1200599"
        },
        {
          "URL": "https://bugzilla.suse.com/1200608",
          "Description": "SUSE Bug 1200608"
        },
        {
          "URL": "https://bugzilla.suse.com/1224878",
          "Description": "SUSE Bug 1224878"
        }
      ],
      "ProductStatuses": [
        {
          "Type": "Fixed",
          "ProductID": [
            "SUSE Linux Enterprise Live Patching 12 SP5:kgraft-patch-4_12_14-122_124-default-2-2.1"
          ]
        }
      ],
      "CVSSScoreSets": {}
    }
  ]
}