{
  "Title": "Security update for the Linux Kernel (Live Patch 5 for SLE 15 SP4)",
  "Tracking": {
    "ID": "SUSE-SU-2022:4542-1",
    "Status": "Final",
    "Version": "1",
    "InitialReleaseDate": "2022-12-17T19:34:08Z",
    "CurrentReleaseDate": "2022-12-17T19:34:08Z",
    "RevisionHistory": [
      {
        "Number": "1",
        "Date": "2022-12-17T19:34:08Z",
        "Description": "current"
      }
    ]
  },
  "Notes": [
    {
      "Text": "Security update for the Linux Kernel (Live Patch 5 for SLE 15 SP4)",
      "Title": "Topic",
      "Type": "Summary"
    },
    {
      "Text": "This update for the Linux Kernel 5.14.21-150400_24_33 fixes several issues.\n\nThe following security issues were fixed:\n\n- CVE-2022-43945: Fixed a buffer overflow in the NFSD implementation (bsc#1205128).\n- CVE-2022-4378: Fixed stack overflow in __do_proc_dointvec (bsc#1206207).\n- CVE-2022-4139: Fixed an issue with the i915 driver that allowed the GPU to access any physical memory (bsc#1205700).\n- CVE-2021-39698: Fixed a use-after-free in aio_poll_complete_work of aio.c (bsc#1196956).\n",
      "Title": "Details",
      "Type": "General"
    },
    {
      "Text": "The CVRF data is provided by SUSE under the Creative Commons License 4.0 with Attribution (CC-BY-4.0).",
      "Title": "Terms of Use",
      "Type": "Legal Disclaimer"
    },
    {
      "Text": "SUSE-2022-4542,SUSE-SLE-Module-Live-Patching-15-SP4-2022-4542",
      "Title": "Patchnames",
      "Type": "Details"
    }
  ],
  "ProductTree": {
    "Relationships": [
      {
        "ProductReference": "kernel-livepatch-5_14_21-150400_24_33-default-2-150400.2.1",
        "RelatesToProductReference": "SUSE Linux Enterprise Live Patching 15 SP4",
        "RelationType": "Default Component Of"
      }
    ]
  },
  "References": [
    {
      "URL": "https://www.suse.com/support/update/announcement/2022/suse-su-20224542-1/",
      "Description": "Link for SUSE-SU-2022:4542-1"
    },
    {
      "URL": "https://lists.suse.com/pipermail/sle-security-updates/2022-December/013266.html",
      "Description": "E-Mail link for SUSE-SU-2022:4542-1"
    },
    {
      "URL": "https://www.suse.com/support/security/rating/",
      "Description": "SUSE Security Ratings"
    },
    {
      "URL": "https://bugzilla.suse.com/1196959",
      "Description": "SUSE Bug 1196959"
    },
    {
      "URL": "https://bugzilla.suse.com/1205130",
      "Description": "SUSE Bug 1205130"
    },
    {
      "URL": "https://bugzilla.suse.com/1205815",
      "Description": "SUSE Bug 1205815"
    },
    {
      "URL": "https://bugzilla.suse.com/1206228",
      "Description": "SUSE Bug 1206228"
    },
    {
      "URL": "https://www.suse.com/security/cve/CVE-2021-39698/",
      "Description": "SUSE CVE CVE-2021-39698 page"
    },
    {
      "URL": "https://www.suse.com/security/cve/CVE-2022-4139/",
      "Description": "SUSE CVE CVE-2022-4139 page"
    },
    {
      "URL": "https://www.suse.com/security/cve/CVE-2022-4378/",
      "Description": "SUSE CVE CVE-2022-4378 page"
    },
    {
      "URL": "https://www.suse.com/security/cve/CVE-2022-43945/",
      "Description": "SUSE CVE CVE-2022-43945 page"
    }
  ],
  "Vulnerabilities": [
    {
      "CVE": "CVE-2021-39698",
      "Description": "In aio_poll_complete_work of aio.c, there is a possible memory corruption due to a use after free. This could lead to local escalation of privilege with no additional execution privileges needed. User interaction is not needed for exploitation.Product: AndroidVersions: Android kernelAndroid ID: A-185125206References: Upstream kernel",
      "Threats": [
        {
          "Type": "Impact",
          "Severity": "important"
        }
      ],
      "References": [
        {
          "URL": "https://www.suse.com/security/cve/CVE-2021-39698.html",
          "Description": "CVE-2021-39698"
        },
        {
          "URL": "https://bugzilla.suse.com/1196956",
          "Description": "SUSE Bug 1196956"
        },
        {
          "URL": "https://bugzilla.suse.com/1196959",
          "Description": "SUSE Bug 1196959"
        },
        {
          "URL": "https://bugzilla.suse.com/1209225",
          "Description": "SUSE Bug 1209225"
        }
      ],
      "ProductStatuses": [
        {
          "Type": "Fixed",
          "ProductID": [
            "SUSE Linux Enterprise Live Patching 15 SP4:kernel-livepatch-5_14_21-150400_24_33-default-2-150400.2.1"
          ]
        }
      ],
      "CVSSScoreSets": {}
    },
    {
      "CVE": "CVE-2022-4139",
      "Description": "An incorrect TLB flush issue was found in the Linux kernel's GPU i915 kernel driver, potentially leading to random memory corruption or data leaks. This flaw could allow a local user to crash the system or escalate their privileges on the system.",
      "Threats": [
        {
          "Type": "Impact",
          "Severity": "moderate"
        }
      ],
      "References": [
        {
          "URL": "https://www.suse.com/security/cve/CVE-2022-4139.html",
          "Description": "CVE-2022-4139"
        },
        {
          "URL": "https://bugzilla.suse.com/1205700",
          "Description": "SUSE Bug 1205700"
        },
        {
          "URL": "https://bugzilla.suse.com/1205815",
          "Description": "SUSE Bug 1205815"
        },
        {
          "URL": "https://bugzilla.suse.com/1209225",
          "Description": "SUSE Bug 1209225"
        }
      ],
      "ProductStatuses": [
        {
          "Type": "Fixed",
          "ProductID": [
            "SUSE Linux Enterprise Live Patching 15 SP4:kernel-livepatch-5_14_21-150400_24_33-default-2-150400.2.1"
          ]
        }
      ],
      "CVSSScoreSets": {}
    },
    {
      "CVE": "CVE-2022-4378",
      "Description": "A stack overflow flaw was found in the Linux kernel's SYSCTL subsystem in how a user changes certain kernel parameters and variables. This flaw allows a local user to crash or potentially escalate their privileges on the system.",
      "Threats": [
        {
          "Type": "Impact",
          "Severity": "important"
        }
      ],
      "References": [
        {
          "URL": "https://www.suse.com/security/cve/CVE-2022-4378.html",
          "Description": "CVE-2022-4378"
        },
        {
          "URL": "https://bugzilla.suse.com/1206207",
          "Description": "SUSE Bug 1206207"
        },
        {
          "URL": "https://bugzilla.suse.com/1206228",
          "Description": "SUSE Bug 1206228"
        },
        {
          "URL": "https://bugzilla.suse.com/1208030",
          "Description": "SUSE Bug 1208030"
        },
        {
          "URL": "https://bugzilla.suse.com/1208085",
          "Description": "SUSE Bug 1208085"
        },
        {
          "URL": "https://bugzilla.suse.com/1209225",
          "Description": "SUSE Bug 1209225"
        },
        {
          "URL": "https://bugzilla.suse.com/1211118",
          "Description": "SUSE Bug 1211118"
        },
        {
          "URL": "https://bugzilla.suse.com/1214268",
          "Description": "SUSE Bug 1214268"
        },
        {
          "URL": "https://bugzilla.suse.com/1218483",
          "Description": "SUSE Bug 1218483"
        },
        {
          "URL": "https://bugzilla.suse.com/1218966",
          "Description": "SUSE Bug 1218966"
        }
      ],
      "ProductStatuses": [
        {
          "Type": "Fixed",
          "ProductID": [
            "SUSE Linux Enterprise Live Patching 15 SP4:kernel-livepatch-5_14_21-150400_24_33-default-2-150400.2.1"
          ]
        }
      ],
      "CVSSScoreSets": {}
    },
    {
      "CVE": "CVE-2022-43945",
      "Description": "The Linux kernel NFSD implementation prior to versions 5.19.17 and 6.0.2 are vulnerable to buffer overflow. NFSD tracks the number of pages held by each NFSD thread by combining the receive and send buffers of a remote procedure call (RPC) into a single array of pages. A client can force the send buffer to shrink by sending an RPC message over TCP with garbage data added at the end of the message. The RPC message with garbage data is still correctly formed according to the specification and is passed forward to handlers. Vulnerable code in NFSD is not expecting the oversized request and writes beyond the allocated buffer space. CVSS:3.1/AV:N/AC:L/PR:L/UI:N/S:U/C:N/I:N/A:H",
      "Threats": [
        {
          "Type": "Impact",
          "Severity": "important"
        }
      ],
      "References": [
        {
          "URL": "https://www.suse.com/security/cve/CVE-2022-43945.html",
          "Description": "CVE-2022-43945"
        },
        {
          "URL": "https://bugzilla.suse.com/1205128",
          "Description": "SUSE Bug 1205128"
        },
        {
          "URL": "https://bugzilla.suse.com/1205130",
          "Description": "SUSE Bug 1205130"
        },
        {
          "URL": "https://bugzilla.suse.com/1208030",
          "Description": "SUSE Bug 1208030"
        },
        {
          "URL": "https://bugzilla.suse.com/1208085",
          "Description": "SUSE Bug 1208085"
        },
        {
          "URL": "https://bugzilla.suse.com/1209225",
          "Description": "SUSE Bug 1209225"
        },
        {
          "URL": "https://bugzilla.suse.com/1210124",
          "Description": "SUSE Bug 1210124"
        }
      ],
      "ProductStatuses": [
        {
          "Type": "Fixed",
          "ProductID": [
            "SUSE Linux Enterprise Live Patching 15 SP4:kernel-livepatch-5_14_21-150400_24_33-default-2-150400.2.1"
          ]
        }
      ],
      "CVSSScoreSets": {}
    }
  ]
}