{
  "Title": "Security update for kernel-firmware",
  "Tracking": {
    "ID": "SUSE-SU-2022:1751-1",
    "Status": "Final",
    "Version": "1",
    "InitialReleaseDate": "2022-05-19T13:31:41Z",
    "CurrentReleaseDate": "2022-05-19T13:31:41Z",
    "RevisionHistory": [
      {
        "Number": "1",
        "Date": "2022-05-19T13:31:41Z",
        "Description": "current"
      }
    ]
  },
  "Notes": [
    {
      "Text": "Security update for kernel-firmware",
      "Title": "Topic",
      "Type": "Summary"
    },
    {
      "Text": "This update for kernel-firmware fixes the following issues:\n\nUpdate AMD ucode and SEV firmware\n\n- CVE-2021-26339, CVE-2021-26373, CVE-2021-26347, CVE-2021-26376,\n  CVE-2021-26375, CVE-2021-26378, CVE-2021-26372, CVE-2021-26339,\n  CVE-2021-26348, CVE-2021-26342, CVE-2021-26388, CVE-2021-26349,\n  CVE-2021-26364, CVE-2021-26312, CVE-2021-26350, CVE-2021-46744,\n  bsc#1199459, bsc#1199470)\n\nUpdate Intel Bluetooth firmware (INTEL-SA-00604, bsc#1195786):\n\n- CVE-2021-33139, CVE-2021-33155: Improper conditions check in the firmware for some Intel Wireless Bluetooth and Killer Bluetooth products may allow an authenticated user to potentially cause denial of service via adjacent access.\n",
      "Title": "Details",
      "Type": "General"
    },
    {
      "Text": "The CVRF data is provided by SUSE under the Creative Commons License 4.0 with Attribution (CC-BY-4.0).",
      "Title": "Terms of Use",
      "Type": "Legal Disclaimer"
    },
    {
      "Text": "Image SLES15-SP1-SAP-Azure-LI-BYOS-Production-2022-1751,Image SLES15-SP1-SAP-Azure-VLI-BYOS-Production-2022-1751,Image SLES15-SP2-SAP-Azure-LI-BYOS-Production-2022-1751,Image SLES15-SP2-SAP-Azure-VLI-BYOS-Production-2022-1751,SUSE-2022-1751,SUSE-SLE-Product-HPC-15-SP1-ESPOS-2022-1751,SUSE-SLE-Product-HPC-15-SP1-LTSS-2022-1751,SUSE-SLE-Product-HPC-15-SP2-ESPOS-2022-1751,SUSE-SLE-Product-HPC-15-SP2-LTSS-2022-1751,SUSE-SLE-Product-SLES-15-SP1-BCL-2022-1751,SUSE-SLE-Product-SLES-15-SP1-LTSS-2022-1751,SUSE-SLE-Product-SLES-15-SP2-BCL-2022-1751,SUSE-SLE-Product-SLES-15-SP2-LTSS-2022-1751,SUSE-SLE-Product-SLES_SAP-15-SP1-2022-1751,SUSE-SLE-Product-SLES_SAP-15-SP2-2022-1751,SUSE-SLE-Product-SUSE-Manager-Proxy-4.1-2022-1751,SUSE-SLE-Product-SUSE-Manager-Retail-Branch-Server-4.1-2022-1751,SUSE-SLE-Product-SUSE-Manager-Server-4.1-2022-1751,SUSE-Storage-6-2022-1751,SUSE-Storage-7-2022-1751",
      "Title": "Patchnames",
      "Type": "Details"
    }
  ],
  "ProductTree": {
    "Relationships": [
      {
        "ProductReference": "kernel-firmware-20200107-150100.3.31.1",
        "RelatesToProductReference": "Image SLES15-SP1-SAP-Azure-LI-BYOS-Production",
        "RelationType": "Default Component Of"
      },
      {
        "ProductReference": "kernel-firmware-20200107-150100.3.31.1",
        "RelatesToProductReference": "Image SLES15-SP1-SAP-Azure-VLI-BYOS-Production",
        "RelationType": "Default Component Of"
      },
      {
        "ProductReference": "kernel-firmware-20200107-150100.3.31.1",
        "RelatesToProductReference": "Image SLES15-SP2-SAP-Azure-LI-BYOS-Production",
        "RelationType": "Default Component Of"
      },
      {
        "ProductReference": "kernel-firmware-20200107-150100.3.31.1",
        "RelatesToProductReference": "Image SLES15-SP2-SAP-Azure-VLI-BYOS-Production",
        "RelationType": "Default Component Of"
      },
      {
        "ProductReference": "kernel-firmware-20200107-150100.3.31.1",
        "RelatesToProductReference": "SUSE Enterprise Storage 6",
        "RelationType": "Default Component Of"
      },
      {
        "ProductReference": "ucode-amd-20200107-150100.3.31.1",
        "RelatesToProductReference": "SUSE Enterprise Storage 6",
        "RelationType": "Default Component Of"
      },
      {
        "ProductReference": "kernel-firmware-20200107-150100.3.31.1",
        "RelatesToProductReference": "SUSE Enterprise Storage 7",
        "RelationType": "Default Component Of"
      },
      {
        "ProductReference": "ucode-amd-20200107-150100.3.31.1",
        "RelatesToProductReference": "SUSE Enterprise Storage 7",
        "RelationType": "Default Component Of"
      },
      {
        "ProductReference": "kernel-firmware-20200107-150100.3.31.1",
        "RelatesToProductReference": "SUSE Linux Enterprise High Performance Computing 15 SP1-ESPOS",
        "RelationType": "Default Component Of"
      },
      {
        "ProductReference": "ucode-amd-20200107-150100.3.31.1",
        "RelatesToProductReference": "SUSE Linux Enterprise High Performance Computing 15 SP1-ESPOS",
        "RelationType": "Default Component Of"
      },
      {
        "ProductReference": "kernel-firmware-20200107-150100.3.31.1",
        "RelatesToProductReference": "SUSE Linux Enterprise High Performance Computing 15 SP1-LTSS",
        "RelationType": "Default Component Of"
      },
      {
        "ProductReference": "ucode-amd-20200107-150100.3.31.1",
        "RelatesToProductReference": "SUSE Linux Enterprise High Performance Computing 15 SP1-LTSS",
        "RelationType": "Default Component Of"
      },
      {
        "ProductReference": "kernel-firmware-20200107-150100.3.31.1",
        "RelatesToProductReference": "SUSE Linux Enterprise High Performance Computing 15 SP2-ESPOS",
        "RelationType": "Default Component Of"
      },
      {
        "ProductReference": "ucode-amd-20200107-150100.3.31.1",
        "RelatesToProductReference": "SUSE Linux Enterprise High Performance Computing 15 SP2-ESPOS",
        "RelationType": "Default Component Of"
      },
      {
        "ProductReference": "kernel-firmware-20200107-150100.3.31.1",
        "RelatesToProductReference": "SUSE Linux Enterprise High Performance Computing 15 SP2-LTSS",
        "RelationType": "Default Component Of"
      },
      {
        "ProductReference": "ucode-amd-20200107-150100.3.31.1",
        "RelatesToProductReference": "SUSE Linux Enterprise High Performance Computing 15 SP2-LTSS",
        "RelationType": "Default Component Of"
      },
      {
        "ProductReference": "kernel-firmware-20200107-150100.3.31.1",
        "RelatesToProductReference": "SUSE Linux Enterprise Server 15 SP1-BCL",
        "RelationType": "Default Component Of"
      },
      {
        "ProductReference": "ucode-amd-20200107-150100.3.31.1",
        "RelatesToProductReference": "SUSE Linux Enterprise Server 15 SP1-BCL",
        "RelationType": "Default Component Of"
      },
      {
        "ProductReference": "kernel-firmware-20200107-150100.3.31.1",
        "RelatesToProductReference": "SUSE Linux Enterprise Server 15 SP1-LTSS",
        "RelationType": "Default Component Of"
      },
      {
        "ProductReference": "ucode-amd-20200107-150100.3.31.1",
        "RelatesToProductReference": "SUSE Linux Enterprise Server 15 SP1-LTSS",
        "RelationType": "Default Component Of"
      },
      {
        "ProductReference": "kernel-firmware-20200107-150100.3.31.1",
        "RelatesToProductReference": "SUSE Linux Enterprise Server 15 SP2-BCL",
        "RelationType": "Default Component Of"
      },
      {
        "ProductReference": "ucode-amd-20200107-150100.3.31.1",
        "RelatesToProductReference": "SUSE Linux Enterprise Server 15 SP2-BCL",
        "RelationType": "Default Component Of"
      },
      {
        "ProductReference": "kernel-firmware-20200107-150100.3.31.1",
        "RelatesToProductReference": "SUSE Linux Enterprise Server 15 SP2-LTSS",
        "RelationType": "Default Component Of"
      },
      {
        "ProductReference": "ucode-amd-20200107-150100.3.31.1",
        "RelatesToProductReference": "SUSE Linux Enterprise Server 15 SP2-LTSS",
        "RelationType": "Default Component Of"
      },
      {
        "ProductReference": "kernel-firmware-20200107-150100.3.31.1",
        "RelatesToProductReference": "SUSE Linux Enterprise Server for SAP Applications 15 SP1",
        "RelationType": "Default Component Of"
      },
      {
        "ProductReference": "ucode-amd-20200107-150100.3.31.1",
        "RelatesToProductReference": "SUSE Linux Enterprise Server for SAP Applications 15 SP1",
        "RelationType": "Default Component Of"
      },
      {
        "ProductReference": "kernel-firmware-20200107-150100.3.31.1",
        "RelatesToProductReference": "SUSE Linux Enterprise Server for SAP Applications 15 SP2",
        "RelationType": "Default Component Of"
      },
      {
        "ProductReference": "ucode-amd-20200107-150100.3.31.1",
        "RelatesToProductReference": "SUSE Linux Enterprise Server for SAP Applications 15 SP2",
        "RelationType": "Default Component Of"
      },
      {
        "ProductReference": "kernel-firmware-20200107-150100.3.31.1",
        "RelatesToProductReference": "SUSE Manager Proxy 4.1",
        "RelationType": "Default Component Of"
      },
      {
        "ProductReference": "ucode-amd-20200107-150100.3.31.1",
        "RelatesToProductReference": "SUSE Manager Proxy 4.1",
        "RelationType": "Default Component Of"
      },
      {
        "ProductReference": "kernel-firmware-20200107-150100.3.31.1",
        "RelatesToProductReference": "SUSE Manager Retail Branch Server 4.1",
        "RelationType": "Default Component Of"
      },
      {
        "ProductReference": "ucode-amd-20200107-150100.3.31.1",
        "RelatesToProductReference": "SUSE Manager Retail Branch Server 4.1",
        "RelationType": "Default Component Of"
      },
      {
        "ProductReference": "kernel-firmware-20200107-150100.3.31.1",
        "RelatesToProductReference": "SUSE Manager Server 4.1",
        "RelationType": "Default Component Of"
      },
      {
        "ProductReference": "ucode-amd-20200107-150100.3.31.1",
        "RelatesToProductReference": "SUSE Manager Server 4.1",
        "RelationType": "Default Component Of"
      }
    ]
  },
  "References": [
    {
      "URL": "https://www.suse.com/support/update/announcement/2022/suse-su-20221751-1/",
      "Description": "Link for SUSE-SU-2022:1751-1"
    },
    {
      "URL": "https://lists.suse.com/pipermail/sle-security-updates/2022-May/011100.html",
      "Description": "E-Mail link for SUSE-SU-2022:1751-1"
    },
    {
      "URL": "https://www.suse.com/support/security/rating/",
      "Description": "SUSE Security Ratings"
    },
    {
      "URL": "https://bugzilla.suse.com/1192953",
      "Description": "SUSE Bug 1192953"
    },
    {
      "URL": "https://bugzilla.suse.com/1195786",
      "Description": "SUSE Bug 1195786"
    },
    {
      "URL": "https://bugzilla.suse.com/1199459",
      "Description": "SUSE Bug 1199459"
    },
    {
      "URL": "https://bugzilla.suse.com/1199470",
      "Description": "SUSE Bug 1199470"
    },
    {
      "URL": "https://www.suse.com/security/cve/CVE-2021-0071/",
      "Description": "SUSE CVE CVE-2021-0071 page"
    },
    {
      "URL": "https://www.suse.com/security/cve/CVE-2021-26312/",
      "Description": "SUSE CVE CVE-2021-26312 page"
    },
    {
      "URL": "https://www.suse.com/security/cve/CVE-2021-26339/",
      "Description": "SUSE CVE CVE-2021-26339 page"
    },
    {
      "URL": "https://www.suse.com/security/cve/CVE-2021-26342/",
      "Description": "SUSE CVE CVE-2021-26342 page"
    },
    {
      "URL": "https://www.suse.com/security/cve/CVE-2021-26347/",
      "Description": "SUSE CVE CVE-2021-26347 page"
    },
    {
      "URL": "https://www.suse.com/security/cve/CVE-2021-26348/",
      "Description": "SUSE CVE CVE-2021-26348 page"
    },
    {
      "URL": "https://www.suse.com/security/cve/CVE-2021-26349/",
      "Description": "SUSE CVE CVE-2021-26349 page"
    },
    {
      "URL": "https://www.suse.com/security/cve/CVE-2021-26350/",
      "Description": "SUSE CVE CVE-2021-26350 page"
    },
    {
      "URL": "https://www.suse.com/security/cve/CVE-2021-26364/",
      "Description": "SUSE CVE CVE-2021-26364 page"
    },
    {
      "URL": "https://www.suse.com/security/cve/CVE-2021-26372/",
      "Description": "SUSE CVE CVE-2021-26372 page"
    },
    {
      "URL": "https://www.suse.com/security/cve/CVE-2021-26373/",
      "Description": "SUSE CVE CVE-2021-26373 page"
    },
    {
      "URL": "https://www.suse.com/security/cve/CVE-2021-26375/",
      "Description": "SUSE CVE CVE-2021-26375 page"
    },
    {
      "URL": "https://www.suse.com/security/cve/CVE-2021-26376/",
      "Description": "SUSE CVE CVE-2021-26376 page"
    },
    {
      "URL": "https://www.suse.com/security/cve/CVE-2021-26378/",
      "Description": "SUSE CVE CVE-2021-26378 page"
    },
    {
      "URL": "https://www.suse.com/security/cve/CVE-2021-26388/",
      "Description": "SUSE CVE CVE-2021-26388 page"
    },
    {
      "URL": "https://www.suse.com/security/cve/CVE-2021-33139/",
      "Description": "SUSE CVE CVE-2021-33139 page"
    },
    {
      "URL": "https://www.suse.com/security/cve/CVE-2021-33155/",
      "Description": "SUSE CVE CVE-2021-33155 page"
    },
    {
      "URL": "https://www.suse.com/security/cve/CVE-2021-46744/",
      "Description": "SUSE CVE CVE-2021-46744 page"
    }
  ],
  "Vulnerabilities": [
    {
      "CVE": "CVE-2021-0071",
      "Description": "Improper input validation in firmware for some Intel(R) PROSet/Wireless WiFi in UEFI may allow an unauthenticated user to potentially enable escalation of privilege via adjacent access.",
      "Threats": [
        {
          "Type": "Impact",
          "Severity": "moderate"
        }
      ],
      "References": [
        {
          "URL": "https://www.suse.com/security/cve/CVE-2021-0071.html",
          "Description": "CVE-2021-0071"
        },
        {
          "URL": "https://bugzilla.suse.com/1192953",
          "Description": "SUSE Bug 1192953"
        }
      ],
      "ProductStatuses": [
        {
          "Type": "Fixed",
          "ProductID": [
            "Image SLES15-SP1-SAP-Azure-LI-BYOS-Production:kernel-firmware-20200107-150100.3.31.1",
            "Image SLES15-SP1-SAP-Azure-VLI-BYOS-Production:kernel-firmware-20200107-150100.3.31.1",
            "Image SLES15-SP2-SAP-Azure-LI-BYOS-Production:kernel-firmware-20200107-150100.3.31.1",
            "Image SLES15-SP2-SAP-Azure-VLI-BYOS-Production:kernel-firmware-20200107-150100.3.31.1",
            "SUSE Enterprise Storage 6:kernel-firmware-20200107-150100.3.31.1",
            "SUSE Enterprise Storage 6:ucode-amd-20200107-150100.3.31.1",
            "SUSE Enterprise Storage 7:kernel-firmware-20200107-150100.3.31.1",
            "SUSE Enterprise Storage 7:ucode-amd-20200107-150100.3.31.1",
            "SUSE Linux Enterprise High Performance Computing 15 SP1-ESPOS:kernel-firmware-20200107-150100.3.31.1",
            "SUSE Linux Enterprise High Performance Computing 15 SP1-ESPOS:ucode-amd-20200107-150100.3.31.1",
            "SUSE Linux Enterprise High Performance Computing 15 SP1-LTSS:kernel-firmware-20200107-150100.3.31.1",
            "SUSE Linux Enterprise High Performance Computing 15 SP1-LTSS:ucode-amd-20200107-150100.3.31.1",
            "SUSE Linux Enterprise High Performance Computing 15 SP2-ESPOS:kernel-firmware-20200107-150100.3.31.1",
            "SUSE Linux Enterprise High Performance Computing 15 SP2-ESPOS:ucode-amd-20200107-150100.3.31.1",
            "SUSE Linux Enterprise High Performance Computing 15 SP2-LTSS:kernel-firmware-20200107-150100.3.31.1",
            "SUSE Linux Enterprise High Performance Computing 15 SP2-LTSS:ucode-amd-20200107-150100.3.31.1",
            "SUSE Linux Enterprise Server 15 SP1-BCL:kernel-firmware-20200107-150100.3.31.1",
            "SUSE Linux Enterprise Server 15 SP1-BCL:ucode-amd-20200107-150100.3.31.1",
            "SUSE Linux Enterprise Server 15 SP1-LTSS:kernel-firmware-20200107-150100.3.31.1",
            "SUSE Linux Enterprise Server 15 SP1-LTSS:ucode-amd-20200107-150100.3.31.1",
            "SUSE Linux Enterprise Server 15 SP2-BCL:kernel-firmware-20200107-150100.3.31.1",
            "SUSE Linux Enterprise Server 15 SP2-BCL:ucode-amd-20200107-150100.3.31.1",
            "SUSE Linux Enterprise Server 15 SP2-LTSS:kernel-firmware-20200107-150100.3.31.1",
            "SUSE Linux Enterprise Server 15 SP2-LTSS:ucode-amd-20200107-150100.3.31.1",
            "SUSE Linux Enterprise Server for SAP Applications 15 SP1:kernel-firmware-20200107-150100.3.31.1",
            "SUSE Linux Enterprise Server for SAP Applications 15 SP1:ucode-amd-20200107-150100.3.31.1",
            "SUSE Linux Enterprise Server for SAP Applications 15 SP2:kernel-firmware-20200107-150100.3.31.1",
            "SUSE Linux Enterprise Server for SAP Applications 15 SP2:ucode-amd-20200107-150100.3.31.1",
            "SUSE Manager Proxy 4.1:kernel-firmware-20200107-150100.3.31.1",
            "SUSE Manager Proxy 4.1:ucode-amd-20200107-150100.3.31.1",
            "SUSE Manager Retail Branch Server 4.1:kernel-firmware-20200107-150100.3.31.1",
            "SUSE Manager Retail Branch Server 4.1:ucode-amd-20200107-150100.3.31.1",
            "SUSE Manager Server 4.1:kernel-firmware-20200107-150100.3.31.1",
            "SUSE Manager Server 4.1:ucode-amd-20200107-150100.3.31.1"
          ]
        }
      ],
      "CVSSScoreSets": {}
    },
    {
      "CVE": "CVE-2021-26312",
      "Description": "Failure to flush the Translation Lookaside Buffer (TLB) of the I/O memory management unit (IOMMU) may lead an IO device to write to memory it should not be able to access, resulting in a potential loss of integrity.",
      "Threats": [
        {
          "Type": "Impact",
          "Severity": "moderate"
        }
      ],
      "References": [
        {
          "URL": "https://www.suse.com/security/cve/CVE-2021-26312.html",
          "Description": "CVE-2021-26312"
        },
        {
          "URL": "https://bugzilla.suse.com/1192617",
          "Description": "SUSE Bug 1192617"
        }
      ],
      "ProductStatuses": [
        {
          "Type": "Fixed",
          "ProductID": [
            "Image SLES15-SP1-SAP-Azure-LI-BYOS-Production:kernel-firmware-20200107-150100.3.31.1",
            "Image SLES15-SP1-SAP-Azure-VLI-BYOS-Production:kernel-firmware-20200107-150100.3.31.1",
            "Image SLES15-SP2-SAP-Azure-LI-BYOS-Production:kernel-firmware-20200107-150100.3.31.1",
            "Image SLES15-SP2-SAP-Azure-VLI-BYOS-Production:kernel-firmware-20200107-150100.3.31.1",
            "SUSE Enterprise Storage 6:kernel-firmware-20200107-150100.3.31.1",
            "SUSE Enterprise Storage 6:ucode-amd-20200107-150100.3.31.1",
            "SUSE Enterprise Storage 7:kernel-firmware-20200107-150100.3.31.1",
            "SUSE Enterprise Storage 7:ucode-amd-20200107-150100.3.31.1",
            "SUSE Linux Enterprise High Performance Computing 15 SP1-ESPOS:kernel-firmware-20200107-150100.3.31.1",
            "SUSE Linux Enterprise High Performance Computing 15 SP1-ESPOS:ucode-amd-20200107-150100.3.31.1",
            "SUSE Linux Enterprise High Performance Computing 15 SP1-LTSS:kernel-firmware-20200107-150100.3.31.1",
            "SUSE Linux Enterprise High Performance Computing 15 SP1-LTSS:ucode-amd-20200107-150100.3.31.1",
            "SUSE Linux Enterprise High Performance Computing 15 SP2-ESPOS:kernel-firmware-20200107-150100.3.31.1",
            "SUSE Linux Enterprise High Performance Computing 15 SP2-ESPOS:ucode-amd-20200107-150100.3.31.1",
            "SUSE Linux Enterprise High Performance Computing 15 SP2-LTSS:kernel-firmware-20200107-150100.3.31.1",
            "SUSE Linux Enterprise High Performance Computing 15 SP2-LTSS:ucode-amd-20200107-150100.3.31.1",
            "SUSE Linux Enterprise Server 15 SP1-BCL:kernel-firmware-20200107-150100.3.31.1",
            "SUSE Linux Enterprise Server 15 SP1-BCL:ucode-amd-20200107-150100.3.31.1",
            "SUSE Linux Enterprise Server 15 SP1-LTSS:kernel-firmware-20200107-150100.3.31.1",
            "SUSE Linux Enterprise Server 15 SP1-LTSS:ucode-amd-20200107-150100.3.31.1",
            "SUSE Linux Enterprise Server 15 SP2-BCL:kernel-firmware-20200107-150100.3.31.1",
            "SUSE Linux Enterprise Server 15 SP2-BCL:ucode-amd-20200107-150100.3.31.1",
            "SUSE Linux Enterprise Server 15 SP2-LTSS:kernel-firmware-20200107-150100.3.31.1",
            "SUSE Linux Enterprise Server 15 SP2-LTSS:ucode-amd-20200107-150100.3.31.1",
            "SUSE Linux Enterprise Server for SAP Applications 15 SP1:kernel-firmware-20200107-150100.3.31.1",
            "SUSE Linux Enterprise Server for SAP Applications 15 SP1:ucode-amd-20200107-150100.3.31.1",
            "SUSE Linux Enterprise Server for SAP Applications 15 SP2:kernel-firmware-20200107-150100.3.31.1",
            "SUSE Linux Enterprise Server for SAP Applications 15 SP2:ucode-amd-20200107-150100.3.31.1",
            "SUSE Manager Proxy 4.1:kernel-firmware-20200107-150100.3.31.1",
            "SUSE Manager Proxy 4.1:ucode-amd-20200107-150100.3.31.1",
            "SUSE Manager Retail Branch Server 4.1:kernel-firmware-20200107-150100.3.31.1",
            "SUSE Manager Retail Branch Server 4.1:ucode-amd-20200107-150100.3.31.1",
            "SUSE Manager Server 4.1:kernel-firmware-20200107-150100.3.31.1",
            "SUSE Manager Server 4.1:ucode-amd-20200107-150100.3.31.1"
          ]
        }
      ],
      "CVSSScoreSets": {}
    },
    {
      "CVE": "CVE-2021-26339",
      "Description": "A bug in AMD CPU's core logic may allow for an attacker, using specific code from an unprivileged VM, to trigger a CPU core hang resulting in a potential denial of service. AMD believes the specific code includes a specific x86 instruction sequence that would not be generated by compilers.",
      "Threats": [
        {
          "Type": "Impact",
          "Severity": "moderate"
        }
      ],
      "References": [
        {
          "URL": "https://www.suse.com/security/cve/CVE-2021-26339.html",
          "Description": "CVE-2021-26339"
        },
        {
          "URL": "https://bugzilla.suse.com/1199459",
          "Description": "SUSE Bug 1199459"
        }
      ],
      "ProductStatuses": [
        {
          "Type": "Fixed",
          "ProductID": [
            "Image SLES15-SP1-SAP-Azure-LI-BYOS-Production:kernel-firmware-20200107-150100.3.31.1",
            "Image SLES15-SP1-SAP-Azure-VLI-BYOS-Production:kernel-firmware-20200107-150100.3.31.1",
            "Image SLES15-SP2-SAP-Azure-LI-BYOS-Production:kernel-firmware-20200107-150100.3.31.1",
            "Image SLES15-SP2-SAP-Azure-VLI-BYOS-Production:kernel-firmware-20200107-150100.3.31.1",
            "SUSE Enterprise Storage 6:kernel-firmware-20200107-150100.3.31.1",
            "SUSE Enterprise Storage 6:ucode-amd-20200107-150100.3.31.1",
            "SUSE Enterprise Storage 7:kernel-firmware-20200107-150100.3.31.1",
            "SUSE Enterprise Storage 7:ucode-amd-20200107-150100.3.31.1",
            "SUSE Linux Enterprise High Performance Computing 15 SP1-ESPOS:kernel-firmware-20200107-150100.3.31.1",
            "SUSE Linux Enterprise High Performance Computing 15 SP1-ESPOS:ucode-amd-20200107-150100.3.31.1",
            "SUSE Linux Enterprise High Performance Computing 15 SP1-LTSS:kernel-firmware-20200107-150100.3.31.1",
            "SUSE Linux Enterprise High Performance Computing 15 SP1-LTSS:ucode-amd-20200107-150100.3.31.1",
            "SUSE Linux Enterprise High Performance Computing 15 SP2-ESPOS:kernel-firmware-20200107-150100.3.31.1",
            "SUSE Linux Enterprise High Performance Computing 15 SP2-ESPOS:ucode-amd-20200107-150100.3.31.1",
            "SUSE Linux Enterprise High Performance Computing 15 SP2-LTSS:kernel-firmware-20200107-150100.3.31.1",
            "SUSE Linux Enterprise High Performance Computing 15 SP2-LTSS:ucode-amd-20200107-150100.3.31.1",
            "SUSE Linux Enterprise Server 15 SP1-BCL:kernel-firmware-20200107-150100.3.31.1",
            "SUSE Linux Enterprise Server 15 SP1-BCL:ucode-amd-20200107-150100.3.31.1",
            "SUSE Linux Enterprise Server 15 SP1-LTSS:kernel-firmware-20200107-150100.3.31.1",
            "SUSE Linux Enterprise Server 15 SP1-LTSS:ucode-amd-20200107-150100.3.31.1",
            "SUSE Linux Enterprise Server 15 SP2-BCL:kernel-firmware-20200107-150100.3.31.1",
            "SUSE Linux Enterprise Server 15 SP2-BCL:ucode-amd-20200107-150100.3.31.1",
            "SUSE Linux Enterprise Server 15 SP2-LTSS:kernel-firmware-20200107-150100.3.31.1",
            "SUSE Linux Enterprise Server 15 SP2-LTSS:ucode-amd-20200107-150100.3.31.1",
            "SUSE Linux Enterprise Server for SAP Applications 15 SP1:kernel-firmware-20200107-150100.3.31.1",
            "SUSE Linux Enterprise Server for SAP Applications 15 SP1:ucode-amd-20200107-150100.3.31.1",
            "SUSE Linux Enterprise Server for SAP Applications 15 SP2:kernel-firmware-20200107-150100.3.31.1",
            "SUSE Linux Enterprise Server for SAP Applications 15 SP2:ucode-amd-20200107-150100.3.31.1",
            "SUSE Manager Proxy 4.1:kernel-firmware-20200107-150100.3.31.1",
            "SUSE Manager Proxy 4.1:ucode-amd-20200107-150100.3.31.1",
            "SUSE Manager Retail Branch Server 4.1:kernel-firmware-20200107-150100.3.31.1",
            "SUSE Manager Retail Branch Server 4.1:ucode-amd-20200107-150100.3.31.1",
            "SUSE Manager Server 4.1:kernel-firmware-20200107-150100.3.31.1",
            "SUSE Manager Server 4.1:ucode-amd-20200107-150100.3.31.1"
          ]
        }
      ],
      "CVSSScoreSets": {}
    },
    {
      "CVE": "CVE-2021-26342",
      "Description": "In SEV guest VMs, the CPU may fail to flush the Translation Lookaside Buffer (TLB) following a particular sequence of operations that includes creation of a new virtual machine control block (VMCB). The failure to flush the TLB may cause the microcode to use stale TLB translations which may allow for disclosure of SEV guest memory contents. Users of SEV-ES/SEV-SNP guest VMs are not impacted by this vulnerability.",
      "Threats": [
        {
          "Type": "Impact",
          "Severity": "moderate"
        }
      ],
      "References": [
        {
          "URL": "https://www.suse.com/security/cve/CVE-2021-26342.html",
          "Description": "CVE-2021-26342"
        }
      ],
      "ProductStatuses": [
        {
          "Type": "Fixed",
          "ProductID": [
            "Image SLES15-SP1-SAP-Azure-LI-BYOS-Production:kernel-firmware-20200107-150100.3.31.1",
            "Image SLES15-SP1-SAP-Azure-VLI-BYOS-Production:kernel-firmware-20200107-150100.3.31.1",
            "Image SLES15-SP2-SAP-Azure-LI-BYOS-Production:kernel-firmware-20200107-150100.3.31.1",
            "Image SLES15-SP2-SAP-Azure-VLI-BYOS-Production:kernel-firmware-20200107-150100.3.31.1",
            "SUSE Enterprise Storage 6:kernel-firmware-20200107-150100.3.31.1",
            "SUSE Enterprise Storage 6:ucode-amd-20200107-150100.3.31.1",
            "SUSE Enterprise Storage 7:kernel-firmware-20200107-150100.3.31.1",
            "SUSE Enterprise Storage 7:ucode-amd-20200107-150100.3.31.1",
            "SUSE Linux Enterprise High Performance Computing 15 SP1-ESPOS:kernel-firmware-20200107-150100.3.31.1",
            "SUSE Linux Enterprise High Performance Computing 15 SP1-ESPOS:ucode-amd-20200107-150100.3.31.1",
            "SUSE Linux Enterprise High Performance Computing 15 SP1-LTSS:kernel-firmware-20200107-150100.3.31.1",
            "SUSE Linux Enterprise High Performance Computing 15 SP1-LTSS:ucode-amd-20200107-150100.3.31.1",
            "SUSE Linux Enterprise High Performance Computing 15 SP2-ESPOS:kernel-firmware-20200107-150100.3.31.1",
            "SUSE Linux Enterprise High Performance Computing 15 SP2-ESPOS:ucode-amd-20200107-150100.3.31.1",
            "SUSE Linux Enterprise High Performance Computing 15 SP2-LTSS:kernel-firmware-20200107-150100.3.31.1",
            "SUSE Linux Enterprise High Performance Computing 15 SP2-LTSS:ucode-amd-20200107-150100.3.31.1",
            "SUSE Linux Enterprise Server 15 SP1-BCL:kernel-firmware-20200107-150100.3.31.1",
            "SUSE Linux Enterprise Server 15 SP1-BCL:ucode-amd-20200107-150100.3.31.1",
            "SUSE Linux Enterprise Server 15 SP1-LTSS:kernel-firmware-20200107-150100.3.31.1",
            "SUSE Linux Enterprise Server 15 SP1-LTSS:ucode-amd-20200107-150100.3.31.1",
            "SUSE Linux Enterprise Server 15 SP2-BCL:kernel-firmware-20200107-150100.3.31.1",
            "SUSE Linux Enterprise Server 15 SP2-BCL:ucode-amd-20200107-150100.3.31.1",
            "SUSE Linux Enterprise Server 15 SP2-LTSS:kernel-firmware-20200107-150100.3.31.1",
            "SUSE Linux Enterprise Server 15 SP2-LTSS:ucode-amd-20200107-150100.3.31.1",
            "SUSE Linux Enterprise Server for SAP Applications 15 SP1:kernel-firmware-20200107-150100.3.31.1",
            "SUSE Linux Enterprise Server for SAP Applications 15 SP1:ucode-amd-20200107-150100.3.31.1",
            "SUSE Linux Enterprise Server for SAP Applications 15 SP2:kernel-firmware-20200107-150100.3.31.1",
            "SUSE Linux Enterprise Server for SAP Applications 15 SP2:ucode-amd-20200107-150100.3.31.1",
            "SUSE Manager Proxy 4.1:kernel-firmware-20200107-150100.3.31.1",
            "SUSE Manager Proxy 4.1:ucode-amd-20200107-150100.3.31.1",
            "SUSE Manager Retail Branch Server 4.1:kernel-firmware-20200107-150100.3.31.1",
            "SUSE Manager Retail Branch Server 4.1:ucode-amd-20200107-150100.3.31.1",
            "SUSE Manager Server 4.1:kernel-firmware-20200107-150100.3.31.1",
            "SUSE Manager Server 4.1:ucode-amd-20200107-150100.3.31.1"
          ]
        }
      ],
      "CVSSScoreSets": {}
    },
    {
      "CVE": "CVE-2021-26347",
      "Description": "Failure to validate the integer operand in ASP (AMD Secure Processor) bootloader may allow an attacker to introduce an integer overflow in the L2 directory table in SPI flash resulting in a potential denial of service.",
      "Threats": [
        {
          "Type": "Impact",
          "Severity": "moderate"
        }
      ],
      "References": [
        {
          "URL": "https://www.suse.com/security/cve/CVE-2021-26347.html",
          "Description": "CVE-2021-26347"
        }
      ],
      "ProductStatuses": [
        {
          "Type": "Fixed",
          "ProductID": [
            "Image SLES15-SP1-SAP-Azure-LI-BYOS-Production:kernel-firmware-20200107-150100.3.31.1",
            "Image SLES15-SP1-SAP-Azure-VLI-BYOS-Production:kernel-firmware-20200107-150100.3.31.1",
            "Image SLES15-SP2-SAP-Azure-LI-BYOS-Production:kernel-firmware-20200107-150100.3.31.1",
            "Image SLES15-SP2-SAP-Azure-VLI-BYOS-Production:kernel-firmware-20200107-150100.3.31.1",
            "SUSE Enterprise Storage 6:kernel-firmware-20200107-150100.3.31.1",
            "SUSE Enterprise Storage 6:ucode-amd-20200107-150100.3.31.1",
            "SUSE Enterprise Storage 7:kernel-firmware-20200107-150100.3.31.1",
            "SUSE Enterprise Storage 7:ucode-amd-20200107-150100.3.31.1",
            "SUSE Linux Enterprise High Performance Computing 15 SP1-ESPOS:kernel-firmware-20200107-150100.3.31.1",
            "SUSE Linux Enterprise High Performance Computing 15 SP1-ESPOS:ucode-amd-20200107-150100.3.31.1",
            "SUSE Linux Enterprise High Performance Computing 15 SP1-LTSS:kernel-firmware-20200107-150100.3.31.1",
            "SUSE Linux Enterprise High Performance Computing 15 SP1-LTSS:ucode-amd-20200107-150100.3.31.1",
            "SUSE Linux Enterprise High Performance Computing 15 SP2-ESPOS:kernel-firmware-20200107-150100.3.31.1",
            "SUSE Linux Enterprise High Performance Computing 15 SP2-ESPOS:ucode-amd-20200107-150100.3.31.1",
            "SUSE Linux Enterprise High Performance Computing 15 SP2-LTSS:kernel-firmware-20200107-150100.3.31.1",
            "SUSE Linux Enterprise High Performance Computing 15 SP2-LTSS:ucode-amd-20200107-150100.3.31.1",
            "SUSE Linux Enterprise Server 15 SP1-BCL:kernel-firmware-20200107-150100.3.31.1",
            "SUSE Linux Enterprise Server 15 SP1-BCL:ucode-amd-20200107-150100.3.31.1",
            "SUSE Linux Enterprise Server 15 SP1-LTSS:kernel-firmware-20200107-150100.3.31.1",
            "SUSE Linux Enterprise Server 15 SP1-LTSS:ucode-amd-20200107-150100.3.31.1",
            "SUSE Linux Enterprise Server 15 SP2-BCL:kernel-firmware-20200107-150100.3.31.1",
            "SUSE Linux Enterprise Server 15 SP2-BCL:ucode-amd-20200107-150100.3.31.1",
            "SUSE Linux Enterprise Server 15 SP2-LTSS:kernel-firmware-20200107-150100.3.31.1",
            "SUSE Linux Enterprise Server 15 SP2-LTSS:ucode-amd-20200107-150100.3.31.1",
            "SUSE Linux Enterprise Server for SAP Applications 15 SP1:kernel-firmware-20200107-150100.3.31.1",
            "SUSE Linux Enterprise Server for SAP Applications 15 SP1:ucode-amd-20200107-150100.3.31.1",
            "SUSE Linux Enterprise Server for SAP Applications 15 SP2:kernel-firmware-20200107-150100.3.31.1",
            "SUSE Linux Enterprise Server for SAP Applications 15 SP2:ucode-amd-20200107-150100.3.31.1",
            "SUSE Manager Proxy 4.1:kernel-firmware-20200107-150100.3.31.1",
            "SUSE Manager Proxy 4.1:ucode-amd-20200107-150100.3.31.1",
            "SUSE Manager Retail Branch Server 4.1:kernel-firmware-20200107-150100.3.31.1",
            "SUSE Manager Retail Branch Server 4.1:ucode-amd-20200107-150100.3.31.1",
            "SUSE Manager Server 4.1:kernel-firmware-20200107-150100.3.31.1",
            "SUSE Manager Server 4.1:ucode-amd-20200107-150100.3.31.1"
          ]
        }
      ],
      "CVSSScoreSets": {}
    },
    {
      "CVE": "CVE-2021-26348",
      "Description": "Failure to flush the Translation Lookaside Buffer (TLB) of the I/O memory management unit (IOMMU) may lead an IO device to write to memory it should not be able to access, resulting in a potential loss of integrity.",
      "Threats": [
        {
          "Type": "Impact",
          "Severity": "moderate"
        }
      ],
      "References": [
        {
          "URL": "https://www.suse.com/security/cve/CVE-2021-26348.html",
          "Description": "CVE-2021-26348"
        }
      ],
      "ProductStatuses": [
        {
          "Type": "Fixed",
          "ProductID": [
            "Image SLES15-SP1-SAP-Azure-LI-BYOS-Production:kernel-firmware-20200107-150100.3.31.1",
            "Image SLES15-SP1-SAP-Azure-VLI-BYOS-Production:kernel-firmware-20200107-150100.3.31.1",
            "Image SLES15-SP2-SAP-Azure-LI-BYOS-Production:kernel-firmware-20200107-150100.3.31.1",
            "Image SLES15-SP2-SAP-Azure-VLI-BYOS-Production:kernel-firmware-20200107-150100.3.31.1",
            "SUSE Enterprise Storage 6:kernel-firmware-20200107-150100.3.31.1",
            "SUSE Enterprise Storage 6:ucode-amd-20200107-150100.3.31.1",
            "SUSE Enterprise Storage 7:kernel-firmware-20200107-150100.3.31.1",
            "SUSE Enterprise Storage 7:ucode-amd-20200107-150100.3.31.1",
            "SUSE Linux Enterprise High Performance Computing 15 SP1-ESPOS:kernel-firmware-20200107-150100.3.31.1",
            "SUSE Linux Enterprise High Performance Computing 15 SP1-ESPOS:ucode-amd-20200107-150100.3.31.1",
            "SUSE Linux Enterprise High Performance Computing 15 SP1-LTSS:kernel-firmware-20200107-150100.3.31.1",
            "SUSE Linux Enterprise High Performance Computing 15 SP1-LTSS:ucode-amd-20200107-150100.3.31.1",
            "SUSE Linux Enterprise High Performance Computing 15 SP2-ESPOS:kernel-firmware-20200107-150100.3.31.1",
            "SUSE Linux Enterprise High Performance Computing 15 SP2-ESPOS:ucode-amd-20200107-150100.3.31.1",
            "SUSE Linux Enterprise High Performance Computing 15 SP2-LTSS:kernel-firmware-20200107-150100.3.31.1",
            "SUSE Linux Enterprise High Performance Computing 15 SP2-LTSS:ucode-amd-20200107-150100.3.31.1",
            "SUSE Linux Enterprise Server 15 SP1-BCL:kernel-firmware-20200107-150100.3.31.1",
            "SUSE Linux Enterprise Server 15 SP1-BCL:ucode-amd-20200107-150100.3.31.1",
            "SUSE Linux Enterprise Server 15 SP1-LTSS:kernel-firmware-20200107-150100.3.31.1",
            "SUSE Linux Enterprise Server 15 SP1-LTSS:ucode-amd-20200107-150100.3.31.1",
            "SUSE Linux Enterprise Server 15 SP2-BCL:kernel-firmware-20200107-150100.3.31.1",
            "SUSE Linux Enterprise Server 15 SP2-BCL:ucode-amd-20200107-150100.3.31.1",
            "SUSE Linux Enterprise Server 15 SP2-LTSS:kernel-firmware-20200107-150100.3.31.1",
            "SUSE Linux Enterprise Server 15 SP2-LTSS:ucode-amd-20200107-150100.3.31.1",
            "SUSE Linux Enterprise Server for SAP Applications 15 SP1:kernel-firmware-20200107-150100.3.31.1",
            "SUSE Linux Enterprise Server for SAP Applications 15 SP1:ucode-amd-20200107-150100.3.31.1",
            "SUSE Linux Enterprise Server for SAP Applications 15 SP2:kernel-firmware-20200107-150100.3.31.1",
            "SUSE Linux Enterprise Server for SAP Applications 15 SP2:ucode-amd-20200107-150100.3.31.1",
            "SUSE Manager Proxy 4.1:kernel-firmware-20200107-150100.3.31.1",
            "SUSE Manager Proxy 4.1:ucode-amd-20200107-150100.3.31.1",
            "SUSE Manager Retail Branch Server 4.1:kernel-firmware-20200107-150100.3.31.1",
            "SUSE Manager Retail Branch Server 4.1:ucode-amd-20200107-150100.3.31.1",
            "SUSE Manager Server 4.1:kernel-firmware-20200107-150100.3.31.1",
            "SUSE Manager Server 4.1:ucode-amd-20200107-150100.3.31.1"
          ]
        }
      ],
      "CVSSScoreSets": {}
    },
    {
      "CVE": "CVE-2021-26349",
      "Description": "Failure to assign a new report ID to an imported guest may potentially result in an SEV-SNP guest VM being tricked into trusting a dishonest Migration Agent (MA).",
      "Threats": [
        {
          "Type": "Impact",
          "Severity": "moderate"
        }
      ],
      "References": [
        {
          "URL": "https://www.suse.com/security/cve/CVE-2021-26349.html",
          "Description": "CVE-2021-26349"
        }
      ],
      "ProductStatuses": [
        {
          "Type": "Fixed",
          "ProductID": [
            "Image SLES15-SP1-SAP-Azure-LI-BYOS-Production:kernel-firmware-20200107-150100.3.31.1",
            "Image SLES15-SP1-SAP-Azure-VLI-BYOS-Production:kernel-firmware-20200107-150100.3.31.1",
            "Image SLES15-SP2-SAP-Azure-LI-BYOS-Production:kernel-firmware-20200107-150100.3.31.1",
            "Image SLES15-SP2-SAP-Azure-VLI-BYOS-Production:kernel-firmware-20200107-150100.3.31.1",
            "SUSE Enterprise Storage 6:kernel-firmware-20200107-150100.3.31.1",
            "SUSE Enterprise Storage 6:ucode-amd-20200107-150100.3.31.1",
            "SUSE Enterprise Storage 7:kernel-firmware-20200107-150100.3.31.1",
            "SUSE Enterprise Storage 7:ucode-amd-20200107-150100.3.31.1",
            "SUSE Linux Enterprise High Performance Computing 15 SP1-ESPOS:kernel-firmware-20200107-150100.3.31.1",
            "SUSE Linux Enterprise High Performance Computing 15 SP1-ESPOS:ucode-amd-20200107-150100.3.31.1",
            "SUSE Linux Enterprise High Performance Computing 15 SP1-LTSS:kernel-firmware-20200107-150100.3.31.1",
            "SUSE Linux Enterprise High Performance Computing 15 SP1-LTSS:ucode-amd-20200107-150100.3.31.1",
            "SUSE Linux Enterprise High Performance Computing 15 SP2-ESPOS:kernel-firmware-20200107-150100.3.31.1",
            "SUSE Linux Enterprise High Performance Computing 15 SP2-ESPOS:ucode-amd-20200107-150100.3.31.1",
            "SUSE Linux Enterprise High Performance Computing 15 SP2-LTSS:kernel-firmware-20200107-150100.3.31.1",
            "SUSE Linux Enterprise High Performance Computing 15 SP2-LTSS:ucode-amd-20200107-150100.3.31.1",
            "SUSE Linux Enterprise Server 15 SP1-BCL:kernel-firmware-20200107-150100.3.31.1",
            "SUSE Linux Enterprise Server 15 SP1-BCL:ucode-amd-20200107-150100.3.31.1",
            "SUSE Linux Enterprise Server 15 SP1-LTSS:kernel-firmware-20200107-150100.3.31.1",
            "SUSE Linux Enterprise Server 15 SP1-LTSS:ucode-amd-20200107-150100.3.31.1",
            "SUSE Linux Enterprise Server 15 SP2-BCL:kernel-firmware-20200107-150100.3.31.1",
            "SUSE Linux Enterprise Server 15 SP2-BCL:ucode-amd-20200107-150100.3.31.1",
            "SUSE Linux Enterprise Server 15 SP2-LTSS:kernel-firmware-20200107-150100.3.31.1",
            "SUSE Linux Enterprise Server 15 SP2-LTSS:ucode-amd-20200107-150100.3.31.1",
            "SUSE Linux Enterprise Server for SAP Applications 15 SP1:kernel-firmware-20200107-150100.3.31.1",
            "SUSE Linux Enterprise Server for SAP Applications 15 SP1:ucode-amd-20200107-150100.3.31.1",
            "SUSE Linux Enterprise Server for SAP Applications 15 SP2:kernel-firmware-20200107-150100.3.31.1",
            "SUSE Linux Enterprise Server for SAP Applications 15 SP2:ucode-amd-20200107-150100.3.31.1",
            "SUSE Manager Proxy 4.1:kernel-firmware-20200107-150100.3.31.1",
            "SUSE Manager Proxy 4.1:ucode-amd-20200107-150100.3.31.1",
            "SUSE Manager Retail Branch Server 4.1:kernel-firmware-20200107-150100.3.31.1",
            "SUSE Manager Retail Branch Server 4.1:ucode-amd-20200107-150100.3.31.1",
            "SUSE Manager Server 4.1:kernel-firmware-20200107-150100.3.31.1",
            "SUSE Manager Server 4.1:ucode-amd-20200107-150100.3.31.1"
          ]
        }
      ],
      "CVSSScoreSets": {}
    },
    {
      "CVE": "CVE-2021-26350",
      "Description": "A TOCTOU race condition in SMU may allow for the caller to obtain and manipulate the address of a message port register which may result in a potential denial of service.",
      "Threats": [
        {
          "Type": "Impact",
          "Severity": "moderate"
        }
      ],
      "References": [
        {
          "URL": "https://www.suse.com/security/cve/CVE-2021-26350.html",
          "Description": "CVE-2021-26350"
        }
      ],
      "ProductStatuses": [
        {
          "Type": "Fixed",
          "ProductID": [
            "Image SLES15-SP1-SAP-Azure-LI-BYOS-Production:kernel-firmware-20200107-150100.3.31.1",
            "Image SLES15-SP1-SAP-Azure-VLI-BYOS-Production:kernel-firmware-20200107-150100.3.31.1",
            "Image SLES15-SP2-SAP-Azure-LI-BYOS-Production:kernel-firmware-20200107-150100.3.31.1",
            "Image SLES15-SP2-SAP-Azure-VLI-BYOS-Production:kernel-firmware-20200107-150100.3.31.1",
            "SUSE Enterprise Storage 6:kernel-firmware-20200107-150100.3.31.1",
            "SUSE Enterprise Storage 6:ucode-amd-20200107-150100.3.31.1",
            "SUSE Enterprise Storage 7:kernel-firmware-20200107-150100.3.31.1",
            "SUSE Enterprise Storage 7:ucode-amd-20200107-150100.3.31.1",
            "SUSE Linux Enterprise High Performance Computing 15 SP1-ESPOS:kernel-firmware-20200107-150100.3.31.1",
            "SUSE Linux Enterprise High Performance Computing 15 SP1-ESPOS:ucode-amd-20200107-150100.3.31.1",
            "SUSE Linux Enterprise High Performance Computing 15 SP1-LTSS:kernel-firmware-20200107-150100.3.31.1",
            "SUSE Linux Enterprise High Performance Computing 15 SP1-LTSS:ucode-amd-20200107-150100.3.31.1",
            "SUSE Linux Enterprise High Performance Computing 15 SP2-ESPOS:kernel-firmware-20200107-150100.3.31.1",
            "SUSE Linux Enterprise High Performance Computing 15 SP2-ESPOS:ucode-amd-20200107-150100.3.31.1",
            "SUSE Linux Enterprise High Performance Computing 15 SP2-LTSS:kernel-firmware-20200107-150100.3.31.1",
            "SUSE Linux Enterprise High Performance Computing 15 SP2-LTSS:ucode-amd-20200107-150100.3.31.1",
            "SUSE Linux Enterprise Server 15 SP1-BCL:kernel-firmware-20200107-150100.3.31.1",
            "SUSE Linux Enterprise Server 15 SP1-BCL:ucode-amd-20200107-150100.3.31.1",
            "SUSE Linux Enterprise Server 15 SP1-LTSS:kernel-firmware-20200107-150100.3.31.1",
            "SUSE Linux Enterprise Server 15 SP1-LTSS:ucode-amd-20200107-150100.3.31.1",
            "SUSE Linux Enterprise Server 15 SP2-BCL:kernel-firmware-20200107-150100.3.31.1",
            "SUSE Linux Enterprise Server 15 SP2-BCL:ucode-amd-20200107-150100.3.31.1",
            "SUSE Linux Enterprise Server 15 SP2-LTSS:kernel-firmware-20200107-150100.3.31.1",
            "SUSE Linux Enterprise Server 15 SP2-LTSS:ucode-amd-20200107-150100.3.31.1",
            "SUSE Linux Enterprise Server for SAP Applications 15 SP1:kernel-firmware-20200107-150100.3.31.1",
            "SUSE Linux Enterprise Server for SAP Applications 15 SP1:ucode-amd-20200107-150100.3.31.1",
            "SUSE Linux Enterprise Server for SAP Applications 15 SP2:kernel-firmware-20200107-150100.3.31.1",
            "SUSE Linux Enterprise Server for SAP Applications 15 SP2:ucode-amd-20200107-150100.3.31.1",
            "SUSE Manager Proxy 4.1:kernel-firmware-20200107-150100.3.31.1",
            "SUSE Manager Proxy 4.1:ucode-amd-20200107-150100.3.31.1",
            "SUSE Manager Retail Branch Server 4.1:kernel-firmware-20200107-150100.3.31.1",
            "SUSE Manager Retail Branch Server 4.1:ucode-amd-20200107-150100.3.31.1",
            "SUSE Manager Server 4.1:kernel-firmware-20200107-150100.3.31.1",
            "SUSE Manager Server 4.1:ucode-amd-20200107-150100.3.31.1"
          ]
        }
      ],
      "CVSSScoreSets": {}
    },
    {
      "CVE": "CVE-2021-26364",
      "Description": "Insufficient bounds checking in an SMU mailbox register could allow an attacker to potentially read outside of the SRAM address range which could result in an exception handling leading to a potential denial of service.",
      "Threats": [
        {
          "Type": "Impact",
          "Severity": "moderate"
        }
      ],
      "References": [
        {
          "URL": "https://www.suse.com/security/cve/CVE-2021-26364.html",
          "Description": "CVE-2021-26364"
        }
      ],
      "ProductStatuses": [
        {
          "Type": "Fixed",
          "ProductID": [
            "Image SLES15-SP1-SAP-Azure-LI-BYOS-Production:kernel-firmware-20200107-150100.3.31.1",
            "Image SLES15-SP1-SAP-Azure-VLI-BYOS-Production:kernel-firmware-20200107-150100.3.31.1",
            "Image SLES15-SP2-SAP-Azure-LI-BYOS-Production:kernel-firmware-20200107-150100.3.31.1",
            "Image SLES15-SP2-SAP-Azure-VLI-BYOS-Production:kernel-firmware-20200107-150100.3.31.1",
            "SUSE Enterprise Storage 6:kernel-firmware-20200107-150100.3.31.1",
            "SUSE Enterprise Storage 6:ucode-amd-20200107-150100.3.31.1",
            "SUSE Enterprise Storage 7:kernel-firmware-20200107-150100.3.31.1",
            "SUSE Enterprise Storage 7:ucode-amd-20200107-150100.3.31.1",
            "SUSE Linux Enterprise High Performance Computing 15 SP1-ESPOS:kernel-firmware-20200107-150100.3.31.1",
            "SUSE Linux Enterprise High Performance Computing 15 SP1-ESPOS:ucode-amd-20200107-150100.3.31.1",
            "SUSE Linux Enterprise High Performance Computing 15 SP1-LTSS:kernel-firmware-20200107-150100.3.31.1",
            "SUSE Linux Enterprise High Performance Computing 15 SP1-LTSS:ucode-amd-20200107-150100.3.31.1",
            "SUSE Linux Enterprise High Performance Computing 15 SP2-ESPOS:kernel-firmware-20200107-150100.3.31.1",
            "SUSE Linux Enterprise High Performance Computing 15 SP2-ESPOS:ucode-amd-20200107-150100.3.31.1",
            "SUSE Linux Enterprise High Performance Computing 15 SP2-LTSS:kernel-firmware-20200107-150100.3.31.1",
            "SUSE Linux Enterprise High Performance Computing 15 SP2-LTSS:ucode-amd-20200107-150100.3.31.1",
            "SUSE Linux Enterprise Server 15 SP1-BCL:kernel-firmware-20200107-150100.3.31.1",
            "SUSE Linux Enterprise Server 15 SP1-BCL:ucode-amd-20200107-150100.3.31.1",
            "SUSE Linux Enterprise Server 15 SP1-LTSS:kernel-firmware-20200107-150100.3.31.1",
            "SUSE Linux Enterprise Server 15 SP1-LTSS:ucode-amd-20200107-150100.3.31.1",
            "SUSE Linux Enterprise Server 15 SP2-BCL:kernel-firmware-20200107-150100.3.31.1",
            "SUSE Linux Enterprise Server 15 SP2-BCL:ucode-amd-20200107-150100.3.31.1",
            "SUSE Linux Enterprise Server 15 SP2-LTSS:kernel-firmware-20200107-150100.3.31.1",
            "SUSE Linux Enterprise Server 15 SP2-LTSS:ucode-amd-20200107-150100.3.31.1",
            "SUSE Linux Enterprise Server for SAP Applications 15 SP1:kernel-firmware-20200107-150100.3.31.1",
            "SUSE Linux Enterprise Server for SAP Applications 15 SP1:ucode-amd-20200107-150100.3.31.1",
            "SUSE Linux Enterprise Server for SAP Applications 15 SP2:kernel-firmware-20200107-150100.3.31.1",
            "SUSE Linux Enterprise Server for SAP Applications 15 SP2:ucode-amd-20200107-150100.3.31.1",
            "SUSE Manager Proxy 4.1:kernel-firmware-20200107-150100.3.31.1",
            "SUSE Manager Proxy 4.1:ucode-amd-20200107-150100.3.31.1",
            "SUSE Manager Retail Branch Server 4.1:kernel-firmware-20200107-150100.3.31.1",
            "SUSE Manager Retail Branch Server 4.1:ucode-amd-20200107-150100.3.31.1",
            "SUSE Manager Server 4.1:kernel-firmware-20200107-150100.3.31.1",
            "SUSE Manager Server 4.1:ucode-amd-20200107-150100.3.31.1"
          ]
        }
      ],
      "CVSSScoreSets": {}
    },
    {
      "CVE": "CVE-2021-26372",
      "Description": "Insufficient bound checks related to PCIE in the System Management Unit (SMU) may result in access to an invalid address space that could result in denial of service.",
      "Threats": [
        {
          "Type": "Impact",
          "Severity": "moderate"
        }
      ],
      "References": [
        {
          "URL": "https://www.suse.com/security/cve/CVE-2021-26372.html",
          "Description": "CVE-2021-26372"
        }
      ],
      "ProductStatuses": [
        {
          "Type": "Fixed",
          "ProductID": [
            "Image SLES15-SP1-SAP-Azure-LI-BYOS-Production:kernel-firmware-20200107-150100.3.31.1",
            "Image SLES15-SP1-SAP-Azure-VLI-BYOS-Production:kernel-firmware-20200107-150100.3.31.1",
            "Image SLES15-SP2-SAP-Azure-LI-BYOS-Production:kernel-firmware-20200107-150100.3.31.1",
            "Image SLES15-SP2-SAP-Azure-VLI-BYOS-Production:kernel-firmware-20200107-150100.3.31.1",
            "SUSE Enterprise Storage 6:kernel-firmware-20200107-150100.3.31.1",
            "SUSE Enterprise Storage 6:ucode-amd-20200107-150100.3.31.1",
            "SUSE Enterprise Storage 7:kernel-firmware-20200107-150100.3.31.1",
            "SUSE Enterprise Storage 7:ucode-amd-20200107-150100.3.31.1",
            "SUSE Linux Enterprise High Performance Computing 15 SP1-ESPOS:kernel-firmware-20200107-150100.3.31.1",
            "SUSE Linux Enterprise High Performance Computing 15 SP1-ESPOS:ucode-amd-20200107-150100.3.31.1",
            "SUSE Linux Enterprise High Performance Computing 15 SP1-LTSS:kernel-firmware-20200107-150100.3.31.1",
            "SUSE Linux Enterprise High Performance Computing 15 SP1-LTSS:ucode-amd-20200107-150100.3.31.1",
            "SUSE Linux Enterprise High Performance Computing 15 SP2-ESPOS:kernel-firmware-20200107-150100.3.31.1",
            "SUSE Linux Enterprise High Performance Computing 15 SP2-ESPOS:ucode-amd-20200107-150100.3.31.1",
            "SUSE Linux Enterprise High Performance Computing 15 SP2-LTSS:kernel-firmware-20200107-150100.3.31.1",
            "SUSE Linux Enterprise High Performance Computing 15 SP2-LTSS:ucode-amd-20200107-150100.3.31.1",
            "SUSE Linux Enterprise Server 15 SP1-BCL:kernel-firmware-20200107-150100.3.31.1",
            "SUSE Linux Enterprise Server 15 SP1-BCL:ucode-amd-20200107-150100.3.31.1",
            "SUSE Linux Enterprise Server 15 SP1-LTSS:kernel-firmware-20200107-150100.3.31.1",
            "SUSE Linux Enterprise Server 15 SP1-LTSS:ucode-amd-20200107-150100.3.31.1",
            "SUSE Linux Enterprise Server 15 SP2-BCL:kernel-firmware-20200107-150100.3.31.1",
            "SUSE Linux Enterprise Server 15 SP2-BCL:ucode-amd-20200107-150100.3.31.1",
            "SUSE Linux Enterprise Server 15 SP2-LTSS:kernel-firmware-20200107-150100.3.31.1",
            "SUSE Linux Enterprise Server 15 SP2-LTSS:ucode-amd-20200107-150100.3.31.1",
            "SUSE Linux Enterprise Server for SAP Applications 15 SP1:kernel-firmware-20200107-150100.3.31.1",
            "SUSE Linux Enterprise Server for SAP Applications 15 SP1:ucode-amd-20200107-150100.3.31.1",
            "SUSE Linux Enterprise Server for SAP Applications 15 SP2:kernel-firmware-20200107-150100.3.31.1",
            "SUSE Linux Enterprise Server for SAP Applications 15 SP2:ucode-amd-20200107-150100.3.31.1",
            "SUSE Manager Proxy 4.1:kernel-firmware-20200107-150100.3.31.1",
            "SUSE Manager Proxy 4.1:ucode-amd-20200107-150100.3.31.1",
            "SUSE Manager Retail Branch Server 4.1:kernel-firmware-20200107-150100.3.31.1",
            "SUSE Manager Retail Branch Server 4.1:ucode-amd-20200107-150100.3.31.1",
            "SUSE Manager Server 4.1:kernel-firmware-20200107-150100.3.31.1",
            "SUSE Manager Server 4.1:ucode-amd-20200107-150100.3.31.1"
          ]
        }
      ],
      "CVSSScoreSets": {}
    },
    {
      "CVE": "CVE-2021-26373",
      "Description": "Insufficient bound checks in the System Management Unit (SMU) may result in a system voltage malfunction that could result in denial of resources and/or possibly denial of service.",
      "Threats": [
        {
          "Type": "Impact",
          "Severity": "moderate"
        }
      ],
      "References": [
        {
          "URL": "https://www.suse.com/security/cve/CVE-2021-26373.html",
          "Description": "CVE-2021-26373"
        }
      ],
      "ProductStatuses": [
        {
          "Type": "Fixed",
          "ProductID": [
            "Image SLES15-SP1-SAP-Azure-LI-BYOS-Production:kernel-firmware-20200107-150100.3.31.1",
            "Image SLES15-SP1-SAP-Azure-VLI-BYOS-Production:kernel-firmware-20200107-150100.3.31.1",
            "Image SLES15-SP2-SAP-Azure-LI-BYOS-Production:kernel-firmware-20200107-150100.3.31.1",
            "Image SLES15-SP2-SAP-Azure-VLI-BYOS-Production:kernel-firmware-20200107-150100.3.31.1",
            "SUSE Enterprise Storage 6:kernel-firmware-20200107-150100.3.31.1",
            "SUSE Enterprise Storage 6:ucode-amd-20200107-150100.3.31.1",
            "SUSE Enterprise Storage 7:kernel-firmware-20200107-150100.3.31.1",
            "SUSE Enterprise Storage 7:ucode-amd-20200107-150100.3.31.1",
            "SUSE Linux Enterprise High Performance Computing 15 SP1-ESPOS:kernel-firmware-20200107-150100.3.31.1",
            "SUSE Linux Enterprise High Performance Computing 15 SP1-ESPOS:ucode-amd-20200107-150100.3.31.1",
            "SUSE Linux Enterprise High Performance Computing 15 SP1-LTSS:kernel-firmware-20200107-150100.3.31.1",
            "SUSE Linux Enterprise High Performance Computing 15 SP1-LTSS:ucode-amd-20200107-150100.3.31.1",
            "SUSE Linux Enterprise High Performance Computing 15 SP2-ESPOS:kernel-firmware-20200107-150100.3.31.1",
            "SUSE Linux Enterprise High Performance Computing 15 SP2-ESPOS:ucode-amd-20200107-150100.3.31.1",
            "SUSE Linux Enterprise High Performance Computing 15 SP2-LTSS:kernel-firmware-20200107-150100.3.31.1",
            "SUSE Linux Enterprise High Performance Computing 15 SP2-LTSS:ucode-amd-20200107-150100.3.31.1",
            "SUSE Linux Enterprise Server 15 SP1-BCL:kernel-firmware-20200107-150100.3.31.1",
            "SUSE Linux Enterprise Server 15 SP1-BCL:ucode-amd-20200107-150100.3.31.1",
            "SUSE Linux Enterprise Server 15 SP1-LTSS:kernel-firmware-20200107-150100.3.31.1",
            "SUSE Linux Enterprise Server 15 SP1-LTSS:ucode-amd-20200107-150100.3.31.1",
            "SUSE Linux Enterprise Server 15 SP2-BCL:kernel-firmware-20200107-150100.3.31.1",
            "SUSE Linux Enterprise Server 15 SP2-BCL:ucode-amd-20200107-150100.3.31.1",
            "SUSE Linux Enterprise Server 15 SP2-LTSS:kernel-firmware-20200107-150100.3.31.1",
            "SUSE Linux Enterprise Server 15 SP2-LTSS:ucode-amd-20200107-150100.3.31.1",
            "SUSE Linux Enterprise Server for SAP Applications 15 SP1:kernel-firmware-20200107-150100.3.31.1",
            "SUSE Linux Enterprise Server for SAP Applications 15 SP1:ucode-amd-20200107-150100.3.31.1",
            "SUSE Linux Enterprise Server for SAP Applications 15 SP2:kernel-firmware-20200107-150100.3.31.1",
            "SUSE Linux Enterprise Server for SAP Applications 15 SP2:ucode-amd-20200107-150100.3.31.1",
            "SUSE Manager Proxy 4.1:kernel-firmware-20200107-150100.3.31.1",
            "SUSE Manager Proxy 4.1:ucode-amd-20200107-150100.3.31.1",
            "SUSE Manager Retail Branch Server 4.1:kernel-firmware-20200107-150100.3.31.1",
            "SUSE Manager Retail Branch Server 4.1:ucode-amd-20200107-150100.3.31.1",
            "SUSE Manager Server 4.1:kernel-firmware-20200107-150100.3.31.1",
            "SUSE Manager Server 4.1:ucode-amd-20200107-150100.3.31.1"
          ]
        }
      ],
      "CVSSScoreSets": {}
    },
    {
      "CVE": "CVE-2021-26375",
      "Description": "Insufficient General Purpose IO (GPIO) bounds check in System Management Unit (SMU) may result in access/updates from/to invalid address space that could result in denial of service.",
      "Threats": [
        {
          "Type": "Impact",
          "Severity": "moderate"
        }
      ],
      "References": [
        {
          "URL": "https://www.suse.com/security/cve/CVE-2021-26375.html",
          "Description": "CVE-2021-26375"
        }
      ],
      "ProductStatuses": [
        {
          "Type": "Fixed",
          "ProductID": [
            "Image SLES15-SP1-SAP-Azure-LI-BYOS-Production:kernel-firmware-20200107-150100.3.31.1",
            "Image SLES15-SP1-SAP-Azure-VLI-BYOS-Production:kernel-firmware-20200107-150100.3.31.1",
            "Image SLES15-SP2-SAP-Azure-LI-BYOS-Production:kernel-firmware-20200107-150100.3.31.1",
            "Image SLES15-SP2-SAP-Azure-VLI-BYOS-Production:kernel-firmware-20200107-150100.3.31.1",
            "SUSE Enterprise Storage 6:kernel-firmware-20200107-150100.3.31.1",
            "SUSE Enterprise Storage 6:ucode-amd-20200107-150100.3.31.1",
            "SUSE Enterprise Storage 7:kernel-firmware-20200107-150100.3.31.1",
            "SUSE Enterprise Storage 7:ucode-amd-20200107-150100.3.31.1",
            "SUSE Linux Enterprise High Performance Computing 15 SP1-ESPOS:kernel-firmware-20200107-150100.3.31.1",
            "SUSE Linux Enterprise High Performance Computing 15 SP1-ESPOS:ucode-amd-20200107-150100.3.31.1",
            "SUSE Linux Enterprise High Performance Computing 15 SP1-LTSS:kernel-firmware-20200107-150100.3.31.1",
            "SUSE Linux Enterprise High Performance Computing 15 SP1-LTSS:ucode-amd-20200107-150100.3.31.1",
            "SUSE Linux Enterprise High Performance Computing 15 SP2-ESPOS:kernel-firmware-20200107-150100.3.31.1",
            "SUSE Linux Enterprise High Performance Computing 15 SP2-ESPOS:ucode-amd-20200107-150100.3.31.1",
            "SUSE Linux Enterprise High Performance Computing 15 SP2-LTSS:kernel-firmware-20200107-150100.3.31.1",
            "SUSE Linux Enterprise High Performance Computing 15 SP2-LTSS:ucode-amd-20200107-150100.3.31.1",
            "SUSE Linux Enterprise Server 15 SP1-BCL:kernel-firmware-20200107-150100.3.31.1",
            "SUSE Linux Enterprise Server 15 SP1-BCL:ucode-amd-20200107-150100.3.31.1",
            "SUSE Linux Enterprise Server 15 SP1-LTSS:kernel-firmware-20200107-150100.3.31.1",
            "SUSE Linux Enterprise Server 15 SP1-LTSS:ucode-amd-20200107-150100.3.31.1",
            "SUSE Linux Enterprise Server 15 SP2-BCL:kernel-firmware-20200107-150100.3.31.1",
            "SUSE Linux Enterprise Server 15 SP2-BCL:ucode-amd-20200107-150100.3.31.1",
            "SUSE Linux Enterprise Server 15 SP2-LTSS:kernel-firmware-20200107-150100.3.31.1",
            "SUSE Linux Enterprise Server 15 SP2-LTSS:ucode-amd-20200107-150100.3.31.1",
            "SUSE Linux Enterprise Server for SAP Applications 15 SP1:kernel-firmware-20200107-150100.3.31.1",
            "SUSE Linux Enterprise Server for SAP Applications 15 SP1:ucode-amd-20200107-150100.3.31.1",
            "SUSE Linux Enterprise Server for SAP Applications 15 SP2:kernel-firmware-20200107-150100.3.31.1",
            "SUSE Linux Enterprise Server for SAP Applications 15 SP2:ucode-amd-20200107-150100.3.31.1",
            "SUSE Manager Proxy 4.1:kernel-firmware-20200107-150100.3.31.1",
            "SUSE Manager Proxy 4.1:ucode-amd-20200107-150100.3.31.1",
            "SUSE Manager Retail Branch Server 4.1:kernel-firmware-20200107-150100.3.31.1",
            "SUSE Manager Retail Branch Server 4.1:ucode-amd-20200107-150100.3.31.1",
            "SUSE Manager Server 4.1:kernel-firmware-20200107-150100.3.31.1",
            "SUSE Manager Server 4.1:ucode-amd-20200107-150100.3.31.1"
          ]
        }
      ],
      "CVSSScoreSets": {}
    },
    {
      "CVE": "CVE-2021-26376",
      "Description": "Insufficient checks in System Management Unit (SMU) FeatureConfig may result in reenabling features potentially resulting in denial of resources and/or denial of service.",
      "Threats": [
        {
          "Type": "Impact",
          "Severity": "moderate"
        }
      ],
      "References": [
        {
          "URL": "https://www.suse.com/security/cve/CVE-2021-26376.html",
          "Description": "CVE-2021-26376"
        }
      ],
      "ProductStatuses": [
        {
          "Type": "Fixed",
          "ProductID": [
            "Image SLES15-SP1-SAP-Azure-LI-BYOS-Production:kernel-firmware-20200107-150100.3.31.1",
            "Image SLES15-SP1-SAP-Azure-VLI-BYOS-Production:kernel-firmware-20200107-150100.3.31.1",
            "Image SLES15-SP2-SAP-Azure-LI-BYOS-Production:kernel-firmware-20200107-150100.3.31.1",
            "Image SLES15-SP2-SAP-Azure-VLI-BYOS-Production:kernel-firmware-20200107-150100.3.31.1",
            "SUSE Enterprise Storage 6:kernel-firmware-20200107-150100.3.31.1",
            "SUSE Enterprise Storage 6:ucode-amd-20200107-150100.3.31.1",
            "SUSE Enterprise Storage 7:kernel-firmware-20200107-150100.3.31.1",
            "SUSE Enterprise Storage 7:ucode-amd-20200107-150100.3.31.1",
            "SUSE Linux Enterprise High Performance Computing 15 SP1-ESPOS:kernel-firmware-20200107-150100.3.31.1",
            "SUSE Linux Enterprise High Performance Computing 15 SP1-ESPOS:ucode-amd-20200107-150100.3.31.1",
            "SUSE Linux Enterprise High Performance Computing 15 SP1-LTSS:kernel-firmware-20200107-150100.3.31.1",
            "SUSE Linux Enterprise High Performance Computing 15 SP1-LTSS:ucode-amd-20200107-150100.3.31.1",
            "SUSE Linux Enterprise High Performance Computing 15 SP2-ESPOS:kernel-firmware-20200107-150100.3.31.1",
            "SUSE Linux Enterprise High Performance Computing 15 SP2-ESPOS:ucode-amd-20200107-150100.3.31.1",
            "SUSE Linux Enterprise High Performance Computing 15 SP2-LTSS:kernel-firmware-20200107-150100.3.31.1",
            "SUSE Linux Enterprise High Performance Computing 15 SP2-LTSS:ucode-amd-20200107-150100.3.31.1",
            "SUSE Linux Enterprise Server 15 SP1-BCL:kernel-firmware-20200107-150100.3.31.1",
            "SUSE Linux Enterprise Server 15 SP1-BCL:ucode-amd-20200107-150100.3.31.1",
            "SUSE Linux Enterprise Server 15 SP1-LTSS:kernel-firmware-20200107-150100.3.31.1",
            "SUSE Linux Enterprise Server 15 SP1-LTSS:ucode-amd-20200107-150100.3.31.1",
            "SUSE Linux Enterprise Server 15 SP2-BCL:kernel-firmware-20200107-150100.3.31.1",
            "SUSE Linux Enterprise Server 15 SP2-BCL:ucode-amd-20200107-150100.3.31.1",
            "SUSE Linux Enterprise Server 15 SP2-LTSS:kernel-firmware-20200107-150100.3.31.1",
            "SUSE Linux Enterprise Server 15 SP2-LTSS:ucode-amd-20200107-150100.3.31.1",
            "SUSE Linux Enterprise Server for SAP Applications 15 SP1:kernel-firmware-20200107-150100.3.31.1",
            "SUSE Linux Enterprise Server for SAP Applications 15 SP1:ucode-amd-20200107-150100.3.31.1",
            "SUSE Linux Enterprise Server for SAP Applications 15 SP2:kernel-firmware-20200107-150100.3.31.1",
            "SUSE Linux Enterprise Server for SAP Applications 15 SP2:ucode-amd-20200107-150100.3.31.1",
            "SUSE Manager Proxy 4.1:kernel-firmware-20200107-150100.3.31.1",
            "SUSE Manager Proxy 4.1:ucode-amd-20200107-150100.3.31.1",
            "SUSE Manager Retail Branch Server 4.1:kernel-firmware-20200107-150100.3.31.1",
            "SUSE Manager Retail Branch Server 4.1:ucode-amd-20200107-150100.3.31.1",
            "SUSE Manager Server 4.1:kernel-firmware-20200107-150100.3.31.1",
            "SUSE Manager Server 4.1:ucode-amd-20200107-150100.3.31.1"
          ]
        }
      ],
      "CVSSScoreSets": {}
    },
    {
      "CVE": "CVE-2021-26378",
      "Description": "Insufficient bound checks in the System Management Unit (SMU) may result in access to an invalid address space that could result in denial of service.",
      "Threats": [
        {
          "Type": "Impact",
          "Severity": "moderate"
        }
      ],
      "References": [
        {
          "URL": "https://www.suse.com/security/cve/CVE-2021-26378.html",
          "Description": "CVE-2021-26378"
        }
      ],
      "ProductStatuses": [
        {
          "Type": "Fixed",
          "ProductID": [
            "Image SLES15-SP1-SAP-Azure-LI-BYOS-Production:kernel-firmware-20200107-150100.3.31.1",
            "Image SLES15-SP1-SAP-Azure-VLI-BYOS-Production:kernel-firmware-20200107-150100.3.31.1",
            "Image SLES15-SP2-SAP-Azure-LI-BYOS-Production:kernel-firmware-20200107-150100.3.31.1",
            "Image SLES15-SP2-SAP-Azure-VLI-BYOS-Production:kernel-firmware-20200107-150100.3.31.1",
            "SUSE Enterprise Storage 6:kernel-firmware-20200107-150100.3.31.1",
            "SUSE Enterprise Storage 6:ucode-amd-20200107-150100.3.31.1",
            "SUSE Enterprise Storage 7:kernel-firmware-20200107-150100.3.31.1",
            "SUSE Enterprise Storage 7:ucode-amd-20200107-150100.3.31.1",
            "SUSE Linux Enterprise High Performance Computing 15 SP1-ESPOS:kernel-firmware-20200107-150100.3.31.1",
            "SUSE Linux Enterprise High Performance Computing 15 SP1-ESPOS:ucode-amd-20200107-150100.3.31.1",
            "SUSE Linux Enterprise High Performance Computing 15 SP1-LTSS:kernel-firmware-20200107-150100.3.31.1",
            "SUSE Linux Enterprise High Performance Computing 15 SP1-LTSS:ucode-amd-20200107-150100.3.31.1",
            "SUSE Linux Enterprise High Performance Computing 15 SP2-ESPOS:kernel-firmware-20200107-150100.3.31.1",
            "SUSE Linux Enterprise High Performance Computing 15 SP2-ESPOS:ucode-amd-20200107-150100.3.31.1",
            "SUSE Linux Enterprise High Performance Computing 15 SP2-LTSS:kernel-firmware-20200107-150100.3.31.1",
            "SUSE Linux Enterprise High Performance Computing 15 SP2-LTSS:ucode-amd-20200107-150100.3.31.1",
            "SUSE Linux Enterprise Server 15 SP1-BCL:kernel-firmware-20200107-150100.3.31.1",
            "SUSE Linux Enterprise Server 15 SP1-BCL:ucode-amd-20200107-150100.3.31.1",
            "SUSE Linux Enterprise Server 15 SP1-LTSS:kernel-firmware-20200107-150100.3.31.1",
            "SUSE Linux Enterprise Server 15 SP1-LTSS:ucode-amd-20200107-150100.3.31.1",
            "SUSE Linux Enterprise Server 15 SP2-BCL:kernel-firmware-20200107-150100.3.31.1",
            "SUSE Linux Enterprise Server 15 SP2-BCL:ucode-amd-20200107-150100.3.31.1",
            "SUSE Linux Enterprise Server 15 SP2-LTSS:kernel-firmware-20200107-150100.3.31.1",
            "SUSE Linux Enterprise Server 15 SP2-LTSS:ucode-amd-20200107-150100.3.31.1",
            "SUSE Linux Enterprise Server for SAP Applications 15 SP1:kernel-firmware-20200107-150100.3.31.1",
            "SUSE Linux Enterprise Server for SAP Applications 15 SP1:ucode-amd-20200107-150100.3.31.1",
            "SUSE Linux Enterprise Server for SAP Applications 15 SP2:kernel-firmware-20200107-150100.3.31.1",
            "SUSE Linux Enterprise Server for SAP Applications 15 SP2:ucode-amd-20200107-150100.3.31.1",
            "SUSE Manager Proxy 4.1:kernel-firmware-20200107-150100.3.31.1",
            "SUSE Manager Proxy 4.1:ucode-amd-20200107-150100.3.31.1",
            "SUSE Manager Retail Branch Server 4.1:kernel-firmware-20200107-150100.3.31.1",
            "SUSE Manager Retail Branch Server 4.1:ucode-amd-20200107-150100.3.31.1",
            "SUSE Manager Server 4.1:kernel-firmware-20200107-150100.3.31.1",
            "SUSE Manager Server 4.1:ucode-amd-20200107-150100.3.31.1"
          ]
        }
      ],
      "CVSSScoreSets": {}
    },
    {
      "CVE": "CVE-2021-26388",
      "Description": "Improper validation of the BIOS directory may allow for searches to read beyond the directory table copy in RAM, exposing out of bounds memory contents, resulting in a potential denial of service.",
      "Threats": [
        {
          "Type": "Impact",
          "Severity": "moderate"
        }
      ],
      "References": [
        {
          "URL": "https://www.suse.com/security/cve/CVE-2021-26388.html",
          "Description": "CVE-2021-26388"
        }
      ],
      "ProductStatuses": [
        {
          "Type": "Fixed",
          "ProductID": [
            "Image SLES15-SP1-SAP-Azure-LI-BYOS-Production:kernel-firmware-20200107-150100.3.31.1",
            "Image SLES15-SP1-SAP-Azure-VLI-BYOS-Production:kernel-firmware-20200107-150100.3.31.1",
            "Image SLES15-SP2-SAP-Azure-LI-BYOS-Production:kernel-firmware-20200107-150100.3.31.1",
            "Image SLES15-SP2-SAP-Azure-VLI-BYOS-Production:kernel-firmware-20200107-150100.3.31.1",
            "SUSE Enterprise Storage 6:kernel-firmware-20200107-150100.3.31.1",
            "SUSE Enterprise Storage 6:ucode-amd-20200107-150100.3.31.1",
            "SUSE Enterprise Storage 7:kernel-firmware-20200107-150100.3.31.1",
            "SUSE Enterprise Storage 7:ucode-amd-20200107-150100.3.31.1",
            "SUSE Linux Enterprise High Performance Computing 15 SP1-ESPOS:kernel-firmware-20200107-150100.3.31.1",
            "SUSE Linux Enterprise High Performance Computing 15 SP1-ESPOS:ucode-amd-20200107-150100.3.31.1",
            "SUSE Linux Enterprise High Performance Computing 15 SP1-LTSS:kernel-firmware-20200107-150100.3.31.1",
            "SUSE Linux Enterprise High Performance Computing 15 SP1-LTSS:ucode-amd-20200107-150100.3.31.1",
            "SUSE Linux Enterprise High Performance Computing 15 SP2-ESPOS:kernel-firmware-20200107-150100.3.31.1",
            "SUSE Linux Enterprise High Performance Computing 15 SP2-ESPOS:ucode-amd-20200107-150100.3.31.1",
            "SUSE Linux Enterprise High Performance Computing 15 SP2-LTSS:kernel-firmware-20200107-150100.3.31.1",
            "SUSE Linux Enterprise High Performance Computing 15 SP2-LTSS:ucode-amd-20200107-150100.3.31.1",
            "SUSE Linux Enterprise Server 15 SP1-BCL:kernel-firmware-20200107-150100.3.31.1",
            "SUSE Linux Enterprise Server 15 SP1-BCL:ucode-amd-20200107-150100.3.31.1",
            "SUSE Linux Enterprise Server 15 SP1-LTSS:kernel-firmware-20200107-150100.3.31.1",
            "SUSE Linux Enterprise Server 15 SP1-LTSS:ucode-amd-20200107-150100.3.31.1",
            "SUSE Linux Enterprise Server 15 SP2-BCL:kernel-firmware-20200107-150100.3.31.1",
            "SUSE Linux Enterprise Server 15 SP2-BCL:ucode-amd-20200107-150100.3.31.1",
            "SUSE Linux Enterprise Server 15 SP2-LTSS:kernel-firmware-20200107-150100.3.31.1",
            "SUSE Linux Enterprise Server 15 SP2-LTSS:ucode-amd-20200107-150100.3.31.1",
            "SUSE Linux Enterprise Server for SAP Applications 15 SP1:kernel-firmware-20200107-150100.3.31.1",
            "SUSE Linux Enterprise Server for SAP Applications 15 SP1:ucode-amd-20200107-150100.3.31.1",
            "SUSE Linux Enterprise Server for SAP Applications 15 SP2:kernel-firmware-20200107-150100.3.31.1",
            "SUSE Linux Enterprise Server for SAP Applications 15 SP2:ucode-amd-20200107-150100.3.31.1",
            "SUSE Manager Proxy 4.1:kernel-firmware-20200107-150100.3.31.1",
            "SUSE Manager Proxy 4.1:ucode-amd-20200107-150100.3.31.1",
            "SUSE Manager Retail Branch Server 4.1:kernel-firmware-20200107-150100.3.31.1",
            "SUSE Manager Retail Branch Server 4.1:ucode-amd-20200107-150100.3.31.1",
            "SUSE Manager Server 4.1:kernel-firmware-20200107-150100.3.31.1",
            "SUSE Manager Server 4.1:ucode-amd-20200107-150100.3.31.1"
          ]
        }
      ],
      "CVSSScoreSets": {}
    },
    {
      "CVE": "CVE-2021-33139",
      "Description": "Improper conditions check in firmware for some Intel(R) Wireless Bluetooth(R) and Killer(TM) Bluetooth(R) products before version 22.100 may allow an authenticated user to potentially enable denial of service via adjacent access.",
      "Threats": [
        {
          "Type": "Impact",
          "Severity": "moderate"
        }
      ],
      "References": [
        {
          "URL": "https://www.suse.com/security/cve/CVE-2021-33139.html",
          "Description": "CVE-2021-33139"
        },
        {
          "URL": "https://bugzilla.suse.com/1195786",
          "Description": "SUSE Bug 1195786"
        }
      ],
      "ProductStatuses": [
        {
          "Type": "Fixed",
          "ProductID": [
            "Image SLES15-SP1-SAP-Azure-LI-BYOS-Production:kernel-firmware-20200107-150100.3.31.1",
            "Image SLES15-SP1-SAP-Azure-VLI-BYOS-Production:kernel-firmware-20200107-150100.3.31.1",
            "Image SLES15-SP2-SAP-Azure-LI-BYOS-Production:kernel-firmware-20200107-150100.3.31.1",
            "Image SLES15-SP2-SAP-Azure-VLI-BYOS-Production:kernel-firmware-20200107-150100.3.31.1",
            "SUSE Enterprise Storage 6:kernel-firmware-20200107-150100.3.31.1",
            "SUSE Enterprise Storage 6:ucode-amd-20200107-150100.3.31.1",
            "SUSE Enterprise Storage 7:kernel-firmware-20200107-150100.3.31.1",
            "SUSE Enterprise Storage 7:ucode-amd-20200107-150100.3.31.1",
            "SUSE Linux Enterprise High Performance Computing 15 SP1-ESPOS:kernel-firmware-20200107-150100.3.31.1",
            "SUSE Linux Enterprise High Performance Computing 15 SP1-ESPOS:ucode-amd-20200107-150100.3.31.1",
            "SUSE Linux Enterprise High Performance Computing 15 SP1-LTSS:kernel-firmware-20200107-150100.3.31.1",
            "SUSE Linux Enterprise High Performance Computing 15 SP1-LTSS:ucode-amd-20200107-150100.3.31.1",
            "SUSE Linux Enterprise High Performance Computing 15 SP2-ESPOS:kernel-firmware-20200107-150100.3.31.1",
            "SUSE Linux Enterprise High Performance Computing 15 SP2-ESPOS:ucode-amd-20200107-150100.3.31.1",
            "SUSE Linux Enterprise High Performance Computing 15 SP2-LTSS:kernel-firmware-20200107-150100.3.31.1",
            "SUSE Linux Enterprise High Performance Computing 15 SP2-LTSS:ucode-amd-20200107-150100.3.31.1",
            "SUSE Linux Enterprise Server 15 SP1-BCL:kernel-firmware-20200107-150100.3.31.1",
            "SUSE Linux Enterprise Server 15 SP1-BCL:ucode-amd-20200107-150100.3.31.1",
            "SUSE Linux Enterprise Server 15 SP1-LTSS:kernel-firmware-20200107-150100.3.31.1",
            "SUSE Linux Enterprise Server 15 SP1-LTSS:ucode-amd-20200107-150100.3.31.1",
            "SUSE Linux Enterprise Server 15 SP2-BCL:kernel-firmware-20200107-150100.3.31.1",
            "SUSE Linux Enterprise Server 15 SP2-BCL:ucode-amd-20200107-150100.3.31.1",
            "SUSE Linux Enterprise Server 15 SP2-LTSS:kernel-firmware-20200107-150100.3.31.1",
            "SUSE Linux Enterprise Server 15 SP2-LTSS:ucode-amd-20200107-150100.3.31.1",
            "SUSE Linux Enterprise Server for SAP Applications 15 SP1:kernel-firmware-20200107-150100.3.31.1",
            "SUSE Linux Enterprise Server for SAP Applications 15 SP1:ucode-amd-20200107-150100.3.31.1",
            "SUSE Linux Enterprise Server for SAP Applications 15 SP2:kernel-firmware-20200107-150100.3.31.1",
            "SUSE Linux Enterprise Server for SAP Applications 15 SP2:ucode-amd-20200107-150100.3.31.1",
            "SUSE Manager Proxy 4.1:kernel-firmware-20200107-150100.3.31.1",
            "SUSE Manager Proxy 4.1:ucode-amd-20200107-150100.3.31.1",
            "SUSE Manager Retail Branch Server 4.1:kernel-firmware-20200107-150100.3.31.1",
            "SUSE Manager Retail Branch Server 4.1:ucode-amd-20200107-150100.3.31.1",
            "SUSE Manager Server 4.1:kernel-firmware-20200107-150100.3.31.1",
            "SUSE Manager Server 4.1:ucode-amd-20200107-150100.3.31.1"
          ]
        }
      ],
      "CVSSScoreSets": {}
    },
    {
      "CVE": "CVE-2021-33155",
      "Description": "Improper input validation in firmware for some Intel(R) Wireless Bluetooth(R) and Killer(TM) Bluetooth(R) products before version 22.100 may allow an authenticated user to potentially enable denial of service via adjacent access.",
      "Threats": [
        {
          "Type": "Impact",
          "Severity": "moderate"
        }
      ],
      "References": [
        {
          "URL": "https://www.suse.com/security/cve/CVE-2021-33155.html",
          "Description": "CVE-2021-33155"
        },
        {
          "URL": "https://bugzilla.suse.com/1195786",
          "Description": "SUSE Bug 1195786"
        }
      ],
      "ProductStatuses": [
        {
          "Type": "Fixed",
          "ProductID": [
            "Image SLES15-SP1-SAP-Azure-LI-BYOS-Production:kernel-firmware-20200107-150100.3.31.1",
            "Image SLES15-SP1-SAP-Azure-VLI-BYOS-Production:kernel-firmware-20200107-150100.3.31.1",
            "Image SLES15-SP2-SAP-Azure-LI-BYOS-Production:kernel-firmware-20200107-150100.3.31.1",
            "Image SLES15-SP2-SAP-Azure-VLI-BYOS-Production:kernel-firmware-20200107-150100.3.31.1",
            "SUSE Enterprise Storage 6:kernel-firmware-20200107-150100.3.31.1",
            "SUSE Enterprise Storage 6:ucode-amd-20200107-150100.3.31.1",
            "SUSE Enterprise Storage 7:kernel-firmware-20200107-150100.3.31.1",
            "SUSE Enterprise Storage 7:ucode-amd-20200107-150100.3.31.1",
            "SUSE Linux Enterprise High Performance Computing 15 SP1-ESPOS:kernel-firmware-20200107-150100.3.31.1",
            "SUSE Linux Enterprise High Performance Computing 15 SP1-ESPOS:ucode-amd-20200107-150100.3.31.1",
            "SUSE Linux Enterprise High Performance Computing 15 SP1-LTSS:kernel-firmware-20200107-150100.3.31.1",
            "SUSE Linux Enterprise High Performance Computing 15 SP1-LTSS:ucode-amd-20200107-150100.3.31.1",
            "SUSE Linux Enterprise High Performance Computing 15 SP2-ESPOS:kernel-firmware-20200107-150100.3.31.1",
            "SUSE Linux Enterprise High Performance Computing 15 SP2-ESPOS:ucode-amd-20200107-150100.3.31.1",
            "SUSE Linux Enterprise High Performance Computing 15 SP2-LTSS:kernel-firmware-20200107-150100.3.31.1",
            "SUSE Linux Enterprise High Performance Computing 15 SP2-LTSS:ucode-amd-20200107-150100.3.31.1",
            "SUSE Linux Enterprise Server 15 SP1-BCL:kernel-firmware-20200107-150100.3.31.1",
            "SUSE Linux Enterprise Server 15 SP1-BCL:ucode-amd-20200107-150100.3.31.1",
            "SUSE Linux Enterprise Server 15 SP1-LTSS:kernel-firmware-20200107-150100.3.31.1",
            "SUSE Linux Enterprise Server 15 SP1-LTSS:ucode-amd-20200107-150100.3.31.1",
            "SUSE Linux Enterprise Server 15 SP2-BCL:kernel-firmware-20200107-150100.3.31.1",
            "SUSE Linux Enterprise Server 15 SP2-BCL:ucode-amd-20200107-150100.3.31.1",
            "SUSE Linux Enterprise Server 15 SP2-LTSS:kernel-firmware-20200107-150100.3.31.1",
            "SUSE Linux Enterprise Server 15 SP2-LTSS:ucode-amd-20200107-150100.3.31.1",
            "SUSE Linux Enterprise Server for SAP Applications 15 SP1:kernel-firmware-20200107-150100.3.31.1",
            "SUSE Linux Enterprise Server for SAP Applications 15 SP1:ucode-amd-20200107-150100.3.31.1",
            "SUSE Linux Enterprise Server for SAP Applications 15 SP2:kernel-firmware-20200107-150100.3.31.1",
            "SUSE Linux Enterprise Server for SAP Applications 15 SP2:ucode-amd-20200107-150100.3.31.1",
            "SUSE Manager Proxy 4.1:kernel-firmware-20200107-150100.3.31.1",
            "SUSE Manager Proxy 4.1:ucode-amd-20200107-150100.3.31.1",
            "SUSE Manager Retail Branch Server 4.1:kernel-firmware-20200107-150100.3.31.1",
            "SUSE Manager Retail Branch Server 4.1:ucode-amd-20200107-150100.3.31.1",
            "SUSE Manager Server 4.1:kernel-firmware-20200107-150100.3.31.1",
            "SUSE Manager Server 4.1:ucode-amd-20200107-150100.3.31.1"
          ]
        }
      ],
      "CVSSScoreSets": {}
    },
    {
      "CVE": "CVE-2021-46744",
      "Description": "An attacker with access to a malicious hypervisor may be able to infer data values used in a SEV guest on AMD CPUs by monitoring ciphertext values over time.",
      "Threats": [
        {
          "Type": "Impact",
          "Severity": "moderate"
        }
      ],
      "References": [
        {
          "URL": "https://www.suse.com/security/cve/CVE-2021-46744.html",
          "Description": "CVE-2021-46744"
        },
        {
          "URL": "https://bugzilla.suse.com/1199470",
          "Description": "SUSE Bug 1199470"
        }
      ],
      "ProductStatuses": [
        {
          "Type": "Fixed",
          "ProductID": [
            "Image SLES15-SP1-SAP-Azure-LI-BYOS-Production:kernel-firmware-20200107-150100.3.31.1",
            "Image SLES15-SP1-SAP-Azure-VLI-BYOS-Production:kernel-firmware-20200107-150100.3.31.1",
            "Image SLES15-SP2-SAP-Azure-LI-BYOS-Production:kernel-firmware-20200107-150100.3.31.1",
            "Image SLES15-SP2-SAP-Azure-VLI-BYOS-Production:kernel-firmware-20200107-150100.3.31.1",
            "SUSE Enterprise Storage 6:kernel-firmware-20200107-150100.3.31.1",
            "SUSE Enterprise Storage 6:ucode-amd-20200107-150100.3.31.1",
            "SUSE Enterprise Storage 7:kernel-firmware-20200107-150100.3.31.1",
            "SUSE Enterprise Storage 7:ucode-amd-20200107-150100.3.31.1",
            "SUSE Linux Enterprise High Performance Computing 15 SP1-ESPOS:kernel-firmware-20200107-150100.3.31.1",
            "SUSE Linux Enterprise High Performance Computing 15 SP1-ESPOS:ucode-amd-20200107-150100.3.31.1",
            "SUSE Linux Enterprise High Performance Computing 15 SP1-LTSS:kernel-firmware-20200107-150100.3.31.1",
            "SUSE Linux Enterprise High Performance Computing 15 SP1-LTSS:ucode-amd-20200107-150100.3.31.1",
            "SUSE Linux Enterprise High Performance Computing 15 SP2-ESPOS:kernel-firmware-20200107-150100.3.31.1",
            "SUSE Linux Enterprise High Performance Computing 15 SP2-ESPOS:ucode-amd-20200107-150100.3.31.1",
            "SUSE Linux Enterprise High Performance Computing 15 SP2-LTSS:kernel-firmware-20200107-150100.3.31.1",
            "SUSE Linux Enterprise High Performance Computing 15 SP2-LTSS:ucode-amd-20200107-150100.3.31.1",
            "SUSE Linux Enterprise Server 15 SP1-BCL:kernel-firmware-20200107-150100.3.31.1",
            "SUSE Linux Enterprise Server 15 SP1-BCL:ucode-amd-20200107-150100.3.31.1",
            "SUSE Linux Enterprise Server 15 SP1-LTSS:kernel-firmware-20200107-150100.3.31.1",
            "SUSE Linux Enterprise Server 15 SP1-LTSS:ucode-amd-20200107-150100.3.31.1",
            "SUSE Linux Enterprise Server 15 SP2-BCL:kernel-firmware-20200107-150100.3.31.1",
            "SUSE Linux Enterprise Server 15 SP2-BCL:ucode-amd-20200107-150100.3.31.1",
            "SUSE Linux Enterprise Server 15 SP2-LTSS:kernel-firmware-20200107-150100.3.31.1",
            "SUSE Linux Enterprise Server 15 SP2-LTSS:ucode-amd-20200107-150100.3.31.1",
            "SUSE Linux Enterprise Server for SAP Applications 15 SP1:kernel-firmware-20200107-150100.3.31.1",
            "SUSE Linux Enterprise Server for SAP Applications 15 SP1:ucode-amd-20200107-150100.3.31.1",
            "SUSE Linux Enterprise Server for SAP Applications 15 SP2:kernel-firmware-20200107-150100.3.31.1",
            "SUSE Linux Enterprise Server for SAP Applications 15 SP2:ucode-amd-20200107-150100.3.31.1",
            "SUSE Manager Proxy 4.1:kernel-firmware-20200107-150100.3.31.1",
            "SUSE Manager Proxy 4.1:ucode-amd-20200107-150100.3.31.1",
            "SUSE Manager Retail Branch Server 4.1:kernel-firmware-20200107-150100.3.31.1",
            "SUSE Manager Retail Branch Server 4.1:ucode-amd-20200107-150100.3.31.1",
            "SUSE Manager Server 4.1:kernel-firmware-20200107-150100.3.31.1",
            "SUSE Manager Server 4.1:ucode-amd-20200107-150100.3.31.1"
          ]
        }
      ],
      "CVSSScoreSets": {}
    }
  ]
}