{
  "Title": "Security update for pcre2",
  "Tracking": {
    "ID": "SUSE-SU-2022:2566-1",
    "Status": "Final",
    "Version": "1",
    "InitialReleaseDate": "2022-07-27T13:05:03Z",
    "CurrentReleaseDate": "2022-07-27T13:05:03Z",
    "RevisionHistory": [
      {
        "Number": "1",
        "Date": "2022-07-27T13:05:03Z",
        "Description": "current"
      }
    ]
  },
  "Notes": [
    {
      "Text": "Security update for pcre2",
      "Title": "Topic",
      "Type": "Summary"
    },
    {
      "Text": "This update for pcre2 fixes the following issues:\n\n- CVE-2022-1587: Fixed out-of-bounds read due to bug in recursions (bsc#1199235).\n",
      "Title": "Details",
      "Type": "General"
    },
    {
      "Text": "The CVRF data is provided by SUSE under the Creative Commons License 4.0 with Attribution (CC-BY-4.0).",
      "Title": "Terms of Use",
      "Type": "Legal Disclaimer"
    },
    {
      "Text": "Container bci/golang:1.16-2022-2566,Container bci/golang:1.17-2022-2566,Container bci/golang:1.18-2022-2566,Container bci/golang:1.19-2022-2566,Container bci/golang:1.20-openssl-2022-2566,Container bci/golang:1.21-2022-2566,Container bci/golang:latest-2022-2566,Container bci/node:14-2022-2566,Container bci/node:16-2022-2566,Container bci/node:18-2022-2566,Container bci/nodejs:latest-2022-2566,Container bci/openjdk-devel:11-2022-2566,Container bci/openjdk-devel:latest-2022-2566,Container bci/php-apache:8-2022-2566,Container bci/php-apache:latest-2022-2566,Container bci/php-fpm:8-2022-2566,Container bci/php-fpm:latest-2022-2566,Container bci/php:8-2022-2566,Container bci/php:latest-2022-2566,Container bci/python:3-2022-2566,Container bci/python:latest-2022-2566,Container bci/ruby:latest-2022-2566,Container rancher/elemental-teal-iso/5.4:latest-2022-2566,Container rancher/elemental-teal-rt/5.4:latest-2022-2566,Container rancher/elemental-teal/5.4:latest-2022-2566,Container suse/389-ds:latest-2022-2566,Container suse/git:latest-2022-2566,Container suse/nginx:latest-2022-2566,Container suse/rmt-mariadb:latest-2022-2566,Container suse/rmt-nginx:latest-2022-2566,Container suse/sle-micro-rancher/5.4:latest-2022-2566,Container suse/sle-micro/5.4/toolbox:latest-2022-2566,Container suse/sle-micro/5.5:latest-2022-2566,Container suse/sle-micro/kvm-5.5:latest-2022-2566,Container suse/sle-micro/rt-5.5:latest-2022-2566,Container suse/sles/15.5/libguestfs-tools:0.58.0-2022-2566,Image SLES15-SP4-2022-2566,Image SLES15-SP4-Azure-Basic-2022-2566,Image SLES15-SP4-Azure-Standard-2022-2566,Image SLES15-SP4-BYOS-2022-2566,Image SLES15-SP4-BYOS-Azure-2022-2566,Image SLES15-SP4-BYOS-EC2-2022-2566,Image SLES15-SP4-BYOS-GCE-2022-2566,Image SLES15-SP4-CHOST-BYOS-2022-2566,Image SLES15-SP4-CHOST-BYOS-Aliyun-2022-2566,Image SLES15-SP4-CHOST-BYOS-Azure-2022-2566,Image SLES15-SP4-CHOST-BYOS-EC2-2022-2566,Image SLES15-SP4-CHOST-BYOS-GCE-2022-2566,Image SLES15-SP4-CHOST-BYOS-SAP-CCloud-2022-2566,Image SLES15-SP4-EC2-2022-2566,Image SLES15-SP4-EC2-ECS-HVM-2022-2566,Image SLES15-SP4-GCE-2022-2566,Image SLES15-SP4-HPC-2022-2566,Image SLES15-SP4-HPC-Azure-2022-2566,Image SLES15-SP4-HPC-BYOS-2022-2566,Image SLES15-SP4-HPC-BYOS-Azure-2022-2566,Image SLES15-SP4-HPC-BYOS-EC2-2022-2566,Image SLES15-SP4-HPC-BYOS-GCE-2022-2566,Image SLES15-SP4-HPC-EC2-2022-2566,Image SLES15-SP4-HPC-GCE-2022-2566,Image SLES15-SP4-Hardened-BYOS-2022-2566,Image SLES15-SP4-Hardened-BYOS-Azure-2022-2566,Image SLES15-SP4-Hardened-BYOS-EC2-2022-2566,Image SLES15-SP4-Hardened-BYOS-GCE-2022-2566,Image SLES15-SP4-Manager-Proxy-4-3-BYOS-2022-2566,Image SLES15-SP4-Manager-Proxy-4-3-BYOS-Azure-2022-2566,Image SLES15-SP4-Manager-Proxy-4-3-BYOS-EC2-2022-2566,Image SLES15-SP4-Manager-Proxy-4-3-BYOS-GCE-2022-2566,Image SLES15-SP4-Manager-Server-4-3-2022-2566,Image SLES15-SP4-Manager-Server-4-3-Azure-llc-2022-2566,Image SLES15-SP4-Manager-Server-4-3-Azure-ltd-2022-2566,Image SLES15-SP4-Manager-Server-4-3-BYOS-2022-2566,Image SLES15-SP4-Manager-Server-4-3-BYOS-Azure-2022-2566,Image SLES15-SP4-Manager-Server-4-3-BYOS-EC2-2022-2566,Image SLES15-SP4-Manager-Server-4-3-BYOS-GCE-2022-2566,Image SLES15-SP4-Manager-Server-4-3-EC2-llc-2022-2566,Image SLES15-SP4-Manager-Server-4-3-EC2-ltd-2022-2566,Image SLES15-SP4-Micro-5-4-2022-2566,Image SLES15-SP4-Micro-5-4-Azure-2022-2566,Image SLES15-SP4-Micro-5-4-BYOS-2022-2566,Image SLES15-SP4-Micro-5-4-BYOS-Azure-2022-2566,Image SLES15-SP4-Micro-5-4-BYOS-EC2-2022-2566,Image SLES15-SP4-Micro-5-4-BYOS-GCE-2022-2566,Image SLES15-SP4-Micro-5-4-EC2-2022-2566,Image SLES15-SP4-Micro-5-4-GCE-2022-2566,Image SLES15-SP4-SAP-2022-2566,Image SLES15-SP4-SAP-Azure-2022-2566,Image SLES15-SP4-SAP-Azure-LI-BYOS-2022-2566,Image SLES15-SP4-SAP-Azure-LI-BYOS-Production-2022-2566,Image SLES15-SP4-SAP-Azure-VLI-BYOS-2022-2566,Image SLES15-SP4-SAP-Azure-VLI-BYOS-Production-2022-2566,Image SLES15-SP4-SAP-BYOS-2022-2566,Image SLES15-SP4-SAP-BYOS-Azure-2022-2566,Image SLES15-SP4-SAP-BYOS-EC2-2022-2566,Image SLES15-SP4-SAP-BYOS-GCE-2022-2566,Image SLES15-SP4-SAP-EC2-2022-2566,Image SLES15-SP4-SAP-GCE-2022-2566,Image SLES15-SP4-SAP-Hardened-2022-2566,Image SLES15-SP4-SAP-Hardened-Azure-2022-2566,Image SLES15-SP4-SAP-Hardened-BYOS-2022-2566,Image SLES15-SP4-SAP-Hardened-BYOS-Azure-2022-2566,Image SLES15-SP4-SAP-Hardened-BYOS-EC2-2022-2566,Image SLES15-SP4-SAP-Hardened-BYOS-GCE-2022-2566,Image SLES15-SP4-SAP-Hardened-EC2-2022-2566,Image SLES15-SP4-SAP-Hardened-GCE-2022-2566,Image SLES15-SP4-SAPCAL-2022-2566,Image SLES15-SP4-SAPCAL-Azure-2022-2566,Image SLES15-SP4-SAPCAL-EC2-2022-2566,Image SLES15-SP4-SAPCAL-GCE-2022-2566,Image SLES15-SP4-SUSE-Rancher-Setup-BYOS-2022-2566,Image SLES15-SP4-SUSE-Rancher-Setup-BYOS-EC2-2022-2566,Image SLES15-SP4-SUSE-Rancher-Setup-BYOS-EC2-HVM-2022-2566,Image SLES15-SP5-Azure-Basic-2022-2566,Image SLES15-SP5-Azure-Standard-2022-2566,Image SLES15-SP5-BYOS-Azure-2022-2566,Image SLES15-SP5-BYOS-EC2-2022-2566,Image SLES15-SP5-BYOS-GCE-2022-2566,Image SLES15-SP5-CHOST-BYOS-Aliyun-2022-2566,Image SLES15-SP5-CHOST-BYOS-Azure-2022-2566,Image SLES15-SP5-CHOST-BYOS-EC2-2022-2566,Image SLES15-SP5-CHOST-BYOS-GCE-2022-2566,Image SLES15-SP5-CHOST-BYOS-SAP-CCloud-2022-2566,Image SLES15-SP5-EC2-2022-2566,Image SLES15-SP5-EC2-ECS-HVM-2022-2566,Image SLES15-SP5-GCE-2022-2566,Image SLES15-SP5-HPC-Azure-2022-2566,Image SLES15-SP5-HPC-BYOS-Azure-2022-2566,Image SLES15-SP5-HPC-BYOS-EC2-2022-2566,Image SLES15-SP5-HPC-BYOS-GCE-2022-2566,Image SLES15-SP5-HPC-EC2-2022-2566,Image SLES15-SP5-HPC-GCE-2022-2566,Image SLES15-SP5-Hardened-BYOS-Azure-2022-2566,Image SLES15-SP5-Hardened-BYOS-EC2-2022-2566,Image SLES15-SP5-Hardened-BYOS-GCE-2022-2566,Image SLES15-SP5-Micro-5-5-2022-2566,Image SLES15-SP5-Micro-5-5-Azure-2022-2566,Image SLES15-SP5-Micro-5-5-BYOS-2022-2566,Image SLES15-SP5-Micro-5-5-BYOS-Azure-2022-2566,Image SLES15-SP5-Micro-5-5-BYOS-EC2-2022-2566,Image SLES15-SP5-Micro-5-5-BYOS-GCE-2022-2566,Image SLES15-SP5-Micro-5-5-EC2-2022-2566,Image SLES15-SP5-Micro-5-5-GCE-2022-2566,Image SLES15-SP5-SAP-Azure-2022-2566,Image SLES15-SP5-SAP-Azure-LI-BYOS-2022-2566,Image SLES15-SP5-SAP-Azure-LI-BYOS-Production-2022-2566,Image SLES15-SP5-SAP-Azure-VLI-BYOS-2022-2566,Image SLES15-SP5-SAP-Azure-VLI-BYOS-Production-2022-2566,Image SLES15-SP5-SAP-BYOS-Azure-2022-2566,Image SLES15-SP5-SAP-BYOS-EC2-2022-2566,Image SLES15-SP5-SAP-BYOS-GCE-2022-2566,Image SLES15-SP5-SAP-EC2-2022-2566,Image SLES15-SP5-SAP-GCE-2022-2566,Image SLES15-SP5-SAP-Hardened-Azure-2022-2566,Image SLES15-SP5-SAP-Hardened-BYOS-Azure-2022-2566,Image SLES15-SP5-SAP-Hardened-BYOS-EC2-2022-2566,Image SLES15-SP5-SAP-Hardened-BYOS-GCE-2022-2566,Image SLES15-SP5-SAP-Hardened-EC2-2022-2566,Image SLES15-SP5-SAP-Hardened-GCE-2022-2566,Image SLES15-SP5-SAPCAL-Azure-2022-2566,Image SLES15-SP5-SAPCAL-EC2-2022-2566,Image SLES15-SP5-SAPCAL-GCE-2022-2566,SUSE-2022-2566,SUSE-SLE-Module-Basesystem-15-SP4-2022-2566,openSUSE-SLE-15.4-2022-2566",
      "Title": "Patchnames",
      "Type": "Details"
    }
  ],
  "ProductTree": {
    "Relationships": [
      {
        "ProductReference": "libpcre2-8-0-10.39-150400.4.6.1",
        "RelatesToProductReference": "Container bci/golang:1.16",
        "RelationType": "Default Component Of"
      },
      {
        "ProductReference": "libpcre2-8-0-10.39-150400.4.6.1",
        "RelatesToProductReference": "Container bci/golang:1.17",
        "RelationType": "Default Component Of"
      },
      {
        "ProductReference": "libpcre2-8-0-10.39-150400.4.6.1",
        "RelatesToProductReference": "Container bci/golang:1.18",
        "RelationType": "Default Component Of"
      },
      {
        "ProductReference": "libpcre2-8-0-10.39-150400.4.6.1",
        "RelatesToProductReference": "Container bci/golang:1.19",
        "RelationType": "Default Component Of"
      },
      {
        "ProductReference": "libpcre2-8-0-10.39-150400.4.6.1",
        "RelatesToProductReference": "Container bci/golang:1.20-openssl",
        "RelationType": "Default Component Of"
      },
      {
        "ProductReference": "libpcre2-8-0-10.39-150400.4.6.1",
        "RelatesToProductReference": "Container bci/golang:1.21",
        "RelationType": "Default Component Of"
      },
      {
        "ProductReference": "libpcre2-8-0-10.39-150400.4.6.1",
        "RelatesToProductReference": "Container bci/golang:latest",
        "RelationType": "Default Component Of"
      },
      {
        "ProductReference": "libpcre2-8-0-10.39-150400.4.6.1",
        "RelatesToProductReference": "Container bci/node:14",
        "RelationType": "Default Component Of"
      },
      {
        "ProductReference": "libpcre2-8-0-10.39-150400.4.6.1",
        "RelatesToProductReference": "Container bci/node:16",
        "RelationType": "Default Component Of"
      },
      {
        "ProductReference": "libpcre2-8-0-10.39-150400.4.6.1",
        "RelatesToProductReference": "Container bci/node:18",
        "RelationType": "Default Component Of"
      },
      {
        "ProductReference": "libpcre2-8-0-10.39-150400.4.6.1",
        "RelatesToProductReference": "Container bci/nodejs:latest",
        "RelationType": "Default Component Of"
      },
      {
        "ProductReference": "libpcre2-8-0-10.39-150400.4.6.1",
        "RelatesToProductReference": "Container bci/openjdk-devel:11",
        "RelationType": "Default Component Of"
      },
      {
        "ProductReference": "libpcre2-8-0-10.39-150400.4.6.1",
        "RelatesToProductReference": "Container bci/openjdk-devel:latest",
        "RelationType": "Default Component Of"
      },
      {
        "ProductReference": "libpcre2-8-0-10.39-150400.4.6.1",
        "RelatesToProductReference": "Container bci/php-apache:8",
        "RelationType": "Default Component Of"
      },
      {
        "ProductReference": "libpcre2-8-0-10.39-150400.4.6.1",
        "RelatesToProductReference": "Container bci/php-apache:latest",
        "RelationType": "Default Component Of"
      },
      {
        "ProductReference": "libpcre2-8-0-10.39-150400.4.6.1",
        "RelatesToProductReference": "Container bci/php-fpm:8",
        "RelationType": "Default Component Of"
      },
      {
        "ProductReference": "libpcre2-8-0-10.39-150400.4.6.1",
        "RelatesToProductReference": "Container bci/php-fpm:latest",
        "RelationType": "Default Component Of"
      },
      {
        "ProductReference": "libpcre2-8-0-10.39-150400.4.6.1",
        "RelatesToProductReference": "Container bci/php:8",
        "RelationType": "Default Component Of"
      },
      {
        "ProductReference": "libpcre2-8-0-10.39-150400.4.6.1",
        "RelatesToProductReference": "Container bci/php:latest",
        "RelationType": "Default Component Of"
      },
      {
        "ProductReference": "libpcre2-8-0-10.39-150400.4.6.1",
        "RelatesToProductReference": "Container bci/python:3",
        "RelationType": "Default Component Of"
      },
      {
        "ProductReference": "libpcre2-8-0-10.39-150400.4.6.1",
        "RelatesToProductReference": "Container bci/python:latest",
        "RelationType": "Default Component Of"
      },
      {
        "ProductReference": "libpcre2-8-0-10.39-150400.4.6.1",
        "RelatesToProductReference": "Container bci/ruby:latest",
        "RelationType": "Default Component Of"
      },
      {
        "ProductReference": "libpcre2-8-0-10.39-150400.4.6.1",
        "RelatesToProductReference": "Container rancher/elemental-teal-iso/5.4:latest",
        "RelationType": "Default Component Of"
      },
      {
        "ProductReference": "libpcre2-8-0-10.39-150400.4.6.1",
        "RelatesToProductReference": "Container rancher/elemental-teal-rt/5.4:latest",
        "RelationType": "Default Component Of"
      },
      {
        "ProductReference": "libpcre2-8-0-10.39-150400.4.6.1",
        "RelatesToProductReference": "Container rancher/elemental-teal/5.4:latest",
        "RelationType": "Default Component Of"
      },
      {
        "ProductReference": "libpcre2-8-0-10.39-150400.4.6.1",
        "RelatesToProductReference": "Container suse/389-ds:latest",
        "RelationType": "Default Component Of"
      },
      {
        "ProductReference": "libpcre2-8-0-10.39-150400.4.6.1",
        "RelatesToProductReference": "Container suse/git:latest",
        "RelationType": "Default Component Of"
      },
      {
        "ProductReference": "libpcre2-8-0-10.39-150400.4.6.1",
        "RelatesToProductReference": "Container suse/nginx:latest",
        "RelationType": "Default Component Of"
      },
      {
        "ProductReference": "libpcre2-8-0-10.39-150400.4.6.1",
        "RelatesToProductReference": "Container suse/rmt-mariadb:latest",
        "RelationType": "Default Component Of"
      },
      {
        "ProductReference": "libpcre2-8-0-10.39-150400.4.6.1",
        "RelatesToProductReference": "Container suse/rmt-nginx:latest",
        "RelationType": "Default Component Of"
      },
      {
        "ProductReference": "libpcre2-8-0-10.39-150400.4.6.1",
        "RelatesToProductReference": "Container suse/sle-micro-rancher/5.4:latest",
        "RelationType": "Default Component Of"
      },
      {
        "ProductReference": "libpcre2-8-0-10.39-150400.4.6.1",
        "RelatesToProductReference": "Container suse/sle-micro/5.4/toolbox:latest",
        "RelationType": "Default Component Of"
      },
      {
        "ProductReference": "libpcre2-8-0-10.39-150400.4.6.1",
        "RelatesToProductReference": "Container suse/sle-micro/5.5:latest",
        "RelationType": "Default Component Of"
      },
      {
        "ProductReference": "libpcre2-8-0-10.39-150400.4.6.1",
        "RelatesToProductReference": "Container suse/sle-micro/kvm-5.5:latest",
        "RelationType": "Default Component Of"
      },
      {
        "ProductReference": "libpcre2-8-0-10.39-150400.4.6.1",
        "RelatesToProductReference": "Container suse/sle-micro/rt-5.5:latest",
        "RelationType": "Default Component Of"
      },
      {
        "ProductReference": "libpcre2-8-0-10.39-150400.4.6.1",
        "RelatesToProductReference": "Container suse/sles/15.5/libguestfs-tools:0.58.0",
        "RelationType": "Default Component Of"
      },
      {
        "ProductReference": "libpcre2-8-0-10.39-150400.4.6.1",
        "RelatesToProductReference": "Image SLES15-SP4",
        "RelationType": "Default Component Of"
      },
      {
        "ProductReference": "libpcre2-8-0-10.39-150400.4.6.1",
        "RelatesToProductReference": "Image SLES15-SP4-Azure-Basic",
        "RelationType": "Default Component Of"
      },
      {
        "ProductReference": "libpcre2-8-0-10.39-150400.4.6.1",
        "RelatesToProductReference": "Image SLES15-SP4-Azure-Standard",
        "RelationType": "Default Component Of"
      },
      {
        "ProductReference": "libpcre2-8-0-10.39-150400.4.6.1",
        "RelatesToProductReference": "Image SLES15-SP4-BYOS",
        "RelationType": "Default Component Of"
      },
      {
        "ProductReference": "libpcre2-8-0-10.39-150400.4.6.1",
        "RelatesToProductReference": "Image SLES15-SP4-BYOS-Azure",
        "RelationType": "Default Component Of"
      },
      {
        "ProductReference": "libpcre2-8-0-10.39-150400.4.6.1",
        "RelatesToProductReference": "Image SLES15-SP4-BYOS-EC2",
        "RelationType": "Default Component Of"
      },
      {
        "ProductReference": "libpcre2-8-0-10.39-150400.4.6.1",
        "RelatesToProductReference": "Image SLES15-SP4-BYOS-GCE",
        "RelationType": "Default Component Of"
      },
      {
        "ProductReference": "libpcre2-8-0-10.39-150400.4.6.1",
        "RelatesToProductReference": "Image SLES15-SP4-CHOST-BYOS",
        "RelationType": "Default Component Of"
      },
      {
        "ProductReference": "libpcre2-8-0-10.39-150400.4.6.1",
        "RelatesToProductReference": "Image SLES15-SP4-CHOST-BYOS-Aliyun",
        "RelationType": "Default Component Of"
      },
      {
        "ProductReference": "libpcre2-8-0-10.39-150400.4.6.1",
        "RelatesToProductReference": "Image SLES15-SP4-CHOST-BYOS-Azure",
        "RelationType": "Default Component Of"
      },
      {
        "ProductReference": "libpcre2-8-0-10.39-150400.4.6.1",
        "RelatesToProductReference": "Image SLES15-SP4-CHOST-BYOS-EC2",
        "RelationType": "Default Component Of"
      },
      {
        "ProductReference": "libpcre2-8-0-10.39-150400.4.6.1",
        "RelatesToProductReference": "Image SLES15-SP4-CHOST-BYOS-GCE",
        "RelationType": "Default Component Of"
      },
      {
        "ProductReference": "libpcre2-8-0-10.39-150400.4.6.1",
        "RelatesToProductReference": "Image SLES15-SP4-CHOST-BYOS-SAP-CCloud",
        "RelationType": "Default Component Of"
      },
      {
        "ProductReference": "libpcre2-8-0-10.39-150400.4.6.1",
        "RelatesToProductReference": "Image SLES15-SP4-EC2",
        "RelationType": "Default Component Of"
      },
      {
        "ProductReference": "libpcre2-8-0-10.39-150400.4.6.1",
        "RelatesToProductReference": "Image SLES15-SP4-EC2-ECS-HVM",
        "RelationType": "Default Component Of"
      },
      {
        "ProductReference": "libpcre2-8-0-10.39-150400.4.6.1",
        "RelatesToProductReference": "Image SLES15-SP4-GCE",
        "RelationType": "Default Component Of"
      },
      {
        "ProductReference": "libpcre2-8-0-10.39-150400.4.6.1",
        "RelatesToProductReference": "Image SLES15-SP4-HPC",
        "RelationType": "Default Component Of"
      },
      {
        "ProductReference": "libpcre2-8-0-10.39-150400.4.6.1",
        "RelatesToProductReference": "Image SLES15-SP4-HPC-Azure",
        "RelationType": "Default Component Of"
      },
      {
        "ProductReference": "libpcre2-8-0-10.39-150400.4.6.1",
        "RelatesToProductReference": "Image SLES15-SP4-HPC-BYOS",
        "RelationType": "Default Component Of"
      },
      {
        "ProductReference": "libpcre2-8-0-10.39-150400.4.6.1",
        "RelatesToProductReference": "Image SLES15-SP4-HPC-BYOS-Azure",
        "RelationType": "Default Component Of"
      },
      {
        "ProductReference": "libpcre2-8-0-10.39-150400.4.6.1",
        "RelatesToProductReference": "Image SLES15-SP4-HPC-BYOS-EC2",
        "RelationType": "Default Component Of"
      },
      {
        "ProductReference": "libpcre2-8-0-10.39-150400.4.6.1",
        "RelatesToProductReference": "Image SLES15-SP4-HPC-BYOS-GCE",
        "RelationType": "Default Component Of"
      },
      {
        "ProductReference": "libpcre2-8-0-10.39-150400.4.6.1",
        "RelatesToProductReference": "Image SLES15-SP4-HPC-EC2",
        "RelationType": "Default Component Of"
      },
      {
        "ProductReference": "libpcre2-8-0-10.39-150400.4.6.1",
        "RelatesToProductReference": "Image SLES15-SP4-HPC-GCE",
        "RelationType": "Default Component Of"
      },
      {
        "ProductReference": "libpcre2-8-0-10.39-150400.4.6.1",
        "RelatesToProductReference": "Image SLES15-SP4-Hardened-BYOS",
        "RelationType": "Default Component Of"
      },
      {
        "ProductReference": "libpcre2-8-0-10.39-150400.4.6.1",
        "RelatesToProductReference": "Image SLES15-SP4-Hardened-BYOS-Azure",
        "RelationType": "Default Component Of"
      },
      {
        "ProductReference": "libpcre2-8-0-10.39-150400.4.6.1",
        "RelatesToProductReference": "Image SLES15-SP4-Hardened-BYOS-EC2",
        "RelationType": "Default Component Of"
      },
      {
        "ProductReference": "libpcre2-8-0-10.39-150400.4.6.1",
        "RelatesToProductReference": "Image SLES15-SP4-Hardened-BYOS-GCE",
        "RelationType": "Default Component Of"
      },
      {
        "ProductReference": "libpcre2-8-0-10.39-150400.4.6.1",
        "RelatesToProductReference": "Image SLES15-SP4-Manager-Proxy-4-3-BYOS",
        "RelationType": "Default Component Of"
      },
      {
        "ProductReference": "libpcre2-8-0-10.39-150400.4.6.1",
        "RelatesToProductReference": "Image SLES15-SP4-Manager-Proxy-4-3-BYOS-Azure",
        "RelationType": "Default Component Of"
      },
      {
        "ProductReference": "libpcre2-8-0-10.39-150400.4.6.1",
        "RelatesToProductReference": "Image SLES15-SP4-Manager-Proxy-4-3-BYOS-EC2",
        "RelationType": "Default Component Of"
      },
      {
        "ProductReference": "libpcre2-8-0-10.39-150400.4.6.1",
        "RelatesToProductReference": "Image SLES15-SP4-Manager-Proxy-4-3-BYOS-GCE",
        "RelationType": "Default Component Of"
      },
      {
        "ProductReference": "libpcre2-8-0-10.39-150400.4.6.1",
        "RelatesToProductReference": "Image SLES15-SP4-Manager-Server-4-3",
        "RelationType": "Default Component Of"
      },
      {
        "ProductReference": "libpcre2-8-0-10.39-150400.4.6.1",
        "RelatesToProductReference": "Image SLES15-SP4-Manager-Server-4-3-Azure-llc",
        "RelationType": "Default Component Of"
      },
      {
        "ProductReference": "libpcre2-8-0-10.39-150400.4.6.1",
        "RelatesToProductReference": "Image SLES15-SP4-Manager-Server-4-3-Azure-ltd",
        "RelationType": "Default Component Of"
      },
      {
        "ProductReference": "libpcre2-8-0-10.39-150400.4.6.1",
        "RelatesToProductReference": "Image SLES15-SP4-Manager-Server-4-3-BYOS",
        "RelationType": "Default Component Of"
      },
      {
        "ProductReference": "libpcre2-8-0-10.39-150400.4.6.1",
        "RelatesToProductReference": "Image SLES15-SP4-Manager-Server-4-3-BYOS-Azure",
        "RelationType": "Default Component Of"
      },
      {
        "ProductReference": "libpcre2-8-0-10.39-150400.4.6.1",
        "RelatesToProductReference": "Image SLES15-SP4-Manager-Server-4-3-BYOS-EC2",
        "RelationType": "Default Component Of"
      },
      {
        "ProductReference": "libpcre2-8-0-10.39-150400.4.6.1",
        "RelatesToProductReference": "Image SLES15-SP4-Manager-Server-4-3-BYOS-GCE",
        "RelationType": "Default Component Of"
      },
      {
        "ProductReference": "libpcre2-8-0-10.39-150400.4.6.1",
        "RelatesToProductReference": "Image SLES15-SP4-Manager-Server-4-3-EC2-llc",
        "RelationType": "Default Component Of"
      },
      {
        "ProductReference": "libpcre2-8-0-10.39-150400.4.6.1",
        "RelatesToProductReference": "Image SLES15-SP4-Manager-Server-4-3-EC2-ltd",
        "RelationType": "Default Component Of"
      },
      {
        "ProductReference": "libpcre2-8-0-10.39-150400.4.6.1",
        "RelatesToProductReference": "Image SLES15-SP4-Micro-5-4",
        "RelationType": "Default Component Of"
      },
      {
        "ProductReference": "libpcre2-8-0-10.39-150400.4.6.1",
        "RelatesToProductReference": "Image SLES15-SP4-Micro-5-4-Azure",
        "RelationType": "Default Component Of"
      },
      {
        "ProductReference": "libpcre2-8-0-10.39-150400.4.6.1",
        "RelatesToProductReference": "Image SLES15-SP4-Micro-5-4-BYOS",
        "RelationType": "Default Component Of"
      },
      {
        "ProductReference": "libpcre2-8-0-10.39-150400.4.6.1",
        "RelatesToProductReference": "Image SLES15-SP4-Micro-5-4-BYOS-Azure",
        "RelationType": "Default Component Of"
      },
      {
        "ProductReference": "libpcre2-8-0-10.39-150400.4.6.1",
        "RelatesToProductReference": "Image SLES15-SP4-Micro-5-4-BYOS-EC2",
        "RelationType": "Default Component Of"
      },
      {
        "ProductReference": "libpcre2-8-0-10.39-150400.4.6.1",
        "RelatesToProductReference": "Image SLES15-SP4-Micro-5-4-BYOS-GCE",
        "RelationType": "Default Component Of"
      },
      {
        "ProductReference": "libpcre2-8-0-10.39-150400.4.6.1",
        "RelatesToProductReference": "Image SLES15-SP4-Micro-5-4-EC2",
        "RelationType": "Default Component Of"
      },
      {
        "ProductReference": "libpcre2-8-0-10.39-150400.4.6.1",
        "RelatesToProductReference": "Image SLES15-SP4-Micro-5-4-GCE",
        "RelationType": "Default Component Of"
      },
      {
        "ProductReference": "libpcre2-8-0-10.39-150400.4.6.1",
        "RelatesToProductReference": "Image SLES15-SP4-SAP",
        "RelationType": "Default Component Of"
      },
      {
        "ProductReference": "libpcre2-8-0-10.39-150400.4.6.1",
        "RelatesToProductReference": "Image SLES15-SP4-SAP-Azure",
        "RelationType": "Default Component Of"
      },
      {
        "ProductReference": "libpcre2-16-0-10.39-150400.4.6.1",
        "RelatesToProductReference": "Image SLES15-SP4-SAP-Azure-LI-BYOS",
        "RelationType": "Default Component Of"
      },
      {
        "ProductReference": "libpcre2-8-0-10.39-150400.4.6.1",
        "RelatesToProductReference": "Image SLES15-SP4-SAP-Azure-LI-BYOS",
        "RelationType": "Default Component Of"
      },
      {
        "ProductReference": "libpcre2-16-0-10.39-150400.4.6.1",
        "RelatesToProductReference": "Image SLES15-SP4-SAP-Azure-LI-BYOS-Production",
        "RelationType": "Default Component Of"
      },
      {
        "ProductReference": "libpcre2-8-0-10.39-150400.4.6.1",
        "RelatesToProductReference": "Image SLES15-SP4-SAP-Azure-LI-BYOS-Production",
        "RelationType": "Default Component Of"
      },
      {
        "ProductReference": "libpcre2-16-0-10.39-150400.4.6.1",
        "RelatesToProductReference": "Image SLES15-SP4-SAP-Azure-VLI-BYOS",
        "RelationType": "Default Component Of"
      },
      {
        "ProductReference": "libpcre2-8-0-10.39-150400.4.6.1",
        "RelatesToProductReference": "Image SLES15-SP4-SAP-Azure-VLI-BYOS",
        "RelationType": "Default Component Of"
      },
      {
        "ProductReference": "libpcre2-16-0-10.39-150400.4.6.1",
        "RelatesToProductReference": "Image SLES15-SP4-SAP-Azure-VLI-BYOS-Production",
        "RelationType": "Default Component Of"
      },
      {
        "ProductReference": "libpcre2-8-0-10.39-150400.4.6.1",
        "RelatesToProductReference": "Image SLES15-SP4-SAP-Azure-VLI-BYOS-Production",
        "RelationType": "Default Component Of"
      },
      {
        "ProductReference": "libpcre2-16-0-10.39-150400.4.6.1",
        "RelatesToProductReference": "Image SLES15-SP4-SAP-BYOS",
        "RelationType": "Default Component Of"
      },
      {
        "ProductReference": "libpcre2-8-0-10.39-150400.4.6.1",
        "RelatesToProductReference": "Image SLES15-SP4-SAP-BYOS",
        "RelationType": "Default Component Of"
      },
      {
        "ProductReference": "libpcre2-16-0-10.39-150400.4.6.1",
        "RelatesToProductReference": "Image SLES15-SP4-SAP-BYOS-Azure",
        "RelationType": "Default Component Of"
      },
      {
        "ProductReference": "libpcre2-8-0-10.39-150400.4.6.1",
        "RelatesToProductReference": "Image SLES15-SP4-SAP-BYOS-Azure",
        "RelationType": "Default Component Of"
      },
      {
        "ProductReference": "libpcre2-16-0-10.39-150400.4.6.1",
        "RelatesToProductReference": "Image SLES15-SP4-SAP-BYOS-EC2",
        "RelationType": "Default Component Of"
      },
      {
        "ProductReference": "libpcre2-8-0-10.39-150400.4.6.1",
        "RelatesToProductReference": "Image SLES15-SP4-SAP-BYOS-EC2",
        "RelationType": "Default Component Of"
      },
      {
        "ProductReference": "libpcre2-16-0-10.39-150400.4.6.1",
        "RelatesToProductReference": "Image SLES15-SP4-SAP-BYOS-GCE",
        "RelationType": "Default Component Of"
      },
      {
        "ProductReference": "libpcre2-8-0-10.39-150400.4.6.1",
        "RelatesToProductReference": "Image SLES15-SP4-SAP-BYOS-GCE",
        "RelationType": "Default Component Of"
      },
      {
        "ProductReference": "libpcre2-8-0-10.39-150400.4.6.1",
        "RelatesToProductReference": "Image SLES15-SP4-SAP-EC2",
        "RelationType": "Default Component Of"
      },
      {
        "ProductReference": "libpcre2-8-0-10.39-150400.4.6.1",
        "RelatesToProductReference": "Image SLES15-SP4-SAP-GCE",
        "RelationType": "Default Component Of"
      },
      {
        "ProductReference": "libpcre2-16-0-10.39-150400.4.6.1",
        "RelatesToProductReference": "Image SLES15-SP4-SAP-Hardened",
        "RelationType": "Default Component Of"
      },
      {
        "ProductReference": "libpcre2-8-0-10.39-150400.4.6.1",
        "RelatesToProductReference": "Image SLES15-SP4-SAP-Hardened",
        "RelationType": "Default Component Of"
      },
      {
        "ProductReference": "libpcre2-16-0-10.39-150400.4.6.1",
        "RelatesToProductReference": "Image SLES15-SP4-SAP-Hardened-Azure",
        "RelationType": "Default Component Of"
      },
      {
        "ProductReference": "libpcre2-8-0-10.39-150400.4.6.1",
        "RelatesToProductReference": "Image SLES15-SP4-SAP-Hardened-Azure",
        "RelationType": "Default Component Of"
      },
      {
        "ProductReference": "libpcre2-16-0-10.39-150400.4.6.1",
        "RelatesToProductReference": "Image SLES15-SP4-SAP-Hardened-BYOS",
        "RelationType": "Default Component Of"
      },
      {
        "ProductReference": "libpcre2-8-0-10.39-150400.4.6.1",
        "RelatesToProductReference": "Image SLES15-SP4-SAP-Hardened-BYOS",
        "RelationType": "Default Component Of"
      },
      {
        "ProductReference": "libpcre2-16-0-10.39-150400.4.6.1",
        "RelatesToProductReference": "Image SLES15-SP4-SAP-Hardened-BYOS-Azure",
        "RelationType": "Default Component Of"
      },
      {
        "ProductReference": "libpcre2-8-0-10.39-150400.4.6.1",
        "RelatesToProductReference": "Image SLES15-SP4-SAP-Hardened-BYOS-Azure",
        "RelationType": "Default Component Of"
      },
      {
        "ProductReference": "libpcre2-16-0-10.39-150400.4.6.1",
        "RelatesToProductReference": "Image SLES15-SP4-SAP-Hardened-BYOS-EC2",
        "RelationType": "Default Component Of"
      },
      {
        "ProductReference": "libpcre2-8-0-10.39-150400.4.6.1",
        "RelatesToProductReference": "Image SLES15-SP4-SAP-Hardened-BYOS-EC2",
        "RelationType": "Default Component Of"
      },
      {
        "ProductReference": "libpcre2-16-0-10.39-150400.4.6.1",
        "RelatesToProductReference": "Image SLES15-SP4-SAP-Hardened-BYOS-GCE",
        "RelationType": "Default Component Of"
      },
      {
        "ProductReference": "libpcre2-8-0-10.39-150400.4.6.1",
        "RelatesToProductReference": "Image SLES15-SP4-SAP-Hardened-BYOS-GCE",
        "RelationType": "Default Component Of"
      },
      {
        "ProductReference": "libpcre2-16-0-10.39-150400.4.6.1",
        "RelatesToProductReference": "Image SLES15-SP4-SAP-Hardened-EC2",
        "RelationType": "Default Component Of"
      },
      {
        "ProductReference": "libpcre2-8-0-10.39-150400.4.6.1",
        "RelatesToProductReference": "Image SLES15-SP4-SAP-Hardened-EC2",
        "RelationType": "Default Component Of"
      },
      {
        "ProductReference": "libpcre2-16-0-10.39-150400.4.6.1",
        "RelatesToProductReference": "Image SLES15-SP4-SAP-Hardened-GCE",
        "RelationType": "Default Component Of"
      },
      {
        "ProductReference": "libpcre2-8-0-10.39-150400.4.6.1",
        "RelatesToProductReference": "Image SLES15-SP4-SAP-Hardened-GCE",
        "RelationType": "Default Component Of"
      },
      {
        "ProductReference": "libpcre2-8-0-10.39-150400.4.6.1",
        "RelatesToProductReference": "Image SLES15-SP4-SAPCAL",
        "RelationType": "Default Component Of"
      },
      {
        "ProductReference": "libpcre2-8-0-10.39-150400.4.6.1",
        "RelatesToProductReference": "Image SLES15-SP4-SAPCAL-Azure",
        "RelationType": "Default Component Of"
      },
      {
        "ProductReference": "libpcre2-8-0-10.39-150400.4.6.1",
        "RelatesToProductReference": "Image SLES15-SP4-SAPCAL-EC2",
        "RelationType": "Default Component Of"
      },
      {
        "ProductReference": "libpcre2-8-0-10.39-150400.4.6.1",
        "RelatesToProductReference": "Image SLES15-SP4-SAPCAL-GCE",
        "RelationType": "Default Component Of"
      },
      {
        "ProductReference": "libpcre2-8-0-10.39-150400.4.6.1",
        "RelatesToProductReference": "Image SLES15-SP4-SUSE-Rancher-Setup-BYOS",
        "RelationType": "Default Component Of"
      },
      {
        "ProductReference": "libpcre2-8-0-10.39-150400.4.6.1",
        "RelatesToProductReference": "Image SLES15-SP4-SUSE-Rancher-Setup-BYOS-EC2",
        "RelationType": "Default Component Of"
      },
      {
        "ProductReference": "libpcre2-8-0-10.39-150400.4.6.1",
        "RelatesToProductReference": "Image SLES15-SP4-SUSE-Rancher-Setup-BYOS-EC2-HVM",
        "RelationType": "Default Component Of"
      },
      {
        "ProductReference": "libpcre2-8-0-10.39-150400.4.6.1",
        "RelatesToProductReference": "Image SLES15-SP5-Azure-Basic",
        "RelationType": "Default Component Of"
      },
      {
        "ProductReference": "libpcre2-8-0-10.39-150400.4.6.1",
        "RelatesToProductReference": "Image SLES15-SP5-Azure-Standard",
        "RelationType": "Default Component Of"
      },
      {
        "ProductReference": "libpcre2-8-0-10.39-150400.4.6.1",
        "RelatesToProductReference": "Image SLES15-SP5-BYOS-Azure",
        "RelationType": "Default Component Of"
      },
      {
        "ProductReference": "libpcre2-8-0-10.39-150400.4.6.1",
        "RelatesToProductReference": "Image SLES15-SP5-BYOS-EC2",
        "RelationType": "Default Component Of"
      },
      {
        "ProductReference": "libpcre2-8-0-10.39-150400.4.6.1",
        "RelatesToProductReference": "Image SLES15-SP5-BYOS-GCE",
        "RelationType": "Default Component Of"
      },
      {
        "ProductReference": "libpcre2-8-0-10.39-150400.4.6.1",
        "RelatesToProductReference": "Image SLES15-SP5-CHOST-BYOS-Aliyun",
        "RelationType": "Default Component Of"
      },
      {
        "ProductReference": "libpcre2-8-0-10.39-150400.4.6.1",
        "RelatesToProductReference": "Image SLES15-SP5-CHOST-BYOS-Azure",
        "RelationType": "Default Component Of"
      },
      {
        "ProductReference": "libpcre2-8-0-10.39-150400.4.6.1",
        "RelatesToProductReference": "Image SLES15-SP5-CHOST-BYOS-EC2",
        "RelationType": "Default Component Of"
      },
      {
        "ProductReference": "libpcre2-8-0-10.39-150400.4.6.1",
        "RelatesToProductReference": "Image SLES15-SP5-CHOST-BYOS-GCE",
        "RelationType": "Default Component Of"
      },
      {
        "ProductReference": "libpcre2-8-0-10.39-150400.4.6.1",
        "RelatesToProductReference": "Image SLES15-SP5-CHOST-BYOS-SAP-CCloud",
        "RelationType": "Default Component Of"
      },
      {
        "ProductReference": "libpcre2-8-0-10.39-150400.4.6.1",
        "RelatesToProductReference": "Image SLES15-SP5-EC2",
        "RelationType": "Default Component Of"
      },
      {
        "ProductReference": "libpcre2-8-0-10.39-150400.4.6.1",
        "RelatesToProductReference": "Image SLES15-SP5-EC2-ECS-HVM",
        "RelationType": "Default Component Of"
      },
      {
        "ProductReference": "libpcre2-8-0-10.39-150400.4.6.1",
        "RelatesToProductReference": "Image SLES15-SP5-GCE",
        "RelationType": "Default Component Of"
      },
      {
        "ProductReference": "libpcre2-8-0-10.39-150400.4.6.1",
        "RelatesToProductReference": "Image SLES15-SP5-HPC-Azure",
        "RelationType": "Default Component Of"
      },
      {
        "ProductReference": "libpcre2-8-0-10.39-150400.4.6.1",
        "RelatesToProductReference": "Image SLES15-SP5-HPC-BYOS-Azure",
        "RelationType": "Default Component Of"
      },
      {
        "ProductReference": "libpcre2-8-0-10.39-150400.4.6.1",
        "RelatesToProductReference": "Image SLES15-SP5-HPC-BYOS-EC2",
        "RelationType": "Default Component Of"
      },
      {
        "ProductReference": "libpcre2-8-0-10.39-150400.4.6.1",
        "RelatesToProductReference": "Image SLES15-SP5-HPC-BYOS-GCE",
        "RelationType": "Default Component Of"
      },
      {
        "ProductReference": "libpcre2-8-0-10.39-150400.4.6.1",
        "RelatesToProductReference": "Image SLES15-SP5-HPC-EC2",
        "RelationType": "Default Component Of"
      },
      {
        "ProductReference": "libpcre2-8-0-10.39-150400.4.6.1",
        "RelatesToProductReference": "Image SLES15-SP5-HPC-GCE",
        "RelationType": "Default Component Of"
      },
      {
        "ProductReference": "libpcre2-8-0-10.39-150400.4.6.1",
        "RelatesToProductReference": "Image SLES15-SP5-Hardened-BYOS-Azure",
        "RelationType": "Default Component Of"
      },
      {
        "ProductReference": "libpcre2-8-0-10.39-150400.4.6.1",
        "RelatesToProductReference": "Image SLES15-SP5-Hardened-BYOS-EC2",
        "RelationType": "Default Component Of"
      },
      {
        "ProductReference": "libpcre2-8-0-10.39-150400.4.6.1",
        "RelatesToProductReference": "Image SLES15-SP5-Hardened-BYOS-GCE",
        "RelationType": "Default Component Of"
      },
      {
        "ProductReference": "libpcre2-8-0-10.39-150400.4.6.1",
        "RelatesToProductReference": "Image SLES15-SP5-Micro-5-5",
        "RelationType": "Default Component Of"
      },
      {
        "ProductReference": "libpcre2-8-0-10.39-150400.4.6.1",
        "RelatesToProductReference": "Image SLES15-SP5-Micro-5-5-Azure",
        "RelationType": "Default Component Of"
      },
      {
        "ProductReference": "libpcre2-8-0-10.39-150400.4.6.1",
        "RelatesToProductReference": "Image SLES15-SP5-Micro-5-5-BYOS",
        "RelationType": "Default Component Of"
      },
      {
        "ProductReference": "libpcre2-8-0-10.39-150400.4.6.1",
        "RelatesToProductReference": "Image SLES15-SP5-Micro-5-5-BYOS-Azure",
        "RelationType": "Default Component Of"
      },
      {
        "ProductReference": "libpcre2-8-0-10.39-150400.4.6.1",
        "RelatesToProductReference": "Image SLES15-SP5-Micro-5-5-BYOS-EC2",
        "RelationType": "Default Component Of"
      },
      {
        "ProductReference": "libpcre2-8-0-10.39-150400.4.6.1",
        "RelatesToProductReference": "Image SLES15-SP5-Micro-5-5-BYOS-GCE",
        "RelationType": "Default Component Of"
      },
      {
        "ProductReference": "libpcre2-8-0-10.39-150400.4.6.1",
        "RelatesToProductReference": "Image SLES15-SP5-Micro-5-5-EC2",
        "RelationType": "Default Component Of"
      },
      {
        "ProductReference": "libpcre2-8-0-10.39-150400.4.6.1",
        "RelatesToProductReference": "Image SLES15-SP5-Micro-5-5-GCE",
        "RelationType": "Default Component Of"
      },
      {
        "ProductReference": "libpcre2-8-0-10.39-150400.4.6.1",
        "RelatesToProductReference": "Image SLES15-SP5-SAP-Azure",
        "RelationType": "Default Component Of"
      },
      {
        "ProductReference": "libpcre2-16-0-10.39-150400.4.6.1",
        "RelatesToProductReference": "Image SLES15-SP5-SAP-Azure-LI-BYOS",
        "RelationType": "Default Component Of"
      },
      {
        "ProductReference": "libpcre2-8-0-10.39-150400.4.6.1",
        "RelatesToProductReference": "Image SLES15-SP5-SAP-Azure-LI-BYOS",
        "RelationType": "Default Component Of"
      },
      {
        "ProductReference": "libpcre2-16-0-10.39-150400.4.6.1",
        "RelatesToProductReference": "Image SLES15-SP5-SAP-Azure-LI-BYOS-Production",
        "RelationType": "Default Component Of"
      },
      {
        "ProductReference": "libpcre2-8-0-10.39-150400.4.6.1",
        "RelatesToProductReference": "Image SLES15-SP5-SAP-Azure-LI-BYOS-Production",
        "RelationType": "Default Component Of"
      },
      {
        "ProductReference": "libpcre2-16-0-10.39-150400.4.6.1",
        "RelatesToProductReference": "Image SLES15-SP5-SAP-Azure-VLI-BYOS",
        "RelationType": "Default Component Of"
      },
      {
        "ProductReference": "libpcre2-8-0-10.39-150400.4.6.1",
        "RelatesToProductReference": "Image SLES15-SP5-SAP-Azure-VLI-BYOS",
        "RelationType": "Default Component Of"
      },
      {
        "ProductReference": "libpcre2-16-0-10.39-150400.4.6.1",
        "RelatesToProductReference": "Image SLES15-SP5-SAP-Azure-VLI-BYOS-Production",
        "RelationType": "Default Component Of"
      },
      {
        "ProductReference": "libpcre2-8-0-10.39-150400.4.6.1",
        "RelatesToProductReference": "Image SLES15-SP5-SAP-Azure-VLI-BYOS-Production",
        "RelationType": "Default Component Of"
      },
      {
        "ProductReference": "libpcre2-16-0-10.39-150400.4.6.1",
        "RelatesToProductReference": "Image SLES15-SP5-SAP-BYOS-Azure",
        "RelationType": "Default Component Of"
      },
      {
        "ProductReference": "libpcre2-8-0-10.39-150400.4.6.1",
        "RelatesToProductReference": "Image SLES15-SP5-SAP-BYOS-Azure",
        "RelationType": "Default Component Of"
      },
      {
        "ProductReference": "libpcre2-16-0-10.39-150400.4.6.1",
        "RelatesToProductReference": "Image SLES15-SP5-SAP-BYOS-EC2",
        "RelationType": "Default Component Of"
      },
      {
        "ProductReference": "libpcre2-8-0-10.39-150400.4.6.1",
        "RelatesToProductReference": "Image SLES15-SP5-SAP-BYOS-EC2",
        "RelationType": "Default Component Of"
      },
      {
        "ProductReference": "libpcre2-16-0-10.39-150400.4.6.1",
        "RelatesToProductReference": "Image SLES15-SP5-SAP-BYOS-GCE",
        "RelationType": "Default Component Of"
      },
      {
        "ProductReference": "libpcre2-8-0-10.39-150400.4.6.1",
        "RelatesToProductReference": "Image SLES15-SP5-SAP-BYOS-GCE",
        "RelationType": "Default Component Of"
      },
      {
        "ProductReference": "libpcre2-8-0-10.39-150400.4.6.1",
        "RelatesToProductReference": "Image SLES15-SP5-SAP-EC2",
        "RelationType": "Default Component Of"
      },
      {
        "ProductReference": "libpcre2-8-0-10.39-150400.4.6.1",
        "RelatesToProductReference": "Image SLES15-SP5-SAP-GCE",
        "RelationType": "Default Component Of"
      },
      {
        "ProductReference": "libpcre2-16-0-10.39-150400.4.6.1",
        "RelatesToProductReference": "Image SLES15-SP5-SAP-Hardened-Azure",
        "RelationType": "Default Component Of"
      },
      {
        "ProductReference": "libpcre2-8-0-10.39-150400.4.6.1",
        "RelatesToProductReference": "Image SLES15-SP5-SAP-Hardened-Azure",
        "RelationType": "Default Component Of"
      },
      {
        "ProductReference": "libpcre2-16-0-10.39-150400.4.6.1",
        "RelatesToProductReference": "Image SLES15-SP5-SAP-Hardened-BYOS-Azure",
        "RelationType": "Default Component Of"
      },
      {
        "ProductReference": "libpcre2-8-0-10.39-150400.4.6.1",
        "RelatesToProductReference": "Image SLES15-SP5-SAP-Hardened-BYOS-Azure",
        "RelationType": "Default Component Of"
      },
      {
        "ProductReference": "libpcre2-16-0-10.39-150400.4.6.1",
        "RelatesToProductReference": "Image SLES15-SP5-SAP-Hardened-BYOS-EC2",
        "RelationType": "Default Component Of"
      },
      {
        "ProductReference": "libpcre2-8-0-10.39-150400.4.6.1",
        "RelatesToProductReference": "Image SLES15-SP5-SAP-Hardened-BYOS-EC2",
        "RelationType": "Default Component Of"
      },
      {
        "ProductReference": "libpcre2-16-0-10.39-150400.4.6.1",
        "RelatesToProductReference": "Image SLES15-SP5-SAP-Hardened-BYOS-GCE",
        "RelationType": "Default Component Of"
      },
      {
        "ProductReference": "libpcre2-8-0-10.39-150400.4.6.1",
        "RelatesToProductReference": "Image SLES15-SP5-SAP-Hardened-BYOS-GCE",
        "RelationType": "Default Component Of"
      },
      {
        "ProductReference": "libpcre2-16-0-10.39-150400.4.6.1",
        "RelatesToProductReference": "Image SLES15-SP5-SAP-Hardened-EC2",
        "RelationType": "Default Component Of"
      },
      {
        "ProductReference": "libpcre2-8-0-10.39-150400.4.6.1",
        "RelatesToProductReference": "Image SLES15-SP5-SAP-Hardened-EC2",
        "RelationType": "Default Component Of"
      },
      {
        "ProductReference": "libpcre2-16-0-10.39-150400.4.6.1",
        "RelatesToProductReference": "Image SLES15-SP5-SAP-Hardened-GCE",
        "RelationType": "Default Component Of"
      },
      {
        "ProductReference": "libpcre2-8-0-10.39-150400.4.6.1",
        "RelatesToProductReference": "Image SLES15-SP5-SAP-Hardened-GCE",
        "RelationType": "Default Component Of"
      },
      {
        "ProductReference": "libpcre2-8-0-10.39-150400.4.6.1",
        "RelatesToProductReference": "Image SLES15-SP5-SAPCAL-Azure",
        "RelationType": "Default Component Of"
      },
      {
        "ProductReference": "libpcre2-8-0-10.39-150400.4.6.1",
        "RelatesToProductReference": "Image SLES15-SP5-SAPCAL-EC2",
        "RelationType": "Default Component Of"
      },
      {
        "ProductReference": "libpcre2-8-0-10.39-150400.4.6.1",
        "RelatesToProductReference": "Image SLES15-SP5-SAPCAL-GCE",
        "RelationType": "Default Component Of"
      },
      {
        "ProductReference": "libpcre2-16-0-10.39-150400.4.6.1",
        "RelatesToProductReference": "SUSE Linux Enterprise Module for Basesystem 15 SP4",
        "RelationType": "Default Component Of"
      },
      {
        "ProductReference": "libpcre2-32-0-10.39-150400.4.6.1",
        "RelatesToProductReference": "SUSE Linux Enterprise Module for Basesystem 15 SP4",
        "RelationType": "Default Component Of"
      },
      {
        "ProductReference": "libpcre2-8-0-10.39-150400.4.6.1",
        "RelatesToProductReference": "SUSE Linux Enterprise Module for Basesystem 15 SP4",
        "RelationType": "Default Component Of"
      },
      {
        "ProductReference": "libpcre2-posix2-10.39-150400.4.6.1",
        "RelatesToProductReference": "SUSE Linux Enterprise Module for Basesystem 15 SP4",
        "RelationType": "Default Component Of"
      },
      {
        "ProductReference": "pcre2-devel-10.39-150400.4.6.1",
        "RelatesToProductReference": "SUSE Linux Enterprise Module for Basesystem 15 SP4",
        "RelationType": "Default Component Of"
      },
      {
        "ProductReference": "libpcre2-16-0-10.39-150400.4.6.1",
        "RelatesToProductReference": "openSUSE Leap 15.4",
        "RelationType": "Default Component Of"
      },
      {
        "ProductReference": "libpcre2-16-0-32bit-10.39-150400.4.6.1",
        "RelatesToProductReference": "openSUSE Leap 15.4",
        "RelationType": "Default Component Of"
      },
      {
        "ProductReference": "libpcre2-32-0-10.39-150400.4.6.1",
        "RelatesToProductReference": "openSUSE Leap 15.4",
        "RelationType": "Default Component Of"
      },
      {
        "ProductReference": "libpcre2-32-0-32bit-10.39-150400.4.6.1",
        "RelatesToProductReference": "openSUSE Leap 15.4",
        "RelationType": "Default Component Of"
      },
      {
        "ProductReference": "libpcre2-8-0-10.39-150400.4.6.1",
        "RelatesToProductReference": "openSUSE Leap 15.4",
        "RelationType": "Default Component Of"
      },
      {
        "ProductReference": "libpcre2-8-0-32bit-10.39-150400.4.6.1",
        "RelatesToProductReference": "openSUSE Leap 15.4",
        "RelationType": "Default Component Of"
      },
      {
        "ProductReference": "libpcre2-posix2-10.39-150400.4.6.1",
        "RelatesToProductReference": "openSUSE Leap 15.4",
        "RelationType": "Default Component Of"
      },
      {
        "ProductReference": "libpcre2-posix2-32bit-10.39-150400.4.6.1",
        "RelatesToProductReference": "openSUSE Leap 15.4",
        "RelationType": "Default Component Of"
      },
      {
        "ProductReference": "pcre2-devel-10.39-150400.4.6.1",
        "RelatesToProductReference": "openSUSE Leap 15.4",
        "RelationType": "Default Component Of"
      },
      {
        "ProductReference": "pcre2-devel-static-10.39-150400.4.6.1",
        "RelatesToProductReference": "openSUSE Leap 15.4",
        "RelationType": "Default Component Of"
      },
      {
        "ProductReference": "pcre2-doc-10.39-150400.4.6.1",
        "RelatesToProductReference": "openSUSE Leap 15.4",
        "RelationType": "Default Component Of"
      },
      {
        "ProductReference": "pcre2-tools-10.39-150400.4.6.1",
        "RelatesToProductReference": "openSUSE Leap 15.4",
        "RelationType": "Default Component Of"
      }
    ]
  },
  "References": [
    {
      "URL": "https://www.suse.com/support/update/announcement/2022/suse-su-20222566-1/",
      "Description": "Link for SUSE-SU-2022:2566-1"
    },
    {
      "URL": "https://lists.suse.com/pipermail/sle-security-updates/2022-July/011681.html",
      "Description": "E-Mail link for SUSE-SU-2022:2566-1"
    },
    {
      "URL": "https://www.suse.com/support/security/rating/",
      "Description": "SUSE Security Ratings"
    },
    {
      "URL": "https://bugzilla.suse.com/1199235",
      "Description": "SUSE Bug 1199235"
    },
    {
      "URL": "https://www.suse.com/security/cve/CVE-2022-1587/",
      "Description": "SUSE CVE CVE-2022-1587 page"
    }
  ],
  "Vulnerabilities": [
    {
      "CVE": "CVE-2022-1587",
      "Description": "An out-of-bounds read vulnerability was discovered in the PCRE2 library in the get_recurse_data_length() function of the pcre2_jit_compile.c file. This issue affects recursions in JIT-compiled regular expressions caused by duplicate data transfers.",
      "Threats": [
        {
          "Type": "Impact",
          "Severity": "important"
        }
      ],
      "References": [
        {
          "URL": "https://www.suse.com/security/cve/CVE-2022-1587.html",
          "Description": "CVE-2022-1587"
        },
        {
          "URL": "https://bugzilla.suse.com/1199235",
          "Description": "SUSE Bug 1199235"
        },
        {
          "URL": "https://bugzilla.suse.com/1201754",
          "Description": "SUSE Bug 1201754"
        },
        {
          "URL": "https://bugzilla.suse.com/1203032",
          "Description": "SUSE Bug 1203032"
        }
      ],
      "ProductStatuses": [
        {
          "Type": "Fixed",
          "ProductID": [
            "Container bci/golang:1.16:libpcre2-8-0-10.39-150400.4.6.1",
            "Container bci/golang:1.17:libpcre2-8-0-10.39-150400.4.6.1",
            "Container bci/golang:1.18:libpcre2-8-0-10.39-150400.4.6.1",
            "Container bci/golang:1.19:libpcre2-8-0-10.39-150400.4.6.1",
            "Container bci/golang:1.20-openssl:libpcre2-8-0-10.39-150400.4.6.1",
            "Container bci/golang:1.21:libpcre2-8-0-10.39-150400.4.6.1",
            "Container bci/golang:latest:libpcre2-8-0-10.39-150400.4.6.1",
            "Container bci/node:14:libpcre2-8-0-10.39-150400.4.6.1",
            "Container bci/node:16:libpcre2-8-0-10.39-150400.4.6.1",
            "Container bci/node:18:libpcre2-8-0-10.39-150400.4.6.1",
            "Container bci/nodejs:latest:libpcre2-8-0-10.39-150400.4.6.1",
            "Container bci/openjdk-devel:11:libpcre2-8-0-10.39-150400.4.6.1",
            "Container bci/openjdk-devel:latest:libpcre2-8-0-10.39-150400.4.6.1",
            "Container bci/php-apache:8:libpcre2-8-0-10.39-150400.4.6.1",
            "Container bci/php-apache:latest:libpcre2-8-0-10.39-150400.4.6.1",
            "Container bci/php-fpm:8:libpcre2-8-0-10.39-150400.4.6.1",
            "Container bci/php-fpm:latest:libpcre2-8-0-10.39-150400.4.6.1",
            "Container bci/php:8:libpcre2-8-0-10.39-150400.4.6.1",
            "Container bci/php:latest:libpcre2-8-0-10.39-150400.4.6.1",
            "Container bci/python:3:libpcre2-8-0-10.39-150400.4.6.1",
            "Container bci/python:latest:libpcre2-8-0-10.39-150400.4.6.1",
            "Container bci/ruby:latest:libpcre2-8-0-10.39-150400.4.6.1",
            "Container rancher/elemental-teal-iso/5.4:latest:libpcre2-8-0-10.39-150400.4.6.1",
            "Container rancher/elemental-teal-rt/5.4:latest:libpcre2-8-0-10.39-150400.4.6.1",
            "Container rancher/elemental-teal/5.4:latest:libpcre2-8-0-10.39-150400.4.6.1",
            "Container suse/389-ds:latest:libpcre2-8-0-10.39-150400.4.6.1",
            "Container suse/git:latest:libpcre2-8-0-10.39-150400.4.6.1",
            "Container suse/nginx:latest:libpcre2-8-0-10.39-150400.4.6.1",
            "Container suse/rmt-mariadb:latest:libpcre2-8-0-10.39-150400.4.6.1",
            "Container suse/rmt-nginx:latest:libpcre2-8-0-10.39-150400.4.6.1",
            "Container suse/sle-micro-rancher/5.4:latest:libpcre2-8-0-10.39-150400.4.6.1",
            "Container suse/sle-micro/5.4/toolbox:latest:libpcre2-8-0-10.39-150400.4.6.1",
            "Container suse/sle-micro/5.5:latest:libpcre2-8-0-10.39-150400.4.6.1",
            "Container suse/sle-micro/kvm-5.5:latest:libpcre2-8-0-10.39-150400.4.6.1",
            "Container suse/sle-micro/rt-5.5:latest:libpcre2-8-0-10.39-150400.4.6.1",
            "Container suse/sles/15.5/libguestfs-tools:0.58.0:libpcre2-8-0-10.39-150400.4.6.1",
            "Image SLES15-SP4-Azure-Basic:libpcre2-8-0-10.39-150400.4.6.1",
            "Image SLES15-SP4-Azure-Standard:libpcre2-8-0-10.39-150400.4.6.1",
            "Image SLES15-SP4-BYOS-Azure:libpcre2-8-0-10.39-150400.4.6.1",
            "Image SLES15-SP4-BYOS-EC2:libpcre2-8-0-10.39-150400.4.6.1",
            "Image SLES15-SP4-BYOS-GCE:libpcre2-8-0-10.39-150400.4.6.1",
            "Image SLES15-SP4-BYOS:libpcre2-8-0-10.39-150400.4.6.1",
            "Image SLES15-SP4-CHOST-BYOS-Aliyun:libpcre2-8-0-10.39-150400.4.6.1",
            "Image SLES15-SP4-CHOST-BYOS-Azure:libpcre2-8-0-10.39-150400.4.6.1",
            "Image SLES15-SP4-CHOST-BYOS-EC2:libpcre2-8-0-10.39-150400.4.6.1",
            "Image SLES15-SP4-CHOST-BYOS-GCE:libpcre2-8-0-10.39-150400.4.6.1",
            "Image SLES15-SP4-CHOST-BYOS-SAP-CCloud:libpcre2-8-0-10.39-150400.4.6.1",
            "Image SLES15-SP4-CHOST-BYOS:libpcre2-8-0-10.39-150400.4.6.1",
            "Image SLES15-SP4-EC2-ECS-HVM:libpcre2-8-0-10.39-150400.4.6.1",
            "Image SLES15-SP4-EC2:libpcre2-8-0-10.39-150400.4.6.1",
            "Image SLES15-SP4-GCE:libpcre2-8-0-10.39-150400.4.6.1",
            "Image SLES15-SP4-HPC-Azure:libpcre2-8-0-10.39-150400.4.6.1",
            "Image SLES15-SP4-HPC-BYOS-Azure:libpcre2-8-0-10.39-150400.4.6.1",
            "Image SLES15-SP4-HPC-BYOS-EC2:libpcre2-8-0-10.39-150400.4.6.1",
            "Image SLES15-SP4-HPC-BYOS-GCE:libpcre2-8-0-10.39-150400.4.6.1",
            "Image SLES15-SP4-HPC-BYOS:libpcre2-8-0-10.39-150400.4.6.1",
            "Image SLES15-SP4-HPC-EC2:libpcre2-8-0-10.39-150400.4.6.1",
            "Image SLES15-SP4-HPC-GCE:libpcre2-8-0-10.39-150400.4.6.1",
            "Image SLES15-SP4-HPC:libpcre2-8-0-10.39-150400.4.6.1",
            "Image SLES15-SP4-Hardened-BYOS-Azure:libpcre2-8-0-10.39-150400.4.6.1",
            "Image SLES15-SP4-Hardened-BYOS-EC2:libpcre2-8-0-10.39-150400.4.6.1",
            "Image SLES15-SP4-Hardened-BYOS-GCE:libpcre2-8-0-10.39-150400.4.6.1",
            "Image SLES15-SP4-Hardened-BYOS:libpcre2-8-0-10.39-150400.4.6.1",
            "Image SLES15-SP4-Manager-Proxy-4-3-BYOS-Azure:libpcre2-8-0-10.39-150400.4.6.1",
            "Image SLES15-SP4-Manager-Proxy-4-3-BYOS-EC2:libpcre2-8-0-10.39-150400.4.6.1",
            "Image SLES15-SP4-Manager-Proxy-4-3-BYOS-GCE:libpcre2-8-0-10.39-150400.4.6.1",
            "Image SLES15-SP4-Manager-Proxy-4-3-BYOS:libpcre2-8-0-10.39-150400.4.6.1",
            "Image SLES15-SP4-Manager-Server-4-3-Azure-llc:libpcre2-8-0-10.39-150400.4.6.1",
            "Image SLES15-SP4-Manager-Server-4-3-Azure-ltd:libpcre2-8-0-10.39-150400.4.6.1",
            "Image SLES15-SP4-Manager-Server-4-3-BYOS-Azure:libpcre2-8-0-10.39-150400.4.6.1",
            "Image SLES15-SP4-Manager-Server-4-3-BYOS-EC2:libpcre2-8-0-10.39-150400.4.6.1",
            "Image SLES15-SP4-Manager-Server-4-3-BYOS-GCE:libpcre2-8-0-10.39-150400.4.6.1",
            "Image SLES15-SP4-Manager-Server-4-3-BYOS:libpcre2-8-0-10.39-150400.4.6.1",
            "Image SLES15-SP4-Manager-Server-4-3-EC2-llc:libpcre2-8-0-10.39-150400.4.6.1",
            "Image SLES15-SP4-Manager-Server-4-3-EC2-ltd:libpcre2-8-0-10.39-150400.4.6.1",
            "Image SLES15-SP4-Manager-Server-4-3:libpcre2-8-0-10.39-150400.4.6.1",
            "Image SLES15-SP4-Micro-5-4-Azure:libpcre2-8-0-10.39-150400.4.6.1",
            "Image SLES15-SP4-Micro-5-4-BYOS-Azure:libpcre2-8-0-10.39-150400.4.6.1",
            "Image SLES15-SP4-Micro-5-4-BYOS-EC2:libpcre2-8-0-10.39-150400.4.6.1",
            "Image SLES15-SP4-Micro-5-4-BYOS-GCE:libpcre2-8-0-10.39-150400.4.6.1",
            "Image SLES15-SP4-Micro-5-4-BYOS:libpcre2-8-0-10.39-150400.4.6.1",
            "Image SLES15-SP4-Micro-5-4-EC2:libpcre2-8-0-10.39-150400.4.6.1",
            "Image SLES15-SP4-Micro-5-4-GCE:libpcre2-8-0-10.39-150400.4.6.1",
            "Image SLES15-SP4-Micro-5-4:libpcre2-8-0-10.39-150400.4.6.1",
            "Image SLES15-SP4-SAP-Azure-LI-BYOS-Production:libpcre2-16-0-10.39-150400.4.6.1",
            "Image SLES15-SP4-SAP-Azure-LI-BYOS-Production:libpcre2-8-0-10.39-150400.4.6.1",
            "Image SLES15-SP4-SAP-Azure-LI-BYOS:libpcre2-16-0-10.39-150400.4.6.1",
            "Image SLES15-SP4-SAP-Azure-LI-BYOS:libpcre2-8-0-10.39-150400.4.6.1",
            "Image SLES15-SP4-SAP-Azure-VLI-BYOS-Production:libpcre2-16-0-10.39-150400.4.6.1",
            "Image SLES15-SP4-SAP-Azure-VLI-BYOS-Production:libpcre2-8-0-10.39-150400.4.6.1",
            "Image SLES15-SP4-SAP-Azure-VLI-BYOS:libpcre2-16-0-10.39-150400.4.6.1",
            "Image SLES15-SP4-SAP-Azure-VLI-BYOS:libpcre2-8-0-10.39-150400.4.6.1",
            "Image SLES15-SP4-SAP-Azure:libpcre2-8-0-10.39-150400.4.6.1",
            "Image SLES15-SP4-SAP-BYOS-Azure:libpcre2-16-0-10.39-150400.4.6.1",
            "Image SLES15-SP4-SAP-BYOS-Azure:libpcre2-8-0-10.39-150400.4.6.1",
            "Image SLES15-SP4-SAP-BYOS-EC2:libpcre2-16-0-10.39-150400.4.6.1",
            "Image SLES15-SP4-SAP-BYOS-EC2:libpcre2-8-0-10.39-150400.4.6.1",
            "Image SLES15-SP4-SAP-BYOS-GCE:libpcre2-16-0-10.39-150400.4.6.1",
            "Image SLES15-SP4-SAP-BYOS-GCE:libpcre2-8-0-10.39-150400.4.6.1",
            "Image SLES15-SP4-SAP-BYOS:libpcre2-16-0-10.39-150400.4.6.1",
            "Image SLES15-SP4-SAP-BYOS:libpcre2-8-0-10.39-150400.4.6.1",
            "Image SLES15-SP4-SAP-EC2:libpcre2-8-0-10.39-150400.4.6.1",
            "Image SLES15-SP4-SAP-GCE:libpcre2-8-0-10.39-150400.4.6.1",
            "Image SLES15-SP4-SAP-Hardened-Azure:libpcre2-16-0-10.39-150400.4.6.1",
            "Image SLES15-SP4-SAP-Hardened-Azure:libpcre2-8-0-10.39-150400.4.6.1",
            "Image SLES15-SP4-SAP-Hardened-BYOS-Azure:libpcre2-16-0-10.39-150400.4.6.1",
            "Image SLES15-SP4-SAP-Hardened-BYOS-Azure:libpcre2-8-0-10.39-150400.4.6.1",
            "Image SLES15-SP4-SAP-Hardened-BYOS-EC2:libpcre2-16-0-10.39-150400.4.6.1",
            "Image SLES15-SP4-SAP-Hardened-BYOS-EC2:libpcre2-8-0-10.39-150400.4.6.1",
            "Image SLES15-SP4-SAP-Hardened-BYOS-GCE:libpcre2-16-0-10.39-150400.4.6.1",
            "Image SLES15-SP4-SAP-Hardened-BYOS-GCE:libpcre2-8-0-10.39-150400.4.6.1",
            "Image SLES15-SP4-SAP-Hardened-BYOS:libpcre2-16-0-10.39-150400.4.6.1",
            "Image SLES15-SP4-SAP-Hardened-BYOS:libpcre2-8-0-10.39-150400.4.6.1",
            "Image SLES15-SP4-SAP-Hardened-EC2:libpcre2-16-0-10.39-150400.4.6.1",
            "Image SLES15-SP4-SAP-Hardened-EC2:libpcre2-8-0-10.39-150400.4.6.1",
            "Image SLES15-SP4-SAP-Hardened-GCE:libpcre2-16-0-10.39-150400.4.6.1",
            "Image SLES15-SP4-SAP-Hardened-GCE:libpcre2-8-0-10.39-150400.4.6.1",
            "Image SLES15-SP4-SAP-Hardened:libpcre2-16-0-10.39-150400.4.6.1",
            "Image SLES15-SP4-SAP-Hardened:libpcre2-8-0-10.39-150400.4.6.1",
            "Image SLES15-SP4-SAP:libpcre2-8-0-10.39-150400.4.6.1",
            "Image SLES15-SP4-SAPCAL-Azure:libpcre2-8-0-10.39-150400.4.6.1",
            "Image SLES15-SP4-SAPCAL-EC2:libpcre2-8-0-10.39-150400.4.6.1",
            "Image SLES15-SP4-SAPCAL-GCE:libpcre2-8-0-10.39-150400.4.6.1",
            "Image SLES15-SP4-SAPCAL:libpcre2-8-0-10.39-150400.4.6.1",
            "Image SLES15-SP4-SUSE-Rancher-Setup-BYOS-EC2-HVM:libpcre2-8-0-10.39-150400.4.6.1",
            "Image SLES15-SP4-SUSE-Rancher-Setup-BYOS-EC2:libpcre2-8-0-10.39-150400.4.6.1",
            "Image SLES15-SP4-SUSE-Rancher-Setup-BYOS:libpcre2-8-0-10.39-150400.4.6.1",
            "Image SLES15-SP4:libpcre2-8-0-10.39-150400.4.6.1",
            "Image SLES15-SP5-Azure-Basic:libpcre2-8-0-10.39-150400.4.6.1",
            "Image SLES15-SP5-Azure-Standard:libpcre2-8-0-10.39-150400.4.6.1",
            "Image SLES15-SP5-BYOS-Azure:libpcre2-8-0-10.39-150400.4.6.1",
            "Image SLES15-SP5-BYOS-EC2:libpcre2-8-0-10.39-150400.4.6.1",
            "Image SLES15-SP5-BYOS-GCE:libpcre2-8-0-10.39-150400.4.6.1",
            "Image SLES15-SP5-CHOST-BYOS-Aliyun:libpcre2-8-0-10.39-150400.4.6.1",
            "Image SLES15-SP5-CHOST-BYOS-Azure:libpcre2-8-0-10.39-150400.4.6.1",
            "Image SLES15-SP5-CHOST-BYOS-EC2:libpcre2-8-0-10.39-150400.4.6.1",
            "Image SLES15-SP5-CHOST-BYOS-GCE:libpcre2-8-0-10.39-150400.4.6.1",
            "Image SLES15-SP5-CHOST-BYOS-SAP-CCloud:libpcre2-8-0-10.39-150400.4.6.1",
            "Image SLES15-SP5-EC2-ECS-HVM:libpcre2-8-0-10.39-150400.4.6.1",
            "Image SLES15-SP5-EC2:libpcre2-8-0-10.39-150400.4.6.1",
            "Image SLES15-SP5-GCE:libpcre2-8-0-10.39-150400.4.6.1",
            "Image SLES15-SP5-HPC-Azure:libpcre2-8-0-10.39-150400.4.6.1",
            "Image SLES15-SP5-HPC-BYOS-Azure:libpcre2-8-0-10.39-150400.4.6.1",
            "Image SLES15-SP5-HPC-BYOS-EC2:libpcre2-8-0-10.39-150400.4.6.1",
            "Image SLES15-SP5-HPC-BYOS-GCE:libpcre2-8-0-10.39-150400.4.6.1",
            "Image SLES15-SP5-HPC-EC2:libpcre2-8-0-10.39-150400.4.6.1",
            "Image SLES15-SP5-HPC-GCE:libpcre2-8-0-10.39-150400.4.6.1",
            "Image SLES15-SP5-Hardened-BYOS-Azure:libpcre2-8-0-10.39-150400.4.6.1",
            "Image SLES15-SP5-Hardened-BYOS-EC2:libpcre2-8-0-10.39-150400.4.6.1",
            "Image SLES15-SP5-Hardened-BYOS-GCE:libpcre2-8-0-10.39-150400.4.6.1",
            "Image SLES15-SP5-Micro-5-5-Azure:libpcre2-8-0-10.39-150400.4.6.1",
            "Image SLES15-SP5-Micro-5-5-BYOS-Azure:libpcre2-8-0-10.39-150400.4.6.1",
            "Image SLES15-SP5-Micro-5-5-BYOS-EC2:libpcre2-8-0-10.39-150400.4.6.1",
            "Image SLES15-SP5-Micro-5-5-BYOS-GCE:libpcre2-8-0-10.39-150400.4.6.1",
            "Image SLES15-SP5-Micro-5-5-BYOS:libpcre2-8-0-10.39-150400.4.6.1",
            "Image SLES15-SP5-Micro-5-5-EC2:libpcre2-8-0-10.39-150400.4.6.1",
            "Image SLES15-SP5-Micro-5-5-GCE:libpcre2-8-0-10.39-150400.4.6.1",
            "Image SLES15-SP5-Micro-5-5:libpcre2-8-0-10.39-150400.4.6.1",
            "Image SLES15-SP5-SAP-Azure-LI-BYOS-Production:libpcre2-16-0-10.39-150400.4.6.1",
            "Image SLES15-SP5-SAP-Azure-LI-BYOS-Production:libpcre2-8-0-10.39-150400.4.6.1",
            "Image SLES15-SP5-SAP-Azure-LI-BYOS:libpcre2-16-0-10.39-150400.4.6.1",
            "Image SLES15-SP5-SAP-Azure-LI-BYOS:libpcre2-8-0-10.39-150400.4.6.1",
            "Image SLES15-SP5-SAP-Azure-VLI-BYOS-Production:libpcre2-16-0-10.39-150400.4.6.1",
            "Image SLES15-SP5-SAP-Azure-VLI-BYOS-Production:libpcre2-8-0-10.39-150400.4.6.1",
            "Image SLES15-SP5-SAP-Azure-VLI-BYOS:libpcre2-16-0-10.39-150400.4.6.1",
            "Image SLES15-SP5-SAP-Azure-VLI-BYOS:libpcre2-8-0-10.39-150400.4.6.1",
            "Image SLES15-SP5-SAP-Azure:libpcre2-8-0-10.39-150400.4.6.1",
            "Image SLES15-SP5-SAP-BYOS-Azure:libpcre2-16-0-10.39-150400.4.6.1",
            "Image SLES15-SP5-SAP-BYOS-Azure:libpcre2-8-0-10.39-150400.4.6.1",
            "Image SLES15-SP5-SAP-BYOS-EC2:libpcre2-16-0-10.39-150400.4.6.1",
            "Image SLES15-SP5-SAP-BYOS-EC2:libpcre2-8-0-10.39-150400.4.6.1",
            "Image SLES15-SP5-SAP-BYOS-GCE:libpcre2-16-0-10.39-150400.4.6.1",
            "Image SLES15-SP5-SAP-BYOS-GCE:libpcre2-8-0-10.39-150400.4.6.1",
            "Image SLES15-SP5-SAP-EC2:libpcre2-8-0-10.39-150400.4.6.1",
            "Image SLES15-SP5-SAP-GCE:libpcre2-8-0-10.39-150400.4.6.1",
            "Image SLES15-SP5-SAP-Hardened-Azure:libpcre2-16-0-10.39-150400.4.6.1",
            "Image SLES15-SP5-SAP-Hardened-Azure:libpcre2-8-0-10.39-150400.4.6.1",
            "Image SLES15-SP5-SAP-Hardened-BYOS-Azure:libpcre2-16-0-10.39-150400.4.6.1",
            "Image SLES15-SP5-SAP-Hardened-BYOS-Azure:libpcre2-8-0-10.39-150400.4.6.1",
            "Image SLES15-SP5-SAP-Hardened-BYOS-EC2:libpcre2-16-0-10.39-150400.4.6.1",
            "Image SLES15-SP5-SAP-Hardened-BYOS-EC2:libpcre2-8-0-10.39-150400.4.6.1",
            "Image SLES15-SP5-SAP-Hardened-BYOS-GCE:libpcre2-16-0-10.39-150400.4.6.1",
            "Image SLES15-SP5-SAP-Hardened-BYOS-GCE:libpcre2-8-0-10.39-150400.4.6.1",
            "Image SLES15-SP5-SAP-Hardened-EC2:libpcre2-16-0-10.39-150400.4.6.1",
            "Image SLES15-SP5-SAP-Hardened-EC2:libpcre2-8-0-10.39-150400.4.6.1",
            "Image SLES15-SP5-SAP-Hardened-GCE:libpcre2-16-0-10.39-150400.4.6.1",
            "Image SLES15-SP5-SAP-Hardened-GCE:libpcre2-8-0-10.39-150400.4.6.1",
            "Image SLES15-SP5-SAPCAL-Azure:libpcre2-8-0-10.39-150400.4.6.1",
            "Image SLES15-SP5-SAPCAL-EC2:libpcre2-8-0-10.39-150400.4.6.1",
            "Image SLES15-SP5-SAPCAL-GCE:libpcre2-8-0-10.39-150400.4.6.1",
            "SUSE Linux Enterprise Module for Basesystem 15 SP4:libpcre2-16-0-10.39-150400.4.6.1",
            "SUSE Linux Enterprise Module for Basesystem 15 SP4:libpcre2-32-0-10.39-150400.4.6.1",
            "SUSE Linux Enterprise Module for Basesystem 15 SP4:libpcre2-8-0-10.39-150400.4.6.1",
            "SUSE Linux Enterprise Module for Basesystem 15 SP4:libpcre2-posix2-10.39-150400.4.6.1",
            "SUSE Linux Enterprise Module for Basesystem 15 SP4:pcre2-devel-10.39-150400.4.6.1",
            "openSUSE Leap 15.4:libpcre2-16-0-10.39-150400.4.6.1",
            "openSUSE Leap 15.4:libpcre2-16-0-32bit-10.39-150400.4.6.1",
            "openSUSE Leap 15.4:libpcre2-32-0-10.39-150400.4.6.1",
            "openSUSE Leap 15.4:libpcre2-32-0-32bit-10.39-150400.4.6.1",
            "openSUSE Leap 15.4:libpcre2-8-0-10.39-150400.4.6.1",
            "openSUSE Leap 15.4:libpcre2-8-0-32bit-10.39-150400.4.6.1",
            "openSUSE Leap 15.4:libpcre2-posix2-10.39-150400.4.6.1",
            "openSUSE Leap 15.4:libpcre2-posix2-32bit-10.39-150400.4.6.1",
            "openSUSE Leap 15.4:pcre2-devel-10.39-150400.4.6.1",
            "openSUSE Leap 15.4:pcre2-devel-static-10.39-150400.4.6.1",
            "openSUSE Leap 15.4:pcre2-doc-10.39-150400.4.6.1",
            "openSUSE Leap 15.4:pcre2-tools-10.39-150400.4.6.1"
          ]
        }
      ],
      "CVSSScoreSets": {}
    }
  ]
}