{
  "Title": "Recommended update for Salt",
  "Tracking": {
    "ID": "SUSE-RU-2022:1384-1",
    "Status": "Final",
    "Version": "1",
    "InitialReleaseDate": "2022-04-25T14:39:28Z",
    "CurrentReleaseDate": "2022-04-25T14:39:28Z",
    "RevisionHistory": [
      {
        "Number": "1",
        "Date": "2022-04-25T14:39:28Z",
        "Description": "current"
      }
    ]
  },
  "Notes": [
    {
      "Text": "Recommended update for Salt",
      "Title": "Topic",
      "Type": "Summary"
    },
    {
      "Text": "This update fixes the following issues:\n\nsalt:\n\n- Clear network interfaces cache on grains request (bsc#1196050)\n- Handle old qemu-img not supporting -U parameter (bsc#1195221)\n- Restrict 'state.orchestrate_single' to pass a pillar value if it exists (bsc#1194632)\n- Fix sparse disk errors on Python 2 (virt module)\n\n",
      "Title": "Details",
      "Type": "General"
    },
    {
      "Text": "The CVRF data is provided by SUSE under the Creative Commons License 4.0 with Attribution (CC-BY-4.0).",
      "Title": "Terms of Use",
      "Type": "Legal Disclaimer"
    },
    {
      "Text": "Image SLES12-SP4-Azure-BYOS-2022-1384,Image SLES12-SP4-SAP-Azure-BYOS-2022-1384,Image SLES12-SP5-Azure-BYOS-2022-1384,Image SLES12-SP5-Azure-HPC-BYOS-2022-1384,Image SLES12-SP5-Azure-SAP-BYOS-2022-1384,Image SLES12-SP5-EC2-BYOS-2022-1384,Image SLES12-SP5-EC2-SAP-BYOS-2022-1384,Image SLES12-SP5-GCE-BYOS-2022-1384,Image SLES12-SP5-GCE-SAP-BYOS-2022-1384,SUSE-2022-1384,SUSE-SLE-Manager-Tools-12-2022-1384,SUSE-SLE-Module-Adv-Systems-Management-12-2022-1384",
      "Title": "Patchnames",
      "Type": "Details"
    }
  ],
  "ProductTree": {
    "Relationships": [
      {
        "ProductReference": "python2-salt-3000-62.1",
        "RelatesToProductReference": "Image SLES12-SP4-Azure-BYOS",
        "RelationType": "Default Component Of"
      },
      {
        "ProductReference": "salt-3000-62.1",
        "RelatesToProductReference": "Image SLES12-SP4-Azure-BYOS",
        "RelationType": "Default Component Of"
      },
      {
        "ProductReference": "salt-minion-3000-62.1",
        "RelatesToProductReference": "Image SLES12-SP4-Azure-BYOS",
        "RelationType": "Default Component Of"
      },
      {
        "ProductReference": "python2-salt-3000-62.1",
        "RelatesToProductReference": "Image SLES12-SP4-SAP-Azure-BYOS",
        "RelationType": "Default Component Of"
      },
      {
        "ProductReference": "salt-3000-62.1",
        "RelatesToProductReference": "Image SLES12-SP4-SAP-Azure-BYOS",
        "RelationType": "Default Component Of"
      },
      {
        "ProductReference": "salt-minion-3000-62.1",
        "RelatesToProductReference": "Image SLES12-SP4-SAP-Azure-BYOS",
        "RelationType": "Default Component Of"
      },
      {
        "ProductReference": "python2-salt-3000-62.1",
        "RelatesToProductReference": "Image SLES12-SP5-Azure-BYOS",
        "RelationType": "Default Component Of"
      },
      {
        "ProductReference": "salt-3000-62.1",
        "RelatesToProductReference": "Image SLES12-SP5-Azure-BYOS",
        "RelationType": "Default Component Of"
      },
      {
        "ProductReference": "salt-minion-3000-62.1",
        "RelatesToProductReference": "Image SLES12-SP5-Azure-BYOS",
        "RelationType": "Default Component Of"
      },
      {
        "ProductReference": "python2-salt-3000-62.1",
        "RelatesToProductReference": "Image SLES12-SP5-Azure-HPC-BYOS",
        "RelationType": "Default Component Of"
      },
      {
        "ProductReference": "salt-3000-62.1",
        "RelatesToProductReference": "Image SLES12-SP5-Azure-HPC-BYOS",
        "RelationType": "Default Component Of"
      },
      {
        "ProductReference": "salt-minion-3000-62.1",
        "RelatesToProductReference": "Image SLES12-SP5-Azure-HPC-BYOS",
        "RelationType": "Default Component Of"
      },
      {
        "ProductReference": "python2-salt-3000-62.1",
        "RelatesToProductReference": "Image SLES12-SP5-Azure-SAP-BYOS",
        "RelationType": "Default Component Of"
      },
      {
        "ProductReference": "salt-3000-62.1",
        "RelatesToProductReference": "Image SLES12-SP5-Azure-SAP-BYOS",
        "RelationType": "Default Component Of"
      },
      {
        "ProductReference": "salt-minion-3000-62.1",
        "RelatesToProductReference": "Image SLES12-SP5-Azure-SAP-BYOS",
        "RelationType": "Default Component Of"
      },
      {
        "ProductReference": "python2-salt-3000-62.1",
        "RelatesToProductReference": "Image SLES12-SP5-EC2-BYOS",
        "RelationType": "Default Component Of"
      },
      {
        "ProductReference": "salt-3000-62.1",
        "RelatesToProductReference": "Image SLES12-SP5-EC2-BYOS",
        "RelationType": "Default Component Of"
      },
      {
        "ProductReference": "salt-minion-3000-62.1",
        "RelatesToProductReference": "Image SLES12-SP5-EC2-BYOS",
        "RelationType": "Default Component Of"
      },
      {
        "ProductReference": "python2-salt-3000-62.1",
        "RelatesToProductReference": "Image SLES12-SP5-EC2-SAP-BYOS",
        "RelationType": "Default Component Of"
      },
      {
        "ProductReference": "salt-3000-62.1",
        "RelatesToProductReference": "Image SLES12-SP5-EC2-SAP-BYOS",
        "RelationType": "Default Component Of"
      },
      {
        "ProductReference": "salt-minion-3000-62.1",
        "RelatesToProductReference": "Image SLES12-SP5-EC2-SAP-BYOS",
        "RelationType": "Default Component Of"
      },
      {
        "ProductReference": "python2-salt-3000-62.1",
        "RelatesToProductReference": "Image SLES12-SP5-GCE-BYOS",
        "RelationType": "Default Component Of"
      },
      {
        "ProductReference": "salt-3000-62.1",
        "RelatesToProductReference": "Image SLES12-SP5-GCE-BYOS",
        "RelationType": "Default Component Of"
      },
      {
        "ProductReference": "salt-minion-3000-62.1",
        "RelatesToProductReference": "Image SLES12-SP5-GCE-BYOS",
        "RelationType": "Default Component Of"
      },
      {
        "ProductReference": "python2-salt-3000-62.1",
        "RelatesToProductReference": "Image SLES12-SP5-GCE-SAP-BYOS",
        "RelationType": "Default Component Of"
      },
      {
        "ProductReference": "salt-3000-62.1",
        "RelatesToProductReference": "Image SLES12-SP5-GCE-SAP-BYOS",
        "RelationType": "Default Component Of"
      },
      {
        "ProductReference": "salt-minion-3000-62.1",
        "RelatesToProductReference": "Image SLES12-SP5-GCE-SAP-BYOS",
        "RelationType": "Default Component Of"
      },
      {
        "ProductReference": "python2-salt-3000-62.1",
        "RelatesToProductReference": "SUSE Linux Enterprise Module for Advanced Systems Management 12",
        "RelationType": "Default Component Of"
      },
      {
        "ProductReference": "salt-3000-62.1",
        "RelatesToProductReference": "SUSE Linux Enterprise Module for Advanced Systems Management 12",
        "RelationType": "Default Component Of"
      },
      {
        "ProductReference": "salt-api-3000-62.1",
        "RelatesToProductReference": "SUSE Linux Enterprise Module for Advanced Systems Management 12",
        "RelationType": "Default Component Of"
      },
      {
        "ProductReference": "salt-bash-completion-3000-62.1",
        "RelatesToProductReference": "SUSE Linux Enterprise Module for Advanced Systems Management 12",
        "RelationType": "Default Component Of"
      },
      {
        "ProductReference": "salt-cloud-3000-62.1",
        "RelatesToProductReference": "SUSE Linux Enterprise Module for Advanced Systems Management 12",
        "RelationType": "Default Component Of"
      },
      {
        "ProductReference": "salt-doc-3000-62.1",
        "RelatesToProductReference": "SUSE Linux Enterprise Module for Advanced Systems Management 12",
        "RelationType": "Default Component Of"
      },
      {
        "ProductReference": "salt-master-3000-62.1",
        "RelatesToProductReference": "SUSE Linux Enterprise Module for Advanced Systems Management 12",
        "RelationType": "Default Component Of"
      },
      {
        "ProductReference": "salt-minion-3000-62.1",
        "RelatesToProductReference": "SUSE Linux Enterprise Module for Advanced Systems Management 12",
        "RelationType": "Default Component Of"
      },
      {
        "ProductReference": "salt-proxy-3000-62.1",
        "RelatesToProductReference": "SUSE Linux Enterprise Module for Advanced Systems Management 12",
        "RelationType": "Default Component Of"
      },
      {
        "ProductReference": "salt-ssh-3000-62.1",
        "RelatesToProductReference": "SUSE Linux Enterprise Module for Advanced Systems Management 12",
        "RelationType": "Default Component Of"
      },
      {
        "ProductReference": "salt-standalone-formulas-configuration-3000-62.1",
        "RelatesToProductReference": "SUSE Linux Enterprise Module for Advanced Systems Management 12",
        "RelationType": "Default Component Of"
      },
      {
        "ProductReference": "salt-syndic-3000-62.1",
        "RelatesToProductReference": "SUSE Linux Enterprise Module for Advanced Systems Management 12",
        "RelationType": "Default Component Of"
      },
      {
        "ProductReference": "salt-zsh-completion-3000-62.1",
        "RelatesToProductReference": "SUSE Linux Enterprise Module for Advanced Systems Management 12",
        "RelationType": "Default Component Of"
      },
      {
        "ProductReference": "python2-salt-3000-62.1",
        "RelatesToProductReference": "SUSE Manager Tools 12",
        "RelationType": "Default Component Of"
      },
      {
        "ProductReference": "python3-salt-3000-62.1",
        "RelatesToProductReference": "SUSE Manager Tools 12",
        "RelationType": "Default Component Of"
      },
      {
        "ProductReference": "salt-3000-62.1",
        "RelatesToProductReference": "SUSE Manager Tools 12",
        "RelationType": "Default Component Of"
      },
      {
        "ProductReference": "salt-doc-3000-62.1",
        "RelatesToProductReference": "SUSE Manager Tools 12",
        "RelationType": "Default Component Of"
      },
      {
        "ProductReference": "salt-minion-3000-62.1",
        "RelatesToProductReference": "SUSE Manager Tools 12",
        "RelationType": "Default Component Of"
      }
    ]
  },
  "References": [
    {
      "URL": "https://www.suse.com/support/update/announcement/-2022-1384/suse-ru-20221384-1/",
      "Description": "Link for SUSE-RU-2022:1384-1"
    },
    {
      "URL": "https://lists.suse.com/pipermail/sle-updates/2022-April/022760.html",
      "Description": "E-Mail link for SUSE-RU-2022:1384-1"
    },
    {
      "URL": "https://www.suse.com/support/security/rating/",
      "Description": "SUSE Security Ratings"
    },
    {
      "URL": "https://bugzilla.suse.com/1194632",
      "Description": "SUSE Bug 1194632"
    },
    {
      "URL": "https://bugzilla.suse.com/1195221",
      "Description": "SUSE Bug 1195221"
    },
    {
      "URL": "https://bugzilla.suse.com/1196050",
      "Description": "SUSE Bug 1196050"
    },
    {
      "URL": "https://bugzilla.suse.com/1197417",
      "Description": "SUSE Bug 1197417"
    },
    {
      "URL": "https://www.suse.com/security/cve/CVE-2020-22935/",
      "Description": "SUSE CVE CVE-2020-22935 page"
    },
    {
      "URL": "https://www.suse.com/security/cve/CVE-2022-22934/",
      "Description": "SUSE CVE CVE-2022-22934 page"
    },
    {
      "URL": "https://www.suse.com/security/cve/CVE-2022-22936/",
      "Description": "SUSE CVE CVE-2022-22936 page"
    },
    {
      "URL": "https://www.suse.com/security/cve/CVE-2022-22941/",
      "Description": "SUSE CVE CVE-2022-22941 page"
    }
  ],
  "Vulnerabilities": [
    {
      "CVE": "CVE-2020-22935",
      "Description": "** RESERVED ** This candidate has been reserved by an organization or individual that will use it when announcing a new security problem. When the candidate has been publicized, the details for this candidate will be provided.",
      "Threats": [
        {
          "Type": "Impact",
          "Severity": "moderate"
        }
      ],
      "References": [
        {
          "URL": "https://www.suse.com/security/cve/CVE-2020-22935.html",
          "Description": "CVE-2020-22935"
        }
      ],
      "ProductStatuses": [
        {
          "Type": "Fixed",
          "ProductID": [
            "Image SLES12-SP4-Azure-BYOS:python2-salt-3000-62.1",
            "Image SLES12-SP4-Azure-BYOS:salt-3000-62.1",
            "Image SLES12-SP4-Azure-BYOS:salt-minion-3000-62.1",
            "Image SLES12-SP4-SAP-Azure-BYOS:python2-salt-3000-62.1",
            "Image SLES12-SP4-SAP-Azure-BYOS:salt-3000-62.1",
            "Image SLES12-SP4-SAP-Azure-BYOS:salt-minion-3000-62.1",
            "Image SLES12-SP5-Azure-BYOS:python2-salt-3000-62.1",
            "Image SLES12-SP5-Azure-BYOS:salt-3000-62.1",
            "Image SLES12-SP5-Azure-BYOS:salt-minion-3000-62.1",
            "Image SLES12-SP5-Azure-HPC-BYOS:python2-salt-3000-62.1",
            "Image SLES12-SP5-Azure-HPC-BYOS:salt-3000-62.1",
            "Image SLES12-SP5-Azure-HPC-BYOS:salt-minion-3000-62.1",
            "Image SLES12-SP5-Azure-SAP-BYOS:python2-salt-3000-62.1",
            "Image SLES12-SP5-Azure-SAP-BYOS:salt-3000-62.1",
            "Image SLES12-SP5-Azure-SAP-BYOS:salt-minion-3000-62.1",
            "Image SLES12-SP5-EC2-BYOS:python2-salt-3000-62.1",
            "Image SLES12-SP5-EC2-BYOS:salt-3000-62.1",
            "Image SLES12-SP5-EC2-BYOS:salt-minion-3000-62.1",
            "Image SLES12-SP5-EC2-SAP-BYOS:python2-salt-3000-62.1",
            "Image SLES12-SP5-EC2-SAP-BYOS:salt-3000-62.1",
            "Image SLES12-SP5-EC2-SAP-BYOS:salt-minion-3000-62.1",
            "Image SLES12-SP5-GCE-BYOS:python2-salt-3000-62.1",
            "Image SLES12-SP5-GCE-BYOS:salt-3000-62.1",
            "Image SLES12-SP5-GCE-BYOS:salt-minion-3000-62.1",
            "Image SLES12-SP5-GCE-SAP-BYOS:python2-salt-3000-62.1",
            "Image SLES12-SP5-GCE-SAP-BYOS:salt-3000-62.1",
            "Image SLES12-SP5-GCE-SAP-BYOS:salt-minion-3000-62.1",
            "SUSE Linux Enterprise Module for Advanced Systems Management 12:python2-salt-3000-62.1",
            "SUSE Linux Enterprise Module for Advanced Systems Management 12:salt-3000-62.1",
            "SUSE Linux Enterprise Module for Advanced Systems Management 12:salt-api-3000-62.1",
            "SUSE Linux Enterprise Module for Advanced Systems Management 12:salt-bash-completion-3000-62.1",
            "SUSE Linux Enterprise Module for Advanced Systems Management 12:salt-cloud-3000-62.1",
            "SUSE Linux Enterprise Module for Advanced Systems Management 12:salt-doc-3000-62.1",
            "SUSE Linux Enterprise Module for Advanced Systems Management 12:salt-master-3000-62.1",
            "SUSE Linux Enterprise Module for Advanced Systems Management 12:salt-minion-3000-62.1",
            "SUSE Linux Enterprise Module for Advanced Systems Management 12:salt-proxy-3000-62.1",
            "SUSE Linux Enterprise Module for Advanced Systems Management 12:salt-ssh-3000-62.1",
            "SUSE Linux Enterprise Module for Advanced Systems Management 12:salt-standalone-formulas-configuration-3000-62.1",
            "SUSE Linux Enterprise Module for Advanced Systems Management 12:salt-syndic-3000-62.1",
            "SUSE Linux Enterprise Module for Advanced Systems Management 12:salt-zsh-completion-3000-62.1",
            "SUSE Manager Tools 12:python2-salt-3000-62.1",
            "SUSE Manager Tools 12:python3-salt-3000-62.1",
            "SUSE Manager Tools 12:salt-3000-62.1",
            "SUSE Manager Tools 12:salt-doc-3000-62.1",
            "SUSE Manager Tools 12:salt-minion-3000-62.1"
          ]
        }
      ],
      "CVSSScoreSets": {}
    },
    {
      "CVE": "CVE-2022-22934",
      "Description": "An issue was discovered in SaltStack Salt in versions before 3002.8, 3003.4, 3004.1. Salt Masters do not sign pillar data with the minion's public key, which can result in attackers substituting arbitrary pillar data.",
      "Threats": [
        {
          "Type": "Impact",
          "Severity": "important"
        }
      ],
      "References": [
        {
          "URL": "https://www.suse.com/security/cve/CVE-2022-22934.html",
          "Description": "CVE-2022-22934"
        },
        {
          "URL": "https://bugzilla.suse.com/1197417",
          "Description": "SUSE Bug 1197417"
        },
        {
          "URL": "https://bugzilla.suse.com/1197765",
          "Description": "SUSE Bug 1197765"
        }
      ],
      "ProductStatuses": [
        {
          "Type": "Fixed",
          "ProductID": [
            "Image SLES12-SP4-Azure-BYOS:python2-salt-3000-62.1",
            "Image SLES12-SP4-Azure-BYOS:salt-3000-62.1",
            "Image SLES12-SP4-Azure-BYOS:salt-minion-3000-62.1",
            "Image SLES12-SP4-SAP-Azure-BYOS:python2-salt-3000-62.1",
            "Image SLES12-SP4-SAP-Azure-BYOS:salt-3000-62.1",
            "Image SLES12-SP4-SAP-Azure-BYOS:salt-minion-3000-62.1",
            "Image SLES12-SP5-Azure-BYOS:python2-salt-3000-62.1",
            "Image SLES12-SP5-Azure-BYOS:salt-3000-62.1",
            "Image SLES12-SP5-Azure-BYOS:salt-minion-3000-62.1",
            "Image SLES12-SP5-Azure-HPC-BYOS:python2-salt-3000-62.1",
            "Image SLES12-SP5-Azure-HPC-BYOS:salt-3000-62.1",
            "Image SLES12-SP5-Azure-HPC-BYOS:salt-minion-3000-62.1",
            "Image SLES12-SP5-Azure-SAP-BYOS:python2-salt-3000-62.1",
            "Image SLES12-SP5-Azure-SAP-BYOS:salt-3000-62.1",
            "Image SLES12-SP5-Azure-SAP-BYOS:salt-minion-3000-62.1",
            "Image SLES12-SP5-EC2-BYOS:python2-salt-3000-62.1",
            "Image SLES12-SP5-EC2-BYOS:salt-3000-62.1",
            "Image SLES12-SP5-EC2-BYOS:salt-minion-3000-62.1",
            "Image SLES12-SP5-EC2-SAP-BYOS:python2-salt-3000-62.1",
            "Image SLES12-SP5-EC2-SAP-BYOS:salt-3000-62.1",
            "Image SLES12-SP5-EC2-SAP-BYOS:salt-minion-3000-62.1",
            "Image SLES12-SP5-GCE-BYOS:python2-salt-3000-62.1",
            "Image SLES12-SP5-GCE-BYOS:salt-3000-62.1",
            "Image SLES12-SP5-GCE-BYOS:salt-minion-3000-62.1",
            "Image SLES12-SP5-GCE-SAP-BYOS:python2-salt-3000-62.1",
            "Image SLES12-SP5-GCE-SAP-BYOS:salt-3000-62.1",
            "Image SLES12-SP5-GCE-SAP-BYOS:salt-minion-3000-62.1",
            "SUSE Linux Enterprise Module for Advanced Systems Management 12:python2-salt-3000-62.1",
            "SUSE Linux Enterprise Module for Advanced Systems Management 12:salt-3000-62.1",
            "SUSE Linux Enterprise Module for Advanced Systems Management 12:salt-api-3000-62.1",
            "SUSE Linux Enterprise Module for Advanced Systems Management 12:salt-bash-completion-3000-62.1",
            "SUSE Linux Enterprise Module for Advanced Systems Management 12:salt-cloud-3000-62.1",
            "SUSE Linux Enterprise Module for Advanced Systems Management 12:salt-doc-3000-62.1",
            "SUSE Linux Enterprise Module for Advanced Systems Management 12:salt-master-3000-62.1",
            "SUSE Linux Enterprise Module for Advanced Systems Management 12:salt-minion-3000-62.1",
            "SUSE Linux Enterprise Module for Advanced Systems Management 12:salt-proxy-3000-62.1",
            "SUSE Linux Enterprise Module for Advanced Systems Management 12:salt-ssh-3000-62.1",
            "SUSE Linux Enterprise Module for Advanced Systems Management 12:salt-standalone-formulas-configuration-3000-62.1",
            "SUSE Linux Enterprise Module for Advanced Systems Management 12:salt-syndic-3000-62.1",
            "SUSE Linux Enterprise Module for Advanced Systems Management 12:salt-zsh-completion-3000-62.1",
            "SUSE Manager Tools 12:python2-salt-3000-62.1",
            "SUSE Manager Tools 12:python3-salt-3000-62.1",
            "SUSE Manager Tools 12:salt-3000-62.1",
            "SUSE Manager Tools 12:salt-doc-3000-62.1",
            "SUSE Manager Tools 12:salt-minion-3000-62.1"
          ]
        }
      ],
      "CVSSScoreSets": {}
    },
    {
      "CVE": "CVE-2022-22936",
      "Description": "An issue was discovered in SaltStack Salt in versions before 3002.8, 3003.4, 3004.1. Job publishes and file server replies are susceptible to replay attacks, which can result in an attacker replaying job publishes causing minions to run old jobs. File server replies can also be re-played. A sufficient craft attacker could gain root access on minion under certain scenarios.",
      "Threats": [
        {
          "Type": "Impact",
          "Severity": "important"
        }
      ],
      "References": [
        {
          "URL": "https://www.suse.com/security/cve/CVE-2022-22936.html",
          "Description": "CVE-2022-22936"
        },
        {
          "URL": "https://bugzilla.suse.com/1197417",
          "Description": "SUSE Bug 1197417"
        },
        {
          "URL": "https://bugzilla.suse.com/1197765",
          "Description": "SUSE Bug 1197765"
        }
      ],
      "ProductStatuses": [
        {
          "Type": "Fixed",
          "ProductID": [
            "Image SLES12-SP4-Azure-BYOS:python2-salt-3000-62.1",
            "Image SLES12-SP4-Azure-BYOS:salt-3000-62.1",
            "Image SLES12-SP4-Azure-BYOS:salt-minion-3000-62.1",
            "Image SLES12-SP4-SAP-Azure-BYOS:python2-salt-3000-62.1",
            "Image SLES12-SP4-SAP-Azure-BYOS:salt-3000-62.1",
            "Image SLES12-SP4-SAP-Azure-BYOS:salt-minion-3000-62.1",
            "Image SLES12-SP5-Azure-BYOS:python2-salt-3000-62.1",
            "Image SLES12-SP5-Azure-BYOS:salt-3000-62.1",
            "Image SLES12-SP5-Azure-BYOS:salt-minion-3000-62.1",
            "Image SLES12-SP5-Azure-HPC-BYOS:python2-salt-3000-62.1",
            "Image SLES12-SP5-Azure-HPC-BYOS:salt-3000-62.1",
            "Image SLES12-SP5-Azure-HPC-BYOS:salt-minion-3000-62.1",
            "Image SLES12-SP5-Azure-SAP-BYOS:python2-salt-3000-62.1",
            "Image SLES12-SP5-Azure-SAP-BYOS:salt-3000-62.1",
            "Image SLES12-SP5-Azure-SAP-BYOS:salt-minion-3000-62.1",
            "Image SLES12-SP5-EC2-BYOS:python2-salt-3000-62.1",
            "Image SLES12-SP5-EC2-BYOS:salt-3000-62.1",
            "Image SLES12-SP5-EC2-BYOS:salt-minion-3000-62.1",
            "Image SLES12-SP5-EC2-SAP-BYOS:python2-salt-3000-62.1",
            "Image SLES12-SP5-EC2-SAP-BYOS:salt-3000-62.1",
            "Image SLES12-SP5-EC2-SAP-BYOS:salt-minion-3000-62.1",
            "Image SLES12-SP5-GCE-BYOS:python2-salt-3000-62.1",
            "Image SLES12-SP5-GCE-BYOS:salt-3000-62.1",
            "Image SLES12-SP5-GCE-BYOS:salt-minion-3000-62.1",
            "Image SLES12-SP5-GCE-SAP-BYOS:python2-salt-3000-62.1",
            "Image SLES12-SP5-GCE-SAP-BYOS:salt-3000-62.1",
            "Image SLES12-SP5-GCE-SAP-BYOS:salt-minion-3000-62.1",
            "SUSE Linux Enterprise Module for Advanced Systems Management 12:python2-salt-3000-62.1",
            "SUSE Linux Enterprise Module for Advanced Systems Management 12:salt-3000-62.1",
            "SUSE Linux Enterprise Module for Advanced Systems Management 12:salt-api-3000-62.1",
            "SUSE Linux Enterprise Module for Advanced Systems Management 12:salt-bash-completion-3000-62.1",
            "SUSE Linux Enterprise Module for Advanced Systems Management 12:salt-cloud-3000-62.1",
            "SUSE Linux Enterprise Module for Advanced Systems Management 12:salt-doc-3000-62.1",
            "SUSE Linux Enterprise Module for Advanced Systems Management 12:salt-master-3000-62.1",
            "SUSE Linux Enterprise Module for Advanced Systems Management 12:salt-minion-3000-62.1",
            "SUSE Linux Enterprise Module for Advanced Systems Management 12:salt-proxy-3000-62.1",
            "SUSE Linux Enterprise Module for Advanced Systems Management 12:salt-ssh-3000-62.1",
            "SUSE Linux Enterprise Module for Advanced Systems Management 12:salt-standalone-formulas-configuration-3000-62.1",
            "SUSE Linux Enterprise Module for Advanced Systems Management 12:salt-syndic-3000-62.1",
            "SUSE Linux Enterprise Module for Advanced Systems Management 12:salt-zsh-completion-3000-62.1",
            "SUSE Manager Tools 12:python2-salt-3000-62.1",
            "SUSE Manager Tools 12:python3-salt-3000-62.1",
            "SUSE Manager Tools 12:salt-3000-62.1",
            "SUSE Manager Tools 12:salt-doc-3000-62.1",
            "SUSE Manager Tools 12:salt-minion-3000-62.1"
          ]
        }
      ],
      "CVSSScoreSets": {}
    },
    {
      "CVE": "CVE-2022-22941",
      "Description": "An issue was discovered in SaltStack Salt in versions before 3002.8, 3003.4, 3004.1. When configured as a Master-of-Masters, with a publisher_acl, if a user configured in the publisher_acl targets any minion connected to the Syndic, the Salt Master incorrectly interpreted no valid targets as valid, allowing configured users to target any of the minions connected to the syndic with their configured commands. This requires a syndic master combined with publisher_acl configured on the Master-of-Masters, allowing users specified in the publisher_acl to bypass permissions, publishing authorized commands to any configured minion.",
      "Threats": [
        {
          "Type": "Impact",
          "Severity": "important"
        }
      ],
      "References": [
        {
          "URL": "https://www.suse.com/security/cve/CVE-2022-22941.html",
          "Description": "CVE-2022-22941"
        },
        {
          "URL": "https://bugzilla.suse.com/1197417",
          "Description": "SUSE Bug 1197417"
        },
        {
          "URL": "https://bugzilla.suse.com/1197765",
          "Description": "SUSE Bug 1197765"
        }
      ],
      "ProductStatuses": [
        {
          "Type": "Fixed",
          "ProductID": [
            "Image SLES12-SP4-Azure-BYOS:python2-salt-3000-62.1",
            "Image SLES12-SP4-Azure-BYOS:salt-3000-62.1",
            "Image SLES12-SP4-Azure-BYOS:salt-minion-3000-62.1",
            "Image SLES12-SP4-SAP-Azure-BYOS:python2-salt-3000-62.1",
            "Image SLES12-SP4-SAP-Azure-BYOS:salt-3000-62.1",
            "Image SLES12-SP4-SAP-Azure-BYOS:salt-minion-3000-62.1",
            "Image SLES12-SP5-Azure-BYOS:python2-salt-3000-62.1",
            "Image SLES12-SP5-Azure-BYOS:salt-3000-62.1",
            "Image SLES12-SP5-Azure-BYOS:salt-minion-3000-62.1",
            "Image SLES12-SP5-Azure-HPC-BYOS:python2-salt-3000-62.1",
            "Image SLES12-SP5-Azure-HPC-BYOS:salt-3000-62.1",
            "Image SLES12-SP5-Azure-HPC-BYOS:salt-minion-3000-62.1",
            "Image SLES12-SP5-Azure-SAP-BYOS:python2-salt-3000-62.1",
            "Image SLES12-SP5-Azure-SAP-BYOS:salt-3000-62.1",
            "Image SLES12-SP5-Azure-SAP-BYOS:salt-minion-3000-62.1",
            "Image SLES12-SP5-EC2-BYOS:python2-salt-3000-62.1",
            "Image SLES12-SP5-EC2-BYOS:salt-3000-62.1",
            "Image SLES12-SP5-EC2-BYOS:salt-minion-3000-62.1",
            "Image SLES12-SP5-EC2-SAP-BYOS:python2-salt-3000-62.1",
            "Image SLES12-SP5-EC2-SAP-BYOS:salt-3000-62.1",
            "Image SLES12-SP5-EC2-SAP-BYOS:salt-minion-3000-62.1",
            "Image SLES12-SP5-GCE-BYOS:python2-salt-3000-62.1",
            "Image SLES12-SP5-GCE-BYOS:salt-3000-62.1",
            "Image SLES12-SP5-GCE-BYOS:salt-minion-3000-62.1",
            "Image SLES12-SP5-GCE-SAP-BYOS:python2-salt-3000-62.1",
            "Image SLES12-SP5-GCE-SAP-BYOS:salt-3000-62.1",
            "Image SLES12-SP5-GCE-SAP-BYOS:salt-minion-3000-62.1",
            "SUSE Linux Enterprise Module for Advanced Systems Management 12:python2-salt-3000-62.1",
            "SUSE Linux Enterprise Module for Advanced Systems Management 12:salt-3000-62.1",
            "SUSE Linux Enterprise Module for Advanced Systems Management 12:salt-api-3000-62.1",
            "SUSE Linux Enterprise Module for Advanced Systems Management 12:salt-bash-completion-3000-62.1",
            "SUSE Linux Enterprise Module for Advanced Systems Management 12:salt-cloud-3000-62.1",
            "SUSE Linux Enterprise Module for Advanced Systems Management 12:salt-doc-3000-62.1",
            "SUSE Linux Enterprise Module for Advanced Systems Management 12:salt-master-3000-62.1",
            "SUSE Linux Enterprise Module for Advanced Systems Management 12:salt-minion-3000-62.1",
            "SUSE Linux Enterprise Module for Advanced Systems Management 12:salt-proxy-3000-62.1",
            "SUSE Linux Enterprise Module for Advanced Systems Management 12:salt-ssh-3000-62.1",
            "SUSE Linux Enterprise Module for Advanced Systems Management 12:salt-standalone-formulas-configuration-3000-62.1",
            "SUSE Linux Enterprise Module for Advanced Systems Management 12:salt-syndic-3000-62.1",
            "SUSE Linux Enterprise Module for Advanced Systems Management 12:salt-zsh-completion-3000-62.1",
            "SUSE Manager Tools 12:python2-salt-3000-62.1",
            "SUSE Manager Tools 12:python3-salt-3000-62.1",
            "SUSE Manager Tools 12:salt-3000-62.1",
            "SUSE Manager Tools 12:salt-doc-3000-62.1",
            "SUSE Manager Tools 12:salt-minion-3000-62.1"
          ]
        }
      ],
      "CVSSScoreSets": {}
    }
  ]
}