{
  "Title": "Security update for the Linux Kernel (Live Patch 11 for SLE 15 SP3)",
  "Tracking": {
    "ID": "SUSE-SU-2022:2738-1",
    "Status": "Final",
    "Version": "1",
    "InitialReleaseDate": "2022-08-10T05:04:30Z",
    "CurrentReleaseDate": "2022-08-10T05:04:30Z",
    "RevisionHistory": [
      {
        "Number": "1",
        "Date": "2022-08-10T05:04:30Z",
        "Description": "current"
      }
    ]
  },
  "Notes": [
    {
      "Text": "Security update for the Linux Kernel (Live Patch 11 for SLE 15 SP3)",
      "Title": "Topic",
      "Type": "Summary"
    },
    {
      "Text": "This update for the Linux Kernel 5.3.18-59_40 fixes several issues.\n\nThe following security issues were fixed:\n\n- CVE-2022-28389: Fixed a double free in drivers/net/can/usb/mcba_usb.c vulnerability in the Linux kernel. (bnc#1198033)\n- CVE-2022-26490: Fixed a buffer overflow in the st21nfca driver. An attacker with adjacent NFC access could crash the system or corrupt the system memory. (bsc#1196830) \n- CVE-2022-28390: Fixed a double free in drivers/net/can/usb/ems_usb.c vulnerability in the Linux kernel (bnc#1198031).\n- CVE-2022-34918: Fixed a buffer overflow with nft_set_elem_init() that could be used by a local attacker to escalate privileges (bnc#1201171).\n- CVE-2022-1679: Fixed a use-after-free in the Atheros wireless driver in the way a user forces the ath9k_htc_wait_for_target function to fail with some input messages (bsc#1199487).\n- CVE-2022-20141: Fixed a possible use after free due to improper locking in ip_check_mc_rcu() (bsc#1200604).\n",
      "Title": "Details",
      "Type": "General"
    },
    {
      "Text": "The CVRF data is provided by SUSE under the Creative Commons License 4.0 with Attribution (CC-BY-4.0).",
      "Title": "Terms of Use",
      "Type": "Legal Disclaimer"
    },
    {
      "Text": "SUSE-2022-2738,SUSE-SLE-Module-Live-Patching-15-SP3-2022-2738",
      "Title": "Patchnames",
      "Type": "Details"
    }
  ],
  "ProductTree": {
    "Relationships": [
      {
        "ProductReference": "kernel-livepatch-5_3_18-59_40-default-13-150300.2.2",
        "RelatesToProductReference": "SUSE Linux Enterprise Live Patching 15 SP3",
        "RelationType": "Default Component Of"
      }
    ]
  },
  "References": [
    {
      "URL": "https://www.suse.com/support/update/announcement/2022/suse-su-20222738-1/",
      "Description": "Link for SUSE-SU-2022:2738-1"
    },
    {
      "URL": "https://lists.suse.com/pipermail/sle-security-updates/2022-August/011865.html",
      "Description": "E-Mail link for SUSE-SU-2022:2738-1"
    },
    {
      "URL": "https://www.suse.com/support/security/rating/",
      "Description": "SUSE Security Ratings"
    },
    {
      "URL": "https://bugzilla.suse.com/1200605",
      "Description": "SUSE Bug 1200605"
    },
    {
      "URL": "https://bugzilla.suse.com/1201080",
      "Description": "SUSE Bug 1201080"
    },
    {
      "URL": "https://bugzilla.suse.com/1201222",
      "Description": "SUSE Bug 1201222"
    },
    {
      "URL": "https://bugzilla.suse.com/1201517",
      "Description": "SUSE Bug 1201517"
    },
    {
      "URL": "https://bugzilla.suse.com/1201656",
      "Description": "SUSE Bug 1201656"
    },
    {
      "URL": "https://bugzilla.suse.com/1201657",
      "Description": "SUSE Bug 1201657"
    },
    {
      "URL": "https://www.suse.com/security/cve/CVE-2022-1679/",
      "Description": "SUSE CVE CVE-2022-1679 page"
    },
    {
      "URL": "https://www.suse.com/security/cve/CVE-2022-20141/",
      "Description": "SUSE CVE CVE-2022-20141 page"
    },
    {
      "URL": "https://www.suse.com/security/cve/CVE-2022-26490/",
      "Description": "SUSE CVE CVE-2022-26490 page"
    },
    {
      "URL": "https://www.suse.com/security/cve/CVE-2022-28389/",
      "Description": "SUSE CVE CVE-2022-28389 page"
    },
    {
      "URL": "https://www.suse.com/security/cve/CVE-2022-28390/",
      "Description": "SUSE CVE CVE-2022-28390 page"
    },
    {
      "URL": "https://www.suse.com/security/cve/CVE-2022-34918/",
      "Description": "SUSE CVE CVE-2022-34918 page"
    }
  ],
  "Vulnerabilities": [
    {
      "CVE": "CVE-2022-1679",
      "Description": "A use-after-free flaw was found in the Linux kernel's Atheros wireless adapter driver in the way a user forces the ath9k_htc_wait_for_target function to fail with some input messages. This flaw allows a local user to crash or potentially escalate their privileges on the system.",
      "Threats": [
        {
          "Type": "Impact",
          "Severity": "moderate"
        }
      ],
      "References": [
        {
          "URL": "https://www.suse.com/security/cve/CVE-2022-1679.html",
          "Description": "CVE-2022-1679"
        },
        {
          "URL": "https://bugzilla.suse.com/1199487",
          "Description": "SUSE Bug 1199487"
        },
        {
          "URL": "https://bugzilla.suse.com/1201080",
          "Description": "SUSE Bug 1201080"
        },
        {
          "URL": "https://bugzilla.suse.com/1201832",
          "Description": "SUSE Bug 1201832"
        },
        {
          "URL": "https://bugzilla.suse.com/1204132",
          "Description": "SUSE Bug 1204132"
        },
        {
          "URL": "https://bugzilla.suse.com/1212316",
          "Description": "SUSE Bug 1212316"
        }
      ],
      "ProductStatuses": [
        {
          "Type": "Fixed",
          "ProductID": [
            "SUSE Linux Enterprise Live Patching 15 SP3:kernel-livepatch-5_3_18-59_40-default-13-150300.2.2"
          ]
        }
      ],
      "CVSSScoreSets": {}
    },
    {
      "CVE": "CVE-2022-20141",
      "Description": "In ip_check_mc_rcu of igmp.c, there is a possible use after free due to improper locking. This could lead to local escalation of privilege when opening and closing inet sockets with no additional execution privileges needed. User interaction is not needed for exploitation.Product: AndroidVersions: Android kernelAndroid ID: A-112551163References: Upstream kernel",
      "Threats": [
        {
          "Type": "Impact",
          "Severity": "moderate"
        }
      ],
      "References": [
        {
          "URL": "https://www.suse.com/security/cve/CVE-2022-20141.html",
          "Description": "CVE-2022-20141"
        },
        {
          "URL": "https://bugzilla.suse.com/1200604",
          "Description": "SUSE Bug 1200604"
        },
        {
          "URL": "https://bugzilla.suse.com/1200605",
          "Description": "SUSE Bug 1200605"
        },
        {
          "URL": "https://bugzilla.suse.com/1203034",
          "Description": "SUSE Bug 1203034"
        }
      ],
      "ProductStatuses": [
        {
          "Type": "Fixed",
          "ProductID": [
            "SUSE Linux Enterprise Live Patching 15 SP3:kernel-livepatch-5_3_18-59_40-default-13-150300.2.2"
          ]
        }
      ],
      "CVSSScoreSets": {}
    },
    {
      "CVE": "CVE-2022-26490",
      "Description": "st21nfca_connectivity_event_received in drivers/nfc/st21nfca/se.c in the Linux kernel through 5.16.12 has EVT_TRANSACTION buffer overflows because of untrusted length parameters.",
      "Threats": [
        {
          "Type": "Impact",
          "Severity": "important"
        }
      ],
      "References": [
        {
          "URL": "https://www.suse.com/security/cve/CVE-2022-26490.html",
          "Description": "CVE-2022-26490"
        },
        {
          "URL": "https://bugzilla.suse.com/1196830",
          "Description": "SUSE Bug 1196830"
        },
        {
          "URL": "https://bugzilla.suse.com/1201656",
          "Description": "SUSE Bug 1201656"
        },
        {
          "URL": "https://bugzilla.suse.com/1201969",
          "Description": "SUSE Bug 1201969"
        },
        {
          "URL": "https://bugzilla.suse.com/1211495",
          "Description": "SUSE Bug 1211495"
        }
      ],
      "ProductStatuses": [
        {
          "Type": "Fixed",
          "ProductID": [
            "SUSE Linux Enterprise Live Patching 15 SP3:kernel-livepatch-5_3_18-59_40-default-13-150300.2.2"
          ]
        }
      ],
      "CVSSScoreSets": {}
    },
    {
      "CVE": "CVE-2022-28389",
      "Description": "mcba_usb_start_xmit in drivers/net/can/usb/mcba_usb.c in the Linux kernel through 5.17.1 has a double free.",
      "Threats": [
        {
          "Type": "Impact",
          "Severity": "moderate"
        }
      ],
      "References": [
        {
          "URL": "https://www.suse.com/security/cve/CVE-2022-28389.html",
          "Description": "CVE-2022-28389"
        },
        {
          "URL": "https://bugzilla.suse.com/1198033",
          "Description": "SUSE Bug 1198033"
        },
        {
          "URL": "https://bugzilla.suse.com/1201657",
          "Description": "SUSE Bug 1201657"
        }
      ],
      "ProductStatuses": [
        {
          "Type": "Fixed",
          "ProductID": [
            "SUSE Linux Enterprise Live Patching 15 SP3:kernel-livepatch-5_3_18-59_40-default-13-150300.2.2"
          ]
        }
      ],
      "CVSSScoreSets": {}
    },
    {
      "CVE": "CVE-2022-28390",
      "Description": "ems_usb_start_xmit in drivers/net/can/usb/ems_usb.c in the Linux kernel through 5.17.1 has a double free.",
      "Threats": [
        {
          "Type": "Impact",
          "Severity": "moderate"
        }
      ],
      "References": [
        {
          "URL": "https://www.suse.com/security/cve/CVE-2022-28390.html",
          "Description": "CVE-2022-28390"
        },
        {
          "URL": "https://bugzilla.suse.com/1198031",
          "Description": "SUSE Bug 1198031"
        },
        {
          "URL": "https://bugzilla.suse.com/1201517",
          "Description": "SUSE Bug 1201517"
        },
        {
          "URL": "https://bugzilla.suse.com/1207969",
          "Description": "SUSE Bug 1207969"
        }
      ],
      "ProductStatuses": [
        {
          "Type": "Fixed",
          "ProductID": [
            "SUSE Linux Enterprise Live Patching 15 SP3:kernel-livepatch-5_3_18-59_40-default-13-150300.2.2"
          ]
        }
      ],
      "CVSSScoreSets": {}
    },
    {
      "CVE": "CVE-2022-34918",
      "Description": "An issue was discovered in the Linux kernel through 5.18.9. A type confusion bug in nft_set_elem_init (leading to a buffer overflow) could be used by a local attacker to escalate privileges, a different vulnerability than CVE-2022-32250. (The attacker can obtain root access, but must start with an unprivileged user namespace to obtain CAP_NET_ADMIN access.) This can be fixed in nft_setelem_parse_data in net/netfilter/nf_tables_api.c.",
      "Threats": [
        {
          "Type": "Impact",
          "Severity": "important"
        }
      ],
      "References": [
        {
          "URL": "https://www.suse.com/security/cve/CVE-2022-34918.html",
          "Description": "CVE-2022-34918"
        },
        {
          "URL": "https://bugzilla.suse.com/1201171",
          "Description": "SUSE Bug 1201171"
        },
        {
          "URL": "https://bugzilla.suse.com/1201177",
          "Description": "SUSE Bug 1201177"
        },
        {
          "URL": "https://bugzilla.suse.com/1201222",
          "Description": "SUSE Bug 1201222"
        }
      ],
      "ProductStatuses": [
        {
          "Type": "Fixed",
          "ProductID": [
            "SUSE Linux Enterprise Live Patching 15 SP3:kernel-livepatch-5_3_18-59_40-default-13-150300.2.2"
          ]
        }
      ],
      "CVSSScoreSets": {}
    }
  ]
}