{
  "Title": "Security update for the Linux Kernel (Live Patch 31 for SLE 15 SP1)",
  "Tracking": {
    "ID": "SUSE-SU-2022:2762-1",
    "Status": "Final",
    "Version": "1",
    "InitialReleaseDate": "2022-08-10T07:22:40Z",
    "CurrentReleaseDate": "2022-08-10T07:22:40Z",
    "RevisionHistory": [
      {
        "Number": "1",
        "Date": "2022-08-10T07:22:40Z",
        "Description": "current"
      }
    ]
  },
  "Notes": [
    {
      "Text": "Security update for the Linux Kernel (Live Patch 31 for SLE 15 SP1)",
      "Title": "Topic",
      "Type": "Summary"
    },
    {
      "Text": "This update for the Linux Kernel 4.12.14-150100_197_114 fixes several issues.\n\nThe following security issues were fixed:\n\n- CVE-2022-1679: Fixed a use-after-free in the Atheros wireless driver in the way a user forces the ath9k_htc_wait_for_target function to fail with some input messages (bsc#1199487).\n- CVE-2022-20141: Fixed a possible use after free due to improper locking in ip_check_mc_rcu() (bsc#1200604).\n",
      "Title": "Details",
      "Type": "General"
    },
    {
      "Text": "The CVRF data is provided by SUSE under the Creative Commons License 4.0 with Attribution (CC-BY-4.0).",
      "Title": "Terms of Use",
      "Type": "Legal Disclaimer"
    },
    {
      "Text": "SUSE-2022-2762,SUSE-SLE-Live-Patching-12-SP5-2022-2751,SUSE-SLE-Live-Patching-12-SP5-2022-2762,SUSE-SLE-Module-Live-Patching-15-2022-2740,SUSE-SLE-Module-Live-Patching-15-SP1-2022-2739",
      "Title": "Patchnames",
      "Type": "Details"
    }
  ],
  "ProductTree": {
    "Relationships": [
      {
        "ProductReference": "kgraft-patch-4_12_14-122_121-default-4-2.2",
        "RelatesToProductReference": "SUSE Linux Enterprise Live Patching 12 SP5",
        "RelationType": "Default Component Of"
      },
      {
        "ProductReference": "kgraft-patch-4_12_14-122_124-default-3-2.1",
        "RelatesToProductReference": "SUSE Linux Enterprise Live Patching 12 SP5",
        "RelationType": "Default Component Of"
      },
      {
        "ProductReference": "kernel-livepatch-4_12_14-150000_150_92-default-3-150000.2.1",
        "RelatesToProductReference": "SUSE Linux Enterprise Live Patching 15",
        "RelationType": "Default Component Of"
      },
      {
        "ProductReference": "kernel-livepatch-4_12_14-150100_197_114-default-3-150100.2.1",
        "RelatesToProductReference": "SUSE Linux Enterprise Live Patching 15 SP1",
        "RelationType": "Default Component Of"
      }
    ]
  },
  "References": [
    {
      "URL": "https://www.suse.com/support/update/announcement/2022/suse-su-20222762-1/",
      "Description": "Link for SUSE-SU-2022:2762-1"
    },
    {
      "URL": "https://lists.suse.com/pipermail/sle-security-updates/2022-August/011884.html",
      "Description": "E-Mail link for SUSE-SU-2022:2762-1"
    },
    {
      "URL": "https://www.suse.com/support/security/rating/",
      "Description": "SUSE Security Ratings"
    },
    {
      "URL": "https://bugzilla.suse.com/1200605",
      "Description": "SUSE Bug 1200605"
    },
    {
      "URL": "https://bugzilla.suse.com/1201080",
      "Description": "SUSE Bug 1201080"
    },
    {
      "URL": "https://www.suse.com/security/cve/CVE-2022-1679/",
      "Description": "SUSE CVE CVE-2022-1679 page"
    },
    {
      "URL": "https://www.suse.com/security/cve/CVE-2022-20141/",
      "Description": "SUSE CVE CVE-2022-20141 page"
    }
  ],
  "Vulnerabilities": [
    {
      "CVE": "CVE-2022-1679",
      "Description": "A use-after-free flaw was found in the Linux kernel's Atheros wireless adapter driver in the way a user forces the ath9k_htc_wait_for_target function to fail with some input messages. This flaw allows a local user to crash or potentially escalate their privileges on the system.",
      "Threats": [
        {
          "Type": "Impact",
          "Severity": "moderate"
        }
      ],
      "References": [
        {
          "URL": "https://www.suse.com/security/cve/CVE-2022-1679.html",
          "Description": "CVE-2022-1679"
        },
        {
          "URL": "https://bugzilla.suse.com/1199487",
          "Description": "SUSE Bug 1199487"
        },
        {
          "URL": "https://bugzilla.suse.com/1201080",
          "Description": "SUSE Bug 1201080"
        },
        {
          "URL": "https://bugzilla.suse.com/1201832",
          "Description": "SUSE Bug 1201832"
        },
        {
          "URL": "https://bugzilla.suse.com/1204132",
          "Description": "SUSE Bug 1204132"
        },
        {
          "URL": "https://bugzilla.suse.com/1212316",
          "Description": "SUSE Bug 1212316"
        }
      ],
      "ProductStatuses": [
        {
          "Type": "Fixed",
          "ProductID": [
            "SUSE Linux Enterprise Live Patching 12 SP5:kgraft-patch-4_12_14-122_121-default-4-2.2",
            "SUSE Linux Enterprise Live Patching 12 SP5:kgraft-patch-4_12_14-122_124-default-3-2.1",
            "SUSE Linux Enterprise Live Patching 15 SP1:kernel-livepatch-4_12_14-150100_197_114-default-3-150100.2.1",
            "SUSE Linux Enterprise Live Patching 15:kernel-livepatch-4_12_14-150000_150_92-default-3-150000.2.1"
          ]
        }
      ],
      "CVSSScoreSets": {}
    },
    {
      "CVE": "CVE-2022-20141",
      "Description": "In ip_check_mc_rcu of igmp.c, there is a possible use after free due to improper locking. This could lead to local escalation of privilege when opening and closing inet sockets with no additional execution privileges needed. User interaction is not needed for exploitation.Product: AndroidVersions: Android kernelAndroid ID: A-112551163References: Upstream kernel",
      "Threats": [
        {
          "Type": "Impact",
          "Severity": "moderate"
        }
      ],
      "References": [
        {
          "URL": "https://www.suse.com/security/cve/CVE-2022-20141.html",
          "Description": "CVE-2022-20141"
        },
        {
          "URL": "https://bugzilla.suse.com/1200604",
          "Description": "SUSE Bug 1200604"
        },
        {
          "URL": "https://bugzilla.suse.com/1200605",
          "Description": "SUSE Bug 1200605"
        },
        {
          "URL": "https://bugzilla.suse.com/1203034",
          "Description": "SUSE Bug 1203034"
        }
      ],
      "ProductStatuses": [
        {
          "Type": "Fixed",
          "ProductID": [
            "SUSE Linux Enterprise Live Patching 12 SP5:kgraft-patch-4_12_14-122_121-default-4-2.2",
            "SUSE Linux Enterprise Live Patching 12 SP5:kgraft-patch-4_12_14-122_124-default-3-2.1",
            "SUSE Linux Enterprise Live Patching 15 SP1:kernel-livepatch-4_12_14-150100_197_114-default-3-150100.2.1",
            "SUSE Linux Enterprise Live Patching 15:kernel-livepatch-4_12_14-150000_150_92-default-3-150000.2.1"
          ]
        }
      ],
      "CVSSScoreSets": {}
    }
  ]
}