{
  "id": "GHSA-x38x-g6gr-jqff",
  "modified": "2024-06-21T14:46:01.301292Z",
  "published": "2024-06-04T12:31:04Z",
  "aliases": [
    "BIT-mlflow-2024-37055",
    "CVE-2024-37055"
  ],
  "summary": "MLFlow unsafe deserialization",
  "details": "Deserialization of untrusted data can occur in versions of the MLflow platform running version 1.24.0 or newer, enabling a maliciously uploaded pmdarima model to run arbitrary code on an end user’s system when interacted with.",
  "affected": [
    {
      "package": {
        "ecosystem": "PyPI",
        "name": "mlflow",
        "purl": "pkg:pypi/mlflow"
      },
      "ranges": [
        {
          "type": "ECOSYSTEM",
          "events": [
            {
              "introduced": "1.24.0"
            },
            {
              "last_affected": "2.14.1"
            }
          ]
        }
      ],
      "versions": [
        "1.24.0",
        "1.25.0",
        "1.25.1",
        "1.26.0",
        "1.26.1",
        "1.27.0",
        "1.28.0",
        "1.29.0",
        "1.30.0",
        "1.30.1",
        "2.0.0",
        "2.0.0rc0",
        "2.0.1",
        "2.1.0",
        "2.1.1",
        "2.10.0",
        "2.10.1",
        "2.10.2",
        "2.11.0",
        "2.11.1",
        "2.11.2",
        "2.11.3",
        "2.11.4",
        "2.12.0",
        "2.12.1",
        "2.12.2",
        "2.13.0",
        "2.13.1",
        "2.13.2",
        "2.14.0",
        "2.14.0rc0",
        "2.14.1",
        "2.2.0",
        "2.2.1",
        "2.2.2",
        "2.3.0",
        "2.3.1",
        "2.3.2",
        "2.4.0",
        "2.4.1",
        "2.4.2",
        "2.5.0",
        "2.6.0",
        "2.7.0",
        "2.7.1",
        "2.8.0",
        "2.8.1",
        "2.9.0",
        "2.9.1",
        "2.9.2"
      ],
      "database_specific": {
        "source": "https://github.com/github/advisory-database/blob/main/advisories/github-reviewed/2024/06/GHSA-x38x-g6gr-jqff/GHSA-x38x-g6gr-jqff.json"
      }
    }
  ],
  "references": [
    {
      "type": "ADVISORY",
      "url": "https://nvd.nist.gov/vuln/detail/CVE-2024-37055"
    },
    {
      "type": "PACKAGE",
      "url": "https://github.com/mlflow/mlflow"
    },
    {
      "type": "WEB",
      "url": "https://hiddenlayer.com/sai-security-advisory/mlflow-june2024"
    }
  ]
}