{
  "id": "GHSA-4xp2-w642-7mcx",
  "modified": "2024-06-04T10:56:44.875976Z",
  "published": "2023-09-27T00:35:26Z",
  "aliases": [
    "BIT-cilium-2023-41333",
    "BIT-cilium-operator-2023-41333",
    "BIT-hubble-2023-41333",
    "BIT-hubble-relay-2023-41333",
    "CVE-2023-41333"
  ],
  "summary": "Cilium vulnerable to bypass of namespace restrictions in CiliumNetworkPolicy ",
  "details": "### Impact\n\nAn attacker with the ability to create or modify CiliumNetworkPolicy objects in a particular namespace is able to affect traffic on an entire Cilium cluster, potentially bypassing policy enforcement in other namespaces.\n\nBy using a crafted `endpointSelector` that uses the `DoesNotExist` operator on the `reserved:init` label, the attacker can create policies that bypass namespace restrictions and affect the entire Cilium cluster. This includes potentially allowing or denying all traffic.\n\nThis attack requires API server access, as described in the [Kubernetes API Server Attacker](https://docs.cilium.io/en/stable/security/threat-model/#kubernetes-api-server-attacker) section of the Cilium Threat Model.\n\n### Patches\n\nThis issue was patched in https://github.com/cilium/cilium/pull/28007\n\nThis issue affects:\n\n- Cilium \u003c= v1.14.1\n- Cilium \u003c= v1.13.6\n- Cilium \u003c= v1.12.13\n\nThis issue has been resolved in:\n\n- Cilium v1.14.2\n- Cilium v1.13.7\n- Cilium v1.12.14\n\n### Workarounds\n\nAn admission webhook can be used to prevent the use of `endpointSelector`s that use the `DoesNotExist` operator on the `reserved:init` label in CiliumNetworkPolicies.\n\n### Acknowledgements\nThe Cilium community has worked together with members of Palantir and Isovalent to prepare these mitigations. Special thanks to @odinuge for reporting this issue and @joestringer for the fix.\n\n### For more information\nIf you have any questions or comments about this advisory, please reach out on [Slack](https://docs.cilium.io/en/latest/community/community/#slack).\n\nIf you think you have found a vulnerability in Cilium, we strongly encourage you to report it to our private security mailing list at [security@cilium.io](mailto:security@cilium.io) first, before disclosing it in any public forum. This is a private mailing list for Cilium's internal security team, and your report will be treated as top priority. ",
  "affected": [
    {
      "package": {
        "ecosystem": "Go",
        "name": "github.com/cilium/cilium",
        "purl": "pkg:golang/github.com/cilium/cilium"
      },
      "ranges": [
        {
          "type": "SEMVER",
          "events": [
            {
              "introduced": "1.14.0"
            },
            {
              "fixed": "1.14.2"
            }
          ]
        }
      ],
      "database_specific": {
        "source": "https://github.com/github/advisory-database/blob/main/advisories/github-reviewed/2023/09/GHSA-4xp2-w642-7mcx/GHSA-4xp2-w642-7mcx.json"
      }
    },
    {
      "package": {
        "ecosystem": "Go",
        "name": "github.com/cilium/cilium",
        "purl": "pkg:golang/github.com/cilium/cilium"
      },
      "ranges": [
        {
          "type": "SEMVER",
          "events": [
            {
              "introduced": "1.13.0"
            },
            {
              "fixed": "1.13.7"
            }
          ]
        }
      ],
      "database_specific": {
        "source": "https://github.com/github/advisory-database/blob/main/advisories/github-reviewed/2023/09/GHSA-4xp2-w642-7mcx/GHSA-4xp2-w642-7mcx.json"
      }
    },
    {
      "package": {
        "ecosystem": "Go",
        "name": "github.com/cilium/cilium",
        "purl": "pkg:golang/github.com/cilium/cilium"
      },
      "ranges": [
        {
          "type": "SEMVER",
          "events": [
            {
              "introduced": "0"
            },
            {
              "fixed": "1.12.14"
            }
          ]
        }
      ],
      "database_specific": {
        "source": "https://github.com/github/advisory-database/blob/main/advisories/github-reviewed/2023/09/GHSA-4xp2-w642-7mcx/GHSA-4xp2-w642-7mcx.json"
      }
    }
  ],
  "references": [
    {
      "type": "WEB",
      "url": "https://github.com/cilium/cilium/security/advisories/GHSA-4xp2-w642-7mcx"
    },
    {
      "type": "ADVISORY",
      "url": "https://nvd.nist.gov/vuln/detail/CVE-2023-41333"
    },
    {
      "type": "WEB",
      "url": "https://github.com/cilium/cilium/pull/28007"
    },
    {
      "type": "WEB",
      "url": "https://docs.cilium.io/en/stable/security/threat-model/#kubernetes-api-server-attacker"
    },
    {
      "type": "PACKAGE",
      "url": "https://github.com/cilium/cilium"
    }
  ]
}