{
  "Class": "vulnerability",
  "ID": "oval:com.microsoft.cbl-mariner:def:6783",
  "Version": "1",
  "Metadata": {
    "Title": "CVE-2017-17969 affecting package p7zip for versions less than 16.02-22",
    "Affected": {
      "Family": "unix",
      "Platform": "CBL-Mariner"
    },
    "Reference": {
      "RefID": "CVE-2017-17969",
      "RefURL": "https://nvd.nist.gov/vuln/detail/CVE-2017-17969",
      "Source": "CVE"
    },
    "Patchable": "true",
    "AdvisoryDate": "2022-04-09T06:51:52Z",
    "AdvisoryID": "6783-1",
    "Severity": "High",
    "Description": "CVE-2017-17969 affecting package p7zip for versions less than 16.02-22. A patched version of the package is available."
  },
  "Criteria": {
    "Operator": "AND",
    "Criterion": {
      "Comment": "Package p7zip is earlier than 16.02-22, affected by CVE-2017-17969",
      "TestRef": "oval:com.microsoft.cbl-mariner:tst:6783000"
    }
  }
}