{
  "Severity": "MODERATE",
  "UpdatedAt": "2024-06-19T15:07:09Z",
  "Package": {
    "Ecosystem": "NUGET",
    "Name": "TinyMCE"
  },
  "Advisory": {
    "DatabaseId": 250564,
    "Id": "GSA_kwCzR0hTQS05aGN2LWo5cHYtcW1waM4AA9LE",
    "GhsaId": "GHSA-9hcv-j9pv-qmph",
    "References": [
      {
        "Url": "https://github.com/tinymce/tinymce/security/advisories/GHSA-9hcv-j9pv-qmph"
      },
      {
        "Url": "https://www.tiny.cloud/docs/tinymce/6/6.8.4-release-notes/#overview"
      },
      {
        "Url": "https://www.tiny.cloud/docs/tinymce/latest/7.2-release-notes/#overview"
      },
      {
        "Url": "https://nvd.nist.gov/vuln/detail/CVE-2024-38356"
      },
      {
        "Url": "https://github.com/tinymce/tinymce/commit/5acb741665a98e83d62b91713c800abbff43b00d"
      },
      {
        "Url": "https://github.com/tinymce/tinymce/commit/a9fb858509f86dacfa8b01cfd34653b408983ac0"
      },
      {
        "Url": "https://owasp.org/www-community/attacks/xss"
      },
      {
        "Url": "https://www.tiny.cloud/docs/tinymce/7/7.2-release-notes/#overview"
      },
      {
        "Url": "https://github.com/advisories/GHSA-9hcv-j9pv-qmph"
      }
    ],
    "Identifiers": [
      {
        "Type": "GHSA",
        "Value": "GHSA-9hcv-j9pv-qmph"
      },
      {
        "Type": "CVE",
        "Value": "CVE-2024-38356"
      }
    ],
    "Description": "### Impact\nA [cross-site scripting (XSS)](https://owasp.org/www-community/attacks/xss/) vulnerability was discovered in TinyMCE’s content extraction code. When using the `noneditable_regexp` option, specially crafted HTML attributes containing malicious code were able to be executed when content was extracted from the editor.\n\n### Patches\nThis vulnerability has been patched in TinyMCE 7.2.0, TinyMCE 6.8.4 and TinyMCE 5.11.0 LTS by ensuring that, when using the `noneditable_regexp` option, any content within an attribute is properly verified to match the configured regular expression before being added.\n\n### Fix\nTo avoid this vulnerability:\n\n* Upgrade to TinyMCE 7.2.0 or higher.\n* Upgrade to TinyMCE 6.8.4 or higher for TinyMCE 6.x.\n* Upgrade to TinyMCE 5.11.0 LTS or higher for TinyMCE 5.x (only available as part of commercial [long-term support](https://www.tiny.cloud/long-term-support/) contract).\n\n### References\n* [TinyMCE 6.8.4](https://www.tiny.cloud/docs/tinymce/6/6.8.4-release-notes/#overview)\n* [TinyMCE 7.2.0](https://www.tiny.cloud/docs/tinymce/7/7.2-release-notes/#overview)\n\n### For more information\nIf you have any questions or comments about this advisory:\n\n* Email us at [infosec@tiny.cloud](mailto:infosec@tiny.cloud)\n* Open an issue in the [TinyMCE repo](https://github.com/tinymce/tinymce/issues?q=is%3Aissue+is%3Aopen+sort%3Aupdated-desc)",
    "Origin": "UNSPECIFIED",
    "PublishedAt": "2024-06-19T15:07:08Z",
    "Severity": "MODERATE",
    "Summary": "TinyMCE Cross-Site Scripting (XSS) vulnerability using noneditable_regexp option",
    "UpdatedAt": "2024-06-20T14:20:58Z",
    "WithdrawnAt": "",
    "CVSS": {
      "Score": 6.1,
      "VectorString": "CVSS:3.1/AV:N/AC:L/PR:N/UI:R/S:C/C:L/I:L/A:N"
    }
  },
  "Versions": [
    {
      "FirstPatchedVersion": {
        "Identifier": "7.2.0"
      },
      "VulnerableVersionRange": "\u003e= 7.0.0, \u003c 7.2.0"
    },
    {
      "FirstPatchedVersion": {
        "Identifier": "6.8.4"
      },
      "VulnerableVersionRange": "\u003e= 6.0.0, \u003c 6.8.4"
    },
    {
      "FirstPatchedVersion": {
        "Identifier": "5.11.0"
      },
      "VulnerableVersionRange": "\u003c 5.11.0"
    }
  ]
}