{
  "id": "ALAS2-2020-1480",
  "title": "Amazon Linux 2 2017.12 - ALAS2-2020-1480: important priority package update for kernel",
  "issued": {
    "date": "2020-08-18 20:29:00"
  },
  "updated": {
    "date": "2020-08-24 23:58:00"
  },
  "severity": "important",
  "description": "Package updates are available for Amazon Linux 2 that fix the following vulnerabilities:\nCVE-2020-15393:\n\tIn the Linux kernel through 5.7.6, usbtest_disconnect in drivers/usb/misc/usbtest.c has a memory leak, aka CID-28ebeb8db770.\n1852584: CVE-2020-15393 kernel: memory leak in usbtest_disconnect function in drivers/usb/misc/usbtest.c\n\nCVE-2020-12655:\n\tAn issue was discovered in xfs_agf_verify in fs/xfs/libxfs/xfs_alloc.c in the Linux kernel through 5.6.10. Attackers may trigger a sync of excessive duration via an XFS v5 image with crafted metadata, aka CID-d0c7feaf8767.\n1832543: CVE-2020-12655 kernel: sync of excessive duration via an XFS v5 image with crafted metadata\n\nCVE-2020-10781:\n\tA flaw was found in the ZRAM kernel module, where a user with a local account and the ability to read the /sys/class/zram-control/hot_add file can create ZRAM device nodes in the /dev/ directory. This read allocates kernel memory and is not accounted for a user that triggers the creation of that ZRAM device. With this vulnerability, continually reading the device may consume a large amount of system memory and cause the Out-of-Memory (OOM) killer to activate and terminate random userspace processes, possibly making the system inoperable.\n1847832: CVE-2020-10781 kernel: zram sysfs resource consumption\n\nCVE-2019-9445:\n\tIn the Android kernel in F2FS driver there is a possible out of bounds read due to a missing bounds check. This could lead to local information disclosure with system execution privileges needed. User interaction is not needed for exploitation.\n1819384: CVE-2019-9445 kernel: out of bounds read due to missing bounds check in F2FS driver leads to local information disclosure\n\nCVE-2019-3016:\n\tIn a Linux KVM guest that has PV TLB enabled, a process in the guest kernel may be able to read memory locations from another process in the same guest. This problem is limit to the host running linux kernel 4.10 with a guest running linux kernel 4.16 or later. The problem mainly affects AMD processors but Intel CPUs cannot be ruled out.\n1792167: CVE-2019-3016 kernel: kvm: Information leak within a KVM guest\n\nCVE-2019-19074:\n\tA memory leak in the ath9k_wmi_cmd() function in drivers/net/wireless/ath/ath9k/wmi.c in the Linux kernel through 5.3.11 allows attackers to cause a denial of service (memory consumption), aka CID-728c1e2a05e4.\n1774933: CVE-2019-19074 kernel: a memory leak in the ath9k management function in allows local DoS\n\nCVE-2019-19073:\n\tMemory leaks in drivers/net/wireless/ath/ath9k/htc_hst.c in the Linux kernel through 5.3.11 allow attackers to cause a denial of service (memory consumption) by triggering wait_for_completion_timeout() failures. This affects the htc_config_pipe_credits() function, the htc_setup_complete() function, and the htc_connect_service() function, aka CID-853acf7caf10.\n1774937: CVE-2019-19073 kernel: Memory leaks in drivers/net/wireless/ath/ath9k/htc_hst.c in the Linux kernel (DOS)\n\nCVE-2019-19061:\n\tA memory leak in the adis_update_scan_mode_burst() function in drivers/iio/imu/adis_buffer.c in the Linux kernel before 5.3.9 allows attackers to cause a denial of service (memory consumption), aka CID-9c0530e898f3.\n1775029: CVE-2019-19061 kernel: A memory leak in the adis_update_scan_mode_burst() function in drivers/iio/imu/adis_buffer.c allows for a DoS\n\nCVE-2019-19054:\n\tA memory leak in the cx23888_ir_probe() function in drivers/media/pci/cx23885/cx23888-ir.c in the Linux kernel through 5.3.11 allows attackers to cause a denial of service (memory consumption) by triggering kfifo_alloc() failures, aka CID-a7b2df76b42b.\n1775063: CVE-2019-19054 kernel: A memory leak in the cx23888_ir_probe() function in drivers/media/pci/cx23885/cx23888-ir.c allows attackers to cause a DoS\n\nCVE-2019-18808:\n\tA memory leak in the ccp_run_sha_cmd() function in drivers/crypto/ccp/ccp-ops.c in the Linux kernel through 5.3.9 allows attackers to cause a denial of service (memory consumption), aka CID-128c66429247.\n1777418: CVE-2019-18808 kernel: memory leak in ccp_run_sha_cmd() function in drivers/crypto/ccp/ccp-ops.c\n\nCVE-2018-8043:\n\tThe unimac_mdio_probe function in drivers/net/phy/mdio-bcm-unimac.c in the Linux kernel through 4.15.8 does not validate certain resource availability, which allows local users to cause a denial of service (NULL pointer dereference).\n1554199: CVE-2018-8043 kernel: NULL pointer dereference in drivers/net/phy/mdio-bcm-unimac.c:unimac_mdio_probe() can lead to denial of service\n\nCVE-2018-10323:\n\tThe xfs_bmap_extents_to_btree function in fs/xfs/libxfs/xfs_bmap.c in the Linux kernel through 4.16.3 allows local users to cause a denial of service (xfs_bmapi_write NULL pointer dereference) via a crafted xfs image.\n1571627: CVE-2018-10323 kernel: Invalid pointer dereference in xfs_bmapi_write() when mounting and operating on crafted xfs image allows denial of service\n\nCVE-2017-18232:\n\tThe Serial Attached SCSI (SAS) implementation in the Linux kernel through 4.15.9 mishandles a mutex within libsas, which allows local users to cause a denial of service (deadlock) by triggering certain error-handling code.\nThe Serial Attached SCSI (SAS) implementation in the Linux kernel mishandles a mutex within libsas. This allows local users to cause a denial of service (deadlock) by triggering certain error-handling code.\n1558066: CVE-2017-18232 kernel: Mishandling mutex within libsas allowing local Denial of Service\n1558066: \nCVE-2017-18232 kernel: Mishandling mutex within libsas allowing local Denial of Service\n",
  "packages": [
    {
      "name": "kernel",
      "epoch": "0",
      "version": "4.14.192",
      "release": "147.314.amzn2",
      "arch": "aarch64",
      "filename": "Packages/kernel-4.14.192-147.314.amzn2.aarch64.rpm"
    },
    {
      "name": "kernel-headers",
      "epoch": "0",
      "version": "4.14.192",
      "release": "147.314.amzn2",
      "arch": "aarch64",
      "filename": "Packages/kernel-headers-4.14.192-147.314.amzn2.aarch64.rpm"
    },
    {
      "name": "kernel-debuginfo-common-aarch64",
      "epoch": "0",
      "version": "4.14.192",
      "release": "147.314.amzn2",
      "arch": "aarch64",
      "filename": "Packages/kernel-debuginfo-common-aarch64-4.14.192-147.314.amzn2.aarch64.rpm"
    },
    {
      "name": "perf",
      "epoch": "0",
      "version": "4.14.192",
      "release": "147.314.amzn2",
      "arch": "aarch64",
      "filename": "Packages/perf-4.14.192-147.314.amzn2.aarch64.rpm"
    },
    {
      "name": "perf-debuginfo",
      "epoch": "0",
      "version": "4.14.192",
      "release": "147.314.amzn2",
      "arch": "aarch64",
      "filename": "Packages/perf-debuginfo-4.14.192-147.314.amzn2.aarch64.rpm"
    },
    {
      "name": "python-perf",
      "epoch": "0",
      "version": "4.14.192",
      "release": "147.314.amzn2",
      "arch": "aarch64",
      "filename": "Packages/python-perf-4.14.192-147.314.amzn2.aarch64.rpm"
    },
    {
      "name": "python-perf-debuginfo",
      "epoch": "0",
      "version": "4.14.192",
      "release": "147.314.amzn2",
      "arch": "aarch64",
      "filename": "Packages/python-perf-debuginfo-4.14.192-147.314.amzn2.aarch64.rpm"
    },
    {
      "name": "kernel-tools",
      "epoch": "0",
      "version": "4.14.192",
      "release": "147.314.amzn2",
      "arch": "aarch64",
      "filename": "Packages/kernel-tools-4.14.192-147.314.amzn2.aarch64.rpm"
    },
    {
      "name": "kernel-tools-devel",
      "epoch": "0",
      "version": "4.14.192",
      "release": "147.314.amzn2",
      "arch": "aarch64",
      "filename": "Packages/kernel-tools-devel-4.14.192-147.314.amzn2.aarch64.rpm"
    },
    {
      "name": "kernel-tools-debuginfo",
      "epoch": "0",
      "version": "4.14.192",
      "release": "147.314.amzn2",
      "arch": "aarch64",
      "filename": "Packages/kernel-tools-debuginfo-4.14.192-147.314.amzn2.aarch64.rpm"
    },
    {
      "name": "kernel-devel",
      "epoch": "0",
      "version": "4.14.192",
      "release": "147.314.amzn2",
      "arch": "aarch64",
      "filename": "Packages/kernel-devel-4.14.192-147.314.amzn2.aarch64.rpm"
    },
    {
      "name": "kernel-debuginfo",
      "epoch": "0",
      "version": "4.14.192",
      "release": "147.314.amzn2",
      "arch": "aarch64",
      "filename": "Packages/kernel-debuginfo-4.14.192-147.314.amzn2.aarch64.rpm"
    },
    {
      "name": "kernel",
      "epoch": "0",
      "version": "4.14.192",
      "release": "147.314.amzn2",
      "arch": "x86_64",
      "filename": "Packages/kernel-4.14.192-147.314.amzn2.x86_64.rpm"
    },
    {
      "name": "kernel-headers",
      "epoch": "0",
      "version": "4.14.192",
      "release": "147.314.amzn2",
      "arch": "x86_64",
      "filename": "Packages/kernel-headers-4.14.192-147.314.amzn2.x86_64.rpm"
    },
    {
      "name": "kernel-debuginfo-common-x86_64",
      "epoch": "0",
      "version": "4.14.192",
      "release": "147.314.amzn2",
      "arch": "x86_64",
      "filename": "Packages/kernel-debuginfo-common-x86_64-4.14.192-147.314.amzn2.x86_64.rpm"
    },
    {
      "name": "perf",
      "epoch": "0",
      "version": "4.14.192",
      "release": "147.314.amzn2",
      "arch": "x86_64",
      "filename": "Packages/perf-4.14.192-147.314.amzn2.x86_64.rpm"
    },
    {
      "name": "perf-debuginfo",
      "epoch": "0",
      "version": "4.14.192",
      "release": "147.314.amzn2",
      "arch": "x86_64",
      "filename": "Packages/perf-debuginfo-4.14.192-147.314.amzn2.x86_64.rpm"
    },
    {
      "name": "python-perf",
      "epoch": "0",
      "version": "4.14.192",
      "release": "147.314.amzn2",
      "arch": "x86_64",
      "filename": "Packages/python-perf-4.14.192-147.314.amzn2.x86_64.rpm"
    },
    {
      "name": "python-perf-debuginfo",
      "epoch": "0",
      "version": "4.14.192",
      "release": "147.314.amzn2",
      "arch": "x86_64",
      "filename": "Packages/python-perf-debuginfo-4.14.192-147.314.amzn2.x86_64.rpm"
    },
    {
      "name": "kernel-tools",
      "epoch": "0",
      "version": "4.14.192",
      "release": "147.314.amzn2",
      "arch": "x86_64",
      "filename": "Packages/kernel-tools-4.14.192-147.314.amzn2.x86_64.rpm"
    },
    {
      "name": "kernel-tools-devel",
      "epoch": "0",
      "version": "4.14.192",
      "release": "147.314.amzn2",
      "arch": "x86_64",
      "filename": "Packages/kernel-tools-devel-4.14.192-147.314.amzn2.x86_64.rpm"
    },
    {
      "name": "kernel-tools-debuginfo",
      "epoch": "0",
      "version": "4.14.192",
      "release": "147.314.amzn2",
      "arch": "x86_64",
      "filename": "Packages/kernel-tools-debuginfo-4.14.192-147.314.amzn2.x86_64.rpm"
    },
    {
      "name": "kernel-devel",
      "epoch": "0",
      "version": "4.14.192",
      "release": "147.314.amzn2",
      "arch": "x86_64",
      "filename": "Packages/kernel-devel-4.14.192-147.314.amzn2.x86_64.rpm"
    },
    {
      "name": "kernel-debuginfo",
      "epoch": "0",
      "version": "4.14.192",
      "release": "147.314.amzn2",
      "arch": "x86_64",
      "filename": "Packages/kernel-debuginfo-4.14.192-147.314.amzn2.x86_64.rpm"
    },
    {
      "name": "kernel-livepatch-4.14.192-147.314",
      "epoch": "0",
      "version": "1.0",
      "release": "0.amzn2",
      "arch": "x86_64",
      "filename": "Packages/kernel-livepatch-4.14.192-147.314-1.0-0.amzn2.x86_64.rpm"
    },
    {
      "name": "kernel-headers",
      "epoch": "0",
      "version": "4.14.192",
      "release": "147.314.amzn2",
      "arch": "i686",
      "filename": "Packages/kernel-headers-4.14.192-147.314.amzn2.i686.rpm"
    }
  ],
  "references": [
    {
      "href": "http://cve.mitre.org/cgi-bin/cvename.cgi?name=CVE-2017-18232",
      "id": "CVE-2017-18232",
      "type": "cve"
    },
    {
      "href": "http://cve.mitre.org/cgi-bin/cvename.cgi?name=CVE-2018-10323",
      "id": "CVE-2018-10323",
      "type": "cve"
    },
    {
      "href": "http://cve.mitre.org/cgi-bin/cvename.cgi?name=CVE-2018-8043",
      "id": "CVE-2018-8043",
      "type": "cve"
    },
    {
      "href": "http://cve.mitre.org/cgi-bin/cvename.cgi?name=CVE-2019-18808",
      "id": "CVE-2019-18808",
      "type": "cve"
    },
    {
      "href": "http://cve.mitre.org/cgi-bin/cvename.cgi?name=CVE-2019-19054",
      "id": "CVE-2019-19054",
      "type": "cve"
    },
    {
      "href": "http://cve.mitre.org/cgi-bin/cvename.cgi?name=CVE-2019-19061",
      "id": "CVE-2019-19061",
      "type": "cve"
    },
    {
      "href": "http://cve.mitre.org/cgi-bin/cvename.cgi?name=CVE-2019-19073",
      "id": "CVE-2019-19073",
      "type": "cve"
    },
    {
      "href": "http://cve.mitre.org/cgi-bin/cvename.cgi?name=CVE-2019-19074",
      "id": "CVE-2019-19074",
      "type": "cve"
    },
    {
      "href": "http://cve.mitre.org/cgi-bin/cvename.cgi?name=CVE-2019-3016",
      "id": "CVE-2019-3016",
      "type": "cve"
    },
    {
      "href": "http://cve.mitre.org/cgi-bin/cvename.cgi?name=CVE-2019-9445",
      "id": "CVE-2019-9445",
      "type": "cve"
    },
    {
      "href": "http://cve.mitre.org/cgi-bin/cvename.cgi?name=CVE-2020-10781",
      "id": "CVE-2020-10781",
      "type": "cve"
    },
    {
      "href": "http://cve.mitre.org/cgi-bin/cvename.cgi?name=CVE-2020-12655",
      "id": "CVE-2020-12655",
      "type": "cve"
    },
    {
      "href": "http://cve.mitre.org/cgi-bin/cvename.cgi?name=CVE-2020-15393",
      "id": "CVE-2020-15393",
      "type": "cve"
    }
  ],
  "cveids": [
    "CVE-2017-18232",
    "CVE-2018-10323",
    "CVE-2018-8043",
    "CVE-2019-18808",
    "CVE-2019-19054",
    "CVE-2019-19061",
    "CVE-2019-19073",
    "CVE-2019-19074",
    "CVE-2019-3016",
    "CVE-2019-9445",
    "CVE-2020-10781",
    "CVE-2020-12655",
    "CVE-2020-15393"
  ]
}