{
  "id": "ALAS2-2024-2564",
  "title": "Amazon Linux 2 2017.12 - ALAS2-2024-2564: medium priority package update for openssl11",
  "issued": {
    "date": "2024-06-06 20:17:00"
  },
  "updated": {
    "date": "2024-06-06 20:17:00"
  },
  "severity": "medium",
  "description": "Package updates are available for Amazon Linux 2 that fix the following vulnerabilities:\nCVE-2024-2511:\n\tIssue summary: Some non-default TLS server configurations can cause unbounded\nmemory growth when processing TLSv1.3 sessions\n\nImpact summary: An attacker may exploit certain server configurations to trigger\nunbounded memory growth that would lead to a Denial of Service\n\nThis problem can occur in TLSv1.3 if the non-default SSL_OP_NO_TICKET option is\nbeing used (but not if early_data support is also configured and the default\nanti-replay protection is in use). In this case, under certain conditions, the\nsession cache can get into an incorrect state and it will fail to flush properly\nas it fills. The session cache will continue to grow in an unbounded manner. A\nmalicious client could deliberately create the scenario for this failure to\nforce a Denial of Service. It may also happen by accident in normal operation.\n\nThis issue only affects TLS servers supporting TLSv1.3. It does not affect TLS\nclients.\n\nThe FIPS modules in 3.2, 3.1 and 3.0 are not affected by this issue. OpenSSL\n1.0.2 is also not affected by this issue.\n",
  "packages": [
    {
      "name": "openssl11",
      "epoch": "1",
      "version": "1.1.1g",
      "release": "12.amzn2.0.21",
      "arch": "x86_64",
      "filename": "Packages/openssl11-1.1.1g-12.amzn2.0.21.x86_64.rpm"
    },
    {
      "name": "openssl11-libs",
      "epoch": "1",
      "version": "1.1.1g",
      "release": "12.amzn2.0.21",
      "arch": "x86_64",
      "filename": "Packages/openssl11-libs-1.1.1g-12.amzn2.0.21.x86_64.rpm"
    },
    {
      "name": "openssl11-devel",
      "epoch": "1",
      "version": "1.1.1g",
      "release": "12.amzn2.0.21",
      "arch": "x86_64",
      "filename": "Packages/openssl11-devel-1.1.1g-12.amzn2.0.21.x86_64.rpm"
    },
    {
      "name": "openssl11-static",
      "epoch": "1",
      "version": "1.1.1g",
      "release": "12.amzn2.0.21",
      "arch": "x86_64",
      "filename": "Packages/openssl11-static-1.1.1g-12.amzn2.0.21.x86_64.rpm"
    },
    {
      "name": "openssl11-debuginfo",
      "epoch": "1",
      "version": "1.1.1g",
      "release": "12.amzn2.0.21",
      "arch": "x86_64",
      "filename": "Packages/openssl11-debuginfo-1.1.1g-12.amzn2.0.21.x86_64.rpm"
    },
    {
      "name": "openssl11",
      "epoch": "1",
      "version": "1.1.1g",
      "release": "12.amzn2.0.21",
      "arch": "i686",
      "filename": "Packages/openssl11-1.1.1g-12.amzn2.0.21.i686.rpm"
    },
    {
      "name": "openssl11-libs",
      "epoch": "1",
      "version": "1.1.1g",
      "release": "12.amzn2.0.21",
      "arch": "i686",
      "filename": "Packages/openssl11-libs-1.1.1g-12.amzn2.0.21.i686.rpm"
    },
    {
      "name": "openssl11-devel",
      "epoch": "1",
      "version": "1.1.1g",
      "release": "12.amzn2.0.21",
      "arch": "i686",
      "filename": "Packages/openssl11-devel-1.1.1g-12.amzn2.0.21.i686.rpm"
    },
    {
      "name": "openssl11-static",
      "epoch": "1",
      "version": "1.1.1g",
      "release": "12.amzn2.0.21",
      "arch": "i686",
      "filename": "Packages/openssl11-static-1.1.1g-12.amzn2.0.21.i686.rpm"
    },
    {
      "name": "openssl11-debuginfo",
      "epoch": "1",
      "version": "1.1.1g",
      "release": "12.amzn2.0.21",
      "arch": "i686",
      "filename": "Packages/openssl11-debuginfo-1.1.1g-12.amzn2.0.21.i686.rpm"
    },
    {
      "name": "openssl11",
      "epoch": "1",
      "version": "1.1.1g",
      "release": "12.amzn2.0.21",
      "arch": "aarch64",
      "filename": "Packages/openssl11-1.1.1g-12.amzn2.0.21.aarch64.rpm"
    },
    {
      "name": "openssl11-libs",
      "epoch": "1",
      "version": "1.1.1g",
      "release": "12.amzn2.0.21",
      "arch": "aarch64",
      "filename": "Packages/openssl11-libs-1.1.1g-12.amzn2.0.21.aarch64.rpm"
    },
    {
      "name": "openssl11-devel",
      "epoch": "1",
      "version": "1.1.1g",
      "release": "12.amzn2.0.21",
      "arch": "aarch64",
      "filename": "Packages/openssl11-devel-1.1.1g-12.amzn2.0.21.aarch64.rpm"
    },
    {
      "name": "openssl11-static",
      "epoch": "1",
      "version": "1.1.1g",
      "release": "12.amzn2.0.21",
      "arch": "aarch64",
      "filename": "Packages/openssl11-static-1.1.1g-12.amzn2.0.21.aarch64.rpm"
    },
    {
      "name": "openssl11-debuginfo",
      "epoch": "1",
      "version": "1.1.1g",
      "release": "12.amzn2.0.21",
      "arch": "aarch64",
      "filename": "Packages/openssl11-debuginfo-1.1.1g-12.amzn2.0.21.aarch64.rpm"
    }
  ],
  "references": [
    {
      "href": "http://cve.mitre.org/cgi-bin/cvename.cgi?name=CVE-2024-2511",
      "id": "CVE-2024-2511",
      "type": "cve"
    }
  ],
  "cveids": [
    "CVE-2024-2511"
  ]
}