{
  "id": "ALAS2-2023-1987",
  "title": "Amazon Linux 2 2017.12 - ALAS2-2023-1987: important priority package update for kernel",
  "issued": {
    "date": "2023-03-17 16:34:00"
  },
  "updated": {
    "date": "2024-01-19 01:51:00"
  },
  "severity": "important",
  "description": "Package updates are available for Amazon Linux 2 that fix the following vulnerabilities:\nCVE-2023-7192:\n\tkernel: refcount leak in ctnetlink_create_conntrack()\n\nCVE-2023-45862:\n\tAn issue was discovered in drivers/usb/storage/ene_ub6250.c for the ENE UB6250 reader driver in the Linux kernel before 6.2.5. An object could potentially extend beyond the end of an allocation.\n\nCVE-2023-3161:\n\tA flaw was found in the Framebuffer Console (fbcon) in the Linux Kernel. When providing a font-\u003ewidth and font-\u003eheight greater than 32 to the fbcon_set_font, since there are no checks in place, a shift-out-of-bounds occurs, leading to undefined behavior and possible denial of service.\n\nCVE-2023-2985:\n\tA use-after-free flaw was found in hfsplus_put_super in fs/hfsplus/super.c in the Linux Kernel. This flaw could allow a local user to cause a denial of service.\n\nCVE-2023-26545:\n\tIn the Linux kernel before 6.1.13, there is a double free in net/mpls/af_mpls.c upon an allocation failure (for registering the sysctl table under a new location) during the renaming of a device.\n\nCVE-2023-2162:\n\tA use-after-free flaw was found in iscsi_sw_tcp_session_create in drivers/scsi/iscsi_tcp.c in the SCSI sub-component in the Linux Kernel. This issue could allow an attacker to leak kernel internal information.\n\nCVE-2023-1998:\n\tWhen plain IBRS is enabled (not enhanced IBRS), the logic in spectre_v2_user_select_mitigation() determines that STIBP is not needed. The IBRS bit implicitly protects against cross-thread branch target\ninjection. However, with legacy IBRS, the IBRS bit is cleared on returning to userspace for performance reasons which leaves userspace threads vulnerable to cross-thread branch target injection against which STIBP protects.\n\nCVE-2023-1829:\n\tA use-after-free vulnerability in the Linux Kernel traffic control index filter (tcindex) can be exploited to achieve local privilege escalation. The tcindex_delete function which does not properly deactivate filters in case of a perfect hashes while deleting the underlying structure which can later lead to double freeing the structure. A local attacker user can use this vulnerability to elevate its privileges to root.\nWe recommend upgrading past commit 8c710f75256bb3cf05ac7b1672c82b92c43f3d28.\n\nCVE-2023-1281:\n\tUse After Free vulnerability in Linux kernel traffic control index filter (tcindex) allows Privilege Escalation. The imperfect hash area can be updated while packets are traversing, which will cause a use-after-free when 'tcf_exts_exec()' is called with the destroyed tcf_ext. A local attacker user can use this vulnerability to elevate its privileges to root. This issue affects Linux Kernel: from 4.14 before git commit ee059170b1f7e94e55fa6cadee544e176a6e59c2.\n\nCVE-2023-0458:\n\tDetected a few exploitable gadgets that could leak secret memory through a side-channel such as MDS as well as insufficient hardening of the usercopy functions against spectre-v1.\n",
  "packages": [
    {
      "name": "kernel",
      "epoch": "0",
      "version": "4.14.309",
      "release": "231.529.amzn2",
      "arch": "x86_64",
      "filename": "Packages/kernel-4.14.309-231.529.amzn2.x86_64.rpm"
    },
    {
      "name": "kernel-headers",
      "epoch": "0",
      "version": "4.14.309",
      "release": "231.529.amzn2",
      "arch": "x86_64",
      "filename": "Packages/kernel-headers-4.14.309-231.529.amzn2.x86_64.rpm"
    },
    {
      "name": "kernel-debuginfo-common-x86_64",
      "epoch": "0",
      "version": "4.14.309",
      "release": "231.529.amzn2",
      "arch": "x86_64",
      "filename": "Packages/kernel-debuginfo-common-x86_64-4.14.309-231.529.amzn2.x86_64.rpm"
    },
    {
      "name": "perf",
      "epoch": "0",
      "version": "4.14.309",
      "release": "231.529.amzn2",
      "arch": "x86_64",
      "filename": "Packages/perf-4.14.309-231.529.amzn2.x86_64.rpm"
    },
    {
      "name": "perf-debuginfo",
      "epoch": "0",
      "version": "4.14.309",
      "release": "231.529.amzn2",
      "arch": "x86_64",
      "filename": "Packages/perf-debuginfo-4.14.309-231.529.amzn2.x86_64.rpm"
    },
    {
      "name": "python-perf",
      "epoch": "0",
      "version": "4.14.309",
      "release": "231.529.amzn2",
      "arch": "x86_64",
      "filename": "Packages/python-perf-4.14.309-231.529.amzn2.x86_64.rpm"
    },
    {
      "name": "python-perf-debuginfo",
      "epoch": "0",
      "version": "4.14.309",
      "release": "231.529.amzn2",
      "arch": "x86_64",
      "filename": "Packages/python-perf-debuginfo-4.14.309-231.529.amzn2.x86_64.rpm"
    },
    {
      "name": "kernel-tools",
      "epoch": "0",
      "version": "4.14.309",
      "release": "231.529.amzn2",
      "arch": "x86_64",
      "filename": "Packages/kernel-tools-4.14.309-231.529.amzn2.x86_64.rpm"
    },
    {
      "name": "kernel-tools-devel",
      "epoch": "0",
      "version": "4.14.309",
      "release": "231.529.amzn2",
      "arch": "x86_64",
      "filename": "Packages/kernel-tools-devel-4.14.309-231.529.amzn2.x86_64.rpm"
    },
    {
      "name": "kernel-tools-debuginfo",
      "epoch": "0",
      "version": "4.14.309",
      "release": "231.529.amzn2",
      "arch": "x86_64",
      "filename": "Packages/kernel-tools-debuginfo-4.14.309-231.529.amzn2.x86_64.rpm"
    },
    {
      "name": "kernel-devel",
      "epoch": "0",
      "version": "4.14.309",
      "release": "231.529.amzn2",
      "arch": "x86_64",
      "filename": "Packages/kernel-devel-4.14.309-231.529.amzn2.x86_64.rpm"
    },
    {
      "name": "kernel-debuginfo",
      "epoch": "0",
      "version": "4.14.309",
      "release": "231.529.amzn2",
      "arch": "x86_64",
      "filename": "Packages/kernel-debuginfo-4.14.309-231.529.amzn2.x86_64.rpm"
    },
    {
      "name": "kernel-livepatch-4.14.309-231.529",
      "epoch": "0",
      "version": "1.0",
      "release": "0.amzn2",
      "arch": "x86_64",
      "filename": "Packages/kernel-livepatch-4.14.309-231.529-1.0-0.amzn2.x86_64.rpm"
    },
    {
      "name": "kernel-headers",
      "epoch": "0",
      "version": "4.14.309",
      "release": "231.529.amzn2",
      "arch": "i686",
      "filename": "Packages/kernel-headers-4.14.309-231.529.amzn2.i686.rpm"
    },
    {
      "name": "kernel",
      "epoch": "0",
      "version": "4.14.309",
      "release": "231.529.amzn2",
      "arch": "aarch64",
      "filename": "Packages/kernel-4.14.309-231.529.amzn2.aarch64.rpm"
    },
    {
      "name": "kernel-headers",
      "epoch": "0",
      "version": "4.14.309",
      "release": "231.529.amzn2",
      "arch": "aarch64",
      "filename": "Packages/kernel-headers-4.14.309-231.529.amzn2.aarch64.rpm"
    },
    {
      "name": "kernel-debuginfo-common-aarch64",
      "epoch": "0",
      "version": "4.14.309",
      "release": "231.529.amzn2",
      "arch": "aarch64",
      "filename": "Packages/kernel-debuginfo-common-aarch64-4.14.309-231.529.amzn2.aarch64.rpm"
    },
    {
      "name": "perf",
      "epoch": "0",
      "version": "4.14.309",
      "release": "231.529.amzn2",
      "arch": "aarch64",
      "filename": "Packages/perf-4.14.309-231.529.amzn2.aarch64.rpm"
    },
    {
      "name": "perf-debuginfo",
      "epoch": "0",
      "version": "4.14.309",
      "release": "231.529.amzn2",
      "arch": "aarch64",
      "filename": "Packages/perf-debuginfo-4.14.309-231.529.amzn2.aarch64.rpm"
    },
    {
      "name": "python-perf",
      "epoch": "0",
      "version": "4.14.309",
      "release": "231.529.amzn2",
      "arch": "aarch64",
      "filename": "Packages/python-perf-4.14.309-231.529.amzn2.aarch64.rpm"
    },
    {
      "name": "python-perf-debuginfo",
      "epoch": "0",
      "version": "4.14.309",
      "release": "231.529.amzn2",
      "arch": "aarch64",
      "filename": "Packages/python-perf-debuginfo-4.14.309-231.529.amzn2.aarch64.rpm"
    },
    {
      "name": "kernel-tools",
      "epoch": "0",
      "version": "4.14.309",
      "release": "231.529.amzn2",
      "arch": "aarch64",
      "filename": "Packages/kernel-tools-4.14.309-231.529.amzn2.aarch64.rpm"
    },
    {
      "name": "kernel-tools-devel",
      "epoch": "0",
      "version": "4.14.309",
      "release": "231.529.amzn2",
      "arch": "aarch64",
      "filename": "Packages/kernel-tools-devel-4.14.309-231.529.amzn2.aarch64.rpm"
    },
    {
      "name": "kernel-tools-debuginfo",
      "epoch": "0",
      "version": "4.14.309",
      "release": "231.529.amzn2",
      "arch": "aarch64",
      "filename": "Packages/kernel-tools-debuginfo-4.14.309-231.529.amzn2.aarch64.rpm"
    },
    {
      "name": "kernel-devel",
      "epoch": "0",
      "version": "4.14.309",
      "release": "231.529.amzn2",
      "arch": "aarch64",
      "filename": "Packages/kernel-devel-4.14.309-231.529.amzn2.aarch64.rpm"
    },
    {
      "name": "kernel-debuginfo",
      "epoch": "0",
      "version": "4.14.309",
      "release": "231.529.amzn2",
      "arch": "aarch64",
      "filename": "Packages/kernel-debuginfo-4.14.309-231.529.amzn2.aarch64.rpm"
    }
  ],
  "references": [
    {
      "href": "http://cve.mitre.org/cgi-bin/cvename.cgi?name=CVE-2023-0458",
      "id": "CVE-2023-0458",
      "type": "cve"
    },
    {
      "href": "http://cve.mitre.org/cgi-bin/cvename.cgi?name=CVE-2023-1281",
      "id": "CVE-2023-1281",
      "type": "cve"
    },
    {
      "href": "http://cve.mitre.org/cgi-bin/cvename.cgi?name=CVE-2023-1829",
      "id": "CVE-2023-1829",
      "type": "cve"
    },
    {
      "href": "http://cve.mitre.org/cgi-bin/cvename.cgi?name=CVE-2023-1998",
      "id": "CVE-2023-1998",
      "type": "cve"
    },
    {
      "href": "http://cve.mitre.org/cgi-bin/cvename.cgi?name=CVE-2023-2162",
      "id": "CVE-2023-2162",
      "type": "cve"
    },
    {
      "href": "http://cve.mitre.org/cgi-bin/cvename.cgi?name=CVE-2023-26545",
      "id": "CVE-2023-26545",
      "type": "cve"
    },
    {
      "href": "http://cve.mitre.org/cgi-bin/cvename.cgi?name=CVE-2023-2985",
      "id": "CVE-2023-2985",
      "type": "cve"
    },
    {
      "href": "http://cve.mitre.org/cgi-bin/cvename.cgi?name=CVE-2023-3161",
      "id": "CVE-2023-3161",
      "type": "cve"
    },
    {
      "href": "http://cve.mitre.org/cgi-bin/cvename.cgi?name=CVE-2023-45862",
      "id": "CVE-2023-45862",
      "type": "cve"
    },
    {
      "href": "http://cve.mitre.org/cgi-bin/cvename.cgi?name=CVE-2023-7192",
      "id": "CVE-2023-7192",
      "type": "cve"
    }
  ],
  "cveids": [
    "CVE-2023-0458",
    "CVE-2023-1281",
    "CVE-2023-1829",
    "CVE-2023-1998",
    "CVE-2023-2162",
    "CVE-2023-26545",
    "CVE-2023-2985",
    "CVE-2023-3161",
    "CVE-2023-45862",
    "CVE-2023-7192"
  ]
}