{
  "id": "ALAS2-2022-1903",
  "title": "Amazon Linux 2 2017.12 - ALAS2-2022-1903: important priority package update for kernel",
  "issued": {
    "date": "2022-12-09 20:58:00"
  },
  "updated": {
    "date": "2024-06-06 20:17:00"
  },
  "severity": "important",
  "description": "Package updates are available for Amazon Linux 2 that fix the following vulnerabilities:\nCVE-2023-26607:\n\tIn the Linux kernel 6.0.8, there is an out-of-bounds read in ntfs_attr_find in fs/ntfs/attrib.c.\n\nCVE-2022-42896:\n\tA use-after-free flaw was found in the Linux kernel's implementation of logical link control and adaptation protocol (L2CAP), part of the Bluetooth stack in the l2cap_connect and l2cap_le_connect_req functions. An attacker with physical access within the range of standard Bluetooth transmission could execute code leaking kernel memory via Bluetooth if within proximity of the victim.\n\nCVE-2022-3524:\n\tA vulnerability was found in Linux Kernel. It has been declared as problematic. Affected by this vulnerability is the function ipv6_renew_options of the component IPv6 Handler. The manipulation leads to memory leak. The attack can be launched remotely. It is recommended to apply a patch to fix this issue. The identifier VDB-211021 was assigned to this vulnerability.\n",
  "packages": [
    {
      "name": "kernel",
      "epoch": "0",
      "version": "4.14.301",
      "release": "224.520.amzn2",
      "arch": "x86_64",
      "filename": "Packages/kernel-4.14.301-224.520.amzn2.x86_64.rpm"
    },
    {
      "name": "kernel-headers",
      "epoch": "0",
      "version": "4.14.301",
      "release": "224.520.amzn2",
      "arch": "x86_64",
      "filename": "Packages/kernel-headers-4.14.301-224.520.amzn2.x86_64.rpm"
    },
    {
      "name": "kernel-debuginfo-common-x86_64",
      "epoch": "0",
      "version": "4.14.301",
      "release": "224.520.amzn2",
      "arch": "x86_64",
      "filename": "Packages/kernel-debuginfo-common-x86_64-4.14.301-224.520.amzn2.x86_64.rpm"
    },
    {
      "name": "perf",
      "epoch": "0",
      "version": "4.14.301",
      "release": "224.520.amzn2",
      "arch": "x86_64",
      "filename": "Packages/perf-4.14.301-224.520.amzn2.x86_64.rpm"
    },
    {
      "name": "perf-debuginfo",
      "epoch": "0",
      "version": "4.14.301",
      "release": "224.520.amzn2",
      "arch": "x86_64",
      "filename": "Packages/perf-debuginfo-4.14.301-224.520.amzn2.x86_64.rpm"
    },
    {
      "name": "python-perf",
      "epoch": "0",
      "version": "4.14.301",
      "release": "224.520.amzn2",
      "arch": "x86_64",
      "filename": "Packages/python-perf-4.14.301-224.520.amzn2.x86_64.rpm"
    },
    {
      "name": "python-perf-debuginfo",
      "epoch": "0",
      "version": "4.14.301",
      "release": "224.520.amzn2",
      "arch": "x86_64",
      "filename": "Packages/python-perf-debuginfo-4.14.301-224.520.amzn2.x86_64.rpm"
    },
    {
      "name": "kernel-tools",
      "epoch": "0",
      "version": "4.14.301",
      "release": "224.520.amzn2",
      "arch": "x86_64",
      "filename": "Packages/kernel-tools-4.14.301-224.520.amzn2.x86_64.rpm"
    },
    {
      "name": "kernel-tools-devel",
      "epoch": "0",
      "version": "4.14.301",
      "release": "224.520.amzn2",
      "arch": "x86_64",
      "filename": "Packages/kernel-tools-devel-4.14.301-224.520.amzn2.x86_64.rpm"
    },
    {
      "name": "kernel-tools-debuginfo",
      "epoch": "0",
      "version": "4.14.301",
      "release": "224.520.amzn2",
      "arch": "x86_64",
      "filename": "Packages/kernel-tools-debuginfo-4.14.301-224.520.amzn2.x86_64.rpm"
    },
    {
      "name": "kernel-devel",
      "epoch": "0",
      "version": "4.14.301",
      "release": "224.520.amzn2",
      "arch": "x86_64",
      "filename": "Packages/kernel-devel-4.14.301-224.520.amzn2.x86_64.rpm"
    },
    {
      "name": "kernel-debuginfo",
      "epoch": "0",
      "version": "4.14.301",
      "release": "224.520.amzn2",
      "arch": "x86_64",
      "filename": "Packages/kernel-debuginfo-4.14.301-224.520.amzn2.x86_64.rpm"
    },
    {
      "name": "kernel-livepatch-4.14.301-224.520",
      "epoch": "0",
      "version": "1.0",
      "release": "0.amzn2",
      "arch": "x86_64",
      "filename": "Packages/kernel-livepatch-4.14.301-224.520-1.0-0.amzn2.x86_64.rpm"
    },
    {
      "name": "kernel-headers",
      "epoch": "0",
      "version": "4.14.301",
      "release": "224.520.amzn2",
      "arch": "i686",
      "filename": "Packages/kernel-headers-4.14.301-224.520.amzn2.i686.rpm"
    },
    {
      "name": "kernel",
      "epoch": "0",
      "version": "4.14.301",
      "release": "224.520.amzn2",
      "arch": "aarch64",
      "filename": "Packages/kernel-4.14.301-224.520.amzn2.aarch64.rpm"
    },
    {
      "name": "kernel-headers",
      "epoch": "0",
      "version": "4.14.301",
      "release": "224.520.amzn2",
      "arch": "aarch64",
      "filename": "Packages/kernel-headers-4.14.301-224.520.amzn2.aarch64.rpm"
    },
    {
      "name": "kernel-debuginfo-common-aarch64",
      "epoch": "0",
      "version": "4.14.301",
      "release": "224.520.amzn2",
      "arch": "aarch64",
      "filename": "Packages/kernel-debuginfo-common-aarch64-4.14.301-224.520.amzn2.aarch64.rpm"
    },
    {
      "name": "perf",
      "epoch": "0",
      "version": "4.14.301",
      "release": "224.520.amzn2",
      "arch": "aarch64",
      "filename": "Packages/perf-4.14.301-224.520.amzn2.aarch64.rpm"
    },
    {
      "name": "perf-debuginfo",
      "epoch": "0",
      "version": "4.14.301",
      "release": "224.520.amzn2",
      "arch": "aarch64",
      "filename": "Packages/perf-debuginfo-4.14.301-224.520.amzn2.aarch64.rpm"
    },
    {
      "name": "python-perf",
      "epoch": "0",
      "version": "4.14.301",
      "release": "224.520.amzn2",
      "arch": "aarch64",
      "filename": "Packages/python-perf-4.14.301-224.520.amzn2.aarch64.rpm"
    },
    {
      "name": "python-perf-debuginfo",
      "epoch": "0",
      "version": "4.14.301",
      "release": "224.520.amzn2",
      "arch": "aarch64",
      "filename": "Packages/python-perf-debuginfo-4.14.301-224.520.amzn2.aarch64.rpm"
    },
    {
      "name": "kernel-tools",
      "epoch": "0",
      "version": "4.14.301",
      "release": "224.520.amzn2",
      "arch": "aarch64",
      "filename": "Packages/kernel-tools-4.14.301-224.520.amzn2.aarch64.rpm"
    },
    {
      "name": "kernel-tools-devel",
      "epoch": "0",
      "version": "4.14.301",
      "release": "224.520.amzn2",
      "arch": "aarch64",
      "filename": "Packages/kernel-tools-devel-4.14.301-224.520.amzn2.aarch64.rpm"
    },
    {
      "name": "kernel-tools-debuginfo",
      "epoch": "0",
      "version": "4.14.301",
      "release": "224.520.amzn2",
      "arch": "aarch64",
      "filename": "Packages/kernel-tools-debuginfo-4.14.301-224.520.amzn2.aarch64.rpm"
    },
    {
      "name": "kernel-devel",
      "epoch": "0",
      "version": "4.14.301",
      "release": "224.520.amzn2",
      "arch": "aarch64",
      "filename": "Packages/kernel-devel-4.14.301-224.520.amzn2.aarch64.rpm"
    },
    {
      "name": "kernel-debuginfo",
      "epoch": "0",
      "version": "4.14.301",
      "release": "224.520.amzn2",
      "arch": "aarch64",
      "filename": "Packages/kernel-debuginfo-4.14.301-224.520.amzn2.aarch64.rpm"
    }
  ],
  "references": [
    {
      "href": "http://cve.mitre.org/cgi-bin/cvename.cgi?name=CVE-2022-3524",
      "id": "CVE-2022-3524",
      "type": "cve"
    },
    {
      "href": "http://cve.mitre.org/cgi-bin/cvename.cgi?name=CVE-2022-42896",
      "id": "CVE-2022-42896",
      "type": "cve"
    },
    {
      "href": "http://cve.mitre.org/cgi-bin/cvename.cgi?name=CVE-2023-26607",
      "id": "CVE-2023-26607",
      "type": "cve"
    }
  ],
  "cveids": [
    "CVE-2022-3524",
    "CVE-2022-42896",
    "CVE-2023-26607"
  ]
}