{
  "Severity": "MODERATE",
  "UpdatedAt": "2024-06-18T22:45:19Z",
  "Package": {
    "Ecosystem": "COMPOSER",
    "Name": "moodle/moodle"
  },
  "Advisory": {
    "DatabaseId": 250500,
    "Id": "GSA_kwCzR0hTQS1wNWNnLTZyZnItNm14OM4AA9KE",
    "GhsaId": "GHSA-p5cg-6rfr-6mx8",
    "References": [
      {
        "Url": "https://nvd.nist.gov/vuln/detail/CVE-2024-38274"
      },
      {
        "Url": "https://moodle.org/mod/forum/discuss.php?d=459499"
      },
      {
        "Url": "https://github.com/advisories/GHSA-p5cg-6rfr-6mx8"
      }
    ],
    "Identifiers": [
      {
        "Type": "GHSA",
        "Value": "GHSA-p5cg-6rfr-6mx8"
      },
      {
        "Type": "CVE",
        "Value": "CVE-2024-38274"
      }
    ],
    "Description": "Insufficient escaping of calendar event titles resulted in a stored XSS risk in the event deletion prompt.",
    "Origin": "UNSPECIFIED",
    "PublishedAt": "2024-06-18T21:30:36Z",
    "Severity": "MODERATE",
    "Summary": "Moodle stored XSS via calendar's event title when deleting the event",
    "UpdatedAt": "2024-06-18T22:45:19Z",
    "WithdrawnAt": "",
    "CVSS": {
      "Score": 6.1,
      "VectorString": "CVSS:3.1/AV:N/AC:L/PR:N/UI:R/S:C/C:L/I:L/A:N"
    }
  },
  "Versions": [
    {
      "FirstPatchedVersion": {
        "Identifier": "4.1.11"
      },
      "VulnerableVersionRange": "\u003c 4.1.11"
    },
    {
      "FirstPatchedVersion": {
        "Identifier": "4.2.8"
      },
      "VulnerableVersionRange": "\u003e= 4.2.0-beta, \u003c 4.2.8"
    },
    {
      "FirstPatchedVersion": {
        "Identifier": "4.3.5"
      },
      "VulnerableVersionRange": "\u003e= 4.3.0-beta, \u003c 4.3.5"
    },
    {
      "FirstPatchedVersion": {
        "Identifier": "4.4.1"
      },
      "VulnerableVersionRange": "\u003e= 4.4.0-beta, \u003c 4.4.1"
    }
  ]
}