{
  "Title": "Security update for kcoreaddons",
  "Tracking": {
    "ID": "openSUSE-SU-2016:2559-1",
    "Status": "Final",
    "Version": "1",
    "InitialReleaseDate": "2016-10-18T08:48:46Z",
    "CurrentReleaseDate": "2016-10-18T08:48:46Z",
    "RevisionHistory": [
      {
        "Number": "1",
        "Date": "2016-10-18T08:48:46Z",
        "Description": "current"
      }
    ]
  },
  "Notes": [
    {
      "Text": "Security update for kcoreaddons",
      "Title": "Topic",
      "Type": "Summary"
    },
    {
      "Text": "This update for kcoreaddons fixes the following issues:\n\n- CVE-2016-7966: HTML injection in plain text viewer (boo#1002977)\n",
      "Title": "Details",
      "Type": "General"
    },
    {
      "Text": "The CVRF data is provided by SUSE under the Creative Commons License 4.0 with Attribution (CC-BY-4.0).",
      "Title": "Terms of Use",
      "Type": "Legal Disclaimer"
    },
    {
      "Text": "openSUSE-2016-1200",
      "Title": "Patchnames",
      "Type": "Details"
    }
  ],
  "ProductTree": {
    "Relationships": [
      {
        "ProductReference": "kcoreaddons-5.20.0-6.1",
        "RelatesToProductReference": "SUSE Package Hub 12 SP1",
        "RelationType": "Default Component Of"
      },
      {
        "ProductReference": "kcoreaddons-devel-5.20.0-6.1",
        "RelatesToProductReference": "SUSE Package Hub 12 SP1",
        "RelationType": "Default Component Of"
      },
      {
        "ProductReference": "kcoreaddons-lang-5.20.0-6.1",
        "RelatesToProductReference": "SUSE Package Hub 12 SP1",
        "RelationType": "Default Component Of"
      },
      {
        "ProductReference": "libKF5CoreAddons5-5.20.0-6.1",
        "RelatesToProductReference": "SUSE Package Hub 12 SP1",
        "RelationType": "Default Component Of"
      }
    ]
  },
  "References": [
    {
      "URL": "https://www.suse.com/support/security/rating/",
      "Description": "SUSE Security Ratings"
    },
    {
      "URL": "https://bugzilla.suse.com/1002977",
      "Description": "SUSE Bug 1002977"
    },
    {
      "URL": "https://www.suse.com/security/cve/CVE-2016-7966/",
      "Description": "SUSE CVE CVE-2016-7966 page"
    }
  ],
  "Vulnerabilities": [
    {
      "CVE": "CVE-2016-7966",
      "Description": "Through a malicious URL that contained a quote character it was possible to inject HTML code in KMail's plaintext viewer. Due to the parser used on the URL it was not possible to include the equal sign (=) or a space into the injected HTML, which greatly reduces the available HTML functionality. Although it is possible to include an HTML comment indicator to hide content.",
      "Threats": [
        {
          "Type": "Impact",
          "Severity": "important"
        }
      ],
      "References": [
        {
          "URL": "https://www.suse.com/security/cve/CVE-2016-7966.html",
          "Description": "CVE-2016-7966"
        },
        {
          "URL": "https://bugzilla.suse.com/1002977",
          "Description": "SUSE Bug 1002977"
        }
      ],
      "ProductStatuses": [
        {
          "Type": "Fixed",
          "ProductID": [
            "SUSE Package Hub 12 SP1:kcoreaddons-5.20.0-6.1",
            "SUSE Package Hub 12 SP1:kcoreaddons-devel-5.20.0-6.1",
            "SUSE Package Hub 12 SP1:kcoreaddons-lang-5.20.0-6.1",
            "SUSE Package Hub 12 SP1:libKF5CoreAddons5-5.20.0-6.1"
          ]
        }
      ],
      "CVSSScoreSets": {}
    }
  ]
}