{
  "Severity": "HIGH",
  "UpdatedAt": "2024-03-20T18:10:36Z",
  "Package": {
    "Ecosystem": "GO",
    "Name": "github.com/golang-fips/openssl/openssl"
  },
  "Advisory": {
    "DatabaseId": 238281,
    "Id": "GSA_kwCzR0hTQS03OGh4LWdwNmctN21qNs4AA6LJ",
    "GhsaId": "GHSA-78hx-gp6g-7mj6",
    "References": [
      {
        "Url": "https://github.com/golang-fips/openssl/security/advisories/GHSA-78hx-gp6g-7mj6"
      },
      {
        "Url": "https://github.com/golang-fips/openssl/commit/85d31d0d257ce842c8a1e63c4d230ae850348136"
      },
      {
        "Url": "https://github.com/microsoft/go-crypto-openssl/commit/104fe7f6912788d2ad44602f77a0a0a62f1f259f"
      },
      {
        "Url": "https://github.com/golang-fips/openssl/releases/tag/v2.0.1"
      },
      {
        "Url": "https://github.com/microsoft/go-crypto-openssl/releases/tag/v0.2.9"
      },
      {
        "Url": "https://nvd.nist.gov/vuln/detail/CVE-2024-1394"
      },
      {
        "Url": "https://vuln.go.dev/ID/GO-2024-2660.json"
      },
      {
        "Url": "https://pkg.go.dev/vuln/GO-2024-2660"
      },
      {
        "Url": "https://bugzilla.redhat.com/show_bug.cgi?id=2262921"
      },
      {
        "Url": "https://access.redhat.com/security/cve/CVE-2024-1394"
      },
      {
        "Url": "https://access.redhat.com/errata/RHSA-2024:1897"
      },
      {
        "Url": "https://access.redhat.com/errata/RHSA-2024:1763"
      },
      {
        "Url": "https://access.redhat.com/errata/RHSA-2024:1646"
      },
      {
        "Url": "https://access.redhat.com/errata/RHSA-2024:1644"
      },
      {
        "Url": "https://access.redhat.com/errata/RHSA-2024:1640"
      },
      {
        "Url": "https://access.redhat.com/errata/RHSA-2024:1574"
      },
      {
        "Url": "https://access.redhat.com/errata/RHSA-2024:1567"
      },
      {
        "Url": "https://access.redhat.com/errata/RHSA-2024:1566"
      },
      {
        "Url": "https://access.redhat.com/errata/RHSA-2024:1563"
      },
      {
        "Url": "https://access.redhat.com/errata/RHSA-2024:1561"
      },
      {
        "Url": "https://access.redhat.com/errata/RHSA-2024:1502"
      },
      {
        "Url": "https://access.redhat.com/errata/RHSA-2024:1501"
      },
      {
        "Url": "https://access.redhat.com/errata/RHSA-2024:1472"
      },
      {
        "Url": "https://access.redhat.com/errata/RHSA-2024:1468"
      },
      {
        "Url": "https://access.redhat.com/errata/RHSA-2024:1462"
      },
      {
        "Url": "https://access.redhat.com/errata/RHSA-2024:2569"
      },
      {
        "Url": "https://access.redhat.com/errata/RHSA-2024:2568"
      },
      {
        "Url": "https://access.redhat.com/errata/RHSA-2024:2562"
      },
      {
        "Url": "https://access.redhat.com/errata/RHSA-2024:3265"
      },
      {
        "Url": "https://access.redhat.com/errata/RHSA-2024:2767"
      },
      {
        "Url": "https://access.redhat.com/errata/RHSA-2024:2730"
      },
      {
        "Url": "https://access.redhat.com/errata/RHSA-2024:2729"
      },
      {
        "Url": "https://github.com/advisories/GHSA-78hx-gp6g-7mj6"
      }
    ],
    "Identifiers": [
      {
        "Type": "GHSA",
        "Value": "GHSA-78hx-gp6g-7mj6"
      },
      {
        "Type": "CVE",
        "Value": "CVE-2024-1394"
      }
    ],
    "Description": "Using crafted public RSA keys which are not compliant with SP 800-56B can cause a small memory leak when encrypting and verifying payloads.\n\nAn attacker can leverage this flaw to gradually erode available memory to the point where the host crashes for lack of resources. Upon restart the attacker would have to begin again, but nevertheless there is the potential to deny service.",
    "Origin": "UNSPECIFIED",
    "PublishedAt": "2024-03-20T18:10:36Z",
    "Severity": "HIGH",
    "Summary": "Memory leaks in code encrypting and verifying RSA payloads",
    "UpdatedAt": "2024-05-23T00:30:38Z",
    "WithdrawnAt": "",
    "CVSS": {
      "Score": 7.5,
      "VectorString": "CVSS:3.1/AV:N/AC:L/PR:N/UI:N/S:U/C:N/I:N/A:H"
    }
  },
  "Versions": [
    {
      "FirstPatchedVersion": {
        "Identifier": ""
      },
      "VulnerableVersionRange": "\u003c= 0"
    }
  ]
}