{
  "Title": "Security update for xterm",
  "Tracking": {
    "ID": "openSUSE-SU-2021:2011-1",
    "Status": "Final",
    "Version": "1",
    "InitialReleaseDate": "2021-07-09T18:12:52Z",
    "CurrentReleaseDate": "2021-07-09T18:12:52Z",
    "RevisionHistory": [
      {
        "Number": "1",
        "Date": "2021-07-09T18:12:52Z",
        "Description": "current"
      }
    ]
  },
  "Notes": [
    {
      "Text": "Security update for xterm",
      "Title": "Topic",
      "Type": "Summary"
    },
    {
      "Text": "This update for xterm fixes the following issues:\n\n- CVE-2021-27135: Fixed buffer-overflow when clicking on selected utf8 text. (bsc#1182091)\n",
      "Title": "Details",
      "Type": "General"
    },
    {
      "Text": "The CVRF data is provided by SUSE under the Creative Commons License 4.0 with Attribution (CC-BY-4.0).",
      "Title": "Terms of Use",
      "Type": "Legal Disclaimer"
    },
    {
      "Text": "openSUSE-SLE-15.3-2021-2011",
      "Title": "Patchnames",
      "Type": "Details"
    }
  ],
  "ProductTree": {
    "Relationships": [
      {
        "ProductReference": "xterm-330-11.3.1",
        "RelatesToProductReference": "openSUSE Leap 15.3",
        "RelationType": "Default Component Of"
      },
      {
        "ProductReference": "xterm-bin-330-11.3.1",
        "RelatesToProductReference": "openSUSE Leap 15.3",
        "RelationType": "Default Component Of"
      }
    ]
  },
  "References": [
    {
      "URL": "https://lists.opensuse.org/archives/list/security-announce@lists.opensuse.org/thread/TSHLMCUKP3HZEQVMO6GPO4MIFBHEZ53K/",
      "Description": "E-Mail link for openSUSE-SU-2021:2011-1"
    },
    {
      "URL": "https://www.suse.com/support/security/rating/",
      "Description": "SUSE Security Ratings"
    },
    {
      "URL": "https://bugzilla.suse.com/1182091",
      "Description": "SUSE Bug 1182091"
    },
    {
      "URL": "https://www.suse.com/security/cve/CVE-2021-27135/",
      "Description": "SUSE CVE CVE-2021-27135 page"
    }
  ],
  "Vulnerabilities": [
    {
      "CVE": "CVE-2021-27135",
      "Description": "xterm before Patch #366 allows remote attackers to execute arbitrary code or cause a denial of service (segmentation fault) via a crafted UTF-8 combining character sequence.",
      "Threats": [
        {
          "Type": "Impact",
          "Severity": "important"
        }
      ],
      "References": [
        {
          "URL": "https://www.suse.com/security/cve/CVE-2021-27135.html",
          "Description": "CVE-2021-27135"
        },
        {
          "URL": "https://bugzilla.suse.com/1182091",
          "Description": "SUSE Bug 1182091"
        },
        {
          "URL": "https://bugzilla.suse.com/1189857",
          "Description": "SUSE Bug 1189857"
        },
        {
          "URL": "https://bugzilla.suse.com/1190262",
          "Description": "SUSE Bug 1190262"
        },
        {
          "URL": "https://bugzilla.suse.com/1225632",
          "Description": "SUSE Bug 1225632"
        }
      ],
      "ProductStatuses": [
        {
          "Type": "Fixed",
          "ProductID": [
            "openSUSE Leap 15.3:xterm-330-11.3.1",
            "openSUSE Leap 15.3:xterm-bin-330-11.3.1"
          ]
        }
      ],
      "CVSSScoreSets": {}
    }
  ]
}