{
  "Title": "Security update for the Linux Kernel",
  "Tracking": {
    "ID": "openSUSE-SU-2021:0947-1",
    "Status": "Final",
    "Version": "1",
    "InitialReleaseDate": "2021-07-01T04:53:53Z",
    "CurrentReleaseDate": "2021-07-01T04:53:53Z",
    "RevisionHistory": [
      {
        "Number": "1",
        "Date": "2021-07-01T04:53:53Z",
        "Description": "current"
      }
    ]
  },
  "Notes": [
    {
      "Text": "Security update for the Linux Kernel",
      "Title": "Topic",
      "Type": "Summary"
    },
    {
      "Text": "The SUSE Linux Enterprise 15 SP2 RT kernel was updated to receive various security and bugfixes.\n\n\nThe following security bugs were fixed:\n\n- CVE-2021-33200: Enforcing incorrect limits for pointer arithmetic operations by the BPF verifier could be abused to perform out-of-bounds reads and writes in kernel memory (bsc#1186484).\n- CVE-2021-33034: Fixed a use-after-free when destroying an hci_chan. This could lead to writing an arbitrary values. (bsc#1186111)\n- CVE-2020-26139: Fixed a denial-of-service when an Access Point (AP) forwards EAPOL frames to other clients even though the sender has not yet successfully authenticated to the AP. (bnc#1186062)\n- CVE-2021-23134: A Use After Free vulnerability in nfc sockets allowed local attackers to elevate their privileges. (bnc#1186060)\n- CVE-2021-3491: Fixed a potential heap overflow in mem_rw(). This vulnerability is related to the PROVIDE_BUFFERS operation, which allowed the MAX_RW_COUNT limit to be bypassed (bsc#1185642).\n- CVE-2021-32399: Fixed a race condition when removing the HCI controller (bnc#1184611).\n- CVE-2020-24586: The 802.11 standard that underpins Wi-Fi Protected Access (WPA, WPA2, and WPA3) and Wired Equivalent Privacy (WEP) doesn't require that received fragments be cleared from memory after (re)connecting to a network. Under the right circumstances this can be abused to inject arbitrary network packets and/or exfiltrate user data (bnc#1185859).\n- CVE-2020-24587: The 802.11 standard that underpins Wi-Fi Protected Access (WPA, WPA2, and WPA3) and Wired Equivalent Privacy (WEP) doesn't require that all fragments of a frame are encrypted under the same key. An adversary can abuse this to decrypt selected fragments when another device sends fragmented frames and the WEP, CCMP, or GCMP encryption key is periodically renewed (bnc#1185859 bnc#1185862).\n- CVE-2020-26147: The WEP, WPA, WPA2, and WPA3 implementations reassemble fragments, even though some of them were sent in plaintext. This vulnerability can be abused to inject packets and/or exfiltrate selected fragments when another device sends fragmented frames and the WEP, CCMP, or GCMP data-confidentiality protocol is used (bnc#1185859).\n- CVE-2020-24588: The 802.11 standard that underpins Wi-Fi Protected Access (WPA, WPA2, and WPA3) and Wired Equivalent Privacy (WEP) doesn't require that the A-MSDU flag in the plaintext QoS header field is authenticated. Against devices that support receiving non-SSP A-MSDU frames (which is mandatory as part of 802.11n), an adversary can abuse this to inject arbitrary network packets. (bnc#1185861)\n- CVE-2020-26145: An issue was discovered with Samsung Galaxy S3 i9305 4.4.4 devices. The WEP, WPA, WPA2, and WPA3 implementations accept second (or subsequent) broadcast fragments even when sent in plaintext and process them as full unfragmented frames. An adversary can abuse this to inject arbitrary network packets independent of the network configuration. (bnc#1185860)\n- CVE-2020-26141: An issue was discovered in the ALFA driver for AWUS036H, where the Message Integrity Check (authenticity) of fragmented TKIP frames was not verified. An adversary can abuse this to inject and possibly decrypt packets in WPA or WPA2 networks that support the TKIP data-confidentiality protocol. (bnc#1185987)\n\nThe following non-security bugs were fixed:\n\n- ACPI / hotplug / PCI: Fix reference count leak in enable_slot() (git-fixes).\n- ACPI: GTDT: Do not corrupt interrupt mappings on watchdow probe failure (git-fixes).\n- ACPI: custom_method: fix a possible memory leak (git-fixes).\n- ACPI: custom_method: fix potential use-after-free issue (git-fixes).\n- ALSA: bebob/oxfw: fix Kconfig entry for Mackie d.2 Pro (git-fixes).\n- ALSA: bebob: enable to deliver MIDI messages for multiple ports (git-fixes).\n- ALSA: dice: fix stream format at middle sampling rate for Alesis iO 26 (git-fixes).\n- ALSA: dice: fix stream format for TC Electronic Konnekt Live at high sampling transfer frequency (git-fixes).\n- ALSA: firewire-lib: fix calculation for size of IR context payload (git-fixes).\n- ALSA: firewire-lib: fix check for the size of isochronous packet payload (git-fixes).\n- ALSA: hda/conexant: Re-order CX5066 quirk table entries (git-fixes).\n- ALSA: hda/realtek: ALC285 Thinkpad jack pin quirk is unreachable (git-fixes).\n- ALSA: hda/realtek: Add some CLOVE SSIDs of ALC293 (git-fixes).\n- ALSA: hda/realtek: Headphone volume is controlled by Front mixer (git-fixes).\n- ALSA: hda/realtek: reset eapd coeff to default value for alc287 (git-fixes).\n- ALSA: hda: fixup headset for ASUS GU502 laptop (git-fixes).\n- ALSA: hda: generic: change the DAC ctl name for LO+SPK or LO+HP (git-fixes).\n- ALSA: hdsp: do not disable if not enabled (git-fixes).\n- ALSA: hdspm: do not disable if not enabled (git-fixes).\n- ALSA: intel8x0: Do not update period unless prepared (git-fixes).\n- ALSA: line6: Fix racy initialization of LINE6 MIDI (git-fixes).\n- ALSA: rme9652: do not disable if not enabled (git-fixes).\n- ALSA: usb-audio: Validate MS endpoint descriptors (git-fixes).\n- ALSA: usb-audio: fix control-request direction (git-fixes).\n- ALSA: usb-audio: scarlett2: Fix device hang with ehci-pci (git-fixes).\n- ALSA: usb-audio: scarlett2: Improve driver startup messages (git-fixes).\n- ALSA: usb-audio: scarlett2: snd_scarlett_gen2_controls_create() can be static (git-fixes).\n- ARM64: vdso32: Install vdso32 from vdso_install (git-fixes).\n- ASoC: Intel: bytcr_rt5640: Add quirk for the Chuwi Hi8 tablet (git-fixes).\n- ASoC: Intel: bytcr_rt5640: Enable jack-detect support on Asus T100TAF (git-fixes).\n- ASoC: cs35l33: fix an error code in probe() (git-fixes).\n- ASoC: cs42l42: Regmap must use_single_read/write (git-fixes).\n- ASoC: rsnd: call rsnd_ssi_master_clk_start() from rsnd_ssi_init() (git-fixes).\n- ASoC: rsnd: core: Check convert rate in rsnd_hw_params (git-fixes).\n- ASoC: rt286: Generalize support for ALC3263 codec (git-fixes).\n- ASoC: rt286: Make RT286_SET_GPIO_* readable and writable (git-fixes).\n- Bluetooth: L2CAP: Fix handling LE modes by L2CAP_OPTIONS (git-fixes).\n- Bluetooth: SMP: Fail if remote and local public keys are identical (git-fixes).\n- Bluetooth: Set CONF_NOT_COMPLETE as l2cap_chan default (git-fixes).\n- Bluetooth: check for zapped sk before connecting (git-fixes).\n- Bluetooth: initialize skb_queue_head at l2cap_chan_create() (git-fixes).\n- Drivers: hv: vmbus: Fix Suspend-to-Idle for Generation-2 VM (git-fixes).\n- Drivers: hv: vmbus: Increase wait time for VMbus unload (bsc#1185725).\n- Drivers: hv: vmbus: Initialize unload_event statically (bsc#1185725).\n- Drivers: hv: vmbus: Use after free in __vmbus_open() (git-fixes).\n- Input: elants_i2c - do not bind to i2c-hid compatible ACPI instantiated devices (git-fixes).\n- Input: silead - add workaround for x86 BIOS-es which bring the chip up in a stuck state (git-fixes).\n- KVM: s390: fix guarded storage control register handling (bsc#1133021).\n- Move upstreamed media fixes into sorted section\n- NFC: nci: fix memory leak in nci_allocate_device (git-fixes).\n- PCI/RCEC: Fix RCiEP device to RCEC association (git-fixes).\n- PCI: Allow VPD access for QLogic ISP2722 (git-fixes).\n- PCI: PM: Do not read power state in pci_enable_device_flags() (git-fixes).\n- PCI: Release OF node in pci_scan_device()'s error path (git-fixes).\n- PCI: endpoint: Fix missing destroy_workqueue() (git-fixes).\n- PCI: iproc: Fix return value of iproc_msi_irq_domain_alloc() (git-fixes).\n- PCI: thunder: Fix compile testing (git-fixes).\n- PM / devfreq: Use more accurate returned new_freq as resume_freq (git-fixes).\n- RDMA/addr: create addr_wq with WQ_MEM_RECLAIM flag (bsc#1183346).\n- RDMA/core: create ib_cm with WQ_MEM_RECLAIM flag (bsc#1183346).\n- RDMA/hns: Delete redundant abnormal interrupt status (git-fixes).\n- RDMA/hns: Delete redundant condition judgment related to eq (git-fixes).\n- RDMA/qedr: Fix error return code in qedr_iw_connect() (jsc#SLE-8215).\n- RDMA/srpt: Fix error return code in srpt_cm_req_recv() (git-fixes).\n- SUNRPC in case of backlog, hand free slots directly to waiting task (bsc#1185428).\n- SUNRPC: More fixes for backlog congestion (bsc#1185428).\n- USB: Add LPM quirk for Lenovo ThinkPad USB-C Dock Gen2 Ethernet (git-fixes).\n- USB: Add reset-resume quirk for WD19's Realtek Hub (git-fixes).\n- USB: serial: pl2303: add support for PL2303HXN (bsc#1186320).\n- USB: serial: pl2303: fix line-speed handling on newer chips (bsc#1186320).\n- USB: serial: ti_usb_3410_5052: fix TIOCSSERIAL permission check (git-fixes).\n- USB: trancevibrator: fix control-request direction (git-fixes).\n- amdgpu: avoid incorrect %hu format string (git-fixes).\n- arm64/mm: Fix pfn_valid() for ZONE_DEVICE based memory (git-fixes).\n- arm64: Add missing ISB after invalidating TLB in __primary_switch (git-fixes).\n- arm64: avoid -Woverride-init warning (git-fixes).\n- arm64: kasan: fix page_alloc tagging with DEBUG_VIRTUAL (git-fixes).\n- arm64: kdump: update ppos when reading elfcorehdr (git-fixes).\n- arm64: kexec_file: fix memory leakage in create_dtb() when fdt_open_into() fails (git-fixes).\n- arm64: link with -z norelro for LLD or aarch64-elf (git-fixes).\n- arm64: link with -z norelro regardless of CONFIG_RELOCATABLE (git-fixes).\n- arm64: ptrace: Fix seccomp of traced syscall -1 (NO_SYSCALL) (git-fixes).\n- arm64: ptrace: Use NO_SYSCALL instead of -1 in syscall_trace_enter() (git-fixes).\n- arm64: vdso32: make vdso32 install conditional (git-fixes).\n- arm: mm: use __pfn_to_section() to get mem_section (git-fixes).\n- ata: ahci: Disable SXS for Hisilicon Kunpeng920 (git-fixes).\n- blk-iocost: ioc_pd_free() shouldn't assume irq disabled (git-fixes).\n- blk-mq: Swap two calls in blk_mq_exit_queue() (git-fixes).\n- block/genhd: use atomic_t for disk_event-\u003eblock (bsc#1185497).\n- block: Fix three kernel-doc warnings (git-fixes).\n- block: fix get_max_io_size() (git-fixes).\n- bnxt_en: Fix RX consumer index logic in the error path (git-fixes).\n- bnxt_en: fix ternary sign extension bug in bnxt_show_temp() (git-fixes).\n- bpf: Fix leakage of uninitialized bpf stack under speculation (bsc#1155518).\n- bpf: Fix masking negation logic upon negative dst register (bsc#1155518).\n- btrfs: fix race between transaction aborts and fsyncs leading to use-after-free (bsc#1186441).\n- btrfs: fix race when picking most recent mod log operation for an old root (bsc#1186439).\n- cdc-wdm: untangle a circular dependency between callback and softint (git-fixes).\n- cdrom: gdrom: deallocate struct gdrom_unit fields in remove_gdrom (git-fixes).\n- cdrom: gdrom: initialize global variable at init time (git-fixes).\n- ceph: do not clobber i_snap_caps on non-I_NEW inode (bsc#1186501).\n- ceph: fix inode leak on getattr error in __fh_to_dentry (bsc#1186501).\n- ceph: fix up error handling with snapdirs (bsc#1186501).\n- ceph: only check pool permissions for regular files (bsc#1186501).\n- cfg80211: scan: drop entry from hidden_list on overflow (git-fixes).\n- clk: socfpga: arria10: Fix memory leak of socfpga_clk on error return (git-fixes).\n- cpufreq: intel_pstate: Add Icelake servers support in no-HWP mode (bsc#1185758).\n- crypto: api - check for ERR pointers in crypto_destroy_tfm() (git-fixes).\n- crypto: mips/poly1305 - enable for all MIPS processors (git-fixes).\n- crypto: qat - ADF_STATUS_PF_RUNNING should be set after adf_dev_init (git-fixes).\n- crypto: qat - Fix a double free in adf_create_ring (git-fixes).\n- crypto: qat - do not release uninitialized resources (git-fixes).\n- crypto: qat - fix error path in adf_isr_resource_alloc() (git-fixes).\n- crypto: qat - fix unmap invalid dma address (git-fixes).\n- crypto: stm32/cryp - Fix PM reference leak on stm32-cryp.c (git-fixes).\n- crypto: stm32/hash - Fix PM reference leak on stm32-hash.c (git-fixes).\n- cxgb4: Fix unintentional sign extension issues (git-fixes).\n- dm: avoid filesystem lookup in dm_get_dev_t() (git-fixes).\n- dmaengine: dw-edma: Fix crash on loading/unloading driver (git-fixes).\n- docs: kernel-parameters: Add gpio_mockup_named_lines (git-fixes).\n- docs: kernel-parameters: Move gpio-mockup for alphabetic order (git-fixes).\n- drivers: hv: Fix whitespace errors (bsc#1185725).\n- drm/amd/display: Fix UBSAN warning for not a valid value for type '_Bool' (git-fixes).\n- drm/amd/display: Fix two cursor duplication when using overlay (git-fixes).\n- drm/amd/display: Force vsync flip when reconfiguring MPCC (git-fixes).\n- drm/amd/display: Reject non-zero src_y and src_x for video planes (git-fixes).\n- drm/amd/display: fix dml prefetch validation (git-fixes).\n- drm/amd/display: fixed divide by zero kernel crash during dsc enablement (git-fixes).\n- drm/amdgpu : Fix asic reset regression issue introduce by 8f211fe8ac7c4f (git-fixes).\n- drm/amdgpu: disable 3DCGCG on picasso/raven1 to avoid compute hang (git-fixes).\n- drm/amdgpu: fix NULL pointer dereference (git-fixes).\n- drm/amdgpu: mask the xgmi number of hops reported from psp to kfd (git-fixes).\n- drm/amdkfd: Fix cat debugfs hang_hws file causes system crash bug (git-fixes).\n- drm/i915: Avoid div-by-zero on gen2 (git-fixes).\n- drm/meson: fix shutdown crash when component not probed (git-fixes).\n- drm/msm/mdp5: Configure PP_SYNC_HEIGHT to double the vtotal (git-fixes).\n- drm/msm/mdp5: Do not multiply vclk line count by 100 (git-fixes).\n- drm/radeon/dpm: Disable sclk switching on Oland when two 4K 60Hz monitors are connected (git-fixes).\n- drm/radeon: Avoid power table parsing memory leaks (git-fixes).\n- drm/radeon: Fix off-by-one power_state index heap overwrite (git-fixes).\n- drm/vkms: fix misuse of WARN_ON (git-fixes).\n- drm: Added orientation quirk for OneGX1 Pro (git-fixes).\n- ethernet:enic: Fix a use after free bug in enic_hard_start_xmit (git-fixes).\n- extcon: arizona: Fix some issues when HPDET IRQ fires after the jack has been unplugged (git-fixes).\n- extcon: arizona: Fix various races on driver unbind (git-fixes).\n- fbdev: zero-fill colormap in fbcmap.c (git-fixes).\n- firmware: arm_scpi: Prevent the ternary sign expansion bug (git-fixes).\n- fs/epoll: restore waking from ep_done_scan() (bsc#1183868).\n- ftrace: Handle commands when closing set_ftrace_filter file (git-fixes).\n- futex: Change utime parameter to be 'const ... *' (git-fixes).\n- futex: Do not apply time namespace adjustment on FUTEX_LOCK_PI (bsc#1164648).\n- futex: Get rid of the val2 conditional dance (git-fixes).\n- futex: Make syscall entry points less convoluted (git-fixes).\n- genirq/irqdomain: Do not try to free an interrupt that has no (git-fixes)\n- genirq: Disable interrupts for force threaded handlers (git-fixes)\n- genirq: Reduce irqdebug cacheline bouncing (bsc#1185703 ltc#192641).\n- gpio: xilinx: Correct kernel doc for xgpio_probe() (git-fixes).\n- gpiolib: acpi: Add quirk to ignore EC wakeups on Dell Venue 10 Pro 5055 (git-fixes).\n- hrtimer: Update softirq_expires_next correctly after (git-fixes)\n- hwmon: (occ) Fix poll rate limiting (git-fixes).\n- i2c: Add I2C_AQ_NO_REP_START adapter quirk (git-fixes).\n- i2c: bail out early when RDWR parameters are wrong (git-fixes).\n- i2c: i801: Do not generate an interrupt on bus reset (git-fixes).\n- i2c: s3c2410: fix possible NULL pointer deref on read message after write (git-fixes).\n- i2c: sh_mobile: Use new clock calculation formulas for RZ/G2E (git-fixes).\n- i40e: Fix PHY type identifiers for 2.5G and 5G adapters (git-fixes).\n- i40e: Fix use-after-free in i40e_client_subtask() (git-fixes).\n- i40e: fix broken XDP support (git-fixes).\n- i40e: fix the restart auto-negotiation after FEC modified (git-fixes).\n- ibmvfc: Avoid move login if fast fail is enabled (bsc#1185938 ltc#192043).\n- ibmvfc: Handle move login failure (bsc#1185938 ltc#192043).\n- ibmvfc: Reinit target retries (bsc#1185938 ltc#192043).\n- ibmvnic: remove default label from to_string switch (bsc#1152457 ltc#174432 git-fixes).\n- ics932s401: fix broken handling of errors when word reading fails (git-fixes).\n- iio: adc: ad7124: Fix missbalanced regulator enable / disable on error (git-fixes).\n- iio: adc: ad7124: Fix potential overflow due to non sequential channel numbers (git-fixes).\n- iio: adc: ad7768-1: Fix too small buffer passed to iio_push_to_buffers_with_timestamp() (git-fixes).\n- iio: adc: ad7793: Add missing error code in ad7793_setup() (git-fixes).\n- iio: gyro: fxas21002c: balance runtime power in error path (git-fixes).\n- iio: gyro: mpu3050: Fix reported temperature value (git-fixes).\n- iio: proximity: pulsedlight: Fix rumtime PM imbalance on error (git-fixes).\n- iio: tsl2583: Fix division by a zero lux_val (git-fixes).\n- intel_th: Consistency and off-by-one fix (git-fixes).\n- iommu/amd: Add support for map/unmap_resource (jsc#ECO-3482).\n- ipc/mqueue, msg, sem: Avoid relying on a stack reference past its expiry (bsc#1185988).\n- ipmi/watchdog: Stop watchdog timer when the current action is 'none' (bsc#1184855).\n- kernel-docs.spec.in: Build using an utf-8 locale. Sphinx cannot handle UTF-8 input in non-UTF-8 locale.\n- leds: lp5523: check return value of lp5xx_read and jump to cleanup code (git-fixes).\n- locking/seqlock: Tweak DEFINE_SEQLOCK() kernel doc (bsc#1176564 bsc#1162702).\n- lpfc: Decouple port_template and vport_template (bsc#185032).\n- mac80211: clear the beacon's CRC after channel switch (git-fixes).\n- md-cluster: fix use-after-free issue when removing rdev (bsc#1184082).\n- md/raid1: properly indicate failure when ending a failed write request (bsc#1185680).\n- md: do not flush workqueue unconditionally in md_open (bsc#1184081).\n- md: factor out a mddev_find_locked helper from mddev_find (bsc#1184081).\n- md: md_open returns -EBUSY when entering racing area (bsc#1184081).\n- md: split mddev_find (bsc#1184081).\n- media: adv7604: fix possible use-after-free in adv76xx_remove() (git-fixes).\n- media: drivers: media: pci: sta2x11: fix Kconfig dependency on GPIOLIB (git-fixes).\n- media: dvb-usb: fix memory leak in dvb_usb_adapter_init (git-fixes).\n- media: em28xx: fix memory leak (git-fixes).\n- media: gspca/sq905.c: fix uninitialized variable (git-fixes).\n- media: i2c: adv7511-v4l2: fix possible use-after-free in adv7511_remove() (git-fixes).\n- media: i2c: adv7842: fix possible use-after-free in adv7842_remove() (git-fixes).\n- media: i2c: tda1997: Fix possible use-after-free in tda1997x_remove() (git-fixes).\n- media: imx: capture: Return -EPIPE from __capture_legacy_try_fmt() (git-fixes).\n- media: ite-cir: check for receive overflow (git-fixes).\n- media: media/saa7164: fix saa7164_encoder_register() memory leak bugs (git-fixes).\n- media: platform: sti: Fix runtime PM imbalance in regs_show (git-fixes).\n- media: tc358743: fix possible use-after-free in tc358743_remove() (git-fixes).\n- mfd: arizona: Fix rumtime PM imbalance on error (git-fixes).\n- misc/uss720: fix memory leak in uss720_probe (git-fixes).\n- mlxsw: spectrum_mr: Update egress RIF list before route's action (git-fixes).\n- mm: memcontrol: fix cpuhotplug statistics flushing (bsc#1185606).\n- mmc: block: Update ext_csd.cache_ctrl if it was written (git-fixes).\n- mmc: core: Do a power cycle when the CMD11 fails (git-fixes).\n- mmc: core: Set read only for SD cards with permanent write protect bit (git-fixes).\n- mmc: sdhci-pci-gli: increase 1.8V regulator wait (git-fixes).\n- mmc: sdhci-pci: Add PCI IDs for Intel LKF (git-fixes).\n- mmc: sdhci-pci: Fix initialization of some SD cards for Intel BYT-based controllers (git-fixes).\n- mmc: sdhci: Check for reset prior to DMA address unmap (git-fixes).\n- net, xdp: Update pkt_type if generic XDP changes unicast MAC (git-fixes).\n- net: enetc: fix link error again (git-fixes).\n- net: hns3: Fix for geneve tx checksum bug (git-fixes).\n- net: hns3: add check for HNS3_NIC_STATE_INITED in hns3_reset_notify_up_enet() (git-fixes).\n- net: hns3: clear unnecessary reset request in hclge_reset_rebuild (git-fixes).\n- net: hns3: disable phy loopback setting in hclge_mac_start_phy (git-fixes).\n- net: hns3: fix for vxlan gpe tx checksum bug (git-fixes).\n- net: hns3: fix incorrect configuration for igu_egu_hw_err (git-fixes).\n- net: hns3: initialize the message content in hclge_get_link_mode() (git-fixes).\n- net: hns3: use netif_tx_disable to stop the transmit queue (git-fixes).\n- net: thunderx: Fix unintentional sign extension issue (git-fixes).\n- net: usb: fix memory leak in smsc75xx_bind (git-fixes).\n- net: xfrm: Localize sequence counter per network namespace (bsc#1185696).\n- net: xfrm: Use sequence counter with associated spinlock (bsc#1185696).\n- netdevice: Add missing IFF_PHONY_HEADROOM self-definition (git-fixes).\n- netfilter: conntrack: add new sysctl to disable RST check (bsc#1183947 bsc#1185950).\n- netfilter: conntrack: avoid misleading 'invalid' in log message (bsc#1183947 bsc#1185950).\n- netfilter: conntrack: improve RST handling when tuple is re-used (bsc#1183947 bsc#1185950).\n- nvme-core: add cancel tagset helpers (bsc#1183976).\n- nvme-fabrics: decode host pathing error for connect (bsc#1179827).\n- nvme-fc: check sgl supported by target (bsc#1179827).\n- nvme-fc: clear q_live at beginning of association teardown (bsc#1186479).\n- nvme-fc: return NVME_SC_HOST_ABORTED_CMD when a command has been aborted (bsc#1184259).\n- nvme-fc: set NVME_REQ_CANCELLED in nvme_fc_terminate_exchange() (bsc#1184259).\n- nvme-fc: short-circuit reconnect retries (bsc#1179827).\n- nvme-multipath: fix double initialization of ANA state (bsc#1178612, bsc#1184259).\n- nvme-multipath: reset bdev to ns head when failover (bsc#178378 bsc#1182999).\n- nvme-pci: Remove tag from process cq (git-fixes).\n- nvme-pci: Remove two-pass completions (git-fixes).\n- nvme-pci: Simplify nvme_poll_irqdisable (git-fixes).\n- nvme-pci: align io queue count with allocted nvme_queue in (git-fixes).\n- nvme-pci: avoid race between nvme_reap_pending_cqes() and nvme_poll() (git-fixes).\n- nvme-pci: dma read memory barrier for completions (git-fixes).\n- nvme-pci: fix 'slimmer CQ head update' (git-fixes).\n- nvme-pci: make sure write/poll_queues less or equal then cpu (git-fixes).\n- nvme-pci: remove last_sq_tail (git-fixes).\n- nvme-pci: remove volatile cqes (git-fixes).\n- nvme-pci: slimmer CQ head update (git-fixes).\n- nvme-pci: use simple suspend when a HMB is enabled (git-fixes).\n- nvme-tcp: Fix possible race of io_work and direct send (git-fixes).\n- nvme-tcp: Fix warning with CONFIG_DEBUG_PREEMPT (git-fixes).\n- nvme-tcp: add clean action for failed reconnection (bsc#1183976).\n- nvme-tcp: fix kconfig dependency warning when !CRYPTO (git-fixes).\n- nvme-tcp: fix misuse of __smp_processor_id with preemption (git-fixes).\n- nvme-tcp: fix possible hang waiting for icresp response (bsc#1179519).\n- nvme-tcp: use cancel tagset helper for tear down (bsc#1183976).\n- nvme: Fix NULL dereference for pci nvme controllers (bsc#1182378).\n- nvme: add 'kato' sysfs attribute (bsc#1179825).\n- nvme: add NVME_REQ_CANCELLED flag in nvme_cancel_request() (bsc#1184259).\n- nvme: define constants for identification values (git-fixes).\n- nvme: do not intialize hwmon for discovery controllers (bsc#1184259).\n- nvme: do not intialize hwmon for discovery controllers (git-fixes).\n- nvme: document nvme controller states (git-fixes).\n- nvme: explicitly update mpath disk capacity on revalidation (git-fixes).\n- nvme: expose reconnect_delay and ctrl_loss_tmo via sysfs (bsc#1182378).\n- nvme: fix controller instance leak (git-fixes).\n- nvme: fix deadlock in disconnect during scan_work and/or ana_work (git-fixes).\n- nvme: fix possible deadlock when I/O is blocked (git-fixes).\n- nvme: remove superfluous else in nvme_ctrl_loss_tmo_store (bsc#1182378).\n- nvme: retrigger ANA log update if group descriptor isn't found (git-fixes)\n- nvme: sanitize KATO setting (bsc#1179825).\n- nvme: simplify error logic in nvme_validate_ns() (bsc#1184259).\n- nvmet: fix a memory leak (git-fixes).\n- nvmet: seset ns-\u003efile when open fails (bsc#1183873).\n- nvmet: use new ana_log_size instead the old one (bsc#1184259).\n- nxp-i2c: restore includes for kABI (bsc#1185589).\n- nxp-nci: add NXP1002 id (bsc#1185589).\n- phy: phy-twl4030-usb: Fix possible use-after-free in twl4030_usb_remove() (git-fixes).\n- pinctrl: ingenic: Improve unreachable code generation (git-fixes).\n- pinctrl: samsung: use 'int' for register masks in Exynos (git-fixes).\n- platform/mellanox: mlxbf-tmfifo: Fix a memory barrier issue (git-fixes).\n- platform/x86: intel_pmc_core: Do not use global pmcdev in quirks (git-fixes).\n- platform/x86: thinkpad_acpi: Correct thermal sensor allocation (git-fixes).\n- posix-timers: Preserve return value in clock_adjtime32() (git-fixes)\n- power: supply: Use IRQF_ONESHOT (git-fixes).\n- power: supply: generic-adc-battery: fix possible use-after-free in gab_remove() (git-fixes).\n- power: supply: s3c_adc_battery: fix possible use-after-free in s3c_adc_bat_remove() (git-fixes).\n- powerpc/64s: Fix crashes when toggling entry flush barrier (bsc#1177666 git-fixes).\n- powerpc/64s: Fix crashes when toggling stf barrier (bsc#1087082 git-fixes).\n- qtnfmac: Fix possible buffer overflow in qtnf_event_handle_external_auth (git-fixes).\n- rtc: pcf2127: handle timestamp interrupts (bsc#1185495).\n- s390/dasd: fix hanging DASD driver unbind (bsc#1183932 LTC#192153).\n- s390/entry: save the caller of psw_idle (bsc#1185677).\n- s390/kdump: fix out-of-memory with PCI (bsc#1182257 LTC#191375).\n- sched/eas: Do not update misfit status if the task is pinned (git-fixes)\n- sched/fair: Avoid stale CPU util_est value for schedutil in (git-fixes)\n- sched/fair: Fix unfairness caused by missing load decay (git-fixes)\n- scripts/git_sort/git_sort.py: add bpf git repo\n- scsi: core: Run queue in case of I/O resource contention failure (bsc#1186416).\n- scsi: fnic: Kill 'exclude_id' argument to fnic_cleanup_io() (bsc#1179851).\n- scsi: libfc: Avoid invoking response handler twice if ep is already completed (bsc#1186573).\n- scsi: lpfc: Add a option to enable interlocked ABTS before job completion (bsc#1186451).\n- scsi: lpfc: Add ndlp kref accounting for resume RPI path (bsc#1186451).\n- scsi: lpfc: Fix 'Unexpected timeout' error in direct attach topology (bsc#1186451).\n- scsi: lpfc: Fix Node recovery when driver is handling simultaneous PLOGIs (bsc#1186451).\n- scsi: lpfc: Fix bad memory access during VPD DUMP mailbox command (bsc#1186451).\n- scsi: lpfc: Fix crash when lpfc_sli4_hba_setup() fails to initialize the SGLs (bsc#1186451).\n- scsi: lpfc: Fix node handling for Fabric Controller and Domain Controller (bsc#1186451).\n- scsi: lpfc: Fix non-optimized ERSP handling (bsc#1186451).\n- scsi: lpfc: Fix unreleased RPIs when NPIV ports are created (bsc#1186451).\n- scsi: lpfc: Ignore GID-FT response that may be received after a link flip (bsc#1186451).\n- scsi: lpfc: Reregister FPIN types if ELS_RDF is received from fabric controller (bsc#1186451).\n- scsi: lpfc: Update lpfc version to 12.8.0.10 (bsc#1186451).\n- sctp: delay auto_asconf init until binding the first addr\n- seqlock,lockdep: Fix seqcount_latch_init() (bsc#1176564 bsc#1162702).\n- serial: core: fix suspicious security_locked_down() call (git-fixes).\n- serial: core: return early on unsupported ioctls (git-fixes).\n- serial: sh-sci: Fix off-by-one error in FIFO threshold register setting (git-fixes).\n- serial: stm32: fix incorrect characters on console (git-fixes).\n- serial: stm32: fix tx_empty condition (git-fixes).\n- serial: tegra: Fix a mask operation that is always true (git-fixes).\n- smc: disallow TCP_ULP in smc_setsockopt() (git-fixes).\n- spi: ath79: always call chipselect function (git-fixes).\n- spi: ath79: remove spi-master setup and cleanup assignment (git-fixes).\n- spi: dln2: Fix reference leak to master (git-fixes).\n- spi: omap-100k: Fix reference leak to master (git-fixes).\n- spi: qup: fix PM reference leak in spi_qup_remove() (git-fixes).\n- spi: spi-fsl-dspi: Fix a resource leak in an error handling path (git-fixes).\n- staging: emxx_udc: fix loop in _nbu2ss_nuke() (git-fixes).\n- staging: iio: cdc: ad7746: avoid overwrite of num_channels (git-fixes).\n- tcp: fix to update snd_wl1 in bulk receiver fast path\n- thermal/drivers/ti-soc-thermal/bandgap Remove unused variable 'val' (git-fixes).\n- thunderbolt: dma_port: Fix NVM read buffer bounds and offset issue (git-fixes).\n- tracing: Map all PIDs to command lines (git-fixes).\n- tty: amiserial: fix TIOCSSERIAL permission check (git-fixes).\n- tty: fix memory leak in vc_deallocate (git-fixes).\n- tty: moxa: fix TIOCSSERIAL jiffies conversions (git-fixes).\n- tty: moxa: fix TIOCSSERIAL permission check (git-fixes).\n- uio: uio_hv_generic: use devm_kzalloc() for private data alloc (git-fixes).\n- uio_hv_generic: Fix a memory leak in error handling paths (git-fixes).\n- uio_hv_generic: Fix another memory leak in error handling paths (git-fixes).\n- uio_hv_generic: add missed sysfs_remove_bin_file (git-fixes).\n- usb: core: hub: Fix PM reference leak in usb_port_resume() (git-fixes).\n- usb: core: hub: fix race condition about TRSMRCY of resume (git-fixes).\n- usb: dwc2: Fix gadget DMA unmap direction (git-fixes).\n- usb: dwc3: gadget: Enable suspend events (git-fixes).\n- usb: dwc3: gadget: Return success always for kick transfer in ep queue (git-fixes).\n- usb: dwc3: omap: improve extcon initialization (git-fixes).\n- usb: dwc3: pci: Enable usb2-gadget-lpm-disable for Intel Merrifield (git-fixes).\n- usb: fotg210-hcd: Fix an error message (git-fixes).\n- usb: gadget/function/f_fs string table fix for multiple languages (git-fixes).\n- usb: gadget: dummy_hcd: fix gpf in gadget_setup (git-fixes).\n- usb: gadget: f_uac1: validate input parameters (git-fixes).\n- usb: gadget: f_uac2: validate input parameters (git-fixes).\n- usb: gadget: udc: renesas_usb3: Fix a race in usb3_start_pipen() (git-fixes).\n- usb: gadget: uvc: add bInterval checking for HS mode (git-fixes).\n- usb: musb: fix PM reference leak in musb_irq_work() (git-fixes).\n- usb: sl811-hcd: improve misleading indentation (git-fixes).\n- usb: webcam: Invalid size of Processing Unit Descriptor (git-fixes).\n- usb: xhci: Fix port minor revision (git-fixes).\n- usb: xhci: Increase timeout for HC halt (git-fixes).\n- vgacon: Record video mode changes with VT_RESIZEX (git-fixes).\n- video: hyperv_fb: Add ratelimit on error message (bsc#1185725).\n- vrf: fix a comment about loopback device (git-fixes).\n- watchdog/softlockup: Remove obsolete check of last reported task (bsc#1185982).\n- watchdog/softlockup: report the overall time of softlockups (bsc#1185982).\n- watchdog: explicitly update timestamp when reporting softlockup (bsc#1185982).\n- watchdog: rename __touch_watchdog() to a better descriptive name (bsc#1185982).\n- whitespace cleanup\n- wl3501_cs: Fix out-of-bounds warnings in wl3501_mgmt_join (git-fixes).\n- wl3501_cs: Fix out-of-bounds warnings in wl3501_send_pkt (git-fixes).\n- workqueue: Minor follow-ups to the rescuer destruction change (bsc#1185911).\n- workqueue: more destroy_workqueue() fixes (bsc#1185911).\n- x86/cpu: Initialize MSR_TSC_AUX if RDTSCP *or* RDPID is supported (bsc#1152489).\n- xhci: Do not use GFP_KERNEL in (potentially) atomic context (git-fixes).\n- xhci: check control context is valid before dereferencing it (git-fixes).\n- xhci: fix potential array out of bounds with several interrupters (git-fixes).\n- xsk: Respect device's headroom and tailroom on generic xmit path (git-fixes).\n\nThis update was imported from the SUSE:SLE-15-SP2:Update update project.",
      "Title": "Details",
      "Type": "General"
    },
    {
      "Text": "The CVRF data is provided by SUSE under the Creative Commons License 4.0 with Attribution (CC-BY-4.0).",
      "Title": "Terms of Use",
      "Type": "Legal Disclaimer"
    },
    {
      "Text": "openSUSE-2021-947",
      "Title": "Patchnames",
      "Type": "Details"
    }
  ],
  "ProductTree": {
    "Relationships": [
      {
        "ProductReference": "cluster-md-kmp-rt-5.3.18-lp152.3.14.1",
        "RelatesToProductReference": "openSUSE Leap 15.2",
        "RelationType": "Default Component Of"
      },
      {
        "ProductReference": "cluster-md-kmp-rt_debug-5.3.18-lp152.3.14.1",
        "RelatesToProductReference": "openSUSE Leap 15.2",
        "RelationType": "Default Component Of"
      },
      {
        "ProductReference": "dlm-kmp-rt-5.3.18-lp152.3.14.1",
        "RelatesToProductReference": "openSUSE Leap 15.2",
        "RelationType": "Default Component Of"
      },
      {
        "ProductReference": "dlm-kmp-rt_debug-5.3.18-lp152.3.14.1",
        "RelatesToProductReference": "openSUSE Leap 15.2",
        "RelationType": "Default Component Of"
      },
      {
        "ProductReference": "gfs2-kmp-rt-5.3.18-lp152.3.14.1",
        "RelatesToProductReference": "openSUSE Leap 15.2",
        "RelationType": "Default Component Of"
      },
      {
        "ProductReference": "gfs2-kmp-rt_debug-5.3.18-lp152.3.14.1",
        "RelatesToProductReference": "openSUSE Leap 15.2",
        "RelationType": "Default Component Of"
      },
      {
        "ProductReference": "kernel-devel-rt-5.3.18-lp152.3.14.1",
        "RelatesToProductReference": "openSUSE Leap 15.2",
        "RelationType": "Default Component Of"
      },
      {
        "ProductReference": "kernel-rt-5.3.18-lp152.3.14.1",
        "RelatesToProductReference": "openSUSE Leap 15.2",
        "RelationType": "Default Component Of"
      },
      {
        "ProductReference": "kernel-rt-devel-5.3.18-lp152.3.14.1",
        "RelatesToProductReference": "openSUSE Leap 15.2",
        "RelationType": "Default Component Of"
      },
      {
        "ProductReference": "kernel-rt-extra-5.3.18-lp152.3.14.1",
        "RelatesToProductReference": "openSUSE Leap 15.2",
        "RelationType": "Default Component Of"
      },
      {
        "ProductReference": "kernel-rt_debug-5.3.18-lp152.3.14.1",
        "RelatesToProductReference": "openSUSE Leap 15.2",
        "RelationType": "Default Component Of"
      },
      {
        "ProductReference": "kernel-rt_debug-devel-5.3.18-lp152.3.14.1",
        "RelatesToProductReference": "openSUSE Leap 15.2",
        "RelationType": "Default Component Of"
      },
      {
        "ProductReference": "kernel-rt_debug-extra-5.3.18-lp152.3.14.1",
        "RelatesToProductReference": "openSUSE Leap 15.2",
        "RelationType": "Default Component Of"
      },
      {
        "ProductReference": "kernel-source-rt-5.3.18-lp152.3.14.1",
        "RelatesToProductReference": "openSUSE Leap 15.2",
        "RelationType": "Default Component Of"
      },
      {
        "ProductReference": "kernel-syms-rt-5.3.18-lp152.3.14.1",
        "RelatesToProductReference": "openSUSE Leap 15.2",
        "RelationType": "Default Component Of"
      },
      {
        "ProductReference": "kselftests-kmp-rt-5.3.18-lp152.3.14.1",
        "RelatesToProductReference": "openSUSE Leap 15.2",
        "RelationType": "Default Component Of"
      },
      {
        "ProductReference": "kselftests-kmp-rt_debug-5.3.18-lp152.3.14.1",
        "RelatesToProductReference": "openSUSE Leap 15.2",
        "RelationType": "Default Component Of"
      },
      {
        "ProductReference": "ocfs2-kmp-rt-5.3.18-lp152.3.14.1",
        "RelatesToProductReference": "openSUSE Leap 15.2",
        "RelationType": "Default Component Of"
      },
      {
        "ProductReference": "ocfs2-kmp-rt_debug-5.3.18-lp152.3.14.1",
        "RelatesToProductReference": "openSUSE Leap 15.2",
        "RelationType": "Default Component Of"
      },
      {
        "ProductReference": "reiserfs-kmp-rt-5.3.18-lp152.3.14.1",
        "RelatesToProductReference": "openSUSE Leap 15.2",
        "RelationType": "Default Component Of"
      },
      {
        "ProductReference": "reiserfs-kmp-rt_debug-5.3.18-lp152.3.14.1",
        "RelatesToProductReference": "openSUSE Leap 15.2",
        "RelationType": "Default Component Of"
      }
    ]
  },
  "References": [
    {
      "URL": "https://lists.opensuse.org/archives/list/security-announce@lists.opensuse.org/thread/M3WU4VH2HXVC3VLST5RWUW7LUFNSUEIN/",
      "Description": "E-Mail link for openSUSE-SU-2021:0947-1"
    },
    {
      "URL": "https://www.suse.com/support/security/rating/",
      "Description": "SUSE Security Ratings"
    },
    {
      "URL": "https://bugzilla.suse.com/1087082",
      "Description": "SUSE Bug 1087082"
    },
    {
      "URL": "https://bugzilla.suse.com/1133021",
      "Description": "SUSE Bug 1133021"
    },
    {
      "URL": "https://bugzilla.suse.com/1152457",
      "Description": "SUSE Bug 1152457"
    },
    {
      "URL": "https://bugzilla.suse.com/1152489",
      "Description": "SUSE Bug 1152489"
    },
    {
      "URL": "https://bugzilla.suse.com/1155518",
      "Description": "SUSE Bug 1155518"
    },
    {
      "URL": "https://bugzilla.suse.com/1156395",
      "Description": "SUSE Bug 1156395"
    },
    {
      "URL": "https://bugzilla.suse.com/1162702",
      "Description": "SUSE Bug 1162702"
    },
    {
      "URL": "https://bugzilla.suse.com/1164648",
      "Description": "SUSE Bug 1164648"
    },
    {
      "URL": "https://bugzilla.suse.com/1176564",
      "Description": "SUSE Bug 1176564"
    },
    {
      "URL": "https://bugzilla.suse.com/1177666",
      "Description": "SUSE Bug 1177666"
    },
    {
      "URL": "https://bugzilla.suse.com/1178418",
      "Description": "SUSE Bug 1178418"
    },
    {
      "URL": "https://bugzilla.suse.com/1178612",
      "Description": "SUSE Bug 1178612"
    },
    {
      "URL": "https://bugzilla.suse.com/1179827",
      "Description": "SUSE Bug 1179827"
    },
    {
      "URL": "https://bugzilla.suse.com/1179851",
      "Description": "SUSE Bug 1179851"
    },
    {
      "URL": "https://bugzilla.suse.com/1182378",
      "Description": "SUSE Bug 1182378"
    },
    {
      "URL": "https://bugzilla.suse.com/1182999",
      "Description": "SUSE Bug 1182999"
    },
    {
      "URL": "https://bugzilla.suse.com/1183346",
      "Description": "SUSE Bug 1183346"
    },
    {
      "URL": "https://bugzilla.suse.com/1183868",
      "Description": "SUSE Bug 1183868"
    },
    {
      "URL": "https://bugzilla.suse.com/1183873",
      "Description": "SUSE Bug 1183873"
    },
    {
      "URL": "https://bugzilla.suse.com/1183932",
      "Description": "SUSE Bug 1183932"
    },
    {
      "URL": "https://bugzilla.suse.com/1183947",
      "Description": "SUSE Bug 1183947"
    },
    {
      "URL": "https://bugzilla.suse.com/1184081",
      "Description": "SUSE Bug 1184081"
    },
    {
      "URL": "https://bugzilla.suse.com/1184082",
      "Description": "SUSE Bug 1184082"
    },
    {
      "URL": "https://bugzilla.suse.com/1184611",
      "Description": "SUSE Bug 1184611"
    },
    {
      "URL": "https://bugzilla.suse.com/1184855",
      "Description": "SUSE Bug 1184855"
    },
    {
      "URL": "https://bugzilla.suse.com/1185428",
      "Description": "SUSE Bug 1185428"
    },
    {
      "URL": "https://bugzilla.suse.com/1185497",
      "Description": "SUSE Bug 1185497"
    },
    {
      "URL": "https://bugzilla.suse.com/1185589",
      "Description": "SUSE Bug 1185589"
    },
    {
      "URL": "https://bugzilla.suse.com/1185606",
      "Description": "SUSE Bug 1185606"
    },
    {
      "URL": "https://bugzilla.suse.com/1185645",
      "Description": "SUSE Bug 1185645"
    },
    {
      "URL": "https://bugzilla.suse.com/1185677",
      "Description": "SUSE Bug 1185677"
    },
    {
      "URL": "https://bugzilla.suse.com/1185680",
      "Description": "SUSE Bug 1185680"
    },
    {
      "URL": "https://bugzilla.suse.com/1185696",
      "Description": "SUSE Bug 1185696"
    },
    {
      "URL": "https://bugzilla.suse.com/1185703",
      "Description": "SUSE Bug 1185703"
    },
    {
      "URL": "https://bugzilla.suse.com/1185725",
      "Description": "SUSE Bug 1185725"
    },
    {
      "URL": "https://bugzilla.suse.com/1185758",
      "Description": "SUSE Bug 1185758"
    },
    {
      "URL": "https://bugzilla.suse.com/1185859",
      "Description": "SUSE Bug 1185859"
    },
    {
      "URL": "https://bugzilla.suse.com/1185861",
      "Description": "SUSE Bug 1185861"
    },
    {
      "URL": "https://bugzilla.suse.com/1185863",
      "Description": "SUSE Bug 1185863"
    },
    {
      "URL": "https://bugzilla.suse.com/1185898",
      "Description": "SUSE Bug 1185898"
    },
    {
      "URL": "https://bugzilla.suse.com/1185899",
      "Description": "SUSE Bug 1185899"
    },
    {
      "URL": "https://bugzilla.suse.com/1185911",
      "Description": "SUSE Bug 1185911"
    },
    {
      "URL": "https://bugzilla.suse.com/1185938",
      "Description": "SUSE Bug 1185938"
    },
    {
      "URL": "https://bugzilla.suse.com/1185987",
      "Description": "SUSE Bug 1185987"
    },
    {
      "URL": "https://bugzilla.suse.com/1185988",
      "Description": "SUSE Bug 1185988"
    },
    {
      "URL": "https://bugzilla.suse.com/1186061",
      "Description": "SUSE Bug 1186061"
    },
    {
      "URL": "https://bugzilla.suse.com/1186285",
      "Description": "SUSE Bug 1186285"
    },
    {
      "URL": "https://bugzilla.suse.com/1186320",
      "Description": "SUSE Bug 1186320"
    },
    {
      "URL": "https://bugzilla.suse.com/1186439",
      "Description": "SUSE Bug 1186439"
    },
    {
      "URL": "https://bugzilla.suse.com/1186441",
      "Description": "SUSE Bug 1186441"
    },
    {
      "URL": "https://bugzilla.suse.com/1186460",
      "Description": "SUSE Bug 1186460"
    },
    {
      "URL": "https://bugzilla.suse.com/1186498",
      "Description": "SUSE Bug 1186498"
    },
    {
      "URL": "https://bugzilla.suse.com/1186501",
      "Description": "SUSE Bug 1186501"
    },
    {
      "URL": "https://bugzilla.suse.com/1186573",
      "Description": "SUSE Bug 1186573"
    },
    {
      "URL": "https://www.suse.com/security/cve/CVE-2020-24586/",
      "Description": "SUSE CVE CVE-2020-24586 page"
    },
    {
      "URL": "https://www.suse.com/security/cve/CVE-2020-24587/",
      "Description": "SUSE CVE CVE-2020-24587 page"
    },
    {
      "URL": "https://www.suse.com/security/cve/CVE-2020-24588/",
      "Description": "SUSE CVE CVE-2020-24588 page"
    },
    {
      "URL": "https://www.suse.com/security/cve/CVE-2020-26139/",
      "Description": "SUSE CVE CVE-2020-26139 page"
    },
    {
      "URL": "https://www.suse.com/security/cve/CVE-2020-26141/",
      "Description": "SUSE CVE CVE-2020-26141 page"
    },
    {
      "URL": "https://www.suse.com/security/cve/CVE-2020-26145/",
      "Description": "SUSE CVE CVE-2020-26145 page"
    },
    {
      "URL": "https://www.suse.com/security/cve/CVE-2020-26147/",
      "Description": "SUSE CVE CVE-2020-26147 page"
    },
    {
      "URL": "https://www.suse.com/security/cve/CVE-2021-23134/",
      "Description": "SUSE CVE CVE-2021-23134 page"
    },
    {
      "URL": "https://www.suse.com/security/cve/CVE-2021-32399/",
      "Description": "SUSE CVE CVE-2021-32399 page"
    },
    {
      "URL": "https://www.suse.com/security/cve/CVE-2021-33034/",
      "Description": "SUSE CVE CVE-2021-33034 page"
    },
    {
      "URL": "https://www.suse.com/security/cve/CVE-2021-33200/",
      "Description": "SUSE CVE CVE-2021-33200 page"
    },
    {
      "URL": "https://www.suse.com/security/cve/CVE-2021-3491/",
      "Description": "SUSE CVE CVE-2021-3491 page"
    }
  ],
  "Vulnerabilities": [
    {
      "CVE": "CVE-2020-24586",
      "Description": "The 802.11 standard that underpins Wi-Fi Protected Access (WPA, WPA2, and WPA3) and Wired Equivalent Privacy (WEP) doesn't require that received fragments be cleared from memory after (re)connecting to a network. Under the right circumstances, when another device sends fragmented frames encrypted using WEP, CCMP, or GCMP, this can be abused to inject arbitrary network packets and/or exfiltrate user data.",
      "Threats": [
        {
          "Type": "Impact",
          "Severity": "moderate"
        }
      ],
      "References": [
        {
          "URL": "https://www.suse.com/security/cve/CVE-2020-24586.html",
          "Description": "CVE-2020-24586"
        },
        {
          "URL": "https://bugzilla.suse.com/1185859",
          "Description": "SUSE Bug 1185859"
        },
        {
          "URL": "https://bugzilla.suse.com/1192868",
          "Description": "SUSE Bug 1192868"
        }
      ],
      "ProductStatuses": [
        {
          "Type": "Fixed",
          "ProductID": [
            "openSUSE Leap 15.2:cluster-md-kmp-rt-5.3.18-lp152.3.14.1",
            "openSUSE Leap 15.2:cluster-md-kmp-rt_debug-5.3.18-lp152.3.14.1",
            "openSUSE Leap 15.2:dlm-kmp-rt-5.3.18-lp152.3.14.1",
            "openSUSE Leap 15.2:dlm-kmp-rt_debug-5.3.18-lp152.3.14.1",
            "openSUSE Leap 15.2:gfs2-kmp-rt-5.3.18-lp152.3.14.1",
            "openSUSE Leap 15.2:gfs2-kmp-rt_debug-5.3.18-lp152.3.14.1",
            "openSUSE Leap 15.2:kernel-devel-rt-5.3.18-lp152.3.14.1",
            "openSUSE Leap 15.2:kernel-rt-5.3.18-lp152.3.14.1",
            "openSUSE Leap 15.2:kernel-rt-devel-5.3.18-lp152.3.14.1",
            "openSUSE Leap 15.2:kernel-rt-extra-5.3.18-lp152.3.14.1",
            "openSUSE Leap 15.2:kernel-rt_debug-5.3.18-lp152.3.14.1",
            "openSUSE Leap 15.2:kernel-rt_debug-devel-5.3.18-lp152.3.14.1",
            "openSUSE Leap 15.2:kernel-rt_debug-extra-5.3.18-lp152.3.14.1",
            "openSUSE Leap 15.2:kernel-source-rt-5.3.18-lp152.3.14.1",
            "openSUSE Leap 15.2:kernel-syms-rt-5.3.18-lp152.3.14.1",
            "openSUSE Leap 15.2:kselftests-kmp-rt-5.3.18-lp152.3.14.1",
            "openSUSE Leap 15.2:kselftests-kmp-rt_debug-5.3.18-lp152.3.14.1",
            "openSUSE Leap 15.2:ocfs2-kmp-rt-5.3.18-lp152.3.14.1",
            "openSUSE Leap 15.2:ocfs2-kmp-rt_debug-5.3.18-lp152.3.14.1",
            "openSUSE Leap 15.2:reiserfs-kmp-rt-5.3.18-lp152.3.14.1",
            "openSUSE Leap 15.2:reiserfs-kmp-rt_debug-5.3.18-lp152.3.14.1"
          ]
        }
      ],
      "CVSSScoreSets": {}
    },
    {
      "CVE": "CVE-2020-24587",
      "Description": "The 802.11 standard that underpins Wi-Fi Protected Access (WPA, WPA2, and WPA3) and Wired Equivalent Privacy (WEP) doesn't require that all fragments of a frame are encrypted under the same key. An adversary can abuse this to decrypt selected fragments when another device sends fragmented frames and the WEP, CCMP, or GCMP encryption key is periodically renewed.",
      "Threats": [
        {
          "Type": "Impact",
          "Severity": "moderate"
        }
      ],
      "References": [
        {
          "URL": "https://www.suse.com/security/cve/CVE-2020-24587.html",
          "Description": "CVE-2020-24587"
        },
        {
          "URL": "https://bugzilla.suse.com/1185859",
          "Description": "SUSE Bug 1185859"
        },
        {
          "URL": "https://bugzilla.suse.com/1185862",
          "Description": "SUSE Bug 1185862"
        },
        {
          "URL": "https://bugzilla.suse.com/1192868",
          "Description": "SUSE Bug 1192868"
        }
      ],
      "ProductStatuses": [
        {
          "Type": "Fixed",
          "ProductID": [
            "openSUSE Leap 15.2:cluster-md-kmp-rt-5.3.18-lp152.3.14.1",
            "openSUSE Leap 15.2:cluster-md-kmp-rt_debug-5.3.18-lp152.3.14.1",
            "openSUSE Leap 15.2:dlm-kmp-rt-5.3.18-lp152.3.14.1",
            "openSUSE Leap 15.2:dlm-kmp-rt_debug-5.3.18-lp152.3.14.1",
            "openSUSE Leap 15.2:gfs2-kmp-rt-5.3.18-lp152.3.14.1",
            "openSUSE Leap 15.2:gfs2-kmp-rt_debug-5.3.18-lp152.3.14.1",
            "openSUSE Leap 15.2:kernel-devel-rt-5.3.18-lp152.3.14.1",
            "openSUSE Leap 15.2:kernel-rt-5.3.18-lp152.3.14.1",
            "openSUSE Leap 15.2:kernel-rt-devel-5.3.18-lp152.3.14.1",
            "openSUSE Leap 15.2:kernel-rt-extra-5.3.18-lp152.3.14.1",
            "openSUSE Leap 15.2:kernel-rt_debug-5.3.18-lp152.3.14.1",
            "openSUSE Leap 15.2:kernel-rt_debug-devel-5.3.18-lp152.3.14.1",
            "openSUSE Leap 15.2:kernel-rt_debug-extra-5.3.18-lp152.3.14.1",
            "openSUSE Leap 15.2:kernel-source-rt-5.3.18-lp152.3.14.1",
            "openSUSE Leap 15.2:kernel-syms-rt-5.3.18-lp152.3.14.1",
            "openSUSE Leap 15.2:kselftests-kmp-rt-5.3.18-lp152.3.14.1",
            "openSUSE Leap 15.2:kselftests-kmp-rt_debug-5.3.18-lp152.3.14.1",
            "openSUSE Leap 15.2:ocfs2-kmp-rt-5.3.18-lp152.3.14.1",
            "openSUSE Leap 15.2:ocfs2-kmp-rt_debug-5.3.18-lp152.3.14.1",
            "openSUSE Leap 15.2:reiserfs-kmp-rt-5.3.18-lp152.3.14.1",
            "openSUSE Leap 15.2:reiserfs-kmp-rt_debug-5.3.18-lp152.3.14.1"
          ]
        }
      ],
      "CVSSScoreSets": {}
    },
    {
      "CVE": "CVE-2020-24588",
      "Description": "The 802.11 standard that underpins Wi-Fi Protected Access (WPA, WPA2, and WPA3) and Wired Equivalent Privacy (WEP) doesn't require that the A-MSDU flag in the plaintext QoS header field is authenticated. Against devices that support receiving non-SSP A-MSDU frames (which is mandatory as part of 802.11n), an adversary can abuse this to inject arbitrary network packets.",
      "Threats": [
        {
          "Type": "Impact",
          "Severity": "moderate"
        }
      ],
      "References": [
        {
          "URL": "https://www.suse.com/security/cve/CVE-2020-24588.html",
          "Description": "CVE-2020-24588"
        },
        {
          "URL": "https://bugzilla.suse.com/1185861",
          "Description": "SUSE Bug 1185861"
        },
        {
          "URL": "https://bugzilla.suse.com/1192868",
          "Description": "SUSE Bug 1192868"
        },
        {
          "URL": "https://bugzilla.suse.com/1199701",
          "Description": "SUSE Bug 1199701"
        }
      ],
      "ProductStatuses": [
        {
          "Type": "Fixed",
          "ProductID": [
            "openSUSE Leap 15.2:cluster-md-kmp-rt-5.3.18-lp152.3.14.1",
            "openSUSE Leap 15.2:cluster-md-kmp-rt_debug-5.3.18-lp152.3.14.1",
            "openSUSE Leap 15.2:dlm-kmp-rt-5.3.18-lp152.3.14.1",
            "openSUSE Leap 15.2:dlm-kmp-rt_debug-5.3.18-lp152.3.14.1",
            "openSUSE Leap 15.2:gfs2-kmp-rt-5.3.18-lp152.3.14.1",
            "openSUSE Leap 15.2:gfs2-kmp-rt_debug-5.3.18-lp152.3.14.1",
            "openSUSE Leap 15.2:kernel-devel-rt-5.3.18-lp152.3.14.1",
            "openSUSE Leap 15.2:kernel-rt-5.3.18-lp152.3.14.1",
            "openSUSE Leap 15.2:kernel-rt-devel-5.3.18-lp152.3.14.1",
            "openSUSE Leap 15.2:kernel-rt-extra-5.3.18-lp152.3.14.1",
            "openSUSE Leap 15.2:kernel-rt_debug-5.3.18-lp152.3.14.1",
            "openSUSE Leap 15.2:kernel-rt_debug-devel-5.3.18-lp152.3.14.1",
            "openSUSE Leap 15.2:kernel-rt_debug-extra-5.3.18-lp152.3.14.1",
            "openSUSE Leap 15.2:kernel-source-rt-5.3.18-lp152.3.14.1",
            "openSUSE Leap 15.2:kernel-syms-rt-5.3.18-lp152.3.14.1",
            "openSUSE Leap 15.2:kselftests-kmp-rt-5.3.18-lp152.3.14.1",
            "openSUSE Leap 15.2:kselftests-kmp-rt_debug-5.3.18-lp152.3.14.1",
            "openSUSE Leap 15.2:ocfs2-kmp-rt-5.3.18-lp152.3.14.1",
            "openSUSE Leap 15.2:ocfs2-kmp-rt_debug-5.3.18-lp152.3.14.1",
            "openSUSE Leap 15.2:reiserfs-kmp-rt-5.3.18-lp152.3.14.1",
            "openSUSE Leap 15.2:reiserfs-kmp-rt_debug-5.3.18-lp152.3.14.1"
          ]
        }
      ],
      "CVSSScoreSets": {}
    },
    {
      "CVE": "CVE-2020-26139",
      "Description": "An issue was discovered in the kernel in NetBSD 7.1. An Access Point (AP) forwards EAPOL frames to other clients even though the sender has not yet successfully authenticated to the AP. This might be abused in projected Wi-Fi networks to launch denial-of-service attacks against connected clients and makes it easier to exploit other vulnerabilities in connected clients.",
      "Threats": [
        {
          "Type": "Impact",
          "Severity": "moderate"
        }
      ],
      "References": [
        {
          "URL": "https://www.suse.com/security/cve/CVE-2020-26139.html",
          "Description": "CVE-2020-26139"
        },
        {
          "URL": "https://bugzilla.suse.com/1186062",
          "Description": "SUSE Bug 1186062"
        },
        {
          "URL": "https://bugzilla.suse.com/1192868",
          "Description": "SUSE Bug 1192868"
        }
      ],
      "ProductStatuses": [
        {
          "Type": "Fixed",
          "ProductID": [
            "openSUSE Leap 15.2:cluster-md-kmp-rt-5.3.18-lp152.3.14.1",
            "openSUSE Leap 15.2:cluster-md-kmp-rt_debug-5.3.18-lp152.3.14.1",
            "openSUSE Leap 15.2:dlm-kmp-rt-5.3.18-lp152.3.14.1",
            "openSUSE Leap 15.2:dlm-kmp-rt_debug-5.3.18-lp152.3.14.1",
            "openSUSE Leap 15.2:gfs2-kmp-rt-5.3.18-lp152.3.14.1",
            "openSUSE Leap 15.2:gfs2-kmp-rt_debug-5.3.18-lp152.3.14.1",
            "openSUSE Leap 15.2:kernel-devel-rt-5.3.18-lp152.3.14.1",
            "openSUSE Leap 15.2:kernel-rt-5.3.18-lp152.3.14.1",
            "openSUSE Leap 15.2:kernel-rt-devel-5.3.18-lp152.3.14.1",
            "openSUSE Leap 15.2:kernel-rt-extra-5.3.18-lp152.3.14.1",
            "openSUSE Leap 15.2:kernel-rt_debug-5.3.18-lp152.3.14.1",
            "openSUSE Leap 15.2:kernel-rt_debug-devel-5.3.18-lp152.3.14.1",
            "openSUSE Leap 15.2:kernel-rt_debug-extra-5.3.18-lp152.3.14.1",
            "openSUSE Leap 15.2:kernel-source-rt-5.3.18-lp152.3.14.1",
            "openSUSE Leap 15.2:kernel-syms-rt-5.3.18-lp152.3.14.1",
            "openSUSE Leap 15.2:kselftests-kmp-rt-5.3.18-lp152.3.14.1",
            "openSUSE Leap 15.2:kselftests-kmp-rt_debug-5.3.18-lp152.3.14.1",
            "openSUSE Leap 15.2:ocfs2-kmp-rt-5.3.18-lp152.3.14.1",
            "openSUSE Leap 15.2:ocfs2-kmp-rt_debug-5.3.18-lp152.3.14.1",
            "openSUSE Leap 15.2:reiserfs-kmp-rt-5.3.18-lp152.3.14.1",
            "openSUSE Leap 15.2:reiserfs-kmp-rt_debug-5.3.18-lp152.3.14.1"
          ]
        }
      ],
      "CVSSScoreSets": {}
    },
    {
      "CVE": "CVE-2020-26141",
      "Description": "An issue was discovered in the ALFA Windows 10 driver 6.1316.1209 for AWUS036H. The Wi-Fi implementation does not verify the Message Integrity Check (authenticity) of fragmented TKIP frames. An adversary can abuse this to inject and possibly decrypt packets in WPA or WPA2 networks that support the TKIP data-confidentiality protocol.",
      "Threats": [
        {
          "Type": "Impact",
          "Severity": "moderate"
        }
      ],
      "References": [
        {
          "URL": "https://www.suse.com/security/cve/CVE-2020-26141.html",
          "Description": "CVE-2020-26141"
        },
        {
          "URL": "https://bugzilla.suse.com/1185987",
          "Description": "SUSE Bug 1185987"
        }
      ],
      "ProductStatuses": [
        {
          "Type": "Fixed",
          "ProductID": [
            "openSUSE Leap 15.2:cluster-md-kmp-rt-5.3.18-lp152.3.14.1",
            "openSUSE Leap 15.2:cluster-md-kmp-rt_debug-5.3.18-lp152.3.14.1",
            "openSUSE Leap 15.2:dlm-kmp-rt-5.3.18-lp152.3.14.1",
            "openSUSE Leap 15.2:dlm-kmp-rt_debug-5.3.18-lp152.3.14.1",
            "openSUSE Leap 15.2:gfs2-kmp-rt-5.3.18-lp152.3.14.1",
            "openSUSE Leap 15.2:gfs2-kmp-rt_debug-5.3.18-lp152.3.14.1",
            "openSUSE Leap 15.2:kernel-devel-rt-5.3.18-lp152.3.14.1",
            "openSUSE Leap 15.2:kernel-rt-5.3.18-lp152.3.14.1",
            "openSUSE Leap 15.2:kernel-rt-devel-5.3.18-lp152.3.14.1",
            "openSUSE Leap 15.2:kernel-rt-extra-5.3.18-lp152.3.14.1",
            "openSUSE Leap 15.2:kernel-rt_debug-5.3.18-lp152.3.14.1",
            "openSUSE Leap 15.2:kernel-rt_debug-devel-5.3.18-lp152.3.14.1",
            "openSUSE Leap 15.2:kernel-rt_debug-extra-5.3.18-lp152.3.14.1",
            "openSUSE Leap 15.2:kernel-source-rt-5.3.18-lp152.3.14.1",
            "openSUSE Leap 15.2:kernel-syms-rt-5.3.18-lp152.3.14.1",
            "openSUSE Leap 15.2:kselftests-kmp-rt-5.3.18-lp152.3.14.1",
            "openSUSE Leap 15.2:kselftests-kmp-rt_debug-5.3.18-lp152.3.14.1",
            "openSUSE Leap 15.2:ocfs2-kmp-rt-5.3.18-lp152.3.14.1",
            "openSUSE Leap 15.2:ocfs2-kmp-rt_debug-5.3.18-lp152.3.14.1",
            "openSUSE Leap 15.2:reiserfs-kmp-rt-5.3.18-lp152.3.14.1",
            "openSUSE Leap 15.2:reiserfs-kmp-rt_debug-5.3.18-lp152.3.14.1"
          ]
        }
      ],
      "CVSSScoreSets": {}
    },
    {
      "CVE": "CVE-2020-26145",
      "Description": "An issue was discovered on Samsung Galaxy S3 i9305 4.4.4 devices. The WEP, WPA, WPA2, and WPA3 implementations accept second (or subsequent) broadcast fragments even when sent in plaintext and process them as full unfragmented frames. An adversary can abuse this to inject arbitrary network packets independent of the network configuration.",
      "Threats": [
        {
          "Type": "Impact",
          "Severity": "moderate"
        }
      ],
      "References": [
        {
          "URL": "https://www.suse.com/security/cve/CVE-2020-26145.html",
          "Description": "CVE-2020-26145"
        },
        {
          "URL": "https://bugzilla.suse.com/1185860",
          "Description": "SUSE Bug 1185860"
        }
      ],
      "ProductStatuses": [
        {
          "Type": "Fixed",
          "ProductID": [
            "openSUSE Leap 15.2:cluster-md-kmp-rt-5.3.18-lp152.3.14.1",
            "openSUSE Leap 15.2:cluster-md-kmp-rt_debug-5.3.18-lp152.3.14.1",
            "openSUSE Leap 15.2:dlm-kmp-rt-5.3.18-lp152.3.14.1",
            "openSUSE Leap 15.2:dlm-kmp-rt_debug-5.3.18-lp152.3.14.1",
            "openSUSE Leap 15.2:gfs2-kmp-rt-5.3.18-lp152.3.14.1",
            "openSUSE Leap 15.2:gfs2-kmp-rt_debug-5.3.18-lp152.3.14.1",
            "openSUSE Leap 15.2:kernel-devel-rt-5.3.18-lp152.3.14.1",
            "openSUSE Leap 15.2:kernel-rt-5.3.18-lp152.3.14.1",
            "openSUSE Leap 15.2:kernel-rt-devel-5.3.18-lp152.3.14.1",
            "openSUSE Leap 15.2:kernel-rt-extra-5.3.18-lp152.3.14.1",
            "openSUSE Leap 15.2:kernel-rt_debug-5.3.18-lp152.3.14.1",
            "openSUSE Leap 15.2:kernel-rt_debug-devel-5.3.18-lp152.3.14.1",
            "openSUSE Leap 15.2:kernel-rt_debug-extra-5.3.18-lp152.3.14.1",
            "openSUSE Leap 15.2:kernel-source-rt-5.3.18-lp152.3.14.1",
            "openSUSE Leap 15.2:kernel-syms-rt-5.3.18-lp152.3.14.1",
            "openSUSE Leap 15.2:kselftests-kmp-rt-5.3.18-lp152.3.14.1",
            "openSUSE Leap 15.2:kselftests-kmp-rt_debug-5.3.18-lp152.3.14.1",
            "openSUSE Leap 15.2:ocfs2-kmp-rt-5.3.18-lp152.3.14.1",
            "openSUSE Leap 15.2:ocfs2-kmp-rt_debug-5.3.18-lp152.3.14.1",
            "openSUSE Leap 15.2:reiserfs-kmp-rt-5.3.18-lp152.3.14.1",
            "openSUSE Leap 15.2:reiserfs-kmp-rt_debug-5.3.18-lp152.3.14.1"
          ]
        }
      ],
      "CVSSScoreSets": {}
    },
    {
      "CVE": "CVE-2020-26147",
      "Description": "An issue was discovered in the Linux kernel 5.8.9. The WEP, WPA, WPA2, and WPA3 implementations reassemble fragments even though some of them were sent in plaintext. This vulnerability can be abused to inject packets and/or exfiltrate selected fragments when another device sends fragmented frames and the WEP, CCMP, or GCMP data-confidentiality protocol is used.",
      "Threats": [
        {
          "Type": "Impact",
          "Severity": "moderate"
        }
      ],
      "References": [
        {
          "URL": "https://www.suse.com/security/cve/CVE-2020-26147.html",
          "Description": "CVE-2020-26147"
        }
      ],
      "ProductStatuses": [
        {
          "Type": "Fixed",
          "ProductID": [
            "openSUSE Leap 15.2:cluster-md-kmp-rt-5.3.18-lp152.3.14.1",
            "openSUSE Leap 15.2:cluster-md-kmp-rt_debug-5.3.18-lp152.3.14.1",
            "openSUSE Leap 15.2:dlm-kmp-rt-5.3.18-lp152.3.14.1",
            "openSUSE Leap 15.2:dlm-kmp-rt_debug-5.3.18-lp152.3.14.1",
            "openSUSE Leap 15.2:gfs2-kmp-rt-5.3.18-lp152.3.14.1",
            "openSUSE Leap 15.2:gfs2-kmp-rt_debug-5.3.18-lp152.3.14.1",
            "openSUSE Leap 15.2:kernel-devel-rt-5.3.18-lp152.3.14.1",
            "openSUSE Leap 15.2:kernel-rt-5.3.18-lp152.3.14.1",
            "openSUSE Leap 15.2:kernel-rt-devel-5.3.18-lp152.3.14.1",
            "openSUSE Leap 15.2:kernel-rt-extra-5.3.18-lp152.3.14.1",
            "openSUSE Leap 15.2:kernel-rt_debug-5.3.18-lp152.3.14.1",
            "openSUSE Leap 15.2:kernel-rt_debug-devel-5.3.18-lp152.3.14.1",
            "openSUSE Leap 15.2:kernel-rt_debug-extra-5.3.18-lp152.3.14.1",
            "openSUSE Leap 15.2:kernel-source-rt-5.3.18-lp152.3.14.1",
            "openSUSE Leap 15.2:kernel-syms-rt-5.3.18-lp152.3.14.1",
            "openSUSE Leap 15.2:kselftests-kmp-rt-5.3.18-lp152.3.14.1",
            "openSUSE Leap 15.2:kselftests-kmp-rt_debug-5.3.18-lp152.3.14.1",
            "openSUSE Leap 15.2:ocfs2-kmp-rt-5.3.18-lp152.3.14.1",
            "openSUSE Leap 15.2:ocfs2-kmp-rt_debug-5.3.18-lp152.3.14.1",
            "openSUSE Leap 15.2:reiserfs-kmp-rt-5.3.18-lp152.3.14.1",
            "openSUSE Leap 15.2:reiserfs-kmp-rt_debug-5.3.18-lp152.3.14.1"
          ]
        }
      ],
      "CVSSScoreSets": {}
    },
    {
      "CVE": "CVE-2021-23134",
      "Description": "Use After Free vulnerability in nfc sockets in the Linux Kernel before 5.12.4 allows local attackers to elevate their privileges. In typical configurations, the issue can only be triggered by a privileged local user with the CAP_NET_RAW capability.",
      "Threats": [
        {
          "Type": "Impact",
          "Severity": "important"
        }
      ],
      "References": [
        {
          "URL": "https://www.suse.com/security/cve/CVE-2021-23134.html",
          "Description": "CVE-2021-23134"
        },
        {
          "URL": "https://bugzilla.suse.com/1186060",
          "Description": "SUSE Bug 1186060"
        },
        {
          "URL": "https://bugzilla.suse.com/1186061",
          "Description": "SUSE Bug 1186061"
        },
        {
          "URL": "https://bugzilla.suse.com/1220739",
          "Description": "SUSE Bug 1220739"
        }
      ],
      "ProductStatuses": [
        {
          "Type": "Fixed",
          "ProductID": [
            "openSUSE Leap 15.2:cluster-md-kmp-rt-5.3.18-lp152.3.14.1",
            "openSUSE Leap 15.2:cluster-md-kmp-rt_debug-5.3.18-lp152.3.14.1",
            "openSUSE Leap 15.2:dlm-kmp-rt-5.3.18-lp152.3.14.1",
            "openSUSE Leap 15.2:dlm-kmp-rt_debug-5.3.18-lp152.3.14.1",
            "openSUSE Leap 15.2:gfs2-kmp-rt-5.3.18-lp152.3.14.1",
            "openSUSE Leap 15.2:gfs2-kmp-rt_debug-5.3.18-lp152.3.14.1",
            "openSUSE Leap 15.2:kernel-devel-rt-5.3.18-lp152.3.14.1",
            "openSUSE Leap 15.2:kernel-rt-5.3.18-lp152.3.14.1",
            "openSUSE Leap 15.2:kernel-rt-devel-5.3.18-lp152.3.14.1",
            "openSUSE Leap 15.2:kernel-rt-extra-5.3.18-lp152.3.14.1",
            "openSUSE Leap 15.2:kernel-rt_debug-5.3.18-lp152.3.14.1",
            "openSUSE Leap 15.2:kernel-rt_debug-devel-5.3.18-lp152.3.14.1",
            "openSUSE Leap 15.2:kernel-rt_debug-extra-5.3.18-lp152.3.14.1",
            "openSUSE Leap 15.2:kernel-source-rt-5.3.18-lp152.3.14.1",
            "openSUSE Leap 15.2:kernel-syms-rt-5.3.18-lp152.3.14.1",
            "openSUSE Leap 15.2:kselftests-kmp-rt-5.3.18-lp152.3.14.1",
            "openSUSE Leap 15.2:kselftests-kmp-rt_debug-5.3.18-lp152.3.14.1",
            "openSUSE Leap 15.2:ocfs2-kmp-rt-5.3.18-lp152.3.14.1",
            "openSUSE Leap 15.2:ocfs2-kmp-rt_debug-5.3.18-lp152.3.14.1",
            "openSUSE Leap 15.2:reiserfs-kmp-rt-5.3.18-lp152.3.14.1",
            "openSUSE Leap 15.2:reiserfs-kmp-rt_debug-5.3.18-lp152.3.14.1"
          ]
        }
      ],
      "CVSSScoreSets": {}
    },
    {
      "CVE": "CVE-2021-32399",
      "Description": "net/bluetooth/hci_request.c in the Linux kernel through 5.12.2 has a race condition for removal of the HCI controller.",
      "Threats": [
        {
          "Type": "Impact",
          "Severity": "important"
        }
      ],
      "References": [
        {
          "URL": "https://www.suse.com/security/cve/CVE-2021-32399.html",
          "Description": "CVE-2021-32399"
        },
        {
          "URL": "https://bugzilla.suse.com/1184611",
          "Description": "SUSE Bug 1184611"
        },
        {
          "URL": "https://bugzilla.suse.com/1185898",
          "Description": "SUSE Bug 1185898"
        },
        {
          "URL": "https://bugzilla.suse.com/1185899",
          "Description": "SUSE Bug 1185899"
        },
        {
          "URL": "https://bugzilla.suse.com/1196174",
          "Description": "SUSE Bug 1196174"
        },
        {
          "URL": "https://bugzilla.suse.com/1200084",
          "Description": "SUSE Bug 1200084"
        },
        {
          "URL": "https://bugzilla.suse.com/1201734",
          "Description": "SUSE Bug 1201734"
        }
      ],
      "ProductStatuses": [
        {
          "Type": "Fixed",
          "ProductID": [
            "openSUSE Leap 15.2:cluster-md-kmp-rt-5.3.18-lp152.3.14.1",
            "openSUSE Leap 15.2:cluster-md-kmp-rt_debug-5.3.18-lp152.3.14.1",
            "openSUSE Leap 15.2:dlm-kmp-rt-5.3.18-lp152.3.14.1",
            "openSUSE Leap 15.2:dlm-kmp-rt_debug-5.3.18-lp152.3.14.1",
            "openSUSE Leap 15.2:gfs2-kmp-rt-5.3.18-lp152.3.14.1",
            "openSUSE Leap 15.2:gfs2-kmp-rt_debug-5.3.18-lp152.3.14.1",
            "openSUSE Leap 15.2:kernel-devel-rt-5.3.18-lp152.3.14.1",
            "openSUSE Leap 15.2:kernel-rt-5.3.18-lp152.3.14.1",
            "openSUSE Leap 15.2:kernel-rt-devel-5.3.18-lp152.3.14.1",
            "openSUSE Leap 15.2:kernel-rt-extra-5.3.18-lp152.3.14.1",
            "openSUSE Leap 15.2:kernel-rt_debug-5.3.18-lp152.3.14.1",
            "openSUSE Leap 15.2:kernel-rt_debug-devel-5.3.18-lp152.3.14.1",
            "openSUSE Leap 15.2:kernel-rt_debug-extra-5.3.18-lp152.3.14.1",
            "openSUSE Leap 15.2:kernel-source-rt-5.3.18-lp152.3.14.1",
            "openSUSE Leap 15.2:kernel-syms-rt-5.3.18-lp152.3.14.1",
            "openSUSE Leap 15.2:kselftests-kmp-rt-5.3.18-lp152.3.14.1",
            "openSUSE Leap 15.2:kselftests-kmp-rt_debug-5.3.18-lp152.3.14.1",
            "openSUSE Leap 15.2:ocfs2-kmp-rt-5.3.18-lp152.3.14.1",
            "openSUSE Leap 15.2:ocfs2-kmp-rt_debug-5.3.18-lp152.3.14.1",
            "openSUSE Leap 15.2:reiserfs-kmp-rt-5.3.18-lp152.3.14.1",
            "openSUSE Leap 15.2:reiserfs-kmp-rt_debug-5.3.18-lp152.3.14.1"
          ]
        }
      ],
      "CVSSScoreSets": {}
    },
    {
      "CVE": "CVE-2021-33034",
      "Description": "In the Linux kernel before 5.12.4, net/bluetooth/hci_event.c has a use-after-free when destroying an hci_chan, aka CID-5c4c8c954409. This leads to writing an arbitrary value.",
      "Threats": [
        {
          "Type": "Impact",
          "Severity": "important"
        }
      ],
      "References": [
        {
          "URL": "https://www.suse.com/security/cve/CVE-2021-33034.html",
          "Description": "CVE-2021-33034"
        },
        {
          "URL": "https://bugzilla.suse.com/1186111",
          "Description": "SUSE Bug 1186111"
        },
        {
          "URL": "https://bugzilla.suse.com/1186285",
          "Description": "SUSE Bug 1186285"
        }
      ],
      "ProductStatuses": [
        {
          "Type": "Fixed",
          "ProductID": [
            "openSUSE Leap 15.2:cluster-md-kmp-rt-5.3.18-lp152.3.14.1",
            "openSUSE Leap 15.2:cluster-md-kmp-rt_debug-5.3.18-lp152.3.14.1",
            "openSUSE Leap 15.2:dlm-kmp-rt-5.3.18-lp152.3.14.1",
            "openSUSE Leap 15.2:dlm-kmp-rt_debug-5.3.18-lp152.3.14.1",
            "openSUSE Leap 15.2:gfs2-kmp-rt-5.3.18-lp152.3.14.1",
            "openSUSE Leap 15.2:gfs2-kmp-rt_debug-5.3.18-lp152.3.14.1",
            "openSUSE Leap 15.2:kernel-devel-rt-5.3.18-lp152.3.14.1",
            "openSUSE Leap 15.2:kernel-rt-5.3.18-lp152.3.14.1",
            "openSUSE Leap 15.2:kernel-rt-devel-5.3.18-lp152.3.14.1",
            "openSUSE Leap 15.2:kernel-rt-extra-5.3.18-lp152.3.14.1",
            "openSUSE Leap 15.2:kernel-rt_debug-5.3.18-lp152.3.14.1",
            "openSUSE Leap 15.2:kernel-rt_debug-devel-5.3.18-lp152.3.14.1",
            "openSUSE Leap 15.2:kernel-rt_debug-extra-5.3.18-lp152.3.14.1",
            "openSUSE Leap 15.2:kernel-source-rt-5.3.18-lp152.3.14.1",
            "openSUSE Leap 15.2:kernel-syms-rt-5.3.18-lp152.3.14.1",
            "openSUSE Leap 15.2:kselftests-kmp-rt-5.3.18-lp152.3.14.1",
            "openSUSE Leap 15.2:kselftests-kmp-rt_debug-5.3.18-lp152.3.14.1",
            "openSUSE Leap 15.2:ocfs2-kmp-rt-5.3.18-lp152.3.14.1",
            "openSUSE Leap 15.2:ocfs2-kmp-rt_debug-5.3.18-lp152.3.14.1",
            "openSUSE Leap 15.2:reiserfs-kmp-rt-5.3.18-lp152.3.14.1",
            "openSUSE Leap 15.2:reiserfs-kmp-rt_debug-5.3.18-lp152.3.14.1"
          ]
        }
      ],
      "CVSSScoreSets": {}
    },
    {
      "CVE": "CVE-2021-33200",
      "Description": "kernel/bpf/verifier.c in the Linux kernel through 5.12.7 enforces incorrect limits for pointer arithmetic operations, aka CID-bb01a1bba579. This can be abused to perform out-of-bounds reads and writes in kernel memory, leading to local privilege escalation to root. In particular, there is a corner case where the off reg causes a masking direction change, which then results in an incorrect final aux-\u003ealu_limit.",
      "Threats": [
        {
          "Type": "Impact",
          "Severity": "important"
        }
      ],
      "References": [
        {
          "URL": "https://www.suse.com/security/cve/CVE-2021-33200.html",
          "Description": "CVE-2021-33200"
        },
        {
          "URL": "https://bugzilla.suse.com/1186484",
          "Description": "SUSE Bug 1186484"
        },
        {
          "URL": "https://bugzilla.suse.com/1186498",
          "Description": "SUSE Bug 1186498"
        },
        {
          "URL": "https://bugzilla.suse.com/1224878",
          "Description": "SUSE Bug 1224878"
        }
      ],
      "ProductStatuses": [
        {
          "Type": "Fixed",
          "ProductID": [
            "openSUSE Leap 15.2:cluster-md-kmp-rt-5.3.18-lp152.3.14.1",
            "openSUSE Leap 15.2:cluster-md-kmp-rt_debug-5.3.18-lp152.3.14.1",
            "openSUSE Leap 15.2:dlm-kmp-rt-5.3.18-lp152.3.14.1",
            "openSUSE Leap 15.2:dlm-kmp-rt_debug-5.3.18-lp152.3.14.1",
            "openSUSE Leap 15.2:gfs2-kmp-rt-5.3.18-lp152.3.14.1",
            "openSUSE Leap 15.2:gfs2-kmp-rt_debug-5.3.18-lp152.3.14.1",
            "openSUSE Leap 15.2:kernel-devel-rt-5.3.18-lp152.3.14.1",
            "openSUSE Leap 15.2:kernel-rt-5.3.18-lp152.3.14.1",
            "openSUSE Leap 15.2:kernel-rt-devel-5.3.18-lp152.3.14.1",
            "openSUSE Leap 15.2:kernel-rt-extra-5.3.18-lp152.3.14.1",
            "openSUSE Leap 15.2:kernel-rt_debug-5.3.18-lp152.3.14.1",
            "openSUSE Leap 15.2:kernel-rt_debug-devel-5.3.18-lp152.3.14.1",
            "openSUSE Leap 15.2:kernel-rt_debug-extra-5.3.18-lp152.3.14.1",
            "openSUSE Leap 15.2:kernel-source-rt-5.3.18-lp152.3.14.1",
            "openSUSE Leap 15.2:kernel-syms-rt-5.3.18-lp152.3.14.1",
            "openSUSE Leap 15.2:kselftests-kmp-rt-5.3.18-lp152.3.14.1",
            "openSUSE Leap 15.2:kselftests-kmp-rt_debug-5.3.18-lp152.3.14.1",
            "openSUSE Leap 15.2:ocfs2-kmp-rt-5.3.18-lp152.3.14.1",
            "openSUSE Leap 15.2:ocfs2-kmp-rt_debug-5.3.18-lp152.3.14.1",
            "openSUSE Leap 15.2:reiserfs-kmp-rt-5.3.18-lp152.3.14.1",
            "openSUSE Leap 15.2:reiserfs-kmp-rt_debug-5.3.18-lp152.3.14.1"
          ]
        }
      ],
      "CVSSScoreSets": {}
    },
    {
      "CVE": "CVE-2021-3491",
      "Description": "The io_uring subsystem in the Linux kernel allowed the MAX_RW_COUNT limit to be bypassed in the PROVIDE_BUFFERS operation, which led to negative values being usedin mem_rw when reading /proc/\u003cPID\u003e/mem. This could be used to create a heap overflow leading to arbitrary code execution in the kernel. It was addressed via commit d1f82808877b (\"io_uring: truncate lengths larger than MAX_RW_COUNT on provide buffers\") (v5.13-rc1) and backported to the stable kernels in v5.12.4, v5.11.21, and v5.10.37. It was introduced in ddf0322db79c (\"io_uring: add IORING_OP_PROVIDE_BUFFERS\") (v5.7-rc1).",
      "Threats": [
        {
          "Type": "Impact",
          "Severity": "important"
        }
      ],
      "References": [
        {
          "URL": "https://www.suse.com/security/cve/CVE-2021-3491.html",
          "Description": "CVE-2021-3491"
        },
        {
          "URL": "https://bugzilla.suse.com/1185642",
          "Description": "SUSE Bug 1185642"
        },
        {
          "URL": "https://bugzilla.suse.com/1187090",
          "Description": "SUSE Bug 1187090"
        }
      ],
      "ProductStatuses": [
        {
          "Type": "Fixed",
          "ProductID": [
            "openSUSE Leap 15.2:cluster-md-kmp-rt-5.3.18-lp152.3.14.1",
            "openSUSE Leap 15.2:cluster-md-kmp-rt_debug-5.3.18-lp152.3.14.1",
            "openSUSE Leap 15.2:dlm-kmp-rt-5.3.18-lp152.3.14.1",
            "openSUSE Leap 15.2:dlm-kmp-rt_debug-5.3.18-lp152.3.14.1",
            "openSUSE Leap 15.2:gfs2-kmp-rt-5.3.18-lp152.3.14.1",
            "openSUSE Leap 15.2:gfs2-kmp-rt_debug-5.3.18-lp152.3.14.1",
            "openSUSE Leap 15.2:kernel-devel-rt-5.3.18-lp152.3.14.1",
            "openSUSE Leap 15.2:kernel-rt-5.3.18-lp152.3.14.1",
            "openSUSE Leap 15.2:kernel-rt-devel-5.3.18-lp152.3.14.1",
            "openSUSE Leap 15.2:kernel-rt-extra-5.3.18-lp152.3.14.1",
            "openSUSE Leap 15.2:kernel-rt_debug-5.3.18-lp152.3.14.1",
            "openSUSE Leap 15.2:kernel-rt_debug-devel-5.3.18-lp152.3.14.1",
            "openSUSE Leap 15.2:kernel-rt_debug-extra-5.3.18-lp152.3.14.1",
            "openSUSE Leap 15.2:kernel-source-rt-5.3.18-lp152.3.14.1",
            "openSUSE Leap 15.2:kernel-syms-rt-5.3.18-lp152.3.14.1",
            "openSUSE Leap 15.2:kselftests-kmp-rt-5.3.18-lp152.3.14.1",
            "openSUSE Leap 15.2:kselftests-kmp-rt_debug-5.3.18-lp152.3.14.1",
            "openSUSE Leap 15.2:ocfs2-kmp-rt-5.3.18-lp152.3.14.1",
            "openSUSE Leap 15.2:ocfs2-kmp-rt_debug-5.3.18-lp152.3.14.1",
            "openSUSE Leap 15.2:reiserfs-kmp-rt-5.3.18-lp152.3.14.1",
            "openSUSE Leap 15.2:reiserfs-kmp-rt_debug-5.3.18-lp152.3.14.1"
          ]
        }
      ],
      "CVSSScoreSets": {}
    }
  ]
}