{
  "Class": "vulnerability",
  "ID": "oval:com.microsoft.cbl-mariner:def:13052",
  "Version": "2",
  "Metadata": {
    "Title": "CVE-2023-23559 affecting package kernel for versions less than 5.15.92.1-1",
    "Affected": {
      "Family": "unix",
      "Platform": "CBL-Mariner"
    },
    "Reference": {
      "RefID": "CVE-2023-23559",
      "RefURL": "https://nvd.nist.gov/vuln/detail/CVE-2023-23559",
      "Source": "CVE"
    },
    "Patchable": "true",
    "AdvisoryDate": "2023-02-14T20:21:22Z",
    "AdvisoryID": "13052-2",
    "Severity": "High",
    "Description": "CVE-2023-23559 affecting package kernel for versions less than 5.15.92.1-1. A patched version of the package is available."
  },
  "Criteria": {
    "Operator": "AND",
    "Criterion": {
      "Comment": "Package kernel is earlier than 5.15.92.1-1, affected by CVE-2023-23559",
      "TestRef": "oval:com.microsoft.cbl-mariner:tst:13052000"
    }
  }
}