{
  "Class": "vulnerability",
  "ID": "oval:com.microsoft.cbl-mariner:def:13388",
  "Version": "3",
  "Metadata": {
    "Title": "CVE-2023-0800 affecting package libtiff for versions less than 4.4.0-8",
    "Affected": {
      "Family": "unix",
      "Platform": "CBL-Mariner"
    },
    "Reference": {
      "RefID": "CVE-2023-0800",
      "RefURL": "https://nvd.nist.gov/vuln/detail/CVE-2023-0800",
      "Source": "CVE"
    },
    "Patchable": "true",
    "AdvisoryDate": "2023-03-09T00:24:42Z",
    "AdvisoryID": "13388-3",
    "Severity": "Medium",
    "Description": "CVE-2023-0800 affecting package libtiff for versions less than 4.4.0-8. A patched version of the package is available."
  },
  "Criteria": {
    "Operator": "AND",
    "Criterion": {
      "Comment": "Package libtiff is earlier than 4.4.0-8, affected by CVE-2023-0800",
      "TestRef": "oval:com.microsoft.cbl-mariner:tst:13388000"
    }
  }
}