{
  "Class": "vulnerability",
  "ID": "oval:com.microsoft.cbl-mariner:def:13705",
  "Version": "1",
  "Metadata": {
    "Title": "CVE-2023-0286 affecting package rust for versions less than 1.72.0-2",
    "Affected": {
      "Family": "unix",
      "Platform": "CBL-Mariner"
    },
    "Reference": {
      "RefID": "CVE-2023-0286",
      "RefURL": "https://nvd.nist.gov/vuln/detail/CVE-2023-0286",
      "Source": "CVE"
    },
    "Patchable": "Not Applicable",
    "AdvisoryDate": "2023-10-11T01:41:59Z",
    "AdvisoryID": "13705-1",
    "Severity": "High",
    "Description": "CVE-2023-0286 affecting package rust for versions less than 1.72.0-2. This CVE either no longer is or was never applicable."
  },
  "Criteria": {
    "Operator": "AND",
    "Criterion": {
      "Comment": "Package rust is earlier than 1.72.0-2, affected by CVE-2023-0286",
      "TestRef": "oval:com.microsoft.cbl-mariner:tst:13705000"
    }
  }
}