{
  "Class": "vulnerability",
  "ID": "oval:com.microsoft.cbl-mariner:def:13784",
  "Version": "3",
  "Metadata": {
    "Title": "CVE-2023-27320 affecting package sudo for versions less than 1.9.13p3-1",
    "Affected": {
      "Family": "unix",
      "Platform": "CBL-Mariner"
    },
    "Reference": {
      "RefID": "CVE-2023-27320",
      "RefURL": "https://nvd.nist.gov/vuln/detail/CVE-2023-27320",
      "Source": "CVE"
    },
    "Patchable": "true",
    "AdvisoryDate": "2023-03-24T23:42:08Z",
    "AdvisoryID": "13784-3",
    "Severity": "High",
    "Description": "CVE-2023-27320 affecting package sudo for versions less than 1.9.13p3-1. An upgraded version of the package is available that resolves this issue."
  },
  "Criteria": {
    "Operator": "AND",
    "Criterion": {
      "Comment": "Package sudo is earlier than 1.9.13p3-1, affected by CVE-2023-27320",
      "TestRef": "oval:com.microsoft.cbl-mariner:tst:13784000"
    }
  }
}