{
  "Class": "vulnerability",
  "ID": "oval:com.microsoft.cbl-mariner:def:25608",
  "Version": "3",
  "Metadata": {
    "Title": "CVE-2023-23001 affecting package kernel for versions less than 5.15.102.1-1",
    "Affected": {
      "Family": "unix",
      "Platform": "CBL-Mariner"
    },
    "Reference": {
      "RefID": "CVE-2023-23001",
      "RefURL": "https://nvd.nist.gov/vuln/detail/CVE-2023-23001",
      "Source": "CVE"
    },
    "Patchable": "true",
    "AdvisoryDate": "2023-03-24T23:56:03Z",
    "AdvisoryID": "25608-3",
    "Severity": "Medium",
    "Description": "CVE-2023-23001 affecting package kernel for versions less than 5.15.102.1-1. A patched version of the package is available."
  },
  "Criteria": {
    "Operator": "AND",
    "Criterion": {
      "Comment": "Package kernel is earlier than 5.15.102.1-1, affected by CVE-2023-23001",
      "TestRef": "oval:com.microsoft.cbl-mariner:tst:25608000"
    }
  }
}