{
  "Class": "vulnerability",
  "ID": "oval:com.microsoft.cbl-mariner:def:26177",
  "Version": "1",
  "Metadata": {
    "Title": "CVE-2023-21976 affecting package mysql for versions less than 8.0.33-1",
    "Affected": {
      "Family": "unix",
      "Platform": "CBL-Mariner"
    },
    "Reference": {
      "RefID": "CVE-2023-21976",
      "RefURL": "https://nvd.nist.gov/vuln/detail/CVE-2023-21976",
      "Source": "CVE"
    },
    "Patchable": "true",
    "AdvisoryDate": "2023-05-03T16:24:32Z",
    "AdvisoryID": "26177-1",
    "Severity": "Medium",
    "Description": "CVE-2023-21976 affecting package mysql for versions less than 8.0.33-1. An upgraded version of the package is available that resolves this issue."
  },
  "Criteria": {
    "Operator": "AND",
    "Criterion": {
      "Comment": "Package mysql is earlier than 8.0.33-1, affected by CVE-2023-21976",
      "TestRef": "oval:com.microsoft.cbl-mariner:tst:26177000"
    }
  }
}