{
  "Class": "vulnerability",
  "ID": "oval:com.microsoft.cbl-mariner:def:26278",
  "Version": "1",
  "Metadata": {
    "Title": "CVE-2023-30612 affecting package cloud-hypervisor for versions less than 31.1-1",
    "Affected": {
      "Family": "unix",
      "Platform": "CBL-Mariner"
    },
    "Reference": {
      "RefID": "CVE-2023-30612",
      "RefURL": "https://nvd.nist.gov/vuln/detail/CVE-2023-30612",
      "Source": "CVE"
    },
    "Patchable": "true",
    "AdvisoryDate": "2023-06-02T21:37:28Z",
    "AdvisoryID": "26278-1",
    "Severity": "Medium",
    "Description": "CVE-2023-30612 affecting package cloud-hypervisor for versions less than 31.1-1. An upgraded version of the package is available that resolves this issue."
  },
  "Criteria": {
    "Operator": "AND",
    "Criterion": {
      "Comment": "Package cloud-hypervisor is earlier than 31.1-1, affected by CVE-2023-30612",
      "TestRef": "oval:com.microsoft.cbl-mariner:tst:26278000"
    }
  }
}