{
  "Class": "vulnerability",
  "ID": "oval:com.microsoft.cbl-mariner:def:26695",
  "Version": "1",
  "Metadata": {
    "Title": "CVE-2023-2609 affecting package vim for versions less than 9.0.1562-1",
    "Affected": {
      "Family": "unix",
      "Platform": "CBL-Mariner"
    },
    "Reference": {
      "RefID": "CVE-2023-2609",
      "RefURL": "https://nvd.nist.gov/vuln/detail/CVE-2023-2609",
      "Source": "CVE"
    },
    "Patchable": "true",
    "AdvisoryDate": "2023-05-25T09:38:10Z",
    "AdvisoryID": "26695-1",
    "Severity": "Medium",
    "Description": "CVE-2023-2609 affecting package vim for versions less than 9.0.1562-1. An upgraded version of the package is available that resolves this issue."
  },
  "Criteria": {
    "Operator": "AND",
    "Criterion": {
      "Comment": "Package vim is earlier than 9.0.1562-1, affected by CVE-2023-2609",
      "TestRef": "oval:com.microsoft.cbl-mariner:tst:26695000"
    }
  }
}