{
  "Class": "vulnerability",
  "ID": "oval:com.microsoft.cbl-mariner:def:26809",
  "Version": "1",
  "Metadata": {
    "Title": "CVE-2023-28320 affecting package mysql for versions less than 8.0.34-1",
    "Affected": {
      "Family": "unix",
      "Platform": "CBL-Mariner"
    },
    "Reference": {
      "RefID": "CVE-2023-28320",
      "RefURL": "https://nvd.nist.gov/vuln/detail/CVE-2023-28320",
      "Source": "CVE"
    },
    "Patchable": "true",
    "AdvisoryDate": "2023-11-17T23:23:29Z",
    "AdvisoryID": "26809-1",
    "Severity": "Medium",
    "Description": "CVE-2023-28320 affecting package mysql for versions less than 8.0.34-1. An upgraded version of the package is available that resolves this issue."
  },
  "Criteria": {
    "Operator": "AND",
    "Criterion": {
      "Comment": "Package mysql is earlier than 8.0.34-1, affected by CVE-2023-28320",
      "TestRef": "oval:com.microsoft.cbl-mariner:tst:26809000"
    }
  }
}