{
  "Class": "vulnerability",
  "ID": "oval:com.microsoft.cbl-mariner:def:27178",
  "Version": "1",
  "Metadata": {
    "Title": "CVE-2023-34969 affecting package dbus for versions less than 1.15.6-1",
    "Affected": {
      "Family": "unix",
      "Platform": "CBL-Mariner"
    },
    "Reference": {
      "RefID": "CVE-2023-34969",
      "RefURL": "https://nvd.nist.gov/vuln/detail/CVE-2023-34969",
      "Source": "CVE"
    },
    "Patchable": "true",
    "AdvisoryDate": "2024-01-14T22:46:30Z",
    "AdvisoryID": "27178-1",
    "Severity": "Medium",
    "Description": "CVE-2023-34969 affecting package dbus for versions less than 1.15.6-1. An upgraded version of the package is available that resolves this issue."
  },
  "Criteria": {
    "Operator": "AND",
    "Criterion": {
      "Comment": "Package dbus is earlier than 1.15.6-1, affected by CVE-2023-34969",
      "TestRef": "oval:com.microsoft.cbl-mariner:tst:27178000"
    }
  }
}