{
  "Class": "vulnerability",
  "ID": "oval:com.microsoft.cbl-mariner:def:27203",
  "Version": "2",
  "Metadata": {
    "Title": "CVE-2023-2828 affecting package dhcp for versions less than 4.4.2-5",
    "Affected": {
      "Family": "unix",
      "Platform": "CBL-Mariner"
    },
    "Reference": {
      "RefID": "CVE-2023-2828",
      "RefURL": "https://nvd.nist.gov/vuln/detail/CVE-2023-2828",
      "Source": "CVE"
    },
    "Patchable": "true",
    "AdvisoryDate": "2024-06-06T19:53:22Z",
    "AdvisoryID": "27203-2",
    "Severity": "High",
    "Description": "CVE-2023-2828 affecting package dhcp for versions less than 4.4.2-5. A patched version of the package is available."
  },
  "Criteria": {
    "Operator": "AND",
    "Criterion": {
      "Comment": "Package dhcp is earlier than 4.4.2-5, affected by CVE-2023-2828",
      "TestRef": "oval:com.microsoft.cbl-mariner:tst:27203000"
    }
  }
}