{
  "Class": "vulnerability",
  "ID": "oval:com.microsoft.cbl-mariner:def:27652",
  "Version": "1",
  "Metadata": {
    "Title": "CVE-2023-38197 affecting package qt5-qtbase for versions less than 5.12.11-9",
    "Affected": {
      "Family": "unix",
      "Platform": "CBL-Mariner"
    },
    "Reference": {
      "RefID": "CVE-2023-38197",
      "RefURL": "https://nvd.nist.gov/vuln/detail/CVE-2023-38197",
      "Source": "CVE"
    },
    "Patchable": "true",
    "AdvisoryDate": "2023-08-10T16:37:57Z",
    "AdvisoryID": "27652-1",
    "Severity": "High",
    "Description": "CVE-2023-38197 affecting package qt5-qtbase for versions less than 5.12.11-9. A patched version of the package is available."
  },
  "Criteria": {
    "Operator": "AND",
    "Criterion": {
      "Comment": "Package qt5-qtbase is earlier than 5.12.11-9, affected by CVE-2023-38197",
      "TestRef": "oval:com.microsoft.cbl-mariner:tst:27652000"
    }
  }
}