{
  "Class": "vulnerability",
  "ID": "oval:com.microsoft.cbl-mariner:def:27683",
  "Version": "1",
  "Metadata": {
    "Title": "CVE-2023-35945 affecting package nodejs18 for versions less than 18.17.1-2",
    "Affected": {
      "Family": "unix",
      "Platform": "CBL-Mariner"
    },
    "Reference": {
      "RefID": "CVE-2023-35945",
      "RefURL": "https://nvd.nist.gov/vuln/detail/CVE-2023-35945",
      "Source": "CVE"
    },
    "Patchable": "true",
    "AdvisoryDate": "2023-09-27T18:02:50Z",
    "AdvisoryID": "27683-1",
    "Severity": "High",
    "Description": "CVE-2023-35945 affecting package nodejs18 for versions less than 18.17.1-2. A patched version of the package is available."
  },
  "Criteria": {
    "Operator": "AND",
    "Criterion": {
      "Comment": "Package nodejs18 is earlier than 18.17.1-2, affected by CVE-2023-35945",
      "TestRef": "oval:com.microsoft.cbl-mariner:tst:27683000"
    }
  }
}