{
  "Class": "vulnerability",
  "ID": "oval:com.microsoft.cbl-mariner:def:27796",
  "Version": "1",
  "Metadata": {
    "Title": "CVE-2023-4004 affecting package kernel for versions less than 5.15.126.1-1",
    "Affected": {
      "Family": "unix",
      "Platform": "CBL-Mariner"
    },
    "Reference": {
      "RefID": "CVE-2023-4004",
      "RefURL": "https://nvd.nist.gov/vuln/detail/CVE-2023-4004",
      "Source": "CVE"
    },
    "Patchable": "true",
    "AdvisoryDate": "2023-08-30T14:44:06Z",
    "AdvisoryID": "27796-1",
    "Severity": "High",
    "Description": "CVE-2023-4004 affecting package kernel for versions less than 5.15.126.1-1. A patched version of the package is available."
  },
  "Criteria": {
    "Operator": "AND",
    "Criterion": {
      "Comment": "Package kernel is earlier than 5.15.126.1-1, affected by CVE-2023-4004",
      "TestRef": "oval:com.microsoft.cbl-mariner:tst:27796000"
    }
  }
}