{
  "Class": "vulnerability",
  "ID": "oval:com.microsoft.cbl-mariner:def:28779",
  "Version": "1",
  "Metadata": {
    "Title": "CVE-2023-4921 affecting package kernel for versions less than 5.15.133.1-1",
    "Affected": {
      "Family": "unix",
      "Platform": "CBL-Mariner"
    },
    "Reference": {
      "RefID": "CVE-2023-4921",
      "RefURL": "https://nvd.nist.gov/vuln/detail/CVE-2023-4921",
      "Source": "CVE"
    },
    "Patchable": "true",
    "AdvisoryDate": "2023-10-11T01:41:59Z",
    "AdvisoryID": "28779-1",
    "Severity": "High",
    "Description": "CVE-2023-4921 affecting package kernel for versions less than 5.15.133.1-1. A patched version of the package is available."
  },
  "Criteria": {
    "Operator": "AND",
    "Criterion": {
      "Comment": "Package kernel is earlier than 5.15.133.1-1, affected by CVE-2023-4921",
      "TestRef": "oval:com.microsoft.cbl-mariner:tst:28779000"
    }
  }
}