{
  "Class": "vulnerability",
  "ID": "oval:com.microsoft.cbl-mariner:def:31612",
  "Version": "1",
  "Metadata": {
    "Title": "CVE-2023-3389 affecting package hyperv-daemons for versions less than 5.15.135.1-1",
    "Affected": {
      "Family": "unix",
      "Platform": "CBL-Mariner"
    },
    "Reference": {
      "RefID": "CVE-2023-3389",
      "RefURL": "https://nvd.nist.gov/vuln/detail/CVE-2023-3389",
      "Source": "CVE"
    },
    "Patchable": "true",
    "AdvisoryDate": "2023-11-08T02:07:28Z",
    "AdvisoryID": "31612-1",
    "Severity": "High",
    "Description": "CVE-2023-3389 affecting package hyperv-daemons for versions less than 5.15.135.1-1. An upgraded version of the package is available that resolves this issue."
  },
  "Criteria": {
    "Operator": "AND",
    "Criterion": {
      "Comment": "Package hyperv-daemons is earlier than 5.15.135.1-1, affected by CVE-2023-3389",
      "TestRef": "oval:com.microsoft.cbl-mariner:tst:31612000"
    }
  }
}