{
  "Class": "vulnerability",
  "ID": "oval:com.microsoft.cbl-mariner:def:31728",
  "Version": "1",
  "Metadata": {
    "Title": "CVE-2023-46753 affecting package frr for versions less than 8.5.3-3",
    "Affected": {
      "Family": "unix",
      "Platform": "CBL-Mariner"
    },
    "Reference": {
      "RefID": "CVE-2023-46753",
      "RefURL": "https://nvd.nist.gov/vuln/detail/CVE-2023-46753",
      "Source": "CVE"
    },
    "Patchable": "true",
    "AdvisoryDate": "2023-11-10T17:45:58Z",
    "AdvisoryID": "31728-1",
    "Severity": "Medium",
    "Description": "CVE-2023-46753 affecting package frr for versions less than 8.5.3-3. A patched version of the package is available."
  },
  "Criteria": {
    "Operator": "AND",
    "Criterion": {
      "Comment": "Package frr is earlier than 8.5.3-3, affected by CVE-2023-46753",
      "TestRef": "oval:com.microsoft.cbl-mariner:tst:31728000"
    }
  }
}