{
  "Class": "vulnerability",
  "ID": "oval:com.microsoft.cbl-mariner:def:32161",
  "Version": "1",
  "Metadata": {
    "Title": "CVE-2023-45866 affecting package bluez for versions less than 5.63-5",
    "Affected": {
      "Family": "unix",
      "Platform": "CBL-Mariner"
    },
    "Reference": {
      "RefID": "CVE-2023-45866",
      "RefURL": "https://nvd.nist.gov/vuln/detail/CVE-2023-45866",
      "Source": "CVE"
    },
    "Patchable": "true",
    "AdvisoryDate": "2024-01-14T22:46:30Z",
    "AdvisoryID": "32161-1",
    "Severity": "Medium",
    "Description": "CVE-2023-45866 affecting package bluez for versions less than 5.63-5. A patched version of the package is available."
  },
  "Criteria": {
    "Operator": "AND",
    "Criterion": {
      "Comment": "Package bluez is earlier than 5.63-5, affected by CVE-2023-45866",
      "TestRef": "oval:com.microsoft.cbl-mariner:tst:32161000"
    }
  }
}