{
  "Class": "vulnerability",
  "ID": "oval:com.microsoft.cbl-mariner:def:37128",
  "Version": "1",
  "Metadata": {
    "Title": "CVE-2023-47100 affecting package perl for versions less than 5.34.1-489",
    "Affected": {
      "Family": "unix",
      "Platform": "CBL-Mariner"
    },
    "Reference": {
      "RefID": "CVE-2023-47100",
      "RefURL": "https://nvd.nist.gov/vuln/detail/CVE-2023-47100",
      "Source": "CVE"
    },
    "Patchable": "true",
    "AdvisoryDate": "2022-10-21T20:42:47Z",
    "AdvisoryID": "37128-1",
    "Severity": "Critical",
    "Description": "CVE-2023-47100 affecting package perl for versions less than 5.34.1-489. A patched version of the package is available."
  },
  "Criteria": {
    "Operator": "AND",
    "Criterion": {
      "Comment": "Package perl is earlier than 5.34.1-489, affected by CVE-2023-47100",
      "TestRef": "oval:com.microsoft.cbl-mariner:tst:37128000"
    }
  }
}