{
  "Class": "vulnerability",
  "ID": "oval:com.microsoft.cbl-mariner:def:37431",
  "Version": "1",
  "Metadata": {
    "Title": "CVE-2023-24536 affecting package golang for versions less than 1.21.6-1",
    "Affected": {
      "Family": "unix",
      "Platform": "CBL-Mariner"
    },
    "Reference": {
      "RefID": "CVE-2023-24536",
      "RefURL": "https://nvd.nist.gov/vuln/detail/CVE-2023-24536",
      "Source": "CVE"
    },
    "Patchable": "true",
    "AdvisoryID": "37431-1",
    "Severity": "High",
    "Description": "CVE-2023-24536 affecting package golang for versions less than 1.21.6-1. A patched version of the package is available."
  },
  "Criteria": {
    "Operator": "AND",
    "Criterion": {
      "Comment": "Package golang is earlier than 1.21.6-1, affected by CVE-2023-24536",
      "TestRef": "oval:com.microsoft.cbl-mariner:tst:37431000"
    }
  }
}