{
  "Class": "vulnerability",
  "ID": "oval:com.microsoft.cbl-mariner:def:37674",
  "Version": "2",
  "Metadata": {
    "Title": "CVE-2023-2650 affecting package hvloader for versions less than 1.0.1-3",
    "Affected": {
      "Family": "unix",
      "Platform": "CBL-Mariner"
    },
    "Reference": {
      "RefID": "CVE-2023-2650",
      "RefURL": "https://nvd.nist.gov/vuln/detail/CVE-2023-2650",
      "Source": "CVE"
    },
    "Patchable": "true",
    "AdvisoryDate": "2024-06-06T19:53:22Z",
    "AdvisoryID": "37674-2",
    "Severity": "Medium",
    "Description": "CVE-2023-2650 affecting package hvloader for versions less than 1.0.1-3. A patched version of the package is available."
  },
  "Criteria": {
    "Operator": "AND",
    "Criterion": {
      "Comment": "Package hvloader is earlier than 1.0.1-3, affected by CVE-2023-2650",
      "TestRef": "oval:com.microsoft.cbl-mariner:tst:37674000"
    }
  }
}