{
  "name": "git",
  "secfixes": {
    "0": [
      "CVE-2021-29468",
      "CVE-2021-46101"
    ],
    "2.14.1-r0": [
      "CVE-2017-1000117"
    ],
    "2.17.1-r0": [
      "CVE-2018-11233",
      "CVE-2018-11235"
    ],
    "2.19.1-r0": [
      "CVE-2018-17456"
    ],
    "2.24.1-r0": [
      "CVE-2019-1348",
      "CVE-2019-1349",
      "CVE-2019-1350",
      "CVE-2019-1351",
      "CVE-2019-1352",
      "CVE-2019-1353",
      "CVE-2019-1354",
      "CVE-2019-1387",
      "CVE-2019-19604"
    ],
    "2.26.1-r0": [
      "CVE-2020-5260"
    ],
    "2.26.2-r0": [
      "CVE-2020-11008"
    ],
    "2.30.2-r0": [
      "CVE-2021-21300"
    ],
    "2.35.2-r0": [
      "CVE-2022-24765"
    ],
    "2.37.1-r0": [
      "CVE-2022-29187"
    ],
    "2.38.1-r0": [
      "CVE-2022-39253",
      "CVE-2022-39260"
    ],
    "2.39.1-r0": [
      "CVE-2022-41903",
      "CVE-2022-23521"
    ],
    "2.39.2-r0": [
      "CVE-2023-22490",
      "CVE-2023-23946"
    ],
    "2.40.1-r0": [
      "CVE-2023-25652",
      "CVE-2023-25815",
      "CVE-2023-29007"
    ],
    "2.43.4-r0": [
      "CVE-2024-32002",
      "CVE-2024-32004",
      "CVE-2024-32465",
      "CVE-2024-32020",
      "CVE-2024-32021"
    ]
  },
  "apkurl": "{{urlprefix}}/{{distroversion}}/{{reponame}}/{{arch}}/{{pkg.name}}-{{pkg.ver}}.apk",
  "archs": [
    "aarch64",
    "armhf",
    "armv7",
    "ppc64le",
    "s390x",
    "x86",
    "x86_64"
  ],
  "urlprefix": "https://dl-cdn.alpinelinux.org/alpine",
  "reponame": "main",
  "distroversion": "v3.19"
}