{
  "Class": "vulnerability",
  "ID": "oval:com.microsoft.cbl-mariner:def:4156",
  "Version": "2000000001",
  "Metadata": {
    "Title": "CVE-2021-23133 affecting package kernel 5.10.189.1-1",
    "Affected": {
      "Family": "unix",
      "Platform": "CBL-Mariner"
    },
    "Reference": {
      "RefID": "CVE-2021-23133",
      "RefURL": "https://nvd.nist.gov/vuln/detail/CVE-2021-23133",
      "Source": "CVE"
    },
    "Patchable": "true",
    "AdvisoryDate": "2021-09-09T15:03:26Z",
    "AdvisoryID": "4156-1",
    "Severity": "High",
    "Description": "CVE-2021-23133 affecting package kernel 5.10.189.1-1. A patched version of the package is available."
  },
  "Criteria": {
    "Operator": "AND",
    "Criterion": {
      "Comment": "Package kernel is earlier than 5.10.60.1-1, affected by CVE-2021-23133",
      "TestRef": "oval:com.microsoft.cbl-mariner:tst:4156000"
    }
  }
}