{
  "Class": "vulnerability",
  "ID": "oval:com.microsoft.cbl-mariner:def:4568",
  "Version": "2000000000",
  "Metadata": {
    "Title": "CVE-2021-21284 affecting package moby-engine 19.03.15-2",
    "Affected": {
      "Family": "unix",
      "Platform": "CBL-Mariner"
    },
    "Reference": {
      "RefID": "CVE-2021-21284",
      "RefURL": "https://nvd.nist.gov/vuln/detail/CVE-2021-21284",
      "Source": "CVE"
    },
    "Patchable": "true",
    "AdvisoryDate": "2021-07-08T21:56:37Z",
    "AdvisoryID": "4568",
    "Severity": "Medium",
    "Description": "CVE-2021-21284 affecting package moby-engine 19.03.15-2. An upgraded version of the package is available that resolves this issue."
  },
  "Criteria": {
    "Operator": "AND",
    "Criterion": {
      "Comment": "Package moby-engine is earlier than 19.03.15+azure-2, affected by CVE-2021-21284",
      "TestRef": "oval:com.microsoft.cbl-mariner:tst:4568000"
    }
  }
}