{
  "Class": "vulnerability",
  "ID": "oval:com.microsoft.cbl-mariner:def:4744",
  "Version": "2000000001",
  "Metadata": {
    "Title": "CVE-2021-34558 affecting package golang 1.15.13-1",
    "Affected": {
      "Family": "unix",
      "Platform": "CBL-Mariner"
    },
    "Reference": {
      "RefID": "CVE-2021-34558",
      "RefURL": "https://nvd.nist.gov/vuln/detail/CVE-2021-34558",
      "Source": "CVE"
    },
    "Patchable": "true",
    "AdvisoryDate": "2021-09-09T15:03:05Z",
    "AdvisoryID": "4744-1",
    "Severity": "Medium",
    "Description": "CVE-2021-34558 affecting package golang 1.15.13-1. An upgraded version of the package is available that resolves this issue."
  },
  "Criteria": {
    "Operator": "AND",
    "Criterion": {
      "Comment": "Package golang is earlier than 1.16.7-1, affected by CVE-2021-34558",
      "TestRef": "oval:com.microsoft.cbl-mariner:tst:4744000"
    }
  }
}