{
  "Class": "vulnerability",
  "ID": "oval:com.microsoft.cbl-mariner:def:5486",
  "Version": "2000000000",
  "Metadata": {
    "Title": "CVE-2021-32690 affecting package helm 3.4.1-17",
    "Affected": {
      "Family": "unix",
      "Platform": "CBL-Mariner"
    },
    "Reference": {
      "RefID": "CVE-2021-32690",
      "RefURL": "https://nvd.nist.gov/vuln/detail/CVE-2021-32690",
      "Source": "CVE"
    },
    "Patchable": "true",
    "AdvisoryDate": "2021-10-05T03:00:53Z",
    "AdvisoryID": "5486",
    "Severity": "High",
    "Description": "CVE-2021-32690 affecting package helm 3.4.1-17. A patched version of the package is available."
  },
  "Criteria": {
    "Operator": "AND",
    "Criterion": {
      "Comment": "Package helm is earlier than 3.4.1-4, affected by CVE-2021-32690",
      "TestRef": "oval:com.microsoft.cbl-mariner:tst:5486000"
    }
  }
}