{
  "id": "GHSA-c5q2-7r4c-mv6g",
  "modified": "2024-06-21T16:29:28.170007Z",
  "published": "2024-03-07T22:54:44Z",
  "aliases": [
    "CGA-2j83-3mrr-q3pc",
    "CGA-39w9-7pc7-jqv7",
    "CGA-4frf-q488-fw25",
    "CGA-8gvh-h9r4-wc5v",
    "CGA-q5hm-r52v-wgmm",
    "CVE-2024-28180",
    "GO-2024-2631"
  ],
  "summary": "Go JOSE vulnerable to Improper Handling of Highly Compressed Data (Data Amplification)",
  "details": "### Impact\nAn attacker could send a JWE containing compressed data that used large amounts of memory and CPU when decompressed by Decrypt or DecryptMulti. Those functions now return an error if the decompressed data would exceed 250kB or 10x the compressed size (whichever is larger). Thanks to Enze Wang@Alioth and Jianjun Chen@Zhongguancun Lab (@zer0yu and @chenjj) for reporting.\n\n### Patches\nThe problem is fixed in the following packages and versions:\n- github.com/go-jose/go-jose/v4 version 4.0.1\n- github.com/go-jose/go-jose/v3 version 3.0.3\n- gopkg.in/go-jose/go-jose.v2 version 2.6.3\n\nThe problem will not be fixed in the following package because the package is archived:\n- gopkg.in/square/go-jose.v2",
  "affected": [
    {
      "package": {
        "ecosystem": "Go",
        "name": "github.com/go-jose/go-jose/v4",
        "purl": "pkg:golang/github.com/go-jose/go-jose/v4"
      },
      "ranges": [
        {
          "type": "SEMVER",
          "events": [
            {
              "introduced": "0"
            },
            {
              "fixed": "4.0.1"
            }
          ]
        }
      ],
      "database_specific": {
        "source": "https://github.com/github/advisory-database/blob/main/advisories/github-reviewed/2024/03/GHSA-c5q2-7r4c-mv6g/GHSA-c5q2-7r4c-mv6g.json"
      }
    },
    {
      "package": {
        "ecosystem": "Go",
        "name": "github.com/go-jose/go-jose/v3",
        "purl": "pkg:golang/github.com/go-jose/go-jose/v3"
      },
      "ranges": [
        {
          "type": "SEMVER",
          "events": [
            {
              "introduced": "0"
            },
            {
              "fixed": "3.0.3"
            }
          ]
        }
      ],
      "database_specific": {
        "source": "https://github.com/github/advisory-database/blob/main/advisories/github-reviewed/2024/03/GHSA-c5q2-7r4c-mv6g/GHSA-c5q2-7r4c-mv6g.json"
      }
    },
    {
      "package": {
        "ecosystem": "Go",
        "name": "gopkg.in/go-jose/go-jose.v2",
        "purl": "pkg:golang/gopkg.in/go-jose/go-jose.v2"
      },
      "ranges": [
        {
          "type": "SEMVER",
          "events": [
            {
              "introduced": "0"
            },
            {
              "fixed": "2.6.3"
            }
          ]
        }
      ],
      "database_specific": {
        "source": "https://github.com/github/advisory-database/blob/main/advisories/github-reviewed/2024/03/GHSA-c5q2-7r4c-mv6g/GHSA-c5q2-7r4c-mv6g.json"
      }
    },
    {
      "package": {
        "ecosystem": "Go",
        "name": "gopkg.in/square/go-jose.v2",
        "purl": "pkg:golang/gopkg.in/square/go-jose.v2"
      },
      "ranges": [
        {
          "type": "SEMVER",
          "events": [
            {
              "introduced": "0"
            },
            {
              "last_affected": "2.6.0"
            }
          ]
        }
      ],
      "database_specific": {
        "source": "https://github.com/github/advisory-database/blob/main/advisories/github-reviewed/2024/03/GHSA-c5q2-7r4c-mv6g/GHSA-c5q2-7r4c-mv6g.json"
      }
    }
  ],
  "references": [
    {
      "type": "WEB",
      "url": "https://github.com/go-jose/go-jose/security/advisories/GHSA-c5q2-7r4c-mv6g"
    },
    {
      "type": "ADVISORY",
      "url": "https://nvd.nist.gov/vuln/detail/CVE-2024-28180"
    },
    {
      "type": "WEB",
      "url": "https://github.com/go-jose/go-jose/commit/0dd4dd541c665fb292d664f77604ba694726f298"
    },
    {
      "type": "WEB",
      "url": "https://github.com/go-jose/go-jose/commit/add6a284ea0f844fd6628cba637be5451fe4b28a"
    },
    {
      "type": "WEB",
      "url": "https://github.com/go-jose/go-jose/commit/f4c051a0653d78199a053892f7619ebf96339502"
    },
    {
      "type": "PACKAGE",
      "url": "https://github.com/go-jose/go-jose"
    },
    {
      "type": "WEB",
      "url": "https://lists.fedoraproject.org/archives/list/package-announce@lists.fedoraproject.org/message/GD2GSBQTBLYADASUBHHZV2CZPTSLIPQJ"
    },
    {
      "type": "WEB",
      "url": "https://lists.fedoraproject.org/archives/list/package-announce@lists.fedoraproject.org/message/I6MMWFBOXJA6ZCXNVPDFJ4XMK5PVG5RG"
    },
    {
      "type": "WEB",
      "url": "https://lists.fedoraproject.org/archives/list/package-announce@lists.fedoraproject.org/message/IJ6LAJJ2FTA2JVVOACCV5RZTOIZLXUNJ"
    },
    {
      "type": "WEB",
      "url": "https://lists.fedoraproject.org/archives/list/package-announce@lists.fedoraproject.org/message/JNPMXL36YGS3GQEVI3Q5HKHJ7YAAQXL5"
    },
    {
      "type": "WEB",
      "url": "https://lists.fedoraproject.org/archives/list/package-announce@lists.fedoraproject.org/message/KXKGNCRU7OTM5AHC7YIYBNOWI742PRMY"
    },
    {
      "type": "WEB",
      "url": "https://lists.fedoraproject.org/archives/list/package-announce@lists.fedoraproject.org/message/MSOMHDKRPU3A2JEMRODT2IREDFBLVPGS"
    },
    {
      "type": "WEB",
      "url": "https://lists.fedoraproject.org/archives/list/package-announce@lists.fedoraproject.org/message/UG5FSEYJ3GP27FZXC5YAAMMEC5XWKJHG"
    },
    {
      "type": "WEB",
      "url": "https://lists.fedoraproject.org/archives/list/package-announce@lists.fedoraproject.org/message/UJO2U5ACZVACNQXJ5EBRFLFW6DP5BROY"
    },
    {
      "type": "WEB",
      "url": "https://lists.fedoraproject.org/archives/list/package-announce@lists.fedoraproject.org/message/XJDO5VSIAOGT2WP63AXAAWNRSVJCNCRH"
    }
  ]
}