{
  "id": "GHSA-5vcc-86wm-547q",
  "modified": "2024-03-20T14:48:46.577429Z",
  "published": "2024-03-16T09:30:35Z",
  "aliases": [
    "CVE-2024-22513"
  ],
  "summary": "Improper Privilege Management in djangorestframework-simplejwt",
  "details": "djangorestframework-simplejwt version 5.3.1 and before is vulnerable to information disclosure. A user can access web application resources even after their account has been disabled due to missing user validation checks via the for_user method.",
  "affected": [
    {
      "package": {
        "ecosystem": "PyPI",
        "name": "djangorestframework-simplejwt",
        "purl": "pkg:pypi/djangorestframework-simplejwt"
      },
      "ranges": [
        {
          "type": "ECOSYSTEM",
          "events": [
            {
              "introduced": "0"
            },
            {
              "last_affected": "5.3.1"
            }
          ]
        }
      ],
      "versions": [
        "1.0",
        "1.1",
        "1.2",
        "1.2.1",
        "1.3",
        "1.4",
        "1.5",
        "1.5.1",
        "2.0.0",
        "2.0.1",
        "2.0.2",
        "2.0.3",
        "2.0.4",
        "2.0.5",
        "2.1",
        "3.0",
        "3.1",
        "3.2",
        "3.2.1",
        "3.2.2",
        "3.2.3",
        "3.3",
        "4.0.0",
        "4.1.0",
        "4.1.1",
        "4.1.2",
        "4.1.3",
        "4.1.4",
        "4.1.5",
        "4.2.0",
        "4.3.0",
        "4.4.0",
        "4.5.0",
        "4.6.0",
        "4.7.0",
        "4.7.1",
        "4.7.2",
        "4.8.0",
        "5.0.0",
        "5.1.0",
        "5.2.0",
        "5.2.1",
        "5.2.2",
        "5.3.0",
        "5.3.1"
      ],
      "database_specific": {
        "source": "https://github.com/github/advisory-database/blob/main/advisories/github-reviewed/2024/03/GHSA-5vcc-86wm-547q/GHSA-5vcc-86wm-547q.json"
      }
    }
  ],
  "references": [
    {
      "type": "ADVISORY",
      "url": "https://nvd.nist.gov/vuln/detail/CVE-2024-22513"
    },
    {
      "type": "WEB",
      "url": "https://github.com/dmdhrumilmistry/CVEs/tree/main/CVE-2024-22513"
    },
    {
      "type": "PACKAGE",
      "url": "https://github.com/jazzband/djangorestframework-simplejwt"
    },
    {
      "type": "WEB",
      "url": "https://github.com/jazzband/djangorestframework-simplejwt/blob/c791e987332ed5e22a86428160d6372b1d85ffae/rest_framework_simplejwt/tokens.py#L281"
    }
  ]
}