{
  "Class": "vulnerability",
  "ID": "oval:com.microsoft.cbl-mariner:def:35452",
  "Version": "1",
  "Metadata": {
    "Title": "CVE-2024-26594 affecting package hyperv-daemons for versions less than 5.15.153.1-1",
    "Affected": {
      "Family": "unix",
      "Platform": "CBL-Mariner"
    },
    "Reference": {
      "RefID": "CVE-2024-26594",
      "RefURL": "https://nvd.nist.gov/vuln/detail/CVE-2024-26594",
      "Source": "CVE"
    },
    "Patchable": "true",
    "AdvisoryDate": "2024-04-09T20:48:36Z",
    "AdvisoryID": "35452-1",
    "Severity": "High",
    "Description": "CVE-2024-26594 affecting package hyperv-daemons for versions less than 5.15.153.1-1. An upgraded version of the package is available that resolves this issue."
  },
  "Criteria": {
    "Operator": "AND",
    "Criterion": {
      "Comment": "Package hyperv-daemons is earlier than 5.15.153.1-1, affected by CVE-2024-26594",
      "TestRef": "oval:com.microsoft.cbl-mariner:tst:35452000"
    }
  }
}