{
  "Class": "vulnerability",
  "ID": "oval:com.microsoft.cbl-mariner:def:35551",
  "Version": "1",
  "Metadata": {
    "Title": "CVE-2024-24786 affecting package azcopy for versions less than 10.24.0-1",
    "Affected": {
      "Family": "unix",
      "Platform": "CBL-Mariner"
    },
    "Reference": {
      "RefID": "CVE-2024-24786",
      "RefURL": "https://nvd.nist.gov/vuln/detail/CVE-2024-24786",
      "Source": "CVE"
    },
    "Patchable": "true",
    "AdvisoryDate": "2024-06-12T22:23:00Z",
    "AdvisoryID": "35551-1",
    "Severity": "Medium",
    "Description": "CVE-2024-24786 affecting package azcopy for versions less than 10.24.0-1. An upgraded version of the package is available that resolves this issue."
  },
  "Criteria": {
    "Operator": "AND",
    "Criterion": {
      "Comment": "Package azcopy is earlier than 10.24.0-1, affected by CVE-2024-24786",
      "TestRef": "oval:com.microsoft.cbl-mariner:tst:35551000"
    }
  }
}