{
  "Class": "vulnerability",
  "ID": "oval:com.microsoft.cbl-mariner:def:40070",
  "Version": "1",
  "Metadata": {
    "Title": "CVE-2024-2756 affecting package php for versions less than 8.1.28-1",
    "Affected": {
      "Family": "unix",
      "Platform": "CBL-Mariner"
    },
    "Reference": {
      "RefID": "CVE-2024-2756",
      "RefURL": "https://nvd.nist.gov/vuln/detail/CVE-2024-2756",
      "Source": "CVE"
    },
    "Patchable": "true",
    "AdvisoryDate": "2024-05-06T17:48:02Z",
    "AdvisoryID": "40070-1",
    "Severity": "Medium",
    "Description": "CVE-2024-2756 affecting package php for versions less than 8.1.28-1. An upgraded version of the package is available that resolves this issue."
  },
  "Criteria": {
    "Operator": "AND",
    "Criterion": {
      "Comment": "Package php is earlier than 8.1.28-1, affected by CVE-2024-2756",
      "TestRef": "oval:com.microsoft.cbl-mariner:tst:40070000"
    }
  }
}