{
  "Class": "vulnerability",
  "ID": "oval:com.microsoft.cbl-mariner:def:40428",
  "Version": "1",
  "Metadata": {
    "Title": "CVE-2024-24787 affecting package msft-golang for versions less than 1.22.3",
    "Affected": {
      "Family": "unix",
      "Platform": "CBL-Mariner"
    },
    "Reference": {
      "RefID": "CVE-2024-24787",
      "RefURL": "https://nvd.nist.gov/vuln/detail/CVE-2024-24787",
      "Source": "CVE"
    },
    "Patchable": "true",
    "AdvisoryID": "40428-1",
    "Severity": "Medium",
    "Description": "CVE-2024-24787 affecting package msft-golang for versions less than 1.22.3. A patched version of the package is available."
  },
  "Criteria": {
    "Operator": "AND",
    "Criterion": {
      "Comment": "Package msft-golang is earlier than 1.22.3, affected by CVE-2024-24787",
      "TestRef": "oval:com.microsoft.cbl-mariner:tst:40428000"
    }
  }
}