{
  "Class": "vulnerability",
  "ID": "oval:com.microsoft.cbl-mariner:def:42046",
  "Version": "1",
  "Metadata": {
    "Title": "CVE-2024-32465 affecting package git for versions less than 2.39.4-1",
    "Affected": {
      "Family": "unix",
      "Platform": "CBL-Mariner"
    },
    "Reference": {
      "RefID": "CVE-2024-32465",
      "RefURL": "https://nvd.nist.gov/vuln/detail/CVE-2024-32465",
      "Source": "CVE"
    },
    "Patchable": "true",
    "AdvisoryDate": "2024-05-28T18:18:21Z",
    "AdvisoryID": "42046-1",
    "Severity": "High",
    "Description": "CVE-2024-32465 affecting package git for versions less than 2.39.4-1. An upgraded version of the package is available that resolves this issue."
  },
  "Criteria": {
    "Operator": "AND",
    "Criterion": {
      "Comment": "Package git is earlier than 2.39.4-1, affected by CVE-2024-32465",
      "TestRef": "oval:com.microsoft.cbl-mariner:tst:42046000"
    }
  }
}