{
  "Class": "vulnerability",
  "ID": "oval:com.microsoft.cbl-mariner:def:42136",
  "Version": "1",
  "Metadata": {
    "Title": "CVE-2024-35912 affecting package hyperv-daemons for versions less than 5.15.158.1-1",
    "Affected": {
      "Family": "unix",
      "Platform": "CBL-Mariner"
    },
    "Reference": {
      "RefID": "CVE-2024-35912",
      "RefURL": "https://nvd.nist.gov/vuln/detail/CVE-2024-35912",
      "Source": "CVE"
    },
    "Patchable": "true",
    "AdvisoryDate": "2024-06-12T22:23:00Z",
    "AdvisoryID": "42136-1",
    "Severity": "Medium",
    "Description": "CVE-2024-35912 affecting package hyperv-daemons for versions less than 5.15.158.1-1. An upgraded version of the package is available that resolves this issue."
  },
  "Criteria": {
    "Operator": "AND",
    "Criterion": {
      "Comment": "Package hyperv-daemons is earlier than 5.15.158.1-1, affected by CVE-2024-35912",
      "TestRef": "oval:com.microsoft.cbl-mariner:tst:42136000"
    }
  }
}