{
  "Severity": "HIGH",
  "UpdatedAt": "2024-06-17T21:23:05Z",
  "Package": {
    "Ecosystem": "COMPOSER",
    "Name": "snipe/snipe-it"
  },
  "Advisory": {
    "DatabaseId": 250252,
    "Id": "GSA_kwCzR0hTQS01NDRyLWZjNjUtdjgzMs4AA9GM",
    "GhsaId": "GHSA-544r-fc65-v832",
    "References": [
      {
        "Url": "https://nvd.nist.gov/vuln/detail/CVE-2024-5685"
      },
      {
        "Url": "https://github.com/snipe/snipe-it/pull/14745"
      },
      {
        "Url": "https://github.com/snipe/snipe-it/commit/34f1ea1c0ecd403047cd1327569ee391a7201cc1"
      },
      {
        "Url": "https://github.com/snipe/snipe-it/releases/tag/v6.4.2"
      },
      {
        "Url": "https://devhub.checkmarx.com/cve-details/CVE-2024-5685"
      },
      {
        "Url": "https://advisory.checkmarx.net/?search=CVE-2024-5685"
      },
      {
        "Url": "https://github.com/advisories/GHSA-544r-fc65-v832"
      }
    ],
    "Identifiers": [
      {
        "Type": "GHSA",
        "Value": "GHSA-544r-fc65-v832"
      },
      {
        "Type": "CVE",
        "Value": "CVE-2024-5685"
      }
    ],
    "Description": "Users with \"User:edit\" and \"Self:api\" permissions can promote or demote themselves or other users by performing changes to the group's memberships via API call.This issue affects snipe-it: from v4.6.17 through v6.4.1.",
    "Origin": "UNSPECIFIED",
    "PublishedAt": "2024-06-14T12:30:50Z",
    "Severity": "HIGH",
    "Summary": "Snipe-IT allows users to promote or demote themselves or other users",
    "UpdatedAt": "2024-06-19T14:34:16Z",
    "WithdrawnAt": "",
    "CVSS": {
      "Score": 8.1,
      "VectorString": "CVSS:3.1/AV:N/AC:L/PR:L/UI:N/S:U/C:H/I:H/A:N"
    }
  },
  "Versions": [
    {
      "FirstPatchedVersion": {
        "Identifier": "6.4.2"
      },
      "VulnerableVersionRange": "\u003c 6.4.2"
    }
  ]
}