{
  "name": "aws-network-policy-agent",
  "secfixes": {
    "1.1.0-r1": [
      "CVE-2023-45288",
      "GHSA-4v7x-pqxf-cx7m"
    ]
  },
  "apkurl": "{{urlprefix}}/{{reponame}}/{{arch}}/{{pkg.name}}-{{pkg.ver}}.apk",
  "archs": [
    "aarch64",
    "x86_64"
  ],
  "urlprefix": "https://packages.cgr.dev",
  "reponame": "chainguard"
}