{
  "name": "bouncycastle-fips",
  "secfixes": {
    "1.0.2.5-r1": [
      "CVE-2024-29857",
      "GHSA-8xfc-gm6g-vgpv"
    ]
  },
  "apkurl": "{{urlprefix}}/{{reponame}}/{{arch}}/{{pkg.name}}-{{pkg.ver}}.apk",
  "archs": [
    "aarch64",
    "x86_64"
  ],
  "urlprefix": "https://packages.cgr.dev",
  "reponame": "chainguard"
}