{
  "name": "calico",
  "secfixes": {
    "0": [
      "CVE-2019-11255",
      "CVE-2020-13597",
      "CVE-2020-8552",
      "CVE-2022-28224",
      "CVE-2023-41378",
      "CVE-2023-45283",
      "CVE-2023-45284",
      "CVE-2024-33522",
      "GHSA-5r5h-q934-cccp",
      "GHSA-6362-gv4m-53ww",
      "GHSA-82hx-w2r5-c2wq",
      "GHSA-9394-xfq9-6qrp",
      "GHSA-f4w6-3rh6-6q4q",
      "GHSA-pf59-j7c2-rh6x",
      "GHSA-rq3x-83w4-p28c",
      "GHSA-vvjp-q62m-2vph"
    ],
    "3.26.1-r5": [
      "CVE-2023-2727",
      "CVE-2023-32731",
      "GHSA-cfgp-2977-2fmm",
      "GHSA-qc2g-gmh6-95p4"
    ],
    "3.26.3-r4": [
      "CVE-2023-44487",
      "CVE-2023-45142",
      "GHSA-m425-mq94-257g",
      "GHSA-qppj-fm5r-hxr3",
      "GHSA-rcjv-mgp8-qvmr"
    ],
    "3.26.3-r5": [
      "CVE-2023-3955",
      "GHSA-q78c-gwqw-jcmc"
    ],
    "3.26.4-r1": [
      "CVE-2023-5528",
      "GHSA-hq6q-c2x6-hmch"
    ],
    "3.27.0-r0": [
      "CVE-2023-48795",
      "GHSA-45x7-px36-x8w8"
    ],
    "3.27.2-r2": [
      "CVE-2023-45289",
      "CVE-2023-45290",
      "CVE-2024-24783",
      "CVE-2024-24784",
      "CVE-2024-24785",
      "GHSA-32ch-6x54-q4h9",
      "GHSA-3q2c-pvp5-3cqp",
      "GHSA-fgq5-q76c-gx78",
      "GHSA-j6m3-gc37-6r6q",
      "GHSA-rr6r-cfgf-gc6h"
    ],
    "3.27.2-r3": [
      "CVE-2024-24786",
      "GHSA-8r3f-844c-mc37"
    ],
    "3.27.3-r1": [
      "CVE-2023-45288",
      "GHSA-4v7x-pqxf-cx7m"
    ],
    "3.28.0-r0": [
      "CVE-2024-3177",
      "GHSA-pxhw-596r-rwq5"
    ]
  },
  "apkurl": "{{urlprefix}}/{{reponame}}/{{arch}}/{{pkg.name}}-{{pkg.ver}}.apk",
  "archs": [
    "aarch64",
    "x86_64"
  ],
  "urlprefix": "https://packages.cgr.dev",
  "reponame": "chainguard"
}