{
  "name": "coredns-fips",
  "secfixes": {
    "0": [
      "CVE-2022-2835",
      "CVE-2022-2837",
      "GHSA-ch7v-37xg-75ph",
      "GHSA-h828-v5pv-33qx"
    ],
    "1.11.1-r4": [
      "CVE-2023-45288",
      "GHSA-4v7x-pqxf-cx7m"
    ],
    "1.11.3-r0": [
      "CVE-2024-0874",
      "GHSA-gv9j-4w24-q7vx",
      "GHSA-m9w6-wp3h-vq8g"
    ],
    "1.11.3-r1": [
      "CVE-2024-24787",
      "CVE-2024-24788",
      "GHSA-2jwv-jmq4-4j3r",
      "GHSA-5fq7-4mxc-535h"
    ],
    "1.11.3-r3": [
      "CVE-2024-24789",
      "CVE-2024-24790",
      "GHSA-236w-p7wf-5ph8",
      "GHSA-49gw-vxvf-fc2g"
    ]
  },
  "apkurl": "{{urlprefix}}/{{reponame}}/{{arch}}/{{pkg.name}}-{{pkg.ver}}.apk",
  "archs": [
    "aarch64",
    "x86_64"
  ],
  "urlprefix": "https://packages.cgr.dev",
  "reponame": "chainguard"
}