{
  "name": "ctop",
  "secfixes": {
    "0": [
      "CVE-2023-45283",
      "CVE-2023-45284",
      "GHSA-rq3x-83w4-p28c",
      "GHSA-vvjp-q62m-2vph"
    ],
    "0.7.7-r10": [
      "CVE-2023-39326",
      "CVE-2023-45285",
      "GHSA-5f94-vhjq-rpg8",
      "GHSA-9f76-wg39-x86h"
    ],
    "0.7.7-r11": [
      "CVE-2023-45289",
      "CVE-2023-45290",
      "CVE-2024-24783",
      "CVE-2024-24784",
      "CVE-2024-24785",
      "GHSA-32ch-6x54-q4h9",
      "GHSA-3q2c-pvp5-3cqp",
      "GHSA-fgq5-q76c-gx78",
      "GHSA-j6m3-gc37-6r6q",
      "GHSA-rr6r-cfgf-gc6h"
    ],
    "0.7.7-r13": [
      "CVE-2020-15257",
      "CVE-2021-21334",
      "CVE-2021-3121",
      "CVE-2021-32760",
      "CVE-2021-41103",
      "CVE-2022-23471",
      "CVE-2022-23648",
      "CVE-2022-24769",
      "CVE-2022-29162",
      "CVE-2022-29526",
      "CVE-2022-31030",
      "CVE-2023-25153",
      "CVE-2023-25173",
      "CVE-2023-25809",
      "CVE-2023-27561",
      "CVE-2023-28642",
      "CVE-2023-28840",
      "CVE-2023-28841",
      "CVE-2023-28842",
      "CVE-2024-21626",
      "CVE-2024-24557",
      "CVE-2024-24786",
      "CVE-2024-29018",
      "GHSA-232p-vwff-86mp",
      "GHSA-259w-8hf6-59c2",
      "GHSA-2mm7-x5h6-5pvq",
      "GHSA-2qjp-425j-52j9",
      "GHSA-33pg-m6jh-5237",
      "GHSA-36xw-fx78-c5r4",
      "GHSA-5ffw-gxpp-mxpf",
      "GHSA-5j5w-g665-5m35",
      "GHSA-6g2q-w5j3-fwh4",
      "GHSA-6wrf-mxfj-pf5p",
      "GHSA-6xv5-86q9-7xr8",
      "GHSA-77vh-xpmg-72qh",
      "GHSA-7ww5-4wqc-m92c",
      "GHSA-8r3f-844c-mc37",
      "GHSA-c2h3-6mxw-7mvq",
      "GHSA-c3h9-896r-86jm",
      "GHSA-c72p-9xmj-rx3w",
      "GHSA-crp2-qrr5-8pq7",
      "GHSA-f3fp-gc8g-vw66",
      "GHSA-g2j6-57v7-gm8c",
      "GHSA-hmfx-3pcx-653p",
      "GHSA-jq35-85cj-fj4p",
      "GHSA-m8cg-xc2p-r3fc",
      "GHSA-mq39-4gv4-mvpx",
      "GHSA-p782-xgp4-8hr8",
      "GHSA-vpvm-3wq2-2wvm",
      "GHSA-xr7r-f8xq-vfvv",
      "GHSA-xw73-rw38-6vjc"
    ],
    "0.7.7-r14": [
      "CVE-2024-24787",
      "CVE-2024-24788",
      "GHSA-2jwv-jmq4-4j3r",
      "GHSA-5fq7-4mxc-535h"
    ],
    "0.7.7-r15": [
      "CVE-2024-24789",
      "CVE-2024-24790",
      "GHSA-236w-p7wf-5ph8",
      "GHSA-49gw-vxvf-fc2g"
    ]
  },
  "apkurl": "{{urlprefix}}/{{reponame}}/{{arch}}/{{pkg.name}}-{{pkg.ver}}.apk",
  "archs": [
    "aarch64",
    "x86_64"
  ],
  "urlprefix": "https://packages.cgr.dev",
  "reponame": "chainguard"
}