{
  "name": "falcosidekick-fips",
  "secfixes": {
    "2.28.0-r2": [
      "CVE-2024-28110",
      "GHSA-5pf6-2qwx-pxm2"
    ],
    "2.28.0-r3": [
      "CVE-2024-24786",
      "CVE-2024-27304",
      "GHSA-7jwh-3vrq-q3m8",
      "GHSA-8r3f-844c-mc37",
      "GHSA-mrww-27vc-gghv"
    ],
    "2.28.0-r6": [
      "CVE-2023-45288",
      "GHSA-4v7x-pqxf-cx7m"
    ],
    "2.28.0-r7": [
      "CVE-2024-24787",
      "CVE-2024-24788",
      "GHSA-2jwv-jmq4-4j3r",
      "GHSA-5fq7-4mxc-535h"
    ],
    "2.28.0-r9": [
      "CVE-2024-24789",
      "CVE-2024-24790",
      "GHSA-236w-p7wf-5ph8",
      "GHSA-49gw-vxvf-fc2g"
    ]
  },
  "apkurl": "{{urlprefix}}/{{reponame}}/{{arch}}/{{pkg.name}}-{{pkg.ver}}.apk",
  "archs": [
    "aarch64",
    "x86_64"
  ],
  "urlprefix": "https://packages.cgr.dev",
  "reponame": "chainguard"
}