{
  "name": "flux-helm-controller-0.37",
  "secfixes": {
    "0": [
      "CVE-2019-25210",
      "CVE-2020-8552",
      "GHSA-6xv5-86q9-7xr8",
      "GHSA-82hx-w2r5-c2wq",
      "GHSA-jq35-85cj-fj4p",
      "GHSA-jw44-4f3j-q396"
    ],
    "0.27.0-r2": [
      "CVE-2023-39325",
      "CVE-2023-3978",
      "GHSA-2wrh-6pvc-2jm9",
      "GHSA-4374-p667-p6c8"
    ],
    "0.27.0-r3": [
      "CVE-2023-44487",
      "GHSA-m425-mq94-257g",
      "GHSA-qppj-fm5r-hxr3"
    ],
    "0.27.0-r6": [
      "CVE-2023-48795",
      "GHSA-45x7-px36-x8w8"
    ],
    "0.27.0-r7": [
      "CVE-2022-23471",
      "CVE-2022-23524",
      "CVE-2022-23525",
      "CVE-2022-23526",
      "CVE-2023-2253",
      "CVE-2023-25153",
      "CVE-2023-25165",
      "CVE-2023-25173",
      "CVE-2023-28840",
      "CVE-2023-28841",
      "CVE-2023-28842",
      "GHSA-232p-vwff-86mp",
      "GHSA-259w-8hf6-59c2",
      "GHSA-2qjp-425j-52j9",
      "GHSA-33pg-m6jh-5237",
      "GHSA-53c4-hhmh-vw5q",
      "GHSA-67fx-wx78-jx33",
      "GHSA-6rx9-889q-vv2r",
      "GHSA-6wrf-mxfj-pf5p",
      "GHSA-7ww5-4wqc-m92c",
      "GHSA-hmfx-3pcx-653p",
      "GHSA-hqxw-f8mx-cpmw",
      "GHSA-pwcw-6f5g-gxf8"
    ],
    "0.27.0-r8": [
      "CVE-2023-45289",
      "CVE-2023-45290",
      "CVE-2024-24783",
      "CVE-2024-24784",
      "CVE-2024-24785",
      "CVE-2024-24786",
      "GHSA-32ch-6x54-q4h9",
      "GHSA-3q2c-pvp5-3cqp",
      "GHSA-8r3f-844c-mc37",
      "GHSA-fgq5-q76c-gx78",
      "GHSA-j6m3-gc37-6r6q",
      "GHSA-rr6r-cfgf-gc6h"
    ]
  },
  "apkurl": "{{urlprefix}}/{{reponame}}/{{arch}}/{{pkg.name}}-{{pkg.ver}}.apk",
  "archs": [
    "aarch64",
    "x86_64"
  ],
  "urlprefix": "https://packages.cgr.dev",
  "reponame": "chainguard"
}