{
  "name": "ghaudit",
  "secfixes": {
    "0.4.0-r1": [
      "CVE-2020-8559",
      "CVE-2023-45288",
      "GHSA-33c5-9fx5-fvjm",
      "GHSA-4v7x-pqxf-cx7m"
    ],
    "0.4.0-r3": [
      "CVE-2024-24787",
      "CVE-2024-24788",
      "GHSA-2jwv-jmq4-4j3r",
      "GHSA-5fq7-4mxc-535h"
    ],
    "0.4.0-r4": [
      "CVE-2024-24789",
      "CVE-2024-24790",
      "GHSA-236w-p7wf-5ph8",
      "GHSA-49gw-vxvf-fc2g"
    ]
  },
  "apkurl": "{{urlprefix}}/{{reponame}}/{{arch}}/{{pkg.name}}-{{pkg.ver}}.apk",
  "archs": [
    "aarch64",
    "x86_64"
  ],
  "urlprefix": "https://packages.cgr.dev",
  "reponame": "chainguard"
}