{
  "name": "gitlab-runner",
  "secfixes": {
    "0": [
      "CVE-2023-45283",
      "CVE-2023-45284",
      "GHSA-rq3x-83w4-p28c",
      "GHSA-vvjp-q62m-2vph"
    ],
    "16.5.0-r0": [
      "CVE-2023-39325",
      "CVE-2023-3978",
      "CVE-2023-44487",
      "GHSA-2wrh-6pvc-2jm9",
      "GHSA-4374-p667-p6c8",
      "GHSA-qppj-fm5r-hxr3"
    ],
    "16.7.0-r0": [
      "CVE-2023-48795",
      "GHSA-45x7-px36-x8w8"
    ],
    "16.8.0-r1": [
      "CVE-2023-45289",
      "CVE-2023-45290",
      "CVE-2024-24783",
      "CVE-2024-24784",
      "CVE-2024-24785",
      "GHSA-32ch-6x54-q4h9",
      "GHSA-3q2c-pvp5-3cqp",
      "GHSA-fgq5-q76c-gx78",
      "GHSA-j6m3-gc37-6r6q",
      "GHSA-rr6r-cfgf-gc6h"
    ],
    "16.8.0-r2": [
      "CVE-2024-24786",
      "GHSA-8r3f-844c-mc37"
    ],
    "16.8.0-r3": [
      "CVE-2023-45288",
      "GHSA-4v7x-pqxf-cx7m"
    ],
    "16.8.0-r4": [
      "CVE-2024-24557",
      "GHSA-xw73-rw38-6vjc"
    ],
    "16.8.0-r5": [
      "CVE-2024-24787",
      "CVE-2024-24788",
      "GHSA-2jwv-jmq4-4j3r",
      "GHSA-5fq7-4mxc-535h"
    ],
    "17.0.0-r1": [
      "CVE-2024-24789",
      "CVE-2024-24790",
      "GHSA-236w-p7wf-5ph8",
      "GHSA-49gw-vxvf-fc2g"
    ],
    "17.0.0-r2": [
      "CVE-2024-35255",
      "GHSA-m5vv-6r4h-3vj9"
    ]
  },
  "apkurl": "{{urlprefix}}/{{reponame}}/{{arch}}/{{pkg.name}}-{{pkg.ver}}.apk",
  "archs": [
    "aarch64",
    "x86_64"
  ],
  "urlprefix": "https://packages.cgr.dev",
  "reponame": "chainguard"
}