{
  "name": "gitsign",
  "secfixes": {
    "0": [
      "CVE-2023-45283",
      "CVE-2023-45284",
      "GHSA-rq3x-83w4-p28c",
      "GHSA-vvjp-q62m-2vph"
    ],
    "0.10.1-r2": [
      "CVE-2024-29902",
      "CVE-2024-29903",
      "GHSA-88jx-383q-w4qc",
      "GHSA-95pr-fxf5-86gv"
    ],
    "0.10.1-r3": [
      "CVE-2023-45288",
      "GHSA-4v7x-pqxf-cx7m"
    ],
    "0.10.2-r2": [
      "CVE-2024-24789",
      "CVE-2024-24790",
      "GHSA-236w-p7wf-5ph8",
      "GHSA-49gw-vxvf-fc2g"
    ],
    "0.8.1-r0": [
      "CVE-2023-48795",
      "CVE-2023-49290",
      "CVE-2023-49568",
      "CVE-2023-49569",
      "CVE-2024-21664",
      "GHSA-2c7c-3mj9-8fqh",
      "GHSA-449p-3h89-pw88",
      "GHSA-45x7-px36-x8w8",
      "GHSA-7f9x-gw85-8grf",
      "GHSA-9763-4f94-gfch",
      "GHSA-mw99-9chc-xw7r",
      "GHSA-pvcr-v8j8-j5q3"
    ],
    "0.8.1-r3": [
      "CVE-2024-28180",
      "GHSA-c5q2-7r4c-mv6g"
    ],
    "0.8.1-r4": [
      "CVE-2024-24786",
      "GHSA-8r3f-844c-mc37"
    ],
    "0.8.1-r5": [
      "CVE-2024-24557",
      "GHSA-xw73-rw38-6vjc"
    ]
  },
  "apkurl": "{{urlprefix}}/{{reponame}}/{{arch}}/{{pkg.name}}-{{pkg.ver}}.apk",
  "archs": [
    "aarch64",
    "x86_64"
  ],
  "urlprefix": "https://packages.cgr.dev",
  "reponame": "chainguard"
}