{
  "name": "grafana-operator-fips",
  "secfixes": {
    "5.6.3-r2": [
      "CVE-2023-45289",
      "CVE-2023-45290",
      "CVE-2024-24783",
      "CVE-2024-24784",
      "CVE-2024-24785",
      "GHSA-32ch-6x54-q4h9",
      "GHSA-3q2c-pvp5-3cqp",
      "GHSA-fgq5-q76c-gx78",
      "GHSA-j6m3-gc37-6r6q",
      "GHSA-rr6r-cfgf-gc6h"
    ],
    "5.7.0-r0": [
      "CVE-2024-24786",
      "GHSA-8r3f-844c-mc37"
    ],
    "5.8.1-r3": [
      "CVE-2023-45288",
      "GHSA-4v7x-pqxf-cx7m"
    ],
    "5.9.2-r1": [
      "CVE-2024-24789",
      "CVE-2024-24790",
      "GHSA-236w-p7wf-5ph8",
      "GHSA-49gw-vxvf-fc2g"
    ]
  },
  "apkurl": "{{urlprefix}}/{{reponame}}/{{arch}}/{{pkg.name}}-{{pkg.ver}}.apk",
  "archs": [
    "aarch64",
    "x86_64"
  ],
  "urlprefix": "https://packages.cgr.dev",
  "reponame": "chainguard"
}