{
  "name": "grpc-health-probe",
  "secfixes": {
    "0": [
      "CVE-2023-45283",
      "CVE-2023-45284",
      "GHSA-rq3x-83w4-p28c",
      "GHSA-vvjp-q62m-2vph"
    ],
    "0.4.24-r1": [
      "CVE-2023-48795",
      "GHSA-45x7-px36-x8w8"
    ],
    "0.4.24-r3": [
      "CVE-2024-28180",
      "GHSA-c5q2-7r4c-mv6g"
    ],
    "0.4.25-r0": [
      "CVE-2024-24786",
      "GHSA-8r3f-844c-mc37"
    ],
    "0.4.25-r1": [
      "CVE-2023-45288",
      "GHSA-4v7x-pqxf-cx7m"
    ],
    "0.4.26-r3": [
      "CVE-2024-24789",
      "CVE-2024-24790",
      "GHSA-236w-p7wf-5ph8",
      "GHSA-49gw-vxvf-fc2g"
    ]
  },
  "apkurl": "{{urlprefix}}/{{reponame}}/{{arch}}/{{pkg.name}}-{{pkg.ver}}.apk",
  "archs": [
    "aarch64",
    "x86_64"
  ],
  "urlprefix": "https://packages.cgr.dev",
  "reponame": "chainguard"
}