{
  "name": "helm",
  "secfixes": {
    "0": [
      "CVE-2019-25210",
      "CVE-2020-8552",
      "CVE-2023-45283",
      "CVE-2023-45284",
      "GHSA-6xv5-86q9-7xr8",
      "GHSA-82hx-w2r5-c2wq",
      "GHSA-jq35-85cj-fj4p",
      "GHSA-jw44-4f3j-q396",
      "GHSA-rq3x-83w4-p28c",
      "GHSA-vvjp-q62m-2vph"
    ],
    "3.11.1-r0": [
      "CVE-2023-25165",
      "GHSA-pwcw-6f5g-gxf8"
    ],
    "3.12.2-r1": [
      "CVE-2023-28840",
      "CVE-2023-28841",
      "CVE-2023-28842",
      "GHSA-232p-vwff-86mp",
      "GHSA-33pg-m6jh-5237",
      "GHSA-6wrf-mxfj-pf5p"
    ],
    "3.13.1-r1": [
      "CVE-2023-39325",
      "CVE-2023-3978",
      "GHSA-2wrh-6pvc-2jm9",
      "GHSA-4374-p667-p6c8"
    ],
    "3.13.1-r2": [
      "CVE-2023-44487",
      "GHSA-m425-mq94-257g",
      "GHSA-qppj-fm5r-hxr3"
    ],
    "3.13.3-r1": [
      "CVE-2023-48795",
      "GHSA-45x7-px36-x8w8"
    ],
    "3.13.3-r2": [
      "GHSA-7ww5-4wqc-m92c"
    ],
    "3.14.2-r1": [
      "CVE-2023-45289",
      "CVE-2023-45290",
      "CVE-2024-24783",
      "CVE-2024-24784",
      "CVE-2024-24785",
      "GHSA-32ch-6x54-q4h9",
      "GHSA-3q2c-pvp5-3cqp",
      "GHSA-fgq5-q76c-gx78",
      "GHSA-j6m3-gc37-6r6q",
      "GHSA-rr6r-cfgf-gc6h"
    ],
    "3.14.3-r1": [
      "CVE-2024-24786",
      "GHSA-8r3f-844c-mc37"
    ],
    "3.14.3-r3": [
      "CVE-2024-24557",
      "GHSA-xw73-rw38-6vjc"
    ],
    "3.14.4-r0": [
      "CVE-2023-45288",
      "GHSA-4v7x-pqxf-cx7m"
    ],
    "3.14.4-r3": [
      "CVE-2024-24787",
      "CVE-2024-24788",
      "GHSA-2jwv-jmq4-4j3r",
      "GHSA-5fq7-4mxc-535h"
    ],
    "3.15.1-r1": [
      "CVE-2024-24789",
      "CVE-2024-24790",
      "GHSA-236w-p7wf-5ph8",
      "GHSA-49gw-vxvf-fc2g"
    ]
  },
  "apkurl": "{{urlprefix}}/{{reponame}}/{{arch}}/{{pkg.name}}-{{pkg.ver}}.apk",
  "archs": [
    "aarch64",
    "x86_64"
  ],
  "urlprefix": "https://packages.cgr.dev",
  "reponame": "chainguard"
}