{
  "name": "ingress-nginx-controller-fips-1.9",
  "secfixes": {
    "0": [
      "CVE-2018-1002104",
      "CVE-2020-8553",
      "CVE-2021-25745",
      "CVE-2021-25748",
      "CVE-2022-4886",
      "CVE-2023-5043",
      "CVE-2023-5044",
      "GHSA-5wj4-wffq-3378",
      "GHSA-863x-868h-968x",
      "GHSA-fp9f-44c2-cw27",
      "GHSA-gvrm-w2f9-f77q",
      "GHSA-hhpm-74pm-hf35",
      "GHSA-p3x5-5xpx-9phm",
      "GHSA-pvmg-xgmx-9mxh"
    ],
    "1.9.6-r1": [
      "CVE-2024-3154",
      "GHSA-2cgq-h8xw-2v5j",
      "GHSA-c5pj-mqfh-rvc3"
    ],
    "1.9.6-r5": [
      "CVE-2024-24789",
      "CVE-2024-24790",
      "GHSA-236w-p7wf-5ph8",
      "GHSA-49gw-vxvf-fc2g"
    ]
  },
  "apkurl": "{{urlprefix}}/{{reponame}}/{{arch}}/{{pkg.name}}-{{pkg.ver}}.apk",
  "archs": [
    "aarch64",
    "x86_64"
  ],
  "urlprefix": "https://packages.cgr.dev",
  "reponame": "chainguard"
}