{
  "name": "k3d",
  "secfixes": {
    "0": [
      "CVE-2023-45283",
      "CVE-2023-45284",
      "GHSA-rq3x-83w4-p28c",
      "GHSA-vvjp-q62m-2vph"
    ],
    "5.6.0-r11": [
      "CVE-2018-19653",
      "CVE-2019-11254",
      "CVE-2019-11840",
      "CVE-2019-11841",
      "CVE-2019-9512",
      "CVE-2019-9514",
      "CVE-2019-9764",
      "CVE-2020-14040",
      "CVE-2020-16250",
      "CVE-2020-25864",
      "CVE-2020-29652",
      "CVE-2020-7219",
      "CVE-2020-7919",
      "CVE-2020-8911",
      "CVE-2020-8912",
      "CVE-2020-9283",
      "CVE-2021-3121",
      "CVE-2021-31525",
      "CVE-2021-32574",
      "CVE-2021-32923",
      "CVE-2021-33194",
      "CVE-2021-36213",
      "CVE-2021-37219",
      "CVE-2021-38554",
      "CVE-2021-38561",
      "CVE-2021-38698",
      "CVE-2021-41802",
      "CVE-2021-4235",
      "CVE-2021-43565",
      "CVE-2022-2582",
      "CVE-2022-27191",
      "CVE-2022-27664",
      "CVE-2022-29153",
      "CVE-2022-29526",
      "CVE-2022-3064",
      "CVE-2022-32149",
      "CVE-2022-40716",
      "CVE-2022-41316",
      "CVE-2022-41723",
      "CVE-2023-0620",
      "CVE-2023-0665",
      "CVE-2023-1297",
      "CVE-2023-2121",
      "CVE-2023-24999",
      "CVE-2023-25000",
      "CVE-2023-3462",
      "CVE-2023-45288",
      "CVE-2023-5077",
      "CVE-2023-5954",
      "CVE-2024-2048",
      "CVE-2024-2660",
      "GHSA-23jv-v6qj-3fhh",
      "GHSA-25gf-8qrr-g78r",
      "GHSA-38j9-7pp9-2hjw",
      "GHSA-39qc-96h7-956f",
      "GHSA-3vm4-22fp-5rfm",
      "GHSA-4qhc-v8r6-8vwm",
      "GHSA-4qvx-qq5w-695p",
      "GHSA-4v7x-pqxf-cx7m",
      "GHSA-5rcv-m4m3-hfh7",
      "GHSA-6239-28c2-9mrm",
      "GHSA-69cg-p879-7622",
      "GHSA-69ch-w2m2-3vjp",
      "GHSA-6hw5-6gcx-phmw",
      "GHSA-6jvc-q2x7-pchv",
      "GHSA-6q6q-88xp-6f2r",
      "GHSA-76wf-9vgp-pj7w",
      "GHSA-7f33-f4f5-xwgw",
      "GHSA-83g2-8m93-v3w7",
      "GHSA-86c6-3g63-5w64",
      "GHSA-8c26-wmh5-6g9v",
      "GHSA-8h2g-r292-j8xh",
      "GHSA-8xmx-h8rq-h94j",
      "GHSA-9mh8-9j64-443f",
      "GHSA-9v3w-w2jh-4hff",
      "GHSA-c3h9-896r-86jm",
      "GHSA-c57c-7hrj-6q6v",
      "GHSA-ccw8-7688-vqx4",
      "GHSA-cjjc-xp8v-855w",
      "GHSA-f5pg-7wfw-84q9",
      "GHSA-ffhg-7mh4-33c4",
      "GHSA-fp52-qw33-mfmw",
      "GHSA-gq98-53rq-qr5h",
      "GHSA-gwc9-m7rh-j2ww",
      "GHSA-h86h-8ppg-mxmh",
      "GHSA-hgr8-6h9x-f7q9",
      "GHSA-hwc3-3qh6-r4gg",
      "GHSA-j2rp-gmqv-frhv",
      "GHSA-m425-mq94-257g",
      "GHSA-m69r-9g56-7mv8",
      "GHSA-p782-xgp4-8hr8",
      "GHSA-ppp9-7jff-5vj2",
      "GHSA-q6h7-4qgw-2j9p",
      "GHSA-q7fx-wm2p-qfj8",
      "GHSA-qv95-g3gm-x542",
      "GHSA-r3w7-mfpm-c2vw",
      "GHSA-r5c5-pr8j-pfp7",
      "GHSA-r88r-gmrh-7j83",
      "GHSA-v3hp-mcj5-pg39",
      "GHSA-vq4h-9ghm-qmrr",
      "GHSA-vvpx-j8f3-3w6h",
      "GHSA-wmg5-g953-qqfw",
      "GHSA-wxc4-f4m6-wwqv",
      "GHSA-x3jr-pf6g-c48f"
    ],
    "5.6.0-r5": [
      "CVE-2023-39326",
      "CVE-2023-45285",
      "GHSA-5f94-vhjq-rpg8",
      "GHSA-9f76-wg39-x86h"
    ],
    "5.6.0-r6": [
      "CVE-2023-39325",
      "CVE-2023-3978",
      "CVE-2023-48795",
      "CVE-2024-21626",
      "GHSA-2wrh-6pvc-2jm9",
      "GHSA-4374-p667-p6c8",
      "GHSA-45x7-px36-x8w8",
      "GHSA-7ww5-4wqc-m92c",
      "GHSA-jq35-85cj-fj4p",
      "GHSA-xr7r-f8xq-vfvv"
    ],
    "5.6.0-r7": [
      "CVE-2023-45289",
      "CVE-2023-45290",
      "CVE-2024-24783",
      "CVE-2024-24784",
      "CVE-2024-24785",
      "GHSA-32ch-6x54-q4h9",
      "GHSA-3q2c-pvp5-3cqp",
      "GHSA-fgq5-q76c-gx78",
      "GHSA-j6m3-gc37-6r6q",
      "GHSA-rr6r-cfgf-gc6h"
    ],
    "5.6.0-r8": [
      "CVE-2024-24786",
      "GHSA-8r3f-844c-mc37"
    ],
    "5.6.3-r1": [
      "CVE-2024-32473",
      "GHSA-x84c-p2g9-rqv9"
    ],
    "5.6.3-r2": [
      "CVE-2024-24787",
      "CVE-2024-24788",
      "GHSA-2jwv-jmq4-4j3r",
      "GHSA-5fq7-4mxc-535h"
    ],
    "5.6.3-r3": [
      "CVE-2024-24789",
      "CVE-2024-24790",
      "GHSA-236w-p7wf-5ph8",
      "GHSA-49gw-vxvf-fc2g"
    ]
  },
  "apkurl": "{{urlprefix}}/{{reponame}}/{{arch}}/{{pkg.name}}-{{pkg.ver}}.apk",
  "archs": [
    "aarch64",
    "x86_64"
  ],
  "urlprefix": "https://packages.cgr.dev",
  "reponame": "chainguard"
}