{
  "name": "keda-2.14",
  "secfixes": {
    "2.14.0-r3": [
      "CVE-2024-24789",
      "CVE-2024-24790",
      "GHSA-236w-p7wf-5ph8",
      "GHSA-49gw-vxvf-fc2g"
    ],
    "2.14.0-r4": [
      "CVE-2024-35255",
      "GHSA-m5vv-6r4h-3vj9"
    ]
  },
  "apkurl": "{{urlprefix}}/{{reponame}}/{{arch}}/{{pkg.name}}-{{pkg.ver}}.apk",
  "archs": [
    "aarch64",
    "x86_64"
  ],
  "urlprefix": "https://packages.cgr.dev",
  "reponame": "chainguard"
}