{
  "name": "kubernetes-csi-node-driver-registrar-2.6",
  "secfixes": {
    "2.6.3-r1": [
      "CVE-2023-45288",
      "GHSA-4v7x-pqxf-cx7m"
    ],
    "2.6.3-r5": [
      "CVE-2024-24789",
      "CVE-2024-24790",
      "GHSA-236w-p7wf-5ph8",
      "GHSA-49gw-vxvf-fc2g"
    ]
  },
  "apkurl": "{{urlprefix}}/{{reponame}}/{{arch}}/{{pkg.name}}-{{pkg.ver}}.apk",
  "archs": [
    "aarch64",
    "x86_64"
  ],
  "urlprefix": "https://packages.cgr.dev",
  "reponame": "chainguard"
}