{
  "name": "kubescape",
  "secfixes": {
    "0": [
      "CVE-2019-25210",
      "CVE-2023-45283",
      "CVE-2023-45284",
      "GHSA-jw44-4f3j-q396",
      "GHSA-rq3x-83w4-p28c",
      "GHSA-vvjp-q62m-2vph"
    ],
    "3.0.0-r0": [
      "CVE-2023-39325",
      "CVE-2023-44487",
      "GHSA-4374-p667-p6c8",
      "GHSA-qppj-fm5r-hxr3"
    ],
    "3.0.10-r0": [
      "CVE-2024-0406",
      "GHSA-rhh4-rh7c-7r5v"
    ],
    "3.0.10-r1": [
      "CVE-2024-24787",
      "CVE-2024-24788",
      "GHSA-2jwv-jmq4-4j3r",
      "GHSA-5fq7-4mxc-535h"
    ],
    "3.0.11-r1": [
      "CVE-2024-24789",
      "CVE-2024-24790",
      "GHSA-236w-p7wf-5ph8",
      "GHSA-49gw-vxvf-fc2g"
    ],
    "3.0.3-r1": [
      "CVE-2023-47108",
      "CVE-2023-48795",
      "GHSA-2c7c-3mj9-8fqh",
      "GHSA-45x7-px36-x8w8",
      "GHSA-7ww5-4wqc-m92c",
      "GHSA-8pgv-569h-w5rw",
      "GHSA-jq35-85cj-fj4p",
      "GHSA-m425-mq94-257g"
    ],
    "3.0.3-r3": [
      "CVE-2023-46737",
      "GHSA-9763-4f94-gfch",
      "GHSA-vfp6-jrw2-99g9"
    ],
    "3.0.3-r4": [
      "CVE-2023-49290",
      "CVE-2024-21664",
      "GHSA-7f9x-gw85-8grf",
      "GHSA-pvcr-v8j8-j5q3"
    ],
    "3.0.3-r7": [
      "CVE-2024-21626",
      "CVE-2024-23650",
      "CVE-2024-23651",
      "CVE-2024-23652",
      "CVE-2024-23653",
      "CVE-2024-24579",
      "GHSA-4v98-7qmw-rqr8",
      "GHSA-9p26-698r-w4hx",
      "GHSA-hpxr-w9w7-g4gv",
      "GHSA-m3r6-h7wv-7xxv",
      "GHSA-wr6v-9f75-vh2g",
      "GHSA-xr7r-f8xq-vfvv"
    ],
    "3.0.3-r8": [
      "CVE-2024-25620",
      "CVE-2024-26147",
      "GHSA-r53h-jv2g-vpx6",
      "GHSA-v53g-5gjp-272r"
    ],
    "3.0.6-r1": [
      "CVE-2024-24786",
      "GHSA-8r3f-844c-mc37"
    ],
    "3.0.7-r1": [
      "CVE-2024-24557",
      "CVE-2024-29018",
      "GHSA-mq39-4gv4-mvpx",
      "GHSA-xw73-rw38-6vjc"
    ],
    "3.0.8-r2": [
      "CVE-2024-29902",
      "CVE-2024-29903",
      "GHSA-88jx-383q-w4qc",
      "GHSA-95pr-fxf5-86gv"
    ],
    "3.0.8-r3": [
      "CVE-2023-45288",
      "GHSA-4v7x-pqxf-cx7m"
    ],
    "3.0.9-r0": [
      "CVE-2024-3817",
      "GHSA-q64h-39hv-4cf7"
    ]
  },
  "apkurl": "{{urlprefix}}/{{reponame}}/{{arch}}/{{pkg.name}}-{{pkg.ver}}.apk",
  "archs": [
    "aarch64",
    "x86_64"
  ],
  "urlprefix": "https://packages.cgr.dev",
  "reponame": "chainguard"
}