{
  "name": "opensearch-2",
  "secfixes": {
    "0": [
      "CVE-2023-35116",
      "GHSA-gx6w-fqg7-mc3p"
    ],
    "2.10.0-r1": [
      "CVE-2023-42503",
      "GHSA-cgwf-w82q-5jrr"
    ],
    "2.11.1-r1": [
      "CVE-2022-45146",
      "GHSA-68m8-v89j-7j2p"
    ],
    "2.12.0-r1": [
      "CVE-2024-25710",
      "CVE-2024-26308",
      "GHSA-4265-ccf5-phj5",
      "GHSA-4g9r-vxhx-9pgx"
    ],
    "2.13.0-r0": [
      "CVE-2024-28752",
      "CVE-2024-29025",
      "GHSA-5jpm-x58v-624v",
      "GHSA-qmgx-j96g-4428"
    ],
    "2.14.0-r0": [
      "CVE-2024-21742",
      "GHSA-jw7r-rxff-gv24"
    ]
  },
  "apkurl": "{{urlprefix}}/{{reponame}}/{{arch}}/{{pkg.name}}-{{pkg.ver}}.apk",
  "archs": [
    "aarch64",
    "x86_64"
  ],
  "urlprefix": "https://packages.cgr.dev",
  "reponame": "chainguard"
}