{
  "name": "prometheus-postgres-exporter-0.10",
  "secfixes": {
    "0": [
      "CVE-2021-38561",
      "CVE-2021-43565",
      "CVE-2022-21698",
      "CVE-2022-27191",
      "CVE-2022-27664",
      "CVE-2022-29526",
      "CVE-2022-32149",
      "CVE-2022-41723",
      "CVE-2022-46146",
      "GHSA-69cg-p879-7622",
      "GHSA-69ch-w2m2-3vjp",
      "GHSA-7rg2-cxvp-9p7p",
      "GHSA-8c26-wmh5-6g9v",
      "GHSA-cg3q-j54f-5p7p",
      "GHSA-gwc9-m7rh-j2ww",
      "GHSA-p782-xgp4-8hr8",
      "GHSA-ppp9-7jff-5vj2",
      "GHSA-vvpx-j8f3-3w6h"
    ],
    "0.10.1-r10": [
      "CVE-2024-24786",
      "GHSA-8r3f-844c-mc37"
    ],
    "0.10.1-r11": [
      "CVE-2023-45288",
      "GHSA-4v7x-pqxf-cx7m"
    ],
    "0.10.1-r13": [
      "CVE-2024-24787",
      "CVE-2024-24788",
      "GHSA-2jwv-jmq4-4j3r",
      "GHSA-5fq7-4mxc-535h"
    ],
    "0.10.1-r14": [
      "CVE-2024-24789",
      "CVE-2024-24790",
      "GHSA-236w-p7wf-5ph8",
      "GHSA-49gw-vxvf-fc2g"
    ],
    "0.10.1-r6": [
      "CVE-2023-39325",
      "CVE-2023-3978",
      "CVE-2023-44487",
      "GHSA-2wrh-6pvc-2jm9",
      "GHSA-4374-p667-p6c8",
      "GHSA-qppj-fm5r-hxr3"
    ],
    "0.10.1-r8": [
      "CVE-2023-48795",
      "GHSA-45x7-px36-x8w8"
    ],
    "0.10.1-r9": [
      "CVE-2023-45289",
      "CVE-2023-45290",
      "CVE-2024-24783",
      "CVE-2024-24784",
      "CVE-2024-24785",
      "GHSA-32ch-6x54-q4h9",
      "GHSA-3q2c-pvp5-3cqp",
      "GHSA-fgq5-q76c-gx78",
      "GHSA-j6m3-gc37-6r6q",
      "GHSA-rr6r-cfgf-gc6h"
    ]
  },
  "apkurl": "{{urlprefix}}/{{reponame}}/{{arch}}/{{pkg.name}}-{{pkg.ver}}.apk",
  "archs": [
    "aarch64",
    "x86_64"
  ],
  "urlprefix": "https://packages.cgr.dev",
  "reponame": "chainguard"
}