{
  "name": "py3-docker",
  "secfixes": {
    "0": [
      "CVE-2018-10892",
      "CVE-2019-13139",
      "CVE-2019-13509",
      "CVE-2019-16884",
      "CVE-2019-5736",
      "CVE-2020-27534",
      "CVE-2021-21284",
      "CVE-2021-21285",
      "CVE-2024-29018",
      "GHSA-33j8-c2xf-8225",
      "GHSA-6fj5-m822-rqx8",
      "GHSA-6hwg-w5jg-9c6x",
      "GHSA-7452-xqpj-6rpc",
      "GHSA-fgv8-vj5c-2ppq",
      "GHSA-gxmr-w5mj-v8hh",
      "GHSA-hg92-xfw5-qgvm",
      "GHSA-j249-ghv5-7mxv",
      "GHSA-mq39-4gv4-mvpx"
    ]
  },
  "apkurl": "{{urlprefix}}/{{reponame}}/{{arch}}/{{pkg.name}}-{{pkg.ver}}.apk",
  "archs": [
    "aarch64",
    "x86_64"
  ],
  "urlprefix": "https://packages.cgr.dev",
  "reponame": "chainguard"
}