{
  "name": "pytorch",
  "secfixes": {
    "2.1.2-r3": [
      "CVE-2023-50447",
      "CVE-2024-22195",
      "GHSA-3f63-hfp8-52jq",
      "GHSA-h5c8-rqwp-cp95"
    ],
    "2.3.0-r0": [
      "CVE-2024-28219",
      "CVE-2024-34064",
      "GHSA-44wm-f244-xhp3",
      "GHSA-h75v-3vvj-5mfj"
    ]
  },
  "apkurl": "{{urlprefix}}/{{reponame}}/{{arch}}/{{pkg.name}}-{{pkg.ver}}.apk",
  "archs": [
    "aarch64",
    "x86_64"
  ],
  "urlprefix": "https://packages.cgr.dev",
  "reponame": "chainguard"
}