{
  "name": "rekor-fips",
  "secfixes": {
    "0": [
      "CVE-2023-30551",
      "CVE-2023-33199",
      "GHSA-2h5h-59f5-c5x9",
      "GHSA-frqx-jfcm-6jjr"
    ],
    "1.3.5-r0": [
      "CVE-2023-48795",
      "GHSA-45x7-px36-x8w8"
    ],
    "1.3.5-r2": [
      "CVE-2024-28180",
      "GHSA-c5q2-7r4c-mv6g"
    ],
    "1.3.5-r3": [
      "CVE-2024-24786",
      "GHSA-8r3f-844c-mc37"
    ],
    "1.3.6-r3": [
      "CVE-2023-45288",
      "GHSA-4v7x-pqxf-cx7m"
    ],
    "1.3.6-r4": [
      "CVE-2024-24787",
      "CVE-2024-24788",
      "GHSA-2jwv-jmq4-4j3r",
      "GHSA-5fq7-4mxc-535h"
    ],
    "1.3.6-r5": [
      "CVE-2024-24789",
      "CVE-2024-24790",
      "GHSA-236w-p7wf-5ph8",
      "GHSA-49gw-vxvf-fc2g"
    ],
    "1.3.6-r6": [
      "CVE-2024-35255",
      "GHSA-m5vv-6r4h-3vj9"
    ]
  },
  "apkurl": "{{urlprefix}}/{{reponame}}/{{arch}}/{{pkg.name}}-{{pkg.ver}}.apk",
  "archs": [
    "aarch64",
    "x86_64"
  ],
  "urlprefix": "https://packages.cgr.dev",
  "reponame": "chainguard"
}