{
  "name": "sigstore-scaffolding",
  "secfixes": {
    "0": [
      "CVE-2023-45283",
      "CVE-2023-45284",
      "GHSA-rq3x-83w4-p28c",
      "GHSA-vvjp-q62m-2vph"
    ],
    "0.6.13-r1": [
      "CVE-2023-48795",
      "GHSA-45x7-px36-x8w8"
    ],
    "0.6.16-r2": [
      "CVE-2024-28180",
      "GHSA-c5q2-7r4c-mv6g"
    ],
    "0.6.17-r1": [
      "CVE-2024-24786",
      "GHSA-8r3f-844c-mc37"
    ],
    "0.6.17-r2": [
      "CVE-2023-45288",
      "GHSA-4v7x-pqxf-cx7m"
    ],
    "0.6.8-r4": [
      "CVE-2023-39325",
      "CVE-2023-3978",
      "CVE-2023-44487",
      "GHSA-2wrh-6pvc-2jm9",
      "GHSA-4374-p667-p6c8",
      "GHSA-qppj-fm5r-hxr3"
    ],
    "0.7.1-r1": [
      "CVE-2024-24789",
      "CVE-2024-24790",
      "GHSA-236w-p7wf-5ph8",
      "GHSA-49gw-vxvf-fc2g"
    ],
    "0.7.1-r2": [
      "CVE-2024-35255",
      "GHSA-m5vv-6r4h-3vj9"
    ]
  },
  "apkurl": "{{urlprefix}}/{{reponame}}/{{arch}}/{{pkg.name}}-{{pkg.ver}}.apk",
  "archs": [
    "aarch64",
    "x86_64"
  ],
  "urlprefix": "https://packages.cgr.dev",
  "reponame": "chainguard"
}