{
  "name": "spark-operator",
  "secfixes": {
    "0": [
      "CVE-2020-8554",
      "CVE-2020-8561",
      "CVE-2021-25736",
      "CVE-2021-25740",
      "CVE-2021-25743",
      "CVE-2023-2431",
      "CVE-2023-2727",
      "CVE-2023-2728",
      "CVE-2023-3676",
      "CVE-2023-3955",
      "CVE-2023-45283",
      "CVE-2023-45284",
      "GHSA-35c7-w35f-xwgh",
      "GHSA-74j8-88mm-7496",
      "GHSA-7fxm-f474-hf8w",
      "GHSA-cgcv-5272-97pr",
      "GHSA-f9jg-8p32-2f55",
      "GHSA-j9wf-vvm6-4r9w",
      "GHSA-q78c-gwqw-jcmc",
      "GHSA-qc2g-gmh6-95p4",
      "GHSA-rq3x-83w4-p28c",
      "GHSA-vvjp-q62m-2vph",
      "GHSA-vw47-mr44-3jf9",
      "GHSA-xc8m-28vv-4pjc"
    ],
    "1.1.27-r13": [
      "CVE-2023-39325",
      "CVE-2023-3978",
      "CVE-2023-44487",
      "GHSA-2wrh-6pvc-2jm9",
      "GHSA-4374-p667-p6c8",
      "GHSA-qppj-fm5r-hxr3"
    ],
    "1.1.27-r17": [
      "CVE-2020-8564",
      "CVE-2023-48795",
      "CVE-2023-5528",
      "GHSA-45x7-px36-x8w8",
      "GHSA-8mjg-8c8g-6h85",
      "GHSA-hq6q-c2x6-hmch",
      "GHSA-m425-mq94-257g"
    ],
    "1.1.27-r19": [
      "CVE-2023-45289",
      "CVE-2023-45290",
      "CVE-2024-24783",
      "CVE-2024-24784",
      "CVE-2024-24785",
      "GHSA-32ch-6x54-q4h9",
      "GHSA-3q2c-pvp5-3cqp",
      "GHSA-fgq5-q76c-gx78",
      "GHSA-j6m3-gc37-6r6q",
      "GHSA-rr6r-cfgf-gc6h"
    ],
    "1.1.27-r20": [
      "CVE-2024-24786",
      "GHSA-8r3f-844c-mc37"
    ],
    "1.1.27-r21": [
      "CVE-2023-45288",
      "GHSA-4v7x-pqxf-cx7m"
    ],
    "1.2.12-r1": [
      "CVE-2024-3177",
      "GHSA-pxhw-596r-rwq5"
    ],
    "1.2.15-r0": [
      "CVE-2024-24787",
      "CVE-2024-24788",
      "GHSA-2jwv-jmq4-4j3r",
      "GHSA-5fq7-4mxc-535h"
    ]
  },
  "apkurl": "{{urlprefix}}/{{reponame}}/{{arch}}/{{pkg.name}}-{{pkg.ver}}.apk",
  "archs": [
    "aarch64",
    "x86_64"
  ],
  "urlprefix": "https://packages.cgr.dev",
  "reponame": "chainguard"
}