{
  "name": "tempo-2.3",
  "secfixes": {
    "2.3.1-r1": [
      "CVE-2023-40577",
      "GHSA-v86x-5fm3-5p7j"
    ],
    "2.3.1-r2": [
      "CVE-2023-47108",
      "GHSA-8pgv-569h-w5rw"
    ],
    "2.3.1-r3": [
      "CVE-2024-24789",
      "CVE-2024-24790",
      "GHSA-236w-p7wf-5ph8",
      "GHSA-49gw-vxvf-fc2g"
    ],
    "2.3.1-r4": [
      "CVE-2024-35255",
      "GHSA-87m9-rv8p-rgmg",
      "GHSA-m5vv-6r4h-3vj9"
    ]
  },
  "apkurl": "{{urlprefix}}/{{reponame}}/{{arch}}/{{pkg.name}}-{{pkg.ver}}.apk",
  "archs": [
    "aarch64",
    "x86_64"
  ],
  "urlprefix": "https://packages.cgr.dev",
  "reponame": "chainguard"
}