{
  "name": "vault-fips-1.14",
  "secfixes": {
    "0": [
      "CVE-2021-38554",
      "CVE-2021-41802",
      "CVE-2022-41316",
      "CVE-2023-0665",
      "CVE-2023-2121",
      "CVE-2023-24999",
      "CVE-2023-25000",
      "CVE-2023-3462",
      "CVE-2023-5077",
      "CVE-2023-5954",
      "CVE-2024-2048",
      "GHSA-4qhc-v8r6-8vwm",
      "GHSA-6239-28c2-9mrm",
      "GHSA-86c6-3g63-5w64",
      "GHSA-9mh8-9j64-443f",
      "GHSA-9v3w-w2jh-4hff",
      "GHSA-gq98-53rq-qr5h",
      "GHSA-hwc3-3qh6-r4gg",
      "GHSA-qv95-g3gm-x542",
      "GHSA-r3w7-mfpm-c2vw",
      "GHSA-vq4h-9ghm-qmrr",
      "GHSA-wmg5-g953-qqfw"
    ],
    "1.14.10-r0": [
      "CVE-2023-50658",
      "GHSA-6294-6rgp-fr7r"
    ],
    "1.14.11-r2": [
      "CVE-2024-0406",
      "GHSA-rhh4-rh7c-7r5v"
    ],
    "1.14.13-r1": [
      "CVE-2024-24789",
      "CVE-2024-24790",
      "CVE-2024-35255",
      "GHSA-236w-p7wf-5ph8",
      "GHSA-49gw-vxvf-fc2g",
      "GHSA-m5vv-6r4h-3vj9"
    ],
    "1.14.6-r1": [
      "GHSA-2c7c-3mj9-8fqh"
    ],
    "1.14.8-r2": [
      "CVE-2023-48795",
      "GHSA-45x7-px36-x8w8",
      "GHSA-mhpq-9638-x6pw"
    ],
    "1.14.8-r3": [
      "GHSA-9763-4f94-gfch"
    ],
    "1.14.8-r4": [
      "CVE-2023-45289",
      "CVE-2023-45290",
      "CVE-2024-24783",
      "CVE-2024-24784",
      "CVE-2024-24785",
      "GHSA-32ch-6x54-q4h9",
      "GHSA-3q2c-pvp5-3cqp",
      "GHSA-fgq5-q76c-gx78",
      "GHSA-j6m3-gc37-6r6q",
      "GHSA-rr6r-cfgf-gc6h"
    ]
  },
  "apkurl": "{{urlprefix}}/{{reponame}}/{{arch}}/{{pkg.name}}-{{pkg.ver}}.apk",
  "archs": [
    "aarch64",
    "x86_64"
  ],
  "urlprefix": "https://packages.cgr.dev",
  "reponame": "chainguard"
}