{
  "Title": "ELSA-2024-0807:  dotnet6.0 security update (IMPORTANT)",
  "Description": "[6.0.127-1.0.1]\n- Update to .NET SDK 6.0.127 and Runtime 6.0.27",
  "Platform": [
    "Oracle Linux 9"
  ],
  "References": [
    {
      "Source": "elsa",
      "URI": "https://linux.oracle.com/errata/ELSA-2024-0807.html",
      "ID": "ELSA-2024-0807"
    },
    {
      "Source": "CVE",
      "URI": "https://linux.oracle.com/cve/CVE-2024-21404.html",
      "ID": "CVE-2024-21404"
    },
    {
      "Source": "CVE",
      "URI": "https://linux.oracle.com/cve/CVE-2024-21386.html",
      "ID": "CVE-2024-21386"
    }
  ],
  "Criteria": {
    "Operator": "AND",
    "Criterias": [
      {
        "Operator": "OR",
        "Criterias": [
          {
            "Operator": "AND",
            "Criterias": [
              {
                "Operator": "OR",
                "Criterias": [
                  {
                    "Operator": "AND",
                    "Criterias": null,
                    "Criterions": [
                      {
                        "Comment": "dotnet-sdk-6.0-source-built-artifacts is earlier than 0:6.0.127-1.0.1.el9_3"
                      },
                      {
                        "Comment": "dotnet-sdk-6.0-source-built-artifacts is signed with the Oracle Linux 9 key"
                      }
                    ]
                  },
                  {
                    "Operator": "AND",
                    "Criterias": null,
                    "Criterions": [
                      {
                        "Comment": "aspnetcore-runtime-6.0 is earlier than 0:6.0.27-1.0.1.el9_3"
                      },
                      {
                        "Comment": "aspnetcore-runtime-6.0 is signed with the Oracle Linux 9 key"
                      }
                    ]
                  },
                  {
                    "Operator": "AND",
                    "Criterias": null,
                    "Criterions": [
                      {
                        "Comment": "aspnetcore-targeting-pack-6.0 is earlier than 0:6.0.27-1.0.1.el9_3"
                      },
                      {
                        "Comment": "aspnetcore-targeting-pack-6.0 is signed with the Oracle Linux 9 key"
                      }
                    ]
                  },
                  {
                    "Operator": "AND",
                    "Criterias": null,
                    "Criterions": [
                      {
                        "Comment": "dotnet-apphost-pack-6.0 is earlier than 0:6.0.27-1.0.1.el9_3"
                      },
                      {
                        "Comment": "dotnet-apphost-pack-6.0 is signed with the Oracle Linux 9 key"
                      }
                    ]
                  },
                  {
                    "Operator": "AND",
                    "Criterias": null,
                    "Criterions": [
                      {
                        "Comment": "dotnet-hostfxr-6.0 is earlier than 0:6.0.27-1.0.1.el9_3"
                      },
                      {
                        "Comment": "dotnet-hostfxr-6.0 is signed with the Oracle Linux 9 key"
                      }
                    ]
                  },
                  {
                    "Operator": "AND",
                    "Criterias": null,
                    "Criterions": [
                      {
                        "Comment": "dotnet-runtime-6.0 is earlier than 0:6.0.27-1.0.1.el9_3"
                      },
                      {
                        "Comment": "dotnet-runtime-6.0 is signed with the Oracle Linux 9 key"
                      }
                    ]
                  },
                  {
                    "Operator": "AND",
                    "Criterias": null,
                    "Criterions": [
                      {
                        "Comment": "dotnet-sdk-6.0 is earlier than 0:6.0.127-1.0.1.el9_3"
                      },
                      {
                        "Comment": "dotnet-sdk-6.0 is signed with the Oracle Linux 9 key"
                      }
                    ]
                  },
                  {
                    "Operator": "AND",
                    "Criterias": null,
                    "Criterions": [
                      {
                        "Comment": "dotnet-targeting-pack-6.0 is earlier than 0:6.0.27-1.0.1.el9_3"
                      },
                      {
                        "Comment": "dotnet-targeting-pack-6.0 is signed with the Oracle Linux 9 key"
                      }
                    ]
                  },
                  {
                    "Operator": "AND",
                    "Criterias": null,
                    "Criterions": [
                      {
                        "Comment": "dotnet-templates-6.0 is earlier than 0:6.0.127-1.0.1.el9_3"
                      },
                      {
                        "Comment": "dotnet-templates-6.0 is signed with the Oracle Linux 9 key"
                      }
                    ]
                  }
                ],
                "Criterions": null
              }
            ],
            "Criterions": [
              {
                "Comment": "Oracle Linux arch is aarch64"
              }
            ]
          },
          {
            "Operator": "AND",
            "Criterias": [
              {
                "Operator": "OR",
                "Criterias": [
                  {
                    "Operator": "AND",
                    "Criterias": null,
                    "Criterions": [
                      {
                        "Comment": "aspnetcore-runtime-6.0 is earlier than 0:6.0.27-1.0.1.el9_3"
                      },
                      {
                        "Comment": "aspnetcore-runtime-6.0 is signed with the Oracle Linux 9 key"
                      }
                    ]
                  },
                  {
                    "Operator": "AND",
                    "Criterias": null,
                    "Criterions": [
                      {
                        "Comment": "aspnetcore-targeting-pack-6.0 is earlier than 0:6.0.27-1.0.1.el9_3"
                      },
                      {
                        "Comment": "aspnetcore-targeting-pack-6.0 is signed with the Oracle Linux 9 key"
                      }
                    ]
                  },
                  {
                    "Operator": "AND",
                    "Criterias": null,
                    "Criterions": [
                      {
                        "Comment": "dotnet-apphost-pack-6.0 is earlier than 0:6.0.27-1.0.1.el9_3"
                      },
                      {
                        "Comment": "dotnet-apphost-pack-6.0 is signed with the Oracle Linux 9 key"
                      }
                    ]
                  },
                  {
                    "Operator": "AND",
                    "Criterias": null,
                    "Criterions": [
                      {
                        "Comment": "dotnet-hostfxr-6.0 is earlier than 0:6.0.27-1.0.1.el9_3"
                      },
                      {
                        "Comment": "dotnet-hostfxr-6.0 is signed with the Oracle Linux 9 key"
                      }
                    ]
                  },
                  {
                    "Operator": "AND",
                    "Criterias": null,
                    "Criterions": [
                      {
                        "Comment": "dotnet-runtime-6.0 is earlier than 0:6.0.27-1.0.1.el9_3"
                      },
                      {
                        "Comment": "dotnet-runtime-6.0 is signed with the Oracle Linux 9 key"
                      }
                    ]
                  },
                  {
                    "Operator": "AND",
                    "Criterias": null,
                    "Criterions": [
                      {
                        "Comment": "dotnet-sdk-6.0 is earlier than 0:6.0.127-1.0.1.el9_3"
                      },
                      {
                        "Comment": "dotnet-sdk-6.0 is signed with the Oracle Linux 9 key"
                      }
                    ]
                  },
                  {
                    "Operator": "AND",
                    "Criterias": null,
                    "Criterions": [
                      {
                        "Comment": "dotnet-targeting-pack-6.0 is earlier than 0:6.0.27-1.0.1.el9_3"
                      },
                      {
                        "Comment": "dotnet-targeting-pack-6.0 is signed with the Oracle Linux 9 key"
                      }
                    ]
                  },
                  {
                    "Operator": "AND",
                    "Criterias": null,
                    "Criterions": [
                      {
                        "Comment": "dotnet-templates-6.0 is earlier than 0:6.0.127-1.0.1.el9_3"
                      },
                      {
                        "Comment": "dotnet-templates-6.0 is signed with the Oracle Linux 9 key"
                      }
                    ]
                  },
                  {
                    "Operator": "AND",
                    "Criterias": null,
                    "Criterions": [
                      {
                        "Comment": "dotnet-sdk-6.0-source-built-artifacts is earlier than 0:6.0.127-1.0.1.el9_3"
                      },
                      {
                        "Comment": "dotnet-sdk-6.0-source-built-artifacts is signed with the Oracle Linux 9 key"
                      }
                    ]
                  }
                ],
                "Criterions": null
              }
            ],
            "Criterions": [
              {
                "Comment": "Oracle Linux arch is x86_64"
              }
            ]
          }
        ],
        "Criterions": null
      }
    ],
    "Criterions": [
      {
        "Comment": "Oracle Linux 9 is installed"
      }
    ]
  },
  "Severity": "IMPORTANT",
  "Cves": [
    {
      "Impact": "",
      "Href": "https://linux.oracle.com/cve/CVE-2024-21404.html",
      "ID": "CVE-2024-21404"
    },
    {
      "Impact": "",
      "Href": "https://linux.oracle.com/cve/CVE-2024-21386.html",
      "ID": "CVE-2024-21386"
    }
  ],
  "Issued": {
    "Date": "2024-02-15"
  }
}