{
  "Title": "ELSA-2024-1789:  bind security update (IMPORTANT)",
  "Description": "bind\n[32:9.16.23-14.4]\n- Rebuild with correct z-stream tag again\n\n[32:9.16.23-14.3]\n- Rebuild together with bind-dyndb-ldap to adjust ABI changes\n\n[32:9.16.23-14.2]\n- Import tests for large DNS messages fix\n- Add downstream change complementing CVE-2023-50387\n\n[32:9.16.23-14.1]\n- Prevent increased CPU load on large DNS messages (CVE-2023-4408)\n- Prevent assertion failure when nxdomain-redirect is used with\n RFC 1918 reverse zones (CVE-2023-5517)\n- Prevent assertion failure if DNS64 and serve-stale is used (CVE-2023-5679)\n- Specific recursive query patterns may lead to an out-of-memory\n  condition (CVE-2023-6516)\n- Prevent increased CPU consumption in DNSSEC validator (CVE-2023-50387\n  CVE-2023-50868)\n\nbind-dyndb-ldap\n[11.9-8.3]\n- Rebuild with correct z-stream tag again\n\n[11.9-8.2]\n- Rebuild required for BIND changes for KeyTrap change (CVE-2023-50387)",
  "Platform": [
    "Oracle Linux 9"
  ],
  "References": [
    {
      "Source": "elsa",
      "URI": "https://linux.oracle.com/errata/ELSA-2024-1789.html",
      "ID": "ELSA-2024-1789"
    },
    {
      "Source": "CVE",
      "URI": "https://linux.oracle.com/cve/CVE-2023-5517.html",
      "ID": "CVE-2023-5517"
    },
    {
      "Source": "CVE",
      "URI": "https://linux.oracle.com/cve/CVE-2023-5679.html",
      "ID": "CVE-2023-5679"
    },
    {
      "Source": "CVE",
      "URI": "https://linux.oracle.com/cve/CVE-2023-50387.html",
      "ID": "CVE-2023-50387"
    },
    {
      "Source": "CVE",
      "URI": "https://linux.oracle.com/cve/CVE-2023-50868.html",
      "ID": "CVE-2023-50868"
    },
    {
      "Source": "CVE",
      "URI": "https://linux.oracle.com/cve/CVE-2023-4408.html",
      "ID": "CVE-2023-4408"
    },
    {
      "Source": "CVE",
      "URI": "https://linux.oracle.com/cve/CVE-2023-6516.html",
      "ID": "CVE-2023-6516"
    }
  ],
  "Criteria": {
    "Operator": "AND",
    "Criterias": [
      {
        "Operator": "OR",
        "Criterias": [
          {
            "Operator": "AND",
            "Criterias": [
              {
                "Operator": "OR",
                "Criterias": [
                  {
                    "Operator": "AND",
                    "Criterias": null,
                    "Criterions": [
                      {
                        "Comment": "bind-devel is earlier than 32:9.16.23-14.el9_3.4"
                      },
                      {
                        "Comment": "bind-devel is signed with the Oracle Linux 9 key"
                      }
                    ]
                  },
                  {
                    "Operator": "AND",
                    "Criterias": null,
                    "Criterions": [
                      {
                        "Comment": "bind-doc is earlier than 32:9.16.23-14.el9_3.4"
                      },
                      {
                        "Comment": "bind-doc is signed with the Oracle Linux 9 key"
                      }
                    ]
                  },
                  {
                    "Operator": "AND",
                    "Criterias": null,
                    "Criterions": [
                      {
                        "Comment": "bind is earlier than 32:9.16.23-14.el9_3.4"
                      },
                      {
                        "Comment": "bind is signed with the Oracle Linux 9 key"
                      }
                    ]
                  },
                  {
                    "Operator": "AND",
                    "Criterias": null,
                    "Criterions": [
                      {
                        "Comment": "bind-chroot is earlier than 32:9.16.23-14.el9_3.4"
                      },
                      {
                        "Comment": "bind-chroot is signed with the Oracle Linux 9 key"
                      }
                    ]
                  },
                  {
                    "Operator": "AND",
                    "Criterias": null,
                    "Criterions": [
                      {
                        "Comment": "bind-dnssec-doc is earlier than 32:9.16.23-14.el9_3.4"
                      },
                      {
                        "Comment": "bind-dnssec-doc is signed with the Oracle Linux 9 key"
                      }
                    ]
                  },
                  {
                    "Operator": "AND",
                    "Criterias": null,
                    "Criterions": [
                      {
                        "Comment": "bind-dnssec-utils is earlier than 32:9.16.23-14.el9_3.4"
                      },
                      {
                        "Comment": "bind-dnssec-utils is signed with the Oracle Linux 9 key"
                      }
                    ]
                  },
                  {
                    "Operator": "AND",
                    "Criterias": null,
                    "Criterions": [
                      {
                        "Comment": "bind-dyndb-ldap is earlier than 0:11.9-8.el9_3.3"
                      },
                      {
                        "Comment": "bind-dyndb-ldap is signed with the Oracle Linux 9 key"
                      }
                    ]
                  },
                  {
                    "Operator": "AND",
                    "Criterias": null,
                    "Criterions": [
                      {
                        "Comment": "bind-libs is earlier than 32:9.16.23-14.el9_3.4"
                      },
                      {
                        "Comment": "bind-libs is signed with the Oracle Linux 9 key"
                      }
                    ]
                  },
                  {
                    "Operator": "AND",
                    "Criterias": null,
                    "Criterions": [
                      {
                        "Comment": "bind-license is earlier than 32:9.16.23-14.el9_3.4"
                      },
                      {
                        "Comment": "bind-license is signed with the Oracle Linux 9 key"
                      }
                    ]
                  },
                  {
                    "Operator": "AND",
                    "Criterias": null,
                    "Criterions": [
                      {
                        "Comment": "bind-utils is earlier than 32:9.16.23-14.el9_3.4"
                      },
                      {
                        "Comment": "bind-utils is signed with the Oracle Linux 9 key"
                      }
                    ]
                  },
                  {
                    "Operator": "AND",
                    "Criterias": null,
                    "Criterions": [
                      {
                        "Comment": "python3-bind is earlier than 32:9.16.23-14.el9_3.4"
                      },
                      {
                        "Comment": "python3-bind is signed with the Oracle Linux 9 key"
                      }
                    ]
                  }
                ],
                "Criterions": null
              }
            ],
            "Criterions": [
              {
                "Comment": "Oracle Linux arch is aarch64"
              }
            ]
          },
          {
            "Operator": "AND",
            "Criterias": [
              {
                "Operator": "OR",
                "Criterias": [
                  {
                    "Operator": "AND",
                    "Criterias": null,
                    "Criterions": [
                      {
                        "Comment": "bind is earlier than 32:9.16.23-14.el9_3.4"
                      },
                      {
                        "Comment": "bind is signed with the Oracle Linux 9 key"
                      }
                    ]
                  },
                  {
                    "Operator": "AND",
                    "Criterias": null,
                    "Criterions": [
                      {
                        "Comment": "bind-chroot is earlier than 32:9.16.23-14.el9_3.4"
                      },
                      {
                        "Comment": "bind-chroot is signed with the Oracle Linux 9 key"
                      }
                    ]
                  },
                  {
                    "Operator": "AND",
                    "Criterias": null,
                    "Criterions": [
                      {
                        "Comment": "bind-dnssec-doc is earlier than 32:9.16.23-14.el9_3.4"
                      },
                      {
                        "Comment": "bind-dnssec-doc is signed with the Oracle Linux 9 key"
                      }
                    ]
                  },
                  {
                    "Operator": "AND",
                    "Criterias": null,
                    "Criterions": [
                      {
                        "Comment": "bind-dnssec-utils is earlier than 32:9.16.23-14.el9_3.4"
                      },
                      {
                        "Comment": "bind-dnssec-utils is signed with the Oracle Linux 9 key"
                      }
                    ]
                  },
                  {
                    "Operator": "AND",
                    "Criterias": null,
                    "Criterions": [
                      {
                        "Comment": "bind-dyndb-ldap is earlier than 0:11.9-8.el9_3.3"
                      },
                      {
                        "Comment": "bind-dyndb-ldap is signed with the Oracle Linux 9 key"
                      }
                    ]
                  },
                  {
                    "Operator": "AND",
                    "Criterias": null,
                    "Criterions": [
                      {
                        "Comment": "bind-libs is earlier than 32:9.16.23-14.el9_3.4"
                      },
                      {
                        "Comment": "bind-libs is signed with the Oracle Linux 9 key"
                      }
                    ]
                  },
                  {
                    "Operator": "AND",
                    "Criterias": null,
                    "Criterions": [
                      {
                        "Comment": "bind-license is earlier than 32:9.16.23-14.el9_3.4"
                      },
                      {
                        "Comment": "bind-license is signed with the Oracle Linux 9 key"
                      }
                    ]
                  },
                  {
                    "Operator": "AND",
                    "Criterias": null,
                    "Criterions": [
                      {
                        "Comment": "bind-utils is earlier than 32:9.16.23-14.el9_3.4"
                      },
                      {
                        "Comment": "bind-utils is signed with the Oracle Linux 9 key"
                      }
                    ]
                  },
                  {
                    "Operator": "AND",
                    "Criterias": null,
                    "Criterions": [
                      {
                        "Comment": "python3-bind is earlier than 32:9.16.23-14.el9_3.4"
                      },
                      {
                        "Comment": "python3-bind is signed with the Oracle Linux 9 key"
                      }
                    ]
                  },
                  {
                    "Operator": "AND",
                    "Criterias": null,
                    "Criterions": [
                      {
                        "Comment": "bind-devel is earlier than 32:9.16.23-14.el9_3.4"
                      },
                      {
                        "Comment": "bind-devel is signed with the Oracle Linux 9 key"
                      }
                    ]
                  },
                  {
                    "Operator": "AND",
                    "Criterias": null,
                    "Criterions": [
                      {
                        "Comment": "bind-doc is earlier than 32:9.16.23-14.el9_3.4"
                      },
                      {
                        "Comment": "bind-doc is signed with the Oracle Linux 9 key"
                      }
                    ]
                  }
                ],
                "Criterions": null
              }
            ],
            "Criterions": [
              {
                "Comment": "Oracle Linux arch is x86_64"
              }
            ]
          }
        ],
        "Criterions": null
      }
    ],
    "Criterions": [
      {
        "Comment": "Oracle Linux 9 is installed"
      }
    ]
  },
  "Severity": "IMPORTANT",
  "Cves": [
    {
      "Impact": "",
      "Href": "https://linux.oracle.com/cve/CVE-2023-5517.html",
      "ID": "CVE-2023-5517"
    },
    {
      "Impact": "",
      "Href": "https://linux.oracle.com/cve/CVE-2023-5679.html",
      "ID": "CVE-2023-5679"
    },
    {
      "Impact": "",
      "Href": "https://linux.oracle.com/cve/CVE-2023-50387.html",
      "ID": "CVE-2023-50387"
    },
    {
      "Impact": "",
      "Href": "https://linux.oracle.com/cve/CVE-2023-50868.html",
      "ID": "CVE-2023-50868"
    },
    {
      "Impact": "",
      "Href": "https://linux.oracle.com/cve/CVE-2023-4408.html",
      "ID": "CVE-2023-4408"
    },
    {
      "Impact": "",
      "Href": "https://linux.oracle.com/cve/CVE-2023-6516.html",
      "ID": "CVE-2023-6516"
    }
  ],
  "Issued": {
    "Date": "2024-04-11"
  }
}