{
  "Title": "ELSA-2024-12187: kernel security update (IMPORTANT)",
  "Description": "[4.18.0-513.18.0.2.el8_9]\n- net/sched: sch_hfsc: Ensure inner classes have fsc curve {CVE-2023-4623}\n- net/sched: sch_hfsc: upgrade 'rt' to 'sc' when it becomes a inner curve {CVE-2023-4623}\n- x86/sev: Check for user-space IOIO pointing to kernel space {CVE-2023-46813}\n- x86/sev: Check IOBM for IOIO exceptions from user-space {CVE-2023-46813}\n- x86/sev: Disable MMIO emulation from user mode {CVE-2023-46813}\n- RDMA/core: Fix resolve_prepare_src error cleanup {CVE-2023-2176}",
  "Platform": [
    "Oracle Linux 8"
  ],
  "References": [
    {
      "Source": "elsa",
      "URI": "https://linux.oracle.com/errata/ELSA-2024-12187.html",
      "ID": "ELSA-2024-12187"
    },
    {
      "Source": "CVE",
      "URI": "https://linux.oracle.com/cve/CVE-2023-46813.html",
      "ID": "CVE-2023-46813"
    },
    {
      "Source": "CVE",
      "URI": "https://linux.oracle.com/cve/CVE-2023-2176.html",
      "ID": "CVE-2023-2176"
    },
    {
      "Source": "CVE",
      "URI": "https://linux.oracle.com/cve/CVE-2023-4623.html",
      "ID": "CVE-2023-4623"
    }
  ],
  "Criteria": {
    "Operator": "AND",
    "Criterias": [
      {
        "Operator": "OR",
        "Criterias": [
          {
            "Operator": "AND",
            "Criterias": [
              {
                "Operator": "OR",
                "Criterias": [
                  {
                    "Operator": "AND",
                    "Criterias": null,
                    "Criterions": [
                      {
                        "Comment": "kernel-tools-libs-devel is earlier than 0:4.18.0-513.18.0.2.el8_9"
                      },
                      {
                        "Comment": "kernel-tools-libs-devel is signed with the Oracle Linux 8 key"
                      }
                    ]
                  },
                  {
                    "Operator": "AND",
                    "Criterias": null,
                    "Criterions": [
                      {
                        "Comment": "bpftool is earlier than 0:4.18.0-513.18.0.2.el8_9"
                      },
                      {
                        "Comment": "bpftool is signed with the Oracle Linux 8 key"
                      }
                    ]
                  },
                  {
                    "Operator": "AND",
                    "Criterias": null,
                    "Criterions": [
                      {
                        "Comment": "kernel-cross-headers is earlier than 0:4.18.0-513.18.0.2.el8_9"
                      },
                      {
                        "Comment": "kernel-cross-headers is signed with the Oracle Linux 8 key"
                      }
                    ]
                  },
                  {
                    "Operator": "AND",
                    "Criterias": null,
                    "Criterions": [
                      {
                        "Comment": "kernel-headers is earlier than 0:4.18.0-513.18.0.2.el8_9"
                      },
                      {
                        "Comment": "kernel-headers is signed with the Oracle Linux 8 key"
                      }
                    ]
                  },
                  {
                    "Operator": "AND",
                    "Criterias": null,
                    "Criterions": [
                      {
                        "Comment": "kernel-tools is earlier than 0:4.18.0-513.18.0.2.el8_9"
                      },
                      {
                        "Comment": "kernel-tools is signed with the Oracle Linux 8 key"
                      }
                    ]
                  },
                  {
                    "Operator": "AND",
                    "Criterias": null,
                    "Criterions": [
                      {
                        "Comment": "kernel-tools-libs is earlier than 0:4.18.0-513.18.0.2.el8_9"
                      },
                      {
                        "Comment": "kernel-tools-libs is signed with the Oracle Linux 8 key"
                      }
                    ]
                  },
                  {
                    "Operator": "AND",
                    "Criterias": null,
                    "Criterions": [
                      {
                        "Comment": "perf is earlier than 0:4.18.0-513.18.0.2.el8_9"
                      },
                      {
                        "Comment": "perf is signed with the Oracle Linux 8 key"
                      }
                    ]
                  },
                  {
                    "Operator": "AND",
                    "Criterias": null,
                    "Criterions": [
                      {
                        "Comment": "python3-perf is earlier than 0:4.18.0-513.18.0.2.el8_9"
                      },
                      {
                        "Comment": "python3-perf is signed with the Oracle Linux 8 key"
                      }
                    ]
                  }
                ],
                "Criterions": null
              }
            ],
            "Criterions": [
              {
                "Comment": "Oracle Linux arch is aarch64"
              }
            ]
          },
          {
            "Operator": "AND",
            "Criterias": [
              {
                "Operator": "OR",
                "Criterias": [
                  {
                    "Operator": "AND",
                    "Criterias": null,
                    "Criterions": [
                      {
                        "Comment": "kernel-tools-libs-devel is earlier than 0:4.18.0-513.18.0.2.el8_9"
                      },
                      {
                        "Comment": "kernel-tools-libs-devel is signed with the Oracle Linux 8 key"
                      }
                    ]
                  },
                  {
                    "Operator": "AND",
                    "Criterias": null,
                    "Criterions": [
                      {
                        "Comment": "bpftool is earlier than 0:4.18.0-513.18.0.2.el8_9"
                      },
                      {
                        "Comment": "bpftool is signed with the Oracle Linux 8 key"
                      }
                    ]
                  },
                  {
                    "Operator": "AND",
                    "Criterias": null,
                    "Criterions": [
                      {
                        "Comment": "kernel is earlier than 0:4.18.0-513.18.0.2.el8_9"
                      },
                      {
                        "Comment": "kernel is signed with the Oracle Linux 8 key"
                      }
                    ]
                  },
                  {
                    "Operator": "AND",
                    "Criterias": null,
                    "Criterions": [
                      {
                        "Comment": "kernel-abi-stablelists is earlier than 0:4.18.0-513.18.0.2.el8_9"
                      },
                      {
                        "Comment": "kernel-abi-stablelists is signed with the Oracle Linux 8 key"
                      }
                    ]
                  },
                  {
                    "Operator": "AND",
                    "Criterias": null,
                    "Criterions": [
                      {
                        "Comment": "kernel-core is earlier than 0:4.18.0-513.18.0.2.el8_9"
                      },
                      {
                        "Comment": "kernel-core is signed with the Oracle Linux 8 key"
                      }
                    ]
                  },
                  {
                    "Operator": "AND",
                    "Criterias": null,
                    "Criterions": [
                      {
                        "Comment": "kernel-cross-headers is earlier than 0:4.18.0-513.18.0.2.el8_9"
                      },
                      {
                        "Comment": "kernel-cross-headers is signed with the Oracle Linux 8 key"
                      }
                    ]
                  },
                  {
                    "Operator": "AND",
                    "Criterias": null,
                    "Criterions": [
                      {
                        "Comment": "kernel-debug is earlier than 0:4.18.0-513.18.0.2.el8_9"
                      },
                      {
                        "Comment": "kernel-debug is signed with the Oracle Linux 8 key"
                      }
                    ]
                  },
                  {
                    "Operator": "AND",
                    "Criterias": null,
                    "Criterions": [
                      {
                        "Comment": "kernel-debug-core is earlier than 0:4.18.0-513.18.0.2.el8_9"
                      },
                      {
                        "Comment": "kernel-debug-core is signed with the Oracle Linux 8 key"
                      }
                    ]
                  },
                  {
                    "Operator": "AND",
                    "Criterias": null,
                    "Criterions": [
                      {
                        "Comment": "kernel-debug-devel is earlier than 0:4.18.0-513.18.0.2.el8_9"
                      },
                      {
                        "Comment": "kernel-debug-devel is signed with the Oracle Linux 8 key"
                      }
                    ]
                  },
                  {
                    "Operator": "AND",
                    "Criterias": null,
                    "Criterions": [
                      {
                        "Comment": "kernel-debug-modules is earlier than 0:4.18.0-513.18.0.2.el8_9"
                      },
                      {
                        "Comment": "kernel-debug-modules is signed with the Oracle Linux 8 key"
                      }
                    ]
                  },
                  {
                    "Operator": "AND",
                    "Criterias": null,
                    "Criterions": [
                      {
                        "Comment": "kernel-debug-modules-extra is earlier than 0:4.18.0-513.18.0.2.el8_9"
                      },
                      {
                        "Comment": "kernel-debug-modules-extra is signed with the Oracle Linux 8 key"
                      }
                    ]
                  },
                  {
                    "Operator": "AND",
                    "Criterias": null,
                    "Criterions": [
                      {
                        "Comment": "kernel-devel is earlier than 0:4.18.0-513.18.0.2.el8_9"
                      },
                      {
                        "Comment": "kernel-devel is signed with the Oracle Linux 8 key"
                      }
                    ]
                  },
                  {
                    "Operator": "AND",
                    "Criterias": null,
                    "Criterions": [
                      {
                        "Comment": "kernel-doc is earlier than 0:4.18.0-513.18.0.2.el8_9"
                      },
                      {
                        "Comment": "kernel-doc is signed with the Oracle Linux 8 key"
                      }
                    ]
                  },
                  {
                    "Operator": "AND",
                    "Criterias": null,
                    "Criterions": [
                      {
                        "Comment": "kernel-headers is earlier than 0:4.18.0-513.18.0.2.el8_9"
                      },
                      {
                        "Comment": "kernel-headers is signed with the Oracle Linux 8 key"
                      }
                    ]
                  },
                  {
                    "Operator": "AND",
                    "Criterias": null,
                    "Criterions": [
                      {
                        "Comment": "kernel-modules is earlier than 0:4.18.0-513.18.0.2.el8_9"
                      },
                      {
                        "Comment": "kernel-modules is signed with the Oracle Linux 8 key"
                      }
                    ]
                  },
                  {
                    "Operator": "AND",
                    "Criterias": null,
                    "Criterions": [
                      {
                        "Comment": "kernel-modules-extra is earlier than 0:4.18.0-513.18.0.2.el8_9"
                      },
                      {
                        "Comment": "kernel-modules-extra is signed with the Oracle Linux 8 key"
                      }
                    ]
                  },
                  {
                    "Operator": "AND",
                    "Criterias": null,
                    "Criterions": [
                      {
                        "Comment": "kernel-tools is earlier than 0:4.18.0-513.18.0.2.el8_9"
                      },
                      {
                        "Comment": "kernel-tools is signed with the Oracle Linux 8 key"
                      }
                    ]
                  },
                  {
                    "Operator": "AND",
                    "Criterias": null,
                    "Criterions": [
                      {
                        "Comment": "kernel-tools-libs is earlier than 0:4.18.0-513.18.0.2.el8_9"
                      },
                      {
                        "Comment": "kernel-tools-libs is signed with the Oracle Linux 8 key"
                      }
                    ]
                  },
                  {
                    "Operator": "AND",
                    "Criterias": null,
                    "Criterions": [
                      {
                        "Comment": "perf is earlier than 0:4.18.0-513.18.0.2.el8_9"
                      },
                      {
                        "Comment": "perf is signed with the Oracle Linux 8 key"
                      }
                    ]
                  },
                  {
                    "Operator": "AND",
                    "Criterias": null,
                    "Criterions": [
                      {
                        "Comment": "python3-perf is earlier than 0:4.18.0-513.18.0.2.el8_9"
                      },
                      {
                        "Comment": "python3-perf is signed with the Oracle Linux 8 key"
                      }
                    ]
                  }
                ],
                "Criterions": null
              }
            ],
            "Criterions": [
              {
                "Comment": "Oracle Linux arch is x86_64"
              }
            ]
          }
        ],
        "Criterions": null
      }
    ],
    "Criterions": [
      {
        "Comment": "Oracle Linux 8 is installed"
      }
    ]
  },
  "Severity": "IMPORTANT",
  "Cves": [
    {
      "Impact": "",
      "Href": "https://linux.oracle.com/cve/CVE-2023-46813.html",
      "ID": "CVE-2023-46813"
    },
    {
      "Impact": "",
      "Href": "https://linux.oracle.com/cve/CVE-2023-2176.html",
      "ID": "CVE-2023-2176"
    },
    {
      "Impact": "",
      "Href": "https://linux.oracle.com/cve/CVE-2023-4623.html",
      "ID": "CVE-2023-4623"
    }
  ],
  "Issued": {
    "Date": "2024-02-29"
  }
}