{
  "Title": "ELSA-2024-12157: openssh security update (MODERATE)",
  "Description": "[7.4p1-23.0.3]\n- add KEX_INITIAL flag [Orabug: 36160445]\n- implement 'strict key exchange' [CVE-2023-48795][Orabug: 36160445]",
  "Platform": [
    "Oracle Linux 7"
  ],
  "References": [
    {
      "Source": "elsa",
      "URI": "https://linux.oracle.com/errata/ELSA-2024-12157.html",
      "ID": "ELSA-2024-12157"
    },
    {
      "Source": "CVE",
      "URI": "https://linux.oracle.com/cve/CVE-2023-48795.html",
      "ID": "CVE-2023-48795"
    }
  ],
  "Criteria": {
    "Operator": "AND",
    "Criterias": [
      {
        "Operator": "AND",
        "Criterias": [
          {
            "Operator": "OR",
            "Criterias": [
              {
                "Operator": "AND",
                "Criterias": null,
                "Criterions": [
                  {
                    "Comment": "openssh is earlier than 0:7.4p1-23.0.3.el7_9"
                  },
                  {
                    "Comment": "openssh is signed with the Oracle Linux 7 key"
                  }
                ]
              },
              {
                "Operator": "AND",
                "Criterias": null,
                "Criterions": [
                  {
                    "Comment": "openssh-askpass is earlier than 0:7.4p1-23.0.3.el7_9"
                  },
                  {
                    "Comment": "openssh-askpass is signed with the Oracle Linux 7 key"
                  }
                ]
              },
              {
                "Operator": "AND",
                "Criterias": null,
                "Criterions": [
                  {
                    "Comment": "openssh-cavs is earlier than 0:7.4p1-23.0.3.el7_9"
                  },
                  {
                    "Comment": "openssh-cavs is signed with the Oracle Linux 7 key"
                  }
                ]
              },
              {
                "Operator": "AND",
                "Criterias": null,
                "Criterions": [
                  {
                    "Comment": "openssh-clients is earlier than 0:7.4p1-23.0.3.el7_9"
                  },
                  {
                    "Comment": "openssh-clients is signed with the Oracle Linux 7 key"
                  }
                ]
              },
              {
                "Operator": "AND",
                "Criterias": null,
                "Criterions": [
                  {
                    "Comment": "openssh-keycat is earlier than 0:7.4p1-23.0.3.el7_9"
                  },
                  {
                    "Comment": "openssh-keycat is signed with the Oracle Linux 7 key"
                  }
                ]
              },
              {
                "Operator": "AND",
                "Criterias": null,
                "Criterions": [
                  {
                    "Comment": "openssh-ldap is earlier than 0:7.4p1-23.0.3.el7_9"
                  },
                  {
                    "Comment": "openssh-ldap is signed with the Oracle Linux 7 key"
                  }
                ]
              },
              {
                "Operator": "AND",
                "Criterias": null,
                "Criterions": [
                  {
                    "Comment": "openssh-server is earlier than 0:7.4p1-23.0.3.el7_9"
                  },
                  {
                    "Comment": "openssh-server is signed with the Oracle Linux 7 key"
                  }
                ]
              },
              {
                "Operator": "AND",
                "Criterias": null,
                "Criterions": [
                  {
                    "Comment": "openssh-server-sysvinit is earlier than 0:7.4p1-23.0.3.el7_9"
                  },
                  {
                    "Comment": "openssh-server-sysvinit is signed with the Oracle Linux 7 key"
                  }
                ]
              },
              {
                "Operator": "AND",
                "Criterias": null,
                "Criterions": [
                  {
                    "Comment": "pam_ssh_agent_auth is earlier than 0:0.10.3-2.23.0.3.el7_9"
                  },
                  {
                    "Comment": "pam_ssh_agent_auth is signed with the Oracle Linux 7 key"
                  }
                ]
              }
            ],
            "Criterions": null
          }
        ],
        "Criterions": [
          {
            "Comment": "Oracle Linux arch is x86_64"
          }
        ]
      }
    ],
    "Criterions": [
      {
        "Comment": "Oracle Linux 7 is installed"
      }
    ]
  },
  "Severity": "MODERATE",
  "Cves": [
    {
      "Impact": "",
      "Href": "https://linux.oracle.com/cve/CVE-2023-48795.html",
      "ID": "CVE-2023-48795"
    }
  ],
  "Issued": {
    "Date": "2024-02-13"
  }
}