{
  "Title": "ELSA-2024-2842:  .NET 8.0 security update (IMPORTANT)",
  "Description": "[8.0.105-1.0.1]\n- Add support for Oracle Linux\n\n[8.0.105-1]\n- Update to .NET SDK 8.0.105 and Runtime 8.0.5\n- Resolves: RHEL-35317",
  "Platform": [
    "Oracle Linux 9"
  ],
  "References": [
    {
      "Source": "elsa",
      "URI": "https://linux.oracle.com/errata/ELSA-2024-2842.html",
      "ID": "ELSA-2024-2842"
    },
    {
      "Source": "CVE",
      "URI": "https://linux.oracle.com/cve/CVE-2024-30046.html",
      "ID": "CVE-2024-30046"
    },
    {
      "Source": "CVE",
      "URI": "https://linux.oracle.com/cve/CVE-2024-30045.html",
      "ID": "CVE-2024-30045"
    }
  ],
  "Criteria": {
    "Operator": "AND",
    "Criterias": [
      {
        "Operator": "OR",
        "Criterias": [
          {
            "Operator": "AND",
            "Criterias": [
              {
                "Operator": "OR",
                "Criterias": [
                  {
                    "Operator": "AND",
                    "Criterias": null,
                    "Criterions": [
                      {
                        "Comment": "dotnet-sdk-8.0-source-built-artifacts is earlier than 0:8.0.105-1.0.1.el9_4"
                      },
                      {
                        "Comment": "dotnet-sdk-8.0-source-built-artifacts is signed with the Oracle Linux 9 key"
                      }
                    ]
                  },
                  {
                    "Operator": "AND",
                    "Criterias": null,
                    "Criterions": [
                      {
                        "Comment": "aspnetcore-runtime-8.0 is earlier than 0:8.0.5-1.0.1.el9_4"
                      },
                      {
                        "Comment": "aspnetcore-runtime-8.0 is signed with the Oracle Linux 9 key"
                      }
                    ]
                  },
                  {
                    "Operator": "AND",
                    "Criterias": null,
                    "Criterions": [
                      {
                        "Comment": "aspnetcore-runtime-dbg-8.0 is earlier than 0:8.0.5-1.0.1.el9_4"
                      },
                      {
                        "Comment": "aspnetcore-runtime-dbg-8.0 is signed with the Oracle Linux 9 key"
                      }
                    ]
                  },
                  {
                    "Operator": "AND",
                    "Criterias": null,
                    "Criterions": [
                      {
                        "Comment": "aspnetcore-targeting-pack-8.0 is earlier than 0:8.0.5-1.0.1.el9_4"
                      },
                      {
                        "Comment": "aspnetcore-targeting-pack-8.0 is signed with the Oracle Linux 9 key"
                      }
                    ]
                  },
                  {
                    "Operator": "AND",
                    "Criterias": null,
                    "Criterions": [
                      {
                        "Comment": "dotnet-apphost-pack-8.0 is earlier than 0:8.0.5-1.0.1.el9_4"
                      },
                      {
                        "Comment": "dotnet-apphost-pack-8.0 is signed with the Oracle Linux 9 key"
                      }
                    ]
                  },
                  {
                    "Operator": "AND",
                    "Criterias": null,
                    "Criterions": [
                      {
                        "Comment": "dotnet-host is earlier than 0:8.0.5-1.0.1.el9_4"
                      },
                      {
                        "Comment": "dotnet-host is signed with the Oracle Linux 9 key"
                      }
                    ]
                  },
                  {
                    "Operator": "AND",
                    "Criterias": null,
                    "Criterions": [
                      {
                        "Comment": "dotnet-hostfxr-8.0 is earlier than 0:8.0.5-1.0.1.el9_4"
                      },
                      {
                        "Comment": "dotnet-hostfxr-8.0 is signed with the Oracle Linux 9 key"
                      }
                    ]
                  },
                  {
                    "Operator": "AND",
                    "Criterias": null,
                    "Criterions": [
                      {
                        "Comment": "dotnet-runtime-8.0 is earlier than 0:8.0.5-1.0.1.el9_4"
                      },
                      {
                        "Comment": "dotnet-runtime-8.0 is signed with the Oracle Linux 9 key"
                      }
                    ]
                  },
                  {
                    "Operator": "AND",
                    "Criterias": null,
                    "Criterions": [
                      {
                        "Comment": "dotnet-runtime-dbg-8.0 is earlier than 0:8.0.5-1.0.1.el9_4"
                      },
                      {
                        "Comment": "dotnet-runtime-dbg-8.0 is signed with the Oracle Linux 9 key"
                      }
                    ]
                  },
                  {
                    "Operator": "AND",
                    "Criterias": null,
                    "Criterions": [
                      {
                        "Comment": "dotnet-sdk-8.0 is earlier than 0:8.0.105-1.0.1.el9_4"
                      },
                      {
                        "Comment": "dotnet-sdk-8.0 is signed with the Oracle Linux 9 key"
                      }
                    ]
                  },
                  {
                    "Operator": "AND",
                    "Criterias": null,
                    "Criterions": [
                      {
                        "Comment": "dotnet-sdk-dbg-8.0 is earlier than 0:8.0.105-1.0.1.el9_4"
                      },
                      {
                        "Comment": "dotnet-sdk-dbg-8.0 is signed with the Oracle Linux 9 key"
                      }
                    ]
                  },
                  {
                    "Operator": "AND",
                    "Criterias": null,
                    "Criterions": [
                      {
                        "Comment": "dotnet-targeting-pack-8.0 is earlier than 0:8.0.5-1.0.1.el9_4"
                      },
                      {
                        "Comment": "dotnet-targeting-pack-8.0 is signed with the Oracle Linux 9 key"
                      }
                    ]
                  },
                  {
                    "Operator": "AND",
                    "Criterias": null,
                    "Criterions": [
                      {
                        "Comment": "dotnet-templates-8.0 is earlier than 0:8.0.105-1.0.1.el9_4"
                      },
                      {
                        "Comment": "dotnet-templates-8.0 is signed with the Oracle Linux 9 key"
                      }
                    ]
                  },
                  {
                    "Operator": "AND",
                    "Criterias": null,
                    "Criterions": [
                      {
                        "Comment": "netstandard-targeting-pack-2.1 is earlier than 0:8.0.105-1.0.1.el9_4"
                      },
                      {
                        "Comment": "netstandard-targeting-pack-2.1 is signed with the Oracle Linux 9 key"
                      }
                    ]
                  }
                ],
                "Criterions": null
              }
            ],
            "Criterions": [
              {
                "Comment": "Oracle Linux arch is aarch64"
              }
            ]
          },
          {
            "Operator": "AND",
            "Criterias": [
              {
                "Operator": "OR",
                "Criterias": [
                  {
                    "Operator": "AND",
                    "Criterias": null,
                    "Criterions": [
                      {
                        "Comment": "aspnetcore-runtime-8.0 is earlier than 0:8.0.5-1.0.1.el9_4"
                      },
                      {
                        "Comment": "aspnetcore-runtime-8.0 is signed with the Oracle Linux 9 key"
                      }
                    ]
                  },
                  {
                    "Operator": "AND",
                    "Criterias": null,
                    "Criterions": [
                      {
                        "Comment": "aspnetcore-runtime-dbg-8.0 is earlier than 0:8.0.5-1.0.1.el9_4"
                      },
                      {
                        "Comment": "aspnetcore-runtime-dbg-8.0 is signed with the Oracle Linux 9 key"
                      }
                    ]
                  },
                  {
                    "Operator": "AND",
                    "Criterias": null,
                    "Criterions": [
                      {
                        "Comment": "aspnetcore-targeting-pack-8.0 is earlier than 0:8.0.5-1.0.1.el9_4"
                      },
                      {
                        "Comment": "aspnetcore-targeting-pack-8.0 is signed with the Oracle Linux 9 key"
                      }
                    ]
                  },
                  {
                    "Operator": "AND",
                    "Criterias": null,
                    "Criterions": [
                      {
                        "Comment": "dotnet-apphost-pack-8.0 is earlier than 0:8.0.5-1.0.1.el9_4"
                      },
                      {
                        "Comment": "dotnet-apphost-pack-8.0 is signed with the Oracle Linux 9 key"
                      }
                    ]
                  },
                  {
                    "Operator": "AND",
                    "Criterias": null,
                    "Criterions": [
                      {
                        "Comment": "dotnet-host is earlier than 0:8.0.5-1.0.1.el9_4"
                      },
                      {
                        "Comment": "dotnet-host is signed with the Oracle Linux 9 key"
                      }
                    ]
                  },
                  {
                    "Operator": "AND",
                    "Criterias": null,
                    "Criterions": [
                      {
                        "Comment": "dotnet-hostfxr-8.0 is earlier than 0:8.0.5-1.0.1.el9_4"
                      },
                      {
                        "Comment": "dotnet-hostfxr-8.0 is signed with the Oracle Linux 9 key"
                      }
                    ]
                  },
                  {
                    "Operator": "AND",
                    "Criterias": null,
                    "Criterions": [
                      {
                        "Comment": "dotnet-runtime-8.0 is earlier than 0:8.0.5-1.0.1.el9_4"
                      },
                      {
                        "Comment": "dotnet-runtime-8.0 is signed with the Oracle Linux 9 key"
                      }
                    ]
                  },
                  {
                    "Operator": "AND",
                    "Criterias": null,
                    "Criterions": [
                      {
                        "Comment": "dotnet-runtime-dbg-8.0 is earlier than 0:8.0.5-1.0.1.el9_4"
                      },
                      {
                        "Comment": "dotnet-runtime-dbg-8.0 is signed with the Oracle Linux 9 key"
                      }
                    ]
                  },
                  {
                    "Operator": "AND",
                    "Criterias": null,
                    "Criterions": [
                      {
                        "Comment": "dotnet-sdk-8.0 is earlier than 0:8.0.105-1.0.1.el9_4"
                      },
                      {
                        "Comment": "dotnet-sdk-8.0 is signed with the Oracle Linux 9 key"
                      }
                    ]
                  },
                  {
                    "Operator": "AND",
                    "Criterias": null,
                    "Criterions": [
                      {
                        "Comment": "dotnet-sdk-dbg-8.0 is earlier than 0:8.0.105-1.0.1.el9_4"
                      },
                      {
                        "Comment": "dotnet-sdk-dbg-8.0 is signed with the Oracle Linux 9 key"
                      }
                    ]
                  },
                  {
                    "Operator": "AND",
                    "Criterias": null,
                    "Criterions": [
                      {
                        "Comment": "dotnet-targeting-pack-8.0 is earlier than 0:8.0.5-1.0.1.el9_4"
                      },
                      {
                        "Comment": "dotnet-targeting-pack-8.0 is signed with the Oracle Linux 9 key"
                      }
                    ]
                  },
                  {
                    "Operator": "AND",
                    "Criterias": null,
                    "Criterions": [
                      {
                        "Comment": "dotnet-templates-8.0 is earlier than 0:8.0.105-1.0.1.el9_4"
                      },
                      {
                        "Comment": "dotnet-templates-8.0 is signed with the Oracle Linux 9 key"
                      }
                    ]
                  },
                  {
                    "Operator": "AND",
                    "Criterias": null,
                    "Criterions": [
                      {
                        "Comment": "netstandard-targeting-pack-2.1 is earlier than 0:8.0.105-1.0.1.el9_4"
                      },
                      {
                        "Comment": "netstandard-targeting-pack-2.1 is signed with the Oracle Linux 9 key"
                      }
                    ]
                  },
                  {
                    "Operator": "AND",
                    "Criterias": null,
                    "Criterions": [
                      {
                        "Comment": "dotnet-sdk-8.0-source-built-artifacts is earlier than 0:8.0.105-1.0.1.el9_4"
                      },
                      {
                        "Comment": "dotnet-sdk-8.0-source-built-artifacts is signed with the Oracle Linux 9 key"
                      }
                    ]
                  }
                ],
                "Criterions": null
              }
            ],
            "Criterions": [
              {
                "Comment": "Oracle Linux arch is x86_64"
              }
            ]
          }
        ],
        "Criterions": null
      }
    ],
    "Criterions": [
      {
        "Comment": "Oracle Linux 9 is installed"
      }
    ]
  },
  "Severity": "IMPORTANT",
  "Cves": [
    {
      "Impact": "",
      "Href": "https://linux.oracle.com/cve/CVE-2024-30046.html",
      "ID": "CVE-2024-30046"
    },
    {
      "Impact": "",
      "Href": "https://linux.oracle.com/cve/CVE-2024-30045.html",
      "ID": "CVE-2024-30045"
    }
  ],
  "Issued": {
    "Date": "2024-05-14"
  }
}