{
  "Title": "ELSA-2024-1503:  nodejs:18 security update (IMPORTANT)",
  "Description": "nodejs\n[1:18.19.1-1]\n- Rebase to version 18.19.1\n- Fixes: CVE-2024-21892 CVE-2024-22019 (high)\n- Fixes: CVE-2023-46809 (medium)\n\nnodejs-nodemon\nnodejs-packaging",
  "Platform": [
    "Oracle Linux 9"
  ],
  "References": [
    {
      "Source": "elsa",
      "URI": "https://linux.oracle.com/errata/ELSA-2024-1503.html",
      "ID": "ELSA-2024-1503"
    },
    {
      "Source": "CVE",
      "URI": "https://linux.oracle.com/cve/CVE-2023-46809.html",
      "ID": "CVE-2023-46809"
    },
    {
      "Source": "CVE",
      "URI": "https://linux.oracle.com/cve/CVE-2024-22019.html",
      "ID": "CVE-2024-22019"
    },
    {
      "Source": "CVE",
      "URI": "https://linux.oracle.com/cve/CVE-2024-21892.html",
      "ID": "CVE-2024-21892"
    }
  ],
  "Criteria": {
    "Operator": "AND",
    "Criterias": [
      {
        "Operator": "OR",
        "Criterias": [
          {
            "Operator": "AND",
            "Criterias": [
              {
                "Operator": "AND",
                "Criterias": [
                  {
                    "Operator": "OR",
                    "Criterias": [
                      {
                        "Operator": "AND",
                        "Criterias": null,
                        "Criterions": [
                          {
                            "Comment": "nodejs-packaging is earlier than 0:2021.06-4.module+el9.1.0+20762+f52d7401"
                          },
                          {
                            "Comment": "nodejs-packaging is signed with the Oracle Linux 9 key"
                          }
                        ]
                      },
                      {
                        "Operator": "AND",
                        "Criterias": null,
                        "Criterions": [
                          {
                            "Comment": "nodejs-packaging-bundler is earlier than 0:2021.06-4.module+el9.1.0+20762+f52d7401"
                          },
                          {
                            "Comment": "nodejs-packaging-bundler is signed with the Oracle Linux 9 key"
                          }
                        ]
                      },
                      {
                        "Operator": "AND",
                        "Criterias": null,
                        "Criterions": [
                          {
                            "Comment": "nodejs is earlier than 1:18.19.1-1.module+el9.3.0+90193+90aa0dae"
                          },
                          {
                            "Comment": "nodejs is signed with the Oracle Linux 9 key"
                          }
                        ]
                      },
                      {
                        "Operator": "AND",
                        "Criterias": null,
                        "Criterions": [
                          {
                            "Comment": "nodejs-devel is earlier than 1:18.19.1-1.module+el9.3.0+90193+90aa0dae"
                          },
                          {
                            "Comment": "nodejs-devel is signed with the Oracle Linux 9 key"
                          }
                        ]
                      },
                      {
                        "Operator": "AND",
                        "Criterias": null,
                        "Criterions": [
                          {
                            "Comment": "nodejs-docs is earlier than 1:18.19.1-1.module+el9.3.0+90193+90aa0dae"
                          },
                          {
                            "Comment": "nodejs-docs is signed with the Oracle Linux 9 key"
                          }
                        ]
                      },
                      {
                        "Operator": "AND",
                        "Criterias": null,
                        "Criterions": [
                          {
                            "Comment": "nodejs-full-i18n is earlier than 1:18.19.1-1.module+el9.3.0+90193+90aa0dae"
                          },
                          {
                            "Comment": "nodejs-full-i18n is signed with the Oracle Linux 9 key"
                          }
                        ]
                      },
                      {
                        "Operator": "AND",
                        "Criterias": null,
                        "Criterions": [
                          {
                            "Comment": "nodejs-nodemon is earlier than 0:3.0.1-1.module+el9.3.0+90167+01064547"
                          },
                          {
                            "Comment": "nodejs-nodemon is signed with the Oracle Linux 9 key"
                          }
                        ]
                      },
                      {
                        "Operator": "AND",
                        "Criterias": null,
                        "Criterions": [
                          {
                            "Comment": "npm is earlier than 1:10.2.4-1.18.19.1.1.module+el9.3.0+90193+90aa0dae"
                          },
                          {
                            "Comment": "npm is signed with the Oracle Linux 9 key"
                          }
                        ]
                      }
                    ],
                    "Criterions": null
                  }
                ],
                "Criterions": [
                  {
                    "Comment": "Module nodejs:18 is enabled"
                  }
                ]
              }
            ],
            "Criterions": [
              {
                "Comment": "Oracle Linux arch is aarch64"
              }
            ]
          },
          {
            "Operator": "AND",
            "Criterias": [
              {
                "Operator": "AND",
                "Criterias": [
                  {
                    "Operator": "OR",
                    "Criterias": [
                      {
                        "Operator": "AND",
                        "Criterias": null,
                        "Criterions": [
                          {
                            "Comment": "nodejs is earlier than 1:18.19.1-1.module+el9.3.0+90193+90aa0dae"
                          },
                          {
                            "Comment": "nodejs is signed with the Oracle Linux 9 key"
                          }
                        ]
                      },
                      {
                        "Operator": "AND",
                        "Criterias": null,
                        "Criterions": [
                          {
                            "Comment": "nodejs-devel is earlier than 1:18.19.1-1.module+el9.3.0+90193+90aa0dae"
                          },
                          {
                            "Comment": "nodejs-devel is signed with the Oracle Linux 9 key"
                          }
                        ]
                      },
                      {
                        "Operator": "AND",
                        "Criterias": null,
                        "Criterions": [
                          {
                            "Comment": "nodejs-docs is earlier than 1:18.19.1-1.module+el9.3.0+90193+90aa0dae"
                          },
                          {
                            "Comment": "nodejs-docs is signed with the Oracle Linux 9 key"
                          }
                        ]
                      },
                      {
                        "Operator": "AND",
                        "Criterias": null,
                        "Criterions": [
                          {
                            "Comment": "nodejs-full-i18n is earlier than 1:18.19.1-1.module+el9.3.0+90193+90aa0dae"
                          },
                          {
                            "Comment": "nodejs-full-i18n is signed with the Oracle Linux 9 key"
                          }
                        ]
                      },
                      {
                        "Operator": "AND",
                        "Criterias": null,
                        "Criterions": [
                          {
                            "Comment": "nodejs-nodemon is earlier than 0:3.0.1-1.module+el9.3.0+90167+01064547"
                          },
                          {
                            "Comment": "nodejs-nodemon is signed with the Oracle Linux 9 key"
                          }
                        ]
                      },
                      {
                        "Operator": "AND",
                        "Criterias": null,
                        "Criterions": [
                          {
                            "Comment": "npm is earlier than 1:10.2.4-1.18.19.1.1.module+el9.3.0+90193+90aa0dae"
                          },
                          {
                            "Comment": "npm is signed with the Oracle Linux 9 key"
                          }
                        ]
                      },
                      {
                        "Operator": "AND",
                        "Criterias": null,
                        "Criterions": [
                          {
                            "Comment": "nodejs-packaging is earlier than 0:2021.06-4.module+el9.1.0+20762+f52d7401"
                          },
                          {
                            "Comment": "nodejs-packaging is signed with the Oracle Linux 9 key"
                          }
                        ]
                      },
                      {
                        "Operator": "AND",
                        "Criterias": null,
                        "Criterions": [
                          {
                            "Comment": "nodejs-packaging-bundler is earlier than 0:2021.06-4.module+el9.1.0+20762+f52d7401"
                          },
                          {
                            "Comment": "nodejs-packaging-bundler is signed with the Oracle Linux 9 key"
                          }
                        ]
                      }
                    ],
                    "Criterions": null
                  }
                ],
                "Criterions": [
                  {
                    "Comment": "Module nodejs:18 is enabled"
                  }
                ]
              }
            ],
            "Criterions": [
              {
                "Comment": "Oracle Linux arch is x86_64"
              }
            ]
          }
        ],
        "Criterions": null
      }
    ],
    "Criterions": [
      {
        "Comment": "Oracle Linux 9 is installed"
      }
    ]
  },
  "Severity": "IMPORTANT",
  "Cves": [
    {
      "Impact": "",
      "Href": "https://linux.oracle.com/cve/CVE-2023-46809.html",
      "ID": "CVE-2023-46809"
    },
    {
      "Impact": "",
      "Href": "https://linux.oracle.com/cve/CVE-2024-22019.html",
      "ID": "CVE-2024-22019"
    },
    {
      "Impact": "",
      "Href": "https://linux.oracle.com/cve/CVE-2024-21892.html",
      "ID": "CVE-2024-21892"
    }
  ],
  "Issued": {
    "Date": "2024-03-26"
  }
}