{
  "Title": "ELSA-2024-0950:  postgresql:15 security update (IMPORTANT)",
  "Description": "pgaudit\npg_repack\npostgres-decoderbufs\npostgresql\n[15.6-1]\n- update to 15.6\n- Fixes CVE-2024-0985",
  "Platform": [
    "Oracle Linux 9"
  ],
  "References": [
    {
      "Source": "elsa",
      "URI": "https://linux.oracle.com/errata/ELSA-2024-0950.html",
      "ID": "ELSA-2024-0950"
    },
    {
      "Source": "CVE",
      "URI": "https://linux.oracle.com/cve/CVE-2024-0985.html",
      "ID": "CVE-2024-0985"
    }
  ],
  "Criteria": {
    "Operator": "AND",
    "Criterias": [
      {
        "Operator": "OR",
        "Criterias": [
          {
            "Operator": "AND",
            "Criterias": [
              {
                "Operator": "AND",
                "Criterias": [
                  {
                    "Operator": "OR",
                    "Criterias": [
                      {
                        "Operator": "AND",
                        "Criterias": null,
                        "Criterions": [
                          {
                            "Comment": "pg_repack is earlier than 0:1.4.8-1.module+el9.2.0+21134+ceb95ed9"
                          },
                          {
                            "Comment": "pg_repack is signed with the Oracle Linux 9 key"
                          }
                        ]
                      },
                      {
                        "Operator": "AND",
                        "Criterias": null,
                        "Criterions": [
                          {
                            "Comment": "pgaudit is earlier than 0:1.7.0-1.module+el9.2.0+21134+ceb95ed9"
                          },
                          {
                            "Comment": "pgaudit is signed with the Oracle Linux 9 key"
                          }
                        ]
                      },
                      {
                        "Operator": "AND",
                        "Criterias": null,
                        "Criterions": [
                          {
                            "Comment": "postgres-decoderbufs is earlier than 0:1.9.7-1.Final.module+el9.2.0+21134+ceb95ed9"
                          },
                          {
                            "Comment": "postgres-decoderbufs is signed with the Oracle Linux 9 key"
                          }
                        ]
                      },
                      {
                        "Operator": "AND",
                        "Criterias": null,
                        "Criterions": [
                          {
                            "Comment": "postgresql is earlier than 0:15.6-1.module+el9.3.0+90158+dfcdadd2"
                          },
                          {
                            "Comment": "postgresql is signed with the Oracle Linux 9 key"
                          }
                        ]
                      },
                      {
                        "Operator": "AND",
                        "Criterias": null,
                        "Criterions": [
                          {
                            "Comment": "postgresql-contrib is earlier than 0:15.6-1.module+el9.3.0+90158+dfcdadd2"
                          },
                          {
                            "Comment": "postgresql-contrib is signed with the Oracle Linux 9 key"
                          }
                        ]
                      },
                      {
                        "Operator": "AND",
                        "Criterias": null,
                        "Criterions": [
                          {
                            "Comment": "postgresql-docs is earlier than 0:15.6-1.module+el9.3.0+90158+dfcdadd2"
                          },
                          {
                            "Comment": "postgresql-docs is signed with the Oracle Linux 9 key"
                          }
                        ]
                      },
                      {
                        "Operator": "AND",
                        "Criterias": null,
                        "Criterions": [
                          {
                            "Comment": "postgresql-plperl is earlier than 0:15.6-1.module+el9.3.0+90158+dfcdadd2"
                          },
                          {
                            "Comment": "postgresql-plperl is signed with the Oracle Linux 9 key"
                          }
                        ]
                      },
                      {
                        "Operator": "AND",
                        "Criterias": null,
                        "Criterions": [
                          {
                            "Comment": "postgresql-plpython3 is earlier than 0:15.6-1.module+el9.3.0+90158+dfcdadd2"
                          },
                          {
                            "Comment": "postgresql-plpython3 is signed with the Oracle Linux 9 key"
                          }
                        ]
                      },
                      {
                        "Operator": "AND",
                        "Criterias": null,
                        "Criterions": [
                          {
                            "Comment": "postgresql-pltcl is earlier than 0:15.6-1.module+el9.3.0+90158+dfcdadd2"
                          },
                          {
                            "Comment": "postgresql-pltcl is signed with the Oracle Linux 9 key"
                          }
                        ]
                      },
                      {
                        "Operator": "AND",
                        "Criterias": null,
                        "Criterions": [
                          {
                            "Comment": "postgresql-private-devel is earlier than 0:15.6-1.module+el9.3.0+90158+dfcdadd2"
                          },
                          {
                            "Comment": "postgresql-private-devel is signed with the Oracle Linux 9 key"
                          }
                        ]
                      },
                      {
                        "Operator": "AND",
                        "Criterias": null,
                        "Criterions": [
                          {
                            "Comment": "postgresql-private-libs is earlier than 0:15.6-1.module+el9.3.0+90158+dfcdadd2"
                          },
                          {
                            "Comment": "postgresql-private-libs is signed with the Oracle Linux 9 key"
                          }
                        ]
                      },
                      {
                        "Operator": "AND",
                        "Criterias": null,
                        "Criterions": [
                          {
                            "Comment": "postgresql-server is earlier than 0:15.6-1.module+el9.3.0+90158+dfcdadd2"
                          },
                          {
                            "Comment": "postgresql-server is signed with the Oracle Linux 9 key"
                          }
                        ]
                      },
                      {
                        "Operator": "AND",
                        "Criterias": null,
                        "Criterions": [
                          {
                            "Comment": "postgresql-server-devel is earlier than 0:15.6-1.module+el9.3.0+90158+dfcdadd2"
                          },
                          {
                            "Comment": "postgresql-server-devel is signed with the Oracle Linux 9 key"
                          }
                        ]
                      },
                      {
                        "Operator": "AND",
                        "Criterias": null,
                        "Criterions": [
                          {
                            "Comment": "postgresql-static is earlier than 0:15.6-1.module+el9.3.0+90158+dfcdadd2"
                          },
                          {
                            "Comment": "postgresql-static is signed with the Oracle Linux 9 key"
                          }
                        ]
                      },
                      {
                        "Operator": "AND",
                        "Criterias": null,
                        "Criterions": [
                          {
                            "Comment": "postgresql-test is earlier than 0:15.6-1.module+el9.3.0+90158+dfcdadd2"
                          },
                          {
                            "Comment": "postgresql-test is signed with the Oracle Linux 9 key"
                          }
                        ]
                      },
                      {
                        "Operator": "AND",
                        "Criterias": null,
                        "Criterions": [
                          {
                            "Comment": "postgresql-test-rpm-macros is earlier than 0:15.6-1.module+el9.3.0+90158+dfcdadd2"
                          },
                          {
                            "Comment": "postgresql-test-rpm-macros is signed with the Oracle Linux 9 key"
                          }
                        ]
                      },
                      {
                        "Operator": "AND",
                        "Criterias": null,
                        "Criterions": [
                          {
                            "Comment": "postgresql-upgrade is earlier than 0:15.6-1.module+el9.3.0+90158+dfcdadd2"
                          },
                          {
                            "Comment": "postgresql-upgrade is signed with the Oracle Linux 9 key"
                          }
                        ]
                      },
                      {
                        "Operator": "AND",
                        "Criterias": null,
                        "Criterions": [
                          {
                            "Comment": "postgresql-upgrade-devel is earlier than 0:15.6-1.module+el9.3.0+90158+dfcdadd2"
                          },
                          {
                            "Comment": "postgresql-upgrade-devel is signed with the Oracle Linux 9 key"
                          }
                        ]
                      }
                    ],
                    "Criterions": null
                  }
                ],
                "Criterions": [
                  {
                    "Comment": "Module postgresql:15 is enabled"
                  }
                ]
              }
            ],
            "Criterions": [
              {
                "Comment": "Oracle Linux arch is aarch64"
              }
            ]
          },
          {
            "Operator": "AND",
            "Criterias": [
              {
                "Operator": "AND",
                "Criterias": [
                  {
                    "Operator": "OR",
                    "Criterias": [
                      {
                        "Operator": "AND",
                        "Criterias": null,
                        "Criterions": [
                          {
                            "Comment": "postgres-decoderbufs is earlier than 0:1.9.7-1.Final.module+el9.2.0+21134+ceb95ed9"
                          },
                          {
                            "Comment": "postgres-decoderbufs is signed with the Oracle Linux 9 key"
                          }
                        ]
                      },
                      {
                        "Operator": "AND",
                        "Criterias": null,
                        "Criterions": [
                          {
                            "Comment": "postgresql is earlier than 0:15.6-1.module+el9.3.0+90158+dfcdadd2"
                          },
                          {
                            "Comment": "postgresql is signed with the Oracle Linux 9 key"
                          }
                        ]
                      },
                      {
                        "Operator": "AND",
                        "Criterias": null,
                        "Criterions": [
                          {
                            "Comment": "postgresql-contrib is earlier than 0:15.6-1.module+el9.3.0+90158+dfcdadd2"
                          },
                          {
                            "Comment": "postgresql-contrib is signed with the Oracle Linux 9 key"
                          }
                        ]
                      },
                      {
                        "Operator": "AND",
                        "Criterias": null,
                        "Criterions": [
                          {
                            "Comment": "postgresql-docs is earlier than 0:15.6-1.module+el9.3.0+90158+dfcdadd2"
                          },
                          {
                            "Comment": "postgresql-docs is signed with the Oracle Linux 9 key"
                          }
                        ]
                      },
                      {
                        "Operator": "AND",
                        "Criterias": null,
                        "Criterions": [
                          {
                            "Comment": "postgresql-plperl is earlier than 0:15.6-1.module+el9.3.0+90158+dfcdadd2"
                          },
                          {
                            "Comment": "postgresql-plperl is signed with the Oracle Linux 9 key"
                          }
                        ]
                      },
                      {
                        "Operator": "AND",
                        "Criterias": null,
                        "Criterions": [
                          {
                            "Comment": "postgresql-plpython3 is earlier than 0:15.6-1.module+el9.3.0+90158+dfcdadd2"
                          },
                          {
                            "Comment": "postgresql-plpython3 is signed with the Oracle Linux 9 key"
                          }
                        ]
                      },
                      {
                        "Operator": "AND",
                        "Criterias": null,
                        "Criterions": [
                          {
                            "Comment": "postgresql-pltcl is earlier than 0:15.6-1.module+el9.3.0+90158+dfcdadd2"
                          },
                          {
                            "Comment": "postgresql-pltcl is signed with the Oracle Linux 9 key"
                          }
                        ]
                      },
                      {
                        "Operator": "AND",
                        "Criterias": null,
                        "Criterions": [
                          {
                            "Comment": "postgresql-private-devel is earlier than 0:15.6-1.module+el9.3.0+90158+dfcdadd2"
                          },
                          {
                            "Comment": "postgresql-private-devel is signed with the Oracle Linux 9 key"
                          }
                        ]
                      },
                      {
                        "Operator": "AND",
                        "Criterias": null,
                        "Criterions": [
                          {
                            "Comment": "postgresql-private-libs is earlier than 0:15.6-1.module+el9.3.0+90158+dfcdadd2"
                          },
                          {
                            "Comment": "postgresql-private-libs is signed with the Oracle Linux 9 key"
                          }
                        ]
                      },
                      {
                        "Operator": "AND",
                        "Criterias": null,
                        "Criterions": [
                          {
                            "Comment": "postgresql-server is earlier than 0:15.6-1.module+el9.3.0+90158+dfcdadd2"
                          },
                          {
                            "Comment": "postgresql-server is signed with the Oracle Linux 9 key"
                          }
                        ]
                      },
                      {
                        "Operator": "AND",
                        "Criterias": null,
                        "Criterions": [
                          {
                            "Comment": "postgresql-server-devel is earlier than 0:15.6-1.module+el9.3.0+90158+dfcdadd2"
                          },
                          {
                            "Comment": "postgresql-server-devel is signed with the Oracle Linux 9 key"
                          }
                        ]
                      },
                      {
                        "Operator": "AND",
                        "Criterias": null,
                        "Criterions": [
                          {
                            "Comment": "postgresql-static is earlier than 0:15.6-1.module+el9.3.0+90158+dfcdadd2"
                          },
                          {
                            "Comment": "postgresql-static is signed with the Oracle Linux 9 key"
                          }
                        ]
                      },
                      {
                        "Operator": "AND",
                        "Criterias": null,
                        "Criterions": [
                          {
                            "Comment": "postgresql-test is earlier than 0:15.6-1.module+el9.3.0+90158+dfcdadd2"
                          },
                          {
                            "Comment": "postgresql-test is signed with the Oracle Linux 9 key"
                          }
                        ]
                      },
                      {
                        "Operator": "AND",
                        "Criterias": null,
                        "Criterions": [
                          {
                            "Comment": "postgresql-test-rpm-macros is earlier than 0:15.6-1.module+el9.3.0+90158+dfcdadd2"
                          },
                          {
                            "Comment": "postgresql-test-rpm-macros is signed with the Oracle Linux 9 key"
                          }
                        ]
                      },
                      {
                        "Operator": "AND",
                        "Criterias": null,
                        "Criterions": [
                          {
                            "Comment": "postgresql-upgrade is earlier than 0:15.6-1.module+el9.3.0+90158+dfcdadd2"
                          },
                          {
                            "Comment": "postgresql-upgrade is signed with the Oracle Linux 9 key"
                          }
                        ]
                      },
                      {
                        "Operator": "AND",
                        "Criterias": null,
                        "Criterions": [
                          {
                            "Comment": "postgresql-upgrade-devel is earlier than 0:15.6-1.module+el9.3.0+90158+dfcdadd2"
                          },
                          {
                            "Comment": "postgresql-upgrade-devel is signed with the Oracle Linux 9 key"
                          }
                        ]
                      },
                      {
                        "Operator": "AND",
                        "Criterias": null,
                        "Criterions": [
                          {
                            "Comment": "pg_repack is earlier than 0:1.4.8-1.module+el9.2.0+21134+ceb95ed9"
                          },
                          {
                            "Comment": "pg_repack is signed with the Oracle Linux 9 key"
                          }
                        ]
                      },
                      {
                        "Operator": "AND",
                        "Criterias": null,
                        "Criterions": [
                          {
                            "Comment": "pgaudit is earlier than 0:1.7.0-1.module+el9.2.0+21134+ceb95ed9"
                          },
                          {
                            "Comment": "pgaudit is signed with the Oracle Linux 9 key"
                          }
                        ]
                      }
                    ],
                    "Criterions": null
                  }
                ],
                "Criterions": [
                  {
                    "Comment": "Module postgresql:15 is enabled"
                  }
                ]
              }
            ],
            "Criterions": [
              {
                "Comment": "Oracle Linux arch is x86_64"
              }
            ]
          }
        ],
        "Criterions": null
      }
    ],
    "Criterions": [
      {
        "Comment": "Oracle Linux 9 is installed"
      }
    ]
  },
  "Severity": "IMPORTANT",
  "Cves": [
    {
      "Impact": "",
      "Href": "https://linux.oracle.com/cve/CVE-2024-0985.html",
      "ID": "CVE-2024-0985"
    }
  ],
  "Issued": {
    "Date": "2024-02-26"
  }
}