{
  "Title": "ELSA-2024-3127:  zziplib security update (MODERATE)",
  "Description": "[0.13.68-13]\n- Fix CVE-2020-18770\n  Previous patch contained segfault bug\n  Resolves: RHEL-14966\n\n[0.13.68-12]\n- Add the gating tests from the 8.8.0 branch\n  Resolves: RHEL-24429\n\n[0.13.68-11]\n- Use /usr/libexec/platform-python macro during the config phase (used for doc generation)\n  Resolves: RHEL-22880\n\n[0.13.68-10]\n- Fix CVE-2020-18770\n  Resolves: RHEL-14966",
  "Platform": [
    "Oracle Linux 8"
  ],
  "References": [
    {
      "Source": "elsa",
      "URI": "https://linux.oracle.com/errata/ELSA-2024-3127.html",
      "ID": "ELSA-2024-3127"
    },
    {
      "Source": "CVE",
      "URI": "https://linux.oracle.com/cve/CVE-2020-18770.html",
      "ID": "CVE-2020-18770"
    }
  ],
  "Criteria": {
    "Operator": "AND",
    "Criterias": [
      {
        "Operator": "OR",
        "Criterias": [
          {
            "Operator": "AND",
            "Criterias": [
              {
                "Operator": "OR",
                "Criterias": [
                  {
                    "Operator": "AND",
                    "Criterias": null,
                    "Criterions": [
                      {
                        "Comment": "zziplib-devel is earlier than 0:0.13.68-13.el8_10"
                      },
                      {
                        "Comment": "zziplib-devel is signed with the Oracle Linux 8 key"
                      }
                    ]
                  },
                  {
                    "Operator": "AND",
                    "Criterias": null,
                    "Criterions": [
                      {
                        "Comment": "zziplib is earlier than 0:0.13.68-13.el8_10"
                      },
                      {
                        "Comment": "zziplib is signed with the Oracle Linux 8 key"
                      }
                    ]
                  },
                  {
                    "Operator": "AND",
                    "Criterias": null,
                    "Criterions": [
                      {
                        "Comment": "zziplib-utils is earlier than 0:0.13.68-13.el8_10"
                      },
                      {
                        "Comment": "zziplib-utils is signed with the Oracle Linux 8 key"
                      }
                    ]
                  }
                ],
                "Criterions": null
              }
            ],
            "Criterions": [
              {
                "Comment": "Oracle Linux arch is aarch64"
              }
            ]
          },
          {
            "Operator": "AND",
            "Criterias": [
              {
                "Operator": "OR",
                "Criterias": [
                  {
                    "Operator": "AND",
                    "Criterias": null,
                    "Criterions": [
                      {
                        "Comment": "zziplib-devel is earlier than 0:0.13.68-13.el8_10"
                      },
                      {
                        "Comment": "zziplib-devel is signed with the Oracle Linux 8 key"
                      }
                    ]
                  },
                  {
                    "Operator": "AND",
                    "Criterias": null,
                    "Criterions": [
                      {
                        "Comment": "zziplib-utils is earlier than 0:0.13.68-13.el8_10"
                      },
                      {
                        "Comment": "zziplib-utils is signed with the Oracle Linux 8 key"
                      }
                    ]
                  },
                  {
                    "Operator": "AND",
                    "Criterias": null,
                    "Criterions": [
                      {
                        "Comment": "zziplib is earlier than 0:0.13.68-13.el8_10"
                      },
                      {
                        "Comment": "zziplib is signed with the Oracle Linux 8 key"
                      }
                    ]
                  }
                ],
                "Criterions": null
              }
            ],
            "Criterions": [
              {
                "Comment": "Oracle Linux arch is x86_64"
              }
            ]
          }
        ],
        "Criterions": null
      }
    ],
    "Criterions": [
      {
        "Comment": "Oracle Linux 8 is installed"
      }
    ]
  },
  "Severity": "MODERATE",
  "Cves": [
    {
      "Impact": "",
      "Href": "https://linux.oracle.com/cve/CVE-2020-18770.html",
      "ID": "CVE-2020-18770"
    }
  ],
  "Issued": {
    "Date": "2024-05-23"
  }
}