{
  "id": "GHSA-j66q-qmrc-89rx",
  "modified": "2024-04-22T21:18:30.736988Z",
  "published": "2022-05-24T17:36:44Z",
  "aliases": [
    "CVE-2020-22083",
    "PYSEC-2020-49"
  ],
  "summary": "jsonpickle unsafe deserialization",
  "details": "jsonpickle through 1.4.2 allows remote code execution during deserialization of a malicious payload through the `decode()` function. This CVE is disputed by the project author as intended functionality.",
  "affected": [
    {
      "package": {
        "ecosystem": "PyPI",
        "name": "jsonpickle",
        "purl": "pkg:pypi/jsonpickle"
      },
      "ranges": [
        {
          "type": "ECOSYSTEM",
          "events": [
            {
              "introduced": "0"
            },
            {
              "last_affected": "1.4.2"
            }
          ]
        }
      ],
      "versions": [
        "0.0.1",
        "0.0.2",
        "0.0.4",
        "0.0.5",
        "0.1.0",
        "0.2.0",
        "0.3.0",
        "0.3.1",
        "0.4.0",
        "0.5.0",
        "0.5.0-beta",
        "0.6.0",
        "0.6.1",
        "0.7.0",
        "0.7.1",
        "0.7.2",
        "0.8.0",
        "0.9.0",
        "0.9.1",
        "0.9.2",
        "0.9.3",
        "0.9.4",
        "0.9.5",
        "0.9.6",
        "1.0",
        "1.1",
        "1.2",
        "1.3",
        "1.4",
        "1.4.1",
        "1.4.2"
      ],
      "ecosystem_specific": {
        "affected_functions": [
          "jsonpickle.decode"
        ]
      },
      "database_specific": {
        "source": "https://github.com/github/advisory-database/blob/main/advisories/github-reviewed/2022/05/GHSA-j66q-qmrc-89rx/GHSA-j66q-qmrc-89rx.json"
      }
    }
  ],
  "references": [
    {
      "type": "ADVISORY",
      "url": "https://nvd.nist.gov/vuln/detail/CVE-2020-22083"
    },
    {
      "type": "WEB",
      "url": "https://github.com/jsonpickle/jsonpickle/issues/332"
    },
    {
      "type": "WEB",
      "url": "https://github.com/jsonpickle/jsonpickle/issues/332#issuecomment-747807494"
    },
    {
      "type": "WEB",
      "url": "https://github.com/jsonpickle/jsonpickle/issues/335"
    },
    {
      "type": "WEB",
      "url": "https://access.redhat.com/security/cve/CVE-2020-22083"
    },
    {
      "type": "WEB",
      "url": "https://gist.github.com/j0lt-github/bb543e77a1a10c33cb56cf23d0837874"
    },
    {
      "type": "WEB",
      "url": "https://github.com/j0lt-github/python-deserialization-attack-payload-generator"
    },
    {
      "type": "PACKAGE",
      "url": "https://github.com/jsonpickle/jsonpickle"
    },
    {
      "type": "WEB",
      "url": "https://versprite.com/blog/application-security/into-the-jar-jsonpickle-exploitation"
    }
  ]
}