{
  "Severity": "LOW",
  "UpdatedAt": "2024-05-10T15:33:03Z",
  "Package": {
    "Ecosystem": "COMPOSER",
    "Name": "sylius/sylius"
  },
  "Advisory": {
    "DatabaseId": 245271,
    "Id": "GSA_kwCzR0hTQS12MmY5LXJ2Nnctdnc4cs4AA74X",
    "GhsaId": "GHSA-v2f9-rv6w-vw8r",
    "References": [
      {
        "Url": "https://github.com/Sylius/Sylius/security/advisories/GHSA-v2f9-rv6w-vw8r"
      },
      {
        "Url": "https://github.com/Sylius/Sylius/commit/ba4b66da5af88cdb1bba6174de8bdf42f4853e12"
      },
      {
        "Url": "https://github.com/advisories/GHSA-v2f9-rv6w-vw8r"
      }
    ],
    "Identifiers": [
      {
        "Type": "GHSA",
        "Value": "GHSA-v2f9-rv6w-vw8r"
      },
      {
        "Type": "CVE",
        "Value": "CVE-2024-34349"
      }
    ],
    "Description": "### Impact\n\nThere is a possibility to execute javascript code in the Admin panel. In order to perform an XSS attack input a script into `Name` field in which of the resources: Taxons, Products, Product Options or Product Variants. The code will be executed while using an autocomplete field with one of the listed entities in the Admin Panel. Also for the taxons in the category tree on the product form. \n\n### Patches\nThe issue is fixed in versions: 1.12.16, 1.13.1 and above.\n\n### Workarounds\n\n1. Create new file `assets/admin/sylius-lazy-choice-tree.js`:\n\n```js\n// assets/admin/sylius-lazy-choice-tree.js\n\nfunction sanitizeInput(input) {\n  const div = document.createElement('div');\n  div.textContent = input;\n  return div.innerHTML; // Converts text content to plain HTML, stripping any scripts\n}\n\nconst createRootContainer = function createRootContainer() {\n  return $('\u003cdiv class=\"ui list\"\u003e\u003c/div\u003e');\n};\n\nconst createLeafContainerElement = function createLeafContainerElement() {\n  return $('\u003cdiv class=\"list\"\u003e\u003c/div\u003e');\n};\n\nconst createLeafIconElement = function createLeafIconElement() {\n  return $('\u003ci class=\"folder icon\"\u003e\u003c/i\u003e');\n};\n\nconst createLeafTitleElement = function createLeafTitleElement() {\n  return $('\u003cdiv class=\"header\"\u003e\u003c/div\u003e');\n};\n\nconst createLeafTitleSpan = function createLeafTitleSpan(displayName) {\n  return $(`\u003cspan style=\"margin-right: 5px; cursor: pointer;\"\u003e${displayName}\u003c/span\u003e`);\n};\n\nconst createLeafContentElement = function createLeafContentElement() {\n  return $('\u003cdiv class=\"content\"\u003e\u003c/div\u003e');\n};\n\n$.fn.extend({\n  choiceTree(type, multiple, defaultLevel) {\n    const tree = this;\n    const loader = tree.find('.dimmer');\n    const loadedLeafs = [];\n    const $input = tree.find('input[type=\"hidden\"]');\n\n    const createCheckboxElement = function createCheckboxElement(name, code, multi) {\n      const chosenNodes = $input.val().split(',');\n      let checked = '';\n      if (chosenNodes.some(chosenCode =\u003e chosenCode === code)) {\n        checked = 'checked=\"checked\"';\n      }\n      if (multi) {\n        return $(`\u003cdiv class=\"ui checkbox\" data-value=\"${code}\"\u003e\u003cinput ${checked} type=\"checkbox\" name=\"${type}\"\u003e\u003c/div\u003e`);\n      }\n\n      return $(`\u003cdiv class=\"ui radio checkbox\" data-value=\"${code}\"\u003e\u003cinput ${checked} type=\"radio\" name=\"${type}\"\u003e\u003c/div\u003e`);\n    };\n\n    const isLeafLoaded = function isLeafLoaded(code) {\n      return loadedLeafs.some(leafCode =\u003e leafCode === code);\n    };\n\n    let createLeafFunc;\n\n    const loadLeafAction = function loadLeafAction(parentCode, expandButton, content, icon, leafContainerElement) {\n      icon.toggleClass('open');\n\n      if (!isLeafLoaded(parentCode)) {\n        expandButton.api({\n          on: 'now',\n          url: tree.data('tree-leafs-url') || tree.data('taxon-leafs-url'),\n          method: 'GET',\n          cache: false,\n          data: {\n            parentCode,\n          },\n          beforeSend(settings) {\n            loader.addClass('active');\n\n            return settings;\n          },\n          onSuccess(response) {\n            response.forEach((leafNode) =\u003e {\n              leafContainerElement.append((\n                createLeafFunc(sanitizeInput(leafNode.name), leafNode.code, leafNode.hasChildren, multiple, leafNode.level)\n              ));\n            });\n            content.append(leafContainerElement);\n            loader.removeClass('active');\n            loadedLeafs.push(parentCode);\n\n            leafContainerElement.toggle();\n          },\n        });\n      }\n\n      leafContainerElement.toggle();\n    };\n\n    const bindExpandLeafAction = function bindExpandLeafAction(parentCode, expandButton, content, icon, level) {\n      const leafContainerElement = createLeafContainerElement();\n      if (defaultLevel \u003e level) {\n        loadLeafAction(parentCode, expandButton, content, icon, leafContainerElement);\n      }\n\n      expandButton.click(() =\u003e {\n        loadLeafAction(parentCode, expandButton, content, icon, leafContainerElement);\n      });\n    };\n\n    const bindCheckboxAction = function bindCheckboxAction(checkboxElement) {\n      checkboxElement.checkbox({\n        onChecked() {\n          const { value } = checkboxElement[0].dataset;\n          const checkedValues = $input.val().split(',').filter(Boolean);\n          checkedValues.push(value);\n          $input.val(checkedValues.join());\n        },\n        onUnchecked() {\n          const { value } = checkboxElement[0].dataset;\n          const checkedValues = $input.val().split(',').filter(Boolean);\n          const i = checkedValues.indexOf(value);\n          if (i !== -1) {\n            checkedValues.splice(i, 1);\n          }\n          $input.val(checkedValues.join());\n        },\n      });\n    };\n\n    const createLeaf = function createLeaf(name, code, hasChildren, multipleChoice, level) {\n      const displayNameElement = createLeafTitleSpan(name);\n      const titleElement = createLeafTitleElement();\n      const iconElement = createLeafIconElement();\n      const checkboxElement = createCheckboxElement(name, code, multipleChoice);\n\n      bindCheckboxAction(checkboxElement);\n\n      const leafElement = $('\u003cdiv class=\"item\"\u003e\u003c/div\u003e');\n      const leafContentElement = createLeafContentElement();\n\n      leafElement.append(iconElement);\n      titleElement.append(displayNameElement);\n      titleElement.append(checkboxElement);\n      leafContentElement.append(titleElement);\n\n      if (!hasChildren) {\n        iconElement.addClass('outline');\n      }\n      if (hasChildren) {\n        bindExpandLeafAction(code, displayNameElement, leafContentElement, iconElement, level);\n      }\n      leafElement.append(leafContentElement);\n\n      return leafElement;\n    };\n    createLeafFunc = createLeaf;\n\n    tree.api({\n      on: 'now',\n      method: 'GET',\n      url: tree.data('tree-root-nodes-url') || tree.data('taxon-root-nodes-url'),\n      cache: false,\n      beforeSend(settings) {\n        loader.addClass('active');\n\n        return settings;\n      },\n      onSuccess(response) {\n        const rootContainer = createRootContainer();\n        response.forEach((rootNode) =\u003e {\n          rootContainer.append((\n            createLeaf(sanitizeInput(rootNode.name), rootNode.code, rootNode.hasChildren, multiple, rootNode.level)\n          ));\n        });\n        tree.append(rootContainer);\n        loader.removeClass('active');\n      },\n    });\n  },\n});\n```\n\n2. Create new file `assets/admin/sylius-auto-complete.js`:\n\n```js\n// assets/admin/sylius-auto-complete.js\n\nfunction sanitizeInput(input) {\n  const div = document.createElement('div');\n  div.textContent = input;\n  return div.innerHTML; // Converts text content to plain HTML, stripping any scripts\n}\n\n$.fn.extend({\n  autoComplete() {\n    this.each((idx, el) =\u003e {\n      const element = $(el);\n      const criteriaName = element.data('criteria-name');\n      const choiceName = element.data('choice-name');\n      const choiceValue = element.data('choice-value');\n      const autocompleteValue = element.find('input.autocomplete').val();\n      const loadForEditUrl = element.data('load-edit-url');\n\n      element.dropdown({\n        delay: {\n          search: 250,\n        },\n        forceSelection: false,\n        saveRemoteData: false,\n        verbose: true,\n        apiSettings: {\n          dataType: 'JSON',\n          cache: false,\n          beforeSend(settings) {\n            /* eslint-disable-next-line no-param-reassign */\n            settings.data[criteriaName] = settings.urlData.query;\n\n            return settings;\n          },\n          onResponse(response) {\n            let results = response.map(item =\u003e ({\n              name: sanitizeInput(item[choiceName]),\n              value: sanitizeInput(item[choiceValue]),\n            }));\n\n            if (!element.hasClass('multiple')) {\n              results.unshift({\n                name: '\u0026nbsp;',\n                value: '',\n              });\n            }\n\n            return {\n              success: true,\n              results: results,\n            };\n          },\n        },\n      });\n\n      if (autocompleteValue.split(',').filter(String).length \u003e 0) {\n        const menuElement = element.find('div.menu');\n\n        menuElement.api({\n          on: 'now',\n          method: 'GET',\n          url: loadForEditUrl,\n          beforeSend(settings) {\n            /* eslint-disable-next-line no-param-reassign */\n            settings.data[choiceValue] = autocompleteValue.split(',').filter(String);\n\n            return settings;\n          },\n          onSuccess(response) {\n            response.forEach((item) =\u003e {\n              menuElement.append((\n                $(`\u003cdiv class=\"item\" data-value=\"${item[choiceValue]}\"\u003e${item[choiceName]}\u003c/div\u003e`)\n              ));\n            });\n\n            element.dropdown('refresh');\n            element.dropdown('set selected', element.find('input.autocomplete').val().split(',').filter(String));\n          },\n        });\n      }\n    });\n  },\n});\n```\n\n3. Create new file `assets/admin/sylius-product-auto-complete.js`:\n\n```js\n// assets/admin/sylius-product-auto-complete.js\n\nfunction sanitizeInput(input) {\n  const div = document.createElement('div');\n  div.textContent = input;\n  return div.innerHTML; // Converts text content to plain HTML, stripping any scripts\n}\n\n$.fn.extend({\n  productAutoComplete() {\n    this.each((index, element) =\u003e {\n      const $element = $(element);\n      $element.dropdown('set selected', $element.find('input[name*=\"[associations]\"]').val().split(',').filter(String));\n    });\n\n    this.dropdown({\n      delay: {\n        search: 250,\n      },\n      forceSelection: false,\n      apiSettings: {\n        dataType: 'JSON',\n        cache: false,\n        data: {\n          criteria: { search: { type: 'contains', value: '' } },\n        },\n        beforeSend(settings) {\n          /* eslint-disable-next-line no-param-reassign */\n          settings.data.criteria.search.value = settings.urlData.query;\n\n          return settings;\n        },\n        onResponse(response) {\n          return {\n            success: true,\n            results: response._embedded.items.map(item =\u003e ({\n              name: sanitizeInput(item.name),\n              value: sanitizeInput(item.code),\n            })),\n          };\n        },\n      },\n      onAdd(addedValue, addedText, $addedChoice) {\n        const inputAssociation = $addedChoice.parents('.product-select').find('input[name*=\"[associations]\"]');\n        const associatedProductCodes = inputAssociation.val().length \u003e 0 ? inputAssociation.val().split(',').filter(String) : [];\n\n        associatedProductCodes.push(addedValue);\n        $.unique(associatedProductCodes.sort());\n\n        inputAssociation.attr('value', associatedProductCodes.join());\n      },\n      onRemove(removedValue, removedText, $removedChoice) {\n        const inputAssociation = $removedChoice.parents('.product-select').find('input[name*=\"[associations]\"]');\n        const associatedProductCodes = inputAssociation.val().length \u003e 0 ? inputAssociation.val().split(',').filter(String) : [];\n\n        associatedProductCodes.splice($.inArray(removedValue, associatedProductCodes), 1);\n\n        inputAssociation.attr('value', associatedProductCodes.join());\n      },\n    });\n  },\n});\n```\n\n4. Add new import in `assets/admin/entry.js`:\n\n```js\n// assets/admin/entry.js\n// ...\nimport './sylius-lazy-choice-tree';\nimport './sylius-auto-complete';\nimport './sylius-product-auto-complete';\n```\n\n5. Rebuild your assets:\n\n```bash\nyarn build\n``` \n\n### Acknowledgements\n\nThis security issue has been reported by [Checkmarx Research Group](https://checkmarx.com), thank you!\n\n### For more information\nIf you have any questions or comments about this advisory:\n* Open an issue in [Sylius issues](https://github.com/Sylius/Sylius/issues)\n* Email us at security@sylius.com\n",
    "Origin": "UNSPECIFIED",
    "PublishedAt": "2024-05-10T15:33:01Z",
    "Severity": "LOW",
    "Summary": "Sylius potentially vulnerable to Cross Site Scripting via \"Name\" field (Taxons, Products, Options, Variants) in Admin Panel",
    "UpdatedAt": "2024-05-10T15:33:03Z",
    "WithdrawnAt": "",
    "CVSS": {
      "Score": 0,
      "VectorString": ""
    }
  },
  "Versions": [
    {
      "FirstPatchedVersion": {
        "Identifier": "1.13.1"
      },
      "VulnerableVersionRange": "\u003e= 1.13.0-alpha.1, \u003c 1.13.1"
    },
    {
      "FirstPatchedVersion": {
        "Identifier": "1.12.16"
      },
      "VulnerableVersionRange": "\u003e= 1.12.0-alpha.1, \u003c 1.12.16"
    }
  ]
}