{
  "name": "aws-efs-csi-driver",
  "secfixes": {
    "0": [
      "CVE-2019-11255",
      "CVE-2021-25743",
      "CVE-2023-2431",
      "CVE-2023-2727",
      "CVE-2023-2728",
      "CVE-2023-45283",
      "CVE-2023-45284",
      "GHSA-cgcv-5272-97pr",
      "GHSA-f4w6-3rh6-6q4q",
      "GHSA-f9jg-8p32-2f55",
      "GHSA-qc2g-gmh6-95p4",
      "GHSA-rq3x-83w4-p28c",
      "GHSA-vvjp-q62m-2vph",
      "GHSA-xc8m-28vv-4pjc"
    ],
    "1.7.0-r5": [
      "CVE-2023-39325",
      "CVE-2023-3978",
      "GHSA-2wrh-6pvc-2jm9",
      "GHSA-4374-p667-p6c8"
    ],
    "1.7.0-r6": [
      "CVE-2023-3955",
      "CVE-2023-44487",
      "GHSA-m425-mq94-257g",
      "GHSA-q78c-gwqw-jcmc",
      "GHSA-qppj-fm5r-hxr3"
    ],
    "1.7.1-r1": [
      "CVE-2023-5528",
      "GHSA-hq6q-c2x6-hmch"
    ],
    "1.7.6-r1": [
      "CVE-2023-45289",
      "CVE-2023-45290",
      "CVE-2024-24783",
      "CVE-2024-24784",
      "CVE-2024-24785",
      "GHSA-32ch-6x54-q4h9",
      "GHSA-3q2c-pvp5-3cqp",
      "GHSA-fgq5-q76c-gx78",
      "GHSA-j6m3-gc37-6r6q",
      "GHSA-rr6r-cfgf-gc6h"
    ],
    "1.7.6-r2": [
      "CVE-2024-24786",
      "GHSA-8r3f-844c-mc37"
    ],
    "1.7.7-r1": [
      "CVE-2023-45288",
      "GHSA-4v7x-pqxf-cx7m"
    ],
    "2.0.2-r1": [
      "CVE-2024-24787",
      "CVE-2024-24788",
      "GHSA-2jwv-jmq4-4j3r",
      "GHSA-5fq7-4mxc-535h"
    ]
  },
  "apkurl": "{{urlprefix}}/{{reponame}}/{{arch}}/{{pkg.name}}-{{pkg.ver}}.apk",
  "archs": [
    "x86_64",
    "aarch64"
  ],
  "urlprefix": "https://packages.wolfi.dev",
  "reponame": "os"
}