{
  "name": "clamav",
  "secfixes": {
    "1.3.0-r0": [
      "CVE-2024-20290",
      "CVE-2024-20328",
      "GHSA-vhq6-cjc8-x8v9",
      "GHSA-xcpx-h22f-m42v"
    ]
  },
  "apkurl": "{{urlprefix}}/{{reponame}}/{{arch}}/{{pkg.name}}-{{pkg.ver}}.apk",
  "archs": [
    "x86_64",
    "aarch64"
  ],
  "urlprefix": "https://packages.wolfi.dev",
  "reponame": "os"
}