{
  "name": "conftest",
  "secfixes": {
    "0": [
      "CVE-2023-45283",
      "CVE-2023-45284",
      "GHSA-jq35-85cj-fj4p",
      "GHSA-rq3x-83w4-p28c",
      "GHSA-vvjp-q62m-2vph"
    ],
    "0.46.0-r1": [
      "CVE-2023-44487",
      "GHSA-m425-mq94-257g",
      "GHSA-qppj-fm5r-hxr3"
    ],
    "0.47.0-r3": [
      "CVE-2023-48795",
      "GHSA-45x7-px36-x8w8"
    ],
    "0.49.0-r1": [
      "CVE-2024-23650",
      "CVE-2024-23651",
      "CVE-2024-23652",
      "CVE-2024-23653",
      "GHSA-4v98-7qmw-rqr8",
      "GHSA-9p26-698r-w4hx",
      "GHSA-m3r6-h7wv-7xxv",
      "GHSA-wr6v-9f75-vh2g"
    ],
    "0.50.0-r1": [
      "CVE-2024-24786",
      "GHSA-8r3f-844c-mc37"
    ],
    "0.50.0-r2": [
      "CVE-2024-29018",
      "GHSA-mq39-4gv4-mvpx"
    ],
    "0.51.0-r1": [
      "CVE-2023-45288",
      "GHSA-4v7x-pqxf-cx7m"
    ],
    "0.52.0-r0": [
      "CVE-2024-3817",
      "GHSA-q64h-39hv-4cf7"
    ],
    "0.52.0-r1": [
      "CVE-2024-24787",
      "CVE-2024-24788",
      "GHSA-2jwv-jmq4-4j3r",
      "GHSA-5fq7-4mxc-535h"
    ],
    "0.52.0-r3": [
      "CVE-2024-24789",
      "CVE-2024-24790",
      "GHSA-236w-p7wf-5ph8",
      "GHSA-49gw-vxvf-fc2g"
    ]
  },
  "apkurl": "{{urlprefix}}/{{reponame}}/{{arch}}/{{pkg.name}}-{{pkg.ver}}.apk",
  "archs": [
    "x86_64",
    "aarch64"
  ],
  "urlprefix": "https://packages.wolfi.dev",
  "reponame": "os"
}