{
  "name": "consul-1.16",
  "secfixes": {
    "0": [
      "CVE-2019-9764",
      "CVE-2020-25864",
      "CVE-2020-7219",
      "CVE-2021-32574",
      "CVE-2021-36213",
      "CVE-2021-37219",
      "CVE-2021-38698",
      "CVE-2022-29153",
      "CVE-2022-40716",
      "CVE-2023-1297",
      "CVE-2023-45283",
      "CVE-2023-45284",
      "GHSA-23jv-v6qj-3fhh",
      "GHSA-25gf-8qrr-g78r",
      "GHSA-6hw5-6gcx-phmw",
      "GHSA-8h2g-r292-j8xh",
      "GHSA-8xmx-h8rq-h94j",
      "GHSA-c57c-7hrj-6q6v",
      "GHSA-ccw8-7688-vqx4",
      "GHSA-m69r-9g56-7mv8",
      "GHSA-q6h7-4qgw-2j9p",
      "GHSA-q7fx-wm2p-qfj8",
      "GHSA-rq3x-83w4-p28c",
      "GHSA-vvjp-q62m-2vph"
    ],
    "1.16.1-r0": [
      "CVE-2023-3518",
      "GHSA-9rhf-q362-77mx"
    ],
    "1.16.2-r3": [
      "CVE-2023-39325",
      "CVE-2023-3978",
      "GHSA-2wrh-6pvc-2jm9",
      "GHSA-4374-p667-p6c8"
    ],
    "1.16.4-r1": [
      "CVE-2023-48795",
      "GHSA-45x7-px36-x8w8"
    ],
    "1.16.6-r1": [
      "CVE-2023-45289",
      "CVE-2023-45290",
      "CVE-2024-24783",
      "CVE-2024-24784",
      "CVE-2024-24785",
      "GHSA-32ch-6x54-q4h9",
      "GHSA-3q2c-pvp5-3cqp",
      "GHSA-fgq5-q76c-gx78",
      "GHSA-j6m3-gc37-6r6q",
      "GHSA-rr6r-cfgf-gc6h"
    ],
    "1.16.6-r2": [
      "CVE-2024-24786",
      "GHSA-8r3f-844c-mc37"
    ],
    "1.16.7-r1": [
      "CVE-2023-45288",
      "GHSA-4v7x-pqxf-cx7m"
    ],
    "1.16.7-r3": [
      "CVE-2024-0874",
      "GHSA-m9w6-wp3h-vq8g"
    ],
    "1.16.7-r6": [
      "CVE-2024-24789",
      "CVE-2024-24790",
      "GHSA-236w-p7wf-5ph8",
      "GHSA-49gw-vxvf-fc2g"
    ]
  },
  "apkurl": "{{urlprefix}}/{{reponame}}/{{arch}}/{{pkg.name}}-{{pkg.ver}}.apk",
  "archs": [
    "x86_64",
    "aarch64"
  ],
  "urlprefix": "https://packages.wolfi.dev",
  "reponame": "os"
}