{
  "name": "datadog-agent",
  "secfixes": {
    "7.50.3-r1": [
      "CVE-2024-21626",
      "CVE-2024-23650",
      "CVE-2024-23651",
      "CVE-2024-23652",
      "CVE-2024-23653",
      "GHSA-4v98-7qmw-rqr8",
      "GHSA-9p26-698r-w4hx",
      "GHSA-m3r6-h7wv-7xxv",
      "GHSA-wr6v-9f75-vh2g",
      "GHSA-xr7r-f8xq-vfvv"
    ],
    "7.51.1-r1": [
      "CVE-2023-45289",
      "CVE-2023-45290",
      "CVE-2024-24783",
      "CVE-2024-24784",
      "CVE-2024-24785",
      "GHSA-32ch-6x54-q4h9",
      "GHSA-3q2c-pvp5-3cqp",
      "GHSA-fgq5-q76c-gx78",
      "GHSA-j6m3-gc37-6r6q",
      "GHSA-rr6r-cfgf-gc6h"
    ],
    "7.51.1-r2": [
      "CVE-2024-24786",
      "GHSA-8r3f-844c-mc37"
    ],
    "7.51.1-r3": [
      "CVE-2024-24557",
      "GHSA-xw73-rw38-6vjc"
    ],
    "7.52.0-r0": [
      "CVE-2024-29018",
      "GHSA-mq39-4gv4-mvpx"
    ],
    "7.52.1-r1": [
      "CVE-2023-45288",
      "GHSA-4v7x-pqxf-cx7m"
    ],
    "7.52.1-r2": [
      "CVE-2024-0406",
      "GHSA-rhh4-rh7c-7r5v"
    ],
    "7.54.0-r0": [
      "CVE-2024-21506",
      "CVE-2024-3651",
      "GHSA-cr6f-gf5w-vhrc",
      "GHSA-jjg7-2v4v-x38h"
    ],
    "7.54.0-r1": [
      "CVE-2024-35195",
      "CVE-2024-36039",
      "CVE-2024-3772",
      "GHSA-9wx4-h78v-vm56",
      "GHSA-mr82-8j83-vxmv",
      "GHSA-v9hf-5j83-6xpp"
    ],
    "7.54.0-r2": [
      "CVE-2024-24789",
      "CVE-2024-24790",
      "GHSA-236w-p7wf-5ph8",
      "GHSA-49gw-vxvf-fc2g"
    ],
    "7.54.0-r3": [
      "CVE-2024-36129",
      "GHSA-c74f-6mfw-mm4v"
    ],
    "7.54.0-r4": [
      "GHSA-87m9-rv8p-rgmg"
    ]
  },
  "apkurl": "{{urlprefix}}/{{reponame}}/{{arch}}/{{pkg.name}}-{{pkg.ver}}.apk",
  "archs": [
    "x86_64",
    "aarch64"
  ],
  "urlprefix": "https://packages.wolfi.dev",
  "reponame": "os"
}