{
  "name": "go-fips-1.21",
  "secfixes": {
    "1.21.10-r0": [
      "CVE-2024-24787",
      "GHSA-5fq7-4mxc-535h"
    ],
    "1.21.11-r0": [
      "CVE-2024-24789",
      "CVE-2024-24790",
      "GHSA-236w-p7wf-5ph8",
      "GHSA-49gw-vxvf-fc2g"
    ],
    "1.21.9-r0": [
      "CVE-2023-45288",
      "GHSA-4v7x-pqxf-cx7m"
    ]
  },
  "apkurl": "{{urlprefix}}/{{reponame}}/{{arch}}/{{pkg.name}}-{{pkg.ver}}.apk",
  "archs": [
    "x86_64",
    "aarch64"
  ],
  "urlprefix": "https://packages.wolfi.dev",
  "reponame": "os"
}