{
  "name": "grype",
  "secfixes": {
    "0": [
      "CVE-2023-45283",
      "CVE-2023-45284",
      "GHSA-jq35-85cj-fj4p",
      "GHSA-rq3x-83w4-p28c",
      "GHSA-vvjp-q62m-2vph"
    ],
    "0.72.0-r1": [
      "CVE-2023-44487",
      "GHSA-m425-mq94-257g",
      "GHSA-qppj-fm5r-hxr3"
    ],
    "0.73.4-r2": [
      "CVE-2023-48795",
      "GHSA-45x7-px36-x8w8",
      "GHSA-7ww5-4wqc-m92c"
    ],
    "0.74.4-r0": [
      "CVE-2024-24579",
      "GHSA-hpxr-w9w7-g4gv"
    ],
    "0.74.4-r1": [
      "CVE-2024-21626",
      "GHSA-xr7r-f8xq-vfvv"
    ],
    "0.74.7-r1": [
      "CVE-2023-45289",
      "CVE-2023-45290",
      "CVE-2024-24783",
      "CVE-2024-24784",
      "CVE-2024-24785",
      "GHSA-32ch-6x54-q4h9",
      "GHSA-3q2c-pvp5-3cqp",
      "GHSA-fgq5-q76c-gx78",
      "GHSA-j6m3-gc37-6r6q",
      "GHSA-rr6r-cfgf-gc6h"
    ],
    "0.74.7-r2": [
      "CVE-2024-24786",
      "GHSA-8r3f-844c-mc37"
    ],
    "0.74.7-r3": [
      "CVE-2024-29018",
      "GHSA-mq39-4gv4-mvpx"
    ],
    "0.77.0-r1": [
      "CVE-2024-32473",
      "GHSA-x84c-p2g9-rqv9"
    ],
    "0.78.0-r1": [
      "CVE-2024-24789",
      "CVE-2024-24790",
      "GHSA-236w-p7wf-5ph8",
      "GHSA-49gw-vxvf-fc2g"
    ]
  },
  "apkurl": "{{urlprefix}}/{{reponame}}/{{arch}}/{{pkg.name}}-{{pkg.ver}}.apk",
  "archs": [
    "x86_64",
    "aarch64"
  ],
  "urlprefix": "https://packages.wolfi.dev",
  "reponame": "os"
}