{
  "name": "hey",
  "secfixes": {
    "0": [
      "CVE-2023-45283",
      "CVE-2023-45284",
      "GHSA-rq3x-83w4-p28c",
      "GHSA-vvjp-q62m-2vph"
    ],
    "0.1.4-r10": [
      "CVE-2023-45289",
      "CVE-2023-45290",
      "CVE-2024-24783",
      "CVE-2024-24784",
      "CVE-2024-24785",
      "GHSA-32ch-6x54-q4h9",
      "GHSA-3q2c-pvp5-3cqp",
      "GHSA-fgq5-q76c-gx78",
      "GHSA-j6m3-gc37-6r6q",
      "GHSA-rr6r-cfgf-gc6h"
    ],
    "0.1.4-r13": [
      "CVE-2024-24787",
      "CVE-2024-24788",
      "GHSA-2jwv-jmq4-4j3r",
      "GHSA-5fq7-4mxc-535h"
    ],
    "0.1.4-r14": [
      "CVE-2024-24789",
      "CVE-2024-24790",
      "GHSA-236w-p7wf-5ph8",
      "GHSA-49gw-vxvf-fc2g"
    ],
    "0.1.4-r3": [
      "CVE-2018-17847",
      "CVE-2018-17848",
      "CVE-2019-9512",
      "CVE-2019-9514",
      "CVE-2021-31525",
      "CVE-2021-33194",
      "CVE-2021-38561",
      "CVE-2022-27664",
      "CVE-2022-32149",
      "CVE-2022-41723",
      "GHSA-39qc-96h7-956f",
      "GHSA-4r78-hx75-jjj2",
      "GHSA-69cg-p879-7622",
      "GHSA-69ch-w2m2-3vjp",
      "GHSA-83g2-8m93-v3w7",
      "GHSA-h86h-8ppg-mxmh",
      "GHSA-hgr8-6h9x-f7q9",
      "GHSA-mv93-wvcp-7m7r",
      "GHSA-ppp9-7jff-5vj2",
      "GHSA-vvpx-j8f3-3w6h"
    ],
    "0.1.4-r8": [
      "CVE-2023-39325",
      "CVE-2023-3978",
      "CVE-2023-44487",
      "GHSA-2wrh-6pvc-2jm9",
      "GHSA-4374-p667-p6c8",
      "GHSA-qppj-fm5r-hxr3"
    ],
    "0.1.4-r9": [
      "CVE-2023-39326",
      "CVE-2023-45285",
      "GHSA-5f94-vhjq-rpg8",
      "GHSA-9f76-wg39-x86h"
    ]
  },
  "apkurl": "{{urlprefix}}/{{reponame}}/{{arch}}/{{pkg.name}}-{{pkg.ver}}.apk",
  "archs": [
    "x86_64",
    "aarch64"
  ],
  "urlprefix": "https://packages.wolfi.dev",
  "reponame": "os"
}