{
  "name": "jenkins",
  "secfixes": {
    "0": [
      "CVE-2016-1000027",
      "CVE-2022-1471",
      "CVE-2023-33201",
      "CVE-2023-35116",
      "GHSA-4wrc-f8pq-fpqp",
      "GHSA-58qw-p7qm-5rvh",
      "GHSA-gx6w-fqg7-mc3p",
      "GHSA-hr8g-6v94-x4m9",
      "GHSA-mjmj-j48q-9wg2"
    ],
    "2.395-r0": [
      "CVE-2023-24998",
      "CVE-2023-27898",
      "CVE-2023-27899",
      "CVE-2023-27902",
      "CVE-2023-27903",
      "CVE-2023-27904",
      "GHSA-584m-7r4m-8j6v",
      "GHSA-cj6r-8pxj-5jv6",
      "GHSA-hf9h-vv4m-2f33",
      "GHSA-hfrx-6qgj-fp6c",
      "GHSA-j664-qhh4-hpf8",
      "GHSA-rrgp-c2w8-6vg6"
    ],
    "2.442-r0": [
      "CVE-2024-22233",
      "CVE-2024-23897",
      "GHSA-6f9g-cxwr-q5jr",
      "GHSA-r4q3-7g4q-x89m"
    ],
    "2.443-r0": [
      "CVE-2024-23900",
      "GHSA-cjgm-9vc9-56mx"
    ],
    "2.446-r0": [
      "CVE-2024-22243",
      "GHSA-ccgv-vj62-xf9h"
    ],
    "2.447-r0": [
      "CVE-2024-25710",
      "CVE-2024-26308",
      "GHSA-4265-ccf5-phj5",
      "GHSA-4g9r-vxhx-9pgx"
    ],
    "2.450-r0": [
      "CVE-2024-22257",
      "CVE-2024-22259",
      "GHSA-f3jh-qvm4-mg39",
      "GHSA-hgjh-9rj2-g67j"
    ],
    "2.458-r0": [
      "CVE-2024-34144",
      "CVE-2024-34145",
      "GHSA-2g4q-9vm9-9fw4",
      "GHSA-v63g-v339-2673"
    ]
  },
  "apkurl": "{{urlprefix}}/{{reponame}}/{{arch}}/{{pkg.name}}-{{pkg.ver}}.apk",
  "archs": [
    "x86_64",
    "aarch64"
  ],
  "urlprefix": "https://packages.wolfi.dev",
  "reponame": "os"
}