{
  "name": "kubevela",
  "secfixes": {
    "0": [
      "CVE-2019-25210",
      "CVE-2020-8552",
      "CVE-2022-39383",
      "CVE-2023-45283",
      "CVE-2023-45284",
      "GHSA-6xv5-86q9-7xr8",
      "GHSA-82hx-w2r5-c2wq",
      "GHSA-jw44-4f3j-q396",
      "GHSA-m5xf-x7q6-3rm7",
      "GHSA-rq3x-83w4-p28c",
      "GHSA-vvjp-q62m-2vph"
    ],
    "1.9.10-r0": [
      "CVE-2024-24786",
      "GHSA-8r3f-844c-mc37"
    ],
    "1.9.11-r1": [
      "CVE-2023-45288",
      "GHSA-4v7x-pqxf-cx7m"
    ],
    "1.9.11-r4": [
      "CVE-2024-24789",
      "CVE-2024-24790",
      "GHSA-236w-p7wf-5ph8",
      "GHSA-49gw-vxvf-fc2g"
    ],
    "1.9.6-r4": [
      "CVE-2023-39325",
      "CVE-2023-3978",
      "CVE-2023-44487",
      "GHSA-2wrh-6pvc-2jm9",
      "GHSA-4374-p667-p6c8",
      "GHSA-qppj-fm5r-hxr3"
    ],
    "1.9.7-r3": [
      "CVE-2023-45142",
      "CVE-2023-47108",
      "GHSA-8pgv-569h-w5rw",
      "GHSA-m425-mq94-257g",
      "GHSA-rcjv-mgp8-qvmr"
    ],
    "1.9.7-r4": [
      "CVE-2023-49568",
      "GHSA-7ww5-4wqc-m92c",
      "GHSA-mw99-9chc-xw7r"
    ],
    "1.9.8-r1": [
      "GHSA-9763-4f94-gfch"
    ],
    "1.9.9-r0": [
      "CVE-2022-39272",
      "GHSA-f4p5-x4vc-mh4v"
    ],
    "1.9.9-r1": [
      "CVE-2024-24557",
      "GHSA-xw73-rw38-6vjc"
    ],
    "1.9.9-r2": [
      "CVE-2023-45289",
      "CVE-2023-45290",
      "CVE-2024-24783",
      "CVE-2024-24784",
      "CVE-2024-24785",
      "GHSA-32ch-6x54-q4h9",
      "GHSA-3q2c-pvp5-3cqp",
      "GHSA-fgq5-q76c-gx78",
      "GHSA-j6m3-gc37-6r6q",
      "GHSA-rr6r-cfgf-gc6h"
    ]
  },
  "apkurl": "{{urlprefix}}/{{reponame}}/{{arch}}/{{pkg.name}}-{{pkg.ver}}.apk",
  "archs": [
    "x86_64",
    "aarch64"
  ],
  "urlprefix": "https://packages.wolfi.dev",
  "reponame": "os"
}