{
  "name": "libarchive",
  "secfixes": {
    "3.6.1-r2": [
      "CVE-2022-36227",
      "GHSA-gpgf-w78r-4pvj"
    ],
    "3.7.4-r0": [
      "CVE-2024-20697",
      "CVE-2024-26256",
      "GHSA-2jc9-36w4-pmqw",
      "GHSA-w6xv-37jv-7cjr"
    ]
  },
  "apkurl": "{{urlprefix}}/{{reponame}}/{{arch}}/{{pkg.name}}-{{pkg.ver}}.apk",
  "archs": [
    "x86_64",
    "aarch64"
  ],
  "urlprefix": "https://packages.wolfi.dev",
  "reponame": "os"
}