{
  "name": "metrics-server",
  "secfixes": {
    "0": [
      "CVE-2019-3826",
      "CVE-2020-8552",
      "CVE-2023-45142",
      "CVE-2023-45283",
      "CVE-2023-45284",
      "GHSA-3m87-5598-2v4f",
      "GHSA-82hx-w2r5-c2wq",
      "GHSA-rcjv-mgp8-qvmr",
      "GHSA-rq3x-83w4-p28c",
      "GHSA-vvjp-q62m-2vph"
    ],
    "0.6.4-r1": [
      "CVE-2023-39318",
      "CVE-2023-39319",
      "CVE-2023-39320",
      "CVE-2023-39321",
      "CVE-2023-39322",
      "GHSA-892h-r6cr-53g4",
      "GHSA-9v7r-x7cv-v437",
      "GHSA-rxv8-v965-v333",
      "GHSA-vq7j-gx56-rxjh",
      "GHSA-vv9m-32rr-3g55"
    ],
    "0.6.4-r2": [
      "CVE-2023-39323",
      "GHSA-679v-hh23-h5jh"
    ],
    "0.6.4-r4": [
      "CVE-2023-39325",
      "CVE-2023-3978",
      "GHSA-2wrh-6pvc-2jm9",
      "GHSA-4374-p667-p6c8"
    ],
    "0.6.4-r5": [
      "CVE-2023-44487",
      "GHSA-m425-mq94-257g",
      "GHSA-qppj-fm5r-hxr3"
    ],
    "0.6.4-r8": [
      "CVE-2023-39326",
      "CVE-2023-45285",
      "GHSA-5f94-vhjq-rpg8",
      "GHSA-9f76-wg39-x86h"
    ],
    "0.6.4-r9": [
      "CVE-2023-48795",
      "GHSA-45x7-px36-x8w8"
    ],
    "0.7.0-r1": [
      "CVE-2023-45289",
      "CVE-2023-45290",
      "CVE-2024-24783",
      "CVE-2024-24784",
      "CVE-2024-24785",
      "GHSA-32ch-6x54-q4h9",
      "GHSA-3q2c-pvp5-3cqp",
      "GHSA-fgq5-q76c-gx78",
      "GHSA-j6m3-gc37-6r6q",
      "GHSA-rr6r-cfgf-gc6h"
    ],
    "0.7.0-r2": [
      "CVE-2024-24786",
      "GHSA-8r3f-844c-mc37"
    ],
    "0.7.1-r1": [
      "CVE-2023-45288",
      "GHSA-4v7x-pqxf-cx7m"
    ],
    "0.7.1-r3": [
      "CVE-2024-24787",
      "CVE-2024-24788",
      "GHSA-2jwv-jmq4-4j3r",
      "GHSA-5fq7-4mxc-535h"
    ],
    "0.7.1-r4": [
      "CVE-2024-24789",
      "CVE-2024-24790",
      "GHSA-236w-p7wf-5ph8",
      "GHSA-49gw-vxvf-fc2g"
    ]
  },
  "apkurl": "{{urlprefix}}/{{reponame}}/{{arch}}/{{pkg.name}}-{{pkg.ver}}.apk",
  "archs": [
    "x86_64",
    "aarch64"
  ],
  "urlprefix": "https://packages.wolfi.dev",
  "reponame": "os"
}