{
  "name": "opensearch-dashboards-2",
  "secfixes": {
    "2.11.1-r2": [
      "CVE-2020-36604",
      "CVE-2023-26159",
      "CVE-2023-45857",
      "GHSA-2jcg-qqmg-46q6",
      "GHSA-c429-5p7v-vgjp",
      "GHSA-jchw-25xp-jwwc",
      "GHSA-wf5p-g6vw-rhxx"
    ],
    "2.13.0-r0": [
      "CVE-2024-28849",
      "GHSA-cxjh-pqwp-8mfp"
    ]
  },
  "apkurl": "{{urlprefix}}/{{reponame}}/{{arch}}/{{pkg.name}}-{{pkg.ver}}.apk",
  "archs": [
    "x86_64",
    "aarch64"
  ],
  "urlprefix": "https://packages.wolfi.dev",
  "reponame": "os"
}