{
  "name": "opentelemetry-collector",
  "secfixes": {
    "0.102.1-r0": [
      "CVE-2024-36129",
      "GHSA-c74f-6mfw-mm4v"
    ]
  },
  "apkurl": "{{urlprefix}}/{{reponame}}/{{arch}}/{{pkg.name}}-{{pkg.ver}}.apk",
  "archs": [
    "x86_64",
    "aarch64"
  ],
  "urlprefix": "https://packages.wolfi.dev",
  "reponame": "os"
}