{
  "name": "reflex",
  "secfixes": {
    "0.3.9-r0": [
      "CVE-2024-22195",
      "GHSA-h5c8-rqwp-cp95"
    ],
    "0.4.0-r0": [
      "CVE-2024-24762",
      "GHSA-2jv5-9r88-3w3p",
      "GHSA-93gm-qmq6-w238",
      "GHSA-qf9m-vfgh-m389"
    ],
    "0.4.9-r0": [
      "CVE-2024-1135",
      "GHSA-w3h3-4rj7-4ph4"
    ],
    "0.5.0-r0": [
      "CVE-2024-34064",
      "GHSA-h75v-3vvj-5mfj"
    ]
  },
  "apkurl": "{{urlprefix}}/{{reponame}}/{{arch}}/{{pkg.name}}-{{pkg.ver}}.apk",
  "archs": [
    "x86_64",
    "aarch64"
  ],
  "urlprefix": "https://packages.wolfi.dev",
  "reponame": "os"
}