{
  "name": "syft",
  "secfixes": {
    "0": [
      "CVE-2023-45283",
      "CVE-2023-45284",
      "GHSA-rq3x-83w4-p28c",
      "GHSA-vvjp-q62m-2vph"
    ],
    "0.103.1-r0": [
      "CVE-2024-24579",
      "GHSA-hpxr-w9w7-g4gv"
    ],
    "0.104.0-r0": [
      "CVE-2024-21626",
      "GHSA-xr7r-f8xq-vfvv"
    ],
    "1.1.0-r0": [
      "CVE-2024-29018",
      "GHSA-mq39-4gv4-mvpx"
    ],
    "1.2.0-r0": [
      "CVE-2024-24786",
      "GHSA-8r3f-844c-mc37"
    ],
    "1.2.0-r1": [
      "CVE-2024-32473",
      "GHSA-x84c-p2g9-rqv9"
    ],
    "1.5.0-r1": [
      "CVE-2024-24789",
      "CVE-2024-24790",
      "GHSA-236w-p7wf-5ph8",
      "GHSA-49gw-vxvf-fc2g"
    ]
  },
  "apkurl": "{{urlprefix}}/{{reponame}}/{{arch}}/{{pkg.name}}-{{pkg.ver}}.apk",
  "archs": [
    "x86_64",
    "aarch64"
  ],
  "urlprefix": "https://packages.wolfi.dev",
  "reponame": "os"
}