{
  "name": "terraform",
  "secfixes": {
    "0": [
      "CVE-2019-19316",
      "CVE-2023-45283",
      "CVE-2023-45284",
      "GHSA-h3p9-wrgx-82cm",
      "GHSA-rq3x-83w4-p28c",
      "GHSA-vvjp-q62m-2vph"
    ],
    "1.5.5-r6": [
      "CVE-2023-39325",
      "CVE-2023-3978",
      "GHSA-2wrh-6pvc-2jm9",
      "GHSA-4374-p667-p6c8"
    ],
    "1.5.7-r0": [
      "CVE-2023-44487",
      "GHSA-m425-mq94-257g",
      "GHSA-qppj-fm5r-hxr3"
    ],
    "1.5.7-r12": [
      "CVE-2024-24789",
      "CVE-2024-24790",
      "GHSA-236w-p7wf-5ph8",
      "GHSA-49gw-vxvf-fc2g"
    ],
    "1.5.7-r3": [
      "CVE-2023-48795",
      "GHSA-45x7-px36-x8w8"
    ],
    "1.5.7-r4": [
      "CVE-2023-45289",
      "CVE-2023-45290",
      "CVE-2024-24783",
      "CVE-2024-24784",
      "CVE-2024-24785",
      "GHSA-32ch-6x54-q4h9",
      "GHSA-3q2c-pvp5-3cqp",
      "GHSA-fgq5-q76c-gx78",
      "GHSA-j6m3-gc37-6r6q",
      "GHSA-rr6r-cfgf-gc6h"
    ],
    "1.5.7-r5": [
      "CVE-2024-24786",
      "GHSA-8r3f-844c-mc37"
    ],
    "1.5.7-r6": [
      "CVE-2023-45288",
      "GHSA-4v7x-pqxf-cx7m"
    ],
    "1.5.7-r8": [
      "CVE-2024-3817",
      "GHSA-q64h-39hv-4cf7"
    ]
  },
  "apkurl": "{{urlprefix}}/{{reponame}}/{{arch}}/{{pkg.name}}-{{pkg.ver}}.apk",
  "archs": [
    "x86_64",
    "aarch64"
  ],
  "urlprefix": "https://packages.wolfi.dev",
  "reponame": "os"
}