{
  "Class": "vulnerability",
  "ID": "oval:com.microsoft.cbl-mariner:def:10760",
  "Version": "2",
  "Metadata": {
    "Title": "CVE-2022-1204 affecting package kernel for versions less than 5.15.82.1-1",
    "Affected": {
      "Family": "unix",
      "Platform": "CBL-Mariner"
    },
    "Reference": {
      "RefID": "CVE-2022-1204",
      "RefURL": "https://nvd.nist.gov/vuln/detail/CVE-2022-1204",
      "Source": "CVE"
    },
    "Patchable": "true",
    "AdvisoryDate": "2022-12-19T20:13:00Z",
    "AdvisoryID": "10760-2",
    "Severity": "Medium",
    "Description": "CVE-2022-1204 affecting package kernel for versions less than 5.15.82.1-1. A patched version of the package is available."
  },
  "Criteria": {
    "Operator": "AND",
    "Criterion": {
      "Comment": "Package kernel is earlier than 5.15.82.1-1, affected by CVE-2022-1204",
      "TestRef": "oval:com.microsoft.cbl-mariner:tst:10760000"
    }
  }
}