{
  "Class": "vulnerability",
  "ID": "oval:com.microsoft.cbl-mariner:def:11201",
  "Version": "1",
  "Metadata": {
    "Title": "CVE-2022-21594 affecting package mysql for versions less than 8.0.31-1",
    "Affected": {
      "Family": "unix",
      "Platform": "CBL-Mariner"
    },
    "Reference": {
      "RefID": "CVE-2022-21594",
      "RefURL": "https://nvd.nist.gov/vuln/detail/CVE-2022-21594",
      "Source": "CVE"
    },
    "Patchable": "true",
    "AdvisoryDate": "2022-11-03T20:38:25Z",
    "AdvisoryID": "11201-1",
    "Severity": "Medium",
    "Description": "CVE-2022-21594 affecting package mysql for versions less than 8.0.31-1. An upgraded version of the package is available that resolves this issue."
  },
  "Criteria": {
    "Operator": "AND",
    "Criterion": {
      "Comment": "Package mysql is earlier than 8.0.31-1, affected by CVE-2022-21594",
      "TestRef": "oval:com.microsoft.cbl-mariner:tst:11201000"
    }
  }
}