{
  "Class": "vulnerability",
  "ID": "oval:com.microsoft.cbl-mariner:def:11483",
  "Version": "1",
  "Metadata": {
    "Title": "CVE-2022-45884 affecting package kernel for versions less than 5.15.122.1-2",
    "Affected": {
      "Family": "unix",
      "Platform": "CBL-Mariner"
    },
    "Reference": {
      "RefID": "CVE-2022-45884",
      "RefURL": "https://nvd.nist.gov/vuln/detail/CVE-2022-45884",
      "Source": "CVE"
    },
    "Patchable": "true",
    "AdvisoryDate": "2023-08-10T16:37:57Z",
    "AdvisoryID": "11483-1",
    "Severity": "High",
    "Description": "CVE-2022-45884 affecting package kernel for versions less than 5.15.122.1-2. A patched version of the package is available."
  },
  "Criteria": {
    "Operator": "AND",
    "Criterion": {
      "Comment": "Package kernel is earlier than 5.15.122.1-2, affected by CVE-2022-45884",
      "TestRef": "oval:com.microsoft.cbl-mariner:tst:11483000"
    }
  }
}