{
  "Class": "vulnerability",
  "ID": "oval:com.microsoft.cbl-mariner:def:11529",
  "Version": "1",
  "Metadata": {
    "Title": "CVE-2022-41890 affecting package tensorflow for versions less than 2.11.0-1",
    "Affected": {
      "Family": "unix",
      "Platform": "CBL-Mariner"
    },
    "Reference": {
      "RefID": "CVE-2022-41890",
      "RefURL": "https://nvd.nist.gov/vuln/detail/CVE-2022-41890",
      "Source": "CVE"
    },
    "Patchable": "true",
    "AdvisoryDate": "2022-12-09T20:03:11Z",
    "AdvisoryID": "11529-1",
    "Severity": "High",
    "Description": "CVE-2022-41890 affecting package tensorflow for versions less than 2.11.0-1. An upgraded version of the package is available that resolves this issue."
  },
  "Criteria": {
    "Operator": "AND",
    "Criterion": {
      "Comment": "Package tensorflow is earlier than 2.11.0-1, affected by CVE-2022-41890",
      "TestRef": "oval:com.microsoft.cbl-mariner:tst:11529000"
    }
  }
}