{
  "Class": "vulnerability",
  "ID": "oval:com.microsoft.cbl-mariner:def:11656",
  "Version": "1",
  "Metadata": {
    "Title": "CVE-2022-23526 affecting package helm for versions less than 3.9.4-4",
    "Affected": {
      "Family": "unix",
      "Platform": "CBL-Mariner"
    },
    "Reference": {
      "RefID": "CVE-2022-23526",
      "RefURL": "https://nvd.nist.gov/vuln/detail/CVE-2022-23526",
      "Source": "CVE"
    },
    "Patchable": "true",
    "AdvisoryDate": "2023-01-03T20:57:19Z",
    "AdvisoryID": "11656-1",
    "Severity": "High",
    "Description": "CVE-2022-23526 affecting package helm for versions less than 3.9.4-4. A patched version of the package is available."
  },
  "Criteria": {
    "Operator": "AND",
    "Criterion": {
      "Comment": "Package helm is earlier than 3.9.4-4, affected by CVE-2022-23526",
      "TestRef": "oval:com.microsoft.cbl-mariner:tst:11656000"
    }
  }
}