{
  "Class": "vulnerability",
  "ID": "oval:com.microsoft.cbl-mariner:def:12970",
  "Version": "1",
  "Metadata": {
    "Title": "CVE-2022-4415 affecting package systemd for versions less than 250.3-13",
    "Affected": {
      "Family": "unix",
      "Platform": "CBL-Mariner"
    },
    "Reference": {
      "RefID": "CVE-2022-4415",
      "RefURL": "https://nvd.nist.gov/vuln/detail/CVE-2022-4415",
      "Source": "CVE"
    },
    "Patchable": "true",
    "AdvisoryDate": "2023-02-01T18:10:09Z",
    "AdvisoryID": "12970-1",
    "Severity": "Medium",
    "Description": "CVE-2022-4415 affecting package systemd for versions less than 250.3-13. A patched version of the package is available."
  },
  "Criteria": {
    "Operator": "AND",
    "Criterion": {
      "Comment": "Package systemd is earlier than 250.3-13, affected by CVE-2022-4415",
      "TestRef": "oval:com.microsoft.cbl-mariner:tst:12970000"
    }
  }
}