{
  "Class": "vulnerability",
  "ID": "oval:com.microsoft.cbl-mariner:def:13062",
  "Version": "1",
  "Metadata": {
    "Title": "CVE-2022-41860 affecting package freeradius for versions less than 3.2.3-1",
    "Affected": {
      "Family": "unix",
      "Platform": "CBL-Mariner"
    },
    "Reference": {
      "RefID": "CVE-2022-41860",
      "RefURL": "https://nvd.nist.gov/vuln/detail/CVE-2022-41860",
      "Source": "CVE"
    },
    "Patchable": "true",
    "AdvisoryDate": "2023-10-11T03:02:00Z",
    "AdvisoryID": "13062-1",
    "Severity": "High",
    "Description": "CVE-2022-41860 affecting package freeradius for versions less than 3.2.3-1. An upgraded version of the package is available that resolves this issue."
  },
  "Criteria": {
    "Operator": "AND",
    "Criterion": {
      "Comment": "Package freeradius is earlier than 3.2.3-1, affected by CVE-2022-41860",
      "TestRef": "oval:com.microsoft.cbl-mariner:tst:13062000"
    }
  }
}