{
  "Class": "vulnerability",
  "ID": "oval:com.microsoft.cbl-mariner:def:13203",
  "Version": "1",
  "Metadata": {
    "Title": "CVE-2022-3736 affecting package bind for versions less than 9.16.37-2",
    "Affected": {
      "Family": "unix",
      "Platform": "CBL-Mariner"
    },
    "Reference": {
      "RefID": "CVE-2022-3736",
      "RefURL": "https://nvd.nist.gov/vuln/detail/CVE-2022-3736",
      "Source": "CVE"
    },
    "Patchable": "true",
    "AdvisoryDate": "2023-09-27T18:02:50Z",
    "AdvisoryID": "13203-1",
    "Severity": "High",
    "Description": "CVE-2022-3736 affecting package bind for versions less than 9.16.37-2. An upgraded version of the package is available that resolves this issue."
  },
  "Criteria": {
    "Operator": "AND",
    "Criterion": {
      "Comment": "Package bind is earlier than 9.16.37-2, affected by CVE-2022-3736",
      "TestRef": "oval:com.microsoft.cbl-mariner:tst:13203000"
    }
  }
}