{
  "Class": "vulnerability",
  "ID": "oval:com.microsoft.cbl-mariner:def:13230",
  "Version": "1",
  "Metadata": {
    "Title": "CVE-2022-44617 affecting package libXpm for versions less than 3.5.17-1",
    "Affected": {
      "Family": "unix",
      "Platform": "CBL-Mariner"
    },
    "Reference": {
      "RefID": "CVE-2022-44617",
      "RefURL": "https://nvd.nist.gov/vuln/detail/CVE-2022-44617",
      "Source": "CVE"
    },
    "Patchable": "true",
    "AdvisoryDate": "2023-11-08T02:07:28Z",
    "AdvisoryID": "13230-1",
    "Severity": "High",
    "Description": "CVE-2022-44617 affecting package libXpm for versions less than 3.5.17-1. An upgraded version of the package is available that resolves this issue."
  },
  "Criteria": {
    "Operator": "AND",
    "Criterion": {
      "Comment": "Package libXpm is earlier than 3.5.17-1, affected by CVE-2022-44617",
      "TestRef": "oval:com.microsoft.cbl-mariner:tst:13230000"
    }
  }
}