{
  "Class": "vulnerability",
  "ID": "oval:com.microsoft.cbl-mariner:def:13782",
  "Version": "0",
  "Metadata": {
    "Title": "CVE-2022-3162 affecting package kube-vip-cloud-provider 0.0.2-16",
    "Affected": {
      "Family": "unix",
      "Platform": "CBL-Mariner"
    },
    "Reference": {
      "RefID": "CVE-2022-3162",
      "RefURL": "https://nvd.nist.gov/vuln/detail/CVE-2022-3162",
      "Source": "CVE"
    },
    "Patchable": "false",
    "AdvisoryID": "13782",
    "Severity": "Medium",
    "Description": "CVE-2022-3162 affecting package kube-vip-cloud-provider 0.0.2-16. No patch is available currently."
  },
  "Criteria": {
    "Operator": "AND",
    "Criterion": {
      "Comment": "Package kube-vip-cloud-provider is installed with version 0.0.2-16 or earlier",
      "TestRef": "oval:com.microsoft.cbl-mariner:tst:13782000"
    }
  }
}