{
  "Class": "vulnerability",
  "ID": "oval:com.microsoft.cbl-mariner:def:25691",
  "Version": "1",
  "Metadata": {
    "Title": "CVE-2022-4095 affecting package kernel for versions less than 5.15.107.1-2",
    "Affected": {
      "Family": "unix",
      "Platform": "CBL-Mariner"
    },
    "Reference": {
      "RefID": "CVE-2022-4095",
      "RefURL": "https://nvd.nist.gov/vuln/detail/CVE-2022-4095",
      "Source": "CVE"
    },
    "Patchable": "true",
    "AdvisoryDate": "2023-05-03T16:08:28Z",
    "AdvisoryID": "25691-1",
    "Severity": "High",
    "Description": "CVE-2022-4095 affecting package kernel for versions less than 5.15.107.1-2. A patched version of the package is available."
  },
  "Criteria": {
    "Operator": "AND",
    "Criterion": {
      "Comment": "Package kernel is earlier than 5.15.107.1-2, affected by CVE-2022-4095",
      "TestRef": "oval:com.microsoft.cbl-mariner:tst:25691000"
    }
  }
}