{
  "Class": "vulnerability",
  "ID": "oval:com.microsoft.cbl-mariner:def:33629",
  "Version": "1",
  "Metadata": {
    "Title": "CVE-2022-29526 affecting package prometheus for versions less than 2.37.0-1",
    "Affected": {
      "Family": "unix",
      "Platform": "CBL-Mariner"
    },
    "Reference": {
      "RefID": "CVE-2022-29526",
      "RefURL": "https://nvd.nist.gov/vuln/detail/CVE-2022-29526",
      "Source": "CVE"
    },
    "Patchable": "true",
    "AdvisoryID": "33629-1",
    "Severity": "Medium",
    "Description": "CVE-2022-29526 affecting package prometheus for versions less than 2.37.0-1. A patched version of the package is available."
  },
  "Criteria": {
    "Operator": "AND",
    "Criterion": {
      "Comment": "Package prometheus is earlier than 2.37.0-1, affected by CVE-2022-29526",
      "TestRef": "oval:com.microsoft.cbl-mariner:tst:33629000"
    }
  }
}