{
  "Class": "vulnerability",
  "ID": "oval:com.microsoft.cbl-mariner:def:39668",
  "Version": "1",
  "Metadata": {
    "Title": "CVE-2022-29526 affecting package cri-o for versions less than 1.21.7-2",
    "Affected": {
      "Family": "unix",
      "Platform": "CBL-Mariner"
    },
    "Reference": {
      "RefID": "CVE-2022-29526",
      "RefURL": "https://nvd.nist.gov/vuln/detail/CVE-2022-29526",
      "Source": "CVE"
    },
    "Patchable": "true",
    "AdvisoryDate": "2024-04-30T01:31:53Z",
    "AdvisoryID": "39668-1",
    "Severity": "Medium",
    "Description": "CVE-2022-29526 affecting package cri-o for versions less than 1.21.7-2. A patched version of the package is available."
  },
  "Criteria": {
    "Operator": "AND",
    "Criterion": {
      "Comment": "Package cri-o is earlier than 1.21.7-2, affected by CVE-2022-29526",
      "TestRef": "oval:com.microsoft.cbl-mariner:tst:39668000"
    }
  }
}