{
  "Class": "vulnerability",
  "ID": "oval:com.microsoft.cbl-mariner:def:8524",
  "Version": "3",
  "Metadata": {
    "Title": "CVE-2022-23806 affecting package golang for versions less than 1.18.8-3",
    "Affected": {
      "Family": "unix",
      "Platform": "CBL-Mariner"
    },
    "Reference": {
      "RefID": "CVE-2022-23806",
      "RefURL": "https://nvd.nist.gov/vuln/detail/CVE-2022-23806",
      "Source": "CVE"
    },
    "Patchable": "true",
    "AdvisoryDate": "2022-04-26T19:57:46Z",
    "AdvisoryID": "8524-3",
    "Severity": "Critical",
    "Description": "CVE-2022-23806 affecting package golang for versions less than 1.18.8-3. An upgraded version of the package is available that resolves this issue."
  },
  "Criteria": {
    "Operator": "AND",
    "Criterion": {
      "Comment": "Package golang is earlier than 1.18.8-3, affected by CVE-2022-23806",
      "TestRef": "oval:com.microsoft.cbl-mariner:tst:8524000"
    }
  }
}