{
  "Class": "vulnerability",
  "ID": "oval:com.microsoft.cbl-mariner:def:8966",
  "Version": "2",
  "Metadata": {
    "Title": "CVE-2022-0492 affecting package kernel for versions less than 5.15.26.1-2",
    "Affected": {
      "Family": "unix",
      "Platform": "CBL-Mariner"
    },
    "Reference": {
      "RefID": "CVE-2022-0492",
      "RefURL": "https://nvd.nist.gov/vuln/detail/CVE-2022-0492",
      "Source": "CVE"
    },
    "Patchable": "true",
    "AdvisoryDate": "2022-04-09T06:52:47Z",
    "AdvisoryID": "8966-2",
    "Severity": "High",
    "Description": "CVE-2022-0492 affecting package kernel for versions less than 5.15.26.1-2. A patched version of the package is available."
  },
  "Criteria": {
    "Operator": "AND",
    "Criterion": {
      "Comment": "Package kernel is earlier than 5.15.26.1-2, affected by CVE-2022-0492",
      "TestRef": "oval:com.microsoft.cbl-mariner:tst:8966000"
    }
  }
}