{
  "Class": "vulnerability",
  "ID": "oval:com.microsoft.cbl-mariner:def:9617",
  "Version": "2",
  "Metadata": {
    "Title": "CVE-2022-29824 affecting package libxslt for versions less than 1.1.34-7",
    "Affected": {
      "Family": "unix",
      "Platform": "CBL-Mariner"
    },
    "Reference": {
      "RefID": "CVE-2022-29824",
      "RefURL": "https://nvd.nist.gov/vuln/detail/CVE-2022-29824",
      "Source": "CVE"
    },
    "Patchable": "true",
    "AdvisoryDate": "2022-06-03T17:54:00Z",
    "AdvisoryID": "9617-2",
    "Severity": "Medium",
    "Description": "CVE-2022-29824 affecting package libxslt for versions less than 1.1.34-7. A patched version of the package is available."
  },
  "Criteria": {
    "Operator": "AND",
    "Criterion": {
      "Comment": "Package libxslt is earlier than 1.1.34-7, affected by CVE-2022-29824",
      "TestRef": "oval:com.microsoft.cbl-mariner:tst:9617000"
    }
  }
}