{
  "Class": "vulnerability",
  "ID": "oval:com.microsoft.cbl-mariner:def:9816",
  "Version": "2",
  "Metadata": {
    "Title": "CVE-2022-1734 affecting package kernel for versions less than 5.15.45.1-2",
    "Affected": {
      "Family": "unix",
      "Platform": "CBL-Mariner"
    },
    "Reference": {
      "RefID": "CVE-2022-1734",
      "RefURL": "https://nvd.nist.gov/vuln/detail/CVE-2022-1734",
      "Source": "CVE"
    },
    "Patchable": "true",
    "AdvisoryDate": "2022-06-26T03:30:03Z",
    "AdvisoryID": "9816-2",
    "Severity": "High",
    "Description": "CVE-2022-1734 affecting package kernel for versions less than 5.15.45.1-2. A patched version of the package is available."
  },
  "Criteria": {
    "Operator": "AND",
    "Criterion": {
      "Comment": "Package kernel is earlier than 5.15.45.1-2, affected by CVE-2022-1734",
      "TestRef": "oval:com.microsoft.cbl-mariner:tst:9816000"
    }
  }
}