{
  "Class": "vulnerability",
  "ID": "oval:com.microsoft.cbl-mariner:def:9847",
  "Version": "1",
  "Metadata": {
    "Title": "CVE-2022-30784 affecting package ntfs-3g for versions less than 2022.5.17-1",
    "Affected": {
      "Family": "unix",
      "Platform": "CBL-Mariner"
    },
    "Reference": {
      "RefID": "CVE-2022-30784",
      "RefURL": "https://nvd.nist.gov/vuln/detail/CVE-2022-30784",
      "Source": "CVE"
    },
    "Patchable": "true",
    "AdvisoryDate": "2022-06-26T03:29:32Z",
    "AdvisoryID": "9847-1",
    "Severity": "High",
    "Description": "CVE-2022-30784 affecting package ntfs-3g for versions less than 2022.5.17-1. An upgraded version of the package is available that resolves this issue."
  },
  "Criteria": {
    "Operator": "AND",
    "Criterion": {
      "Comment": "Package ntfs-3g is earlier than 2022.5.17-1, affected by CVE-2022-30784",
      "TestRef": "oval:com.microsoft.cbl-mariner:tst:9847000"
    }
  }
}