{
  "id": "GHSA-2g68-c3qc-8985",
  "modified": "2024-06-14T16:19:02.957033Z",
  "published": "2024-05-06T14:21:27Z",
  "aliases": [
    "CVE-2024-34069"
  ],
  "summary": "Werkzeug debugger vulnerable to remote execution when interacting with attacker controlled domain",
  "details": "The debugger in affected versions of Werkzeug can allow an attacker to execute code on a developer's machine under some circumstances. This requires the attacker to get the developer to interact with a domain and subdomain they control, and enter the debugger PIN, but if they are successful it allows access to the debugger even if it is only running on localhost. This also requires the attacker to guess a URL in the developer's application that will trigger the debugger.",
  "affected": [
    {
      "package": {
        "ecosystem": "PyPI",
        "name": "werkzeug",
        "purl": "pkg:pypi/werkzeug"
      },
      "ranges": [
        {
          "type": "ECOSYSTEM",
          "events": [
            {
              "introduced": "0"
            },
            {
              "fixed": "3.0.3"
            }
          ]
        }
      ],
      "versions": [
        "0.1",
        "0.10",
        "0.10.1",
        "0.10.2",
        "0.10.3",
        "0.10.4",
        "0.11",
        "0.11.1",
        "0.11.10",
        "0.11.11",
        "0.11.12",
        "0.11.13",
        "0.11.14",
        "0.11.15",
        "0.11.2",
        "0.11.3",
        "0.11.4",
        "0.11.5",
        "0.11.6",
        "0.11.7",
        "0.11.8",
        "0.11.9",
        "0.12",
        "0.12.1",
        "0.12.2",
        "0.13",
        "0.14",
        "0.14.1",
        "0.15.0",
        "0.15.1",
        "0.15.2",
        "0.15.3",
        "0.15.4",
        "0.15.5",
        "0.15.6",
        "0.16.0",
        "0.16.1",
        "0.2",
        "0.3",
        "0.3.1",
        "0.4",
        "0.4.1",
        "0.5",
        "0.5.1",
        "0.6",
        "0.6.1",
        "0.6.2",
        "0.7",
        "0.7.1",
        "0.7.2",
        "0.8",
        "0.8.1",
        "0.8.2",
        "0.8.3",
        "0.9",
        "0.9.1",
        "0.9.2",
        "0.9.3",
        "0.9.4",
        "0.9.5",
        "0.9.6",
        "1.0.0",
        "1.0.0rc1",
        "1.0.1",
        "2.0.0",
        "2.0.0rc1",
        "2.0.0rc2",
        "2.0.0rc3",
        "2.0.0rc4",
        "2.0.0rc5",
        "2.0.1",
        "2.0.2",
        "2.0.3",
        "2.1.0",
        "2.1.1",
        "2.1.2",
        "2.2.0",
        "2.2.0a1",
        "2.2.1",
        "2.2.2",
        "2.2.3",
        "2.3.0",
        "2.3.1",
        "2.3.2",
        "2.3.3",
        "2.3.4",
        "2.3.5",
        "2.3.6",
        "2.3.7",
        "2.3.8",
        "3.0.0",
        "3.0.1",
        "3.0.2"
      ],
      "database_specific": {
        "source": "https://github.com/github/advisory-database/blob/main/advisories/github-reviewed/2024/05/GHSA-2g68-c3qc-8985/GHSA-2g68-c3qc-8985.json"
      }
    }
  ],
  "references": [
    {
      "type": "WEB",
      "url": "https://github.com/pallets/werkzeug/security/advisories/GHSA-2g68-c3qc-8985"
    },
    {
      "type": "ADVISORY",
      "url": "https://nvd.nist.gov/vuln/detail/CVE-2024-34069"
    },
    {
      "type": "WEB",
      "url": "https://github.com/pallets/werkzeug/commit/3386395b24c7371db11a5b8eaac0c91da5362692"
    },
    {
      "type": "PACKAGE",
      "url": "https://github.com/pallets/werkzeug"
    },
    {
      "type": "WEB",
      "url": "https://lists.fedoraproject.org/archives/list/package-announce@lists.fedoraproject.org/message/H4SH32AM3CTPMAAEOIDAN7VU565LO4IR"
    },
    {
      "type": "WEB",
      "url": "https://lists.fedoraproject.org/archives/list/package-announce@lists.fedoraproject.org/message/HFERFN7PINV4MOGMGA3DPIXJPDCYOEJZ"
    },
    {
      "type": "WEB",
      "url": "https://security.netapp.com/advisory/ntap-20240614-0004"
    }
  ]
}