{
  "Class": "vulnerability",
  "ID": "oval:com.microsoft.cbl-mariner:def:6453",
  "Version": "2",
  "Metadata": {
    "Title": "CVE-2018-13420 affecting package gperftools for versions less than 2.7-4",
    "Affected": {
      "Family": "unix",
      "Platform": "CBL-Mariner"
    },
    "Reference": {
      "RefID": "CVE-2018-13420",
      "RefURL": "https://nvd.nist.gov/vuln/detail/CVE-2018-13420",
      "Source": "CVE"
    },
    "Patchable": "true",
    "AdvisoryDate": "2022-04-09T06:51:44Z",
    "AdvisoryID": "6453-2",
    "Severity": "High",
    "Description": "CVE-2018-13420 affecting package gperftools for versions less than 2.7-4. A patched version of the package is available."
  },
  "Criteria": {
    "Operator": "AND",
    "Criterion": {
      "Comment": "Package gperftools is earlier than 2.7-4, affected by CVE-2018-13420",
      "TestRef": "oval:com.microsoft.cbl-mariner:tst:6453000"
    }
  }
}