{
  "Class": "vulnerability",
  "ID": "oval:com.microsoft.cbl-mariner:def:6615",
  "Version": "1",
  "Metadata": {
    "Title": "CVE-2018-14348 affecting package libcgroup for versions less than 0.41-23",
    "Affected": {
      "Family": "unix",
      "Platform": "CBL-Mariner"
    },
    "Reference": {
      "RefID": "CVE-2018-14348",
      "RefURL": "https://nvd.nist.gov/vuln/detail/CVE-2018-14348",
      "Source": "CVE"
    },
    "Patchable": "true",
    "AdvisoryDate": "2022-04-09T06:51:58Z",
    "AdvisoryID": "6615-1",
    "Severity": "High",
    "Description": "CVE-2018-14348 affecting package libcgroup for versions less than 0.41-23. A patched version of the package is available."
  },
  "Criteria": {
    "Operator": "AND",
    "Criterion": {
      "Comment": "Package libcgroup is earlier than 0.41-23, affected by CVE-2018-14348",
      "TestRef": "oval:com.microsoft.cbl-mariner:tst:6615000"
    }
  }
}