{
  "Class": "vulnerability",
  "ID": "oval:com.microsoft.cbl-mariner:def:6785",
  "Version": "1",
  "Metadata": {
    "Title": "CVE-2018-1000156 affecting package patch for versions less than 2.7.6-7",
    "Affected": {
      "Family": "unix",
      "Platform": "CBL-Mariner"
    },
    "Reference": {
      "RefID": "CVE-2018-1000156",
      "RefURL": "https://nvd.nist.gov/vuln/detail/CVE-2018-1000156",
      "Source": "CVE"
    },
    "Patchable": "true",
    "AdvisoryDate": "2022-04-09T06:51:43Z",
    "AdvisoryID": "6785-1",
    "Severity": "High",
    "Description": "CVE-2018-1000156 affecting package patch for versions less than 2.7.6-7. A patched version of the package is available."
  },
  "Criteria": {
    "Operator": "AND",
    "Criterion": {
      "Comment": "Package patch is earlier than 2.7.6-7, affected by CVE-2018-1000156",
      "TestRef": "oval:com.microsoft.cbl-mariner:tst:6785000"
    }
  }
}