{
  "Class": "vulnerability",
  "ID": "oval:com.microsoft.cbl-mariner:def:9143",
  "Version": "1",
  "Metadata": {
    "Title": "CVE-2018-25032 affecting package zlib for versions less than 1.2.12-1",
    "Affected": {
      "Family": "unix",
      "Platform": "CBL-Mariner"
    },
    "Reference": {
      "RefID": "CVE-2018-25032",
      "RefURL": "https://nvd.nist.gov/vuln/detail/CVE-2018-25032",
      "Source": "CVE"
    },
    "Patchable": "true",
    "AdvisoryDate": "2022-04-26T20:17:02Z",
    "AdvisoryID": "9143-1",
    "Severity": "High",
    "Description": "CVE-2018-25032 affecting package zlib for versions less than 1.2.12-1. An upgraded version of the package is available that resolves this issue."
  },
  "Criteria": {
    "Operator": "AND",
    "Criterion": {
      "Comment": "Package zlib is earlier than 1.2.12-1, affected by CVE-2018-25032",
      "TestRef": "oval:com.microsoft.cbl-mariner:tst:9143000"
    }
  }
}