{
  "name": "redis",
  "secfixes": {
    "5.0.4-r0": [
      "CVE-2019-10192",
      "CVE-2019-10193"
    ],
    "5.0.8-r0": [
      "CVE-2015-8080"
    ],
    "6.0.3-r0": [
      "CVE-2020-14147"
    ],
    "6.2.0-r0": [
      "CVE-2021-21309",
      "CVE-2021-3470"
    ],
    "6.2.4-r0": [
      "CVE-2021-32625"
    ],
    "6.2.5-r0": [
      "CVE-2021-32761"
    ],
    "6.2.6-r0": [
      "CVE-2021-32626",
      "CVE-2021-32627",
      "CVE-2021-32628",
      "CVE-2021-32672",
      "CVE-2021-32675",
      "CVE-2021-32687",
      "CVE-2021-32762",
      "CVE-2021-41099"
    ],
    "6.2.7-r0": [
      "CVE-2022-24735",
      "CVE-2022-24736"
    ],
    "7.0.12-r0": [
      "CVE-2022-24834",
      "CVE-2023-36824"
    ],
    "7.0.4-r0": [
      "CVE-2022-31144"
    ],
    "7.0.5-r0": [
      "CVE-2022-35951"
    ],
    "7.0.6-r0": [
      "CVE-2022-3647"
    ],
    "7.0.8-r0": [
      "CVE-2022-35977",
      "CVE-2023-22458"
    ],
    "7.2.1-r0": [
      "CVE-2023-41053"
    ],
    "7.2.2-r0": [
      "CVE-2023-45145"
    ],
    "7.2.4-r0": [
      "CVE-2023-41056"
    ]
  },
  "apkurl": "{{urlprefix}}/{{distroversion}}/{{reponame}}/{{arch}}/{{pkg.name}}-{{pkg.ver}}.apk",
  "archs": [
    "aarch64",
    "armhf",
    "armv7",
    "ppc64le",
    "riscv64",
    "s390x",
    "x86",
    "x86_64"
  ],
  "urlprefix": "https://dl-cdn.alpinelinux.org/alpine",
  "reponame": "community",
  "distroversion": "v3.20"
}