{
  "name": "suricata",
  "secfixes": {
    "6.0.3-r0": [
      "CVE-2021-35063"
    ],
    "6.0.4-r0": [
      "CVE-2021-37592",
      "CVE-2021-45098"
    ]
  },
  "apkurl": "{{urlprefix}}/{{distroversion}}/{{reponame}}/{{arch}}/{{pkg.name}}-{{pkg.ver}}.apk",
  "archs": [
    "aarch64",
    "armhf",
    "armv7",
    "ppc64le",
    "riscv64",
    "s390x",
    "x86",
    "x86_64"
  ],
  "urlprefix": "https://dl-cdn.alpinelinux.org/alpine",
  "reponame": "community",
  "distroversion": "v3.20"
}