{
  "name": "wolfssl",
  "secfixes": {
    "0": [
      "CVE-2023-6936"
    ],
    "5.4.0-r0": [
      "CVE-2022-34293"
    ],
    "5.5.0-r0": [
      "CVE-2022-38152"
    ],
    "5.5.1-r0": [
      "CVE-2022-39173"
    ],
    "5.5.3-r0": [
      "CVE-2022-42905"
    ],
    "5.6.2-r0": [
      "CVE-2023-3724"
    ],
    "5.6.6-r0": [
      "CVE-2023-6935",
      "CVE-2023-6937"
    ],
    "5.7.0-r0": [
      "CVE-2024-0901",
      "CVE-2024-1545"
    ]
  },
  "apkurl": "{{urlprefix}}/{{distroversion}}/{{reponame}}/{{arch}}/{{pkg.name}}-{{pkg.ver}}.apk",
  "archs": [
    "aarch64",
    "armhf",
    "armv7",
    "ppc64le",
    "riscv64",
    "s390x",
    "x86",
    "x86_64"
  ],
  "urlprefix": "https://dl-cdn.alpinelinux.org/alpine",
  "reponame": "community",
  "distroversion": "v3.20"
}