{
  "Severity": "HIGH",
  "UpdatedAt": "2024-05-31T19:31:44Z",
  "Package": {
    "Ecosystem": "GO",
    "Name": "github.com/containers/image/v5"
  },
  "Advisory": {
    "DatabaseId": 245549,
    "Id": "GSA_kwCzR0hTQS02d3ZmLWYydnctMzQyNc4AA78t",
    "GhsaId": "GHSA-6wvf-f2vw-3425",
    "References": [
      {
        "Url": "https://nvd.nist.gov/vuln/detail/CVE-2024-3727"
      },
      {
        "Url": "https://access.redhat.com/security/cve/CVE-2024-3727"
      },
      {
        "Url": "https://bugzilla.redhat.com/show_bug.cgi?id=2274767"
      },
      {
        "Url": "https://github.com/containers/image/releases/tag/v5.30.1"
      },
      {
        "Url": "https://github.com/containers/image/commit/132678b47bae29c710589012668cb85859d88385"
      },
      {
        "Url": "https://github.com/containers/image/commit/e8948046055060605bd68289d406ce149590c33a"
      },
      {
        "Url": "https://github.com/containers/image/releases/tag/v5.29.3"
      },
      {
        "Url": "https://lists.fedoraproject.org/archives/list/package-announce@lists.fedoraproject.org/message/4HEYS34N55G7NOQZKNEXZKQVNDGEICCD"
      },
      {
        "Url": "https://lists.fedoraproject.org/archives/list/package-announce@lists.fedoraproject.org/message/6B37TXOKTKDBE2V26X2NSP7JKNMZOFVP"
      },
      {
        "Url": "https://lists.fedoraproject.org/archives/list/package-announce@lists.fedoraproject.org/message/CYT3D2P3OJKISNFKOOHGY6HCUCQZYAVR"
      },
      {
        "Url": "https://lists.fedoraproject.org/archives/list/package-announce@lists.fedoraproject.org/message/DLND3YDQQRWVRIUPL2G5UKXP5L3VSBBT"
      },
      {
        "Url": "https://lists.fedoraproject.org/archives/list/package-announce@lists.fedoraproject.org/message/QFXMF3VVKIZN7ZMB7PKZCSWV6MOMTGMQ"
      },
      {
        "Url": "https://lists.fedoraproject.org/archives/list/package-announce@lists.fedoraproject.org/message/DTOMYERG5ND4QFDHC4ZSGCED3T3ESRSC"
      },
      {
        "Url": "https://lists.fedoraproject.org/archives/list/package-announce@lists.fedoraproject.org/message/FBZQ2ZRMFEUQ35235B2HWPSXGDCBZHFV"
      },
      {
        "Url": "https://lists.fedoraproject.org/archives/list/package-announce@lists.fedoraproject.org/message/SFVSMR7TNLO2KPWJSW4CF64C2QMQXCIN"
      },
      {
        "Url": "https://lists.fedoraproject.org/archives/list/package-announce@lists.fedoraproject.org/message/GD2GSBQTBLYADASUBHHZV2CZPTSLIPQJ"
      },
      {
        "Url": "https://github.com/advisories/GHSA-6wvf-f2vw-3425"
      }
    ],
    "Identifiers": [
      {
        "Type": "GHSA",
        "Value": "GHSA-6wvf-f2vw-3425"
      },
      {
        "Type": "CVE",
        "Value": "CVE-2024-3727"
      }
    ],
    "Description": "A flaw was found in the github.com/containers/image library. This flaw allows attackers to trigger unexpected authenticated registry accesses on behalf of a victim user, causing resource exhaustion, local path traversal, and other attacks.",
    "Origin": "UNSPECIFIED",
    "PublishedAt": "2024-05-14T18:30:52Z",
    "Severity": "HIGH",
    "Summary": "github.com/containers/image allows unexpected authenticated registry accesses",
    "UpdatedAt": "2024-06-12T03:32:20Z",
    "WithdrawnAt": "",
    "CVSS": {
      "Score": 8.4,
      "VectorString": "CVSS:3.1/AV:N/AC:H/PR:N/UI:R/S:C/C:H/I:H/A:H"
    }
  },
  "Versions": [
    {
      "FirstPatchedVersion": {
        "Identifier": "5.29.3"
      },
      "VulnerableVersionRange": "\u003c 5.29.3"
    },
    {
      "FirstPatchedVersion": {
        "Identifier": "5.30.1"
      },
      "VulnerableVersionRange": "\u003e= 5.30.0, \u003c 5.30.1"
    }
  ]
}