{
  "id": "GHSA-4q63-mr2m-57hf",
  "modified": "2024-06-05T16:43:18.589381Z",
  "published": "2024-05-02T18:30:55Z",
  "aliases": [
    "CVE-2024-33394",
    "GO-2024-2816"
  ],
  "summary": "kubevirt allows a local attacker to execute arbitrary code via a crafted command ",
  "details": "An issue in kubevirt kubevirt v1.2.0 and before allows a local attacker to execute arbitrary code via a crafted command to get the token component.",
  "affected": [
    {
      "package": {
        "ecosystem": "Go",
        "name": "kubevirt.io/kubevirt",
        "purl": "pkg:golang/kubevirt.io/kubevirt"
      },
      "ranges": [
        {
          "type": "SEMVER",
          "events": [
            {
              "introduced": "0"
            },
            {
              "last_affected": "1.2.0"
            }
          ]
        }
      ],
      "database_specific": {
        "source": "https://github.com/github/advisory-database/blob/main/advisories/github-reviewed/2024/05/GHSA-4q63-mr2m-57hf/GHSA-4q63-mr2m-57hf.json"
      }
    }
  ],
  "references": [
    {
      "type": "ADVISORY",
      "url": "https://nvd.nist.gov/vuln/detail/CVE-2024-33394"
    },
    {
      "type": "WEB",
      "url": "https://gist.github.com/HouqiyuA/1b75e23ece7ad98490aec1c887bdf49b"
    },
    {
      "type": "PACKAGE",
      "url": "https://github.com/kubevirt/kubevirt"
    }
  ]
}