{
  "id": "ALAS2023-2024-517",
  "title": "Amazon Linux 2023 - ALAS2023-2024-517: Important priority package update for kernel",
  "issued": {
    "date": "2024-02-15 02:51:00"
  },
  "updated": {
    "date": "2024-06-06 20:47:00"
  },
  "severity": "Important",
  "description": "Package updates are available for Amazon Linux 2023 that fix the following vulnerabilities:\nCVE-2024-26668:\n\tIn the Linux kernel, the following vulnerability has been resolved:\n\nnetfilter: nft_limit: reject configurations that cause integer overflow\n\nCVE-2024-26625:\n\tIn the Linux kernel, the following vulnerability has been resolved:\n\nllc: call sock_orphan() at release time\n\nCVE-2024-26614:\n\tIn the Linux kernel, the following vulnerability has been resolved:\n\ntcp: make sure init the accept_queue's spinlocks once\n\nCVE-2024-26612:\n\tIn the Linux kernel, the following vulnerability has been resolved:\n\nnetfs, fscache: Prevent Oops in fscache_put_cache()\n\nCVE-2024-23849:\n\tIn rds_recv_track_latency in net/rds/af_rds.c in the Linux kernel through 6.7.1, there is an off-by-one error for an RDS_MSG_RX_DGRAM_TRACE_MAX comparison, resulting in out-of-bounds access.\n\nCVE-2024-1086:\n\tA use-after-free vulnerability in the Linux kernel's netfilter: nf_tables component can be exploited to achieve local privilege escalation.\n\nThe nft_verdict_init() function allows positive values as drop error within the hook verdict, and hence the nf_hook_slow() function can cause a double free vulnerability when NF_DROP is issued with a drop error which resembles NF_ACCEPT.\n\nWe recommend upgrading past commit f342de4e2f33e0e39165d8639387aa6c19dff660.\n\nCVE-2023-52672:\n\tIn the Linux kernel, the following vulnerability has been resolved:\n\npipe: wakeup wr_wait after setting max_usage\n\nCVE-2023-52498:\n\tIn the Linux kernel, the following vulnerability has been resolved:\n\nPM: sleep: Fix possible deadlocks in core system-wide PM code\n\nCVE-2023-52492:\n\tIn the Linux kernel, the following vulnerability has been resolved:\n\ndmaengine: fix NULL pointer in channel unregistration function\n\nCVE-2023-52489:\n\tIn the Linux kernel, the following vulnerability has been resolved:\n\nmm/sparsemem: fix race in accessing memory_section-\u003eusage\n\nCVE-2023-52486:\n\tIn the Linux kernel, the following vulnerability has been resolved:\n\ndrm: Don't unref the same fb many times by mistake due to deadlock handling\n",
  "packages": [
    {
      "name": "kernel-tools-debuginfo",
      "epoch": "0",
      "version": "6.1.77",
      "release": "99.164.amzn2023",
      "arch": "x86_64",
      "filename": "Packages/kernel-tools-debuginfo-6.1.77-99.164.amzn2023.x86_64.rpm"
    },
    {
      "name": "perf-debuginfo",
      "epoch": "0",
      "version": "6.1.77",
      "release": "99.164.amzn2023",
      "arch": "x86_64",
      "filename": "Packages/perf-debuginfo-6.1.77-99.164.amzn2023.x86_64.rpm"
    },
    {
      "name": "perf",
      "epoch": "0",
      "version": "6.1.77",
      "release": "99.164.amzn2023",
      "arch": "x86_64",
      "filename": "Packages/perf-6.1.77-99.164.amzn2023.x86_64.rpm"
    },
    {
      "name": "kernel-modules-extra",
      "epoch": "0",
      "version": "6.1.77",
      "release": "99.164.amzn2023",
      "arch": "x86_64",
      "filename": "Packages/kernel-modules-extra-6.1.77-99.164.amzn2023.x86_64.rpm"
    },
    {
      "name": "kernel-libbpf-static",
      "epoch": "0",
      "version": "6.1.77",
      "release": "99.164.amzn2023",
      "arch": "x86_64",
      "filename": "Packages/kernel-libbpf-static-6.1.77-99.164.amzn2023.x86_64.rpm"
    },
    {
      "name": "kernel-livepatch-6.1.77-99.164",
      "epoch": "0",
      "version": "1.0",
      "release": "0.amzn2023",
      "arch": "x86_64",
      "filename": "Packages/kernel-livepatch-6.1.77-99.164-1.0-0.amzn2023.x86_64.rpm"
    },
    {
      "name": "bpftool",
      "epoch": "0",
      "version": "6.1.77",
      "release": "99.164.amzn2023",
      "arch": "x86_64",
      "filename": "Packages/bpftool-6.1.77-99.164.amzn2023.x86_64.rpm"
    },
    {
      "name": "bpftool-debuginfo",
      "epoch": "0",
      "version": "6.1.77",
      "release": "99.164.amzn2023",
      "arch": "x86_64",
      "filename": "Packages/bpftool-debuginfo-6.1.77-99.164.amzn2023.x86_64.rpm"
    },
    {
      "name": "kernel-modules-extra-common",
      "epoch": "0",
      "version": "6.1.77",
      "release": "99.164.amzn2023",
      "arch": "x86_64",
      "filename": "Packages/kernel-modules-extra-common-6.1.77-99.164.amzn2023.x86_64.rpm"
    },
    {
      "name": "kernel-libbpf-devel",
      "epoch": "0",
      "version": "6.1.77",
      "release": "99.164.amzn2023",
      "arch": "x86_64",
      "filename": "Packages/kernel-libbpf-devel-6.1.77-99.164.amzn2023.x86_64.rpm"
    },
    {
      "name": "kernel-headers",
      "epoch": "0",
      "version": "6.1.77",
      "release": "99.164.amzn2023",
      "arch": "x86_64",
      "filename": "Packages/kernel-headers-6.1.77-99.164.amzn2023.x86_64.rpm"
    },
    {
      "name": "python3-perf",
      "epoch": "0",
      "version": "6.1.77",
      "release": "99.164.amzn2023",
      "arch": "x86_64",
      "filename": "Packages/python3-perf-6.1.77-99.164.amzn2023.x86_64.rpm"
    },
    {
      "name": "kernel-tools-devel",
      "epoch": "0",
      "version": "6.1.77",
      "release": "99.164.amzn2023",
      "arch": "x86_64",
      "filename": "Packages/kernel-tools-devel-6.1.77-99.164.amzn2023.x86_64.rpm"
    },
    {
      "name": "kernel-libbpf",
      "epoch": "0",
      "version": "6.1.77",
      "release": "99.164.amzn2023",
      "arch": "x86_64",
      "filename": "Packages/kernel-libbpf-6.1.77-99.164.amzn2023.x86_64.rpm"
    },
    {
      "name": "kernel-debuginfo",
      "epoch": "0",
      "version": "6.1.77",
      "release": "99.164.amzn2023",
      "arch": "x86_64",
      "filename": "Packages/kernel-debuginfo-6.1.77-99.164.amzn2023.x86_64.rpm"
    },
    {
      "name": "python3-perf-debuginfo",
      "epoch": "0",
      "version": "6.1.77",
      "release": "99.164.amzn2023",
      "arch": "x86_64",
      "filename": "Packages/python3-perf-debuginfo-6.1.77-99.164.amzn2023.x86_64.rpm"
    },
    {
      "name": "kernel-tools",
      "epoch": "0",
      "version": "6.1.77",
      "release": "99.164.amzn2023",
      "arch": "x86_64",
      "filename": "Packages/kernel-tools-6.1.77-99.164.amzn2023.x86_64.rpm"
    },
    {
      "name": "kernel",
      "epoch": "0",
      "version": "6.1.77",
      "release": "99.164.amzn2023",
      "arch": "x86_64",
      "filename": "Packages/kernel-6.1.77-99.164.amzn2023.x86_64.rpm"
    },
    {
      "name": "kernel-debuginfo-common-x86_64",
      "epoch": "0",
      "version": "6.1.77",
      "release": "99.164.amzn2023",
      "arch": "x86_64",
      "filename": "Packages/kernel-debuginfo-common-x86_64-6.1.77-99.164.amzn2023.x86_64.rpm"
    },
    {
      "name": "kernel-devel",
      "epoch": "0",
      "version": "6.1.77",
      "release": "99.164.amzn2023",
      "arch": "x86_64",
      "filename": "Packages/kernel-devel-6.1.77-99.164.amzn2023.x86_64.rpm"
    },
    {
      "name": "python3-perf",
      "epoch": "0",
      "version": "6.1.77",
      "release": "99.164.amzn2023",
      "arch": "aarch64",
      "filename": "Packages/python3-perf-6.1.77-99.164.amzn2023.aarch64.rpm"
    },
    {
      "name": "perf-debuginfo",
      "epoch": "0",
      "version": "6.1.77",
      "release": "99.164.amzn2023",
      "arch": "aarch64",
      "filename": "Packages/perf-debuginfo-6.1.77-99.164.amzn2023.aarch64.rpm"
    },
    {
      "name": "kernel-tools-devel",
      "epoch": "0",
      "version": "6.1.77",
      "release": "99.164.amzn2023",
      "arch": "aarch64",
      "filename": "Packages/kernel-tools-devel-6.1.77-99.164.amzn2023.aarch64.rpm"
    },
    {
      "name": "kernel-livepatch-6.1.77-99.164",
      "epoch": "0",
      "version": "1.0",
      "release": "0.amzn2023",
      "arch": "aarch64",
      "filename": "Packages/kernel-livepatch-6.1.77-99.164-1.0-0.amzn2023.aarch64.rpm"
    },
    {
      "name": "bpftool-debuginfo",
      "epoch": "0",
      "version": "6.1.77",
      "release": "99.164.amzn2023",
      "arch": "aarch64",
      "filename": "Packages/bpftool-debuginfo-6.1.77-99.164.amzn2023.aarch64.rpm"
    },
    {
      "name": "kernel-tools-debuginfo",
      "epoch": "0",
      "version": "6.1.77",
      "release": "99.164.amzn2023",
      "arch": "aarch64",
      "filename": "Packages/kernel-tools-debuginfo-6.1.77-99.164.amzn2023.aarch64.rpm"
    },
    {
      "name": "python3-perf-debuginfo",
      "epoch": "0",
      "version": "6.1.77",
      "release": "99.164.amzn2023",
      "arch": "aarch64",
      "filename": "Packages/python3-perf-debuginfo-6.1.77-99.164.amzn2023.aarch64.rpm"
    },
    {
      "name": "kernel-libbpf",
      "epoch": "0",
      "version": "6.1.77",
      "release": "99.164.amzn2023",
      "arch": "aarch64",
      "filename": "Packages/kernel-libbpf-6.1.77-99.164.amzn2023.aarch64.rpm"
    },
    {
      "name": "perf",
      "epoch": "0",
      "version": "6.1.77",
      "release": "99.164.amzn2023",
      "arch": "aarch64",
      "filename": "Packages/perf-6.1.77-99.164.amzn2023.aarch64.rpm"
    },
    {
      "name": "kernel-libbpf-devel",
      "epoch": "0",
      "version": "6.1.77",
      "release": "99.164.amzn2023",
      "arch": "aarch64",
      "filename": "Packages/kernel-libbpf-devel-6.1.77-99.164.amzn2023.aarch64.rpm"
    },
    {
      "name": "bpftool",
      "epoch": "0",
      "version": "6.1.77",
      "release": "99.164.amzn2023",
      "arch": "aarch64",
      "filename": "Packages/bpftool-6.1.77-99.164.amzn2023.aarch64.rpm"
    },
    {
      "name": "kernel-modules-extra-common",
      "epoch": "0",
      "version": "6.1.77",
      "release": "99.164.amzn2023",
      "arch": "aarch64",
      "filename": "Packages/kernel-modules-extra-common-6.1.77-99.164.amzn2023.aarch64.rpm"
    },
    {
      "name": "kernel-tools",
      "epoch": "0",
      "version": "6.1.77",
      "release": "99.164.amzn2023",
      "arch": "aarch64",
      "filename": "Packages/kernel-tools-6.1.77-99.164.amzn2023.aarch64.rpm"
    },
    {
      "name": "kernel-libbpf-static",
      "epoch": "0",
      "version": "6.1.77",
      "release": "99.164.amzn2023",
      "arch": "aarch64",
      "filename": "Packages/kernel-libbpf-static-6.1.77-99.164.amzn2023.aarch64.rpm"
    },
    {
      "name": "kernel",
      "epoch": "0",
      "version": "6.1.77",
      "release": "99.164.amzn2023",
      "arch": "aarch64",
      "filename": "Packages/kernel-6.1.77-99.164.amzn2023.aarch64.rpm"
    },
    {
      "name": "kernel-headers",
      "epoch": "0",
      "version": "6.1.77",
      "release": "99.164.amzn2023",
      "arch": "aarch64",
      "filename": "Packages/kernel-headers-6.1.77-99.164.amzn2023.aarch64.rpm"
    },
    {
      "name": "kernel-debuginfo",
      "epoch": "0",
      "version": "6.1.77",
      "release": "99.164.amzn2023",
      "arch": "aarch64",
      "filename": "Packages/kernel-debuginfo-6.1.77-99.164.amzn2023.aarch64.rpm"
    },
    {
      "name": "kernel-modules-extra",
      "epoch": "0",
      "version": "6.1.77",
      "release": "99.164.amzn2023",
      "arch": "aarch64",
      "filename": "Packages/kernel-modules-extra-6.1.77-99.164.amzn2023.aarch64.rpm"
    },
    {
      "name": "kernel-debuginfo-common-aarch64",
      "epoch": "0",
      "version": "6.1.77",
      "release": "99.164.amzn2023",
      "arch": "aarch64",
      "filename": "Packages/kernel-debuginfo-common-aarch64-6.1.77-99.164.amzn2023.aarch64.rpm"
    },
    {
      "name": "kernel-devel",
      "epoch": "0",
      "version": "6.1.77",
      "release": "99.164.amzn2023",
      "arch": "aarch64",
      "filename": "Packages/kernel-devel-6.1.77-99.164.amzn2023.aarch64.rpm"
    }
  ],
  "references": [
    {
      "href": "http://cve.mitre.org/cgi-bin/cvename.cgi?name=CVE-2023-52486",
      "id": "CVE-2023-52486",
      "type": "cve"
    },
    {
      "href": "http://cve.mitre.org/cgi-bin/cvename.cgi?name=CVE-2023-52489",
      "id": "CVE-2023-52489",
      "type": "cve"
    },
    {
      "href": "http://cve.mitre.org/cgi-bin/cvename.cgi?name=CVE-2023-52492",
      "id": "CVE-2023-52492",
      "type": "cve"
    },
    {
      "href": "http://cve.mitre.org/cgi-bin/cvename.cgi?name=CVE-2023-52498",
      "id": "CVE-2023-52498",
      "type": "cve"
    },
    {
      "href": "http://cve.mitre.org/cgi-bin/cvename.cgi?name=CVE-2023-52672",
      "id": "CVE-2023-52672",
      "type": "cve"
    },
    {
      "href": "http://cve.mitre.org/cgi-bin/cvename.cgi?name=CVE-2024-1086",
      "id": "CVE-2024-1086",
      "type": "cve"
    },
    {
      "href": "http://cve.mitre.org/cgi-bin/cvename.cgi?name=CVE-2024-23849",
      "id": "CVE-2024-23849",
      "type": "cve"
    },
    {
      "href": "http://cve.mitre.org/cgi-bin/cvename.cgi?name=CVE-2024-26612",
      "id": "CVE-2024-26612",
      "type": "cve"
    },
    {
      "href": "http://cve.mitre.org/cgi-bin/cvename.cgi?name=CVE-2024-26614",
      "id": "CVE-2024-26614",
      "type": "cve"
    },
    {
      "href": "http://cve.mitre.org/cgi-bin/cvename.cgi?name=CVE-2024-26625",
      "id": "CVE-2024-26625",
      "type": "cve"
    },
    {
      "href": "http://cve.mitre.org/cgi-bin/cvename.cgi?name=CVE-2024-26668",
      "id": "CVE-2024-26668",
      "type": "cve"
    }
  ],
  "cveids": [
    "CVE-2023-52486",
    "CVE-2023-52489",
    "CVE-2023-52492",
    "CVE-2023-52498",
    "CVE-2023-52672",
    "CVE-2024-1086",
    "CVE-2024-23849",
    "CVE-2024-26612",
    "CVE-2024-26614",
    "CVE-2024-26625",
    "CVE-2024-26668"
  ]
}