{
  "Class": "vulnerability",
  "ID": "oval:com.microsoft.cbl-mariner:def:10662",
  "Version": "0",
  "Metadata": {
    "Title": "CVE-2021-3670 affecting package samba 4.12.5-6",
    "Affected": {
      "Family": "unix",
      "Platform": "CBL-Mariner"
    },
    "Reference": {
      "RefID": "CVE-2021-3670",
      "RefURL": "https://nvd.nist.gov/vuln/detail/CVE-2021-3670",
      "Source": "CVE"
    },
    "Patchable": "false",
    "AdvisoryID": "10662",
    "Severity": "Medium",
    "Description": "CVE-2021-3670 affecting package samba 4.12.5-6. No patch is available currently."
  },
  "Criteria": {
    "Operator": "AND",
    "Criterion": {
      "Comment": "Package samba is installed with version 4.12.5-6 or earlier",
      "TestRef": "oval:com.microsoft.cbl-mariner:tst:10662000"
    }
  }
}