{
  "Class": "vulnerability",
  "ID": "oval:com.microsoft.cbl-mariner:def:13686",
  "Version": "0",
  "Metadata": {
    "Title": "CVE-2021-46023 affecting package rust 1.72.0-7",
    "Affected": {
      "Family": "unix",
      "Platform": "CBL-Mariner"
    },
    "Reference": {
      "RefID": "CVE-2021-46023",
      "RefURL": "https://nvd.nist.gov/vuln/detail/CVE-2021-46023",
      "Source": "CVE"
    },
    "Patchable": "Not Applicable",
    "AdvisoryID": "13686",
    "Severity": "High",
    "Description": "CVE-2021-46023 affecting package rust 1.72.0-7. This CVE either no longer is or was never applicable."
  },
  "Criteria": {
    "Operator": "AND",
    "Criterion": {
      "Comment": "Package rust is installed with version 1.72.0-7 or earlier",
      "TestRef": "oval:com.microsoft.cbl-mariner:tst:13686000"
    }
  }
}