{
  "Class": "vulnerability",
  "ID": "oval:com.microsoft.cbl-mariner:def:31978",
  "Version": "1",
  "Metadata": {
    "Title": "CVE-2021-44716 affecting package kured for versions less than 1.13.2-1",
    "Affected": {
      "Family": "unix",
      "Platform": "CBL-Mariner"
    },
    "Reference": {
      "RefID": "CVE-2021-44716",
      "RefURL": "https://nvd.nist.gov/vuln/detail/CVE-2021-44716",
      "Source": "CVE"
    },
    "Patchable": "true",
    "AdvisoryDate": "2023-11-15T20:12:47Z",
    "AdvisoryID": "31978-1",
    "Severity": "High",
    "Description": "CVE-2021-44716 affecting package kured for versions less than 1.13.2-1. An upgraded version of the package is available that resolves this issue."
  },
  "Criteria": {
    "Operator": "AND",
    "Criterion": {
      "Comment": "Package kured is earlier than 1.13.2-1, affected by CVE-2021-44716",
      "TestRef": "oval:com.microsoft.cbl-mariner:tst:31978000"
    }
  }
}