{
  "Class": "vulnerability",
  "ID": "oval:com.microsoft.cbl-mariner:def:6323",
  "Version": "2",
  "Metadata": {
    "Title": "CVE-2021-26720 affecting package avahi for versions less than 0.8-1",
    "Affected": {
      "Family": "unix",
      "Platform": "CBL-Mariner"
    },
    "Reference": {
      "RefID": "CVE-2021-26720",
      "RefURL": "https://nvd.nist.gov/vuln/detail/CVE-2021-26720",
      "Source": "CVE"
    },
    "Patchable": "true",
    "AdvisoryDate": "2022-04-26T19:39:28Z",
    "AdvisoryID": "6323-2",
    "Severity": "High",
    "Description": "CVE-2021-26720 affecting package avahi for versions less than 0.8-1. A patched version of the package is available."
  },
  "Criteria": {
    "Operator": "AND",
    "Criterion": {
      "Comment": "Package avahi is earlier than 0.8-1, affected by CVE-2021-26720",
      "TestRef": "oval:com.microsoft.cbl-mariner:tst:6323000"
    }
  }
}