{
  "Class": "vulnerability",
  "ID": "oval:com.microsoft.cbl-mariner:def:6487",
  "Version": "1",
  "Metadata": {
    "Title": "CVE-2021-40438 affecting package httpd for versions less than 2.4.52-1",
    "Affected": {
      "Family": "unix",
      "Platform": "CBL-Mariner"
    },
    "Reference": {
      "RefID": "CVE-2021-40438",
      "RefURL": "https://nvd.nist.gov/vuln/detail/CVE-2021-40438",
      "Source": "CVE"
    },
    "Patchable": "true",
    "AdvisoryDate": "2022-04-09T06:51:57Z",
    "AdvisoryID": "6487-1",
    "Severity": "Critical",
    "Description": "CVE-2021-40438 affecting package httpd for versions less than 2.4.52-1. An upgraded version of the package is available that resolves this issue."
  },
  "Criteria": {
    "Operator": "AND",
    "Criterion": {
      "Comment": "Package httpd is earlier than 2.4.52-1, affected by CVE-2021-40438",
      "TestRef": "oval:com.microsoft.cbl-mariner:tst:6487000"
    }
  }
}