{
  "Class": "vulnerability",
  "ID": "oval:com.microsoft.cbl-mariner:def:6534",
  "Version": "1",
  "Metadata": {
    "Title": "CVE-2021-27365 affecting package kernel for versions less than 5.10.78.1-1",
    "Affected": {
      "Family": "unix",
      "Platform": "CBL-Mariner"
    },
    "Reference": {
      "RefID": "CVE-2021-27365",
      "RefURL": "https://nvd.nist.gov/vuln/detail/CVE-2021-27365",
      "Source": "CVE"
    },
    "Patchable": "true",
    "AdvisoryDate": "2022-04-09T06:52:47Z",
    "AdvisoryID": "6534-1",
    "Severity": "High",
    "Description": "CVE-2021-27365 affecting package kernel for versions less than 5.10.78.1-1. A patched version of the package is available."
  },
  "Criteria": {
    "Operator": "AND",
    "Criterion": {
      "Comment": "Package kernel is earlier than 5.10.78.1-1, affected by CVE-2021-27365",
      "TestRef": "oval:com.microsoft.cbl-mariner:tst:6534000"
    }
  }
}