{
  "Class": "vulnerability",
  "ID": "oval:com.microsoft.cbl-mariner:def:6606",
  "Version": "1",
  "Metadata": {
    "Title": "CVE-2021-43976 affecting package kernel for versions less than 5.15.2.1-1",
    "Affected": {
      "Family": "unix",
      "Platform": "CBL-Mariner"
    },
    "Reference": {
      "RefID": "CVE-2021-43976",
      "RefURL": "https://nvd.nist.gov/vuln/detail/CVE-2021-43976",
      "Source": "CVE"
    },
    "Patchable": "true",
    "AdvisoryDate": "2022-04-09T06:52:47Z",
    "AdvisoryID": "6606-1",
    "Severity": "Medium",
    "Description": "CVE-2021-43976 affecting package kernel for versions less than 5.15.2.1-1. An upgraded version of the package is available that resolves this issue."
  },
  "Criteria": {
    "Operator": "AND",
    "Criterion": {
      "Comment": "Package kernel is earlier than 5.15.2.1-1, affected by CVE-2021-43976",
      "TestRef": "oval:com.microsoft.cbl-mariner:tst:6606000"
    }
  }
}