{
  "Class": "vulnerability",
  "ID": "oval:com.microsoft.cbl-mariner:def:6607",
  "Version": "1",
  "Metadata": {
    "Title": "CVE-2021-36222 affecting package krb5 for versions less than 1.19.2-1",
    "Affected": {
      "Family": "unix",
      "Platform": "CBL-Mariner"
    },
    "Reference": {
      "RefID": "CVE-2021-36222",
      "RefURL": "https://nvd.nist.gov/vuln/detail/CVE-2021-36222",
      "Source": "CVE"
    },
    "Patchable": "true",
    "AdvisoryDate": "2022-04-09T06:51:49Z",
    "AdvisoryID": "6607-1",
    "Severity": "High",
    "Description": "CVE-2021-36222 affecting package krb5 for versions less than 1.19.2-1. An upgraded version of the package is available that resolves this issue."
  },
  "Criteria": {
    "Operator": "AND",
    "Criterion": {
      "Comment": "Package krb5 is earlier than 1.19.2-1, affected by CVE-2021-36222",
      "TestRef": "oval:com.microsoft.cbl-mariner:tst:6607000"
    }
  }
}