{
  "Class": "vulnerability",
  "ID": "oval:com.microsoft.cbl-mariner:def:6608",
  "Version": "1",
  "Metadata": {
    "Title": "CVE-2021-37750 affecting package krb5 for versions less than 1.19.3-1",
    "Affected": {
      "Family": "unix",
      "Platform": "CBL-Mariner"
    },
    "Reference": {
      "RefID": "CVE-2021-37750",
      "RefURL": "https://nvd.nist.gov/vuln/detail/CVE-2021-37750",
      "Source": "CVE"
    },
    "Patchable": "true",
    "AdvisoryDate": "2022-06-26T03:29:33Z",
    "AdvisoryID": "6608-1",
    "Severity": "Medium",
    "Description": "CVE-2021-37750 affecting package krb5 for versions less than 1.19.3-1. An upgraded version of the package is available that resolves this issue."
  },
  "Criteria": {
    "Operator": "AND",
    "Criterion": {
      "Comment": "Package krb5 is earlier than 1.19.3-1, affected by CVE-2021-37750",
      "TestRef": "oval:com.microsoft.cbl-mariner:tst:6608000"
    }
  }
}