{
  "Class": "vulnerability",
  "ID": "oval:com.microsoft.cbl-mariner:def:6700",
  "Version": "1",
  "Metadata": {
    "Title": "CVE-2021-2479 affecting package mysql for versions less than 8.0.28-1",
    "Affected": {
      "Family": "unix",
      "Platform": "CBL-Mariner"
    },
    "Reference": {
      "RefID": "CVE-2021-2479",
      "RefURL": "https://nvd.nist.gov/vuln/detail/CVE-2021-2479",
      "Source": "CVE"
    },
    "Patchable": "true",
    "AdvisoryDate": "2022-04-09T06:53:03Z",
    "AdvisoryID": "6700-1",
    "Severity": "Medium",
    "Description": "CVE-2021-2479 affecting package mysql for versions less than 8.0.28-1. An upgraded version of the package is available that resolves this issue."
  },
  "Criteria": {
    "Operator": "AND",
    "Criterion": {
      "Comment": "Package mysql is earlier than 8.0.28-1, affected by CVE-2021-2479",
      "TestRef": "oval:com.microsoft.cbl-mariner:tst:6700000"
    }
  }
}