{
  "Class": "vulnerability",
  "ID": "oval:com.microsoft.cbl-mariner:def:8995",
  "Version": "2",
  "Metadata": {
    "Title": "CVE-2021-4002 affecting package kernel for versions less than 5.15.32.1-2",
    "Affected": {
      "Family": "unix",
      "Platform": "CBL-Mariner"
    },
    "Reference": {
      "RefID": "CVE-2021-4002",
      "RefURL": "https://nvd.nist.gov/vuln/detail/CVE-2021-4002",
      "Source": "CVE"
    },
    "Patchable": "true",
    "AdvisoryDate": "2022-04-26T19:58:10Z",
    "AdvisoryID": "8995-2",
    "Severity": "Medium",
    "Description": "CVE-2021-4002 affecting package kernel for versions less than 5.15.32.1-2. A patched version of the package is available."
  },
  "Criteria": {
    "Operator": "AND",
    "Criterion": {
      "Comment": "Package kernel is earlier than 5.15.32.1-2, affected by CVE-2021-4002",
      "TestRef": "oval:com.microsoft.cbl-mariner:tst:8995000"
    }
  }
}