{
  "Class": "vulnerability",
  "ID": "oval:com.microsoft.cbl-mariner:def:9188",
  "Version": "1",
  "Metadata": {
    "Title": "CVE-2021-3618 affecting package nginx for versions less than 1.20.2-2",
    "Affected": {
      "Family": "unix",
      "Platform": "CBL-Mariner"
    },
    "Reference": {
      "RefID": "CVE-2021-3618",
      "RefURL": "https://nvd.nist.gov/vuln/detail/CVE-2021-3618",
      "Source": "CVE"
    },
    "Patchable": "true",
    "AdvisoryDate": "2022-06-03T17:54:00Z",
    "AdvisoryID": "9188-1",
    "Severity": "High",
    "Description": "CVE-2021-3618 affecting package nginx for versions less than 1.20.2-2. A patched version of the package is available."
  },
  "Criteria": {
    "Operator": "AND",
    "Criterion": {
      "Comment": "Package nginx is earlier than 1.20.2-2, affected by CVE-2021-3618",
      "TestRef": "oval:com.microsoft.cbl-mariner:tst:9188000"
    }
  }
}