{
  "Class": "vulnerability",
  "ID": "oval:com.microsoft.cbl-mariner:def:9301",
  "Version": "0",
  "Metadata": {
    "Title": "CVE-2021-3847 affecting package kernel 5.15.158.2-1",
    "Affected": {
      "Family": "unix",
      "Platform": "CBL-Mariner"
    },
    "Reference": {
      "RefID": "CVE-2021-3847",
      "RefURL": "https://nvd.nist.gov/vuln/detail/CVE-2021-3847",
      "Source": "CVE"
    },
    "Patchable": "false",
    "AdvisoryID": "9301",
    "Severity": "High",
    "Description": "CVE-2021-3847 affecting package kernel 5.15.158.2-1. No patch is available currently."
  },
  "Criteria": {
    "Operator": "AND",
    "Criterion": {
      "Comment": "Package kernel is installed with version 5.15.158.2-1 or earlier",
      "TestRef": "oval:com.microsoft.cbl-mariner:tst:9301000"
    }
  }
}