{
  "id": "GHSA-jq66-xh47-j9f3",
  "modified": "2024-04-22T19:01:08Z",
  "published": "2022-06-16T23:06:58Z",
  "aliases": [
    "CVE-2019-25010",
    "CVE-2020-25575",
    "GHSA-r98r-j25q-rmpr",
    "RUSTSEC-2019-0036",
    "RUSTSEC-2020-0036"
  ],
  "summary": "Type confusion if __private_get_type_id__ is overriden",
  "details": "An issue was discovered in the failure crate through 0.1.5 for Rust. It has a type confusion flaw when downcasting. NOTE: This vulnerability only affects products that are no longer supported by the maintainer.",
  "affected": [
    {
      "package": {
        "ecosystem": "crates.io",
        "name": "failure",
        "purl": "pkg:cargo/failure"
      },
      "ranges": [
        {
          "type": "SEMVER",
          "events": [
            {
              "introduced": "0"
            },
            {
              "last_affected": "0.1.8"
            }
          ]
        }
      ],
      "ecosystem_specific": {
        "affected_functions": [
          "failure::Fail::__private_get_type_id__"
        ]
      },
      "database_specific": {
        "source": "https://github.com/github/advisory-database/blob/main/advisories/github-reviewed/2022/06/GHSA-jq66-xh47-j9f3/GHSA-jq66-xh47-j9f3.json"
      }
    }
  ],
  "references": [
    {
      "type": "ADVISORY",
      "url": "https://nvd.nist.gov/vuln/detail/CVE-2020-25575"
    },
    {
      "type": "WEB",
      "url": "https://github.com/rust-lang-nursery/failure/issues/336"
    },
    {
      "type": "WEB",
      "url": "https://github.com/RustCrypto/hashes/pull/91"
    },
    {
      "type": "WEB",
      "url": "https://boats.gitlab.io/blog/post/failure-to-fehler"
    },
    {
      "type": "WEB",
      "url": "https://github.com/RustSec/advisory-db/blob/main/crates/failure/RUSTSEC-2019-0036.md"
    },
    {
      "type": "WEB",
      "url": "https://rustsec.org/advisories/RUSTSEC-2019-0036.html"
    },
    {
      "type": "WEB",
      "url": "https://rustsec.org/advisories/RUSTSEC-2020-0036.html"
    }
  ]
}