{
  "Title": "Security update for ffmpeg",
  "Tracking": {
    "ID": "openSUSE-SU-2017:0958-1",
    "Status": "Final",
    "Version": "1",
    "InitialReleaseDate": "2017-04-07T09:00:09Z",
    "CurrentReleaseDate": "2017-04-07T09:00:09Z",
    "RevisionHistory": [
      {
        "Number": "1",
        "Date": "2017-04-07T09:00:09Z",
        "Description": "current"
      }
    ]
  },
  "Notes": [
    {
      "Text": "Security update for ffmpeg",
      "Title": "Topic",
      "Type": "Summary"
    },
    {
      "Text": "\nThis update for ffmpeg fixes the following issues:\n\nSecurity issue fixed:\n- CVE-2016-10190: remote code execution vulnerability [ 1 - libavformat/http.c ] (boo#1022920)\n\nDetailed ChangeLog:\n- 3.1.6:  https://github.com/FFmpeg/FFmpeg/blob/e08b1cf2df8cfdb3394aa5ab0320739f8b5a1c4f/Changelog\n- 3.2.4:  https://github.com/FFmpeg/FFmpeg/blob/cbe65ccfa02a9061cead73a6685eef90225c41b5/Changelog\n",
      "Title": "Details",
      "Type": "General"
    },
    {
      "Text": "The CVRF data is provided by SUSE under the Creative Commons License 4.0 with Attribution (CC-BY-4.0).",
      "Title": "Terms of Use",
      "Type": "Legal Disclaimer"
    },
    {
      "Text": "openSUSE-2017-449",
      "Title": "Patchnames",
      "Type": "Details"
    }
  ],
  "ProductTree": {
    "Relationships": [
      {
        "ProductReference": "ffmpeg-3.1.6-5.1",
        "RelatesToProductReference": "SUSE Package Hub 12 SP1",
        "RelationType": "Default Component Of"
      },
      {
        "ProductReference": "ffmpeg-devel-2.8.10-9.1",
        "RelatesToProductReference": "SUSE Package Hub 12 SP1",
        "RelationType": "Default Component Of"
      },
      {
        "ProductReference": "libavcodec-devel-3.1.6-5.1",
        "RelatesToProductReference": "SUSE Package Hub 12 SP1",
        "RelationType": "Default Component Of"
      },
      {
        "ProductReference": "libavcodec56-2.8.10-9.1",
        "RelatesToProductReference": "SUSE Package Hub 12 SP1",
        "RelationType": "Default Component Of"
      },
      {
        "ProductReference": "libavcodec57-3.1.6-5.1",
        "RelatesToProductReference": "SUSE Package Hub 12 SP1",
        "RelationType": "Default Component Of"
      },
      {
        "ProductReference": "libavdevice-devel-3.1.6-5.1",
        "RelatesToProductReference": "SUSE Package Hub 12 SP1",
        "RelationType": "Default Component Of"
      },
      {
        "ProductReference": "libavdevice56-2.8.10-9.1",
        "RelatesToProductReference": "SUSE Package Hub 12 SP1",
        "RelationType": "Default Component Of"
      },
      {
        "ProductReference": "libavdevice57-3.1.6-5.1",
        "RelatesToProductReference": "SUSE Package Hub 12 SP1",
        "RelationType": "Default Component Of"
      },
      {
        "ProductReference": "libavfilter-devel-3.1.6-5.1",
        "RelatesToProductReference": "SUSE Package Hub 12 SP1",
        "RelationType": "Default Component Of"
      },
      {
        "ProductReference": "libavfilter5-2.8.10-9.1",
        "RelatesToProductReference": "SUSE Package Hub 12 SP1",
        "RelationType": "Default Component Of"
      },
      {
        "ProductReference": "libavfilter6-3.1.6-5.1",
        "RelatesToProductReference": "SUSE Package Hub 12 SP1",
        "RelationType": "Default Component Of"
      },
      {
        "ProductReference": "libavformat-devel-3.1.6-5.1",
        "RelatesToProductReference": "SUSE Package Hub 12 SP1",
        "RelationType": "Default Component Of"
      },
      {
        "ProductReference": "libavformat56-2.8.10-9.1",
        "RelatesToProductReference": "SUSE Package Hub 12 SP1",
        "RelationType": "Default Component Of"
      },
      {
        "ProductReference": "libavformat57-3.1.6-5.1",
        "RelatesToProductReference": "SUSE Package Hub 12 SP1",
        "RelationType": "Default Component Of"
      },
      {
        "ProductReference": "libavresample-devel-3.1.6-5.1",
        "RelatesToProductReference": "SUSE Package Hub 12 SP1",
        "RelationType": "Default Component Of"
      },
      {
        "ProductReference": "libavresample2-2.8.10-9.1",
        "RelatesToProductReference": "SUSE Package Hub 12 SP1",
        "RelationType": "Default Component Of"
      },
      {
        "ProductReference": "libavresample3-3.1.6-5.1",
        "RelatesToProductReference": "SUSE Package Hub 12 SP1",
        "RelationType": "Default Component Of"
      },
      {
        "ProductReference": "libavutil-devel-3.1.6-5.1",
        "RelatesToProductReference": "SUSE Package Hub 12 SP1",
        "RelationType": "Default Component Of"
      },
      {
        "ProductReference": "libavutil54-2.8.10-9.1",
        "RelatesToProductReference": "SUSE Package Hub 12 SP1",
        "RelationType": "Default Component Of"
      },
      {
        "ProductReference": "libavutil55-3.1.6-5.1",
        "RelatesToProductReference": "SUSE Package Hub 12 SP1",
        "RelationType": "Default Component Of"
      },
      {
        "ProductReference": "libpostproc-devel-3.1.6-5.1",
        "RelatesToProductReference": "SUSE Package Hub 12 SP1",
        "RelationType": "Default Component Of"
      },
      {
        "ProductReference": "libpostproc53-2.8.10-9.1",
        "RelatesToProductReference": "SUSE Package Hub 12 SP1",
        "RelationType": "Default Component Of"
      },
      {
        "ProductReference": "libpostproc54-3.1.6-5.1",
        "RelatesToProductReference": "SUSE Package Hub 12 SP1",
        "RelationType": "Default Component Of"
      },
      {
        "ProductReference": "libswresample-devel-3.1.6-5.1",
        "RelatesToProductReference": "SUSE Package Hub 12 SP1",
        "RelationType": "Default Component Of"
      },
      {
        "ProductReference": "libswresample1-2.8.10-9.1",
        "RelatesToProductReference": "SUSE Package Hub 12 SP1",
        "RelationType": "Default Component Of"
      },
      {
        "ProductReference": "libswresample2-3.1.6-5.1",
        "RelatesToProductReference": "SUSE Package Hub 12 SP1",
        "RelationType": "Default Component Of"
      },
      {
        "ProductReference": "libswscale-devel-3.1.6-5.1",
        "RelatesToProductReference": "SUSE Package Hub 12 SP1",
        "RelationType": "Default Component Of"
      },
      {
        "ProductReference": "libswscale3-2.8.10-9.1",
        "RelatesToProductReference": "SUSE Package Hub 12 SP1",
        "RelationType": "Default Component Of"
      },
      {
        "ProductReference": "libswscale4-3.1.6-5.1",
        "RelatesToProductReference": "SUSE Package Hub 12 SP1",
        "RelationType": "Default Component Of"
      },
      {
        "ProductReference": "ffmpeg-3.1.6-5.1",
        "RelatesToProductReference": "SUSE Package Hub 12 SP2",
        "RelationType": "Default Component Of"
      },
      {
        "ProductReference": "ffmpeg-devel-2.8.10-9.1",
        "RelatesToProductReference": "SUSE Package Hub 12 SP2",
        "RelationType": "Default Component Of"
      },
      {
        "ProductReference": "libavcodec-devel-3.1.6-5.1",
        "RelatesToProductReference": "SUSE Package Hub 12 SP2",
        "RelationType": "Default Component Of"
      },
      {
        "ProductReference": "libavcodec56-2.8.10-9.1",
        "RelatesToProductReference": "SUSE Package Hub 12 SP2",
        "RelationType": "Default Component Of"
      },
      {
        "ProductReference": "libavcodec57-3.1.6-5.1",
        "RelatesToProductReference": "SUSE Package Hub 12 SP2",
        "RelationType": "Default Component Of"
      },
      {
        "ProductReference": "libavdevice-devel-3.1.6-5.1",
        "RelatesToProductReference": "SUSE Package Hub 12 SP2",
        "RelationType": "Default Component Of"
      },
      {
        "ProductReference": "libavdevice56-2.8.10-9.1",
        "RelatesToProductReference": "SUSE Package Hub 12 SP2",
        "RelationType": "Default Component Of"
      },
      {
        "ProductReference": "libavdevice57-3.1.6-5.1",
        "RelatesToProductReference": "SUSE Package Hub 12 SP2",
        "RelationType": "Default Component Of"
      },
      {
        "ProductReference": "libavfilter-devel-3.1.6-5.1",
        "RelatesToProductReference": "SUSE Package Hub 12 SP2",
        "RelationType": "Default Component Of"
      },
      {
        "ProductReference": "libavfilter5-2.8.10-9.1",
        "RelatesToProductReference": "SUSE Package Hub 12 SP2",
        "RelationType": "Default Component Of"
      },
      {
        "ProductReference": "libavfilter6-3.1.6-5.1",
        "RelatesToProductReference": "SUSE Package Hub 12 SP2",
        "RelationType": "Default Component Of"
      },
      {
        "ProductReference": "libavformat-devel-3.1.6-5.1",
        "RelatesToProductReference": "SUSE Package Hub 12 SP2",
        "RelationType": "Default Component Of"
      },
      {
        "ProductReference": "libavformat56-2.8.10-9.1",
        "RelatesToProductReference": "SUSE Package Hub 12 SP2",
        "RelationType": "Default Component Of"
      },
      {
        "ProductReference": "libavformat57-3.1.6-5.1",
        "RelatesToProductReference": "SUSE Package Hub 12 SP2",
        "RelationType": "Default Component Of"
      },
      {
        "ProductReference": "libavresample-devel-3.1.6-5.1",
        "RelatesToProductReference": "SUSE Package Hub 12 SP2",
        "RelationType": "Default Component Of"
      },
      {
        "ProductReference": "libavresample2-2.8.10-9.1",
        "RelatesToProductReference": "SUSE Package Hub 12 SP2",
        "RelationType": "Default Component Of"
      },
      {
        "ProductReference": "libavresample3-3.1.6-5.1",
        "RelatesToProductReference": "SUSE Package Hub 12 SP2",
        "RelationType": "Default Component Of"
      },
      {
        "ProductReference": "libavutil-devel-3.1.6-5.1",
        "RelatesToProductReference": "SUSE Package Hub 12 SP2",
        "RelationType": "Default Component Of"
      },
      {
        "ProductReference": "libavutil54-2.8.10-9.1",
        "RelatesToProductReference": "SUSE Package Hub 12 SP2",
        "RelationType": "Default Component Of"
      },
      {
        "ProductReference": "libavutil55-3.1.6-5.1",
        "RelatesToProductReference": "SUSE Package Hub 12 SP2",
        "RelationType": "Default Component Of"
      },
      {
        "ProductReference": "libpostproc-devel-3.1.6-5.1",
        "RelatesToProductReference": "SUSE Package Hub 12 SP2",
        "RelationType": "Default Component Of"
      },
      {
        "ProductReference": "libpostproc53-2.8.10-9.1",
        "RelatesToProductReference": "SUSE Package Hub 12 SP2",
        "RelationType": "Default Component Of"
      },
      {
        "ProductReference": "libpostproc54-3.1.6-5.1",
        "RelatesToProductReference": "SUSE Package Hub 12 SP2",
        "RelationType": "Default Component Of"
      },
      {
        "ProductReference": "libswresample-devel-3.1.6-5.1",
        "RelatesToProductReference": "SUSE Package Hub 12 SP2",
        "RelationType": "Default Component Of"
      },
      {
        "ProductReference": "libswresample1-2.8.10-9.1",
        "RelatesToProductReference": "SUSE Package Hub 12 SP2",
        "RelationType": "Default Component Of"
      },
      {
        "ProductReference": "libswresample2-3.1.6-5.1",
        "RelatesToProductReference": "SUSE Package Hub 12 SP2",
        "RelationType": "Default Component Of"
      },
      {
        "ProductReference": "libswscale-devel-3.1.6-5.1",
        "RelatesToProductReference": "SUSE Package Hub 12 SP2",
        "RelationType": "Default Component Of"
      },
      {
        "ProductReference": "libswscale3-2.8.10-9.1",
        "RelatesToProductReference": "SUSE Package Hub 12 SP2",
        "RelationType": "Default Component Of"
      },
      {
        "ProductReference": "libswscale4-3.1.6-5.1",
        "RelatesToProductReference": "SUSE Package Hub 12 SP2",
        "RelationType": "Default Component Of"
      }
    ]
  },
  "References": [
    {
      "URL": "https://www.suse.com/support/security/rating/",
      "Description": "SUSE Security Ratings"
    },
    {
      "URL": "https://bugzilla.suse.com/1022920",
      "Description": "SUSE Bug 1022920"
    },
    {
      "URL": "https://www.suse.com/security/cve/CVE-2016-10190/",
      "Description": "SUSE CVE CVE-2016-10190 page"
    }
  ],
  "Vulnerabilities": [
    {
      "CVE": "CVE-2016-10190",
      "Description": "Heap-based buffer overflow in libavformat/http.c in FFmpeg before 2.8.10, 3.0.x before 3.0.5, 3.1.x before 3.1.6, and 3.2.x before 3.2.2 allows remote web servers to execute arbitrary code via a negative chunk size in an HTTP response.",
      "Threats": [
        {
          "Type": "Impact",
          "Severity": "moderate"
        }
      ],
      "References": [
        {
          "URL": "https://www.suse.com/security/cve/CVE-2016-10190.html",
          "Description": "CVE-2016-10190"
        },
        {
          "URL": "https://bugzilla.suse.com/1022920",
          "Description": "SUSE Bug 1022920"
        }
      ],
      "ProductStatuses": [
        {
          "Type": "Fixed",
          "ProductID": [
            "SUSE Package Hub 12 SP1:ffmpeg-3.1.6-5.1",
            "SUSE Package Hub 12 SP1:ffmpeg-devel-2.8.10-9.1",
            "SUSE Package Hub 12 SP1:libavcodec-devel-3.1.6-5.1",
            "SUSE Package Hub 12 SP1:libavcodec56-2.8.10-9.1",
            "SUSE Package Hub 12 SP1:libavcodec57-3.1.6-5.1",
            "SUSE Package Hub 12 SP1:libavdevice-devel-3.1.6-5.1",
            "SUSE Package Hub 12 SP1:libavdevice56-2.8.10-9.1",
            "SUSE Package Hub 12 SP1:libavdevice57-3.1.6-5.1",
            "SUSE Package Hub 12 SP1:libavfilter-devel-3.1.6-5.1",
            "SUSE Package Hub 12 SP1:libavfilter5-2.8.10-9.1",
            "SUSE Package Hub 12 SP1:libavfilter6-3.1.6-5.1",
            "SUSE Package Hub 12 SP1:libavformat-devel-3.1.6-5.1",
            "SUSE Package Hub 12 SP1:libavformat56-2.8.10-9.1",
            "SUSE Package Hub 12 SP1:libavformat57-3.1.6-5.1",
            "SUSE Package Hub 12 SP1:libavresample-devel-3.1.6-5.1",
            "SUSE Package Hub 12 SP1:libavresample2-2.8.10-9.1",
            "SUSE Package Hub 12 SP1:libavresample3-3.1.6-5.1",
            "SUSE Package Hub 12 SP1:libavutil-devel-3.1.6-5.1",
            "SUSE Package Hub 12 SP1:libavutil54-2.8.10-9.1",
            "SUSE Package Hub 12 SP1:libavutil55-3.1.6-5.1",
            "SUSE Package Hub 12 SP1:libpostproc-devel-3.1.6-5.1",
            "SUSE Package Hub 12 SP1:libpostproc53-2.8.10-9.1",
            "SUSE Package Hub 12 SP1:libpostproc54-3.1.6-5.1",
            "SUSE Package Hub 12 SP1:libswresample-devel-3.1.6-5.1",
            "SUSE Package Hub 12 SP1:libswresample1-2.8.10-9.1",
            "SUSE Package Hub 12 SP1:libswresample2-3.1.6-5.1",
            "SUSE Package Hub 12 SP1:libswscale-devel-3.1.6-5.1",
            "SUSE Package Hub 12 SP1:libswscale3-2.8.10-9.1",
            "SUSE Package Hub 12 SP1:libswscale4-3.1.6-5.1",
            "SUSE Package Hub 12 SP2:ffmpeg-3.1.6-5.1",
            "SUSE Package Hub 12 SP2:ffmpeg-devel-2.8.10-9.1",
            "SUSE Package Hub 12 SP2:libavcodec-devel-3.1.6-5.1",
            "SUSE Package Hub 12 SP2:libavcodec56-2.8.10-9.1",
            "SUSE Package Hub 12 SP2:libavcodec57-3.1.6-5.1",
            "SUSE Package Hub 12 SP2:libavdevice-devel-3.1.6-5.1",
            "SUSE Package Hub 12 SP2:libavdevice56-2.8.10-9.1",
            "SUSE Package Hub 12 SP2:libavdevice57-3.1.6-5.1",
            "SUSE Package Hub 12 SP2:libavfilter-devel-3.1.6-5.1",
            "SUSE Package Hub 12 SP2:libavfilter5-2.8.10-9.1",
            "SUSE Package Hub 12 SP2:libavfilter6-3.1.6-5.1",
            "SUSE Package Hub 12 SP2:libavformat-devel-3.1.6-5.1",
            "SUSE Package Hub 12 SP2:libavformat56-2.8.10-9.1",
            "SUSE Package Hub 12 SP2:libavformat57-3.1.6-5.1",
            "SUSE Package Hub 12 SP2:libavresample-devel-3.1.6-5.1",
            "SUSE Package Hub 12 SP2:libavresample2-2.8.10-9.1",
            "SUSE Package Hub 12 SP2:libavresample3-3.1.6-5.1",
            "SUSE Package Hub 12 SP2:libavutil-devel-3.1.6-5.1",
            "SUSE Package Hub 12 SP2:libavutil54-2.8.10-9.1",
            "SUSE Package Hub 12 SP2:libavutil55-3.1.6-5.1",
            "SUSE Package Hub 12 SP2:libpostproc-devel-3.1.6-5.1",
            "SUSE Package Hub 12 SP2:libpostproc53-2.8.10-9.1",
            "SUSE Package Hub 12 SP2:libpostproc54-3.1.6-5.1",
            "SUSE Package Hub 12 SP2:libswresample-devel-3.1.6-5.1",
            "SUSE Package Hub 12 SP2:libswresample1-2.8.10-9.1",
            "SUSE Package Hub 12 SP2:libswresample2-3.1.6-5.1",
            "SUSE Package Hub 12 SP2:libswscale-devel-3.1.6-5.1",
            "SUSE Package Hub 12 SP2:libswscale3-2.8.10-9.1",
            "SUSE Package Hub 12 SP2:libswscale4-3.1.6-5.1"
          ]
        }
      ],
      "CVSSScoreSets": {}
    }
  ]
}