{
  "Title": "Security update for redis",
  "Tracking": {
    "ID": "openSUSE-SU-2017:2994-1",
    "Status": "Final",
    "Version": "1",
    "InitialReleaseDate": "2017-11-10T13:02:13Z",
    "CurrentReleaseDate": "2017-11-10T13:02:13Z",
    "RevisionHistory": [
      {
        "Number": "1",
        "Date": "2017-11-10T13:02:13Z",
        "Description": "current"
      }
    ]
  },
  "Notes": [
    {
      "Text": "Security update for redis",
      "Title": "Topic",
      "Type": "Summary"
    },
    {
      "Text": "This update for redis to version 4.0.2 fixes the following issues:\n\n- CVE-2016-8339: CONFIG SET client-output-buffer-limit Code Execution Vulnerability (boo#1002351)\n\nThe following upstream changes are included:\n   \n- SLOWLOG now logs the offending client name and address\n- The modules native data types RDB format changed.\n- The AOF check utility is now able to deal with RDB preambles.\n- GEORADIUS_RO and GEORADIUSBYMEMBER_RO variants, not supporting the STORE option,\n  were added in order to allow read-only scaling of such queries.\n- HSET is now variadic, and HMSET is considered deprecated\n- GEORADIUS huge radius (\u003e= ~6000 km) corner cases fixed\n- HyperLogLog commands no longer crash on certain input (non HLL) strings.\n- Fixed SLAVEOF inside MULTI/EXEC blocks.\n- TCP binding bug fixed when only certain addresses were available for a given por\n- MIGRATE could crash the server after a socket error \n  ",
      "Title": "Details",
      "Type": "General"
    },
    {
      "Text": "The CVRF data is provided by SUSE under the Creative Commons License 4.0 with Attribution (CC-BY-4.0).",
      "Title": "Terms of Use",
      "Type": "Legal Disclaimer"
    },
    {
      "Text": "openSUSE-2017-1258",
      "Title": "Patchnames",
      "Type": "Details"
    }
  ],
  "ProductTree": {
    "Relationships": [
      {
        "ProductReference": "redis-4.0.2-9.1",
        "RelatesToProductReference": "SUSE Package Hub 12",
        "RelationType": "Default Component Of"
      }
    ]
  },
  "References": [
    {
      "URL": "https://www.suse.com/support/security/rating/",
      "Description": "SUSE Security Ratings"
    },
    {
      "URL": "https://bugzilla.suse.com/1064980",
      "Description": "SUSE Bug 1064980"
    },
    {
      "URL": "https://www.suse.com/security/cve/CVE-2016-10517/",
      "Description": "SUSE CVE CVE-2016-10517 page"
    }
  ],
  "Vulnerabilities": [
    {
      "CVE": "CVE-2016-10517",
      "Description": "networking.c in Redis before 3.2.7 allows \"Cross Protocol Scripting\" because it lacks a check for POST and Host: strings, which are not valid in the Redis protocol (but commonly occur when an attack triggers an HTTP request to the Redis TCP port).",
      "Threats": [
        {
          "Type": "Impact",
          "Severity": "important"
        }
      ],
      "References": [
        {
          "URL": "https://www.suse.com/security/cve/CVE-2016-10517.html",
          "Description": "CVE-2016-10517"
        },
        {
          "URL": "https://bugzilla.suse.com/1064980",
          "Description": "SUSE Bug 1064980"
        }
      ],
      "ProductStatuses": [
        {
          "Type": "Fixed",
          "ProductID": [
            "SUSE Package Hub 12:redis-4.0.2-9.1"
          ]
        }
      ],
      "CVSSScoreSets": {}
    }
  ]
}