{
  "name": "libebml",
  "secfixes": {
    "1.3.6-r0": [
      "CVE-2019-13615"
    ],
    "1.4.2-r0": [
      "CVE-2021-3405"
    ],
    "1.4.5-r0": [
      "CVE-2023-52339"
    ]
  },
  "apkurl": "{{urlprefix}}/{{distroversion}}/{{reponame}}/{{arch}}/{{pkg.name}}-{{pkg.ver}}.apk",
  "archs": [
    "aarch64",
    "armhf",
    "armv7",
    "ppc64le",
    "riscv64",
    "s390x",
    "x86",
    "x86_64"
  ],
  "urlprefix": "https://dl-cdn.alpinelinux.org/alpine",
  "reponame": "community",
  "distroversion": "edge"
}