{
  "name": "postgresql14",
  "secfixes": {
    "10.1-r0": [
      "CVE-2017-15098",
      "CVE-2017-15099"
    ],
    "10.2-r0": [
      "CVE-2018-1052",
      "CVE-2018-1053"
    ],
    "10.3-r0": [
      "CVE-2018-1058"
    ],
    "10.4-r0": [
      "CVE-2018-1115"
    ],
    "10.5-r0": [
      "CVE-2018-10915",
      "CVE-2018-10925"
    ],
    "11.1-r0": [
      "CVE-2018-16850"
    ],
    "11.3-r0": [
      "CVE-2019-10129",
      "CVE-2019-10130"
    ],
    "11.4-r0": [
      "CVE-2019-10164"
    ],
    "11.5-r0": [
      "CVE-2019-10208",
      "CVE-2019-10209"
    ],
    "12.2-r0": [
      "CVE-2020-1720"
    ],
    "12.4-r0": [
      "CVE-2020-14349",
      "CVE-2020-14350"
    ],
    "12.5-r0": [
      "CVE-2020-25694",
      "CVE-2020-25695",
      "CVE-2020-25696"
    ],
    "13.2-r0": [
      "CVE-2021-3393",
      "CVE-2021-20229"
    ],
    "13.3-r0": [
      "CVE-2021-32027",
      "CVE-2021-32028",
      "CVE-2021-32029"
    ],
    "13.4-r0": [
      "CVE-2021-3677"
    ],
    "14.1-r0": [
      "CVE-2021-23214",
      "CVE-2021-23222"
    ],
    "14.10-r0": [
      "CVE-2023-5868",
      "CVE-2023-5869",
      "CVE-2023-5870"
    ],
    "14.11-r0": [
      "CVE-2024-0985"
    ],
    "14.3-r0": [
      "CVE-2022-1552"
    ],
    "14.5-r0": [
      "CVE-2022-2625"
    ],
    "14.7-r0": [
      "CVE-2022-41862"
    ],
    "14.8-r0": [
      "CVE-2023-2454",
      "CVE-2023-2455"
    ],
    "14.9-r0": [
      "CVE-2023-39418",
      "CVE-2023-39417"
    ],
    "9.6.3-r0": [
      "CVE-2017-7484",
      "CVE-2017-7485",
      "CVE-2017-7486"
    ],
    "9.6.4-r0": [
      "CVE-2017-7546",
      "CVE-2017-7547",
      "CVE-2017-7548"
    ]
  },
  "apkurl": "{{urlprefix}}/{{distroversion}}/{{reponame}}/{{arch}}/{{pkg.name}}-{{pkg.ver}}.apk",
  "archs": [
    "aarch64",
    "armhf",
    "armv7",
    "ppc64le",
    "riscv64",
    "s390x",
    "x86",
    "x86_64"
  ],
  "urlprefix": "https://dl-cdn.alpinelinux.org/alpine",
  "reponame": "community",
  "distroversion": "edge"
}