{
  "name": "py3-pillow",
  "secfixes": {
    "10.2.0-r0": [
      "CVE-2023-50447"
    ],
    "10.3.0-r0": [
      "CVE-2024-28219"
    ],
    "6.2.2-r0": [
      "CVE-2019-19911",
      "CVE-2020-5310",
      "CVE-2020-5311",
      "CVE-2020-5312",
      "CVE-2020-5313"
    ],
    "8.1.0-r0": [
      "CVE-2020-35653",
      "CVE-2020-35654",
      "CVE-2020-35655"
    ],
    "8.1.2-r0": [
      "CVE-2021-25289",
      "CVE-2021-25290",
      "CVE-2021-25291",
      "CVE-2021-25292",
      "CVE-2021-25293",
      "CVE-2021-27921",
      "CVE-2021-27922",
      "CVE-2021-27923"
    ],
    "8.2.0-r0": [
      "CVE-2021-25287",
      "CVE-2021-25288",
      "CVE-2021-28675",
      "CVE-2021-28676",
      "CVE-2021-28677",
      "CVE-2021-28678"
    ],
    "8.3.0-r0": [
      "CVE-2021-34552"
    ],
    "8.4.0-r0": [
      "CVE-2021-23437"
    ],
    "9.0.0-r0": [
      "CVE-2022-22815",
      "CVE-2022-22816"
    ],
    "9.0.1-r0": [
      "CVE-2022-24303",
      "CVE-2022-22817"
    ],
    "9.1.1-r0": [
      "CVE-2022-30595"
    ]
  },
  "apkurl": "{{urlprefix}}/{{distroversion}}/{{reponame}}/{{arch}}/{{pkg.name}}-{{pkg.ver}}.apk",
  "archs": [
    "aarch64",
    "armhf",
    "armv7",
    "ppc64le",
    "riscv64",
    "s390x",
    "x86",
    "x86_64"
  ],
  "urlprefix": "https://dl-cdn.alpinelinux.org/alpine",
  "reponame": "community",
  "distroversion": "edge"
}