{
  "name": "openjdk11",
  "secfixes": {
    "11.0.12_p7-r0": [
      "CVE-2021-2341",
      "CVE-2021-2369",
      "CVE-2021-2388"
    ],
    "11.0.13_p8-r0": [
      "CVE-2021-35567",
      "CVE-2021-35550",
      "CVE-2021-35586",
      "CVE-2021-35564",
      "CVE-2021-35556",
      "CVE-2021-35559",
      "CVE-2021-35561",
      "CVE-2021-35565",
      "CVE-2021-35578",
      "CVE-2021-35603"
    ],
    "11.0.14_p9-r0": [
      "CVE-2022-21291",
      "CVE-2022-21305",
      "CVE-2022-21277",
      "CVE-2022-21360",
      "CVE-2022-21365",
      "CVE-2022-21366",
      "CVE-2022-21282",
      "CVE-2022-21296",
      "CVE-2022-21299",
      "CVE-2022-21271",
      "CVE-2022-21283",
      "CVE-2022-21293",
      "CVE-2022-21294",
      "CVE-2022-21340",
      "CVE-2022-21341",
      "CVE-2022-21248"
    ],
    "11.0.15_p10-r0": [
      "CVE-2021-44531",
      "CVE-2021-44532",
      "CVE-2021-44533",
      "CVE-2022-0778",
      "CVE-2022-21476",
      "CVE-2022-21426",
      "CVE-2022-21496",
      "CVE-2022-21434",
      "CVE-2022-21443",
      "CVE-2022-21824"
    ],
    "11.0.16_p8-r0": [
      "CVE-2022-21540",
      "CVE-2022-21541",
      "CVE-2022-21549",
      "CVE-2022-25647",
      "CVE-2022-34169"
    ],
    "11.0.17_p8-r0": [
      "CVE-2022-21628",
      "CVE-2022-21626",
      "CVE-2022-39399",
      "CVE-2022-21624",
      "CVE-2022-21619"
    ],
    "11.0.18_p10-r0": [
      "CVE-2023-21835",
      "CVE-2023-21843"
    ],
    "11.0.19_p7-r0": [
      "CVE-2023-21930",
      "CVE-2023-21967",
      "CVE-2023-21954",
      "CVE-2023-21939",
      "CVE-2023-21938",
      "CVE-2023-21968",
      "CVE-2023-21937"
    ],
    "11.0.20_p8-r0": [
      "CVE-2023-22041",
      "CVE-2023-25193",
      "CVE-2023-22045",
      "CVE-2023-22049",
      "CVE-2023-22036",
      "CVE-2023-22006"
    ],
    "11.0.21_p9-r0": [
      "CVE-2023-22081"
    ],
    "11.0.22_p7-r0": [
      "CVE-2024-20918",
      "CVE-2024-20952",
      "CVE-2024-20919",
      "CVE-2024-20921",
      "CVE-2024-20926",
      "CVE-2024-20945"
    ],
    "11.0.23_p9-r0": [
      "CVE-2024-21085",
      "CVE-2024-21011",
      "CVE-2024-21068",
      "CVE-2024-21094",
      "CVE-2024-21012"
    ],
    "11.0.4_p11-r0": [
      "CVE-2019-2745",
      "CVE-2019-2762",
      "CVE-2019-2766",
      "CVE-2019-2769",
      "CVE-2019-2786",
      "CVE-2019-2816",
      "CVE-2019-2818",
      "CVE-2019-2821",
      "CVE-2019-7317"
    ],
    "11.0.5_p10-r0": [
      "CVE-2019-2894",
      "CVE-2019-2933",
      "CVE-2019-2945",
      "CVE-2019-2949",
      "CVE-2019-2958",
      "CVE-2019-2962",
      "CVE-2019-2964",
      "CVE-2019-2973",
      "CVE-2019-2975",
      "CVE-2019-2977",
      "CVE-2019-2978",
      "CVE-2019-2981",
      "CVE-2019-2983",
      "CVE-2019-2987",
      "CVE-2019-2988",
      "CVE-2019-2989",
      "CVE-2019-2992",
      "CVE-2019-2999"
    ],
    "11.0.6_p10-r0": [
      "CVE-2020-2583",
      "CVE-2020-2590",
      "CVE-2020-2593",
      "CVE-2020-2601",
      "CVE-2020-2604",
      "CVE-2020-2654",
      "CVE-2020-2655"
    ],
    "11.0.7_p10-r0": [
      "CVE-2020-2754",
      "CVE-2020-2755",
      "CVE-2020-2756",
      "CVE-2020-2757",
      "CVE-2020-2767",
      "CVE-2020-2773",
      "CVE-2020-2778",
      "CVE-2020-2781",
      "CVE-2020-2800",
      "CVE-2020-2803",
      "CVE-2020-2805",
      "CVE-2020-2816",
      "CVE-2020-2830"
    ],
    "11.0.8_p10-r0": [
      "CVE-2020-14556",
      "CVE-2020-14562",
      "CVE-2020-14573",
      "CVE-2020-14577",
      "CVE-2020-14581",
      "CVE-2020-14583",
      "CVE-2020-14593",
      "CVE-2020-14621"
    ],
    "11.0.9_p11-r0": [
      "CVE-2020-14779",
      "CVE-2020-14781",
      "CVE-2020-14782",
      "CVE-2020-14792",
      "CVE-2020-14796",
      "CVE-2020-14797",
      "CVE-2020-14798",
      "CVE-2020-14803"
    ]
  },
  "apkurl": "{{urlprefix}}/{{distroversion}}/{{reponame}}/{{arch}}/{{pkg.name}}-{{pkg.ver}}.apk",
  "archs": [
    "aarch64",
    "armhf",
    "armv7",
    "ppc64le",
    "s390x",
    "x86",
    "x86_64"
  ],
  "urlprefix": "https://dl-cdn.alpinelinux.org/alpine",
  "reponame": "community",
  "distroversion": "v3.19"
}